swda_filename,ptb_basename,conversation_no,transcript_index,act_tag,caller,utterance_index,subutterance_index,text,pos,trees,ptb_treenumbers
sw00utt/sw_0081_4380.utt,4/sw4380,4380,0,sd,A,1,1,"Recently graduated from high school.  Meaning like, {F uh, } {D you know, } three or four years ago.  /","Recently/RB graduated/VBD from/IN  [ high/JJ school/NN ] ./.  [ Meaning/VBG like/IN ] ,/,  [ uh/UH ] ,/,  [ you/PRP ] know/VBP ,/,  [ three/CD ] or/CC  [ four/CD years/NNS ] ago/RB ./.","(S (ADVP (RB Recently)) (NP-SBJ (-NONE- *)) (VP (VBD graduated) (PP (IN from) (NP (JJ high) (NN school))) (. .) (S-ADV (NP-SBJ (-NONE- *)) (VP (VBG Meaning) (INTJ (IN like)) (, ,) (INTJ (UH uh)) (PRN (, ,) (S (NP-SBJ (PRP you)) (VP (VBP know))) (, ,)) (ADVP-TMP (NP (QP (CD three) (CC or) (CD four)) (NNS years)) (RB ago))))) (. .) (-DFL- E_S))",1
sw00utt/sw_0081_4380.utt,4/sw4380,4380,1,sd,A,1,2,"I'm a senior [ in, + in, ] {F uh, } college now. /","[ I/PRP ] 'm/VBP  [ a/DT senior/NN ] in/IN ,/, in/IN ,/,  [ uh/UH ] ,/,  [ college/NN ] now/RB ./.","(S (NP-SBJ (PRP I)) (VP (VBP 'm) (NP-PRD (NP (DT a) (NN senior)) (EDITED (RM (-DFL- \[)) (PP-UNF (IN in)) (, ,) (IP (-DFL- \+))) (PP (IN in) (, ,) (RS (-DFL- \])) (INTJ (UH uh)) (, ,) (NP (NN college)))) (ADVP-TMP (RB now))) (. .) (-DFL- E_S))",2
sw00utt/sw_0081_4380.utt,4/sw4380,4380,2,b,B,2,1,Uh-huh. /,[ Uh-huh/UH ] ./.,(INTJ (UH Uh-huh) (. .) (-DFL- E_S)),4
sw00utt/sw_0081_4380.utt,4/sw4380,4380,3,sd,A,3,1,"{C And, } {F uh, } I can't really talk too much about <laughter> the problems with, {F uh, } public education in detail because the school system I went to was, {F uh, } really superb even though it was a # public school # --","And/CC ,/,  [ uh/UH ] ,/,  [ I/PRP ] ca/MD n't/RB really/RB talk/VB too/RB much/RB about/IN  [ the/DT problems/NNS ] with/IN ,/,  [ uh/UH ] ,/,  [ public/JJ education/NN ] in/IN  [ detail/NN ] because/IN  [ the/DT school/NN system/NN ] [ I/PRP ] went/VBD to/IN was/VBD ,/,  [ uh/UH ] ,/, really/RB superb/JJ even/RB though/IN  [ it/PRP ] was/VBD  [ a/DT public/JJ school/NN ] --/:","(S (CC And) (, ,) (INTJ (UH uh)) (, ,) (NP-SBJ (PRP I)) (VP (MD ca) (RB n't) (ADVP (RB really)) (VP (VB talk) (ADVP (RB too) (RB much)) (PP (IN about) (NP (NP (DT the) (NNS problems)) (PP (IN with) (, ,) (INTJ (UH uh)) (, ,) (NP (JJ public) (NN education))))) (PP (IN in) (NP (NN detail))) (SBAR-PRP (IN because) (S (NP-SBJ (NP (DT the) (NN school) (NN system)) (SBAR (WHNP-1 (-NONE- 0)) (S (NP-SBJ (PRP I)) (VP (VBD went) (PP (IN to) (NP (-NONE- *T*-1))))))) (VP (VBD was) (, ,) (INTJ (UH uh)) (, ,) (ADJP-PRD (RB really) (JJ superb)) (SBAR-ADV (RB even) (IN though) (S (NP-SBJ (PRP it)) (VP (VBD was) (NP-PRD (DT a) (JJ public) (NN school) (NN system)))))))))) (. .) (-DFL- E_S))",6
sw00utt/sw_0081_4380.utt,4/sw4380,4380,4,bh,B,4,1,# Really? # /,Really/UH ?/.,(INTJ (UH Really) (. ?) (-DFL- E_S)),8
sw00utt/sw_0081_4380.utt,4/sw4380,4380,5,+,A,5,1,-- system. /,--/:  [ system/NN ] ./.,"(S (CC And) (, ,) (INTJ (UH uh)) (, ,) (NP-SBJ (PRP I)) (VP (MD ca) (RB n't) (ADVP (RB really)) (VP (VB talk) (ADVP (RB too) (RB much)) (PP (IN about) (NP (NP (DT the) (NNS problems)) (PP (IN with) (, ,) (INTJ (UH uh)) (, ,) (NP (JJ public) (NN education))))) (PP (IN in) (NP (NN detail))) (SBAR-PRP (IN because) (S (NP-SBJ (NP (DT the) (NN school) (NN system)) (SBAR (WHNP-1 (-NONE- 0)) (S (NP-SBJ (PRP I)) (VP (VBD went) (PP (IN to) (NP (-NONE- *T*-1))))))) (VP (VBD was) (, ,) (INTJ (UH uh)) (, ,) (ADJP-PRD (RB really) (JJ superb)) (SBAR-ADV (RB even) (IN though) (S (NP-SBJ (PRP it)) (VP (VBD was) (NP-PRD (DT a) (JJ public) (NN school) (NN system)))))))))) (. .) (-DFL- E_S))",6
sw00utt/sw_0081_4380.utt,4/sw4380,4380,6,ny,B,6,1,Yeah.  /,Yeah/UH ./.,(INTJ (UH Yeah) (. .) (-DFL- E_S)),11
sw00utt/sw_0081_4380.utt,4/sw4380,4380,7,sv,B,6,2,"I feel that my, {F uh, } - /","[ I/PRP ] feel/VBP that/IN  [ my/PRP$ ] ,/,  [ uh/UH ] ,/,","(S (NP-SBJ (PRP I)) (VP (VBP feel) (SBAR (IN that) (S (NP-SBJ-UNF (PRP$ my)) (, ,) (INTJ (UH uh))))) (, ,) (-DFL- N_S))",12
sw00utt/sw_0081_4380.utt,4/sw4380,4380,8,sd,B,6,3,I'm a junior in college now.  /,[ I/PRP ] 'm/VBP  [ a/DT junior/NN ] in/IN  [ college/NN ] now/RB ./.,(S (NP-SBJ (PRP I)) (VP (VBP 'm) (NP-PRD (NP (DT a) (NN junior)) (PP (IN in) (NP (NN college)))) (ADVP-TMP (RB now))) (. .) (-DFL- E_S)),13
sw00utt/sw_0081_4380.utt,4/sw4380,4380,9,sd,B,6,4,# {C And } # --,And/CC --/:,"(S (CC And) (NP-SBJ (PRP I)) (VP (VBP go) (PP (IN to) (NP (NP (NNP Tech)) (, ,) (NP (NNP Georgia) (NNP Tech))))) (. ?) (-DFL- E_S))",14
sw00utt/sw_0081_4380.utt,4/sw4380,4380,10,b,A,7,1,# Oh.  #  /,Oh/UH ./.,(INTJ (UH Oh) (. .) (-DFL- E_S)),16
sw00utt/sw_0081_4380.utt,4/sw4380,4380,11,sd,A,7,2,Okay. /,Okay/UH ./.,(INTJ (UH Okay) (. .) (-DFL- E_S)),17
sw00utt/sw_0081_4380.utt,4/sw4380,4380,12,+,B,8,1,"-- I go to Tech, Georgia Tech? /","--/:  [ I/PRP ] go/VBP to/IN  [ Tech/NNP ] ,/,  [ Georgia/NNP Tech/NNP ] ?/.","(S (CC And) (NP-SBJ (PRP I)) (VP (VBP go) (PP (IN to) (NP (NP (NNP Tech)) (, ,) (NP (NNP Georgia) (NNP Tech))))) (. ?) (-DFL- E_S))",14
sw00utt/sw_0081_4380.utt,4/sw4380,4380,13,b,A,9,1,Yeah. /,Yeah/UH ./.,(INTJ (UH Yeah) (. .) (-DFL- E_S)),11
sw00utt/sw_0081_4380.utt,4/sw4380,4380,14,%,B,10,1,"# {C And } I, # -/","And/CC  [ I/PRP ] ,/,","(S-UNF (CC And) (NP-SBJ (PRP I)) (, ,) (-DFL- N_S))",22
sw00utt/sw_0081_4380.utt,4/sw4380,4380,15,sd,A,11,1,"# I got # a friend who goes there, by the way <laughter>.  /","[ I/PRP ] got/VBD  [ a/DT friend/NN ] [ who/WP ] goes/VBZ there/RB ,/, by/IN  [ the/DT way/NN ] ./.","(S (NP-SBJ (PRP I)) (VP (VBD got) (NP (NP (DT a) (NN friend)) (SBAR (WHNP-1 (WP who)) (S (NP-SBJ (-NONE- *T*-1)) (VP (VBZ goes) (ADVP-LOC (RB there))))) (, ,) (PP (IN by) (NP (DT the) (NN way))))) (. .) (-DFL- E_S))",24
sw00utt/sw_0081_4380.utt,4/sw4380,4380,16,sd,A,11,2,"I want to [ as-, + talk ] to you about that # afterward,  /","[ I/PRP ] want/VBP to/TO as-/XX ,/, talk/VB to/IN  [ you/PRP ] about/IN that/DT afterward/RB ,/,","(S (NP-SBJ-1 (PRP I)) (VP (VBP want) (S (NP-SBJ (-NONE- *-1)) (VP (TO to) (EDITED (RM (-DFL- \[)) (VP-UNF (XX as-)) (, ,) (IP (-DFL- \+))) (VP (VB talk) (RS (-DFL- \])) (PP (IN to) (NP (PRP you))) (PP (IN about) (NP (DT that))) (ADVP-TMP (RB afterward)))))) (, ,) (-DFL- E_S))",25
sw00utt/sw_0081_4380.utt,4/sw4380,4380,17,^g,A,11,3,okay. # /,okay/UH ./.,(INTJ (UH okay) (. .) (-DFL- E_S)),26
sw00utt/sw_0081_4380.utt,4/sw4380,4380,18,na^r,B,12,1,# <Laughter> # Okay <sniffing>.  /,Okay/UH ./.,(INTJ (UH Okay) (. .) (-DFL- E_S)),17
sw00utt/sw_0081_4380.utt,4/sw4380,4380,19,%,B,12,2,"{F Uh, } I've, - /","[ Uh/UH ] ,/,  [ I/PRP ] 've/VBP ,/,","(S (INTJ (UH Uh)) (, ,) (NP-SBJ (PRP I)) (VP-UNF (VBP 've)) (, ,) (-DFL- N_S))",29
sw00utt/sw_0081_4380.utt,4/sw4380,4380,20,sd,B,12,3,"the high school I went to [ was, + {F uh, } was ] a good one also.  /","[ the/DT high/JJ school/NN ] [ I/PRP ] went/VBD to/IN was/VBD ,/,  [ uh/UH ] ,/, was/VBD  [ a/DT good/JJ one/NN ] also/RB ./.","(S (NP-SBJ (NP (DT the) (JJ high) (NN school)) (SBAR (WHNP-1 (-NONE- 0)) (S (NP-SBJ (PRP I)) (VP (VBD went) (PP (IN to) (NP (-NONE- *T*-1))))))) (EDITED (RM (-DFL- \[)) (VP-UNF (VBD was)) (, ,) (IP (-DFL- \+))) (INTJ (UH uh)) (, ,) (VP (VBD was) (RS (-DFL- \])) (NP-PRD (DT a) (JJ good) (NN one)) (ADVP (RB also))) (. .) (-DFL- E_S))",30
sw00utt/sw_0081_4380.utt,4/sw4380,4380,21,sv,B,12,4,"{C And } [ I, + {D well, } I ] guess you could say one of the problems with the public education system is the disparity between different schools.  /","And/CC  [ I/PRP ] ,/, well/UH ,/,  [ I/PRP ] guess/VBP  [ you/PRP ] could/MD say/VB  [ one/CD ] of/IN  [ the/DT problems/NNS ] with/IN  [ the/DT public/JJ education/NN system/NN ] is/VBZ  [ the/DT disparity/NN ] between/IN  [ different/JJ schools/NNS ] ./.","(S (CC And) (EDITED (RM (-DFL- \[)) (NP-SBJ (PRP I)) (, ,) (IP (-DFL- \+))) (INTJ (UH well)) (, ,) (NP-SBJ (PRP I)) (RS (-DFL- \])) (VP (VBP guess) (SBAR (-NONE- 0) (S (NP-SBJ (PRP you)) (VP (MD could) (VP (VB say) (SBAR (-NONE- 0) (S (NP-SBJ (NP (CD one)) (PP (IN of) (NP (NP (DT the) (NNS problems)) (PP (IN with) (NP (DT the) (JJ public) (NN education) (NN system)))))) (VP (VBZ is) (NP-PRD (NP (DT the) (NN disparity)) (PP (IN between) (NP (JJ different) (NNS schools)))))))))))) (. .) (-DFL- E_S))",31
sw00utt/sw_0081_4380.utt,4/sw4380,4380,22,sv,B,12,5,"{C Because } the one I went to was, {D you know, } I'm sure [ a, + a ] lot nicer than, {D you know, } a lot of the inner city schools and --","Because/IN  [ the/DT one/NN ] [ I/PRP ] went/VBD to/IN was/VBD ,/,  [ you/PRP ] know/VBP ,/,  [ I/PRP ] 'm/VBP sure/JJ  [ a/DT ] ,/,  [ a/DT lot/NN ] nicer/JJR than/IN ,/,  [ you/PRP ] know/VBP ,/,  [ a/DT lot/NN ] of/IN  [ the/DT inner/JJ city/NN schools/NNS ] and/CC --/:","(SBAR-PRP (IN Because) (S (NP-SBJ (NP (DT the) (NN one)) (SBAR (WHNP-1 (-NONE- 0)) (S (NP-SBJ (PRP I)) (VP (VBD went) (PP (IN to) (NP (-NONE- *T*-1))))))) (VP (VBD was) (PRN (, ,) (S (NP-SBJ (PRP you)) (VP (VBP know))) (, ,)) (PRN (S (NP-SBJ (PRP I)) (VP (VBP 'm) (ADJP-PRD (JJ sure))))) (EDITED (RM (-DFL- \[)) (ADJP-PRD-UNF (DT a)) (, ,) (IP (-DFL- \+))) (ADJP-PRD (ADJP (NP-ADV (DT a) (RS (-DFL- \])) (NN lot)) (JJR nicer)) (PP (IN than) (PRN (, ,) (S (NP-SBJ (PRP you)) (VP (VBP know))) (, ,)) (NP (NP (DT a) (NN lot)) (PP (IN of) (NP (NP (DT the) (JJ inner) (NN city) (NNS schools)) (CC and) (NP (NP (DT the) (NNS things)) (PP-LOC (IN around) (NP (NNP Atlanta))))))))))) (. .) (-DFL- E_S))",32
sw00utt/sw_0081_4380.utt,4/sw4380,4380,23,b,A,13,1,<Sniffing> Yeah. /,Yeah/UH ./.,(INTJ (UH Yeah) (. .) (-DFL- E_S)),11
sw00utt/sw_0081_4380.utt,4/sw4380,4380,24,+,B,14,1,-- the things around Atlanta. /,--/:  [ the/DT things/NNS ] around/IN  [ Atlanta/NNP ] ./.,"(SBAR-PRP (IN Because) (S (NP-SBJ (NP (DT the) (NN one)) (SBAR (WHNP-1 (-NONE- 0)) (S (NP-SBJ (PRP I)) (VP (VBD went) (PP (IN to) (NP (-NONE- *T*-1))))))) (VP (VBD was) (PRN (, ,) (S (NP-SBJ (PRP you)) (VP (VBP know))) (, ,)) (PRN (S (NP-SBJ (PRP I)) (VP (VBP 'm) (ADJP-PRD (JJ sure))))) (EDITED (RM (-DFL- \[)) (ADJP-PRD-UNF (DT a)) (, ,) (IP (-DFL- \+))) (ADJP-PRD (ADJP (NP-ADV (DT a) (RS (-DFL- \])) (NN lot)) (JJR nicer)) (PP (IN than) (PRN (, ,) (S (NP-SBJ (PRP you)) (VP (VBP know))) (, ,)) (NP (NP (DT a) (NN lot)) (PP (IN of) (NP (NP (DT the) (JJ inner) (NN city) (NNS schools)) (CC and) (NP (NP (DT the) (NNS things)) (PP-LOC (IN around) (NP (NNP Atlanta))))))))))) (. .) (-DFL- E_S))",32
sw00utt/sw_0081_4380.utt,4/sw4380,4380,25,b^r,A,15,1,Yeah.  /,Yeah/UH ./.,(INTJ (UH Yeah) (. .) (-DFL- E_S)),11
sw00utt/sw_0081_4380.utt,4/sw4380,4380,26,qy^d,A,15,2,"[ ((It was [ a, + a, ] + it's a)) ] more or less a suburban school system? /","[ It/PRP ] was/VBD  [ a/DT ] ,/,  [ a/DT ] ,/,  [ it/PRP ] 's/BES  [ a/DT more/JJR ] or/CC less/JJR  [ a/DT suburban/JJ school/NN system/NN ] ?/.","(S (EDITED (RM (-DFL- \[)) (S (NP-SBJ (PRP It)) (VP (VBD was) (EDITED (RM (-DFL- \[)) (NP-PRD-UNF (DT a)) (, ,) (IP (-DFL- \+))) (NP-PRD-UNF (DT a)))) (, ,) (RS (-DFL- \])) (IP (-DFL- \+))) (NP-SBJ (PRP it)) (VP (BES 's) (EDITED (NP-PRD-UNF (DT a))) (RS (-DFL- \])) (ADVP (JJR more) (CC or) (JJR less)) (NP-PRD (DT a) (JJ suburban) (NN school) (NN system))) (. ?) (-DFL- E_S))",38
sw00utt/sw_0081_4380.utt,4/sw4380,4380,27,ny,B,16,1,Yeah. /,Yeah/UH ./.,(INTJ (UH Yeah) (. .) (-DFL- E_S)),11
sw00utt/sw_0081_4380.utt,4/sw4380,4380,28,b,A,17,1,Yes.  /,Yes/UH ./.,(INTJ (UH Yes) (. .) (-DFL- E_S)),42
sw00utt/sw_0081_4380.utt,4/sw4380,4380,29,sd,A,17,2,"[ That, + that ] was true for mine too.  /","That/DT ,/, that/DT was/VBD true/JJ for/IN  [ mine/PRP ] too/RB ./.","(S (EDITED (RM (-DFL- \[)) (NP-SBJ (DT That)) (, ,) (IP (-DFL- \+))) (NP-SBJ (DT that)) (RS (-DFL- \])) (VP (VBD was) (ADJP-PRD (JJ true)) (PP (IN for) (NP (PRP mine))) (ADVP (RB too))) (. .) (-DFL- E_S))",43
sw00utt/sw_0081_4380.utt,4/sw4380,4380,30,sv,A,17,3,"{F Uh, } although I <throat_clearing> I'm sure to some extent, that money is part of the problem in the disparity, /","[ Uh/UH ] ,/, although/IN  [ I/PRP ] [ I/PRP ] 'm/VBP sure/JJ to/IN  [ some/DT extent/NN ] ,/,  [ that/DT money/NN ] is/VBZ  [ part/NN ] of/IN  [ the/DT problem/NN ] in/IN  [ the/DT disparity/NN ] ,/,","(SBAR-ADV (INTJ (UH Uh)) (, ,) (IN although) (S (EDITED (NP-SBJ (PRP I))) (NP-SBJ (PRP I)) (VP (VBP 'm) (ADJP-PRD (JJ sure) (SBAR (-NONE- 0) (S (PP (IN to) (NP (DT some) (NN extent))) (, ,) (NP-SBJ (DT that) (NN money)) (VP (VBZ is) (NP-PRD (NP (NN part)) (PP (IN of) (NP (DT the) (NN problem)))) (PP (IN in) (NP (DT the) (NN disparity))))))))) (, ,) (-DFL- E_S))",44
sw00utt/sw_0081_4380.utt,4/sw4380.pos,4380,31,x,B,18,1,<Sniffing>.,./.,,
sw00utt/sw_0081_4380.utt,4/sw4380,4380,32,sv,A,19,1,"{C but } [ I don't think, + I honestly don't think ] that's the biggest part of it.  /","but/CC  [ I/PRP ] do/VBP n't/RB think/VB ,/,  [ I/PRP ] honestly/RB do/VBP n't/RB think/VB  [ that/DT ] 's/BES  [ the/DT biggest/JJS part/NN ] of/IN  [ it/PRP ] ./.","(S (CC but) (EDITED (RM (-DFL- \[)) (S (NP-SBJ (PRP I)) (VP (VBP do) (RB n't) (VP-UNF (VB think)))) (, ,) (IP (-DFL- \+))) (NP-SBJ (PRP I)) (ADVP (RB honestly)) (VP (VBP do) (RB n't) (VP (VB think) (RS (-DFL- \])) (SBAR (-NONE- 0) (S (NP-SBJ (DT that)) (VP (BES 's) (NP-PRD (NP (DT the) (JJS biggest) (NN part)) (PP (IN of) (NP (PRP it))))))))) (. .) (-DFL- E_S))",47
sw00utt/sw_0081_4380.utt,4/sw4380,4380,33,sv,A,19,2,"# {D You know, } [ I # --","[ You/PRP ] know/VBP ,/,  [ I/PRP ] --/:","(S (PRN (S (NP-SBJ (PRP You)) (VP (VBP know))) (, ,)) (EDITED (RM (-DFL- \[)) (S (NP-SBJ (PRP I)) (VP (VBP think) (SBAR-UNF (DT that)))) (, ,) (IP (-DFL- \+))) (INTJ (UH uh)) (PRN (, ,) (S (NP-SBJ (PRP I)) (VP (VBP mean)))) (NP-SBJ (PRP I)) (VP (VBP know) (SBAR (IN that) (RS (-DFL- \])) (S (PP-LOC (IN in) (NP (PRP$ my) (NN town))) (PRN (, ,) (S (NP-SBJ (PRP you)) (VP (VBP know))) (, ,)) (EDITED (RM (-DFL- \[)) (NP-TPC (NP (JJS most)) (PP (IN of) (NP-UNF (DT the)))) (, ,) (IP (-DFL- \+))) (NP-TPC (NP (JJS most)) (PP (IN of) (NP (DT the) (RS (-DFL- \])) (NP (NNS parents))))) (, ,) (NP-SBJ (PRP they)) (X (VBP 're)) (VP (VBN valued) (NP (NN education)))))) (. .) (-DFL- E_S))",48
sw00utt/sw_0081_4380.utt,4/sw4380,4380,34,qw,B,20,1,"# What d-, # -/","[ What/WP ] [ d-/XX ] ,/,","(SBARQ (WHNP (WP What)) (SQ-UNF (XX d-)) (, ,) (-DFL- N_S))",50
sw00utt/sw_0081_4380.utt,4/sw4380,4380,35,+,A,21,1,"-- think that, + {F uh, } {E I mean } I know that ] in my town, {D you know, } [ most of the, + most of the ] parents, they're valued education.  /","--/: think/VBP  [ that/DT ] ,/,  [ uh/UH ] ,/,  [ I/PRP ] mean/VBP  [ I/PRP ] know/VBP that/IN in/IN  [ my/PRP$ town/NN ] ,/,  [ you/PRP ] know/VBP ,/, most/JJS of/IN  [ the/DT ] ,/, most/JJS of/IN  [ the/DT parents/NNS ] ,/,  [ they/PRP ] 're/VBP valued/","(S (PRN (S (NP-SBJ (PRP You)) (VP (VBP know))) (, ,)) (EDITED (RM (-DFL- \[)) (S (NP-SBJ (PRP I)) (VP (VBP think) (SBAR-UNF (DT that)))) (, ,) (IP (-DFL- \+))) (INTJ (UH uh)) (PRN (, ,) (S (NP-SBJ (PRP I)) (VP (VBP mean)))) (NP-SBJ (PRP I)) (VP (VBP know) (SBAR (IN that) (RS (-DFL- \])) (S (PP-LOC (IN in) (NP (PRP$ my) (NN town))) (PRN (, ,) (S (NP-SBJ (PRP you)) (VP (VBP know))) (, ,)) (EDITED (RM (-DFL- \[)) (NP-TPC (NP (JJS most)) (PP (IN of) (NP-UNF (DT the)))) (, ,) (IP (-DFL- \+))) (NP-TPC (NP (JJS most)) (PP (IN of) (NP (DT the) (RS (-DFL- \])) (NP (NNS parents))))) (, ,) (NP-SBJ (PRP they)) (X (VBP 're)) (VP (VBN valued) (NP (NN education)))))) (. .) (-DFL- E_S))",48
sw00utt/sw_0081_4380.utt,4/sw4380,4380,36,sv,A,21,2,"# [ {C And, } + {F uh } # --","And/CC ,/,  [ uh/UH ] --/:","(S (EDITED (RM (-DFL- \[)) (CC And) (, ,) (IP (-DFL- \+))) (INTJ (UH uh)) (PRN (S (NP-SBJ (PRP you)) (VP (VBP know))) (, ,)) (CONJP (CC and) (RB so)) (RS (-DFL- \])) (NP-SBJ-1 (DT the) (NNS students)) (VP (VBD were) (PRN (, ,) (S (NP-SBJ (PRP you)) (VP (VBP know))) (, ,)) (PP (IN to) (NP (DT some) (NN extent))) (, ,) (ADJP-PRD (JJ motivated) (S (NP-SBJ (-NONE- *-1)) (VP (TO to) (VP (VB learn)))))) (. .) (-DFL- E_S))",52
sw00utt/sw_0081_4380.utt,4/sw4380,4380,37,aa,B,22,1,"# Yeah,  /","Yeah/UH ,/,","(INTJ (UH Yeah) (, ,) (-DFL- E_S))",54
sw00utt/sw_0081_4380.utt,4/sw4380,4380,38,aa,B,22,2,that's # true. /,[ that/DT ] 's/BES true/JJ ./.,(S (NP-SBJ (DT that)) (VP (BES 's) (ADJP-PRD (JJ true))) (. .) (-DFL- E_S)),55
sw00utt/sw_0081_4380.utt,4/sw4380,4380,39,+,A,23,1,"-- {D you know, } {C and so } ] the students were, {D you know, } to some extent, motivated to <laughter> learn.  /","--/:  [ you/PRP ] know/VBP ,/, and/CC so/RB  [ the/DT students/NNS ] were/VBD ,/,  [ you/PRP ] know/VBP ,/, to/IN  [ some/DT extent/NN ] ,/, motivated/JJ to/TO learn/VB ./.","(S (EDITED (RM (-DFL- \[)) (CC And) (, ,) (IP (-DFL- \+))) (INTJ (UH uh)) (PRN (S (NP-SBJ (PRP you)) (VP (VBP know))) (, ,)) (CONJP (CC and) (RB so)) (RS (-DFL- \])) (NP-SBJ-1 (DT the) (NNS students)) (VP (VBD were) (PRN (, ,) (S (NP-SBJ (PRP you)) (VP (VBP know))) (, ,)) (PP (IN to) (NP (DT some) (NN extent))) (, ,) (ADJP-PRD (JJ motivated) (S (NP-SBJ (-NONE- *-1)) (VP (TO to) (VP (VB learn)))))) (. .) (-DFL- E_S))",52
sw00utt/sw_0081_4380.utt,4/sw4380,4380,40,%,A,23,2,I {E mean } --,[ I/PRP ] mean/VBP --/:,(S-UNF (PRN (S (NP-SBJ (PRP I)) (VP (VBP mean)))) (PRN (S (NP-SBJ (PRP you)) (VP (VBP know)))) (. .) (-DFL- N_S)),57
sw00utt/sw_0081_4380.utt,4/sw4380,4380,41,b,B,24,1,Yeah.  /,Yeah/UH ./.,"(INTJ (UH Yeah) (, ,) (-DFL- E_S))",54
sw00utt/sw_0081_4380.utt,4/sw4380,4380,42,%,B,24,2,# {C And } I'm also # -- -/,And/CC  [ I/PRP ] 'm/VBP also/RB --/:,(S (CC And) (NP-SBJ (PRP I)) (VP-UNF (VBP 'm) (ADVP (RB also))) (-DFL- N_S)),60
sw00utt/sw_0081_4380.utt,4/sw4380,4380,43,+,A,25,1,-- # {E ((you know })) <laughter>. # -/,--/:  [ you/PRP ] know/VBP ./.,(S-UNF (PRN (S (NP-SBJ (PRP I)) (VP (VBP mean)))) (PRN (S (NP-SBJ (PRP you)) (VP (VBP know)))) (. .) (-DFL- N_S)),57
sw00utt/sw_0081_4380.utt,4/sw4380,4380,44,sv,B,26,1,"-- {E I mean, } [ in the, + in those ] places where, {F uh, } {D like } the economy is really bad, they might, {D you know, } be more tempted [ to, + to ] quit school and get jobs and that kind of thing because they need the, {D you know, } money to put food on the table and stuff like that","--/:  [ I/PRP ] mean/VBP ,/, in/IN  [ the/DT ] ,/, in/IN  [ those/DT places/NNS ] where/WRB ,/,  [ uh/UH ] ,/, like/IN  [ the/DT economy/NN ] is/VBZ really/RB  [ bad/JJ ] ,/,  [ they/PRP ] might/MD ,/,  [ you/PRP ] know/VBP ,/, be/VB more/RBR tempted/JJ t","(S (PRN (S (NP-SBJ (PRP I)) (VP (VBP mean))) (, ,)) (EDITED (RM (-DFL- \[)) (PP-LOC (IN in) (NP-UNF (DT the))) (, ,) (IP (-DFL- \+))) (PP-LOC (IN in) (NP (NP (DT those) (RS (-DFL- \])) (NNS places)) (SBAR (WHADVP-1 (WRB where)) (, ,) (INTJ (UH uh)) (, ,) (INTJ (UH like)) (S (NP-SBJ (DT the) (NN economy)) (VP (VBZ is) (ADJP-PRD (RB really) (JJ bad)) (ADVP-LOC (-NONE- *T*-1))))))) (, ,) (NP-SBJ-2 (PRP they)) (VP (MD might) (PRN (, ,) (S (NP-SBJ (PRP you)) (VP (VBP know))) (, ,)) (VP (VB be) (ADVP (RBR more)) (VP (JJ tempted) (S (NP-SBJ (-NONE- *-2)) (EDITED (RM (-DFL- \[)) (VP-UNF (TO to)) (, ,) (IP (-DFL- \+))) (VP (TO to) (RS (-DFL- \])) (VP (VP (VB quit) (NP (NN school))) (CC and) (VP (VB get) (NP (NNS jobs))) (CC and) (NP-ETC (NP (DT that) (NN kind)) (PP (IN of) (NP (NN thing))))))) (SBAR-PRP (IN because) (S (NP-SBJ-3 (PRP they)) (VP (VBP need) (NP (DT the) (PRN (, ,) (S (NP-SBJ (PRP you)) (VP (VBP know))) (, ,)) (NN money)) (S-PRP (NP-SBJ (-NONE- *-3)) (VP (TO to) (VP (VP (VB put) (NP (NN food)) (PP-PUT (IN on) (NP (DT the) (NN table)))) (CC and) (NP-ETC (NP (NN stuff)) (PP (IN like) (NP (DT that))))))) (. .) (ADVP (ADVP (RBR More)) (SBAR (IN than) (S (NP-SBJ (PRP they)) (VP (MD would) (VP (-NONE- *?*) (PRN (, ,) (S (NP-SBJ (PRP you)) (VP (VBP know))) (, ,)) (PP-LOC (IN in) (NP (NP (NNS areas)) (SBAR (WHADVP (WRB where)) (S-UNF (NP-SBJ (PRP they))))))))))))))))) (-DFL- N_S))",63
sw00utt/sw_0081_4380.utt,4/sw4380,4380,45,%,B,26,2,"((yeah)), /","yeah/UH ,/,","(INTJ (UH yeah) (, ,) (-DFL- E_S))",64
sw00utt/sw_0081_4380.utt,4/sw4380,4380,46,aa,A,27,1,"<Inhaling> Yeah,  /","Yeah/UH ,/,","(INTJ (UH Yeah) (, ,) (-DFL- E_S))",54
sw00utt/sw_0081_4380.utt,4/sw4380,4380,47,aa,A,27,2,that's true.  /,[ that/DT ] 's/BES true/JJ ./.,(S (NP-SBJ (DT that)) (VP (BES 's) (ADJP-PRD (JJ true))) (. .) (-DFL- E_S)),55
sw00utt/sw_0081_4380.utt,4/sw4380,4380,48,sv,A,27,3,"[ {C But } + <throat_clearing>, {C but, } ] {F uh, } I think, {E I mean } even more than that, even, {E I mean } if you drop out in high school --","But/CC ,/, but/CC ,/,  [ uh/UH ] ,/,  [ I/PRP ] think/VBP ,/,  [ I/PRP ] mean/VBP even/RB more/JJR than/IN  [ that/DT ] ,/, even/RB ,/,  [ I/PRP ] mean/VBP if/IN  [ you/PRP ] drop/VBP out/IN in/IN  [ high/JJ school/NN ] --/:","(S (EDITED (RM (-DFL- \[)) (CC But) (IP (-DFL- \+))) (, ,) (CC but) (, ,) (RS (-DFL- \])) (INTJ (UH uh)) (, ,) (NP-SBJ (PRP I)) (VP (VBP think) (PRN (, ,) (S (NP-SBJ (PRP I)) (VP (VBP mean)))) (SBAR (-NONE- 0) (S (ADVP (ADVP (RB even) (JJR more)) (PP (IN than) (NP (DT that)))) (, ,) (SBAR-ADV (RB even) (PRN (, ,) (S (NP-SBJ (PRP I)) (VP (VBP mean)))) (IN if) (S (NP-SBJ (PRP you)) (VP (VBP drop) (PRT (IN out)) (PP (IN in) (NP (JJ high) (NN school)))))) (NP-SBJ-1 (PRP you)) (VP (MD should) (ADVP-TMP (RB still)) (VP (VP (VB be) (ADJP-PRD (JJ able) (S (NP-SBJ (-NONE- *-1)) (VP (TO to) (VP (VB read))))) (PRN (, ,) (S (NP-SBJ (PRP you)) (VP (VBP know))) (. ?))) (SBAR (WHNP-2 (WDT Which)) (S (EDITED (RM (-DFL- \[)) (NP-SBJ (PRP it)) (IP (-DFL- \+))) (X (XX MUMBLEx)) (PRN (, ,) (S (NP-SBJ (PRP I)) (VP (VBP mean)))) (NP-SBJ (NP (-NONE- *T*-2)) (NP (PRP it))) (RS (-DFL- \])) (VP (VBZ sounds) (PP-UNF (IN like)) (, ,) (INTJ (UH uh)))))))))) (, ,) (-DFL- N_S))",68
sw00utt/sw_0081_4380.utt,4/sw4380,4380,49,b,B,28,1,Uh-huh. /,[ Uh-huh/UH ] ./.,(INTJ (UH Uh-huh) (. .) (-DFL- E_S)),70
sw00utt/sw_0081_4380.utt,4/sw4380,4380,50,+,A,29,1,"-- you should still be able to read <laughter>, {D you know? }","--/:  [ you/PRP ] should/MD still/RB be/VB able/JJ to/TO read/VB ,/,  [ you/PRP ] know/VBP ?/.","(S (EDITED (RM (-DFL- \[)) (CC But) (IP (-DFL- \+))) (, ,) (CC but) (, ,) (RS (-DFL- \])) (INTJ (UH uh)) (, ,) (NP-SBJ (PRP I)) (VP (VBP think) (PRN (, ,) (S (NP-SBJ (PRP I)) (VP (VBP mean)))) (SBAR (-NONE- 0) (S (ADVP (ADVP (RB even) (JJR more)) (PP (IN than) (NP (DT that)))) (, ,) (SBAR-ADV (RB even) (PRN (, ,) (S (NP-SBJ (PRP I)) (VP (VBP mean)))) (IN if) (S (NP-SBJ (PRP you)) (VP (VBP drop) (PRT (IN out)) (PP (IN in) (NP (JJ high) (NN school)))))) (NP-SBJ-1 (PRP you)) (VP (MD should) (ADVP-TMP (RB still)) (VP (VP (VB be) (ADJP-PRD (JJ able) (S (NP-SBJ (-NONE- *-1)) (VP (TO to) (VP (VB read))))) (PRN (, ,) (S (NP-SBJ (PRP you)) (VP (VBP know))) (. ?))) (SBAR (WHNP-2 (WDT Which)) (S (EDITED (RM (-DFL- \[)) (NP-SBJ (PRP it)) (IP (-DFL- \+))) (X (XX MUMBLEx)) (PRN (, ,) (S (NP-SBJ (PRP I)) (VP (VBP mean)))) (NP-SBJ (NP (-NONE- *T*-2)) (NP (PRP it))) (RS (-DFL- \])) (VP (VBZ sounds) (PP-UNF (IN like)) (, ,) (INTJ (UH uh)))))))))) (, ,) (-DFL- N_S))",68
sw00utt/sw_0081_4380.utt,4/sw4380,4380,51,aa,B,30,1,Yeah.  /,Yeah/UH ./.,(INTJ (UH Yeah) (. .) (-DFL- E_S)),59
sw00utt/sw_0081_4380.utt,4/sw4380,4380,52,aa,B,30,2,# That's true. # /,[ That/DT ] 's/BES true/JJ ./.,(S (NP-SBJ (DT That)) (VP (BES 's) (ADJP-PRD (JJ true))) (. .) (-DFL- E_S)),74
sw00utt/sw_0081_4380.utt,4/sw4380,4380,53,+,A,31,1,"# Which # [ it + (( )), <laughter> {E I mean } it ] sounds like, {F uh, } - /","[ Which/WDT ] [ it/PRP ] [ MUMBLEx/XX ] ,/,  [ I/PRP ] mean/VBP  [ it/PRP ] sounds/VBZ like/IN ,/,  [ uh/UH ] ,/,","(S (EDITED (RM (-DFL- \[)) (CC But) (IP (-DFL- \+))) (, ,) (CC but) (, ,) (RS (-DFL- \])) (INTJ (UH uh)) (, ,) (NP-SBJ (PRP I)) (VP (VBP think) (PRN (, ,) (S (NP-SBJ (PRP I)) (VP (VBP mean)))) (SBAR (-NONE- 0) (S (ADVP (ADVP (RB even) (JJR more)) (PP (IN than) (NP (DT that)))) (, ,) (SBAR-ADV (RB even) (PRN (, ,) (S (NP-SBJ (PRP I)) (VP (VBP mean)))) (IN if) (S (NP-SBJ (PRP you)) (VP (VBP drop) (PRT (IN out)) (PP (IN in) (NP (JJ high) (NN school)))))) (NP-SBJ-1 (PRP you)) (VP (MD should) (ADVP-TMP (RB still)) (VP (VP (VB be) (ADJP-PRD (JJ able) (S (NP-SBJ (-NONE- *-1)) (VP (TO to) (VP (VB read))))) (PRN (, ,) (S (NP-SBJ (PRP you)) (VP (VBP know))) (. ?))) (SBAR (WHNP-2 (WDT Which)) (S (EDITED (RM (-DFL- \[)) (NP-SBJ (PRP it)) (IP (-DFL- \+))) (X (XX MUMBLEx)) (PRN (, ,) (S (NP-SBJ (PRP I)) (VP (VBP mean)))) (NP-SBJ (NP (-NONE- *T*-2)) (NP (PRP it))) (RS (-DFL- \])) (VP (VBZ sounds) (PP-UNF (IN like)) (, ,) (INTJ (UH uh)))))))))) (, ,) (-DFL- N_S))",68
sw00utt/sw_0081_4380.utt,4/sw4380,4380,54,sv,A,31,2,"now I think maybe it's started changing in the past few years because, {F uh, } they have [ of + ] these, {F uh, } sort of [ mandatory + <<mispronounced>>, -tory ] tests [ if + ] you have to take before # you get # --","now/RB  [ I/PRP ] think/VBP maybe/RB  [ it/PRP ] [ 's/HVS ] started/VBN changing/VBG in/IN  [ the/DT past/JJ few/JJ years/NNS ] because/IN ,/,  [ uh/UH ] ,/,  [ they/PRP ] have/VBP of/IN  [ these/DT ] ,/,  [ uh/UH ] ,/,  [ sort/NN ] of/IN  [ mandatory/JJ ] ,/,  [ -tory/JJ tests/NNS ] if/IN  [ you/PRP ] have/VBP to/TO take/VB before/IN  [ you/PRP ] get/VBP --/:","(S (INTJ (RB now)) (NP-SBJ (PRP I)) (VP (VBP think) (ADVP (RB maybe)) (SBAR (-NONE- 0) (S (NP-SBJ-1 (PRP it)) (VP (HVS 's) (VP (VBN started) (S (NP-SBJ (-NONE- *-1)) (VP (VBG changing) (PP-TMP (IN in) (NP (DT the) (JJ past) (JJ few) (NNS years))))))))) (SBAR-PRP (IN because) (, ,) (INTJ (UH uh)) (, ,) (S (NP-SBJ (PRP they)) (VP (VBP have) (EDITED (RM (-DFL- \[)) (PP-UNF (IN of)) (IP (-DFL- \+))) (RS (-DFL- \])) (NP (NP (DT these) (, ,) (INTJ (UH uh)) (, ,) (ADJP (ADVP (NN sort) (IN of)) (RM (-DFL- \[)) (JJ mandatory)) (IP (-DFL- \+)) (, ,) (EDITED (JJ -tory)) (RS (-DFL- \])) (NNS tests) (EDITED (RM (-DFL- \[)) (SBAR-UNF (IN if)) (IP (-DFL- \+)) (RS (-DFL- \])))) (SBAR (WHNP-3 (-NONE- 0)) (S (NP-SBJ-2 (PRP you)) (VP (VBP have) (S (NP-SBJ (-NONE- *-2)) (VP (TO to) (VP (VB take) (NP (-NONE- *T*-3)) (SBAR-TMP (IN before) (S (NP-SBJ (PRP you)) (VP (VBP get) (NP (DT a) (NN diploma)))))))))))))))) (. .) (-DFL- E_S))",76
sw00utt/sw_0081_4380.utt,4/sw4380,4380,55,b,B,32,1,# Right. # /,[ Right/UH ] ./.,(INTJ (UH Right) (. .) (-DFL- E_S)),78
sw00utt/sw_0081_4380.utt,4/sw4380,4380,56,+,A,33,1,-- a diploma.  /,--/:  [ a/DT diploma/NN ] ./.,"(S (INTJ (RB now)) (NP-SBJ (PRP I)) (VP (VBP think) (ADVP (RB maybe)) (SBAR (-NONE- 0) (S (NP-SBJ-1 (PRP it)) (VP (HVS 's) (VP (VBN started) (S (NP-SBJ (-NONE- *-1)) (VP (VBG changing) (PP-TMP (IN in) (NP (DT the) (JJ past) (JJ few) (NNS years))))))))) (SBAR-PRP (IN because) (, ,) (INTJ (UH uh)) (, ,) (S (NP-SBJ (PRP they)) (VP (VBP have) (EDITED (RM (-DFL- \[)) (PP-UNF (IN of)) (IP (-DFL- \+))) (RS (-DFL- \])) (NP (NP (DT these) (, ,) (INTJ (UH uh)) (, ,) (ADJP (ADVP (NN sort) (IN of)) (RM (-DFL- \[)) (JJ mandatory)) (IP (-DFL- \+)) (, ,) (EDITED (JJ -tory)) (RS (-DFL- \])) (NNS tests) (EDITED (RM (-DFL- \[)) (SBAR-UNF (IN if)) (IP (-DFL- \+)) (RS (-DFL- \])))) (SBAR (WHNP-3 (-NONE- 0)) (S (NP-SBJ-2 (PRP you)) (VP (VBP have) (S (NP-SBJ (-NONE- *-2)) (VP (TO to) (VP (VB take) (NP (-NONE- *T*-3)) (SBAR-TMP (IN before) (S (NP-SBJ (PRP you)) (VP (VBP get) (NP (DT a) (NN diploma)))))))))))))))) (. .) (-DFL- E_S))",76
sw00utt/sw_0081_4380.utt,4/sw4380,4380,57,sd,A,33,2,"[ {C But, } + {F uh, }","But/CC ,/,  [ uh/UH ] ,/,","(S (EDITED (RM (-DFL- \[)) (CC But) (, ,) (IP (-DFL- \+))) (INTJ (UH uh)) (, ,) (CC but) (, ,) (RS (-DFL- \])) (INTJ (UH uh)) (, ,) (ADVP (RB certainly)) (PP-TMP (IN before) (NP (DT that))) (, ,) (NP-SBJ (EX there)) (VP (VBD were) (NP-PRD (NP (NNS people)) (SBAR (WHNP-1 (WDT that)) (PRN (, ,) (S (NP-SBJ (PRP you)) (VP (VBP know))) (, ,)) (S (NP-SBJ (-NONE- *T*-1)) (VP (VP (MD would) (VP (VB graduate) (PP (IN from) (NP (JJ high) (NN school))))) (CC and) (VP (MD could) (ADVP (RB barely)) (VP (VB read)))))))) (. .) (-DFL- E_S))",80
sw00utt/sw_0081_4380.utt,4/sw4380.pos,4380,58,x,B,34,1,<Sniffing>.,./.,,
sw00utt/sw_0081_4380.utt,4/sw4380,4380,59,+,A,35,1,"{C but, } ] {F uh, } certainly before that, there were people that, {D you know, } would graduate from high school and could barely read.  /","but/CC ,/,  [ uh/UH ] ,/, certainly/RB before/IN  [ that/DT ] ,/,  [ there/EX ] were/VBD  [ people/NNS ] [ that/WDT ] ,/,  [ you/PRP ] know/VBP ,/, would/MD graduate/VB from/IN  [ high/JJ school/NN ] and/CC could/MD barely/RB read/VB ./.","(S (EDITED (RM (-DFL- \[)) (CC But) (, ,) (IP (-DFL- \+))) (INTJ (UH uh)) (, ,) (CC but) (, ,) (RS (-DFL- \])) (INTJ (UH uh)) (, ,) (ADVP (RB certainly)) (PP-TMP (IN before) (NP (DT that))) (, ,) (NP-SBJ (EX there)) (VP (VBD were) (NP-PRD (NP (NNS people)) (SBAR (WHNP-1 (WDT that)) (PRN (, ,) (S (NP-SBJ (PRP you)) (VP (VBP know))) (, ,)) (S (NP-SBJ (-NONE- *T*-1)) (VP (VP (MD would) (VP (VB graduate) (PP (IN from) (NP (JJ high) (NN school))))) (CC and) (VP (MD could) (ADVP (RB barely)) (VP (VB read)))))))) (. .) (-DFL- E_S))",80
sw00utt/sw_0081_4380.utt,4/sw4380,4380,60,sv,A,35,2,"{F Uh, } {C and } that's just sort of inexcusable  /","[ Uh/UH ] ,/, and/CC  [ that/DT ] 's/BES just/RB  [ sort/RB ] of/RB  [ inexcusable/JJ ]","(S (INTJ (UH Uh)) (, ,) (CC and) (NP-SBJ (DT that)) (VP (BES 's) (ADVP (RB just)) (ADVP (RB sort) (RB of)) (ADJP-PRD (JJ inexcusable))) (-DFL- E_S))",83
sw00utt/sw_0081_4380.utt,4/sw4380,4380,61,%,A,35,3,"{C and } you can't really,  /","and/CC  [ you/PRP ] ca/MD n't/RB really/RB ,/,","(S (CC and) (NP-SBJ (PRP you)) (VP-UNF (MD ca) (RB n't) (ADVP (RB really))) (, ,) (-DFL- E_S))",84
sw00utt/sw_0081_4380.utt,4/sw4380,4380,62,sd,A,35,4,"{E [ [ I, + I, ] + I ] mean } I just can't even picture how that could happen.","[ I/PRP ] ,/,  [ I/PRP ] ,/,  [ I/PRP ] mean/VBP  [ I/PRP ] just/RB ca/MD n't/RB even/RB picture/VB how/WRB  [ that/DT ] could/MD happen/VB ./.","(S (PRN (S (EDITED (RM (-DFL- \[)) (EDITED (RM (-DFL- \[)) (NP-SBJ (PRP I)) (, ,) (IP (-DFL- \+))) (NP-SBJ (PRP I)) (, ,) (RS (-DFL- \])) (IP (-DFL- \+))) (NP-SBJ (PRP I)) (RS (-DFL- \])) (VP (VBP mean)))) (NP-SBJ (PRP I)) (ADVP (RB just)) (VP (MD ca) (RB n't) (ADVP (RB even)) (VP (VB picture) (SBAR (WHADVP-2 (WRB how)) (S (NP-SBJ (DT that)) (VP (MD could) (VP (VB happen) (PRN (. .) (S (NP-SBJ (PRP You)) (VP (VBP know))) (, ,)) (PP (IN except) (ADVP (RB maybe)) (PP (IN to) (NP (NP (NN someone)) (SBAR (WHNP-1 (WP who)) (S (NP-SBJ (-NONE- *T*-1)) (VP (VP (BES 's) (PRN (, ,) (S (NP-SBJ (PRP you)) (VP (VBP know))) (, ,)) (ADJP-PRD (ADVP (RB really) (RB badly)) (VBG learning) (, ,) (INTJ (UH uh)) (, ,) (JJ disabled))) (CC or) (NP-ETC (NN something)))))))) (ADVP-MNR (-NONE- *T*-2)))))))) (. .) (-DFL- E_S))",85
sw00utt/sw_0081_4380.utt,4/sw4380,4380,63,b,B,36,1,Yeah. /,Yeah/UH ./.,(INTJ (UH Yeah) (. .) (-DFL- E_S)),59
sw00utt/sw_0081_4380.utt,4/sw4380,4380,64,+,A,37,1,"{D You know, } except maybe to someone whose, {D you know, } really badly learning, {F uh, } disabled or something.  /","[ You/PRP ] know/VBP ,/, except/IN maybe/RB to/IN  [ someone/NN ] [ who/WP 's/BES ] ,/,  [ you/PRP ] know/VBP ,/, really/RB badly/RB learning/VBG ,/,  [ uh/UH ] ,/, disabled/JJ or/CC  [ something/NN ] ./.","(S (PRN (S (EDITED (RM (-DFL- \[)) (EDITED (RM (-DFL- \[)) (NP-SBJ (PRP I)) (, ,) (IP (-DFL- \+))) (NP-SBJ (PRP I)) (, ,) (RS (-DFL- \])) (IP (-DFL- \+))) (NP-SBJ (PRP I)) (RS (-DFL- \])) (VP (VBP mean)))) (NP-SBJ (PRP I)) (ADVP (RB just)) (VP (MD ca) (RB n't) (ADVP (RB even)) (VP (VB picture) (SBAR (WHADVP-2 (WRB how)) (S (NP-SBJ (DT that)) (VP (MD could) (VP (VB happen) (PRN (. .) (S (NP-SBJ (PRP You)) (VP (VBP know))) (, ,)) (PP (IN except) (ADVP (RB maybe)) (PP (IN to) (NP (NP (NN someone)) (SBAR (WHNP-1 (WP who)) (S (NP-SBJ (-NONE- *T*-1)) (VP (VP (BES 's) (PRN (, ,) (S (NP-SBJ (PRP you)) (VP (VBP know))) (, ,)) (ADJP-PRD (ADVP (RB really) (RB badly)) (VBG learning) (, ,) (INTJ (UH uh)) (, ,) (JJ disabled))) (CC or) (NP-ETC (NN something)))))))) (ADVP-MNR (-NONE- *T*-2)))))))) (. .) (-DFL- E_S))",85
sw00utt/sw_0081_4380.utt,4/sw4380,4380,65,sd,A,37,2,{C But } these people obviously <laughter> weren't. /,But/CC  [ these/DT people/NNS ] obviously/RB were/VBD n't/RB ./.,(S (CC But) (NP-SBJ (DT these) (NNS people)) (ADVP (RB obviously)) (VP (VBD were) (RB n't) (ADJP-PRD (-NONE- *?*))) (. .) (-DFL- E_S)),89
sw00utt/sw_0081_4380.utt,4/sw4380,4380,66,sd,B,38,1,"That's hard for me to say since [ I didn't, +","[ That/DT ] 's/BES hard/JJ for/IN  [ me/PRP ] to/TO say/VB since/IN  [ I/PRP ] did/VBD n't/RB ,/,","(S (NP-SBJ (DT That)) (VP (BES 's) (ADJP-PRD (JJ hard) (SBAR (WHNP-1 (-NONE- 0)) (IN for) (S (NP-SBJ (PRP me)) (VP (TO to) (VP (VB say) (NP (-NONE- *T*-1))))))) (SBAR-TMP (IN since) (S (EDITED (RM (-DFL- \[)) (S (NP-SBJ (PRP I)) (VP-UNF (VBD did) (RB n't))) (, ,) (IP (-DFL- \+))) (NP-SBJ (PRP I)) (VP (VBD did) (RB n't) (RS (-DFL- \])) (ADVP (RB really)) (VP-UNF (VB grow)))))) (, ,) (-DFL- N_S))",91
sw00utt/sw_0081_4380.utt,4/sw4380.pos,4380,67,x,A,39,1,<Noise> <<sounds likes a burp>>.,./.,,
sw00utt/sw_0081_4380.utt,4/sw4380,4380,68,+,B,40,1,"I didn't ] really grow, - /","[ I/PRP ] did/VBD n't/RB really/RB grow/VB ,/,","(S (NP-SBJ (DT That)) (VP (BES 's) (ADJP-PRD (JJ hard) (SBAR (WHNP-1 (-NONE- 0)) (IN for) (S (NP-SBJ (PRP me)) (VP (TO to) (VP (VB say) (NP (-NONE- *T*-1))))))) (SBAR-TMP (IN since) (S (EDITED (RM (-DFL- \[)) (S (NP-SBJ (PRP I)) (VP-UNF (VBD did) (RB n't))) (, ,) (IP (-DFL- \+))) (NP-SBJ (PRP I)) (VP (VBD did) (RB n't) (RS (-DFL- \])) (ADVP (RB really)) (VP-UNF (VB grow)))))) (, ,) (-DFL- N_S))",91
sw00utt/sw_0081_4380.utt,4/sw4380,4380,69,sd,B,40,2,"{D well } when I went to elementary school [ it, + it ] wasn't in a great area  /","well/UH when/WRB  [ I/PRP ] went/VBD to/IN  [ elementary/JJ school/NN ] [ it/PRP ] ,/,  [ it/PRP ] [ was/VBD n't/RB ] in/IN  [ a/DT great/JJ area/NN ]","(S (SBAR-TMP (INTJ (UH well)) (WHADVP-1 (WRB when)) (S (NP-SBJ (PRP I)) (VP (VBD went) (PP (IN to) (NP (JJ elementary) (NN school))) (ADVP-TMP (-NONE- *T*-1))))) (EDITED (RM (-DFL- \[)) (NP-SBJ (PRP it)) (, ,) (IP (-DFL- \+))) (NP-SBJ (PRP it)) (RS (-DFL- \])) (VP (VBD was) (RB n't) (PP-LOC-PRD (IN in) (NP (DT a) (JJ great) (NN area)))) (-DFL- E_S))",94
sw00utt/sw_0081_4380.utt,4/sw4380,4380,70,sd,B,40,3,"{C but } [ [ I still, + {E I mean, } I learned to read, ] + started learning to read ] when I was in kindergarten, {D you know. } /","but/CC  [ I/PRP ] still/RB ,/,  [ I/PRP ] mean/VBP ,/,  [ I/PRP ] learned/VBD to/TO read/VB ,/, started/VBD learning/VBG to/TO read/VB when/WRB  [ I/PRP ] was/VBD in/IN  [ kindergarten/NN ] ,/,  [ you/PRP ] know/VBP ./.","(S (CC but) (RM (-DFL- \[)) (EDITED (RM (-DFL- \[)) (S-UNF (NP-SBJ (PRP I)) (ADVP-TMP (RB still))) (, ,) (IP (-DFL- \+))) (PRN (S (NP-SBJ (PRP I)) (VP (VBP mean))) (, ,)) (NP-SBJ-1 (PRP I)) (EDITED (VP (VBD learned) (S (NP-SBJ (-NONE- *)) (VP (TO to) (VP (VB read))))) (, ,) (RS (-DFL- \])) (IP (-DFL- \+))) (VP (VBD started) (S (NP-SBJ-2 (-NONE- *-1)) (VP (VBG learning) (S (NP-SBJ (-NONE- *-2)) (VP (TO to) (VP (VB read)))))) (RS (-DFL- \])) (SBAR-TMP (WHADVP-3 (WRB when)) (S (NP-SBJ (PRP I)) (VP (VBD was) (PP-PRD (IN in) (NP (NN kindergarten))) (ADVP-TMP (-NONE- *T*-3))))) (PRN (, ,) (S (NP-SBJ (PRP you)) (VP (VBP know))))) (. .) (-DFL- E_S))",95
sw00utt/sw_0081_4380.utt,4/sw4380,4380,71,b,A,41,1,# Yeah. # /,Yeah/UH ./.,(INTJ (UH Yeah) (. .) (-DFL- E_S)),73
sw00utt/sw_0081_4380.utt,4/sw4380,4380,72,sv,B,42,1,# {C So } # I guess [ I can't really -- +,So/RB  [ I/PRP ] guess/VBP  [ I/PRP ] ca/MD n't/RB really/RB --/:,"(S (RB So) (NP-SBJ (PRP I)) (VP (VBP guess) (SBAR (-NONE- 0) (S (EDITED (RM (-DFL- \[)) (S (NP-SBJ (PRP I)) (VP-UNF (MD ca) (RB n't) (ADVP (RB really)))) (IP (-DFL- \+))) (NP-SBJ (PRP I)) (VP (MD ca) (RB n't) (RS (-DFL- \])) (VP (VB say) (SBAR (WHNP-1 (WP what)) (S (NP-SBJ (NP (PRP it)) (S (-NONE- *EXP*-2))) (VP (MD would) (VP (VB be) (PP-PRD (IN like) (NP (-NONE- *T*-1))) (S-2 (NP-SBJ (-NONE- *)) (VP (TO to) (, ,) (INTJ (UH uh)) (, ,) (VP (VB grow) (PRT (RP up)) (PP-LOC (IN in) (NP (DT a) (ADJP (RB really) (JJ oppressed)) (NN region))))))))))))))) (. .) (-DFL- E_S))",99
sw00utt/sw_0081_4380.utt,4/sw4380,4380,73,b^r,A,43,1,Yeah. /,Yeah/UH ./.,(INTJ (UH Yeah) (. .) (-DFL- E_S)),87
sw00utt/sw_0081_4380.utt,4/sw4380,4380,74,+,B,44,1,"-- I can't ] say what it would be like to, {F uh, } grow up in a really oppressed region <rustling>. /","--/:  [ I/PRP ] ca/MD n't/RB say/VB  [ what/WP ] [ it/PRP ] would/MD be/VB like/IN to/TO ,/,  [ uh/UH ] ,/, grow/VB up/RP in/IN  [ a/DT ] really/RB oppressed/JJ  [ region/NN ] ./.","(S (RB So) (NP-SBJ (PRP I)) (VP (VBP guess) (SBAR (-NONE- 0) (S (EDITED (RM (-DFL- \[)) (S (NP-SBJ (PRP I)) (VP-UNF (MD ca) (RB n't) (ADVP (RB really)))) (IP (-DFL- \+))) (NP-SBJ (PRP I)) (VP (MD ca) (RB n't) (RS (-DFL- \])) (VP (VB say) (SBAR (WHNP-1 (WP what)) (S (NP-SBJ (NP (PRP it)) (S (-NONE- *EXP*-2))) (VP (MD would) (VP (VB be) (PP-PRD (IN like) (NP (-NONE- *T*-1))) (S-2 (NP-SBJ (-NONE- *)) (VP (TO to) (, ,) (INTJ (UH uh)) (, ,) (VP (VB grow) (PRT (RP up)) (PP-LOC (IN in) (NP (DT a) (ADJP (RB really) (JJ oppressed)) (NN region))))))))))))))) (. .) (-DFL- E_S))",99
sw00utt/sw_0081_4380.utt,4/sw4380,4380,75,b^r,A,45,1,Yeah. /,Yeah/UH ./.,(INTJ (UH Yeah) (. .) (-DFL- E_S)),87
sw00utt/sw_0081_4380.utt,4/sw4380,4380,76,sv,B,46,1,"{D You know, } I guess [ the whole, + the whole ] environment and attitude towards school and learning is different for the # (( )) people. # /","[ You/PRP ] know/VBP ,/,  [ I/PRP ] guess/VBP  [ the/DT whole/JJ ] ,/,  [ the/DT whole/JJ environment/NN ] and/CC  [ attitude/NN ] towards/IN  [ school/NN ] and/CC  [ learning/NN ] is/VBZ different/JJ for/IN  [ the/DT MUMBLEx/XX people/NNS ] ./.","(S (PRN (S (NP-SBJ (PRP You)) (VP (VBP know))) (, ,)) (NP-SBJ (PRP I)) (VP (VBP guess) (SBAR (-NONE- 0) (S (EDITED (RM (-DFL- \[)) (NP-SBJ-UNF (DT the) (JJ whole)) (, ,) (IP (-DFL- \+))) (NP-SBJ (NP (DT the) (JJ whole) (RS (-DFL- \])) (NN environment)) (CC and) (NP (NP (NN attitude)) (PP (IN towards) (NP (NN school) (CC and) (NN learning))))) (VP (VBZ is) (ADJP-PRD (JJ different)) (PP (IN for) (NP (DT the) (X (XX MUMBLEx)) (NNS people))))))) (. .) (-DFL- E_S))",106
sw00utt/sw_0081_4380.utt,4/sw4380,4380,77,aa,A,47,1,# Yeah.  /,Yeah/UH ./.,(INTJ (UH Yeah) (. .) (-DFL- E_S)),87
sw00utt/sw_0081_4380.utt,4/sw4380,4380,78,sv,A,47,2,"{C And } # I think that's almost a bigger factor,","And/CC  [ I/PRP ] think/VBP  [ that/DT ] 's/BES almost/RB  [ a/DT bigger/JJR factor/NN ] ,/,","(S (CC And) (NP-SBJ (PRP I)) (VP (VBP think) (SBAR (-NONE- 0) (S (NP-SBJ (DT that)) (VP (BES 's) (ADVP (RB almost)) (NP-PRD (NP (DT a) (JJR bigger) (NN factor)) (, ,) (PP (IN than) (NP (NP (NN anything)) (ADVP (RB else))))) (ADVP (RB probably)))))) (. .) (-DFL- E_S))",109
sw00utt/sw_0081_4380.utt,4/sw4380.pos,4380,79,x,B,48,1,<Sniffing>.,./.,,
sw00utt/sw_0081_4380.utt,4/sw4380,4380,80,+,A,49,1,than anything else probably.  /,than/IN  [ anything/NN ] else/RB probably/RB ./.,"(S (CC And) (NP-SBJ (PRP I)) (VP (VBP think) (SBAR (-NONE- 0) (S (NP-SBJ (DT that)) (VP (BES 's) (ADVP (RB almost)) (NP-PRD (NP (DT a) (JJR bigger) (NN factor)) (, ,) (PP (IN than) (NP (NP (NN anything)) (ADVP (RB else))))) (ADVP (RB probably)))))) (. .) (-DFL- E_S))",109
sw00utt/sw_0081_4380.utt,4/sw4380,4380,81,sv,A,49,2,"{E I mean, } [ I don't, + I think # ] {D you know, } people just, # -/","[ I/PRP ] mean/VBP ,/,  [ I/PRP ] do/VBP n't/RB ,/,  [ I/PRP ] think/VBP  [ you/PRP ] know/VBP ,/,  [ people/NNS ] just/RB ,/,","(S (PRN (S (NP-SBJ (PRP I)) (VP (VBP mean))) (, ,)) (EDITED (RM (-DFL- \[)) (S (NP-SBJ (PRP I)) (VP-UNF (VBP do) (RB n't))) (, ,) (IP (-DFL- \+))) (NP-SBJ (PRP I)) (VP (VBP think) (RS (-DFL- \])) (PRN (S (NP-SBJ (PRP you)) (VP (VBP know))) (, ,)) (SBAR (-NONE- 0) (S-UNF (NP-SBJ (NNS people)) (ADVP (RB just))))) (, ,) (-DFL- N_S))",112
sw00utt/sw_0081_4380.utt,4/sw4380,4380,82,sv,B,50,1,"# {C So, } I guess [ the # problem is the, + the thing to do is ] to try [ to, + {F uh, } to ] get some kind of motivation to learn  /","So/RB ,/,  [ I/PRP ] guess/VBP  [ the/DT problem/NN ] is/VBZ  [ the/DT ] ,/,  [ the/DT thing/NN ] to/TO do/VB is/VBZ to/TO try/VB to/TO ,/,  [ uh/UH ] ,/, to/TO get/VB  [ some/DT kind/NN ] of/IN  [ motivation/NN ] to/TO learn/VB","(S (RB So) (, ,) (NP-SBJ (PRP I)) (VP (VBP guess) (SBAR (-NONE- 0) (S (EDITED (RM (-DFL- \[)) (S (NP-SBJ (DT the) (NN problem)) (VP (VBZ is) (SBAR-PRD (-NONE- 0) (S (NP-SBJ-UNF (DT the)))))) (, ,) (IP (-DFL- \+))) (NP-SBJ (NP (DT the) (NN thing)) (SBAR (WHNP-1 (-NONE- 0)) (S (NP-SBJ (-NONE- *)) (VP (TO to) (VP (VB do) (NP (-NONE- *T*-1))))))) (VP (VBZ is) (RS (-DFL- \])) (S-PRD (NP-SBJ-2 (-NONE- *)) (VP (TO to) (VP (VB try) (S (NP-SBJ (-NONE- *-2)) (EDITED (RM (-DFL- \[)) (VP-UNF (TO to)) (, ,) (IP (-DFL- \+))) (INTJ (UH uh)) (, ,) (VP (TO to) (RS (-DFL- \])) (VP (VB get) (NP (NP (DT some) (NN kind)) (PP (IN of) (NP (NN motivation) (S (NP-SBJ (-NONE- *)) (VP (TO to) (VP (VB learn))))))))))))))))) (-DFL- E_S))",114
sw00utt/sw_0081_4380.utt,4/sw4380,4380,83,%,B,50,2,"{C and, } -/","and/CC ,/,","(S-UNF (CC and) (, ,) (-DFL- N_S))",115
sw00utt/sw_0081_4380.utt,4/sw4380,4380,84,b,A,51,1,Yeah.  /,Yeah/UH ./.,(INTJ (UH Yeah) (. .) (-DFL- E_S)),97
sw00utt/sw_0081_4380.utt,4/sw4380,4380,85,%,A,51,2,"{C And, } again, I don't, {E I mean } - /","And/CC ,/, again/RB ,/,  [ I/PRP ] do/VBP n't/RB ,/,  [ I/PRP ] mean/VBP","(S (CC And) (, ,) (ADVP (RB again)) (, ,) (NP-SBJ (PRP I)) (VP-UNF (VBP do) (RB n't) (PRN (, ,) (S (NP-SBJ (PRP I)) (VP (VBP mean))))) (-DFL- N_S))",118
sw00utt/sw_0081_4380.utt,4/sw4380,4380,86,%,A,51,3,"((they got to)) know [ the, + ] {D you know, } how qualified, {E I mean, } (( )) - /","[ they/PRP ] got/VBD to/TO know/VB  [ the/DT ] ,/,  [ you/PRP ] know/VBP ,/, how/WRB qualified/JJ ,/,  [ I/PRP ] mean/VBP ,/,  [ MUMBLEx/XX","(S (NP-SBJ-1 (PRP they)) (VP (VBD got) (S (NP-SBJ (-NONE- *-1)) (VP (TO to) (VP (VB know) (EDITED (RM (-DFL- \[)) (NP-UNF (DT the)) (, ,) (IP (-DFL- \+)) (RS (-DFL- \]))) (PRN (S (NP-SBJ (PRP you)) (VP (VBP know))) (, ,)) (SBAR-UNF (WHADVP (WRB how) (JJ qualified)) (PRN (, ,) (S (NP-SBJ (PRP I)) (VP (VBP mean))) (, ,))) (X (XX MUMBLEx)))))) (-DFL- N_S))",119
sw00utt/sw_0081_4380.utt,4/sw4380,4380,87,sv,A,51,4,I think it'd be interesting --,I/PRP ] think/VBP  [ it/PRP ] 'd/MD be/VB interesting/JJ --/:,"(S (NP-SBJ (PRP I)) (VP (VBP think) (SBAR (-NONE- 0) (S (NP-SBJ (NP (PRP it)) (S (-NONE- *EXP*-2))) (VP (MD 'd) (VP (VB be) (ADJP-PRD (JJ interesting)) (S-2 (NP-SBJ (-NONE- *)) (EDITED (RM (-DFL- \[)) (VP-UNF (TO to)) (, ,) (IP (-DFL- \+))) (PRN (S (NP-SBJ (PRP you)) (VP (VBP know))) (, ,)) (VP (TO to) (RS (-DFL- \])) (VP (VB spend) (NP (NP (DT a) (NN couple)) (PP (IN of) (NP (NNS days)))) (S-ADV (NP-SBJ (-NONE- *)) (ADVP (RB just)) (VP (VBG looking) (PP (RB around) (NP (DT an) (JJ inner) (NN city) (NN school))) (. .) (INTJ (UH Uh)) (PRN (, ,) (S (NP-SBJ (PRP you)) (VP (VBP know))) (, ,)) (PP (EDITED (RM (-DFL- \[)) (ADVP-UNF (RB sort)) (, ,) (IP (-DFL- \+))) (ADVP (RB sort) (RS (-DFL- \])) (RB of)) (ADVP (RB maybe)) (IN from) (NP (NP (JJ elementary)) (PP (IN through) (, ,) (INTJ (UH uh)) (, ,) (NP (JJ high) (NN school))))) (PRN (. .) (S (NP-SBJ (PRP You)) (VP (VBP know))) (, ,)) (S-PRP (ADVP (RB just)) (ADVP (RB sort) (RB of)) (NP-SBJ (-NONE- *)) (VP (TO to) (VP (VB get) (NP (NP (DT a) (NN feel)) (PP (IN for) (SBAR-NOM (WHNP-1 (WP what)) (S (NP-SBJ (PRP it)) (VP (BES 's) (PP-PRD (IN like) (NP (-NONE- *T*-1))))))))))))))))))))) (. .) (-DFL- E_S))",120
sw00utt/sw_0081_4380.utt,4/sw4380,4380,88,b,B,52,1,Uh-huh. /,[ Uh-huh/UH ] ./.,(INTJ (UH Uh-huh) (. .) (-DFL- E_S)),122
sw00utt/sw_0081_4380.utt,4/sw4380,4380,89,+,A,53,1,"-- [ to, + {D you know, } to ] spend a couple of days just looking around an inner city school. {F Uh, } {D you know, } [ sort, + sort ] of maybe from elementary through, {F uh, } high school.","--/: to/TO ,/,  [ you/PRP ] know/VBP ,/, to/TO spend/VB  [ a/DT couple/NN ] of/IN  [ days/NNS ] just/RB looking/VBG around/RB  [ an/DT inner/JJ city/NN school/NN ] ./.  [ Uh/UH ] ,/,  [ you/PRP ] know/VBP ,/,  [ sort/RB ] ,/,  [ sort/RB ] of/RB maybe/RB f","(S (NP-SBJ (PRP I)) (VP (VBP think) (SBAR (-NONE- 0) (S (NP-SBJ (NP (PRP it)) (S (-NONE- *EXP*-2))) (VP (MD 'd) (VP (VB be) (ADJP-PRD (JJ interesting)) (S-2 (NP-SBJ (-NONE- *)) (EDITED (RM (-DFL- \[)) (VP-UNF (TO to)) (, ,) (IP (-DFL- \+))) (PRN (S (NP-SBJ (PRP you)) (VP (VBP know))) (, ,)) (VP (TO to) (RS (-DFL- \])) (VP (VB spend) (NP (NP (DT a) (NN couple)) (PP (IN of) (NP (NNS days)))) (S-ADV (NP-SBJ (-NONE- *)) (ADVP (RB just)) (VP (VBG looking) (PP (RB around) (NP (DT an) (JJ inner) (NN city) (NN school))) (. .) (INTJ (UH Uh)) (PRN (, ,) (S (NP-SBJ (PRP you)) (VP (VBP know))) (, ,)) (PP (EDITED (RM (-DFL- \[)) (ADVP-UNF (RB sort)) (, ,) (IP (-DFL- \+))) (ADVP (RB sort) (RS (-DFL- \])) (RB of)) (ADVP (RB maybe)) (IN from) (NP (NP (JJ elementary)) (PP (IN through) (, ,) (INTJ (UH uh)) (, ,) (NP (JJ high) (NN school))))) (PRN (. .) (S (NP-SBJ (PRP You)) (VP (VBP know))) (, ,)) (S-PRP (ADVP (RB just)) (ADVP (RB sort) (RB of)) (NP-SBJ (-NONE- *)) (VP (TO to) (VP (VB get) (NP (NP (DT a) (NN feel)) (PP (IN for) (SBAR-NOM (WHNP-1 (WP what)) (S (NP-SBJ (PRP it)) (VP (BES 's) (PP-PRD (IN like) (NP (-NONE- *T*-1))))))))))))))))))))) (. .) (-DFL- E_S))",120
sw00utt/sw_0081_4380.utt,4/sw4380,4380,90,b,B,54,1,# Yeah. # /,Yeah/UH ./.,(INTJ (UH Yeah) (. .) (-DFL- E_S)),101
sw00utt/sw_0081_4380.utt,4/sw4380,4380,91,+,A,55,1,"# {D You know, } # just sort of to get a feel for what it's like. /","[ You/PRP ] know/VBP ,/, just/RB sort/RB of/RB to/TO get/VB  [ a/DT feel/NN ] for/IN  [ what/WP ] [ it/PRP ] 's/BES like/IN ./.","(S (NP-SBJ (PRP I)) (VP (VBP think) (SBAR (-NONE- 0) (S (NP-SBJ (NP (PRP it)) (S (-NONE- *EXP*-2))) (VP (MD 'd) (VP (VB be) (ADJP-PRD (JJ interesting)) (S-2 (NP-SBJ (-NONE- *)) (EDITED (RM (-DFL- \[)) (VP-UNF (TO to)) (, ,) (IP (-DFL- \+))) (PRN (S (NP-SBJ (PRP you)) (VP (VBP know))) (, ,)) (VP (TO to) (RS (-DFL- \])) (VP (VB spend) (NP (NP (DT a) (NN couple)) (PP (IN of) (NP (NNS days)))) (S-ADV (NP-SBJ (-NONE- *)) (ADVP (RB just)) (VP (VBG looking) (PP (RB around) (NP (DT an) (JJ inner) (NN city) (NN school))) (. .) (INTJ (UH Uh)) (PRN (, ,) (S (NP-SBJ (PRP you)) (VP (VBP know))) (, ,)) (PP (EDITED (RM (-DFL- \[)) (ADVP-UNF (RB sort)) (, ,) (IP (-DFL- \+))) (ADVP (RB sort) (RS (-DFL- \])) (RB of)) (ADVP (RB maybe)) (IN from) (NP (NP (JJ elementary)) (PP (IN through) (, ,) (INTJ (UH uh)) (, ,) (NP (JJ high) (NN school))))) (PRN (. .) (S (NP-SBJ (PRP You)) (VP (VBP know))) (, ,)) (S-PRP (ADVP (RB just)) (ADVP (RB sort) (RB of)) (NP-SBJ (-NONE- *)) (VP (TO to) (VP (VB get) (NP (NP (DT a) (NN feel)) (PP (IN for) (SBAR-NOM (WHNP-1 (WP what)) (S (NP-SBJ (PRP it)) (VP (BES 's) (PP-PRD (IN like) (NP (-NONE- *T*-1))))))))))))))))))))) (. .) (-DFL- E_S))",120
sw00utt/sw_0081_4380.utt,4/sw4380,4380,92,b,B,56,1,Uh-huh. /,[ Uh-huh/UH ] ./.,(INTJ (UH Uh-huh) (. .) (-DFL- E_S)),122
sw00utt/sw_0081_4380.utt,4/sw4380,4380,93,sv,A,57,1,I think that'd be an interesting experience.  /,[ I/PRP ] think/VBP  [ that/DT ] 'd/MD be/VB  [ an/DT interesting/JJ experience/NN ] ./.,(S (NP-SBJ (PRP I)) (VP (VBP think) (SBAR (-NONE- 0) (S (NP-SBJ (DT that)) (VP (MD 'd) (VP (VB be) (NP-PRD (DT an) (JJ interesting) (NN experience))))))) (. .) (-DFL- E_S)),130
sw00utt/sw_0081_4380.utt,4/sw4380,4380,94,sd,A,57,2,"{C But, } {F uh, } I haven't done that <laughter> <sniffing>. /","But/CC ,/,  [ uh/UH ] ,/,  [ I/PRP ] have/VBP n't/RB done/VBN  [ that/DT ] ./.","(S (CC But) (, ,) (INTJ (UH uh)) (, ,) (NP-SBJ (PRP I)) (VP (VBP have) (RB n't) (VP (VBN done) (NP (DT that)))) (. .) (-DFL- E_S))",131
sw00utt/sw_0081_4380.utt,4/sw4380,4380,95,b,B,58,1,"No,  /","No/UH ,/,","(INTJ (UH No) (, ,) (-DFL- E_S))",133
sw00utt/sw_0081_4380.utt,4/sw4380,4380,96,sd,B,58,2,"[ I, + I ] can't say that I have either. /","[ I/PRP ] ,/,  [ I/PRP ] ca/MD n't/RB say/VB that/IN  [ I/PRP ] have/VBP either/RB ./.","(S (EDITED (RM (-DFL- \[)) (NP-SBJ (PRP I)) (, ,) (IP (-DFL- \+))) (NP-SBJ (PRP I)) (RS (-DFL- \])) (VP (MD ca) (RB n't) (VP (VB say) (SBAR (IN that) (S (NP-SBJ (PRP I)) (VP (VBP have) (VP (-NONE- *?*) (ADVP (RB either)))))))) (. .) (-DFL- E_S))",134
sw00utt/sw_0081_4380.utt,4/sw4380.pos,4380,97,x,A,59,1,<Throat_clearing>.,./.,,
sw00utt/sw_0081_4380.utt,4/sw4380,4380,98,%,B,60,1,"<Sniffing> {C But, } {F uh, } -/","But/CC ,/,  [ uh/UH ] ,/,","(S-UNF (CC But) (, ,) (INTJ (UH uh)) (, ,) (-DFL- N_S))",137
sw00utt/sw_0081_4380.utt,4/sw4380,4380,99,sv,A,61,1,"{C But } [ I do, + I do ] think that, {F uh, } {E I mean, } public education in general I think can work.  /","But/CC  [ I/PRP ] do/VBP ,/,  [ I/PRP ] do/VBP think/VB  [ that/IN ] ,/,  [ uh/UH ] ,/,  [ I/PRP ] mean/VBP ,/,  [ public/JJ education/NN ] in/IN  [ general/JJ I/PRP ] think/VBP can/MD work/VB ./.","(S (CC But) (EDITED (RM (-DFL- \[)) (S (NP-SBJ (PRP I)) (VP-UNF (VBP do))) (, ,) (IP (-DFL- \+))) (NP-SBJ (PRP I)) (VP (VBP do) (RS (-DFL- \])) (VP (VB think) (SBAR (IN that) (, ,) (INTJ (UH uh)) (PRN (, ,) (S (NP-SBJ (PRP I)) (VP (VBP mean))) (, ,)) (S (NP-SBJ (JJ public) (NN education)) (PP (IN in) (NP (JJ general))) (PRN (S (NP-SBJ (PRP I)) (VP (VBP think)))) (VP (MD can) (VP (VB work))))))) (. .) (-DFL- E_S))",139
sw00utt/sw_0081_4380.utt,4/sw4380,4380,100,sv,A,61,2,{C And } I think it's a good thing. /,And/CC  [ I/PRP ] think/VBP  [ it/PRP ] 's/BES  [ a/DT good/JJ thing/NN ] ./.,(S (CC And) (NP-SBJ (PRP I)) (VP (VBP think) (SBAR (-NONE- 0) (S (NP-SBJ (PRP it)) (VP (BES 's) (NP-PRD (DT a) (JJ good) (NN thing)))))) (. .) (-DFL- E_S)),140
sw00utt/sw_0081_4380.utt,4/sw4380,4380,101,b,B,62,1,Yeah.  /,Yeah/UH ./.,(INTJ (UH Yeah) (. .) (-DFL- E_S)),117
sw00utt/sw_0081_4380.utt,4/sw4380,4380,102,sd,B,62,2,"[ [ I've, + I've ] heard some, + {E I mean } I've heard [ [ sta-, + sta-, ] + statistics ] ] and things [ that, + that ] compare a public education to a private education. {E I mean } [ within + {D like, } within ] the <thumping> same, {F uh, } income groups. /","[ I/PRP ] 've/VBP ,/,  [ I/PRP ] 've/VBP heard/VBN  [ some/DT ] ,/,  [ I/PRP ] mean/VBP  [ I/PRP ] 've/VBP heard/VBN  [ sta-/NNS ] ,/,  [ sta-/NNS ] ,/,  [ statistics/NNS ] and/CC  [ things/NNS ] [ that/WDT ] ,/,  [ that/WDT ] compare/VBP  [ a/DT public/JJ education/NN ] to/IN  [ a/DT private/JJ education/NN ] ./.  [ I/PRP ] mean/VBP within/IN like/IN ,/, within/IN  [ the/DT same/JJ ] ,/,  [ uh/UH ] ,/,  [ income/NN groups/NNS ] ./.","(S (EDITED (RM (-DFL- \[)) (EDITED (RM (-DFL- \[)) (S (NP-SBJ (PRP I)) (VP-UNF (VBP 've))) (, ,) (IP (-DFL- \+))) (S (NP-SBJ (PRP I)) (VP (VBP 've) (RS (-DFL- \])) (VP (VBN heard) (NP-UNF (DT some))))) (, ,) (IP (-DFL- \+))) (PRN (S (NP-SBJ (PRP I)) (VP (VBP mean)))) (NP-SBJ (PRP I)) (VP (VBP 've) (VP (VBN heard) (EDITED (RM (-DFL- \[)) (EDITED (RM (-DFL- \[)) (NP-UNF (NNS sta-)) (, ,) (IP (-DFL- \+))) (NP-UNF (NNS sta-)) (, ,) (RS (-DFL- \])) (IP (-DFL- \+))) (NP (NP (NNS statistics)) (RS (-DFL- \])) (RS (-DFL- \])) (CC and) (NP (NP (NNS things)) (SBAR (EDITED (RM (-DFL- \[)) (WHNP (WDT that)) (, ,) (IP (-DFL- \+))) (WHNP-1 (WDT that)) (RS (-DFL- \])) (S (NP-SBJ (-NONE- *T*-1)) (VP (VBP compare) (NP (DT a) (JJ public) (NN education)) (PP (IN to) (NP (DT a) (JJ private) (NN education))) (PRN (. .) (S (NP-SBJ (PRP I)) (VP (VBP mean)))) (EDITED (RM (-DFL- \[)) (PP-UNF (IN within)) (IP (-DFL- \+))) (INTJ (UH like)) (, ,) (PP-LOC (IN within) (RS (-DFL- \])) (NP (DT the) (JJ same) (, ,) (INTJ (UH uh)) (, ,) (NN income) (NNS groups)))))))))) (. .) (-DFL- E_S))",143
sw00utt/sw_0081_4380.utt,4/sw4380,4380,103,b,A,63,1,Yeah. /,Yeah/UH ./.,(INTJ (UH Yeah) (. .) (-DFL- E_S)),117
sw00utt/sw_0081_4380.utt,4/sw4380,4380,104,sd,B,64,1,"If you compare [ the, + {D like } the ] people [ that could have, + that could have ] sent their kids to private schools and [ the people that, + {D you know, } the people that, ] {F uh, } did send their kids # to private # --","If/IN  [ you/PRP ] compare/VBP  [ the/DT ] ,/, like/IN  [ the/DT people/NNS ] [ that/WDT ] could/MD have/VB ,/,  [ that/WDT ] could/MD have/VB sent/VBN  [ their/PRP$ kids/NNS ] to/IN  [ private/JJ schools/NNS ] and/CC  [ the/DT people/NNS ] [ that/WDT ] ,/,  [ you/PRP ] know/VBP ,/,  [ the/DT people/NNS ] [ that/WDT ] ,/,  [ uh/UH ] ,/, did/VBD send/VB  [ their/PRP$ kids/NNS ] to/IN  [ private/JJ ] --/:","(SBAR-ADV (IN If) (S (NP-SBJ (PRP you)) (VP (VBP compare) (EDITED (RM (-DFL- \[)) (NP-UNF (DT the)) (, ,) (IP (-DFL- \+))) (INTJ (UH like)) (NP (NP (NP (DT the) (RS (-DFL- \])) (NNS people)) (SBAR (EDITED (RM (-DFL- \[)) (SBAR (WHNP-3 (WDT that)) (S (NP-SBJ (-NONE- *T*-3)) (VP (MD could) (VP-UNF (VB have))))) (, ,) (IP (-DFL- \+))) (WHNP-1 (WDT that)) (S (NP-SBJ (-NONE- *T*-1)) (VP (MD could) (VP (VB have) (RS (-DFL- \])) (VP (VBN sent) (NP (PRP$ their) (NNS kids)) (PP (IN to) (NP (JJ private) (NNS schools))))))))) (CC and) (EDITED (RM (-DFL- \[)) (NP (NP (DT the) (NNS people)) (SBAR-UNF (WHNP (WDT that)))) (, ,) (IP (-DFL- \+))) (PRN (S (NP-SBJ (PRP you)) (VP (VBP know))) (, ,)) (NP (NP (DT the) (NNS people)) (SBAR (WHNP-2 (WDT that)) (, ,) (RS (-DFL- \])) (INTJ (UH uh)) (, ,) (S (NP-SBJ (-NONE- *T*-2)) (VP (VBD did) (VP (VB send) (NP (PRP$ their) (NNS kids)) (PP (IN to) (NP (JJ private) (NNS schools))))))))))) (. .) (-DFL- E_S))",147
sw00utt/sw_0081_4380.utt,4/sw4380,4380,105,b,A,65,1,# Yes. # /,Yes/UH ./.,(INTJ (UH Yes) (. .) (-DFL- E_S)),149
sw00utt/sw_0081_4380.utt,4/sw4380,4380,106,+,B,66,1,-- schools.  /,--/:  [ schools/NNS ] ./.,"(SBAR-ADV (IN If) (S (NP-SBJ (PRP you)) (VP (VBP compare) (EDITED (RM (-DFL- \[)) (NP-UNF (DT the)) (, ,) (IP (-DFL- \+))) (INTJ (UH like)) (NP (NP (NP (DT the) (RS (-DFL- \])) (NNS people)) (SBAR (EDITED (RM (-DFL- \[)) (SBAR (WHNP-3 (WDT that)) (S (NP-SBJ (-NONE- *T*-3)) (VP (MD could) (VP-UNF (VB have))))) (, ,) (IP (-DFL- \+))) (WHNP-1 (WDT that)) (S (NP-SBJ (-NONE- *T*-1)) (VP (MD could) (VP (VB have) (RS (-DFL- \])) (VP (VBN sent) (NP (PRP$ their) (NNS kids)) (PP (IN to) (NP (JJ private) (NNS schools))))))))) (CC and) (EDITED (RM (-DFL- \[)) (NP (NP (DT the) (NNS people)) (SBAR-UNF (WHNP (WDT that)))) (, ,) (IP (-DFL- \+))) (PRN (S (NP-SBJ (PRP you)) (VP (VBP know))) (, ,)) (NP (NP (DT the) (NNS people)) (SBAR (WHNP-2 (WDT that)) (, ,) (RS (-DFL- \])) (INTJ (UH uh)) (, ,) (S (NP-SBJ (-NONE- *T*-2)) (VP (VBD did) (VP (VB send) (NP (PRP$ their) (NNS kids)) (PP (IN to) (NP (JJ private) (NNS schools))))))))))) (. .) (-DFL- E_S))",147
sw00utt/sw_0081_4380.utt,4/sw4380,4380,107,sv,B,66,2,"I think they compare [ fair-, + {D you know, } fairly ] well. /","[ I/PRP ] think/VBP  [ they/PRP ] compare/VBP  [ fair-/RB ] ,/,  [ you/PRP ] know/VBP ,/, fairly/RB well/RB ./.","(S (NP-SBJ (PRP I)) (VP (VBP think) (SBAR (-NONE- 0) (S (NP-SBJ (PRP they)) (VP (VBP compare) (EDITED (RM (-DFL- \[)) (ADVP-UNF (RB fair-)) (, ,) (IP (-DFL- \+))) (PRN (S (NP-SBJ (PRP you)) (VP (VBP know))) (, ,)) (ADVP (RB fairly) (RS (-DFL- \])) (RB well)))))) (. .) (-DFL- E_S))",151
sw00utt/sw_0081_4380.utt,4/sw4380,4380,108,b,A,67,1,Yeah.  /,[ Yeah/UH ] ./.,(INTJ (UH Yeah) (. .) (-DFL- E_S)),142
sw00utt/sw_0081_4380.utt,4/sw4380,4380,109,b^r,A,67,2,Yeah.  /,[ Yeah/UH ] ./.,(INTJ (UH Yeah) (. .) (-DFL- E_S)),142
sw00utt/sw_0081_4380.utt,4/sw4380,4380,110,sv,A,67,3,"{E I mean, } [ I don't, + I honestly don't ] really think I could have, {D you know, } done much better than I did in the school system I was in.","[ I/PRP ] mean/VBP ,/,  [ I/PRP ] do/VBP n't/RB ,/,  [ I/PRP ] honestly/RB do/VBP n't/RB really/RB think/VB  [ I/PRP ] could/MD have/VB ,/,  [ you/PRP ] know/VBP ,/, done/VBN much/RB better/RB than/IN  [ I/PRP ] did/VBD in/IN  [ the/DT school/NN system/NN ] [ I/PRP ] was/VBD in/IN ./.","(S (PRN (S (NP-SBJ (PRP I)) (VP (VBP mean))) (, ,)) (EDITED (RM (-DFL- \[)) (S (NP-SBJ (PRP I)) (VP-UNF (VBP do) (RB n't))) (, ,) (IP (-DFL- \+))) (NP-SBJ (PRP I)) (ADVP (RB honestly)) (VP (VBP do) (RB n't) (RS (-DFL- \])) (ADVP (RB really)) (VP (VB think) (SBAR (-NONE- 0) (S (NP-SBJ (PRP I)) (VP (MD could) (VP (VB have) (PRN (, ,) (S (NP-SBJ (PRP you)) (VP (VBP know))) (, ,)) (VP (VBN done) (ADVP (ADVP (RB much) (RB better)) (SBAR (IN than) (S (NP-SBJ (PRP I)) (VP (VBD did) (ADVP (-NONE- *?*)) (PP (IN in) (NP (NP (DT the) (NN school) (NN system)) (SBAR (WHNP-1 (-NONE- 0)) (S (NP-SBJ (PRP I)) (VP (VBD was) (PP-PRD (IN in) (NP (-NONE- *T*-1))))))))))))))))))) (. .))|||(S-UNF (PRN (S (NP-SBJ (PRP I)) (VP (VBP mean)))) (. .) (-DFL- E_S))",155|||156
sw00utt/sw_0081_4380.utt,4/sw4380,4380,111,b,B,68,1,Yeah. /,Yeah/UH ./.,(INTJ (UH Yeah) (. .) (-DFL- E_S)),142
sw00utt/sw_0081_4380.utt,4/sw4380,4380,112,+,A,69,1,{E ((I mean })). /,[ I/PRP ] mean/VBP ./.,(S-UNF (PRN (S (NP-SBJ (PRP I)) (VP (VBP mean)))) (. .) (-DFL- E_S)),156
sw00utt/sw_0081_4380.utt,4/sw4380,4380,113,%,B,70,1,"[ [ [ I, + I, ] + I, ] + my schools, ] {E I mean, } there, - /","[ I/PRP ] ,/,  [ I/PRP ] ,/,  [ I/PRP ] ,/,  [ my/PRP$ schools/NNS ] ,/,  [ I/PRP ] mean/VBP ,/, there/EX ,/,","(S-UNF (EDITED (RM (-DFL- \[)) (EDITED (RM (-DFL- \[)) (EDITED (RM (-DFL- \[)) (NP-SBJ (PRP I)) (, ,) (IP (-DFL- \+))) (NP-SBJ (PRP I)) (, ,) (RS (-DFL- \])) (IP (-DFL- \+))) (NP-SBJ (PRP I)) (, ,) (RS (-DFL- \])) (IP (-DFL- \+))) (NP-SBJ (PRP$ my) (NNS schools)) (, ,) (RS (-DFL- \])) (PRN (S (NP-SBJ (PRP I)) (VP (VBP mean))) (, ,)) (ADVP-LOC (EX there)) (, ,) (-DFL- N_S))",161
sw00utt/sw_0081_4380.utt,4/sw4380,4380,114,sd,B,70,2,I have a lot of - /,[ I/PRP ] have/VBP  [ a/DT lot/NN ] of/IN,(S (NP-SBJ (PRP I)) (VP (VBP have) (NP (NP (DT a) (NN lot)) (PP-UNF (IN of)))) (-DFL- N_S)),162
sw00utt/sw_0081_4380.utt,4/sw4380,4380,115,sd,B,70,3,"[ once, + once ] it seemed I got into high school, they had a lot of, {F uh, } (( )) accelerated programs and all kinds of --","once/RB ,/, once/RB  [ it/PRP ] seemed/VBD  [ I/PRP ] got/VBD into/IN  [ high/JJ school/NN ] ,/,  [ they/PRP ] had/VBD  [ a/DT lot/NN ] of/IN ,/,  [ uh/UH ] ,/, MUMBLEx/XX accelerated/JJ  [ programs/NNS ] and/CC  [ all/DT kinds/NNS ] of/IN --/:","(S (SBAR-TMP (EDITED (RM (-DFL- \[)) (SBAR-TMP-UNF (RB once)) (, ,) (IP (-DFL- \+))) (RB once) (RS (-DFL- \])) (PRN (S (NP-SBJ (PRP it)) (VP (VBD seemed)))) (S (NP-SBJ (PRP I)) (VP (VBD got) (PP (IN into) (NP (JJ high) (NN school)))))) (, ,) (NP-SBJ (PRP they)) (VP (VBD had) (NP (NP (DT a) (NN lot)) (PP (IN of) (, ,) (INTJ (UH uh)) (, ,) (X (XX MUMBLEx)) (NP (NP (JJ accelerated) (NNS programs)) (CC and) (NP (NP (DT all) (NNS kinds)) (PP (IN of) (NP (NP (NN stuff)) (PP (IN like) (NP (DT that)))))))))) (. .) (-DFL- E_S))",163
sw00utt/sw_0081_4380.utt,4/sw4380,4380,116,b,A,71,1,Yeah. /,Yeah/UH ./.,(INTJ (UH Yeah) (. .) (-DFL- E_S)),142
sw00utt/sw_0081_4380.utt,4/sw4380,4380,117,+,B,72,1,-- stuff like that.  /,--/: stuff/NN like/IN  [ that/DT ] ./.,"(S (SBAR-TMP (EDITED (RM (-DFL- \[)) (SBAR-TMP-UNF (RB once)) (, ,) (IP (-DFL- \+))) (RB once) (RS (-DFL- \])) (PRN (S (NP-SBJ (PRP it)) (VP (VBD seemed)))) (S (NP-SBJ (PRP I)) (VP (VBD got) (PP (IN into) (NP (JJ high) (NN school)))))) (, ,) (NP-SBJ (PRP they)) (VP (VBD had) (NP (NP (DT a) (NN lot)) (PP (IN of) (, ,) (INTJ (UH uh)) (, ,) (X (XX MUMBLEx)) (NP (NP (JJ accelerated) (NNS programs)) (CC and) (NP (NP (DT all) (NNS kinds)) (PP (IN of) (NP (NP (NN stuff)) (PP (IN like) (NP (DT that)))))))))) (. .) (-DFL- E_S))",163
sw00utt/sw_0081_4380.utt,4/sw4380,4380,118,sv,B,72,2,"[ That, + {E I mean, } that ] makes a big difference  /","[ That/DT ] ,/,  [ I/PRP ] mean/VBP ,/,  [ that/DT ] makes/VBZ  [ a/DT big/JJ difference/NN","(S (EDITED (RM (-DFL- \[)) (NP-SBJ (DT That)) (, ,) (IP (-DFL- \+))) (PRN (S (NP-SBJ (PRP I)) (VP (VBP mean))) (, ,)) (NP-SBJ (DT that)) (RS (-DFL- \])) (VP (VBZ makes) (NP (DT a) (JJ big) (NN difference))) (-DFL- E_S))",167
sw00utt/sw_0081_4380.utt,4/sw4380,4380,119,sd,B,72,3,"{C cause } I wondered when they're taking classes [ with, + {F uh, } with ] people that [ are really, + are ] interested in [ the, + the ] subject # and stuff like that. # -/","cause/IN ] [ I/PRP ] wondered/VBD when/WRB  [ they/PRP ] 're/VBP taking/VBG  [ classes/NNS ] with/IN ,/,  [ uh/UH ] ,/, with/IN  [ people/NNS ] [ that/WDT ] are/VBP really/RB ,/, are/VBP interested/JJ in/IN  [ the/DT ] ,/,  [ the/DT subject/NN ] and/CC  [ stuff/NN ] like/IN  [ that/DT ] ./.","(SBAR-PRP (IN cause) (S (NP-SBJ (PRP I)) (VP-UNF (VBD wondered) (SBAR-TMP (WHADVP-2 (WRB when)) (S (NP-SBJ (PRP they)) (VP (VBP 're) (VP (VP (VBG taking) (NP (NNS classes)) (EDITED (RM (-DFL- \[)) (PP-UNF (IN with)) (, ,) (IP (-DFL- \+))) (INTJ (UH uh)) (, ,) (PP (IN with) (RS (-DFL- \])) (NP (NP (NNS people)) (SBAR (WHNP-1 (WDT that)) (S (NP-SBJ (-NONE- *T*-1)) (EDITED (RM (-DFL- \[)) (VP-UNF (VBP are) (ADVP (RB really))) (, ,) (IP (-DFL- \+))) (VP (VBP are) (RS (-DFL- \])) (ADJP-PRD (JJ interested) (PP (IN in) (EDITED (RM (-DFL- \[)) (NP-UNF (DT the)) (, ,) (IP (-DFL- \+))) (NP (DT the) (RS (-DFL- \])) (NP (NN subject))))))))))) (CC and) (NP-ETC (NP (NN stuff)) (PP (IN like) (NP (DT that)))) (ADVP-TMP (-NONE- *T*-2)))))))) (. .) (-DFL- N_S))",168
sw00utt/sw_0081_4380.utt,4/sw4380,4380,120,b,A,73,1,# <Throat_clearing> Yeah.  /,Yeah/UH ./.,(INTJ (UH Yeah) (. .) (-DFL- E_S)),142
sw00utt/sw_0081_4380.utt,4/sw4380,4380,121,%,A,73,2,"{E I mean, } [ {C and } + # {C and } ] in the, -/","[ I/PRP ] mean/VBP ,/, and/CC and/CC in/IN  [ the/DT ] ,/,","(S-UNF (PRN (S-1 (NP-SBJ (PRP I)) (VP (VBP mean))) (, ,)) (EDITED (RM (-DFL- \[)) (CC and) (IP (-DFL- \+))) (CC and) (RS (-DFL- \])) (PP (IN in) (NP-UNF (DT the))) (, ,) (-DFL- N_S))",171
sw00utt/sw_0081_4380.utt,4/sw4380.pos,4380,122,x,B,74,1,<Sniffing>.,./.,,
sw00utt/sw_0081_4380.utt,4/sw4380,4380,123,sd,A,75,1,"<Sigh> once you [ ((book)) junior high, + {F uh, } start junior high, ] starting in eighth grade all the way through high school, there were four levels.  /","once/RB  [ you/PRP ] book/VBP  [ junior/JJ high/JJ ] ,/,  [ uh/UH ] ,/, start/VBP  [ junior/JJ high/JJ ] ,/, starting/VBG in/IN  [ eighth/JJ grade/NN ] [ all/PDT the/DT way/NN ] through/IN  [ high/JJ school/NN ] ,/,  [ there/EX ] were/VBD  [ four/CD levels/NNS ] ./.","(S (SBAR-TMP (RB once) (S (NP-SBJ-1 (PRP you)) (EDITED (RM (-DFL- \[)) (VP (VBP book) (NP (JJ junior) (JJ high))) (, ,) (IP (-DFL- \+))) (INTJ (UH uh)) (, ,) (VP (VBP start) (NP (JJ junior) (JJ high)) (, ,) (RS (-DFL- \])) (S-ADV (NP-SBJ (-NONE- *-1)) (VP (VBG starting) (PP (IN in) (NP (JJ eighth) (NN grade)))))))) (NP-ADV (NP (PDT all) (DT the) (NN way)) (PP (IN through) (NP (JJ high) (NN school)))) (, ,) (NP-SBJ (EX there)) (VP (VBD were) (NP-PRD (CD four) (NNS levels))) (. .) (-DFL- E_S))",174
sw00utt/sw_0081_4380.utt,4/sw4380,4380,124,ar,A,75,2,"{D Well, } no,  /","Well/UH ,/, no/UH ,/,","(INTJ (INTJ (UH Well)) (, ,) (INTJ (UH no)) (, ,) (-DFL- E_S))",175
sw00utt/sw_0081_4380.utt,4/sw4380,4380,125,sd,A,75,3,"I guess [ it wa-, + in junior high, it was ] still three.  /","[ I/PRP ] guess/VBP  [ it/PRP ] [ wa-/XX ] ,/, in/IN  [ junior/JJ high/JJ ] ,/,  [ it/PRP ] was/VBD still/RB  [ three/CD ] ./.","(S (NP-SBJ (PRP I)) (VP (VBP guess) (SBAR (-NONE- 0) (S (EDITED (RM (-DFL- \[)) (S (NP-SBJ (PRP it)) (VP-UNF (XX wa-))) (, ,) (IP (-DFL- \+))) (PP (IN in) (NP (JJ junior) (JJ high))) (, ,) (NP-SBJ (PRP it)) (VP (VBD was) (RS (-DFL- \])) (ADVP-TMP (RB still)) (NP-PRD (CD three)))))) (. .) (-DFL- E_S))",176
sw00utt/sw_0081_4380.utt,4/sw4380,4380,126,sd,A,75,4,"Then in high school it changed into four levels [ of, + {F uh, } of ] instruction in the major subjects.","Then/RB in/IN  [ high/JJ school/NN ] [ it/PRP ] changed/VBD into/IN  [ four/CD levels/NNS ] of/IN ,/,  [ uh/UH ] ,/, of/IN  [ instruction/NN ] in/IN  [ the/DT major/JJ subjects/NNS ] ./.","(S (ADVP (RB Then)) (PP (IN in) (NP (JJ high) (NN school))) (NP-SBJ (PRP it)) (VP (VP (VBD changed) (PP (IN into) (NP (NP (CD four) (NNS levels)) (EDITED (RM (-DFL- \[)) (PP-UNF (IN of)) (, ,) (IP (-DFL- \+))) (INTJ (UH uh)) (, ,) (PP (IN of) (RS (-DFL- \])) (NP (NN instruction))) (PP (IN in) (NP (DT the) (JJ major) (NNS subjects)))))) (. .) (INTJ (UH Uh)) (, ,) (SBAR-UNF (WHNP (WDT which)))) (, ,) (-DFL- N_S))",177
sw00utt/sw_0081_4380.utt,4/sw4380,4380,127,b,B,76,1,Uh-huh. /,[ Uh-huh/UH ] ./.,(INTJ (UH Uh-huh) (. .) (-DFL- E_S)),179
sw00utt/sw_0081_4380.utt,4/sw4380,4380,128,+,A,77,1,"{F Uh, } which, - /","[ Uh/UH ] ,/,  [ which/WDT ] ,/,","(S (ADVP (RB Then)) (PP (IN in) (NP (JJ high) (NN school))) (NP-SBJ (PRP it)) (VP (VP (VBD changed) (PP (IN into) (NP (NP (CD four) (NNS levels)) (EDITED (RM (-DFL- \[)) (PP-UNF (IN of)) (, ,) (IP (-DFL- \+))) (INTJ (UH uh)) (, ,) (PP (IN of) (RS (-DFL- \])) (NP (NN instruction))) (PP (IN in) (NP (DT the) (JJ major) (NNS subjects)))))) (. .) (INTJ (UH Uh)) (, ,) (SBAR-UNF (WHNP (WDT which)))) (, ,) (-DFL- N_S))",177
sw00utt/sw_0081_4380.utt,4/sw4380,4380,129,sv,A,77,2,"{E I mean, } actually I think that works pretty well.  /","[ I/PRP ] mean/VBP ,/, actually/RB  [ I/PRP ] think/VBP that/DT  [ works/VBZ ] pretty/RB well/RB ./.","(S (PRN (S (NP-SBJ (PRP I)) (VP (VBP mean))) (, ,)) (ADVP (RB actually)) (NP-SBJ (PRP I)) (VP (VBP think) (SBAR (-NONE- 0) (S (NP-SBJ (DT that)) (VP (VBZ works) (ADVP-MNR (RB pretty) (RB well)))))) (. .) (-DFL- E_S))",181
sw00utt/sw_0081_4380.utt,4/sw4380,4380,130,%,A,77,3,"(( )) {C and } [ that, + that ] makes, -/","[ MUMBLEx/XX ] and/CC that/DT ,/, that/DT makes/VBZ ,/,","(S (X (XX MUMBLEx)) (CC and) (EDITED (RM (-DFL- \[)) (NP-SBJ (DT that)) (, ,) (IP (-DFL- \+))) (NP-SBJ (DT that)) (RS (-DFL- \])) (VP-UNF (VBZ makes)) (, ,) (-DFL- N_S))",182
