sw2093B-ms98-a-0001	B.2	0.000000	34.523625		[silence]	[silence]
sw2093B-ms98-a-0002	B.2	34.523625	34.878000		[silence]	[silence]
sw2093B-ms98-a-0002	B.2	34.878000	35.023625		Yeah	yeah
sw2093B-ms98-a-0002	B.2	35.023625	35.085000		I	i
sw2093B-ms98-a-0002	B.2	35.085000	35.295750		have	have
sw2093B-ms98-a-0002	B.2	35.295750	35.483625		quite	quite
sw2093B-ms98-a-0002	B.2	35.483625	35.513625		a	a
sw2093B-ms98-a-0002	B.2	35.513625	35.723625		few	few
sw2093B-ms98-a-0002	B.2	35.723625	35.793625		of	of
sw2093B-ms98-a-0002	B.2	35.793625	36.043625		those	those
sw2093B-ms98-a-0002	B.2	36.043625	36.153625		that	that
sw2093B-ms98-a-0002	B.2	36.153625	36.393625		my	my
sw2093B-ms98-a-0002	B.2	36.393625	36.663625		uncle	uncle
sw2093B-ms98-a-0002	B.2	36.663625	36.991750		made	made
sw2093B-ms98-a-0002	B.4	36.991750	36.991750	<INS>	As	---
sw2093B-ms98-a-0002	B.4	36.991750	36.991750	<INS>	you	---
sw2093B-ms98-a-0002	B.4	36.991750	36.991750	<INS>	know	---
sw2093B-ms98-a-0002	B.4	36.991750	37.519500		[silence]	[silence]
sw2093B-ms98-a-0003	B.4	37.519500	44.990375		[silence]	[silence]
sw2093B-ms98-a-0004	B.4	44.990375	45.316375		[silence]	[silence]
sw2093B-ms98-a-0004	B.4	45.316375	46.039250		[laughter]	[laughter]
sw2093B-ms98-a-0004	B.4	46.039250	46.170375		I	i
sw2093B-ms98-a-0004	B.4	46.170375	46.440375		think	think
sw2093B-ms98-a-0004	B.4	46.440375	46.600375		it's	it's
sw2093B-ms98-a-0004	B.4	46.600375	46.810375		more	more
sw2093B-ms98-a-0004	B.4	46.810375	47.060375		like	like
sw2093B-ms98-a-0004	B.4	47.060375	47.140375		the	the
sw2093B-ms98-a-0004	B.4	47.140375	47.460375		mess	mess
sw2093B-ms98-a-0004	B.4	47.460375	47.550375		you	you
sw2093B-ms98-a-0004	B.4	47.550375	47.880375		make	make
sw2093B-ms98-a-0004	B.4	47.880375	48.140375		isn't	isn't
sw2093B-ms98-a-0004	B.4	48.140375	48.200375		it	it
sw2093B-ms98-a-0004	B.4	48.200375	48.290375	<DEL>	---	and
sw2093B-ms98-a-0004	B.4	48.290375	48.380375		You	you
sw2093B-ms98-a-0004	B.4	48.380375	48.590375		don't	don't
sw2093B-ms98-a-0004	B.4	48.590375	48.710375		have	have
sw2093B-ms98-a-0004	B.4	48.710375	48.860375		to	to
sw2093B-ms98-a-0004	B.4	48.860375	49.060375		worry	worry
sw2093B-ms98-a-0004	B.4	49.060375	49.267125		about	about
sw2093B-ms98-a-0004	B.4	49.267125	49.399000		[silence]	[silence]
sw2093B-ms98-a-0004	B.4	49.399000	49.710375		cleaning	cleaning
sw2093B-ms98-a-0004	B.4	49.710375	49.840375		it	it
sw2093B-ms98-a-0004	B.4	49.840375	50.030375		up	up
sw2093B-ms98-a-0004	B.6	50.030375	50.545625		[silence]	[silence]
sw2093B-ms98-a-0005	B.6	50.545625	66.660125		[silence]	[silence]
sw2093B-ms98-a-0006	B.6	66.660125	67.222125		[silence]	[silence]
sw2093B-ms98-a-0006	B.6	67.222125	67.460125		Well	well
sw2093B-ms98-a-0006	B.6	67.460125	67.620125		when	when
sw2093B-ms98-a-0006	B.6	67.620125	67.750125		I	i
sw2093B-ms98-a-0006	B.6	67.750125	68.000125		have	have
sw2093B-ms98-a-0006	B.6	68.000125	68.460125		time	time
sw2093B-ms98-a-0006	B.6	68.460125	68.560125		I	i
sw2093B-ms98-a-0006	B.6	68.560125	68.790125		do	do
sw2093B-ms98-a-0006	B.6	68.790125	69.030125		like	like
sw2093B-ms98-a-0006	B.6	69.030125	69.100125		to	to
sw2093B-ms98-a-0006	B.6	69.100125	69.640125		sew	sew
sw2093B-ms98-a-0006	B.6	69.640125	70.320125		um	um
sw2093B-ms98-a-0006	B.6	70.320125	70.420125		I	i
sw2093B-ms98-a-0006	B.6	70.420125	70.660125		had	had
sw2093B-ms98-a-0006	B.6	70.660125	70.860125		been	been
sw2093B-ms98-a-0006	B.6	70.860125	71.060125		doing	doing
sw2093B-ms98-a-0006	B.6	71.060125	71.100125		a	a
sw2093B-ms98-a-0006	B.6	71.100125	71.290125		lot	lot
sw2093B-ms98-a-0006	B.6	71.290125	71.350125		of	of
sw2093B-ms98-a-0006	B.6	71.350125	71.920125		crocheting	crocheting
sw2093B-ms98-a-0006	B.6	71.920125	72.090125		I	i
sw2093B-ms98-a-0006	B.6	72.090125	72.310125		make	make
sw2093B-ms98-a-0006	B.6	72.310125	72.360125		a	a
sw2093B-ms98-a-0006	B.6	72.360125	72.540125		lot	lot
sw2093B-ms98-a-0006	B.6	72.540125	72.620125		of	of
sw2093B-ms98-a-0006	B.6	72.620125	73.260125		afghans	afghans
sw2093B-ms98-a-0006	B.6	73.260125	73.340125		or	or
sw2093B-ms98-a-0006	B.6	73.340125	73.600125		used	used
sw2093B-ms98-a-0006	B.6	73.600125	73.660125		to	to
sw2093B-ms98-a-0006	B.6	73.660125	73.880125		make	make
sw2093B-ms98-a-0006	B.6	73.880125	73.950125		a	a
sw2093B-ms98-a-0006	B.6	73.950125	74.200125		lot	lot
sw2093B-ms98-a-0006	B.6	74.200125	74.350125		of	of
sw2093B-ms98-a-0006	B.6	74.350125	74.480750		them	them
sw2093B-ms98-a-0006	B.8	74.480750	74.650750		[silence]	[silence]
sw2093B-ms98-a-0007	B.8	74.650750	74.938000		[silence]	[silence]
sw2093B-ms98-a-0007	B.8	74.938000	75.030750		My	my
sw2093B-ms98-a-0007	B.8	75.030750	75.340750		mother	mother
sw2093B-ms98-a-0007	B.8	75.340750	75.550750		was	was
sw2093B-ms98-a-0007	B.8	75.550750	75.800750		real	real
sw2093B-ms98-a-0007	B.8	75.800750	76.260750		heavy	heavy
sw2093B-ms98-a-0007	B.8	76.260750	76.520750		into	into
sw2093B-ms98-a-0007	B.8	76.520750	77.060750		crafts	crafts
sw2093B-ms98-a-0007	B.8	77.060750	77.190750		and	and
sw2093B-ms98-a-0007	B.8	77.190750	77.300750		I	i
sw2093B-ms98-a-0007	B.8	77.300750	77.470750		would	would
sw2093B-ms98-a-0007	B.8	77.470750	77.710750		help	help
sw2093B-ms98-a-0007	B.8	77.710750	78.000750		her	her
sw2093B-ms98-a-0007	B.8	78.000750	78.200750		with	with
sw2093B-ms98-a-0007	B.8	78.200750	78.580750		whatever	whatever
sw2093B-ms98-a-0007	B.8	78.580750	78.790750		she	she
sw2093B-ms98-a-0007	B.8	78.790750	79.190750		happened	happened
sw2093B-ms98-a-0007	B.8	79.190750	79.290750		to	to
sw2093B-ms98-a-0007	B.8	79.290750	79.420750		be	be
sw2093B-ms98-a-0007	B.8	79.420750	79.890750		doing	doing
sw2093B-ms98-a-0007	B.8	79.890750	80.030750		and	and
sw2093B-ms98-a-0007	B.8	80.030750	80.190750		then	then
sw2093B-ms98-a-0007	B.8	80.190750	80.400750		she	she
sw2093B-ms98-a-0007	B.8	80.400750	80.600750		would	would
sw2093B-ms98-a-0007	B.8	80.600750	80.942750		go	go
sw2093B-ms98-a-0007	B.8	80.942750	81.070750		to	to
sw2093B-ms98-a-0007	B.8	81.070750	81.570750		these	these
sw2093B-ms98-a-0007	B.8	81.570750	81.809125		uh	uh
sw2093B-ms98-a-0007	B.8	81.809125	82.562500		[silence]	[silence]
sw2093B-ms98-a-0007	B.8	82.562500	82.778875		arts	arts
sw2093B-ms98-a-0007	B.8	82.778875	82.910750		and	and
sw2093B-ms98-a-0007	B.8	82.910750	83.310750		crafts	crafts
sw2093B-ms98-a-0007	B.8	83.310750	83.680750		shows	shows
sw2093B-ms98-a-0007	B.8	83.680750	83.800750		and	and
sw2093B-ms98-a-0007	B.8	83.800750	84.160750		sell	sell
sw2093B-ms98-a-0007	B.8	84.160750	84.442625		her	her
sw2093B-ms98-a-0007	B.8	84.442625	84.668625		[silence]	[silence]
sw2093B-ms98-a-0007	B.8	84.668625	85.356625		needlework	needlework
sw2093B-ms98-a-0007	B.10	85.356625	85.921125		[silence]	[silence]
sw2093B-ms98-a-0008	B.10	85.921125	86.493875		[silence]	[silence]
sw2093B-ms98-a-0008	B.10	86.493875	86.649375		So	so
sw2093B-ms98-a-0008	B.10	86.649375	86.728375		a	a
sw2093B-ms98-a-0008	B.10	86.728375	87.041125		lot	lot
sw2093B-ms98-a-0008	B.10	87.041125	87.101125		of	of
sw2093B-ms98-a-0008	B.10	87.101125	87.441125		times	times
sw2093B-ms98-a-0008	B.10	87.441125	87.601125		I'd	i'd
sw2093B-ms98-a-0008	B.10	87.601125	87.841125		help	help
sw2093B-ms98-a-0008	B.10	87.841125	88.051125		her	her
sw2093B-ms98-a-0008	B.10	88.051125	88.251125		with	with
sw2093B-ms98-a-0008	B.10	88.251125	89.391125		that	that
sw2093B-ms98-a-0008	B.10	89.391125	89.421125		I	i
sw2093B-ms98-a-0008	B.10	89.421125	89.741125		haven't	haven't
sw2093B-ms98-a-0008	B.10	89.741125	89.971125		had	had
sw2093B-ms98-a-0008	B.10	89.971125	90.311125		much	much
sw2093B-ms98-a-0008	B.10	90.311125	90.981125		opportunity	opportunity
sw2093B-ms98-a-0008	B.10	90.981125	91.061125		to	to
sw2093B-ms98-a-0008	B.10	91.061125	91.351125		work	work
sw2093B-ms98-a-0008	B.10	91.351125	91.511125		on	on
sw2093B-ms98-a-0008	B.10	91.511125	91.711125		any	any
sw2093B-ms98-a-0008	B.10	91.711125	91.841125		other	other
sw2093B-ms98-a-0008	B.10	91.841125	92.211125		craft	craft
sw2093B-ms98-a-0008	B.10	92.211125	92.511125		stuff	stuff
sw2093B-ms98-a-0008	B.10	92.511125	92.881125		lately	lately
sw2093B-ms98-a-0008	B.10	92.881125	93.091125		we've	we've
sw2093B-ms98-a-0008	B.10	93.091125	93.271125		been	been
sw2093B-ms98-a-0008	B.10	93.271125	93.707375		trying	trying
sw2093B-ms98-a-0008	B.10	93.707375	93.901125		to	to
sw2093B-ms98-a-0008	B.10	93.901125	94.391125		start	start
sw2093B-ms98-a-0008	B.10	94.391125	94.541125		up	up
sw2093B-ms98-a-0008	B.10	94.541125	94.601125		a	a
sw2093B-ms98-a-0008	B.10	94.601125	95.121125		business	business
sw2093B-ms98-a-0008	B.10	95.121125	95.241125		and	and
sw2093B-ms98-a-0008	B.10	95.241125	95.351125		then	then
sw2093B-ms98-a-0008	B.10	95.351125	95.661125		trying	trying
sw2093B-ms98-a-0008	B.10	95.661125	95.731125		to	to
sw2093B-ms98-a-0008	B.10	95.731125	95.891125		get	get
sw2093B-ms98-a-0008	B.10	95.891125	96.061125		my	my
sw2093B-ms98-a-0008	B.10	96.061125	96.591125		garden	garden
sw2093B-ms98-a-0008	B.10	96.591125	97.056125		going	going
sw2093B-ms98-a-0008	B.12	97.056125	97.191500		[silence]	[silence]
sw2093B-ms98-a-0009	B.12	97.191500	98.682125		[silence]	[silence]
sw2093B-ms98-a-0010	B.12	98.682125	99.279875		[silence]	[silence]
sw2093B-ms98-a-0010	B.12	99.279875	99.630500		Oh	oh
sw2093B-ms98-a-0010	B.12	99.630500	99.845250		[silence]	[silence]
sw2093B-ms98-a-0010	B.12	99.845250	100.045750		yeah	yeah
sw2093B-ms98-a-0010	B.12	100.045750	100.282125		it's	it's
sw2093B-ms98-a-0010	B.12	100.282125	100.462125		been	been
sw2093B-ms98-a-0010	B.12	100.462125	100.892125		beautiful	beautiful
sw2093B-ms98-a-0010	B.12	100.892125	101.102125		this	this
sw2093B-ms98-a-0010	B.12	101.102125	101.412125		last	last
sw2093B-ms98-a-0010	B.12	101.412125	101.702125		week	week
sw2093B-ms98-a-0010	B.12	101.702125	101.833875		but	but
sw2093B-ms98-a-0010	B.14	101.833875	102.147250		[silence]	[silence]
sw2093B-ms98-a-0011	B.14	102.147250	107.753500		[silence]	[silence]
sw2093B-ms98-a-0012	B.14	107.753500	108.311750		[silence]	[silence]
sw2093B-ms98-a-0012	B.14	108.311750	108.605250		Yeah	yeah
sw2093B-ms98-a-0012	B.16	108.605250	109.062750		[silence]	[silence]
sw2093B-ms98-a-0013	B.16	109.062750	116.466000		[silence]	[silence]
sw2093B-ms98-a-0014	B.16	116.466000	116.996625		[silence]	[silence]
sw2093B-ms98-a-0014	B.16	116.996625	117.358500		I	i
sw2093B-ms98-a-0014	B.16	117.358500	117.746000		usually	usually
sw2093B-ms98-a-0014	B.16	117.746000	118.166000		start	start
sw2093B-ms98-a-0014	B.16	118.166000	118.226000		in	in
sw2093B-ms98-a-0014	B.16	118.226000	118.313125		the	the
sw2093B-ms98-a-0014	B.16	118.313125	118.816250		fall	fall
sw2093B-ms98-a-0014	B.18	118.816250	119.060875		[silence]	[silence]
sw2093B-ms98-a-0015	B.18	119.060875	119.329000		[silence]	[silence]
sw2093B-ms98-a-0015	B.18	119.329000	119.742750		And	and
sw2093B-ms98-a-0015	B.18	119.742750	120.317750		[vocalized-noise]	[vocalized-noise]
sw2093B-ms98-a-0015	B.18	120.317750	120.480875		my	my
sw2093B-ms98-a-0015	B.18	120.480875	120.850875		husband	husband
sw2093B-ms98-a-0015	B.18	120.850875	121.010875		says	says
sw2093B-ms98-a-0015	B.18	121.010875	121.130875		I	i
sw2093B-ms98-a-0015	B.18	121.130875	121.300875		do	do
sw2093B-ms98-a-0015	B.18	121.300875	121.592250		it	it
sw2093B-ms98-a-0015	B.18	121.592250	121.790875		you	you
sw2093B-ms98-a-0015	B.18	121.790875	121.930875		know	know
sw2093B-ms98-a-0015	B.18	121.930875	122.180875		make	make
sw2093B-ms98-a-0015	B.18	122.180875	122.670875		afghans	afghans
sw2093B-ms98-a-0015	B.18	122.670875	122.750875		so	so
sw2093B-ms98-a-0015	B.18	122.750875	122.800875		I	i
sw2093B-ms98-a-0015	B.18	122.800875	122.890875		can	can
sw2093B-ms98-a-0015	B.18	122.890875	123.060875		keep	keep
sw2093B-ms98-a-0015	B.18	123.060875	123.190875		my	my
sw2093B-ms98-a-0015	B.18	123.190875	123.590875		lap	lap
sw2093B-ms98-a-0015	B.18	123.590875	123.933500		warm	warm
sw2093B-ms98-a-0015	B.20	123.933500	124.503250		[silence]	[silence]
sw2093B-ms98-a-0016	B.20	124.503250	131.130125		[silence]	[silence]
sw2093B-ms98-a-0017	B.20	131.130125	131.552125		[silence]	[silence]
sw2093B-ms98-a-0017	B.20	131.552125	131.865875		Yeah	yeah
sw2093B-ms98-a-0017	B.22	131.865875	132.328500		[silence]	[silence]
sw2093B-ms98-a-0018	B.22	132.328500	144.179375		[silence]	[silence]
sw2093B-ms98-a-0019	B.22	144.179375	144.732250		[silence]	[silence]
sw2093B-ms98-a-0019	B.22	144.732250	145.011500		Yeah	yeah
sw2093B-ms98-a-0019	B.22	145.011500	145.173750		I	i
sw2093B-ms98-a-0019	B.22	145.173750	145.271000		[silence]	[silence]
sw2093B-ms98-a-0019	B.22	145.271000	145.479375		found	found
sw2093B-ms98-a-0019	B.22	145.479375	145.649375		one	one
sw2093B-ms98-a-0019	B.22	145.649375	145.849375		that's	that's
sw2093B-ms98-a-0019	B.22	145.849375	146.099375		real	real
sw2093B-ms98-a-0019	B.22	146.099375	146.429375		easy	easy
sw2093B-ms98-a-0019	B.22	146.429375	146.729375	<SUB>	it's	it['s]-
sw2093B-ms98-a-0019	B.22	146.729375	147.069375		it's	it's
sw2093B-ms98-a-0019	B.22	147.069375	147.341375		um	um
sw2093B-ms98-a-0019	B.22	147.341375	147.897875		[silence]	[silence]
sw2093B-ms98-a-0020	B.22	147.897875	148.520750		[silence]	[silence]
sw2093B-ms98-a-0020	B.22	148.520750	148.858500		um	um
sw2093B-ms98-a-0020	B.22	148.858500	149.502625		[silence]	[silence]
sw2093B-ms98-a-0020	B.22	149.502625	149.767875		um	um
sw2093B-ms98-a-0020	B.22	149.767875	150.067875		shoot	shoot
sw2093B-ms98-a-0020	B.22	150.067875	150.117875		I	i
sw2093B-ms98-a-0020	B.22	150.117875	150.397875		can't	can't
sw2093B-ms98-a-0020	B.22	150.397875	150.527875		even	even
sw2093B-ms98-a-0020	B.22	150.527875	150.837875		remember	remember
sw2093B-ms98-a-0020	B.22	150.837875	150.907875		the	the
sw2093B-ms98-a-0020	B.22	150.907875	151.197875		name	name
sw2093B-ms98-a-0020	B.22	151.197875	151.337875		of	of
sw2093B-ms98-a-0020	B.22	151.337875	151.407875		it	it
sw2093B-ms98-a-0020	B.22	151.407875	151.672125		now	now
sw2093B-ms98-a-0020	B.22	151.672125	152.086375		[silence]	[silence]
sw2093B-ms98-a-0020	B.22	152.086375	152.197875		but	but
sw2093B-ms98-a-0020	B.22	152.197875	152.307875		you	you
sw2093B-ms98-a-0020	B.22	152.307875	152.547875		make	make
sw2093B-ms98-a-0020	B.22	152.547875	152.677875		it	it
sw2093B-ms98-a-0020	B.22	152.677875	152.767875		in	in
sw2093B-ms98-a-0020	B.22	152.767875	153.587875		strips	strips
sw2093B-ms98-a-0020	B.22	153.587875	153.887875		And	and
sw2093B-ms98-a-0020	B.22	153.887875	154.147875		it's	it's
sw2093B-ms98-a-0020	B.22	154.147875	154.457875		real	real
sw2093B-ms98-a-0020	B.22	154.457875	154.857875		easy	easy
sw2093B-ms98-a-0020	B.22	154.857875	154.997875		to	to
sw2093B-ms98-a-0020	B.22	154.997875	155.207875		do	do
sw2093B-ms98-a-0020	B.22	155.207875	156.097875		and	and
sw2093B-ms98-a-0020	B.22	156.097875	156.567875		it's	it's
sw2093B-ms98-a-0020	B.22	156.567875	156.767875		just	just
sw2093B-ms98-a-0020	B.22	156.767875	156.877875		that	that
sw2093B-ms98-a-0020	B.22	156.877875	157.047875		it	it
sw2093B-ms98-a-0020	B.22	157.047875	157.337875		doesn't	doesn't
sw2093B-ms98-a-0020	B.22	157.337875	157.517875		keep	keep
sw2093B-ms98-a-0020	B.22	157.517875	157.607875		your	your
sw2093B-ms98-a-0020	B.22	157.607875	157.867875		feet	feet
sw2093B-ms98-a-0020	B.22	157.867875	158.137875		quite	quite
sw2093B-ms98-a-0020	B.22	158.137875	158.267875		as	as
sw2093B-ms98-a-0020	B.22	158.267875	158.527875		warm	warm
sw2093B-ms98-a-0020	B.22	158.527875	158.787875		because	because
sw2093B-ms98-a-0020	B.22	158.787875	158.867875		you	you
sw2093B-ms98-a-0020	B.22	158.867875	159.007875		do	do
sw2093B-ms98-a-0020	B.22	159.007875	159.117875		it	it
sw2093B-ms98-a-0020	B.22	159.117875	159.177875		in	in
sw2093B-ms98-a-0020	B.22	159.177875	159.567875		strips	strips
sw2093B-ms98-a-0020	B.22	159.567875	159.827875		like	like
sw2093B-ms98-a-0020	B.22	159.827875	160.057875		that	that
sw2093B-ms98-a-0020	B.22	160.057875	160.187875		but	but
sw2093B-ms98-a-0020	B.22	160.187875	160.325500		it's	it's
sw2093B-ms98-a-0020	B.24	160.325500	161.015875		[silence]	[silence]
sw2093B-ms98-a-0021	B.24	161.015875	161.669625		[silence]	[silence]
sw2093B-ms98-a-0021	B.24	161.669625	162.020000		Yeah	yeah
sw2093B-ms98-a-0021	B.24	162.020000	162.585750		[silence]	[silence]
sw2093B-ms98-a-0021	B.24	162.585750	162.865875		yeah	yeah
sw2093B-ms98-a-0021	B.26	162.865875	163.344750		[silence]	[silence]
sw2093B-ms98-a-0022	B.26	163.344750	163.604750		[silence]	[silence]
sw2093B-ms98-a-0022	B.26	163.604750	163.914750		Mile	Mile
sw2093B-ms98-a-0022	B.26	163.914750	163.974750		a	a
sw2093B-ms98-a-0022	B.26	163.974750	164.304750		Minute	Minute
sw2093B-ms98-a-0022	B.26	164.304750	164.604750		That's	that's
sw2093B-ms98-a-0022	B.26	164.604750	164.664750		the	the
sw2093B-ms98-a-0022	B.26	164.664750	164.944750		name	name
sw2093B-ms98-a-0022	B.26	164.944750	165.084750		of	of
sw2093B-ms98-a-0022	B.26	165.084750	165.188375		it	it
sw2093B-ms98-a-0022	B.28	165.188375	165.668625		[silence]	[silence]
sw2093B-ms98-a-0023	B.28	165.668625	165.868625		[silence]	[silence]
sw2093B-ms98-a-0023	B.28	165.868625	166.148625		Mile	Mile
sw2093B-ms98-a-0023	B.28	166.148625	166.198625		a	a
sw2093B-ms98-a-0023	B.28	166.198625	166.503000		Minute	Minute
sw2093B-ms98-a-0023	B.30	166.503000	167.032875		[silence]	[silence]
sw2093B-ms98-a-0024	B.30	167.032875	181.374875		[silence]	[silence]
sw2093B-ms98-a-0025	B.30	181.374875	181.868250		[silence]	[silence]
sw2093B-ms98-a-0025	B.30	181.868250	182.224625		Yeah	yeah
sw2093B-ms98-a-0025	B.30	182.224625	182.820875		[silence]	[silence]
sw2093B-ms98-a-0025	B.30	182.820875	182.964875		yeah	yeah
sw2093B-ms98-a-0025	B.30	182.964875	183.464875		Usually	usually
sw2093B-ms98-a-0025	B.30	183.464875	183.894875		single	single
sw2093B-ms98-a-0025	B.30	183.894875	184.434875		crochet	crochet
sw2093B-ms98-a-0025	B.30	184.434875	184.744875		would	would
sw2093B-ms98-a-0025	B.30	184.744875	185.074875		is	is
sw2093B-ms98-a-0025	B.30	185.074875	185.224875		is	is
sw2093B-ms98-a-0025	B.30	185.224875	185.544875		always	always
sw2093B-ms98-a-0025	B.30	185.544875	185.954875		starts	starts
sw2093B-ms98-a-0025	B.30	185.954875	186.044875		it	it
sw2093B-ms98-a-0025	B.30	186.044875	186.364875		off	off
sw2093B-ms98-a-0025	B.32	186.364875	187.287625		[silence]	[silence]
sw2093B-ms98-a-0026	B.32	187.287625	188.077625		[silence]	[silence]
sw2093B-ms98-a-0026	B.32	188.077625	188.237625		If	if
sw2093B-ms98-a-0026	B.32	188.237625	188.377625		we	we
sw2093B-ms98-a-0026	B.32	188.377625	188.577625		have	have
sw2093B-ms98-a-0026	B.32	188.577625	188.687625		a	a
sw2093B-ms98-a-0026	B.32	188.687625	189.157625		problem	problem
sw2093B-ms98-a-0026	B.32	189.157625	189.317625		with	with
sw2093B-ms98-a-0026	B.32	189.317625	189.515750		our	our
sw2093B-ms98-a-0026	B.32	189.515750	190.036375		connection	connection
sw2093B-ms98-a-0026	B.32	190.036375	190.228500		and	and
sw2093B-ms98-a-0026	B.32	190.228500	190.402375		get	get
sw2093B-ms98-a-0026	B.32	190.402375	190.941000		[silence]	[silence]
sw2093B-ms98-a-0026	B.32	190.941000	191.677625		disconnected	disconnected
sw2093B-ms98-a-0026	B.32	191.677625	191.927625		some	some
sw2093B-ms98-a-0026	B.32	191.927625	192.227625		time	time
sw2093B-ms98-a-0026	B.32	192.227625	192.357625		or	or
sw2093B-ms98-a-0026	B.32	192.357625	192.557625		other	other
sw2093B-ms98-a-0026	B.32	192.557625	192.847625		don't	don't
sw2093B-ms98-a-0026	B.32	192.847625	193.097625		worry	worry
sw2093B-ms98-a-0026	B.32	193.097625	193.417625		about	about
sw2093B-ms98-a-0026	B.32	193.417625	193.547625		it	it
sw2093B-ms98-a-0026	B.32	193.547625	193.707625		We	we
sw2093B-ms98-a-0026	B.32	193.707625	193.967625		have	have
sw2093B-ms98-a-0026	B.32	193.967625	194.667625		a	a
sw2093B-ms98-a-0026	B.32	194.667625	194.717625		a	a
sw2093B-ms98-a-0026	B.32	194.717625	195.308500		very	very
sw2093B-ms98-a-0026	B.32	195.308500	195.402625		[silence]	[silence]
sw2093B-ms98-a-0026	B.32	195.402625	196.376875		small	small
sw2093B-ms98-a-0026	B.32	196.376875	196.576500		[silence]	[silence]
sw2093B-ms98-a-0026	B.32	196.576500	196.887625		phone	phone
sw2093B-ms98-a-0026	B.32	196.887625	197.247625		company	company
sw2093B-ms98-a-0026	B.32	197.247625	197.527625		down	down
sw2093B-ms98-a-0026	B.32	197.527625	197.787625		here	here
sw2093B-ms98-a-0026	B.34	197.787625	198.158250		[silence]	[silence]
sw2093B-ms98-a-0027	B.34	198.158250	198.667375		[silence]	[silence]
sw2093B-ms98-a-0027	B.34	198.667375	199.033250		And	and
sw2093B-ms98-a-0027	B.34	199.033250	199.944750		[noise]	[noise]
sw2093B-ms98-a-0027	B.34	199.944750	200.088250		my	my
sw2093B-ms98-a-0027	B.34	200.088250	200.388250		husband	husband
sw2093B-ms98-a-0027	B.34	200.388250	200.598250		says	says
sw2093B-ms98-a-0027	B.34	200.598250	200.808250		that's	that's
sw2093B-ms98-a-0027	B.34	200.808250	201.118250		called	called
sw2093B-ms98-a-0027	B.34	201.118250	201.818250		rinky-dink	rinky-dink
sw2093B-ms98-a-0027	B.36	201.818250	202.425625		[laughter]	[laughter]
sw2093B-ms98-a-0027	B.36	202.425625	202.474000		[silence]	[silence]
sw2093B-ms98-a-0028	B.36	202.474000	204.226000		[silence]	[silence]
sw2093B-ms98-a-0029	B.36	204.226000	204.756000		[silence]	[silence]
sw2093B-ms98-a-0029	B.36	204.756000	205.216500		No	no
sw2093B-ms98-a-0029	B.36	205.216500	205.491250		[silence]	[silence]
sw2093B-ms98-a-0029	B.36	205.491250	205.706000		no	no
sw2093B-ms98-a-0029	B.38	205.706000	205.836000		We	we
sw2093B-ms98-a-0029	B.38	205.836000	206.136000		can't	can't
sw2093B-ms98-a-0029	B.38	206.136000	206.386000		have	have
sw2093B-ms98-a-0029	B.38	206.386000	206.596000		that	that
sw2093B-ms98-a-0029	B.38	206.596000	206.816000		down	down
sw2093B-ms98-a-0029	B.38	206.816000	207.005125		here	here
sw2093B-ms98-a-0029	B.38	207.005125	207.280000		[silence]	[silence]
sw2093B-ms98-a-0029	B.38	207.280000	207.376000		We	we
sw2093B-ms98-a-0029	B.38	207.376000	207.586000		get	get
sw2093B-ms98-a-0029	B.38	207.586000	208.296000		disconnected	disconnected
sw2093B-ms98-a-0029	B.38	208.296000	208.486000		all	all
sw2093B-ms98-a-0029	B.38	208.486000	208.546000		the	the
sw2093B-ms98-a-0029	B.38	208.546000	208.857500		time	time
sw2093B-ms98-a-0029	B.40	208.857500	209.311625		[silence]	[silence]
sw2093B-ms98-a-0030	B.40	209.311625	211.608500		[silence]	[silence]
sw2093B-ms98-a-0031	B.40	211.608500	212.048500		[silence]	[silence]
sw2093B-ms98-a-0031	B.40	212.048500	212.479000		Yeah	yeah
sw2093B-ms98-a-0031	B.40	212.479000	212.651625		[silence]	[silence]
sw2093B-ms98-a-0031	B.40	212.651625	213.048500		well	well
sw2093B-ms98-a-0031	B.40	213.048500	213.249875		it	it
sw2093B-ms98-a-0031	B.40	213.249875	213.408125		[silence]	[silence]
sw2093B-ms98-a-0031	B.40	213.408125	213.568500		gets	gets
sw2093B-ms98-a-0031	B.40	213.568500	213.598500		a	a
sw2093B-ms98-a-0031	B.40	213.598500	213.828500		little	little
sw2093B-ms98-a-0031	B.40	213.828500	214.428500		aggravating	aggravating
sw2093B-ms98-a-0031	B.40	214.428500	214.608500		I've	i've
sw2093B-ms98-a-0031	B.40	214.608500	214.808500		got	got
sw2093B-ms98-a-0031	B.40	214.808500	215.098500		kids	kids
sw2093B-ms98-a-0031	B.40	215.098500	215.308500		all	all
sw2093B-ms98-a-0031	B.40	215.308500	215.428500		over	over
sw2093B-ms98-a-0031	B.40	215.428500	215.488500		the	the
sw2093B-ms98-a-0031	B.40	215.488500	215.908500		United	United
sw2093B-ms98-a-0031	B.40	215.908500	216.438500		States	States
sw2093B-ms98-a-0031	B.40	216.438500	216.658500		and	and
sw2093B-ms98-a-0031	B.40	216.658500	217.568500		and	and
sw2093B-ms98-a-0031	B.40	217.568500	217.638500		you	you
sw2093B-ms98-a-0031	B.40	217.638500	217.818500		know	know
sw2093B-ms98-a-0031	B.40	217.818500	218.658500		sometimes	sometimes
sw2093B-ms98-a-0031	B.40	218.658500	218.778500		they	they
sw2093B-ms98-a-0031	B.40	218.778500	218.968500		get	get
sw2093B-ms98-a-0031	B.40	218.968500	219.658500		disconnected	disconnected
sw2093B-ms98-a-0031	B.40	219.658500	219.788500		when	when
sw2093B-ms98-a-0031	B.40	219.788500	219.878500		I'm	i'm
sw2093B-ms98-a-0031	B.40	219.878500	220.288500		talking	talking
sw2093B-ms98-a-0031	B.40	220.288500	220.388500		to	to
sw2093B-ms98-a-0031	B.40	220.388500	220.735000		them	them
sw2093B-ms98-a-0031	B.42	220.735000	221.251750		[silence]	[silence]
sw2093B-ms98-a-0032	B.42	221.251750	223.096375		[silence]	[silence]
sw2093B-ms98-a-0033	B.42	223.096375	223.703875		[silence]	[silence]
sw2093B-ms98-a-0033	B.42	223.703875	224.126375		Yes	yes
sw2093B-ms98-a-0033	B.42	224.126375	224.236375		We	we
sw2093B-ms98-a-0033	B.42	224.236375	224.916375		planted	planted
sw2093B-ms98-a-0033	B.42	224.916375	225.276375		um	um
sw2093B-ms98-a-0033	B.42	225.276375	226.006375		potatoes	potatoes
sw2093B-ms98-a-0033	B.42	226.006375	226.366375		and	and
sw2093B-ms98-a-0033	B.42	226.366375	227.006375		onions	onions
sw2093B-ms98-a-0033	B.42	227.006375	227.416375		and	and
sw2093B-ms98-a-0033	B.42	227.416375	227.626375		bell	bell
sw2093B-ms98-a-0033	B.42	227.626375	228.161250		peppers	peppers
sw2093B-ms98-a-0033	B.44	228.161250	228.681750		[silence]	[silence]
sw2093B-ms98-a-0034	B.44	228.681750	229.239875		[silence]	[silence]
sw2093B-ms98-a-0034	B.44	229.239875	229.849875		Uh	uh
sw2093B-ms98-a-0034	B.44	229.849875	230.322000		[silence]	[silence]
sw2093B-ms98-a-0035	B.44	230.322000	231.346000		[silence]	[silence]
sw2093B-ms98-a-0036	B.44	231.346000	231.366000		[silence]	[silence]
sw2093B-ms98-a-0036	B.44	231.366000	231.456000		what	what
sw2093B-ms98-a-0036	B.44	231.456000	231.636000		else	else
sw2093B-ms98-a-0036	B.44	231.636000	231.766000		did	did
sw2093B-ms98-a-0036	B.44	231.766000	231.846000		I	i
sw2093B-ms98-a-0036	B.44	231.846000	232.036000		get	get
sw2093B-ms98-a-0036	B.44	232.036000	232.116000		in	in
sw2093B-ms98-a-0036	B.44	232.116000	232.236000		there	there
sw2093B-ms98-a-0036	B.44	232.236000	232.366000		and	and
sw2093B-ms98-a-0036	B.44	232.366000	233.036000		jalapeno	jalapeno
sw2093B-ms98-a-0036	B.44	233.036000	233.436000		peppers	peppers
sw2093B-ms98-a-0036	B.46	233.436000	233.583000		[silence]	[silence]
sw2093B-ms98-a-0037	B.46	233.583000	234.584125		[silence]	[silence]
sw2093B-ms98-a-0038	B.46	234.584125	234.871625		[silence]	[silence]
sw2093B-ms98-a-0038	B.46	234.871625	235.164125		Yeah	yeah
sw2093B-ms98-a-0038	B.48	235.164125	235.514875		[silence]	[silence]
sw2093B-ms98-a-0039	B.48	235.514875	251.462125		[silence]	[silence]
sw2093B-ms98-a-0040	B.48	251.462125	251.868750		[silence]	[silence]
sw2093B-ms98-a-0040	B.48	251.868750	252.111750		Yeah	yeah
sw2093B-ms98-a-0040	B.48	252.111750	252.311000		[vocalized-noise]	[vocalized-noise]
sw2093B-ms98-a-0040	B.48	252.311000	252.472125		oh	oh
sw2093B-ms98-a-0040	B.48	252.472125	252.632125		my	my
sw2093B-ms98-a-0040	B.48	252.632125	252.962125		husband	husband
sw2093B-ms98-a-0040	B.48	252.962125	253.172125		doesn't	doesn't
sw2093B-ms98-a-0040	B.48	253.172125	253.372125		like	like
sw2093B-ms98-a-0040	B.48	253.372125	253.582125		them	them
sw2093B-ms98-a-0040	B.48	253.582125	253.732125		either	either
sw2093B-ms98-a-0040	B.48	253.732125	253.952125		but	but
sw2093B-ms98-a-0040	B.48	253.952125	254.062125		I	i
sw2093B-ms98-a-0040	B.48	254.062125	254.232125		can	can
sw2093B-ms98-a-0040	B.48	254.232125	254.662125		always	always
sw2093B-ms98-a-0040	B.48	254.662125	254.832125		give	give
sw2093B-ms98-a-0040	B.48	254.832125	254.982125		them	them
sw2093B-ms98-a-0040	B.48	254.982125	255.352125		away	away
sw2093B-ms98-a-0040	B.50	255.352125	255.682375		[silence]	[silence]
sw2093B-ms98-a-0041	B.50	255.682375	257.859250		[silence]	[silence]
sw2093B-ms98-a-0042	B.50	257.859250	258.318000		[silence]	[silence]
sw2093B-ms98-a-0042	B.50	258.318000	258.569250		Besides	besides
sw2093B-ms98-a-0042	B.50	258.569250	258.699250		they're	they're
sw2093B-ms98-a-0042	B.50	258.699250	258.919250		fun	fun
sw2093B-ms98-a-0042	B.50	258.919250	259.019250		to	to
sw2093B-ms98-a-0042	B.50	259.019250	259.295250		grow	grow
sw2093B-ms98-a-0042	B.52	259.295250	259.712750		[silence]	[silence]
sw2093B-ms98-a-0043	B.52	259.712750	282.749625		[silence]	[silence]
sw2093B-ms98-a-0044	B.52	282.749625	283.205750		[silence]	[silence]
sw2093B-ms98-a-0044	B.52	283.205750	283.959625		Supposedly	supposedly
sw2093B-ms98-a-0044	B.52	283.959625	284.319625		after	after
sw2093B-ms98-a-0044	B.52	284.319625	284.429625		the	the
sw2093B-ms98-a-0044	B.52	284.429625	284.979625		soil	soil
sw2093B-ms98-a-0044	B.52	284.979625	285.329625		warms	warms
sw2093B-ms98-a-0044	B.52	285.329625	285.586000		up	up
sw2093B-ms98-a-0044	B.54	285.586000	285.972500		[silence]	[silence]
sw2093B-ms98-a-0045	B.54	285.972500	298.328875		[silence]	[silence]
sw2093B-ms98-a-0046	B.54	298.328875	298.588875		[silence]	[silence]
sw2093B-ms98-a-0046	B.54	298.588875	299.055750	<SUB>	Uh-huh	um-hum
sw2093B-ms98-a-0046	B.56	299.055750	299.380500		[silence]	[silence]
sw2093B-ms98-a-0047	B.56	299.380500	304.092000		[silence]	[silence]
sw2093B-ms98-a-0048	B.56	304.092000	304.511125		[silence]	[silence]
sw2093B-ms98-a-0048	B.56	304.511125	304.792000	<SUB>	I	i-
sw2093B-ms98-a-0048	B.56	304.792000	304.902000		I	i
sw2093B-ms98-a-0048	B.56	304.902000	305.222000		doubt	doubt
sw2093B-ms98-a-0048	B.56	305.222000	305.383500		if	if
sw2093B-ms98-a-0048	B.56	305.383500	305.541750		[silence]	[silence]
sw2093B-ms98-a-0048	B.56	305.541750	305.912000		zucchini	zucchini
sw2093B-ms98-a-0048	B.56	305.912000	306.002000		is	is
sw2093B-ms98-a-0048	B.56	306.002000	306.142000		in	in
sw2093B-ms98-a-0048	B.56	306.142000	306.385375		there	there
sw2093B-ms98-a-0048	B.58	306.385375	306.570250		[silence]	[silence]
sw2093B-ms98-a-0049	B.58	306.570250	307.878750		[silence]	[silence]
sw2093B-ms98-a-0050	B.58	307.878750	308.257125		[silence]	[silence]
sw2093B-ms98-a-0050	B.58	308.257125	308.588750		Probably	probably
sw2093B-ms98-a-0050	B.58	308.588750	308.658750		the	the
sw2093B-ms98-a-0050	B.58	308.658750	308.838750		same	same
sw2093B-ms98-a-0050	B.58	308.838750	309.108750		time	time
sw2093B-ms98-a-0050	B.58	309.108750	309.278750		the	the
sw2093B-ms98-a-0050	B.58	309.278750	309.508750		the	the
sw2093B-ms98-a-0050	B.58	309.508750	309.718750		other	other
sw2093B-ms98-a-0050	B.58	309.718750	310.208750		squash	squash
sw2093B-ms98-a-0050	B.58	310.208750	310.458750		is	is
sw2093B-ms98-a-0050	B.58	310.458750	310.658750		though	though
sw2093B-ms98-a-0050	B.60	310.658750	310.963875		[silence]	[silence]
sw2093B-ms98-a-0051	B.60	310.963875	312.112500		[silence]	[silence]
sw2093B-ms98-a-0052	B.60	312.112500	312.598625		[silence]	[silence]
sw2093B-ms98-a-0052	B.60	312.598625	312.894375		Yeah	yeah
sw2093B-ms98-a-0052	B.62	312.894375	313.448375		[silence]	[silence]
sw2093B-ms98-a-0053	B.62	313.448375	314.060625		[silence]	[silence]
sw2093B-ms98-a-0053	B.62	314.060625	314.158375		About	about
sw2093B-ms98-a-0053	B.62	314.158375	314.218375		the	the
sw2093B-ms98-a-0053	B.62	314.218375	314.508375		same	same
sw2093B-ms98-a-0053	B.62	314.508375	314.738375		time	time
sw2093B-ms98-a-0053	B.62	314.738375	314.828375		that	that
sw2093B-ms98-a-0053	B.62	314.828375	314.888375		you	you
sw2093B-ms98-a-0053	B.62	314.888375	315.158375		plant	plant
sw2093B-ms98-a-0053	B.62	315.158375	315.598375		okra	okra
sw2093B-ms98-a-0053	B.62	315.598375	315.758375		because	because_1
sw2093B-ms98-a-0053	B.62	315.758375	315.888375		it's	it's
sw2093B-ms98-a-0053	B.62	315.888375	316.158375		supposed	supposed
sw2093B-ms98-a-0053	B.62	316.158375	316.218375		to	to
sw2093B-ms98-a-0053	B.62	316.218375	316.338375		be	be
sw2093B-ms98-a-0053	B.62	316.338375	316.848375		warm	warm
sw2093B-ms98-a-0053	B.64	316.848375	317.234500		[silence]	[silence]
sw2093B-ms98-a-0054	B.64	317.234500	321.122875		[silence]	[silence]
sw2093B-ms98-a-0055	B.64	321.122875	321.732375		[silence]	[silence]
sw2093B-ms98-a-0055	B.64	321.732375	322.027375		Yeah	yeah
sw2093B-ms98-a-0055	B.66	322.027375	322.844375		[silence]	[silence]
sw2093B-ms98-a-0056	B.66	322.844375	323.707500		[silence]	[silence]
sw2093B-ms98-a-0056	B.66	323.707500	323.804375		We	we
sw2093B-ms98-a-0056	B.66	323.804375	324.354375		decided	decided
sw2093B-ms98-a-0056	B.66	324.354375	324.604375		this	this
sw2093B-ms98-a-0056	B.66	324.604375	324.792500		year	year
sw2093B-ms98-a-0056	B.68	324.792500	325.510125		[silence]	[silence]
sw2093B-ms98-a-0056	B.68	325.510125	325.599000		I'm	i'm
sw2093B-ms98-a-0056	B.68	325.599000	325.974375		sorry	sorry
sw2093B-ms98-a-0056	B.68	325.974375	326.094375		go	go
sw2093B-ms98-a-0056	B.68	326.094375	326.352875		ahead	ahead
sw2093B-ms98-a-0056	B.70	326.352875	326.453250		[silence]	[silence]
sw2093B-ms98-a-0057	B.70	326.453250	334.738625		[silence]	[silence]
sw2093B-ms98-a-0058	B.70	334.738625	335.038625		[silence]	[silence]
sw2093B-ms98-a-0058	B.70	335.038625	335.278625		Oh	oh
sw2093B-ms98-a-0058	B.70	335.278625	335.578625		just	just
sw2093B-ms98-a-0058	B.70	335.578625	336.271000	<CONT>	any	anytime
sw2093B-ms98-a-0058	B.70	336.271000	336.271000	<CONT>	time	+++
sw2093B-ms98-a-0058	B.72	336.271000	336.445500		[silence]	[silence]
sw2093B-ms98-a-0059	B.72	336.445500	338.460875		[silence]	[silence]
sw2093B-ms98-a-0060	B.72	338.460875	338.790125		[silence]	[silence]
sw2093B-ms98-a-0060	B.72	338.790125	339.080875		All	all
sw2093B-ms98-a-0060	B.72	339.080875	339.290875		right	right
sw2093B-ms98-a-0060	B.72	339.290875	339.470875		Well	well
sw2093B-ms98-a-0060	B.72	339.470875	339.610875		I've	i've
sw2093B-ms98-a-0060	B.72	339.610875	340.020875		enjoyed	enjoyed
sw2093B-ms98-a-0060	B.72	340.020875	340.400875		talking	talking
sw2093B-ms98-a-0060	B.72	340.400875	340.500875		to	to
sw2093B-ms98-a-0060	B.72	340.500875	340.734250		you	you
sw2093B-ms98-a-0060	B.74	340.734250	341.135500		[silence]	[silence]
sw2093B-ms98-a-0061	B.74	341.135500	341.651625		[silence]	[silence]
sw2093B-ms98-a-0061	B.74	341.651625	342.077250		Okay	okay
sw2093B-ms98-a-0061	B.74	342.077250	342.441250		[silence]	[silence]
sw2093B-ms98-a-0061	B.74	342.441250	342.706125		Bye	bye
sw2093B-ms98-a-0061	B.74	342.706125	343.008000		[silence]	[silence]
sw2093B-ms98-a-0062	B.74	343.008000	344.206625		[silence]	[silence]
sw2093B-ms98-a-0063	B.74	344.206625	344.373625		[silence]	[silence]
sw2093B-ms98-a-0063	B.74	344.373625	344.563250		[noise]	[noise]
sw2093B-ms98-a-0063	B.74	344.563250	345.405250		[silence]	[silence]
