sw2065B-ms98-a-0001	B.2	0.000000	0.210250		[silence]	[silence]
sw2065B-ms98-a-0001	B.2	0.210250	0.825750	<DEL>	---	okay
sw2065B-ms98-a-0001	B.2	0.825750	7.972625		[silence]	[silence]
sw2065B-ms98-a-0002	B.2	7.972625	8.558625		[silence]	[silence]
sw2065B-ms98-a-0002	B.2	8.558625	8.702625		I	i
sw2065B-ms98-a-0002	B.2	8.702625	8.882625		think	think
sw2065B-ms98-a-0002	B.2	8.882625	8.992625		it	it
sw2065B-ms98-a-0002	B.2	8.992625	9.082625		would	would
sw2065B-ms98-a-0002	B.2	9.082625	9.142625		be	be
sw2065B-ms98-a-0002	B.2	9.142625	9.172625		a	a
sw2065B-ms98-a-0002	B.2	9.172625	9.452625		great	great
sw2065B-ms98-a-0002	B.2	9.452625	9.832625		idea	idea
sw2065B-ms98-a-0002	B.2	9.832625	9.962625		I'm	i'm
sw2065B-ms98-a-0002	B.2	9.962625	10.152625		not	not
sw2065B-ms98-a-0002	B.2	10.152625	10.382625		sure	sure
sw2065B-ms98-a-0002	B.2	10.382625	10.672625		about	about
sw2065B-ms98-a-0002	B.2	10.672625	11.492625		requiring	requiring
sw2065B-ms98-a-0002	B.2	11.492625	11.692625		it	it
sw2065B-ms98-a-0002	B.2	11.692625	11.802625		you	you
sw2065B-ms98-a-0002	B.2	11.802625	11.962625		know	know
sw2065B-ms98-a-0002	B.2	11.962625	12.102625		of	of
sw2065B-ms98-a-0002	B.2	12.102625	12.572625		people	people
sw2065B-ms98-a-0002	B.2	12.572625	12.984250		because	because_1
sw2065B-ms98-a-0002	B.2	12.984250	13.884375		[silence]	[silence]
sw2065B-ms98-a-0002	B.2	13.884375	14.142625		people	people
sw2065B-ms98-a-0002	B.2	14.142625	14.212625		are	are
sw2065B-ms98-a-0002	B.2	14.212625	14.632625		going	going
sw2065B-ms98-a-0002	B.2	14.632625	14.692625		you	you
sw2065B-ms98-a-0002	B.2	14.692625	14.856250		know	know
sw2065B-ms98-a-0002	B.2	14.856250	15.283000		feeling	feeling
sw2065B-ms98-a-0002	B.2	15.283000	15.444875		[silence]	[silence]
sw2065B-ms98-a-0002	B.2	15.444875	16.112625		resentful	resentful
sw2065B-ms98-a-0002	B.2	16.112625	16.162625		I	i
sw2065B-ms98-a-0002	B.2	16.162625	16.362625		don't	don't
sw2065B-ms98-a-0002	B.2	16.362625	16.622625		know	know
sw2065B-ms98-a-0002	B.2	16.622625	16.872625		but	but
sw2065B-ms98-a-0002	B.2	16.872625	16.922625		I	i
sw2065B-ms98-a-0002	B.2	16.922625	17.042625		think	think
sw2065B-ms98-a-0002	B.2	17.042625	17.142625		it	it
sw2065B-ms98-a-0002	B.2	17.142625	17.262625		would	would
sw2065B-ms98-a-0002	B.2	17.262625	17.372625		be	be
sw2065B-ms98-a-0002	B.2	17.372625	17.422625		a	a
sw2065B-ms98-a-0002	B.2	17.422625	17.652625		great	great
sw2065B-ms98-a-0002	B.2	17.652625	18.248000		idea	idea
sw2065B-ms98-a-0002	B.4	18.248000	18.519250		[silence]	[silence]
sw2065B-ms98-a-0003	B.4	18.519250	18.778250		[silence]	[silence]
sw2065B-ms98-a-0003	B.4	18.778250	19.019250		Seems	seems
sw2065B-ms98-a-0003	B.4	19.019250	19.149250		like	like
sw2065B-ms98-a-0003	B.4	19.149250	19.309250		there's	there's
sw2065B-ms98-a-0003	B.4	19.309250	19.419250		so	so
sw2065B-ms98-a-0003	B.4	19.419250	19.589250		many	many
sw2065B-ms98-a-0003	B.4	19.589250	19.929250		kids	kids
sw2065B-ms98-a-0003	B.4	19.929250	20.058625		that	that
sw2065B-ms98-a-0003	B.4	20.058625	20.239250		don't	don't
sw2065B-ms98-a-0003	B.4	20.239250	20.469250		have	have
sw2065B-ms98-a-0003	B.4	20.469250	20.709875		any	any
sw2065B-ms98-a-0003	B.4	20.709875	21.259750		[silence]	[silence]
sw2065B-ms98-a-0003	B.4	21.259750	21.679250		since	since
sw2065B-ms98-a-0003	B.4	21.679250	21.949250		of	of
sw2065B-ms98-a-0003	B.4	21.949250	22.049250		you	you
sw2065B-ms98-a-0003	B.4	22.049250	22.139250		know	know
sw2065B-ms98-a-0003	B.4	22.139250	22.329250		what	what
sw2065B-ms98-a-0003	B.4	22.329250	22.419250		they	they
sw2065B-ms98-a-0003	B.4	22.419250	22.629250		want	want
sw2065B-ms98-a-0003	B.4	22.629250	22.719250		to	to
sw2065B-ms98-a-0003	B.4	22.719250	22.989250		be	be
sw2065B-ms98-a-0003	B.4	22.989250	23.089250		or	or
sw2065B-ms98-a-0003	B.4	23.089250	23.489250		do	do
sw2065B-ms98-a-0003	B.4	23.489250	23.783625		or	or
sw2065B-ms98-a-0003	B.4	23.783625	24.333500		[silence]	[silence]
sw2065B-ms98-a-0003	B.4	24.333500	24.429250		you	you
sw2065B-ms98-a-0003	B.4	24.429250	24.569250		know	know
sw2065B-ms98-a-0003	B.4	24.569250	24.704125		they	they
sw2065B-ms98-a-0003	B.4	24.704125	24.863250		could	could
sw2065B-ms98-a-0003	B.4	24.863250	25.036500		[silence]	[silence]
sw2065B-ms98-a-0003	B.4	25.036500	25.425375		learn	learn
sw2065B-ms98-a-0003	B.4	25.425375	25.817125		[vocalized-noise]	[vocalized-noise]
sw2065B-ms98-a-0003	B.4	25.817125	26.229250		something	something
sw2065B-ms98-a-0003	B.4	26.229250	26.379250		and	and
sw2065B-ms98-a-0003	B.4	26.379250	26.609250		maybe	maybe
sw2065B-ms98-a-0003	B.4	26.609250	26.809250		help	help
sw2065B-ms98-a-0003	B.4	26.809250	27.009250		other	other
sw2065B-ms98-a-0003	B.4	27.009250	27.279250		people	people
sw2065B-ms98-a-0003	B.4	27.279250	27.339250		at	at
sw2065B-ms98-a-0003	B.4	27.339250	27.439250		the	the
sw2065B-ms98-a-0003	B.4	27.439250	27.689250		same	same
sw2065B-ms98-a-0003	B.4	27.689250	28.089250		time	time
sw2065B-ms98-a-0003	B.4	28.089250	28.279250		and	and
sw2065B-ms98-a-0003	B.4	28.279250	28.379250		we	we
sw2065B-ms98-a-0003	B.4	28.379250	28.579250		sure	sure
sw2065B-ms98-a-0003	B.4	28.579250	28.649250		our	our
sw2065B-ms98-a-0003	B.4	28.649250	29.127250		country	country
sw2065B-ms98-a-0003	B.4	29.127250	29.389250		all	all
sw2065B-ms98-a-0003	B.4	29.389250	29.759250		countries	countries
sw2065B-ms98-a-0003	B.4	29.759250	29.939250		sure	sure
sw2065B-ms98-a-0003	B.4	29.939250	30.099250		need	need
sw2065B-ms98-a-0003	B.4	30.099250	30.539250		help	help
sw2065B-ms98-a-0003	B.4	30.539250	30.789250		so	so
sw2065B-ms98-a-0003	B.6	30.789250	31.264500		[silence]	[silence]
sw2065B-ms98-a-0004	B.6	31.264500	39.707250		[silence]	[silence]
sw2065B-ms98-a-0005	B.6	39.707250	40.302500		[silence]	[silence]
sw2065B-ms98-a-0005	B.6	40.302500	40.808625	<SUB>	Huh-uh	hum
sw2065B-ms98-a-0005	B.8	40.808625	41.012625		[silence]	[silence]
sw2065B-ms98-a-0006	B.8	41.012625	42.094750		[silence]	[silence]
sw2065B-ms98-a-0007	B.8	42.094750	42.612375		[silence]	[silence]
sw2065B-ms98-a-0007	B.8	42.612375	43.057750	<SUB>	Huh-uh	um-hum
sw2065B-ms98-a-0007	B.10	43.057750	43.510875		[silence]	[silence]
sw2065B-ms98-a-0008	B.10	43.510875	45.637875		[silence]	[silence]
sw2065B-ms98-a-0009	B.10	45.637875	46.153750		[silence]	[silence]
sw2065B-ms98-a-0009	B.10	46.153750	46.357875		Oh	oh
sw2065B-ms98-a-0009	B.10	46.357875	46.905000		really	really
sw2065B-ms98-a-0009	B.12	46.905000	47.063625	<SUB>	Huh-uh	uh
sw2065B-ms98-a-0009	B.14	47.063625	47.314500		[silence]	[silence]
sw2065B-ms98-a-0010	B.14	47.314500	52.308625		[silence]	[silence]
sw2065B-ms98-a-0011	B.14	52.308625	53.107250		[silence]	[silence]
sw2065B-ms98-a-0011	B.14	53.107250	53.561250	<DEL>	---	um-hum
sw2065B-ms98-a-0011	B.14	53.561250	53.967875		[silence]	[silence]
sw2065B-ms98-a-0011	B.14	53.967875	54.468125	<DEL>	---	um
sw2065B-ms98-a-0011	B.14	54.468125	55.384000		[silence]	[silence]
sw2065B-ms98-a-0012	B.14	55.384000	63.797875		[silence]	[silence]
sw2065B-ms98-a-0013	B.14	63.797875	64.449125		[silence]	[silence]
sw2065B-ms98-a-0013	B.14	64.449125	64.957875		Yeah	yeah
sw2065B-ms98-a-0013	B.16	64.957875	64.957875	<INS>	Well	---
sw2065B-ms98-a-0013	B.16	64.957875	65.509750		[silence]	[silence]
sw2065B-ms98-a-0014	B.16	65.509750	67.826500		[silence]	[silence]
sw2065B-ms98-a-0015	B.16	67.826500	68.046125		[silence]	[silence]
sw2065B-ms98-a-0015	B.16	68.046125	68.205000		I	i
sw2065B-ms98-a-0015	B.16	68.205000	68.336500		think	think
sw2065B-ms98-a-0015	B.16	68.336500	68.466500		that	that
sw2065B-ms98-a-0015	B.16	68.466500	68.576500		would	would
sw2065B-ms98-a-0015	B.16	68.576500	68.676500		be	be
sw2065B-ms98-a-0015	B.16	68.676500	68.886500		real	real
sw2065B-ms98-a-0015	B.16	68.886500	69.386500		interesting	interesting
sw2065B-ms98-a-0015	B.16	69.386500	69.516500		for	for
sw2065B-ms98-a-0015	B.16	69.516500	69.806500		people	people
sw2065B-ms98-a-0015	B.16	69.806500	69.906500		to	to
sw2065B-ms98-a-0015	B.16	69.906500	70.106500		do	do
sw2065B-ms98-a-0015	B.16	70.106500	70.306500		but	but
sw2065B-ms98-a-0015	B.16	70.306500	70.406500		I	i
sw2065B-ms98-a-0015	B.16	70.406500	70.606500		guess	guess
sw2065B-ms98-a-0015	B.16	70.606500	70.716500		my	my
sw2065B-ms98-a-0015	B.16	70.716500	71.096500		concern	concern
sw2065B-ms98-a-0015	B.16	71.096500	71.366500		about	about
sw2065B-ms98-a-0015	B.16	71.366500	71.546500		that	that
sw2065B-ms98-a-0015	B.16	71.546500	71.646500		would	would
sw2065B-ms98-a-0015	B.16	71.646500	71.756500		be	be
sw2065B-ms98-a-0015	B.16	71.756500	71.836500		the	the
sw2065B-ms98-a-0015	B.16	71.836500	72.356500		cost	cost
sw2065B-ms98-a-0015	B.16	72.356500	72.796500		involved	involved
sw2065B-ms98-a-0015	B.16	72.796500	73.036500		trying	trying
sw2065B-ms98-a-0015	B.16	73.036500	73.139500		to	to
sw2065B-ms98-a-0015	B.16	73.139500	73.260000		[silence]	[silence]
sw2065B-ms98-a-0015	B.16	73.260000	73.586500		train	train
sw2065B-ms98-a-0015	B.16	73.586500	73.886500		people	people
sw2065B-ms98-a-0015	B.16	73.886500	73.946500		in	in
sw2065B-ms98-a-0015	B.16	73.946500	73.996500		a	a
sw2065B-ms98-a-0015	B.16	73.996500	74.196500		new	new
sw2065B-ms98-a-0015	B.16	74.196500	74.776500		language	language
sw2065B-ms98-a-0015	B.16	74.776500	74.896500		and	and
sw2065B-ms98-a-0015	B.16	74.896500	75.176500		ship	ship
sw2065B-ms98-a-0015	B.16	75.176500	75.474625		them	them
sw2065B-ms98-a-0015	B.16	75.474625	75.576500		you	you
sw2065B-ms98-a-0015	B.16	75.576500	75.706500		know	know
sw2065B-ms98-a-0015	B.16	75.706500	75.766500		to	to
sw2065B-ms98-a-0015	B.16	75.766500	75.976500		other	other
sw2065B-ms98-a-0015	B.16	75.976500	76.716500		countries	countries
sw2065B-ms98-a-0015	B.18	76.716500	76.974125		and	and
sw2065B-ms98-a-0015	B.18	76.974125	77.422500		[silence]	[silence]
sw2065B-ms98-a-0016	B.18	77.422500	77.806375		[silence]	[silence]
sw2065B-ms98-a-0016	B.18	77.806375	78.138125		but	but
sw2065B-ms98-a-0016	B.18	78.138125	78.513875		[silence]	[silence]
sw2065B-ms98-a-0016	B.18	78.513875	78.602500		I	i
sw2065B-ms98-a-0016	B.18	78.602500	78.722500		don't	don't
sw2065B-ms98-a-0016	B.18	78.722500	78.782500		know	know
sw2065B-ms98-a-0016	B.18	78.782500	78.842500		If	if
sw2065B-ms98-a-0016	B.18	78.842500	78.922500		you	you
sw2065B-ms98-a-0016	B.18	78.922500	79.072500		did	did
sw2065B-ms98-a-0016	B.18	79.072500	79.152500		it	it
sw2065B-ms98-a-0016	B.18	79.152500	79.742500		internally	internally
sw2065B-ms98-a-0016	B.18	79.742500	79.882500		and	and
sw2065B-ms98-a-0016	B.18	79.882500	79.942500		it	it
sw2065B-ms98-a-0016	B.18	79.942500	80.032500		was	was
sw2065B-ms98-a-0016	B.18	80.032500	80.212500		just	just
sw2065B-ms98-a-0016	B.18	80.212500	80.442500		people	people
sw2065B-ms98-a-0016	B.18	80.442500	80.512500		in	in
sw2065B-ms98-a-0016	B.18	80.512500	80.632500		your	your
sw2065B-ms98-a-0016	B.18	80.632500	80.782500		own	own
sw2065B-ms98-a-0016	B.18	80.782500	81.122500		country	country
sw2065B-ms98-a-0016	B.18	81.122500	81.302500		then	then
sw2065B-ms98-a-0016	B.18	81.302500	81.423125	<DEL>	---	may[be]-
sw2065B-ms98-a-0016	B.18	81.423125	81.702500		maybe	maybe
sw2065B-ms98-a-0016	B.18	81.702500	82.072500		countries	countries
sw2065B-ms98-a-0016	B.18	82.072500	82.182500		that	that
sw2065B-ms98-a-0016	B.18	82.182500	82.262500		are	are
sw2065B-ms98-a-0016	B.18	82.262500	82.502500		so	so
sw2065B-ms98-a-0016	B.18	82.502500	83.062500		poor	poor
sw2065B-ms98-a-0016	B.18	83.062500	83.302500		that	that
sw2065B-ms98-a-0016	B.18	83.302500	83.452500		they	they
sw2065B-ms98-a-0016	B.18	83.452500	83.722500		wouldn't	wouldn't
sw2065B-ms98-a-0016	B.18	83.722500	83.852500		be	be
sw2065B-ms98-a-0016	B.18	83.852500	84.178000		able	able
sw2065B-ms98-a-0016	B.18	84.178000	84.602250		to	to
sw2065B-ms98-a-0016	B.18	84.602250	84.955625		[silence]	[silence]
sw2065B-ms98-a-0017	B.18	84.955625	85.341750		[silence]	[silence]
sw2065B-ms98-a-0017	B.18	85.341750	85.613875		really	really
sw2065B-ms98-a-0017	B.18	85.613875	85.715375		[silence]	[silence]
sw2065B-ms98-a-0017	B.18	85.715375	85.825625		you	you
sw2065B-ms98-a-0017	B.18	85.825625	86.105625		know	know
sw2065B-ms98-a-0017	B.18	86.105625	86.412000		[silence]	[silence]
sw2065B-ms98-a-0018	B.18	86.412000	86.734500		[silence]	[silence]
sw2065B-ms98-a-0018	B.18	86.734500	87.162000		send	send
sw2065B-ms98-a-0018	B.18	87.162000	87.662000		children	children
sw2065B-ms98-a-0018	B.18	87.662000	87.772000	<DEL>	---	you
sw2065B-ms98-a-0018	B.18	87.772000	87.902000	<DEL>	---	know
sw2065B-ms98-a-0018	B.18	87.902000	88.032000		to	to
sw2065B-ms98-a-0018	B.18	88.032000	88.271750		do	do
sw2065B-ms98-a-0018	B.18	88.271750	88.621875		that	that
sw2065B-ms98-a-0018	B.20	88.621875	88.875125		[silence]	[silence]
sw2065B-ms98-a-0019	B.20	88.875125	89.172250		[silence]	[silence]
sw2065B-ms98-a-0019	B.20	89.172250	89.305250		I	i
sw2065B-ms98-a-0019	B.20	89.305250	89.485125		didn't	didn't
sw2065B-ms98-a-0019	B.20	89.485125	89.837375		know	know
sw2065B-ms98-a-0019	B.22	89.837375	90.242625		[silence]	[silence]
sw2065B-ms98-a-0020	B.22	90.242625	93.318500		[silence]	[silence]
sw2065B-ms98-a-0021	B.22	93.318500	93.706750		[silence]	[silence]
sw2065B-ms98-a-0021	B.22	93.706750	93.928500		Yeah	yeah
sw2065B-ms98-a-0021	B.22	93.928500	94.028500		I	i
sw2065B-ms98-a-0021	B.22	94.028500	94.268500		was	was
sw2065B-ms98-a-0021	B.22	94.268500	94.458500		too	too
sw2065B-ms98-a-0021	B.24	94.458500	94.683250		I	i
sw2065B-ms98-a-0021	B.24	94.683250	95.018500		thought	thought
sw2065B-ms98-a-0021	B.24	95.018500	95.528500		seriously	seriously
sw2065B-ms98-a-0021	B.24	95.528500	95.808500		about	about
sw2065B-ms98-a-0021	B.24	95.808500	96.088500		joining	joining
sw2065B-ms98-a-0021	B.24	96.088500	96.208500		at	at
sw2065B-ms98-a-0021	B.24	96.208500	96.308500		that	that
sw2065B-ms98-a-0021	B.24	96.308500	96.708500		time	time
sw2065B-ms98-a-0021	B.24	96.708500	96.758500		I	i
sw2065B-ms98-a-0021	B.24	96.758500	96.988500		thought	thought
sw2065B-ms98-a-0021	B.24	96.988500	97.058500		it	it
sw2065B-ms98-a-0021	B.24	97.058500	97.302000		was	was
sw2065B-ms98-a-0021	B.24	97.302000	97.509125		a	a
sw2065B-ms98-a-0021	B.24	97.509125	98.148500		fantastic	fantastic
sw2065B-ms98-a-0021	B.24	98.148500	98.765125		idea	idea
sw2065B-ms98-a-0021	B.26	98.765125	99.636875		[silence]	[silence]
sw2065B-ms98-a-0022	B.26	99.636875	100.376875		[silence]	[silence]
sw2065B-ms98-a-0022	B.26	100.376875	100.526875		I	i
sw2065B-ms98-a-0022	B.26	100.526875	100.746875		sent	sent
sw2065B-ms98-a-0022	B.26	100.746875	100.966875		off	off
sw2065B-ms98-a-0022	B.26	100.966875	101.086875		for	for
sw2065B-ms98-a-0022	B.26	101.086875	101.446875		stuff	stuff
sw2065B-ms98-a-0022	B.26	101.446875	101.616875		on	on
sw2065B-ms98-a-0022	B.26	101.616875	101.696875		it	it
sw2065B-ms98-a-0022	B.26	101.696875	101.796875		but	but
sw2065B-ms98-a-0022	B.26	101.796875	101.896875		I	i
sw2065B-ms98-a-0022	B.26	101.896875	102.066875		don't	don't
sw2065B-ms98-a-0022	B.26	102.066875	102.511500		remember	remember
sw2065B-ms98-a-0022	B.26	102.511500	102.745000		[silence]	[silence]
sw2065B-ms98-a-0022	B.26	102.745000	102.926875		that	that
sw2065B-ms98-a-0022	B.26	102.926875	103.126875		much	much
sw2065B-ms98-a-0022	B.26	103.126875	103.496875		about	about
sw2065B-ms98-a-0022	B.26	103.496875	103.576875		it	it
sw2065B-ms98-a-0022	B.26	103.576875	103.656875		I	i
sw2065B-ms98-a-0022	B.26	103.656875	103.826875		know	know
sw2065B-ms98-a-0022	B.26	103.826875	103.966875		that	that
sw2065B-ms98-a-0022	B.26	103.966875	104.066875		they	they
sw2065B-ms98-a-0022	B.26	104.066875	104.476875		trained	trained
sw2065B-ms98-a-0022	B.26	104.476875	104.596875		you	you
sw2065B-ms98-a-0022	B.26	104.596875	104.696875		in	in
sw2065B-ms98-a-0022	B.26	104.696875	104.776875		the	the
sw2065B-ms98-a-0022	B.26	104.776875	105.446875		language	language
sw2065B-ms98-a-0022	B.26	105.446875	105.716875		and	and
sw2065B-ms98-a-0022	B.26	105.716875	106.106875		um	um
sw2065B-ms98-a-0022	B.28	106.106875	106.607500		[silence]	[silence]
sw2065B-ms98-a-0023	B.28	106.607500	107.409375		[silence]	[silence]
sw2065B-ms98-a-0023	B.28	107.409375	108.017500	<DEL>	---	yeah
sw2065B-ms98-a-0023	B.28	108.017500	108.420250		[silence]	[silence]
sw2065B-ms98-a-0024	B.28	108.420250	108.732875		[silence]	[silence]
sw2065B-ms98-a-0024	B.28	108.732875	108.820250		You	you
sw2065B-ms98-a-0024	B.28	108.820250	109.110250		actually	actually
sw2065B-ms98-a-0024	B.28	109.110250	109.290250		got	got
sw2065B-ms98-a-0024	B.28	109.290250	109.650250		paid	paid
sw2065B-ms98-a-0024	B.28	109.650250	109.820250		too	too
sw2065B-ms98-a-0024	B.28	109.820250	110.000250		while	while
sw2065B-ms98-a-0024	B.28	110.000250	110.090250		in	in
sw2065B-ms98-a-0024	B.28	110.090250	110.208250		the	the
sw2065B-ms98-a-0024	B.28	110.208250	110.493625		Peace	Peace
sw2065B-ms98-a-0024	B.28	110.493625	110.730250		Corps	Corps
sw2065B-ms98-a-0024	B.28	110.730250	110.820250		it	it
sw2065B-ms98-a-0024	B.28	110.820250	111.110250		wasn't	wasn't
sw2065B-ms98-a-0024	B.28	111.110250	111.440250		much	much
sw2065B-ms98-a-0024	B.30	111.440250	111.560250		but	but
sw2065B-ms98-a-0024	B.30	111.560250	111.670375		I	i
sw2065B-ms98-a-0024	B.30	111.670375	111.930250		guess	guess
sw2065B-ms98-a-0024	B.30	111.930250	112.122250		they	they
sw2065B-ms98-a-0024	B.30	112.122250	112.270250		you	you
sw2065B-ms98-a-0024	B.30	112.270250	112.390250		could	could
sw2065B-ms98-a-0024	B.30	112.390250	112.550250		put	put
sw2065B-ms98-a-0024	B.30	112.550250	112.700250		some	some
sw2065B-ms98-a-0024	B.30	112.700250	112.930250		money	money
sw2065B-ms98-a-0024	B.30	112.930250	113.430250		aside	aside
sw2065B-ms98-a-0024	B.30	113.430250	113.570250		while	while
sw2065B-ms98-a-0024	B.30	113.570250	113.690250		you	you
sw2065B-ms98-a-0024	B.30	113.690250	113.820250		were	were
sw2065B-ms98-a-0024	B.30	113.820250	114.090250		there	there
sw2065B-ms98-a-0024	B.30	114.090250	114.210250		your	your
sw2065B-ms98-a-0024	B.30	114.210250	114.720250		expenses	expenses
sw2065B-ms98-a-0024	B.30	114.720250	114.844875	<SUB>	and	were
sw2065B-ms98-a-0024	B.32	114.844875	115.325250	<DEL>	---	covered
sw2065B-ms98-a-0024	B.32	115.325250	116.118625		[silence]	[silence]
sw2065B-ms98-a-0025	B.32	116.118625	116.968750		[silence]	[silence]
sw2065B-ms98-a-0025	B.32	116.968750	117.258625		Yeah	yeah
sw2065B-ms98-a-0025	B.32	117.258625	117.376375		I	i
sw2065B-ms98-a-0025	B.32	117.376375	117.568625		think	think
sw2065B-ms98-a-0025	B.32	117.568625	117.985125		so	so
sw2065B-ms98-a-0025	B.32	117.985125	118.349000		yeah	yeah
sw2065B-ms98-a-0025	B.32	118.349000	118.522250		[silence]	[silence]
sw2065B-ms98-a-0025	B.32	118.522250	119.025875		yeah	yeah
sw2065B-ms98-a-0025	B.34	119.025875	120.120000		[laughter]	[laughter]
sw2065B-ms98-a-0025	B.34	120.120000	120.144000		[silence]	[silence]
sw2065B-ms98-a-0026	B.34	120.144000	120.358625		[silence]	[silence]
sw2065B-ms98-a-0026	B.34	120.358625	120.574000		But	but
sw2065B-ms98-a-0026	B.34	120.574000	120.644000		it	it
sw2065B-ms98-a-0026	B.34	120.644000	120.864000		might	might
sw2065B-ms98-a-0026	B.34	120.864000	120.984000		be	be
sw2065B-ms98-a-0026	B.34	120.984000	121.414000		interesting	interesting
sw2065B-ms98-a-0026	B.34	121.414000	121.524000		to	to
sw2065B-ms98-a-0026	B.34	121.524000	121.644000		see	see
sw2065B-ms98-a-0026	B.34	121.644000	121.764000		what	what
sw2065B-ms98-a-0026	B.34	121.764000	121.864000		would	would
sw2065B-ms98-a-0026	B.34	121.864000	122.244000		happen	happen
sw2065B-ms98-a-0026	B.34	122.244000	122.354000		if	if
sw2065B-ms98-a-0026	B.34	122.354000	122.444000		you	you
sw2065B-ms98-a-0026	B.34	122.444000	122.674000		took	took
sw2065B-ms98-a-0026	B.34	122.674000	122.894000		kids	kids
sw2065B-ms98-a-0026	B.34	122.894000	122.951125		at	at
sw2065B-ms98-a-0026	B.34	122.951125	123.061750		a	a
sw2065B-ms98-a-0026	B.34	123.061750	123.274000	<DEL>	---	certain
sw2065B-ms98-a-0026	B.34	123.274000	123.523000	<DEL>	---	age
sw2065B-ms98-a-0026	B.34	123.523000	123.692500		and	and
sw2065B-ms98-a-0026	B.34	123.692500	123.914000		then	then
sw2065B-ms98-a-0026	B.34	123.914000	124.084000		took	took
sw2065B-ms98-a-0026	B.34	124.084000	124.174000		then	then
sw2065B-ms98-a-0026	B.34	124.174000	124.264000		to	to
sw2065B-ms98-a-0026	B.34	124.264000	124.514000		another	another
sw2065B-ms98-a-0026	B.34	124.514000	124.904000		country	country
sw2065B-ms98-a-0026	B.34	124.904000	125.264000		instead	instead
sw2065B-ms98-a-0026	B.34	125.264000	125.369500		of	of
sw2065B-ms98-a-0026	B.34	125.369500	125.724000		having	having
sw2065B-ms98-a-0026	B.34	125.724000	125.964000		being	being
sw2065B-ms98-a-0026	B.34	125.964000	126.544000		exposed	exposed
sw2065B-ms98-a-0026	B.34	126.544000	126.604000		to	to
sw2065B-ms98-a-0026	B.34	126.604000	126.754000		all	all
sw2065B-ms98-a-0026	B.34	126.754000	126.844000		the	the
sw2065B-ms98-a-0026	B.34	126.844000	127.264000		drugs	drugs
sw2065B-ms98-a-0026	B.34	127.264000	127.354000		and	and
sw2065B-ms98-a-0026	B.34	127.354000	127.914000		violence	violence
sw2065B-ms98-a-0026	B.34	127.914000	128.094000		and	and
sw2065B-ms98-a-0026	B.34	128.094000	128.477125		sex	sex
sw2065B-ms98-a-0026	B.34	128.477125	128.571375		and	[laughter-and]
sw2065B-ms98-a-0026	B.34	128.571375	129.014000		everything	[laughter-everything]
sw2065B-ms98-a-0026	B.34	129.014000	129.144000		here	[laughter-here]
sw2065B-ms98-a-0026	B.34	129.144000	129.294000		and	[laughter-and]
sw2065B-ms98-a-0026	B.34	129.294000	129.483500		take	[laughter-take]
sw2065B-ms98-a-0026	B.34	129.483500	129.625875		them	them
sw2065B-ms98-a-0026	B.34	129.625875	129.753500	<DEL>	---	and
sw2065B-ms98-a-0026	B.34	129.753500	129.776750		[silence]	[silence]
sw2065B-ms98-a-0027	B.34	129.776750	129.818625		[silence]	[silence]
sw2065B-ms98-a-0027	B.34	129.818625	129.946750		to	to
sw2065B-ms98-a-0027	B.34	129.946750	130.126750		some	some
sw2065B-ms98-a-0027	B.34	130.126750	130.296750		other	other
sw2065B-ms98-a-0027	B.34	130.296750	130.656750		country	country
sw2065B-ms98-a-0027	B.34	130.656750	130.776750		that	that
sw2065B-ms98-a-0027	B.34	130.776750	130.966750		had	had
sw2065B-ms98-a-0027	B.34	130.966750	131.246750		different	different
sw2065B-ms98-a-0027	B.34	131.246750	131.501500		moral	moral
sw2065B-ms98-a-0027	B.34	131.501500	131.906750		values	[laughter-values]
sw2065B-ms98-a-0027	B.34	131.906750	132.286750	<DEL>	---	[laughter-something]
sw2065B-ms98-a-0027	B.34	132.286750	132.406750		like	like
sw2065B-ms98-a-0027	B.34	132.406750	132.756750		Saudi	Saudi
sw2065B-ms98-a-0027	B.34	132.756750	133.166750		Arabia	Arabia
sw2065B-ms98-a-0027	B.34	133.166750	133.286750		where	where
sw2065B-ms98-a-0027	B.34	133.286750	133.376750		they	they
sw2065B-ms98-a-0027	B.34	133.376750	133.666750		couldn't	couldn't
sw2065B-ms98-a-0027	B.34	133.666750	134.033250		drink	drink
sw2065B-ms98-a-0027	B.36	134.033250	135.662125		[laughter]	[laughter]
sw2065B-ms98-a-0027	B.36	135.662125	136.955375		[silence]	[silence]
sw2065B-ms98-a-0028	B.36	136.955375	137.760125		[silence]	[silence]
sw2065B-ms98-a-0028	B.36	137.760125	138.382000		Really	really
sw2065B-ms98-a-0028	B.38	138.382000	140.869250		[laughter]	[laughter]
sw2065B-ms98-a-0028	B.38	140.869250	141.095375		Yeah	yeah
sw2065B-ms98-a-0028	B.40	141.095375	141.175375	<DEL>	---	i
sw2065B-ms98-a-0028	B.40	141.175375	141.445375	<DEL>	---	hadn't
sw2065B-ms98-a-0028	B.40	141.445375	141.713750	<DEL>	---	thought
sw2065B-ms98-a-0028	B.40	141.713750	141.885375	<DEL>	---	about
sw2065B-ms98-a-0028	B.40	141.885375	142.151500	<DEL>	---	that
sw2065B-ms98-a-0028	B.40	142.151500	142.913500		[silence]	[silence]
sw2065B-ms98-a-0028	B.40	142.913500	143.341375	<DEL>	---	um-hum
sw2065B-ms98-a-0028	B.40	143.341375	143.874250		[silence]	[silence]
sw2065B-ms98-a-0029	B.40	143.874250	146.216875		[silence]	[silence]
sw2065B-ms98-a-0030	B.40	146.216875	146.819250		[silence]	[silence]
sw2065B-ms98-a-0030	B.40	146.819250	147.360250	<DEL>	---	yeah
sw2065B-ms98-a-0030	B.40	147.360250	147.946875		[silence]	[silence]
sw2065B-ms98-a-0031	B.40	147.946875	161.977250		[silence]	[silence]
sw2065B-ms98-a-0032	B.40	161.977250	162.325875		[silence]	[silence]
sw2065B-ms98-a-0032	B.40	162.325875	162.670750		Public	public
sw2065B-ms98-a-0032	B.40	162.670750	163.227250	<SUB>	hanging	hangings
sw2065B-ms98-a-0032	B.42	163.227250	163.438375	<DEL>	---	and
sw2065B-ms98-a-0032	B.42	163.438375	163.989625	<DEL>	---	yeah
sw2065B-ms98-a-0032	B.42	163.989625	164.971375		[silence]	[silence]
sw2065B-ms98-a-0033	B.42	164.971375	166.518000		[silence]	[silence]
sw2065B-ms98-a-0034	B.42	166.518000	167.053500		[silence]	[silence]
sw2065B-ms98-a-0034	B.42	167.053500	167.562000		Yeah	yeah
sw2065B-ms98-a-0034	B.44	167.562000	167.986125		[silence]	[silence]
sw2065B-ms98-a-0035	B.44	167.986125	168.305875		[silence]	[silence]
sw2065B-ms98-a-0035	B.44	168.305875	168.536125		Yeah	yeah
sw2065B-ms98-a-0035	B.44	168.536125	168.646125		I've	i've
sw2065B-ms98-a-0035	B.44	168.646125	168.896125		heard	heard
sw2065B-ms98-a-0035	B.44	168.896125	169.036125		that	that
sw2065B-ms98-a-0035	B.44	169.036125	169.216125		like	like
sw2065B-ms98-a-0035	B.44	169.216125	169.336125		in	in
sw2065B-ms98-a-0035	B.44	169.336125	169.706125		China	China
sw2065B-ms98-a-0035	B.44	169.706125	169.846125		and	and
sw2065B-ms98-a-0035	B.44	169.846125	170.096125		stuff	stuff
sw2065B-ms98-a-0035	B.44	170.096125	170.206125		there	there
sw2065B-ms98-a-0035	B.44	170.206125	170.336125		is	is
sw2065B-ms98-a-0035	B.44	170.336125	170.756125		virtually	virtually
sw2065B-ms98-a-0035	B.44	170.756125	170.886125		no	no
sw2065B-ms98-a-0035	B.44	170.886125	171.126125		such	such
sw2065B-ms98-a-0035	B.44	171.126125	171.286125		thing	thing
sw2065B-ms98-a-0035	B.44	171.286125	171.436125		as	as
sw2065B-ms98-a-0035	B.44	171.436125	171.766125		rape	rape
sw2065B-ms98-a-0035	B.44	171.766125	172.056125		because	because
sw2065B-ms98-a-0035	B.44	172.056125	172.196125		if	if
sw2065B-ms98-a-0035	B.44	172.196125	172.411375		you	you
sw2065B-ms98-a-0035	B.44	172.411375	172.766125		rape	[laughter-rape]
sw2065B-ms98-a-0035	B.44	172.766125	173.106125		somebody	somebody
sw2065B-ms98-a-0035	B.44	173.106125	173.256125		you'd	you'd
sw2065B-ms98-a-0035	B.44	173.256125	173.356125		be	be
sw2065B-ms98-a-0035	B.44	173.356125	173.706125		murdered	murdered
sw2065B-ms98-a-0035	B.44	173.706125	173.846125	<DEL>	---	them
sw2065B-ms98-a-0035	B.44	173.846125	173.906125		you	you
sw2065B-ms98-a-0035	B.44	173.906125	173.966125		know	know
sw2065B-ms98-a-0035	B.44	173.966125	174.026125		on	on
sw2065B-ms98-a-0035	B.44	174.026125	174.086125		the	the
sw2065B-ms98-a-0035	B.44	174.086125	174.156125		you	you
sw2065B-ms98-a-0035	B.44	174.156125	174.293125		know	know
sw2065B-ms98-a-0035	B.44	174.293125	174.728000		street	street
sw2065B-ms98-a-0035	B.44	174.728000	175.031125		so	so
sw2065B-ms98-a-0035	B.48	175.031125	175.834500		[silence]	[silence]
sw2065B-ms98-a-0035	B.48	175.834500	176.209750		Yeah	yeah
sw2065B-ms98-a-0035	B.50	176.209750	176.898750		[silence]	[silence]
sw2065B-ms98-a-0036	B.50	176.898750	189.820750		[silence]	[silence]
sw2065B-ms98-a-0037	B.50	189.820750	191.269125		[silence]	[silence]
sw2065B-ms98-a-0037	B.50	191.269125	192.707625	<DEL>	---	[laughter-yeah]
sw2065B-ms98-a-0037	B.50	192.707625	193.671125		[silence]	[silence]
sw2065B-ms98-a-0038	B.50	193.671125	204.713875		[silence]	[silence]
sw2065B-ms98-a-0039	B.50	204.713875	205.203125		[silence]	[silence]
sw2065B-ms98-a-0039	B.50	205.203125	205.723000	<DEL>	---	yeah
sw2065B-ms98-a-0039	B.50	205.723000	206.042750		[silence]	[silence]
sw2065B-ms98-a-0040	B.50	206.042750	208.964000		[silence]	[silence]
sw2065B-ms98-a-0041	B.50	208.964000	209.380000		[silence]	[silence]
sw2065B-ms98-a-0041	B.50	209.380000	209.843250		Yeah	yeah
sw2065B-ms98-a-0041	B.50	209.843250	210.124000		that's	that's
sw2065B-ms98-a-0041	B.50	210.124000	210.560250		true	true
sw2065B-ms98-a-0041	B.52	210.560250	211.020500		[silence]	[silence]
sw2065B-ms98-a-0042	B.52	211.020500	212.127000		[silence]	[silence]
sw2065B-ms98-a-0043	B.52	212.127000	212.467250		[silence]	[silence]
sw2065B-ms98-a-0043	B.52	212.467250	212.567000	<DEL>	---	the
sw2065B-ms98-a-0043	B.52	212.567000	212.857000		People	people
sw2065B-ms98-a-0043	B.52	212.857000	212.967000		that	that
sw2065B-ms98-a-0043	B.52	212.967000	213.157000		might	might
sw2065B-ms98-a-0043	B.52	213.157000	213.517000		benefit	benefit
sw2065B-ms98-a-0043	B.52	213.517000	213.747000		most	most
sw2065B-ms98-a-0043	B.52	213.747000	213.887000		from	from
sw2065B-ms98-a-0043	B.52	213.887000	213.987000		it	it
sw2065B-ms98-a-0043	B.52	213.987000	214.197000		might	might
sw2065B-ms98-a-0043	B.52	214.197000	214.427000		not	not
sw2065B-ms98-a-0043	B.52	214.427000	214.677000		go	go
sw2065B-ms98-a-0043	B.52	214.677000	214.767000		in	in
sw2065B-ms98-a-0043	B.52	214.767000	214.967000		that	that
sw2065B-ms98-a-0043	B.52	214.967000	215.657000		situation	situation
sw2065B-ms98-a-0043	B.52	215.657000	215.737000		you	you
sw2065B-ms98-a-0043	B.52	215.737000	215.847000		know	know
sw2065B-ms98-a-0043	B.52	215.847000	215.987000		like	like
sw2065B-ms98-a-0043	B.52	215.987000	216.207000		people	people
sw2065B-ms98-a-0043	B.52	216.207000	216.327000		that	that
sw2065B-ms98-a-0043	B.52	216.327000	216.547000		really	really
sw2065B-ms98-a-0043	B.52	216.547000	216.647000		are	are
sw2065B-ms98-a-0043	B.52	216.647000	216.997000		trapped	trapped
sw2065B-ms98-a-0043	B.52	216.997000	217.057000		in	in
sw2065B-ms98-a-0043	B.52	217.057000	217.137000		a	a
sw2065B-ms98-a-0043	B.52	217.137000	217.517000		ghetto	ghetto
sw2065B-ms98-a-0043	B.52	217.517000	217.743875		or	or
sw2065B-ms98-a-0043	B.52	217.743875	218.067000		something	something
sw2065B-ms98-a-0043	B.52	218.067000	218.237000		like	like
sw2065B-ms98-a-0043	B.52	218.237000	218.575875		that	that
sw2065B-ms98-a-0043	B.54	218.575875	219.049750		[silence]	[silence]
sw2065B-ms98-a-0044	B.54	219.049750	219.541125		[silence]	[silence]
sw2065B-ms98-a-0044	B.54	219.541125	219.669750		Might	might
sw2065B-ms98-a-0044	B.54	219.669750	219.849750		not	not
sw2065B-ms98-a-0044	B.54	219.849750	220.079750		go	go
sw2065B-ms98-a-0044	B.54	220.079750	220.209750		if	if
sw2065B-ms98-a-0044	B.54	220.209750	220.309750		it	it
sw2065B-ms98-a-0044	B.54	220.309750	220.539750		was	was
sw2065B-ms98-a-0044	B.54	220.539750	221.009750		voluntary	voluntary
sw2065B-ms98-a-0044	B.54	221.009750	221.099750		but	but
sw2065B-ms98-a-0044	B.54	221.099750	221.179750		I	i
sw2065B-ms98-a-0044	B.54	221.179750	221.309750		don't	don't
sw2065B-ms98-a-0044	B.54	221.309750	221.369750		know	know
sw2065B-ms98-a-0044	B.54	221.369750	221.509750		how	how
sw2065B-ms98-a-0044	B.54	221.509750	221.659750		they'd	they'd
sw2065B-ms98-a-0044	B.54	221.659750	222.179750		enforce	enforce
sw2065B-ms98-a-0044	B.54	222.179750	222.319750		it	it
sw2065B-ms98-a-0044	B.54	222.319750	222.439750		if	if
sw2065B-ms98-a-0044	B.54	222.439750	222.569750		it	it
sw2065B-ms98-a-0044	B.54	222.569750	222.882875		was	was
sw2065B-ms98-a-0044	B.56	222.882875	223.198125		[silence]	[silence]
sw2065B-ms98-a-0045	B.56	223.198125	225.071750		[silence]	[silence]
sw2065B-ms98-a-0046	B.56	225.071750	225.310125		[silence]	[silence]
sw2065B-ms98-a-0046	B.56	225.310125	225.896250		Yeah	yeah
sw2065B-ms98-a-0046	B.60	225.896250	227.526875		[silence]	[silence]
sw2065B-ms98-a-0046	B.60	227.526875	227.786250		I	[laughter-i]
sw2065B-ms98-a-0046	B.60	227.786250	228.045125		don't	[laughter-don't]
sw2065B-ms98-a-0046	B.60	228.045125	229.073500		know	[laughter-know]
sw2065B-ms98-a-0046	B.60	229.073500	229.291750		Send	send
sw2065B-ms98-a-0046	B.60	229.291750	229.381750		them	them
sw2065B-ms98-a-0046	B.60	229.381750	229.571750		over	over
sw2065B-ms98-a-0046	B.60	229.571750	229.661750		to	to
sw2065B-ms98-a-0046	B.60	229.661750	230.181750		Iraq	Iraq
sw2065B-ms98-a-0046	B.62	230.181750	231.741750		[laughter]	[laughter]
sw2065B-ms98-a-0046	B.62	231.741750	231.901750		Have	have
sw2065B-ms98-a-0046	B.62	231.901750	231.961750		a	a
sw2065B-ms98-a-0046	B.62	231.961750	232.391750		vacation	vacation
sw2065B-ms98-a-0046	B.62	232.391750	232.481750		in	in
sw2065B-ms98-a-0046	B.62	232.481750	232.791750		Iraq	Iraq
sw2065B-ms98-a-0046	B.62	232.791750	232.911750		for	for
sw2065B-ms98-a-0046	B.62	232.911750	232.941750		a	a
sw2065B-ms98-a-0046	B.62	232.941750	233.191750		year	year
sw2065B-ms98-a-0046	B.64	233.191750	233.810250		[laughter]	[laughter]
sw2065B-ms98-a-0046	B.64	233.810250	234.505375		[silence]	[silence]
sw2065B-ms98-a-0047	B.64	234.505375	237.707375		[silence]	[silence]
sw2065B-ms98-a-0048	B.64	237.707375	238.186875		[silence]	[silence]
sw2065B-ms98-a-0048	B.64	238.186875	238.770625		Yeah	yeah
sw2065B-ms98-a-0048	B.66	238.770625	239.261750		[silence]	[silence]
sw2065B-ms98-a-0049	B.66	239.261750	250.038250		[silence]	[silence]
sw2065B-ms98-a-0050	B.66	250.038250	250.460875		[silence]	[silence]
sw2065B-ms98-a-0050	B.66	250.460875	250.903875	<SUB>	Huh-uh	um-hum
sw2065B-ms98-a-0050	B.68	250.903875	251.650250		[silence]	[silence]
sw2065B-ms98-a-0051	B.68	251.650250	252.476625		[silence]	[silence]
sw2065B-ms98-a-0051	B.68	252.476625	252.950250		Yeah	yeah
sw2065B-ms98-a-0051	B.70	252.950250	253.264625		[silence]	[silence]
sw2065B-ms98-a-0052	B.70	253.264625	255.202625		[silence]	[silence]
sw2065B-ms98-a-0053	B.70	255.202625	255.465750		[silence]	[silence]
sw2065B-ms98-a-0053	B.70	255.465750	255.622625		Well	well
sw2065B-ms98-a-0053	B.70	255.622625	255.725875		it	it
sw2065B-ms98-a-0053	B.70	255.725875	255.942625		seems	seems
sw2065B-ms98-a-0053	B.70	255.942625	256.092625		like	like
sw2065B-ms98-a-0053	B.70	256.092625	256.152625		it	it
sw2065B-ms98-a-0053	B.70	256.152625	256.282625		would	would
sw2065B-ms98-a-0053	B.70	256.282625	256.632625		develop	develop
sw2065B-ms98-a-0053	B.70	256.632625	257.092625		pride	pride
sw2065B-ms98-a-0053	B.70	257.092625	257.172625		you	you
sw2065B-ms98-a-0053	B.70	257.172625	257.292625		know	know
sw2065B-ms98-a-0053	B.70	257.292625	257.392625		in	in
sw2065B-ms98-a-0053	B.70	257.392625	257.769500		people	people
sw2065B-ms98-a-0053	B.70	257.769500	257.992625		if	if
sw2065B-ms98-a-0053	B.70	257.992625	258.192625		if	if
sw2065B-ms98-a-0053	B.70	258.192625	258.372625		it's	it's
sw2065B-ms98-a-0053	B.70	258.372625	258.502625		in	in
sw2065B-ms98-a-0053	B.70	258.502625	258.652625		their	their
sw2065B-ms98-a-0053	B.70	258.652625	258.832625		own	own
sw2065B-ms98-a-0053	B.70	258.832625	259.292625		country	country
sw2065B-ms98-a-0053	B.70	259.292625	259.352625		It	it
sw2065B-ms98-a-0053	B.70	259.352625	259.452625		would	would
sw2065B-ms98-a-0053	B.70	259.452625	259.922625		certainly	certainly
sw2065B-ms98-a-0053	B.70	259.922625	260.192625		help	help
sw2065B-ms98-a-0053	B.70	260.192625	260.392625		them	them
sw2065B-ms98-a-0053	B.70	260.392625	260.648250		to	to
sw2065B-ms98-a-0053	B.70	260.648250	261.452625		appreciate	appreciate
sw2065B-ms98-a-0053	B.70	261.452625	261.632625		some	some
sw2065B-ms98-a-0053	B.70	261.632625	261.732625		of	of
sw2065B-ms98-a-0053	B.70	261.732625	261.905000		the	the
sw2065B-ms98-a-0053	B.70	261.905000	262.002500		[silence]	[silence]
sw2065B-ms98-a-0054	B.70	262.002500	262.581125		[silence]	[silence]
sw2065B-ms98-a-0054	B.70	262.581125	262.772500		things	things
sw2065B-ms98-a-0054	B.70	262.772500	262.872500		that	that
sw2065B-ms98-a-0054	B.70	262.872500	263.002500		we	we
sw2065B-ms98-a-0054	B.70	263.002500	263.262500		have	have
sw2065B-ms98-a-0054	B.70	263.262500	263.482500		here	here
sw2065B-ms98-a-0054	B.70	263.482500	263.572500		and	and
sw2065B-ms98-a-0054	B.70	263.572500	263.872500		develop	develop
sw2065B-ms98-a-0054	B.70	263.872500	264.032500		some	some
sw2065B-ms98-a-0054	B.70	264.032500	264.362500		pride	pride
sw2065B-ms98-a-0054	B.70	264.362500	264.422500		in	in
sw2065B-ms98-a-0054	B.70	264.422500	264.542500		them	them
sw2065B-ms98-a-0054	B.70	264.542500	264.692500		if	if
sw2065B-ms98-a-0054	B.70	264.692500	264.762500		it	it
sw2065B-ms98-a-0054	B.70	264.762500	264.902500		was	was
sw2065B-ms98-a-0054	B.70	264.902500	265.272500		handled	handled
sw2065B-ms98-a-0054	B.70	265.272500	265.442500		that	that
sw2065B-ms98-a-0054	B.70	265.442500	265.652500		way	way
sw2065B-ms98-a-0054	B.70	265.652500	265.732500		I	i
sw2065B-ms98-a-0054	B.70	265.732500	265.852500		I	i
sw2065B-ms98-a-0054	B.70	265.852500	265.952500		it	it
sw2065B-ms98-a-0054	B.70	265.952500	266.072500		would	would
sw2065B-ms98-a-0054	B.70	266.072500	266.292500		take	take
sw2065B-ms98-a-0054	B.70	266.292500	266.582500		quite	quite
sw2065B-ms98-a-0054	B.70	266.582500	266.622500		a	a
sw2065B-ms98-a-0054	B.70	266.622500	266.792500		few	few
sw2065B-ms98-a-0054	B.70	266.792500	267.072500		people	people
sw2065B-ms98-a-0054	B.70	267.072500	267.172500		I	i
sw2065B-ms98-a-0054	B.70	267.172500	267.342500		think	think
sw2065B-ms98-a-0054	B.70	267.342500	267.412500		it	it
sw2065B-ms98-a-0054	B.70	267.412500	267.721875		might	might
sw2065B-ms98-a-0054	B.70	267.721875	267.846125		[silence]	[silence]
sw2065B-ms98-a-0054	B.70	267.846125	268.092500		build	build
sw2065B-ms98-a-0054	B.70	268.092500	268.622500		jobs	jobs
sw2065B-ms98-a-0054	B.70	268.622500	268.782500		for	for
sw2065B-ms98-a-0054	B.70	268.782500	269.286500		people	people
sw2065B-ms98-a-0054	B.70	269.286500	269.471125		[silence]	[silence]
sw2065B-ms98-a-0054	B.70	269.471125	269.582500		you	you
sw2065B-ms98-a-0054	B.70	269.582500	269.712500		know	know
sw2065B-ms98-a-0054	B.70	269.712500	269.892500		that	that
sw2065B-ms98-a-0054	B.70	269.892500	270.239750		were	were
sw2065B-ms98-a-0054	B.70	270.239750	271.072500		administrating	administrating
sw2065B-ms98-a-0054	B.70	271.072500	271.232500		and	and
sw2065B-ms98-a-0054	B.70	271.232500	271.512500		running	running
sw2065B-ms98-a-0054	B.70	271.512500	271.642500		and	and
sw2065B-ms98-a-0054	B.70	271.642500	272.102500		training	training
sw2065B-ms98-a-0054	B.70	272.102500	272.341125		and	and
sw2065B-ms98-a-0054	B.70	272.341125	272.702750		[silence]	[silence]
sw2065B-ms98-a-0054	B.70	272.702750	273.262500		coordinating	coordinating
sw2065B-ms98-a-0054	B.70	273.262500	273.372500		and	and
sw2065B-ms98-a-0054	B.70	273.372500	273.532500		all	all
sw2065B-ms98-a-0054	B.70	273.532500	273.872500		that	that
sw2065B-ms98-a-0054	B.70	273.872500	274.032500		so	so
sw2065B-ms98-a-0054	B.70	274.032500	274.302500		maybe	maybe
sw2065B-ms98-a-0054	B.70	274.302500	274.482500		that	that
sw2065B-ms98-a-0054	B.70	274.482500	274.682500		part	part
sw2065B-ms98-a-0054	B.70	274.682500	274.742500		of	of
sw2065B-ms98-a-0054	B.70	274.742500	274.802500		it	it
sw2065B-ms98-a-0054	B.70	274.802500	274.932500		would	would
sw2065B-ms98-a-0054	B.70	274.932500	275.062500		be	be
sw2065B-ms98-a-0054	B.70	275.062500	275.450500		helpful	helpful
sw2065B-ms98-a-0054	B.70	275.450500	275.746000		too	too
sw2065B-ms98-a-0054	B.72	275.746000	276.212625		[silence]	[silence]
sw2065B-ms98-a-0055	B.72	276.212625	276.699375		[silence]	[silence]
sw2065B-ms98-a-0055	B.72	276.699375	276.752625		I	i
sw2065B-ms98-a-0055	B.72	276.752625	276.942625		don't	don't
sw2065B-ms98-a-0055	B.72	276.942625	277.310250		know	know
sw2065B-ms98-a-0055	B.74	277.310250	277.736500		[silence]	[silence]
sw2065B-ms98-a-0056	B.74	277.736500	277.836125		[silence]	[silence]
sw2065B-ms98-a-0056	B.74	277.836125	278.052125		[noise]	[noise]
sw2065B-ms98-a-0056	B.74	278.052125	278.186500	<DEL>	---	i'd
sw2065B-ms98-a-0056	B.74	278.186500	278.326500		Like	like
sw2065B-ms98-a-0056	B.74	278.326500	278.406500		to	to
sw2065B-ms98-a-0056	B.74	278.406500	278.506500		have	have
sw2065B-ms98-a-0056	B.74	278.506500	278.576500		a	a
sw2065B-ms98-a-0056	B.74	278.576500	278.976500		volunteer	volunteer
sw2065B-ms98-a-0056	B.74	278.976500	279.206500		come	come
sw2065B-ms98-a-0056	B.74	279.206500	279.416500		here	here
sw2065B-ms98-a-0056	B.74	279.416500	279.626500		and	and
sw2065B-ms98-a-0056	B.74	279.626500	279.826500		rake	rake
sw2065B-ms98-a-0056	B.74	279.826500	280.226500		leaves	leaves
sw2065B-ms98-a-0056	B.74	280.226500	280.325250		and	and
sw2065B-ms98-a-0056	B.74	280.325250	280.581250		[laughter]	[laughter]
sw2065B-ms98-a-0056	B.74	280.581250	280.716500		mow	mow
sw2065B-ms98-a-0056	B.74	280.716500	280.836500		the	the
sw2065B-ms98-a-0056	B.74	280.836500	281.166500		grass	[laughter-grass]
sw2065B-ms98-a-0056	B.74	281.166500	281.436500		and	and
sw2065B-ms98-a-0056	B.76	281.436500	282.003125		[laughter]	[laughter]
sw2065B-ms98-a-0056	B.76	282.003125	282.458750		[silence]	[silence]
sw2065B-ms98-a-0057	B.76	282.458750	286.788000		[silence]	[silence]
sw2065B-ms98-a-0058	B.76	286.788000	287.327125		[silence]	[silence]
sw2065B-ms98-a-0058	B.76	287.327125	287.839500		Yeah	yeah
sw2065B-ms98-a-0058	B.76	287.839500	288.035375		[silence]	[silence]
sw2065B-ms98-a-0058	B.76	288.035375	288.566875		yeah	yeah
sw2065B-ms98-a-0058	B.78	288.566875	289.063500		[silence]	[silence]
sw2065B-ms98-a-0059	B.78	289.063500	294.347250		[silence]	[silence]
sw2065B-ms98-a-0060	B.78	294.347250	294.917000		[silence]	[silence]
sw2065B-ms98-a-0060	B.78	294.917000	295.394875	<SUB>	Huh-uh	um-hum
sw2065B-ms98-a-0060	B.80	295.394875	295.970375		[silence]	[silence]
sw2065B-ms98-a-0061	B.80	295.970375	305.277500		[silence]	[silence]
sw2065B-ms98-a-0062	B.80	305.277500	305.781250		[silence]	[silence]
sw2065B-ms98-a-0062	B.80	305.781250	306.236000	<SUB>	Huh-uh	um-hum
sw2065B-ms98-a-0062	B.82	306.236000	306.604000		[silence]	[silence]
sw2065B-ms98-a-0063	B.82	306.604000	307.676500		[silence]	[silence]
sw2065B-ms98-a-0064	B.82	307.676500	308.169250		[silence]	[silence]
sw2065B-ms98-a-0064	B.82	308.169250	308.560125	<DEL>	---	um-hum
sw2065B-ms98-a-0064	B.82	308.560125	308.950250		[silence]	[silence]
sw2065B-ms98-a-0065	B.82	308.950250	311.902875		[silence]	[silence]
sw2065B-ms98-a-0066	B.82	311.902875	312.297750		[silence]	[silence]
sw2065B-ms98-a-0066	B.82	312.297750	312.762875		Yeah	yeah
sw2065B-ms98-a-0066	B.82	312.762875	313.032875		really	really
sw2065B-ms98-a-0066	B.82	313.032875	313.132875		there	there
sw2065B-ms98-a-0066	B.82	313.132875	313.312875		could	could
sw2065B-ms98-a-0066	B.82	313.312875	313.607500		be	be
sw2065B-ms98-a-0066	B.82	313.607500	314.054750		um	um
sw2065B-ms98-a-0066	B.82	314.054750	314.574625		[silence]	[silence]
sw2065B-ms98-a-0066	B.82	314.574625	314.985875		some	some
sw2065B-ms98-a-0066	B.82	314.985875	315.068750		[silence]	[silence]
sw2065B-ms98-a-0066	B.82	315.068750	315.342875	<DEL>	---	uh
sw2065B-ms98-a-0066	B.82	315.342875	316.002875		scandals	scandals
sw2065B-ms98-a-0066	B.82	316.002875	316.462875		involved	involved
sw2065B-ms98-a-0066	B.82	316.462875	316.622875		if	if
sw2065B-ms98-a-0066	B.82	316.622875	316.752875		you	you
sw2065B-ms98-a-0066	B.82	316.752875	316.832875		know	know
sw2065B-ms98-a-0066	B.82	316.832875	316.892875		it	it
sw2065B-ms98-a-0066	B.82	316.892875	317.152875		wasn't	wasn't
sw2065B-ms98-a-0066	B.82	317.152875	317.462875		people	people
sw2065B-ms98-a-0066	B.82	317.462875	317.572875		that	that
sw2065B-ms98-a-0066	B.82	317.572875	317.702875		were	were
sw2065B-ms98-a-0066	B.82	317.702875	318.130750		really	really
sw2065B-ms98-a-0066	B.82	318.130750	318.285125		[silence]	[silence]
sw2065B-ms98-a-0066	B.82	318.285125	318.782875		fair	fair
sw2065B-ms98-a-0066	B.82	318.782875	319.064375		and	and
sw2065B-ms98-a-0066	B.82	319.064375	319.215500		[silence]	[silence]
sw2065B-ms98-a-0067	B.82	319.215500	319.507000		[silence]	[silence]
sw2065B-ms98-a-0067	B.82	319.507000	319.795500	<SUB>	le-	leaving
sw2065B-ms98-a-0067	B.84	319.795500	319.944125	<DEL>	---	it
sw2065B-ms98-a-0067	B.84	319.944125	320.045500		you	you
sw2065B-ms98-a-0067	B.84	320.045500	320.383500		know	know
sw2065B-ms98-a-0067	B.84	320.383500	320.598125		[silence]	[silence]
sw2065B-ms98-a-0067	B.84	320.598125	320.695500		in	in
sw2065B-ms98-a-0067	B.84	320.695500	320.785500		a	a
sw2065B-ms98-a-0067	B.84	320.785500	321.145500		legal	legal
sw2065B-ms98-a-0067	B.84	321.145500	321.345500		way	way
sw2065B-ms98-a-0067	B.84	321.345500	321.455500		or	or
sw2065B-ms98-a-0067	B.84	321.455500	321.795500		something	something
sw2065B-ms98-a-0067	B.84	321.795500	321.875500		they	they
sw2065B-ms98-a-0067	B.84	321.875500	322.011000		could	could
sw2065B-ms98-a-0067	B.84	322.011000	322.295500		send	send
sw2065B-ms98-a-0067	B.84	322.295500	322.445500		all	all
sw2065B-ms98-a-0067	B.84	322.445500	322.505500		the	the
sw2065B-ms98-a-0067	B.84	322.505500	322.885500		people	people
sw2065B-ms98-a-0067	B.84	322.885500	323.104250		over	over
sw2065B-ms98-a-0067	B.84	323.104250	323.225500		to	to
sw2065B-ms98-a-0067	B.84	323.225500	323.225500	<INS>	uh	---
sw2065B-ms98-a-0067	B.84	323.225500	324.112000		[silence]	[silence]
sw2065B-ms98-a-0067	B.84	324.112000	324.185500		you	you
sw2065B-ms98-a-0067	B.84	324.185500	324.275500		know	know
sw2065B-ms98-a-0067	B.84	324.275500	324.455500		one	one
sw2065B-ms98-a-0067	B.84	324.455500	325.065500		particular	particular
sw2065B-ms98-a-0067	B.84	325.065500	325.395500		part	part
sw2065B-ms98-a-0067	B.84	325.395500	325.485500		of	of
sw2065B-ms98-a-0067	B.84	325.485500	325.975500		town	town
sw2065B-ms98-a-0067	B.84	325.975500	326.125500		or	or
sw2065B-ms98-a-0067	B.84	326.125500	326.325500		one	one
sw2065B-ms98-a-0067	B.84	326.325500	326.905500		particular	particular
sw2065B-ms98-a-0067	B.84	326.905500	327.685500		project	project
sw2065B-ms98-a-0067	B.84	327.685500	327.785500		that	that
sw2065B-ms98-a-0067	B.84	327.785500	328.145500		somebody	somebody
sw2065B-ms98-a-0067	B.84	328.145500	328.423250		had	had
sw2065B-ms98-a-0067	B.84	328.423250	328.698250		[silence]	[silence]
sw2065B-ms98-a-0067	B.84	328.698250	328.975500		paid	paid
sw2065B-ms98-a-0067	B.84	328.975500	329.495500		somebody	somebody
sw2065B-ms98-a-0067	B.84	329.495500	329.674500		to	to
sw2065B-ms98-a-0067	B.84	329.674500	329.877875		[silence]	[silence]
sw2065B-ms98-a-0067	B.84	329.877875	330.005500		you	you
sw2065B-ms98-a-0067	B.84	330.005500	330.395500		know	know
sw2065B-ms98-a-0067	B.84	330.395500	330.595500		get	get
sw2065B-ms98-a-0067	B.84	330.595500	331.175500		supported	supported
sw2065B-ms98-a-0067	B.84	331.175500	331.354875		or	or
sw2065B-ms98-a-0067	B.88	331.354875	331.876875		[silence]	[silence]
sw2065B-ms98-a-0068	B.88	331.876875	332.243000		[silence]	[silence]
sw2065B-ms98-a-0068	B.88	332.243000	332.366875	<DEL>	---	it
sw2065B-ms98-a-0068	B.88	332.366875	332.476875	<DEL>	---	would
sw2065B-ms98-a-0068	B.88	332.476875	332.616875	<DEL>	---	be
sw2065B-ms98-a-0068	B.88	332.616875	332.996875	<DEL>	---	open
sw2065B-ms98-a-0068	B.88	332.996875	333.213875	<DEL>	---	for
sw2065B-ms98-a-0068	B.88	333.213875	333.587625		[silence]	[silence]
sw2065B-ms98-a-0069	B.88	333.587625	345.501250		[silence]	[silence]
sw2065B-ms98-a-0070	B.88	345.501250	345.936625		[silence]	[silence]
sw2065B-ms98-a-0070	B.88	345.936625	346.511250		Yeah	yeah
sw2065B-ms98-a-0070	B.90	346.511250	346.701250		That	that
sw2065B-ms98-a-0070	B.90	346.701250	346.881250		could	could
sw2065B-ms98-a-0070	B.90	346.881250	347.001250		be	be
sw2065B-ms98-a-0070	B.90	347.001250	347.031250		a	a
sw2065B-ms98-a-0070	B.90	347.031250	347.621250		complicated	complicated
sw2065B-ms98-a-0070	B.90	347.621250	347.821250		too	too
sw2065B-ms98-a-0070	B.90	347.821250	348.111250		couldn't	couldn't
sw2065B-ms98-a-0070	B.90	348.111250	348.231250		it	it
sw2065B-ms98-a-0070	B.92	348.231250	348.739125		Yeah	yeah
sw2065B-ms98-a-0070	B.94	348.739125	349.237875		[silence]	[silence]
sw2065B-ms98-a-0071	B.94	349.237875	368.028625		[silence]	[silence]
sw2065B-ms98-a-0072	B.94	368.028625	368.595250		[silence]	[silence]
sw2065B-ms98-a-0072	B.94	368.595250	369.028625		Yeah	yeah
sw2065B-ms98-a-0072	B.94	369.028625	369.298625		That's	that's
sw2065B-ms98-a-0072	B.94	369.298625	369.800625		true	true
sw2065B-ms98-a-0072	B.94	369.800625	370.338625		Unfair	unfair
sw2065B-ms98-a-0072	B.94	370.338625	370.448625		or	or
sw2065B-ms98-a-0072	B.94	370.448625	370.848625		something	something
sw2065B-ms98-a-0072	B.94	370.848625	371.457750		yeah	yeah
sw2065B-ms98-a-0072	B.100	371.457750	371.892375		[silence]	[silence]
sw2065B-ms98-a-0072	B.100	371.892375	372.302625		Yeah	yeah
sw2065B-ms98-a-0072	B.100	372.302625	373.354250		[silence]	[silence]
sw2065B-ms98-a-0073	B.100	373.354250	386.846500		[silence]	[silence]
sw2065B-ms98-a-0074	B.100	386.846500	387.504125		[silence]	[silence]
sw2065B-ms98-a-0074	B.100	387.504125	390.024125		[laughter]	[laughter]
sw2065B-ms98-a-0074	B.100	390.024125	390.601625		[silence]	[silence]
sw2065B-ms98-a-0075	B.100	390.601625	391.030125		[silence]	[silence]
sw2065B-ms98-a-0075	B.100	391.030125	391.747875		[noise]	[noise]
sw2065B-ms98-a-0075	B.100	391.747875	392.255625	<DEL>	---	yeah
sw2065B-ms98-a-0075	B.100	392.255625	392.749125		Really	really
sw2065B-ms98-a-0075	B.102	392.749125	393.180875		[silence]	[silence]
sw2065B-ms98-a-0076	B.102	393.180875	393.366000		[silence]	[silence]
sw2065B-ms98-a-0076	B.102	393.366000	393.770875		Yeah	yeah
sw2065B-ms98-a-0076	B.102	393.770875	393.940875		Well	well
sw2065B-ms98-a-0076	B.102	393.940875	394.070875		it	it
sw2065B-ms98-a-0076	B.102	394.070875	394.300875		seems	seems
sw2065B-ms98-a-0076	B.102	394.300875	394.490875		like	like
sw2065B-ms98-a-0076	B.102	394.490875	394.769000		there's	there's
sw2065B-ms98-a-0076	B.102	394.769000	395.077875		there's	there's
sw2065B-ms98-a-0076	B.102	395.077875	395.275125		a	a
sw2065B-ms98-a-0076	B.102	395.275125	395.437125	<DEL>	---	a
sw2065B-ms98-a-0076	B.102	395.437125	395.636000		lot	lot
sw2065B-ms98-a-0076	B.102	395.636000	395.760375	<DEL>	---	of
sw2065B-ms98-a-0076	B.102	395.760375	395.900875		you	you
sw2065B-ms98-a-0076	B.102	395.900875	396.050875		don't	don't
sw2065B-ms98-a-0076	B.102	396.050875	396.180875		hear	hear
sw2065B-ms98-a-0076	B.102	396.180875	396.390875		much	much
sw2065B-ms98-a-0076	B.102	396.390875	396.510875		on	on
sw2065B-ms98-a-0076	B.102	396.510875	396.580875		the	the
sw2065B-ms98-a-0076	B.102	396.580875	396.940875		news	news
sw2065B-ms98-a-0076	B.102	396.940875	397.320875		about	about
sw2065B-ms98-a-0076	B.102	397.320875	397.520875		young	young
sw2065B-ms98-a-0076	B.102	397.520875	397.890875		people	people
sw2065B-ms98-a-0076	B.102	397.890875	398.280625		really	really
sw2065B-ms98-a-0076	B.102	398.280625	399.259875		[silence]	[silence]
sw2065B-ms98-a-0076	B.102	399.259875	399.340875		you	you
sw2065B-ms98-a-0076	B.102	399.340875	399.450875		know	know
sw2065B-ms98-a-0076	B.102	399.450875	399.790875		wanting	wanting
sw2065B-ms98-a-0076	B.102	399.790875	399.880875		to	to
sw2065B-ms98-a-0076	B.102	399.880875	400.040875		do	do
sw2065B-ms98-a-0076	B.102	400.040875	400.470875		anything	anything
sw2065B-ms98-a-0076	B.102	400.470875	400.770875		good	good
sw2065B-ms98-a-0076	B.102	400.770875	400.840875		or	or
sw2065B-ms98-a-0076	B.102	400.840875	401.120875		anything	anything
sw2065B-ms98-a-0076	B.102	401.120875	401.380250		like	like
sw2065B-ms98-a-0076	B.102	401.380250	401.730875		that	that
sw2065B-ms98-a-0076	B.102	401.730875	401.978625		but	but
sw2065B-ms98-a-0076	B.102	401.978625	402.200875		[silence]	[silence]
sw2065B-ms98-a-0076	B.102	402.200875	402.290875		you	you
sw2065B-ms98-a-0076	B.102	402.290875	402.490875		know	know
sw2065B-ms98-a-0076	B.102	402.490875	402.680875		I'm	i'm
sw2065B-ms98-a-0076	B.102	402.680875	402.930875		sure	sure
sw2065B-ms98-a-0076	B.102	402.930875	403.070875		that	that
sw2065B-ms98-a-0076	B.102	403.070875	403.270875		there	there
sw2065B-ms98-a-0076	B.102	403.270875	403.410875		are	are
sw2065B-ms98-a-0076	B.102	403.410875	403.470875		a	a
sw2065B-ms98-a-0076	B.102	403.470875	403.640875		lot	lot
sw2065B-ms98-a-0076	B.102	403.640875	403.740875		of	of
sw2065B-ms98-a-0076	B.102	403.740875	403.930875		young	young
sw2065B-ms98-a-0076	B.102	403.930875	404.240875		people	people
sw2065B-ms98-a-0076	B.102	404.240875	404.470875		out	out
sw2065B-ms98-a-0076	B.102	404.470875	404.610875		there	there
sw2065B-ms98-a-0076	B.102	404.610875	404.760875		that	that
sw2065B-ms98-a-0076	B.102	404.760875	404.990875		really	really
sw2065B-ms98-a-0076	B.102	404.990875	405.210875		do	do
sw2065B-ms98-a-0076	B.102	405.210875	405.585125		have	have
sw2065B-ms98-a-0076	B.102	405.585125	405.813625		[silence]	[silence]
sw2065B-ms98-a-0077	B.102	405.813625	406.212500		[silence]	[silence]
sw2065B-ms98-a-0077	B.102	406.212500	406.353625		good	good
sw2065B-ms98-a-0077	B.102	406.353625	406.683625		hearts	hearts
sw2065B-ms98-a-0077	B.102	406.683625	406.773625		and	and
sw2065B-ms98-a-0077	B.102	406.773625	406.843625		are	are
sw2065B-ms98-a-0077	B.102	406.843625	407.123625		willing	willing
sw2065B-ms98-a-0077	B.102	407.123625	407.213625		to	to
sw2065B-ms98-a-0077	B.102	407.213625	407.543625		help	help
sw2065B-ms98-a-0077	B.102	407.543625	407.681500		and	and
sw2065B-ms98-a-0077	B.102	407.681500	408.093625		serve	serve
sw2065B-ms98-a-0077	B.102	408.093625	408.183625		and	and
sw2065B-ms98-a-0077	B.102	408.183625	408.323625		that	that
sw2065B-ms98-a-0077	B.102	408.323625	408.463625		kind	kind
sw2065B-ms98-a-0077	B.102	408.463625	408.523625		of	of
sw2065B-ms98-a-0077	B.102	408.523625	408.633625		thing	thing
sw2065B-ms98-a-0077	B.102	408.633625	408.723625		I	i
sw2065B-ms98-a-0077	B.102	408.723625	409.021750		just	just
sw2065B-ms98-a-0077	B.102	409.021750	409.180625		I	i
sw2065B-ms98-a-0077	B.102	409.180625	409.323625		saw	saw
sw2065B-ms98-a-0077	B.102	409.323625	409.503625		on	on
sw2065B-ms98-a-0077	B.102	409.503625	409.573625		the	the
sw2065B-ms98-a-0077	B.102	409.573625	409.833625		news	news
sw2065B-ms98-a-0077	B.102	409.833625	409.933625		the	the
sw2065B-ms98-a-0077	B.102	409.933625	410.083625		other	other
sw2065B-ms98-a-0077	B.102	410.083625	410.413625		night	night
sw2065B-ms98-a-0077	B.102	410.413625	410.593625		that	that
sw2065B-ms98-a-0077	B.102	410.593625	410.873625		the	the
sw2065B-ms98-a-0077	B.102	410.873625	411.096375		uh	uh
sw2065B-ms98-a-0077	B.102	411.096375	411.187250		[silence]	[silence]
sw2065B-ms98-a-0078	B.102	411.187250	411.450000		[silence]	[silence]
sw2065B-ms98-a-0078	B.102	411.450000	411.696250		the	the
sw2065B-ms98-a-0078	B.102	411.696250	412.047250		little	little
sw2065B-ms98-a-0078	B.102	412.047250	412.337250		girl	girl
sw2065B-ms98-a-0078	B.102	412.337250	412.467250		that	that
sw2065B-ms98-a-0078	B.102	412.467250	412.707250		used	used
sw2065B-ms98-a-0078	B.102	412.707250	412.817250		to	to
sw2065B-ms98-a-0078	B.102	412.817250	412.957250		be	be
sw2065B-ms98-a-0078	B.102	412.957250	413.037250		the	the
sw2065B-ms98-a-0078	B.102	413.037250	413.447250		littlest	littlest
sw2065B-ms98-a-0078	B.102	413.447250	413.657250		girl	girl
sw2065B-ms98-a-0078	B.102	413.657250	413.797250		on	on
sw2065B-ms98-a-0078	B.102	413.797250	413.857250		the	the
sw2065B-ms98-a-0078	B.102	413.857250	414.347250		Cosby	Cosby
sw2065B-ms98-a-0078	B.102	414.347250	414.721625		show	show
sw2065B-ms98-a-0078	B.102	414.721625	415.057250		Kisha	Kisha
sw2065B-ms98-a-0078	B.102	415.057250	415.307250		Knight	Knight
sw2065B-ms98-a-0078	B.102	415.307250	415.717250		Pullman	Pullman
sw2065B-ms98-a-0078	B.102	415.717250	415.907250		was	was
sw2065B-ms98-a-0078	B.102	415.907250	416.367250		starting	starting
sw2065B-ms98-a-0078	B.102	416.367250	416.591125		a	a
sw2065B-ms98-a-0078	B.102	416.591125	416.881125		[silence]	[silence]
sw2065B-ms98-a-0078	B.102	416.881125	416.937250		I	i
sw2065B-ms98-a-0078	B.102	416.937250	417.117250		guess	guess
sw2065B-ms98-a-0078	B.102	417.117250	417.317250		now	now
sw2065B-ms98-a-0078	B.102	417.317250	417.467250		she's	she's
sw2065B-ms98-a-0078	B.102	417.467250	417.775375		practically	practically
sw2065B-ms98-a-0078	B.102	417.775375	417.854625		a	a
sw2065B-ms98-a-0078	B.102	417.854625	418.329000		teenager	teenager
sw2065B-ms98-a-0078	B.104	418.329000	418.466000		[laughter]	[laughter]
sw2065B-ms98-a-0078	B.104	418.466000	418.479750		[silence]	[silence]
sw2065B-ms98-a-0079	B.104	418.479750	418.925875		[silence]	[silence]
sw2065B-ms98-a-0079	B.104	418.925875	419.079750		She	she
sw2065B-ms98-a-0079	B.104	419.079750	419.519750		started	started
sw2065B-ms98-a-0079	B.104	419.519750	419.719750		some	some
sw2065B-ms98-a-0079	B.104	419.719750	419.989750		type	type
sw2065B-ms98-a-0079	B.104	419.989750	420.219750		of	of
sw2065B-ms98-a-0079	B.104	420.219750	420.637250		um	um
sw2065B-ms98-a-0079	B.104	420.637250	421.097250		[noise]	[noise]
sw2065B-ms98-a-0079	B.104	421.097250	421.972750		national	national
sw2065B-ms98-a-0079	B.104	421.972750	422.614250	<DEL>	---	um
sw2065B-ms98-a-0079	B.104	422.614250	423.469750		organization	organization
sw2065B-ms98-a-0079	B.104	423.469750	423.749750		for	for
sw2065B-ms98-a-0079	B.104	423.749750	424.049750		youth	youth
sw2065B-ms98-a-0079	B.104	424.049750	424.189750		to	to
sw2065B-ms98-a-0079	B.104	424.189750	424.810000		volunteer	volunteer
sw2065B-ms98-a-0079	B.104	424.810000	424.998375	<DEL>	---	like
sw2065B-ms98-a-0079	B.104	424.998375	425.149750		to	to
sw2065B-ms98-a-0079	B.104	425.149750	425.489750		teach	teach
sw2065B-ms98-a-0079	B.104	425.489750	425.829750		tutor	tutor
sw2065B-ms98-a-0079	B.104	425.829750	426.145500		other	other
sw2065B-ms98-a-0079	B.104	426.145500	426.250875		[silence]	[silence]
sw2065B-ms98-a-0079	B.104	426.250875	426.489750		kids	kids
sw2065B-ms98-a-0079	B.104	426.489750	426.619750		to	to
sw2065B-ms98-a-0079	B.104	426.619750	427.128750		read	read
sw2065B-ms98-a-0079	B.104	427.128750	427.361000		and	and
sw2065B-ms98-a-0079	B.104	427.361000	427.632250		[silence]	[silence]
sw2065B-ms98-a-0079	B.104	427.632250	427.709750		you	you
sw2065B-ms98-a-0079	B.104	427.709750	427.789750		know	know
sw2065B-ms98-a-0079	B.104	427.789750	427.929750		do	do
sw2065B-ms98-a-0079	B.104	427.929750	428.209750		different	different
sw2065B-ms98-a-0079	B.104	428.209750	428.509750		service	service
sw2065B-ms98-a-0079	B.104	428.509750	429.019750		projects	projects
sw2065B-ms98-a-0079	B.104	429.019750	429.249750		like	like
sw2065B-ms98-a-0079	B.104	429.249750	429.519750		that	that
sw2065B-ms98-a-0079	B.104	429.519750	429.609750		and	and
sw2065B-ms98-a-0079	B.104	429.609750	429.859750		trying	trying
sw2065B-ms98-a-0079	B.104	429.859750	429.939750		to	to
sw2065B-ms98-a-0079	B.104	429.939750	430.168000		get	get
sw2065B-ms98-a-0079	B.104	430.168000	430.653875		[silence]	[silence]
sw2065B-ms98-a-0079	B.104	430.653875	431.060625		youth	youth
sw2065B-ms98-a-0079	B.104	431.060625	431.359750		more	more
sw2065B-ms98-a-0079	B.104	431.359750	432.009750		directed	directed
sw2065B-ms98-a-0079	B.104	432.009750	432.573000		towards	towards
sw2065B-ms98-a-0079	B.104	432.573000	432.708500		[silence]	[silence]
sw2065B-ms98-a-0080	B.104	432.708500	432.892875		[silence]	[silence]
sw2065B-ms98-a-0080	B.104	432.892875	432.954250		[noise]	[noise]
sw2065B-ms98-a-0080	B.104	432.954250	433.028500		you	you
sw2065B-ms98-a-0080	B.104	433.028500	433.148500		know	know
sw2065B-ms98-a-0080	B.104	433.148500	433.588500		helpful	helpful
sw2065B-ms98-a-0080	B.104	433.588500	433.938500		things	things
sw2065B-ms98-a-0080	B.104	433.938500	434.028500		and	and
sw2065B-ms98-a-0080	B.104	434.028500	434.088500		I	i
sw2065B-ms98-a-0080	B.104	434.088500	434.208500		know	know
sw2065B-ms98-a-0080	B.104	434.208500	434.598500	<SUB>	everyone	even
sw2065B-ms98-a-0080	B.104	434.598500	434.768500		like	like
sw2065B-ms98-a-0080	B.104	434.768500	434.848500		in	in
sw2065B-ms98-a-0080	B.104	434.848500	434.938500		the	the
sw2065B-ms98-a-0080	B.104	434.938500	435.088500		high	high
sw2065B-ms98-a-0080	B.104	435.088500	435.428500		schools	schools
sw2065B-ms98-a-0080	B.104	435.428500	435.588500		in	in
sw2065B-ms98-a-0080	B.104	435.588500	436.018500		Dallas	Dallas
sw2065B-ms98-a-0080	B.104	436.018500	436.198500		there's	there's
sw2065B-ms98-a-0080	B.104	436.198500	436.248500		a	a
sw2065B-ms98-a-0080	B.104	436.248500	436.518500		couple	couple
sw2065B-ms98-a-0080	B.104	436.518500	436.678500		high	high
sw2065B-ms98-a-0080	B.104	436.678500	436.938500		schools	schools
sw2065B-ms98-a-0080	B.104	436.938500	437.048500		that	that
sw2065B-ms98-a-0080	B.104	437.048500	437.158500		have	have
sw2065B-ms98-a-0080	B.104	437.158500	437.478500		wanted	wanted
sw2065B-ms98-a-0080	B.104	437.478500	437.608500		to	to
sw2065B-ms98-a-0080	B.104	437.608500	438.064250		start	start
sw2065B-ms98-a-0080	B.104	438.064250	438.621625		[silence]	[silence]
sw2065B-ms98-a-0080	B.104	438.621625	438.948500		like	like
sw2065B-ms98-a-0080	B.104	438.948500	439.303875		a	a
sw2065B-ms98-a-0080	B.104	439.303875	439.827000		um	um
sw2065B-ms98-a-0080	B.104	439.827000	439.936000		[silence]	[silence]
sw2065B-ms98-a-0081	B.104	439.936000	440.087125		[silence]	[silence]
sw2065B-ms98-a-0081	B.104	440.087125	440.410500		[noise]	[noise]
sw2065B-ms98-a-0081	B.104	440.410500	440.966000		minority	minority
sw2065B-ms98-a-0081	B.104	440.966000	441.032250		you	you
sw2065B-ms98-a-0081	B.104	441.032250	441.160250		know	know
sw2065B-ms98-a-0081	B.104	441.160250	441.466000	<DEL>	---	um
sw2065B-ms98-a-0081	B.104	441.466000	441.536000		I	i
sw2065B-ms98-a-0081	B.104	441.536000	441.726000		think	think
sw2065B-ms98-a-0081	B.104	441.726000	441.786000		it	it
sw2065B-ms98-a-0081	B.104	441.786000	441.906000		was	was
sw2065B-ms98-a-0081	B.104	441.906000	442.006000		in	in
sw2065B-ms98-a-0081	B.104	442.006000	442.076000		a	a
sw2065B-ms98-a-0081	B.104	442.076000	442.596000		Hispanic	Hispanic
sw2065B-ms98-a-0081	B.104	442.596000	442.856000		area	area
sw2065B-ms98-a-0081	B.104	442.856000	442.946000		they	they
sw2065B-ms98-a-0081	B.104	442.946000	443.196000		wanted	wanted
sw2065B-ms98-a-0081	B.104	443.196000	443.266000		to	to
sw2065B-ms98-a-0081	B.104	443.266000	443.546000		start	start
sw2065B-ms98-a-0081	B.104	443.546000	443.676000		like	like
sw2065B-ms98-a-0081	B.104	443.676000	443.756000		a	a
sw2065B-ms98-a-0081	B.104	443.756000	444.455500		club	club
sw2065B-ms98-a-0081	B.104	444.455500	444.858500		[silence]	[silence]
sw2065B-ms98-a-0081	B.104	444.858500	445.036000		for	for
sw2065B-ms98-a-0081	B.104	445.036000	445.106000		the	the
sw2065B-ms98-a-0081	B.104	445.106000	445.616000		teenagers	teenagers
sw2065B-ms98-a-0081	B.104	445.616000	445.906000		instead	instead
sw2065B-ms98-a-0081	B.104	445.906000	446.036000		of	of
sw2065B-ms98-a-0081	B.104	446.036000	446.146000		they	they
sw2065B-ms98-a-0081	B.104	446.146000	446.399375		said	said
sw2065B-ms98-a-0081	B.104	446.399375	446.832500	<DEL>	---	ever[y]-
sw2065B-ms98-a-0081	B.104	446.832500	447.036000		all	all
sw2065B-ms98-a-0081	B.104	447.036000	447.264375		these	these
sw2065B-ms98-a-0081	B.104	447.264375	447.696000		gangs	gangs
sw2065B-ms98-a-0081	B.104	447.696000	447.926000		kids	kids
sw2065B-ms98-a-0081	B.104	447.926000	448.106000		could	could
sw2065B-ms98-a-0081	B.104	448.106000	448.386000		join	join
sw2065B-ms98-a-0081	B.104	448.386000	448.496000		to	to
sw2065B-ms98-a-0081	B.104	448.496000	449.049375		belong	belong
sw2065B-ms98-a-0081	B.106	449.049375	449.344625		[silence]	[silence]
sw2065B-ms98-a-0082	B.106	449.344625	449.440125		[silence]	[silence]
sw2065B-ms98-a-0082	B.106	449.440125	449.534625		But	but
sw2065B-ms98-a-0082	B.106	449.534625	449.634625		they	they
sw2065B-ms98-a-0082	B.106	449.634625	449.824625		didn't	didn't
sw2065B-ms98-a-0082	B.106	449.824625	449.964625		have	have
sw2065B-ms98-a-0082	B.106	449.964625	450.234625		anything	anything
sw2065B-ms98-a-0082	B.106	450.234625	451.044625		positive	positive
sw2065B-ms98-a-0082	B.106	451.044625	451.161125		the	the
sw2065B-ms98-a-0082	B.106	451.161125	451.374625		kids	kids
sw2065B-ms98-a-0082	B.106	451.374625	451.514625		could	could
sw2065B-ms98-a-0082	B.106	451.514625	451.624625		be	be
sw2065B-ms98-a-0082	B.106	451.624625	451.894625		doing	doing
sw2065B-ms98-a-0082	B.106	451.894625	452.514625		helping	helping
sw2065B-ms98-a-0082	B.106	452.514625	452.654625		you	you
sw2065B-ms98-a-0082	B.106	452.654625	453.069000		know	know
sw2065B-ms98-a-0082	B.108	453.069000	453.334625		so	so
sw2065B-ms98-a-0082	B.108	453.334625	453.414625		they	they
sw2065B-ms98-a-0082	B.108	453.414625	453.484625		were	were
sw2065B-ms98-a-0082	B.108	453.484625	453.894625		trying	trying
sw2065B-ms98-a-0082	B.108	453.894625	453.984625		to	to
sw2065B-ms98-a-0082	B.108	453.984625	454.344625		start	start
sw2065B-ms98-a-0082	B.108	454.344625	454.654625		that	that
sw2065B-ms98-a-0082	B.108	454.654625	454.934625		out	out
sw2065B-ms98-a-0082	B.108	454.934625	455.144625		so	so
sw2065B-ms98-a-0082	B.108	455.144625	455.274625		if	if
sw2065B-ms98-a-0082	B.108	455.274625	455.464625		there's	there's
sw2065B-ms98-a-0082	B.108	455.464625	455.824625		people	people
sw2065B-ms98-a-0082	B.108	455.824625	456.014625		out	out
sw2065B-ms98-a-0082	B.108	456.014625	456.184625		there	there
sw2065B-ms98-a-0082	B.108	456.184625	456.324625		that	that
sw2065B-ms98-a-0082	B.108	456.324625	456.516375		are	are
sw2065B-ms98-a-0082	B.108	456.516375	456.929750		[silence]	[silence]
sw2065B-ms98-a-0083	B.108	456.929750	457.076750		[silence]	[silence]
sw2065B-ms98-a-0083	B.108	457.076750	457.475500		willing	willing
sw2065B-ms98-a-0083	B.108	457.475500	457.639750		to	to
sw2065B-ms98-a-0083	B.108	457.639750	457.739750		you	you
sw2065B-ms98-a-0083	B.108	457.739750	457.939750		know	know
sw2065B-ms98-a-0083	B.108	457.939750	458.199750		kids	kids
sw2065B-ms98-a-0083	B.108	458.199750	458.289750		that	that
sw2065B-ms98-a-0083	B.108	458.289750	458.359750		are	are
sw2065B-ms98-a-0083	B.108	458.359750	458.649750		willing	willing
sw2065B-ms98-a-0083	B.108	458.649750	458.779750		to	to
sw2065B-ms98-a-0083	B.108	458.779750	459.426750		sacrifice	sacrifice
sw2065B-ms98-a-0083	B.108	459.426750	459.529750		their	their
sw2065B-ms98-a-0083	B.108	459.529750	459.919750		time	time
sw2065B-ms98-a-0083	B.108	459.919750	460.019750		and	and
sw2065B-ms98-a-0083	B.108	460.019750	460.479000		energy	energy
sw2065B-ms98-a-0083	B.108	460.479000	460.607000		[silence]	[silence]
sw2065B-ms98-a-0083	B.108	460.607000	460.889750		Gosh	gosh
sw2065B-ms98-a-0083	B.108	460.889750	460.999750		we	we
sw2065B-ms98-a-0083	B.108	460.999750	461.079750		ought	ought
sw2065B-ms98-a-0083	B.108	461.079750	461.139750		to	to
sw2065B-ms98-a-0083	B.108	461.139750	461.459750		use	use
sw2065B-ms98-a-0083	B.108	461.459750	461.729750		them	them_1
sw2065B-ms98-a-0083	B.110	461.729750	461.833125		You	you
sw2065B-ms98-a-0083	B.110	461.833125	462.161250		know	know
sw2065B-ms98-a-0083	B.110	462.161250	462.461125		[silence]	[silence]
sw2065B-ms98-a-0084	B.110	462.461125	462.811875		[silence]	[silence]
sw2065B-ms98-a-0084	B.110	462.811875	462.880000		If	if
sw2065B-ms98-a-0084	B.110	462.880000	462.991125		their	their
sw2065B-ms98-a-0084	B.110	462.991125	463.241125		willing	willing
sw2065B-ms98-a-0084	B.110	463.241125	463.321125		to	to
sw2065B-ms98-a-0084	B.110	463.321125	463.559250		do	do
sw2065B-ms98-a-0084	B.110	463.559250	463.695375		it	it
sw2065B-ms98-a-0084	B.112	463.695375	464.108250		[silence]	[silence]
sw2065B-ms98-a-0085	B.112	464.108250	467.570625		[silence]	[silence]
sw2065B-ms98-a-0086	B.112	467.570625	468.031125		[silence]	[silence]
sw2065B-ms98-a-0086	B.112	468.031125	468.569625		Yeah	yeah
sw2065B-ms98-a-0086	B.114	468.569625	469.112750		[silence]	[silence]
sw2065B-ms98-a-0087	B.114	469.112750	471.396375		[silence]	[silence]
sw2065B-ms98-a-0088	B.114	471.396375	472.028000		[silence]	[silence]
sw2065B-ms98-a-0088	B.114	472.028000	472.537500		Yeah	yeah
sw2065B-ms98-a-0088	B.116	472.537500	472.941875		[silence]	[silence]
sw2065B-ms98-a-0089	B.116	472.941875	478.160500		[silence]	[silence]
sw2065B-ms98-a-0090	B.116	478.160500	478.674750		[silence]	[silence]
sw2065B-ms98-a-0090	B.116	478.674750	479.185000	<SUB>	Huh-uh	hum
sw2065B-ms98-a-0090	B.118	479.185000	479.511250		[silence]	[silence]
sw2065B-ms98-a-0091	B.118	479.511250	481.068875		[silence]	[silence]
sw2065B-ms98-a-0092	B.118	481.068875	481.650875		[silence]	[silence]
sw2065B-ms98-a-0092	B.118	481.650875	482.087000	<SUB>	Huh-uh	um-hum
sw2065B-ms98-a-0092	B.120	482.087000	482.475875		[silence]	[silence]
sw2065B-ms98-a-0093	B.120	482.475875	491.086250		[silence]	[silence]
sw2065B-ms98-a-0094	B.120	491.086250	491.662000		[silence]	[silence]
sw2065B-ms98-a-0094	B.120	491.662000	492.129625	<SUB>	Huh-uh	huh
sw2065B-ms98-a-0094	B.122	492.129625	492.178125		[silence]	[silence]
sw2065B-ms98-a-0095	B.122	492.178125	501.519500		[silence]	[silence]
sw2065B-ms98-a-0096	B.122	501.519500	501.814375		[silence]	[silence]
sw2065B-ms98-a-0096	B.122	501.814375	502.199500		Oh	oh
sw2065B-ms98-a-0096	B.122	502.199500	502.439500		I	i
sw2065B-ms98-a-0096	B.122	502.439500	502.758750		see	see
sw2065B-ms98-a-0096	B.124	502.758750	503.209375		[silence]	[silence]
sw2065B-ms98-a-0097	B.124	503.209375	506.784000		[silence]	[silence]
sw2065B-ms98-a-0098	B.124	506.784000	507.235250		[silence]	[silence]
sw2065B-ms98-a-0098	B.124	507.235250	507.865375		Yeah	yeah
sw2065B-ms98-a-0098	B.126	507.865375	508.216750		[silence]	[silence]
sw2065B-ms98-a-0099	B.126	508.216750	519.447125		[silence]	[silence]
sw2065B-ms98-a-0100	B.126	519.447125	519.843000		[silence]	[silence]
sw2065B-ms98-a-0100	B.126	519.843000	520.461125		Yeah	yeah
sw2065B-ms98-a-0100	B.126	520.461125	520.606625		[silence]	[silence]
sw2065B-ms98-a-0100	B.126	520.606625	521.085000		Yeah	yeah
sw2065B-ms98-a-0100	B.128	521.085000	521.401500		[silence]	[silence]
sw2065B-ms98-a-0101	B.128	521.401500	521.690500		[silence]	[silence]
sw2065B-ms98-a-0101	B.128	521.690500	521.821500		Well	well
sw2065B-ms98-a-0101	B.128	521.821500	522.001500		we	we
sw2065B-ms98-a-0101	B.128	522.001500	522.219625		um	um
sw2065B-ms98-a-0101	B.128	522.219625	522.380375	<DEL>	---	we
sw2065B-ms98-a-0101	B.128	522.380375	522.641500		belong	belong
sw2065B-ms98-a-0101	B.128	522.641500	522.701500		to	to
sw2065B-ms98-a-0101	B.128	522.701500	522.771500		the	the
sw2065B-ms98-a-0101	B.128	522.771500	523.061500		Church	Church
sw2065B-ms98-a-0101	B.128	523.061500	523.171500		of	of
sw2065B-ms98-a-0101	B.128	523.171500	523.471500		Jesus	Jesus
sw2065B-ms98-a-0101	B.128	523.471500	523.761500		Christ	Christ
sw2065B-ms98-a-0101	B.128	523.761500	523.841500		of	of
sw2065B-ms98-a-0101	B.128	523.841500	524.081500		Latter	Latter
sw2065B-ms98-a-0101	B.128	524.081500	524.311500		Day	Day
sw2065B-ms98-a-0101	B.128	524.311500	524.631500		Saints	Saints
sw2065B-ms98-a-0101	B.128	524.631500	524.761500		which	which
sw2065B-ms98-a-0101	B.128	524.761500	524.881500		is	is
sw2065B-ms98-a-0101	B.128	524.881500	525.041500		like	like
sw2065B-ms98-a-0101	B.128	525.041500	525.161500		the	the
sw2065B-ms98-a-0101	B.128	525.161500	525.501500	<DEL>	---	nickname
sw2065B-ms98-a-0101	B.128	525.501500	525.581500	<DEL>	---	the
sw2065B-ms98-a-0101	B.128	525.581500	525.951500		Mormon	Mormon
sw2065B-ms98-a-0101	B.128	525.951500	526.471125		church	church
sw2065B-ms98-a-0101	B.130	526.471125	526.626625		[silence]	[silence]
sw2065B-ms98-a-0102	B.130	526.626625	526.887250		[silence]	[silence]
sw2065B-ms98-a-0102	B.130	526.887250	527.266625		And	and
sw2065B-ms98-a-0102	B.130	527.266625	527.866625		um	um
sw2065B-ms98-a-0102	B.130	527.866625	528.356625	<SUB>	there	the
sw2065B-ms98-a-0102	B.130	528.356625	528.566625		there	there
sw2065B-ms98-a-0102	B.130	528.566625	528.696625		is	is
sw2065B-ms98-a-0102	B.130	528.696625	528.936625		men	men
sw2065B-ms98-a-0102	B.130	528.936625	529.026625		and	and
sw2065B-ms98-a-0102	B.130	529.026625	529.396625		also	also
sw2065B-ms98-a-0102	B.130	529.396625	529.696625		women	women
sw2065B-ms98-a-0102	B.130	529.696625	529.956625		women	women
sw2065B-ms98-a-0102	B.130	529.956625	530.218125		aren't	aren't
sw2065B-ms98-a-0102	B.130	530.218125	530.342500		[silence]	[silence]
sw2065B-ms98-a-0103	B.130	530.342500	530.509250		[silence]	[silence]
sw2065B-ms98-a-0103	B.130	530.509250	530.884750	<DEL>	---	um
sw2065B-ms98-a-0103	B.130	530.884750	530.937875		[silence]	[silence]
sw2065B-ms98-a-0103	B.130	530.937875	531.302500		nearly	nearly
sw2065B-ms98-a-0103	B.130	531.302500	531.432500		as	as
sw2065B-ms98-a-0103	B.130	531.432500	532.042500		frequent	frequent
sw2065B-ms98-a-0103	B.130	532.042500	532.212500		and	and
sw2065B-ms98-a-0103	B.130	532.212500	532.532500		also	also
sw2065B-ms98-a-0103	B.130	532.532500	532.702500		that	that
sw2065B-ms98-a-0103	B.130	532.702500	532.952750		have	have
sw2065B-ms98-a-0103	B.130	532.952750	533.212625	<DEL>	---	uh
sw2065B-ms98-a-0103	B.130	533.212625	533.582500		elderly	elderly
sw2065B-ms98-a-0103	B.130	533.582500	533.922500		couples	couples
sw2065B-ms98-a-0103	B.130	533.922500	534.122500		once	once
sw2065B-ms98-a-0103	B.130	534.122500	534.222500		their	their
sw2065B-ms98-a-0103	B.130	534.222500	534.492500		kids	kids
sw2065B-ms98-a-0103	B.130	534.492500	534.692500		have	have
sw2065B-ms98-a-0103	B.130	534.692500	534.972500		left	left
sw2065B-ms98-a-0103	B.130	534.972500	535.092500		that	that
sw2065B-ms98-a-0103	B.130	535.092500	535.368625		can	can
sw2065B-ms98-a-0103	B.130	535.368625	535.775375		[silence]	[silence]
sw2065B-ms98-a-0103	B.130	535.775375	536.222500		volunteer	volunteer
sw2065B-ms98-a-0103	B.130	536.222500	536.302500		to	to
sw2065B-ms98-a-0103	B.130	536.302500	536.442500		go	go
sw2065B-ms98-a-0103	B.130	536.442500	536.552500		on	on
sw2065B-ms98-a-0103	B.130	536.552500	536.612500		a	a
sw2065B-ms98-a-0103	B.130	536.612500	537.134625		mission	mission
sw2065B-ms98-a-0103	B.130	537.134625	537.480250		[silence]	[silence]
sw2065B-ms98-a-0104	B.130	537.480250	537.590250		[silence]	[silence]
sw2065B-ms98-a-0104	B.130	537.590250	537.990250		and	and
sw2065B-ms98-a-0104	B.130	537.990250	538.190250		um	um
sw2065B-ms98-a-0104	B.130	538.190250	538.320250		they're	they're
sw2065B-ms98-a-0104	B.130	538.320250	538.620250		all	all
sw2065B-ms98-a-0104	B.130	538.620250	538.790250		over	over
sw2065B-ms98-a-0104	B.130	538.790250	538.931375		the	the
sw2065B-ms98-a-0104	B.130	538.931375	539.503875		world	world
sw2065B-ms98-a-0104	B.130	539.503875	539.760250		And	and
sw2065B-ms98-a-0104	B.130	539.760250	539.970250		its	its
sw2065B-ms98-a-0104	B.130	539.970250	540.090250	<DEL>	---	it
sw2065B-ms98-a-0104	B.130	540.090250	540.260250	<DEL>	---	is
sw2065B-ms98-a-0104	B.130	540.260250	540.330250	<DEL>	---	an
sw2065B-ms98-a-0104	B.130	540.330250	541.060250		incredible	incredible
sw2065B-ms98-a-0104	B.130	541.060250	541.640250		logistics	logistics
sw2065B-ms98-a-0104	B.130	541.640250	541.680250		I	i
sw2065B-ms98-a-0104	B.130	541.680250	541.840250		mean	mean
sw2065B-ms98-a-0104	B.130	541.840250	541.940250		they	they
sw2065B-ms98-a-0104	B.130	541.940250	542.090250		have	have
sw2065B-ms98-a-0104	B.130	542.090250	542.150250		a	a
sw2065B-ms98-a-0104	B.130	542.150250	542.650250		training	training
sw2065B-ms98-a-0104	B.130	542.650250	542.940250		center	center
sw2065B-ms98-a-0104	B.130	542.940250	543.080250		where	where
sw2065B-ms98-a-0104	B.130	543.080250	543.190250		they	they
sw2065B-ms98-a-0104	B.130	543.190250	543.520250		teach	teach
sw2065B-ms98-a-0104	B.130	543.520250	543.680250		them	them
sw2065B-ms98-a-0104	B.130	543.680250	543.870250		it's	it's
sw2065B-ms98-a-0104	B.130	543.870250	544.050250		called	called
sw2065B-ms98-a-0104	B.130	544.050250	544.110250		the	the
sw2065B-ms98-a-0104	B.130	544.110250	544.430250		Missionary	Missionary
sw2065B-ms98-a-0104	B.130	544.430250	544.780250		Training	Training
sw2065B-ms98-a-0104	B.130	544.780250	545.060250		Center	Center
sw2065B-ms98-a-0104	B.130	545.060250	545.140250		in	in
sw2065B-ms98-a-0104	B.130	545.140250	545.600250		Utah	Utah
sw2065B-ms98-a-0104	B.130	545.600250	545.690250		and	and
sw2065B-ms98-a-0104	B.130	545.690250	545.760250		they	they
sw2065B-ms98-a-0104	B.130	545.760250	545.910250		have	have
sw2065B-ms98-a-0104	B.132	545.910250	546.125125		to	to
sw2065B-ms98-a-0104	B.132	546.125125	546.532000		[silence]	[silence]
sw2065B-ms98-a-0104	B.132	546.532000	546.610250		be	be
sw2065B-ms98-a-0104	B.132	546.610250	546.850250		taught	taught
sw2065B-ms98-a-0104	B.132	546.850250	546.930250		the	the
sw2065B-ms98-a-0104	B.132	546.930250	547.782500		language	language
sw2065B-ms98-a-0104	B.132	547.782500	547.949750		and	and
sw2065B-ms98-a-0104	B.132	547.949750	548.146750		[silence]	[silence]
sw2065B-ms98-a-0105	B.132	548.146750	548.507000		[silence]	[silence]
sw2065B-ms98-a-0105	B.132	548.507000	549.066750		customs	customs
sw2065B-ms98-a-0105	B.132	549.066750	549.156750		and	and
sw2065B-ms98-a-0105	B.132	549.156750	549.316750		all	all
sw2065B-ms98-a-0105	B.132	549.316750	549.476750		those	those
sw2065B-ms98-a-0105	B.132	549.476750	549.736750		kinds	kinds
sw2065B-ms98-a-0105	B.132	549.736750	549.816750		of	of
sw2065B-ms98-a-0105	B.132	549.816750	550.126750		things	things
sw2065B-ms98-a-0105	B.132	550.126750	550.266750		and	and
sw2065B-ms98-a-0105	B.132	550.266750	550.406750		then	then
sw2065B-ms98-a-0105	B.132	550.406750	550.661250		they	they
sw2065B-ms98-a-0105	B.132	550.661250	551.203625		[silence]	[silence]
sw2065B-ms98-a-0105	B.132	551.203625	551.586750		um	um
sw2065B-ms98-a-0105	B.132	551.586750	551.666750		you	you
sw2065B-ms98-a-0105	B.132	551.666750	551.796750		know	know
sw2065B-ms98-a-0105	B.132	551.796750	552.076750		go	go
sw2065B-ms98-a-0105	B.132	552.076750	552.306750		and	and
sw2065B-ms98-a-0105	B.132	552.306750	552.716750		actually	actually
sw2065B-ms98-a-0105	B.132	552.716750	552.956750		live	live
sw2065B-ms98-a-0105	B.132	552.956750	553.066750		in	in
sw2065B-ms98-a-0105	B.132	553.066750	553.246750		that	that
sw2065B-ms98-a-0105	B.132	553.246750	553.756750		country	country
sw2065B-ms98-a-0105	B.132	553.756750	553.846750		for	for
sw2065B-ms98-a-0105	B.132	553.846750	554.041625		the	the
sw2065B-ms98-a-0105	B.132	554.041625	554.368750		the	the
sw2065B-ms98-a-0105	B.132	554.368750	554.771000		uh	uh
sw2065B-ms98-a-0105	B.132	554.771000	554.887750		[silence]	[silence]
sw2065B-ms98-a-0105	B.132	554.887750	555.116750		young	young
sw2065B-ms98-a-0105	B.132	555.116750	555.376750		men	men
sw2065B-ms98-a-0105	B.132	555.376750	555.516750		do	do
sw2065B-ms98-a-0105	B.132	555.516750	555.606750		it	it
sw2065B-ms98-a-0105	B.132	555.606750	555.746750		for	for
sw2065B-ms98-a-0105	B.132	555.746750	556.026750		two	two
sw2065B-ms98-a-0105	B.132	556.026750	556.376750		years	years
sw2065B-ms98-a-0105	B.132	556.376750	556.506750		and	and
sw2065B-ms98-a-0105	B.132	556.506750	556.566750		the	the
sw2065B-ms98-a-0105	B.132	556.566750	556.776750		young	young
sw2065B-ms98-a-0105	B.132	556.776750	556.966750		women	women
sw2065B-ms98-a-0105	B.132	556.966750	557.076750		for	for
sw2065B-ms98-a-0105	B.132	557.076750	557.486750		eighteen	eighteen
sw2065B-ms98-a-0105	B.132	557.486750	558.020125		months	months
sw2065B-ms98-a-0105	B.134	558.020125	558.090000		[silence]	[silence]
sw2065B-ms98-a-0106	B.134	558.090000	560.856000		[silence]	[silence]
sw2065B-ms98-a-0107	B.134	560.856000	561.356875		[silence]	[silence]
sw2065B-ms98-a-0107	B.134	561.356875	561.508750		[noise]	[noise]
sw2065B-ms98-a-0107	B.134	561.508750	562.108250		Right	right
sw2065B-ms98-a-0107	B.136	562.108250	562.350000		[silence]	[silence]
sw2065B-ms98-a-0108	B.136	562.350000	572.391500		[silence]	[silence]
sw2065B-ms98-a-0109	B.136	572.391500	572.928750		[silence]	[silence]
sw2065B-ms98-a-0109	B.136	572.928750	573.321375		Oh	oh
sw2065B-ms98-a-0109	B.136	573.321375	573.321375	<INS>	yeah	---
sw2065B-ms98-a-0109	B.138	573.321375	575.399625		[laughter]	[laughter]
sw2065B-ms98-a-0109	B.138	575.399625	575.471500		He	he
sw2065B-ms98-a-0109	B.138	575.471500	575.561500		had	had
sw2065B-ms98-a-0109	B.138	575.561500	575.641500		a	a
sw2065B-ms98-a-0109	B.138	575.641500	575.951500		direct	direct
sw2065B-ms98-a-0109	B.138	575.951500	576.451500		connection	connection
sw2065B-ms98-a-0109	B.138	576.451500	576.771500		somewhere	somewhere
sw2065B-ms98-a-0109	B.138	576.771500	576.979250		uh	uh
sw2065B-ms98-a-0109	B.140	576.979250	578.488500		[laughter]	[laughter]
sw2065B-ms98-a-0109	B.140	578.488500	578.897875		[silence]	[silence]
sw2065B-ms98-a-0110	B.140	578.897875	579.415375		[silence]	[silence]
sw2065B-ms98-a-0110	B.140	579.415375	579.646625		[noise]	[noise]
sw2065B-ms98-a-0110	B.140	579.646625	580.157625		Yeah	yeah
sw2065B-ms98-a-0110	B.142	580.157625	580.514125		[silence]	[silence]
sw2065B-ms98-a-0111	B.142	580.514125	581.752875		[silence]	[silence]
sw2065B-ms98-a-0112	B.142	581.752875	582.280125		[silence]	[silence]
sw2065B-ms98-a-0112	B.142	582.280125	582.702875		Yeah	yeah
sw2065B-ms98-a-0112	B.144	582.702875	582.852875	<SUB>	They	but
sw2065B-ms98-a-0112	B.144	582.852875	583.144500	<DEL>	---	see
sw2065B-ms98-a-0112	B.144	583.144500	583.298875		[silence]	[silence]
sw2065B-ms98-a-0112	B.144	583.298875	583.462875		they	they
sw2065B-ms98-a-0112	B.144	583.462875	583.662875		don't	don't
sw2065B-ms98-a-0112	B.144	583.662875	583.852875		get	get
sw2065B-ms98-a-0112	B.144	583.852875	584.172875		paid	paid
sw2065B-ms98-a-0112	B.144	584.172875	584.502875		for	for
sw2065B-ms98-a-0112	B.144	584.502875	584.582875		it	it
sw2065B-ms98-a-0112	B.144	584.582875	584.852875		and	and
sw2065B-ms98-a-0112	B.144	584.852875	585.082875		um	um
sw2065B-ms98-a-0112	B.144	585.082875	585.252875		but	but
sw2065B-ms98-a-0112	B.144	585.252875	585.412875		there	there
sw2065B-ms98-a-0112	B.144	585.412875	585.572875		is	is
sw2065B-ms98-a-0112	B.144	585.572875	586.056125		funding	funding
sw2065B-ms98-a-0112	B.144	586.056125	586.332875		that	that
sw2065B-ms98-a-0112	B.144	586.332875	586.522875	<DEL>	---	that
sw2065B-ms98-a-0112	B.144	586.522875	586.872875		comes	comes
sw2065B-ms98-a-0112	B.144	586.872875	587.052875		they're	they're
sw2065B-ms98-a-0112	B.144	587.052875	587.682875		supposedly	supposedly
sw2065B-ms98-a-0112	B.144	587.682875	587.982875		saving	saving
sw2065B-ms98-a-0112	B.144	587.982875	588.142875		up	up
sw2065B-ms98-a-0112	B.144	588.142875	588.292875		on	on
sw2065B-ms98-a-0112	B.144	588.292875	588.492875		their	their
sw2065B-ms98-a-0112	B.144	588.492875	588.682875		own	own
sw2065B-ms98-a-0112	B.144	588.682875	588.802875		and	and
sw2065B-ms98-a-0112	B.144	588.802875	588.872875		the	the
sw2065B-ms98-a-0112	B.144	588.872875	589.212875		church	church
sw2065B-ms98-a-0112	B.144	589.212875	589.472875		helps	helps
sw2065B-ms98-a-0112	B.144	589.472875	589.592875		them	them_1
sw2065B-ms98-a-0112	B.144	589.592875	589.842875		out	out
sw2065B-ms98-a-0112	B.144	589.842875	590.213750		some	some
sw2065B-ms98-a-0112	B.146	590.213750	590.497000		but	but
sw2065B-ms98-a-0112	B.146	590.497000	591.173375		[silence]	[silence]
sw2065B-ms98-a-0113	B.146	591.173375	591.253375		[silence]	[silence]
sw2065B-ms98-a-0113	B.146	591.253375	591.343375	<DEL>	---	but
sw2065B-ms98-a-0113	B.146	591.343375	591.453375		you	you
sw2065B-ms98-a-0113	B.146	591.453375	591.643375		know	know
sw2065B-ms98-a-0113	B.146	591.643375	591.914250		that	that
sw2065B-ms98-a-0113	B.146	591.914250	592.028125		[silence]	[silence]
sw2065B-ms98-a-0113	B.146	592.028125	592.193375		it	it
sw2065B-ms98-a-0113	B.146	592.193375	592.403375		is	is
sw2065B-ms98-a-0113	B.146	592.403375	593.297375		incredible	incredible
sw2065B-ms98-a-0113	B.146	593.297375	593.453875		[silence]	[silence]
sw2065B-ms98-a-0114	B.146	593.453875	593.689750		[silence]	[silence]
sw2065B-ms98-a-0114	B.146	593.689750	593.835000	<DEL>	---	y[ou]-
sw2065B-ms98-a-0114	B.146	593.835000	593.913375		you	you
sw2065B-ms98-a-0114	B.146	593.913375	594.240875		know	know
sw2065B-ms98-a-0114	B.148	594.240875	594.809500		[silence]	[silence]
sw2065B-ms98-a-0115	B.148	594.809500	594.817750		[silence]	[silence]
sw2065B-ms98-a-0115	B.148	594.817750	595.331000		[vocalized-noise]	[vocalized-noise]
sw2065B-ms98-a-0115	B.148	595.331000	595.859500		Yeah	yeah
sw2065B-ms98-a-0115	B.150	595.859500	596.142250	<SUB>	Yeah	it's
sw2065B-ms98-a-0115	B.150	596.142250	596.715250		[silence]	[silence]
sw2065B-ms98-a-0116	B.150	596.715250	597.351750		[silence]	[silence]
sw2065B-ms98-a-0116	B.150	597.351750	597.655250	<DEL>	---	very
sw2065B-ms98-a-0116	B.150	597.655250	598.241375	<DEL>	---	involved
sw2065B-ms98-a-0116	B.150	598.241375	598.921875		[silence]	[silence]
