sw2024B-ms98-a-0001	B.2	0.000000	1.003125		[silence]	[silence]
sw2024B-ms98-a-0002	B.2	1.003125	1.447875		[silence]	[silence]
sw2024B-ms98-a-0002	B.2	1.447875	1.723125		Wonderful	wonderful
sw2024B-ms98-a-0002	B.2	1.723125	1.963125		touch	touch
sw2024B-ms98-a-0002	B.2	1.963125	2.153125		tone	tone
sw2024B-ms98-a-0002	B.2	2.153125	2.583125		telephone	telephone
sw2024B-ms98-a-0002	B.2	2.583125	2.761875		there	there
sw2024B-ms98-a-0002	B.4	2.761875	3.223875		[silence]	[silence]
sw2024B-ms98-a-0003	B.4	3.223875	6.697375		[silence]	[silence]
sw2024B-ms98-a-0004	B.4	6.697375	7.031250		[silence]	[silence]
sw2024B-ms98-a-0004	B.4	7.031250	7.487375		Uh	uh
sw2024B-ms98-a-0004	B.4	7.487375	8.027375	<SUB>	haven't	having
sw2024B-ms98-a-0004	B.4	8.027375	8.693000		[silence]	[silence]
sw2024B-ms98-a-0004	B.4	8.693000	8.900125		have	have
sw2024B-ms98-a-0004	B.4	8.900125	9.053250	<DEL>	---	uh
sw2024B-ms98-a-0004	B.4	9.053250	9.256750		[silence]	[silence]
sw2024B-ms98-a-0004	B.4	9.256750	9.317375		I	i
sw2024B-ms98-a-0004	B.4	9.317375	9.467375		have	have
sw2024B-ms98-a-0004	B.4	9.467375	9.517375		a	a
sw2024B-ms98-a-0004	B.4	9.517375	9.847375		wide	wide
sw2024B-ms98-a-0004	B.4	9.847375	10.377375		variety	variety
sw2024B-ms98-a-0004	B.4	10.377375	10.707375		of	of
sw2024B-ms98-a-0004	B.4	10.707375	10.917375		of	of
sw2024B-ms98-a-0004	B.4	10.917375	11.397375		hobbies	hobbies
sw2024B-ms98-a-0004	B.4	11.397375	11.787375		therefore	therefore
sw2024B-ms98-a-0004	B.4	11.787375	12.146000		my	my
sw2024B-ms98-a-0004	B.4	12.146000	12.850375		[silence]	[silence]
sw2024B-ms98-a-0004	B.4	12.850375	13.137375		my	my
sw2024B-ms98-a-0004	B.4	13.137375	13.487375		reading	reading
sw2024B-ms98-a-0004	B.4	13.487375	13.937375		pleasures	pleasures
sw2024B-ms98-a-0004	B.4	13.937375	14.007375		are	are
sw2024B-ms98-a-0004	B.4	14.007375	14.267375		quite	quite
sw2024B-ms98-a-0004	B.4	14.267375	14.887375		wide	wide
sw2024B-ms98-a-0004	B.4	14.887375	15.317375		Um	um
sw2024B-ms98-a-0004	B.4	15.317375	15.717750		[silence]	[silence]
sw2024B-ms98-a-0005	B.4	15.717750	15.739375		[silence]	[silence]
sw2024B-ms98-a-0005	B.4	15.739375	16.093000		[noise]	[noise]
sw2024B-ms98-a-0005	B.4	16.093000	16.297750		I	i
sw2024B-ms98-a-0005	B.4	16.297750	16.447750		get	get
sw2024B-ms98-a-0005	B.4	16.447750	16.497750		a	a
sw2024B-ms98-a-0005	B.4	16.497750	16.977750		charge	charge
sw2024B-ms98-a-0005	B.4	16.977750	17.127750		out	out
sw2024B-ms98-a-0005	B.4	17.127750	17.419625		of	of
sw2024B-ms98-a-0005	B.4	17.419625	17.755125		uh	uh
sw2024B-ms98-a-0005	B.4	17.755125	18.158125		TEXAS	Texas
sw2024B-ms98-a-0005	B.4	18.158125	18.688750		HIGHWAY	highway
sw2024B-ms98-a-0005	B.6	18.688750	19.121875		[silence]	[silence]
sw2024B-ms98-a-0005	B.6	19.121875	19.357750	<DEL>	---	uh
sw2024B-ms98-a-0005	B.6	19.357750	19.767750		which	which
sw2024B-ms98-a-0005	B.6	19.767750	19.767750	<INS>	is	---
sw2024B-ms98-a-0005	B.6	19.767750	20.067750		uh	uh
sw2024B-ms98-a-0005	B.6	20.067750	20.187750	<DEL>	---	is
sw2024B-ms98-a-0005	B.6	20.187750	20.397750		very	very
sw2024B-ms98-a-0005	B.6	20.397750	21.127750		colorful	colorful
sw2024B-ms98-a-0005	B.6	21.127750	21.412250		and	and
sw2024B-ms98-a-0005	B.6	21.412250	21.886875		[silence]	[silence]
sw2024B-ms98-a-0005	B.6	21.886875	22.097750		uh	uh
sw2024B-ms98-a-0005	B.6	22.097750	22.357750		not	not
sw2024B-ms98-a-0005	B.6	22.357750	22.557750		being	being
sw2024B-ms98-a-0005	B.6	22.557750	22.607750		a	a
sw2024B-ms98-a-0005	B.6	22.607750	22.907750		native	native
sw2024B-ms98-a-0005	B.6	22.907750	23.027750		of	of
sw2024B-ms98-a-0005	B.6	23.027750	23.827750		Texas	Texas
sw2024B-ms98-a-0005	B.6	23.827750	23.907750	<DEL>	---	uh
sw2024B-ms98-a-0005	B.6	23.907750	24.067750		but	but
sw2024B-ms98-a-0005	B.6	24.067750	24.287750		being	being
sw2024B-ms98-a-0005	B.6	24.287750	24.417750		here	here
sw2024B-ms98-a-0005	B.6	24.417750	24.727750		eleven	eleven
sw2024B-ms98-a-0005	B.6	24.727750	25.057750		years	years
sw2024B-ms98-a-0005	B.6	25.057750	25.207750		have	have
sw2024B-ms98-a-0005	B.6	25.207750	25.257750		a	a
sw2024B-ms98-a-0005	B.6	25.257750	25.784375		tendency	tendency
sw2024B-ms98-a-0005	B.6	25.784375	26.171875		to	to
sw2024B-ms98-a-0005	B.6	26.171875	26.635125		[silence]	[silence]
sw2024B-ms98-a-0005	B.6	26.635125	27.071500		uh	uh
sw2024B-ms98-a-0005	B.6	27.071500	27.342750		[silence]	[silence]
sw2024B-ms98-a-0005	B.6	27.342750	27.747750		find	find
sw2024B-ms98-a-0005	B.6	27.747750	27.985625		out	out
sw2024B-ms98-a-0005	B.6	27.985625	28.196500		the	the
sw2024B-ms98-a-0005	B.6	28.196500	28.584625		uh	uh
sw2024B-ms98-a-0005	B.6	28.584625	29.079125		[silence]	[silence]
sw2024B-ms98-a-0006	B.6	29.079125	29.289125		[silence]	[silence]
sw2024B-ms98-a-0006	B.6	29.289125	29.599125		about	about
sw2024B-ms98-a-0006	B.6	29.599125	29.709125		the	the
sw2024B-ms98-a-0006	B.6	29.709125	30.049125		different	different
sw2024B-ms98-a-0006	B.6	30.049125	30.329125		areas	areas
sw2024B-ms98-a-0006	B.6	30.329125	30.539125		of	of
sw2024B-ms98-a-0006	B.6	30.539125	30.539125	<INS>	the	---
sw2024B-ms98-a-0006	B.6	30.539125	30.539125	<INS>	co-	---
sw2024B-ms98-a-0006	B.6	30.539125	31.449125		[silence]	[silence]
sw2024B-ms98-a-0006	B.6	31.449125	31.529125		of	of
sw2024B-ms98-a-0006	B.6	31.529125	31.599125		the	the
sw2024B-ms98-a-0006	B.6	31.599125	31.749125	<DEL>	---	k[ind]-
sw2024B-ms98-a-0006	B.6	31.749125	31.879125		of	of
sw2024B-ms98-a-0006	B.6	31.879125	32.019125		the	the
sw2024B-ms98-a-0006	B.6	32.019125	32.499125		[silence]	[silence]
sw2024B-ms98-a-0006	B.6	32.499125	32.839125		state	state
sw2024B-ms98-a-0006	B.6	32.839125	32.939125		by	by
sw2024B-ms98-a-0006	B.6	32.939125	33.269125		reading	reading
sw2024B-ms98-a-0006	B.6	33.269125	33.389125		it	it
sw2024B-ms98-a-0006	B.8	33.389125	33.866500		[silence]	[silence]
sw2024B-ms98-a-0007	B.8	33.866500	44.121750		[silence]	[silence]
sw2024B-ms98-a-0008	B.8	44.121750	44.615250		[silence]	[silence]
sw2024B-ms98-a-0008	B.8	44.615250	44.801750		Oh	oh
sw2024B-ms98-a-0008	B.8	44.801750	44.921750		yeah	yeah
sw2024B-ms98-a-0008	B.8	44.921750	45.111750		it's	it's
sw2024B-ms98-a-0008	B.8	45.111750	45.391750		it's	it's
sw2024B-ms98-a-0008	B.8	45.391750	45.631750		uh	uh
sw2024B-ms98-a-0008	B.8	45.631750	46.111750		absolutely	absolutely
sw2024B-ms98-a-0008	B.8	46.111750	46.491750		it's	it's
sw2024B-ms98-a-0008	B.8	46.491750	46.921750		great	great
sw2024B-ms98-a-0008	B.8	46.921750	46.981750		the	the
sw2024B-ms98-a-0008	B.8	46.981750	47.141750		way	way
sw2024B-ms98-a-0008	B.8	47.141750	47.341750		that	that
sw2024B-ms98-a-0008	B.8	47.341750	47.511750		it's	it's
sw2024B-ms98-a-0008	B.8	47.511750	47.881750		broken	broken
sw2024B-ms98-a-0008	B.8	47.881750	48.101750		out	out
sw2024B-ms98-a-0008	B.8	48.101750	48.325375		and	and
sw2024B-ms98-a-0008	B.8	48.325375	48.679375		[silence]	[silence]
sw2024B-ms98-a-0008	B.8	48.679375	48.791750		you	you
sw2024B-ms98-a-0008	B.8	48.791750	49.101750		can	can
sw2024B-ms98-a-0008	B.8	49.101750	49.355625		uh	uh
sw2024B-ms98-a-0008	B.8	49.355625	50.022250		[silence]	[silence]
sw2024B-ms98-a-0008	B.8	50.022250	50.175500		set	set
sw2024B-ms98-a-0008	B.8	50.175500	50.318625		up	up
sw2024B-ms98-a-0008	B.8	50.318625	50.439125		little	little
sw2024B-ms98-a-0008	B.8	50.439125	50.851750		trips	trips
sw2024B-ms98-a-0008	B.8	50.851750	51.131750		and	and
sw2024B-ms98-a-0008	B.8	51.131750	51.271750		day	day
sw2024B-ms98-a-0008	B.8	51.271750	51.621750		trips	trips
sw2024B-ms98-a-0008	B.8	51.621750	51.721750		and	and
sw2024B-ms98-a-0008	B.8	51.721750	51.961750		things	things
sw2024B-ms98-a-0008	B.8	51.961750	52.051750		It's	it's
sw2024B-ms98-a-0008	B.8	52.051750	52.281750		pretty	pretty
sw2024B-ms98-a-0008	B.8	52.281750	52.611750		pretty	pretty
sw2024B-ms98-a-0008	B.8	52.611750	52.812875		neat	neat
sw2024B-ms98-a-0008	B.8	52.812875	53.385125		[silence]	[silence]
sw2024B-ms98-a-0009	B.8	53.385125	53.485125		[silence]	[silence]
sw2024B-ms98-a-0009	B.8	53.485125	54.093125		Um	um
sw2024B-ms98-a-0009	B.8	54.093125	54.688250		[silence]	[silence]
sw2024B-ms98-a-0009	B.8	54.688250	54.995125		oh	oh
sw2024B-ms98-a-0009	B.8	54.995125	55.025125		I	i
sw2024B-ms98-a-0009	B.8	55.025125	55.225125		like	like
sw2024B-ms98-a-0009	B.8	55.225125	56.035625		photography	photography
sw2024B-ms98-a-0009	B.8	56.035625	56.178750		[silence]	[silence]
sw2024B-ms98-a-0009	B.8	56.178750	56.685125		um	um
sw2024B-ms98-a-0009	B.8	56.685125	57.305125		[noise]	[noise]
sw2024B-ms98-a-0009	B.8	57.305125	58.005125		magazines	magazines
sw2024B-ms98-a-0009	B.8	58.005125	58.065125		I	i
sw2024B-ms98-a-0009	B.8	58.065125	58.313125		don't	don't
sw2024B-ms98-a-0009	B.8	58.313125	58.524125		[silence]	[silence]
sw2024B-ms98-a-0009	B.8	58.524125	58.655125		take	take
sw2024B-ms98-a-0009	B.8	58.655125	58.705125		a	a
sw2024B-ms98-a-0009	B.8	58.705125	59.225125		subscription	subscription
sw2024B-ms98-a-0009	B.8	59.225125	59.285125		or	or
sw2024B-ms98-a-0009	B.8	59.285125	59.595125		anything	anything
sw2024B-ms98-a-0009	B.8	59.595125	59.775125		like	like
sw2024B-ms98-a-0009	B.8	59.775125	60.030250		that	that
sw2024B-ms98-a-0009	B.8	60.030250	60.640500		[silence]	[silence]
sw2024B-ms98-a-0009	B.8	60.640500	61.295125		Um	um
sw2024B-ms98-a-0009	B.8	61.295125	61.844875		[silence]	[silence]
sw2024B-ms98-a-0010	B.8	61.844875	62.718500		[silence]	[silence]
sw2024B-ms98-a-0010	B.8	62.718500	63.455625		things	things
sw2024B-ms98-a-0010	B.8	63.455625	63.821000		[silence]	[silence]
sw2024B-ms98-a-0010	B.8	63.821000	64.409125		oh	oh
sw2024B-ms98-a-0010	B.8	64.409125	64.853750		[silence]	[silence]
sw2024B-ms98-a-0011	B.8	64.853750	65.904000		[silence]	[silence]
sw2024B-ms98-a-0012	B.8	65.904000	66.280375		[silence]	[silence]
sw2024B-ms98-a-0012	B.8	66.280375	66.394000		being	being
sw2024B-ms98-a-0012	B.8	66.394000	66.494000		an	an
sw2024B-ms98-a-0012	B.8	66.494000	66.884000		engineer	engineer
sw2024B-ms98-a-0012	B.8	66.884000	66.974000		in	in
sw2024B-ms98-a-0012	B.8	66.974000	67.494000		facilities	facilities
sw2024B-ms98-a-0012	B.8	67.494000	67.564000		I	i
sw2024B-ms98-a-0012	B.8	67.564000	67.734000		do	do
sw2024B-ms98-a-0012	B.8	67.734000	67.864000		read	read
sw2024B-ms98-a-0012	B.8	67.864000	67.914000		a	a
sw2024B-ms98-a-0012	B.8	67.914000	68.114000		lot	lot
sw2024B-ms98-a-0012	B.8	68.114000	68.239250		of	of
sw2024B-ms98-a-0012	B.8	68.239250	68.401125		[silence]	[silence]
sw2024B-ms98-a-0012	B.8	68.401125	68.514000		a	a
sw2024B-ms98-a-0012	B.8	68.514000	68.824000		lot	lot
sw2024B-ms98-a-0012	B.8	68.824000	68.994000		of	of
sw2024B-ms98-a-0012	B.8	68.994000	69.254875		uh	uh
sw2024B-ms98-a-0012	B.8	69.254875	69.763375		[silence]	[silence]
sw2024B-ms98-a-0012	B.8	69.763375	70.154000		building	building
sw2024B-ms98-a-0012	B.8	70.154000	71.004000		magazines	magazines
sw2024B-ms98-a-0012	B.8	71.004000	71.264000		and	and
sw2024B-ms98-a-0012	B.8	71.264000	71.614000		and	and
sw2024B-ms98-a-0012	B.8	71.614000	71.824000		and	and
sw2024B-ms98-a-0012	B.8	71.824000	72.064000		plant	plant
sw2024B-ms98-a-0012	B.8	72.064000	72.414000		engineering	engineering
sw2024B-ms98-a-0012	B.8	72.414000	73.194000		magazines	magazines
sw2024B-ms98-a-0012	B.8	73.194000	73.434875		and	and
sw2024B-ms98-a-0012	B.8	73.434875	73.868000		[silence]	[silence]
sw2024B-ms98-a-0012	B.8	73.868000	73.994000		read	read
sw2024B-ms98-a-0012	B.8	73.994000	74.104000		up	up
sw2024B-ms98-a-0012	B.8	74.104000	74.214000		on	on
sw2024B-ms98-a-0012	B.8	74.214000	74.484000		different	different
sw2024B-ms98-a-0012	B.8	74.484000	74.674000		ways	ways
sw2024B-ms98-a-0012	B.8	74.674000	74.764000		to	to
sw2024B-ms98-a-0012	B.8	74.764000	74.944000		do	do
sw2024B-ms98-a-0012	B.8	74.944000	75.404000		things	things
sw2024B-ms98-a-0012	B.8	75.404000	75.524000		and	and
sw2024B-ms98-a-0012	B.8	75.524000	75.814000		energy	energy
sw2024B-ms98-a-0012	B.8	75.814000	76.274000		management	management
sw2024B-ms98-a-0012	B.8	76.274000	76.474000		type	type
sw2024B-ms98-a-0012	B.8	76.474000	76.544000		of	of
sw2024B-ms98-a-0012	B.8	76.544000	77.234000		magazines	magazines
sw2024B-ms98-a-0012	B.8	77.234000	77.465250		and	and
sw2024B-ms98-a-0012	B.10	77.465250	77.756625		[silence]	[silence]
sw2024B-ms98-a-0013	B.10	77.756625	77.976625		[silence]	[silence]
sw2024B-ms98-a-0013	B.10	77.976625	78.206625		and	and
sw2024B-ms98-a-0013	B.10	78.206625	78.494125		uh	uh
sw2024B-ms98-a-0013	B.10	78.494125	78.763000		[silence]	[silence]
sw2024B-ms98-a-0013	B.10	78.763000	78.936625		kind	kind
sw2024B-ms98-a-0013	B.10	78.936625	79.006625		of	of
sw2024B-ms98-a-0013	B.10	79.006625	79.696625		strange	strange
sw2024B-ms98-a-0013	B.10	79.696625	79.936625		because	because
sw2024B-ms98-a-0013	B.10	79.936625	80.238875	<SUB>	I	i'll
sw2024B-ms98-a-0013	B.10	80.238875	80.312500		[vocalized-noise]	[vocalized-noise]
sw2024B-ms98-a-0013	B.10	80.312500	80.456625		it's	it's
sw2024B-ms98-a-0013	B.10	80.456625	80.616625		not	not
sw2024B-ms98-a-0013	B.10	80.616625	81.094500		unusual	unusual
sw2024B-ms98-a-0013	B.10	81.094500	81.301625		to	to
sw2024B-ms98-a-0013	B.10	81.301625	81.651500		uh	uh
sw2024B-ms98-a-0013	B.10	81.651500	82.065750		[silence]	[silence]
sw2024B-ms98-a-0013	B.10	82.065750	82.346625		see	see
sw2024B-ms98-a-0013	B.10	82.346625	82.545500	<SUB>	uh	um
sw2024B-ms98-a-0013	B.10	82.545500	82.715000		[silence]	[silence]
sw2024B-ms98-a-0013	B.10	82.715000	82.826625		an	an
sw2024B-ms98-a-0013	B.10	82.826625	83.246625		engineering	engineering
sw2024B-ms98-a-0013	B.10	83.246625	83.626625		manual	manual
sw2024B-ms98-a-0013	B.10	83.626625	83.686625		or	or
sw2024B-ms98-a-0013	B.10	83.686625	83.986625		something	something
sw2024B-ms98-a-0013	B.10	83.986625	84.186625		laying	laying
sw2024B-ms98-a-0013	B.10	84.186625	84.396625		around	around
sw2024B-ms98-a-0013	B.10	84.396625	84.466625		the	the
sw2024B-ms98-a-0013	B.10	84.466625	84.976625		house	house
sw2024B-ms98-a-0013	B.10	84.976625	85.126625		and	and
sw2024B-ms98-a-0013	B.10	85.126625	85.226625		then	then
sw2024B-ms98-a-0013	B.10	85.226625	85.336625		I'll	i'll
sw2024B-ms98-a-0013	B.10	85.336625	85.516625		sit	sit
sw2024B-ms98-a-0013	B.10	85.516625	85.686625		up	up
sw2024B-ms98-a-0013	B.10	85.686625	85.786625		and	and
sw2024B-ms98-a-0013	B.10	85.786625	86.056625		read	read
sw2024B-ms98-a-0013	B.10	86.056625	86.216625		just	just
sw2024B-ms98-a-0013	B.10	86.216625	86.334375		to	to
sw2024B-ms98-a-0013	B.10	86.334375	86.869250		refresh	refresh
sw2024B-ms98-a-0013	B.10	86.869250	86.966250		uh	uh
sw2024B-ms98-a-0013	B.10	86.966250	87.614125		[silence]	[silence]
sw2024B-ms98-a-0013	B.10	87.614125	87.726625		you	you
sw2024B-ms98-a-0013	B.10	87.726625	87.826625		know	know
sw2024B-ms98-a-0013	B.10	87.826625	87.906625		to	to
sw2024B-ms98-a-0013	B.10	87.906625	88.166625		keep	keep
sw2024B-ms98-a-0013	B.10	88.166625	88.516625		active	active
sw2024B-ms98-a-0013	B.10	88.516625	88.676625		on	on
sw2024B-ms98-a-0013	B.10	88.676625	88.926625		it	it
sw2024B-ms98-a-0013	B.10	88.926625	89.146625		but	but
sw2024B-ms98-a-0013	B.10	89.146625	89.364750		uh	uh
sw2024B-ms98-a-0013	B.12	89.364750	89.779125		[silence]	[silence]
sw2024B-ms98-a-0013	B.12	89.779125	89.836625		[noise]	[noise]
sw2024B-ms98-a-0013	B.12	89.836625	89.906625		How	how
sw2024B-ms98-a-0013	B.12	89.906625	89.996625		about	about_1
sw2024B-ms98-a-0013	B.12	89.996625	90.391625		yourself	yourself
sw2024B-ms98-a-0013	B.14	90.391625	90.876750		[silence]	[silence]
sw2024B-ms98-a-0014	B.14	90.876750	94.239250		[silence]	[silence]
sw2024B-ms98-a-0015	B.14	94.239250	94.729250		[silence]	[silence]
sw2024B-ms98-a-0015	B.14	94.729250	95.139125	<DEL>	---	um-hum
sw2024B-ms98-a-0015	B.14	95.139125	95.624625		[silence]	[silence]
sw2024B-ms98-a-0016	B.14	95.624625	102.693000		[silence]	[silence]
sw2024B-ms98-a-0017	B.14	102.693000	103.118625		[silence]	[silence]
sw2024B-ms98-a-0017	B.14	103.118625	103.193000		[noise]	[noise]
sw2024B-ms98-a-0017	B.14	103.193000	103.343000		Oh	oh
sw2024B-ms98-a-0017	B.14	103.343000	103.503000		that's	that's
sw2024B-ms98-a-0017	B.14	103.503000	103.827750		great	great
sw2024B-ms98-a-0017	B.16	103.827750	104.300125		[silence]	[silence]
sw2024B-ms98-a-0018	B.16	104.300125	122.275500		[silence]	[silence]
sw2024B-ms98-a-0019	B.16	122.275500	122.775500		[silence]	[silence]
sw2024B-ms98-a-0019	B.16	122.775500	123.125500	<SUB>	Uh-huh	um-hum
sw2024B-ms98-a-0019	B.18	123.125500	123.610250		[silence]	[silence]
sw2024B-ms98-a-0020	B.18	123.610250	125.497750		[silence]	[silence]
sw2024B-ms98-a-0021	B.18	125.497750	125.977750		[silence]	[silence]
sw2024B-ms98-a-0021	B.18	125.977750	126.077750		I	i
sw2024B-ms98-a-0021	B.18	126.077750	126.227750		bet	bet
sw2024B-ms98-a-0021	B.18	126.227750	126.357750		that	that
sw2024B-ms98-a-0021	B.18	126.357750	126.567750		would	would
sw2024B-ms98-a-0021	B.18	126.567750	126.897750		be	be
sw2024B-ms98-a-0021	B.18	126.897750	127.467750		rather	rather
sw2024B-ms98-a-0021	B.18	127.467750	128.067750		interesting	interesting
sw2024B-ms98-a-0021	B.18	128.067750	128.347750		Uh	uh
sw2024B-ms98-a-0021	B.18	128.347750	128.708500		[silence]	[silence]
sw2024B-ms98-a-0022	B.18	128.708500	130.044375		[silence]	[silence]
sw2024B-ms98-a-0023	B.18	130.044375	130.514375		[silence]	[silence]
sw2024B-ms98-a-0023	B.18	130.514375	130.814375		that's	that's
sw2024B-ms98-a-0023	B.18	130.814375	131.024625		uh	uh
sw2024B-ms98-a-0023	B.18	131.024625	131.205375		[silence]	[silence]
sw2024B-ms98-a-0023	B.18	131.205375	132.014375	<CONT>	self	self-improvement
sw2024B-ms98-a-0023	B.18	132.014375	132.014375	<CONT>	improvement	+++
sw2024B-ms98-a-0023	B.18	132.014375	132.164375		that's	that's
sw2024B-ms98-a-0023	B.18	132.164375	132.374375		that's	that's
sw2024B-ms98-a-0023	B.18	132.374375	132.714375	<SUB>	alwa-	alw[ays]-
sw2024B-ms98-a-0023	B.18	132.714375	132.899750		well	well
sw2024B-ms98-a-0023	B.18	132.899750	133.054125		[silence]	[silence]
sw2024B-ms98-a-0023	B.18	133.054125	133.362250		that's	that's
sw2024B-ms98-a-0023	B.18	133.362250	133.516625		[silence]	[silence]
sw2024B-ms98-a-0023	B.18	133.516625	133.784375	<DEL>	---	that's
sw2024B-ms98-a-0023	B.18	133.784375	133.964375		kind	kind
sw2024B-ms98-a-0023	B.18	133.964375	134.044375		of	of
sw2024B-ms98-a-0023	B.18	134.044375	134.114375		a	a
sw2024B-ms98-a-0023	B.18	134.114375	134.474375		hobby	hobby
sw2024B-ms98-a-0023	B.18	134.474375	134.624375		but	but
sw2024B-ms98-a-0023	B.18	134.624375	134.684375		it	it
sw2024B-ms98-a-0023	B.18	134.684375	134.794375		is	is
sw2024B-ms98-a-0023	B.18	134.794375	135.540500	<CONT>	self	self-improvement
sw2024B-ms98-a-0023	B.18	135.540500	135.540500	<CONT>	improvement	+++
sw2024B-ms98-a-0023	B.18	135.540500	135.736375		[silence]	[silence]
sw2024B-ms98-a-0023	B.18	135.736375	135.824375	<DEL>	---	uh
sw2024B-ms98-a-0023	B.18	135.824375	135.994375		from	from
sw2024B-ms98-a-0023	B.18	135.994375	136.054375		the	the
sw2024B-ms98-a-0023	B.18	136.054375	136.574375		standpoint	standpoint
sw2024B-ms98-a-0023	B.18	136.574375	136.684375		of	of
sw2024B-ms98-a-0023	B.18	136.684375	136.974375		probably	probably
sw2024B-ms98-a-0023	B.18	136.974375	137.718875		relaxing	relaxing
sw2024B-ms98-a-0023	B.18	137.718875	138.575500		[silence]	[silence]
sw2024B-ms98-a-0023	B.18	138.575500	138.980875	<SUB>	uh	um
sw2024B-ms98-a-0023	B.20	138.980875	139.467750		[silence]	[silence]
sw2024B-ms98-a-0024	B.20	139.467750	144.386000		[silence]	[silence]
sw2024B-ms98-a-0025	B.20	144.386000	144.594750		[silence]	[silence]
sw2024B-ms98-a-0025	B.20	144.594750	144.891875		[noise]	[noise]
sw2024B-ms98-a-0025	B.20	144.891875	145.371875		Um	um
sw2024B-ms98-a-0025	B.20	145.371875	145.986000		[noise]	[noise]
sw2024B-ms98-a-0025	B.20	145.986000	146.098000		[silence]	[silence]
sw2024B-ms98-a-0026	B.20	146.098000	146.801875		[silence]	[silence]
sw2024B-ms98-a-0026	B.20	146.801875	147.008000		well	well
sw2024B-ms98-a-0026	B.20	147.008000	147.049375		I	i
sw2024B-ms98-a-0026	B.20	147.049375	147.207625		hate	hate
sw2024B-ms98-a-0026	B.20	147.207625	147.372750		to	to
sw2024B-ms98-a-0026	B.20	147.372750	147.825250		[silence]	[silence]
sw2024B-ms98-a-0026	B.20	147.825250	148.118000		yes	yes
sw2024B-ms98-a-0026	B.20	148.118000	148.238500		I	i
sw2024B-ms98-a-0026	B.20	148.238500	148.438750		do	do
sw2024B-ms98-a-0026	B.22	148.438750	148.587875		[silence]	[silence]
sw2024B-ms98-a-0027	B.22	148.587875	148.602250		[silence]	[silence]
sw2024B-ms98-a-0027	B.22	148.602250	148.903625		[laughter]	[laughter]
sw2024B-ms98-a-0027	B.22	148.903625	148.920500		[silence]	[silence]
sw2024B-ms98-a-0028	B.22	148.920500	149.265000		[silence]	[silence]
sw2024B-ms98-a-0028	B.22	149.265000	149.460500		We	we
sw2024B-ms98-a-0028	B.22	149.460500	149.690500	<SUB>	uh	um
sw2024B-ms98-a-0028	B.22	149.690500	149.990500		[silence]	[silence]
sw2024B-ms98-a-0028	B.22	149.990500	150.110500		we	we
sw2024B-ms98-a-0028	B.22	150.110500	150.240500		have	have
sw2024B-ms98-a-0028	B.22	150.240500	150.370500		these	these
sw2024B-ms98-a-0028	B.22	150.370500	150.780500		classes	classes
sw2024B-ms98-a-0028	B.22	150.780500	150.930500		we	we
sw2024B-ms98-a-0028	B.22	150.930500	151.460500		attend	attend
sw2024B-ms98-a-0028	B.22	151.460500	151.733875		uh	uh
sw2024B-ms98-a-0028	B.22	151.733875	152.287625		[silence]	[silence]
sw2024B-ms98-a-0028	B.22	152.287625	152.710500		management	management
sw2024B-ms98-a-0028	B.22	152.710500	153.240500		classes	classes
sw2024B-ms98-a-0028	B.22	153.240500	153.540500	<SUB>	and	then
sw2024B-ms98-a-0028	B.22	153.540500	153.650500		and	and
sw2024B-ms98-a-0028	B.22	153.650500	153.780500		they	they
sw2024B-ms98-a-0028	B.22	153.780500	154.020500		give	give
sw2024B-ms98-a-0028	B.22	154.020500	154.160500		you	you
sw2024B-ms98-a-0028	B.22	154.160500	154.640500		books	books
sw2024B-ms98-a-0028	B.22	154.640500	155.033000		and	and
sw2024B-ms98-a-0028	B.22	155.033000	155.797500		[silence]	[silence]
sw2024B-ms98-a-0028	B.22	155.797500	155.950500		and	and
sw2024B-ms98-a-0028	B.22	155.950500	156.010500		the	the
sw2024B-ms98-a-0028	B.22	156.010500	156.409000		last	last
sw2024B-ms98-a-0028	B.22	156.409000	156.706500		book	book
sw2024B-ms98-a-0028	B.22	156.706500	157.160500		uh	uh
sw2024B-ms98-a-0028	B.22	157.160500	157.350500		matter	matter
sw2024B-ms98-a-0028	B.22	157.350500	157.420500		of	of
sw2024B-ms98-a-0028	B.22	157.420500	157.720500		fact	fact
sw2024B-ms98-a-0028	B.22	157.720500	157.760500		I	i
sw2024B-ms98-a-0028	B.22	157.760500	158.260500		read	read
sw2024B-ms98-a-0028	B.22	158.260500	158.700500		was	was
sw2024B-ms98-a-0028	B.22	158.700500	159.291875		[silence]	[silence]
sw2024B-ms98-a-0029	B.22	159.291875	159.313875		[silence]	[silence]
sw2024B-ms98-a-0029	B.22	159.313875	159.835375		[noise]	[noise]
sw2024B-ms98-a-0029	B.22	159.835375	159.971875		AT	At
sw2024B-ms98-a-0029	B.22	159.971875	160.471875		AMERICA'S	America's
sw2024B-ms98-a-0029	B.22	160.471875	161.005875		SERVICE	Service
sw2024B-ms98-a-0029	B.22	161.005875	161.341125		[silence]	[silence]
sw2024B-ms98-a-0029	B.22	161.341125	161.599250		by	by
sw2024B-ms98-a-0029	B.22	161.599250	162.115625		Carl	Carl
sw2024B-ms98-a-0029	B.22	162.115625	162.375500		[silence]	[silence]
sw2024B-ms98-a-0029	B.22	162.375500	163.050250	<SUB>	Albrecht	Albridge
sw2024B-ms98-a-0029	B.22	163.050250	163.577625		[silence]	[silence]
sw2024B-ms98-a-0029	B.22	163.577625	163.691875		It	it
sw2024B-ms98-a-0029	B.22	163.691875	164.001875		talks	talks
sw2024B-ms98-a-0029	B.22	164.001875	164.400750		about	about
sw2024B-ms98-a-0029	B.22	164.400750	164.574000		[silence]	[silence]
sw2024B-ms98-a-0029	B.22	164.574000	165.141875	<SUB>	uh	um
sw2024B-ms98-a-0029	B.22	165.141875	165.571875		[silence]	[silence]
sw2024B-ms98-a-0029	B.22	165.571875	165.731875		who	who
sw2024B-ms98-a-0029	B.22	165.731875	165.811875		the	the
sw2024B-ms98-a-0029	B.22	165.811875	166.461875		customer	customer
sw2024B-ms98-a-0029	B.22	166.461875	166.861875		is	is
sw2024B-ms98-a-0029	B.22	166.861875	167.031875		and	and
sw2024B-ms98-a-0029	B.22	167.031875	167.231875		being	being
sw2024B-ms98-a-0029	B.22	167.231875	167.731875		customer	customer
sw2024B-ms98-a-0029	B.22	167.731875	168.301500		oriented	oriented
sw2024B-ms98-a-0029	B.22	168.301500	168.776125		[silence]	[silence]
sw2024B-ms98-a-0029	B.22	168.776125	169.021875		uh	uh
sw2024B-ms98-a-0029	B.22	169.021875	169.428875		which	which
sw2024B-ms98-a-0029	B.22	169.428875	169.862125		[silence]	[silence]
sw2024B-ms98-a-0029	B.22	169.862125	170.291875		falls	falls
sw2024B-ms98-a-0029	B.22	170.291875	170.381875		in	in
sw2024B-ms98-a-0029	B.22	170.381875	170.711875		line	line
sw2024B-ms98-a-0029	B.22	170.711875	170.951875		with	with
sw2024B-ms98-a-0029	B.22	170.951875	171.011875		the	the
sw2024B-ms98-a-0029	B.22	171.011875	171.211875	<CONT>	T	TI
sw2024B-ms98-a-0029	B.22	171.211875	171.211875	<CONT>	I	+++
sw2024B-ms98-a-0029	B.22	171.211875	171.651875		culture	culture
sw2024B-ms98-a-0029	B.22	171.651875	171.841875		here	here
sw2024B-ms98-a-0029	B.22	171.841875	171.931875		at	at
sw2024B-ms98-a-0029	B.22	171.931875	172.211875		Texas	Texas
sw2024B-ms98-a-0029	B.22	172.211875	172.710750		Instruments	Instruments
sw2024B-ms98-a-0029	B.24	172.710750	173.051875		[silence]	[silence]
sw2024B-ms98-a-0030	B.24	173.051875	173.371875		[silence]	[silence]
sw2024B-ms98-a-0030	B.24	173.371875	173.887625	<SUB>	Uh	um
sw2024B-ms98-a-0030	B.24	173.887625	174.161125		[silence]	[silence]
sw2024B-ms98-a-0030	B.24	174.161125	174.371875		one	one
sw2024B-ms98-a-0030	B.24	174.371875	174.431875		of	of
sw2024B-ms98-a-0030	B.24	174.431875	174.541875		it's	it's
sw2024B-ms98-a-0030	B.24	174.541875	174.751875		great	great
sw2024B-ms98-a-0030	B.24	174.751875	175.211875		slogans	slogans
sw2024B-ms98-a-0030	B.24	175.211875	175.451875		is	is
sw2024B-ms98-a-0030	B.24	175.451875	175.631875		if	if
sw2024B-ms98-a-0030	B.24	175.631875	175.791875		you're	you're
sw2024B-ms98-a-0030	B.24	175.791875	175.981875		not	not
sw2024B-ms98-a-0030	B.24	175.981875	176.271875		serving	serving
sw2024B-ms98-a-0030	B.24	176.271875	176.331875		the	the
sw2024B-ms98-a-0030	B.24	176.331875	176.962750		customer	customer
sw2024B-ms98-a-0030	B.24	176.962750	177.444875		[silence]	[silence]
sw2024B-ms98-a-0030	B.24	177.444875	177.561875		you	you
sw2024B-ms98-a-0030	B.24	177.561875	177.801875		better	better
sw2024B-ms98-a-0030	B.24	177.801875	177.941875		be	be
sw2024B-ms98-a-0030	B.24	177.941875	178.311875		serving	serving
sw2024B-ms98-a-0030	B.24	178.311875	178.691875		someone	someone
sw2024B-ms98-a-0030	B.24	178.691875	178.841875		who	who
sw2024B-ms98-a-0030	B.24	178.841875	179.227500		is	is
sw2024B-ms98-a-0030	B.26	179.227500	179.741625		[silence]	[silence]
sw2024B-ms98-a-0031	B.26	179.741625	179.977750		[silence]	[silence]
sw2024B-ms98-a-0031	B.26	179.977750	180.271625		[noise]	[noise]
sw2024B-ms98-a-0031	B.26	180.271625	180.571625		Uh	uh
sw2024B-ms98-a-0031	B.26	180.571625	180.761625		so	so
sw2024B-ms98-a-0031	B.26	180.761625	181.101625		that's	that's
sw2024B-ms98-a-0031	B.26	181.101625	181.351625		all	all
sw2024B-ms98-a-0031	B.26	181.351625	181.421625		in	in
sw2024B-ms98-a-0031	B.26	181.421625	181.721625		self	self
sw2024B-ms98-a-0031	B.26	181.721625	182.191625		improvement	improvement
sw2024B-ms98-a-0031	B.26	182.191625	182.281625		to	to
sw2024B-ms98-a-0031	B.26	182.281625	182.461625		stay	stay
sw2024B-ms98-a-0031	B.26	182.461625	182.911625		focused	focused
sw2024B-ms98-a-0031	B.26	182.911625	183.041625		on	on
sw2024B-ms98-a-0031	B.26	183.041625	183.121625		who	who
sw2024B-ms98-a-0031	B.26	183.121625	183.191625		the	the
sw2024B-ms98-a-0031	B.26	183.191625	183.711625		customer	customer
sw2024B-ms98-a-0031	B.26	183.711625	183.975625		is	is
sw2024B-ms98-a-0031	B.26	183.975625	184.423875		[silence]	[silence]
sw2024B-ms98-a-0031	B.26	184.423875	184.541625		and	and
sw2024B-ms98-a-0031	B.26	184.541625	184.661625		as	as
sw2024B-ms98-a-0031	B.26	184.661625	184.741625		you	you
sw2024B-ms98-a-0031	B.26	184.741625	185.051625		probably	probably
sw2024B-ms98-a-0031	B.26	185.051625	185.261625		well	well
sw2024B-ms98-a-0031	B.26	185.261625	185.599875		know	know
sw2024B-ms98-a-0031	B.26	185.599875	186.168625		[silence]	[silence]
sw2024B-ms98-a-0031	B.26	186.168625	186.511625		all	all
sw2024B-ms98-a-0031	B.26	186.511625	186.651625		of	of
sw2024B-ms98-a-0031	B.26	186.651625	186.970750		us	us
sw2024B-ms98-a-0031	B.26	186.970750	187.117625		[silence]	[silence]
sw2024B-ms98-a-0031	B.26	187.117625	187.301625		are	are
sw2024B-ms98-a-0031	B.26	187.301625	187.461625		our	our
sw2024B-ms98-a-0031	B.26	187.461625	187.631625		own	own
sw2024B-ms98-a-0031	B.26	187.631625	188.401625		customer	customer
sw2024B-ms98-a-0031	B.26	188.401625	188.571625		Your	your
sw2024B-ms98-a-0031	B.26	188.571625	188.691625		my	my
sw2024B-ms98-a-0031	B.26	188.691625	189.101625		customer	customer
sw2024B-ms98-a-0031	B.26	189.101625	189.231625		I'm	i'm
sw2024B-ms98-a-0031	B.26	189.231625	189.331625		your	your
sw2024B-ms98-a-0031	B.26	189.331625	189.824250		customer	customer
sw2024B-ms98-a-0031	B.26	189.824250	189.907125		sort	sort
sw2024B-ms98-a-0031	B.26	189.907125	190.038875		of	of
sw2024B-ms98-a-0031	B.26	190.038875	190.239875		thing	thing
sw2024B-ms98-a-0031	B.28	190.239875	190.774750		[silence]	[silence]
sw2024B-ms98-a-0031	B.28	190.774750	191.221625		Um	um
sw2024B-ms98-a-0031	B.28	191.221625	191.547750		[silence]	[silence]
sw2024B-ms98-a-0032	B.28	191.547750	191.857750		[silence]	[silence]
sw2024B-ms98-a-0032	B.28	191.857750	192.097750		every	every
sw2024B-ms98-a-0032	B.28	192.097750	192.317750		now	now
sw2024B-ms98-a-0032	B.28	192.317750	192.427750		and	and
sw2024B-ms98-a-0032	B.28	192.427750	192.537750		then	then
sw2024B-ms98-a-0032	B.28	192.537750	192.673500		I'm	i'm
sw2024B-ms98-a-0032	B.28	192.673500	193.170625		loaned	loaned
sw2024B-ms98-a-0032	B.28	193.170625	193.277750	<SUB>	a	the
sw2024B-ms98-a-0032	B.28	193.277750	193.652000		tape	tape
sw2024B-ms98-a-0032	B.28	193.652000	194.269625		[silence]	[silence]
sw2024B-ms98-a-0032	B.28	194.269625	194.487750		I	i
sw2024B-ms98-a-0032	B.28	194.487750	194.697750		can	can
sw2024B-ms98-a-0032	B.28	194.697750	194.997750		stick	stick
sw2024B-ms98-a-0032	B.28	194.997750	195.097750		in	in
sw2024B-ms98-a-0032	B.28	195.097750	195.327375		the	the
sw2024B-ms98-a-0032	B.28	195.327375	195.327375	<INS>	uh	---
sw2024B-ms98-a-0032	B.28	195.327375	195.866000		[silence]	[silence]
sw2024B-ms98-a-0032	B.28	195.866000	195.947750		in	in
sw2024B-ms98-a-0032	B.28	195.947750	196.007750		the	the
sw2024B-ms98-a-0032	B.28	196.007750	196.357750		car	car
sw2024B-ms98-a-0032	B.28	196.357750	196.777750		cassette	cassette
sw2024B-ms98-a-0032	B.28	196.777750	196.777750	<INS>	set	---
sw2024B-ms98-a-0032	B.28	196.777750	196.867750		on	on
sw2024B-ms98-a-0032	B.28	196.867750	196.927750		the	the
sw2024B-ms98-a-0032	B.28	196.927750	197.117750		way	way
sw2024B-ms98-a-0032	B.28	197.117750	197.497750		home	home
sw2024B-ms98-a-0032	B.28	197.497750	197.607750		to	to
sw2024B-ms98-a-0032	B.28	197.607750	197.807750		make	make
sw2024B-ms98-a-0032	B.28	197.807750	197.867750		the	the
sw2024B-ms98-a-0032	B.28	197.867750	198.217750		drive	drive
sw2024B-ms98-a-0032	B.28	198.217750	198.407750		more	more
sw2024B-ms98-a-0032	B.28	198.407750	199.008750		enjoyable	enjoyable
sw2024B-ms98-a-0032	B.28	199.008750	199.475750		[silence]	[silence]
sw2024B-ms98-a-0032	B.28	199.475750	199.797750		talking	talking
sw2024B-ms98-a-0032	B.28	199.797750	200.129250		about	about
sw2024B-ms98-a-0032	B.28	200.129250	200.295000		[silence]	[silence]
sw2024B-ms98-a-0032	B.28	200.295000	200.837750		uh	uh
sw2024B-ms98-a-0032	B.28	200.837750	201.317750		[silence]	[silence]
sw2024B-ms98-a-0033	B.28	201.317750	201.746750		[silence]	[silence]
sw2024B-ms98-a-0033	B.28	201.746750	201.977750		better	better
sw2024B-ms98-a-0033	B.28	201.977750	202.357750		outlooks	outlooks
sw2024B-ms98-a-0033	B.28	202.357750	202.507750		on	on
sw2024B-ms98-a-0033	B.28	202.507750	203.047750		things	things
sw2024B-ms98-a-0033	B.28	203.047750	203.557750		and	and
sw2024B-ms98-a-0033	B.28	203.557750	203.617750		the	the
sw2024B-ms98-a-0033	B.28	203.617750	204.217750		philosophy	philosophy
sw2024B-ms98-a-0033	B.28	204.217750	204.668625		of	of
sw2024B-ms98-a-0033	B.28	204.668625	204.969500		of	of
sw2024B-ms98-a-0033	B.28	204.969500	205.376250		[silence]	[silence]
sw2024B-ms98-a-0033	B.28	205.376250	205.547750		Pat	Pat
sw2024B-ms98-a-0033	B.28	205.547750	205.997750		Hagerty	Haggerty
sw2024B-ms98-a-0033	B.28	205.997750	206.107750		and	and
sw2024B-ms98-a-0033	B.28	206.107750	206.237750		these	these
sw2024B-ms98-a-0033	B.28	206.237750	206.437750		kind	kind
sw2024B-ms98-a-0033	B.28	206.437750	206.718625		of	of
sw2024B-ms98-a-0033	B.28	206.718625	207.219625		[silence]	[silence]
sw2024B-ms98-a-0033	B.28	207.219625	207.517750		uh	uh
sw2024B-ms98-a-0033	B.28	207.517750	207.834250		[silence]	[silence]
sw2024B-ms98-a-0033	B.28	207.834250	208.197750		mind	mind
sw2024B-ms98-a-0033	B.28	208.197750	208.897750		stimulating	stimulating
sw2024B-ms98-a-0033	B.28	208.897750	209.347750		philosophy	philosophy
sw2024B-ms98-a-0033	B.28	209.347750	209.587250		type	type
sw2024B-ms98-a-0033	B.30	209.587250	209.927125		[silence]	[silence]
sw2024B-ms98-a-0034	B.30	209.927125	210.477125		[silence]	[silence]
sw2024B-ms98-a-0034	B.30	210.477125	210.767125	<DEL>	---	actually
sw2024B-ms98-a-0034	B.30	210.767125	210.907125		Which	which
sw2024B-ms98-a-0034	B.30	210.907125	211.247125		all	all
sw2024B-ms98-a-0034	B.30	211.247125	211.307125		you	you
sw2024B-ms98-a-0034	B.30	211.307125	211.407125		know	know
sw2024B-ms98-a-0034	B.30	211.407125	211.787125		betters	betters
sw2024B-ms98-a-0034	B.30	211.787125	212.154125		yourself	yourself
sw2024B-ms98-a-0034	B.32	212.154125	212.556375		[silence]	[silence]
sw2024B-ms98-a-0035	B.32	212.556375	219.649250		[silence]	[silence]
sw2024B-ms98-a-0036	B.32	219.649250	220.151000		[silence]	[silence]
sw2024B-ms98-a-0036	B.32	220.151000	220.501000	<SUB>	Uh-huh	um-hum
sw2024B-ms98-a-0036	B.34	220.501000	220.990250		[silence]	[silence]
sw2024B-ms98-a-0037	B.34	220.990250	223.442750		[silence]	[silence]
sw2024B-ms98-a-0038	B.34	223.442750	223.928375		[silence]	[silence]
sw2024B-ms98-a-0038	B.34	223.928375	224.949625		[laughter]	[laughter]
sw2024B-ms98-a-0038	B.34	224.949625	225.142750		Like	like
sw2024B-ms98-a-0038	B.34	225.142750	225.292750		what	what
sw2024B-ms98-a-0038	B.34	225.292750	225.402750		for	for
sw2024B-ms98-a-0038	B.34	225.402750	225.799125		example	example
sw2024B-ms98-a-0038	B.36	225.799125	226.155625		[silence]	[silence]
sw2024B-ms98-a-0039	B.36	226.155625	247.510125		[silence]	[silence]
sw2024B-ms98-a-0040	B.36	247.510125	247.990125		[silence]	[silence]
sw2024B-ms98-a-0040	B.36	247.990125	248.283000	<DEL>	---	um-hum
sw2024B-ms98-a-0040	B.36	248.283000	248.769750		[silence]	[silence]
sw2024B-ms98-a-0041	B.36	248.769750	257.103875		[silence]	[silence]
sw2024B-ms98-a-0042	B.36	257.103875	257.593875		[silence]	[silence]
sw2024B-ms98-a-0042	B.36	257.593875	258.055125		Sure	sure
sw2024B-ms98-a-0042	B.38	258.055125	258.537750		[silence]	[silence]
sw2024B-ms98-a-0043	B.38	258.537750	260.199250		[silence]	[silence]
sw2024B-ms98-a-0044	B.38	260.199250	260.659250		[silence]	[silence]
sw2024B-ms98-a-0044	B.38	260.659250	260.921250		Sure	sure
sw2024B-ms98-a-0044	B.38	260.921250	261.213500		[silence]	[silence]
sw2024B-ms98-a-0044	B.38	261.213500	261.349250		How	how
sw2024B-ms98-a-0044	B.38	261.349250	261.569250		about	about
sw2024B-ms98-a-0044	B.38	261.569250	261.939250		items	items
sw2024B-ms98-a-0044	B.38	261.939250	262.309250		like	like
sw2024B-ms98-a-0044	B.38	262.309250	262.699250		um	um
sw2024B-ms98-a-0044	B.38	262.699250	263.059250		[silence]	[silence]
sw2024B-ms98-a-0044	B.38	263.059250	263.139250		THE	The
sw2024B-ms98-a-0044	B.38	263.139250	263.379250		ONE	One
sw2024B-ms98-a-0044	B.38	263.379250	263.549250		MINUTE	Minute
sw2024B-ms98-a-0044	B.38	263.549250	264.035875		MANAGER	Manager
sw2024B-ms98-a-0044	B.38	264.035875	264.194125		[silence]	[silence]
sw2024B-ms98-a-0044	B.38	264.194125	264.329250		which	which
sw2024B-ms98-a-0044	B.38	264.329250	264.469250		used	used
sw2024B-ms98-a-0044	B.38	264.469250	264.549250		to	to
sw2024B-ms98-a-0044	B.38	264.549250	264.639250		be	be
sw2024B-ms98-a-0044	B.38	264.639250	264.709250		a	a
sw2024B-ms98-a-0044	B.38	264.709250	264.929250		big	big
sw2024B-ms98-a-0044	B.38	264.929250	265.319250		[silence]	[silence]
sw2024B-ms98-a-0044	B.38	265.319250	265.551125		okay	okay
sw2024B-ms98-a-0044	B.40	265.551125	265.833500		[silence]	[silence]
sw2024B-ms98-a-0044	B.40	265.833500	265.949250		So	so
sw2024B-ms98-a-0044	B.40	265.949250	266.189250		those	those
sw2024B-ms98-a-0044	B.40	266.189250	266.259250		are	are
sw2024B-ms98-a-0044	B.40	266.259250	266.529250		self	self
sw2024B-ms98-a-0044	B.40	266.529250	267.279875		improvements	improvements
sw2024B-ms98-a-0044	B.42	267.279875	267.737625		[silence]	[silence]
sw2024B-ms98-a-0044	B.42	267.737625	268.242875		Um	um
sw2024B-ms98-a-0044	B.42	268.242875	268.809875		[silence]	[silence]
sw2024B-ms98-a-0045	B.42	268.809875	269.439875		[silence]	[silence]
sw2024B-ms98-a-0045	B.42	269.439875	269.627125		our	our
sw2024B-ms98-a-0045	B.42	269.627125	270.420375		supervisor	supervisor
sw2024B-ms98-a-0045	B.42	270.420375	270.835875		uh	uh
sw2024B-ms98-a-0045	B.42	270.835875	271.016750		[silence]	[silence]
sw2024B-ms98-a-0045	B.42	271.016750	271.529875	<SUB>	subtly	suddenly
sw2024B-ms98-a-0045	B.42	271.529875	271.809875		bought	bought
sw2024B-ms98-a-0045	B.42	271.809875	272.009875		all	all
sw2024B-ms98-a-0045	B.42	272.009875	272.079875		of	of
sw2024B-ms98-a-0045	B.42	272.079875	272.239875		us	us
sw2024B-ms98-a-0045	B.42	272.239875	272.299875		a	a
sw2024B-ms98-a-0045	B.42	272.299875	272.559875		book	book
sw2024B-ms98-a-0045	B.42	272.559875	272.994750		called	called
sw2024B-ms98-a-0045	B.42	272.994750	273.360125		[silence]	[silence]
sw2024B-ms98-a-0045	B.42	273.360125	273.489875		WHAT	What
sw2024B-ms98-a-0045	B.42	273.489875	273.819875		EVERY	Every
sw2024B-ms98-a-0045	B.42	273.819875	274.449875		SUPERVISOR	Supervisor
sw2024B-ms98-a-0045	B.42	274.449875	274.679875		SHOULD	Should
sw2024B-ms98-a-0045	B.42	274.679875	274.989875		KNOW	Know
sw2024B-ms98-a-0045	B.44	274.989875	275.370125		[silence]	[silence]
sw2024B-ms98-a-0046	B.44	275.370125	275.755125		[silence]	[silence]
sw2024B-ms98-a-0046	B.44	275.755125	275.940125		By	by
sw2024B-ms98-a-0046	B.44	275.940125	275.990125		a	a
sw2024B-ms98-a-0046	B.44	275.990125	276.500125	<SUB>	man	main
sw2024B-ms98-a-0046	B.44	276.500125	276.680125		man	man
sw2024B-ms98-a-0046	B.44	276.680125	276.926250		named	named
sw2024B-ms98-a-0046	B.44	276.926250	277.099500		[silence]	[silence]
sw2024B-ms98-a-0046	B.44	277.099500	277.270125	<DEL>	---	uh
sw2024B-ms98-a-0046	B.44	277.270125	277.620125		Doctor	Doctor
sw2024B-ms98-a-0046	B.44	277.620125	278.160125		Bittel	Bittel
sw2024B-ms98-a-0046	B.44	278.160125	278.306375		[silence]	[silence]
sw2024B-ms98-a-0046	B.44	278.306375	278.404375		B	B
sw2024B-ms98-a-0046	B.44	278.404375	278.534250		I	I
sw2024B-ms98-a-0046	B.44	278.534250	278.696250		T	T
sw2024B-ms98-a-0046	B.44	278.696250	278.850125		T	T
sw2024B-ms98-a-0046	B.44	278.850125	279.050125		E	E
sw2024B-ms98-a-0046	B.44	279.050125	279.418250		L	L
sw2024B-ms98-a-0046	B.44	279.418250	279.975750		[silence]	[silence]
sw2024B-ms98-a-0046	B.44	279.975750	280.140125		and	and
sw2024B-ms98-a-0046	B.44	280.140125	280.280125		it's	it's
sw2024B-ms98-a-0046	B.44	280.280125	280.350125		a	a
sw2024B-ms98-a-0046	B.44	280.350125	280.600125		very	very
sw2024B-ms98-a-0046	B.44	280.600125	281.275500		layman's	layman's
sw2024B-ms98-a-0046	B.44	281.275500	281.450625		[silence]	[silence]
sw2024B-ms98-a-0046	B.44	281.450625	281.587750		uh	uh
sw2024B-ms98-a-0046	B.44	281.587750	282.084875		[silence]	[silence]
sw2024B-ms98-a-0046	B.44	282.084875	282.240125		uh	uh
sw2024B-ms98-a-0046	B.44	282.240125	282.760125		approach	approach
sw2024B-ms98-a-0046	B.44	282.760125	283.290125		towards	towards
sw2024B-ms98-a-0046	B.44	283.290125	283.800125		managing	managing
sw2024B-ms98-a-0046	B.44	283.800125	284.090125		different	different
sw2024B-ms98-a-0046	B.44	284.090125	284.320125		types	types
sw2024B-ms98-a-0046	B.44	284.320125	284.380125		of	of
sw2024B-ms98-a-0046	B.44	284.380125	284.750750		people	people
sw2024B-ms98-a-0046	B.44	284.750750	285.030500		[silence]	[silence]
sw2024B-ms98-a-0047	B.44	285.030500	285.294125		[silence]	[silence]
sw2024B-ms98-a-0047	B.44	285.294125	285.540500		And	and
sw2024B-ms98-a-0047	B.44	285.540500	285.600500		the	the
sw2024B-ms98-a-0047	B.44	285.600500	285.810500		very	very
sw2024B-ms98-a-0047	B.44	285.810500	286.210500		last	last
sw2024B-ms98-a-0047	B.44	286.210500	286.510500		chapter	chapter
sw2024B-ms98-a-0047	B.44	286.510500	286.600500		and	and
sw2024B-ms98-a-0047	B.44	286.600500	286.630500		I	i
sw2024B-ms98-a-0047	B.44	286.630500	286.810500		haven't	haven't
sw2024B-ms98-a-0047	B.44	286.810500	287.100500		figured	figured
sw2024B-ms98-a-0047	B.44	287.100500	287.220500		out	out
sw2024B-ms98-a-0047	B.44	287.220500	287.330500		why	why
sw2024B-ms98-a-0047	B.44	287.330500	287.510500		that	that
sw2024B-ms98-a-0047	B.44	287.510500	287.660500		one	one
sw2024B-ms98-a-0047	B.44	287.660500	287.820500		was	was
sw2024B-ms98-a-0047	B.44	287.820500	288.320000		last	last
sw2024B-ms98-a-0047	B.44	288.320000	288.734375		[silence]	[silence]
sw2024B-ms98-a-0047	B.44	288.734375	288.873750		is	is
sw2024B-ms98-a-0047	B.44	288.873750	289.010500		how	how
sw2024B-ms98-a-0047	B.44	289.010500	289.100500		to	to
sw2024B-ms98-a-0047	B.44	289.100500	289.720500		manage	manage
sw2024B-ms98-a-0047	B.44	289.720500	290.247750		engineers	engineers
sw2024B-ms98-a-0047	B.46	290.247750	291.069500		[laughter]	[laughter]
sw2024B-ms98-a-0047	B.46	291.069500	291.651250		[silence]	[silence]
sw2024B-ms98-a-0048	B.46	291.651250	291.731250		[silence]	[silence]
sw2024B-ms98-a-0048	B.46	291.731250	292.031250		So	so
sw2024B-ms98-a-0048	B.46	292.031250	292.294750		it's	it's
sw2024B-ms98-a-0048	B.46	292.294750	292.433625		[silence]	[silence]
sw2024B-ms98-a-0048	B.46	292.433625	292.551250		it's	it's
sw2024B-ms98-a-0048	B.46	292.551250	292.681250		ver-	ver[y]-
sw2024B-ms98-a-0048	B.46	292.681250	292.831250		it's	it's
sw2024B-ms98-a-0048	B.46	292.831250	293.261250		interesting	interesting
sw2024B-ms98-a-0048	B.46	293.261250	293.371250		here	here
sw2024B-ms98-a-0048	B.46	293.371250	293.591250		again	again
sw2024B-ms98-a-0048	B.46	293.591250	293.771250		it's	it's
sw2024B-ms98-a-0048	B.46	293.771250	293.931250		it's	it's
sw2024B-ms98-a-0048	B.46	293.931250	294.321250		casual	casual
sw2024B-ms98-a-0048	B.46	294.321250	294.781250		reading	reading
sw2024B-ms98-a-0048	B.46	294.781250	295.071750		and	and
sw2024B-ms98-a-0048	B.46	295.071750	295.335375		it's	it's
sw2024B-ms98-a-0048	B.46	295.335375	295.699875		not	not
sw2024B-ms98-a-0048	B.46	295.699875	295.931250		eaten	eaten
sw2024B-ms98-a-0048	B.46	295.931250	296.101250		up	up
sw2024B-ms98-a-0048	B.46	296.101250	296.211250		with	with
sw2024B-ms98-a-0048	B.46	296.211250	296.251250		a	a
sw2024B-ms98-a-0048	B.46	296.251250	296.501250		lot	lot
sw2024B-ms98-a-0048	B.46	296.501250	296.771250		of	of
sw2024B-ms98-a-0048	B.46	296.771250	297.028250		uh	uh
sw2024B-ms98-a-0048	B.46	297.028250	297.634750		[silence]	[silence]
sw2024B-ms98-a-0048	B.46	297.634750	297.961250	<SUB>	mechanical	technical
sw2024B-ms98-a-0048	B.46	297.961250	298.291250		stuff	stuff
sw2024B-ms98-a-0048	B.46	298.291250	298.381250		and	and
sw2024B-ms98-a-0048	B.46	298.381250	298.491250		it's	it's
sw2024B-ms98-a-0048	B.46	298.491250	298.953750		really	really
sw2024B-ms98-a-0048	B.46	298.953750	299.262625		[silence]	[silence]
sw2024B-ms98-a-0048	B.46	299.262625	299.501250	<DEL>	---	uh
sw2024B-ms98-a-0048	B.46	299.501250	300.031250		excellent	excellent
sw2024B-ms98-a-0048	B.46	300.031250	300.425250		fast	fast
sw2024B-ms98-a-0048	B.46	300.425250	300.858375		reading	reading
sw2024B-ms98-a-0048	B.46	300.858375	301.201250		and	and
sw2024B-ms98-a-0048	B.46	301.201250	301.361250		uh	uh
sw2024B-ms98-a-0048	B.46	301.361250	301.731125		[silence]	[silence]
sw2024B-ms98-a-0049	B.46	301.731125	302.024125		[silence]	[silence]
sw2024B-ms98-a-0049	B.46	302.024125	302.168000		but	but
sw2024B-ms98-a-0049	B.46	302.168000	302.351125		as	as
sw2024B-ms98-a-0049	B.46	302.351125	302.441125		you	you
sw2024B-ms98-a-0049	B.46	302.441125	302.651125		say	say
sw2024B-ms98-a-0049	B.46	302.651125	302.831500		it's	it's
sw2024B-ms98-a-0049	B.46	302.831500	302.940750		[silence]	[silence]
sw2024B-ms98-a-0049	B.46	302.940750	303.181125		it's	it's
sw2024B-ms98-a-0049	B.46	303.181125	303.661125		sometimes	sometimes
sw2024B-ms98-a-0049	B.46	303.661125	303.781125		it's	it's
sw2024B-ms98-a-0049	B.46	303.781125	304.331125		difficult	difficult
sw2024B-ms98-a-0049	B.46	304.331125	304.451125		to	to
sw2024B-ms98-a-0049	B.46	304.451125	304.601125		to	to
sw2024B-ms98-a-0049	B.46	304.601125	304.871125		know	know
sw2024B-ms98-a-0049	B.46	304.871125	305.001125		if	if
sw2024B-ms98-a-0049	B.46	305.001125	305.293375		it's	it's
sw2024B-ms98-a-0049	B.46	305.293375	305.854625		[silence]	[silence]
sw2024B-ms98-a-0049	B.46	305.854625	305.951125		you	you
sw2024B-ms98-a-0049	B.46	305.951125	306.061125		know	know
sw2024B-ms98-a-0049	B.46	306.061125	306.101125		I	i
sw2024B-ms98-a-0049	B.46	306.101125	306.281125		think	think
sw2024B-ms98-a-0049	B.46	306.281125	306.371125		if	if
sw2024B-ms98-a-0049	B.46	306.371125	306.591125		somebody	somebody
sw2024B-ms98-a-0049	B.46	306.591125	306.741125	<SUB>	would	wants
sw2024B-ms98-a-0049	B.46	306.741125	306.801125	<DEL>	---	to
sw2024B-ms98-a-0049	B.46	306.801125	306.871125		say	say
sw2024B-ms98-a-0049	B.46	306.871125	307.021125	<SUB>	hey	-[o]kay
sw2024B-ms98-a-0049	B.46	307.021125	307.271125		read	read
sw2024B-ms98-a-0049	B.46	307.271125	307.411125		these	these
sw2024B-ms98-a-0049	B.46	307.411125	307.671125		ten	ten
sw2024B-ms98-a-0049	B.46	307.671125	307.971125		books	books
sw2024B-ms98-a-0049	B.46	307.971125	308.101125		because	because_1
sw2024B-ms98-a-0049	B.46	308.101125	308.251125		these	these
sw2024B-ms98-a-0049	B.46	308.251125	308.311125		are	are
sw2024B-ms98-a-0049	B.46	308.311125	309.053875		self-improvements	self-improvements
sw2024B-ms98-a-0049	B.46	309.053875	309.249750		[silence]	[silence]
sw2024B-ms98-a-0049	B.46	309.249750	309.331125		I	i
sw2024B-ms98-a-0049	B.46	309.331125	309.501125		would	would
sw2024B-ms98-a-0049	B.46	309.501125	310.141125		probably	probably
sw2024B-ms98-a-0049	B.46	310.141125	310.271125		be	be
sw2024B-ms98-a-0049	B.46	310.271125	310.631125		turned	turned
sw2024B-ms98-a-0049	B.46	310.631125	310.791125		off	off
sw2024B-ms98-a-0049	B.46	310.791125	311.021125		to	to
sw2024B-ms98-a-0049	B.46	311.021125	311.181250		them	them_1
sw2024B-ms98-a-0049	B.48	311.181250	311.181250	<INS>	If	---
sw2024B-ms98-a-0049	B.48	311.181250	311.876375		[silence]	[silence]
sw2024B-ms98-a-0050	B.48	311.876375	312.546375		[silence]	[silence]
sw2024B-ms98-a-0050	B.48	312.546375	312.656375		he	he
sw2024B-ms98-a-0050	B.48	312.656375	313.156375		casually	casually
sw2024B-ms98-a-0050	B.48	313.156375	313.346375		just	just
sw2024B-ms98-a-0050	B.48	313.346375	313.636375		walked	walked
sw2024B-ms98-a-0050	B.48	313.636375	313.936375		into	into
sw2024B-ms98-a-0050	B.48	313.936375	314.216375		it	it
sw2024B-ms98-a-0050	B.48	314.216375	314.476375		and	and
sw2024B-ms98-a-0050	B.48	314.476375	314.668250		uh	uh
sw2024B-ms98-a-0050	B.48	314.668250	315.372625		[silence]	[silence]
sw2024B-ms98-a-0050	B.48	315.372625	315.486375		put	put
sw2024B-ms98-a-0050	B.48	315.486375	315.676375		down	down
sw2024B-ms98-a-0050	B.48	315.676375	315.716375		a	a
sw2024B-ms98-a-0050	B.48	315.716375	316.156375		Stephen	Stephen
sw2024B-ms98-a-0050	B.48	316.156375	316.486375		King	King
sw2024B-ms98-a-0050	B.48	316.486375	316.956375		book	book
sw2024B-ms98-a-0050	B.48	316.956375	317.126375		and	and
sw2024B-ms98-a-0050	B.48	317.126375	317.236375	<SUB>	I	uh
sw2024B-ms98-a-0050	B.48	317.236375	317.516375		picked	picked
sw2024B-ms98-a-0050	B.48	317.516375	317.646375		up	up
sw2024B-ms98-a-0050	B.48	317.646375	317.826375		one	one
sw2024B-ms98-a-0050	B.48	317.826375	317.956375		of	of
sw2024B-ms98-a-0050	B.48	317.956375	318.056375		them	them_1
sw2024B-ms98-a-0050	B.48	318.056375	318.156375	<SUB>	I	it
sw2024B-ms98-a-0050	B.48	318.156375	318.336375		might	might
sw2024B-ms98-a-0050	B.48	318.336375	318.396375		be	be
sw2024B-ms98-a-0050	B.48	318.396375	318.426375		a	a
sw2024B-ms98-a-0050	B.48	318.426375	318.576375		little	little
sw2024B-ms98-a-0050	B.48	318.576375	318.747375		more	more
sw2024B-ms98-a-0050	B.48	318.747375	319.270125	<SUB>	interested	interesting
sw2024B-ms98-a-0050	B.50	319.270125	320.059500		[laughter]	[laughter]
sw2024B-ms98-a-0050	B.50	320.059500	320.474625		[silence]	[silence]
sw2024B-ms98-a-0051	B.50	320.474625	326.123250		[silence]	[silence]
sw2024B-ms98-a-0052	B.50	326.123250	326.603250		[silence]	[silence]
sw2024B-ms98-a-0052	B.50	326.603250	326.793250		Yeah	yeah
sw2024B-ms98-a-0052	B.50	326.793250	327.193250		they're	they're
sw2024B-ms98-a-0052	B.50	327.193250	327.291500		uh	uh
sw2024B-ms98-a-0052	B.50	327.291500	327.672375		quite	quite
sw2024B-ms98-a-0052	B.50	327.672375	327.913500		[silence]	[silence]
sw2024B-ms98-a-0052	B.50	327.913500	328.383250		uh	uh
sw2024B-ms98-a-0052	B.50	328.383250	328.563250		they're	they're
sw2024B-ms98-a-0052	B.50	328.563250	328.753250		hard	hard
sw2024B-ms98-a-0052	B.50	328.753250	328.863250		to	to
sw2024B-ms98-a-0052	B.50	328.863250	329.063250		set	set
sw2024B-ms98-a-0052	B.50	329.063250	329.323250		down	down
sw2024B-ms98-a-0052	B.50	329.323250	329.613250		because	because
sw2024B-ms98-a-0052	B.50	329.613250	329.743250		it's	it's
sw2024B-ms98-a-0052	B.50	329.743250	329.903250		so	so
sw2024B-ms98-a-0052	B.50	329.903250	330.353250		interesting	interesting
sw2024B-ms98-a-0052	B.50	330.353250	330.633250		and	and
sw2024B-ms98-a-0052	B.50	330.633250	330.633250	<INS>	of	---
sw2024B-ms98-a-0052	B.50	330.633250	331.163250		[silence]	[silence]
sw2024B-ms98-a-0052	B.50	331.163250	331.373250		course	course
sw2024B-ms98-a-0052	B.50	331.373250	331.583250		they're	they're
sw2024B-ms98-a-0052	B.50	331.583250	331.863250	<SUB>	all	always
sw2024B-ms98-a-0052	B.50	331.863250	331.863250	<INS>	just	---
sw2024B-ms98-a-0052	B.50	331.863250	331.903250		a	a
sw2024B-ms98-a-0052	B.50	331.903250	332.063250		little	little
sw2024B-ms98-a-0052	B.50	332.063250	332.503250		spookier	spookier
sw2024B-ms98-a-0052	B.50	332.503250	332.603250		than	than
sw2024B-ms98-a-0052	B.50	332.603250	332.669125		the	the
sw2024B-ms98-a-0052	B.50	332.669125	332.993000		movies	movies
sw2024B-ms98-a-0052	B.50	332.993000	333.218125		but	but
sw2024B-ms98-a-0052	B.50	333.218125	333.393375		uh	uh
sw2024B-ms98-a-0052	B.52	333.393375	333.967250		[silence]	[silence]
sw2024B-ms98-a-0053	B.52	333.967250	334.507250		[silence]	[silence]
sw2024B-ms98-a-0053	B.52	334.507250	334.657250		it's	it's
sw2024B-ms98-a-0053	B.52	334.657250	335.022750		always	always
sw2024B-ms98-a-0053	B.52	335.022750	335.124500		[silence]	[silence]
sw2024B-ms98-a-0053	B.52	335.124500	335.277250		they're	they're
sw2024B-ms98-a-0053	B.52	335.277250	335.674875		always	always
sw2024B-ms98-a-0053	B.52	335.674875	335.912250		[silence]	[silence]
sw2024B-ms98-a-0053	B.52	335.912250	336.487250		challenging	challenging
sw2024B-ms98-a-0053	B.52	336.487250	336.627250		to	to
sw2024B-ms98-a-0053	B.52	336.627250	336.757250		get	get
sw2024B-ms98-a-0053	B.52	336.757250	336.967250		through	through
sw2024B-ms98-a-0053	B.52	336.967250	337.137250		one	one
sw2024B-ms98-a-0053	B.52	337.137250	337.257250		of	of
sw2024B-ms98-a-0053	B.52	337.257250	337.357250		them	them_1
sw2024B-ms98-a-0053	B.52	337.357250	337.407250		I	i
sw2024B-ms98-a-0053	B.52	337.407250	337.517250		have	have
sw2024B-ms98-a-0053	B.52	337.517250	337.567250		a	a
sw2024B-ms98-a-0053	B.52	337.567250	337.747250		hard	hard
sw2024B-ms98-a-0053	B.52	337.747250	337.907250		time	time
sw2024B-ms98-a-0053	B.52	337.907250	338.367250		finishing	finishing
sw2024B-ms98-a-0053	B.52	338.367250	338.747250		books	books
sw2024B-ms98-a-0053	B.54	338.747250	339.207500		[silence]	[silence]
sw2024B-ms98-a-0054	B.54	339.207500	350.799875		[silence]	[silence]
sw2024B-ms98-a-0055	B.54	350.799875	351.279875		[silence]	[silence]
sw2024B-ms98-a-0055	B.54	351.279875	351.574625	<SUB>	Uh-huh	um-hum
sw2024B-ms98-a-0055	B.54	351.574625	352.251250		[silence]	[silence]
sw2024B-ms98-a-0056	B.54	352.251250	352.979000		[silence]	[silence]
sw2024B-ms98-a-0056	B.54	352.979000	353.081250		In	in
sw2024B-ms98-a-0056	B.54	353.081250	353.531250		quality	quality
sw2024B-ms98-a-0056	B.54	353.531250	353.821250	<SUB>	especially	-[es]pecially
sw2024B-ms98-a-0056	B.54	353.821250	354.311250	<SUB>	now	nowadays
sw2024B-ms98-a-0056	B.54	354.311250	354.311250	<INS>	days	---
sw2024B-ms98-a-0056	B.54	354.311250	354.511125		uh	uh
sw2024B-ms98-a-0056	B.54	354.511125	355.128750		[silence]	[silence]
sw2024B-ms98-a-0056	B.54	355.128750	355.271250		that's	that's
sw2024B-ms98-a-0056	B.54	355.271250	355.571250		almost	almost
sw2024B-ms98-a-0056	B.54	355.571250	355.901250		everything	everything
sw2024B-ms98-a-0056	B.54	355.901250	355.991250		that	that
sw2024B-ms98-a-0056	B.54	355.991250	356.181250		comes	comes
sw2024B-ms98-a-0056	B.54	356.181250	356.531250		across	across
sw2024B-ms98-a-0056	B.54	356.531250	356.714250		the	the
sw2024B-ms98-a-0056	B.54	356.714250	357.403500		[silence]	[silence]
sw2024B-ms98-a-0056	B.54	357.403500	357.581250		the	the
sw2024B-ms98-a-0056	B.54	357.581250	357.728250		the	the
sw2024B-ms98-a-0056	B.54	357.728250	358.270625		[silence]	[silence]
sw2024B-ms98-a-0056	B.54	358.270625	358.441250	<DEL>	---	the
sw2024B-ms98-a-0056	B.54	358.441250	358.611250	<DEL>	---	the
sw2024B-ms98-a-0056	B.54	358.611250	359.101250		airways	airways
sw2024B-ms98-a-0056	B.56	359.101250	359.201250	<DEL>	---	of
sw2024B-ms98-a-0056	B.56	359.201250	359.330875	<DEL>	---	th[e]-
sw2024B-ms98-a-0056	B.56	359.330875	359.970625		[silence]	[silence]
sw2024B-ms98-a-0057	B.56	359.970625	362.984875		[silence]	[silence]
sw2024B-ms98-a-0058	B.56	362.984875	363.465375		[silence]	[silence]
sw2024B-ms98-a-0058	B.56	363.465375	364.034875		Exactly	exactly
sw2024B-ms98-a-0058	B.56	364.034875	364.724875		exactly	exactly
sw2024B-ms98-a-0058	B.56	364.724875	364.974375		right	right
sw2024B-ms98-a-0058	B.58	364.974375	365.439875		[silence]	[silence]
sw2024B-ms98-a-0059	B.58	365.439875	367.547125		[silence]	[silence]
sw2024B-ms98-a-0060	B.58	367.547125	367.833125		[silence]	[silence]
sw2024B-ms98-a-0060	B.58	367.833125	368.050250		[noise]	[noise]
sw2024B-ms98-a-0060	B.58	368.050250	368.187125		Yeah	yeah
sw2024B-ms98-a-0060	B.58	368.187125	368.367125	<SUB>	we	w[e]-
sw2024B-ms98-a-0060	B.58	368.367125	368.607125		we	we
sw2024B-ms98-a-0060	B.58	368.607125	368.887125		have	have
sw2024B-ms98-a-0060	B.58	368.887125	368.937125		I	i
sw2024B-ms98-a-0060	B.58	368.937125	369.117125		think	think
sw2024B-ms98-a-0060	B.58	369.117125	369.317125		we	we
sw2024B-ms98-a-0060	B.58	369.317125	369.457125		we	we
sw2024B-ms98-a-0060	B.58	369.457125	369.747125		name	name
sw2024B-ms98-a-0060	B.58	369.747125	370.017125		drop	drop
sw2024B-ms98-a-0060	B.58	370.017125	370.123750		it	it
sw2024B-ms98-a-0060	B.58	370.123750	370.632250		[silence]	[silence]
sw2024B-ms98-a-0060	B.58	370.632250	370.817125		a	a
sw2024B-ms98-a-0060	B.58	370.817125	371.027125		little	little
sw2024B-ms98-a-0060	B.58	371.027125	371.177125		too	too
sw2024B-ms98-a-0060	B.58	371.177125	371.507125		much	much
sw2024B-ms98-a-0060	B.58	371.507125	371.667125		and	and
sw2024B-ms98-a-0060	B.58	371.667125	371.857125		and	and
sw2024B-ms98-a-0060	B.58	371.857125	372.127125		don't	don't
sw2024B-ms98-a-0060	B.58	372.127125	372.367125		fully	fully
sw2024B-ms98-a-0060	B.58	372.367125	372.813375		understand	understand
sw2024B-ms98-a-0060	B.58	372.813375	373.129250		what	what
sw2024B-ms98-a-0060	B.58	373.129250	373.521000		[silence]	[silence]
sw2024B-ms98-a-0060	B.58	373.521000	373.797125	<DEL>	---	wh[at]-
sw2024B-ms98-a-0060	B.58	373.797125	373.887125		what	what
sw2024B-ms98-a-0060	B.58	373.887125	373.947125		it	it
sw2024B-ms98-a-0060	B.58	373.947125	374.027125		is	is
sw2024B-ms98-a-0060	B.58	374.027125	374.137125		we're	we're
sw2024B-ms98-a-0060	B.58	374.137125	374.477125		saying	saying
sw2024B-ms98-a-0060	B.58	374.477125	374.507125		I	i
sw2024B-ms98-a-0060	B.58	374.507125	374.687125		think	think
sw2024B-ms98-a-0060	B.58	374.687125	374.867125		it's	it's
sw2024B-ms98-a-0060	B.58	374.867125	375.047125	<SUB>	just	it's
sw2024B-ms98-a-0060	B.58	375.047125	375.567125		focusing	focusing
sw2024B-ms98-a-0060	B.58	375.567125	375.717125		in	in
sw2024B-ms98-a-0060	B.58	375.717125	375.827125		on	on
sw2024B-ms98-a-0060	B.58	375.827125	375.897125		the	the
sw2024B-ms98-a-0060	B.58	375.897125	376.277125		issue	issue
sw2024B-ms98-a-0060	B.58	376.277125	376.407125		and	and
sw2024B-ms98-a-0060	B.58	376.407125	376.707125		walking	walking
sw2024B-ms98-a-0060	B.58	376.707125	376.807125		your	your
sw2024B-ms98-a-0060	B.58	376.807125	377.207125		talk	talk
sw2024B-ms98-a-0060	B.58	377.207125	377.433250		and	and
sw2024B-ms98-a-0060	B.58	377.433250	377.791000		[silence]	[silence]
sw2024B-ms98-a-0060	B.58	377.791000	377.857125		and	and
sw2024B-ms98-a-0060	B.58	377.857125	377.987125		all	all
sw2024B-ms98-a-0060	B.58	377.987125	378.107125		that	that
sw2024B-ms98-a-0060	B.58	378.107125	378.267125		kind	kind
sw2024B-ms98-a-0060	B.58	378.267125	378.337125		of	of
sw2024B-ms98-a-0060	B.58	378.337125	378.607125		rolls	rolls
sw2024B-ms98-a-0060	B.58	378.607125	378.697125		in	in
sw2024B-ms98-a-0060	B.58	378.697125	379.077125		together	together
sw2024B-ms98-a-0060	B.58	379.077125	379.320625		there	there
sw2024B-ms98-a-0060	B.60	379.320625	379.445375		[silence]	[silence]
sw2024B-ms98-a-0060	B.60	379.445375	379.667125		but	but
sw2024B-ms98-a-0060	B.60	379.667125	379.797125		uh	uh
sw2024B-ms98-a-0060	B.60	379.797125	380.314500		[silence]	[silence]
sw2024B-ms98-a-0061	B.60	380.314500	380.763375		[silence]	[silence]
sw2024B-ms98-a-0061	B.60	380.763375	380.864500		that's	that's
sw2024B-ms98-a-0061	B.60	380.864500	380.864500	<INS>	just	---
sw2024B-ms98-a-0061	B.60	380.864500	381.024500		kind	kind
sw2024B-ms98-a-0061	B.60	381.024500	381.084500		of	of
sw2024B-ms98-a-0061	B.60	381.084500	381.324500		part	part
sw2024B-ms98-a-0061	B.60	381.324500	381.464500		of	of
sw2024B-ms98-a-0061	B.60	381.464500	381.664500		it	it
sw2024B-ms98-a-0061	@@B.62	381.664500	382.142750		[silence]	[silence]
sw2024B-ms98-a-0062	@@B.62	382.142750	385.907875		[silence]	[silence]
sw2024B-ms98-a-0063	@@B.62	385.907875	386.307875		[silence]	[silence]
sw2024B-ms98-a-0063	@@B.62	386.307875	386.792875		Uh	uh
sw2024B-ms98-a-0063	@@B.62	386.792875	387.196000		[silence]	[silence]
sw2024B-ms98-a-0063	@@B.62	387.196000	387.387875		not	not
sw2024B-ms98-a-0063	@@B.62	387.387875	387.487875		that	that
sw2024B-ms98-a-0063	@@B.62	387.487875	387.517875		I	i
sw2024B-ms98-a-0063	@@B.62	387.517875	387.607875		can	can
sw2024B-ms98-a-0063	@@B.62	387.607875	387.847875		think	think
sw2024B-ms98-a-0063	@@B.62	387.847875	388.077875		of	of
sw2024B-ms98-a-0063	@@B.62	388.077875	388.281375		[silence]	[silence]
sw2024B-ms98-a-0063	@@B.62	388.281375	388.747250		Um	um
sw2024B-ms98-a-0063	@@B.62	388.747250	388.995875		[silence]	[silence]
sw2024B-ms98-a-0063	@@B.62	388.995875	389.114500		I	i
sw2024B-ms98-a-0063	@@B.62	389.114500	389.277875		think	think
sw2024B-ms98-a-0063	@@B.62	389.277875	389.387875		I'm	i'm
sw2024B-ms98-a-0063	@@B.62	389.387875	389.517875		under	under
sw2024B-ms98-a-0063	@@B.62	389.517875	389.597875		my	my
sw2024B-ms98-a-0063	@@B.62	389.597875	389.927875		quota	quota
sw2024B-ms98-a-0063	@@B.62	389.927875	389.967875		a	a
sw2024B-ms98-a-0063	@@B.62	389.967875	390.197875		little	little
sw2024B-ms98-a-0063	@@B.62	390.197875	390.387875		bit	bit
sw2024B-ms98-a-0063	@@B.62	390.387875	390.417875		I	i
sw2024B-ms98-a-0063	@@B.62	390.417875	390.577875		need	need
sw2024B-ms98-a-0063	@@B.62	390.577875	390.628125	<SUB>	to	it
sw2024B-ms98-a-0063	@@B.62	390.628125	390.748625	<SUB>	probably	if
sw2024B-ms98-a-0063	@@B.62	390.748625	390.897875	<DEL>	---	i
sw2024B-ms98-a-0063	@@B.62	390.897875	391.027875	<DEL>	---	if
sw2024B-ms98-a-0063	@@B.62	391.027875	391.057875	<DEL>	---	i
sw2024B-ms98-a-0063	@@B.62	391.057875	391.287875		make	make
sw2024B-ms98-a-0063	@@B.62	391.287875	391.337875		a	a
sw2024B-ms98-a-0063	@@B.62	391.337875	391.567875		phone	phone
sw2024B-ms98-a-0063	@@B.62	391.567875	391.737875		call	call
sw2024B-ms98-a-0063	@@B.62	391.737875	391.827875		or	or
sw2024B-ms98-a-0063	@@B.62	391.827875	392.057875		two	two
sw2024B-ms98-a-0063	B.64	392.057875	393.723500		[laughter]	[laughter]
sw2024B-ms98-a-0063	B.64	393.723500	394.349250		[silence]	[silence]
sw2024B-ms98-a-0064	B.64	394.349250	394.829125		[silence]	[silence]
sw2024B-ms98-a-0064	B.64	394.829125	395.179250	<SUB>	Uh	ah
sw2024B-ms98-a-0064	B.64	395.179250	395.349250		this	this
sw2024B-ms98-a-0064	B.64	395.349250	395.419250		is	is
sw2024B-ms98-a-0064	B.64	395.419250	395.667375		true	true
sw2024B-ms98-a-0064	B.64	395.667375	396.243625		[silence]	[silence]
sw2024B-ms98-a-0064	B.64	396.243625	396.399250		I've	i've
sw2024B-ms98-a-0064	B.64	396.399250	396.709250		enjoyed	enjoyed
sw2024B-ms98-a-0064	B.64	396.709250	396.810750		it	it
sw2024B-ms98-a-0064	B.66	396.810750	397.358750		[silence]	[silence]
sw2024B-ms98-a-0065	B.66	397.358750	397.889125		[silence]	[silence]
sw2024B-ms98-a-0065	B.66	397.889125	398.073375	<DEL>	---	ha[ve]-
sw2024B-ms98-a-0065	B.66	398.073375	398.537250		[silence]	[silence]
sw2024B-ms98-a-0066	B.66	398.537250	399.947500		[silence]	[silence]
sw2024B-ms98-a-0067	B.66	399.947500	400.415500		[silence]	[silence]
sw2024B-ms98-a-0067	B.66	400.415500	400.557500		Have	have
sw2024B-ms98-a-0067	B.66	400.557500	400.617500		a	a
sw2024B-ms98-a-0067	B.66	400.617500	400.757500		good	good
sw2024B-ms98-a-0067	B.66	400.757500	401.011500		day	day
sw2024B-ms98-a-0067	B.68	401.011500	401.585625		[silence]	[silence]
sw2024B-ms98-a-0067	B.68	401.585625	402.047500		Bye-bye	bye-bye
sw2024B-ms98-a-0067	B.68	402.047500	402.226500		[silence]	[silence]
sw2024B-ms98-a-0068	B.68	402.226500	402.953375		[silence]	[silence]
sw2024B-ms98-a-0068	B.68	402.953375	403.691125		[noise]	[noise]
sw2024B-ms98-a-0068	B.68	403.691125	404.166000		[silence]	[silence]
