sw2072A-ms98-a-0001	@B.2	0.000000	6.799500		[silence]	[silence]
sw2072A-ms98-a-0002	@B.2	6.799500	7.392625		[silence]	[silence]
sw2072A-ms98-a-0002	@B.2	7.392625	7.639500		Well	well
sw2072A-ms98-a-0002	@B.2	7.639500	7.728125		[silence]	[silence]
sw2072A-ms98-a-0002	@B.2	7.728125	8.009500		uh	uh
sw2072A-ms98-a-0002	@B.2	8.009500	8.138625		the	the
sw2072A-ms98-a-0002	@B.2	8.138625	8.534125		hobbies	hobbies
sw2072A-ms98-a-0002	@B.2	8.534125	8.659500		that	that
sw2072A-ms98-a-0002	@B.2	8.659500	8.801625		I	i
sw2072A-ms98-a-0002	@B.2	8.801625	9.429750		pursue	pursue
sw2072A-ms98-a-0002	@B.2	9.429750	9.489000		[silence]	[silence]
sw2072A-ms98-a-0002	@B.2	9.489000	9.579250		in	in
sw2072A-ms98-a-0002	@B.2	9.579250	9.758250		my	my
sw2072A-ms98-a-0002	@B.2	9.758250	10.063375		spare	spare
sw2072A-ms98-a-0002	@B.2	10.063375	10.105125		[silence]	[silence]
sw2072A-ms98-a-0002	@B.2	10.105125	10.485500		time	time
sw2072A-ms98-a-0002	@B.2	10.485500	11.007500		[silence]	[silence]
sw2072A-ms98-a-0002	@B.2	11.007500	11.281375		are	are
sw2072A-ms98-a-0002	@B.2	11.281375	11.358000		[silence]	[silence]
sw2072A-ms98-a-0002	@B.2	11.358000	11.840375		crafts	crafts
sw2072A-ms98-a-0002	@B.2	11.840375	12.117625		[silence]	[silence]
sw2072A-ms98-a-0003	@B.2	12.117625	12.448625		[silence]	[silence]
sw2072A-ms98-a-0003	@B.2	12.448625	12.858875		and	and
sw2072A-ms98-a-0003	@B.2	12.858875	12.912000		[silence]	[silence]
sw2072A-ms98-a-0003	@B.2	12.912000	13.097625		uh	uh
sw2072A-ms98-a-0003	@B.2	13.097625	13.246250		I've	i've
sw2072A-ms98-a-0003	@B.2	13.246250	13.344125		[silence]	[silence]
sw2072A-ms98-a-0003	@B.2	13.344125	13.467625		been	been
sw2072A-ms98-a-0003	@B.2	13.467625	13.977625		involved	involved
sw2072A-ms98-a-0003	@B.2	13.977625	14.087625		in	in
sw2072A-ms98-a-0003	@B.2	14.087625	14.536125		making	making
sw2072A-ms98-a-0003	@B.2	14.536125	14.651000		[silence]	[silence]
sw2072A-ms98-a-0003	@B.2	14.651000	14.916500		uh	uh
sw2072A-ms98-a-0003	@B.2	14.916500	15.157625		[silence]	[silence]
sw2072A-ms98-a-0003	@B.2	15.157625	15.397625		hat	hat
sw2072A-ms98-a-0003	@B.2	15.397625	15.930375	<SUB>	stands	stand
sw2072A-ms98-a-0003	@B.2	15.930375	16.060000		[silence]	[silence]
sw2072A-ms98-a-0003	@B.2	16.060000	16.289750		and	and
sw2072A-ms98-a-0003	@B.2	16.289750	16.494750		[silence]	[silence]
sw2072A-ms98-a-0003	@B.2	16.494750	16.697625		uh	uh
sw2072A-ms98-a-0003	@B.2	16.697625	16.888625		rag	rag
sw2072A-ms98-a-0003	@B.2	16.888625	17.034500		[silence]	[silence]
sw2072A-ms98-a-0003	@B.2	17.034500	17.479000		dolls	dolls
sw2072A-ms98-a-0003	@B.2	17.479000	17.607750		[silence]	[silence]
sw2072A-ms98-a-0003	@B.2	17.607750	17.811125		and	and
sw2072A-ms98-a-0003	@B.2	17.811125	18.380750		[silence]	[silence]
sw2072A-ms98-a-0003	@B.2	18.380750	18.699250		uh	uh
sw2072A-ms98-a-0003	@B.2	18.699250	18.865000		[silence]	[silence]
sw2072A-ms98-a-0003	@B.2	18.865000	19.167625		different	different
sw2072A-ms98-a-0003	@B.2	19.167625	19.344250		type	type
sw2072A-ms98-a-0003	@B.2	19.344250	19.389500		[silence]	[silence]
sw2072A-ms98-a-0003	@B.2	19.389500	20.255500		hats	hats
sw2072A-ms98-a-0003	@B.2	20.255500	20.641000		with	with
sw2072A-ms98-a-0003	@B.2	20.641000	20.981875	<SUB>	uh	um
sw2072A-ms98-a-0003	@B.2	20.981875	21.442375		[silence]	[silence]
sw2072A-ms98-a-0004	@B.2	21.442375	21.845625		[silence]	[silence]
sw2072A-ms98-a-0004	@B.2	21.845625	22.252375		flowers	flowers
sw2072A-ms98-a-0004	@B.2	22.252375	22.432375		and	and
sw2072A-ms98-a-0004	@B.2	22.432375	22.819000		roses	roses
sw2072A-ms98-a-0004	@B.2	22.819000	22.928250		[silence]	[silence]
sw2072A-ms98-a-0004	@B.2	22.928250	23.022375		you	you
sw2072A-ms98-a-0004	@B.2	23.022375	23.282375		know	know
sw2072A-ms98-a-0004	@B.2	23.282375	23.602375		and	and
sw2072A-ms98-a-0004	@B.2	23.602375	23.932375		uh	uh
sw2072A-ms98-a-0004	@B.2	23.932375	24.222375		that	that
sw2072A-ms98-a-0004	@B.2	24.222375	24.408125		kind	kind
sw2072A-ms98-a-0004	@B.2	24.408125	24.465875		of	of
sw2072A-ms98-a-0004	@B.2	24.465875	24.580250		[silence]	[silence]
sw2072A-ms98-a-0004	@B.2	24.580250	24.748875		thing	thing
sw2072A-ms98-a-0004	@B.2	24.748875	24.869375		[silence]	[silence]
sw2072A-ms98-a-0004	@B.2	24.869375	25.092375		straw	straw
sw2072A-ms98-a-0004	@B.2	25.092375	25.572375		hats	hats
sw2072A-ms98-a-0004	@B.2	25.572375	25.778250		and	and
sw2072A-ms98-a-0004	B.4	25.778250	26.490125		[silence]	[silence]
sw2072A-ms98-a-0004	B.4	26.490125	26.652375		all	all
sw2072A-ms98-a-0004	B.4	26.652375	26.802375		that	that
sw2072A-ms98-a-0004	B.4	26.802375	26.995750		kind	kind
sw2072A-ms98-a-0004	B.4	26.995750	27.063500		of	of
sw2072A-ms98-a-0004	B.4	27.063500	27.196875		[silence]	[silence]
sw2072A-ms98-a-0004	B.4	27.196875	27.332500		stuff	stuff
sw2072A-ms98-a-0004	B.4	27.332500	27.779625		[silence]	[silence]
sw2072A-ms98-a-0005	B.4	27.779625	28.188625		[silence]	[silence]
sw2072A-ms98-a-0005	B.4	28.188625	28.337125		And	and
sw2072A-ms98-a-0005	B.4	28.337125	28.429625		I	i
sw2072A-ms98-a-0005	B.4	28.429625	28.849625		enjoy	enjoy
sw2072A-ms98-a-0005	B.4	28.849625	28.949625		it	it
sw2072A-ms98-a-0005	B.4	28.949625	29.139625		it's	it's
sw2072A-ms98-a-0005	B.4	29.139625	29.814500		relaxing	relaxing
sw2072A-ms98-a-0005	B.4	29.814500	30.219500		[silence]	[silence]
sw2072A-ms98-a-0006	B.4	30.219500	30.599500		[silence]	[silence]
sw2072A-ms98-a-0006	B.4	30.599500	30.759500		And	and
sw2072A-ms98-a-0006	B.4	30.759500	30.848625		you	you
sw2072A-ms98-a-0006	B.4	30.848625	31.059500		kind	kind
sw2072A-ms98-a-0006	B.4	31.059500	31.119500		of	of
sw2072A-ms98-a-0006	B.4	31.119500	31.269500		get	get
sw2072A-ms98-a-0006	B.4	31.269500	31.749500		absorbed	absorbed
sw2072A-ms98-a-0006	B.4	31.749500	31.869500		in	in
sw2072A-ms98-a-0006	B.4	31.869500	31.989500		it	it
sw2072A-ms98-a-0006	B.4	31.989500	32.269500		so	so
sw2072A-ms98-a-0006	B.4	32.269500	32.359500		the	the
sw2072A-ms98-a-0006	B.4	32.359500	32.679500		time	time
sw2072A-ms98-a-0006	B.4	32.679500	32.969500		goes	goes
sw2072A-ms98-a-0006	B.4	32.969500	33.259500		by	by
sw2072A-ms98-a-0006	B.4	33.259500	33.569500		you	you
sw2072A-ms98-a-0006	B.4	33.569500	33.689500		know	know
sw2072A-ms98-a-0006	B.4	33.689500	33.999500		before	before
sw2072A-ms98-a-0006	B.4	33.999500	34.079500		you	you
sw2072A-ms98-a-0006	B.4	34.079500	34.509500		realize	realize
sw2072A-ms98-a-0006	B.4	34.509500	34.979500	<CONT>	anything	anything's
sw2072A-ms98-a-0006	B.4	34.979500	34.979500	<CONT>	is	+++
sw2072A-ms98-a-0006	B.4	34.979500	35.221625		going	[laughter-going]
sw2072A-ms98-a-0006	B.4	35.221625	35.235625		[silence]	[silence]
sw2072A-ms98-a-0006	B.4	35.235625	35.509250		on	[laughter-on]
sw2072A-ms98-a-0006	B.4	35.509250	35.750625		[silence]	[silence]
sw2072A-ms98-a-0007	B.4	35.750625	36.027250		[silence]	[silence]
sw2072A-ms98-a-0007	B.4	36.027250	36.205500		And	and
sw2072A-ms98-a-0007	B.4	36.205500	36.290625		I	i
sw2072A-ms98-a-0007	B.4	36.290625	36.537500		play	play
sw2072A-ms98-a-0007	B.4	36.537500	36.679875		the	the
sw2072A-ms98-a-0007	B.4	36.679875	36.988625		organ	organ
sw2072A-ms98-a-0007	B.4	36.988625	37.091125		[silence]	[silence]
sw2072A-ms98-a-0007	B.4	37.091125	37.523500		sometimes	sometimes
sw2072A-ms98-a-0007	B.4	37.523500	38.007875		[silence]	[silence]
sw2072A-ms98-a-0007	B.4	38.007875	38.170625		uh	uh
sw2072A-ms98-a-0007	B.4	38.170625	38.400625		just	just
sw2072A-ms98-a-0007	B.4	38.400625	38.490625		for	for
sw2072A-ms98-a-0007	B.4	38.490625	38.710625		my	my
sw2072A-ms98-a-0007	B.4	38.710625	38.940625		own	own
sw2072A-ms98-a-0007	B.4	38.940625	39.336500		[silence]	[silence]
sw2072A-ms98-a-0007	B.4	39.336500	40.186125		satisfaction	satisfaction
sw2072A-ms98-a-0007	B.4	40.186125	40.279500		[silence]	[silence]
sw2072A-ms98-a-0007	B.4	40.279500	41.240625		[laughter]	[laughter]
sw2072A-ms98-a-0007	B.4	41.240625	41.510625		Not	not
sw2072A-ms98-a-0007	B.4	41.510625	41.580625		for	for
sw2072A-ms98-a-0007	B.4	41.580625	41.950625		anybody	anybody
sw2072A-ms98-a-0007	B.4	41.950625	42.290625		else's	else's
sw2072A-ms98-a-0007	B.4	42.290625	42.620625		ears	ears
sw2072A-ms98-a-0007	B.4	42.620625	42.860625		because	because
sw2072A-ms98-a-0007	B.4	42.860625	42.970625		I'm	i'm
sw2072A-ms98-a-0007	B.4	42.970625	43.200625		not	not
sw2072A-ms98-a-0007	B.4	43.200625	43.359125		that	that
sw2072A-ms98-a-0007	B.4	43.359125	43.436375		[silence]	[silence]
sw2072A-ms98-a-0007	B.4	43.436375	43.570625		good	good
sw2072A-ms98-a-0007	B.4	43.570625	43.740625		at	at
sw2072A-ms98-a-0007	B.4	43.740625	43.820625		it	it
sw2072A-ms98-a-0007	B.4	43.820625	43.960625		but	but
sw2072A-ms98-a-0007	B.4	43.960625	44.040625		I	i
sw2072A-ms98-a-0007	B.4	44.040625	44.240625		like	like
sw2072A-ms98-a-0007	B.4	44.240625	44.445750		to	to
sw2072A-ms98-a-0007	B.4	44.445750	44.698125		[silence]	[silence]
sw2072A-ms98-a-0007	B.4	44.698125	44.840625		bang	bang
sw2072A-ms98-a-0007	B.4	44.840625	44.840625	<INS>	on	---
sw2072A-ms98-a-0007	B.4	44.840625	44.910625		the	the
sw2072A-ms98-a-0007	B.4	44.910625	45.446875		keyboards	keyboards
sw2072A-ms98-a-0007	B.4	45.446875	45.640625		once	once
sw2072A-ms98-a-0007	B.4	45.640625	45.700625		in	in
sw2072A-ms98-a-0007	B.4	45.700625	45.760625		a	a
sw2072A-ms98-a-0007	B.4	45.760625	46.016500		while	while
sw2072A-ms98-a-0007	B.6	46.016500	46.641750		[silence]	[silence]
sw2072A-ms98-a-0007	B.6	46.641750	46.710625		How	how
sw2072A-ms98-a-0007	B.6	46.710625	46.860625		about	about_1
sw2072A-ms98-a-0007	B.6	46.860625	47.291875		yourself	yourself
sw2072A-ms98-a-0007	B.8	47.291875	47.804875		[silence]	[silence]
sw2072A-ms98-a-0008	B.8	47.804875	53.204500		[silence]	[silence]
sw2072A-ms98-a-0009	B.8	53.204500	53.826375		[silence]	[silence]
sw2072A-ms98-a-0009	B.8	53.826375	54.139250		Really	really
sw2072A-ms98-a-0009	B.10	54.139250	54.864625		[silence]	[silence]
sw2072A-ms98-a-0010	B.10	54.864625	55.633875		[silence]	[silence]
sw2072A-ms98-a-0010	B.10	55.633875	55.851125		Oh	oh
sw2072A-ms98-a-0010	B.10	55.851125	56.034625		yeah	yeah
sw2072A-ms98-a-0010	B.10	56.034625	56.384625		that's	that's
sw2072A-ms98-a-0010	B.10	56.384625	56.579125		neat	neat
sw2072A-ms98-a-0010	B.12	56.579125	57.052750		[silence]	[silence]
sw2072A-ms98-a-0011	B.12	57.052750	64.057125		[silence]	[silence]
sw2072A-ms98-a-0012	B.12	64.057125	64.681375		[silence]	[silence]
sw2072A-ms98-a-0012	B.12	64.681375	64.939625		Oh	oh
sw2072A-ms98-a-0012	B.12	64.939625	65.011375		[silence]	[silence]
sw2072A-ms98-a-0012	B.12	65.011375	65.367125		that's	that's
sw2072A-ms98-a-0012	B.12	65.367125	65.585750		great	great
sw2072A-ms98-a-0012	B.12	65.585750	66.351125		[silence]	[silence]
sw2072A-ms98-a-0013	B.12	66.351125	67.160250		[silence]	[silence]
sw2072A-ms98-a-0013	B.12	67.160250	67.492500		uh-huh	uh-huh
sw2072A-ms98-a-0013	B.14	67.492500	67.929500		[silence]	[silence]
sw2072A-ms98-a-0014	B.14	67.929500	81.554000		[silence]	[silence]
sw2072A-ms98-a-0015	B.14	81.554000	82.161250		[silence]	[silence]
sw2072A-ms98-a-0015	B.14	82.161250	82.394000		Oh	oh
sw2072A-ms98-a-0015	B.14	82.394000	82.614000		that	that
sw2072A-ms98-a-0015	B.14	82.614000	82.954000		sounds	sounds
sw2072A-ms98-a-0015	B.14	82.954000	83.264000		nice	nice
sw2072A-ms98-a-0015	B.14	83.264000	83.354000		I	i
sw2072A-ms98-a-0015	B.14	83.354000	83.584000		like	like
sw2072A-ms98-a-0015	B.14	83.584000	84.104000		bluegrass	bluegrass
sw2072A-ms98-a-0015	B.14	84.104000	84.320000		too	too
sw2072A-ms98-a-0015	B.16	84.320000	84.879250		[silence]	[silence]
sw2072A-ms98-a-0016	B.16	84.879250	86.539125		[silence]	[silence]
sw2072A-ms98-a-0017	B.16	86.539125	87.052750		[silence]	[silence]
sw2072A-ms98-a-0017	B.16	87.052750	87.448875		Uh-huh	uh-huh
sw2072A-ms98-a-0017	B.18	87.448875	87.936875		[silence]	[silence]
sw2072A-ms98-a-0018	B.18	87.936875	91.607500		[silence]	[silence]
sw2072A-ms98-a-0019	B.18	91.607500	92.112000		[silence]	[silence]
sw2072A-ms98-a-0019	B.18	92.112000	93.923875		[laughter]	[laughter]
sw2072A-ms98-a-0019	B.18	93.923875	94.177500		That's	that's
sw2072A-ms98-a-0019	B.18	94.177500	94.317500		the	the
sw2072A-ms98-a-0019	B.18	94.317500	94.557500		hard	hard
sw2072A-ms98-a-0019	B.18	94.557500	94.930375		part	part
sw2072A-ms98-a-0019	B.18	94.930375	94.956625		[silence]	[silence]
sw2072A-ms98-a-0019	B.18	94.956625	95.307250		right	right
sw2072A-ms98-a-0019	B.20	95.307250	95.733750		[silence]	[silence]
sw2072A-ms98-a-0020	B.20	95.733750	96.131500		[silence]	[silence]
sw2072A-ms98-a-0020	B.20	96.131500	96.243750		If	if
sw2072A-ms98-a-0020	B.20	96.243750	96.343750		you	you
sw2072A-ms98-a-0020	B.20	96.343750	96.493750		can	can
sw2072A-ms98-a-0020	B.20	96.493750	96.703750		do	do
sw2072A-ms98-a-0020	B.20	96.703750	97.033750		things	things
sw2072A-ms98-a-0020	B.20	97.033750	97.423750		together	together
sw2072A-ms98-a-0020	B.20	97.423750	97.613750		that	that
sw2072A-ms98-a-0020	B.20	97.613750	97.813750		really	really
sw2072A-ms98-a-0020	B.20	97.813750	98.073750		helps	helps
sw2072A-ms98-a-0020	B.20	98.073750	98.163750		a	a
sw2072A-ms98-a-0020	B.20	98.163750	98.557250		lot	lot
sw2072A-ms98-a-0020	B.22	98.557250	98.992375		[silence]	[silence]
sw2072A-ms98-a-0021	B.22	98.992375	102.363875		[silence]	[silence]
sw2072A-ms98-a-0022	B.22	102.363875	102.827625		[silence]	[silence]
sw2072A-ms98-a-0022	B.22	102.827625	103.003875		Oh	oh
sw2072A-ms98-a-0022	B.22	103.003875	103.093875	<DEL>	---	well
sw2072A-ms98-a-0022	B.22	103.093875	103.393875		that's	that's
sw2072A-ms98-a-0022	B.22	103.393875	103.583875		good	good
sw2072A-ms98-a-0022	B.22	103.583875	103.906750		too	too
sw2072A-ms98-a-0022	B.24	103.906750	104.416375		[silence]	[silence]
sw2072A-ms98-a-0023	B.24	104.416375	107.050750		[silence]	[silence]
sw2072A-ms98-a-0024	B.24	107.050750	107.609000		[silence]	[silence]
sw2072A-ms98-a-0024	B.24	107.609000	107.996250		Uh-huh	uh-huh
sw2072A-ms98-a-0024	B.26	107.996250	108.385750		[silence]	[silence]
sw2072A-ms98-a-0025	B.26	108.385750	108.892250		[silence]	[silence]
sw2072A-ms98-a-0025	B.26	108.892250	109.025750		Oh	oh
sw2072A-ms98-a-0025	B.26	109.025750	109.225750		it's	it's
sw2072A-ms98-a-0025	B.26	109.225750	109.335750		good	good
sw2072A-ms98-a-0025	B.26	109.335750	109.445750		and	and
sw2072A-ms98-a-0025	B.26	109.445750	109.625750		it's	it's
sw2072A-ms98-a-0025	B.26	109.625750	110.006125		healthy	healthy
sw2072A-ms98-a-0025	B.26	110.006125	110.109125		[silence]	[silence]
sw2072A-ms98-a-0025	B.26	110.109125	110.274000		too	too
sw2072A-ms98-a-0025	B.28	110.274000	110.617750		[silence]	[silence]
sw2072A-ms98-a-0026	B.28	110.617750	110.959250		[silence]	[silence]
sw2072A-ms98-a-0026	B.28	110.959250	111.067750		We	we
sw2072A-ms98-a-0026	B.28	111.067750	111.237750		do	do
sw2072A-ms98-a-0026	B.28	111.237750	111.487750		that	that
sw2072A-ms98-a-0026	B.28	111.487750	111.627750		too	too
sw2072A-ms98-a-0026	B.28	111.627750	111.787750		we	we
sw2072A-ms98-a-0026	B.28	111.787750	111.957750		have	have
sw2072A-ms98-a-0026	B.28	111.957750	112.160125		a	a
sw2072A-ms98-a-0026	B.28	112.160125	112.517625		uh	uh
sw2072A-ms98-a-0026	B.28	112.517625	112.660750		[silence]	[silence]
sw2072A-ms98-a-0026	B.28	112.660750	112.757750		a	a
sw2072A-ms98-a-0026	B.28	112.757750	113.350000		treadmill	treadmill
sw2072A-ms98-a-0026	B.28	113.350000	113.496875		[silence]	[silence]
sw2072A-ms98-a-0026	B.28	113.496875	113.626625		and	and
sw2072A-ms98-a-0026	B.28	113.626625	113.789250		uh	uh
sw2072A-ms98-a-0026	B.28	113.789250	113.893000		a	a
sw2072A-ms98-a-0026	B.28	113.893000	113.983375		[silence]	[silence]
sw2072A-ms98-a-0026	B.28	113.983375	114.607750		bicycle	bicycle
sw2072A-ms98-a-0026	B.28	114.607750	114.766750		and	and
sw2072A-ms98-a-0026	B.28	114.766750	115.320875		[silence]	[silence]
sw2072A-ms98-a-0026	B.28	115.320875	115.457750		that	that
sw2072A-ms98-a-0026	B.28	115.457750	115.607750		kind	kind
sw2072A-ms98-a-0026	B.28	115.607750	115.667750		of	of
sw2072A-ms98-a-0026	B.28	115.667750	115.847750		stuff	stuff
sw2072A-ms98-a-0026	B.28	115.847750	115.917750		we	we
sw2072A-ms98-a-0026	B.28	115.917750	116.077750		try	try
sw2072A-ms98-a-0026	B.28	116.077750	116.147750		to	to
sw2072A-ms98-a-0026	B.28	116.147750	116.327750		get	get
sw2072A-ms98-a-0026	B.28	116.327750	116.567750		twenty	twenty
sw2072A-ms98-a-0026	B.28	116.567750	116.973375		minutes	minutes
sw2072A-ms98-a-0026	B.28	116.973375	117.255000		[silence]	[silence]
sw2072A-ms98-a-0026	B.28	117.255000	117.417750		like	like
sw2072A-ms98-a-0026	B.28	117.417750	117.527750		at	at
sw2072A-ms98-a-0026	B.28	117.527750	117.767750		least	least
sw2072A-ms98-a-0026	B.28	117.767750	117.877750		three	three
sw2072A-ms98-a-0026	B.28	117.877750	117.937750		for	for
sw2072A-ms98-a-0026	B.28	117.937750	118.097750		four	four
sw2072A-ms98-a-0026	B.28	118.097750	118.427750		times	times
sw2072A-ms98-a-0026	B.28	118.427750	118.487750		a	a
sw2072A-ms98-a-0026	B.28	118.487750	118.843125		week	week
sw2072A-ms98-a-0026	B.28	118.843125	119.020125		[silence]	[silence]
sw2072A-ms98-a-0026	B.28	119.020125	119.057750		you	you
sw2072A-ms98-a-0026	B.28	119.057750	119.137250		know	know
sw2072A-ms98-a-0026	B.30	119.137250	119.645750		[silence]	[silence]
sw2072A-ms98-a-0026	B.30	119.645750	119.891750		Yeah	yeah
sw2072A-ms98-a-0026	B.32	119.891750	120.381375		[silence]	[silence]
sw2072A-ms98-a-0026	B.32	120.381375	120.513125		And	and
sw2072A-ms98-a-0026	B.32	120.513125	120.627750		we	we
sw2072A-ms98-a-0026	B.32	120.627750	120.837750		like	like
sw2072A-ms98-a-0026	B.32	120.837750	121.477875		movies	movies
sw2072A-ms98-a-0026	B.32	121.477875	121.477875	<INS>	that	---
sw2072A-ms98-a-0026	B.32	121.477875	121.477875	<INS>	ki-	---
sw2072A-ms98-a-0026	B.32	121.477875	121.890250		[silence]	[silence]
sw2072A-ms98-a-0027	B.32	121.890250	122.953375		[silence]	[silence]
sw2072A-ms98-a-0028	B.32	122.953375	123.367500		[silence]	[silence]
sw2072A-ms98-a-0028	B.32	123.367500	123.781125		[vocalized-noise]	[vocalized-noise]
sw2072A-ms98-a-0028	B.32	123.781125	124.304125		[silence]	[silence]
sw2072A-ms98-a-0028	B.32	124.304125	124.615000		yeah	yeah
sw2072A-ms98-a-0028	B.34	124.615000	125.228625		[silence]	[silence]
sw2072A-ms98-a-0029	B.34	125.228625	130.528875		[silence]	[silence]
sw2072A-ms98-a-0030	B.34	130.528875	131.031000		[silence]	[silence]
sw2072A-ms98-a-0030	B.34	131.031000	131.446000		Uh-huh	uh-huh
sw2072A-ms98-a-0030	B.36	131.446000	131.963000		[silence]	[silence]
sw2072A-ms98-a-0031	B.36	131.963000	135.503750		[silence]	[silence]
sw2072A-ms98-a-0032	B.36	135.503750	135.976250		[silence]	[silence]
sw2072A-ms98-a-0032	B.36	135.976250	136.342250		Sure	sure
sw2072A-ms98-a-0032	B.38	136.342250	136.871125		[silence]	[silence]
sw2072A-ms98-a-0033	B.38	136.871125	141.094625		[silence]	[silence]
sw2072A-ms98-a-0034	B.38	141.094625	141.580375		[silence]	[silence]
sw2072A-ms98-a-0034	B.38	141.580375	141.694375		Oh	oh
sw2072A-ms98-a-0034	B.38	141.694375	141.834625		yeah	yeah
sw2072A-ms98-a-0034	B.38	141.834625	142.154625		that's	that's
sw2072A-ms98-a-0034	B.38	142.154625	142.332250		great	great
sw2072A-ms98-a-0034	B.38	142.332250	142.426250		[silence]	[silence]
sw2072A-ms98-a-0034	B.38	142.426250	142.562000		too	too
sw2072A-ms98-a-0034	B.40	142.562000	143.095125		[silence]	[silence]
sw2072A-ms98-a-0035	B.40	143.095125	143.657125		[silence]	[silence]
sw2072A-ms98-a-0035	B.40	143.657125	144.018125		Uh-huh	uh-huh
sw2072A-ms98-a-0035	B.42	144.018125	144.677500		[silence]	[silence]
sw2072A-ms98-a-0036	B.42	144.677500	145.386750		[silence]	[silence]
sw2072A-ms98-a-0036	B.42	145.386750	145.511125		Yeah	yeah
sw2072A-ms98-a-0036	B.42	145.511125	145.607500		we	we
sw2072A-ms98-a-0036	B.42	145.607500	145.771750		did	did
sw2072A-ms98-a-0036	B.42	145.771750	145.850875		[silence]	[silence]
sw2072A-ms98-a-0036	B.42	145.850875	145.947500		some	some
sw2072A-ms98-a-0036	B.42	145.947500	146.527500		remodeling	remodeling
sw2072A-ms98-a-0036	B.42	146.527500	146.667500		when	when
sw2072A-ms98-a-0036	B.42	146.667500	146.787500		we	we
sw2072A-ms98-a-0036	B.42	146.787500	146.987500		bought	bought
sw2072A-ms98-a-0036	B.42	146.987500	147.077500		a	a
sw2072A-ms98-a-0036	B.42	147.077500	147.417500		house	house
sw2072A-ms98-a-0036	B.42	147.417500	147.563125		we	we
sw2072A-ms98-a-0036	B.42	147.563125	147.898375		[silence]	[silence]
sw2072A-ms98-a-0036	B.42	147.898375	148.177500		built	built
sw2072A-ms98-a-0036	B.42	148.177500	148.347500		put	put
sw2072A-ms98-a-0036	B.42	148.347500	148.387500		a	a
sw2072A-ms98-a-0036	B.42	148.387500	148.777500		kitchen	kitchen
sw2072A-ms98-a-0036	B.42	148.777500	149.057500		in	in
sw2072A-ms98-a-0036	B.42	149.057500	149.261000		and	and
sw2072A-ms98-a-0036	B.42	149.261000	149.895625		[silence]	[silence]
sw2072A-ms98-a-0036	B.42	149.895625	150.284250		um	um
sw2072A-ms98-a-0036	B.42	150.284250	150.378375		[silence]	[silence]
sw2072A-ms98-a-0036	B.42	150.378375	150.547500		that	that
sw2072A-ms98-a-0036	B.42	150.547500	150.717500		kind	kind
sw2072A-ms98-a-0036	B.42	150.717500	150.787500		of	of
sw2072A-ms98-a-0036	B.42	150.787500	151.127500		stuff	stuff
sw2072A-ms98-a-0036	B.42	151.127500	151.247500		and	and
sw2072A-ms98-a-0036	B.42	151.247500	151.737500		painting	painting
sw2072A-ms98-a-0036	B.42	151.737500	151.894250		and	and
sw2072A-ms98-a-0036	B.42	151.894250	152.174875		[silence]	[silence]
sw2072A-ms98-a-0036	B.42	152.174875	152.317500		some	some
sw2072A-ms98-a-0036	B.42	152.317500	153.045625		wallpapering	wallpapering
sw2072A-ms98-a-0036	B.42	153.045625	153.731125		[silence]	[silence]
sw2072A-ms98-a-0036	B.42	153.731125	153.927500		that's	that's
sw2072A-ms98-a-0036	B.42	153.927500	154.167250		fun	fun
sw2072A-ms98-a-0036	B.44	154.167250	154.532625		[silence]	[silence]
sw2072A-ms98-a-0036	B.44	154.532625	154.627500		It	it
sw2072A-ms98-a-0036	B.44	154.627500	154.877750		is	is
sw2072A-ms98-a-0036	B.44	154.877750	155.017125		[silence]	[silence]
sw2072A-ms98-a-0036	B.44	155.017125	155.157500		It	it
sw2072A-ms98-a-0036	B.44	155.157500	155.447500		really	really
sw2072A-ms98-a-0036	B.44	155.447500	155.629625		is	is
sw2072A-ms98-a-0036	B.46	155.629625	156.517625		[silence]	[silence]
sw2072A-ms98-a-0037	B.46	156.517625	157.375000		[silence]	[silence]
sw2072A-ms98-a-0037	B.46	157.375000	157.624000	<SUB>	Yeah	yep
sw2072A-ms98-a-0037	B.46	157.624000	157.850000		[silence]	[silence]
sw2072A-ms98-a-0037	B.46	157.850000	158.484875		exactly	exactly
sw2072A-ms98-a-0037	B.46	158.484875	158.895375		[silence]	[silence]
sw2072A-ms98-a-0037	B.46	158.895375	159.046625		I	i
sw2072A-ms98-a-0037	B.46	159.046625	159.189250		like	like
sw2072A-ms98-a-0037	B.46	159.189250	159.306000		[silence]	[silence]
sw2072A-ms98-a-0037	B.46	159.306000	159.507625		things	things
sw2072A-ms98-a-0037	B.46	159.507625	159.782250		that	that
sw2072A-ms98-a-0037	B.46	159.782250	159.856500		[silence]	[silence]
sw2072A-ms98-a-0037	B.46	159.856500	160.028375	<DEL>	---	uh
sw2072A-ms98-a-0037	B.46	160.028375	160.126250		you	you
sw2072A-ms98-a-0037	B.46	160.126250	160.267625		know	know
sw2072A-ms98-a-0037	B.46	160.267625	160.447625		two	two
sw2072A-ms98-a-0037	B.46	160.447625	160.737625		people	people
sw2072A-ms98-a-0037	B.46	160.737625	160.897625		can	can
sw2072A-ms98-a-0037	B.46	160.897625	161.037625		do	do
sw2072A-ms98-a-0037	B.46	161.037625	161.177625		but	but
sw2072A-ms98-a-0037	B.46	161.177625	161.257625		I	i
sw2072A-ms98-a-0037	B.46	161.257625	161.567625		like	like
sw2072A-ms98-a-0037	B.46	161.567625	161.637625		the	the
sw2072A-ms98-a-0037	B.46	161.637625	162.104250		quiet	quiet
sw2072A-ms98-a-0037	B.46	162.104250	162.175750		[silence]	[silence]
sw2072A-ms98-a-0037	B.46	162.175750	162.339750		of	of
sw2072A-ms98-a-0037	B.46	162.339750	162.401000		[silence]	[silence]
sw2072A-ms98-a-0037	B.46	162.401000	162.607625		doing	doing
sw2072A-ms98-a-0037	B.46	162.607625	162.907625		things	things
sw2072A-ms98-a-0037	B.46	162.907625	163.267250		away	away
sw2072A-ms98-a-0037	B.46	163.267250	163.783250		[silence]	[silence]
sw2072A-ms98-a-0037	B.46	163.783250	163.837625		you	you
sw2072A-ms98-a-0037	B.46	163.837625	163.947625		know	know
sw2072A-ms98-a-0037	B.46	163.947625	164.167625		kind	kind
sw2072A-ms98-a-0037	B.46	164.167625	164.227625		of	of
sw2072A-ms98-a-0037	B.46	164.227625	164.410750		gives	gives
sw2072A-ms98-a-0037	B.46	164.410750	164.529500		you	you
sw2072A-ms98-a-0037	B.46	164.529500	164.614250		[silence]	[silence]
sw2072A-ms98-a-0037	B.46	164.614250	164.723750		some	some
sw2072A-ms98-a-0037	B.46	164.723750	164.810375		[silence]	[silence]
sw2072A-ms98-a-0037	B.46	164.810375	165.136125		space	space
sw2072A-ms98-a-0037	B.46	165.136125	165.205125		[silence]	[silence]
sw2072A-ms98-a-0037	B.46	165.205125	165.263000		for	for
sw2072A-ms98-a-0037	B.46	165.263000	165.723000		yourself	yourself
sw2072A-ms98-a-0037	B.46	165.723000	165.970875		[silence]	[silence]
sw2072A-ms98-a-0038	B.46	165.970875	166.319750		[silence]	[silence]
sw2072A-ms98-a-0038	B.46	166.319750	166.400875		and	and
sw2072A-ms98-a-0038	B.46	166.400875	166.610875		that's	that's
sw2072A-ms98-a-0038	B.46	166.610875	166.710875		what	what
sw2072A-ms98-a-0038	B.46	166.710875	166.828750		I	i
sw2072A-ms98-a-0038	B.46	166.828750	167.137000		find	find
sw2072A-ms98-a-0038	B.46	167.137000	167.216625		[silence]	[silence]
sw2072A-ms98-a-0038	B.46	167.216625	167.476750		in	in
sw2072A-ms98-a-0038	B.46	167.476750	167.625500		[silence]	[silence]
sw2072A-ms98-a-0038	B.46	167.625500	167.890875		making	making
sw2072A-ms98-a-0038	B.46	167.890875	167.960875		the	the
sw2072A-ms98-a-0038	B.46	167.960875	168.380875		dolls	dolls
sw2072A-ms98-a-0038	B.46	168.380875	168.560875		and	and
sw2072A-ms98-a-0038	B.46	168.560875	168.795125		things	things
sw2072A-ms98-a-0038	B.46	168.795125	168.854250		[silence]	[silence]
sw2072A-ms98-a-0038	B.46	168.854250	168.960875		that	that
sw2072A-ms98-a-0038	B.46	168.960875	169.050875		it	it
sw2072A-ms98-a-0038	B.46	169.050875	169.270625		gives	gives
sw2072A-ms98-a-0038	B.46	169.270625	169.330875		[silence]	[silence]
sw2072A-ms98-a-0038	B.46	169.330875	169.542375		me	me
sw2072A-ms98-a-0038	B.46	169.542375	169.979250		[silence]	[silence]
sw2072A-ms98-a-0038	B.46	169.979250	170.270875		something	something
sw2072A-ms98-a-0038	B.46	170.270875	170.463500		that	that
sw2072A-ms98-a-0038	B.46	170.463500	170.651750		[silence]	[silence]
sw2072A-ms98-a-0038	B.46	170.651750	170.823625		I	i
sw2072A-ms98-a-0038	B.46	170.823625	171.050875		can	can
sw2072A-ms98-a-0038	B.46	171.050875	171.520500		create	create
sw2072A-ms98-a-0038	B.46	171.520500	171.957500		[silence]	[silence]
sw2072A-ms98-a-0038	B.46	171.957500	172.040875		and	and
sw2072A-ms98-a-0038	B.46	172.040875	172.090875		I	i
sw2072A-ms98-a-0038	B.46	172.090875	172.260875		like	like
sw2072A-ms98-a-0038	B.46	172.260875	172.360875		to	to
sw2072A-ms98-a-0038	B.46	172.360875	173.003375		crochet	crochet
sw2072A-ms98-a-0038	B.46	173.003375	173.619125		[silence]	[silence]
sw2072A-ms98-a-0038	B.46	173.619125	173.800875		and	and
sw2072A-ms98-a-0038	B.46	173.800875	174.053875		knit	knit
sw2072A-ms98-a-0038	B.46	174.053875	174.370250		[silence]	[silence]
sw2072A-ms98-a-0038	B.46	174.370250	174.440000		I	i
sw2072A-ms98-a-0038	B.46	174.440000	174.582000		made	made
sw2072A-ms98-a-0038	B.46	174.582000	174.647875		[silence]	[silence]
sw2072A-ms98-a-0038	B.46	174.647875	174.770875		some	some
sw2072A-ms98-a-0038	B.46	174.770875	175.540875		afghans	afghans
sw2072A-ms98-a-0038	B.46	175.540875	175.752750		and	and
sw2072A-ms98-a-0038	B.46	175.752750	176.332750		[silence]	[silence]
sw2072A-ms98-a-0038	B.46	176.332750	176.460875		that	that
sw2072A-ms98-a-0038	B.46	176.460875	176.670875		kind	kind
sw2072A-ms98-a-0038	B.46	176.670875	176.737125		of	of
sw2072A-ms98-a-0038	B.46	176.737125	176.812500		[silence]	[silence]
sw2072A-ms98-a-0038	B.46	176.812500	177.010875		stuff	stuff
sw2072A-ms98-a-0038	B.46	177.010875	177.090875		I	i
sw2072A-ms98-a-0038	B.46	177.090875	177.290875		like	like
sw2072A-ms98-a-0038	B.46	177.290875	177.480875		doing	doing
sw2072A-ms98-a-0038	B.46	177.480875	177.700875		things	things
sw2072A-ms98-a-0038	B.46	177.700875	177.820875		with	with
sw2072A-ms98-a-0038	B.46	177.820875	178.005000		my	my
sw2072A-ms98-a-0038	B.46	178.005000	178.057750		[silence]	[silence]
sw2072A-ms98-a-0038	B.46	178.057750	178.456125		hands	hands
sw2072A-ms98-a-0038	B.48	178.456125	179.116000		[silence]	[silence]
sw2072A-ms98-a-0039	B.48	179.116000	179.888875		[silence]	[silence]
sw2072A-ms98-a-0039	B.48	179.888875	180.024625	<DEL>	---	that
sw2072A-ms98-a-0039	B.48	180.024625	180.497375		[silence]	[silence]
sw2072A-ms98-a-0039	B.48	180.497375	180.718875		Yeah	yeah
sw2072A-ms98-a-0039	B.50	180.718875	180.940375		[silence]	[silence]
sw2072A-ms98-a-0039	B.50	180.940375	181.005625		[noise]	[noise]
sw2072A-ms98-a-0039	B.50	181.005625	181.230500		[silence]	[silence]
sw2072A-ms98-a-0040	B.50	181.230500	181.676625		[silence]	[silence]
sw2072A-ms98-a-0040	B.50	181.676625	182.020500		Yes	yes
sw2072A-ms98-a-0040	B.50	182.020500	182.093875		I	i
sw2072A-ms98-a-0040	B.50	182.093875	182.298000		love	love
sw2072A-ms98-a-0040	B.50	182.298000	182.375375		[silence]	[silence]
sw2072A-ms98-a-0040	B.50	182.375375	182.475375		to	to
sw2072A-ms98-a-0040	B.50	182.475375	182.532375		[silence]	[silence]
sw2072A-ms98-a-0040	B.50	182.532375	182.814625		cook	cook
sw2072A-ms98-a-0040	B.52	182.814625	183.164875		[silence]	[silence]
sw2072A-ms98-a-0041	B.52	183.164875	183.634125		[silence]	[silence]
sw2072A-ms98-a-0041	B.52	183.634125	184.094875		Italian	Italian
sw2072A-ms98-a-0041	B.52	184.094875	184.494875		food	food
sw2072A-ms98-a-0041	B.54	184.494875	185.924875		[laughter]	[laughter]
sw2072A-ms98-a-0041	B.54	185.924875	186.260500		Yeah	yeah
sw2072A-ms98-a-0041	B.54	186.260500	186.365875		[silence]	[silence]
sw2072A-ms98-a-0041	B.54	186.365875	186.884875		pizzas	pizzas
sw2072A-ms98-a-0041	B.54	186.884875	187.090375		and	and
sw2072A-ms98-a-0041	B.54	187.090375	187.165750		[silence]	[silence]
sw2072A-ms98-a-0041	B.54	187.165750	187.844875		spaghettis	spaghettis
sw2072A-ms98-a-0041	B.54	187.844875	188.054875		and	and
sw2072A-ms98-a-0041	B.54	188.054875	188.744875		lasagnas	lasagnas
sw2072A-ms98-a-0041	B.54	188.744875	188.854875		and	and
sw2072A-ms98-a-0041	B.54	188.854875	189.024875		that	that
sw2072A-ms98-a-0041	B.54	189.024875	189.204875		kind	kind
sw2072A-ms98-a-0041	B.54	189.204875	189.274875		of	of
sw2072A-ms98-a-0041	B.54	189.274875	189.572000		stuff	stuff
sw2072A-ms98-a-0041	B.58	189.572000	190.051625		[silence]	[silence]
sw2072A-ms98-a-0042	B.58	190.051625	191.282375		[silence]	[silence]
sw2072A-ms98-a-0043	B.58	191.282375	191.777500		[silence]	[silence]
sw2072A-ms98-a-0043	B.58	191.777500	192.948375		[laughter]	[laughter]
sw2072A-ms98-a-0043	B.58	192.948375	193.448875		[silence]	[silence]
sw2072A-ms98-a-0044	B.58	193.448875	195.558875		[silence]	[silence]
sw2072A-ms98-a-0045	B.58	195.558875	196.033750		[silence]	[silence]
sw2072A-ms98-a-0045	B.58	196.033750	196.291625		Yeah	yeah
sw2072A-ms98-a-0045	B.60	196.291625	196.810000		[silence]	[silence]
sw2072A-ms98-a-0046	B.60	196.810000	198.425250		[silence]	[silence]
sw2072A-ms98-a-0047	B.60	198.425250	198.946750		[silence]	[silence]
sw2072A-ms98-a-0047	B.60	198.946750	199.197000		Uh-huh	uh-huh
sw2072A-ms98-a-0047	B.62	199.197000	200.057625		[silence]	[silence]
sw2072A-ms98-a-0048	B.62	200.057625	200.876000		[silence]	[silence]
sw2072A-ms98-a-0048	B.62	200.876000	201.111625		Yeah	yeah
sw2072A-ms98-a-0048	B.62	201.111625	201.251625		[silence]	[silence]
sw2072A-ms98-a-0048	B.62	201.251625	201.347625		it	it
sw2072A-ms98-a-0048	B.62	201.347625	201.491375		is	is
sw2072A-ms98-a-0048	B.64	201.491375	202.039625		[silence]	[silence]
sw2072A-ms98-a-0049	B.64	202.039625	206.092125		[silence]	[silence]
sw2072A-ms98-a-0050	B.64	206.092125	206.677000		[silence]	[silence]
sw2072A-ms98-a-0050	B.64	206.677000	206.722125		Do	do
sw2072A-ms98-a-0050	B.64	206.722125	206.822125		you	you
sw2072A-ms98-a-0050	B.64	206.822125	206.999625		do	do
sw2072A-ms98-a-0050	B.64	206.999625	207.031375		[silence]	[silence]
sw2072A-ms98-a-0050	B.64	207.031375	207.785375		barbecues	barbecues
sw2072A-ms98-a-0050	B.66	207.785375	208.365875		[silence]	[silence]
sw2072A-ms98-a-0051	B.66	208.365875	209.012500		[silence]	[silence]
sw2072A-ms98-a-0051	B.66	209.012500	209.065875	<SUB>	Well	for
sw2072A-ms98-a-0051	B.66	209.065875	209.225500	<DEL>	---	uh
sw2072A-ms98-a-0051	B.66	209.225500	209.255625		[silence]	[silence]
sw2072A-ms98-a-0051	B.66	209.255625	209.535125		uh	uh
sw2072A-ms98-a-0051	B.66	209.535125	210.341125		[silence]	[silence]
sw2072A-ms98-a-0051	B.66	210.341125	210.693000		uh	uh
sw2072A-ms98-a-0051	B.66	210.693000	211.205875		smoking	smoking
sw2072A-ms98-a-0051	B.66	211.205875	211.325875		and	and
sw2072A-ms98-a-0051	B.66	211.325875	211.475875		all	all
sw2072A-ms98-a-0051	B.66	211.475875	211.655875		that	that
sw2072A-ms98-a-0051	B.66	211.655875	211.890250		stuff	stuff
sw2072A-ms98-a-0051	B.68	211.890250	212.479625		[silence]	[silence]
sw2072A-ms98-a-0052	B.68	212.479625	213.114000		[silence]	[silence]
sw2072A-ms98-a-0052	B.68	213.114000	213.438000		Yeah	yeah
sw2072A-ms98-a-0052	B.68	213.438000	213.683125		[silence]	[silence]
sw2072A-ms98-a-0052	B.68	213.683125	213.891875		yep	yep
sw2072A-ms98-a-0052	B.70	213.891875	214.425250		[silence]	[silence]
sw2072A-ms98-a-0053	B.70	214.425250	214.966000		[silence]	[silence]
sw2072A-ms98-a-0053	B.70	214.966000	215.145250	<SUB>	I	i-
sw2072A-ms98-a-0053	B.70	215.145250	215.251875		[silence]	[silence]
sw2072A-ms98-a-0053	B.70	215.251875	215.325250		I	i
sw2072A-ms98-a-0053	B.70	215.325250	215.585250		lived	lived
sw2072A-ms98-a-0053	B.70	215.585250	215.675250		in	in
sw2072A-ms98-a-0053	B.70	215.675250	216.085250		Abilene	Abilene
sw2072A-ms98-a-0053	B.70	216.085250	216.205250		for	for
sw2072A-ms98-a-0053	B.70	216.205250	216.235250		a	a
sw2072A-ms98-a-0053	B.70	216.235250	216.445250		little	little
sw2072A-ms98-a-0053	B.70	216.445250	216.783250		while	while
sw2072A-ms98-a-0053	B.72	216.783250	217.217500		[silence]	[silence]
sw2072A-ms98-a-0054	B.72	217.217500	217.624250		[silence]	[silence]
sw2072A-ms98-a-0054	B.72	217.624250	217.947625		and	and
sw2072A-ms98-a-0054	B.72	217.947625	218.067500		uh	uh
sw2072A-ms98-a-0054	B.72	218.067500	218.317500		worked	worked
sw2072A-ms98-a-0054	B.72	218.317500	218.445250		in	in
sw2072A-ms98-a-0054	B.72	218.445250	218.547500		the	the
sw2072A-ms98-a-0054	B.72	218.547500	218.947500		Abilene	Abilene
sw2072A-ms98-a-0054	B.72	218.947500	219.316500		plant	plant
sw2072A-ms98-a-0054	B.72	219.316500	219.418250		[silence]	[silence]
sw2072A-ms98-a-0054	B.72	219.418250	219.526500		and	and
sw2072A-ms98-a-0054	B.72	219.526500	219.609375		we	we
sw2072A-ms98-a-0054	B.72	219.609375	219.807500		used	used
sw2072A-ms98-a-0054	B.72	219.807500	219.887500		to	to
sw2072A-ms98-a-0054	B.72	219.887500	220.047500		go	go
sw2072A-ms98-a-0054	B.72	220.047500	220.177500		to	to
sw2072A-ms98-a-0054	B.72	220.177500	220.407500		Joe	Joe
sw2072A-ms98-a-0054	B.72	220.407500	220.820000		Allen's	Allen's
sw2072A-ms98-a-0054	B.72	220.820000	220.874625		[silence]	[silence]
sw2072A-ms98-a-0054	B.72	220.874625	221.317500		Barbecue	Barbecue
sw2072A-ms98-a-0054	B.72	221.317500	221.489500		and	and
sw2072A-ms98-a-0054	B.72	221.489500	221.489500	<INS>	uh	---
sw2072A-ms98-a-0054	B.72	221.489500	221.603875		[silence]	[silence]
sw2072A-ms98-a-0054	B.72	221.603875	221.765375		oh	oh
sw2072A-ms98-a-0054	B.72	221.765375	221.936750		that	that
sw2072A-ms98-a-0054	B.72	221.936750	222.111250		was	was
sw2072A-ms98-a-0054	B.72	222.111250	222.214750		[silence]	[silence]
sw2072A-ms98-a-0054	B.72	222.214750	222.414125		great	great
sw2072A-ms98-a-0054	B.74	222.414125	222.882625		[silence]	[silence]
sw2072A-ms98-a-0055	B.74	222.882625	223.296750		[silence]	[silence]
sw2072A-ms98-a-0055	B.74	223.296750	223.583750		Really	really
sw2072A-ms98-a-0055	B.74	223.583750	223.689000		[silence]	[silence]
sw2072A-ms98-a-0055	B.74	223.689000	223.855250		great	great
sw2072A-ms98-a-0055	B.76	223.855250	224.039875		[silence]	[silence]
sw2072A-ms98-a-0055	B.76	224.039875	224.082625		they	they
sw2072A-ms98-a-0055	B.76	224.082625	224.203125		have	have
sw2072A-ms98-a-0055	B.76	224.203125	224.282250		[silence]	[silence]
sw2072A-ms98-a-0055	B.76	224.282250	224.382625		some	some
sw2072A-ms98-a-0055	B.76	224.382625	224.652625		nice	nice
sw2072A-ms98-a-0055	B.76	224.652625	224.856500		stuff	stuff
sw2072A-ms98-a-0055	B.76	224.856500	224.928125		[silence]	[silence]
sw2072A-ms98-a-0055	B.76	224.928125	225.112625		down	down
sw2072A-ms98-a-0055	B.76	225.112625	225.267875		there	there
sw2072A-ms98-a-0055	B.78	225.267875	225.861625		[silence]	[silence]
sw2072A-ms98-a-0056	B.78	225.861625	226.488375		[silence]	[silence]
sw2072A-ms98-a-0056	B.78	226.488375	226.591625		I	i
sw2072A-ms98-a-0056	B.78	226.591625	226.861625		miss	miss
sw2072A-ms98-a-0056	B.78	226.861625	226.976750		it	it
sw2072A-ms98-a-0056	B.80	226.976750	227.062250		[silence]	[silence]
sw2072A-ms98-a-0056	B.80	227.062250	228.967625		[laughter]	[laughter]
sw2072A-ms98-a-0056	B.80	228.967625	229.366875		[silence]	[silence]
sw2072A-ms98-a-0057	B.80	229.366875	232.041750		[silence]	[silence]
sw2072A-ms98-a-0058	B.80	232.041750	232.587250		[silence]	[silence]
sw2072A-ms98-a-0058	B.80	232.587250	232.778250		Oh	oh
sw2072A-ms98-a-0058	B.80	232.778250	232.958250		yeah	yeah
sw2072A-ms98-a-0058	B.82	232.958250	233.501125		[silence]	[silence]
sw2072A-ms98-a-0059	B.82	233.501125	235.728375		[silence]	[silence]
sw2072A-ms98-a-0060	B.82	235.728375	236.294875		[silence]	[silence]
sw2072A-ms98-a-0060	B.82	236.294875	236.381500	<DEL>	---	oh
sw2072A-ms98-a-0060	B.82	236.381500	236.508375		We	we
sw2072A-ms98-a-0060	B.82	236.508375	236.718375		did	did
sw2072A-ms98-a-0060	B.82	236.718375	236.868375	<DEL>	---	hor[seback]-
sw2072A-ms98-a-0060	B.82	236.868375	237.090000	<DEL>	---	i-
sw2072A-ms98-a-0060	B.82	237.090000	237.203000		[silence]	[silence]
sw2072A-ms98-a-0060	B.82	237.203000	237.414875		I	i
sw2072A-ms98-a-0060	B.82	237.414875	237.584000		did	did
sw2072A-ms98-a-0060	B.82	237.584000	237.851375		[silence]	[silence]
sw2072A-ms98-a-0060	B.82	237.851375	238.224250		horseback	horseback
sw2072A-ms98-a-0060	B.82	238.224250	238.322125		[silence]	[silence]
sw2072A-ms98-a-0060	B.82	238.322125	238.558375		riding	riding
sw2072A-ms98-a-0060	B.82	238.558375	238.837125		too	too
sw2072A-ms98-a-0060	B.82	238.837125	238.953000		[silence]	[silence]
sw2072A-ms98-a-0060	B.82	238.953000	239.088375		in	in
sw2072A-ms98-a-0060	B.82	239.088375	239.358375		fact	fact
sw2072A-ms98-a-0060	B.82	239.358375	239.448375		when	when
sw2072A-ms98-a-0060	B.82	239.448375	239.578375		my	my
sw2072A-ms98-a-0060	B.82	239.578375	239.918375		children	children
sw2072A-ms98-a-0060	B.82	239.918375	240.028375		were	were
sw2072A-ms98-a-0060	B.82	240.028375	240.378375		growing	growing
sw2072A-ms98-a-0060	B.82	240.378375	240.578375		up	up
sw2072A-ms98-a-0060	B.82	240.578375	240.738375		we	we
sw2072A-ms98-a-0060	B.82	240.738375	241.027125		always	always
sw2072A-ms98-a-0060	B.82	241.027125	241.065000		[silence]	[silence]
sw2072A-ms98-a-0060	B.82	241.065000	241.189875		had	had
sw2072A-ms98-a-0060	B.82	241.189875	241.250875		[silence]	[silence]
sw2072A-ms98-a-0060	B.82	241.250875	241.613750		horses	horses
sw2072A-ms98-a-0060	B.82	241.613750	241.902250		[silence]	[silence]
sw2072A-ms98-a-0061	B.82	241.902250	242.275625		[silence]	[silence]
sw2072A-ms98-a-0061	B.82	242.275625	242.596875		and	and
sw2072A-ms98-a-0061	B.82	242.596875	242.849625		uh	uh
sw2072A-ms98-a-0061	B.82	242.849625	243.128250		[silence]	[silence]
sw2072A-ms98-a-0061	B.82	243.128250	243.272250		that	that
sw2072A-ms98-a-0061	B.82	243.272250	243.462250		was	was
sw2072A-ms98-a-0061	B.82	243.462250	243.722250		kind	kind
sw2072A-ms98-a-0061	B.82	243.722250	243.802250		of	of
sw2072A-ms98-a-0061	B.82	243.802250	243.902250		for	for
sw2072A-ms98-a-0061	B.82	243.902250	244.182250		them	them
sw2072A-ms98-a-0061	B.82	244.182250	244.352250		but	but
sw2072A-ms98-a-0061	B.82	244.352250	244.492250		they	they
sw2072A-ms98-a-0061	B.82	244.492250	244.812250		weren't	weren't
sw2072A-ms98-a-0061	B.82	244.812250	244.932250		as	as
sw2072A-ms98-a-0061	B.82	244.932250	245.452250		interested	interested
sw2072A-ms98-a-0061	B.82	245.452250	245.602250		in	in
sw2072A-ms98-a-0061	B.82	245.602250	245.732250		it	it
sw2072A-ms98-a-0061	B.82	245.732250	245.942250		as	as
sw2072A-ms98-a-0061	B.82	245.942250	246.092250		we	we
sw2072A-ms98-a-0061	B.82	246.092250	246.312250		were	were
sw2072A-ms98-a-0061	B.82	246.312250	246.492250		you	you
sw2072A-ms98-a-0061	B.82	246.492250	246.659375		know	know
sw2072A-ms98-a-0061	B.82	246.659375	247.022125		[silence]	[silence]
sw2072A-ms98-a-0062	B.82	247.022125	247.385500		[silence]	[silence]
sw2072A-ms98-a-0062	B.82	247.385500	247.702125		so	so
sw2072A-ms98-a-0062	B.82	247.702125	247.899750		uh	uh
sw2072A-ms98-a-0062	B.82	247.899750	248.159625		[silence]	[silence]
sw2072A-ms98-a-0062	B.82	248.159625	248.299000		[noise]	[noise]
sw2072A-ms98-a-0062	B.82	248.299000	248.452125		that	that
sw2072A-ms98-a-0062	B.82	248.452125	248.631375		was	was
sw2072A-ms98-a-0062	B.82	248.631375	248.782500		[vocalized-noise]	[vocalized-noise]
sw2072A-ms98-a-0062	B.82	248.782500	248.942125		a	a
sw2072A-ms98-a-0062	B.82	248.942125	249.259875		real	real
sw2072A-ms98-a-0062	B.82	249.259875	249.474500		[silence]	[silence]
sw2072A-ms98-a-0062	B.82	249.474500	249.621375		I'd	i'd
sw2072A-ms98-a-0062	B.82	249.621375	249.708000		[silence]	[silence]
sw2072A-ms98-a-0062	B.82	249.708000	249.837375		say	say
sw2072A-ms98-a-0062	B.82	249.837375	250.421250		probably	probably
sw2072A-ms98-a-0062	B.82	250.421250	250.553125		[silence]	[silence]
sw2072A-ms98-a-0062	B.82	250.553125	250.815750		for	for
sw2072A-ms98-a-0062	B.82	250.815750	251.184875		[silence]	[silence]
sw2072A-ms98-a-0062	B.82	251.184875	251.412125		maybe	maybe
sw2072A-ms98-a-0062	B.82	251.412125	251.932125		fifteen	fifteen
sw2072A-ms98-a-0062	B.82	251.932125	252.294250		years	years
sw2072A-ms98-a-0062	B.82	252.294250	253.132250		[silence]	[silence]
sw2072A-ms98-a-0062	B.82	253.132250	253.402875		we	we
sw2072A-ms98-a-0062	B.82	253.402875	254.183625		[silence]	[silence]
sw2072A-ms98-a-0062	B.82	254.183625	254.542125		dabbled	dabbled
sw2072A-ms98-a-0062	B.82	254.542125	254.702125		in	in
sw2072A-ms98-a-0062	B.82	254.702125	254.942125		that	that
sw2072A-ms98-a-0062	B.82	254.942125	255.092125		you	you
sw2072A-ms98-a-0062	B.82	255.092125	255.172125		know	know
sw2072A-ms98-a-0062	B.82	255.172125	255.292125		we	we
sw2072A-ms98-a-0062	B.82	255.292125	255.467125		always	always
sw2072A-ms98-a-0062	B.82	255.467125	255.529250		[silence]	[silence]
sw2072A-ms98-a-0062	B.82	255.529250	255.622125		had	had
sw2072A-ms98-a-0062	B.82	255.622125	256.062125		horses	horses
sw2072A-ms98-a-0062	B.82	256.062125	256.338250		around	around
sw2072A-ms98-a-0062	B.82	256.338250	256.859000		[silence]	[silence]
sw2072A-ms98-a-0062	B.82	256.859000	256.922125		and	and
sw2072A-ms98-a-0062	B.82	256.922125	257.032125		I	i
sw2072A-ms98-a-0062	B.82	257.032125	257.322125		really	really
sw2072A-ms98-a-0062	B.82	257.322125	257.668750		enjoyed	enjoyed
sw2072A-ms98-a-0062	B.82	257.668750	257.782000		[silence]	[silence]
sw2072A-ms98-a-0062	B.82	257.782000	257.940625		that	that
sw2072A-ms98-a-0062	B.84	257.940625	258.662875		[silence]	[silence]
sw2072A-ms98-a-0063	B.84	258.662875	259.416250		[silence]	[silence]
sw2072A-ms98-a-0063	B.84	259.416250	259.509500		and	and
sw2072A-ms98-a-0063	B.84	259.509500	259.634000		I	i
sw2072A-ms98-a-0063	B.84	259.634000	259.788500		was	was
sw2072A-ms98-a-0063	B.84	259.788500	259.807375		[silence]	[silence]
sw2072A-ms98-a-0063	B.84	259.807375	260.452875		disappointed	disappointed
sw2072A-ms98-a-0063	B.84	260.452875	260.562875		when	when
sw2072A-ms98-a-0063	B.84	260.562875	260.602875		I	i
sw2072A-ms98-a-0063	B.84	260.602875	260.802875		went	went
sw2072A-ms98-a-0063	B.84	260.802875	260.882875		to	to
sw2072A-ms98-a-0063	B.84	260.882875	261.282875		Texas	Texas
sw2072A-ms98-a-0063	B.84	261.282875	261.372875		I	i
sw2072A-ms98-a-0063	B.84	261.372875	261.672875		didn't	didn't
sw2072A-ms98-a-0063	B.84	261.672875	261.862875		see	see
sw2072A-ms98-a-0063	B.84	261.862875	262.102875		that	that
sw2072A-ms98-a-0063	B.84	262.102875	262.397250		many	many
sw2072A-ms98-a-0063	B.84	262.397250	262.512750		of	of
sw2072A-ms98-a-0063	B.84	262.512750	262.603750		[silence]	[silence]
sw2072A-ms98-a-0063	B.84	262.603750	262.748250		them	them
sw2072A-ms98-a-0063	B.86	262.748250	263.433750		[silence]	[silence]
sw2072A-ms98-a-0063	B.86	263.433750	263.830375		Yes	yes
sw2072A-ms98-a-0063	B.88	263.830375	263.952750		[silence]	[silence]
sw2072A-ms98-a-0063	B.88	263.952750	265.661250		[laughter]	[laughter]
sw2072A-ms98-a-0063	B.88	265.661250	266.062500		[silence]	[silence]
sw2072A-ms98-a-0064	B.88	266.062500	267.500000		[silence]	[silence]
sw2072A-ms98-a-0065	B.88	267.500000	267.913125		[silence]	[silence]
sw2072A-ms98-a-0065	B.88	267.913125	268.115500		I	i
sw2072A-ms98-a-0065	B.88	268.115500	268.759375		know	know
sw2072A-ms98-a-0065	B.88	268.759375	268.964750		[silence]	[silence]
sw2072A-ms98-a-0065	B.88	268.964750	269.119750		I	i
sw2072A-ms98-a-0065	B.88	269.119750	269.560000		know	know
sw2072A-ms98-a-0065	B.88	269.560000	269.786750		it's	it's
sw2072A-ms98-a-0065	B.88	269.786750	269.884750		[silence]	[silence]
sw2072A-ms98-a-0065	B.88	269.884750	270.350000		true	true
sw2072A-ms98-a-0065	B.90	270.350000	270.833625		[silence]	[silence]
sw2072A-ms98-a-0066	B.90	270.833625	272.524625		[silence]	[silence]
sw2072A-ms98-a-0067	B.90	272.524625	273.024625		[silence]	[silence]
sw2072A-ms98-a-0067	B.90	273.024625	273.479125		Uh-huh	uh-huh
sw2072A-ms98-a-0067	B.92	273.479125	273.974250		[silence]	[silence]
sw2072A-ms98-a-0068	B.92	273.974250	277.843750		[silence]	[silence]
sw2072A-ms98-a-0069	B.92	277.843750	278.324750		[silence]	[silence]
sw2072A-ms98-a-0069	B.92	278.324750	278.541500		Yeah	yeah
sw2072A-ms98-a-0069	B.92	278.541500	278.743750		you	you
sw2072A-ms98-a-0069	B.92	278.743750	279.062500		too	too
sw2072A-ms98-a-0069	B.92	279.062500	279.416500		[silence]	[silence]
sw2072A-ms98-a-0069	B.92	279.416500	279.522000		you	you
sw2072A-ms98-a-0069	B.92	279.522000	279.663875		[silence]	[silence]
sw2072A-ms98-a-0069	B.92	279.663875	279.808375		too	too
sw2072A-ms98-a-0069	B.94	279.808375	280.352875		[silence]	[silence]
sw2072A-ms98-a-0070	B.94	280.352875	282.084000		[silence]	[silence]
sw2072A-ms98-a-0071	B.94	282.084000	282.638875		[silence]	[silence]
sw2072A-ms98-a-0071	B.94	282.638875	283.186625		Okay	okay
sw2072A-ms98-a-0071	B.96	283.186625	283.677375		[silence]	[silence]
sw2072A-ms98-a-0072	B.96	283.677375	284.130000		[silence]	[silence]
sw2072A-ms98-a-0072	B.96	284.130000	284.267375		Me	me
sw2072A-ms98-a-0072	B.96	284.267375	284.575875		too	too
sw2072A-ms98-a-0072	B.98	284.575875	284.968125		[silence]	[silence]
sw2072A-ms98-a-0073	B.98	284.968125	285.346125		[silence]	[silence]
sw2072A-ms98-a-0073	B.98	285.346125	285.726875		Okay	okay
sw2072A-ms98-a-0073	B.100	285.726875	286.221500		[silence]	[silence]
sw2072A-ms98-a-0073	B.100	286.221500	286.366125		Bye	bye
sw2072A-ms98-a-0073	B.100	286.366125	286.566000		now	now
sw2072A-ms98-a-0073	B.100	286.566000	287.070625		[silence]	[silence]
sw2072A-ms98-a-0074	B.100	287.070625	287.938250		[silence]	[silence]
sw2072A-ms98-a-0074	B.100	287.938250	288.152250		[noise]	[noise]
sw2072A-ms98-a-0074	B.100	288.152250	288.916625		[silence]	[silence]
