sw2061B-ms98-a-0001	B.2	0.000000	0.290000		[silence]	[silence]
sw2061B-ms98-a-0001	B.2	0.290000	0.850000		[noise]	[noise]
sw2061B-ms98-a-0001	B.2	0.850000	0.996000		[silence]	[silence]
sw2061B-ms98-a-0002	B.2	0.996000	2.998250		[silence]	[silence]
sw2061B-ms98-a-0003	B.2	2.998250	3.458250		[silence]	[silence]
sw2061B-ms98-a-0003	B.2	3.458250	3.918250		Hello	hello
sw2061B-ms98-a-0003	B.4	3.918250	4.524375		[silence]	[silence]
sw2061B-ms98-a-0004	B.4	4.524375	5.124375		[silence]	[silence]
sw2061B-ms98-a-0004	B.4	5.124375	5.394375		Not	not
sw2061B-ms98-a-0004	B.4	5.394375	5.694375		bad	bad
sw2061B-ms98-a-0004	B.4	5.694375	5.904375		not	not
sw2061B-ms98-a-0004	B.4	5.904375	6.084375		bad	bad
sw2061B-ms98-a-0004	B.4	6.084375	6.244375		What's	What's
sw2061B-ms98-a-0004	B.4	6.244375	6.344375		your	your
sw2061B-ms98-a-0004	B.4	6.344375	6.594375		name	name
sw2061B-ms98-a-0004	B.6	6.594375	7.254375		[silence]	[silence]
sw2061B-ms98-a-0005	B.6	7.254375	7.714375		[silence]	[silence]
sw2061B-ms98-a-0005	B.6	7.714375	8.154375		Fernando	Fernando
sw2061B-ms98-a-0005	B.6	8.154375	8.274375		My	my
sw2061B-ms98-a-0005	B.6	8.274375	8.424375		name	name
sw2061B-ms98-a-0005	B.6	8.424375	8.504375		is	is
sw2061B-ms98-a-0005	B.6	8.504375	8.859125		Nick	Nick
sw2061B-ms98-a-0005	B.8	8.859125	9.255875		[silence]	[silence]
sw2061B-ms98-a-0006	B.8	9.255875	10.497750		[silence]	[silence]
sw2061B-ms98-a-0007	B.8	10.497750	10.957750		[silence]	[silence]
sw2061B-ms98-a-0007	B.8	10.957750	11.403500		Sure	sure
sw2061B-ms98-a-0007	B.10	11.403500	11.823000		[silence]	[silence]
sw2061B-ms98-a-0008	B.10	11.823000	15.018125		[silence]	[silence]
sw2061B-ms98-a-0009	B.10	15.018125	15.518125		[silence]	[silence]
sw2061B-ms98-a-0009	B.10	15.518125	15.989125		Really	really
sw2061B-ms98-a-0009	B.12	15.989125	15.989125	<INS>	Phew	---
sw2061B-ms98-a-0009	B.12	15.989125	16.264375		[silence]	[silence]
sw2061B-ms98-a-0010	B.12	16.264375	16.676625		[silence]	[silence]
sw2061B-ms98-a-0010	B.12	16.676625	17.594000		[noise]	[noise]
sw2061B-ms98-a-0010	B.12	17.594000	17.714125		[silence]	[silence]
sw2061B-ms98-a-0011	B.12	17.714125	17.974125		[silence]	[silence]
sw2061B-ms98-a-0011	B.12	17.974125	18.212500		Man	man
sw2061B-ms98-a-0011	B.12	18.212500	18.331375	<SUB>	I'm	am
sw2061B-ms98-a-0011	B.14	18.331375	18.454125	<DEL>	---	i
sw2061B-ms98-a-0011	B.14	18.454125	18.840375		[silence]	[silence]
sw2061B-ms98-a-0012	B.14	18.840375	20.072125		[silence]	[silence]
sw2061B-ms98-a-0013	B.14	20.072125	20.412125		[silence]	[silence]
sw2061B-ms98-a-0013	B.14	20.412125	20.702125		No	no
sw2061B-ms98-a-0013	B.14	20.702125	20.912125		no	no
sw2061B-ms98-a-0013	B.14	20.912125	21.002125		I'm	i'm
sw2061B-ms98-a-0013	B.14	21.002125	21.092125		in	in
sw2061B-ms98-a-0013	B.14	21.092125	21.532125		Detroit	Detroit
sw2061B-ms98-a-0013	B.14	21.532125	21.662125		Or	or
sw2061B-ms98-a-0013	B.14	21.662125	21.842125		not	not
sw2061B-ms98-a-0013	B.14	21.842125	22.212125		Detroit	Detroit
sw2061B-ms98-a-0013	B.14	22.212125	22.302125		I'm	i'm
sw2061B-ms98-a-0013	B.14	22.302125	22.452125		in	in
sw2061B-ms98-a-0013	B.14	22.452125	22.692125		uh	uh
sw2061B-ms98-a-0013	B.14	22.692125	23.352125		California	California
sw2061B-ms98-a-0013	B.16	23.352125	23.736875		[silence]	[silence]
sw2061B-ms98-a-0014	B.16	23.736875	24.156875		[silence]	[silence]
sw2061B-ms98-a-0014	B.16	24.156875	24.528125		Yeah	yeah
sw2061B-ms98-a-0014	B.16	24.528125	24.699125		[silence]	[silence]
sw2061B-ms98-a-0014	B.16	24.699125	24.816750		I	i
sw2061B-ms98-a-0014	B.18	24.816750	25.156250		[silence]	[silence]
sw2061B-ms98-a-0015	B.18	25.156250	26.535125		[silence]	[silence]
sw2061B-ms98-a-0016	B.18	26.535125	26.995125		[silence]	[silence]
sw2061B-ms98-a-0016	B.18	26.995125	27.315250		Really	really
sw2061B-ms98-a-0016	B.20	27.315250	27.533250		[silence]	[silence]
sw2061B-ms98-a-0017	B.20	27.533250	28.599125		[silence]	[silence]
sw2061B-ms98-a-0018	B.20	28.599125	28.809125		[silence]	[silence]
sw2061B-ms98-a-0018	B.20	28.809125	29.087625		Oh	oh
sw2061B-ms98-a-0018	B.20	29.087625	29.214875		[silence]	[silence]
sw2061B-ms98-a-0018	B.20	29.214875	29.429125		Well	well
sw2061B-ms98-a-0018	B.20	29.429125	29.569125		you're	you're
sw2061B-ms98-a-0018	B.20	29.569125	29.689125		on	on
sw2061B-ms98-a-0018	B.20	29.689125	29.759125		the	the
sw2061B-ms98-a-0018	B.20	29.759125	30.112125		uh	uh
sw2061B-ms98-a-0018	B.20	30.112125	30.491750		[silence]	[silence]
sw2061B-ms98-a-0018	B.20	30.491750	30.712625	<SUB>	let's	lets
sw2061B-ms98-a-0018	B.20	30.712625	30.832625		see	see
sw2061B-ms98-a-0018	B.22	30.832625	30.910000		[silence]	[silence]
sw2061B-ms98-a-0019	B.22	30.910000	31.690000		[silence]	[silence]
sw2061B-ms98-a-0019	B.22	31.690000	31.910000		Yeah	yeah
sw2061B-ms98-a-0019	B.22	31.910000	32.090000	<CONT>	twenty-one	twenty
sw2061B-ms98-a-0019	B.22	32.090000	32.240000	<CONT>	+++	one
sw2061B-ms98-a-0019	B.22	32.240000	32.711500		[silence]	[silence]
sw2061B-ms98-a-0020	B.22	32.711500	33.241500		[silence]	[silence]
sw2061B-ms98-a-0020	B.22	33.241500	33.357500		Yeah	yeah
sw2061B-ms98-a-0020	B.22	33.357500	33.601500		Shoot	shoot
sw2061B-ms98-a-0020	B.22	33.601500	33.791500		man	man
sw2061B-ms98-a-0020	B.22	33.791500	33.941500		it's	it's
sw2061B-ms98-a-0020	B.22	33.941500	34.101500		what	what
sw2061B-ms98-a-0020	B.22	34.101500	34.461500		midnight	midnight
sw2061B-ms98-a-0020	B.22	34.461500	34.911500		almost	almost
sw2061B-ms98-a-0020	B.24	34.911500	35.353125		[silence]	[silence]
sw2061B-ms98-a-0021	B.24	35.353125	38.044750		[silence]	[silence]
sw2061B-ms98-a-0022	B.24	38.044750	38.574750		[silence]	[silence]
sw2061B-ms98-a-0022	B.24	38.574750	38.754750		Yeah	[laughter-yeah]
sw2061B-ms98-a-0022	B.24	38.754750	39.221250		okay	okay
sw2061B-ms98-a-0022	B.24	39.221250	39.963250		[silence]	[silence]
sw2061B-ms98-a-0022	B.24	39.963250	40.084750		All	all
sw2061B-ms98-a-0022	B.24	40.084750	40.274750		right	right
sw2061B-ms98-a-0022	B.24	40.274750	40.454750		Well	well
sw2061B-ms98-a-0022	B.24	40.454750	40.514750		I	i
sw2061B-ms98-a-0022	B.24	40.514750	40.674750		guess	guess
sw2061B-ms98-a-0022	B.24	40.674750	40.764750		we're	we're
sw2061B-ms98-a-0022	B.24	40.764750	41.014750		supposed	supposed
sw2061B-ms98-a-0022	B.24	41.014750	41.094750		to	to
sw2061B-ms98-a-0022	B.24	41.094750	41.294750		talk	talk
sw2061B-ms98-a-0022	B.24	41.294750	41.464750		what	what
sw2061B-ms98-a-0022	B.24	41.464750	41.624750		about	about
sw2061B-ms98-a-0022	B.24	41.624750	41.894750		credit	credit
sw2061B-ms98-a-0022	B.24	41.894750	42.157625		card	card
sw2061B-ms98-a-0022	B.26	42.157625	42.480000		[silence]	[silence]
sw2061B-ms98-a-0023	B.26	42.480000	44.963250		[silence]	[silence]
sw2061B-ms98-a-0024	B.26	44.963250	45.313250		[silence]	[silence]
sw2061B-ms98-a-0024	B.26	45.313250	45.423250		Oh	oh
sw2061B-ms98-a-0024	B.26	45.423250	45.533250		one	one
sw2061B-ms98-a-0024	B.26	45.533250	45.593250		of	of
sw2061B-ms98-a-0024	B.26	45.593250	45.755250		my	my
sw2061B-ms98-a-0024	B.26	45.755250	46.313250		instructors	instructors
sw2061B-ms98-a-0024	B.26	46.313250	46.633250		uh	uh
sw2061B-ms98-a-0024	B.26	46.633250	46.793250		said	said
sw2061B-ms98-a-0024	B.26	46.793250	46.903250		that	that
sw2061B-ms98-a-0024	B.26	46.903250	46.993250		they	they
sw2061B-ms98-a-0024	B.26	46.993250	47.103250		were	were
sw2061B-ms98-a-0024	B.26	47.103250	47.363250		doing	doing
sw2061B-ms98-a-0024	B.26	47.363250	47.613250		something	something
sw2061B-ms98-a-0024	B.26	47.613250	47.833250		like	like
sw2061B-ms98-a-0024	B.26	47.833250	48.103250		this	this
sw2061B-ms98-a-0024	B.26	48.103250	48.263250		and	and
sw2061B-ms98-a-0024	B.28	48.263250	48.882500		[silence]	[silence]
sw2061B-ms98-a-0025	B.28	48.882500	49.582500		[silence]	[silence]
sw2061B-ms98-a-0025	B.28	49.582500	49.791250		A	a
sw2061B-ms98-a-0025	B.28	49.791250	49.960750		a	a
sw2061B-ms98-a-0025	B.28	49.960750	50.492500	<SUB>	Masters	Master's
sw2061B-ms98-a-0025	B.28	50.492500	50.684750		in	in
sw2061B-ms98-a-0025	B.28	50.684750	51.042500		uh	uh
sw2061B-ms98-a-0025	B.28	51.042500	51.502500		information	information
sw2061B-ms98-a-0025	B.28	51.502500	51.991125		systems	systems
sw2061B-ms98-a-0025	B.30	51.991125	52.261000		[silence]	[silence]
sw2061B-ms98-a-0026	B.30	52.261000	55.139500		[silence]	[silence]
sw2061B-ms98-a-0027	B.30	55.139500	55.609500		[silence]	[silence]
sw2061B-ms98-a-0027	B.30	55.609500	55.859500		Yeah	yeah
sw2061B-ms98-a-0027	B.30	55.859500	56.142250		Where	where
sw2061B-ms98-a-0027	B.30	56.142250	56.350375		at	at
sw2061B-ms98-a-0027	B.32	56.350375	56.818625		[silence]	[silence]
sw2061B-ms98-a-0028	B.32	56.818625	58.069625		[silence]	[silence]
sw2061B-ms98-a-0029	B.32	58.069625	58.329625		[silence]	[silence]
sw2061B-ms98-a-0029	B.32	58.329625	58.739625		Hey	hey
sw2061B-ms98-a-0029	B.32	58.739625	58.799625		How	how
sw2061B-ms98-a-0029	B.32	58.799625	58.859625		do	do
sw2061B-ms98-a-0029	B.32	58.859625	58.929625		you	you
sw2061B-ms98-a-0029	B.32	58.929625	59.089625		like	like
sw2061B-ms98-a-0029	B.32	59.089625	59.189625		it	it
sw2061B-ms98-a-0029	B.32	59.189625	59.339625		out	out
sw2061B-ms98-a-0029	B.32	59.339625	59.579625		there	there
sw2061B-ms98-a-0029	B.34	59.579625	59.855375		[silence]	[silence]
sw2061B-ms98-a-0030	B.34	59.855375	64.963375		[silence]	[silence]
sw2061B-ms98-a-0031	B.34	64.963375	65.443375		[silence]	[silence]
sw2061B-ms98-a-0031	B.34	65.443375	65.745375		Yeah	yeah
sw2061B-ms98-a-0031	B.36	65.745375	65.745375	<INS>	Oh	---
sw2061B-ms98-a-0031	B.36	65.745375	66.408250		[silence]	[silence]
sw2061B-ms98-a-0032	B.36	66.408250	67.176625		[silence]	[silence]
sw2061B-ms98-a-0032	B.36	67.176625	67.828250		[vocalized-noise]	[vocalized-noise]
sw2061B-ms98-a-0032	B.36	67.828250	68.168250		Raleigh	Raleigh
sw2061B-ms98-a-0032	B.36	68.168250	68.478250		Durham	Durham
sw2061B-ms98-a-0032	B.36	68.478250	68.843500		Yeah	yeah
sw2061B-ms98-a-0032	B.38	68.843500	69.186125		[silence]	[silence]
sw2061B-ms98-a-0033	B.38	69.186125	73.926750		[silence]	[silence]
sw2061B-ms98-a-0034	B.38	73.926750	74.376375		[silence]	[silence]
sw2061B-ms98-a-0034	B.38	74.376375	74.823625		Uh-huh	uh-huh
sw2061B-ms98-a-0034	B.40	74.823625	75.383250		[silence]	[silence]
sw2061B-ms98-a-0035	B.40	75.383250	76.203250		[silence]	[silence]
sw2061B-ms98-a-0035	B.40	76.203250	76.483250		Yeah	yeah
sw2061B-ms98-a-0035	B.40	76.483250	76.583250		So	so
sw2061B-ms98-a-0035	B.40	76.583250	76.683250		it	it
sw2061B-ms98-a-0035	B.40	76.683250	76.843250		it's	it's
sw2061B-ms98-a-0035	B.40	76.843250	77.243250		basically	basically
sw2061B-ms98-a-0035	B.40	77.243250	77.293250		a	a
sw2061B-ms98-a-0035	B.40	77.293250	77.463250		bunch	bunch
sw2061B-ms98-a-0035	B.40	77.463250	77.543250		of	of
sw2061B-ms98-a-0035	B.40	77.543250	77.863250		small	small
sw2061B-ms98-a-0035	B.40	77.863250	78.263250		towns	towns
sw2061B-ms98-a-0035	B.40	78.263250	78.553250		anyway	anyway
sw2061B-ms98-a-0035	B.40	78.553250	78.793250		Kind	kind
sw2061B-ms98-a-0035	B.40	78.793250	78.883250		of	of
sw2061B-ms98-a-0035	B.40	78.883250	79.183250		quaint	quaint
sw2061B-ms98-a-0035	B.40	79.183250	79.343250		little	little
sw2061B-ms98-a-0035	B.40	79.343250	79.713250		towns	towns
sw2061B-ms98-a-0035	B.40	79.713250	79.843250		but	but
sw2061B-ms98-a-0035	B.40	79.843250	79.913250		they	they
sw2061B-ms98-a-0035	B.42	79.913250	80.113250		don't	don't
sw2061B-ms98-a-0035	B.42	80.113250	80.223250		have	have
sw2061B-ms98-a-0035	B.42	80.223250	80.293250		a	a
sw2061B-ms98-a-0035	B.42	80.293250	80.503250		whole	whole
sw2061B-ms98-a-0035	B.42	80.503250	80.723250		lot	lot
sw2061B-ms98-a-0035	B.42	80.723250	80.963250		there	there
sw2061B-ms98-a-0035	B.44	80.963250	81.463500		[silence]	[silence]
sw2061B-ms98-a-0036	B.44	81.463500	82.093500		[silence]	[silence]
sw2061B-ms98-a-0036	B.44	82.093500	82.193500		Uh	uh
sw2061B-ms98-a-0036	B.44	82.193500	82.373500		well	well
sw2061B-ms98-a-0036	B.44	82.373500	82.453500		I'm	i'm
sw2061B-ms98-a-0036	B.44	82.453500	82.513500		in	in
sw2061B-ms98-a-0036	B.44	82.513500	82.923500		Monterey	Monterey
sw2061B-ms98-a-0036	B.44	82.923500	83.473500		California	California
sw2061B-ms98-a-0036	B.44	83.473500	83.613500		right	right
sw2061B-ms98-a-0036	B.44	83.613500	83.883500		now	now
sw2061B-ms98-a-0036	B.44	83.883500	84.280000		[silence]	[silence]
sw2061B-ms98-a-0037	B.44	84.280000	84.730000		[silence]	[silence]
sw2061B-ms98-a-0037	B.44	84.730000	85.032000		Yeah	yeah
sw2061B-ms98-a-0037	B.46	85.032000	85.508750		[silence]	[silence]
sw2061B-ms98-a-0038	B.46	85.508750	89.721250		[silence]	[silence]
sw2061B-ms98-a-0039	B.46	89.721250	90.411250		[silence]	[silence]
sw2061B-ms98-a-0039	B.46	90.411250	90.521250		Two	two
sw2061B-ms98-a-0039	B.46	90.521250	90.791250		hundred	hundred
sw2061B-ms98-a-0039	B.46	90.791250	91.161250		fifty	fifty
sw2061B-ms98-a-0039	B.48	91.161250	91.522125		[silence]	[silence]
sw2061B-ms98-a-0040	B.48	91.522125	91.962125		[silence]	[silence]
sw2061B-ms98-a-0040	B.48	91.962125	92.172125		Okay	okay
sw2061B-ms98-a-0040	B.48	92.172125	92.352125		It	it
sw2061B-ms98-a-0040	B.48	92.352125	92.652125		it's	it's
sw2061B-ms98-a-0040	B.48	92.652125	92.822125		it's	it's
sw2061B-ms98-a-0040	B.48	92.822125	92.862125		a	a
sw2061B-ms98-a-0040	B.48	92.862125	93.052125		lot	lot
sw2061B-ms98-a-0040	B.48	93.052125	93.262125		bigger	bigger
sw2061B-ms98-a-0040	B.48	93.262125	93.362125		than	than
sw2061B-ms98-a-0040	B.48	93.362125	93.822125		Monterey	Monterey
sw2061B-ms98-a-0040	B.48	93.822125	94.032125		is	is
sw2061B-ms98-a-0040	B.48	94.032125	94.192125		[silence]	[silence]
sw2061B-ms98-a-0040	B.48	94.192125	94.362125		But	but
sw2061B-ms98-a-0040	B.48	94.362125	94.512125		we're	we're
sw2061B-ms98-a-0040	B.48	94.512125	94.852125		just	just
sw2061B-ms98-a-0040	B.48	94.852125	95.136750		uh	uh
sw2061B-ms98-a-0040	B.48	95.136750	95.671500		[silence]	[silence]
sw2061B-ms98-a-0040	B.48	95.671500	95.962125		just	just
sw2061B-ms98-a-0040	B.48	95.962125	96.322125		south	south
sw2061B-ms98-a-0040	B.48	96.322125	96.502125		of	of
sw2061B-ms98-a-0040	B.48	96.502125	96.672125		uh	uh
sw2061B-ms98-a-0040	B.48	96.672125	97.012125		San	San
sw2061B-ms98-a-0040	B.48	97.012125	97.372125		Jose	Jose
sw2061B-ms98-a-0040	B.48	97.372125	97.502125		and	and
sw2061B-ms98-a-0040	B.48	97.502125	97.672125		San	San
sw2061B-ms98-a-0040	B.48	97.672125	98.264750		Francisco	Francisco
sw2061B-ms98-a-0040	B.50	98.264750	98.554125		[silence]	[silence]
sw2061B-ms98-a-0041	B.50	98.554125	98.954125		[silence]	[silence]
sw2061B-ms98-a-0041	B.50	98.954125	99.044125		And	and
sw2061B-ms98-a-0041	B.50	99.044125	99.164125		it's	it's
sw2061B-ms98-a-0041	B.50	99.164125	99.314125		only	only
sw2061B-ms98-a-0041	B.50	99.314125	99.344125		a	a
sw2061B-ms98-a-0041	B.50	99.344125	99.634125		couple	couple
sw2061B-ms98-a-0041	B.50	99.634125	99.694125		of	of
sw2061B-ms98-a-0041	B.50	99.694125	99.844125		hours	hours
sw2061B-ms98-a-0041	B.50	99.844125	100.104125		away	away
sw2061B-ms98-a-0041	B.50	100.104125	100.274125		or	or
sw2061B-ms98-a-0041	B.50	100.274125	100.304125		a	a
sw2061B-ms98-a-0041	B.50	100.304125	100.474125		hour	hour
sw2061B-ms98-a-0041	B.50	100.474125	100.704125		away	away
sw2061B-ms98-a-0041	B.50	100.704125	100.794125		to	to
sw2061B-ms98-a-0041	B.50	100.794125	100.924125		a	a
sw2061B-ms98-a-0041	B.50	100.924125	100.984125		you	you
sw2061B-ms98-a-0041	B.50	100.984125	101.064125		know	know
sw2061B-ms98-a-0041	B.50	101.064125	101.204125		to	to
sw2061B-ms98-a-0041	B.50	101.204125	101.234125		a	a
sw2061B-ms98-a-0041	B.50	101.234125	101.514125		large	large
sw2061B-ms98-a-0041	B.50	101.514125	101.859000		city	city
sw2061B-ms98-a-0041	B.52	101.859000	102.100000		[silence]	[silence]
sw2061B-ms98-a-0042	B.52	102.100000	103.318500		[silence]	[silence]
sw2061B-ms98-a-0043	B.52	103.318500	103.658500		[silence]	[silence]
sw2061B-ms98-a-0043	B.52	103.658500	103.868500		No	no
sw2061B-ms98-a-0043	B.52	103.868500	103.968500		no	no
sw2061B-ms98-a-0043	B.52	103.968500	104.038500		I	i
sw2061B-ms98-a-0043	B.52	104.038500	104.168500		go	go
sw2061B-ms98-a-0043	B.52	104.168500	104.258500		to	to
sw2061B-ms98-a-0043	B.52	104.258500	104.517750		the	the
sw2061B-ms98-a-0043	B.52	104.517750	104.608125		[silence]	[silence]
sw2061B-ms98-a-0043	B.52	104.608125	104.728500		it's	it's
sw2061B-ms98-a-0043	B.52	104.728500	104.808500		the	the
sw2061B-ms98-a-0043	B.52	104.808500	105.168500		naval	Naval
sw2061B-ms98-a-0043	B.52	105.168500	105.798500		postgraduate	Postgraduate
sw2061B-ms98-a-0043	B.52	105.798500	106.058500		school	school
sw2061B-ms98-a-0043	B.52	106.058500	106.148500		out	out
sw2061B-ms98-a-0043	B.52	106.148500	106.348500		here	here
sw2061B-ms98-a-0043	B.56	106.348500	106.852375		[silence]	[silence]
sw2061B-ms98-a-0044	B.56	106.852375	109.479875		[silence]	[silence]
sw2061B-ms98-a-0044	B.56	109.479875	109.793125		[noise]	[noise]
sw2061B-ms98-a-0044	B.56	109.793125	111.472250		[silence]	[silence]
sw2061B-ms98-a-0045	B.56	111.472250	111.882250		[silence]	[silence]
sw2061B-ms98-a-0045	B.56	111.882250	112.282250	<SUB>	Uh-huh	um-hum
sw2061B-ms98-a-0045	B.58	112.282250	112.655375		[silence]	[silence]
sw2061B-ms98-a-0046	B.58	112.655375	118.016625		[silence]	[silence]
sw2061B-ms98-a-0047	B.58	118.016625	118.536625		[silence]	[silence]
sw2061B-ms98-a-0047	B.58	118.536625	118.872125		Uh-huh	uh-huh
sw2061B-ms98-a-0047	B.60	118.872125	119.385375		[silence]	[silence]
sw2061B-ms98-a-0048	B.60	119.385375	123.314375		[silence]	[silence]
sw2061B-ms98-a-0049	B.60	123.314375	123.794375		[silence]	[silence]
sw2061B-ms98-a-0049	B.60	123.794375	124.114375		Yeah	yeah
sw2061B-ms98-a-0049	B.62	124.114375	124.495375		[silence]	[silence]
sw2061B-ms98-a-0050	B.62	124.495375	124.875375		[silence]	[silence]
sw2061B-ms98-a-0050	B.62	124.875375	124.985375		Well	well
sw2061B-ms98-a-0050	B.62	124.985375	125.125375		that's	that's
sw2061B-ms98-a-0050	B.62	125.125375	125.225375		what	what
sw2061B-ms98-a-0050	B.62	125.225375	125.374250		they	they
sw2061B-ms98-a-0050	B.62	125.374250	125.547875		look	look
sw2061B-ms98-a-0050	B.62	125.547875	125.937375		for	for
sw2061B-ms98-a-0050	B.62	125.937375	126.148250		Whether	whether
sw2061B-ms98-a-0050	B.62	126.148250	126.215625		or	or
sw2061B-ms98-a-0050	B.62	126.215625	126.325375		not	not
sw2061B-ms98-a-0050	B.62	126.325375	126.435375		they	they
sw2061B-ms98-a-0050	B.62	126.435375	126.645375		get	get
sw2061B-ms98-a-0050	B.62	126.645375	126.705375		it	it
sw2061B-ms98-a-0050	B.62	126.705375	126.835375	<SUB>	is	it's
sw2061B-ms98-a-0050	B.62	126.835375	127.025375		hard	hard
sw2061B-ms98-a-0050	B.62	127.025375	127.085375		to	to
sw2061B-ms98-a-0050	B.62	127.085375	127.310750		say	say
sw2061B-ms98-a-0050	B.64	127.310750	128.114250		[noise]	[noise]
sw2061B-ms98-a-0050	B.64	128.114250	128.209500		[silence]	[silence]
sw2061B-ms98-a-0051	B.64	128.209500	129.724375		[silence]	[silence]
sw2061B-ms98-a-0052	B.64	129.724375	130.284375		[silence]	[silence]
sw2061B-ms98-a-0052	B.64	130.284375	130.524375		Yeah	yeah
sw2061B-ms98-a-0052	B.68	130.524375	131.048000		[silence]	[silence]
sw2061B-ms98-a-0053	B.68	131.048000	135.481625		[silence]	[silence]
sw2061B-ms98-a-0054	B.68	135.481625	136.081625		[silence]	[silence]
sw2061B-ms98-a-0054	B.68	136.081625	136.337000		Yeah	yeah
sw2061B-ms98-a-0054	B.68	136.337000	136.559000		[silence]	[silence]
sw2061B-ms98-a-0054	B.68	136.559000	136.758500		It's	it's
sw2061B-ms98-a-0054	B.68	136.758500	137.001625		pretty	pretty
sw2061B-ms98-a-0054	B.68	137.001625	137.211625		tough	tough
sw2061B-ms98-a-0054	B.68	137.211625	137.561625		[silence]	[silence]
sw2061B-ms98-a-0054	B.68	137.561625	137.741625		It's	it's
sw2061B-ms98-a-0054	B.68	137.741625	137.981625		pretty	pretty
sw2061B-ms98-a-0054	B.68	137.981625	138.261625		tough	tough
sw2061B-ms98-a-0054	B.68	138.261625	138.371625		I	i
sw2061B-ms98-a-0054	B.68	138.371625	138.471625	<DEL>	---	mean
sw2061B-ms98-a-0054	B.68	138.471625	138.501625		uh	uh
sw2061B-ms98-a-0054	B.68	138.501625	138.641625		let's	let's
sw2061B-ms98-a-0054	B.68	138.641625	138.891625		face	face
sw2061B-ms98-a-0054	B.68	138.891625	138.951625		it	it
sw2061B-ms98-a-0054	B.68	138.951625	139.151625		you	you
sw2061B-ms98-a-0054	B.68	139.151625	139.292500		know	know
sw2061B-ms98-a-0054	B.68	139.292500	139.763375		[silence]	[silence]
sw2061B-ms98-a-0054	B.68	139.763375	140.141625		And	and
sw2061B-ms98-a-0054	B.68	140.141625	140.421625		[silence]	[silence]
sw2061B-ms98-a-0054	B.68	140.421625	140.481625		you	you
sw2061B-ms98-a-0054	B.68	140.481625	140.581625		know	know
sw2061B-ms98-a-0054	B.68	140.581625	140.831625	<SUB>	I	are
sw2061B-ms98-a-0054	B.68	140.831625	141.031625		you	you
sw2061B-ms98-a-0054	B.68	141.031625	141.031625	<INS>	know	---
sw2061B-ms98-a-0054	B.68	141.031625	141.101625		[vocalized-noise]	[vocalized-noise]
sw2061B-ms98-a-0054	B.68	141.101625	141.271625		did	did
sw2061B-ms98-a-0054	B.68	141.271625	141.514125		the	the
sw2061B-ms98-a-0054	B.68	141.514125	141.732625		[silence]	[silence]
sw2061B-ms98-a-0054	B.68	141.732625	141.828375		you	you
sw2061B-ms98-a-0054	B.68	141.828375	141.891625		know	know
sw2061B-ms98-a-0054	B.68	141.891625	141.991625		as	as
sw2061B-ms98-a-0054	B.68	141.991625	142.221625		far	far
sw2061B-ms98-a-0054	B.68	142.221625	142.431625		as	as
sw2061B-ms98-a-0054	B.68	142.431625	142.561625		I	i
sw2061B-ms98-a-0054	B.68	142.561625	142.871625		found	found
sw2061B-ms98-a-0054	B.68	142.871625	143.001625		it	it
sw2061B-ms98-a-0054	B.68	143.001625	143.111625		[silence]	[silence]
sw2061B-ms98-a-0054	B.68	143.111625	143.191625		a	a
sw2061B-ms98-a-0054	B.68	143.191625	143.381625		lot	lot
sw2061B-ms98-a-0054	B.68	143.381625	143.441625		of	of
sw2061B-ms98-a-0054	B.68	143.441625	143.651625		times	times
sw2061B-ms98-a-0054	B.68	143.651625	143.901625		with	with
sw2061B-ms98-a-0054	B.68	143.901625	144.151625		regards	regards
sw2061B-ms98-a-0054	B.68	144.151625	144.231625		to	to
sw2061B-ms98-a-0054	B.68	144.231625	144.781625		education	education
sw2061B-ms98-a-0054	B.68	144.781625	144.871625		you	you
sw2061B-ms98-a-0054	B.68	144.871625	145.001625		know	know
sw2061B-ms98-a-0054	B.68	145.001625	145.071625		the	the
sw2061B-ms98-a-0054	B.68	145.071625	145.441625		school	school
sw2061B-ms98-a-0054	B.68	145.441625	145.561625		only	only
sw2061B-ms98-a-0054	B.68	145.561625	145.801625		takes	takes
sw2061B-ms98-a-0054	B.68	145.801625	145.881625		you	you
sw2061B-ms98-a-0054	B.68	145.881625	146.091625		so	so
sw2061B-ms98-a-0054	B.68	146.091625	146.451625		far	far
sw2061B-ms98-a-0054	B.68	146.451625	146.561625		you	you
sw2061B-ms98-a-0054	B.68	146.561625	146.701625		know	know
sw2061B-ms98-a-0054	B.68	146.701625	146.851625		It's	it's
sw2061B-ms98-a-0054	B.68	146.851625	147.001625		what	what
sw2061B-ms98-a-0054	B.68	147.001625	147.151625		you	you
sw2061B-ms98-a-0054	B.68	147.151625	147.396250		do	do
sw2061B-ms98-a-0054	B.70	147.396250	147.723125		[silence]	[silence]
sw2061B-ms98-a-0055	B.70	147.723125	148.293125		[silence]	[silence]
sw2061B-ms98-a-0055	B.70	148.293125	148.423125		You	you
sw2061B-ms98-a-0055	B.70	148.423125	148.631000		know	know
sw2061B-ms98-a-0055	B.70	148.631000	149.073125		So	so
sw2061B-ms98-a-0055	B.70	149.073125	149.347375		uh	uh
sw2061B-ms98-a-0055	B.70	149.347375	149.897375		[silence]	[silence]
sw2061B-ms98-a-0055	B.70	149.897375	150.012250		I	i
sw2061B-ms98-a-0055	B.70	150.012250	150.143125		don't	don't
sw2061B-ms98-a-0055	B.70	150.143125	150.324500		lose	lose
sw2061B-ms98-a-0055	B.70	150.324500	150.501500		any	any
sw2061B-ms98-a-0055	B.70	150.501500	150.793125		sleep	sleep
sw2061B-ms98-a-0055	B.70	150.793125	151.173125		[silence]	[silence]
sw2061B-ms98-a-0055	B.70	151.173125	151.383125		sleep	sleep
sw2061B-ms98-a-0055	B.70	151.383125	151.553125		over	over
sw2061B-ms98-a-0055	B.70	151.553125	151.813125		stuff	stuff
sw2061B-ms98-a-0055	B.70	151.813125	152.003125		like	like
sw2061B-ms98-a-0055	B.70	152.003125	152.243125		that	that
sw2061B-ms98-a-0055	B.72	152.243125	152.677625		[silence]	[silence]
sw2061B-ms98-a-0056	B.72	152.677625	154.706750		[silence]	[silence]
sw2061B-ms98-a-0057	B.72	154.706750	154.946750		[silence]	[silence]
sw2061B-ms98-a-0057	B.72	154.946750	155.356750		Probably	probably
sw2061B-ms98-a-0057	B.72	155.356750	155.566750		not	not
sw2061B-ms98-a-0057	B.72	155.566750	155.776750		See	see
sw2061B-ms98-a-0057	B.72	155.776750	155.896750		I'm	i'm
sw2061B-ms98-a-0057	B.72	155.896750	155.986750		in	in
sw2061B-ms98-a-0057	B.72	155.986750	156.046750		the	the
sw2061B-ms98-a-0057	B.72	156.046750	156.456750		Navy	Navy
sw2061B-ms98-a-0057	B.74	156.456750	156.863375		[silence]	[silence]
sw2061B-ms98-a-0058	B.74	156.863375	157.183375		[silence]	[silence]
sw2061B-ms98-a-0058	B.74	157.183375	157.741375		And	and
sw2061B-ms98-a-0058	B.74	157.741375	158.056500		uh	uh
sw2061B-ms98-a-0058	B.74	158.056500	158.151125		you	you
sw2061B-ms98-a-0058	B.74	158.151125	158.238000		know	know
sw2061B-ms98-a-0058	B.74	158.238000	158.415000	<SUB>	most	unless
sw2061B-ms98-a-0058	B.74	158.415000	158.415000	<INS>	of	---
sw2061B-ms98-a-0058	B.74	158.415000	158.493375		the	the
sw2061B-ms98-a-0058	B.74	158.493375	158.783375		Navy	Navy
sw2061B-ms98-a-0058	B.74	158.783375	159.093375		funds	funds
sw2061B-ms98-a-0058	B.74	159.093375	159.193375	<SUB>	that	it
sw2061B-ms98-a-0058	B.74	159.193375	159.243375		I	i
sw2061B-ms98-a-0058	B.74	159.243375	159.713375		probably	probably
sw2061B-ms98-a-0058	B.74	159.713375	160.023375		won't	won't
sw2061B-ms98-a-0058	B.74	160.023375	160.213375		do	do
sw2061B-ms98-a-0058	B.74	160.213375	160.293375		it	it
sw2061B-ms98-a-0058	B.74	160.293375	160.844625		until	until
sw2061B-ms98-a-0058	B.74	160.844625	161.074375		I	i
sw2061B-ms98-a-0058	B.74	161.074375	161.223375		if	if
sw2061B-ms98-a-0058	B.74	161.223375	161.293375		I	i
sw2061B-ms98-a-0058	B.74	161.293375	161.523375		do	do
sw2061B-ms98-a-0058	B.74	161.523375	161.643375		do	do
sw2061B-ms98-a-0058	B.74	161.643375	161.703375		it	it
sw2061B-ms98-a-0058	B.74	161.703375	161.763375		it	it
sw2061B-ms98-a-0058	B.74	161.763375	161.863375		will	will
sw2061B-ms98-a-0058	B.74	161.863375	162.003375		be	be
sw2061B-ms98-a-0058	B.74	162.003375	162.293375		after	after
sw2061B-ms98-a-0058	B.74	162.293375	162.343375		I	i
sw2061B-ms98-a-0058	B.74	162.343375	162.513375		get	get
sw2061B-ms98-a-0058	B.74	162.513375	162.613375		out	out
sw2061B-ms98-a-0058	B.74	162.613375	162.683375		of	of
sw2061B-ms98-a-0058	B.74	162.683375	162.763375		the	the
sw2061B-ms98-a-0058	B.74	162.763375	163.103375		Navy	Navy
sw2061B-ms98-a-0058	B.76	163.103375	163.455000		[silence]	[silence]
sw2061B-ms98-a-0059	B.76	163.455000	164.584000		[silence]	[silence]
sw2061B-ms98-a-0060	B.76	164.584000	164.974000		[silence]	[silence]
sw2061B-ms98-a-0060	B.76	164.974000	165.154000		Oh	oh
sw2061B-ms98-a-0060	B.76	165.154000	165.474000		probably	probably
sw2061B-ms98-a-0060	B.76	165.474000	165.544000		be	be
sw2061B-ms98-a-0060	B.76	165.544000	165.744000		another	another
sw2061B-ms98-a-0060	B.76	165.744000	165.994000		twelve	twelve
sw2061B-ms98-a-0060	B.76	165.994000	166.406000		years	years
sw2061B-ms98-a-0060	B.78	166.406000	166.624750		[silence]	[silence]
sw2061B-ms98-a-0061	B.78	166.624750	167.874125		[silence]	[silence]
sw2061B-ms98-a-0062	B.78	167.874125	168.194125		[silence]	[silence]
sw2061B-ms98-a-0062	B.78	168.194125	168.294125		Oh	oh
sw2061B-ms98-a-0062	B.78	168.294125	168.394125		you	you
sw2061B-ms98-a-0062	B.78	168.394125	168.544125		know	know
sw2061B-ms98-a-0062	B.78	168.544125	168.604125		I	i
sw2061B-ms98-a-0062	B.78	168.604125	168.814125		like	like
sw2061B-ms98-a-0062	B.78	168.814125	168.934125		what	what
sw2061B-ms98-a-0062	B.78	168.934125	169.034125		I'm	i'm
sw2061B-ms98-a-0062	B.78	169.034125	169.314125		doing	doing
sw2061B-ms98-a-0062	B.78	169.314125	169.574125		right	right
sw2061B-ms98-a-0062	B.78	169.574125	169.714125		now	now
sw2061B-ms98-a-0062	B.80	169.714125	170.070625		[silence]	[silence]
sw2061B-ms98-a-0063	B.80	170.070625	171.233375		[silence]	[silence]
sw2061B-ms98-a-0064	B.80	171.233375	171.343375		[silence]	[silence]
sw2061B-ms98-a-0064	B.80	171.343375	171.603375		Excuse	excuse
sw2061B-ms98-a-0064	B.80	171.603375	171.794375		me	me
sw2061B-ms98-a-0064	B.82	171.794375	172.091875		[silence]	[silence]
sw2061B-ms98-a-0065	B.82	172.091875	173.641625		[silence]	[silence]
sw2061B-ms98-a-0066	B.82	173.641625	173.971625		[silence]	[silence]
sw2061B-ms98-a-0066	B.82	173.971625	174.091625		If	if
sw2061B-ms98-a-0066	B.82	174.091625	174.181625		they	they
sw2061B-ms98-a-0066	B.82	174.181625	174.341625		pay	pay
sw2061B-ms98-a-0066	B.82	174.341625	174.491625		for	for
sw2061B-ms98-a-0066	B.82	174.491625	174.531625		a	a
sw2061B-ms98-a-0066	B.82	174.531625	175.169250	<CONT>	P	PhD
sw2061B-ms98-a-0066	B.82	175.169250	175.169250	<CONT>	H	+++
sw2061B-ms98-a-0066	B.82	175.169250	175.169250	<CONT>	D	+++
sw2061B-ms98-a-0066	B.84	175.169250	175.464125		[silence]	[silence]
sw2061B-ms98-a-0067	B.84	175.464125	175.834125		[silence]	[silence]
sw2061B-ms98-a-0067	B.84	175.834125	176.064125		Nah	nah
sw2061B-ms98-a-0067	B.84	176.064125	176.174125		they	they
sw2061B-ms98-a-0067	B.84	176.174125	176.374125		won't	won't
sw2061B-ms98-a-0067	B.84	176.374125	176.524125		pay	pay
sw2061B-ms98-a-0067	B.84	176.524125	176.784125		for	for
sw2061B-ms98-a-0067	B.84	176.784125	176.874125		it	it
sw2061B-ms98-a-0067	B.84	176.874125	177.204125		[silence]	[silence]
sw2061B-ms98-a-0067	B.84	177.204125	177.424125		They've	they've
sw2061B-ms98-a-0067	B.84	177.424125	177.544125		I	i
sw2061B-ms98-a-0067	B.84	177.544125	177.754125		think	think
sw2061B-ms98-a-0067	B.84	177.754125	177.874125		they	they
sw2061B-ms98-a-0067	B.84	177.874125	178.084125		have	have
sw2061B-ms98-a-0067	B.84	178.084125	178.354125		maybe	maybe
sw2061B-ms98-a-0067	B.84	178.354125	178.574125		two	two
sw2061B-ms98-a-0067	B.84	178.574125	178.944125		people	people
sw2061B-ms98-a-0067	B.84	178.944125	178.984125		a	a
sw2061B-ms98-a-0067	B.84	178.984125	179.314125		year	year
sw2061B-ms98-a-0067	B.84	179.314125	179.494125		go	go
sw2061B-ms98-a-0067	B.84	179.494125	179.914125		[vocalized-noise]	[vocalized-noise]
sw2061B-ms98-a-0067	B.84	179.914125	180.054125		get	get
sw2061B-ms98-a-0067	B.84	180.054125	180.054125	<INS>	get	---
sw2061B-ms98-a-0067	B.84	180.054125	180.164125		their	their
sw2061B-ms98-a-0067	B.84	180.164125	180.872625	<CONT>	P	PhD
sw2061B-ms98-a-0067	B.84	180.872625	180.872625	<CONT>	H	+++
sw2061B-ms98-a-0067	B.84	180.872625	180.872625	<CONT>	D	+++
sw2061B-ms98-a-0067	B.86	180.872625	181.372875		[silence]	[silence]
sw2061B-ms98-a-0068	B.86	181.372875	184.927500		[silence]	[silence]
sw2061B-ms98-a-0069	B.86	184.927500	185.437500		[silence]	[silence]
sw2061B-ms98-a-0069	B.86	185.437500	185.709000		Yeah	yeah
sw2061B-ms98-a-0069	B.86	185.709000	186.101500		[silence]	[silence]
sw2061B-ms98-a-0069	B.86	186.101500	186.287500		They	they
sw2061B-ms98-a-0069	B.86	186.287500	186.767500		civilians	civilians
sw2061B-ms98-a-0069	B.86	186.767500	186.987500		or	or
sw2061B-ms98-a-0069	B.86	186.987500	187.057500		uh	uh
sw2061B-ms98-a-0069	B.86	187.057500	187.587500		military	military
sw2061B-ms98-a-0069	B.88	187.587500	187.994500		[silence]	[silence]
sw2061B-ms98-a-0070	B.88	187.994500	189.555500		[silence]	[silence]
sw2061B-ms98-a-0071	B.88	189.555500	190.105500		[silence]	[silence]
sw2061B-ms98-a-0071	B.88	190.105500	190.487375		Uh-huh	uh-huh
sw2061B-ms98-a-0071	B.90	190.487375	190.684250		[silence]	[silence]
sw2061B-ms98-a-0072	B.90	190.684250	191.115125		[silence]	[silence]
sw2061B-ms98-a-0072	B.90	191.115125	191.232000		[noise]	[noise]
sw2061B-ms98-a-0072	B.90	191.232000	191.976875		[silence]	[silence]
sw2061B-ms98-a-0073	B.90	191.976875	192.246875		[silence]	[silence]
sw2061B-ms98-a-0073	B.90	192.246875	192.616000		Uh-huh	uh-huh
sw2061B-ms98-a-0073	B.92	192.616000	192.996000		[silence]	[silence]
sw2061B-ms98-a-0074	B.92	192.996000	195.633500		[silence]	[silence]
sw2061B-ms98-a-0075	B.92	195.633500	196.123500		[silence]	[silence]
sw2061B-ms98-a-0075	B.92	196.123500	196.476125	<SUB>	Uh-huh	um-hum
sw2061B-ms98-a-0075	B.94	196.476125	196.975500		[silence]	[silence]
sw2061B-ms98-a-0076	B.94	196.975500	200.515625		[silence]	[silence]
sw2061B-ms98-a-0077	B.94	200.515625	201.075625		[silence]	[silence]
sw2061B-ms98-a-0077	B.94	201.075625	201.419125		Yeah	yeah
sw2061B-ms98-a-0077	B.96	201.419125	201.855125		[silence]	[silence]
sw2061B-ms98-a-0078	B.96	201.855125	203.734750		[silence]	[silence]
sw2061B-ms98-a-0079	B.96	203.734750	204.184750		[silence]	[silence]
sw2061B-ms98-a-0079	B.96	204.184750	204.506750	<SUB>	Uh-huh	um-hum
sw2061B-ms98-a-0079	B.98	204.506750	204.926375		[silence]	[silence]
sw2061B-ms98-a-0080	B.98	204.926375	206.340000		[silence]	[silence]
sw2061B-ms98-a-0081	B.98	206.340000	206.680000		[silence]	[silence]
sw2061B-ms98-a-0081	B.98	206.680000	206.962500		Yeah	yeah
sw2061B-ms98-a-0081	B.100	206.962500	207.350875		[silence]	[silence]
sw2061B-ms98-a-0082	B.100	207.350875	211.168500		[silence]	[silence]
sw2061B-ms98-a-0083	B.100	211.168500	211.658500		[silence]	[silence]
sw2061B-ms98-a-0083	B.100	211.658500	211.988250	<SUB>	Uh-huh	um-hum
sw2061B-ms98-a-0083	B.102	211.988250	212.351375		[silence]	[silence]
sw2061B-ms98-a-0084	B.102	212.351375	220.505875		[silence]	[silence]
sw2061B-ms98-a-0085	B.102	220.505875	220.865875		[silence]	[silence]
sw2061B-ms98-a-0085	B.102	220.865875	221.194500	<SUB>	Uh-huh	um-hum
sw2061B-ms98-a-0085	B.104	221.194500	221.559625		[silence]	[silence]
sw2061B-ms98-a-0086	B.104	221.559625	223.436125		[silence]	[silence]
sw2061B-ms98-a-0087	B.104	223.436125	223.836125		[silence]	[silence]
sw2061B-ms98-a-0087	B.104	223.836125	224.026125		[vocalized-noise]	[vocalized-noise]
sw2061B-ms98-a-0087	B.104	224.026125	224.395125		[silence]	[silence]
sw2061B-ms98-a-0088	B.104	224.395125	224.705125		[silence]	[silence]
sw2061B-ms98-a-0088	B.104	224.705125	224.865125		Well	well
sw2061B-ms98-a-0088	B.104	224.865125	224.895125		a	a
sw2061B-ms98-a-0088	B.104	224.895125	225.095125		lot	lot
sw2061B-ms98-a-0088	B.104	225.095125	225.165125		of	of
sw2061B-ms98-a-0088	B.104	225.165125	225.475125		times	times
sw2061B-ms98-a-0088	B.104	225.475125	225.656750		it's	it's
sw2061B-ms98-a-0088	B.104	225.656750	225.777375		you	you
sw2061B-ms98-a-0088	B.104	225.777375	226.061875		know	know
sw2061B-ms98-a-0088	B.104	226.061875	226.169625		[silence]	[silence]
sw2061B-ms98-a-0088	B.104	226.169625	226.297750		a	a
sw2061B-ms98-a-0088	B.104	226.297750	226.485125		lot	lot
sw2061B-ms98-a-0088	B.104	226.485125	226.545125		of	of
sw2061B-ms98-a-0088	B.104	226.545125	226.715125		times	times
sw2061B-ms98-a-0088	B.104	226.715125	226.865125		it's	it's
sw2061B-ms98-a-0088	B.104	226.865125	227.055125		not	not
sw2061B-ms98-a-0088	B.104	227.055125	227.115125		the	the
sw2061B-ms98-a-0088	B.104	227.115125	227.375125		money	money
sw2061B-ms98-a-0088	B.104	227.375125	227.506250		that	that
sw2061B-ms98-a-0088	B.104	227.506250	227.672000		keeps	keeps
sw2061B-ms98-a-0088	B.104	227.672000	227.925125		pe-	peo[ple]-
sw2061B-ms98-a-0088	B.104	227.925125	228.055125		that	that
sw2061B-ms98-a-0088	B.104	228.055125	228.275125		keeps	keeps
sw2061B-ms98-a-0088	B.104	228.275125	228.827625		people	people
sw2061B-ms98-a-0088	B.104	228.827625	229.049500		[silence]	[silence]
sw2061B-ms98-a-0089	B.104	229.049500	229.259500		[silence]	[silence]
sw2061B-ms98-a-0089	B.104	229.259500	229.349500	<SUB>	in	you
sw2061B-ms98-a-0089	B.106	229.349500	229.409500	<DEL>	---	know
sw2061B-ms98-a-0089	B.106	229.409500	229.579500		They	they
sw2061B-ms98-a-0089	B.106	229.579500	229.699500		they	they
sw2061B-ms98-a-0089	B.106	229.699500	229.909500		like	like
sw2061B-ms98-a-0089	B.106	229.909500	230.019500		what	what
sw2061B-ms98-a-0089	B.106	230.019500	230.139500		they're	they're
sw2061B-ms98-a-0089	B.106	230.139500	230.539500		doing	doing
sw2061B-ms98-a-0089	B.106	230.539500	230.659500		They	they
sw2061B-ms98-a-0089	B.106	230.659500	230.879500		you	you
sw2061B-ms98-a-0089	B.106	230.879500	231.099500		know	know
sw2061B-ms98-a-0089	B.106	231.099500	231.219500		they	they
sw2061B-ms98-a-0089	B.106	231.219500	231.449500		feel	feel
sw2061B-ms98-a-0089	B.106	231.449500	231.609500		good	good
sw2061B-ms98-a-0089	B.106	231.609500	231.819500		about	about
sw2061B-ms98-a-0089	B.106	231.819500	231.959500		what	what
sw2061B-ms98-a-0089	B.106	231.959500	232.079500		they're	they're
sw2061B-ms98-a-0089	B.106	232.079500	232.379500		doing	doing
sw2061B-ms98-a-0089	B.106	232.379500	232.549500		That	that
sw2061B-ms98-a-0089	B.106	232.549500	232.729500		type	type
sw2061B-ms98-a-0089	B.106	232.729500	232.829500		of	of
sw2061B-ms98-a-0089	B.106	232.829500	233.009500		thing	thing
sw2061B-ms98-a-0089	B.106	233.009500	233.189500		It's	it's
sw2061B-ms98-a-0089	B.106	233.189500	233.584625		more	more
sw2061B-ms98-a-0089	B.108	233.584625	234.032375		[silence]	[silence]
sw2061B-ms98-a-0090	B.108	234.032375	234.228875		[silence]	[silence]
sw2061B-ms98-a-0090	B.108	234.228875	234.556250		[noise]	[noise]
sw2061B-ms98-a-0090	B.108	234.556250	235.041500		[silence]	[silence]
sw2061B-ms98-a-0090	B.108	235.041500	235.367750		[noise]	[noise]
sw2061B-ms98-a-0090	B.108	235.367750	236.425625		[silence]	[silence]
sw2061B-ms98-a-0090	B.108	236.425625	236.922250		[noise]	[noise]
sw2061B-ms98-a-0090	B.108	236.922250	237.665375		[silence]	[silence]
sw2061B-ms98-a-0090	B.108	237.665375	238.201000		[noise]	[noise]
sw2061B-ms98-a-0090	B.108	238.201000	238.999750		[silence]	[silence]
sw2061B-ms98-a-0091	B.108	238.999750	239.449750		[silence]	[silence]
sw2061B-ms98-a-0091	B.108	239.449750	239.750250	<SUB>	Uh-huh	um-hum
sw2061B-ms98-a-0091	B.110	239.750250	240.082750		[silence]	[silence]
sw2061B-ms98-a-0092	B.110	240.082750	240.422750		[silence]	[silence]
sw2061B-ms98-a-0092	B.110	240.422750	240.572750		Oh	oh
sw2061B-ms98-a-0092	B.110	240.572750	241.032750		easily	easily
sw2061B-ms98-a-0092	B.110	241.032750	241.172750		I'm	i'm
sw2061B-ms98-a-0092	B.110	241.172750	241.573625		sure	sure
sw2061B-ms98-a-0092	B.112	241.573625	241.893750		[silence]	[silence]
sw2061B-ms98-a-0093	B.112	241.893750	242.987250		[silence]	[silence]
sw2061B-ms98-a-0094	B.112	242.987250	243.165625		[silence]	[silence]
sw2061B-ms98-a-0094	B.112	243.165625	243.503250		No	no
sw2061B-ms98-a-0094	B.112	243.503250	243.932000		[silence]	[silence]
sw2061B-ms98-a-0094	B.112	243.932000	244.027250		Well	well
sw2061B-ms98-a-0094	B.112	244.027250	244.087250		it	it
sw2061B-ms98-a-0094	B.112	244.087250	244.377250		depends	depends
sw2061B-ms98-a-0094	B.112	244.377250	244.477250		on	on
sw2061B-ms98-a-0094	B.112	244.477250	244.677250		what	what
sw2061B-ms98-a-0094	B.112	244.677250	244.897250		rank	rank
sw2061B-ms98-a-0094	B.112	244.897250	245.037250		you	you
sw2061B-ms98-a-0094	B.112	245.037250	245.167250		are	are
sw2061B-ms98-a-0094	B.112	245.167250	245.257250		of	of
sw2061B-ms98-a-0094	B.112	245.257250	245.700625		course	course
sw2061B-ms98-a-0094	B.114	245.700625	246.289250		[silence]	[silence]
sw2061B-ms98-a-0095	B.114	246.289250	246.979250		[silence]	[silence]
sw2061B-ms98-a-0095	B.114	246.979250	247.149250	<DEL>	---	well
sw2061B-ms98-a-0095	B.114	247.149250	247.189250		I	i
sw2061B-ms98-a-0095	B.114	247.189250	247.369250		mean	mean
sw2061B-ms98-a-0095	B.114	247.369250	247.529250		like	like
sw2061B-ms98-a-0095	B.114	247.529250	247.559250		I	i
sw2061B-ms98-a-0095	B.114	247.559250	247.699250		say	say
sw2061B-ms98-a-0095	B.114	247.699250	247.779250		if	if
sw2061B-ms98-a-0095	B.114	247.779250	247.879250		you're	you're
sw2061B-ms98-a-0095	B.114	247.879250	247.979250		if	if
sw2061B-ms98-a-0095	B.114	247.979250	248.389250		you're	you're
sw2061B-ms98-a-0095	B.114	248.389250	248.479250		you	you
sw2061B-ms98-a-0095	B.114	248.479250	248.559250		know	know
sw2061B-ms98-a-0095	B.114	248.559250	248.659250		if	if
sw2061B-ms98-a-0095	B.114	248.659250	248.981500		you're	you're
sw2061B-ms98-a-0095	B.114	248.981500	249.113250		at	at
sw2061B-ms98-a-0095	B.114	249.113250	249.215375		an	an
sw2061B-ms98-a-0095	B.114	249.215375	249.419250		upper	upper
sw2061B-ms98-a-0095	B.114	249.419250	249.759250		level	level
sw2061B-ms98-a-0095	B.114	249.759250	249.839250		in	in
sw2061B-ms98-a-0095	B.114	249.839250	249.899250		the	the
sw2061B-ms98-a-0095	B.114	249.899250	250.189250		rank	rank
sw2061B-ms98-a-0095	B.114	250.189250	250.739250		category	category
sw2061B-ms98-a-0095	B.114	250.739250	250.799250		you	you
sw2061B-ms98-a-0095	B.114	250.799250	250.889250		know	know
sw2061B-ms98-a-0095	B.114	250.889250	251.019250		you're	you're
sw2061B-ms98-a-0095	B.114	251.019250	251.279250		probably	probably
sw2061B-ms98-a-0095	B.114	251.279250	251.549250		pulling	pulling
sw2061B-ms98-a-0095	B.114	251.549250	251.739250		down	down
sw2061B-ms98-a-0095	B.114	251.739250	251.979250		close	close
sw2061B-ms98-a-0095	B.114	251.979250	252.059250		to	to
sw2061B-ms98-a-0095	B.114	252.059250	252.349250		seventy	seventy
sw2061B-ms98-a-0095	B.114	252.349250	252.599250		grand	grand
sw2061B-ms98-a-0095	B.114	252.599250	252.629250		a	a
sw2061B-ms98-a-0095	B.114	252.629250	252.919250		year	year
sw2061B-ms98-a-0095	B.116	252.919250	253.480500		[silence]	[silence]
sw2061B-ms98-a-0096	B.116	253.480500	255.190250		[silence]	[silence]
sw2061B-ms98-a-0097	B.116	255.190250	255.510250		[silence]	[silence]
sw2061B-ms98-a-0097	B.116	255.510250	255.660250		Yeah	yeah
sw2061B-ms98-a-0097	B.116	255.660250	255.850250		Those	those
sw2061B-ms98-a-0097	B.116	255.850250	255.940250		are	are
sw2061B-ms98-a-0097	B.116	255.940250	256.120250		few	few
sw2061B-ms98-a-0097	B.116	256.120250	256.210250		and	and
sw2061B-ms98-a-0097	B.116	256.210250	256.380250		far	far
sw2061B-ms98-a-0097	B.116	256.380250	256.750250		between	between
sw2061B-ms98-a-0097	B.116	256.750250	256.950250		though	though
sw2061B-ms98-a-0097	B.120	256.950250	257.207250		[silence]	[silence]
sw2061B-ms98-a-0098	B.120	257.207250	257.347250		[silence]	[silence]
sw2061B-ms98-a-0098	B.120	257.347250	258.070000		[laughter]	[laughter]
sw2061B-ms98-a-0098	B.120	258.070000	258.387375		[silence]	[silence]
sw2061B-ms98-a-0099	B.120	258.387375	260.720000		[silence]	[silence]
sw2061B-ms98-a-0100	B.120	260.720000	261.370000		[silence]	[silence]
sw2061B-ms98-a-0100	B.120	261.370000	261.730000	<SUB>	Uh-huh	um-hum
sw2061B-ms98-a-0100	B.122	261.730000	262.264750		[silence]	[silence]
sw2061B-ms98-a-0101	B.122	262.264750	267.106125		[silence]	[silence]
sw2061B-ms98-a-0102	B.122	267.106125	267.746125		[silence]	[silence]
sw2061B-ms98-a-0102	B.122	267.746125	268.070125		Yeah	yeah
sw2061B-ms98-a-0102	B.122	268.070125	268.070125	<INS>	Since	---
sw2061B-ms98-a-0102	B.122	268.070125	268.176000		I	i
sw2061B-ms98-a-0102	B.122	268.176000	268.536125		imagine	imagine
sw2061B-ms98-a-0102	B.122	268.536125	268.626125		it's	it's
sw2061B-ms98-a-0102	B.122	268.626125	268.826125	<SUB>	fairly	really
sw2061B-ms98-a-0102	B.122	268.826125	269.326125		competitive	competitive
sw2061B-ms98-a-0102	B.124	269.326125	269.840750		[silence]	[silence]
sw2061B-ms98-a-0103	B.124	269.840750	278.522125		[silence]	[silence]
sw2061B-ms98-a-0104	B.124	278.522125	279.002125		[silence]	[silence]
sw2061B-ms98-a-0104	B.124	279.002125	279.311875	<SUB>	Uh-huh	um-hum
sw2061B-ms98-a-0104	B.126	279.311875	279.826125		[silence]	[silence]
sw2061B-ms98-a-0105	B.126	279.826125	282.814250		[silence]	[silence]
sw2061B-ms98-a-0105	B.126	282.814250	282.978250		[noise]	[noise]
sw2061B-ms98-a-0105	B.126	282.978250	283.008375		[silence]	[silence]
sw2061B-ms98-a-0106	B.126	283.008375	283.068375		[silence]	[silence]
sw2061B-ms98-a-0106	B.126	283.068375	283.356875		Uh-huh	uh-huh
sw2061B-ms98-a-0106	B.128	283.356875	283.889500		[silence]	[silence]
sw2061B-ms98-a-0107	B.128	283.889500	290.201375		[silence]	[silence]
sw2061B-ms98-a-0108	B.128	290.201375	290.741375		[silence]	[silence]
sw2061B-ms98-a-0108	B.128	290.741375	291.121375		Yeah	yeah
sw2061B-ms98-a-0108	B.134	291.121375	291.779500		[silence]	[silence]
sw2061B-ms98-a-0109	B.134	291.779500	297.049250		[silence]	[silence]
sw2061B-ms98-a-0110	B.134	297.049250	297.627500		[silence]	[silence]
sw2061B-ms98-a-0110	B.134	297.627500	298.527500		[laughter]	[laughter]
sw2061B-ms98-a-0110	B.134	298.527500	298.865500		[silence]	[silence]
sw2061B-ms98-a-0111	B.134	298.865500	303.223500		[silence]	[silence]
sw2061B-ms98-a-0112	B.134	303.223500	303.737625		[silence]	[silence]
sw2061B-ms98-a-0112	B.134	303.737625	305.173500		[laughter]	[laughter]
sw2061B-ms98-a-0112	B.134	305.173500	305.389750		[silence]	[silence]
sw2061B-ms98-a-0113	B.134	305.389750	306.179750		[silence]	[silence]
sw2061B-ms98-a-0113	B.134	306.179750	306.504125		Yeah	yeah
sw2061B-ms98-a-0113	B.136	306.504125	306.943000		[silence]	[silence]
sw2061B-ms98-a-0114	B.136	306.943000	308.234750		[silence]	[silence]
sw2061B-ms98-a-0115	B.136	308.234750	308.704750		[silence]	[silence]
sw2061B-ms98-a-0115	B.136	308.704750	308.794750		Too	too
sw2061B-ms98-a-0115	B.136	308.794750	308.944750		many	many
sw2061B-ms98-a-0115	B.136	308.944750	309.234750		chiefs	chiefs
sw2061B-ms98-a-0115	B.136	309.234750	309.324750		and	and
sw2061B-ms98-a-0115	B.136	309.324750	309.444750		not	not
sw2061B-ms98-a-0115	B.136	309.444750	309.664750		enough	enough
sw2061B-ms98-a-0115	B.136	309.664750	310.084750		Indians	Indians
sw2061B-ms98-a-0115	B.138	310.084750	310.273250		[silence]	[silence]
sw2061B-ms98-a-0116	B.138	310.273250	310.573250		[silence]	[silence]
sw2061B-ms98-a-0116	B.138	310.573250	310.693250		Yeah	yeah
sw2061B-ms98-a-0116	B.138	310.693250	311.043250	<SUB>	I	oh
sw2061B-ms98-a-0116	B.138	311.043250	311.043250	<INS>	don't	---
sw2061B-ms98-a-0116	B.138	311.043250	311.043250	<INS>	know	---
sw2061B-ms98-a-0116	B.138	311.043250	311.193250		that	that
sw2061B-ms98-a-0116	B.138	311.193250	311.303250		can	can
sw2061B-ms98-a-0116	B.138	311.303250	311.393250		be	be
sw2061B-ms98-a-0116	B.138	311.393250	311.633250		that	that
sw2061B-ms98-a-0116	B.138	311.633250	311.893250		that	that
sw2061B-ms98-a-0116	B.138	311.893250	312.023250		can	can
sw2061B-ms98-a-0116	B.138	312.023250	312.243250		really	really
sw2061B-ms98-a-0116	B.138	312.243250	312.453250		slow	slow
sw2061B-ms98-a-0116	B.138	312.453250	312.533250		you	you
sw2061B-ms98-a-0116	B.138	312.533250	312.833250		down	down
sw2061B-ms98-a-0116	B.140	312.833250	313.338500		[silence]	[silence]
sw2061B-ms98-a-0117	B.140	313.338500	315.073500		[silence]	[silence]
sw2061B-ms98-a-0118	B.140	315.073500	315.443500		[silence]	[silence]
sw2061B-ms98-a-0118	B.140	315.443500	315.660500	<DEL>	---	yeah
sw2061B-ms98-a-0118	B.140	315.660500	316.069375		[silence]	[silence]
sw2061B-ms98-a-0119	B.140	316.069375	317.822125		[silence]	[silence]
sw2061B-ms98-a-0120	B.140	317.822125	318.442125		[silence]	[silence]
sw2061B-ms98-a-0120	B.140	318.442125	318.607500		I	i
sw2061B-ms98-a-0120	B.140	318.607500	318.802125		didn't	didn't
sw2061B-ms98-a-0120	B.140	318.802125	319.172125		realize	realize
sw2061B-ms98-a-0120	B.140	319.172125	319.462125		that	that
sw2061B-ms98-a-0120	B.142	319.462125	319.919625		[silence]	[silence]
sw2061B-ms98-a-0121	B.142	319.919625	321.929375		[silence]	[silence]
sw2061B-ms98-a-0121	B.142	321.929375	322.108875		[noise]	[noise]
sw2061B-ms98-a-0121	B.142	322.108875	323.586875		[silence]	[silence]
sw2061B-ms98-a-0122	B.142	323.586875	324.055750		[silence]	[silence]
sw2061B-ms98-a-0122	B.142	324.055750	324.351500	<SUB>	Uh-huh	um-hum
sw2061B-ms98-a-0122	B.144	324.351500	324.620000		[silence]	[silence]
sw2061B-ms98-a-0123	B.144	324.620000	328.968625		[silence]	[silence]
sw2061B-ms98-a-0124	B.144	328.968625	329.338625		[silence]	[silence]
sw2061B-ms98-a-0124	B.144	329.338625	329.602000	<DEL>	---	yeah
sw2061B-ms98-a-0124	B.144	329.602000	329.680375		[silence]	[silence]
sw2061B-ms98-a-0124	B.144	329.680375	329.868625		push	push
sw2061B-ms98-a-0124	B.144	329.868625	330.148625		paper	paper
sw2061B-ms98-a-0124	B.144	330.148625	330.358625		around	around
sw2061B-ms98-a-0124	B.146	330.358625	330.876125		[silence]	[silence]
sw2061B-ms98-a-0125	B.146	330.876125	335.088375		[silence]	[silence]
sw2061B-ms98-a-0126	B.146	335.088375	335.588375		[silence]	[silence]
sw2061B-ms98-a-0126	B.146	335.588375	335.959750		Uh-huh	uh-huh
sw2061B-ms98-a-0126	B.150	335.959750	336.480500		[silence]	[silence]
sw2061B-ms98-a-0127	B.150	336.480500	341.373875		[silence]	[silence]
sw2061B-ms98-a-0127	B.150	341.373875	341.841125		[noise]	[noise]
sw2061B-ms98-a-0127	B.150	341.841125	351.079000		[silence]	[silence]
sw2061B-ms98-a-0128	B.150	351.079000	351.609000		[silence]	[silence]
sw2061B-ms98-a-0128	B.150	351.609000	352.019000	<SUB>	Uh-huh	um-hum
sw2061B-ms98-a-0128	B.152	352.019000	352.436000		[silence]	[silence]
sw2061B-ms98-a-0129	B.152	352.436000	360.458125		[silence]	[silence]
sw2061B-ms98-a-0130	B.152	360.458125	360.868125		[silence]	[silence]
sw2061B-ms98-a-0130	B.152	360.868125	361.188125		Yeah	yeah
sw2061B-ms98-a-0130	B.152	361.188125	361.813500		[silence]	[silence]
sw2061B-ms98-a-0131	B.152	361.813500	362.663500		[silence]	[silence]
sw2061B-ms98-a-0131	B.152	362.663500	362.792875		Oh	oh
sw2061B-ms98-a-0131	B.152	362.792875	362.905125		yeah	yeah
sw2061B-ms98-a-0131	B.152	362.905125	363.053500		They've	they've
sw2061B-ms98-a-0131	B.152	363.053500	363.283500		got	got
sw2061B-ms98-a-0131	B.152	363.283500	363.323500		a	a
sw2061B-ms98-a-0131	B.152	363.323500	363.483500		they've	they've
sw2061B-ms98-a-0131	B.152	363.483500	363.663500		got	got
sw2061B-ms98-a-0131	B.152	363.663500	363.733500		[silence]	[silence]
sw2061B-ms98-a-0131	B.152	363.733500	364.303500		basically	basically
sw2061B-ms98-a-0131	B.152	364.303500	364.653500		a	a
sw2061B-ms98-a-0131	B.152	364.653500	364.713500		uh	uh
sw2061B-ms98-a-0131	B.152	364.713500	364.823500		you	you
sw2061B-ms98-a-0131	B.152	364.823500	365.023500		know	know
sw2061B-ms98-a-0131	B.152	365.023500	365.053500		a	a
sw2061B-ms98-a-0131	B.152	365.053500	365.353500		lock	lock
sw2061B-ms98-a-0131	B.152	365.353500	365.443500		on	on
sw2061B-ms98-a-0131	B.152	365.443500	365.513500		a	a
sw2061B-ms98-a-0131	B.152	365.513500	365.703500		lot	lot
sw2061B-ms98-a-0131	B.152	365.703500	365.763500		of	of
sw2061B-ms98-a-0131	B.152	365.763500	365.823500		the	the
sw2061B-ms98-a-0131	B.152	365.823500	366.303500		market	market
sw2061B-ms98-a-0131	B.154	366.303500	366.502750		[silence]	[silence]
sw2061B-ms98-a-0132	B.154	366.502750	366.732750		[silence]	[silence]
sw2061B-ms98-a-0132	B.154	366.732750	367.012750		And	and
sw2061B-ms98-a-0132	B.154	367.012750	367.042750		a	a
sw2061B-ms98-a-0132	B.154	367.042750	367.202750		lot	lot
sw2061B-ms98-a-0132	B.154	367.202750	367.262750		of	of
sw2061B-ms98-a-0132	B.154	367.262750	367.452750		times	times
sw2061B-ms98-a-0132	B.154	367.452750	367.652750		you	you
sw2061B-ms98-a-0132	B.154	367.652750	367.952750		figure	figure
sw2061B-ms98-a-0132	B.154	367.952750	368.142750		you	you
sw2061B-ms98-a-0132	B.154	368.142750	368.212750		know	know
sw2061B-ms98-a-0132	B.154	368.212750	368.352750		with	with
sw2061B-ms98-a-0132	B.154	368.352750	368.432750		the	the
sw2061B-ms98-a-0132	B.154	368.432750	368.842750		support	support
sw2061B-ms98-a-0132	B.154	368.842750	368.969375		that	that
sw2061B-ms98-a-0132	B.154	368.969375	369.112500		they	they
sw2061B-ms98-a-0132	B.154	369.112500	369.572750		provide	provide
sw2061B-ms98-a-0132	B.154	369.572750	370.122750		[silence]	[silence]
sw2061B-ms98-a-0132	B.154	370.122750	370.182750		you	you
sw2061B-ms98-a-0132	B.154	370.182750	370.336625		know	know
sw2061B-ms98-a-0132	B.154	370.336625	370.630375		[silence]	[silence]
sw2061B-ms98-a-0132	B.154	370.630375	370.962750		people	people
sw2061B-ms98-a-0132	B.154	370.962750	371.312750		generally	generally
sw2061B-ms98-a-0132	B.154	371.312750	371.462750		go	go
sw2061B-ms98-a-0132	B.154	371.462750	371.632750		with	with
sw2061B-ms98-a-0132	B.154	371.632750	371.782750		that	that
sw2061B-ms98-a-0132	B.154	371.782750	372.032750		because	because
sw2061B-ms98-a-0132	B.154	372.032750	372.142750		they	they
sw2061B-ms98-a-0132	B.154	372.142750	372.542750		figure	figure
sw2061B-ms98-a-0132	B.154	372.542750	372.742750		that	that
sw2061B-ms98-a-0132	B.154	372.742750	372.925625		the	the
sw2061B-ms98-a-0132	B.154	372.925625	373.083875		you	you
sw2061B-ms98-a-0132	B.154	373.083875	373.122750	<SUB>	know	y[ou]-
sw2061B-ms98-a-0132	B.154	373.122750	373.202750		you	you
sw2061B-ms98-a-0132	B.154	373.202750	373.502750		probably	probably
sw2061B-ms98-a-0132	B.154	373.502750	373.642750		won't	won't
sw2061B-ms98-a-0132	B.154	373.642750	373.782750		get	get
sw2061B-ms98-a-0132	B.154	373.782750	374.082750		fired	fired
sw2061B-ms98-a-0132	B.154	374.082750	374.212750		for	for
sw2061B-ms98-a-0132	B.154	374.212750	374.432750		getting	getting
sw2061B-ms98-a-0132	B.154	374.432750	374.822750	<CONT>	I	IBM
sw2061B-ms98-a-0132	B.154	374.822750	374.822750	<CONT>	B	+++
sw2061B-ms98-a-0132	B.154	374.822750	374.822750	<CONT>	M	+++
sw2061B-ms98-a-0132	B.154	374.822750	375.283500		material	material
sw2061B-ms98-a-0132	B.154	375.283500	375.769375		[silence]	[silence]
sw2061B-ms98-a-0132	B.154	375.769375	375.982750		Where's	where's
sw2061B-ms98-a-0132	B.154	375.982750	376.072750		if	if
sw2061B-ms98-a-0132	B.154	376.072750	376.132750		you	you
sw2061B-ms98-a-0132	B.154	376.132750	376.402750		try	try
sw2061B-ms98-a-0132	B.154	376.402750	376.762750		something	something
sw2061B-ms98-a-0132	B.154	376.762750	377.211250		different	different
sw2061B-ms98-a-0132	B.154	377.211250	377.504125		[silence]	[silence]
sw2061B-ms98-a-0133	B.154	377.504125	377.954125		[silence]	[silence]
sw2061B-ms98-a-0133	B.154	377.954125	378.154125		they'll	they'll
sw2061B-ms98-a-0133	B.156	378.154125	378.584125		[silence]	[silence]
sw2061B-ms98-a-0133	B.156	378.584125	378.694125		they'll	they'll
sw2061B-ms98-a-0133	B.156	378.694125	378.874125		say	say
sw2061B-ms98-a-0133	B.156	378.874125	379.054125		yeah	yeah
sw2061B-ms98-a-0133	B.156	379.054125	379.224125		why	why
sw2061B-ms98-a-0133	B.156	379.224125	379.414125		didn't	didn't
sw2061B-ms98-a-0133	B.156	379.414125	379.504125		you	you
sw2061B-ms98-a-0133	B.156	379.504125	379.744125		buy	buy
sw2061B-ms98-a-0133	B.156	379.744125	379.894125		why	why
sw2061B-ms98-a-0133	B.156	379.894125	380.104125		didn't	didn't
sw2061B-ms98-a-0133	B.156	380.104125	380.164125		you	you
sw2061B-ms98-a-0133	B.156	380.164125	380.314125		try	try
sw2061B-ms98-a-0133	B.156	380.314125	380.664125		something	something
sw2061B-ms98-a-0133	B.156	380.664125	380.984125		more	more
sw2061B-ms98-a-0133	B.156	380.984125	381.404125		mainline	mainline
sw2061B-ms98-a-0133	B.158	381.404125	381.695250		[silence]	[silence]
sw2061B-ms98-a-0134	B.158	381.695250	383.337000		[silence]	[silence]
sw2061B-ms98-a-0134	B.158	383.337000	383.632750		[noise]	[noise]
sw2061B-ms98-a-0134	B.158	383.632750	383.657250		[silence]	[silence]
sw2061B-ms98-a-0135	B.158	383.657250	383.737250		[silence]	[silence]
sw2061B-ms98-a-0135	B.158	383.737250	384.037250		No	no
sw2061B-ms98-a-0135	B.160	384.037250	384.350875		[silence]	[silence]
sw2061B-ms98-a-0136	B.160	384.350875	387.228375		[silence]	[silence]
sw2061B-ms98-a-0137	B.160	387.228375	387.768375		[silence]	[silence]
sw2061B-ms98-a-0137	B.160	387.768375	388.108375	<SUB>	Uh-huh	um-hum
sw2061B-ms98-a-0137	B.162	388.108375	388.513250		[silence]	[silence]
sw2061B-ms98-a-0138	B.162	388.513250	392.145125		[silence]	[silence]
sw2061B-ms98-a-0139	B.162	392.145125	392.665125		[silence]	[silence]
sw2061B-ms98-a-0139	B.162	392.665125	393.212625		Uh	uh
sw2061B-ms98-a-0139	B.164	393.212625	393.565875		[silence]	[silence]
sw2061B-ms98-a-0140	B.164	393.565875	397.520000		[silence]	[silence]
sw2061B-ms98-a-0141	B.164	397.520000	397.750000		[silence]	[silence]
sw2061B-ms98-a-0141	B.164	397.750000	397.954750	<DEL>	---	i[llegal]-
sw2061B-ms98-a-0141	B.164	397.954750	398.440000		Illegal	illegal
sw2061B-ms98-a-0141	B.164	398.440000	398.510000		or	or
sw2061B-ms98-a-0141	B.164	398.510000	398.750000		something	something
sw2061B-ms98-a-0141	B.164	398.750000	398.900000		like	like
sw2061B-ms98-a-0141	B.164	398.900000	399.150000		that	that
sw2061B-ms98-a-0141	B.164	399.150000	399.532500		yeah	yeah
sw2061B-ms98-a-0141	B.166	399.532500	399.899750		[silence]	[silence]
sw2061B-ms98-a-0142	B.166	399.899750	401.886750		[silence]	[silence]
sw2061B-ms98-a-0143	B.166	401.886750	402.186750		[silence]	[silence]
sw2061B-ms98-a-0143	B.166	402.186750	402.671750		Uh-huh	uh-huh
sw2061B-ms98-a-0143	B.168	402.671750	403.022625		[silence]	[silence]
sw2061B-ms98-a-0144	B.168	403.022625	407.542625		[silence]	[silence]
sw2061B-ms98-a-0145	B.168	407.542625	408.012625		[silence]	[silence]
sw2061B-ms98-a-0145	B.168	408.012625	408.302625		Uh-huh	uh-huh
sw2061B-ms98-a-0145	B.170	408.302625	408.636250		[silence]	[silence]
sw2061B-ms98-a-0146	B.170	408.636250	414.025625		[silence]	[silence]
sw2061B-ms98-a-0147	B.170	414.025625	414.645625		[silence]	[silence]
sw2061B-ms98-a-0147	B.170	414.645625	414.955625	<SUB>	Uh-huh	um-hum
sw2061B-ms98-a-0147	B.172	414.955625	415.400875		[silence]	[silence]
sw2061B-ms98-a-0148	B.172	415.400875	417.492875		[silence]	[silence]
sw2061B-ms98-a-0149	B.172	417.492875	417.742875		[silence]	[silence]
sw2061B-ms98-a-0149	B.172	417.742875	417.852875		So	so
sw2061B-ms98-a-0149	B.172	417.852875	417.912875		in	in
sw2061B-ms98-a-0149	B.172	417.912875	418.012875		other	other
sw2061B-ms98-a-0149	B.172	418.012875	418.192875		words	words
sw2061B-ms98-a-0149	B.172	418.192875	418.342875		that's	that's
sw2061B-ms98-a-0149	B.172	418.342875	418.402875		the	the
sw2061B-ms98-a-0149	B.172	418.402875	418.502875		way	way
sw2061B-ms98-a-0149	B.172	418.502875	418.622875		they	they
sw2061B-ms98-a-0149	B.172	418.622875	418.902875		force	force
sw2061B-ms98-a-0149	B.174	418.902875	419.222875		people	people
sw2061B-ms98-a-0149	B.174	419.222875	419.415250		out	out
sw2061B-ms98-a-0149	B.174	419.415250	419.843625		[silence]	[silence]
sw2061B-ms98-a-0149	B.174	419.843625	420.123500		[noise]	[noise]
sw2061B-ms98-a-0149	B.174	420.123500	420.152875		[silence]	[silence]
sw2061B-ms98-a-0150	B.174	420.152875	420.302875		[silence]	[silence]
sw2061B-ms98-a-0150	B.174	420.302875	420.492875		That's	that's
sw2061B-ms98-a-0150	B.174	420.492875	420.592875		why	why
sw2061B-ms98-a-0150	B.174	420.592875	420.712875		they	they
sw2061B-ms98-a-0150	B.174	420.712875	420.862875		can	can
sw2061B-ms98-a-0150	B.174	420.862875	421.072875		say	say
sw2061B-ms98-a-0150	B.174	421.072875	421.192875		you	you
sw2061B-ms98-a-0150	B.174	421.192875	421.272875		know	know
sw2061B-ms98-a-0150	B.174	421.272875	421.502875		there's	there's
sw2061B-ms98-a-0150	B.174	421.502875	421.612875		no	no
sw2061B-ms98-a-0150	B.174	421.612875	422.012875		layoff	layoff
sw2061B-ms98-a-0150	B.176	422.012875	422.469750		policy	policy
sw2061B-ms98-a-0150	B.176	422.469750	422.736625		[silence]	[silence]
sw2061B-ms98-a-0151	B.176	422.736625	423.016625		[silence]	[silence]
sw2061B-ms98-a-0151	B.176	423.016625	423.196625		But	but
sw2061B-ms98-a-0151	B.176	423.196625	423.306625		[silence]	[silence]
sw2061B-ms98-a-0151	B.176	423.306625	423.456625		it	it
sw2061B-ms98-a-0151	B.176	423.456625	423.606625		does-	does[n't]-
sw2061B-ms98-a-0151	B.176	423.606625	423.706625		they	they
sw2061B-ms98-a-0151	B.176	423.706625	423.906625		don't	don't
sw2061B-ms98-a-0151	B.176	423.906625	424.176625		really	really
sw2061B-ms98-a-0151	B.176	424.176625	424.396625		say	say
sw2061B-ms98-a-0151	B.176	424.396625	424.646625		that	that
sw2061B-ms98-a-0151	B.176	424.646625	424.716625		you	you
sw2061B-ms98-a-0151	B.176	424.716625	424.846625		know	know
sw2061B-ms98-a-0151	B.176	424.846625	425.056625		you're	you're
sw2061B-ms98-a-0151	B.176	425.056625	425.176625		you're	you're
sw2061B-ms98-a-0151	B.176	425.176625	425.386625		always	always
sw2061B-ms98-a-0151	B.176	425.386625	425.506625		going	going
sw2061B-ms98-a-0151	B.176	425.506625	425.566625		to	to
sw2061B-ms98-a-0151	B.176	425.566625	425.746625		have	have
sw2061B-ms98-a-0151	B.176	425.746625	425.956625		great	great
sw2061B-ms98-a-0151	B.176	425.956625	426.216625		career	career
sw2061B-ms98-a-0151	B.178	426.216625	426.840125		conditions	conditions
sw2061B-ms98-a-0151	B.178	426.840125	427.043375		[silence]	[silence]
sw2061B-ms98-a-0152	B.178	427.043375	427.493375		[silence]	[silence]
sw2061B-ms98-a-0152	B.178	427.493375	427.653375	<SUB>	He-	yeah
sw2061B-ms98-a-0152	B.178	427.653375	427.713375		hey	hey
sw2061B-ms98-a-0152	B.178	427.713375	428.063375		that's	that's
sw2061B-ms98-a-0152	B.178	428.063375	428.253375		kind	kind
sw2061B-ms98-a-0152	B.178	428.253375	428.313375		of	of
sw2061B-ms98-a-0152	B.178	428.313375	428.754500		sad	sad
sw2061B-ms98-a-0152	B.180	428.754500	429.056875		[silence]	[silence]
sw2061B-ms98-a-0153	B.180	429.056875	439.100875		[silence]	[silence]
sw2061B-ms98-a-0154	B.180	439.100875	439.570875		[silence]	[silence]
sw2061B-ms98-a-0154	B.180	439.570875	439.851250		No	no
sw2061B-ms98-a-0154	B.182	439.851250	440.315750		[silence]	[silence]
sw2061B-ms98-a-0155	B.182	440.315750	440.725750		[silence]	[silence]
sw2061B-ms98-a-0155	B.182	440.725750	440.895750		Well	well
sw2061B-ms98-a-0155	B.182	440.895750	441.025750		they're	they're
sw2061B-ms98-a-0155	B.182	441.025750	441.135750		the	the
sw2061B-ms98-a-0155	B.182	441.135750	441.615750		standard	standard
sw2061B-ms98-a-0155	B.182	441.615750	441.805750		right	right
sw2061B-ms98-a-0155	B.182	441.805750	441.895750		now	now
sw2061B-ms98-a-0155	B.182	441.895750	442.075750		Or	or
sw2061B-ms98-a-0155	B.182	442.075750	442.195750		as	as
sw2061B-ms98-a-0155	B.182	442.195750	442.405750		far	far
sw2061B-ms98-a-0155	B.182	442.405750	442.515750		as	as
sw2061B-ms98-a-0155	B.182	442.515750	442.695750		that	that
sw2061B-ms98-a-0155	B.182	442.695750	442.895750		goes	goes
sw2061B-ms98-a-0155	B.182	442.895750	442.955750		you	you
sw2061B-ms98-a-0155	B.182	442.955750	443.025750		know	know
sw2061B-ms98-a-0155	B.182	443.025750	443.315750		people	people
sw2061B-ms98-a-0155	B.182	443.315750	443.505750		think	think
sw2061B-ms98-a-0155	B.182	443.505750	443.585750		of	of
sw2061B-ms98-a-0155	B.182	443.585750	444.035750		computers	computers
sw2061B-ms98-a-0155	B.182	444.035750	444.095750		they	they
sw2061B-ms98-a-0155	B.182	444.095750	444.275750		think	think
sw2061B-ms98-a-0155	B.182	444.275750	444.355750		of	of
sw2061B-ms98-a-0155	B.182	444.355750	444.795750	<CONT>	I	IBM
sw2061B-ms98-a-0155	B.182	444.795750	444.795750	<CONT>	B	+++
sw2061B-ms98-a-0155	B.182	444.795750	444.795750	<CONT>	M	+++
sw2061B-ms98-a-0155	B.182	444.795750	444.835750		a	a
sw2061B-ms98-a-0155	B.182	444.835750	445.015750		lot	lot
sw2061B-ms98-a-0155	B.182	445.015750	445.125750		of	of
sw2061B-ms98-a-0155	B.182	445.125750	445.305750		times	times
sw2061B-ms98-a-0155	B.182	445.305750	445.445750		And	and
sw2061B-ms98-a-0155	B.182	445.445750	445.505750		the	the
sw2061B-ms98-a-0155	B.182	445.505750	445.855750		main	main
sw2061B-ms98-a-0155	B.186	445.855750	446.084000		[silence]	[silence]
sw2061B-ms98-a-0156	B.186	446.084000	450.504625		[silence]	[silence]
sw2061B-ms98-a-0157	B.186	450.504625	450.804625		[silence]	[silence]
sw2061B-ms98-a-0157	B.186	450.804625	451.129500	<SUB>	Uh-huh	um-hum
sw2061B-ms98-a-0157	B.188	451.129500	451.898750		[silence]	[silence]
sw2061B-ms98-a-0158	B.188	451.898750	452.808750		[silence]	[silence]
sw2061B-ms98-a-0158	B.188	452.808750	452.948750		Yeah	yeah
sw2061B-ms98-a-0158	B.188	452.948750	453.228750		Well	well
sw2061B-ms98-a-0158	B.188	453.228750	453.288750		you	you
sw2061B-ms98-a-0158	B.188	453.288750	453.388750		know	know
sw2061B-ms98-a-0158	B.188	453.388750	453.798750		that's	that's
sw2061B-ms98-a-0158	B.188	453.798750	454.018750		that's	that's
sw2061B-ms98-a-0158	B.188	454.018750	454.168750		a	a
sw2061B-ms98-a-0158	B.188	454.168750	454.338750		that's	that's
sw2061B-ms98-a-0158	B.188	454.338750	454.408750		a	a
sw2061B-ms98-a-0158	B.188	454.408750	454.598750		big	big
sw2061B-ms98-a-0158	B.188	454.598750	454.918750		thing	thing
sw2061B-ms98-a-0158	B.190	454.918750	455.341250		[silence]	[silence]
sw2061B-ms98-a-0159	B.190	455.341250	457.619500		[silence]	[silence]
sw2061B-ms98-a-0160	B.190	457.619500	458.219500		[silence]	[silence]
sw2061B-ms98-a-0160	B.190	458.219500	458.426500		Yeah	yeah
sw2061B-ms98-a-0160	B.190	458.426500	458.580125		[silence]	[silence]
sw2061B-ms98-a-0160	B.190	458.580125	458.679500		They	they
sw2061B-ms98-a-0160	B.190	458.679500	458.829500		are	are
sw2061B-ms98-a-0160	B.190	458.829500	458.889500		out	out
sw2061B-ms98-a-0160	B.190	458.889500	458.949500		of	of
sw2061B-ms98-a-0160	B.190	458.949500	459.299500		Korea	Korea
sw2061B-ms98-a-0160	B.190	459.299500	459.559500		right	right
sw2061B-ms98-a-0160	B.192	459.559500	460.216000		[silence]	[silence]
sw2061B-ms98-a-0161	B.192	460.216000	460.816000		[silence]	[silence]
sw2061B-ms98-a-0161	B.192	460.816000	461.126000		Leading	leading
sw2061B-ms98-a-0161	B.192	461.126000	461.316000		Edge	edge
sw2061B-ms98-a-0161	B.192	461.316000	461.494125		Don't	don't
sw2061B-ms98-a-0161	B.192	461.494125	461.611500		they	they
sw2061B-ms98-a-0161	B.192	461.611500	461.611500	<INS>	pro-	---
sw2061B-ms98-a-0161	B.194	461.611500	461.936000		[vocalized-noise]	[vocalized-noise]
sw2061B-ms98-a-0161	B.194	461.936000	462.139500		[silence]	[silence]
sw2061B-ms98-a-0162	B.194	462.139500	464.066875		[silence]	[silence]
sw2061B-ms98-a-0163	B.194	464.066875	464.306875		[silence]	[silence]
sw2061B-ms98-a-0163	B.194	464.306875	464.525500		Yeah	yeah
sw2061B-ms98-a-0163	B.194	464.525500	464.679375		[silence]	[silence]
sw2061B-ms98-a-0163	B.194	464.679375	464.836875		Small	small
sw2061B-ms98-a-0163	B.194	464.836875	465.246875	<CONT>	P	PCs
sw2061B-ms98-a-0163	B.194	465.246875	465.246875	<CONT>	C	+++
sw2061B-ms98-a-0163	B.194	465.246875	465.246875	<CONT>	-s	+++
sw2061B-ms98-a-0163	B.194	465.246875	465.366875	<DEL>	---	aren't
sw2061B-ms98-a-0163	B.194	465.366875	465.556875		they're	they're
sw2061B-ms98-a-0163	B.194	465.556875	465.613000		out	out
sw2061B-ms98-a-0163	B.194	465.613000	465.688000		of	of
sw2061B-ms98-a-0163	B.194	465.688000	466.066875		Korea	Korea
sw2061B-ms98-a-0163	B.194	466.066875	466.313750		right	right
sw2061B-ms98-a-0163	B.196	466.313750	466.730875		[silence]	[silence]
sw2061B-ms98-a-0164	B.196	466.730875	473.425625		[silence]	[silence]
sw2061B-ms98-a-0165	B.196	473.425625	473.775625		[silence]	[silence]
sw2061B-ms98-a-0165	B.196	473.775625	474.086500		Uh-huh	uh-huh
sw2061B-ms98-a-0165	B.198	474.086500	474.522250		[silence]	[silence]
sw2061B-ms98-a-0166	B.198	474.522250	476.749500		[silence]	[silence]
sw2061B-ms98-a-0167	B.198	476.749500	477.279500		[silence]	[silence]
sw2061B-ms98-a-0167	B.198	477.279500	477.437375		Oh	oh
sw2061B-ms98-a-0167	B.198	477.437375	477.599500		yeah	yeah
sw2061B-ms98-a-0167	B.202	477.599500	478.004625		[silence]	[silence]
sw2061B-ms98-a-0168	B.202	478.004625	478.394875		[silence]	[silence]
sw2061B-ms98-a-0168	B.202	478.394875	478.764625		[laughter]	[laughter]
sw2061B-ms98-a-0168	B.202	478.764625	479.067375		[silence]	[silence]
sw2061B-ms98-a-0169	B.202	479.067375	487.361625		[silence]	[silence]
sw2061B-ms98-a-0170	B.202	487.361625	487.781625		[silence]	[silence]
sw2061B-ms98-a-0170	B.202	487.781625	488.189250		Okay	okay
sw2061B-ms98-a-0170	B.204	488.189250	488.506125		[silence]	[silence]
sw2061B-ms98-a-0171	B.204	488.506125	491.040875		[silence]	[silence]
sw2061B-ms98-a-0172	B.204	491.040875	491.490875		[silence]	[silence]
sw2061B-ms98-a-0172	B.204	491.490875	491.650875		Yeah	yeah
sw2061B-ms98-a-0172	B.204	491.650875	491.820875		I've	i've
sw2061B-ms98-a-0172	B.204	491.820875	491.980875		seen	seen
sw2061B-ms98-a-0172	B.204	491.980875	492.100875		well	well
sw2061B-ms98-a-0172	B.204	492.100875	492.180875		I've	i've
sw2061B-ms98-a-0172	B.204	492.180875	492.390875		seen	seen
sw2061B-ms98-a-0172	B.204	492.390875	492.490875		them	them
sw2061B-ms98-a-0172	B.204	492.490875	492.760875		around	around
sw2061B-ms98-a-0172	B.204	492.760875	493.090500		anyway	anyway
sw2061B-ms98-a-0172	B.204	493.090500	493.580125		[silence]	[silence]
sw2061B-ms98-a-0172	B.204	493.580125	493.686875		You	you
sw2061B-ms98-a-0172	B.204	493.686875	493.867500		know	know
sw2061B-ms98-a-0172	B.206	493.867500	494.280125		[vocalized-noise]	[vocalized-noise]
sw2061B-ms98-a-0172	B.206	494.280125	494.682750		[silence]	[silence]
sw2061B-ms98-a-0173	B.206	494.682750	498.857625		[silence]	[silence]
sw2061B-ms98-a-0174	B.206	498.857625	499.387625		[silence]	[silence]
sw2061B-ms98-a-0174	B.206	499.387625	499.692000	<SUB>	Uh-huh	um-hum
sw2061B-ms98-a-0174	B.208	499.692000	500.112750		[silence]	[silence]
sw2061B-ms98-a-0175	B.208	500.112750	503.415750		[silence]	[silence]
sw2061B-ms98-a-0176	B.208	503.415750	503.845750		[silence]	[silence]
sw2061B-ms98-a-0176	B.208	503.845750	504.115750		Most	most
sw2061B-ms98-a-0176	B.208	504.115750	504.365750		people	people
sw2061B-ms98-a-0176	B.208	504.365750	504.682000		do	do
sw2061B-ms98-a-0176	B.208	504.682000	505.009750		[silence]	[silence]
sw2061B-ms98-a-0176	B.208	505.009750	505.165750		Or	or
sw2061B-ms98-a-0176	B.208	505.165750	505.265750		they	they
sw2061B-ms98-a-0176	B.208	505.265750	505.515750		have	have
sw2061B-ms98-a-0176	B.208	505.515750	505.715750		to	to
sw2061B-ms98-a-0176	B.208	505.715750	506.108750		anyway	anyway
sw2061B-ms98-a-0176	B.210	506.108750	506.591375		[silence]	[silence]
sw2061B-ms98-a-0177	B.210	506.591375	515.029000		[silence]	[silence]
sw2061B-ms98-a-0178	B.210	515.029000	515.449000		[silence]	[silence]
sw2061B-ms98-a-0178	B.210	515.449000	515.739000	<SUB>	Uh-huh	um-hum
sw2061B-ms98-a-0178	B.212	515.739000	516.366750		[silence]	[silence]
sw2061B-ms98-a-0179	B.212	516.366750	527.863875		[silence]	[silence]
sw2061B-ms98-a-0180	B.212	527.863875	528.323875		[silence]	[silence]
sw2061B-ms98-a-0180	B.212	528.323875	528.829250		Wow	wow
sw2061B-ms98-a-0180	B.214	528.829250	529.407625		[silence]	[silence]
sw2061B-ms98-a-0181	B.214	529.407625	537.699125		[silence]	[silence]
sw2061B-ms98-a-0182	B.214	537.699125	538.219125		[silence]	[silence]
sw2061B-ms98-a-0182	B.214	538.219125	538.559125	<SUB>	Uh-huh	um-hum
sw2061B-ms98-a-0182	B.216	538.559125	539.005750		[silence]	[silence]
sw2061B-ms98-a-0183	B.216	539.005750	546.638250		[silence]	[silence]
sw2061B-ms98-a-0184	B.216	546.638250	547.118250		[silence]	[silence]
sw2061B-ms98-a-0184	B.216	547.118250	547.428750	<SUB>	It's	um-hum
sw2061B-ms98-a-0184	B.216	547.428750	547.946500		[silence]	[silence]
sw2061B-ms98-a-0185	B.216	547.946500	555.519500		[silence]	[silence]
sw2061B-ms98-a-0186	B.216	555.519500	555.869500		[silence]	[silence]
sw2061B-ms98-a-0186	B.216	555.869500	556.039500	<DEL>	---	that's
sw2061B-ms98-a-0186	B.216	556.039500	556.499000		amazing	amazing
sw2061B-ms98-a-0186	B.216	556.499000	556.617375		[silence]	[silence]
sw2061B-ms98-a-0186	B.216	556.617375	556.947625		Yeah	yeah
sw2061B-ms98-a-0186	B.218	556.947625	557.364375		[silence]	[silence]
sw2061B-ms98-a-0187	B.218	557.364375	560.912500		[silence]	[silence]
sw2061B-ms98-a-0188	B.218	560.912500	561.352500		[silence]	[silence]
sw2061B-ms98-a-0188	B.218	561.352500	561.492500		Well	well
sw2061B-ms98-a-0188	B.218	561.492500	561.592500		when	when
sw2061B-ms98-a-0188	B.218	561.592500	561.689875		you	you
sw2061B-ms98-a-0188	B.218	561.689875	561.878125		get	get
sw2061B-ms98-a-0188	B.218	561.878125	562.022500	<SUB>	you	yeah
sw2061B-ms98-a-0188	B.218	562.022500	562.022500	<INS>	know	---
sw2061B-ms98-a-0188	B.218	562.022500	562.152500		when	when
sw2061B-ms98-a-0188	B.218	562.152500	562.242500		you	you
sw2061B-ms98-a-0188	B.218	562.242500	562.382500		get	get
sw2061B-ms98-a-0188	B.218	562.382500	562.542500		right	right
sw2061B-ms98-a-0188	B.218	562.542500	562.802500		down	down
sw2061B-ms98-a-0188	B.218	562.802500	562.952500		to	to
sw2061B-ms98-a-0188	B.218	562.952500	563.062625		it	it
sw2061B-ms98-a-0188	B.218	563.062625	563.138000		[silence]	[silence]
sw2061B-ms98-a-0188	B.218	563.138000	563.312750		the	the
sw2061B-ms98-a-0188	B.218	563.312750	563.501750		uh	uh
sw2061B-ms98-a-0188	B.218	563.501750	563.618500		the	the
sw2061B-ms98-a-0188	B.218	563.618500	563.882500		more	more
sw2061B-ms98-a-0188	B.218	563.882500	563.992500		they	they
sw2061B-ms98-a-0188	B.218	563.992500	564.172500		can	can
sw2061B-ms98-a-0188	B.218	564.172500	564.372500		do	do
sw2061B-ms98-a-0188	B.218	564.372500	564.582500		for	for
sw2061B-ms98-a-0188	B.218	564.582500	564.642500		you	you
sw2061B-ms98-a-0188	B.218	564.642500	564.732500		the	the
sw2061B-ms98-a-0188	B.218	564.732500	565.142500		more	more
sw2061B-ms98-a-0188	B.218	565.142500	565.266750		uh	uh
sw2061B-ms98-a-0188	B.218	565.266750	565.368500		like	like
sw2061B-ms98-a-0188	B.218	565.368500	565.430500		I	i
sw2061B-ms98-a-0188	B.218	565.430500	565.543500		say	say
sw2061B-ms98-a-0188	B.218	565.543500	565.602500		the	the
sw2061B-ms98-a-0188	B.218	565.602500	565.932500		more	more
sw2061B-ms98-a-0188	B.218	565.932500	566.002500		the	the
sw2061B-ms98-a-0188	B.218	566.002500	566.202500		more	more
sw2061B-ms98-a-0188	B.218	566.202500	566.562500		memory	memory
sw2061B-ms98-a-0188	B.218	566.562500	566.672500		they're	they're
sw2061B-ms98-a-0188	B.218	566.672500	566.812500	<SUB>	going	gonna
sw2061B-ms98-a-0188	B.218	566.812500	566.812500	<INS>	to	---
sw2061B-ms98-a-0188	B.218	566.812500	567.332500		require	require
sw2061B-ms98-a-0188	B.220	567.332500	567.817625		[silence]	[silence]
sw2061B-ms98-a-0189	B.220	567.817625	568.217625		[silence]	[silence]
sw2061B-ms98-a-0189	B.220	568.217625	568.501250		Yeah	yeah
sw2061B-ms98-a-0189	B.220	568.501250	568.727625		Both	both
sw2061B-ms98-a-0189	B.220	568.727625	568.802000		[vocalized-noise]	[vocalized-noise]
sw2061B-ms98-a-0189	B.220	568.802000	569.067625		both	both
sw2061B-ms98-a-0189	B.220	569.067625	569.147625		in	in
sw2061B-ms98-a-0189	B.220	569.147625	569.417625		terms	terms
sw2061B-ms98-a-0189	B.220	569.417625	569.577625		in	in
sw2061B-ms98-a-0189	B.220	569.577625	569.967625		Ram	RAM
sw2061B-ms98-a-0189	B.220	569.967625	570.097625		as	as
sw2061B-ms98-a-0189	B.220	570.097625	570.347625		well	well
sw2061B-ms98-a-0189	B.220	570.347625	570.517625		as	as
sw2061B-ms98-a-0189	B.220	570.517625	570.770250		uh	uh
sw2061B-ms98-a-0189	B.220	570.770250	571.045250		[silence]	[silence]
sw2061B-ms98-a-0189	B.220	571.045250	571.117625		you	you
sw2061B-ms98-a-0189	B.220	571.117625	571.197625		know	know
sw2061B-ms98-a-0189	B.220	571.197625	571.607625		standard	standard
sw2061B-ms98-a-0189	B.222	571.607625	571.917625		memory	memory
sw2061B-ms98-a-0189	B.222	571.917625	572.018500		or	or
sw2061B-ms98-a-0189	B.222	572.018500	572.284125		disk	disk
sw2061B-ms98-a-0189	B.222	572.284125	572.520500		mem-	mem[ory]-
sw2061B-ms98-a-0189	B.222	572.520500	572.787625		disk	disk
sw2061B-ms98-a-0189	B.222	572.787625	572.997625		base	base
sw2061B-ms98-a-0189	B.222	572.997625	573.411375		[silence]	[silence]
sw2061B-ms98-a-0190	B.222	573.411375	573.935125		[silence]	[silence]
sw2061B-ms98-a-0190	B.222	573.935125	574.171375		so	so
sw2061B-ms98-a-0190	B.224	574.171375	574.571000		[silence]	[silence]
sw2061B-ms98-a-0191	B.224	574.571000	576.195375		[silence]	[silence]
sw2061B-ms98-a-0192	B.224	576.195375	576.665375		[silence]	[silence]
sw2061B-ms98-a-0192	B.224	576.665375	576.775375	<SUB>	Oh	well
sw2061B-ms98-a-0192	B.224	576.775375	576.945375		yeah	yeah
sw2061B-ms98-a-0192	B.224	576.945375	577.075375		You	you
sw2061B-ms98-a-0192	B.224	577.075375	577.345375		find	find
sw2061B-ms98-a-0192	B.224	577.345375	577.445375		out	out
sw2061B-ms98-a-0192	B.224	577.445375	577.625375		[silence]	[silence]
sw2061B-ms98-a-0192	B.224	577.625375	577.775375		more	more
sw2061B-ms98-a-0192	B.226	577.775375	578.392875		[silence]	[silence]
sw2061B-ms98-a-0193	B.226	578.392875	580.132625		[silence]	[silence]
sw2061B-ms98-a-0194	B.226	580.132625	580.642625		[silence]	[silence]
sw2061B-ms98-a-0194	B.226	580.642625	580.970500		Yeah	yeah
sw2061B-ms98-a-0194	B.228	580.970500	581.390875		[silence]	[silence]
sw2061B-ms98-a-0195	B.228	581.390875	583.507875		[silence]	[silence]
sw2061B-ms98-a-0196	B.228	583.507875	583.967875		[silence]	[silence]
sw2061B-ms98-a-0196	B.228	583.967875	584.326500		Uh-huh	uh-huh
sw2061B-ms98-a-0196	B.230	584.326500	584.735875		[silence]	[silence]
sw2061B-ms98-a-0197	B.230	584.735875	588.097250		[silence]	[silence]
sw2061B-ms98-a-0198	B.230	588.097250	588.567250		[silence]	[silence]
sw2061B-ms98-a-0198	B.230	588.567250	588.707250		Like	like
sw2061B-ms98-a-0198	B.230	588.707250	588.907250	<SUB>	the	those
sw2061B-ms98-a-0198	B.230	588.907250	589.367250	<SUB>	deal	hologram
sw2061B-ms98-a-0198	B.232	589.367250	589.727000	<DEL>	---	deals
sw2061B-ms98-a-0198	B.232	589.727000	590.115750		[silence]	[silence]
sw2061B-ms98-a-0199	B.232	590.115750	590.495750		[silence]	[silence]
sw2061B-ms98-a-0199	B.232	590.495750	590.635750		Like	like
sw2061B-ms98-a-0199	B.232	590.635750	590.725750		a	a
sw2061B-ms98-a-0199	B.232	590.725750	591.259750		hologram	hologram
sw2061B-ms98-a-0199	B.234	591.259750	591.259750	<INS>	With	---
sw2061B-ms98-a-0199	B.234	591.259750	591.515875		[noise]	[noise]
sw2061B-ms98-a-0199	B.234	591.515875	591.901250		[silence]	[silence]
sw2061B-ms98-a-0199	B.234	591.901250	592.145750		just	just
sw2061B-ms98-a-0199	B.234	592.145750	592.485750		graphics	graphics
sw2061B-ms98-a-0199	B.234	592.485750	592.655750		on	on
sw2061B-ms98-a-0199	B.234	592.655750	592.745750	<DEL>	---	a
sw2061B-ms98-a-0199	B.234	592.745750	592.815750		on	on
sw2061B-ms98-a-0199	B.234	592.815750	592.964625		a	a
sw2061B-ms98-a-0199	B.236	592.964625	593.555000		[silence]	[silence]
sw2061B-ms98-a-0200	B.236	593.555000	594.225000		[silence]	[silence]
sw2061B-ms98-a-0200	B.236	594.225000	594.623500		Okay	okay
sw2061B-ms98-a-0200	B.236	594.623500	594.901500		[silence]	[silence]
sw2061B-ms98-a-0201	B.236	594.901500	594.960125		[silence]	[silence]
sw2061B-ms98-a-0201	B.236	594.960125	595.524250		[noise]	[noise]
sw2061B-ms98-a-0201	B.236	595.524250	598.792000		[silence]	[silence]
