sw2149B-ms98-a-0001	B.2	0.000000	4.485875		[silence]	[silence]
sw2149B-ms98-a-0002	B.2	4.485875	5.100875		[silence]	[silence]
sw2149B-ms98-a-0002	B.2	5.100875	5.405875		I	i
sw2149B-ms98-a-0002	B.2	5.405875	5.535875		don't	don't
sw2149B-ms98-a-0002	B.2	5.535875	5.565875		I	i
sw2149B-ms98-a-0002	B.2	5.565875	5.815875		don't	don't
sw2149B-ms98-a-0002	B.2	5.815875	5.965875		think	think
sw2149B-ms98-a-0002	B.2	5.965875	6.085875		they	they
sw2149B-ms98-a-0002	B.2	6.085875	6.315875		should	should
sw2149B-ms98-a-0002	B.2	6.315875	6.455875		be	be
sw2149B-ms98-a-0002	B.2	6.455875	7.355875		forced	forced
sw2149B-ms98-a-0002	B.2	7.355875	7.565875		but	but
sw2149B-ms98-a-0002	B.2	7.565875	7.655875		I	i
sw2149B-ms98-a-0002	B.2	7.655875	7.955875		think	think
sw2149B-ms98-a-0002	B.2	7.955875	8.115875		they	they
sw2149B-ms98-a-0002	B.2	8.115875	8.335875		should	should
sw2149B-ms98-a-0002	B.2	8.335875	8.525875		be	be
sw2149B-ms98-a-0002	B.2	8.525875	8.625875	<DEL>	---	en[couraged]-
sw2149B-ms98-a-0002	B.2	8.625875	8.726625		I	i
sw2149B-ms98-a-0002	B.2	8.726625	9.242625		[silence]	[silence]
sw2149B-ms98-a-0002	B.2	9.242625	9.535875		guess	guess
sw2149B-ms98-a-0002	B.2	9.535875	10.445875		encouraged	encouraged
sw2149B-ms98-a-0002	B.2	10.445875	11.006500		to	to
sw2149B-ms98-a-0002	B.2	11.006500	11.484000		[silence]	[silence]
sw2149B-ms98-a-0003	B.2	11.484000	12.142375		[silence]	[silence]
sw2149B-ms98-a-0003	B.2	12.142375	13.024000		to	to
sw2149B-ms98-a-0003	B.2	13.024000	13.204000		do	do
sw2149B-ms98-a-0003	B.2	13.204000	13.404000		some	some
sw2149B-ms98-a-0003	B.2	13.404000	13.604000		kind	kind
sw2149B-ms98-a-0003	B.2	13.604000	13.674000		of	of
sw2149B-ms98-a-0003	B.2	13.674000	14.044000		public	public
sw2149B-ms98-a-0003	B.2	14.044000	14.274000		work	work
sw2149B-ms98-a-0003	B.2	14.274000	14.404000		I	i
sw2149B-ms98-a-0003	B.2	14.404000	14.864000		guess	guess
sw2149B-ms98-a-0003	B.2	14.864000	14.864000	<INS>	to	---
sw2149B-ms98-a-0003	B.2	14.864000	15.084000		just	just
sw2149B-ms98-a-0003	B.2	15.084000	15.174000		to	to
sw2149B-ms98-a-0003	B.2	15.174000	15.324000		get	get
sw2149B-ms98-a-0003	B.2	15.324000	15.738750		them	them_1
sw2149B-ms98-a-0003	B.2	15.738750	16.081500		[silence]	[silence]
sw2149B-ms98-a-0003	B.2	16.081500	16.204000		I	i
sw2149B-ms98-a-0003	B.2	16.204000	16.394000		guess	guess
sw2149B-ms98-a-0003	B.2	16.394000	16.744000		involved	involved
sw2149B-ms98-a-0003	B.2	16.744000	16.884000		with	with
sw2149B-ms98-a-0003	B.2	16.884000	17.734000		community	community
sw2149B-ms98-a-0003	B.2	17.734000	18.024000		maybe	maybe
sw2149B-ms98-a-0003	B.2	18.024000	18.154000		you	you
sw2149B-ms98-a-0003	B.2	18.154000	18.244000		know	know
sw2149B-ms98-a-0003	B.2	18.244000	18.454000		just	just
sw2149B-ms98-a-0003	B.2	18.454000	18.854000		community	community
sw2149B-ms98-a-0003	B.2	18.854000	19.450625		activity	activity
sw2149B-ms98-a-0003	B.2	19.450625	20.010250		[silence]	[silence]
sw2149B-ms98-a-0003	B.2	20.010250	20.246500		If	if
sw2149B-ms98-a-0003	B.2	20.246500	20.584000		nothing	nothing
sw2149B-ms98-a-0003	B.2	20.584000	20.814000		else	else
sw2149B-ms98-a-0003	B.2	20.814000	20.964000		see	see
sw2149B-ms98-a-0003	B.2	20.964000	21.084000		how	how
sw2149B-ms98-a-0003	B.2	21.084000	21.481875		the	the
sw2149B-ms98-a-0003	B.2	21.481875	22.325500		[silence]	[silence]
sw2149B-ms98-a-0003	B.2	22.325500	22.704000		city	city
sw2149B-ms98-a-0003	B.2	22.704000	23.034000		works	works
sw2149B-ms98-a-0003	B.2	23.034000	23.264000		stuff	stuff
sw2149B-ms98-a-0003	B.2	23.264000	23.434000		like	like
sw2149B-ms98-a-0003	B.2	23.434000	23.834000		that	that
sw2149B-ms98-a-0003	B.4	23.834000	24.464500		[silence]	[silence]
sw2149B-ms98-a-0004	B.4	24.464500	26.289125		[silence]	[silence]
sw2149B-ms98-a-0005	B.4	26.289125	26.567875		[silence]	[silence]
sw2149B-ms98-a-0005	B.4	26.567875	27.099125		Yeah	yeah
sw2149B-ms98-a-0005	B.6	27.099125	27.205000		I	i
sw2149B-ms98-a-0005	B.6	27.205000	27.205000	<INS>	kind	---
sw2149B-ms98-a-0005	B.6	27.205000	27.205000	<INS>	of	---
sw2149B-ms98-a-0005	B.6	27.205000	27.612125		[laughter]	[laughter]
sw2149B-ms98-a-0005	B.6	27.612125	27.769125		I	i
sw2149B-ms98-a-0005	B.6	27.769125	28.059125		think	think
sw2149B-ms98-a-0005	B.6	28.059125	28.279125		so	so
sw2149B-ms98-a-0005	B.6	28.279125	28.619125		too	too
sw2149B-ms98-a-0005	B.6	28.619125	28.739125		I	i
sw2149B-ms98-a-0005	B.6	28.739125	28.999125		think	think
sw2149B-ms98-a-0005	B.6	28.999125	29.249125		that's	that's
sw2149B-ms98-a-0005	B.6	29.249125	29.279125		a	a
sw2149B-ms98-a-0005	B.6	29.279125	29.549125		bit	bit
sw2149B-ms98-a-0005	B.6	29.549125	30.079125		dramatic	dramatic
sw2149B-ms98-a-0005	B.6	30.079125	30.339125		but	but
sw2149B-ms98-a-0005	B.6	30.339125	31.049125		[silence]	[silence]
sw2149B-ms98-a-0005	B.6	31.049125	31.199125		but	but
sw2149B-ms98-a-0005	B.6	31.199125	31.409125		other	other
sw2149B-ms98-a-0005	B.6	31.409125	31.549125		than	than
sw2149B-ms98-a-0005	B.6	31.549125	31.809125		that	that
sw2149B-ms98-a-0005	B.6	31.809125	31.879125		I	i
sw2149B-ms98-a-0005	B.6	31.879125	32.129125		think	think
sw2149B-ms98-a-0005	B.6	32.129125	32.359125	<SUB>	it's	it
sw2149B-ms98-a-0005	B.6	32.359125	32.569125		it's	it's
sw2149B-ms98-a-0005	B.6	32.569125	32.629125		a	a
sw2149B-ms98-a-0005	B.6	32.629125	32.789125		good	good
sw2149B-ms98-a-0005	B.6	32.789125	33.079125		idea	idea
sw2149B-ms98-a-0005	B.6	33.079125	33.149125		to	to
sw2149B-ms98-a-0005	B.6	33.149125	33.269125		get	get
sw2149B-ms98-a-0005	B.6	33.269125	33.349125		them	them_1
sw2149B-ms98-a-0005	B.6	33.349125	33.839125		involved	involved
sw2149B-ms98-a-0005	B.6	33.839125	33.939125		in	in
sw2149B-ms98-a-0005	B.6	33.939125	34.019125	<DEL>	---	the
sw2149B-ms98-a-0005	B.6	34.019125	34.709125		city	city
sw2149B-ms98-a-0005	B.6	34.709125	34.979125		and	and
sw2149B-ms98-a-0005	B.6	34.979125	35.509125		community	community
sw2149B-ms98-a-0005	B.6	35.509125	36.269125		activities	activities
sw2149B-ms98-a-0005	B.6	36.269125	36.473750		and	and
sw2149B-ms98-a-0005	B.6	36.473750	36.963375		[silence]	[silence]
sw2149B-ms98-a-0005	B.6	36.963375	37.049125		you	you
sw2149B-ms98-a-0005	B.6	37.049125	37.179125		know	know
sw2149B-ms98-a-0005	B.6	37.179125	37.389125		like	like
sw2149B-ms98-a-0005	B.6	37.389125	37.509125		the	the
sw2149B-ms98-a-0005	B.6	37.509125	37.859125		uh	uh
sw2149B-ms98-a-0005	B.6	37.859125	38.789125		shelters	shelters
sw2149B-ms98-a-0005	B.6	38.789125	39.199125		and	and
sw2149B-ms98-a-0005	B.6	39.199125	39.497875		[silence]	[silence]
sw2149B-ms98-a-0006	B.6	39.497875	39.906125		[silence]	[silence]
sw2149B-ms98-a-0006	B.6	39.906125	42.047875		uh	uh
sw2149B-ms98-a-0006	B.6	42.047875	42.247875		that	that
sw2149B-ms98-a-0006	B.6	42.247875	42.427875		kind	kind
sw2149B-ms98-a-0006	B.6	42.427875	42.527875		of	of
sw2149B-ms98-a-0006	B.6	42.527875	42.787875		thing	thing
sw2149B-ms98-a-0006	B.8	42.787875	43.147875		helping	helping
sw2149B-ms98-a-0006	B.8	43.147875	43.537875		out	out
sw2149B-ms98-a-0006	B.8	43.537875	43.887875		uh	uh
sw2149B-ms98-a-0006	B.8	43.887875	44.657875		volunteering	volunteering
sw2149B-ms98-a-0006	B.8	44.657875	44.747875		I	i
sw2149B-ms98-a-0006	B.8	44.747875	45.097875		guess	guess
sw2149B-ms98-a-0006	B.8	45.097875	45.217875		if	if
sw2149B-ms98-a-0006	B.8	45.217875	45.337875		they	they
sw2149B-ms98-a-0006	B.8	45.337875	45.793500		can	can
sw2149B-ms98-a-0006	B.10	45.793500	46.225750		[silence]	[silence]
sw2149B-ms98-a-0007	B.10	46.225750	48.988250		[silence]	[silence]
sw2149B-ms98-a-0008	B.10	48.988250	49.468250		[silence]	[silence]
sw2149B-ms98-a-0008	B.10	49.468250	50.392500		Yeah	yeah
sw2149B-ms98-a-0008	B.12	50.392500	50.658500		[silence]	[silence]
sw2149B-ms98-a-0009	B.12	50.658500	55.987875		[silence]	[silence]
sw2149B-ms98-a-0010	B.12	55.987875	56.677875		[silence]	[silence]
sw2149B-ms98-a-0010	B.12	56.677875	56.827875	<SUB>	Your	you're
sw2149B-ms98-a-0010	B.12	56.827875	57.067875		right	right
sw2149B-ms98-a-0010	B.12	57.067875	57.147875		I	i
sw2149B-ms98-a-0010	B.12	57.147875	57.267875		do	do
sw2149B-ms98-a-0010	B.12	57.267875	57.477875		too	too
sw2149B-ms98-a-0010	B.12	57.477875	57.597875		I	i
sw2149B-ms98-a-0010	B.12	57.597875	57.787875		think	think
sw2149B-ms98-a-0010	B.12	57.787875	57.887875		they	they
sw2149B-ms98-a-0010	B.12	57.887875	58.167875		start	start
sw2149B-ms98-a-0010	B.12	58.167875	58.327875		out	out
sw2149B-ms98-a-0010	B.12	58.327875	58.617875		young	young
sw2149B-ms98-a-0010	B.12	58.617875	58.847875		like	like
sw2149B-ms98-a-0010	B.12	58.847875	59.037875		in	in
sw2149B-ms98-a-0010	B.12	59.037875	59.387875		uh	uh
sw2149B-ms98-a-0010	B.12	59.387875	59.607875		Girl	Girl
sw2149B-ms98-a-0010	B.12	59.607875	59.947875		Scouts	Scouts
sw2149B-ms98-a-0010	B.12	59.947875	60.067875		and	and
sw2149B-ms98-a-0010	B.12	60.067875	60.237875		Boy	Boy
sw2149B-ms98-a-0010	B.12	60.237875	61.417875		Scouts	Scouts
sw2149B-ms98-a-0010	B.14	61.417875	61.697875		doing	doing
sw2149B-ms98-a-0010	B.14	61.697875	61.964375		s-	s[tuff]-
sw2149B-ms98-a-0010	B.16	61.964375	62.479250		[silence]	[silence]
sw2149B-ms98-a-0011	B.16	62.479250	66.706375		[silence]	[silence]
sw2149B-ms98-a-0012	B.16	66.706375	67.108875		[silence]	[silence]
sw2149B-ms98-a-0012	B.16	67.108875	68.004875		Ex-	ex[actly]-
sw2149B-ms98-a-0012	B.18	68.004875	68.316375		[silence]	[silence]
sw2149B-ms98-a-0013	B.18	68.316375	70.986500		[silence]	[silence]
sw2149B-ms98-a-0014	B.18	70.986500	71.540875		[silence]	[silence]
sw2149B-ms98-a-0014	B.18	71.540875	71.996500		Right	right
sw2149B-ms98-a-0014	B.18	71.996500	72.256500		that's	that's
sw2149B-ms98-a-0014	B.18	72.256500	72.376500		see	see
sw2149B-ms98-a-0014	B.18	72.376500	72.636500		that's	that's
sw2149B-ms98-a-0014	B.18	72.636500	72.756500		what	what
sw2149B-ms98-a-0014	B.18	72.756500	72.876500		we	we
sw2149B-ms98-a-0014	B.18	72.876500	73.056500		did	did
sw2149B-ms98-a-0014	B.18	73.056500	73.156500		in	in
sw2149B-ms98-a-0014	B.18	73.156500	73.386500		Girl	Girl
sw2149B-ms98-a-0014	B.18	73.386500	73.856500		Scouts	Scouts
sw2149B-ms98-a-0014	B.18	73.856500	74.106500		and	and
sw2149B-ms98-a-0014	B.18	74.106500	74.626500		[silence]	[silence]
sw2149B-ms98-a-0014	B.18	74.626500	74.716500	<DEL>	---	and
sw2149B-ms98-a-0014	B.18	74.716500	74.936500		that	that
sw2149B-ms98-a-0014	B.18	74.936500	75.096500		got	got
sw2149B-ms98-a-0014	B.18	75.096500	75.196500		you	you
sw2149B-ms98-a-0014	B.18	75.196500	75.606500		involved	involved
sw2149B-ms98-a-0014	B.18	75.606500	75.796500		real	real
sw2149B-ms98-a-0014	B.18	75.796500	75.956500		good	good
sw2149B-ms98-a-0014	B.18	75.956500	76.106500		and	and
sw2149B-ms98-a-0014	B.18	76.106500	76.366500		it	it
sw2149B-ms98-a-0014	B.18	76.366500	76.506500		I	i
sw2149B-ms98-a-0014	B.18	76.506500	76.676500		think	think
sw2149B-ms98-a-0014	B.18	76.676500	76.766500		it	it
sw2149B-ms98-a-0014	B.18	76.766500	77.256500		starts	starts
sw2149B-ms98-a-0014	B.18	77.256500	77.576500		kids	kids
sw2149B-ms98-a-0014	B.18	77.576500	77.666500		out	out
sw2149B-ms98-a-0014	B.18	77.666500	77.746500		on	on
sw2149B-ms98-a-0014	B.18	77.746500	77.816500		the	the
sw2149B-ms98-a-0014	B.18	77.816500	78.036500		right	right
sw2149B-ms98-a-0014	B.18	78.036500	78.436500		track	track
sw2149B-ms98-a-0014	B.18	78.436500	78.596500		and	and
sw2149B-ms98-a-0014	B.18	78.596500	78.596500	<INS>	then	---
sw2149B-ms98-a-0014	B.18	78.596500	78.746500		it	it
sw2149B-ms98-a-0014	B.18	78.746500	79.006500		lets	lets
sw2149B-ms98-a-0014	B.18	79.006500	79.296125		them	them_1
sw2149B-ms98-a-0014	B.18	79.296125	79.804625		[silence]	[silence]
sw2149B-ms98-a-0014	B.18	79.804625	80.186500		decide	decide
sw2149B-ms98-a-0014	B.18	80.186500	80.306500		if	if
sw2149B-ms98-a-0014	B.18	80.306500	80.506500		that's	that's
sw2149B-ms98-a-0014	B.18	80.506500	80.606500		what	what
sw2149B-ms98-a-0014	B.18	80.606500	80.686500		they	they
sw2149B-ms98-a-0014	B.18	80.686500	81.076500		enjoy	enjoy
sw2149B-ms98-a-0014	B.18	81.076500	81.506500		doing	doing
sw2149B-ms98-a-0014	B.20	81.506500	83.202625		Something	something
sw2149B-ms98-a-0014	B.22	83.202625	83.786625		[silence]	[silence]
sw2149B-ms98-a-0015	B.22	83.786625	85.998000		[silence]	[silence]
sw2149B-ms98-a-0016	B.22	85.998000	86.498000		[silence]	[silence]
sw2149B-ms98-a-0016	B.22	86.498000	86.685250		Yeah	yeah
sw2149B-ms98-a-0016	B.26	86.685250	87.214500		[silence]	[silence]
sw2149B-ms98-a-0017	B.26	87.214500	88.780375		[silence]	[silence]
sw2149B-ms98-a-0018	B.26	88.780375	89.074875		[silence]	[silence]
sw2149B-ms98-a-0018	B.26	89.074875	90.140750		[noise]	[noise]
sw2149B-ms98-a-0018	B.26	90.140750	90.320375		I	i
sw2149B-ms98-a-0018	B.26	90.320375	90.430375		do	do
sw2149B-ms98-a-0018	B.26	90.430375	90.670375		too	too
sw2149B-ms98-a-0018	B.26	90.670375	90.780375		I	i
sw2149B-ms98-a-0018	B.26	90.780375	91.220375		think	think
sw2149B-ms98-a-0018	B.26	91.220375	91.300375		I	i
sw2149B-ms98-a-0018	B.26	91.300375	91.470375		think	think
sw2149B-ms98-a-0018	B.26	91.470375	91.520375		a	a
sw2149B-ms98-a-0018	B.26	91.520375	91.710375		lot	lot
sw2149B-ms98-a-0018	B.26	91.710375	91.790375		of	of
sw2149B-ms98-a-0018	B.26	91.790375	92.050375	<SUB>	people	peop[le]-
sw2149B-ms98-a-0018	B.26	92.050375	92.080375		a	a
sw2149B-ms98-a-0018	B.26	92.080375	92.210375		lot	lot
sw2149B-ms98-a-0018	B.26	92.210375	92.399375		more	more
sw2149B-ms98-a-0018	B.26	92.399375	92.599000		[silence]	[silence]
sw2149B-ms98-a-0018	B.26	92.599000	92.800375		people	people
sw2149B-ms98-a-0018	B.26	92.800375	93.370375		volunteer	volunteer
sw2149B-ms98-a-0018	B.26	93.370375	93.950625		than	than
sw2149B-ms98-a-0018	B.26	93.950625	94.440250		[silence]	[silence]
sw2149B-ms98-a-0018	B.26	94.440250	94.920375		than	than
sw2149B-ms98-a-0018	B.26	94.920375	95.193750		uh	uh
sw2149B-ms98-a-0018	B.26	95.193750	95.781250		[silence]	[silence]
sw2149B-ms98-a-0018	B.26	95.781250	95.910375		than	than
sw2149B-ms98-a-0018	B.26	95.910375	96.160375		we	we
sw2149B-ms98-a-0018	B.26	96.160375	96.390375		than	than
sw2149B-ms98-a-0018	B.26	96.390375	96.560375		get	get
sw2149B-ms98-a-0018	B.26	96.560375	96.970375		credit	credit
sw2149B-ms98-a-0018	B.26	96.970375	97.340375		for	for
sw2149B-ms98-a-0018	B.26	97.340375	97.550375		it	it
sw2149B-ms98-a-0018	B.26	97.550375	97.780375		as	as
sw2149B-ms98-a-0018	B.26	97.780375	97.900375		you	you
sw2149B-ms98-a-0018	B.26	97.900375	98.030375		know	know
sw2149B-ms98-a-0018	B.26	98.030375	98.200375		like	like
sw2149B-ms98-a-0018	B.26	98.200375	98.270375		in	in
sw2149B-ms98-a-0018	B.26	98.270375	99.140375		hospitals	hospitals
sw2149B-ms98-a-0018	B.26	99.140375	99.430375		and	and
sw2149B-ms98-a-0018	B.26	99.430375	99.896250		uh	uh
sw2149B-ms98-a-0018	B.26	99.896250	100.333125		[silence]	[silence]
sw2149B-ms98-a-0018	B.26	100.333125	100.640375		and	and
sw2149B-ms98-a-0018	B.26	100.640375	100.700375		the	the
sw2149B-ms98-a-0018	B.26	100.700375	101.580375		shelters	shelters
sw2149B-ms98-a-0018	B.26	101.580375	101.720375		and	and
sw2149B-ms98-a-0018	B.26	101.720375	101.930375		stuff	stuff
sw2149B-ms98-a-0018	B.26	101.930375	102.120375		like	like
sw2149B-ms98-a-0018	B.26	102.120375	102.460375		that	that
sw2149B-ms98-a-0018	B.26	102.460375	102.735250		[silence]	[silence]
sw2149B-ms98-a-0019	B.26	102.735250	103.265250		[silence]	[silence]
sw2149B-ms98-a-0019	B.26	103.265250	103.355250		And	and
sw2149B-ms98-a-0019	B.26	103.355250	103.555250		even	even
sw2149B-ms98-a-0019	B.26	103.555250	103.685250		if	if
sw2149B-ms98-a-0019	B.26	103.685250	103.785250		it	it
sw2149B-ms98-a-0019	B.26	103.785250	103.965250		is	is
sw2149B-ms98-a-0019	B.26	103.965250	104.015250		a	a
sw2149B-ms98-a-0019	B.26	104.015250	104.255250		couple	couple
sw2149B-ms98-a-0019	B.26	104.255250	104.595250		times	times
sw2149B-ms98-a-0019	B.26	104.595250	104.625250		a	a
sw2149B-ms98-a-0019	B.26	104.625250	104.945250		year	year
sw2149B-ms98-a-0019	B.26	104.945250	105.155250		like	like
sw2149B-ms98-a-0019	B.26	105.155250	105.225250		at	at
sw2149B-ms98-a-0019	B.26	105.225250	105.295250		the	the
sw2149B-ms98-a-0019	B.26	105.295250	105.985250		holidays	holidays
sw2149B-ms98-a-0019	B.26	105.985250	106.035250		I	i
sw2149B-ms98-a-0019	B.26	106.035250	106.245250		mean	mean
sw2149B-ms98-a-0019	B.26	106.245250	106.355250		at	at
sw2149B-ms98-a-0019	B.26	106.355250	106.555250		least	least
sw2149B-ms98-a-0019	B.26	106.555250	106.665250		they're	they're
sw2149B-ms98-a-0019	B.26	106.665250	106.905250		getting	getting
sw2149B-ms98-a-0019	B.26	106.905250	107.005250		out	out
sw2149B-ms98-a-0019	B.26	107.005250	107.125250		and	and
sw2149B-ms98-a-0019	B.26	107.125250	107.475250		doing	doing
sw2149B-ms98-a-0019	B.26	107.475250	107.675250		it	it
sw2149B-ms98-a-0019	B.26	107.675250	107.958000		and	and
sw2149B-ms98-a-0019	B.26	107.958000	109.544250		[noise]	[noise]
sw2149B-ms98-a-0019	B.26	109.544250	109.665250		you	you
sw2149B-ms98-a-0019	B.26	109.665250	109.825250		know	know
sw2149B-ms98-a-0019	B.26	109.825250	109.965250	<DEL>	---	per[haps]-
sw2149B-ms98-a-0019	B.26	109.965250	110.585250		helping	helping
sw2149B-ms98-a-0019	B.26	110.585250	110.815250	<DEL>	---	a[nd]-
sw2149B-ms98-a-0019	B.26	110.815250	111.245250		helping	helping
sw2149B-ms98-a-0019	B.26	111.245250	111.505250		out	out
sw2149B-ms98-a-0019	B.26	111.505250	111.565250		I	i
sw2149B-ms98-a-0019	B.26	111.565250	111.765250		think	think
sw2149B-ms98-a-0019	B.26	111.765250	112.005250		that's	that's
sw2149B-ms98-a-0019	B.26	112.005250	112.345250		good	good
sw2149B-ms98-a-0019	B.26	112.345250	112.658625		and	and
sw2149B-ms98-a-0019	B.34	112.658625	112.957375		[silence]	[silence]
sw2149B-ms98-a-0020	B.34	112.957375	119.462375		[silence]	[silence]
sw2149B-ms98-a-0021	B.34	119.462375	120.090125		[silence]	[silence]
sw2149B-ms98-a-0021	B.34	120.090125	121.032375		[laughter]	[laughter]
sw2149B-ms98-a-0021	B.34	121.032375	121.236250		[silence]	[silence]
sw2149B-ms98-a-0022	B.34	121.236250	122.993125		[silence]	[silence]
sw2149B-ms98-a-0023	B.34	122.993125	123.578875		[silence]	[silence]
sw2149B-ms98-a-0023	B.34	123.578875	124.293125		[laughter]	[laughter]
sw2149B-ms98-a-0023	B.34	124.293125	124.707375		[silence]	[silence]
sw2149B-ms98-a-0024	B.34	124.707375	125.417375		[silence]	[silence]
sw2149B-ms98-a-0024	B.34	125.417375	126.017375		Yeah	yeah
sw2149B-ms98-a-0024	B.34	126.017375	126.464250		yeah	yeah
sw2149B-ms98-a-0024	B.38	126.464250	126.980875		[silence]	[silence]
sw2149B-ms98-a-0025	B.38	126.980875	128.253500		[silence]	[silence]
sw2149B-ms98-a-0026	B.38	128.253500	128.718750		[silence]	[silence]
sw2149B-ms98-a-0026	B.38	128.718750	129.993500		[laughter]	[laughter]
sw2149B-ms98-a-0026	B.38	129.993500	130.133000	<DEL>	---	i'll
sw2149B-ms98-a-0026	B.38	130.133000	130.320500	<DEL>	---	be
sw2149B-ms98-a-0026	B.38	130.320500	131.283500		[silence]	[silence]
sw2149B-ms98-a-0027	B.38	131.283500	134.990125		[silence]	[silence]
sw2149B-ms98-a-0028	B.38	134.990125	135.570125		[silence]	[silence]
sw2149B-ms98-a-0028	B.38	135.570125	135.980125		Yeah	yeah
sw2149B-ms98-a-0028	B.38	135.980125	136.840125		[laughter]	[laughter]
sw2149B-ms98-a-0028	B.38	136.840125	136.930125		There	there
sw2149B-ms98-a-0028	B.38	136.930125	137.100125		you	you
sw2149B-ms98-a-0028	B.38	137.100125	137.300125		go	go
sw2149B-ms98-a-0028	B.40	137.300125	137.723250	<SUB>	Right	tha[t's]-
sw2149B-ms98-a-0028	B.42	137.723250	138.490000		[silence]	[silence]
sw2149B-ms98-a-0029	B.42	138.490000	139.037125		[silence]	[silence]
sw2149B-ms98-a-0029	B.42	139.037125	139.533125	<DEL>	---	hey
sw2149B-ms98-a-0029	B.42	139.533125	139.990000		[silence]	[silence]
sw2149B-ms98-a-0030	B.42	139.990000	141.016875		[silence]	[silence]
sw2149B-ms98-a-0031	B.42	141.016875	141.372750		[silence]	[silence]
sw2149B-ms98-a-0031	B.42	141.372750	141.706875		Yeah	yeah
sw2149B-ms98-a-0031	B.42	141.706875	141.836875		it	it
sw2149B-ms98-a-0031	B.42	141.836875	142.096875		sounds	sounds
sw2149B-ms98-a-0031	B.42	142.096875	142.296875		pretty	pretty
sw2149B-ms98-a-0031	B.42	142.296875	142.526875		good	good
sw2149B-ms98-a-0031	B.42	142.526875	143.066875		[laughter]	[laughter]
sw2149B-ms98-a-0031	B.42	143.066875	143.306875		That	that
sw2149B-ms98-a-0031	B.42	143.306875	143.576875		sounds	sounds
sw2149B-ms98-a-0031	B.42	143.576875	143.736875		good	good
sw2149B-ms98-a-0031	B.42	143.736875	144.196875		[silence]	[silence]
sw2149B-ms98-a-0031	B.42	144.196875	144.276875		I've	i've
sw2149B-ms98-a-0031	B.42	144.276875	144.586875		noticed	noticed
sw2149B-ms98-a-0031	B.42	144.586875	144.636875		a	a
sw2149B-ms98-a-0031	B.42	144.636875	144.896875		lot	lot
sw2149B-ms98-a-0031	B.42	144.896875	145.066875		of	of
sw2149B-ms98-a-0031	B.42	145.066875	145.412250		uh	uh
sw2149B-ms98-a-0031	B.42	145.412250	146.139125		[noise]	[noise]
sw2149B-ms98-a-0031	B.42	146.139125	146.556875		different	different
sw2149B-ms98-a-0031	B.42	146.556875	147.306875		organizations	organizations
sw2149B-ms98-a-0031	B.42	147.306875	147.386875		in	in
sw2149B-ms98-a-0031	B.42	147.386875	147.506875		our	our
sw2149B-ms98-a-0031	B.42	147.506875	148.096875		community	community
sw2149B-ms98-a-0031	B.42	148.096875	148.522375		uh	uh
sw2149B-ms98-a-0031	B.42	148.522375	148.994375		[silence]	[silence]
sw2149B-ms98-a-0032	B.42	148.994375	149.494375		[silence]	[silence]
sw2149B-ms98-a-0032	B.42	149.494375	149.724375		pick	pick
sw2149B-ms98-a-0032	B.42	149.724375	149.904375		up	up
sw2149B-ms98-a-0032	B.42	149.904375	150.104375		like	like
sw2149B-ms98-a-0032	B.42	150.104375	150.174375		on	on
sw2149B-ms98-a-0032	B.42	150.174375	150.254375		the	the
sw2149B-ms98-a-0032	B.42	150.254375	150.694375		highway	highway
sw2149B-ms98-a-0032	B.42	150.694375	150.854375		and	and
sw2149B-ms98-a-0032	B.42	150.854375	151.464375		stuff	stuff
sw2149B-ms98-a-0032	B.42	151.464375	152.164375		[silence]	[silence]
sw2149B-ms98-a-0032	B.42	152.164375	152.264375		and	and
sw2149B-ms98-a-0032	B.42	152.264375	152.354375		I	i
sw2149B-ms98-a-0032	B.42	152.354375	152.604375		think	think
sw2149B-ms98-a-0032	B.42	152.604375	152.854375		that's	that's
sw2149B-ms98-a-0032	B.42	152.854375	153.144375		pretty	pretty
sw2149B-ms98-a-0032	B.42	153.144375	153.434375		neat	neat
sw2149B-ms98-a-0032	B.42	153.434375	153.774375		They	they
sw2149B-ms98-a-0032	B.42	153.774375	154.134625		uh	uh
sw2149B-ms98-a-0032	B.42	154.134625	154.356750		[silence]	[silence]
sw2149B-ms98-a-0032	B.42	154.356750	154.484375		go	go
sw2149B-ms98-a-0032	B.42	154.484375	154.824375		along	along
sw2149B-ms98-a-0032	B.42	154.824375	155.054750		and	and
sw2149B-ms98-a-0032	B.42	155.054750	155.680000		[silence]	[silence]
sw2149B-ms98-a-0032	B.42	155.680000	155.864375		have	have
sw2149B-ms98-a-0032	B.42	155.864375	156.084375		so	so
sw2149B-ms98-a-0032	B.42	156.084375	156.244375		many	many
sw2149B-ms98-a-0032	B.42	156.244375	156.624375		miles	miles
sw2149B-ms98-a-0032	B.42	156.624375	156.704375		I	i
sw2149B-ms98-a-0032	B.42	156.704375	157.054375		guess	guess
sw2149B-ms98-a-0032	B.42	157.054375	157.224375		of	of
sw2149B-ms98-a-0032	B.42	157.224375	157.774375		highway	highway
sw2149B-ms98-a-0032	B.42	157.774375	157.874375		to	to
sw2149B-ms98-a-0032	B.42	157.874375	158.174375		take	take
sw2149B-ms98-a-0032	B.42	158.174375	158.608125		over	over
sw2149B-ms98-a-0032	B.44	158.608125	158.973375		[silence]	[silence]
sw2149B-ms98-a-0032	B.44	158.973375	159.094375		and	and
sw2149B-ms98-a-0032	B.44	159.094375	159.154375		they	they
sw2149B-ms98-a-0032	B.44	159.154375	159.534375		clean	clean
sw2149B-ms98-a-0032	B.44	159.534375	159.634375		it	it
sw2149B-ms98-a-0032	B.44	159.634375	160.011500		up	up
sw2149B-ms98-a-0032	B.46	160.011500	160.658000		[silence]	[silence]
sw2149B-ms98-a-0033	B.46	160.658000	161.338000		[silence]	[silence]
sw2149B-ms98-a-0033	B.46	161.338000	161.458000		And	and
sw2149B-ms98-a-0033	B.46	161.458000	161.668000		keep	keep
sw2149B-ms98-a-0033	B.46	161.668000	161.738000		it	it
sw2149B-ms98-a-0033	B.46	161.738000	161.958000		clean	clean
sw2149B-ms98-a-0033	B.46	161.958000	162.048000		I	i
sw2149B-ms98-a-0033	B.46	162.048000	162.218000		think	think
sw2149B-ms98-a-0033	B.46	162.218000	162.408000		that's	that's
sw2149B-ms98-a-0033	B.46	162.408000	162.468000	<SUB>	I	a
sw2149B-ms98-a-0033	B.46	162.468000	162.688000		pretty	pretty
sw2149B-ms98-a-0033	B.46	162.688000	162.848000		good	good
sw2149B-ms98-a-0033	B.46	162.848000	163.098000		idea	idea
sw2149B-ms98-a-0033	B.46	163.098000	163.288000		And	and
sw2149B-ms98-a-0033	B.46	163.288000	163.348000		I	i
sw2149B-ms98-a-0033	B.46	163.348000	163.548000		think	think
sw2149B-ms98-a-0033	B.46	163.548000	164.168000		[silence]	[silence]
sw2149B-ms98-a-0033	B.46	164.168000	164.298000		you	you
sw2149B-ms98-a-0033	B.46	164.298000	164.358000		know	know
sw2149B-ms98-a-0033	B.46	164.358000	164.708000		again	again
sw2149B-ms98-a-0033	B.46	164.708000	164.838000		I've	i've
sw2149B-ms98-a-0033	B.46	164.838000	165.068000		seen	seen
sw2149B-ms98-a-0033	B.46	165.068000	165.108000		a	a
sw2149B-ms98-a-0033	B.46	165.108000	165.268000		lot	lot
sw2149B-ms98-a-0033	B.46	165.268000	165.328000		of	of
sw2149B-ms98-a-0033	B.46	165.328000	165.528000		young	young
sw2149B-ms98-a-0033	B.46	165.528000	165.818000		kids	kids
sw2149B-ms98-a-0033	B.46	165.818000	166.038000		doing	doing
sw2149B-ms98-a-0033	B.46	166.038000	166.238000		that	that
sw2149B-ms98-a-0033	B.46	166.238000	166.328000		and	and
sw2149B-ms98-a-0033	B.46	166.328000	166.378000		I	i
sw2149B-ms98-a-0033	B.46	166.378000	166.588000		think	think
sw2149B-ms98-a-0033	B.46	166.588000	166.748000		it	it
sw2149B-ms98-a-0033	B.46	166.748000	166.948000		gets	gets
sw2149B-ms98-a-0033	B.46	166.948000	167.028000		them	them_1
sw2149B-ms98-a-0033	B.46	167.028000	167.478000		prepared	prepared
sw2149B-ms98-a-0033	B.46	167.478000	167.718000		to	to
sw2149B-ms98-a-0033	B.46	167.718000	168.009500		[silence]	[silence]
sw2149B-ms98-a-0034	B.46	168.009500	168.409500		[silence]	[silence]
sw2149B-ms98-a-0034	B.46	168.409500	168.549500		to	to
sw2149B-ms98-a-0034	B.46	168.549500	168.779500		learn	learn
sw2149B-ms98-a-0034	B.46	168.779500	168.869500		how	how
sw2149B-ms98-a-0034	B.46	168.869500	168.959500		to	to
sw2149B-ms98-a-0034	B.46	168.959500	169.549500		volunteer	volunteer
sw2149B-ms98-a-0034	B.46	169.549500	169.699500		as	as
sw2149B-ms98-a-0034	B.46	169.699500	169.809500		they	they
sw2149B-ms98-a-0034	B.46	169.809500	169.979500		get	get
sw2149B-ms98-a-0034	B.46	169.979500	170.359500		older	older
sw2149B-ms98-a-0034	B.46	170.359500	170.429500		I	i
sw2149B-ms98-a-0034	B.46	170.429500	170.579500		know	know
sw2149B-ms98-a-0034	B.46	170.579500	170.719500		I	i
sw2149B-ms98-a-0034	B.46	170.719500	171.019500		did	did
sw2149B-ms98-a-0034	B.46	171.019500	171.209500		you	you
sw2149B-ms98-a-0034	B.46	171.209500	171.289500		know	know
sw2149B-ms98-a-0034	B.46	171.289500	171.339250		in	in
sw2149B-ms98-a-0034	B.46	171.339250	171.614250	<DEL>	---	li[ke]-
sw2149B-ms98-a-0034	B.46	171.614250	171.939500		Girl	Girl
sw2149B-ms98-a-0034	B.46	171.939500	172.229500		Scouts	Scouts
sw2149B-ms98-a-0034	B.46	172.229500	172.319500		and	and
sw2149B-ms98-a-0034	B.46	172.319500	172.569500		everything	everything
sw2149B-ms98-a-0034	B.46	172.569500	172.659500		and	and
sw2149B-ms98-a-0034	B.46	172.659500	172.839500		after	after
sw2149B-ms98-a-0034	B.46	172.839500	173.319250		that	that
sw2149B-ms98-a-0034	B.46	173.319250	173.869250		[silence]	[silence]
sw2149B-ms98-a-0034	B.46	173.869250	173.979500		in	in
sw2149B-ms98-a-0034	B.46	173.979500	174.149500		high	high
sw2149B-ms98-a-0034	B.46	174.149500	174.429500		school	school
sw2149B-ms98-a-0034	B.46	174.429500	174.589500		I	i
sw2149B-ms98-a-0034	B.46	174.589500	174.749500		would	would
sw2149B-ms98-a-0034	B.46	174.749500	175.259500		volunteer	volunteer
sw2149B-ms98-a-0034	B.46	175.259500	175.339500		at	at
sw2149B-ms98-a-0034	B.46	175.339500	175.379500		a	a
sw2149B-ms98-a-0034	B.46	175.379500	175.869500		nursing	nursing
sw2149B-ms98-a-0034	B.46	175.869500	176.444750		home	home
sw2149B-ms98-a-0034	B.46	176.444750	177.179250		[silence]	[silence]
sw2149B-ms98-a-0034	B.46	177.179250	177.439500		and	and
sw2149B-ms98-a-0034	B.46	177.439500	177.699500		stuff	stuff
sw2149B-ms98-a-0034	B.46	177.699500	177.869500		like	like
sw2149B-ms98-a-0034	B.46	177.869500	178.429500		that	that
sw2149B-ms98-a-0034	B.48	178.429500	179.369500		[noise]	[noise]
sw2149B-ms98-a-0034	B.48	179.369500	179.719875		So	so
sw2149B-ms98-a-0034	B.50	179.719875	180.220250		[silence]	[silence]
sw2149B-ms98-a-0035	B.50	180.220250	185.983875		[silence]	[silence]
sw2149B-ms98-a-0036	B.50	185.983875	186.598250		[silence]	[silence]
sw2149B-ms98-a-0036	B.50	186.598250	187.133875		Oh	oh
sw2149B-ms98-a-0036	B.52	187.133875	187.499500		[silence]	[silence]
sw2149B-ms98-a-0037	B.52	187.499500	190.314125		[silence]	[silence]
sw2149B-ms98-a-0038	B.52	190.314125	190.824125		[silence]	[silence]
sw2149B-ms98-a-0038	B.52	190.824125	190.964125	<SUB>	Yeah	y[eah]-
sw2149B-ms98-a-0038	B.52	190.964125	191.104125		I'm	i'm
sw2149B-ms98-a-0038	B.52	191.104125	191.204125		in	in
sw2149B-ms98-a-0038	B.52	191.204125	191.634125		Texas	Texas
sw2149B-ms98-a-0038	B.52	191.634125	191.724125		Where	where
sw2149B-ms98-a-0038	B.52	191.724125	191.784125		are	are
sw2149B-ms98-a-0038	B.52	191.784125	191.924125		you	you
sw2149B-ms98-a-0038	B.52	191.924125	192.606625		at	at
sw2149B-ms98-a-0038	B.54	192.606625	192.999125		[silence]	[silence]
sw2149B-ms98-a-0039	B.54	192.999125	193.939125		[silence]	[silence]
sw2149B-ms98-a-0039	B.54	193.939125	194.019125		New	New
sw2149B-ms98-a-0039	B.54	194.019125	194.650625		York	York
sw2149B-ms98-a-0039	B.56	194.650625	195.294000		[silence]	[silence]
sw2149B-ms98-a-0040	B.56	195.294000	195.764000		[silence]	[silence]
sw2149B-ms98-a-0040	B.56	195.764000	195.964000		Oh	oh
sw2149B-ms98-a-0040	B.56	195.964000	196.652875		gosh	gosh
sw2149B-ms98-a-0040	B.60	196.652875	196.996500		[silence]	[silence]
sw2149B-ms98-a-0041	B.60	196.996500	197.543875		[silence]	[silence]
sw2149B-ms98-a-0041	B.60	197.543875	198.716500		Yeah	yeah
sw2149B-ms98-a-0041	B.62	198.716500	198.846500		Yeah	yeah
sw2149B-ms98-a-0041	B.64	198.846500	199.116500		[laughter]	[laughter]
sw2149B-ms98-a-0041	B.64	199.116500	199.480250		[silence]	[silence]
sw2149B-ms98-a-0042	B.64	199.480250	205.482750		[silence]	[silence]
sw2149B-ms98-a-0043	B.64	205.482750	206.092750		[silence]	[silence]
sw2149B-ms98-a-0043	B.64	206.092750	206.352750	<SUB>	Uh-huh	um-hum
sw2149B-ms98-a-0043	B.66	206.352750	206.990750		[silence]	[silence]
sw2149B-ms98-a-0044	B.66	206.990750	209.997500		[silence]	[silence]
sw2149B-ms98-a-0045	B.66	209.997500	210.408875		[silence]	[silence]
sw2149B-ms98-a-0045	B.66	210.408875	210.927500		Oh	oh
sw2149B-ms98-a-0045	B.66	210.927500	212.217500		no	no
sw2149B-ms98-a-0045	B.68	212.217500	212.958125		[silence]	[silence]
sw2149B-ms98-a-0046	B.68	212.958125	213.528125		[silence]	[silence]
sw2149B-ms98-a-0046	B.68	213.528125	213.958750		Oh	oh
sw2149B-ms98-a-0046	B.70	213.958750	214.244250		[silence]	[silence]
sw2149B-ms98-a-0047	B.70	214.244250	215.484375		[silence]	[silence]
sw2149B-ms98-a-0048	B.70	215.484375	215.909500		[silence]	[silence]
sw2149B-ms98-a-0048	B.70	215.909500	217.234375		Golly	golly
sw2149B-ms98-a-0048	B.72	217.234375	217.487875		[silence]	[silence]
sw2149B-ms98-a-0049	B.72	217.487875	220.486750		[silence]	[silence]
sw2149B-ms98-a-0050	B.72	220.486750	221.215625		[silence]	[silence]
sw2149B-ms98-a-0050	B.72	221.215625	221.966750		[laughter]	[laughter]
sw2149B-ms98-a-0050	B.72	221.966750	222.066750		Are	are
sw2149B-ms98-a-0050	B.72	222.066750	222.266750		you	you
sw2149B-ms98-a-0050	B.72	222.266750	222.993875	<SUB>	serious	seri[ous]-
sw2149B-ms98-a-0050	B.74	222.993875	223.467875		[silence]	[silence]
sw2149B-ms98-a-0051	B.74	223.467875	223.793750		[silence]	[silence]
sw2149B-ms98-a-0051	B.74	223.793750	224.643750	<DEL>	---	oh
sw2149B-ms98-a-0051	B.74	224.643750	224.809125		[silence]	[silence]
sw2149B-ms98-a-0052	B.74	224.809125	229.279875		[silence]	[silence]
sw2149B-ms98-a-0053	B.74	229.279875	229.826000		[silence]	[silence]
sw2149B-ms98-a-0053	B.74	229.826000	230.159875		Oh	oh
sw2149B-ms98-a-0053	B.74	230.159875	230.479875		my	my
sw2149B-ms98-a-0053	B.74	230.479875	230.639875		God	God
sw2149B-ms98-a-0053	B.74	230.639875	230.749875		how	how
sw2149B-ms98-a-0053	B.74	230.749875	230.869875		do	do
sw2149B-ms98-a-0053	B.74	230.869875	230.939875		they	they
sw2149B-ms98-a-0053	B.74	230.939875	232.418625		live	[laughter-live]
sw2149B-ms98-a-0053	B.76	232.418625	232.460625		[silence]	[silence]
sw2149B-ms98-a-0054	B.76	232.460625	236.811000		[silence]	[silence]
sw2149B-ms98-a-0055	B.76	236.811000	237.288250		[silence]	[silence]
sw2149B-ms98-a-0055	B.76	237.288250	237.871000		Yeah	yeah
sw2149B-ms98-a-0055	B.76	237.871000	237.921000		I	i
sw2149B-ms98-a-0055	B.76	237.921000	238.141000		haven't	haven't
sw2149B-ms98-a-0055	B.76	238.141000	238.551000		heard	heard
sw2149B-ms98-a-0055	B.76	238.551000	238.581000		a	a
sw2149B-ms98-a-0055	B.76	238.581000	239.030375		thing	thing
sw2149B-ms98-a-0055	B.80	239.030375	239.485500		[silence]	[silence]
sw2149B-ms98-a-0056	B.80	239.485500	242.627125		[silence]	[silence]
sw2149B-ms98-a-0057	B.80	242.627125	242.999250		[silence]	[silence]
sw2149B-ms98-a-0057	B.80	242.999250	243.349000	<DEL>	---	oh
sw2149B-ms98-a-0057	B.80	243.349000	243.706875		[silence]	[silence]
sw2149B-ms98-a-0058	B.80	243.706875	246.494875		[silence]	[silence]
sw2149B-ms98-a-0059	B.80	246.494875	246.957875		[silence]	[silence]
sw2149B-ms98-a-0059	B.80	246.957875	248.448000		Lord	Lord
sw2149B-ms98-a-0059	B.82	248.448000	248.981625		[silence]	[silence]
sw2149B-ms98-a-0060	B.82	248.981625	249.353000		[silence]	[silence]
sw2149B-ms98-a-0060	B.82	249.353000	250.452250	<SUB>	Go-	[laughter-God]
sw2149B-ms98-a-0060	B.88	250.452250	250.995500		[silence]	[silence]
sw2149B-ms98-a-0061	B.88	250.995500	258.482500		[silence]	[silence]
sw2149B-ms98-a-0062	B.88	258.482500	258.862500		[silence]	[silence]
sw2149B-ms98-a-0062	B.88	258.862500	258.952500		Well	well
sw2149B-ms98-a-0062	B.88	258.952500	259.162500		that's	that's
sw2149B-ms98-a-0062	B.88	259.162500	259.572500		good	good
sw2149B-ms98-a-0062	B.88	259.572500	259.792500		That's	that's
sw2149B-ms98-a-0062	B.88	259.792500	260.272500		great	great
sw2149B-ms98-a-0062	B.90	260.272500	260.692750		[silence]	[silence]
sw2149B-ms98-a-0063	B.90	260.692750	263.261875		[silence]	[silence]
sw2149B-ms98-a-0064	B.90	263.261875	263.771875		[silence]	[silence]
sw2149B-ms98-a-0064	B.90	263.771875	264.251875		Right	right
sw2149B-ms98-a-0064	B.92	264.251875	264.732625		[silence]	[silence]
sw2149B-ms98-a-0065	B.92	264.732625	265.749500		[silence]	[silence]
sw2149B-ms98-a-0066	B.92	265.749500	266.119500		[silence]	[silence]
sw2149B-ms98-a-0066	B.92	266.119500	266.604125		Yeah	yeah
sw2149B-ms98-a-0066	B.94	266.604125	266.993375		[silence]	[silence]
sw2149B-ms98-a-0067	B.94	266.993375	267.537750		[silence]	[silence]
sw2149B-ms98-a-0067	B.94	267.537750	267.773375	<DEL>	---	yeah
sw2149B-ms98-a-0067	B.94	267.773375	268.329500		[silence]	[silence]
sw2149B-ms98-a-0068	B.94	268.329500	268.819500		[silence]	[silence]
sw2149B-ms98-a-0068	B.94	268.819500	269.349500		Right	right
sw2149B-ms98-a-0068	B.96	269.349500	269.797500		[silence]	[silence]
sw2149B-ms98-a-0069	B.96	269.797500	270.788000		[silence]	[silence]
sw2149B-ms98-a-0070	B.96	270.788000	271.168000		[silence]	[silence]
sw2149B-ms98-a-0070	B.96	271.168000	271.744500		Right	right
sw2149B-ms98-a-0070	B.98	271.744500	272.727500		[noise]	[noise]
sw2149B-ms98-a-0070	B.98	272.727500	273.018000		That's	that's
sw2149B-ms98-a-0070	B.98	273.018000	273.148000		one	one
sw2149B-ms98-a-0070	B.98	273.148000	273.278000		thing	thing
sw2149B-ms98-a-0070	B.98	273.278000	273.378000		we	we
sw2149B-ms98-a-0070	B.98	273.378000	273.498000		do	do
sw2149B-ms98-a-0070	B.98	273.498000	273.598000		at	at
sw2149B-ms98-a-0070	B.98	273.598000	273.718000		our	our
sw2149B-ms98-a-0070	B.98	273.718000	274.118000		church	church
sw2149B-ms98-a-0070	B.98	274.118000	274.328000		is	is
sw2149B-ms98-a-0070	B.98	274.328000	274.682250	<SUB>	uh	um
sw2149B-ms98-a-0070	B.98	274.682250	274.919625		[silence]	[silence]
sw2149B-ms98-a-0070	B.98	274.919625	275.668000		[noise]	[noise]
sw2149B-ms98-a-0070	B.98	275.668000	275.848000		we	we
sw2149B-ms98-a-0070	B.98	275.848000	276.288000		have	have
sw2149B-ms98-a-0070	B.98	276.288000	276.358000		a	a
sw2149B-ms98-a-0070	B.98	276.358000	276.668000		group	group
sw2149B-ms98-a-0070	B.98	276.668000	276.878000		called	called
sw2149B-ms98-a-0070	B.98	276.878000	277.148000		Hearts	Hearts
sw2149B-ms98-a-0070	B.98	277.148000	277.248000		and	and
sw2149B-ms98-a-0070	B.98	277.248000	277.568000		Hammers	Hammers
sw2149B-ms98-a-0070	B.98	277.568000	277.708000		and	and
sw2149B-ms98-a-0070	B.98	277.708000	277.828000		we	we
sw2149B-ms98-a-0070	B.98	277.828000	277.998000		go	go
sw2149B-ms98-a-0070	B.98	277.998000	278.348000		along	along
sw2149B-ms98-a-0070	B.98	278.348000	278.656750		and	and
sw2149B-ms98-a-0070	B.98	278.656750	279.523125		[silence]	[silence]
sw2149B-ms98-a-0070	B.98	279.523125	279.688000		I'm	i'm
sw2149B-ms98-a-0070	B.98	279.688000	279.858000		really	really
sw2149B-ms98-a-0070	B.98	279.858000	280.018000		not	not
sw2149B-ms98-a-0070	B.98	280.018000	280.168000		sure	sure
sw2149B-ms98-a-0070	B.98	280.168000	280.518000		how	how
sw2149B-ms98-a-0070	B.98	280.518000	280.678000		we	we
sw2149B-ms98-a-0070	B.98	280.678000	281.018000		find	find
sw2149B-ms98-a-0070	B.98	281.018000	281.098000		the	the
sw2149B-ms98-a-0070	B.98	281.098000	281.688000		individuals	individuals
sw2149B-ms98-a-0070	B.98	281.688000	281.828000		but	but
sw2149B-ms98-a-0070	B.98	281.828000	281.948000		we	we
sw2149B-ms98-a-0070	B.98	281.948000	282.264250		find	find
sw2149B-ms98-a-0070	B.98	282.264250	282.490250		[silence]	[silence]
sw2149B-ms98-a-0070	B.98	282.490250	282.748000		older	older
sw2149B-ms98-a-0070	B.98	282.748000	283.208000		people	people
sw2149B-ms98-a-0070	B.98	283.208000	283.453875		[silence]	[silence]
sw2149B-ms98-a-0071	B.98	283.453875	283.863875		[silence]	[silence]
sw2149B-ms98-a-0071	B.98	283.863875	283.993875		that	that
sw2149B-ms98-a-0071	B.98	283.993875	284.313875		cannot	cannot
sw2149B-ms98-a-0071	B.98	284.313875	284.593875		afford	afford
sw2149B-ms98-a-0071	B.98	284.593875	284.653875		to	to
sw2149B-ms98-a-0071	B.98	284.653875	284.873875		fix	fix
sw2149B-ms98-a-0071	B.98	284.873875	284.983875		up	up
sw2149B-ms98-a-0071	B.98	284.983875	285.103875		their	their
sw2149B-ms98-a-0071	B.98	285.103875	285.753250		homes	homes
sw2149B-ms98-a-0071	B.98	285.753250	286.235375		[silence]	[silence]
sw2149B-ms98-a-0071	B.98	286.235375	286.413875		that	that
sw2149B-ms98-a-0071	B.98	286.413875	286.623875		n-	n[eed]-
sw2149B-ms98-a-0071	B.98	286.623875	287.173875		desperately	desperately
sw2149B-ms98-a-0071	B.98	287.173875	287.483875		need	need
sw2149B-ms98-a-0071	B.98	287.483875	287.713875		it	it
sw2149B-ms98-a-0071	B.98	287.713875	288.213875		and	and
sw2149B-ms98-a-0071	B.98	288.213875	288.373875		uh	uh
sw2149B-ms98-a-0071	B.98	288.373875	288.493875		we	we
sw2149B-ms98-a-0071	B.98	288.493875	288.623875		go	go
sw2149B-ms98-a-0071	B.98	288.623875	288.913875		along	along
sw2149B-ms98-a-0071	B.98	288.913875	289.073875		with	with
sw2149B-ms98-a-0071	B.98	289.073875	289.193875		all	all
sw2149B-ms98-a-0071	B.98	289.193875	289.253875		the	the
sw2149B-ms98-a-0071	B.98	289.253875	289.773875		material	material
sw2149B-ms98-a-0071	B.98	289.773875	289.870875		and	and
sw2149B-ms98-a-0071	B.98	289.870875	290.345500		[silence]	[silence]
sw2149B-ms98-a-0071	B.98	290.345500	290.583875		in	in
sw2149B-ms98-a-0071	B.98	290.583875	290.753875		one	one
sw2149B-ms98-a-0071	B.98	290.753875	291.308125		day	day
sw2149B-ms98-a-0071	B.98	291.308125	291.451250		[silence]	[silence]
sw2149B-ms98-a-0071	B.98	291.451250	291.583875		more	more
sw2149B-ms98-a-0071	B.98	291.583875	291.693875		or	or
sw2149B-ms98-a-0071	B.98	291.693875	292.043875		less	less
sw2149B-ms98-a-0071	B.98	292.043875	292.693875		[silence]	[silence]
sw2149B-ms98-a-0071	B.98	292.693875	292.893875		go	go
sw2149B-ms98-a-0071	B.98	292.893875	293.083875		in	in
sw2149B-ms98-a-0071	B.98	293.083875	293.403875		and	and
sw2149B-ms98-a-0071	B.98	293.403875	293.683875		say	say
sw2149B-ms98-a-0071	B.98	293.683875	294.323875		roof	roof
sw2149B-ms98-a-0071	B.98	294.323875	294.896375		paint	paint
sw2149B-ms98-a-0071	B.98	294.896375	295.280500		[silence]	[silence]
sw2149B-ms98-a-0071	B.98	295.280500	295.543875		fix	fix
sw2149B-ms98-a-0071	B.98	295.543875	295.833875		whatever	whatever
sw2149B-ms98-a-0071	B.98	295.833875	295.933875		we	we
sw2149B-ms98-a-0071	B.98	295.933875	296.493875		can	can
sw2149B-ms98-a-0071	B.100	296.493875	296.979250		[silence]	[silence]
sw2149B-ms98-a-0072	B.100	296.979250	297.479250		[silence]	[silence]
sw2149B-ms98-a-0072	B.100	297.479250	297.879250		Yeah	yeah
sw2149B-ms98-a-0072	B.100	297.879250	298.009250		and	and
sw2149B-ms98-a-0072	B.100	298.009250	298.249250		spend	spend
sw2149B-ms98-a-0072	B.100	298.249250	298.299250		a	a
sw2149B-ms98-a-0072	B.100	298.299250	298.499250		day	day
sw2149B-ms98-a-0072	B.100	298.499250	298.719250		doing	doing
sw2149B-ms98-a-0072	B.100	298.719250	299.189250		that's	that's
sw2149B-ms98-a-0072	B.100	299.189250	299.519250		really	really
sw2149B-ms98-a-0072	B.100	299.519250	299.909250		neat	neat
sw2149B-ms98-a-0072	B.100	299.909250	299.939250		I	i
sw2149B-ms98-a-0072	B.100	299.939250	300.199250		mean	mean
sw2149B-ms98-a-0072	B.100	300.199250	300.349250		it's	it's
sw2149B-ms98-a-0072	B.100	300.349250	300.529250		not	not
sw2149B-ms98-a-0072	B.100	300.529250	300.559250		a	a
sw2149B-ms98-a-0072	B.100	300.559250	300.859250		lot	lot
sw2149B-ms98-a-0072	B.100	300.859250	301.179250		because	because
sw2149B-ms98-a-0072	B.100	301.179250	301.289250		you're	you're
sw2149B-ms98-a-0072	B.100	301.289250	301.439250		just	just
sw2149B-ms98-a-0072	B.100	301.439250	301.619250		doing	doing
sw2149B-ms98-a-0072	B.100	301.619250	301.649250		a	a
sw2149B-ms98-a-0072	B.100	301.649250	301.999250		house	house
sw2149B-ms98-a-0072	B.100	301.999250	302.079250		at	at
sw2149B-ms98-a-0072	B.100	302.079250	302.119250		a	a
sw2149B-ms98-a-0072	B.100	302.119250	302.499250		time	time
sw2149B-ms98-a-0072	B.100	302.499250	302.779500		but	but
sw2149B-ms98-a-0072	B.100	302.779500	303.514000		[silence]	[silence]
sw2149B-ms98-a-0072	B.100	303.514000	303.789250		you	you
sw2149B-ms98-a-0072	B.100	303.789250	303.859250		know	know
sw2149B-ms98-a-0072	B.100	303.859250	304.059250		every	every
sw2149B-ms98-a-0072	B.100	304.059250	304.239250		little	little
sw2149B-ms98-a-0072	B.100	304.239250	304.399250		bit	bit
sw2149B-ms98-a-0072	B.100	304.399250	304.929250		helps	helps
sw2149B-ms98-a-0072	B.102	304.929250	305.966375		[silence]	[silence]
sw2149B-ms98-a-0073	B.102	305.966375	307.475750		[silence]	[silence]
sw2149B-ms98-a-0074	B.102	307.475750	308.055750		[silence]	[silence]
sw2149B-ms98-a-0074	B.102	308.055750	308.265750		Uh	uh
sw2149B-ms98-a-0074	B.102	308.265750	308.721375		yeah	yeah
sw2149B-ms98-a-0074	B.102	308.721375	308.860750		[silence]	[silence]
sw2149B-ms98-a-0074	B.102	308.860750	309.115750		They	they
sw2149B-ms98-a-0074	B.102	309.115750	309.460625		uh	uh
sw2149B-ms98-a-0074	B.102	309.460625	309.713000		[silence]	[silence]
sw2149B-ms98-a-0074	B.102	309.713000	310.375750		[noise]	[noise]
sw2149B-ms98-a-0074	B.102	310.375750	310.795750		luckily	luckily
sw2149B-ms98-a-0074	B.102	310.795750	310.915750		we	we
sw2149B-ms98-a-0074	B.102	310.915750	311.125750		have	have
sw2149B-ms98-a-0074	B.102	311.125750	311.763250		a	a
sw2149B-ms98-a-0074	B.102	311.763250	312.298125		[silence]	[silence]
sw2149B-ms98-a-0074	B.102	312.298125	312.435750		a	a
sw2149B-ms98-a-0074	B.102	312.435750	312.765750		man	man
sw2149B-ms98-a-0074	B.102	312.765750	312.865750		who	who
sw2149B-ms98-a-0074	B.102	312.865750	313.165750		owns	owns
sw2149B-ms98-a-0074	B.102	313.165750	313.235750		a	a
sw2149B-ms98-a-0074	B.102	313.235750	313.672500		building	building
sw2149B-ms98-a-0074	B.102	313.672500	313.800500		[silence]	[silence]
sw2149B-ms98-a-0074	B.102	313.800500	314.334125		company	company
sw2149B-ms98-a-0074	B.104	314.334125	314.958500		[silence]	[silence]
sw2149B-ms98-a-0075	B.104	314.958500	315.524125		[silence]	[silence]
sw2149B-ms98-a-0075	B.104	315.524125	315.758500		So	so
sw2149B-ms98-a-0075	B.104	315.758500	315.938500		he	he
sw2149B-ms98-a-0075	B.104	315.938500	316.308500		donates	donates
sw2149B-ms98-a-0075	B.104	316.308500	316.408500		a	a
sw2149B-ms98-a-0075	B.104	316.408500	316.918500		lot	lot
sw2149B-ms98-a-0075	B.104	316.918500	317.198500		not	not
sw2149B-ms98-a-0075	B.104	317.198500	317.948500		everything	everything
sw2149B-ms98-a-0075	B.104	317.948500	318.088500		but	but
sw2149B-ms98-a-0075	B.104	318.088500	318.198500		a	a
sw2149B-ms98-a-0075	B.104	318.198500	318.624875		lot	lot
sw2149B-ms98-a-0075	B.104	318.624875	318.865875		[silence]	[silence]
sw2149B-ms98-a-0075	B.104	318.865875	319.068500		of	of
sw2149B-ms98-a-0075	B.104	319.068500	319.128500		the	the
sw2149B-ms98-a-0075	B.104	319.128500	319.688250		material	material
sw2149B-ms98-a-0075	B.104	319.688250	320.117625		[silence]	[silence]
sw2149B-ms98-a-0075	B.104	320.117625	320.218500		Then	then
sw2149B-ms98-a-0075	B.104	320.218500	320.358500		what	what
sw2149B-ms98-a-0075	B.104	320.358500	320.508500		he	he
sw2149B-ms98-a-0075	B.104	320.508500	320.888500		doesn't	doesn't
sw2149B-ms98-a-0075	B.104	320.888500	321.278500		donate	donate
sw2149B-ms98-a-0075	B.104	321.278500	321.448500		we	we
sw2149B-ms98-a-0075	B.104	321.448500	321.658500		just	just
sw2149B-ms98-a-0075	B.104	321.658500	321.758500		go	go
sw2149B-ms98-a-0075	B.104	321.758500	321.918500		out	out
sw2149B-ms98-a-0075	B.104	321.918500	322.008500		and	and
sw2149B-ms98-a-0075	B.104	322.008500	322.474125		buy	buy
sw2149B-ms98-a-0075	B.106	322.474125	322.971125		[silence]	[silence]
sw2149B-ms98-a-0076	B.106	322.971125	323.706625		[silence]	[silence]
sw2149B-ms98-a-0076	B.106	323.706625	324.071125		[noise]	[noise]
sw2149B-ms98-a-0076	B.106	324.071125	324.421125		Yeah	yeah
sw2149B-ms98-a-0076	B.108	324.421125	324.651125		And	and
sw2149B-ms98-a-0076	B.108	324.651125	324.951125		it's	it's
sw2149B-ms98-a-0076	B.108	324.951125	325.414375		not	not
sw2149B-ms98-a-0076	B.108	325.414375	326.126250		[silence]	[silence]
sw2149B-ms98-a-0076	B.108	326.126250	326.251125		you	you
sw2149B-ms98-a-0076	B.108	326.251125	326.331125		know	know
sw2149B-ms98-a-0076	B.108	326.331125	326.421125		we	we
sw2149B-ms98-a-0076	B.108	326.421125	326.601125		don't	don't
sw2149B-ms98-a-0076	B.108	326.601125	326.951125		promote	promote
sw2149B-ms98-a-0076	B.108	326.951125	327.041125		it	it
sw2149B-ms98-a-0076	B.108	327.041125	327.111125		a	a
sw2149B-ms98-a-0076	B.108	327.111125	327.531125		lot	lot
sw2149B-ms98-a-0076	B.108	327.531125	327.841125		outside	outside
sw2149B-ms98-a-0076	B.108	327.841125	327.901125		the	the
sw2149B-ms98-a-0076	B.108	327.901125	328.331125		community	community
sw2149B-ms98-a-0076	B.108	328.331125	328.621125		because	because
sw2149B-ms98-a-0076	B.108	328.621125	328.711125		we	we
sw2149B-ms98-a-0076	B.108	328.711125	328.861125		don't	don't
sw2149B-ms98-a-0076	B.108	328.861125	329.104125		want	want
sw2149B-ms98-a-0076	B.108	329.104125	329.556125		[silence]	[silence]
sw2149B-ms98-a-0076	B.108	329.556125	330.311125		recognition	recognition
sw2149B-ms98-a-0076	B.108	330.311125	330.661125		for	for
sw2149B-ms98-a-0076	B.108	330.661125	330.821125		it	it
sw2149B-ms98-a-0076	B.108	330.821125	330.941125		you	you
sw2149B-ms98-a-0076	B.108	330.941125	331.261125		know	know
sw2149B-ms98-a-0076	B.110	331.261125	331.571125		so	so
sw2149B-ms98-a-0076	B.110	331.571125	331.911125		much	much
sw2149B-ms98-a-0076	B.110	331.911125	332.278875		as	as
sw2149B-ms98-a-0076	B.110	332.278875	332.568875		[silence]	[silence]
sw2149B-ms98-a-0076	B.110	332.568875	332.671125		we	we
sw2149B-ms98-a-0076	B.110	332.671125	332.821125		just	just
sw2149B-ms98-a-0076	B.110	332.821125	332.941125		want	want
sw2149B-ms98-a-0076	B.110	332.941125	333.001125		to	to
sw2149B-ms98-a-0076	B.110	333.001125	333.121125		help	help
sw2149B-ms98-a-0076	B.110	333.121125	333.371125		people	people
sw2149B-ms98-a-0076	B.110	333.371125	333.642125		out	out
sw2149B-ms98-a-0076	B.110	333.642125	334.026375		[silence]	[silence]
sw2149B-ms98-a-0076	B.110	334.026375	334.131125		So	so
sw2149B-ms98-a-0076	B.110	334.131125	334.281125		it's	it's
sw2149B-ms98-a-0076	B.110	334.281125	334.487250		real	real
sw2149B-ms98-a-0076	B.110	334.487250	334.622750		neat	neat
sw2149B-ms98-a-0076	B.112	334.622750	334.787500		It's	it's
sw2149B-ms98-a-0076	B.114	334.787500	335.968250		[silence]	[silence]
sw2149B-ms98-a-0077	B.114	335.968250	336.989375		[silence]	[silence]
sw2149B-ms98-a-0078	B.114	336.989375	337.774500		[silence]	[silence]
sw2149B-ms98-a-0078	B.114	337.774500	338.350500		Yeah	yeah
sw2149B-ms98-a-0078	B.114	338.350500	338.739375		it's	it's
sw2149B-ms98-a-0078	B.116	338.739375	338.869375		like	like
sw2149B-ms98-a-0078	B.116	338.869375	338.899375		I	i
sw2149B-ms98-a-0078	B.116	338.899375	338.989375		say	say
sw2149B-ms98-a-0078	B.116	338.989375	339.179375		it's	it's
sw2149B-ms98-a-0078	B.116	339.179375	339.389375		not	not
sw2149B-ms98-a-0078	B.116	339.389375	339.419375		a	a
sw2149B-ms98-a-0078	B.116	339.419375	339.719375		lot	lot
sw2149B-ms98-a-0078	B.116	339.719375	339.849375		but	but
sw2149B-ms98-a-0078	B.116	339.849375	339.939375		it	it
sw2149B-ms98-a-0078	B.116	339.939375	340.259375		helps	helps
sw2149B-ms98-a-0078	B.116	340.259375	340.599375		people	people
sw2149B-ms98-a-0078	B.116	340.599375	340.779375		Like	like
sw2149B-ms98-a-0078	B.116	340.779375	340.969375		this	this
sw2149B-ms98-a-0078	B.116	340.969375	341.189375		last	last
sw2149B-ms98-a-0078	B.116	341.189375	341.389375		couple	couple
sw2149B-ms98-a-0078	B.116	341.389375	341.529375		we	we
sw2149B-ms98-a-0078	B.116	341.529375	341.849375		helped	helped
sw2149B-ms98-a-0078	B.116	341.849375	341.949375		you	you
sw2149B-ms98-a-0078	B.116	341.949375	342.069375		know	know
sw2149B-ms98-a-0078	B.116	342.069375	342.219375		they	they
sw2149B-ms98-a-0078	B.116	342.219375	342.279375		were	were
sw2149B-ms98-a-0078	B.116	342.279375	342.539375		in	in
sw2149B-ms98-a-0078	B.116	342.539375	342.639375		their	their
sw2149B-ms98-a-0078	B.116	342.639375	343.419375		eighties	eighties
sw2149B-ms98-a-0078	B.116	343.419375	343.599375		and	and
sw2149B-ms98-a-0078	B.116	343.599375	343.759375		she	she
sw2149B-ms98-a-0078	B.116	343.759375	343.849375		was	was
sw2149B-ms98-a-0078	B.116	343.849375	344.569375		bedridden	bedridden
sw2149B-ms98-a-0078	B.116	344.569375	344.739875		and	and
sw2149B-ms98-a-0078	B.116	344.739875	345.286000		[silence]	[silence]
sw2149B-ms98-a-0078	B.116	345.286000	345.399375		I	i
sw2149B-ms98-a-0078	B.116	345.399375	345.719375		just	just
sw2149B-ms98-a-0078	B.116	345.719375	345.849375		you	you
sw2149B-ms98-a-0078	B.116	345.849375	345.979375		know	know
sw2149B-ms98-a-0078	B.116	345.979375	346.069375	<DEL>	---	it
sw2149B-ms98-a-0078	B.116	346.069375	346.359375		just	just
sw2149B-ms98-a-0078	B.116	346.359375	346.579375		[silence]	[silence]
sw2149B-ms98-a-0078	B.116	346.579375	346.929375		tears	tears
sw2149B-ms98-a-0078	B.116	346.929375	347.019375		your	your
sw2149B-ms98-a-0078	B.116	347.019375	347.249375		heart	heart
sw2149B-ms98-a-0078	B.116	347.249375	347.569375		out	out
sw2149B-ms98-a-0078	B.116	347.569375	347.867875		to	to
sw2149B-ms98-a-0078	B.118	347.867875	348.475500		[silence]	[silence]
sw2149B-ms98-a-0079	B.118	348.475500	349.095500		[silence]	[silence]
sw2149B-ms98-a-0079	B.118	349.095500	349.365500		to	to
sw2149B-ms98-a-0079	B.118	349.365500	349.625500		see	see
sw2149B-ms98-a-0079	B.118	349.625500	349.795500		this	this
sw2149B-ms98-a-0079	B.118	349.795500	349.955500		kind	kind
sw2149B-ms98-a-0079	B.118	349.955500	350.015500		of	of
sw2149B-ms98-a-0079	B.118	350.015500	350.155500		thing	thing
sw2149B-ms98-a-0079	B.118	350.155500	350.255500		and	and
sw2149B-ms98-a-0079	B.118	350.255500	350.375500		you	you
sw2149B-ms98-a-0079	B.118	350.375500	350.685500		know	know
sw2149B-ms98-a-0079	B.118	350.685500	350.795500		if	if
sw2149B-ms98-a-0079	B.118	350.795500	350.865500		you	you
sw2149B-ms98-a-0079	B.118	350.865500	350.955500		can	can
sw2149B-ms98-a-0079	B.118	350.955500	351.015500		do	do
sw2149B-ms98-a-0079	B.118	351.015500	351.055500	<DEL>	---	a[ny]-
sw2149B-ms98-a-0079	B.118	351.055500	351.365500		any	any
sw2149B-ms98-a-0079	B.118	351.365500	351.365500	<INS>	a	---
sw2149B-ms98-a-0079	B.118	351.365500	351.635500		little	little
sw2149B-ms98-a-0079	B.118	351.635500	352.059625		bit	bit
sw2149B-ms98-a-0079	B.118	352.059625	352.210250		[silence]	[silence]
sw2149B-ms98-a-0079	B.118	352.210250	352.375500		it	it
sw2149B-ms98-a-0079	B.118	352.375500	352.905500		helps	helps
sw2149B-ms98-a-0079	B.118	352.905500	353.218375		so	so
sw2149B-ms98-a-0079	B.120	353.218375	353.672750		[silence]	[silence]
sw2149B-ms98-a-0080	B.120	353.672750	354.986875		[silence]	[silence]
sw2149B-ms98-a-0081	B.120	354.986875	355.446875		[silence]	[silence]
sw2149B-ms98-a-0081	B.120	355.446875	355.849250		Yeah	yeah
sw2149B-ms98-a-0081	B.122	355.849250	356.261250		[silence]	[silence]
sw2149B-ms98-a-0082	B.122	356.261250	363.969000		[silence]	[silence]
sw2149B-ms98-a-0083	B.122	363.969000	364.644875		[silence]	[silence]
sw2149B-ms98-a-0083	B.122	364.644875	365.216375		Yeah	yeah
sw2149B-ms98-a-0083	B.124	365.216375	365.985625		[silence]	[silence]
sw2149B-ms98-a-0084	B.124	365.985625	375.447250		[silence]	[silence]
sw2149B-ms98-a-0085	B.124	375.447250	376.009000		[silence]	[silence]
sw2149B-ms98-a-0085	B.124	376.009000	377.167250	<SUB>	Gosh	go[sh]-
sw2149B-ms98-a-0085	B.126	377.167250	377.467250		That's	that's
sw2149B-ms98-a-0085	B.126	377.467250	377.987250		great	great
sw2149B-ms98-a-0085	B.126	377.987250	378.157250		That's	that's
sw2149B-ms98-a-0085	B.126	378.157250	378.237250		a	a
sw2149B-ms98-a-0085	B.126	378.237250	378.830375		lot	lot
sw2149B-ms98-a-0085	B.128	378.830375	379.265375		[silence]	[silence]
sw2149B-ms98-a-0086	B.128	379.265375	381.987500		[silence]	[silence]
sw2149B-ms98-a-0087	B.128	381.987500	382.617500		[silence]	[silence]
sw2149B-ms98-a-0087	B.128	382.617500	382.927500		That's	that's
sw2149B-ms98-a-0087	B.128	382.927500	383.187500		that's	that's
sw2149B-ms98-a-0087	B.128	383.187500	383.277500		a	a
sw2149B-ms98-a-0087	B.128	383.277500	383.527500		lot	lot
sw2149B-ms98-a-0087	B.128	383.527500	383.617500		of	of
sw2149B-ms98-a-0087	B.128	383.617500	384.047500		kids	kids
sw2149B-ms98-a-0087	B.128	384.047500	384.546375		though	though
sw2149B-ms98-a-0087	B.130	384.546375	385.308000		[silence]	[silence]
sw2149B-ms98-a-0088	B.130	385.308000	386.033000		[silence]	[silence]
sw2149B-ms98-a-0088	B.130	386.033000	386.578000		Oh	oh
sw2149B-ms98-a-0088	B.130	386.578000	386.928000		well	[laughter-well]
sw2149B-ms98-a-0088	B.132	386.928000	387.088000		still	still
sw2149B-ms98-a-0088	B.132	387.088000	387.608000		that's	[laughter-that's]
sw2149B-ms98-a-0088	B.132	387.608000	387.728000		a	a
sw2149B-ms98-a-0088	B.132	387.728000	387.868000	<DEL>	---	l[ot]-
sw2149B-ms98-a-0088	B.132	387.868000	388.108000		you	you
sw2149B-ms98-a-0088	B.132	388.108000	388.258000		know	know
sw2149B-ms98-a-0088	B.132	388.258000	388.458000		that's	that's
sw2149B-ms98-a-0088	B.132	388.458000	388.518000		a	a
sw2149B-ms98-a-0088	B.132	388.518000	388.748000		good	good
sw2149B-ms98-a-0088	B.132	388.748000	389.048000		chunk	chunk
sw2149B-ms98-a-0088	B.132	389.048000	389.178000		of	of
sw2149B-ms98-a-0088	B.132	389.178000	389.834250	<SUB>	kids	kid[s]-
sw2149B-ms98-a-0088	B.136	389.834250	390.229000		[silence]	[silence]
sw2149B-ms98-a-0089	B.136	390.229000	394.328375		[silence]	[silence]
sw2149B-ms98-a-0090	B.136	394.328375	394.800125		[silence]	[silence]
sw2149B-ms98-a-0090	B.136	394.800125	395.192250		Yeah	yeah
sw2149B-ms98-a-0090	B.140	395.192250	395.724375		[silence]	[silence]
sw2149B-ms98-a-0091	B.140	395.724375	399.499375		[silence]	[silence]
sw2149B-ms98-a-0092	B.140	399.499375	400.259375		[silence]	[silence]
sw2149B-ms98-a-0092	B.140	400.259375	400.819375		Yeah	yeah
sw2149B-ms98-a-0092	B.140	400.819375	401.229375		That's	that's
sw2149B-ms98-a-0092	B.140	401.229375	402.019375		neat	neat
sw2149B-ms98-a-0092	B.142	402.019375	402.773375		[silence]	[silence]
sw2149B-ms98-a-0093	B.142	402.773375	403.333375		[silence]	[silence]
sw2149B-ms98-a-0093	B.142	403.333375	403.543375		That's	that's
sw2149B-ms98-a-0093	B.142	403.543375	404.444375		great	great
sw2149B-ms98-a-0093	B.144	404.444375	404.820375		[silence]	[silence]
sw2149B-ms98-a-0093	B.144	404.820375	405.133375		That's	that's
sw2149B-ms98-a-0093	B.144	405.133375	405.664250		great	great
sw2149B-ms98-a-0093	B.144	405.664250	406.462375		[silence]	[silence]
sw2149B-ms98-a-0093	B.144	406.462375	406.903375		But	but
sw2149B-ms98-a-0093	B.144	406.903375	407.293375		uh	uh
sw2149B-ms98-a-0093	B.144	407.293375	407.463375		like	like
sw2149B-ms98-a-0093	B.144	407.463375	407.633375		I'll	i'll
sw2149B-ms98-a-0093	B.144	407.633375	407.943375		agree	agree
sw2149B-ms98-a-0093	B.144	407.943375	408.143375		with	with
sw2149B-ms98-a-0093	B.144	408.143375	408.313375		you	you
sw2149B-ms98-a-0093	B.144	408.313375	408.463375		though	though
sw2149B-ms98-a-0093	B.144	408.463375	408.533375		I	i
sw2149B-ms98-a-0093	B.144	408.533375	408.733375		don't	don't
sw2149B-ms98-a-0093	B.144	408.733375	408.913375		think	think
sw2149B-ms98-a-0093	B.144	408.913375	409.013375		they	they
sw2149B-ms98-a-0093	B.144	409.013375	409.203375		should	should
sw2149B-ms98-a-0093	B.144	409.203375	409.403375		have	have
sw2149B-ms98-a-0093	B.144	409.403375	409.483375		to	to
sw2149B-ms98-a-0093	B.144	409.483375	409.573375		do	do
sw2149B-ms98-a-0093	B.144	409.573375	409.793375		a	a
sw2149B-ms98-a-0093	B.144	409.793375	410.253375		year	year
sw2149B-ms98-a-0093	B.148	410.253375	411.179875		[laughter]	[laughter]
sw2149B-ms98-a-0093	B.148	411.179875	411.332250		[silence]	[silence]
sw2149B-ms98-a-0094	B.148	411.332250	412.743000		[silence]	[silence]
sw2149B-ms98-a-0095	B.148	412.743000	413.243000		[silence]	[silence]
sw2149B-ms98-a-0095	B.148	413.243000	413.593000		Yeah	yeah
sw2149B-ms98-a-0095	B.150	413.593000	413.623000		I	i
sw2149B-ms98-a-0095	B.150	413.623000	413.744125		don't	don't
sw2149B-ms98-a-0095	B.150	413.744125	414.452250		[silence]	[silence]
sw2149B-ms98-a-0095	B.150	414.452250	414.803000		think	think
sw2149B-ms98-a-0095	B.150	414.803000	414.953000		that	that
sw2149B-ms98-a-0095	B.150	414.953000	415.213000		some	some
sw2149B-ms98-a-0095	B.150	415.213000	415.493000		people	people
sw2149B-ms98-a-0095	B.150	415.493000	415.553000		I	i
sw2149B-ms98-a-0095	B.150	415.553000	415.773000		don't	don't
sw2149B-ms98-a-0095	B.150	415.773000	416.033000		think	think
sw2149B-ms98-a-0095	B.150	416.033000	416.413000		have	have
sw2149B-ms98-a-0095	B.150	416.413000	416.623000		uh	uh
sw2149B-ms98-a-0095	B.150	416.623000	416.771875		a	a
sw2149B-ms98-a-0095	B.150	416.771875	417.544125		[silence]	[silence]
sw2149B-ms98-a-0095	B.150	417.544125	417.893000		year	year
sw2149B-ms98-a-0095	B.150	417.893000	418.033000		in	in
sw2149B-ms98-a-0095	B.150	418.033000	418.203000		them	them_1
sw2149B-ms98-a-0095	B.150	418.203000	418.313000		to	to
sw2149B-ms98-a-0095	B.150	418.313000	418.743000		volunteer	volunteer
sw2149B-ms98-a-0095	B.150	418.743000	418.853000		if	if
sw2149B-ms98-a-0095	B.150	418.853000	418.933000		you	you
sw2149B-ms98-a-0095	B.150	418.933000	419.033000		know	know
sw2149B-ms98-a-0095	B.150	419.033000	419.123000		what	what
sw2149B-ms98-a-0095	B.150	419.123000	419.173000		I	i
sw2149B-ms98-a-0095	B.150	419.173000	419.453000		mean	mean
sw2149B-ms98-a-0095	B.150	419.453000	419.583000		They're	they're
sw2149B-ms98-a-0095	B.150	419.583000	419.753000		not	not
sw2149B-ms98-a-0095	B.150	419.753000	420.153000		worth	[laughter-worth]
sw2149B-ms98-a-0095	B.150	420.153000	422.328125		it	[laughter-it]
sw2149B-ms98-a-0095	B.154	422.328125	422.491000		[silence]	[silence]
sw2149B-ms98-a-0096	B.154	422.491000	423.296000		[silence]	[silence]
sw2149B-ms98-a-0096	B.154	423.296000	423.971125		Right	right
sw2149B-ms98-a-0096	B.156	423.971125	424.415750		[silence]	[silence]
sw2149B-ms98-a-0097	B.156	424.415750	425.450750		[silence]	[silence]
sw2149B-ms98-a-0098	B.156	425.450750	425.930750		[silence]	[silence]
sw2149B-ms98-a-0098	B.156	425.930750	426.170750		Oh	oh
sw2149B-ms98-a-0098	B.156	426.170750	426.470750		yeah	yeah
sw2149B-ms98-a-0098	B.156	426.470750	426.800750		that's	that's
sw2149B-ms98-a-0098	B.156	426.800750	427.210750		true	true
sw2149B-ms98-a-0098	B.156	427.210750	427.430750		that's	that's
sw2149B-ms98-a-0098	B.156	427.430750	428.216375		true	true
sw2149B-ms98-a-0098	B.158	428.216375	428.483000		[silence]	[silence]
sw2149B-ms98-a-0099	B.158	428.483000	437.235750		[silence]	[silence]
sw2149B-ms98-a-0100	B.158	437.235750	437.670750		[silence]	[silence]
sw2149B-ms98-a-0100	B.158	437.670750	438.015750		Oh	oh
sw2149B-ms98-a-0100	B.160	438.015750	438.055750	<DEL>	---	oh
sw2149B-ms98-a-0100	B.160	438.055750	438.338875	<DEL>	---	oh
sw2149B-ms98-a-0100	B.160	438.338875	438.652625		[silence]	[silence]
sw2149B-ms98-a-0101	B.160	438.652625	442.507250		[silence]	[silence]
sw2149B-ms98-a-0102	B.160	442.507250	443.317500		[silence]	[silence]
sw2149B-ms98-a-0102	B.160	443.317500	444.148625	<DEL>	---	[laughter-i]
sw2149B-ms98-a-0102	B.160	444.148625	444.267250		I	i
sw2149B-ms98-a-0102	B.160	444.267250	444.577250		couldn't	[laughter-couldn't]
sw2149B-ms98-a-0102	B.160	444.577250	445.174375		either	either
sw2149B-ms98-a-0102	B.162	445.174375	446.137500		[silence]	[silence]
sw2149B-ms98-a-0102	B.162	446.137500	446.324375		I	i
sw2149B-ms98-a-0102	B.162	446.324375	446.614000		couldn't	couldn't
sw2149B-ms98-a-0102	B.162	446.614000	446.993125		either	either
sw2149B-ms98-a-0102	B.164	446.993125	447.493375		[silence]	[silence]
sw2149B-ms98-a-0103	B.164	447.493375	448.991625		[silence]	[silence]
sw2149B-ms98-a-0104	B.164	448.991625	449.501625		[silence]	[silence]
sw2149B-ms98-a-0104	B.164	449.501625	450.183625		Right	right
sw2149B-ms98-a-0104	B.164	450.183625	451.655625		right	right
sw2149B-ms98-a-0104	B.168	451.655625	451.999000		[silence]	[silence]
sw2149B-ms98-a-0105	B.168	451.999000	452.389000		[silence]	[silence]
sw2149B-ms98-a-0105	B.168	452.389000	452.669000		Yeah	yeah
sw2149B-ms98-a-0105	B.168	452.669000	452.759000		I	i
sw2149B-ms98-a-0105	B.168	452.759000	452.969000		just	just
sw2149B-ms98-a-0105	B.168	452.969000	453.079000		know	know
sw2149B-ms98-a-0105	B.168	453.079000	453.249000		one	one
sw2149B-ms98-a-0105	B.168	453.249000	453.649000		person	person
sw2149B-ms98-a-0105	B.168	453.649000	453.879000		that's	that's
sw2149B-ms98-a-0105	B.168	453.879000	453.959000		in	in
sw2149B-ms98-a-0105	B.168	453.959000	454.019000		the	the
sw2149B-ms98-a-0105	B.168	454.019000	454.289000		Peace	Peace
sw2149B-ms98-a-0105	B.168	454.289000	454.589000		Corps	Corps
sw2149B-ms98-a-0105	B.168	454.589000	454.879000		and	and
sw2149B-ms98-a-0105	B.168	454.879000	456.409000		[noise]	[noise]
sw2149B-ms98-a-0105	B.168	456.409000	456.479000		I	i
sw2149B-ms98-a-0105	B.168	456.479000	456.689000	<SUB>	mean	me[an]-
sw2149B-ms98-a-0105	B.168	456.689000	456.949000		she's	she's
sw2149B-ms98-a-0105	B.168	456.949000	456.999000		a	a
sw2149B-ms98-a-0105	B.168	456.999000	457.799000		teacher	teacher
sw2149B-ms98-a-0105	B.168	457.799000	458.179000		and	and
sw2149B-ms98-a-0105	B.168	458.179000	458.919000		[silence]	[silence]
sw2149B-ms98-a-0105	B.168	458.919000	459.049000		and	and
sw2149B-ms98-a-0105	B.168	459.049000	459.269000		just	just
sw2149B-ms98-a-0105	B.168	459.269000	459.539000		wanted	wanted
sw2149B-ms98-a-0105	B.168	459.539000	459.599000		to	to
sw2149B-ms98-a-0105	B.168	459.599000	459.689000		do	do
sw2149B-ms98-a-0105	B.168	459.689000	459.889000		it	it
sw2149B-ms98-a-0105	B.168	459.889000	460.059000		She'd	she'd
sw2149B-ms98-a-0105	B.168	460.059000	460.209000		been	been
sw2149B-ms98-a-0105	B.168	460.209000	460.269000		a	a
sw2149B-ms98-a-0105	B.168	460.269000	460.629000		teacher	teacher
sw2149B-ms98-a-0105	B.168	460.629000	460.749000		for	for
sw2149B-ms98-a-0105	B.168	460.749000	460.819000		a	a
sw2149B-ms98-a-0105	B.168	460.819000	461.149000		while	while
sw2149B-ms98-a-0105	B.168	461.149000	461.419000		Just	just
sw2149B-ms98-a-0105	B.168	461.419000	461.879000		decided	decided
sw2149B-ms98-a-0105	B.168	461.879000	461.989000		she	she
sw2149B-ms98-a-0105	B.168	461.989000	462.249000		wanted	wanted
sw2149B-ms98-a-0105	B.168	462.249000	462.309000		to	to
sw2149B-ms98-a-0105	B.168	462.309000	462.369000		do	do
sw2149B-ms98-a-0105	B.168	462.369000	462.589000		it	it
sw2149B-ms98-a-0105	B.168	462.589000	462.947750		so	so
sw2149B-ms98-a-0105	B.168	462.947750	463.498125		[silence]	[silence]
sw2149B-ms98-a-0106	B.168	463.498125	463.868125		[silence]	[silence]
sw2149B-ms98-a-0106	B.168	463.868125	463.968125		I	i
sw2149B-ms98-a-0106	B.168	463.968125	464.248125		mean	mean
sw2149B-ms98-a-0106	B.168	464.248125	464.368125		I'm	i'm
sw2149B-ms98-a-0106	B.168	464.368125	464.768125		grateful	grateful
sw2149B-ms98-a-0106	B.168	464.768125	465.038125		for	for
sw2149B-ms98-a-0106	B.168	465.038125	465.448125		people	people
sw2149B-ms98-a-0106	B.168	465.448125	465.628125		like	like
sw2149B-ms98-a-0106	B.168	465.628125	465.918125		that	that
sw2149B-ms98-a-0106	B.168	465.918125	466.152250		but	but
sw2149B-ms98-a-0106	B.170	466.152250	466.815125		[silence]	[silence]
sw2149B-ms98-a-0106	B.170	466.815125	466.898125		I	i
sw2149B-ms98-a-0106	B.170	466.898125	467.058125		don't	don't
sw2149B-ms98-a-0106	B.170	467.058125	467.208125		see	see
sw2149B-ms98-a-0106	B.170	467.208125	467.318125		how	how
sw2149B-ms98-a-0106	B.170	467.318125	467.418125		they	they
sw2149B-ms98-a-0106	B.170	467.418125	467.568125		can	can
sw2149B-ms98-a-0106	B.170	467.568125	467.849125		just	just
sw2149B-ms98-a-0106	B.172	467.849125	468.481500		[silence]	[silence]
sw2149B-ms98-a-0107	B.172	468.481500	469.431500		[silence]	[silence]
sw2149B-ms98-a-0107	B.172	469.431500	469.981500		Yeah	yeah
sw2149B-ms98-a-0107	B.172	469.981500	470.231500		just	just
sw2149B-ms98-a-0107	B.174	470.231500	470.511500		pick	pick
sw2149B-ms98-a-0107	B.174	470.511500	470.831500		up	up
sw2149B-ms98-a-0107	B.174	470.831500	471.158625		and	and
sw2149B-ms98-a-0107	B.174	471.158625	471.983500		[silence]	[silence]
sw2149B-ms98-a-0107	B.174	471.983500	472.471500		head	head
sw2149B-ms98-a-0107	B.174	472.471500	472.901500		on	on
sw2149B-ms98-a-0107	B.174	472.901500	472.981500		out	out
sw2149B-ms98-a-0107	B.176	472.981500	473.041500		I	i
sw2149B-ms98-a-0107	B.176	473.041500	473.271500		wish	wish
sw2149B-ms98-a-0107	B.176	473.271500	473.351500		I	i
sw2149B-ms98-a-0107	B.176	473.351500	473.551500		could	could
sw2149B-ms98-a-0107	B.176	473.551500	473.701500		do	do
sw2149B-ms98-a-0107	B.176	473.701500	473.981500		something	something
sw2149B-ms98-a-0107	B.176	473.981500	474.211500		like	like
sw2149B-ms98-a-0107	B.176	474.211500	474.441500		that	that
sw2149B-ms98-a-0107	B.176	474.441500	474.863750		but	but
sw2149B-ms98-a-0107	B.176	474.863750	475.763250		[silence]	[silence]
sw2149B-ms98-a-0108	B.176	475.763250	476.423250		[silence]	[silence]
sw2149B-ms98-a-0108	B.176	476.423250	476.503250		I	i
sw2149B-ms98-a-0108	B.176	476.503250	476.913250		can't	can't
sw2149B-ms98-a-0108	B.176	476.913250	477.173250		so	so
sw2149B-ms98-a-0108	B.180	477.173250	478.555125		[laughter]	[laughter]
sw2149B-ms98-a-0108	B.180	478.555125	478.976125		[silence]	[silence]
sw2149B-ms98-a-0109	B.180	478.976125	483.489875		[silence]	[silence]
sw2149B-ms98-a-0110	B.180	483.489875	483.979875		[silence]	[silence]
sw2149B-ms98-a-0110	B.180	483.979875	484.379875		Right	right
sw2149B-ms98-a-0110	B.180	484.379875	484.629875		that's	that's
sw2149B-ms98-a-0110	B.180	484.629875	484.699875		the	the
sw2149B-ms98-a-0110	B.180	484.699875	484.759875		way	way
sw2149B-ms98-a-0110	B.180	484.759875	484.789875		I	i
sw2149B-ms98-a-0110	B.180	484.789875	484.909875		am	am
sw2149B-ms98-a-0110	B.182	484.909875	487.029875		[laughter]	[laughter]
sw2149B-ms98-a-0110	B.182	487.029875	487.079875		I	i
sw2149B-ms98-a-0110	B.182	487.079875	487.259875		know	know
sw2149B-ms98-a-0110	B.182	487.259875	487.349875		the	the
sw2149B-ms98-a-0110	B.182	487.349875	487.815625		feeling	feeling
sw2149B-ms98-a-0110	B.184	487.815625	488.314875		[silence]	[silence]
sw2149B-ms98-a-0111	B.184	488.314875	489.365625		[silence]	[silence]
sw2149B-ms98-a-0112	B.184	489.365625	489.735625		[silence]	[silence]
sw2149B-ms98-a-0112	B.184	489.735625	490.015625		That's	that's
sw2149B-ms98-a-0112	B.184	490.015625	490.328500		right	right
sw2149B-ms98-a-0112	B.184	490.328500	490.904750		[laughter]	[laughter]
sw2149B-ms98-a-0112	B.184	490.904750	491.075625		We're	we're
sw2149B-ms98-a-0112	B.184	491.075625	491.525625		against	against
sw2149B-ms98-a-0112	B.184	491.525625	491.685625		it	it
sw2149B-ms98-a-0112	B.184	491.685625	492.394500		[laughter]	[laughter]
sw2149B-ms98-a-0112	B.184	492.394500	492.500000		[silence]	[silence]
sw2149B-ms98-a-0113	B.184	492.500000	493.130000		[silence]	[silence]
sw2149B-ms98-a-0113	B.184	493.130000	493.430000		That's	that's
sw2149B-ms98-a-0113	B.184	493.430000	493.598375		right	right
sw2149B-ms98-a-0113	B.186	493.598375	493.998625		[silence]	[silence]
sw2149B-ms98-a-0114	B.186	493.998625	494.448625		[silence]	[silence]
sw2149B-ms98-a-0114	B.186	494.448625	494.778625		You	you
sw2149B-ms98-a-0114	B.186	494.778625	495.078625		too	too
sw2149B-ms98-a-0114	B.186	495.078625	495.168625		and	and
sw2149B-ms98-a-0114	B.186	495.168625	495.198625		I	i
sw2149B-ms98-a-0114	B.186	495.198625	495.358625		hope	hope
sw2149B-ms98-a-0114	B.186	495.358625	495.798625		everything	everything
sw2149B-ms98-a-0114	B.186	495.798625	496.108625		works	works
sw2149B-ms98-a-0114	B.186	496.108625	496.338625		out	out
sw2149B-ms98-a-0114	B.186	496.338625	496.438625		up	up
sw2149B-ms98-a-0114	B.186	496.438625	496.775125		there	there
sw2149B-ms98-a-0114	B.188	496.775125	497.251125		[silence]	[silence]
sw2149B-ms98-a-0115	B.188	497.251125	500.282750		[silence]	[silence]
sw2149B-ms98-a-0116	B.188	500.282750	500.852750		[silence]	[silence]
sw2149B-ms98-a-0116	B.188	500.852750	501.142750		Yeah	yeah
sw2149B-ms98-a-0116	B.190	501.142750	501.608250		[silence]	[silence]
sw2149B-ms98-a-0117	B.190	501.608250	502.995250		[silence]	[silence]
sw2149B-ms98-a-0118	B.190	502.995250	503.605250		[silence]	[silence]
sw2149B-ms98-a-0118	B.190	503.605250	504.205250		Good	good
sw2149B-ms98-a-0118	B.190	504.205250	504.605250		good	good
sw2149B-ms98-a-0118	B.190	504.605250	504.805250		that's	that's
sw2149B-ms98-a-0118	B.190	504.805250	505.295250		great	great
sw2149B-ms98-a-0118	B.192	505.295250	506.265125		[silence]	[silence]
sw2149B-ms98-a-0119	B.192	506.265125	506.795125		[silence]	[silence]
sw2149B-ms98-a-0119	B.192	506.795125	507.336875		Yeah	yeah
sw2149B-ms98-a-0119	B.192	507.336875	507.461125		[silence]	[silence]
sw2149B-ms98-a-0119	B.192	507.461125	507.585125		Well	well
sw2149B-ms98-a-0119	B.192	507.585125	507.775125		good	good
sw2149B-ms98-a-0119	B.192	507.775125	508.264875		luck	luck
sw2149B-ms98-a-0119	B.194	508.264875	508.791250		[silence]	[silence]
sw2149B-ms98-a-0120	B.194	508.791250	509.251250		[silence]	[silence]
sw2149B-ms98-a-0120	B.194	509.251250	509.748625		Thanks	thanks
sw2149B-ms98-a-0120	B.196	509.748625	510.091375		[silence]	[silence]
sw2149B-ms98-a-0120	B.196	510.091375	510.701875		Bye	bye
sw2149B-ms98-a-0120	B.196	510.701875	510.994750		[silence]	[silence]
sw2149B-ms98-a-0121	B.196	510.994750	511.072000		[silence]	[silence]
sw2149B-ms98-a-0121	B.196	511.072000	511.834125		[noise]	[noise]
sw2149B-ms98-a-0121	B.196	511.834125	513.190625		[silence]	[silence]
