sw2151B-ms98-a-0001	B.1	0.000000	1.054625		[silence]	[silence]
sw2151B-ms98-a-0001	B.1	1.054625	1.538875		Okay	okay_1
sw2151B-ms98-a-0001	B.3	1.538875	1.538875	<INS>	Well	---
sw2151B-ms98-a-0001	B.3	1.538875	2.348375		[silence]	[silence]
sw2151B-ms98-a-0001	B.3	2.348375	2.660000		what	what
sw2151B-ms98-a-0001	B.3	2.660000	2.790000		do	do
sw2151B-ms98-a-0001	B.3	2.790000	2.940000		you	you
sw2151B-ms98-a-0001	B.3	2.940000	3.280000		think	think
sw2151B-ms98-a-0001	B.3	3.280000	3.480000		[silence]	[silence]
sw2151B-ms98-a-0001	B.3	3.480000	3.804125		about	about
sw2151B-ms98-a-0001	B.3	3.804125	3.905875		[silence]	[silence]
sw2151B-ms98-a-0001	B.3	3.905875	4.060000		the	the
sw2151B-ms98-a-0001	B.3	4.060000	4.530000		idea	idea
sw2151B-ms98-a-0001	B.3	4.530000	4.660000		of	of
sw2151B-ms98-a-0001	B.3	4.660000	4.920000		uh	uh
sw2151B-ms98-a-0001	B.3	4.920000	5.628875		[silence]	[silence]
sw2151B-ms98-a-0002	B.3	5.628875	6.297625		[silence]	[silence]
sw2151B-ms98-a-0002	B.3	6.297625	6.628875		kids	kids
sw2151B-ms98-a-0002	B.3	6.628875	6.828875		having	having
sw2151B-ms98-a-0002	B.3	6.828875	6.908875		to	to
sw2151B-ms98-a-0002	B.3	6.908875	7.110250		do	do
sw2151B-ms98-a-0002	B.3	7.110250	7.336250		[silence]	[silence]
sw2151B-ms98-a-0002	B.3	7.336250	7.628875		public	public
sw2151B-ms98-a-0002	B.3	7.628875	7.988875		service	service
sw2151B-ms98-a-0002	B.3	7.988875	8.188875		work	work
sw2151B-ms98-a-0002	B.3	8.188875	8.308875		for	for
sw2151B-ms98-a-0002	B.3	8.308875	8.348875		a	a
sw2151B-ms98-a-0002	B.3	8.348875	8.578875		year	year
sw2151B-ms98-a-0002	B.3	8.578875	8.648875		Do	do
sw2151B-ms98-a-0002	B.3	8.648875	8.708875		you	you
sw2151B-ms98-a-0002	B.3	8.708875	8.878875		think	think
sw2151B-ms98-a-0002	B.3	8.878875	9.018875		it's	it's
sw2151B-ms98-a-0002	B.3	9.018875	9.204750		a	a
sw2151B-ms98-a-0002	B.5	9.204750	9.881250		[silence]	[silence]
sw2151B-ms98-a-0003	B.5	9.881250	17.031750		[silence]	[silence]
sw2151B-ms98-a-0004	B.5	17.031750	17.658375		[silence]	[silence]
sw2151B-ms98-a-0004	B.5	17.658375	18.181750		Yes	yes
sw2151B-ms98-a-0004	B.5	18.181750	18.551750		yes	yes
sw2151B-ms98-a-0004	B.5	18.551750	18.731750		def-	def[initely]-
sw2151B-ms98-a-0004	B.7	18.731750	19.345375		[silence]	[silence]
sw2151B-ms98-a-0005	B.7	19.345375	32.253500		[silence]	[silence]
sw2151B-ms98-a-0006	B.7	32.253500	32.848750		[silence]	[silence]
sw2151B-ms98-a-0006	B.7	32.848750	33.083500		That's	that's
sw2151B-ms98-a-0006	B.7	33.083500	33.403500		true	true
sw2151B-ms98-a-0006	B.9	33.403500	33.958750		[silence]	[silence]
sw2151B-ms98-a-0007	B.9	33.958750	37.345875		[silence]	[silence]
sw2151B-ms98-a-0008	B.9	37.345875	37.849250		[silence]	[silence]
sw2151B-ms98-a-0008	B.9	37.849250	38.262875		Yeah	yeah
sw2151B-ms98-a-0008	B.11	38.262875	38.805750		[silence]	[silence]
sw2151B-ms98-a-0009	B.11	38.805750	41.058250		[silence]	[silence]
sw2151B-ms98-a-0010	B.11	41.058250	41.683875		[silence]	[silence]
sw2151B-ms98-a-0010	B.11	41.683875	41.926875		Uh	uh
sw2151B-ms98-a-0010	B.11	41.926875	42.185750		I	i
sw2151B-ms98-a-0010	B.11	42.185750	42.478250		agree	agree
sw2151B-ms98-a-0010	B.11	42.478250	42.648250		with	with
sw2151B-ms98-a-0010	B.11	42.648250	42.848250		you	you
sw2151B-ms98-a-0010	B.11	42.848250	43.235625	<SUB>	Uh	um
sw2151B-ms98-a-0010	B.11	43.235625	43.491750		[silence]	[silence]
sw2151B-ms98-a-0010	B.11	43.491750	44.010000	<SUB>	uh	um
sw2151B-ms98-a-0010	B.11	44.010000	44.138000		[silence]	[silence]
sw2151B-ms98-a-0010	B.11	44.138000	44.288250		what	what
sw2151B-ms98-a-0010	B.11	44.288250	44.458250		I'm	i'm
sw2151B-ms98-a-0010	B.11	44.458250	44.808250		thinking	thinking
sw2151B-ms98-a-0010	B.11	44.808250	45.118250		about	about
sw2151B-ms98-a-0010	B.11	45.118250	45.368250		is	is
sw2151B-ms98-a-0010	B.11	45.368250	45.518250		[silence]	[silence]
sw2151B-ms98-a-0010	B.11	45.518250	46.027625		back	back
sw2151B-ms98-a-0010	B.11	46.027625	46.708250		[silence]	[silence]
sw2151B-ms98-a-0010	B.11	46.708250	47.247875	<SUB>	well	oh
sw2151B-ms98-a-0010	B.11	47.247875	47.402250		[silence]	[silence]
sw2151B-ms98-a-0010	B.11	47.402250	47.548250		when	when
sw2151B-ms98-a-0010	B.11	47.548250	47.678250		I	i
sw2151B-ms98-a-0010	B.11	47.678250	47.838250		was	was
sw2151B-ms98-a-0010	B.11	47.838250	47.898250		a	a
sw2151B-ms98-a-0010	B.11	47.898250	48.138250		kid	kid
sw2151B-ms98-a-0010	B.11	48.138250	48.308250		and	and
sw2151B-ms98-a-0010	B.11	48.308250	48.666125		much	much
sw2151B-ms98-a-0010	B.11	48.666125	48.771625		[silence]	[silence]
sw2151B-ms98-a-0010	B.11	48.771625	49.168250		earlier	earlier
sw2151B-ms98-a-0010	B.11	49.168250	49.338250		than	than
sw2151B-ms98-a-0010	B.11	49.338250	49.606625		that	that
sw2151B-ms98-a-0010	B.11	49.606625	50.126500		[silence]	[silence]
sw2151B-ms98-a-0010	B.11	50.126500	50.398250		kids	kids
sw2151B-ms98-a-0010	B.11	50.398250	50.597500		were	were
sw2151B-ms98-a-0010	B.11	50.597500	50.815000		kind	kind
sw2151B-ms98-a-0010	B.11	50.815000	51.087125		of	of
sw2151B-ms98-a-0010	B.11	51.087125	51.087125	<INS>	i-	---
sw2151B-ms98-a-0010	B.11	51.087125	51.087125	<INS>	i-	---
sw2151B-ms98-a-0010	B.11	51.087125	51.328625		[silence]	[silence]
sw2151B-ms98-a-0011	B.11	51.328625	51.488000		[silence]	[silence]
sw2151B-ms98-a-0011	B.11	51.488000	51.852875		[vocalized-noise]	[vocalized-noise]
sw2151B-ms98-a-0011	B.11	51.852875	52.040250		you	you
sw2151B-ms98-a-0011	B.11	52.040250	52.307375		know	know
sw2151B-ms98-a-0011	B.11	52.307375	52.691625		[silence]	[silence]
sw2151B-ms98-a-0011	B.11	52.691625	52.768625		the	the
sw2151B-ms98-a-0011	B.11	52.768625	53.118625		parents	parents
sw2151B-ms98-a-0011	B.11	53.118625	53.308625		kind	kind
sw2151B-ms98-a-0011	B.11	53.308625	53.699125		of	of
sw2151B-ms98-a-0011	B.11	53.699125	53.966625		[silence]	[silence]
sw2151B-ms98-a-0011	B.11	53.966625	54.218625		pushed	pushed
sw2151B-ms98-a-0011	B.11	54.218625	54.368625		them	them
sw2151B-ms98-a-0011	B.11	54.368625	54.448625		to	to
sw2151B-ms98-a-0011	B.11	54.448625	54.838625		join	join
sw2151B-ms98-a-0011	B.11	54.838625	54.998625		like	like
sw2151B-ms98-a-0011	B.11	54.998625	55.068625		the	the
sw2151B-ms98-a-0011	B.11	55.068625	55.228625		Boy	Boy
sw2151B-ms98-a-0011	B.11	55.228625	55.598625		Scouts	Scouts
sw2151B-ms98-a-0011	B.11	55.598625	55.658625		or	or
sw2151B-ms98-a-0011	B.11	55.658625	55.718625	<DEL>	---	the
sw2151B-ms98-a-0011	B.11	55.718625	55.948625		Girl	Girl
sw2151B-ms98-a-0011	B.11	55.948625	56.476125		Scouts	Scouts
sw2151B-ms98-a-0011	B.11	56.476125	56.920625		[silence]	[silence]
sw2151B-ms98-a-0011	B.11	56.920625	57.078625		and	and
sw2151B-ms98-a-0011	B.11	57.078625	57.268500		they	they
sw2151B-ms98-a-0011	B.11	57.268500	57.750625	<SUB>	did	di[d]-
sw2151B-ms98-a-0011	B.11	57.750625	58.028625		do	do
sw2151B-ms98-a-0011	B.11	58.028625	58.248625		do	do
sw2151B-ms98-a-0011	B.11	58.248625	58.468625		do	do
sw2151B-ms98-a-0011	B.11	58.468625	58.568625		a	a
sw2151B-ms98-a-0011	B.11	58.568625	58.948625		lot	lot
sw2151B-ms98-a-0011	B.11	58.948625	59.048625		of	of
sw2151B-ms98-a-0011	B.11	59.048625	59.498625		public	public
sw2151B-ms98-a-0011	B.11	59.498625	60.178625		service	service
sw2151B-ms98-a-0011	B.11	60.178625	60.382500		[silence]	[silence]
sw2151B-ms98-a-0012	B.11	60.382500	60.731375		[silence]	[silence]
sw2151B-ms98-a-0012	B.11	60.731375	61.553375		activities	activities
sw2151B-ms98-a-0012	B.11	61.553375	61.752500		but	but
sw2151B-ms98-a-0012	B.11	61.752500	61.992500		these	these
sw2151B-ms98-a-0012	B.11	61.992500	62.482500		days	days
sw2151B-ms98-a-0012	B.11	62.482500	62.652500		they're	they're
sw2151B-ms98-a-0012	B.11	62.652500	62.982500		not	not
sw2151B-ms98-a-0012	B.11	62.982500	63.318875	<SUB>	uh	um
sw2151B-ms98-a-0012	B.11	63.318875	63.712000		[silence]	[silence]
sw2151B-ms98-a-0012	B.11	63.712000	63.934250	<SUB>	par-	p[arents]-
sw2151B-ms98-a-0012	B.11	63.934250	64.282500		parents	parents
sw2151B-ms98-a-0012	B.11	64.282500	64.452500		aren't	aren't
sw2151B-ms98-a-0012	B.11	64.452500	64.992500		encouraging	encouraging
sw2151B-ms98-a-0012	B.11	64.992500	65.112500		their	their
sw2151B-ms98-a-0012	B.11	65.112500	65.392500		kids	kids
sw2151B-ms98-a-0012	B.11	65.392500	65.512500		to	to
sw2151B-ms98-a-0012	B.11	65.512500	65.722500		do	do
sw2151B-ms98-a-0012	B.11	65.722500	66.072500		things	things
sw2151B-ms98-a-0012	B.11	66.072500	66.302500		like	like
sw2151B-ms98-a-0012	B.11	66.302500	66.621375		that	that
sw2151B-ms98-a-0012	B.11	66.621375	67.235250		[silence]	[silence]
sw2151B-ms98-a-0012	B.11	67.235250	67.342500		Because	because_1
sw2151B-ms98-a-0012	B.11	67.342500	67.462500		when	when
sw2151B-ms98-a-0012	B.11	67.462500	67.612500		I	i
sw2151B-ms98-a-0012	B.11	67.612500	67.752500		was	was
sw2151B-ms98-a-0012	B.11	67.752500	67.842500		in	in
sw2151B-ms98-a-0012	B.11	67.842500	67.912500		the	the
sw2151B-ms98-a-0012	B.11	67.912500	68.132500		Girl	Girl
sw2151B-ms98-a-0012	B.11	68.132500	68.512500		Scouts	Scouts
sw2151B-ms98-a-0012	B.11	68.512500	68.622500		we	we
sw2151B-ms98-a-0012	B.11	68.622500	68.762500		did	did
sw2151B-ms98-a-0012	B.11	68.762500	68.862500		a	a
sw2151B-ms98-a-0012	B.11	68.862500	69.162500		lot	lot
sw2151B-ms98-a-0012	B.11	69.162500	69.242500		of	of
sw2151B-ms98-a-0012	B.11	69.242500	69.602500		public	public
sw2151B-ms98-a-0012	B.11	69.602500	70.062750		service	service
sw2151B-ms98-a-0012	B.11	70.062750	70.545000		things	things
sw2151B-ms98-a-0012	B.11	70.545000	70.691375		[silence]	[silence]
sw2151B-ms98-a-0013	B.11	70.691375	70.971375		[silence]	[silence]
sw2151B-ms98-a-0013	B.11	70.971375	71.081375		because	because_1
sw2151B-ms98-a-0013	B.11	71.081375	71.311375		that's	that's
sw2151B-ms98-a-0013	B.11	71.311375	71.540500		just	just
sw2151B-ms98-a-0013	B.11	71.540500	72.222250		[silence]	[silence]
sw2151B-ms98-a-0013	B.11	72.222250	72.471375		part	part
sw2151B-ms98-a-0013	B.11	72.471375	72.618750		o-	o[f]-
sw2151B-ms98-a-0013	B.11	72.618750	73.014250		of	of
sw2151B-ms98-a-0013	B.11	73.014250	73.271375		of	of
sw2151B-ms98-a-0013	B.11	73.271375	73.341375		the	the
sw2151B-ms98-a-0013	B.11	73.341375	73.901375		scouting	scouting
sw2151B-ms98-a-0013	B.11	73.901375	74.091375		and	and
sw2151B-ms98-a-0013	B.11	74.091375	74.211375		you	you
sw2151B-ms98-a-0013	B.11	74.211375	74.425125		know	know
sw2151B-ms98-a-0013	B.13	74.425125	74.771375		[noise]	[noise]
sw2151B-ms98-a-0013	B.13	74.771375	74.855750		[silence]	[silence]
sw2151B-ms98-a-0014	B.13	74.855750	80.481375		[silence]	[silence]
sw2151B-ms98-a-0015	B.13	80.481375	80.978500		[silence]	[silence]
sw2151B-ms98-a-0015	B.13	80.978500	81.341375		They	they
sw2151B-ms98-a-0015	B.13	81.341375	81.661375		are	are
sw2151B-ms98-a-0015	B.13	81.661375	81.896750		but	but
sw2151B-ms98-a-0015	B.13	81.896750	82.073750		[silence]	[silence]
sw2151B-ms98-a-0015	B.13	82.073750	82.399250		parents	parents
sw2151B-ms98-a-0015	B.15	82.399250	83.267750		[silence]	[silence]
sw2151B-ms98-a-0016	B.15	83.267750	85.195250		[silence]	[silence]
sw2151B-ms98-a-0017	B.15	85.195250	85.720000		[silence]	[silence]
sw2151B-ms98-a-0017	B.15	85.720000	86.045250		Yeah	yeah
sw2151B-ms98-a-0017	B.15	86.045250	86.175250		they	they
sw2151B-ms98-a-0017	B.15	86.175250	86.519875		do	do
sw2151B-ms98-a-0017	B.17	86.519875	87.077625		[silence]	[silence]
sw2151B-ms98-a-0018	B.17	87.077625	88.087125		[silence]	[silence]
sw2151B-ms98-a-0019	B.17	88.087125	88.534000		[silence]	[silence]
sw2151B-ms98-a-0019	B.17	88.534000	88.833500		Oh	oh
sw2151B-ms98-a-0019	B.17	88.833500	89.107125		no	no
sw2151B-ms98-a-0019	B.19	89.107125	89.638750		[silence]	[silence]
sw2151B-ms98-a-0020	B.19	89.638750	92.741750		[silence]	[silence]
sw2151B-ms98-a-0021	B.19	92.741750	93.408000		[silence]	[silence]
sw2151B-ms98-a-0021	B.19	93.408000	93.818375	<DEL>	---	i-
sw2151B-ms98-a-0021	B.19	93.818375	93.946375		[silence]	[silence]
sw2151B-ms98-a-0021	B.19	93.946375	94.021750		I	i
sw2151B-ms98-a-0021	B.19	94.021750	94.081750	<SUB>	I	a
sw2151B-ms98-a-0021	B.19	94.081750	94.081750	<INS>	uh	---
sw2151B-ms98-a-0021	B.19	94.081750	94.591750		senior	senior
sw2151B-ms98-a-0021	B.21	94.591750	95.134125		[silence]	[silence]
sw2151B-ms98-a-0022	B.21	95.134125	96.984375		[silence]	[silence]
sw2151B-ms98-a-0023	B.21	96.984375	97.495250		[silence]	[silence]
sw2151B-ms98-a-0023	B.21	97.495250	97.694375		Oh	oh
sw2151B-ms98-a-0023	B.21	97.694375	97.824375		they're	they're
sw2151B-ms98-a-0023	B.21	97.824375	98.034375		just	just
sw2151B-ms98-a-0023	B.21	98.034375	98.243625		not	not
sw2151B-ms98-a-0023	B.21	98.243625	98.345250		[silence]	[silence]
sw2151B-ms98-a-0023	B.21	98.345250	98.512500	<DEL>	---	um
sw2151B-ms98-a-0023	B.21	98.512500	98.804375		once	once
sw2151B-ms98-a-0023	B.21	98.804375	98.924375		they	they
sw2151B-ms98-a-0023	B.21	98.924375	99.094375		get	get
sw2151B-ms98-a-0023	B.21	99.094375	99.274375		into	into
sw2151B-ms98-a-0023	B.21	99.274375	99.624375		junior	junior
sw2151B-ms98-a-0023	B.21	99.624375	99.994375		high	high
sw2151B-ms98-a-0023	B.21	99.994375	100.154375	<SUB>	it	they
sw2151B-ms98-a-0023	B.21	100.154375	100.479250		just	just
sw2151B-ms98-a-0023	B.23	100.479250	100.671375		[silence]	[silence]
sw2151B-ms98-a-0023	B.23	100.671375	100.994375		not	not
sw2151B-ms98-a-0023	B.23	100.994375	101.214375		done	done
sw2151B-ms98-a-0023	B.23	101.214375	101.621875		anymore	anymore
sw2151B-ms98-a-0023	B.25	101.621875	102.034375		[noise]	[noise]
sw2151B-ms98-a-0023	B.25	102.034375	102.146750		[silence]	[silence]
sw2151B-ms98-a-0024	B.25	102.146750	103.496000		[silence]	[silence]
sw2151B-ms98-a-0025	B.25	103.496000	103.906000		[silence]	[silence]
sw2151B-ms98-a-0025	B.25	103.906000	104.546000	<SUB>	Uh-huh	um-hum
sw2151B-ms98-a-0025	B.27	104.546000	104.789000		[silence]	[silence]
sw2151B-ms98-a-0026	B.27	104.789000	107.538250		[silence]	[silence]
sw2151B-ms98-a-0027	B.27	107.538250	108.148250		[silence]	[silence]
sw2151B-ms98-a-0027	B.27	108.148250	108.498250		Me	me
sw2151B-ms98-a-0027	B.29	108.498250	108.588250		[silence]	[silence]
sw2151B-ms98-a-0027	B.29	108.588250	109.688250		[laughter]	[laughter]
sw2151B-ms98-a-0027	B.29	109.688250	109.938250		Grab	grab
sw2151B-ms98-a-0027	B.29	109.938250	110.168250		grab	grab
sw2151B-ms98-a-0027	B.29	110.168250	110.478250		grab	grab
sw2151B-ms98-a-0027	B.29	110.478250	110.668250		walk	walk
sw2151B-ms98-a-0027	B.29	110.668250	110.668250	<INS>	out	---
sw2151B-ms98-a-0027	B.31	110.668250	112.248250		[laughter]	[laughter]
sw2151B-ms98-a-0027	B.31	112.248250	112.363875		[silence]	[silence]
sw2151B-ms98-a-0028	B.31	112.363875	112.993875		[silence]	[silence]
sw2151B-ms98-a-0028	B.31	112.993875	113.473875		Yeah	yeah
sw2151B-ms98-a-0028	B.33	113.473875	113.903375		[silence]	[silence]
sw2151B-ms98-a-0029	B.33	113.903375	120.150250		[silence]	[silence]
sw2151B-ms98-a-0030	B.33	120.150250	120.710250		[silence]	[silence]
sw2151B-ms98-a-0030	B.33	120.710250	121.110250		Yeah	yeah
sw2151B-ms98-a-0030	B.33	121.110250	121.230250		but	but
sw2151B-ms98-a-0030	B.33	121.230250	121.450250		there's	there's
sw2151B-ms98-a-0030	B.33	121.450250	121.550250		a	a
sw2151B-ms98-a-0030	B.33	121.550250	121.760250		lot	lot
sw2151B-ms98-a-0030	B.33	121.760250	121.780250		[silence]	[silence]
sw2151B-ms98-a-0030	B.33	121.780250	121.900250		that	that
sw2151B-ms98-a-0030	B.33	121.900250	122.040250		can	can
sw2151B-ms98-a-0030	B.33	122.040250	122.150250		be	be
sw2151B-ms98-a-0030	B.33	122.150250	122.370250		done	done
sw2151B-ms98-a-0030	B.33	122.370250	122.530250		right	right
sw2151B-ms98-a-0030	B.33	122.530250	122.740250		here	here
sw2151B-ms98-a-0030	B.33	122.740250	122.830250		in	in
sw2151B-ms98-a-0030	B.33	122.830250	122.990250		this	this
sw2151B-ms98-a-0030	B.33	122.990250	123.410250		country	country
sw2151B-ms98-a-0030	B.35	123.410250	123.440250		[silence]	[silence]
sw2151B-ms98-a-0030	B.35	123.440250	123.950250		too	too
sw2151B-ms98-a-0030	B.37	123.950250	124.596125		[silence]	[silence]
sw2151B-ms98-a-0031	B.37	124.596125	125.196125		[silence]	[silence]
sw2151B-ms98-a-0031	B.37	125.196125	125.586125		Yeah	yeah
sw2151B-ms98-a-0031	B.37	125.586125	125.646125		[silence]	[silence]
sw2151B-ms98-a-0031	B.37	125.646125	125.966125	<SUB>	uh	um
sw2151B-ms98-a-0031	B.37	125.966125	126.026125		[silence]	[silence]
sw2151B-ms98-a-0031	B.37	126.026125	126.216125		I'm	i'm
sw2151B-ms98-a-0031	B.37	126.216125	126.506125		not	not
sw2151B-ms98-a-0031	B.37	126.506125	126.696125		I'm	i'm
sw2151B-ms98-a-0031	B.37	126.696125	126.936125		not	not
sw2151B-ms98-a-0031	B.37	126.936125	127.256125		so	so
sw2151B-ms98-a-0031	B.37	127.256125	127.646125		[silence]	[silence]
sw2151B-ms98-a-0031	B.37	127.646125	127.946125		sure	sure
sw2151B-ms98-a-0031	B.37	127.946125	128.166125		that	that
sw2151B-ms98-a-0031	B.37	128.166125	129.106125		overseas	overseas
sw2151B-ms98-a-0031	B.37	129.106125	129.536125		help	help
sw2151B-ms98-a-0031	B.37	129.536125	130.176125		[silence]	[silence]
sw2151B-ms98-a-0031	B.37	130.176125	130.506125		helping	helping
sw2151B-ms98-a-0031	B.37	130.506125	130.996125		overseas	overseas
sw2151B-ms98-a-0031	B.37	130.996125	131.106125		would	would
sw2151B-ms98-a-0031	B.37	131.106125	131.206125		be	be
sw2151B-ms98-a-0031	B.37	131.206125	131.436125		such	such
sw2151B-ms98-a-0031	B.37	131.436125	131.516125		a	a
sw2151B-ms98-a-0031	B.37	131.516125	131.756125		hot	hot
sw2151B-ms98-a-0031	B.37	131.756125	132.116125		idea	idea
sw2151B-ms98-a-0031	B.37	132.116125	132.346125		for	for
sw2151B-ms98-a-0031	B.37	132.346125	132.556125	<DEL>	---	s[ome]-
sw2151B-ms98-a-0031	B.37	132.556125	132.916125		for	for
sw2151B-ms98-a-0031	B.37	132.916125	133.086125		uh	uh
sw2151B-ms98-a-0031	B.37	133.086125	133.546125		[silence]	[silence]
sw2151B-ms98-a-0031	B.37	133.546125	133.626125		a	a
sw2151B-ms98-a-0031	B.37	133.626125	133.826125		lot	lot
sw2151B-ms98-a-0031	B.37	133.826125	133.956125		of	of
sw2151B-ms98-a-0031	B.37	133.956125	134.626125		[silence]	[silence]
sw2151B-ms98-a-0031	B.37	134.626125	134.936125		young	young
sw2151B-ms98-a-0031	B.37	134.936125	135.226125	<SUB>	k-	ki[ds]-
sw2151B-ms98-a-0031	B.37	135.226125	135.486125		[silence]	[silence]
sw2151B-ms98-a-0031	B.37	135.486125	136.016125		people	people
sw2151B-ms98-a-0031	B.39	136.016125	136.304250		[silence]	[silence]
sw2151B-ms98-a-0032	B.39	136.304250	136.664250		[silence]	[silence]
sw2151B-ms98-a-0032	B.39	136.664250	136.934250		But	but
sw2151B-ms98-a-0032	B.39	136.934250	137.044250	<DEL>	---	uh
sw2151B-ms98-a-0032	B.39	137.044250	137.314250		since	since
sw2151B-ms98-a-0032	B.39	137.314250	137.484250		there	there
sw2151B-ms98-a-0032	B.39	137.484250	137.844250		is	is
sw2151B-ms98-a-0032	B.39	137.844250	138.224250		much	much
sw2151B-ms98-a-0032	B.39	138.224250	138.464250		that	that
sw2151B-ms98-a-0032	B.39	138.464250	138.584250		[silence]	[silence]
sw2151B-ms98-a-0032	B.39	138.584250	138.804250		needs	needs
sw2151B-ms98-a-0032	B.39	138.804250	138.864250		to	to
sw2151B-ms98-a-0032	B.39	138.864250	138.934250		be	be
sw2151B-ms98-a-0032	B.39	138.934250	139.174250		done	done
sw2151B-ms98-a-0032	B.39	139.174250	139.794250		here	here
sw2151B-ms98-a-0032	B.41	139.794250	140.122375		[silence]	[silence]
sw2151B-ms98-a-0033	B.41	140.122375	146.648750		[silence]	[silence]
sw2151B-ms98-a-0034	B.41	146.648750	147.248750		[silence]	[silence]
sw2151B-ms98-a-0034	B.41	147.248750	147.938750	<SUB>	Uh-huh	um-hum
sw2151B-ms98-a-0034	B.43	147.938750	148.258625		[silence]	[silence]
sw2151B-ms98-a-0035	B.43	148.258625	157.263250		[silence]	[silence]
sw2151B-ms98-a-0036	B.43	157.263250	157.793250		[silence]	[silence]
sw2151B-ms98-a-0036	B.43	157.793250	158.263250		No	no
sw2151B-ms98-a-0036	B.43	158.263250	158.293250	<SUB>	I	uh
sw2151B-ms98-a-0036	B.43	158.293250	158.913250		I	i
sw2151B-ms98-a-0036	B.43	158.913250	159.213250		agree	agree
sw2151B-ms98-a-0036	B.43	159.213250	159.383250		with	with
sw2151B-ms98-a-0036	B.43	159.383250	159.403250		[silence]	[silence]
sw2151B-ms98-a-0036	B.43	159.403250	159.653250		you	you
sw2151B-ms98-a-0036	B.45	159.653250	160.833250		[laughter]	[laughter]
sw2151B-ms98-a-0036	B.45	160.833250	160.958750		[silence]	[silence]
sw2151B-ms98-a-0037	B.45	160.958750	162.161500		[silence]	[silence]
sw2151B-ms98-a-0038	B.45	162.161500	162.571500		[silence]	[silence]
sw2151B-ms98-a-0038	B.45	162.571500	162.961500		Yeah	yeah
sw2151B-ms98-a-0038	B.47	162.961500	163.580375		[silence]	[silence]
sw2151B-ms98-a-0039	B.47	163.580375	164.150375		[silence]	[silence]
sw2151B-ms98-a-0039	B.47	164.150375	164.570375		Okay	okay
sw2151B-ms98-a-0039	B.49	164.570375	164.970375		[silence]	[silence]
sw2151B-ms98-a-0039	B.49	164.970375	165.100375		You	you
sw2151B-ms98-a-0039	B.49	165.100375	165.370375		too	too
sw2151B-ms98-a-0039	B.51	165.370375	165.927125		[silence]	[silence]
sw2151B-ms98-a-0040	B.51	165.927125	166.357125		[silence]	[silence]
sw2151B-ms98-a-0040	B.51	166.357125	166.547125		You	you
sw2151B-ms98-a-0040	B.51	166.547125	166.807125		too	too
sw2151B-ms98-a-0040	B.53	166.807125	167.457125		[laughter]	[laughter]
sw2151B-ms98-a-0040	B.53	167.457125	167.897125		Bye-bye	bye-bye
sw2151B-ms98-a-0040	B.53	167.897125	168.497625		[silence]	[silence]
sw2151B-ms98-a-0041	B.53	168.497625	168.948250		[silence]	[silence]
sw2151B-ms98-a-0041	B.53	168.948250	169.540250		[noise]	[noise]
sw2151B-ms98-a-0041	B.53	169.540250	169.913500		[silence]	[silence]
