sw2175B-ms98-a-0001	B.2	0.000000	0.000000	<INS>	Okay	---
sw2175B-ms98-a-0001	B.4	0.000000	0.250000		[silence]	[silence]
sw2175B-ms98-a-0001	B.4	0.250000	0.340000		[noise]	[noise]
sw2175B-ms98-a-0001	B.4	0.340000	0.441750		[silence]	[silence]
sw2175B-ms98-a-0002	B.4	0.441750	1.546125		[silence]	[silence]
sw2175B-ms98-a-0003	B.4	1.546125	1.816125		[silence]	[silence]
sw2175B-ms98-a-0003	B.4	1.816125	1.936125		I	i
sw2175B-ms98-a-0003	B.4	1.936125	2.396125		forgot	forgot
sw2175B-ms98-a-0003	B.4	2.396125	2.566125		all	all
sw2175B-ms98-a-0003	B.4	2.566125	2.906125		about	about
sw2175B-ms98-a-0003	B.4	2.906125	3.116125		that	that
sw2175B-ms98-a-0003	B.4	3.116125	3.206125		that	that
sw2175B-ms98-a-0003	B.4	3.206125	3.266125		it	it
sw2175B-ms98-a-0003	B.4	3.266125	3.406125		had	had
sw2175B-ms98-a-0003	B.4	3.406125	3.486125		to	to
sw2175B-ms98-a-0003	B.4	3.486125	3.606125		be	be
sw2175B-ms98-a-0003	B.4	3.606125	4.366125		pressed	pressed
sw2175B-ms98-a-0003	@B.6	4.366125	4.836125		[silence]	[silence]
sw2175B-ms98-a-0003	@B.6	4.836125	5.336125		Um	um
sw2175B-ms98-a-0003	@B.6	5.336125	5.762875		[silence]	[silence]
sw2175B-ms98-a-0004	@B.6	5.762875	6.282875		[silence]	[silence]
sw2175B-ms98-a-0004	@B.6	6.282875	6.382875		but	but
sw2175B-ms98-a-0004	@B.6	6.382875	6.912875		anyway	anyway
sw2175B-ms98-a-0004	@B.6	6.912875	7.232875		so	so
sw2175B-ms98-a-0004	@B.6	7.232875	7.452875		so	so
sw2175B-ms98-a-0004	@B.6	7.452875	7.592875		as	as
sw2175B-ms98-a-0004	@B.6	7.592875	7.922875		far	far
sw2175B-ms98-a-0004	@B.6	7.922875	8.072875		as	as
sw2175B-ms98-a-0004	@B.6	8.072875	8.262875		[silence]	[silence]
sw2175B-ms98-a-0004	@B.6	8.262875	8.442875		w-	w[e]-
sw2175B-ms98-a-0004	@B.6	8.442875	8.592875		we	we
sw2175B-ms98-a-0004	@B.6	8.592875	9.042875		really	really
sw2175B-ms98-a-0004	@B.6	9.042875	9.402875		[silence]	[silence]
sw2175B-ms98-a-0004	@B.6	9.402875	9.512875		we	we
sw2175B-ms98-a-0004	@B.6	9.512875	9.862875		don't	don't
sw2175B-ms98-a-0004	@B.6	9.862875	9.982875		want	want
sw2175B-ms98-a-0004	@B.6	9.982875	10.052875		to	to
sw2175B-ms98-a-0004	@B.6	10.052875	10.262875		get	get
sw2175B-ms98-a-0004	@B.6	10.262875	10.462875		in	in
sw2175B-ms98-a-0004	@B.6	10.462875	10.542875		the	the
sw2175B-ms98-a-0004	@B.6	10.542875	10.852875		habit	habit
sw2175B-ms98-a-0004	@B.6	10.852875	10.982875		of	of
sw2175B-ms98-a-0004	@B.6	10.982875	11.532875		watching	watching
sw2175B-ms98-a-0004	@B.6	11.532875	11.592875		a	a
sw2175B-ms98-a-0004	@B.6	11.592875	11.802875		lot	lot
sw2175B-ms98-a-0004	@B.6	11.802875	11.862875		of	of
sw2175B-ms98-a-0004	@B.6	11.862875	12.522875	<CONT>	T	TV
sw2175B-ms98-a-0004	@B.6	12.522875	12.522875	<CONT>	V	+++
sw2175B-ms98-a-0004	B.8	12.522875	12.664750		[silence]	[silence]
sw2175B-ms98-a-0005	B.8	12.664750	12.709750		[silence]	[silence]
sw2175B-ms98-a-0005	B.8	12.709750	13.363250		because	because
sw2175B-ms98-a-0005	B.8	13.363250	13.584750		we	we
sw2175B-ms98-a-0005	B.8	13.584750	14.044750		both	both
sw2175B-ms98-a-0005	B.8	14.044750	14.284750		were	were
sw2175B-ms98-a-0005	B.8	14.284750	14.824750		raised	raised
sw2175B-ms98-a-0005	B.8	14.824750	15.064750		you	you
sw2175B-ms98-a-0005	B.8	15.064750	15.224750		know	know
sw2175B-ms98-a-0005	B.8	15.224750	15.444750		that	that
sw2175B-ms98-a-0005	B.8	15.444750	15.648750		way	way
sw2175B-ms98-a-0005	B.8	15.648750	15.837000		[silence]	[silence]
sw2175B-ms98-a-0005	B.8	15.837000	16.084750		you	you
sw2175B-ms98-a-0005	B.8	16.084750	16.184750		know	know
sw2175B-ms98-a-0005	B.8	16.184750	16.414750		where	where
sw2175B-ms98-a-0005	B.8	16.414750	16.694750		our	our
sw2175B-ms98-a-0005	B.8	16.694750	17.104750		parents	parents
sw2175B-ms98-a-0005	B.8	17.104750	17.264750		sort	sort
sw2175B-ms98-a-0005	B.8	17.264750	17.434750		of	of
sw2175B-ms98-a-0005	B.8	17.434750	17.734750		stuck	stuck
sw2175B-ms98-a-0005	B.8	17.734750	17.874750		us	us
sw2175B-ms98-a-0005	B.8	17.874750	18.004750		in	in
sw2175B-ms98-a-0005	B.8	18.004750	18.184750		front	front
sw2175B-ms98-a-0005	B.8	18.184750	18.244750		of	of
sw2175B-ms98-a-0005	B.8	18.244750	18.314750		a	a
sw2175B-ms98-a-0005	B.8	18.314750	18.784750	<CONT>	T	TV
sw2175B-ms98-a-0005	B.8	18.784750	18.784750	<CONT>	V	+++
sw2175B-ms98-a-0005	B.8	18.784750	18.964750		to	to
sw2175B-ms98-a-0005	B.8	18.964750	19.094750		be	be
sw2175B-ms98-a-0005	B.8	19.094750	19.164750		the	the
sw2175B-ms98-a-0005	B.8	19.164750	19.871875		baby-sitter	babysitter
sw2175B-ms98-a-0005	B.10	19.871875	20.283500		[silence]	[silence]
sw2175B-ms98-a-0006	B.10	20.283500	20.343500		[silence]	[silence]
sw2175B-ms98-a-0006	B.10	20.343500	20.713500		And	and
sw2175B-ms98-a-0006	B.10	20.713500	20.823500		we	we
sw2175B-ms98-a-0006	B.10	20.823500	21.013500		just	just
sw2175B-ms98-a-0006	B.10	21.013500	21.223500		don't	don't
sw2175B-ms98-a-0006	B.10	21.223500	21.483500		want	want
sw2175B-ms98-a-0006	B.10	21.483500	21.623500		that	that
sw2175B-ms98-a-0006	B.10	21.623500	21.753500		We	we
sw2175B-ms98-a-0006	B.10	21.753500	21.933500		want	want
sw2175B-ms98-a-0006	B.10	21.933500	22.123500		more	more
sw2175B-ms98-a-0006	B.10	22.123500	22.983500		communication	communication
sw2175B-ms98-a-0006	B.10	22.983500	23.223500		and	and
sw2175B-ms98-a-0006	B.10	23.223500	23.932500		interaction	interaction
sw2175B-ms98-a-0006	B.10	23.932500	24.158500		[silence]	[silence]
sw2175B-ms98-a-0006	B.10	24.158500	24.243500		you	you
sw2175B-ms98-a-0006	B.10	24.243500	24.363500		know	know
sw2175B-ms98-a-0006	B.10	24.363500	24.843500		amongst	amongst
sw2175B-ms98-a-0006	B.10	24.843500	25.113500		us	us
sw2175B-ms98-a-0006	B.10	25.113500	25.233500		as	as
sw2175B-ms98-a-0006	B.10	25.233500	25.293500		a	a
sw2175B-ms98-a-0006	B.10	25.293500	25.981500		family	family
sw2175B-ms98-a-0006	B.10	25.981500	26.373500		[silence]	[silence]
sw2175B-ms98-a-0007	B.10	26.373500	26.443500		[silence]	[silence]
sw2175B-ms98-a-0007	B.10	26.443500	26.793500		And	and
sw2175B-ms98-a-0007	B.10	26.793500	26.883500		we	we
sw2175B-ms98-a-0007	B.10	26.883500	27.233500		both	both
sw2175B-ms98-a-0007	B.10	27.233500	27.423500		like	like
sw2175B-ms98-a-0007	B.10	27.423500	27.903500		sports	sports
sw2175B-ms98-a-0007	B.10	27.903500	27.983500		so	so
sw2175B-ms98-a-0007	B.10	27.983500	28.053500		we	we
sw2175B-ms98-a-0007	B.10	28.053500	28.463500		figured	figured
sw2175B-ms98-a-0007	B.10	28.463500	28.733500		well	well
sw2175B-ms98-a-0007	B.10	28.733500	28.933500		what	what
sw2175B-ms98-a-0007	B.10	28.933500	29.183500		what	what
sw2175B-ms98-a-0007	B.10	29.183500	29.423500		better	better
sw2175B-ms98-a-0007	B.10	29.423500	29.713500		way	way
sw2175B-ms98-a-0007	B.10	29.713500	29.903500		to	to
sw2175B-ms98-a-0007	B.10	29.903500	30.083500		get	get
sw2175B-ms98-a-0007	B.10	30.083500	30.393500		out	out
sw2175B-ms98-a-0007	B.10	30.393500	30.669625		and	and
sw2175B-ms98-a-0007	B.10	30.669625	31.253125		[silence]	[silence]
sw2175B-ms98-a-0008	B.10	31.253125	31.573125		[silence]	[silence]
sw2175B-ms98-a-0008	B.10	31.573125	31.723125		you	you
sw2175B-ms98-a-0008	B.10	31.723125	31.983125		know	know
sw2175B-ms98-a-0008	B.10	31.983125	32.139750		[silence]	[silence]
sw2175B-ms98-a-0008	B.10	32.139750	32.273125		be	be
sw2175B-ms98-a-0008	B.10	32.273125	32.663125		together	together
sw2175B-ms98-a-0008	B.10	32.663125	32.793125		as	as
sw2175B-ms98-a-0008	B.10	32.793125	32.963125		a	a
sw2175B-ms98-a-0008	B.10	32.963125	33.563125		family	family
sw2175B-ms98-a-0008	B.12	33.563125	33.713125		and	and
sw2175B-ms98-a-0008	B.12	33.713125	34.348000		also	also
sw2175B-ms98-a-0008	B.12	34.348000	34.709625		[silence]	[silence]
sw2175B-ms98-a-0008	B.12	34.709625	34.833125		you	you
sw2175B-ms98-a-0008	B.12	34.833125	35.013125		know	know
sw2175B-ms98-a-0008	B.12	35.013125	35.203125		have	have
sw2175B-ms98-a-0008	B.12	35.203125	35.303125		it	it
sw2175B-ms98-a-0008	B.12	35.303125	35.403125		be	be
sw2175B-ms98-a-0008	B.12	35.403125	35.653125		good	good
sw2175B-ms98-a-0008	B.12	35.653125	35.983125		for	for
sw2175B-ms98-a-0008	B.12	35.983125	36.205750		you	you
sw2175B-ms98-a-0008	B.12	36.205750	36.453125		[silence]	[silence]
sw2175B-ms98-a-0008	B.12	36.453125	36.753125		And	and
sw2175B-ms98-a-0008	B.12	36.753125	37.043125		plus	plus
sw2175B-ms98-a-0008	B.12	37.043125	37.163125		we	we
sw2175B-ms98-a-0008	B.12	37.163125	37.373125		like	like
sw2175B-ms98-a-0008	B.12	37.373125	37.533125		[silence]	[silence]
sw2175B-ms98-a-0008	B.12	37.533125	37.633125		we	we
sw2175B-ms98-a-0008	B.12	37.633125	37.923125		both	both
sw2175B-ms98-a-0008	B.12	37.923125	38.053125		like	like
sw2175B-ms98-a-0008	B.12	38.053125	38.193125		to	to
sw2175B-ms98-a-0008	B.12	38.193125	38.753875		cook	cook
sw2175B-ms98-a-0008	B.12	38.753875	38.836750		[silence]	[silence]
sw2175B-ms98-a-0008	B.12	38.836750	39.284875		so	so
sw2175B-ms98-a-0008	B.12	39.284875	39.953750		[silence]	[silence]
sw2175B-ms98-a-0009	B.12	39.953750	40.283750		[silence]	[silence]
sw2175B-ms98-a-0009	B.12	40.283750	40.483750		you	you
sw2175B-ms98-a-0009	B.12	40.483750	40.633750		know	know
sw2175B-ms98-a-0009	B.12	40.633750	40.863750		that's	that's
sw2175B-ms98-a-0009	B.12	40.863750	41.233750		something	something
sw2175B-ms98-a-0009	B.12	41.233750	41.393750		we	we
sw2175B-ms98-a-0009	B.12	41.393750	41.703750		spend	spend
sw2175B-ms98-a-0009	B.12	41.703750	41.953750		time	time
sw2175B-ms98-a-0009	B.12	41.953750	42.273750		together	together
sw2175B-ms98-a-0009	B.12	42.273750	42.563750		too	too
sw2175B-ms98-a-0009	B.12	42.563750	42.743750		is	is
sw2175B-ms98-a-0009	B.12	42.743750	43.043750		[silence]	[silence]
sw2175B-ms98-a-0009	B.12	43.043750	43.163750		you	you
sw2175B-ms98-a-0009	B.12	43.163750	43.253750		know	know
sw2175B-ms98-a-0009	B.12	43.253750	43.813750		cooking	cooking
sw2175B-ms98-a-0009	B.12	43.813750	44.023750		[silence]	[silence]
sw2175B-ms98-a-0009	B.12	44.023750	44.383750		and	and
sw2175B-ms98-a-0009	B.12	44.383750	44.513750		uh	uh
sw2175B-ms98-a-0009	B.12	44.513750	45.113750		preparing	preparing
sw2175B-ms98-a-0009	B.12	45.113750	45.563750		meals	meals
sw2175B-ms98-a-0009	B.12	45.563750	45.723750		and	and
sw2175B-ms98-a-0009	B.12	45.723750	46.331875		stuff	stuff
sw2175B-ms98-a-0009	B.12	46.331875	46.497625		[silence]	[silence]
sw2175B-ms98-a-0009	B.12	46.497625	46.891000		So	so
sw2175B-ms98-a-0009	B.12	46.891000	46.891000	<INS>	uh	---
sw2175B-ms98-a-0009	B.12	46.891000	47.473000		[silence]	[silence]
sw2175B-ms98-a-0010	B.12	47.473000	47.870500		[silence]	[silence]
sw2175B-ms98-a-0010	B.12	47.870500	48.123000		[vocalized-noise]	[vocalized-noise]
sw2175B-ms98-a-0010	B.12	48.123000	48.243000		but	but
sw2175B-ms98-a-0010	B.12	48.243000	48.363000		as	as
sw2175B-ms98-a-0010	B.12	48.363000	48.573000		far	far
sw2175B-ms98-a-0010	B.12	48.573000	48.683000		as	as
sw2175B-ms98-a-0010	B.12	48.683000	49.183000		that	[laughter-that]
sw2175B-ms98-a-0010	B.12	49.183000	49.433000		that's	that's
sw2175B-ms98-a-0010	B.12	49.433000	49.703000		about	about
sw2175B-ms98-a-0010	B.12	49.703000	49.833000		all	all
sw2175B-ms98-a-0010	B.12	49.833000	50.153000		we've	we've
sw2175B-ms98-a-0010	B.12	50.153000	50.783000		discussed	discussed
sw2175B-ms98-a-0010	B.12	50.783000	50.783000	<INS>	as	---
sw2175B-ms98-a-0010	B.12	50.783000	50.783000	<INS>	far	---
sw2175B-ms98-a-0010	B.12	50.783000	50.783000	<INS>	as	---
sw2175B-ms98-a-0010	B.12	50.783000	51.143000		[silence]	[silence]
sw2175B-ms98-a-0010	B.12	51.143000	51.523000		for	for
sw2175B-ms98-a-0010	B.12	51.523000	52.109875		[silence]	[silence]
sw2175B-ms98-a-0011	B.12	52.109875	52.569875		[silence]	[silence]
sw2175B-ms98-a-0011	B.12	52.569875	53.199875		family	family
sw2175B-ms98-a-0011	B.14	53.199875	53.243250		[silence]	[silence]
sw2175B-ms98-a-0012	B.14	53.243250	55.692625		[silence]	[silence]
sw2175B-ms98-a-0013	B.14	55.692625	56.122625		[silence]	[silence]
sw2175B-ms98-a-0013	B.14	56.122625	56.382625		Oh	oh
sw2175B-ms98-a-0013	B.14	56.382625	56.592625		my	my
sw2175B-ms98-a-0013	B.14	56.592625	57.094000		gosh	gosh
sw2175B-ms98-a-0013	B.16	57.094000	57.121375		[silence]	[silence]
sw2175B-ms98-a-0014	B.16	57.121375	65.036375		[silence]	[silence]
sw2175B-ms98-a-0015	B.16	65.036375	65.216375		[silence]	[silence]
sw2175B-ms98-a-0015	B.16	65.216375	65.475500		Oh	oh
sw2175B-ms98-a-0015	B.16	65.475500	65.876375		yeah	yeah
sw2175B-ms98-a-0015	B.18	65.876375	66.131250		[silence]	[silence]
sw2175B-ms98-a-0016	B.18	66.131250	72.200500		[silence]	[silence]
sw2175B-ms98-a-0017	B.18	72.200500	72.757000		[silence]	[silence]
sw2175B-ms98-a-0017	B.18	72.757000	73.275375		Yeah	yeah
sw2175B-ms98-a-0017	B.18	73.275375	73.527750		[silence]	[silence]
sw2175B-ms98-a-0017	B.18	73.527750	73.830500		long	long
sw2175B-ms98-a-0017	B.18	73.830500	73.970500		way	way
sw2175B-ms98-a-0017	B.18	73.970500	74.220500		down	down
sw2175B-ms98-a-0017	B.18	74.220500	74.340500		the	the
sw2175B-ms98-a-0017	B.18	74.340500	74.620500		road	road
sw2175B-ms98-a-0017	B.18	74.620500	74.950500		right	right
sw2175B-ms98-a-0017	B.20	74.950500	75.590125		[laughter]	[laughter]
sw2175B-ms98-a-0017	B.20	75.590125	76.184000		[silence]	[silence]
sw2175B-ms98-a-0018	B.20	76.184000	96.960250		[silence]	[silence]
sw2175B-ms98-a-0019	B.20	96.960250	97.310250		[silence]	[silence]
sw2175B-ms98-a-0019	B.20	97.310250	97.650250		Yeah	yeah
sw2175B-ms98-a-0019	B.24	97.650250	98.046250		[silence]	[silence]
sw2175B-ms98-a-0020	B.24	98.046250	98.681125		[silence]	[silence]
sw2175B-ms98-a-0020	B.24	98.681125	98.939625		[laughter]	[laughter]
sw2175B-ms98-a-0020	B.24	98.939625	99.272125		[silence]	[silence]
sw2175B-ms98-a-0021	B.24	99.272125	115.383875		[silence]	[silence]
sw2175B-ms98-a-0022	B.24	115.383875	115.478875		[silence]	[silence]
sw2175B-ms98-a-0022	B.24	115.478875	115.843875	<SUB>	Uh-huh	um-hum
sw2175B-ms98-a-0022	B.26	115.843875	116.413625		[silence]	[silence]
sw2175B-ms98-a-0023	B.26	116.413625	133.591000		[silence]	[silence]
sw2175B-ms98-a-0024	B.26	133.591000	134.171000		[silence]	[silence]
sw2175B-ms98-a-0024	B.26	134.171000	134.391000		Well	well
sw2175B-ms98-a-0024	B.26	134.391000	134.798875		do	do
sw2175B-ms98-a-0024	B.26	134.798875	134.798875	<INS>	you	---
sw2175B-ms98-a-0024	B.26	134.798875	134.960875		[silence]	[silence]
sw2175B-ms98-a-0024	B.26	134.960875	135.391000		do	do
sw2175B-ms98-a-0024	B.26	135.391000	135.391000	<INS>	you	---
sw2175B-ms98-a-0024	B.26	135.391000	135.521000		so	so
sw2175B-ms98-a-0024	B.26	135.521000	135.791000		you	you
sw2175B-ms98-a-0024	B.26	135.791000	136.211500		go	go
sw2175B-ms98-a-0024	B.26	136.211500	136.614500		[silence]	[silence]
sw2175B-ms98-a-0024	B.26	136.614500	136.838000		if	if
sw2175B-ms98-a-0024	B.26	136.838000	137.241000		you're	you're
sw2175B-ms98-a-0024	B.26	137.241000	137.331000		if	if
sw2175B-ms98-a-0024	B.26	137.331000	137.501000		you're	you're
sw2175B-ms98-a-0024	B.26	137.501000	137.731000		not	not
sw2175B-ms98-a-0024	B.26	137.731000	137.891000		[silence]	[silence]
sw2175B-ms98-a-0024	B.26	137.891000	138.131000		doing	doing
sw2175B-ms98-a-0024	B.26	138.131000	138.291000		any	any
sw2175B-ms98-a-0024	B.26	138.291000	138.551000		kind	kind
sw2175B-ms98-a-0024	B.26	138.551000	138.821000		of	of
sw2175B-ms98-a-0024	B.26	138.821000	139.231000		sport	sport
sw2175B-ms98-a-0024	B.26	139.231000	139.411000		thing	thing
sw2175B-ms98-a-0024	B.26	139.411000	139.521000		you	you
sw2175B-ms98-a-0024	B.26	139.521000	139.818625		go	go
sw2175B-ms98-a-0024	B.26	139.818625	139.976750		[silence]	[silence]
sw2175B-ms98-a-0024	B.26	139.976750	140.221000		to	to
sw2175B-ms98-a-0024	B.26	140.221000	140.381000		one	one
sw2175B-ms98-a-0024	B.26	140.381000	140.691000		of	of
sw2175B-ms98-a-0024	B.26	140.691000	140.881000		your	your
sw2175B-ms98-a-0024	B.26	140.881000	141.331000		sisters'	sisters'
sw2175B-ms98-a-0024	B.26	141.331000	141.411000		or	or
sw2175B-ms98-a-0024	B.26	141.411000	141.871000		brothers'	brothers'
sw2175B-ms98-a-0024	B.28	141.871000	142.417375		[silence]	[silence]
sw2175B-ms98-a-0025	B.28	142.417375	142.497375		[silence]	[silence]
sw2175B-ms98-a-0025	B.28	142.497375	143.057375		sporting	sporting
sw2175B-ms98-a-0025	B.28	143.057375	143.517375		events	events
sw2175B-ms98-a-0025	B.30	143.517375	143.997375		And	and
sw2175B-ms98-a-0025	B.30	143.997375	144.097375		[silence]	[silence]
sw2175B-ms98-a-0025	B.30	144.097375	144.277375		sort	sort
sw2175B-ms98-a-0025	B.30	144.277375	144.337375		of	of
sw2175B-ms98-a-0025	B.30	144.337375	144.547375		like	like
sw2175B-ms98-a-0025	B.30	144.547375	144.727375		be	be
sw2175B-ms98-a-0025	B.30	144.727375	144.937375		there	there
sw2175B-ms98-a-0025	B.30	144.937375	145.147375		with	with
sw2175B-ms98-a-0025	B.30	145.147375	145.427375		them	them
sw2175B-ms98-a-0025	B.32	145.427375	145.550500		[silence]	[silence]
sw2175B-ms98-a-0026	B.32	145.550500	146.959250		[silence]	[silence]
sw2175B-ms98-a-0027	B.32	146.959250	147.249250		[silence]	[silence]
sw2175B-ms98-a-0027	B.32	147.249250	147.609250		Yeah	yeah
sw2175B-ms98-a-0027	B.34	147.609250	148.343375		[silence]	[silence]
sw2175B-ms98-a-0028	B.34	148.343375	148.853375		[silence]	[silence]
sw2175B-ms98-a-0028	B.34	148.853375	149.123375		Well	well
sw2175B-ms98-a-0028	B.34	149.123375	149.363375		[silence]	[silence]
sw2175B-ms98-a-0028	B.34	149.363375	149.673375		that's	that's
sw2175B-ms98-a-0028	B.34	149.673375	149.943375		that's	that's
sw2175B-ms98-a-0028	B.34	149.943375	150.153375		good	good
sw2175B-ms98-a-0028	B.34	150.153375	150.343375		too	too
sw2175B-ms98-a-0028	B.34	150.343375	150.383375		I	i
sw2175B-ms98-a-0028	B.34	150.383375	150.573375		mean	mean
sw2175B-ms98-a-0028	B.34	150.573375	150.683375		as	as
sw2175B-ms98-a-0028	B.34	150.683375	150.873375		far	far
sw2175B-ms98-a-0028	B.34	150.873375	151.033375		as	as
sw2175B-ms98-a-0028	B.34	151.033375	151.453375		entering	entering
sw2175B-ms98-a-0028	B.34	151.453375	151.989875		[vocalized-noise]	[vocalized-noise]
sw2175B-ms98-a-0028	B.34	151.989875	152.091500		I	i
sw2175B-ms98-a-0028	B.34	152.091500	152.333375		mean	mean
sw2175B-ms98-a-0028	B.34	152.333375	153.023375		[silence]	[silence]
sw2175B-ms98-a-0028	B.34	153.023375	153.143375		you're	you're
sw2175B-ms98-a-0028	B.34	153.143375	153.461500		you're	you're
sw2175B-ms98-a-0028	B.34	153.461500	153.768875		[silence]	[silence]
sw2175B-ms98-a-0029	B.34	153.768875	153.998875		[silence]	[silence]
sw2175B-ms98-a-0029	B.34	153.998875	155.108875		participating	participating
sw2175B-ms98-a-0029	B.34	155.108875	155.268875		[silence]	[silence]
sw2175B-ms98-a-0029	B.34	155.268875	155.418875		but	but
sw2175B-ms98-a-0029	B.34	155.418875	155.558875		you're	you're
sw2175B-ms98-a-0029	B.34	155.558875	155.968875		not	not
sw2175B-ms98-a-0029	B.34	155.968875	156.108875		you	you
sw2175B-ms98-a-0029	B.34	156.108875	156.388875		know	know
sw2175B-ms98-a-0029	B.36	156.388875	156.458875		I	i
sw2175B-ms98-a-0029	B.36	156.458875	156.668875		mean	mean
sw2175B-ms98-a-0029	B.36	156.668875	156.748875		at	at
sw2175B-ms98-a-0029	B.36	156.748875	156.998875		least	least
sw2175B-ms98-a-0029	B.36	156.998875	157.118875		you're	you're
sw2175B-ms98-a-0029	B.36	157.118875	157.778875		encouraging	encouraging
sw2175B-ms98-a-0029	B.36	157.778875	157.928875		them	them_1
sw2175B-ms98-a-0029	B.36	157.928875	158.188875		on	on
sw2175B-ms98-a-0029	B.36	158.188875	158.358875		and	and
sw2175B-ms98-a-0029	B.36	158.358875	158.608875		stuff	stuff
sw2175B-ms98-a-0029	B.36	158.608875	158.708875		and	and
sw2175B-ms98-a-0029	B.36	158.708875	159.076750		that's	that's
sw2175B-ms98-a-0029	B.38	159.076750	159.347125		[silence]	[silence]
sw2175B-ms98-a-0029	B.38	159.347125	159.765500		because	because_1
sw2175B-ms98-a-0029	B.38	159.765500	160.319125		[silence]	[silence]
sw2175B-ms98-a-0030	B.38	160.319125	160.602375		[silence]	[silence]
sw2175B-ms98-a-0030	B.38	160.602375	161.019125		um	um
sw2175B-ms98-a-0030	B.38	161.019125	161.269125		even	even
sw2175B-ms98-a-0030	B.38	161.269125	161.479125		if	if
sw2175B-ms98-a-0030	B.38	161.479125	161.599125		[silence]	[silence]
sw2175B-ms98-a-0030	B.38	161.599125	161.689125		our	our
sw2175B-ms98-a-0030	B.38	161.689125	162.019125		kids	kids
sw2175B-ms98-a-0030	B.38	162.019125	162.209125		[silence]	[silence]
sw2175B-ms98-a-0030	B.38	162.209125	162.309125		you	you
sw2175B-ms98-a-0030	B.38	162.309125	162.439125		know	know
sw2175B-ms98-a-0030	B.38	162.439125	162.619125		get	get
sw2175B-ms98-a-0030	B.38	162.619125	162.809125		into	into
sw2175B-ms98-a-0030	B.38	162.809125	163.249125		sports	sports
sw2175B-ms98-a-0030	B.38	163.249125	163.389125		that	that
sw2175B-ms98-a-0030	B.38	163.389125	163.609125		we're	we're
sw2175B-ms98-a-0030	B.38	163.609125	163.879125		really	really
sw2175B-ms98-a-0030	B.38	163.879125	164.099125		not	not
sw2175B-ms98-a-0030	B.38	164.099125	164.609125		interested	interested
sw2175B-ms98-a-0030	B.38	164.609125	164.779125		in	in
sw2175B-ms98-a-0030	B.38	164.779125	164.917500		I	i
sw2175B-ms98-a-0030	B.38	164.917500	165.169125		don't	don't
sw2175B-ms98-a-0030	B.38	165.169125	165.289125		I	i
sw2175B-ms98-a-0030	B.38	165.289125	165.549125		want	want
sw2175B-ms98-a-0030	B.38	165.549125	165.709875		them	them_1
sw2175B-ms98-a-0030	B.38	165.709875	165.895500		[silence]	[silence]
sw2175B-ms98-a-0031	B.38	165.895500	166.045500		[silence]	[silence]
sw2175B-ms98-a-0031	B.38	166.045500	166.195500		you	you
sw2175B-ms98-a-0031	B.38	166.195500	166.335500		know	know
sw2175B-ms98-a-0031	B.38	166.335500	166.505500		to	to
sw2175B-ms98-a-0031	B.38	166.505500	166.735500		know	know
sw2175B-ms98-a-0031	B.38	166.735500	166.875500		that	that
sw2175B-ms98-a-0031	B.38	166.875500	166.985500		we're	we're
sw2175B-ms98-a-0031	B.38	166.985500	167.385500		still	still
sw2175B-ms98-a-0031	B.38	167.385500	167.974625		there	there
sw2175B-ms98-a-0031	B.40	167.974625	168.144125		[silence]	[silence]
sw2175B-ms98-a-0031	B.40	168.144125	168.285500	<DEL>	---	you
sw2175B-ms98-a-0031	B.40	168.285500	168.505500	<DEL>	---	know
sw2175B-ms98-a-0031	B.40	168.505500	168.715500		so	so
sw2175B-ms98-a-0031	B.40	168.715500	168.815500		to	to
sw2175B-ms98-a-0031	B.40	168.815500	169.155500		speak	speak
sw2175B-ms98-a-0031	B.40	169.155500	169.265500		as	as
sw2175B-ms98-a-0031	B.40	169.265500	169.335500		a	a
sw2175B-ms98-a-0031	B.40	169.335500	169.805500		family	family
sw2175B-ms98-a-0031	B.42	169.805500	169.981125	<DEL>	---	that
sw2175B-ms98-a-0031	B.42	169.981125	170.717125		[silence]	[silence]
sw2175B-ms98-a-0032	B.42	170.717125	187.089625		[silence]	[silence]
sw2175B-ms98-a-0033	B.42	187.089625	187.159625		[silence]	[silence]
sw2175B-ms98-a-0033	B.42	187.159625	187.560875		Yeah	yeah
sw2175B-ms98-a-0033	B.42	187.560875	187.922000		[silence]	[silence]
sw2175B-ms98-a-0033	B.42	187.922000	188.259625		Cheering	cheering
sw2175B-ms98-a-0033	B.42	188.259625	188.389625		you	you
sw2175B-ms98-a-0033	B.42	188.389625	188.679625		on	on
sw2175B-ms98-a-0033	B.42	188.679625	188.849625		and	and
sw2175B-ms98-a-0033	B.42	188.849625	189.301000		stuff	stuff
sw2175B-ms98-a-0033	B.44	189.301000	189.332625		[silence]	[silence]
sw2175B-ms98-a-0034	B.44	189.332625	208.451625		[silence]	[silence]
sw2175B-ms98-a-0035	B.44	208.451625	208.850375		[silence]	[silence]
sw2175B-ms98-a-0035	B.44	208.850375	209.280375		Yeah	yeah
sw2175B-ms98-a-0035	B.44	209.280375	209.905500		[silence]	[silence]
sw2175B-ms98-a-0035	B.44	209.905500	210.151625		well	well
sw2175B-ms98-a-0035	B.44	210.151625	210.251625		that	that
sw2175B-ms98-a-0035	B.44	210.251625	210.421625		that	that
sw2175B-ms98-a-0035	B.44	210.421625	210.511625		would	would
sw2175B-ms98-a-0035	B.44	210.511625	210.621625		be	be
sw2175B-ms98-a-0035	B.44	210.621625	210.871625		fun	fun
sw2175B-ms98-a-0035	B.44	210.871625	211.041625		Boy	boy
sw2175B-ms98-a-0035	B.44	211.041625	211.201625		so	so
sw2175B-ms98-a-0035	B.44	211.201625	211.261625		you	you
sw2175B-ms98-a-0035	B.44	211.261625	211.529125		you	you
sw2175B-ms98-a-0035	B.44	211.529125	211.826625		[silence]	[silence]
sw2175B-ms98-a-0035	B.44	211.826625	212.141625		have	have
sw2175B-ms98-a-0035	B.44	212.141625	212.211625		a	a
sw2175B-ms98-a-0035	B.44	212.211625	212.521625		lot	lot
sw2175B-ms98-a-0035	B.44	212.521625	212.831625		of	of
sw2175B-ms98-a-0035	B.44	212.831625	213.551625		experience	experience
sw2175B-ms98-a-0035	B.44	213.551625	213.681625		as	as
sw2175B-ms98-a-0035	B.44	213.681625	214.032750		far	far
sw2175B-ms98-a-0035	B.44	214.032750	214.032750	<INS>	as	---
sw2175B-ms98-a-0035	B.44	214.032750	214.426000		[silence]	[silence]
sw2175B-ms98-a-0036	B.44	214.426000	214.576000		[silence]	[silence]
sw2175B-ms98-a-0036	B.44	214.576000	214.706000		you	you
sw2175B-ms98-a-0036	B.44	214.706000	214.876000		know	know
sw2175B-ms98-a-0036	B.44	214.876000	215.256000		different	different
sw2175B-ms98-a-0036	B.44	215.256000	215.506000		ways	ways
sw2175B-ms98-a-0036	B.44	215.506000	215.576000		a	a
sw2175B-ms98-a-0036	B.44	215.576000	216.206000		family	family
sw2175B-ms98-a-0036	B.44	216.206000	216.756000		[silence]	[silence]
sw2175B-ms98-a-0036	B.44	216.756000	217.106500		can	can
sw2175B-ms98-a-0036	B.44	217.106500	217.257125		[silence]	[silence]
sw2175B-ms98-a-0036	B.44	217.257125	218.016000		interact	interact
sw2175B-ms98-a-0036	B.44	218.016000	218.266000		and	and
sw2175B-ms98-a-0036	B.44	218.266000	218.476000		and	and
sw2175B-ms98-a-0036	B.44	218.476000	218.626000		do	do
sw2175B-ms98-a-0036	B.44	218.626000	218.926000		things	things
sw2175B-ms98-a-0036	B.44	218.926000	219.416000		together	together
sw2175B-ms98-a-0036	B.46	219.416000	219.546000		as	as
sw2175B-ms98-a-0036	B.46	219.546000	219.726000		far	far
sw2175B-ms98-a-0036	B.46	219.726000	219.846000		as	as
sw2175B-ms98-a-0036	B.46	219.846000	220.026000		[silence]	[silence]
sw2175B-ms98-a-0036	B.46	220.026000	220.336000	<SUB>	go-	God
sw2175B-ms98-a-0036	B.46	220.336000	221.033250		twelve	twelve
sw2175B-ms98-a-0036	B.48	221.033250	221.685375		[silence]	[silence]
sw2175B-ms98-a-0037	B.48	221.685375	222.335375		[silence]	[silence]
sw2175B-ms98-a-0037	B.48	222.335375	222.555375		But	but
sw2175B-ms98-a-0037	B.48	222.555375	222.745375		it's	it's
sw2175B-ms98-a-0037	B.48	222.745375	222.985375		so	so
sw2175B-ms98-a-0037	B.48	222.985375	223.235375		if	if
sw2175B-ms98-a-0037	B.48	223.235375	223.405375		you're	you're
sw2175B-ms98-a-0037	B.48	223.405375	223.693250		not	not
sw2175B-ms98-a-0037	B.48	223.693250	223.964375		[silence]	[silence]
sw2175B-ms98-a-0037	B.48	223.964375	224.233375		i-	i-
sw2175B-ms98-a-0037	B.48	224.233375	224.384000		[silence]	[silence]
sw2175B-ms98-a-0037	B.48	224.384000	224.565375		what	what
sw2175B-ms98-a-0037	B.48	224.565375	224.785375		if	if
sw2175B-ms98-a-0037	B.48	224.785375	224.865375		[silence]	[silence]
sw2175B-ms98-a-0037	B.48	224.865375	225.035375		do	do
sw2175B-ms98-a-0037	B.48	225.035375	225.205375	<DEL>	---	do
sw2175B-ms98-a-0037	B.48	225.205375	225.485375		people	people
sw2175B-ms98-a-0037	B.48	225.485375	225.635375		go	go
sw2175B-ms98-a-0037	B.48	225.635375	225.845375		off	off
sw2175B-ms98-a-0037	B.48	225.845375	225.925375		in	in
sw2175B-ms98-a-0037	B.48	225.925375	226.035375		their	their
sw2175B-ms98-a-0037	B.48	226.035375	226.155375		own	own
sw2175B-ms98-a-0037	B.48	226.155375	226.385375		little	little
sw2175B-ms98-a-0037	B.48	226.385375	226.845375		groups	groups
sw2175B-ms98-a-0037	B.48	226.845375	226.945375		with	with
sw2175B-ms98-a-0037	B.48	226.945375	227.125375		that	that
sw2175B-ms98-a-0037	B.48	227.125375	227.525375		many	many
sw2175B-ms98-a-0037	B.48	227.525375	227.605375		I	i
sw2175B-ms98-a-0037	B.48	227.605375	227.865375		mean	mean
sw2175B-ms98-a-0037	B.48	227.865375	228.015375		did	did
sw2175B-ms98-a-0037	B.48	228.015375	228.265375		[silence]	[silence]
sw2175B-ms98-a-0037	B.48	228.265375	228.485375		like	like
sw2175B-ms98-a-0037	B.48	228.485375	228.685375		some	some
sw2175B-ms98-a-0037	B.48	228.685375	228.925375		people	people
sw2175B-ms98-a-0037	B.48	228.925375	229.095375		go	go
sw2175B-ms98-a-0037	B.48	229.095375	229.195375		to	to
sw2175B-ms98-a-0037	B.48	229.195375	229.345375		their	their
sw2175B-ms98-a-0037	B.48	229.345375	229.905375		rooms	rooms
sw2175B-ms98-a-0037	B.48	229.905375	230.255375		and	and
sw2175B-ms98-a-0037	B.50	230.255375	230.440375		[silence]	[silence]
sw2175B-ms98-a-0038	B.50	230.440375	240.270750		[silence]	[silence]
sw2175B-ms98-a-0039	B.50	240.270750	240.880750		[silence]	[silence]
sw2175B-ms98-a-0039	B.50	240.880750	241.358625		Yeah	yeah
sw2175B-ms98-a-0039	B.52	241.358625	241.450875		[silence]	[silence]
sw2175B-ms98-a-0040	B.52	241.450875	250.154250		[silence]	[silence]
sw2175B-ms98-a-0041	B.52	250.154250	250.704000		[silence]	[silence]
sw2175B-ms98-a-0041	B.52	250.704000	250.880750	<SUB>	Huh	hum
sw2175B-ms98-a-0041	B.54	250.880750	251.312750		[silence]	[silence]
sw2175B-ms98-a-0042	B.54	251.312750	258.880125		[silence]	[silence]
sw2175B-ms98-a-0043	B.54	258.880125	259.150125		[silence]	[silence]
sw2175B-ms98-a-0043	B.54	259.150125	259.588875		Yeah	yeah
sw2175B-ms98-a-0043	B.56	259.588875	260.229125		[silence]	[silence]
sw2175B-ms98-a-0044	B.56	260.229125	260.939125		[silence]	[silence]
sw2175B-ms98-a-0044	B.56	260.939125	261.109125		But	but
sw2175B-ms98-a-0044	B.56	261.109125	261.289125		when	when
sw2175B-ms98-a-0044	B.56	261.289125	261.369125		you	you
sw2175B-ms98-a-0044	B.56	261.369125	261.489125		were	were
sw2175B-ms98-a-0044	B.56	261.489125	261.889125		growing	growing
sw2175B-ms98-a-0044	B.56	261.889125	262.169125		up	up
sw2175B-ms98-a-0044	B.56	262.169125	262.319125		and	and
sw2175B-ms98-a-0044	B.56	262.319125	262.439125		they	they
sw2175B-ms98-a-0044	B.56	262.439125	262.679125		weren't	weren't
sw2175B-ms98-a-0044	B.56	262.679125	262.769125		and	and
sw2175B-ms98-a-0044	B.56	262.769125	262.829125		the	the
sw2175B-ms98-a-0044	B.56	262.829125	263.249125		younger	younger
sw2175B-ms98-a-0044	B.56	263.249125	263.509125		ones	ones
sw2175B-ms98-a-0044	B.56	263.509125	263.699125		weren't	weren't
sw2175B-ms98-a-0044	B.56	263.699125	264.379125		around	around
sw2175B-ms98-a-0044	B.56	264.379125	264.599125		what	what
sw2175B-ms98-a-0044	B.56	264.599125	264.749125		did	did
sw2175B-ms98-a-0044	B.56	264.749125	264.819125		you	you
sw2175B-ms98-a-0044	B.56	264.819125	265.089125		do	do
sw2175B-ms98-a-0044	B.58	265.089125	265.463125		[silence]	[silence]
sw2175B-ms98-a-0045	B.58	265.463125	267.010875		[silence]	[silence]
sw2175B-ms98-a-0046	B.58	267.010875	267.427250		[silence]	[silence]
sw2175B-ms98-a-0046	B.58	267.427250	267.580875		Oh	oh
sw2175B-ms98-a-0046	B.58	267.580875	267.680875		I	i
sw2175B-ms98-a-0046	B.58	267.680875	267.930875		see	see
sw2175B-ms98-a-0046	B.58	267.930875	268.100875		But	but
sw2175B-ms98-a-0046	B.58	268.100875	268.370875		now	now
sw2175B-ms98-a-0046	B.58	268.370875	268.560875		that	that
sw2175B-ms98-a-0046	B.58	268.560875	268.760875		[silence]	[silence]
sw2175B-ms98-a-0046	B.58	268.760875	268.990875		they've	they've
sw2175B-ms98-a-0046	B.58	268.990875	269.350875		all	all
sw2175B-ms98-a-0046	B.58	269.350875	269.550875		sort	sort
sw2175B-ms98-a-0046	B.58	269.550875	269.680875		of	of
sw2175B-ms98-a-0046	B.58	269.680875	269.970875		moved	moved
sw2175B-ms98-a-0046	B.58	269.970875	270.494250		off	off
sw2175B-ms98-a-0046	B.60	270.494250	271.087750		[silence]	[silence]
sw2175B-ms98-a-0047	B.60	271.087750	273.433875		[silence]	[silence]
sw2175B-ms98-a-0048	B.60	273.433875	273.883875		[silence]	[silence]
sw2175B-ms98-a-0048	B.60	273.883875	274.383875		Yeah	yeah
sw2175B-ms98-a-0048	B.62	274.383875	274.736625		[silence]	[silence]
sw2175B-ms98-a-0049	B.62	274.736625	276.030250		[silence]	[silence]
sw2175B-ms98-a-0050	B.62	276.030250	276.320250		[silence]	[silence]
sw2175B-ms98-a-0050	B.62	276.320250	276.710250		So	so
sw2175B-ms98-a-0050	B.62	276.710250	276.870250		do	do
sw2175B-ms98-a-0050	B.62	276.870250	277.050250		you	you
sw2175B-ms98-a-0050	B.62	277.050250	277.437750		think	think
sw2175B-ms98-a-0050	B.62	277.437750	277.769125		[silence]	[silence]
sw2175B-ms98-a-0050	B.62	277.769125	278.264250		even	even
sw2175B-ms98-a-0050	B.62	278.264250	278.482625		[silence]	[silence]
sw2175B-ms98-a-0050	B.62	278.482625	278.716625		I	i
sw2175B-ms98-a-0050	B.62	278.716625	278.980250		mean	mean
sw2175B-ms98-a-0050	B.62	278.980250	279.150250		what	what
sw2175B-ms98-a-0050	B.62	279.150250	279.330250		did	did
sw2175B-ms98-a-0050	B.62	279.330250	279.460250		you	you
sw2175B-ms98-a-0050	B.62	279.460250	279.690250		do	do
sw2175B-ms98-a-0050	B.62	279.690250	279.900250		when	when
sw2175B-ms98-a-0050	B.62	279.900250	280.000250		you	you
sw2175B-ms98-a-0050	B.62	280.000250	280.140250		were	were
sw2175B-ms98-a-0050	B.62	280.140250	280.841500		younger	younger
sw2175B-ms98-a-0050	B.62	280.841500	281.222000		[silence]	[silence]
sw2175B-ms98-a-0050	B.62	281.222000	281.440250		did	did
sw2175B-ms98-a-0050	B.62	281.440250	281.580250		you	you
sw2175B-ms98-a-0050	B.62	281.580250	281.818125		go	go
sw2175B-ms98-a-0050	B.62	281.818125	281.998875		[silence]	[silence]
sw2175B-ms98-a-0050	B.62	281.998875	282.170250		do	do
sw2175B-ms98-a-0050	B.62	282.170250	282.250250		the	the
sw2175B-ms98-a-0050	B.62	282.250250	282.520250		board	board
sw2175B-ms98-a-0050	B.62	282.520250	282.820250		games	games
sw2175B-ms98-a-0050	B.62	282.820250	282.930250		and	and
sw2175B-ms98-a-0050	B.62	282.930250	283.170250		stuff	stuff
sw2175B-ms98-a-0050	B.62	283.170250	283.290250		you	you
sw2175B-ms98-a-0050	B.62	283.290250	283.560250		still	still
sw2175B-ms98-a-0050	B.62	283.560250	283.770250		did	did
sw2175B-ms98-a-0050	B.62	283.770250	283.950250		what	what
sw2175B-ms98-a-0050	B.62	283.950250	284.010250		you	you
sw2175B-ms98-a-0050	B.62	284.010250	284.180250		do	do
sw2175B-ms98-a-0050	B.62	284.180250	284.562250		now	now
sw2175B-ms98-a-0050	B.64	284.562250	285.378375		[silence]	[silence]
sw2175B-ms98-a-0051	B.64	285.378375	294.532750		[silence]	[silence]
sw2175B-ms98-a-0052	B.64	294.532750	295.175750		[silence]	[silence]
sw2175B-ms98-a-0052	B.64	295.175750	295.507500	<SUB>	Uh-huh	um-hum
sw2175B-ms98-a-0052	B.66	295.507500	295.739250		[silence]	[silence]
sw2175B-ms98-a-0053	B.66	295.739250	305.787125		[silence]	[silence]
sw2175B-ms98-a-0054	B.66	305.787125	306.027125		[silence]	[silence]
sw2175B-ms98-a-0054	B.66	306.027125	306.647625		Hurling	hurling
sw2175B-ms98-a-0054	B.68	306.647625	307.145000		[silence]	[silence]
sw2175B-ms98-a-0055	B.68	307.145000	308.867125		[silence]	[silence]
sw2175B-ms98-a-0056	B.68	308.867125	309.037125		[silence]	[silence]
sw2175B-ms98-a-0056	B.68	309.037125	309.243750		Oh	oh
sw2175B-ms98-a-0056	B.68	309.243750	309.831125		hurtle	hurtle
sw2175B-ms98-a-0056	B.68	309.831125	310.017125		oh	oh
sw2175B-ms98-a-0056	B.68	310.017125	310.387125		okay	okay
sw2175B-ms98-a-0056	B.70	310.387125	310.796375		[silence]	[silence]
sw2175B-ms98-a-0057	B.70	310.796375	325.340500		[silence]	[silence]
sw2175B-ms98-a-0058	B.70	325.340500	325.780500		[silence]	[silence]
sw2175B-ms98-a-0058	B.70	325.780500	325.940500		So	so
sw2175B-ms98-a-0058	B.70	325.940500	326.185750		you	you
sw2175B-ms98-a-0058	B.70	326.185750	326.425750		[silence]	[silence]
sw2175B-ms98-a-0058	B.70	326.425750	326.630500		you	you
sw2175B-ms98-a-0058	B.70	326.630500	326.800500		had	had
sw2175B-ms98-a-0058	B.70	326.800500	326.850500		a	a
sw2175B-ms98-a-0058	B.70	326.850500	327.090500		lot	lot
sw2175B-ms98-a-0058	B.70	327.090500	327.210500		of	of
sw2175B-ms98-a-0058	B.70	327.210500	327.680500		games	games
sw2175B-ms98-a-0058	B.70	327.680500	327.800500		and	and
sw2175B-ms98-a-0058	B.70	327.800500	328.050500		things	things
sw2175B-ms98-a-0058	B.70	328.050500	328.120500		you	you
sw2175B-ms98-a-0058	B.70	328.120500	328.642875		played	played
sw2175B-ms98-a-0058	B.72	328.642875	329.015750		[silence]	[silence]
sw2175B-ms98-a-0058	B.72	329.015750	329.320500		even	even
sw2175B-ms98-a-0058	B.72	329.320500	329.450500		when	when
sw2175B-ms98-a-0058	B.72	329.450500	329.580500		you	you
sw2175B-ms98-a-0058	B.72	329.580500	329.650500		were	were
sw2175B-ms98-a-0058	B.72	329.650500	330.040500		kids	kids
sw2175B-ms98-a-0058	B.72	330.040500	330.285750		with	with
sw2175B-ms98-a-0058	B.72	330.285750	330.481625		[silence]	[silence]
sw2175B-ms98-a-0058	B.72	330.481625	330.580500		the	the
sw2175B-ms98-a-0058	B.72	330.580500	330.840500		ones	ones
sw2175B-ms98-a-0058	B.72	330.840500	331.000500		that	that
sw2175B-ms98-a-0058	B.72	331.000500	331.136375	<SUB>	you	y[ou]-
sw2175B-ms98-a-0058	B.74	331.136375	331.596750		[silence]	[silence]
sw2175B-ms98-a-0059	B.74	331.596750	339.490000		[silence]	[silence]
sw2175B-ms98-a-0060	B.74	339.490000	339.770000		[silence]	[silence]
sw2175B-ms98-a-0060	B.74	339.770000	340.180000		Yeah	yeah
sw2175B-ms98-a-0060	B.76	340.180000	340.792625		[silence]	[silence]
sw2175B-ms98-a-0061	B.76	340.792625	343.372875		[silence]	[silence]
sw2175B-ms98-a-0062	B.76	343.372875	343.552875		[silence]	[silence]
sw2175B-ms98-a-0062	B.76	343.552875	343.885375		Yeah	yeah
sw2175B-ms98-a-0062	B.76	343.885375	343.984875		[silence]	[silence]
sw2175B-ms98-a-0062	B.76	343.984875	344.239500		no	no
sw2175B-ms98-a-0062	B.76	344.239500	344.481250		[silence]	[silence]
sw2175B-ms98-a-0062	B.76	344.481250	344.832875		not	not
sw2175B-ms98-a-0062	B.76	344.832875	345.052875		real	real
sw2175B-ms98-a-0062	B.76	345.052875	345.442875		spread	spread
sw2175B-ms98-a-0062	B.76	345.442875	345.582875		in	in
sw2175B-ms98-a-0062	B.76	345.582875	346.214125		age	age
sw2175B-ms98-a-0062	B.78	346.214125	346.738125		[silence]	[silence]
sw2175B-ms98-a-0063	B.78	346.738125	350.738375		[silence]	[silence]
sw2175B-ms98-a-0064	B.78	350.738375	350.918375		[silence]	[silence]
sw2175B-ms98-a-0064	B.78	350.918375	351.298375		Yeah	yeah
sw2175B-ms98-a-0064	B.80	351.298375	351.846125		[silence]	[silence]
sw2175B-ms98-a-0065	B.80	351.846125	352.076125		[silence]	[silence]
sw2175B-ms98-a-0065	B.80	352.076125	352.436125		Gosh	gosh
sw2175B-ms98-a-0065	B.80	352.436125	353.286125		twelve	twelve
sw2175B-ms98-a-0065	B.80	353.286125	353.376125		is	is
sw2175B-ms98-a-0065	B.80	353.376125	353.626125		that	that
sw2175B-ms98-a-0065	B.80	353.626125	353.716125		is	is
sw2175B-ms98-a-0065	B.80	353.716125	353.936125		that	that
sw2175B-ms98-a-0065	B.80	353.936125	354.116125		pretty	pretty
sw2175B-ms98-a-0065	B.80	354.116125	354.670250		common	common
sw2175B-ms98-a-0065	B.80	354.670250	354.790750		[silence]	[silence]
sw2175B-ms98-a-0065	B.80	354.790750	355.017000		up	up
sw2175B-ms98-a-0065	B.80	355.017000	355.423750		there	there
sw2175B-ms98-a-0065	B.80	355.423750	355.823250		uh	uh
sw2175B-ms98-a-0065	B.80	355.823250	356.075625		in	in
sw2175B-ms98-a-0065	B.82	356.075625	356.654000		[silence]	[silence]
sw2175B-ms98-a-0065	B.82	356.654000	357.032500		Oh	oh
sw2175B-ms98-a-0065	B.82	357.032500	357.601375		okay	okay
sw2175B-ms98-a-0065	B.84	357.601375	357.760500		[silence]	[silence]
sw2175B-ms98-a-0066	B.84	357.760500	358.470500		[silence]	[silence]
sw2175B-ms98-a-0066	B.84	358.470500	358.618500	<DEL>	---	because_1
sw2175B-ms98-a-0066	B.84	358.618500	358.792750		I	i
sw2175B-ms98-a-0066	B.84	358.792750	359.190500		don't	don't
sw2175B-ms98-a-0066	B.84	359.190500	359.410500		meet	meet
sw2175B-ms98-a-0066	B.84	359.410500	359.580500		[silence]	[silence]
sw2175B-ms98-a-0066	B.84	359.580500	359.800500	<DEL>	---	the
sw2175B-ms98-a-0066	B.84	359.800500	359.850500		I	i
sw2175B-ms98-a-0066	B.84	359.850500	360.030500		mean	mean
sw2175B-ms98-a-0066	B.84	360.030500	360.060500		I	i
sw2175B-ms98-a-0066	B.84	360.060500	360.310500		don't	don't
sw2175B-ms98-a-0066	B.84	360.310500	360.550500		speak	speak
sw2175B-ms98-a-0066	B.84	360.550500	360.670500		with	with
sw2175B-ms98-a-0066	B.84	360.670500	360.910500		many	many
sw2175B-ms98-a-0066	B.84	360.910500	361.290500		people	people
sw2175B-ms98-a-0066	B.84	361.290500	361.500500		that	that
sw2175B-ms98-a-0066	B.84	361.500500	361.950500		[silence]	[silence]
sw2175B-ms98-a-0066	B.84	361.950500	362.170500		come	come
sw2175B-ms98-a-0066	B.84	362.170500	362.370500		from	from
sw2175B-ms98-a-0066	B.84	362.370500	362.790500		families	families
sw2175B-ms98-a-0066	B.84	362.790500	362.990500		that	that
sw2175B-ms98-a-0066	B.84	362.990500	363.450500		large	large
sw2175B-ms98-a-0066	B.84	363.450500	363.696500		any	any
sw2175B-ms98-a-0066	B.84	363.696500	364.068500		more	more
sw2175B-ms98-a-0066	B.84	364.068500	364.185250		I	i
sw2175B-ms98-a-0066	B.84	364.185250	364.476375		mean	mean
sw2175B-ms98-a-0066	B.86	364.476375	365.256000		[silence]	[silence]
sw2175B-ms98-a-0067	B.86	365.256000	365.616000		[silence]	[silence]
sw2175B-ms98-a-0067	B.86	365.616000	365.926000		my	my
sw2175B-ms98-a-0067	B.86	365.926000	366.135125		my	my
sw2175B-ms98-a-0067	B.86	366.135125	366.764125		husband's	husband's
sw2175B-ms98-a-0067	B.86	366.764125	367.226000		mother	mother
sw2175B-ms98-a-0067	B.86	367.226000	367.536000		came	came
sw2175B-ms98-a-0067	B.86	367.536000	367.706000		from	from
sw2175B-ms98-a-0067	B.86	367.706000	367.766000		a	a
sw2175B-ms98-a-0067	B.86	367.766000	368.076000		family	family
sw2175B-ms98-a-0067	B.86	368.076000	368.166000		of	of
sw2175B-ms98-a-0067	B.86	368.166000	368.576000		thirteen	thirteen
sw2175B-ms98-a-0067	B.86	368.576000	368.836000		but	but
sw2175B-ms98-a-0067	B.86	368.836000	368.866000		I	i
sw2175B-ms98-a-0067	B.86	368.866000	369.016000		mean	mean
sw2175B-ms98-a-0067	B.86	369.016000	369.246000		that's	that's
sw2175B-ms98-a-0067	B.86	369.246000	369.396000		his	his
sw2175B-ms98-a-0067	B.86	369.396000	370.026000		mother	mother
sw2175B-ms98-a-0067	B.88	370.026000	370.226000		you	you
sw2175B-ms98-a-0067	B.88	370.226000	370.436000		know	know
sw2175B-ms98-a-0067	B.88	370.436000	370.626000		and	and
sw2175B-ms98-a-0067	B.88	370.626000	370.796000		and	and
sw2175B-ms98-a-0067	B.88	370.796000	370.916000	<SUB>	their	they're
sw2175B-ms98-a-0067	B.88	370.916000	371.514875		Catholic	Catholic
sw2175B-ms98-a-0067	B.88	371.514875	371.721375		and	and
sw2175B-ms98-a-0067	B.88	371.721375	371.992500		[silence]	[silence]
sw2175B-ms98-a-0067	B.88	371.992500	372.218875	<DEL>	---	and
sw2175B-ms98-a-0067	B.88	372.218875	372.346750		I	i
sw2175B-ms98-a-0067	B.88	372.346750	372.506000		mean	mean
sw2175B-ms98-a-0067	B.88	372.506000	372.726000		that's	that's
sw2175B-ms98-a-0067	B.90	372.726000	373.642125		[silence]	[silence]
sw2175B-ms98-a-0068	B.90	373.642125	373.832125		[silence]	[silence]
sw2175B-ms98-a-0068	B.90	373.832125	374.162125		Well	well
sw2175B-ms98-a-0068	B.90	374.162125	374.452125		that's	that's
sw2175B-ms98-a-0068	B.90	374.452125	374.642125		it	it
sw2175B-ms98-a-0068	B.90	374.642125	374.852125		then	then
sw2175B-ms98-a-0068	B.90	374.852125	374.942125		I	i
sw2175B-ms98-a-0068	B.90	374.942125	375.348750		think	think
sw2175B-ms98-a-0068	B.90	375.348750	376.015375		probably	probably
sw2175B-ms98-a-0068	B.90	376.015375	376.392125		maybe	maybe
sw2175B-ms98-a-0068	B.90	376.392125	376.592125		that	that
sw2175B-ms98-a-0068	B.90	376.592125	376.792125		[silence]	[silence]
sw2175B-ms98-a-0068	B.90	376.792125	377.002125		that	that
sw2175B-ms98-a-0068	B.92	377.002125	377.426750		[silence]	[silence]
sw2175B-ms98-a-0069	B.92	377.426750	377.486750		[silence]	[silence]
sw2175B-ms98-a-0069	B.92	377.486750	377.746750		But	but
sw2175B-ms98-a-0069	B.92	377.746750	377.776750		I	i
sw2175B-ms98-a-0069	B.92	377.776750	377.986750		mean	mean
sw2175B-ms98-a-0069	B.92	377.986750	378.076750		do	do
sw2175B-ms98-a-0069	B.92	378.076750	378.326750		you	you
sw2175B-ms98-a-0069	B.92	378.326750	378.466750		see	see
sw2175B-ms98-a-0069	B.92	378.466750	378.836750		yourself	yourself
sw2175B-ms98-a-0069	B.92	378.836750	379.096750		having	having
sw2175B-ms98-a-0069	B.92	379.096750	379.516750		thirteen	thirteen
sw2175B-ms98-a-0069	B.92	379.516750	379.846750		kids	kids
sw2175B-ms98-a-0069	B.94	379.846750	380.557000		[silence]	[silence]
sw2175B-ms98-a-0069	B.94	380.557000	380.670000		or	or
sw2175B-ms98-a-0069	B.94	380.670000	381.106750		twelve	twelve
sw2175B-ms98-a-0069	B.94	381.106750	381.541875		kids	kids
sw2175B-ms98-a-0069	B.96	381.541875	382.017625		[silence]	[silence]
sw2175B-ms98-a-0070	B.96	382.017625	382.157625		[silence]	[silence]
sw2175B-ms98-a-0070	B.96	382.157625	382.623125		Yeah	yeah
sw2175B-ms98-a-0070	B.98	382.623125	383.092875		[silence]	[silence]
sw2175B-ms98-a-0071	B.98	383.092875	393.628625		[silence]	[silence]
sw2175B-ms98-a-0072	B.98	393.628625	394.108625		[silence]	[silence]
sw2175B-ms98-a-0072	B.98	394.108625	394.539375		Yeah	yeah
sw2175B-ms98-a-0072	B.100	394.539375	394.985375		[silence]	[silence]
sw2175B-ms98-a-0073	B.100	394.985375	395.213125		[silence]	[silence]
sw2175B-ms98-a-0073	B.100	395.213125	395.569750	<DEL>	---	[laughter-i]
sw2175B-ms98-a-0073	B.100	395.569750	395.954000	<DEL>	---	[laughter-can]
sw2175B-ms98-a-0073	B.100	395.954000	396.545375	<DEL>	---	[laughter-imagine]
sw2175B-ms98-a-0073	B.100	396.545375	397.288000		[silence]	[silence]
sw2175B-ms98-a-0074	B.100	397.288000	397.358000		[silence]	[silence]
sw2175B-ms98-a-0074	B.100	397.358000	397.528000		But	but
sw2175B-ms98-a-0074	B.100	397.528000	397.698000		it's	it's
sw2175B-ms98-a-0074	B.100	397.698000	397.948000		so	so
sw2175B-ms98-a-0074	B.100	397.948000	399.068000		expensive	expensive
sw2175B-ms98-a-0074	B.100	399.068000	399.858000		man	man
sw2175B-ms98-a-0074	B.102	399.858000	400.458000		[silence]	[silence]
sw2175B-ms98-a-0075	B.102	400.458000	403.163125		[silence]	[silence]
sw2175B-ms98-a-0076	B.102	403.163125	403.513125		[silence]	[silence]
sw2175B-ms98-a-0076	B.102	403.513125	403.693125		I	i
sw2175B-ms98-a-0076	B.102	403.693125	403.903125		would	would
sw2175B-ms98-a-0076	B.102	403.903125	404.183125		think	think
sw2175B-ms98-a-0076	B.102	404.183125	404.373125		for	for
sw2175B-ms98-a-0076	B.102	404.373125	404.523125		your	your
sw2175B-ms98-a-0076	B.102	404.523125	405.133125		parents	parents
sw2175B-ms98-a-0076	B.102	405.133125	405.233125		it	it
sw2175B-ms98-a-0076	B.102	405.233125	405.363125		would	would
sw2175B-ms98-a-0076	B.102	405.363125	405.559875		be	be
sw2175B-ms98-a-0076	B.102	405.559875	405.673125		it	it
sw2175B-ms98-a-0076	B.102	405.673125	405.863125		would	would
sw2175B-ms98-a-0076	B.102	405.863125	406.003125		[silence]	[silence]
sw2175B-ms98-a-0076	B.102	406.003125	406.393125		still	still
sw2175B-ms98-a-0076	B.102	406.393125	406.453125		be	be
sw2175B-ms98-a-0076	B.102	406.453125	406.663125		hard	hard
sw2175B-ms98-a-0076	B.102	406.663125	406.888375		even	even
sw2175B-ms98-a-0076	B.102	406.888375	407.540000		nowadays	nowadays
sw2175B-ms98-a-0076	B.102	407.540000	407.677125		I	i
sw2175B-ms98-a-0076	B.102	407.677125	407.903125		mean	mean
sw2175B-ms98-a-0076	B.102	407.903125	408.113125		just	just
sw2175B-ms98-a-0076	B.102	408.113125	408.223125		to	to
sw2175B-ms98-a-0076	B.102	408.223125	408.553125		raise	raise
sw2175B-ms98-a-0076	B.102	408.553125	408.823125		twelve	twelve
sw2175B-ms98-a-0076	B.102	408.823125	409.223125		kids	kids
sw2175B-ms98-a-0076	B.104	409.223125	409.266125		[silence]	[silence]
sw2175B-ms98-a-0077	B.104	409.266125	409.761875		[silence]	[silence]
sw2175B-ms98-a-0077	B.104	409.761875	409.936125		Would	would
sw2175B-ms98-a-0077	B.104	409.936125	410.176125		be	be
sw2175B-ms98-a-0077	B.104	410.176125	410.176125	<INS>	shoosh	---
sw2175B-ms98-a-0077	B.106	410.176125	410.536125		[silence]	[silence]
sw2175B-ms98-a-0077	B.106	410.536125	411.290750		[vocalized-noise]	[vocalized-noise]
sw2175B-ms98-a-0077	B.106	411.290750	411.735125		[silence]	[silence]
sw2175B-ms98-a-0078	B.106	411.735125	422.096375		[silence]	[silence]
sw2175B-ms98-a-0079	B.106	422.096375	422.326375		[silence]	[silence]
sw2175B-ms98-a-0079	B.106	422.326375	422.676375		Yeah	yeah
sw2175B-ms98-a-0079	B.108	422.676375	423.312000		[silence]	[silence]
sw2175B-ms98-a-0080	B.108	423.312000	427.017375		[silence]	[silence]
sw2175B-ms98-a-0081	B.108	427.017375	427.237375		[silence]	[silence]
sw2175B-ms98-a-0081	B.108	427.237375	427.587375		Yeah	yeah
sw2175B-ms98-a-0081	B.110	427.587375	428.216000		[silence]	[silence]
sw2175B-ms98-a-0082	B.110	428.216000	446.415875		[silence]	[silence]
sw2175B-ms98-a-0083	B.110	446.415875	446.999250		[silence]	[silence]
sw2175B-ms98-a-0083	B.110	446.999250	447.323125	<DEL>	---	so
sw2175B-ms98-a-0083	B.110	447.323125	447.658250		[silence]	[silence]
sw2175B-ms98-a-0083	B.110	447.658250	447.865875		Well	well
sw2175B-ms98-a-0083	B.110	447.865875	448.305875		[silence]	[silence]
sw2175B-ms98-a-0083	B.110	448.305875	448.777000		sometimes	sometimes
sw2175B-ms98-a-0083	B.110	448.777000	448.942750		I	i
sw2175B-ms98-a-0083	B.110	448.942750	449.175875		think	think
sw2175B-ms98-a-0083	B.110	449.175875	449.255875		[silence]	[silence]
sw2175B-ms98-a-0083	B.110	449.255875	449.505875		maybe	maybe
sw2175B-ms98-a-0083	B.110	449.505875	449.665875		the	the
sw2175B-ms98-a-0083	B.110	449.665875	450.035875		larger	larger
sw2175B-ms98-a-0083	B.110	450.035875	450.585875		families	families
sw2175B-ms98-a-0083	B.110	450.585875	451.155875		create	create
sw2175B-ms98-a-0083	B.110	451.155875	451.315875		[silence]	[silence]
sw2175B-ms98-a-0083	B.110	451.315875	451.495875		more	more
sw2175B-ms98-a-0083	B.110	451.495875	452.245875		independence	independence
sw2175B-ms98-a-0083	B.110	452.245875	452.345875		in	in
sw2175B-ms98-a-0083	B.110	452.345875	452.425875		the	the
sw2175B-ms98-a-0083	B.110	452.425875	452.895875		children	children
sw2175B-ms98-a-0083	B.110	452.895875	453.105875		though	though
sw2175B-ms98-a-0083	B.110	453.105875	453.315875		[silence]	[silence]
sw2175B-ms98-a-0083	B.110	453.315875	453.375875		you	you
sw2175B-ms98-a-0083	B.110	453.375875	453.611875		know	know
sw2175B-ms98-a-0083	B.110	453.611875	453.921250		[silence]	[silence]
sw2175B-ms98-a-0083	B.110	453.921250	454.014875		I	i
sw2175B-ms98-a-0083	B.110	454.014875	454.255875		mean	mean
sw2175B-ms98-a-0083	B.112	454.255875	454.730000		[silence]	[silence]
sw2175B-ms98-a-0084	B.112	454.730000	455.080000		[silence]	[silence]
sw2175B-ms98-a-0084	B.112	455.080000	455.200000		you	you
sw2175B-ms98-a-0084	B.112	455.200000	455.420000		don't	don't
sw2175B-ms98-a-0084	B.112	455.420000	455.990000		expect	expect
sw2175B-ms98-a-0084	B.112	455.990000	456.560000		anything	anything
sw2175B-ms98-a-0084	B.112	456.560000	457.146750		because	because
sw2175B-ms98-a-0084	B.112	457.146750	457.199000		[silence]	[silence]
sw2175B-ms98-a-0085	B.112	457.199000	457.339000		[silence]	[silence]
sw2175B-ms98-a-0085	B.112	457.339000	457.459000		there	there
sw2175B-ms98-a-0085	B.112	457.459000	457.529000		is	is
sw2175B-ms98-a-0085	B.112	457.529000	457.759000		not	not
sw2175B-ms98-a-0085	B.112	457.759000	457.999000		enough	enough
sw2175B-ms98-a-0085	B.112	457.999000	458.119000		to	to
sw2175B-ms98-a-0085	B.112	458.119000	458.209000		go	go
sw2175B-ms98-a-0085	B.112	458.209000	458.569000		around	around
sw2175B-ms98-a-0085	B.112	458.569000	458.709000		for	for
sw2175B-ms98-a-0085	B.112	458.709000	459.149000		everybody	everybody
sw2175B-ms98-a-0085	B.114	459.149000	459.389000		so	so
sw2175B-ms98-a-0085	B.114	459.389000	459.829000		you	you
sw2175B-ms98-a-0085	B.114	459.829000	460.019000		you	you
sw2175B-ms98-a-0085	B.114	460.019000	460.299000		[silence]	[silence]
sw2175B-ms98-a-0085	B.114	460.299000	460.489000		kind	kind
sw2175B-ms98-a-0085	B.114	460.489000	460.549000		of	of
sw2175B-ms98-a-0085	B.114	460.549000	460.709000		have	have
sw2175B-ms98-a-0085	B.114	460.709000	460.859000		your	your
sw2175B-ms98-a-0085	B.114	460.859000	460.969000		own	own
sw2175B-ms98-a-0085	B.114	460.969000	461.619000		independence	independence
sw2175B-ms98-a-0085	B.114	461.619000	461.759000		on	on
sw2175B-ms98-a-0085	B.114	461.759000	461.999000		going	going
sw2175B-ms98-a-0085	B.114	461.999000	462.119000		out	out
sw2175B-ms98-a-0085	B.114	462.119000	462.259000		and	and
sw2175B-ms98-a-0085	B.114	462.259000	462.509000		getting	getting
sw2175B-ms98-a-0085	B.114	462.509000	462.609000		it	it
sw2175B-ms98-a-0085	B.114	462.609000	463.419000		yourself	yourself
sw2175B-ms98-a-0085	B.116	463.419000	463.569000		if	if
sw2175B-ms98-a-0085	B.116	463.569000	463.669000		you	you
sw2175B-ms98-a-0085	B.116	463.669000	463.905000		really	really
sw2175B-ms98-a-0085	B.116	463.905000	464.154250		want	want
sw2175B-ms98-a-0085	B.116	464.154250	464.389000		it	it
sw2175B-ms98-a-0085	B.118	464.389000	464.771125		[silence]	[silence]
sw2175B-ms98-a-0086	B.118	464.771125	473.237875		[silence]	[silence]
sw2175B-ms98-a-0087	B.118	473.237875	473.396625		[silence]	[silence]
sw2175B-ms98-a-0087	B.118	473.396625	473.727000	<SUB>	Uh-huh	um-hum
sw2175B-ms98-a-0087	B.120	473.727000	474.318875		[silence]	[silence]
sw2175B-ms98-a-0088	B.120	474.318875	481.074375		[silence]	[silence]
sw2175B-ms98-a-0089	B.120	481.074375	481.794375		[silence]	[silence]
sw2175B-ms98-a-0089	B.120	481.794375	482.196875		Yeah	yeah
sw2175B-ms98-a-0089	B.122	482.196875	482.296375		[silence]	[silence]
sw2175B-ms98-a-0090	B.122	482.296375	487.593125		[silence]	[silence]
sw2175B-ms98-a-0091	B.122	487.593125	488.027375		[silence]	[silence]
sw2175B-ms98-a-0091	B.122	488.027375	488.269250		Or	or
sw2175B-ms98-a-0091	B.122	488.269250	488.734000		manage	manage
sw2175B-ms98-a-0091	B.122	488.734000	489.084250		money	money
sw2175B-ms98-a-0091	B.122	489.084250	489.259250		or	or
sw2175B-ms98-a-0091	B.122	489.259250	489.706000		know	know
sw2175B-ms98-a-0091	B.122	489.706000	489.830375		[silence]	[silence]
sw2175B-ms98-a-0091	B.122	489.830375	490.193125		yeah	yeah
sw2175B-ms98-a-0091	B.122	490.193125	490.574625		know	know
sw2175B-ms98-a-0091	B.122	490.574625	490.740375		[silence]	[silence]
sw2175B-ms98-a-0091	B.122	490.740375	490.903125		you	you
sw2175B-ms98-a-0091	B.122	490.903125	491.033125		know	know
sw2175B-ms98-a-0091	B.122	491.033125	491.223125		how	how
sw2175B-ms98-a-0091	B.122	491.223125	491.303125		to	to
sw2175B-ms98-a-0091	B.122	491.303125	491.553125		get	get
sw2175B-ms98-a-0091	B.122	491.553125	491.613125		how	how
sw2175B-ms98-a-0091	B.122	491.613125	491.673125		to	to
sw2175B-ms98-a-0091	B.122	491.673125	491.793125		even	even
sw2175B-ms98-a-0091	B.122	491.793125	491.873125		go	go
sw2175B-ms98-a-0091	B.122	491.873125	492.153125		about	about
sw2175B-ms98-a-0091	B.122	492.153125	492.553125		getting	getting
sw2175B-ms98-a-0091	B.122	492.553125	492.983125		money	money
sw2175B-ms98-a-0091	B.124	492.983125	493.063125		You	you
sw2175B-ms98-a-0091	B.124	493.063125	493.193125		know	know
sw2175B-ms98-a-0091	B.124	493.193125	493.345875		how	how
sw2175B-ms98-a-0091	B.124	493.345875	493.523125		to	to
sw2175B-ms98-a-0091	B.124	493.523125	493.733125		get	get
sw2175B-ms98-a-0091	B.124	493.733125	493.803125		a	a
sw2175B-ms98-a-0091	B.124	493.803125	494.263125		job	job
sw2175B-ms98-a-0091	B.124	494.263125	494.596375		or	or
sw2175B-ms98-a-0091	B.124	494.596375	494.939875	<DEL>	---	or
sw2175B-ms98-a-0091	B.124	494.939875	495.303500		[silence]	[silence]
sw2175B-ms98-a-0091	B.124	495.303500	495.432250		you	you
sw2175B-ms98-a-0091	B.124	495.432250	495.624250		know	know
sw2175B-ms98-a-0091	B.124	495.624250	496.018750		[silence]	[silence]
sw2175B-ms98-a-0092	B.124	496.018750	496.228750		[silence]	[silence]
sw2175B-ms98-a-0092	B.124	496.228750	496.548750		just	just
sw2175B-ms98-a-0092	B.124	496.548750	496.718750		[silence]	[silence]
sw2175B-ms98-a-0092	B.124	496.718750	497.058750		what	what
sw2175B-ms98-a-0092	B.124	497.058750	497.228750		you	you
sw2175B-ms98-a-0092	B.124	497.228750	497.547500		know	know
sw2175B-ms98-a-0092	B.124	497.547500	497.807375		what	what
sw2175B-ms98-a-0092	B.124	497.807375	498.048750		when	when
sw2175B-ms98-a-0092	B.124	498.048750	498.148750		you	you
sw2175B-ms98-a-0092	B.124	498.148750	498.388750		get	get
sw2175B-ms98-a-0092	B.124	498.388750	498.458750		a	a
sw2175B-ms98-a-0092	B.124	498.458750	498.778750		job	job
sw2175B-ms98-a-0092	B.124	498.778750	498.988750		what	what
sw2175B-ms98-a-0092	B.124	498.988750	499.268750		[silence]	[silence]
sw2175B-ms98-a-0092	B.124	499.268750	499.398750		your	your
sw2175B-ms98-a-0092	B.124	499.398750	500.318750		responsibility	responsibility
sw2175B-ms98-a-0092	B.124	500.318750	500.538750		is	is
sw2175B-ms98-a-0092	B.126	500.538750	500.728750		Are	are
sw2175B-ms98-a-0092	B.126	500.728750	500.848750		you	you
sw2175B-ms98-a-0092	B.126	500.848750	500.988500		going	going
sw2175B-ms98-a-0092	B.126	500.988500	501.088000		to	to
sw2175B-ms98-a-0092	B.126	501.088000	501.408125		[silence]	[silence]
sw2175B-ms98-a-0092	B.126	501.408125	501.708750		blow	blow
sw2175B-ms98-a-0092	B.126	501.708750	501.848750		all	all
sw2175B-ms98-a-0092	B.126	501.848750	502.058750		that	that
sw2175B-ms98-a-0092	B.126	502.058750	502.462875		money	money
sw2175B-ms98-a-0092	B.126	502.462875	502.575875		[silence]	[silence]
sw2175B-ms98-a-0092	B.126	502.575875	502.868750		how	how
sw2175B-ms98-a-0092	B.126	502.868750	503.168750		easy	easy
sw2175B-ms98-a-0092	B.126	503.168750	503.238750		it	it
sw2175B-ms98-a-0092	B.126	503.238750	503.358750		is	is
sw2175B-ms98-a-0092	B.126	503.358750	503.478750		to	to
sw2175B-ms98-a-0092	B.126	503.478750	503.748750		blow	blow
sw2175B-ms98-a-0092	B.126	503.748750	504.035000		money	money
sw2175B-ms98-a-0092	B.126	504.035000	504.257250		you	you
sw2175B-ms98-a-0092	B.126	504.257250	504.738750		earn	earn
sw2175B-ms98-a-0092	B.128	504.738750	505.267875		[silence]	[silence]
sw2175B-ms98-a-0093	B.128	505.267875	522.731250		[silence]	[silence]
sw2175B-ms98-a-0094	B.128	522.731250	522.959750		[silence]	[silence]
sw2175B-ms98-a-0094	B.128	522.959750	523.223375	<SUB>	Uh-huh	um-hum
sw2175B-ms98-a-0094	B.130	523.223375	523.920500		[silence]	[silence]
sw2175B-ms98-a-0095	B.130	523.920500	539.683125		[silence]	[silence]
sw2175B-ms98-a-0096	B.130	539.683125	540.097625		[silence]	[silence]
sw2175B-ms98-a-0096	B.130	540.097625	540.843125		Wow	[laughter-wow]
sw2175B-ms98-a-0096	B.132	540.843125	541.043125		you've	you've
sw2175B-ms98-a-0096	B.132	541.043125	541.373125		really	really
sw2175B-ms98-a-0096	B.132	541.373125	541.583125		got	got
sw2175B-ms98-a-0096	B.132	541.583125	542.773125		responsibilities	[laughter-responsibilities]
sw2175B-ms98-a-0096	B.134	542.773125	543.470125		[silence]	[silence]
sw2175B-ms98-a-0097	B.134	543.470125	552.372000		[silence]	[silence]
sw2175B-ms98-a-0098	B.134	552.372000	552.562000		[silence]	[silence]
sw2175B-ms98-a-0098	B.134	552.562000	552.862000		Yeah	yeah
sw2175B-ms98-a-0098	B.136	552.862000	553.455125		[silence]	[silence]
sw2175B-ms98-a-0099	B.136	553.455125	572.401625		[silence]	[silence]
sw2175B-ms98-a-0100	B.136	572.401625	572.841625		[silence]	[silence]
sw2175B-ms98-a-0100	B.136	572.841625	573.141625		Yeah	yeah
sw2175B-ms98-a-0100	B.136	573.141625	573.677000		[silence]	[silence]
sw2175B-ms98-a-0100	B.136	573.677000	573.967250	<SUB>	Wh-	well
sw2175B-ms98-a-0100	B.138	573.967250	574.088625		[silence]	[silence]
sw2175B-ms98-a-0101	B.138	574.088625	576.354000		[silence]	[silence]
sw2175B-ms98-a-0102	B.138	576.354000	576.634000		[silence]	[silence]
sw2175B-ms98-a-0102	B.138	576.634000	577.014000	<DEL>	---	so
sw2175B-ms98-a-0102	B.138	577.014000	577.244000		So	so
sw2175B-ms98-a-0102	B.138	577.244000	577.701875		really	really
sw2175B-ms98-a-0102	B.138	577.701875	578.095625		[silence]	[silence]
sw2175B-ms98-a-0102	B.138	578.095625	578.343375		I	i
sw2175B-ms98-a-0102	B.138	578.343375	578.724250		think	think
sw2175B-ms98-a-0102	B.138	578.724250	578.824625		[silence]	[silence]
sw2175B-ms98-a-0103	B.138	578.824625	578.904625		[silence]	[silence]
sw2175B-ms98-a-0103	B.138	578.904625	579.394625		sometimes	sometimes
sw2175B-ms98-a-0103	B.138	579.394625	579.604625		there's	there's
sw2175B-ms98-a-0103	B.138	579.604625	579.754625		an	an
sw2175B-ms98-a-0103	B.138	579.754625	580.339250		advantage	advantage
sw2175B-ms98-a-0103	B.138	580.339250	580.664000		[silence]	[silence]
sw2175B-ms98-a-0103	B.138	580.664000	580.792125		I	i
sw2175B-ms98-a-0103	B.138	580.792125	580.883125		mean	mean
sw2175B-ms98-a-0103	B.138	580.883125	581.284625		sometimes	sometimes
sw2175B-ms98-a-0103	B.138	581.284625	581.484625		it's	it's
sw2175B-ms98-a-0103	B.138	581.484625	581.694625		good	good
sw2175B-ms98-a-0103	B.138	581.694625	581.784625		to	to
sw2175B-ms98-a-0103	B.138	581.784625	581.954625		have	have
sw2175B-ms98-a-0103	B.138	581.954625	582.024625		a	a
sw2175B-ms98-a-0103	B.138	582.024625	582.304625		bigger	bigger
sw2175B-ms98-a-0103	B.138	582.304625	582.714625		family	family
sw2175B-ms98-a-0103	B.138	582.714625	583.024625		because	because_1
sw2175B-ms98-a-0103	B.138	583.024625	583.255750		it	it
sw2175B-ms98-a-0103	B.138	583.255750	583.598500		does	does
sw2175B-ms98-a-0103	B.138	583.598500	583.874625		make	make
sw2175B-ms98-a-0103	B.138	583.874625	583.964625		you	you
sw2175B-ms98-a-0103	B.138	583.964625	584.194625		more	more
sw2175B-ms98-a-0103	B.138	584.194625	584.964625		independent	independent
sw2175B-ms98-a-0103	B.140	584.964625	585.184625	<DEL>	---	you
sw2175B-ms98-a-0103	B.140	585.184625	585.244625	<DEL>	---	know
sw2175B-ms98-a-0103	B.140	585.244625	585.334625		It	it
sw2175B-ms98-a-0103	B.140	585.334625	585.644625		makes	makes
sw2175B-ms98-a-0103	B.140	585.644625	585.824625		you	you
sw2175B-ms98-a-0103	B.140	585.824625	586.174625		know	know
sw2175B-ms98-a-0103	B.140	586.174625	586.354625		that	that
sw2175B-ms98-a-0103	B.140	586.354625	586.674625		[silence]	[silence]
sw2175B-ms98-a-0103	B.140	586.674625	586.754625		you	you
sw2175B-ms98-a-0103	B.140	586.754625	587.084625		can't	can't
sw2175B-ms98-a-0103	B.140	587.084625	587.294625		take	take
sw2175B-ms98-a-0103	B.140	587.294625	587.694625		anything	anything
sw2175B-ms98-a-0103	B.140	587.694625	587.864625		for	for
sw2175B-ms98-a-0103	B.140	587.864625	588.490250		granted	granted
sw2175B-ms98-a-0103	B.142	588.490250	588.552000		[silence]	[silence]
sw2175B-ms98-a-0104	B.142	588.552000	588.752000		[silence]	[silence]
sw2175B-ms98-a-0104	B.142	588.752000	589.012000	<SUB>	that	and
sw2175B-ms98-a-0104	B.142	589.012000	589.172000		when	when
sw2175B-ms98-a-0104	B.142	589.172000	589.292000		you	you
sw2175B-ms98-a-0104	B.142	589.292000	589.512000		get	get
sw2175B-ms98-a-0104	B.142	589.512000	589.922000		something	something
sw2175B-ms98-a-0104	B.142	589.922000	590.102000		you're	you're
sw2175B-ms98-a-0104	B.142	590.102000	590.442000		lucky	lucky
sw2175B-ms98-a-0104	B.142	590.442000	590.552000		to	to
sw2175B-ms98-a-0104	B.142	590.552000	590.822000		get	get
sw2175B-ms98-a-0104	B.142	590.822000	591.032000		it	it
sw2175B-ms98-a-0104	B.142	591.032000	591.232000		so	so
sw2175B-ms98-a-0104	B.142	591.232000	591.332000		to	to
sw2175B-ms98-a-0104	B.142	591.332000	591.832000		speak	speak
sw2175B-ms98-a-0104	B.144	591.832000	592.052000		[silence]	[silence]
sw2175B-ms98-a-0104	B.144	592.052000	592.162000		you	you
sw2175B-ms98-a-0104	B.144	592.162000	592.519000		know	know
sw2175B-ms98-a-0104	B.144	592.519000	592.874125		[silence]	[silence]
sw2175B-ms98-a-0105	B.144	592.874125	593.204125		[silence]	[silence]
sw2175B-ms98-a-0105	B.144	593.204125	593.643625		So	so
sw2175B-ms98-a-0105	B.144	593.643625	593.925000		um	um
sw2175B-ms98-a-0105	B.144	593.925000	594.123750		[silence]	[silence]
sw2175B-ms98-a-0105	B.144	594.123750	594.241250		I	i
sw2175B-ms98-a-0105	B.144	594.241250	594.329500		don't	don't
sw2175B-ms98-a-0105	B.144	594.329500	594.462375		know	know
sw2175B-ms98-a-0105	B.144	594.462375	594.650375	<DEL>	---	um
sw2175B-ms98-a-0105	B.144	594.650375	595.104125		[silence]	[silence]
sw2175B-ms98-a-0105	B.144	595.104125	595.504125		sometimes	sometimes
sw2175B-ms98-a-0105	B.144	595.504125	595.775375		but	but
sw2175B-ms98-a-0105	B.144	595.775375	596.020250		[silence]	[silence]
sw2175B-ms98-a-0105	B.144	596.020250	596.344375		now	now
sw2175B-ms98-a-0105	B.144	596.344375	596.544000		[silence]	[silence]
sw2175B-ms98-a-0105	B.144	596.544000	596.854125		it	it
sw2175B-ms98-a-0105	B.144	596.854125	597.114125		[silence]	[silence]
sw2175B-ms98-a-0105	B.144	597.114125	597.214125		it	it
sw2175B-ms98-a-0105	B.144	597.214125	597.354125		is	is
sw2175B-ms98-a-0105	B.144	597.354125	597.804125		hard	hard
sw2175B-ms98-a-0105	B.144	597.804125	597.884125		I	i
sw2175B-ms98-a-0105	B.144	597.884125	598.084125		can	can
sw2175B-ms98-a-0105	B.144	598.084125	598.554125		imagine	imagine
sw2175B-ms98-a-0105	B.144	598.554125	598.704125		on	on
sw2175B-ms98-a-0105	B.144	598.704125	598.794125		your	your
sw2175B-ms98-a-0105	B.144	598.794125	599.444125		parents	parents
sw2175B-ms98-a-0105	B.144	599.444125	599.524125		you	you
sw2175B-ms98-a-0105	B.144	599.524125	599.584125		know	know
sw2175B-ms98-a-0105	B.144	599.584125	599.658625		[silence]	[silence]
