sw2287A-ms98-a-0001	A.1	0.000000	1.248500		[silence]	[silence]
sw2287A-ms98-a-0002	A.1	1.248500	1.738500		[silence]	[silence]
sw2287A-ms98-a-0002	A.1	1.738500	2.304000		Okay	okay
sw2287A-ms98-a-0002	A.1	2.304000	2.379375		[silence]	[silence]
sw2287A-ms98-a-0002	A.1	2.379375	2.578500		did	did
sw2287A-ms98-a-0002	A.1	2.578500	2.688500		you	you
sw2287A-ms98-a-0002	A.1	2.688500	2.908500		vote	vote
sw2287A-ms98-a-0002	A.1	2.908500	2.968500		in	in
sw2287A-ms98-a-0002	A.1	2.968500	3.038500		the	the
sw2287A-ms98-a-0002	A.1	3.038500	3.405250		last	last
sw2287A-ms98-a-0002	A.1	3.405250	3.503125		[silence]	[silence]
sw2287A-ms98-a-0002	A.1	3.503125	3.688500		uh	uh
sw2287A-ms98-a-0002	A.1	3.688500	4.158500		national	national
sw2287A-ms98-a-0002	A.1	4.158500	4.661500		election	election
sw2287A-ms98-a-0002	A.3	4.661500	5.140625		[silence]	[silence]
sw2287A-ms98-a-0003	A.3	5.140625	8.324750		[silence]	[silence]
sw2287A-ms98-a-0004	A.3	8.324750	8.781375		[silence]	[silence]
sw2287A-ms98-a-0004	A.3	8.781375	8.950625		Oh	oh
sw2287A-ms98-a-0004	A.3	8.950625	9.212750		that's	that's
sw2287A-ms98-a-0004	A.3	9.212750	9.753625		good	good
sw2287A-ms98-a-0004	A.5	9.753625	10.254500		[silence]	[silence]
sw2287A-ms98-a-0005	A.5	10.254500	11.341250		[silence]	[silence]
sw2287A-ms98-a-0006	A.5	11.341250	11.843375		[silence]	[silence]
sw2287A-ms98-a-0006	A.5	11.843375	12.151250		I	i
sw2287A-ms98-a-0006	A.5	12.151250	12.461250		voted	voted
sw2287A-ms98-a-0006	A.5	12.461250	12.521250		in	in
sw2287A-ms98-a-0006	A.5	12.521250	12.611250		the	the
sw2287A-ms98-a-0006	A.5	12.611250	12.991250		last	last
sw2287A-ms98-a-0006	A.5	12.991250	13.531250		national	national
sw2287A-ms98-a-0006	A.5	13.531250	13.951250		one	one
sw2287A-ms98-a-0006	A.5	13.951250	14.181250		Yeah	yeah
sw2287A-ms98-a-0006	A.5	14.181250	14.271250		I'm	i'm
sw2287A-ms98-a-0006	A.5	14.271250	14.431250		not	not
sw2287A-ms98-a-0006	A.5	14.431250	14.541250		sure	sure
sw2287A-ms98-a-0006	A.5	14.541250	14.611250		if	if
sw2287A-ms98-a-0006	A.5	14.611250	14.711250		I	i
sw2287A-ms98-a-0006	A.5	14.711250	14.911250		got	got
sw2287A-ms98-a-0006	A.5	14.911250	14.991250		the	the
sw2287A-ms98-a-0006	A.5	14.991250	15.301250		last	last
sw2287A-ms98-a-0006	A.5	15.301250	15.691250		local	local
sw2287A-ms98-a-0006	A.5	15.691250	16.044125		one	one
sw2287A-ms98-a-0006	A.7	16.044125	16.554125		[silence]	[silence]
sw2287A-ms98-a-0007	A.7	16.554125	22.778875		[silence]	[silence]
sw2287A-ms98-a-0008	A.7	22.778875	23.274000		[silence]	[silence]
sw2287A-ms98-a-0008	A.7	23.274000	23.548875		Yeah	yeah
sw2287A-ms98-a-0008	A.7	23.548875	23.638875	<DEL>	---	and
sw2287A-ms98-a-0008	A.7	23.638875	23.728875		you're	you're
sw2287A-ms98-a-0008	A.7	23.728875	23.938875		not	not
sw2287A-ms98-a-0008	A.7	23.938875	24.068875		sure	sure
sw2287A-ms98-a-0008	A.7	24.068875	24.218875		where	where
sw2287A-ms98-a-0008	A.7	24.218875	24.298875		to	to
sw2287A-ms98-a-0008	A.7	24.298875	24.783250		go	go
sw2287A-ms98-a-0008	A.7	24.783250	24.979125		and	and
sw2287A-ms98-a-0008	A.7	24.979125	25.627125		[silence]	[silence]
sw2287A-ms98-a-0008	A.7	25.627125	25.898875		vote	vote
sw2287A-ms98-a-0008	A.7	25.898875	26.008875		and	and
sw2287A-ms98-a-0008	A.7	26.008875	26.138875		all	all
sw2287A-ms98-a-0008	A.7	26.138875	26.547625		that	that
sw2287A-ms98-a-0008	A.9	26.547625	26.823625		[silence]	[silence]
sw2287A-ms98-a-0009	A.9	26.823625	31.274125		[silence]	[silence]
sw2287A-ms98-a-0010	A.9	31.274125	31.735875		[silence]	[silence]
sw2287A-ms98-a-0010	A.9	31.735875	32.237000		Right	right
sw2287A-ms98-a-0010	A.9	32.237000	32.346250		or	or
sw2287A-ms98-a-0010	A.9	32.346250	32.434125		you	you
sw2287A-ms98-a-0010	A.9	32.434125	32.614125		don't	don't
sw2287A-ms98-a-0010	A.9	32.614125	32.764125		know	know
sw2287A-ms98-a-0010	A.9	32.764125	32.944125		what	what
sw2287A-ms98-a-0010	A.9	32.944125	33.074125		they	they
sw2287A-ms98-a-0010	A.9	33.074125	33.364125	<SUB>	st-	sta[nd]-
sw2287A-ms98-a-0010	A.9	33.364125	33.524125		you	you
sw2287A-ms98-a-0010	A.9	33.524125	33.664125		know	know
sw2287A-ms98-a-0010	A.9	33.664125	33.988625		where	where
sw2287A-ms98-a-0010	A.9	33.988625	34.154125		they	they
sw2287A-ms98-a-0010	A.9	34.154125	34.614125		stand	stand
sw2287A-ms98-a-0010	A.9	34.614125	34.684125		or	or
sw2287A-ms98-a-0010	A.9	34.684125	35.214125		anything	anything
sw2287A-ms98-a-0010	A.9	35.214125	35.444125		like	like
sw2287A-ms98-a-0010	A.9	35.444125	35.923250		that	that
sw2287A-ms98-a-0010	A.11	35.923250	36.254750		[silence]	[silence]
sw2287A-ms98-a-0011	A.11	36.254750	41.676500		[silence]	[silence]
sw2287A-ms98-a-0012	A.11	41.676500	42.155625		[silence]	[silence]
sw2287A-ms98-a-0012	A.11	42.155625	42.406500		Yeah	yeah
sw2287A-ms98-a-0012	A.11	42.406500	42.446500		I	i
sw2287A-ms98-a-0012	A.11	42.446500	42.636500		think	think
sw2287A-ms98-a-0012	A.11	42.636500	42.736500		you're	you're
sw2287A-ms98-a-0012	A.11	42.736500	43.195250		right	right
sw2287A-ms98-a-0012	A.13	43.195250	43.703625		[silence]	[silence]
sw2287A-ms98-a-0013	A.13	43.703625	49.549375		[silence]	[silence]
sw2287A-ms98-a-0014	A.13	49.549375	50.044500		[silence]	[silence]
sw2287A-ms98-a-0014	A.13	50.044500	50.688875		Yeah	yeah
sw2287A-ms98-a-0014	A.13	50.688875	50.849375		or	or
sw2287A-ms98-a-0014	A.13	50.849375	51.199375		sometimes	sometimes
sw2287A-ms98-a-0014	A.13	51.199375	51.299375		they	they
sw2287A-ms98-a-0014	A.13	51.299375	51.489375		don't	don't
sw2287A-ms98-a-0014	A.13	51.489375	51.729375		like	like
sw2287A-ms98-a-0014	A.13	51.729375	51.949375		either	either
sw2287A-ms98-a-0014	A.13	51.949375	52.019375		of	of
sw2287A-ms98-a-0014	A.13	52.019375	52.130250		the	the
sw2287A-ms98-a-0014	A.13	52.130250	52.905875		choices	choices
sw2287A-ms98-a-0014	A.15	52.905875	53.235000		[silence]	[silence]
sw2287A-ms98-a-0015	A.15	53.235000	53.852750		[silence]	[silence]
sw2287A-ms98-a-0015	A.15	53.852750	53.965000		for	for
sw2287A-ms98-a-0015	A.15	53.965000	54.025000		the	the
sw2287A-ms98-a-0015	A.15	54.025000	54.675000		candidates	candidates
sw2287A-ms98-a-0015	A.15	54.675000	54.795000		so	so
sw2287A-ms98-a-0015	A.15	54.795000	54.915000		they	they
sw2287A-ms98-a-0015	A.15	54.915000	55.125000		think	think
sw2287A-ms98-a-0015	A.15	55.125000	55.482125		well	well
sw2287A-ms98-a-0015	A.15	55.482125	55.919000		[silence]	[silence]
sw2287A-ms98-a-0015	A.15	55.919000	56.065000		you	you
sw2287A-ms98-a-0015	A.15	56.065000	56.195000		know	know
sw2287A-ms98-a-0015	A.15	56.195000	56.446125		why	why
sw2287A-ms98-a-0015	A.15	56.446125	56.953750		vote	vote
sw2287A-ms98-a-0015	A.17	56.953750	57.468250		[silence]	[silence]
sw2287A-ms98-a-0016	A.17	57.468250	59.142125		[silence]	[silence]
sw2287A-ms98-a-0017	A.17	59.142125	60.011250		[silence]	[silence]
sw2287A-ms98-a-0017	A.17	60.011250	60.472125		Yeah	yeah
sw2287A-ms98-a-0017	A.17	60.472125	60.752125		really	really
sw2287A-ms98-a-0017	A.17	60.752125	61.142125		especially	especially
sw2287A-ms98-a-0017	A.17	61.142125	61.309000		in	in
sw2287A-ms98-a-0017	A.17	61.309000	61.772125		Texas	Texas
sw2287A-ms98-a-0017	A.21	61.772125	63.880875		[laughter]	[laughter]
sw2287A-ms98-a-0017	A.21	63.880875	64.271500		[silence]	[silence]
sw2287A-ms98-a-0018	A.21	64.271500	66.772500		[silence]	[silence]
sw2287A-ms98-a-0019	A.21	66.772500	67.352500		[silence]	[silence]
sw2287A-ms98-a-0019	A.21	67.352500	67.512500		It	it
sw2287A-ms98-a-0019	A.21	67.512500	67.782500		really	really
sw2287A-ms98-a-0019	A.21	67.782500	68.279000		was	was
sw2287A-ms98-a-0019	A.21	68.279000	68.437125		[silence]	[silence]
sw2287A-ms98-a-0019	A.21	68.437125	69.027000		yeah	yeah
sw2287A-ms98-a-0019	A.23	69.027000	69.625875		[silence]	[silence]
sw2287A-ms98-a-0019	A.23	69.625875	69.762500	<DEL>	---	it
sw2287A-ms98-a-0019	A.23	69.762500	69.932500	<DEL>	---	was
sw2287A-ms98-a-0019	A.23	69.932500	70.028500	<DEL>	---	a
sw2287A-ms98-a-0019	A.23	70.028500	70.479875	<DEL>	---	mess
sw2287A-ms98-a-0019	A.23	70.479875	70.843000		[silence]	[silence]
sw2287A-ms98-a-0020	A.23	70.843000	74.888125		[silence]	[silence]
sw2287A-ms98-a-0021	A.23	74.888125	75.367625		[silence]	[silence]
sw2287A-ms98-a-0021	A.23	75.367625	75.882750		Yeah	yeah
sw2287A-ms98-a-0021	A.23	75.882750	76.476250		[laughter]	[laughter]
sw2287A-ms98-a-0021	A.23	76.476250	76.617125		[silence]	[silence]
sw2287A-ms98-a-0022	A.23	76.617125	77.110625		[silence]	[silence]
sw2287A-ms98-a-0022	A.23	77.110625	77.264375		Did	did
sw2287A-ms98-a-0022	A.23	77.264375	77.329375	<SUB>	they	you
sw2287A-ms98-a-0022	A.23	77.329375	77.447125	<SUB>	get	think
sw2287A-ms98-a-0022	A.23	77.447125	77.567125	<SUB>	the	it's
sw2287A-ms98-a-0022	A.23	77.567125	77.697125	<DEL>	---	a
sw2287A-ms98-a-0022	A.23	77.697125	78.087125		serious	serious
sw2287A-ms98-a-0022	A.23	78.087125	78.547125		problem	problem
sw2287A-ms98-a-0022	A.23	78.547125	78.737125		that	that
sw2287A-ms98-a-0022	A.23	78.737125	78.967125		half	half
sw2287A-ms98-a-0022	A.23	78.967125	79.037125		the	the
sw2287A-ms98-a-0022	A.23	79.037125	79.347125		people	people
sw2287A-ms98-a-0022	A.23	79.347125	79.727125		don't	don't
sw2287A-ms98-a-0022	A.23	79.727125	80.126500		vote	vote
sw2287A-ms98-a-0022	A.25	80.126500	80.354875	<DEL>	---	or
sw2287A-ms98-a-0022	A.25	80.354875	80.783250		[silence]	[silence]
sw2287A-ms98-a-0023	A.25	80.783250	84.828625		[silence]	[silence]
sw2287A-ms98-a-0024	A.25	84.828625	85.299250		[silence]	[silence]
sw2287A-ms98-a-0024	A.25	85.299250	85.806625		Yeah	yeah
sw2287A-ms98-a-0024	A.27	85.806625	86.288875		[silence]	[silence]
sw2287A-ms98-a-0025	A.27	86.288875	97.180000		[silence]	[silence]
sw2287A-ms98-a-0026	A.27	97.180000	97.649125		[silence]	[silence]
sw2287A-ms98-a-0026	A.27	97.649125	98.293125		Yeah	yeah
sw2287A-ms98-a-0026	A.27	98.293125	98.428750		[silence]	[silence]
sw2287A-ms98-a-0026	A.27	98.428750	98.520000		It	it
sw2287A-ms98-a-0026	A.27	98.520000	98.720000		also	also
sw2287A-ms98-a-0026	A.27	98.720000	98.900000		seems	seems
sw2287A-ms98-a-0026	A.27	98.900000	99.050000		like	like
sw2287A-ms98-a-0026	A.27	99.050000	99.370000		maybe	maybe
sw2287A-ms98-a-0026	A.27	99.370000	99.534375		a-	a[nother]-
sw2287A-ms98-a-0026	A.27	99.534375	99.910000		another	another
sw2287A-ms98-a-0026	A.27	99.910000	100.420000		candidate	candidate
sw2287A-ms98-a-0026	A.27	100.420000	100.530000		that	that
sw2287A-ms98-a-0026	A.27	100.530000	100.940000		nobody	nobody
sw2287A-ms98-a-0026	A.27	100.940000	101.280000		wants	wants
sw2287A-ms98-a-0026	A.27	101.280000	101.490000		could	could
sw2287A-ms98-a-0026	A.27	101.490000	101.830000		slip	slip
sw2287A-ms98-a-0026	A.27	101.830000	102.180625		in	in
sw2287A-ms98-a-0026	A.29	102.180625	102.723000		[silence]	[silence]
sw2287A-ms98-a-0026	A.29	102.723000	103.087000		if	if
sw2287A-ms98-a-0026	A.29	103.087000	103.169875		[silence]	[silence]
sw2287A-ms98-a-0026	A.29	103.169875	103.270000		you	you
sw2287A-ms98-a-0026	A.29	103.270000	103.380000		know	know
sw2287A-ms98-a-0026	A.29	103.380000	103.580000		not	not
sw2287A-ms98-a-0026	A.29	103.580000	103.770000		enough	enough
sw2287A-ms98-a-0026	A.29	103.770000	104.080000		people	people
sw2287A-ms98-a-0026	A.29	104.080000	104.170000		are	are
sw2287A-ms98-a-0026	A.29	104.170000	104.694125		voting	voting
sw2287A-ms98-a-0026	A.31	104.694125	105.165500		[silence]	[silence]
sw2287A-ms98-a-0027	A.31	105.165500	114.644750		[silence]	[silence]
sw2287A-ms98-a-0028	A.31	114.644750	115.132750		[silence]	[silence]
sw2287A-ms98-a-0028	A.31	115.132750	115.628625		Yeah	yeah
sw2287A-ms98-a-0028	A.31	115.628625	115.737875		it's	it's
sw2287A-ms98-a-0028	A.31	115.737875	115.850875		kind	kind
sw2287A-ms98-a-0028	A.31	115.850875	115.894750		of	of
sw2287A-ms98-a-0028	A.31	115.894750	116.074750		like	like
sw2287A-ms98-a-0028	A.31	116.074750	116.174750		in	in
sw2287A-ms98-a-0028	A.31	116.174750	116.794750		Louisiana	Louisiana
sw2287A-ms98-a-0028	A.31	116.794750	116.924750		where	where
sw2287A-ms98-a-0028	A.31	116.924750	117.262000		that	that
sw2287A-ms98-a-0028	A.31	117.262000	117.710250		uh	uh
sw2287A-ms98-a-0028	A.31	117.710250	117.964750		guy	guy
sw2287A-ms98-a-0028	A.31	117.964750	118.144750		that's	that's
sw2287A-ms98-a-0028	A.31	118.144750	118.314750		like	like
sw2287A-ms98-a-0028	A.31	118.314750	118.414750		a	a
sw2287A-ms98-a-0028	A.31	118.414750	118.584750		Ku	Ku
sw2287A-ms98-a-0028	A.31	118.584750	118.914750		Klux	Klux
sw2287A-ms98-a-0028	A.31	118.914750	119.462625		Klan	Klan
sw2287A-ms98-a-0028	A.33	119.462625	120.234750		[silence]	[silence]
sw2287A-ms98-a-0028	A.33	120.234750	120.534750		member	member
sw2287A-ms98-a-0028	A.33	120.534750	120.924750		something	something
sw2287A-ms98-a-0028	A.33	120.924750	121.104750		got	got
sw2287A-ms98-a-0028	A.33	121.104750	121.659625		elected	elected
sw2287A-ms98-a-0028	A.35	121.659625	122.040000		[laughter]	[laughter]
sw2287A-ms98-a-0028	A.35	122.040000	122.234750		Kind	kind
sw2287A-ms98-a-0028	A.35	122.234750	122.364750		of	of
sw2287A-ms98-a-0028	A.35	122.364750	122.764750		scary	scary
sw2287A-ms98-a-0028	A.35	122.764750	122.894750		when	when
sw2287A-ms98-a-0028	A.35	122.894750	122.974750		you	you
sw2287A-ms98-a-0028	A.35	122.974750	123.174750		think	think
sw2287A-ms98-a-0028	A.35	123.174750	123.484750		about	about
sw2287A-ms98-a-0028	A.35	123.484750	123.852750		that	that
sw2287A-ms98-a-0028	A.37	123.852750	124.323500		[silence]	[silence]
sw2287A-ms98-a-0029	A.37	124.323500	145.667875		[silence]	[silence]
sw2287A-ms98-a-0030	A.37	145.667875	146.157875		[silence]	[silence]
sw2287A-ms98-a-0030	A.37	146.157875	146.497875		Oh	oh
sw2287A-ms98-a-0030	A.37	146.497875	147.032625		gosh	gosh
sw2287A-ms98-a-0030	A.39	147.032625	147.990000		[laughter]	[laughter]
sw2287A-ms98-a-0030	A.39	147.990000	148.721250		[silence]	[silence]
sw2287A-ms98-a-0031	A.39	148.721250	149.490125		[silence]	[silence]
sw2287A-ms98-a-0031	A.39	149.490125	150.061250		Yeah	yeah
sw2287A-ms98-a-0031	A.41	150.061250	150.485250		[silence]	[silence]
sw2287A-ms98-a-0032	A.41	150.485250	151.488500		[silence]	[silence]
sw2287A-ms98-a-0033	A.41	151.488500	151.910625		[silence]	[silence]
sw2287A-ms98-a-0033	A.41	151.910625	152.088500		Yeah	yeah
sw2287A-ms98-a-0033	A.41	152.088500	152.578500	<SUB>	people	people'll
sw2287A-ms98-a-0033	A.41	152.578500	152.778500		will	will
sw2287A-ms98-a-0033	A.41	152.778500	152.988500		sit	sit
sw2287A-ms98-a-0033	A.41	152.988500	153.188500		home	home
sw2287A-ms98-a-0033	A.41	153.188500	153.288500		and	and
sw2287A-ms98-a-0033	A.41	153.288500	153.578500		assume	assume
sw2287A-ms98-a-0033	A.41	153.578500	153.688500		oh	oh
sw2287A-ms98-a-0033	A.41	153.688500	153.868500		that	that
sw2287A-ms98-a-0033	A.41	153.868500	154.018500		guy	guy
sw2287A-ms98-a-0033	A.41	154.018500	154.138500		would	would
sw2287A-ms98-a-0033	A.41	154.138500	154.408500		never	never
sw2287A-ms98-a-0033	A.41	154.408500	154.578500		get	get
sw2287A-ms98-a-0033	A.41	154.578500	155.502875		elected	elected
sw2287A-ms98-a-0033	A.43	155.502875	155.936625		[silence]	[silence]
sw2287A-ms98-a-0033	A.43	155.936625	156.138500		Next	next
sw2287A-ms98-a-0033	A.43	156.138500	156.368500		thing	thing
sw2287A-ms98-a-0033	A.43	156.368500	156.438500		you	you
sw2287A-ms98-a-0033	A.43	156.438500	156.608500		know	know
sw2287A-ms98-a-0033	A.43	156.608500	156.858500		you've	you've
sw2287A-ms98-a-0033	A.43	156.858500	157.118500		got	got
sw2287A-ms98-a-0033	A.43	157.118500	157.328500		him	him
sw2287A-ms98-a-0033	A.45	157.328500	157.785000		[laughter]	[laughter]
sw2287A-ms98-a-0033	A.45	157.785000	157.995125		[silence]	[silence]
sw2287A-ms98-a-0034	A.45	157.995125	160.801750		[silence]	[silence]
sw2287A-ms98-a-0035	A.45	160.801750	161.308250		[silence]	[silence]
sw2287A-ms98-a-0035	A.45	161.308250	161.914125		Yeah	yeah
sw2287A-ms98-a-0035	A.47	161.914125	162.298125		[silence]	[silence]
sw2287A-ms98-a-0036	A.47	162.298125	175.675250		[silence]	[silence]
sw2287A-ms98-a-0037	A.47	175.675250	176.184000		[silence]	[silence]
sw2287A-ms98-a-0037	A.47	176.184000	176.855250		Right	right
sw2287A-ms98-a-0037	A.47	176.855250	177.398750		yeah	yeah
sw2287A-ms98-a-0037	A.49	177.398750	177.787125		[silence]	[silence]
sw2287A-ms98-a-0038	A.49	177.787125	180.385875		[silence]	[silence]
sw2287A-ms98-a-0039	A.49	180.385875	180.897000		[silence]	[silence]
sw2287A-ms98-a-0039	A.49	180.897000	181.255875		Yeah	yeah
sw2287A-ms98-a-0039	A.51	181.255875	181.425875	<DEL>	---	i
sw2287A-ms98-a-0039	A.51	181.425875	181.635875	<DEL>	---	think
sw2287A-ms98-a-0039	A.51	181.635875	182.009250	<DEL>	---	so
sw2287A-ms98-a-0039	A.51	182.009250	182.339625		[silence]	[silence]
sw2287A-ms98-a-0040	A.51	182.339625	183.528000		[silence]	[silence]
sw2287A-ms98-a-0041	A.51	183.528000	183.998000		[silence]	[silence]
sw2287A-ms98-a-0041	A.51	183.998000	184.526375		Right	right
sw2287A-ms98-a-0041	A.53	184.526375	184.923125		[silence]	[silence]
sw2287A-ms98-a-0042	A.53	184.923125	185.931875		[silence]	[silence]
sw2287A-ms98-a-0043	A.53	185.931875	186.438375		[silence]	[silence]
sw2287A-ms98-a-0043	A.53	186.438375	186.651875		Yeah	yeah
sw2287A-ms98-a-0043	A.53	186.651875	186.851875		he	he
sw2287A-ms98-a-0043	A.53	186.851875	187.081875		sure	sure
sw2287A-ms98-a-0043	A.53	187.081875	187.527000		did	did
sw2287A-ms98-a-0043	A.55	187.527000	187.950625		[silence]	[silence]
sw2287A-ms98-a-0044	A.55	187.950625	192.723750		[silence]	[silence]
sw2287A-ms98-a-0045	A.55	192.723750	193.222625		[silence]	[silence]
sw2287A-ms98-a-0045	A.55	193.222625	193.779000		Yeah	yeah
sw2287A-ms98-a-0045	A.55	193.779000	194.290875		[silence]	[silence]
sw2287A-ms98-a-0045	A.55	194.290875	194.393750		I	i
sw2287A-ms98-a-0045	A.55	194.393750	194.603750		think	think
sw2287A-ms98-a-0045	A.55	194.603750	194.803750		one	one
sw2287A-ms98-a-0045	A.55	194.803750	195.023750		thing	thing
sw2287A-ms98-a-0045	A.55	195.023750	195.187500		that	that
sw2287A-ms98-a-0045	A.55	195.187500	195.466125		[silence]	[silence]
sw2287A-ms98-a-0045	A.55	195.466125	195.733750		maybe	maybe
sw2287A-ms98-a-0045	A.55	195.733750	195.873750		would	would
sw2287A-ms98-a-0045	A.55	195.873750	196.053750		help	help
sw2287A-ms98-a-0045	A.55	196.053750	196.403750		people	people
sw2287A-ms98-a-0045	A.55	196.403750	196.793750		vote	vote
sw2287A-ms98-a-0045	A.55	196.793750	196.993750		is	is
sw2287A-ms98-a-0045	A.55	196.993750	197.213750		if	if
sw2287A-ms98-a-0045	A.55	197.213750	197.496875		the	the
sw2287A-ms98-a-0045	A.55	197.496875	197.943750		polls	polls
sw2287A-ms98-a-0045	A.55	197.943750	198.093750		were	were
sw2287A-ms98-a-0045	A.55	198.093750	198.253750		either	either
sw2287A-ms98-a-0045	A.55	198.253750	198.603750		open	open
sw2287A-ms98-a-0045	A.55	198.603750	198.803750		more	more
sw2287A-ms98-a-0045	A.55	198.803750	199.533750		days	days
sw2287A-ms98-a-0045	A.55	199.533750	199.723750		or	or
sw2287A-ms98-a-0045	A.55	199.723750	199.883750		you	you
sw2287A-ms98-a-0045	A.55	199.883750	200.053750		could	could
sw2287A-ms98-a-0045	A.55	200.053750	200.403750		mail	mail
sw2287A-ms98-a-0045	A.55	200.403750	200.563750		it	it
sw2287A-ms98-a-0045	A.55	200.563750	201.073750		in	in
sw2287A-ms98-a-0045	A.55	201.073750	201.338250		or	or
sw2287A-ms98-a-0045	A.55	201.338250	201.580500		[silence]	[silence]
sw2287A-ms98-a-0046	A.55	201.580500	201.820500		[silence]	[silence]
sw2287A-ms98-a-0046	A.55	201.820500	202.120500		something	something
sw2287A-ms98-a-0046	A.55	202.120500	202.390500		like	like
sw2287A-ms98-a-0046	A.55	202.390500	202.480500		if	if
sw2287A-ms98-a-0046	A.55	202.480500	202.570500		you	you
sw2287A-ms98-a-0046	A.55	202.570500	202.875750		have	have
sw2287A-ms98-a-0046	A.55	202.875750	203.116750		[silence]	[silence]
sw2287A-ms98-a-0046	A.55	203.116750	203.220500		if	if
sw2287A-ms98-a-0046	A.55	203.220500	203.290500		you	you
sw2287A-ms98-a-0046	A.55	203.290500	203.460500		have	have
sw2287A-ms98-a-0046	A.55	203.460500	203.610500		real	real
sw2287A-ms98-a-0046	A.55	203.610500	203.980500		strict	strict
sw2287A-ms98-a-0046	A.55	203.980500	204.310500		work	work
sw2287A-ms98-a-0046	A.55	204.310500	204.630500		hours	hours
sw2287A-ms98-a-0046	A.55	204.630500	204.780500		and	and
sw2287A-ms98-a-0046	A.55	204.780500	204.850500		you	you
sw2287A-ms98-a-0046	A.55	204.850500	205.040500		can	can
sw2287A-ms98-a-0046	A.55	205.040500	205.413250		only	only
sw2287A-ms98-a-0046	A.55	205.413250	205.718375		[silence]	[silence]
sw2287A-ms98-a-0046	A.55	205.718375	205.920500		go	go
sw2287A-ms98-a-0046	A.55	205.920500	206.150500		like	like
sw2287A-ms98-a-0046	A.55	206.150500	206.240500		at	at
sw2287A-ms98-a-0046	A.55	206.240500	206.600500		seven	seven
sw2287A-ms98-a-0046	A.55	206.600500	206.680500		in	in
sw2287A-ms98-a-0046	A.55	206.680500	206.750500		the	the
sw2287A-ms98-a-0046	A.55	206.750500	207.200500		morning	morning
sw2287A-ms98-a-0046	A.55	207.200500	207.260500		or	or
sw2287A-ms98-a-0046	A.55	207.260500	207.630500		after	after
sw2287A-ms98-a-0046	A.55	207.630500	208.060500		work	work
sw2287A-ms98-a-0046	A.55	208.060500	208.180500		and	and
sw2287A-ms98-a-0046	A.55	208.180500	208.240500		you	you
sw2287A-ms98-a-0046	A.55	208.240500	208.330500		have	have
sw2287A-ms98-a-0046	A.55	208.330500	208.420500		to	to
sw2287A-ms98-a-0046	A.55	208.420500	208.810500		stand	stand
sw2287A-ms98-a-0046	A.55	208.810500	208.940500		in	in
sw2287A-ms98-a-0046	A.55	208.940500	209.431375		line	line
sw2287A-ms98-a-0046	A.55	209.431375	209.943625		[silence]	[silence]
sw2287A-ms98-a-0046	A.55	209.943625	210.080500		for	for
sw2287A-ms98-a-0046	A.55	210.080500	210.270500		so	so
sw2287A-ms98-a-0046	A.55	210.270500	210.510500		long	long
sw2287A-ms98-a-0046	A.57	210.510500	210.560500		I	i
sw2287A-ms98-a-0046	A.57	210.560500	210.780500		think	think
sw2287A-ms98-a-0046	A.57	210.780500	210.930500		that	that
sw2287A-ms98-a-0046	A.57	210.930500	211.520500		discourages	discourages
sw2287A-ms98-a-0046	A.57	211.520500	211.600500		a	a
sw2287A-ms98-a-0046	A.57	211.600500	211.760500		lot	lot
sw2287A-ms98-a-0046	A.57	211.760500	211.873375		of	of
sw2287A-ms98-a-0046	A.57	211.873375	212.360500		people	people
sw2287A-ms98-a-0046	A.59	212.360500	212.801125		[silence]	[silence]
sw2287A-ms98-a-0047	A.59	212.801125	216.300125		[silence]	[silence]
sw2287A-ms98-a-0048	A.59	216.300125	216.778000		[silence]	[silence]
sw2287A-ms98-a-0048	A.59	216.778000	217.320625		Uh-huh	uh-huh
sw2287A-ms98-a-0048	A.61	217.320625	217.753750		[silence]	[silence]
sw2287A-ms98-a-0049	A.61	217.753750	223.088000		[silence]	[silence]
sw2287A-ms98-a-0050	A.61	223.088000	223.578750		[silence]	[silence]
sw2287A-ms98-a-0050	A.61	223.578750	224.080250		Right	right
sw2287A-ms98-a-0050	A.63	224.080250	224.553375		[silence]	[silence]
sw2287A-ms98-a-0051	A.63	224.553375	230.846625		[silence]	[silence]
sw2287A-ms98-a-0052	A.63	230.846625	231.346000		[silence]	[silence]
sw2287A-ms98-a-0052	A.63	231.346000	231.880875		Uh-huh	uh-huh
sw2287A-ms98-a-0052	A.65	231.880875	232.342875		[silence]	[silence]
sw2287A-ms98-a-0053	A.65	232.342875	241.336500		[silence]	[silence]
sw2287A-ms98-a-0054	A.65	241.336500	241.791375		[silence]	[silence]
sw2287A-ms98-a-0054	A.65	241.791375	242.396000		Yeah	yeah
sw2287A-ms98-a-0054	A.65	242.396000	242.566500		I'm	i'm
sw2287A-ms98-a-0054	A.65	242.566500	242.696500		in	in
sw2287A-ms98-a-0054	A.65	242.696500	243.086500		Dallas	Dallas
sw2287A-ms98-a-0054	A.65	243.086500	243.206500		and	and
sw2287A-ms98-a-0054	A.65	243.206500	243.336500		they're	they're
sw2287A-ms98-a-0054	A.65	243.336500	243.606500		long	long
sw2287A-ms98-a-0054	A.65	243.606500	243.806500		here	here
sw2287A-ms98-a-0054	A.65	243.806500	244.366500		too	too
sw2287A-ms98-a-0054	A.67	244.366500	244.728000	<DEL>	---	so
sw2287A-ms98-a-0054	A.67	244.728000	244.798625		[silence]	[silence]
sw2287A-ms98-a-0055	A.67	244.798625	245.838875		[silence]	[silence]
sw2287A-ms98-a-0056	A.67	245.838875	246.267750		[silence]	[silence]
sw2287A-ms98-a-0056	A.67	246.267750	246.408875		Yeah	yeah
sw2287A-ms98-a-0056	A.67	246.408875	246.478875		I	i
sw2287A-ms98-a-0056	A.67	246.478875	246.768875		voted	voted
sw2287A-ms98-a-0056	A.67	246.768875	247.278875		absentee	absentee
sw2287A-ms98-a-0056	A.67	247.278875	247.458875		one	one
sw2287A-ms98-a-0056	A.67	247.458875	247.608875		year	year
sw2287A-ms98-a-0056	A.67	247.608875	247.658875		I	i
sw2287A-ms98-a-0056	A.67	247.658875	247.868875		really	really
sw2287A-ms98-a-0056	A.67	247.868875	248.128875		was	was
sw2287A-ms98-a-0056	A.67	248.128875	248.278875		going	going
sw2287A-ms98-a-0056	A.67	248.278875	248.368875		to	to
sw2287A-ms98-a-0056	A.67	248.368875	248.618500		be	be
sw2287A-ms98-a-0056	A.67	248.618500	249.149500		[silence]	[silence]
sw2287A-ms98-a-0056	A.67	249.149500	249.662125		gone	gone
sw2287A-ms98-a-0056	A.67	249.662125	249.898875		So	so
sw2287A-ms98-a-0056	A.67	249.898875	250.108875		I	i
sw2287A-ms98-a-0056	A.67	250.108875	250.248875	<DEL>	---	i
sw2287A-ms98-a-0056	A.67	250.248875	250.458875		did	did
sw2287A-ms98-a-0056	A.67	250.458875	250.628875		it	it
sw2287A-ms98-a-0056	A.67	250.628875	250.938875		but	but
sw2287A-ms98-a-0056	A.67	250.938875	251.113875		uh	uh
sw2287A-ms98-a-0056	A.67	251.113875	251.426500		[silence]	[silence]
sw2287A-ms98-a-0056	A.67	251.426500	251.528875		it	it
sw2287A-ms98-a-0056	A.67	251.528875	251.678875		was	was
sw2287A-ms98-a-0056	A.67	251.678875	252.148875		nice	nice
sw2287A-ms98-a-0056	A.67	252.148875	252.288875		I	i
sw2287A-ms98-a-0056	A.67	252.288875	252.478875		would	would
sw2287A-ms98-a-0056	A.67	252.478875	252.588875		be	be
sw2287A-ms98-a-0056	A.67	252.588875	252.908875		tempted	tempted
sw2287A-ms98-a-0056	A.67	252.908875	252.978875		to	to
sw2287A-ms98-a-0056	A.67	252.978875	253.148875		do	do
sw2287A-ms98-a-0056	A.67	253.148875	253.228875		it	it
sw2287A-ms98-a-0056	A.67	253.228875	253.798875		again	again
sw2287A-ms98-a-0056	A.69	253.798875	254.202500		[silence]	[silence]
sw2287A-ms98-a-0057	A.69	254.202500	259.147875		[silence]	[silence]
sw2287A-ms98-a-0058	A.69	259.147875	259.617875		[silence]	[silence]
sw2287A-ms98-a-0058	A.69	259.617875	260.164750		Right	right
sw2287A-ms98-a-0058	A.71	260.164750	260.544750		[silence]	[silence]
sw2287A-ms98-a-0059	A.71	260.544750	264.376875		[silence]	[silence]
sw2287A-ms98-a-0060	A.71	264.376875	264.872500		[silence]	[silence]
sw2287A-ms98-a-0060	A.71	264.872500	265.393250		Yeah	yeah
sw2287A-ms98-a-0060	A.71	265.393250	265.789500		[silence]	[silence]
sw2287A-ms98-a-0060	A.71	265.789500	265.926875		I	i
sw2287A-ms98-a-0060	A.71	265.926875	266.106875		think	think
sw2287A-ms98-a-0060	A.71	266.106875	266.246875		they	they
sw2287A-ms98-a-0060	A.71	266.246875	266.456875		should	should
sw2287A-ms98-a-0060	A.71	266.456875	266.656875		change	change
sw2287A-ms98-a-0060	A.71	266.656875	266.726875		the	the
sw2287A-ms98-a-0060	A.71	266.726875	266.856875		whole	whole
sw2287A-ms98-a-0060	A.71	266.856875	267.236875		system	system
sw2287A-ms98-a-0060	A.71	267.236875	267.396875		so	so
sw2287A-ms98-a-0060	A.71	267.396875	267.496875		that	that
sw2287A-ms98-a-0060	A.71	267.496875	267.696875		it's	it's
sw2287A-ms98-a-0060	A.71	267.696875	268.136875		easier	easier
sw2287A-ms98-a-0060	A.73	268.136875	268.335875		I	i
sw2287A-ms98-a-0060	A.73	268.335875	268.539250		[silence]	[silence]
sw2287A-ms98-a-0060	A.73	268.539250	268.675000	<DEL>	---	thi[nk]-
sw2287A-ms98-a-0060	A.73	268.675000	268.739125	<DEL>	---	i
sw2287A-ms98-a-0060	A.73	268.739125	268.876875		think	think
sw2287A-ms98-a-0060	A.73	268.876875	269.046875		more	more
sw2287A-ms98-a-0060	A.73	269.046875	269.376875		people	people
sw2287A-ms98-a-0060	A.73	269.376875	269.576875		would	would
sw2287A-ms98-a-0060	A.73	269.576875	269.766875		do	do
sw2287A-ms98-a-0060	A.73	269.766875	269.896875		it	it
sw2287A-ms98-a-0060	A.73	269.896875	270.056875		if	if
sw2287A-ms98-a-0060	A.73	270.056875	270.166875		it	it
sw2287A-ms98-a-0060	A.73	270.166875	270.780000		wasn't	wasn't
sw2287A-ms98-a-0060	A.73	270.780000	271.529500		[silence]	[silence]
sw2287A-ms98-a-0060	A.73	271.529500	271.716875		such	such
sw2287A-ms98-a-0060	A.73	271.716875	271.766875		a	a
sw2287A-ms98-a-0060	A.73	271.766875	272.250750		hassle	hassle
sw2287A-ms98-a-0060	A.77	272.250750	272.685375		[silence]	[silence]
sw2287A-ms98-a-0061	A.77	272.685375	281.206250		[silence]	[silence]
sw2287A-ms98-a-0062	A.77	281.206250	281.701375		[silence]	[silence]
sw2287A-ms98-a-0062	A.77	281.701375	282.002875		Uh-huh	uh-huh
sw2287A-ms98-a-0062	A.79	282.002875	282.487125		[silence]	[silence]
sw2287A-ms98-a-0063	A.79	282.487125	297.240375		[silence]	[silence]
sw2287A-ms98-a-0064	A.79	297.240375	297.622000		[silence]	[silence]
sw2287A-ms98-a-0064	A.79	297.622000	300.062750		[laughter]	[laughter]
sw2287A-ms98-a-0064	A.79	300.062750	300.508500		[silence]	[silence]
sw2287A-ms98-a-0065	A.79	300.508500	304.316500		[silence]	[silence]
sw2287A-ms98-a-0066	A.79	304.316500	304.796500		[silence]	[silence]
sw2287A-ms98-a-0066	A.79	304.796500	305.306500	<DEL>	---	uh-huh
sw2287A-ms98-a-0066	A.79	305.306500	305.758875		[silence]	[silence]
sw2287A-ms98-a-0067	A.79	305.758875	316.035125		[silence]	[silence]
sw2287A-ms98-a-0068	A.79	316.035125	316.525125		[silence]	[silence]
sw2287A-ms98-a-0068	A.79	316.525125	316.685125		Yeah	yeah
sw2287A-ms98-a-0068	A.79	316.685125	316.845125		that	that
sw2287A-ms98-a-0068	A.79	316.845125	317.075125		would	would
sw2287A-ms98-a-0068	A.79	317.075125	317.435375		be	be
sw2287A-ms98-a-0068	A.79	317.435375	317.849750		[silence]	[silence]
sw2287A-ms98-a-0068	A.79	317.849750	318.049500		I	i
sw2287A-ms98-a-0068	A.79	318.049500	318.375125		usually	usually
sw2287A-ms98-a-0068	A.79	318.375125	318.725125		vote	vote
sw2287A-ms98-a-0068	A.79	318.725125	318.755125		A	a
sw2287A-ms98-a-0068	A.79	318.755125	318.895125		lot	lot
sw2287A-ms98-a-0068	A.79	318.895125	318.955125		of	of
sw2287A-ms98-a-0068	A.79	318.955125	319.265125		times	times
sw2287A-ms98-a-0068	A.79	319.265125	319.405125		I'll	i'll
sw2287A-ms98-a-0068	A.79	319.405125	319.635125		vote	vote
sw2287A-ms98-a-0068	A.79	319.635125	319.685125		a	a
sw2287A-ms98-a-0068	A.79	319.685125	319.985125		straight	straight
sw2287A-ms98-a-0068	A.79	319.985125	320.275125		party	party
sw2287A-ms98-a-0068	A.79	320.275125	320.565125		ticket	ticket
sw2287A-ms98-a-0068	A.79	320.565125	320.725125		just	just
sw2287A-ms98-a-0068	A.79	320.725125	321.035125		because	because
sw2287A-ms98-a-0068	A.79	321.035125	321.115125		I	i
sw2287A-ms98-a-0068	A.79	321.115125	321.355125		don't	don't
sw2287A-ms98-a-0068	A.79	321.355125	321.585125		take	take
sw2287A-ms98-a-0068	A.79	321.585125	321.655125		the	the
sw2287A-ms98-a-0068	A.79	321.655125	321.965125		time	time
sw2287A-ms98-a-0068	A.79	321.965125	322.035125		to	to
sw2287A-ms98-a-0068	A.79	322.035125	322.365125		find	find
sw2287A-ms98-a-0068	A.79	322.365125	322.515125		out	out
sw2287A-ms98-a-0068	A.79	322.515125	322.655125		what	what
sw2287A-ms98-a-0068	A.79	322.655125	322.995125		every	every
sw2287A-ms98-a-0068	A.79	322.995125	323.392375		[silence]	[silence]
sw2287A-ms98-a-0069	A.79	323.392375	323.804750		[silence]	[silence]
sw2287A-ms98-a-0069	A.79	323.804750	323.892375		you	you
sw2287A-ms98-a-0069	A.79	323.892375	324.176250		know	know
sw2287A-ms98-a-0069	A.79	324.176250	324.458750		[silence]	[silence]
sw2287A-ms98-a-0069	A.79	324.458750	324.642375		other	other
sw2287A-ms98-a-0069	A.79	324.642375	324.772375		than	than
sw2287A-ms98-a-0069	A.79	324.772375	324.832375		the	the
sw2287A-ms98-a-0069	A.79	324.832375	325.172375		major	major
sw2287A-ms98-a-0069	A.79	325.172375	325.702375		candidates	candidates
sw2287A-ms98-a-0069	A.79	325.702375	325.872375		what	what
sw2287A-ms98-a-0069	A.79	325.872375	326.042375		they	they
sw2287A-ms98-a-0069	A.79	326.042375	326.432375		stand	stand
sw2287A-ms98-a-0069	A.79	326.432375	326.572375		for	for
sw2287A-ms98-a-0069	A.81	326.572375	326.932375		on	on
sw2287A-ms98-a-0069	A.81	326.932375	327.177250		[silence]	[silence]
sw2287A-ms98-a-0069	A.81	327.177250	327.332375	<DEL>	---	on
sw2287A-ms98-a-0069	A.81	327.332375	327.502375		what	what
sw2287A-ms98-a-0069	A.81	327.502375	327.832375		issues	issues
sw2287A-ms98-a-0069	A.81	327.832375	327.952375		so	so
sw2287A-ms98-a-0069	A.81	327.952375	328.052375	<SUB>	I'll	i
sw2287A-ms98-a-0069	A.81	328.052375	328.252375		just	just
sw2287A-ms98-a-0069	A.81	328.252375	328.492375		trust	trust
sw2287A-ms98-a-0069	A.81	328.492375	328.652375		well	well
sw2287A-ms98-a-0069	A.81	328.652375	328.712375		the	the
sw2287A-ms98-a-0069	A.81	328.712375	329.042375		party	party
sw2287A-ms98-a-0069	A.81	329.042375	329.272375		kind	kind
sw2287A-ms98-a-0069	A.81	329.272375	329.332375		of	of
sw2287A-ms98-a-0069	A.81	329.332375	329.502375		goes	goes
sw2287A-ms98-a-0069	A.81	329.502375	329.772375		along	along
sw2287A-ms98-a-0069	A.81	329.772375	329.942375		these	these
sw2287A-ms98-a-0069	A.81	329.942375	330.242375		lines	lines
sw2287A-ms98-a-0069	A.81	330.242375	330.362375		so	so
sw2287A-ms98-a-0069	A.81	330.362375	330.522375		I'll	i'll
sw2287A-ms98-a-0069	A.81	330.522375	330.652375		go	go
sw2287A-ms98-a-0069	A.81	330.652375	330.782375		ahead	ahead
sw2287A-ms98-a-0069	A.81	330.782375	330.922375		and	and
sw2287A-ms98-a-0069	A.81	330.922375	331.367125		vote	vote
sw2287A-ms98-a-0069	A.83	331.367125	331.916375		[silence]	[silence]
sw2287A-ms98-a-0070	A.83	331.916375	332.406375		[silence]	[silence]
sw2287A-ms98-a-0070	A.83	332.406375	332.626375	<DEL>	---	but
sw2287A-ms98-a-0070	A.83	332.626375	332.947625	<DEL>	---	that
sw2287A-ms98-a-0070	A.83	332.947625	333.390375		[silence]	[silence]
sw2287A-ms98-a-0071	A.83	333.390375	344.153250		[silence]	[silence]
sw2287A-ms98-a-0072	A.83	344.153250	344.643250		[silence]	[silence]
sw2287A-ms98-a-0072	A.83	344.643250	345.122875		Uh-huh	uh-huh
sw2287A-ms98-a-0072	A.85	345.122875	345.564375		[silence]	[silence]
sw2287A-ms98-a-0073	A.85	345.564375	351.366250		[silence]	[silence]
sw2287A-ms98-a-0074	A.85	351.366250	351.790625		[silence]	[silence]
sw2287A-ms98-a-0074	A.85	351.790625	352.376250		Yeah	yeah
sw2287A-ms98-a-0074	A.87	352.376250	352.602500		[laughter]	[laughter]
sw2287A-ms98-a-0074	A.87	352.602500	353.047500		[silence]	[silence]
sw2287A-ms98-a-0075	A.87	353.047500	365.217000		[silence]	[silence]
sw2287A-ms98-a-0076	A.87	365.217000	365.717000		[silence]	[silence]
sw2287A-ms98-a-0076	A.87	365.717000	366.127000		No	no
sw2287A-ms98-a-0076	A.87	366.127000	366.397000		I	i
sw2287A-ms98-a-0076	A.87	366.397000	366.527000		guess	guess
sw2287A-ms98-a-0076	A.87	366.527000	366.647000		it'd	it'd
sw2287A-ms98-a-0076	A.87	366.647000	366.767000		be	be
sw2287A-ms98-a-0076	A.87	366.767000	367.027000		best	best
sw2287A-ms98-a-0076	A.87	367.027000	367.127000		if	if
sw2287A-ms98-a-0076	A.87	367.127000	367.207000		you	you
sw2287A-ms98-a-0076	A.87	367.207000	367.367000		knew	knew
sw2287A-ms98-a-0076	A.87	367.367000	367.457000	<DEL>	---	what
sw2287A-ms98-a-0076	A.87	367.457000	367.667000		each	each
sw2287A-ms98-a-0076	A.87	367.667000	368.107000		person	person
sw2287A-ms98-a-0076	A.87	368.107000	368.216750		and	and
sw2287A-ms98-a-0076	A.87	368.216750	368.525625		[laughter]	[laughter]
sw2287A-ms98-a-0076	A.87	368.525625	368.687000		what	what
sw2287A-ms98-a-0076	A.87	368.687000	368.807000		they	they
sw2287A-ms98-a-0076	A.87	368.807000	369.077000		stood	stood
sw2287A-ms98-a-0076	A.87	369.077000	369.347000		for	for
sw2287A-ms98-a-0076	A.87	369.347000	369.497000		and	and
sw2287A-ms98-a-0076	A.87	369.497000	369.737000		why	why
sw2287A-ms98-a-0076	A.87	369.737000	369.897000		and	and
sw2287A-ms98-a-0076	A.87	369.897000	370.467000		everything	everything
sw2287A-ms98-a-0076	A.89	370.467000	370.594500	<DEL>	---	but
sw2287A-ms98-a-0076	A.89	370.594500	370.809125		[silence]	[silence]
sw2287A-ms98-a-0077	A.89	370.809125	380.423750		[silence]	[silence]
sw2287A-ms98-a-0078	A.89	380.423750	380.913750		[silence]	[silence]
sw2287A-ms98-a-0078	A.89	380.913750	381.503750		Right	right
sw2287A-ms98-a-0078	A.89	381.503750	381.593750		and	and
sw2287A-ms98-a-0078	A.89	381.593750	381.753750		try	try
sw2287A-ms98-a-0078	A.89	381.753750	381.813750		to	to
sw2287A-ms98-a-0078	A.89	381.813750	382.263750		determine	determine
sw2287A-ms98-a-0078	A.89	382.263750	382.423750		if	if
sw2287A-ms98-a-0078	A.89	382.423750	382.613750		what	what
sw2287A-ms98-a-0078	A.89	382.613750	382.753750		you	you
sw2287A-ms98-a-0078	A.89	382.753750	382.973750		read	read
sw2287A-ms98-a-0078	A.89	382.973750	383.163750		was	was
sw2287A-ms98-a-0078	A.89	383.163750	383.683750		objective	objective
sw2287A-ms98-a-0078	A.89	383.683750	383.815375		or	or
sw2287A-ms98-a-0078	A.89	383.815375	384.283750		not	not
sw2287A-ms98-a-0078	A.91	384.283750	384.499375	<DEL>	---	and
sw2287A-ms98-a-0078	A.91	384.499375	384.920375		[silence]	[silence]
sw2287A-ms98-a-0079	A.91	384.920375	387.737875		[silence]	[silence]
sw2287A-ms98-a-0080	A.91	387.737875	388.242000		[silence]	[silence]
sw2287A-ms98-a-0080	A.91	388.242000	389.081000		Yeah	yeah
sw2287A-ms98-a-0080	A.93	389.081000	389.446500		[silence]	[silence]
sw2287A-ms98-a-0081	A.93	389.446500	392.874750		[silence]	[silence]
sw2287A-ms98-a-0082	A.93	392.874750	393.372125		[silence]	[silence]
sw2287A-ms98-a-0082	A.93	393.372125	393.906250		Yeah	yeah
sw2287A-ms98-a-0082	A.95	393.906250	394.514875		[silence]	[silence]
sw2287A-ms98-a-0083	A.95	394.514875	400.131750		[silence]	[silence]
sw2287A-ms98-a-0084	A.95	400.131750	400.624125		[silence]	[silence]
sw2287A-ms98-a-0084	A.95	400.624125	401.371750		Yeah	yeah
sw2287A-ms98-a-0084	A.97	401.371750	401.873375		[silence]	[silence]
sw2287A-ms98-a-0085	A.97	401.873375	403.559625		[silence]	[silence]
sw2287A-ms98-a-0086	A.97	403.559625	404.049625		[silence]	[silence]
sw2287A-ms98-a-0086	A.97	404.049625	404.429625		Yeah	yeah
sw2287A-ms98-a-0086	A.97	404.429625	404.519625		I	i
sw2287A-ms98-a-0086	A.97	404.519625	404.709625		think	think
sw2287A-ms98-a-0086	A.97	404.709625	404.809625		it	it
sw2287A-ms98-a-0086	A.97	404.809625	404.969625		could	could
sw2287A-ms98-a-0086	A.97	404.969625	405.309625		affect	affect
sw2287A-ms98-a-0086	A.97	405.309625	405.409625		the	the
sw2287A-ms98-a-0086	A.97	405.409625	405.969625		outcome	outcome
sw2287A-ms98-a-0086	A.97	405.969625	406.089625		you	you
sw2287A-ms98-a-0086	A.97	406.089625	406.219625		know	know
sw2287A-ms98-a-0086	A.97	406.219625	406.379625		could	could
sw2287A-ms98-a-0086	A.97	406.379625	406.579625		make	make
sw2287A-ms98-a-0086	A.97	406.579625	406.649625		it	it
sw2287A-ms98-a-0086	A.97	406.649625	407.367125		unfair	unfair
sw2287A-ms98-a-0086	A.99	407.367125	407.798875		[silence]	[silence]
sw2287A-ms98-a-0087	A.99	407.798875	425.018750		[silence]	[silence]
sw2287A-ms98-a-0088	A.99	425.018750	425.503250		[silence]	[silence]
sw2287A-ms98-a-0088	A.99	425.503250	425.768125		Oh	oh
sw2287A-ms98-a-0088	A.99	425.768125	426.281500		yeah	yeah
sw2287A-ms98-a-0088	A.101	426.281500	427.008500		[silence]	[silence]
sw2287A-ms98-a-0089	A.101	427.008500	427.658500		[silence]	[silence]
sw2287A-ms98-a-0089	A.101	427.658500	427.858500		Yeah	yeah
sw2287A-ms98-a-0089	A.101	427.858500	427.938500		the	the
sw2287A-ms98-a-0089	A.101	427.938500	428.218500		press	press
sw2287A-ms98-a-0089	A.101	428.218500	428.368500		has	has
sw2287A-ms98-a-0089	A.101	428.368500	428.468500		a	a
sw2287A-ms98-a-0089	A.101	428.468500	428.628500		lot	lot
sw2287A-ms98-a-0089	A.101	428.628500	428.708500		of	of
sw2287A-ms98-a-0089	A.101	428.708500	429.274750		power	power
sw2287A-ms98-a-0089	A.103	429.274750	429.772250		[silence]	[silence]
sw2287A-ms98-a-0090	A.103	429.772250	433.508000		[silence]	[silence]
sw2287A-ms98-a-0091	A.103	433.508000	433.968000		[silence]	[silence]
sw2287A-ms98-a-0091	A.103	433.968000	434.482875		Yeah	yeah
sw2287A-ms98-a-0091	A.103	434.482875	434.716375		oh	oh
sw2287A-ms98-a-0091	A.103	434.716375	434.943625		but	but
sw2287A-ms98-a-0091	A.103	434.943625	435.148000		boy	boy
sw2287A-ms98-a-0091	A.103	435.148000	435.268000		you	you
sw2287A-ms98-a-0091	A.103	435.268000	435.478000		try	try
sw2287A-ms98-a-0091	A.103	435.478000	435.618000		get	get
sw2287A-ms98-a-0091	A.103	435.618000	435.788000		into	into
sw2287A-ms98-a-0091	A.103	435.788000	436.078000		that	that
sw2287A-ms98-a-0091	A.103	436.078000	436.188000		you'd	you'd
sw2287A-ms98-a-0091	A.103	436.188000	436.448000		really	really
sw2287A-ms98-a-0091	A.103	436.448000	436.638000		open	open
sw2287A-ms98-a-0091	A.103	436.638000	436.688000		a	a
sw2287A-ms98-a-0091	A.103	436.688000	436.898000		can	can
sw2287A-ms98-a-0091	A.103	436.898000	436.978000		of	of
sw2287A-ms98-a-0091	A.103	436.978000	437.408000		worms	worms
sw2287A-ms98-a-0091	A.105	437.408000	437.888875		[laughter]	[laughter]
sw2287A-ms98-a-0091	A.105	437.888875	438.367125		[silence]	[silence]
sw2287A-ms98-a-0092	A.105	438.367125	448.086750		[silence]	[silence]
sw2287A-ms98-a-0093	A.105	448.086750	448.584125		[silence]	[silence]
sw2287A-ms98-a-0093	A.105	448.584125	449.222500		Yeah	yeah
sw2287A-ms98-a-0093	A.105	449.222500	449.396750		seems	seems
sw2287A-ms98-a-0093	A.105	449.396750	449.566750	<SUB>	that	like
sw2287A-ms98-a-0093	A.105	449.566750	449.706750		they	they
sw2287A-ms98-a-0093	A.105	449.706750	449.876750		should	should
sw2287A-ms98-a-0093	A.105	449.876750	450.306750		regulate	regulate
sw2287A-ms98-a-0093	A.105	450.306750	450.826750		themselves	themselves
sw2287A-ms98-a-0093	A.105	450.826750	450.906750		a	a
sw2287A-ms98-a-0093	A.105	450.906750	451.076750		little	little
sw2287A-ms98-a-0093	A.105	451.076750	451.196750		bit	bit
sw2287A-ms98-a-0093	A.105	451.196750	451.346750		and	and
sw2287A-ms98-a-0093	A.105	451.346750	451.416750		I	i
sw2287A-ms98-a-0093	A.105	451.416750	451.586750		don't	don't
sw2287A-ms98-a-0093	A.105	451.586750	451.786750		think	think
sw2287A-ms98-a-0093	A.105	451.786750	451.906750		they	they
sw2287A-ms98-a-0093	A.105	451.906750	452.076750		ever	ever
sw2287A-ms98-a-0093	A.105	452.076750	452.413750		care	care
sw2287A-ms98-a-0093	A.105	452.413750	452.875875		to	to
sw2287A-ms98-a-0093	@@A.107	452.875875	453.638500		[silence]	[silence]
sw2287A-ms98-a-0094	@@A.107	453.638500	454.474625		[silence]	[silence]
sw2287A-ms98-a-0094	@@A.107	454.474625	454.894000		Well	well
sw2287A-ms98-a-0094	@@A.107	454.894000	455.018500		I	i
sw2287A-ms98-a-0094	@@A.107	455.018500	455.248500		can't	can't
sw2287A-ms98-a-0094	@@A.107	455.248500	455.398500		think	think
sw2287A-ms98-a-0094	@@A.107	455.398500	455.478500		of	of
sw2287A-ms98-a-0094	@@A.107	455.478500	455.848500		anything	anything
sw2287A-ms98-a-0094	@@A.107	455.848500	456.234125		else	else
sw2287A-ms98-a-0094	@@A.107	456.234125	456.836750		[silence]	[silence]
sw2287A-ms98-a-0094	@@A.107	456.836750	457.098500		really	really
sw2287A-ms98-a-0094	@@A.107	457.098500	457.368500		about	about
sw2287A-ms98-a-0094	@@A.107	457.368500	457.508500		the	the
sw2287A-ms98-a-0094	@@A.107	457.508500	458.098500		polls	polls
sw2287A-ms98-a-0094	@@A.107	458.098500	458.346000		or	or
sw2287A-ms98-a-0094	@@A.107	458.346000	458.871375		voting	voting
sw2287A-ms98-a-0094	@@A.107	458.871375	459.370000		[silence]	[silence]
sw2287A-ms98-a-0095	@@A.107	459.370000	459.846625		[silence]	[silence]
sw2287A-ms98-a-0095	@@A.107	459.846625	460.003000		to	to
sw2287A-ms98-a-0095	@@A.107	460.003000	460.086875		talk	talk
sw2287A-ms98-a-0095	@@A.107	460.086875	460.300000		about	about
sw2287A-ms98-a-0095	A.109	460.300000	460.390000		Well	well
sw2287A-ms98-a-0095	A.109	460.390000	460.450000		it	it
sw2287A-ms98-a-0095	A.109	460.450000	460.620000		was	was
sw2287A-ms98-a-0095	A.109	460.620000	460.800000		good	good
sw2287A-ms98-a-0095	A.109	460.800000	461.159375		talking	talking
sw2287A-ms98-a-0095	A.109	461.159375	461.264875		to	to
sw2287A-ms98-a-0095	A.109	461.264875	461.598750		you	you
sw2287A-ms98-a-0095	A.111	461.598750	461.877375		[silence]	[silence]
sw2287A-ms98-a-0095	A.111	461.877375	462.101375	<DEL>	---	um
sw2287A-ms98-a-0095	A.111	462.101375	462.383500		Bye	bye
sw2287A-ms98-a-0095	A.111	462.383500	462.846250		[silence]	[silence]
sw2287A-ms98-a-0096	A.111	462.846250	463.946500		[silence]	[silence]
sw2287A-ms98-a-0096	A.111	463.946500	464.320000		[noise]	[noise]
sw2287A-ms98-a-0096	A.111	464.320000	465.002000		[silence]	[silence]
