sw2265A-ms98-a-0001	A.2	0.000000	4.467750		[silence]	[silence]
sw2265A-ms98-a-0002	A.2	4.467750	5.889250		[silence]	[silence]
sw2265A-ms98-a-0002	A.2	5.889250	6.683750		Okay	okay
sw2265A-ms98-a-0002	A.2	6.683750	7.198250	<DEL>	---	um
sw2265A-ms98-a-0002	A.2	7.198250	7.991000		[silence]	[silence]
sw2265A-ms98-a-0003	A.2	7.991000	8.471000		[silence]	[silence]
sw2265A-ms98-a-0003	A.2	8.471000	8.941000		My	my
sw2265A-ms98-a-0003	A.2	8.941000	9.381000		major	major
sw2265A-ms98-a-0003	A.2	9.381000	9.761000		source	source
sw2265A-ms98-a-0003	A.2	9.761000	9.851000		of	of
sw2265A-ms98-a-0003	A.2	9.851000	10.631000		information	information
sw2265A-ms98-a-0003	A.2	10.631000	10.711000		I	i
sw2265A-ms98-a-0003	A.2	10.711000	10.971000		guess	guess
sw2265A-ms98-a-0003	A.2	10.971000	11.081000		is	is
sw2265A-ms98-a-0003	A.2	11.081000	11.421000	<CONT>	T	TV
sw2265A-ms98-a-0003	A.2	11.421000	11.421000	<CONT>	V	+++
sw2265A-ms98-a-0003	A.2	11.421000	12.124875		news	news
sw2265A-ms98-a-0003	A.2	12.124875	14.011000		[noise]	[noise]
sw2265A-ms98-a-0003	A.2	14.011000	14.341000		Excuse	excuse
sw2265A-ms98-a-0003	A.2	14.341000	14.518750		me	me
sw2265A-ms98-a-0003	A.2	14.518750	14.929000		[silence]	[silence]
sw2265A-ms98-a-0004	A.2	14.929000	15.404625		[silence]	[silence]
sw2265A-ms98-a-0004	A.2	15.404625	15.660625		I	i
sw2265A-ms98-a-0004	A.2	15.660625	16.063625		uh	uh
sw2265A-ms98-a-0004	A.2	16.063625	16.649000		[silence]	[silence]
sw2265A-ms98-a-0004	A.2	16.649000	16.899000		wake	wake
sw2265A-ms98-a-0004	A.2	16.899000	17.029000		up	up
sw2265A-ms98-a-0004	A.2	17.029000	17.139000		to	to
sw2265A-ms98-a-0004	A.2	17.139000	17.199000		it	it
sw2265A-ms98-a-0004	A.2	17.199000	17.289000		in	in
sw2265A-ms98-a-0004	A.2	17.289000	17.349000		the	the
sw2265A-ms98-a-0004	A.2	17.349000	17.739000		morning	morning
sw2265A-ms98-a-0004	A.2	17.739000	17.879000		This	this
sw2265A-ms98-a-0004	A.2	17.879000	17.989000		is	is
sw2265A-ms98-a-0004	A.2	17.989000	18.281500		my	my
sw2265A-ms98-a-0004	A.2	18.281500	18.516500		[silence]	[silence]
sw2265A-ms98-a-0004	A.2	18.516500	18.652125		I	i
sw2265A-ms98-a-0004	A.2	18.652125	18.849000		guess	guess
sw2265A-ms98-a-0004	A.2	18.849000	18.939000		my	my
sw2265A-ms98-a-0004	A.2	18.939000	19.329000		prime	prime
sw2265A-ms98-a-0004	A.2	19.329000	19.679000		time	time
sw2265A-ms98-a-0004	A.2	19.679000	19.779000		for	for
sw2265A-ms98-a-0004	A.2	19.779000	20.089000		news	news
sw2265A-ms98-a-0004	A.2	20.089000	20.419000		first	first
sw2265A-ms98-a-0004	A.2	20.419000	20.549000		thing	thing
sw2265A-ms98-a-0004	A.2	20.549000	20.619000		in	in
sw2265A-ms98-a-0004	A.2	20.619000	20.679000		the	the
sw2265A-ms98-a-0004	A.2	20.679000	21.069000		morning	morning
sw2265A-ms98-a-0004	A.2	21.069000	21.799000		[silence]	[silence]
sw2265A-ms98-a-0004	A.2	21.799000	21.899000		while	while
sw2265A-ms98-a-0004	A.2	21.899000	21.979000		I'm	i'm
sw2265A-ms98-a-0004	A.2	21.979000	22.259000		getting	getting
sw2265A-ms98-a-0004	A.2	22.259000	22.419000		ready	ready
sw2265A-ms98-a-0004	A.2	22.419000	22.529000		to	to
sw2265A-ms98-a-0004	A.2	22.529000	22.669000		go	go
sw2265A-ms98-a-0004	A.2	22.669000	22.759000		to	to
sw2265A-ms98-a-0004	A.2	22.759000	23.229000		work	work
sw2265A-ms98-a-0004	A.2	23.229000	23.742000		[silence]	[silence]
sw2265A-ms98-a-0005	A.2	23.742000	24.412000		[silence]	[silence]
sw2265A-ms98-a-0005	A.2	24.412000	25.742000		Oh	oh
sw2265A-ms98-a-0005	A.2	25.742000	26.013875		I	i
sw2265A-ms98-a-0005	A.2	26.013875	26.472500		[silence]	[silence]
sw2265A-ms98-a-0006	A.2	26.472500	26.932500		[silence]	[silence]
sw2265A-ms98-a-0006	A.2	26.932500	27.362500		quite	quite
sw2265A-ms98-a-0006	A.2	27.362500	28.242500		frequently	frequently
sw2265A-ms98-a-0006	A.2	28.242500	28.542500	<DEL>	---	uh
sw2265A-ms98-a-0006	A.2	28.542500	29.042500		glance	glance
sw2265A-ms98-a-0006	A.2	29.042500	29.362500		through	through
sw2265A-ms98-a-0006	A.2	29.362500	30.112500		headlines	headlines
sw2265A-ms98-a-0006	A.2	30.112500	30.624125		or	or
sw2265A-ms98-a-0006	A.2	30.624125	31.031500		[silence]	[silence]
sw2265A-ms98-a-0006	A.2	31.031500	31.170875		in	in
sw2265A-ms98-a-0006	A.2	31.170875	31.252500		the	the
sw2265A-ms98-a-0006	A.2	31.252500	32.185375		newspaper	newspaper
sw2265A-ms98-a-0006	A.2	32.185375	33.100875		[silence]	[silence]
sw2265A-ms98-a-0007	A.2	33.100875	33.840875		[silence]	[silence]
sw2265A-ms98-a-0007	A.2	33.840875	34.360875		But	but
sw2265A-ms98-a-0007	A.2	34.360875	34.988625		uh	uh
sw2265A-ms98-a-0007	A.2	34.988625	35.721375		[silence]	[silence]
sw2265A-ms98-a-0007	A.2	35.721375	36.270875		primarily	primarily
sw2265A-ms98-a-0007	A.2	36.270875	36.560875		mine	mine
sw2265A-ms98-a-0007	A.2	36.560875	36.780875		is	is
sw2265A-ms98-a-0007	A.2	36.780875	36.930875	<SUB>	---	uh
sw2265A-ms98-a-0007	A.2	36.930875	37.330875	<CONT>	T	TV
sw2265A-ms98-a-0007	A.2	37.330875	37.330875	<CONT>	V	+++
sw2265A-ms98-a-0007	A.2	37.330875	37.798500		news	news
sw2265A-ms98-a-0007	A.2	37.798500	38.654750		[silence]	[silence]
sw2265A-ms98-a-0008	A.2	38.654750	39.494750		[silence]	[silence]
sw2265A-ms98-a-0008	A.2	39.494750	39.594750		How	how
sw2265A-ms98-a-0008	A.2	39.594750	39.744750		about	about_1
sw2265A-ms98-a-0008	A.2	39.744750	40.270000		yourself	yourself
sw2265A-ms98-a-0008	A.4	40.270000	40.887000		[silence]	[silence]
sw2265A-ms98-a-0009	A.4	40.887000	57.980375		[silence]	[silence]
sw2265A-ms98-a-0010	A.4	57.980375	58.451000		[silence]	[silence]
sw2265A-ms98-a-0010	A.4	58.451000	58.930375	<SUB>	Huh-uh	um
sw2265A-ms98-a-0010	A.4	58.930375	59.315250		True	true
sw2265A-ms98-a-0010	A.6	59.315250	59.859500		[silence]	[silence]
sw2265A-ms98-a-0011	A.6	59.859500	70.994250		[silence]	[silence]
sw2265A-ms98-a-0012	A.6	70.994250	71.534250		[silence]	[silence]
sw2265A-ms98-a-0012	A.6	71.534250	72.064250	<SUB>	Huh-uh	uh-huh
sw2265A-ms98-a-0012	A.8	72.064250	72.775000		[silence]	[silence]
sw2265A-ms98-a-0013	A.8	72.775000	98.513125		[silence]	[silence]
sw2265A-ms98-a-0014	A.8	98.513125	99.153125		[silence]	[silence]
sw2265A-ms98-a-0014	A.8	99.153125	99.583125		Well	well
sw2265A-ms98-a-0014	A.8	99.583125	99.833125		that's	that's
sw2265A-ms98-a-0014	A.8	99.833125	100.303125		true	true
sw2265A-ms98-a-0014	A.8	100.303125	100.773125		but	but
sw2265A-ms98-a-0014	A.8	100.773125	101.043125	<DEL>	---	uh
sw2265A-ms98-a-0014	A.8	101.043125	101.503625		I	i
sw2265A-ms98-a-0014	A.8	101.503625	101.998250		[silence]	[silence]
sw2265A-ms98-a-0015	A.8	101.998250	102.501500		[silence]	[silence]
sw2265A-ms98-a-0015	A.8	102.501500	102.818250		[vocalized-noise]	[vocalized-noise]
sw2265A-ms98-a-0015	A.8	102.818250	102.988250	<DEL>	---	uh
sw2265A-ms98-a-0015	A.8	102.988250	103.228250		my	my
sw2265A-ms98-a-0015	A.8	103.228250	103.608250		personal	personal
sw2265A-ms98-a-0015	A.8	103.608250	104.098250		opinion	opinion
sw2265A-ms98-a-0015	A.8	104.098250	104.268250		is	is
sw2265A-ms98-a-0015	A.8	104.268250	104.478250		that	that
sw2265A-ms98-a-0015	A.8	104.478250	104.753500		the	the
sw2265A-ms98-a-0015	A.8	104.753500	105.009625	<DEL>	---	uh
sw2265A-ms98-a-0015	A.8	105.009625	105.140000		[silence]	[silence]
sw2265A-ms98-a-0015	A.8	105.140000	105.260125	<DEL>	---	the
sw2265A-ms98-a-0015	A.8	105.260125	105.688250		various	various
sw2265A-ms98-a-0015	A.8	105.688250	106.128250		network	network
sw2265A-ms98-a-0015	A.8	106.128250	106.468250		news	news
sw2265A-ms98-a-0015	A.8	106.468250	107.488250		[vocalized-noise]	[vocalized-noise]
sw2265A-ms98-a-0015	A.8	107.488250	107.908250		medias	medias
sw2265A-ms98-a-0015	A.8	107.908250	108.253125		were	were
sw2265A-ms98-a-0015	A.8	108.253125	108.809625	<DEL>	---	uh
sw2265A-ms98-a-0015	A.8	108.809625	109.235750		[silence]	[silence]
sw2265A-ms98-a-0016	A.8	109.235750	109.675750		[silence]	[silence]
sw2265A-ms98-a-0016	A.8	109.675750	110.085750		trying	trying
sw2265A-ms98-a-0016	A.8	110.085750	110.435750		to	to
sw2265A-ms98-a-0016	A.8	110.435750	110.975750		interpret	interpret
sw2265A-ms98-a-0016	A.8	110.975750	111.075750		the	the
sw2265A-ms98-a-0016	A.8	111.075750	111.585750		news	news
sw2265A-ms98-a-0016	A.8	111.585750	111.745750		to	to
sw2265A-ms98-a-0016	A.8	111.745750	111.805750		the	the
sw2265A-ms98-a-0016	A.8	111.805750	112.115750		best	best
sw2265A-ms98-a-0016	A.8	112.115750	112.185750		of	of
sw2265A-ms98-a-0016	A.8	112.185750	112.345750		their	their
sw2265A-ms98-a-0016	A.8	112.345750	112.875750		abilities	abilities
sw2265A-ms98-a-0016	A.8	112.875750	113.125750		since	since
sw2265A-ms98-a-0016	A.8	113.125750	113.205750		they	they
sw2265A-ms98-a-0016	A.8	113.205750	113.385750		were	were
sw2265A-ms98-a-0016	A.8	113.385750	113.745750		not	not
sw2265A-ms98-a-0016	A.8	113.745750	114.005750		very	very
sw2265A-ms98-a-0016	A.8	114.005750	114.235750		well	well
sw2265A-ms98-a-0016	A.8	114.235750	114.685750		informed	informed
sw2265A-ms98-a-0016	A.8	114.685750	114.805750		by	by
sw2265A-ms98-a-0016	A.8	114.805750	114.895750		the	the
sw2265A-ms98-a-0016	A.8	114.895750	115.591500		military	military
sw2265A-ms98-a-0016	A.10	115.591500	116.100125		[silence]	[silence]
sw2265A-ms98-a-0017	A.10	116.100125	116.660125		[silence]	[silence]
sw2265A-ms98-a-0017	A.10	116.660125	116.820125		Now	now
sw2265A-ms98-a-0017	A.10	116.820125	116.920125		I	i
sw2265A-ms98-a-0017	A.10	116.920125	117.070125		can	can
sw2265A-ms98-a-0017	A.10	117.070125	117.620125		appreciate	appreciate
sw2265A-ms98-a-0017	A.10	117.620125	117.830125		that	that
sw2265A-ms98-a-0017	A.10	117.830125	118.260125		especially	especially
sw2265A-ms98-a-0017	A.10	118.260125	118.460125		after	after
sw2265A-ms98-a-0017	A.10	118.460125	118.600125		what	what
sw2265A-ms98-a-0017	A.10	118.600125	118.840125		happened	happened
sw2265A-ms98-a-0017	A.10	118.840125	118.950125		in	in
sw2265A-ms98-a-0017	A.10	118.950125	119.650125		Vietnam	Vietnam
sw2265A-ms98-a-0017	A.12	119.650125	120.280750		[silence]	[silence]
sw2265A-ms98-a-0018	A.12	120.280750	120.873125		[silence]	[silence]
sw2265A-ms98-a-0018	A.12	120.873125	121.380750		Uh	uh
sw2265A-ms98-a-0018	A.12	121.380750	121.630750	<DEL>	---	but
sw2265A-ms98-a-0018	A.12	121.630750	122.051125		[silence]	[silence]
sw2265A-ms98-a-0019	A.12	122.051125	122.471125		[silence]	[silence]
sw2265A-ms98-a-0019	A.12	122.471125	122.557750	<DEL>	---	i
sw2265A-ms98-a-0019	A.12	122.557750	122.681125	<DEL>	---	mean
sw2265A-ms98-a-0019	A.12	122.681125	122.861125		let's	let's
sw2265A-ms98-a-0019	A.12	122.861125	123.101125		face	face
sw2265A-ms98-a-0019	A.12	123.101125	123.221125		it	it
sw2265A-ms98-a-0019	A.12	123.221125	123.591125	<DEL>	---	to[day's]-
sw2265A-ms98-a-0019	A.12	123.591125	124.171125		today's	today's
sw2265A-ms98-a-0019	A.12	124.171125	124.615375		uh	uh
sw2265A-ms98-a-0019	A.12	124.615375	124.830125		[silence]	[silence]
sw2265A-ms98-a-0019	A.12	124.830125	125.141125		means	means
sw2265A-ms98-a-0019	A.12	125.141125	125.251125		of	of
sw2265A-ms98-a-0019	A.12	125.251125	126.171125	<SUB>	communication	communications
sw2265A-ms98-a-0019	A.12	126.171125	126.311125		we	we
sw2265A-ms98-a-0019	A.12	126.311125	126.512500		could	could
sw2265A-ms98-a-0019	A.12	126.512500	126.636750		[silence]	[silence]
sw2265A-ms98-a-0019	A.12	126.636750	126.841250	<DEL>	---	uh
sw2265A-ms98-a-0019	A.12	126.841250	127.018250		[silence]	[silence]
sw2265A-ms98-a-0019	A.12	127.018250	127.434875	<DEL>	---	very
sw2265A-ms98-a-0019	A.12	127.434875	127.679750	<DEL>	---	well
sw2265A-ms98-a-0019	A.12	127.679750	127.771125		a	a
sw2265A-ms98-a-0019	A.12	127.771125	128.551125		newscaster	newscaster
sw2265A-ms98-a-0019	A.12	128.551125	128.731125		could	could
sw2265A-ms98-a-0019	A.12	128.731125	128.951125		very	very
sw2265A-ms98-a-0019	A.12	128.951125	129.164000		well	well
sw2265A-ms98-a-0019	A.12	129.164000	129.329625	<SUB>	giveaway	give
sw2265A-ms98-a-0019	A.12	129.329625	129.525375	<DEL>	---	aw[ay]-
sw2265A-ms98-a-0019	A.12	129.525375	129.862750		[silence]	[silence]
sw2265A-ms98-a-0019	A.12	129.862750	130.378750	<DEL>	---	away
sw2265A-ms98-a-0019	A.12	130.378750	130.776625		a	a
sw2265A-ms98-a-0019	A.12	130.776625	131.570625		[silence]	[silence]
sw2265A-ms98-a-0020	A.12	131.570625	131.650625		[silence]	[silence]
sw2265A-ms98-a-0020	A.12	131.650625	131.920625		piece	piece
sw2265A-ms98-a-0020	A.12	131.920625	131.990625		of	of
sw2265A-ms98-a-0020	A.12	131.990625	132.243125		top	top
sw2265A-ms98-a-0020	A.12	132.243125	132.666250		secret	secret
sw2265A-ms98-a-0020	A.12	132.666250	133.440625		information	information
sw2265A-ms98-a-0020	A.14	133.440625	134.143875		[silence]	[silence]
sw2265A-ms98-a-0021	A.14	134.143875	134.883875		[silence]	[silence]
sw2265A-ms98-a-0021	A.14	134.883875	135.443875		And	and
sw2265A-ms98-a-0021	A.14	135.443875	135.943500		uh	uh
sw2265A-ms98-a-0021	A.14	135.943500	136.310875		[silence]	[silence]
sw2265A-ms98-a-0022	A.14	136.310875	136.610875		[silence]	[silence]
sw2265A-ms98-a-0022	A.14	136.610875	136.890875		pat	pat
sw2265A-ms98-a-0022	A.14	136.890875	137.340875		himself	himself
sw2265A-ms98-a-0022	A.14	137.340875	137.460875		on	on
sw2265A-ms98-a-0022	A.14	137.460875	137.520875		the	the
sw2265A-ms98-a-0022	A.14	137.520875	137.860875		back	back
sw2265A-ms98-a-0022	A.14	137.860875	138.143625		for	for
sw2265A-ms98-a-0022	A.14	138.143625	138.514250		for	for
sw2265A-ms98-a-0022	A.14	138.514250	138.761125		uh	uh
sw2265A-ms98-a-0022	A.14	138.761125	139.205000		[silence]	[silence]
sw2265A-ms98-a-0023	A.14	139.205000	139.685000		[silence]	[silence]
sw2265A-ms98-a-0023	A.14	139.685000	139.985000		making	making
sw2265A-ms98-a-0023	A.14	139.985000	140.025000		a	a
sw2265A-ms98-a-0023	A.14	140.025000	140.235000	<SUB>	good	big
sw2265A-ms98-a-0023	A.14	140.235000	140.775000		scoop	scoop
sw2265A-ms98-a-0023	A.18	140.775000	141.020625		[silence]	[silence]
sw2265A-ms98-a-0024	A.18	141.020625	156.144375		[silence]	[silence]
sw2265A-ms98-a-0025	A.18	156.144375	156.669500		[silence]	[silence]
sw2265A-ms98-a-0025	A.18	156.669500	158.132500		[laughter]	[laughter]
sw2265A-ms98-a-0025	A.18	158.132500	159.633250		[silence]	[silence]
sw2265A-ms98-a-0025	A.18	159.633250	160.134375		Very	very
sw2265A-ms98-a-0025	A.18	160.134375	160.604375		true	true
sw2265A-ms98-a-0025	A.18	160.604375	160.734375		I	i
sw2265A-ms98-a-0025	A.18	160.734375	161.064375		find	find
sw2265A-ms98-a-0025	A.18	161.064375	161.264375	<CONT>	T-News	T
sw2265A-ms98-a-0025	A.18	161.264375	161.594375	<CONT>	+++	News
sw2265A-ms98-a-0025	A.18	161.594375	161.904375		very	very
sw2265A-ms98-a-0025	A.18	161.904375	162.444375		enlightening	enlightening
sw2265A-ms98-a-0025	A.18	162.444375	162.444375	<INS>	too	---
sw2265A-ms98-a-0025	A.20	162.444375	163.199375		[silence]	[silence]
sw2265A-ms98-a-0025	A.20	163.199375	163.636250		And	and
sw2265A-ms98-a-0025	A.20	163.636250	163.854375		I	i
sw2265A-ms98-a-0025	A.20	163.854375	164.194375		check	check
sw2265A-ms98-a-0025	A.20	164.194375	164.434375		that	that
sw2265A-ms98-a-0025	A.20	164.434375	165.164000		everyday	everyday
sw2265A-ms98-a-0025	A.20	165.164000	165.834375		[silence]	[silence]
sw2265A-ms98-a-0025	A.20	165.834375	166.000250	<DEL>	---	and
sw2265A-ms98-a-0025	A.20	166.000250	166.071750		Of	of
sw2265A-ms98-a-0025	A.20	166.071750	166.344375		course	course
sw2265A-ms98-a-0025	A.20	166.344375	166.534375		with	with
sw2265A-ms98-a-0025	A.20	166.534375	166.714375		that	that
sw2265A-ms98-a-0025	A.20	166.714375	166.984375		goes	goes
sw2265A-ms98-a-0025	A.20	166.984375	167.304375		along	along
sw2265A-ms98-a-0025	A.20	167.304375	167.558125	<SUB>	with	the
sw2265A-ms98-a-0025	A.20	167.558125	167.916000		[silence]	[silence]
sw2265A-ms98-a-0025	A.20	167.916000	168.064375		the	the
sw2265A-ms98-a-0025	A.20	168.064375	168.374375		stock	stock
sw2265A-ms98-a-0025	A.20	168.374375	168.734375		price	price
sw2265A-ms98-a-0025	A.20	168.734375	168.834375		of	of
sw2265A-ms98-a-0025	A.20	168.834375	169.447125	<CONT>	T	TI
sw2265A-ms98-a-0025	A.20	169.447125	169.447125	<CONT>	I	+++
sw2265A-ms98-a-0025	A.22	169.447125	169.837625		[silence]	[silence]
sw2265A-ms98-a-0026	A.22	169.837625	180.279750		[silence]	[silence]
sw2265A-ms98-a-0027	A.22	180.279750	180.539750		[silence]	[silence]
sw2265A-ms98-a-0027	A.22	180.539750	180.679750		Of	of
sw2265A-ms98-a-0027	A.22	180.679750	180.919750		course	course
sw2265A-ms98-a-0027	A.22	180.919750	181.099750	<CONT>	T-NEWS	T
sw2265A-ms98-a-0027	A.22	181.099750	181.419750	<CONT>	+++	News
sw2265A-ms98-a-0027	A.22	181.419750	181.769750	<DEL>	---	i[s]-
sw2265A-ms98-a-0027	A.22	181.769750	182.029750		is	is
sw2265A-ms98-a-0027	A.22	182.029750	182.189750		more	more
sw2265A-ms98-a-0027	A.22	182.189750	182.299750		or	or
sw2265A-ms98-a-0027	A.22	182.299750	182.459750		less	less
sw2265A-ms98-a-0027	A.22	182.459750	183.316125		headlines	headlines
sw2265A-ms98-a-0027	A.24	183.316125	183.930125		[silence]	[silence]
sw2265A-ms98-a-0027	A.24	183.930125	184.439750		Uh	uh
sw2265A-ms98-a-0027	A.24	184.439750	184.519750		I	i
sw2265A-ms98-a-0027	A.24	184.519750	184.669750		don't	don't
sw2265A-ms98-a-0027	A.24	184.669750	184.819750		think	think
sw2265A-ms98-a-0027	A.24	184.819750	185.059750		much	much
sw2265A-ms98-a-0027	A.24	185.059750	185.229750		of	of
sw2265A-ms98-a-0027	A.24	185.229750	185.519750		[silence]	[silence]
sw2265A-ms98-a-0027	A.24	185.519750	185.856125	<DEL>	---	of
sw2265A-ms98-a-0027	A.24	185.856125	186.183875		[silence]	[silence]
sw2265A-ms98-a-0027	A.24	186.183875	186.349750		their	their
sw2265A-ms98-a-0027	A.24	186.349750	186.769750		sports	sports
sw2265A-ms98-a-0027	A.24	186.769750	187.364875		coverage	coverage
sw2265A-ms98-a-0027	A.26	187.364875	188.204375		[silence]	[silence]
sw2265A-ms98-a-0028	A.26	188.204375	188.824375		[silence]	[silence]
sw2265A-ms98-a-0028	A.26	188.824375	188.964375	<SUB>	Only	all
sw2265A-ms98-a-0028	A.26	188.964375	189.054375	<DEL>	---	they
sw2265A-ms98-a-0028	A.26	189.054375	189.224375		give	give
sw2265A-ms98-a-0028	A.26	189.224375	189.294375		the	the
sw2265A-ms98-a-0028	A.26	189.294375	190.021875		scores	scores
sw2265A-ms98-a-0028	A.28	190.021875	190.344125		[silence]	[silence]
sw2265A-ms98-a-0029	A.28	190.344125	190.654125		[silence]	[silence]
sw2265A-ms98-a-0029	A.28	190.654125	190.974125		But	but
sw2265A-ms98-a-0029	A.28	190.974125	191.154125		uh	uh
sw2265A-ms98-a-0029	A.28	191.154125	191.374125		that's	that's
sw2265A-ms98-a-0029	A.28	191.374125	191.374125	<INS>	all	---
sw2265A-ms98-a-0029	A.28	191.374125	191.614125		right	right
sw2265A-ms98-a-0029	A.28	191.614125	191.724125		I'm	i'm
sw2265A-ms98-a-0029	A.28	191.724125	191.904125		not	not
sw2265A-ms98-a-0029	A.28	191.904125	192.347875		[silence]	[silence]
sw2265A-ms98-a-0030	A.28	192.347875	192.829125		[silence]	[silence]
sw2265A-ms98-a-0030	A.28	192.829125	193.117875	<DEL>	---	yeah
sw2265A-ms98-a-0030	A.28	193.117875	193.442875		outside	outside
sw2265A-ms98-a-0030	A.28	193.442875	193.597375		of	of
sw2265A-ms98-a-0030	A.28	193.597375	193.997875	<DEL>	---	of
sw2265A-ms98-a-0030	A.28	193.997875	194.257875	<DEL>	---	uh
sw2265A-ms98-a-0030	A.28	194.257875	194.537875		pro	pro
sw2265A-ms98-a-0030	A.28	194.537875	195.107875		football	football
sw2265A-ms98-a-0030	A.28	195.107875	195.207875		I'm	i'm
sw2265A-ms98-a-0030	A.28	195.207875	195.377875		not	not
sw2265A-ms98-a-0030	A.28	195.377875	195.567875		too	too
sw2265A-ms98-a-0030	A.28	195.567875	196.037875		interested	interested
sw2265A-ms98-a-0030	A.28	196.037875	196.117875		in	in
sw2265A-ms98-a-0030	A.28	196.117875	196.307875		other	other
sw2265A-ms98-a-0030	A.28	196.307875	196.447875	<SUB>	games	ga[mes]-
sw2265A-ms98-a-0030	A.28	196.447875	196.607875	<DEL>	---	uh
sw2265A-ms98-a-0030	A.28	196.607875	196.894250		other	other
sw2265A-ms98-a-0030	A.28	196.894250	197.071250		[silence]	[silence]
sw2265A-ms98-a-0030	A.28	197.071250	197.557875		sports	sports
sw2265A-ms98-a-0030	A.28	197.557875	198.037875		anyway	anyway
sw2265A-ms98-a-0030	A.30	198.037875	198.595000		[silence]	[silence]
sw2265A-ms98-a-0031	A.30	198.595000	199.425000		[silence]	[silence]
sw2265A-ms98-a-0031	A.30	199.425000	199.695000		But	but
sw2265A-ms98-a-0031	A.30	199.695000	199.695000	<INS>	the	---
sw2265A-ms98-a-0031	A.30	199.695000	199.855000		[silence]	[silence]
sw2265A-ms98-a-0031	A.30	199.855000	200.154250		uh	uh
sw2265A-ms98-a-0031	A.30	200.154250	200.444250	<DEL>	---	the
sw2265A-ms98-a-0031	A.30	200.444250	200.766500		[silence]	[silence]
sw2265A-ms98-a-0031	A.30	200.766500	200.912000	<DEL>	---	the
sw2265A-ms98-a-0031	A.30	200.912000	201.141500	<CONT>	T-NEWS	T
sw2265A-ms98-a-0031	A.30	201.141500	201.505000	<CONT>	+++	News
sw2265A-ms98-a-0031	A.30	201.505000	201.695000	<DEL>	---	is
sw2265A-ms98-a-0031	A.30	201.695000	201.795000		is	is
sw2265A-ms98-a-0031	A.30	201.795000	201.855000		a	a
sw2265A-ms98-a-0031	A.30	201.855000	202.035000		good	good
sw2265A-ms98-a-0031	A.30	202.035000	202.175000		way	way
sw2265A-ms98-a-0031	A.30	202.175000	202.275000		to	to
sw2265A-ms98-a-0031	A.30	202.275000	202.495000		keep	keep
sw2265A-ms98-a-0031	A.30	202.495000	202.635000	<CONT>	up-to-date	up
sw2265A-ms98-a-0031	A.30	202.635000	202.745000	<CONT>	+++	to
sw2265A-ms98-a-0031	A.30	202.745000	203.005000	<CONT>	+++	date
sw2265A-ms98-a-0031	A.30	203.005000	203.115000		I	i
sw2265A-ms98-a-0031	A.30	203.115000	203.335000		think	think
sw2265A-ms98-a-0031	A.30	203.335000	203.475000		they	they
sw2265A-ms98-a-0031	A.30	203.475000	203.625000		do	do
sw2265A-ms98-a-0031	A.30	203.625000	203.675000		a	a
sw2265A-ms98-a-0031	A.30	203.675000	203.905000		pretty	pretty
sw2265A-ms98-a-0031	A.30	203.905000	204.045000		good	good
sw2265A-ms98-a-0031	A.30	204.045000	204.445000		job	job
sw2265A-ms98-a-0031	A.30	204.445000	204.445000	<INS>	of	---
sw2265A-ms98-a-0031	A.30	204.445000	204.925000		selecting	selecting
sw2265A-ms98-a-0031	A.30	204.925000	204.985000		the	the
sw2265A-ms98-a-0031	A.30	204.985000	205.245000		most	most
sw2265A-ms98-a-0031	A.30	205.245000	205.675000		important	important
sw2265A-ms98-a-0031	A.30	205.675000	206.130625		items	items
sw2265A-ms98-a-0031	A.32	206.130625	206.645750		[silence]	[silence]
sw2265A-ms98-a-0032	A.32	206.645750	215.697000		[silence]	[silence]
sw2265A-ms98-a-0033	A.32	215.697000	216.187000		[silence]	[silence]
sw2265A-ms98-a-0033	A.32	216.187000	216.691000	<SUB>	Huh-uh	uh-huh
sw2265A-ms98-a-0033	A.34	216.691000	217.193375		[silence]	[silence]
sw2265A-ms98-a-0034	A.34	217.193375	221.845000		[silence]	[silence]
sw2265A-ms98-a-0035	A.34	221.845000	222.205000		[silence]	[silence]
sw2265A-ms98-a-0035	A.34	222.205000	222.515000		Well	well
sw2265A-ms98-a-0035	A.34	222.515000	222.575000		I	i
sw2265A-ms98-a-0035	A.34	222.575000	222.875000		spent	spent
sw2265A-ms98-a-0035	A.34	222.875000	223.165000		twenty	twenty
sw2265A-ms98-a-0035	A.34	223.165000	223.505000		years	years
sw2265A-ms98-a-0035	A.34	223.505000	223.665000		in	in
sw2265A-ms98-a-0035	A.34	223.665000	223.925000	<SUB>	profession	prof[essional]-
sw2265A-ms98-a-0035	A.34	223.925000	224.155000	<DEL>	---	in
sw2265A-ms98-a-0035	A.34	224.155000	224.486500	<DEL>	---	uh
sw2265A-ms98-a-0035	A.34	224.486500	224.738875		[silence]	[silence]
sw2265A-ms98-a-0035	A.34	224.738875	225.185000		commercial	commercial
sw2265A-ms98-a-0035	A.34	225.185000	226.065000		broadcasting	broadcasting
sw2265A-ms98-a-0035	A.34	226.065000	226.215000		[silence]	[silence]
sw2265A-ms98-a-0035	A.34	226.215000	226.515000	<DEL>	---	ten
sw2265A-ms98-a-0035	A.34	226.515000	226.715000	<DEL>	---	in
sw2265A-ms98-a-0035	A.34	226.715000	227.125000		radio	radio
sw2265A-ms98-a-0035	A.34	227.125000	227.215000		and	and
sw2265A-ms98-a-0035	A.34	227.215000	227.305000	<DEL>	---	then
sw2265A-ms98-a-0035	A.34	227.305000	227.625000	<DEL>	---	ten
sw2265A-ms98-a-0035	A.34	227.625000	227.855000	<DEL>	---	in
sw2265A-ms98-a-0035	A.34	227.855000	227.925000	<DEL>	---	uh
sw2265A-ms98-a-0035	A.34	227.925000	228.783625	<CONT>	T	TV
sw2265A-ms98-a-0035	A.34	228.783625	228.783625	<CONT>	V	+++
sw2265A-ms98-a-0035	A.34	228.783625	229.227750		[silence]	[silence]
sw2265A-ms98-a-0036	A.34	229.227750	229.717750		[silence]	[silence]
sw2265A-ms98-a-0036	A.34	229.717750	230.137750		and	and
sw2265A-ms98-a-0036	A.34	230.137750	230.197750		I	i
sw2265A-ms98-a-0036	A.34	230.197750	230.347750		know	know
sw2265A-ms98-a-0036	A.34	230.347750	230.447750		what	what
sw2265A-ms98-a-0036	A.34	230.447750	230.567750		it	it
sw2265A-ms98-a-0036	A.34	230.567750	230.837750		takes	takes
sw2265A-ms98-a-0036	A.34	230.837750	230.947750		to	to
sw2265A-ms98-a-0036	A.34	230.947750	231.147750		get	get
sw2265A-ms98-a-0036	A.34	231.147750	231.347750		some	some
sw2265A-ms98-a-0036	A.34	231.347750	231.417750		of	of
sw2265A-ms98-a-0036	A.34	231.417750	231.647750		those	those
sw2265A-ms98-a-0036	A.34	231.647750	231.827750		little	little
sw2265A-ms98-a-0036	A.34	231.827750	232.057750		bits	bits
sw2265A-ms98-a-0036	A.34	232.057750	232.087750	<DEL>	---	a[nd]-
sw2265A-ms98-a-0036	A.34	232.087750	232.325750	<DEL>	---	of
sw2265A-ms98-a-0036	A.34	232.325750	232.446375		[silence]	[silence]
sw2265A-ms98-a-0036	A.34	232.446375	232.697750	<DEL>	---	bits
sw2265A-ms98-a-0036	A.34	232.697750	232.817750		and	and
sw2265A-ms98-a-0036	A.34	232.817750	233.177750		pieces	pieces
sw2265A-ms98-a-0036	A.34	233.177750	233.287750		of	of
sw2265A-ms98-a-0036	A.34	233.287750	233.607750		news	news
sw2265A-ms98-a-0036	A.34	233.607750	233.777750		on	on
sw2265A-ms98-a-0036	A.34	233.777750	233.837750		the	the
sw2265A-ms98-a-0036	A.34	233.837750	234.287000		air	air
sw2265A-ms98-a-0036	A.36	234.287000	234.992625		[silence]	[silence]
sw2265A-ms98-a-0037	A.36	234.992625	235.502625		[silence]	[silence]
sw2265A-ms98-a-0037	A.36	235.502625	235.885000	<DEL>	---	uh
sw2265A-ms98-a-0037	A.36	235.885000	235.976750		I	i
sw2265A-ms98-a-0037	A.36	235.976750	236.112625		mean	mean
sw2265A-ms98-a-0037	A.36	236.112625	236.302625		there	there
sw2265A-ms98-a-0037	A.36	236.302625	236.452625		there	there
sw2265A-ms98-a-0037	A.36	236.452625	236.522625		are	are
sw2265A-ms98-a-0037	A.36	236.522625	236.982625		times	times
sw2265A-ms98-a-0037	A.36	236.982625	237.313375		where	where
sw2265A-ms98-a-0037	A.36	237.313375	237.648500		uh	uh
sw2265A-ms98-a-0037	A.36	237.648500	238.502625		[silence]	[silence]
sw2265A-ms98-a-0037	A.36	238.502625	238.792625	<SUB>	the	vide[o]-
sw2265A-ms98-a-0037	A.36	238.792625	238.932625	<DEL>	---	uh
sw2265A-ms98-a-0037	A.36	238.932625	239.705375		reporter	reporter
sw2265A-ms98-a-0037	A.36	239.705375	239.980250		[silence]	[silence]
sw2265A-ms98-a-0037	A.36	239.980250	240.352625		actually	actually
sw2265A-ms98-a-0037	A.36	240.352625	240.522625		[silence]	[silence]
sw2265A-ms98-a-0037	A.36	240.522625	240.842625		will	will
sw2265A-ms98-a-0037	A.36	240.842625	241.082625		risk	risk
sw2265A-ms98-a-0037	A.36	241.082625	241.272625		is	is
sw2265A-ms98-a-0037	A.36	241.272625	241.742625		life	life
sw2265A-ms98-a-0037	A.36	241.742625	242.472625		[silence]	[silence]
sw2265A-ms98-a-0037	A.36	242.472625	242.752625		life	life
sw2265A-ms98-a-0037	A.36	242.752625	242.942625		and	and
sw2265A-ms98-a-0037	A.36	242.942625	243.182625		limb	limb
sw2265A-ms98-a-0037	A.36	243.182625	243.672625		[silence]	[silence]
sw2265A-ms98-a-0037	A.36	243.672625	243.762625		I've	i've
sw2265A-ms98-a-0037	A.36	243.762625	243.962625		seen	seen
sw2265A-ms98-a-0037	A.36	243.962625	244.052625		it	it
sw2265A-ms98-a-0037	A.36	244.052625	244.332625		happen	happen
sw2265A-ms98-a-0037	A.36	244.332625	244.662625		time	time
sw2265A-ms98-a-0037	A.36	244.662625	244.762625		and	and
sw2265A-ms98-a-0037	A.36	244.762625	245.042625		time	time
sw2265A-ms98-a-0037	A.36	245.042625	245.455375		again	again
sw2265A-ms98-a-0037	A.36	245.455375	245.927000		[silence]	[silence]
sw2265A-ms98-a-0038	A.36	245.927000	246.757000		[silence]	[silence]
sw2265A-ms98-a-0038	A.36	246.757000	247.277000		And	and
sw2265A-ms98-a-0038	A.36	247.277000	247.720000		uh	uh
sw2265A-ms98-a-0038	A.36	247.720000	248.526125		[silence]	[silence]
sw2265A-ms98-a-0038	A.36	248.526125	248.637000		[noise]	[noise]
sw2265A-ms98-a-0038	A.36	248.637000	248.805000		well	well
sw2265A-ms98-a-0038	A.36	248.805000	248.884125		I	i
sw2265A-ms98-a-0038	A.36	248.884125	249.167000		remember	remember
sw2265A-ms98-a-0038	A.36	249.167000	249.397000		one	one
sw2265A-ms98-a-0038	A.36	249.397000	249.667000		time	time
sw2265A-ms98-a-0038	A.36	249.667000	249.807000		up	up
sw2265A-ms98-a-0038	A.36	249.807000	249.867000		in	in
sw2265A-ms98-a-0038	A.36	249.867000	250.287000		Nashville	Nashville
sw2265A-ms98-a-0038	A.36	250.287000	250.887000		Tennessee	Tennessee
sw2265A-ms98-a-0038	A.36	250.887000	251.037000	<DEL>	---	was
sw2265A-ms98-a-0038	A.36	251.037000	251.197000		One	one
sw2265A-ms98-a-0038	A.36	251.197000	251.385000		of	of
sw2265A-ms98-a-0038	A.36	251.385000	251.543125		[silence]	[silence]
sw2265A-ms98-a-0038	A.36	251.543125	251.787000		the	the
sw2265A-ms98-a-0038	A.36	251.787000	251.837000	<DEL>	---	f[ellows]-
sw2265A-ms98-a-0038	A.36	251.837000	252.157000		fellows	fellows
sw2265A-ms98-a-0038	A.36	252.157000	252.347000		got	got
sw2265A-ms98-a-0038	A.36	252.347000	252.657000		mixed	mixed
sw2265A-ms98-a-0038	A.36	252.657000	252.781625		up	up
sw2265A-ms98-a-0038	A.36	252.781625	252.903875		in	in
sw2265A-ms98-a-0038	A.36	252.903875	253.175125		a	a
sw2265A-ms98-a-0038	A.36	253.175125	253.377000	<DEL>	---	with
sw2265A-ms98-a-0038	A.36	253.377000	253.517000	<DEL>	---	a
sw2265A-ms98-a-0038	A.36	253.517000	253.877000		riot	riot
sw2265A-ms98-a-0038	A.36	253.877000	253.877000	<INS>	that	---
sw2265A-ms98-a-0038	A.36	253.877000	253.877000	<INS>	was	---
sw2265A-ms98-a-0038	A.36	253.877000	254.177000		going	going
sw2265A-ms98-a-0038	A.36	254.177000	254.427000		on	on
sw2265A-ms98-a-0038	A.36	254.427000	254.697000		down	down
sw2265A-ms98-a-0038	A.36	254.697000	254.937000		there	there
sw2265A-ms98-a-0038	A.38	254.937000	255.866375		[silence]	[silence]
sw2265A-ms98-a-0038	A.38	255.866375	256.005625		but	but
sw2265A-ms98-a-0038	A.38	256.005625	256.088250		he	he
sw2265A-ms98-a-0038	A.38	256.088250	256.191750		was	was
sw2265A-ms98-a-0038	A.38	256.191750	256.497000		lucky	lucky
sw2265A-ms98-a-0038	A.38	256.497000	256.687000		he	he
sw2265A-ms98-a-0038	A.38	256.687000	256.857000		got	got
sw2265A-ms98-a-0038	A.38	256.857000	257.027000		out	out
sw2265A-ms98-a-0038	A.38	257.027000	257.127000		of	of
sw2265A-ms98-a-0038	A.38	257.127000	257.317000		it	it
sw2265A-ms98-a-0038	A.38	257.317000	257.613250		[silence]	[silence]
sw2265A-ms98-a-0039	A.38	257.613250	257.993250		[silence]	[silence]
sw2265A-ms98-a-0039	A.38	257.993250	258.103250		for	for
sw2265A-ms98-a-0039	A.38	258.103250	258.333250		some	some
sw2265A-ms98-a-0039	A.38	258.333250	258.653250		reason	reason
sw2265A-ms98-a-0039	A.38	258.653250	259.023250		Because	because
sw2265A-ms98-a-0039	A.38	259.023250	259.123250		he	he
sw2265A-ms98-a-0039	A.38	259.123250	259.263250		was	was
sw2265A-ms98-a-0039	A.38	259.263250	259.633250		carrying	carrying
sw2265A-ms98-a-0039	A.38	259.633250	259.673250		a	a
sw2265A-ms98-a-0039	A.38	259.673250	260.213250		camera	camera
sw2265A-ms98-a-0039	A.38	260.213250	260.596750		[silence]	[silence]
sw2265A-ms98-a-0040	A.38	260.596750	261.076750		[silence]	[silence]
sw2265A-ms98-a-0040	A.38	261.076750	261.717875		uh	uh
sw2265A-ms98-a-0040	A.38	261.717875	262.158500		[silence]	[silence]
sw2265A-ms98-a-0040	A.38	262.158500	262.326750		they	they
sw2265A-ms98-a-0040	A.38	262.326750	262.496750		left	left
sw2265A-ms98-a-0040	A.38	262.496750	262.586750		him	him
sw2265A-ms98-a-0040	A.38	262.586750	263.083000		alone	alone
sw2265A-ms98-a-0040	A.40	263.083000	263.469000		[silence]	[silence]
sw2265A-ms98-a-0041	A.40	263.469000	266.185250		[silence]	[silence]
sw2265A-ms98-a-0042	A.40	266.185250	266.735250		[silence]	[silence]
sw2265A-ms98-a-0042	A.40	266.735250	267.115250	<SUB>	Huh-uh	um-hum
sw2265A-ms98-a-0042	@@A.42	267.115250	267.615500		[silence]	[silence]
sw2265A-ms98-a-0043	@@A.42	267.615500	270.911375		[silence]	[silence]
sw2265A-ms98-a-0044	@@A.42	270.911375	271.401375		[silence]	[silence]
sw2265A-ms98-a-0044	@@A.42	271.401375	271.681375		Nice	nice
sw2265A-ms98-a-0044	@@A.42	271.681375	271.971375	<SUB>	to	talking
sw2265A-ms98-a-0044	@@A.42	271.971375	271.971375	<INS>	talk	---
sw2265A-ms98-a-0044	@@A.42	271.971375	272.031375		to	to
sw2265A-ms98-a-0044	@@A.42	272.031375	272.121375		you	you
sw2265A-ms98-a-0044	@@A.42	272.121375	272.291375		too	too
sw2265A-ms98-a-0044	@@A.42	272.291375	272.664250		Jim	Jim
sw2265A-ms98-a-0044	A.44	272.664250	273.315625		[silence]	[silence]
sw2265A-ms98-a-0045	A.44	273.315625	274.826375		[silence]	[silence]
sw2265A-ms98-a-0046	A.44	274.826375	275.266375		[silence]	[silence]
sw2265A-ms98-a-0046	A.44	275.266375	275.741875		No	no
sw2265A-ms98-a-0046	A.46	275.741875	276.204875		[silence]	[silence]
sw2265A-ms98-a-0047	A.46	276.204875	279.351875		[silence]	[silence]
sw2265A-ms98-a-0048	A.46	279.351875	279.624125		[silence]	[silence]
sw2265A-ms98-a-0048	A.46	279.624125	280.001875		Oh	oh
sw2265A-ms98-a-0048	A.46	280.001875	280.131875		Well	well
sw2265A-ms98-a-0048	A.46	280.131875	280.191875		I'll	i'll
sw2265A-ms98-a-0048	A.46	280.191875	280.321875	<DEL>	---	have
sw2265A-ms98-a-0048	A.46	280.321875	280.471875	<DEL>	---	to
sw2265A-ms98-a-0048	A.46	280.471875	280.591875		be	be
sw2265A-ms98-a-0048	A.46	280.591875	280.871875		looking	looking
sw2265A-ms98-a-0048	A.46	280.871875	281.111875		for	for
sw2265A-ms98-a-0048	A.46	281.111875	281.171875		it	it
sw2265A-ms98-a-0048	A.46	281.171875	281.461875		then	then
sw2265A-ms98-a-0048	A.48	281.461875	282.216500		[noise]	[noise]
sw2265A-ms98-a-0048	A.48	282.216500	282.430125		[silence]	[silence]
sw2265A-ms98-a-0049	A.48	282.430125	283.040125		[silence]	[silence]
sw2265A-ms98-a-0049	A.48	283.040125	283.160125		Is	is
sw2265A-ms98-a-0049	A.48	283.160125	283.320125		that	that
sw2265A-ms98-a-0049	A.48	283.320125	283.780125		right	right
sw2265A-ms98-a-0049	A.50	283.780125	284.070125		Well	well
sw2265A-ms98-a-0049	A.50	284.070125	284.510125		good	good
sw2265A-ms98-a-0049	A.52	284.510125	284.794125		[silence]	[silence]
sw2265A-ms98-a-0050	A.52	284.794125	285.514125		[silence]	[silence]
sw2265A-ms98-a-0050	A.52	285.514125	285.684125		You	you
sw2265A-ms98-a-0050	A.52	285.684125	285.948500		too	too
sw2265A-ms98-a-0050	A.52	285.948500	286.099250		[silence]	[silence]
sw2265A-ms98-a-0050	A.52	286.099250	288.558875		[noise]	[noise]
sw2265A-ms98-a-0050	A.52	288.558875	288.615750		[silence]	[silence]
