sw2232A-ms98-a-0001	A.1	0.000000	0.210000		[silence]	[silence]
sw2232A-ms98-a-0001	A.1	0.210000	0.360000		[noise]	[noise]
sw2232A-ms98-a-0001	A.1	0.360000	0.590250		[silence]	[silence]
sw2232A-ms98-a-0002	A.1	0.590250	0.704375		[silence]	[silence]
sw2232A-ms98-a-0002	A.1	0.704375	1.420875		Okay	okay
sw2232A-ms98-a-0002	A.1	1.420875	1.593125		[silence]	[silence]
sw2232A-ms98-a-0002	A.1	1.593125	1.840250		So	so
sw2232A-ms98-a-0002	A.1	1.840250	1.980250		what	what
sw2232A-ms98-a-0002	A.1	1.980250	2.040250		are	are
sw2232A-ms98-a-0002	A.1	2.040250	2.237000		your	your
sw2232A-ms98-a-0002	A.1	2.237000	2.596500	<SUB>	opinions	opinion
sw2232A-ms98-a-0002	A.1	2.596500	2.733500		on	on
sw2232A-ms98-a-0002	A.1	2.733500	2.899625		it	it
sw2232A-ms98-a-0002	A.3	2.899625	2.991500		[silence]	[silence]
sw2232A-ms98-a-0003	A.3	2.991500	9.519750		[silence]	[silence]
sw2232A-ms98-a-0004	A.3	9.519750	9.919750		[silence]	[silence]
sw2232A-ms98-a-0004	A.3	9.919750	10.409750	<SUB>	Uh-huh	um-hum
sw2232A-ms98-a-0004	A.5	10.409750	11.120000		[silence]	[silence]
sw2232A-ms98-a-0005	A.5	11.120000	17.048875		[silence]	[silence]
sw2232A-ms98-a-0006	A.5	17.048875	17.662750		[silence]	[silence]
sw2232A-ms98-a-0006	A.5	17.662750	18.091000	<SUB>	Uh-huh	um-hum
sw2232A-ms98-a-0006	A.7	18.091000	18.943875		[silence]	[silence]
sw2232A-ms98-a-0007	A.7	18.943875	32.026375		[silence]	[silence]
sw2232A-ms98-a-0008	A.7	32.026375	32.677000		[silence]	[silence]
sw2232A-ms98-a-0008	A.7	32.677000	33.067250	<SUB>	Uh-huh	um-hum
sw2232A-ms98-a-0008	A.9	33.067250	33.496375		[silence]	[silence]
sw2232A-ms98-a-0009	A.9	33.496375	36.721375		[silence]	[silence]
sw2232A-ms98-a-0010	A.9	36.721375	36.981375		[silence]	[silence]
sw2232A-ms98-a-0010	A.9	36.981375	37.111375	<SUB>	N-	n[ot]-
sw2232A-ms98-a-0010	A.9	37.111375	37.791375		not	not
sw2232A-ms98-a-0010	A.9	37.791375	38.401375		much	much
sw2232A-ms98-a-0010	A.9	38.401375	38.598625		I'm	i'm
sw2232A-ms98-a-0010	A.9	38.598625	38.937625	<CONT>	twenty-eight	twenty
sw2232A-ms98-a-0010	A.9	38.937625	39.501375	<CONT>	+++	eight
sw2232A-ms98-a-0010	A.9	39.501375	39.990750		so	so
sw2232A-ms98-a-0010	A.9	39.990750	40.608375		[silence]	[silence]
sw2232A-ms98-a-0010	A.9	40.608375	40.971375		No	no
sw2232A-ms98-a-0010	A.9	40.971375	41.031375		I	i
sw2232A-ms98-a-0010	A.9	41.031375	41.291375		really	really
sw2232A-ms98-a-0010	A.9	41.291375	41.431375		don't	don't
sw2232A-ms98-a-0010	A.9	41.431375	41.771375		remember	remember
sw2232A-ms98-a-0010	A.9	41.771375	42.141375		anything	anything
sw2232A-ms98-a-0010	A.9	42.141375	42.541375		about	about
sw2232A-ms98-a-0010	A.9	42.541375	42.901375		it	it
sw2232A-ms98-a-0010	A.9	42.901375	42.981375		I	i
sw2232A-ms98-a-0010	A.9	42.981375	43.221375		guess	guess
sw2232A-ms98-a-0010	A.9	43.221375	43.291375		I	i
sw2232A-ms98-a-0010	A.9	43.291375	43.405750		was	was
sw2232A-ms98-a-0010	A.9	43.405750	43.744750		about	about
sw2232A-ms98-a-0010	A.9	43.744750	44.141375		ten	ten
sw2232A-ms98-a-0010	A.9	44.141375	44.251375		when	when
sw2232A-ms98-a-0010	A.9	44.251375	44.371375		it	it
sw2232A-ms98-a-0010	A.9	44.371375	44.711375		ended	ended
sw2232A-ms98-a-0010	A.9	44.711375	45.061375		Right	right
sw2232A-ms98-a-0010	A.11	45.061375	45.501875		[silence]	[silence]
sw2232A-ms98-a-0011	A.11	45.501875	47.041875		[silence]	[silence]
sw2232A-ms98-a-0012	A.11	47.041875	47.151875		[silence]	[silence]
sw2232A-ms98-a-0012	A.11	47.151875	47.211875		I	i
sw2232A-ms98-a-0012	A.11	47.211875	47.385875		was	was
sw2232A-ms98-a-0012	A.11	47.385875	47.518125		born	born
sw2232A-ms98-a-0012	A.11	47.518125	47.661875		in	in
sw2232A-ms98-a-0012	A.11	47.661875	48.138125	<CONT>	sixty-two	sixty
sw2232A-ms98-a-0012	A.11	48.138125	48.571875	<CONT>	+++	two
sw2232A-ms98-a-0012	A.11	48.571875	48.741875		so	so
sw2232A-ms98-a-0012	A.11	48.741875	48.921875		when	when
sw2232A-ms98-a-0012	A.11	48.921875	49.061875		did	did
sw2232A-ms98-a-0012	A.11	49.061875	49.191875		it	it
sw2232A-ms98-a-0012	A.11	49.191875	49.625625		end	end
sw2232A-ms98-a-0012	A.13	49.625625	49.810250		[silence]	[silence]
sw2232A-ms98-a-0013	A.13	49.810250	55.519250		[silence]	[silence]
sw2232A-ms98-a-0014	A.13	55.519250	55.819250		[silence]	[silence]
sw2232A-ms98-a-0014	A.13	55.819250	56.675000		Yeah	yeah
sw2232A-ms98-a-0014	A.15	56.675000	57.088500		[silence]	[silence]
sw2232A-ms98-a-0015	A.15	57.088500	57.558500		[silence]	[silence]
sw2232A-ms98-a-0015	A.15	57.558500	57.698375	<SUB>	Because	so
sw2232A-ms98-a-0015	A.15	57.698375	57.766875		I	i
sw2232A-ms98-a-0015	A.15	57.766875	58.063375		was	was
sw2232A-ms98-a-0015	A.15	58.063375	58.473875		ten	ten
sw2232A-ms98-a-0015	A.15	58.473875	58.638500		and	and
sw2232A-ms98-a-0015	A.15	58.638500	58.708500		I	i
sw2232A-ms98-a-0015	A.15	58.708500	58.888500		don't	don't
sw2232A-ms98-a-0015	A.15	58.888500	59.258500		remember	remember
sw2232A-ms98-a-0015	A.15	59.258500	59.318500		a	a
sw2232A-ms98-a-0015	A.15	59.318500	59.768125		lot	lot
sw2232A-ms98-a-0015	A.15	59.768125	60.294500		about	about
sw2232A-ms98-a-0015	A.15	60.294500	60.469875		[silence]	[silence]
sw2232A-ms98-a-0016	A.15	60.469875	60.779875		[silence]	[silence]
sw2232A-ms98-a-0016	A.15	60.779875	61.193625		anything	anything
sw2232A-ms98-a-0016	A.15	61.193625	61.355625		at	at
sw2232A-ms98-a-0016	A.15	61.355625	61.539875		that	that
sw2232A-ms98-a-0016	A.15	61.539875	61.769875		time	time
sw2232A-ms98-a-0016	A.15	61.769875	61.859875		in	in
sw2232A-ms98-a-0016	A.15	61.859875	61.969875		my	my
sw2232A-ms98-a-0016	A.15	61.969875	62.429875		life	life
sw2232A-ms98-a-0016	A.15	62.429875	62.649875		very	very
sw2232A-ms98-a-0016	A.15	62.649875	63.127750		much	much
sw2232A-ms98-a-0016	A.15	63.127750	63.349875		in	in
sw2232A-ms98-a-0016	A.17	63.349875	63.609875		great	great
sw2232A-ms98-a-0016	A.17	63.609875	64.288750		detail	detail
sw2232A-ms98-a-0016	A.19	64.288750	64.657500		[silence]	[silence]
sw2232A-ms98-a-0017	A.19	64.657500	68.813625		[silence]	[silence]
sw2232A-ms98-a-0018	A.19	68.813625	69.503625		[silence]	[silence]
sw2232A-ms98-a-0018	A.19	69.503625	69.793625		No	no
sw2232A-ms98-a-0018	A.19	69.793625	69.925375		I	i
sw2232A-ms98-a-0018	A.19	69.925375	70.315000		didn't	didn't
sw2232A-ms98-a-0018	A.21	70.315000	70.438125		[silence]	[silence]
sw2232A-ms98-a-0019	A.21	70.438125	70.558125		[silence]	[silence]
sw2232A-ms98-a-0019	A.21	70.558125	70.696125		but	but
sw2232A-ms98-a-0019	A.21	70.696125	70.846375	<SUB>	I	i-
sw2232A-ms98-a-0019	A.21	70.846375	71.045000		I	i
sw2232A-ms98-a-0019	A.21	71.045000	71.311500		did	did
sw2232A-ms98-a-0019	A.21	71.311500	71.588125		read	read
sw2232A-ms98-a-0019	A.21	71.588125	71.658125		the	the
sw2232A-ms98-a-0019	A.21	71.658125	72.078125		book	book
sw2232A-ms98-a-0019	A.21	72.078125	72.188125		[silence]	[silence]
sw2232A-ms98-a-0019	A.21	72.188125	72.388125		I	i
sw2232A-ms98-a-0019	A.21	72.388125	72.458125		ha-	ha[ve]-
sw2232A-ms98-a-0019	A.21	72.458125	72.678125		do	do
sw2232A-ms98-a-0019	A.21	72.678125	72.858125	<SUB>	ha-	have
sw2232A-ms98-a-0019	A.21	72.858125	72.953000		I	i
sw2232A-ms98-a-0019	A.21	72.953000	73.148125		have	have
sw2232A-ms98-a-0019	A.21	73.148125	73.317875		six	six
sw2232A-ms98-a-0019	A.21	73.317875	73.543875		years	years
sw2232A-ms98-a-0019	A.21	73.543875	73.618125		of	of
sw2232A-ms98-a-0019	A.21	73.618125	74.206125		college	college
sw2232A-ms98-a-0019	A.21	74.206125	74.454750		[silence]	[silence]
sw2232A-ms98-a-0020	A.21	74.454750	74.693625		[silence]	[silence]
sw2232A-ms98-a-0020	A.21	74.693625	74.777625		so	so
sw2232A-ms98-a-0020	A.21	74.777625	74.887000		I	i
sw2232A-ms98-a-0020	A.21	74.887000	75.035500		did	did
sw2232A-ms98-a-0020	A.21	75.035500	75.168750		[silence]	[silence]
sw2232A-ms98-a-0020	A.21	75.168750	75.609000		read	read
sw2232A-ms98-a-0020	A.21	75.609000	75.774750		and	and
sw2232A-ms98-a-0020	A.21	75.774750	76.182625		study	study
sw2232A-ms98-a-0020	A.21	76.182625	76.344625		about	about
sw2232A-ms98-a-0020	A.21	76.344625	76.437125		the	the
sw2232A-ms98-a-0020	A.21	76.437125	76.749750		Vietnam	Vietnam
sw2232A-ms98-a-0020	A.21	76.749750	77.044750		war	War
sw2232A-ms98-a-0020	A.21	77.044750	77.264750		though	though
sw2232A-ms98-a-0020	A.21	77.264750	77.454750		So	so
sw2232A-ms98-a-0020	A.21	77.454750	77.534750		I	i
sw2232A-ms98-a-0020	A.21	77.534750	77.842125		am	am
sw2232A-ms98-a-0020	A.21	77.842125	78.135875		pretty	pretty
sw2232A-ms98-a-0020	A.21	78.135875	78.244750		fa-	fa[miliar]-
sw2232A-ms98-a-0020	A.21	78.244750	78.344750		you	you
sw2232A-ms98-a-0020	A.21	78.344750	78.444750		know	know
sw2232A-ms98-a-0020	A.21	78.444750	78.645875		I'm	i'm
sw2232A-ms98-a-0020	A.21	78.645875	78.830375		[silence]	[silence]
sw2232A-ms98-a-0020	A.21	78.830375	79.024750		more	more
sw2232A-ms98-a-0020	A.23	79.024750	79.384750		familiar	familiar
sw2232A-ms98-a-0020	A.23	79.384750	79.527375		with	with
sw2232A-ms98-a-0020	A.23	79.527375	79.665125		it	it
sw2232A-ms98-a-0020	A.23	79.665125	79.870375		than	than
sw2232A-ms98-a-0020	A.25	79.870375	80.120000		[silence]	[silence]
sw2232A-ms98-a-0021	A.25	80.120000	81.337000		[silence]	[silence]
sw2232A-ms98-a-0022	A.25	81.337000	81.577000		[silence]	[silence]
sw2232A-ms98-a-0022	A.25	81.577000	82.102750		Mine	mine
sw2232A-ms98-a-0022	A.25	82.102750	82.279500		I	i
sw2232A-ms98-a-0022	A.25	82.279500	82.737000		think	think
sw2232A-ms98-a-0022	A.25	82.737000	83.251875		uh	uh
sw2232A-ms98-a-0022	A.25	83.251875	84.257375		[silence]	[silence]
sw2232A-ms98-a-0022	A.25	84.257375	84.326750		I	i
sw2232A-ms98-a-0022	A.25	84.326750	84.557000		think	think
sw2232A-ms98-a-0022	A.25	84.557000	84.747000		that	that
sw2232A-ms98-a-0022	A.25	84.747000	84.887000		there	there
sw2232A-ms98-a-0022	A.25	84.887000	85.067000		was	was
sw2232A-ms98-a-0022	A.25	85.067000	85.137000		a	a
sw2232A-ms98-a-0022	A.25	85.137000	85.347000		lot	lot
sw2232A-ms98-a-0022	A.25	85.347000	85.427000		of	of
sw2232A-ms98-a-0022	A.25	85.427000	86.017000		rebellion	rebellion
sw2232A-ms98-a-0022	A.25	86.017000	86.127000		in	in
sw2232A-ms98-a-0022	A.25	86.127000	86.217000		our	our
sw2232A-ms98-a-0022	A.25	86.217000	86.995000		nation	nation
sw2232A-ms98-a-0022	A.25	86.995000	87.138125		[silence]	[silence]
sw2232A-ms98-a-0022	A.25	87.138125	87.337000		and	and
sw2232A-ms98-a-0022	A.25	87.337000	87.923000		that	that
sw2232A-ms98-a-0022	A.25	87.923000	88.437500		[silence]	[silence]
sw2232A-ms98-a-0023	A.25	88.437500	88.720500		[silence]	[silence]
sw2232A-ms98-a-0023	A.25	88.720500	88.873375		I	i
sw2232A-ms98-a-0023	A.25	88.873375	89.087500		think	think
sw2232A-ms98-a-0023	A.25	89.087500	89.177500		it	it
sw2232A-ms98-a-0023	A.25	89.177500	89.367500		was	was
sw2232A-ms98-a-0023	A.25	89.367500	89.477500		the	the
sw2232A-ms98-a-0023	A.25	89.477500	89.777500		right	right
sw2232A-ms98-a-0023	A.25	89.777500	89.977500		thing	thing
sw2232A-ms98-a-0023	A.25	89.977500	90.067500		to	to
sw2232A-ms98-a-0023	A.25	90.067500	90.407500		do	do
sw2232A-ms98-a-0023	A.25	90.407500	90.607500		to	to
sw2232A-ms98-a-0023	A.25	90.607500	90.887500		try	try
sw2232A-ms98-a-0023	A.25	90.887500	91.447500		and	and
sw2232A-ms98-a-0023	A.25	91.447500	91.857500		not	not
sw2232A-ms98-a-0023	A.25	91.857500	91.987500		to	to
sw2232A-ms98-a-0023	A.25	91.987500	92.282500		take	take
sw2232A-ms98-a-0023	A.25	92.282500	92.659625		away	away
sw2232A-ms98-a-0023	A.25	92.659625	93.119125		to	to
sw2232A-ms98-a-0023	A.25	93.119125	93.422500		[silence]	[silence]
sw2232A-ms98-a-0023	A.25	93.422500	93.629750		you	you
sw2232A-ms98-a-0023	A.25	93.629750	93.887500		know	know
sw2232A-ms98-a-0023	A.25	93.887500	94.117500		just	just
sw2232A-ms98-a-0023	A.25	94.117500	94.327500		leave	leave
sw2232A-ms98-a-0023	A.25	94.327500	94.427500		their	their
sw2232A-ms98-a-0023	A.25	94.427500	94.967500		freedoms	freedoms
sw2232A-ms98-a-0023	A.25	94.967500	95.129500		[silence]	[silence]
sw2232A-ms98-a-0023	A.25	95.129500	95.399750		there	there
sw2232A-ms98-a-0023	A.25	95.399750	95.683375		[silence]	[silence]
sw2232A-ms98-a-0024	A.25	95.683375	95.953375		[silence]	[silence]
sw2232A-ms98-a-0024	A.25	95.953375	96.153375		and	and
sw2232A-ms98-a-0024	A.25	96.153375	96.342250		to	to
sw2232A-ms98-a-0024	A.25	96.342250	96.631375		[silence]	[silence]
sw2232A-ms98-a-0024	A.25	96.631375	96.746250		you	you
sw2232A-ms98-a-0024	A.25	96.746250	96.930750		know	know
sw2232A-ms98-a-0024	A.25	96.930750	97.093375		get	get
sw2232A-ms98-a-0024	A.25	97.093375	97.253375		rid	rid
sw2232A-ms98-a-0024	A.25	97.253375	97.343375		of	of
sw2232A-ms98-a-0024	A.25	97.343375	97.523375		some	some
sw2232A-ms98-a-0024	A.25	97.523375	97.617250		of	of
sw2232A-ms98-a-0024	A.25	97.617250	97.726500		the	the
sw2232A-ms98-a-0024	A.25	97.726500	98.463375		atrocities	atrocities
sw2232A-ms98-a-0024	A.25	98.463375	98.563375		that	that
sw2232A-ms98-a-0024	A.25	98.563375	98.673375		were	were
sw2232A-ms98-a-0024	A.25	98.673375	98.933375		going	going
sw2232A-ms98-a-0024	A.25	98.933375	99.203375	<SUB>	to	on
sw2232A-ms98-a-0024	A.25	99.203375	99.519875		[silence]	[silence]
sw2232A-ms98-a-0025	A.25	99.519875	99.719875		[silence]	[silence]
sw2232A-ms98-a-0025	A.25	99.719875	99.909625		I	i
sw2232A-ms98-a-0025	A.25	99.909625	100.210250		don't	don't
sw2232A-ms98-a-0025	A.25	100.210250	100.506250		[silence]	[silence]
sw2232A-ms98-a-0025	A.25	100.506250	100.705875		I	i
sw2232A-ms98-a-0025	A.25	100.705875	100.869875		don't	don't
sw2232A-ms98-a-0025	A.25	100.869875	101.039875		know	know
sw2232A-ms98-a-0025	A.25	101.039875	101.144000		I	i
sw2232A-ms98-a-0025	A.25	101.144000	101.272000		don't	don't
sw2232A-ms98-a-0025	A.25	101.272000	101.611500		really	really
sw2232A-ms98-a-0025	A.25	101.611500	101.769625		[silence]	[silence]
sw2232A-ms98-a-0025	A.25	101.769625	101.929875		I'm	i'm
sw2232A-ms98-a-0025	A.25	101.929875	102.259875		tired	tired
sw2232A-ms98-a-0025	A.25	102.259875	102.409875		of	of
sw2232A-ms98-a-0025	A.25	102.409875	103.159875		pacifist	pacifist
sw2232A-ms98-a-0025	A.25	103.159875	103.337625		though	though
sw2232A-ms98-a-0025	A.25	103.337625	103.510875		see	see
sw2232A-ms98-a-0025	A.25	103.510875	103.629875		on	on
sw2232A-ms98-a-0025	A.25	103.629875	103.722000		the	the
sw2232A-ms98-a-0025	A.25	103.722000	103.916375		other	other
sw2232A-ms98-a-0025	A.25	103.916375	104.249875		hand	hand
sw2232A-ms98-a-0025	A.25	104.249875	104.673125		[silence]	[silence]
sw2232A-ms98-a-0026	A.25	104.673125	104.813125		[silence]	[silence]
sw2232A-ms98-a-0026	A.25	104.813125	105.033125		I'm	i'm
sw2232A-ms98-a-0026	A.25	105.033125	105.083125		a	a
sw2232A-ms98-a-0026	A.25	105.083125	105.523125		pac-	pac[ifist]-
sw2232A-ms98-a-0026	A.25	105.523125	105.873750		I'm	i'm
sw2232A-ms98-a-0026	A.25	105.873750	106.223125		really	really
sw2232A-ms98-a-0026	A.25	106.223125	106.753125		struggling	struggling
sw2232A-ms98-a-0026	A.25	106.753125	106.882125		with	with
sw2232A-ms98-a-0026	A.25	106.882125	106.972500		it	it
sw2232A-ms98-a-0026	A.25	106.972500	107.133125	<SUB>	Am	i'm
sw2232A-ms98-a-0026	A.25	107.133125	107.133125	<INS>	I	---
sw2232A-ms98-a-0026	A.25	107.133125	107.173125		a	a
sw2232A-ms98-a-0026	A.25	107.173125	107.930250		pacifist	pacifist
sw2232A-ms98-a-0026	A.25	107.930250	108.111000		[silence]	[silence]
sw2232A-ms98-a-0026	A.25	108.111000	108.543125		physical	physical
sw2232A-ms98-a-0026	A.25	108.543125	109.213125		pacifist	pacifist
sw2232A-ms98-a-0026	A.25	109.213125	109.303125		I'm	i'm
sw2232A-ms98-a-0026	A.25	109.303125	109.393125		a	a
sw2232A-ms98-a-0026	A.25	109.393125	109.958875		Christian	Christian
sw2232A-ms98-a-0026	A.25	109.958875	110.039375		[silence]	[silence]
sw2232A-ms98-a-0027	A.25	110.039375	110.349375		[silence]	[silence]
sw2232A-ms98-a-0027	A.25	110.349375	110.419000		and	and
sw2232A-ms98-a-0027	A.25	110.419000	110.511250		I	i
sw2232A-ms98-a-0027	A.25	110.511250	110.819375		believe	believe
sw2232A-ms98-a-0027	A.25	110.819375	110.959375		that	that
sw2232A-ms98-a-0027	A.25	110.959375	111.059375		the	the
sw2232A-ms98-a-0027	A.25	111.059375	111.319375		real	real
sw2232A-ms98-a-0027	A.25	111.319375	111.869375		warfare	warfare
sw2232A-ms98-a-0027	A.25	111.869375	112.019375		is	is
sw2232A-ms98-a-0027	A.25	112.019375	112.269375		not	not
sw2232A-ms98-a-0027	A.25	112.269375	112.539375		with	with
sw2232A-ms98-a-0027	A.25	112.539375	112.849375		Saddam	Saddam
sw2232A-ms98-a-0027	A.25	112.849375	113.379375		Hussein	Hussein
sw2232A-ms98-a-0027	A.25	113.379375	113.509375		or	or
sw2232A-ms98-a-0027	A.25	113.509375	113.589375		the	the
sw2232A-ms98-a-0027	A.25	113.589375	113.869375		North	North
sw2232A-ms98-a-0027	A.25	113.869375	114.629375		Vietnamese	Vietnamese
sw2232A-ms98-a-0027	A.25	114.629375	114.789375		but	but
sw2232A-ms98-a-0027	A.25	114.789375	114.979375		it's	it's
sw2232A-ms98-a-0027	A.25	114.979375	115.152500		in	in
sw2232A-ms98-a-0027	A.25	115.152500	115.755125		spiritual	spiritual
sw2232A-ms98-a-0027	A.25	115.755125	116.353125		kingdoms	kingdoms
sw2232A-ms98-a-0027	A.25	116.353125	116.469000		[silence]	[silence]
sw2232A-ms98-a-0028	A.25	116.469000	116.742875		[silence]	[silence]
sw2232A-ms98-a-0028	A.25	116.742875	116.797125		and	and
sw2232A-ms98-a-0028	A.25	116.797125	116.918125		that	that
sw2232A-ms98-a-0028	A.25	116.918125	116.988750		the	the
sw2232A-ms98-a-0028	A.25	116.988750	117.299000		real	real
sw2232A-ms98-a-0028	A.25	117.299000	117.689000		warfare	warfare
sw2232A-ms98-a-0028	A.25	117.689000	117.869000		is	is
sw2232A-ms98-a-0028	A.25	117.869000	118.249000		done	done
sw2232A-ms98-a-0028	A.25	118.249000	118.359000		you	you
sw2232A-ms98-a-0028	A.25	118.359000	118.449000		know	know
sw2232A-ms98-a-0028	A.25	118.449000	118.579000		in	in
sw2232A-ms98-a-0028	A.25	118.579000	118.699000		your	your
sw2232A-ms98-a-0028	A.25	118.699000	118.989000		prayer	prayer
sw2232A-ms98-a-0028	A.25	118.989000	119.499000		closet	closet
sw2232A-ms98-a-0028	A.25	119.499000	119.729000		[silence]	[silence]
sw2232A-ms98-a-0028	A.25	119.729000	119.879000		on	on
sw2232A-ms98-a-0028	A.25	119.879000	119.969000		your	your
sw2232A-ms98-a-0028	A.25	119.969000	120.409000		knees	knees
sw2232A-ms98-a-0028	A.25	120.409000	120.649000		So	so
sw2232A-ms98-a-0028	A.25	120.649000	120.972250		[silence]	[silence]
sw2232A-ms98-a-0029	A.25	120.972250	121.082250		[silence]	[silence]
sw2232A-ms98-a-0029	A.25	121.082250	121.223000		in	in
sw2232A-ms98-a-0029	A.25	121.223000	121.375000		a	a
sw2232A-ms98-a-0029	A.25	121.375000	121.542250		way	way
sw2232A-ms98-a-0029	A.25	121.542250	121.662250		in	in
sw2232A-ms98-a-0029	A.25	121.662250	121.772250		a	a
sw2232A-ms98-a-0029	A.25	121.772250	122.152250		sense	sense
sw2232A-ms98-a-0029	A.25	122.152250	122.322250		I'm	i'm
sw2232A-ms98-a-0029	A.25	122.322250	122.462250		a	a
sw2232A-ms98-a-0029	A.25	122.462250	123.252250		pacifist	pacifist
sw2232A-ms98-a-0029	A.25	123.252250	123.382250		but	but
sw2232A-ms98-a-0029	A.25	123.382250	123.492250		I'm	i'm
sw2232A-ms98-a-0029	A.25	123.492250	123.772250		really	really
sw2232A-ms98-a-0029	A.25	123.772250	124.192250		not	not
sw2232A-ms98-a-0029	A.25	124.192250	124.262250		You	you
sw2232A-ms98-a-0029	A.25	124.262250	124.322250		know	know
sw2232A-ms98-a-0029	A.25	124.322250	124.412250		what	what
sw2232A-ms98-a-0029	A.25	124.412250	124.512250		I'm	i'm
sw2232A-ms98-a-0029	A.25	124.512250	124.902500		saying	saying
sw2232A-ms98-a-0029	A.27	124.902500	125.087500		[silence]	[silence]
sw2232A-ms98-a-0030	A.27	125.087500	125.287500		[silence]	[silence]
sw2232A-ms98-a-0030	A.27	125.287500	125.390000		I	i
sw2232A-ms98-a-0030	A.27	125.390000	125.527375		don't	don't
sw2232A-ms98-a-0030	A.27	125.527375	125.647500		think	think
sw2232A-ms98-a-0030	A.27	125.647500	125.807500		just	just
sw2232A-ms98-a-0030	A.27	125.807500	126.017500		lay	lay
sw2232A-ms98-a-0030	A.27	126.017500	126.277500		back	back
sw2232A-ms98-a-0030	A.27	126.277500	126.367500		and	and
sw2232A-ms98-a-0030	A.27	126.367500	126.547500		not	not
sw2232A-ms98-a-0030	A.27	126.547500	126.667500		do	do
sw2232A-ms98-a-0030	A.27	126.667500	127.097500		anything	anything
sw2232A-ms98-a-0030	A.27	127.097500	127.167500		I	i
sw2232A-ms98-a-0030	A.27	127.167500	127.317500		think	think
sw2232A-ms98-a-0030	A.27	127.317500	127.557500		lets	lets
sw2232A-ms98-a-0030	A.27	127.557500	127.697500		go	go
sw2232A-ms98-a-0030	A.27	127.697500	127.807500		to	to
sw2232A-ms98-a-0030	A.27	127.807500	128.122625		war	war
sw2232A-ms98-a-0030	A.27	128.122625	128.420125		[silence]	[silence]
sw2232A-ms98-a-0030	A.27	128.420125	128.547500		but	but
sw2232A-ms98-a-0030	A.27	128.547500	128.767500		let's	let's
sw2232A-ms98-a-0030	A.27	128.767500	128.877500		go	go
sw2232A-ms98-a-0030	A.27	128.877500	128.967500		to	to
sw2232A-ms98-a-0030	A.27	128.967500	129.137500		war	war
sw2232A-ms98-a-0030	A.27	129.137500	129.850000		praying	praying
sw2232A-ms98-a-0030	A.27	129.850000	130.215250		[silence]	[silence]
sw2232A-ms98-a-0030	A.27	130.215250	130.327500		and	and
sw2232A-ms98-a-0030	A.27	130.327500	130.507500		let's	let's
sw2232A-ms98-a-0030	A.27	130.507500	130.617500		go	go
sw2232A-ms98-a-0030	A.27	130.617500	130.707500		to	to
sw2232A-ms98-a-0030	A.27	130.707500	130.867500		war	war
sw2232A-ms98-a-0030	A.27	130.867500	131.047500		for	for
sw2232A-ms98-a-0030	A.27	131.047500	131.357500		that	that
sw2232A-ms98-a-0030	A.27	131.357500	131.587500		way	way
sw2232A-ms98-a-0030	A.27	131.587500	131.966375		so	so
sw2232A-ms98-a-0030	A.29	131.966375	132.388750		[silence]	[silence]
sw2232A-ms98-a-0031	A.29	132.388750	133.576125		[silence]	[silence]
sw2232A-ms98-a-0031	A.29	133.576125	135.110375		[noise]	[noise]
sw2232A-ms98-a-0031	A.29	135.110375	136.482750		[silence]	[silence]
sw2232A-ms98-a-0032	A.29	136.482750	136.852750		[silence]	[silence]
sw2232A-ms98-a-0032	A.29	136.852750	137.222750	<SUB>	Uh-huh	um-hum
sw2232A-ms98-a-0032	A.31	137.222750	138.252000		[silence]	[silence]
sw2232A-ms98-a-0033	A.31	138.252000	147.672625		[silence]	[silence]
sw2232A-ms98-a-0034	A.31	147.672625	148.064750		[silence]	[silence]
sw2232A-ms98-a-0034	A.31	148.064750	148.449125	<SUB>	Uh-huh	um-hum
sw2232A-ms98-a-0034	A.33	148.449125	149.173625		[silence]	[silence]
sw2232A-ms98-a-0035	A.33	149.173625	158.753375		[silence]	[silence]
sw2232A-ms98-a-0036	A.33	158.753375	159.198125		[silence]	[silence]
sw2232A-ms98-a-0036	A.33	159.198125	159.541125	<SUB>	Uh-huh	um-hum
sw2232A-ms98-a-0036	A.35	159.541125	159.857000		[silence]	[silence]
sw2232A-ms98-a-0037	A.35	159.857000	160.624750		[silence]	[silence]
sw2232A-ms98-a-0037	A.35	160.624750	160.845250		[noise]	[noise]
sw2232A-ms98-a-0037	A.35	160.845250	161.342125		[silence]	[silence]
sw2232A-ms98-a-0038	A.35	161.342125	161.513250		[silence]	[silence]
sw2232A-ms98-a-0038	A.35	161.513250	161.838500	<SUB>	Uh-huh	um-hum
sw2232A-ms98-a-0038	A.37	161.838500	162.463750		[silence]	[silence]
sw2232A-ms98-a-0039	A.37	162.463750	165.205625		[silence]	[silence]
sw2232A-ms98-a-0040	A.37	165.205625	165.880125		[silence]	[silence]
sw2232A-ms98-a-0040	A.37	165.880125	166.262375		Yeah	yeah
sw2232A-ms98-a-0040	A.39	166.262375	166.372250		[silence]	[silence]
sw2232A-ms98-a-0041	A.39	166.372250	180.653500		[silence]	[silence]
sw2232A-ms98-a-0042	A.39	180.653500	180.859125		[silence]	[silence]
sw2232A-ms98-a-0042	A.39	180.859125	181.233125	<SUB>	Uh-huh	um-hum
sw2232A-ms98-a-0042	A.41	181.233125	181.756625		[silence]	[silence]
sw2232A-ms98-a-0043	A.41	181.756625	183.384875		[silence]	[silence]
sw2232A-ms98-a-0044	A.41	183.384875	183.510375		[silence]	[silence]
sw2232A-ms98-a-0044	A.41	183.510375	183.638125		Still	still
sw2232A-ms98-a-0044	A.41	183.638125	183.774875		have	have
sw2232A-ms98-a-0044	A.41	183.774875	183.884875		a	a
sw2232A-ms98-a-0044	A.41	183.884875	184.355750		problem	problem
sw2232A-ms98-a-0044	A.41	184.355750	184.706000		with	with
sw2232A-ms98-a-0044	A.41	184.706000	185.438000		uh	uh
sw2232A-ms98-a-0044	A.41	185.438000	185.799500		[silence]	[silence]
sw2232A-ms98-a-0044	A.41	185.799500	185.974875		you	you
sw2232A-ms98-a-0044	A.41	185.974875	186.402625		know	know
sw2232A-ms98-a-0044	A.41	186.402625	186.598500		[silence]	[silence]
sw2232A-ms98-a-0044	A.41	186.598500	186.814875		I	i
sw2232A-ms98-a-0044	A.41	186.814875	187.114875		haven't	haven't
sw2232A-ms98-a-0044	A.41	187.114875	187.264875		come	come
sw2232A-ms98-a-0044	A.41	187.264875	187.354875		to	to
sw2232A-ms98-a-0044	A.41	187.354875	187.474875		an	an
sw2232A-ms98-a-0044	A.41	187.474875	187.924875		absolute	absolute
sw2232A-ms98-a-0044	A.41	187.924875	188.531250		conclusion	conclusion
sw2232A-ms98-a-0044	A.41	188.531250	188.700750		on	on
sw2232A-ms98-a-0044	A.41	188.700750	189.021375		my	my
sw2232A-ms98-a-0044	A.41	189.021375	189.164500		[silence]	[silence]
sw2232A-ms98-a-0044	A.41	189.164500	189.644875		opinion	opinion
sw2232A-ms98-a-0044	A.41	189.644875	189.774875		on	on
sw2232A-ms98-a-0044	A.41	189.774875	190.014875		this	this
sw2232A-ms98-a-0044	A.41	190.014875	190.294875		but	but
sw2232A-ms98-a-0044	A.41	190.294875	190.520750		[silence]	[silence]
sw2232A-ms98-a-0045	A.41	190.520750	190.790750		[silence]	[silence]
sw2232A-ms98-a-0045	A.41	190.790750	190.865000		and	and
sw2232A-ms98-a-0045	A.41	190.865000	190.948500		I	i
sw2232A-ms98-a-0045	A.41	190.948500	191.160750		know	know
sw2232A-ms98-a-0045	A.41	191.160750	191.360750		other	other
sw2232A-ms98-a-0045	A.41	191.360750	191.930750		Christians	Christians
sw2232A-ms98-a-0045	A.41	191.930750	192.040750		would	would
sw2232A-ms98-a-0045	A.41	192.040750	192.484500		disagree	disagree
sw2232A-ms98-a-0045	A.41	192.484500	192.695500		with	with
sw2232A-ms98-a-0045	A.41	192.695500	192.830750		me	me
sw2232A-ms98-a-0045	A.41	192.830750	192.960750		My	my
sw2232A-ms98-a-0045	A.41	192.960750	193.330750		husband	husband
sw2232A-ms98-a-0045	A.41	193.330750	193.459750		and	and
sw2232A-ms98-a-0045	A.41	193.459750	193.584125		I	i
sw2232A-ms98-a-0045	A.41	193.584125	193.810750		are	are
sw2232A-ms98-a-0045	A.41	193.810750	194.014750		kind	kind
sw2232A-ms98-a-0045	A.41	194.014750	194.172875		of	of
sw2232A-ms98-a-0045	A.41	194.172875	194.340750		not	not
sw2232A-ms98-a-0045	A.41	194.340750	194.530750		even	even
sw2232A-ms98-a-0045	A.41	194.530750	194.630750		in	in
sw2232A-ms98-a-0045	A.41	194.630750	194.970750		agreement	agreement
sw2232A-ms98-a-0045	A.41	194.970750	195.090750		on	on
sw2232A-ms98-a-0045	A.41	195.090750	195.670750		this	this
sw2232A-ms98-a-0045	A.41	195.670750	195.820750		but	but
sw2232A-ms98-a-0045	A.41	195.820750	195.900750		we	we
sw2232A-ms98-a-0045	A.41	195.900750	196.080750		don't	don't
sw2232A-ms98-a-0045	A.41	196.080750	196.350750		fight	fight
sw2232A-ms98-a-0045	A.41	196.350750	196.530750		over	over
sw2232A-ms98-a-0045	A.41	196.530750	196.600750		it	it
sw2232A-ms98-a-0045	A.41	196.600750	196.660750		or	or
sw2232A-ms98-a-0045	A.41	196.660750	197.008875		anything	anything
sw2232A-ms98-a-0045	A.41	197.008875	197.164500		but	but
sw2232A-ms98-a-0045	A.41	197.164500	197.403125		[silence]	[silence]
sw2232A-ms98-a-0046	A.41	197.403125	197.678500		[silence]	[silence]
sw2232A-ms98-a-0046	A.41	197.678500	197.839125		you	you
sw2232A-ms98-a-0046	A.41	197.839125	198.125875		know	know
sw2232A-ms98-a-0046	A.41	198.125875	198.341000		how	how
sw2232A-ms98-a-0046	A.41	198.341000	198.523125		can	can
sw2232A-ms98-a-0046	A.41	198.523125	198.743125		you	you
sw2232A-ms98-a-0046	A.41	198.743125	198.843125		know	know
sw2232A-ms98-a-0046	A.41	198.843125	198.903125		the	the
sw2232A-ms98-a-0046	A.41	198.903125	199.123125		Bible	Bible
sw2232A-ms98-a-0046	A.41	199.123125	199.323125		says	says
sw2232A-ms98-a-0046	A.41	199.323125	199.653125		bless	bless
sw2232A-ms98-a-0046	A.41	199.653125	199.753125		your	your
sw2232A-ms98-a-0046	A.41	199.753125	200.183125		enemies	enemies
sw2232A-ms98-a-0046	A.41	200.183125	200.283125		and	and
sw2232A-ms98-a-0046	A.41	200.283125	200.473125		bless	bless
sw2232A-ms98-a-0046	A.41	200.473125	200.603125		those	those
sw2232A-ms98-a-0046	A.41	200.603125	200.733125		that	that
sw2232A-ms98-a-0046	A.41	200.733125	201.123125		curse	curse
sw2232A-ms98-a-0046	A.41	201.123125	201.233125		you	you
sw2232A-ms98-a-0046	A.41	201.233125	201.383125		and	and
sw2232A-ms98-a-0046	A.41	201.383125	201.553125		it's	it's
sw2232A-ms98-a-0046	A.41	201.553125	201.763125		like	like
sw2232A-ms98-a-0046	A.41	201.763125	202.082375		[silence]	[silence]
sw2232A-ms98-a-0046	A.41	202.082375	202.210375		be	be
sw2232A-ms98-a-0046	A.41	202.210375	202.523125		gentle	gentle
sw2232A-ms98-a-0046	A.41	202.523125	202.733125		unto	unto
sw2232A-ms98-a-0046	A.41	202.733125	203.033125		all	all
sw2232A-ms98-a-0046	A.41	203.033125	203.483125		men	men
sw2232A-ms98-a-0046	A.41	203.483125	203.653125		apt	apt
sw2232A-ms98-a-0046	A.41	203.653125	203.753125		to	to
sw2232A-ms98-a-0046	A.41	203.753125	204.153125		teach	teach
sw2232A-ms98-a-0046	A.41	204.153125	204.723125		patient	patient
sw2232A-ms98-a-0046	A.41	204.723125	205.139500		kind	kind
sw2232A-ms98-a-0046	A.41	205.139500	205.470875		[silence]	[silence]
sw2232A-ms98-a-0046	A.41	205.470875	205.653125		so	so
sw2232A-ms98-a-0046	A.41	205.653125	205.813125		it's	it's
sw2232A-ms98-a-0046	A.41	205.813125	206.143125		like	like
sw2232A-ms98-a-0046	A.41	206.143125	206.292125		how	how
sw2232A-ms98-a-0046	A.41	206.292125	206.458625		can	can
sw2232A-ms98-a-0046	A.41	206.458625	206.697000		you	you
sw2232A-ms98-a-0046	A.41	206.697000	206.864875		[silence]	[silence]
sw2232A-ms98-a-0047	A.41	206.864875	207.304875		[silence]	[silence]
sw2232A-ms98-a-0047	A.41	207.304875	207.454875		I	i
sw2232A-ms98-a-0047	A.41	207.454875	207.597750		don't	don't
sw2232A-ms98-a-0047	A.41	207.597750	207.765750		know	know
sw2232A-ms98-a-0047	A.41	207.765750	207.892625		for	for
sw2232A-ms98-a-0047	A.41	207.892625	208.450000		me	me
sw2232A-ms98-a-0047	A.41	208.450000	208.621000		I	i
sw2232A-ms98-a-0047	A.41	208.621000	208.720000		don't	don't
sw2232A-ms98-a-0047	A.41	208.720000	208.938500		know	know
sw2232A-ms98-a-0047	A.41	208.938500	209.164875		you	you
sw2232A-ms98-a-0047	A.41	209.164875	209.315250		know	know
sw2232A-ms98-a-0047	A.41	209.315250	209.447125		I	i
sw2232A-ms98-a-0047	A.41	209.447125	209.734875		can't	can't
sw2232A-ms98-a-0047	A.41	209.734875	209.954875		say	say
sw2232A-ms98-a-0047	A.41	209.954875	210.064875		that	that
sw2232A-ms98-a-0047	A.41	210.064875	210.148000		I	i
sw2232A-ms98-a-0047	A.41	210.148000	210.377750		agree	agree
sw2232A-ms98-a-0047	A.41	210.377750	210.544875		with	with
sw2232A-ms98-a-0047	A.41	210.544875	210.964875		Vietnam	Vietnam
sw2232A-ms98-a-0047	A.41	210.964875	211.501875		because	because
sw2232A-ms98-a-0047	A.41	211.501875	211.934750		[silence]	[silence]
sw2232A-ms98-a-0047	A.41	211.934750	212.051500		how	how
sw2232A-ms98-a-0047	A.41	212.051500	212.204875		can	can
sw2232A-ms98-a-0047	A.41	212.204875	212.304875		you	you
sw2232A-ms98-a-0047	A.41	212.304875	212.434875		be	be
sw2232A-ms98-a-0047	A.41	212.434875	212.734875		gentle	gentle
sw2232A-ms98-a-0047	A.41	212.734875	212.924875		unto	unto
sw2232A-ms98-a-0047	A.41	212.924875	213.164875		all	all
sw2232A-ms98-a-0047	A.41	213.164875	213.474875		men	men
sw2232A-ms98-a-0047	A.41	213.474875	213.649000		and	and
sw2232A-ms98-a-0047	A.41	213.649000	213.802375		[silence]	[silence]
sw2232A-ms98-a-0048	A.41	213.802375	214.062375		[silence]	[silence]
sw2232A-ms98-a-0048	A.41	214.062375	214.182375		and	and
sw2232A-ms98-a-0048	A.41	214.182375	214.372375		then	then
sw2232A-ms98-a-0048	A.41	214.372375	214.482375		[silence]	[silence]
sw2232A-ms98-a-0048	A.41	214.482375	214.852375		shoot	shoot
sw2232A-ms98-a-0048	A.41	214.852375	215.052375		them	them_1
sw2232A-ms98-a-0048	A.43	215.052375	215.469750		[silence]	[silence]
sw2232A-ms98-a-0049	A.43	215.469750	215.702500		[silence]	[silence]
sw2232A-ms98-a-0049	A.43	215.702500	215.909125	<DEL>	---	you
sw2232A-ms98-a-0049	A.43	215.909125	216.168125		[silence]	[silence]
sw2232A-ms98-a-0049	A.43	216.168125	216.617625		So	so
sw2232A-ms98-a-0049	A.45	216.617625	217.015000		[silence]	[silence]
sw2232A-ms98-a-0050	A.45	217.015000	224.640000		[silence]	[silence]
sw2232A-ms98-a-0051	A.45	224.640000	224.796375		[silence]	[silence]
sw2232A-ms98-a-0051	A.45	224.796375	225.094750	<SUB>	Uh-huh	um-hum
sw2232A-ms98-a-0051	A.47	225.094750	225.732500		[silence]	[silence]
sw2232A-ms98-a-0052	A.47	225.732500	230.595125		[silence]	[silence]
sw2232A-ms98-a-0053	A.47	230.595125	231.127000		[silence]	[silence]
sw2232A-ms98-a-0053	A.47	231.127000	231.466375	<SUB>	Uh-huh	um-hum
sw2232A-ms98-a-0053	A.49	231.466375	232.453000		[silence]	[silence]
sw2232A-ms98-a-0054	A.49	232.453000	237.608750		[silence]	[silence]
sw2232A-ms98-a-0055	A.49	237.608750	238.068750		[silence]	[silence]
sw2232A-ms98-a-0055	A.49	238.068750	238.358750		Yeah	yeah
sw2232A-ms98-a-0055	A.49	238.358750	238.468750		It	it
sw2232A-ms98-a-0055	A.49	238.468750	238.638750		is	is
sw2232A-ms98-a-0055	A.49	238.638750	238.738750		a	a
sw2232A-ms98-a-0055	A.49	238.738750	239.318750		difficult	difficult
sw2232A-ms98-a-0055	A.49	239.318750	239.648750		thing	thing
sw2232A-ms98-a-0055	A.49	239.648750	239.878750		But	but
sw2232A-ms98-a-0055	A.49	239.878750	240.118750		then	then
sw2232A-ms98-a-0055	A.49	240.118750	240.678750		vengeance	vengeance
sw2232A-ms98-a-0055	A.49	240.678750	240.838750		is	is
sw2232A-ms98-a-0055	A.49	240.838750	241.138750		mine	mine
sw2232A-ms98-a-0055	A.49	241.138750	241.355250		sayeth	sayeth
sw2232A-ms98-a-0055	A.49	241.355250	241.471625		the	the
sw2232A-ms98-a-0055	A.49	241.471625	241.739000		Lord	Lord
sw2232A-ms98-a-0055	A.49	241.739000	241.794500		and	and
sw2232A-ms98-a-0055	A.49	241.794500	241.954625		I	i
sw2232A-ms98-a-0055	A.49	241.954625	242.171250		will	will
sw2232A-ms98-a-0055	A.49	242.171250	242.556250		pay	pay
sw2232A-ms98-a-0055	A.49	242.556250	242.859125		[silence]	[silence]
sw2232A-ms98-a-0056	A.49	242.859125	242.959125		[silence]	[silence]
sw2232A-ms98-a-0056	A.49	242.959125	243.049000		So	so
sw2232A-ms98-a-0056	A.49	243.049000	243.153875		I	i
sw2232A-ms98-a-0056	A.49	243.153875	243.381875		think	think
sw2232A-ms98-a-0056	A.49	243.381875	243.654375		God	God
sw2232A-ms98-a-0056	A.49	243.654375	243.654375	<INS>	is	---
sw2232A-ms98-a-0056	A.49	243.654375	244.309875		ultimately	ultimately
sw2232A-ms98-a-0056	A.49	244.309875	244.439125		in	in
sw2232A-ms98-a-0056	A.49	244.439125	244.879125		charge	charge
sw2232A-ms98-a-0056	A.49	244.879125	244.999125		of	of
sw2232A-ms98-a-0056	A.49	244.999125	245.199000		[silence]	[silence]
sw2232A-ms98-a-0057	A.49	245.199000	245.379000		[silence]	[silence]
sw2232A-ms98-a-0057	A.49	245.379000	245.589000		what	what
sw2232A-ms98-a-0057	A.49	245.589000	245.859000		goes	goes
sw2232A-ms98-a-0057	A.49	245.859000	246.249000		on	on
sw2232A-ms98-a-0057	A.49	246.249000	246.538250	<SUB>	and	in
sw2232A-ms98-a-0057	A.49	246.538250	246.643750		I	i
sw2232A-ms98-a-0057	A.49	246.643750	246.829000		know	know
sw2232A-ms98-a-0057	A.49	246.829000	247.089000		like	like
sw2232A-ms98-a-0057	A.49	247.089000	247.269000	<SUB>	now	Mao
sw2232A-ms98-a-0057	A.49	247.269000	247.479000	<DEL>	---	Tse
sw2232A-ms98-a-0057	A.49	247.479000	247.759000	<DEL>	---	Chung
sw2232A-ms98-a-0057	A.49	247.759000	247.869000		in	in
sw2232A-ms98-a-0057	A.49	247.869000	248.311375		China	China
sw2232A-ms98-a-0057	A.49	248.311375	248.699250		[silence]	[silence]
sw2232A-ms98-a-0057	A.49	248.699250	248.914500		he	he
sw2232A-ms98-a-0057	A.49	248.914500	249.050625		did	did
sw2232A-ms98-a-0057	A.49	249.050625	249.180625		[silence]	[silence]
sw2232A-ms98-a-0057	A.49	249.180625	249.399000		all	all
sw2232A-ms98-a-0057	A.49	249.399000	249.648625		these	these
sw2232A-ms98-a-0057	A.49	249.648625	250.134500		terrible	terrible
sw2232A-ms98-a-0057	A.49	250.134500	250.379000		things	things
sw2232A-ms98-a-0057	A.49	250.379000	250.469000		and	and
sw2232A-ms98-a-0057	A.49	250.469000	250.549000		they	they
sw2232A-ms98-a-0057	A.49	250.549000	250.669000		were	were
sw2232A-ms98-a-0057	A.49	250.669000	250.669000	<INS>	te-	---
sw2232A-ms98-a-0057	A.49	250.669000	251.179000		terrible	terrible
sw2232A-ms98-a-0057	A.49	251.179000	251.279000		and	and
sw2232A-ms98-a-0057	A.49	251.279000	251.449000	<CONT>	he	he's
sw2232A-ms98-a-0057	A.49	251.449000	251.449000	<CONT>	was	+++
sw2232A-ms98-a-0057	A.49	251.449000	251.609000	<SUB>	going	gonna
sw2232A-ms98-a-0057	A.49	251.609000	251.609000	<INS>	to	---
sw2232A-ms98-a-0057	A.49	251.609000	251.689000		be	be
sw2232A-ms98-a-0057	A.49	251.689000	252.225750		accountable	accountable
sw2232A-ms98-a-0057	A.49	252.225750	252.463000		for	for
sw2232A-ms98-a-0057	A.49	252.463000	252.644625		them	them
sw2232A-ms98-a-0057	A.49	252.644625	252.871625		[silence]	[silence]
sw2232A-ms98-a-0058	A.49	252.871625	253.041625		[silence]	[silence]
sw2232A-ms98-a-0058	A.49	253.041625	253.371625		and	and
sw2232A-ms98-a-0058	A.49	253.371625	253.762625		[silence]	[silence]
sw2232A-ms98-a-0058	A.49	253.762625	254.150625		but	but
sw2232A-ms98-a-0058	A.49	254.150625	254.331625		if	if
sw2232A-ms98-a-0058	A.49	254.331625	254.471625		you	you
sw2232A-ms98-a-0058	A.49	254.471625	254.831625		look	look
sw2232A-ms98-a-0058	A.49	254.831625	255.251625		back	back
sw2232A-ms98-a-0058	A.49	255.251625	255.251625	<INS>	and	---
sw2232A-ms98-a-0058	A.49	255.251625	255.511625		you	you
sw2232A-ms98-a-0058	A.49	255.511625	255.697625		say	say
sw2232A-ms98-a-0058	A.49	255.697625	255.897250		wait	wait
sw2232A-ms98-a-0058	A.49	255.897250	255.979375		a	a
sw2232A-ms98-a-0058	A.49	255.979375	256.194125		minute	minute
sw2232A-ms98-a-0058	A.49	256.194125	256.514625		while	while
sw2232A-ms98-a-0058	A.49	256.514625	256.638875		he	he
sw2232A-ms98-a-0058	A.49	256.638875	256.801625		was	was
sw2232A-ms98-a-0058	A.49	256.801625	256.941625		in	in
sw2232A-ms98-a-0058	A.49	256.941625	257.285000		power	power
sw2232A-ms98-a-0058	A.49	257.285000	257.729500		[silence]	[silence]
sw2232A-ms98-a-0058	A.49	257.729500	257.881625		he	he
sw2232A-ms98-a-0058	A.49	257.881625	258.171625		built	built
sw2232A-ms98-a-0058	A.49	258.171625	258.491625		roads	roads
sw2232A-ms98-a-0058	A.49	258.491625	258.581625		he	he
sw2232A-ms98-a-0058	A.49	258.581625	258.771625	<SUB>	put	tore
sw2232A-ms98-a-0058	A.49	258.771625	258.941625	<SUB>	in	down
sw2232A-ms98-a-0058	A.49	258.941625	259.139375		all	all
sw2232A-ms98-a-0058	A.49	259.139375	259.284875		the	the
sw2232A-ms98-a-0058	A.49	259.284875	259.812625		temples	temples
sw2232A-ms98-a-0058	A.49	259.812625	260.096625		he	he
sw2232A-ms98-a-0058	A.49	260.096625	260.363500		[silence]	[silence]
sw2232A-ms98-a-0059	A.49	260.363500	260.553500		[silence]	[silence]
sw2232A-ms98-a-0059	A.49	260.553500	260.693500		he	he
sw2232A-ms98-a-0059	A.49	260.693500	261.223500		unified	unified
sw2232A-ms98-a-0059	A.49	261.223500	261.313500		the	the
sw2232A-ms98-a-0059	A.49	261.313500	261.733500		Chinese	Chinese
sw2232A-ms98-a-0059	A.49	261.733500	262.203500		language	language
sw2232A-ms98-a-0059	A.49	262.203500	262.263500		It	it
sw2232A-ms98-a-0059	A.49	262.263500	262.353500		was	was
sw2232A-ms98-a-0059	A.49	262.353500	263.144375		impossible	impossible
sw2232A-ms98-a-0059	A.49	263.144375	263.287500		for	for
sw2232A-ms98-a-0059	A.49	263.287500	263.813500		missionaries	missionaries
sw2232A-ms98-a-0059	A.49	263.813500	263.963500		to	to
sw2232A-ms98-a-0059	A.49	263.963500	264.093375		do	do
sw2232A-ms98-a-0059	A.49	264.093375	264.729875		accomplish	accomplish
sw2232A-ms98-a-0059	A.49	264.729875	264.884500		[silence]	[silence]
sw2232A-ms98-a-0059	A.49	264.884500	265.326625		anything	anything
sw2232A-ms98-a-0059	A.49	265.326625	265.433500		in	in
sw2232A-ms98-a-0059	A.49	265.433500	265.751125		China	China
sw2232A-ms98-a-0059	A.51	265.751125	265.972500		[silence]	[silence]
sw2232A-ms98-a-0060	A.51	265.972500	266.135375		[silence]	[silence]
sw2232A-ms98-a-0060	A.51	266.135375	266.694750		because	because
sw2232A-ms98-a-0060	A.51	266.694750	266.882500		of	of
sw2232A-ms98-a-0060	A.51	266.882500	267.022500		all	all
sw2232A-ms98-a-0060	A.51	267.022500	267.262500		that	that
sw2232A-ms98-a-0060	A.51	267.262500	267.642500		[silence]	[silence]
sw2232A-ms98-a-0060	A.51	267.642500	267.772500		and	and
sw2232A-ms98-a-0060	A.51	267.772500	268.022500		so	so
sw2232A-ms98-a-0060	A.51	268.022500	268.322500		even	even
sw2232A-ms98-a-0060	A.51	268.322500	268.472500		in	in
sw2232A-ms98-a-0060	A.51	268.472500	268.722500		North	North
sw2232A-ms98-a-0060	A.51	268.722500	268.832500		and	and
sw2232A-ms98-a-0060	A.51	268.832500	269.072500		South	South
sw2232A-ms98-a-0060	A.51	269.072500	269.549750		Vietnam	Vietnam
sw2232A-ms98-a-0060	A.51	269.549750	269.713750		I	i
sw2232A-ms98-a-0060	A.51	269.713750	269.869125		[silence]	[silence]
sw2232A-ms98-a-0060	A.51	269.869125	270.046125		bet	bet
sw2232A-ms98-a-0060	A.51	270.046125	270.282500		you'd	you'd
sw2232A-ms98-a-0060	A.51	270.282500	270.437250		see	see
sw2232A-ms98-a-0060	A.51	270.437250	270.556250		the	the
sw2232A-ms98-a-0060	A.51	270.556250	270.916625		same	same
sw2232A-ms98-a-0060	A.51	270.916625	271.237500		thing	thing
sw2232A-ms98-a-0060	A.51	271.237500	271.421750		[silence]	[silence]
sw2232A-ms98-a-0061	A.51	271.421750	271.671750		[silence]	[silence]
sw2232A-ms98-a-0061	A.51	271.671750	271.801750		and	and
sw2232A-ms98-a-0061	A.51	271.801750	271.941750		that	that
sw2232A-ms98-a-0061	A.51	271.941750	272.481750		now	now
sw2232A-ms98-a-0061	A.51	272.481750	272.679250		he	he
sw2232A-ms98-a-0061	A.51	272.679250	272.961750	<SUB>	builds	build
sw2232A-ms98-a-0061	A.51	272.961750	273.559875		roads	roads
sw2232A-ms98-a-0061	A.51	273.559875	273.783500		so	so
sw2232A-ms98-a-0061	A.51	273.783500	274.212875		[silence]	[silence]
sw2232A-ms98-a-0061	A.51	274.212875	274.363500		then	then
sw2232A-ms98-a-0061	A.51	274.363500	274.488875	<SUB>	it	he'd
sw2232A-ms98-a-0061	A.51	274.488875	274.745000	<DEL>	---	open
sw2232A-ms98-a-0061	A.51	274.745000	274.880625		and	and
sw2232A-ms98-a-0061	A.51	274.880625	275.008875		then	then
sw2232A-ms98-a-0061	A.51	275.008875	275.159500		he	he
sw2232A-ms98-a-0061	A.51	275.159500	275.471750		dropped	dropped
sw2232A-ms98-a-0061	A.51	275.471750	275.941750		dead	dead
sw2232A-ms98-a-0061	A.51	275.941750	276.191750		[silence]	[silence]
sw2232A-ms98-a-0061	A.51	276.191750	276.501750	<CONT>	twenty-five	twenty
sw2232A-ms98-a-0061	A.51	276.501750	276.711750	<CONT>	+++	five
sw2232A-ms98-a-0061	A.51	276.711750	276.951750		years	years
sw2232A-ms98-a-0061	A.51	276.951750	277.511750		premature	premature
sw2232A-ms98-a-0061	A.51	277.511750	277.571750		he	he
sw2232A-ms98-a-0061	A.51	277.571750	277.731750	<DEL>	---	just
sw2232A-ms98-a-0061	A.51	277.731750	278.001750		dropped	dropped
sw2232A-ms98-a-0061	A.51	278.001750	278.415875		dead	dead
sw2232A-ms98-a-0061	A.51	278.415875	278.854750		[silence]	[silence]
sw2232A-ms98-a-0061	A.51	278.854750	279.011125		and	and
sw2232A-ms98-a-0061	A.51	279.011125	279.337375		so	so
sw2232A-ms98-a-0061	A.51	279.337375	279.811750		something	something
sw2232A-ms98-a-0061	A.51	279.811750	280.171625		good	good
sw2232A-ms98-a-0061	A.51	280.171625	280.416375		did	did
sw2232A-ms98-a-0061	A.51	280.416375	280.751750		come	come
sw2232A-ms98-a-0061	A.51	280.751750	280.901750		out	out
sw2232A-ms98-a-0061	A.51	280.901750	281.011750		of	of
sw2232A-ms98-a-0061	A.51	281.011750	281.311750		that	that
sw2232A-ms98-a-0061	A.51	281.311750	281.511750		in	in
sw2232A-ms98-a-0061	A.51	281.511750	281.791750		that	that
sw2232A-ms98-a-0061	A.51	281.791750	281.955750		[silence]	[silence]
sw2232A-ms98-a-0062	A.51	281.955750	282.245750		[silence]	[silence]
sw2232A-ms98-a-0062	A.51	282.245750	282.993250		now	now
sw2232A-ms98-a-0062	A.51	282.993250	283.238000		[silence]	[silence]
sw2232A-ms98-a-0062	A.51	283.238000	283.358500		you	you
sw2232A-ms98-a-0062	A.51	283.358500	283.490250		see	see
sw2232A-ms98-a-0062	A.51	283.490250	283.595750		what	what
sw2232A-ms98-a-0062	A.51	283.595750	283.649375		I	i
sw2232A-ms98-a-0062	A.51	283.649375	284.014625		mean	mean
sw2232A-ms98-a-0062	A.51	284.014625	284.165750	<SUB>	if	it's
sw2232A-ms98-a-0062	A.51	284.165750	284.375750		like	like
sw2232A-ms98-a-0062	A.51	284.375750	284.985750		now	now
sw2232A-ms98-a-0062	A.53	284.985750	285.448375		[silence]	[silence]
sw2232A-ms98-a-0063	A.53	285.448375	290.282625		[silence]	[silence]
sw2232A-ms98-a-0064	A.53	290.282625	290.712625		[silence]	[silence]
sw2232A-ms98-a-0064	A.53	290.712625	291.102625		Uh-huh	uh-huh
sw2232A-ms98-a-0064	A.55	291.102625	291.528000		[silence]	[silence]
sw2232A-ms98-a-0065	A.55	291.528000	296.404750		[silence]	[silence]
sw2232A-ms98-a-0066	A.55	296.404750	296.691625		[silence]	[silence]
sw2232A-ms98-a-0066	A.55	296.691625	297.123375		Well	well
sw2232A-ms98-a-0066	A.55	297.123375	297.236750		[silence]	[silence]
sw2232A-ms98-a-0066	A.55	297.236750	297.426500		Bless	bless
sw2232A-ms98-a-0066	A.55	297.426500	297.594750		your	your
sw2232A-ms98-a-0066	A.55	297.594750	298.084750		enemies	enemies
sw2232A-ms98-a-0066	A.55	298.084750	298.254750		if	if
sw2232A-ms98-a-0066	A.55	298.254750	298.364750		your	your
sw2232A-ms98-a-0066	A.55	298.364750	298.694750		enemy	enemy
sw2232A-ms98-a-0066	A.55	298.694750	298.814750		is	is
sw2232A-ms98-a-0066	A.55	298.814750	299.274500		hungry	hungry
sw2232A-ms98-a-0066	A.55	299.274500	299.734000		[silence]	[silence]
sw2232A-ms98-a-0066	A.55	299.734000	299.924750		feed	feed
sw2232A-ms98-a-0066	A.55	299.924750	300.164750		him	him
sw2232A-ms98-a-0066	A.55	300.164750	300.364750		if	if
sw2232A-ms98-a-0066	A.55	300.364750	300.617625		he	he
sw2232A-ms98-a-0066	A.55	300.617625	300.753250		[silence]	[silence]
sw2232A-ms98-a-0066	A.55	300.753250	300.934750		if	if
sw2232A-ms98-a-0066	A.55	300.934750	301.044750		he	he
sw2232A-ms98-a-0066	A.55	301.044750	301.314750		needs	needs
sw2232A-ms98-a-0066	A.55	301.314750	301.550000		your	your
sw2232A-ms98-a-0066	A.55	301.550000	301.693125		[silence]	[silence]
sw2232A-ms98-a-0066	A.55	301.693125	302.014750		asks	asks
sw2232A-ms98-a-0066	A.55	302.014750	302.114750		for	for
sw2232A-ms98-a-0066	A.55	302.114750	302.224750		your	your
sw2232A-ms98-a-0066	A.55	302.224750	302.524750		shirt	shirt
sw2232A-ms98-a-0066	A.55	302.524750	302.624750		give	give
sw2232A-ms98-a-0066	A.55	302.624750	302.784750		him	him
sw2232A-ms98-a-0066	A.55	302.784750	302.913625		your	your
sw2232A-ms98-a-0066	A.55	302.913625	303.169750		coat	coat
sw2232A-ms98-a-0066	A.55	303.169750	303.755375		also	also
sw2232A-ms98-a-0066	A.55	303.755375	304.179750		[silence]	[silence]
sw2232A-ms98-a-0067	A.55	304.179750	304.649250		[silence]	[silence]
sw2232A-ms98-a-0067	A.55	304.649250	305.160250		So	so
sw2232A-ms98-a-0067	A.55	305.160250	305.364500		if	if
sw2232A-ms98-a-0067	A.55	305.364500	305.509000		the	the
sw2232A-ms98-a-0067	A.57	305.509000	305.720000		[silence]	[silence]
sw2232A-ms98-a-0067	A.57	305.720000	305.859750		the	the
sw2232A-ms98-a-0067	A.57	305.859750	306.013500		the	the
sw2232A-ms98-a-0067	A.57	306.013500	306.175750		[silence]	[silence]
sw2232A-ms98-a-0067	A.57	306.175750	306.356500		the	the
sw2232A-ms98-a-0067	A.57	306.356500	306.599750		South	South
sw2232A-ms98-a-0067	A.57	306.599750	307.179750		Vietnamese	Vietnamese
sw2232A-ms98-a-0067	A.57	307.179750	307.447125		they	they
sw2232A-ms98-a-0067	A.57	307.447125	307.879750		asked	asked
sw2232A-ms98-a-0067	A.57	307.879750	308.079750		us	us
sw2232A-ms98-a-0067	A.57	308.079750	308.189750		to	to
sw2232A-ms98-a-0067	A.57	308.189750	308.529750		help	help
sw2232A-ms98-a-0067	A.57	308.529750	308.729750		them	them
sw2232A-ms98-a-0067	A.57	308.729750	309.119750		Right	right
sw2232A-ms98-a-0067	A.57	309.119750	309.583500		[silence]	[silence]
sw2232A-ms98-a-0068	A.57	309.583500	310.123500		[silence]	[silence]
sw2232A-ms98-a-0068	A.57	310.123500	310.213500		Is	is
sw2232A-ms98-a-0068	A.57	310.213500	310.343500		that	that
sw2232A-ms98-a-0068	A.57	310.343500	310.714750		right	right
sw2232A-ms98-a-0068	A.59	310.714750	311.108125		[silence]	[silence]
sw2232A-ms98-a-0069	A.59	311.108125	318.106750		[silence]	[silence]
sw2232A-ms98-a-0070	A.59	318.106750	318.806750		[silence]	[silence]
sw2232A-ms98-a-0070	A.59	318.806750	319.166750	<SUB>	Uh-huh	um-hum
sw2232A-ms98-a-0070	A.61	319.166750	319.865875		[silence]	[silence]
sw2232A-ms98-a-0071	A.61	319.865875	326.899625		[silence]	[silence]
sw2232A-ms98-a-0072	A.61	326.899625	327.258375		[silence]	[silence]
sw2232A-ms98-a-0072	A.61	327.258375	327.650125	<DEL>	---	um-hum
sw2232A-ms98-a-0072	A.61	327.650125	327.994375		[silence]	[silence]
sw2232A-ms98-a-0073	A.61	327.994375	329.422625		[silence]	[silence]
sw2232A-ms98-a-0074	A.61	329.422625	329.622625		[silence]	[silence]
sw2232A-ms98-a-0074	A.61	329.622625	330.202625		Yeah	yeah
sw2232A-ms98-a-0074	A.63	330.202625	330.743500		[silence]	[silence]
sw2232A-ms98-a-0075	A.63	330.743500	333.332125		[silence]	[silence]
sw2232A-ms98-a-0076	A.63	333.332125	333.552125		[silence]	[silence]
sw2232A-ms98-a-0076	A.63	333.552125	333.912125		Uh-huh	uh-huh
sw2232A-ms98-a-0076	A.65	333.912125	334.445375		[silence]	[silence]
sw2232A-ms98-a-0077	A.65	334.445375	355.429625		[silence]	[silence]
sw2232A-ms98-a-0078	A.65	355.429625	356.122875		[silence]	[silence]
sw2232A-ms98-a-0078	A.65	356.122875	356.543125	<SUB>	Uh-huh	um-hum
sw2232A-ms98-a-0078	A.67	356.543125	357.336875		[silence]	[silence]
sw2232A-ms98-a-0079	A.67	357.336875	360.022375		[silence]	[silence]
sw2232A-ms98-a-0080	A.67	360.022375	360.452375		[silence]	[silence]
sw2232A-ms98-a-0080	A.67	360.452375	361.072375		Yeah	yeah
sw2232A-ms98-a-0080	A.69	361.072375	361.625125		[silence]	[silence]
sw2232A-ms98-a-0081	A.69	361.625125	372.910250		[silence]	[silence]
sw2232A-ms98-a-0082	A.69	372.910250	373.089125		[silence]	[silence]
sw2232A-ms98-a-0082	A.69	373.089125	373.406625	<SUB>	Uh-huh	um-hum
sw2232A-ms98-a-0082	A.71	373.406625	373.977375		[silence]	[silence]
sw2232A-ms98-a-0083	A.71	373.977375	375.498625		[silence]	[silence]
sw2232A-ms98-a-0084	A.71	375.498625	375.890000		[silence]	[silence]
sw2232A-ms98-a-0084	A.71	375.890000	376.241625	<SUB>	Uh-huh	um-hum
sw2232A-ms98-a-0084	A.73	376.241625	376.822500		[silence]	[silence]
sw2232A-ms98-a-0085	A.73	376.822500	387.347375		[silence]	[silence]
sw2232A-ms98-a-0086	A.73	387.347375	387.847375		[silence]	[silence]
sw2232A-ms98-a-0086	A.73	387.847375	388.177375	<SUB>	Uh-huh	um-hum
sw2232A-ms98-a-0086	A.77	388.177375	388.681000		[silence]	[silence]
sw2232A-ms98-a-0087	A.77	388.681000	398.481000		[silence]	[silence]
sw2232A-ms98-a-0088	A.77	398.481000	398.977125		[silence]	[silence]
sw2232A-ms98-a-0088	A.77	398.977125	399.511625		Yeah	yeah
sw2232A-ms98-a-0088	A.79	399.511625	400.049000		[silence]	[silence]
sw2232A-ms98-a-0089	A.79	400.049000	406.788625		[silence]	[silence]
sw2232A-ms98-a-0090	A.79	406.788625	407.306000		[silence]	[silence]
sw2232A-ms98-a-0090	A.79	407.306000	407.643500		Yeah	yeah
sw2232A-ms98-a-0090	A.79	407.643500	408.043375		[silence]	[silence]
sw2232A-ms98-a-0090	A.79	408.043375	408.158625		But	but
sw2232A-ms98-a-0090	A.79	408.158625	408.328625		then	then
sw2232A-ms98-a-0090	A.79	408.328625	408.728625		again	again
sw2232A-ms98-a-0090	A.79	408.728625	408.978625		yeah	yeah
sw2232A-ms98-a-0090	A.79	408.978625	409.088625		I'd	i'd
sw2232A-ms98-a-0090	A.79	409.088625	409.298625		say	say
sw2232A-ms98-a-0090	A.79	409.298625	409.391500		it	it
sw2232A-ms98-a-0090	A.79	409.391500	409.655125		is	is
sw2232A-ms98-a-0090	A.79	409.655125	410.008625		wrong	wrong
sw2232A-ms98-a-0090	A.79	410.008625	410.098625		to	to
sw2232A-ms98-a-0090	A.79	410.098625	410.418625	<DEL>	---	invade
sw2232A-ms98-a-0090	A.79	410.418625	410.798625	<DEL>	---	Kuwait
sw2232A-ms98-a-0090	A.79	410.798625	410.938625		and	and
sw2232A-ms98-a-0090	A.79	410.938625	411.038625		I'm	i'm
sw2232A-ms98-a-0090	A.79	411.038625	411.258750		not	not
sw2232A-ms98-a-0090	A.79	411.258750	411.484750		saying	saying
sw2232A-ms98-a-0090	A.79	411.484750	411.818625		president	President
sw2232A-ms98-a-0090	A.79	411.818625	412.028625		Bush	Bush
sw2232A-ms98-a-0090	A.79	412.028625	412.168625		made	made
sw2232A-ms98-a-0090	A.79	412.168625	412.228625		the	the
sw2232A-ms98-a-0090	A.79	412.228625	412.448625		wrong	wrong
sw2232A-ms98-a-0090	A.79	412.448625	412.909500		decision	decision
sw2232A-ms98-a-0090	A.79	412.909500	413.269000		[silence]	[silence]
sw2232A-ms98-a-0090	A.79	413.269000	413.404625		I	i
sw2232A-ms98-a-0090	A.79	413.404625	413.678625		think	think
sw2232A-ms98-a-0090	A.79	413.678625	413.868625		I'm	i'm
sw2232A-ms98-a-0090	A.79	413.868625	414.478625		lacking	lacking
sw2232A-ms98-a-0090	A.79	414.478625	414.638625		in	in
sw2232A-ms98-a-0090	A.79	414.638625	414.956625		my	my
sw2232A-ms98-a-0090	A.79	414.956625	415.218750		[silence]	[silence]
sw2232A-ms98-a-0091	A.79	415.218750	415.475625		[silence]	[silence]
sw2232A-ms98-a-0091	A.79	415.475625	415.570250		I	i
sw2232A-ms98-a-0091	A.79	415.570250	415.718750		don't	don't
sw2232A-ms98-a-0091	A.79	415.718750	415.864125		think	think
sw2232A-ms98-a-0091	A.79	415.864125	415.982875		I	i
sw2232A-ms98-a-0091	A.79	415.982875	416.138750		can	can
sw2232A-ms98-a-0091	A.79	416.138750	416.378750		come	come
sw2232A-ms98-a-0091	A.79	416.378750	416.460250		to	to
sw2232A-ms98-a-0091	A.79	416.460250	416.608750		a	a
sw2232A-ms98-a-0091	A.79	416.608750	417.088750		complete	complete
sw2232A-ms98-a-0091	A.79	417.088750	417.628750		conclusion	conclusion
sw2232A-ms98-a-0091	A.79	417.628750	417.737250		on	on
sw2232A-ms98-a-0091	A.79	417.737250	417.860000		how	how
sw2232A-ms98-a-0091	A.79	417.860000	417.957875		I	i
sw2232A-ms98-a-0091	A.79	417.957875	418.176625		feel	feel
sw2232A-ms98-a-0091	A.79	418.176625	418.326625		about	about
sw2232A-ms98-a-0091	A.79	418.326625	418.413250		the	the
sw2232A-ms98-a-0091	A.79	418.413250	418.748750		Vietnam	Vietnam
sw2232A-ms98-a-0091	A.79	418.748750	418.878750		war	War
sw2232A-ms98-a-0091	A.79	418.878750	419.318750		because	because
sw2232A-ms98-a-0091	A.79	419.318750	419.478750		I'm	i'm
sw2232A-ms98-a-0091	A.79	419.478750	419.608750		going	going
sw2232A-ms98-a-0091	A.79	419.608750	419.688750		to	to
sw2232A-ms98-a-0091	A.79	419.688750	420.218750		interpret	interpret
sw2232A-ms98-a-0091	A.79	420.218750	420.495875		that	that
sw2232A-ms98-a-0091	A.79	420.495875	420.745250		[silence]	[silence]
sw2232A-ms98-a-0092	A.79	420.745250	421.089500		[silence]	[silence]
sw2232A-ms98-a-0092	A.79	421.089500	421.264250		through	through
sw2232A-ms98-a-0092	A.79	421.264250	421.393250		the	the
sw2232A-ms98-a-0092	A.79	421.393250	421.847750		Bible	Bible
sw2232A-ms98-a-0092	A.79	421.847750	422.024750		and	and
sw2232A-ms98-a-0092	A.79	422.024750	422.215250		I've	i've
sw2232A-ms98-a-0092	A.79	422.215250	422.495250		kind	kind
sw2232A-ms98-a-0092	A.79	422.495250	422.585250		of	of
sw2232A-ms98-a-0092	A.79	422.585250	423.075250		always	always
sw2232A-ms98-a-0092	A.79	423.075250	423.215250	<CONT>	I've	i
sw2232A-ms98-a-0092	A.79	423.215250	423.335250	<CONT>	+++	have
sw2232A-ms98-a-0092	A.79	423.335250	423.505250		been	been
sw2232A-ms98-a-0092	A.79	423.505250	423.555250		a	a
sw2232A-ms98-a-0092	A.79	423.555250	423.945250		Christian	Christian
sw2232A-ms98-a-0092	A.79	423.945250	424.225250		five	five
sw2232A-ms98-a-0092	A.79	424.225250	424.525250		years	years
sw2232A-ms98-a-0092	A.79	424.525250	424.625250		and	and
sw2232A-ms98-a-0092	A.79	424.625250	424.725250		I've	i've
sw2232A-ms98-a-0092	A.79	424.725250	425.115250		kind	kind
sw2232A-ms98-a-0092	A.79	425.115250	425.215250		of	of
sw2232A-ms98-a-0092	A.79	425.215250	425.635250		avoided	avoided
sw2232A-ms98-a-0092	A.79	425.635250	425.875750		that	that
sw2232A-ms98-a-0092	A.79	425.875750	426.089625		[silence]	[silence]
sw2232A-ms98-a-0093	A.79	426.089625	426.319625		[silence]	[silence]
sw2232A-ms98-a-0093	A.79	426.319625	426.610125		that	that
sw2232A-ms98-a-0093	A.79	426.610125	426.823375		[silence]	[silence]
sw2232A-ms98-a-0093	A.79	426.823375	427.152625		those	those
sw2232A-ms98-a-0093	A.79	427.152625	427.231750		the	the
sw2232A-ms98-a-0093	A.79	427.231750	427.621375		war	war
sw2232A-ms98-a-0093	A.79	427.621375	427.734375		[silence]	[silence]
sw2232A-ms98-a-0093	A.79	427.734375	428.129625		things	things
sw2232A-ms98-a-0093	A.79	428.129625	428.267375		and	and
sw2232A-ms98-a-0093	A.79	428.267375	428.482000		how	how
sw2232A-ms98-a-0093	A.79	428.482000	428.699625		God	God
sw2232A-ms98-a-0093	A.79	428.699625	429.279625		approaches	approaches
sw2232A-ms98-a-0093	A.79	429.279625	429.537875		that	that
sw2232A-ms98-a-0093	A.79	429.537875	429.825000		[silence]	[silence]
sw2232A-ms98-a-0094	A.79	429.825000	429.995000		[silence]	[silence]
sw2232A-ms98-a-0094	A.79	429.995000	430.425000		because	because
sw2232A-ms98-a-0094	A.79	430.425000	430.675000		I	i
sw2232A-ms98-a-0094	A.79	430.675000	430.935000		think	think
sw2232A-ms98-a-0094	A.79	430.935000	431.135000	<SUB>	it's	its
sw2232A-ms98-a-0094	A.79	431.135000	431.385000		just	just
sw2232A-ms98-a-0094	A.79	431.385000	431.525000		now	now
sw2232A-ms98-a-0094	A.79	431.525000	431.915000		coming	coming
sw2232A-ms98-a-0094	A.79	431.915000	432.025000		up	up
sw2232A-ms98-a-0094	A.79	432.025000	432.135000		to	to
sw2232A-ms98-a-0094	A.79	432.135000	432.305000		where	where
sw2232A-ms98-a-0094	A.79	432.305000	432.415000		I	i
sw2232A-ms98-a-0094	A.79	432.415000	432.665000		really	really
sw2232A-ms98-a-0094	A.79	432.665000	432.825000		feel	feel
sw2232A-ms98-a-0094	A.79	432.825000	432.981875		like	like
sw2232A-ms98-a-0094	A.79	432.981875	433.091125		I	i
sw2232A-ms98-a-0094	A.79	433.091125	433.309500		need	need
sw2232A-ms98-a-0094	A.79	433.309500	433.645000		to	to
sw2232A-ms98-a-0094	A.79	433.645000	433.947000		come	come
sw2232A-ms98-a-0094	A.79	433.947000	434.116625		you	you
sw2232A-ms98-a-0094	A.79	434.116625	434.338875		know	know
sw2232A-ms98-a-0094	A.79	434.338875	434.485000		need	need
sw2232A-ms98-a-0094	A.79	434.485000	434.595000		to	to
sw2232A-ms98-a-0094	A.79	434.595000	435.065000		decide	decide
sw2232A-ms98-a-0094	A.81	435.065000	435.147000		what	what
sw2232A-ms98-a-0094	A.81	435.147000	435.246625		I	i
sw2232A-ms98-a-0094	A.81	435.246625	435.687750		feel	feel
sw2232A-ms98-a-0094	A.83	435.687750	435.911250		[silence]	[silence]
sw2232A-ms98-a-0095	A.83	435.911250	446.140625		[silence]	[silence]
sw2232A-ms98-a-0096	A.83	446.140625	446.370625		[silence]	[silence]
sw2232A-ms98-a-0096	A.83	446.370625	446.897000	<SUB>	Yeah	right
sw2232A-ms98-a-0096	A.85	446.897000	447.152250		[silence]	[silence]
sw2232A-ms98-a-0097	A.85	447.152250	448.867750		[silence]	[silence]
sw2232A-ms98-a-0098	A.85	448.867750	449.257750		[silence]	[silence]
sw2232A-ms98-a-0098	A.85	449.257750	449.647750		Right	right
sw2232A-ms98-a-0098	A.85	449.647750	449.800250		They	they
sw2232A-ms98-a-0098	A.87	449.800250	450.082750		left	left
sw2232A-ms98-a-0098	A.87	450.082750	450.177750		a	a
sw2232A-ms98-a-0098	A.87	450.177750	450.607750		woman	woman
sw2232A-ms98-a-0098	A.87	450.607750	450.689250		and	and
sw2232A-ms98-a-0098	A.87	450.689250	450.817250		a	a
sw2232A-ms98-a-0098	A.87	450.817250	451.107750		child	child
sw2232A-ms98-a-0098	A.87	451.107750	451.476750	<SUB>	and	or
sw2232A-ms98-a-0098	A.87	451.476750	451.580375	<SUB>	a	the
sw2232A-ms98-a-0098	A.89	451.580375	451.810125		[silence]	[silence]
sw2232A-ms98-a-0098	A.89	451.810125	452.153125	<DEL>	---	cat
sw2232A-ms98-a-0098	A.89	452.153125	452.307500		the	the
sw2232A-ms98-a-0098	A.89	452.307500	452.833625		sheep	sheep
sw2232A-ms98-a-0098	A.89	452.833625	453.098375		Yeah	yeah
sw2232A-ms98-a-0098	A.91	453.098375	453.596750		[silence]	[silence]
sw2232A-ms98-a-0099	A.91	453.596750	457.920000		[silence]	[silence]
sw2232A-ms98-a-0100	A.91	457.920000	458.503000		[silence]	[silence]
sw2232A-ms98-a-0100	A.91	458.503000	458.567125		I	i
sw2232A-ms98-a-0100	A.91	458.567125	458.950000		know	know
sw2232A-ms98-a-0100	A.93	458.950000	459.568375		[silence]	[silence]
sw2232A-ms98-a-0101	A.93	459.568375	460.048375		[silence]	[silence]
sw2232A-ms98-a-0101	A.93	460.048375	460.188375		But	but
sw2232A-ms98-a-0101	A.93	460.188375	460.358375		then	then
sw2232A-ms98-a-0101	A.93	460.358375	460.788375		again	again
sw2232A-ms98-a-0101	A.93	460.788375	461.018375		though	though
sw2232A-ms98-a-0101	A.93	461.018375	461.408375		Jesus	Jesus
sw2232A-ms98-a-0101	A.93	461.408375	461.518375		the	the
sw2232A-ms98-a-0101	A.93	461.518375	461.938375		grace	grace
sw2232A-ms98-a-0101	A.93	461.938375	462.338375		pushes	pushes
sw2232A-ms98-a-0101	A.93	462.338375	462.468375		you	you
sw2232A-ms98-a-0101	A.93	462.468375	462.918375		beyond	beyond
sw2232A-ms98-a-0101	A.93	462.918375	463.060750		the	the
sw2232A-ms98-a-0101	A.93	463.060750	463.542875		law	law
sw2232A-ms98-a-0101	A.93	463.542875	463.622000		you	you
sw2232A-ms98-a-0101	A.93	463.622000	463.678375		know	know
sw2232A-ms98-a-0101	A.93	463.678375	463.768375		what	what
sw2232A-ms98-a-0101	A.93	463.768375	463.854250		I'm	i'm
sw2232A-ms98-a-0101	A.93	463.854250	464.200750		saying	saying
sw2232A-ms98-a-0101	A.93	464.200750	464.442750		like	like
sw2232A-ms98-a-0101	A.93	464.442750	464.898000		[silence]	[silence]
sw2232A-ms98-a-0101	A.93	464.898000	465.033625		so	so
sw2232A-ms98-a-0101	A.93	465.033625	465.138625		he	he
sw2232A-ms98-a-0101	A.93	465.138625	465.309000		didn't	didn't
sw2232A-ms98-a-0101	A.93	465.309000	465.568375		just	just
sw2232A-ms98-a-0101	A.93	465.568375	465.977375		say	say
sw2232A-ms98-a-0101	A.93	465.977375	466.124250		[silence]	[silence]
sw2232A-ms98-a-0101	A.93	466.124250	466.388375		don't	don't
sw2232A-ms98-a-0101	A.93	466.388375	466.598375		kill	kill
sw2232A-ms98-a-0101	A.93	466.598375	466.878375		your	your
sw2232A-ms98-a-0101	A.93	466.878375	467.176125		don't	don't
sw2232A-ms98-a-0101	A.93	467.176125	467.345625		kill	kill
sw2232A-ms98-a-0101	A.93	467.345625	467.518375		your	your
sw2232A-ms98-a-0101	A.93	467.518375	467.868375		enemies	enemies
sw2232A-ms98-a-0101	A.93	467.868375	468.118375		but	but
sw2232A-ms98-a-0101	A.93	468.118375	468.418375		[silence]	[silence]
sw2232A-ms98-a-0101	A.93	468.418375	468.558375	<SUB>	not	don't
sw2232A-ms98-a-0101	A.93	468.558375	468.768375		only	only
sw2232A-ms98-a-0101	A.93	468.768375	468.978375		don't	don't
sw2232A-ms98-a-0101	A.93	468.978375	469.176125		kill	kill
sw2232A-ms98-a-0101	A.93	469.176125	469.341875		them	them_1
sw2232A-ms98-a-0101	A.93	469.341875	469.708375		bless	bless
sw2232A-ms98-a-0101	A.93	469.708375	469.918375		them	them_1
sw2232A-ms98-a-0101	A.93	469.918375	470.120375		[silence]	[silence]
sw2232A-ms98-a-0101	A.93	470.120375	470.282250		You	you
sw2232A-ms98-a-0101	A.93	470.282250	470.551750		know	know
sw2232A-ms98-a-0101	A.93	470.551750	470.791500		[silence]	[silence]
sw2232A-ms98-a-0102	A.93	470.791500	470.947625		[silence]	[silence]
sw2232A-ms98-a-0102	A.93	470.947625	471.050250		and	and
sw2232A-ms98-a-0102	A.93	471.050250	471.366750		so	so
sw2232A-ms98-a-0102	A.93	471.366750	471.962750		therefore	therefore
sw2232A-ms98-a-0102	A.93	471.962750	472.071500		[silence]	[silence]
sw2232A-ms98-a-0102	A.93	472.071500	472.251500		when	when
sw2232A-ms98-a-0102	A.93	472.251500	472.351500		we	we
sw2232A-ms98-a-0102	A.93	472.351500	472.531500		have	have
sw2232A-ms98-a-0102	A.93	472.531500	472.631500		an	an
sw2232A-ms98-a-0102	A.93	472.631500	472.971500		enemy	enemy
sw2232A-ms98-a-0102	A.93	472.971500	473.191500		come	come
sw2232A-ms98-a-0102	A.93	473.191500	473.695875		against	against
sw2232A-ms98-a-0102	A.93	473.695875	473.955750		us	us
sw2232A-ms98-a-0102	A.93	473.955750	474.349500		[silence]	[silence]
sw2232A-ms98-a-0102	A.93	474.349500	474.424875		I	i
sw2232A-ms98-a-0102	A.93	474.424875	474.753625		really	really
sw2232A-ms98-a-0102	A.93	474.753625	474.898000		feel	feel
sw2232A-ms98-a-0102	A.93	474.898000	475.155250		like	like
sw2232A-ms98-a-0102	A.93	475.155250	475.513125		[silence]	[silence]
sw2232A-ms98-a-0103	A.93	475.513125	476.010625		[silence]	[silence]
sw2232A-ms98-a-0103	A.93	476.010625	476.093000	<SUB>	that	but
sw2232A-ms98-a-0103	A.93	476.093000	476.291125		I	i
sw2232A-ms98-a-0103	A.93	476.291125	476.574875		really	really
sw2232A-ms98-a-0103	A.93	476.574875	476.691625		[silence]	[silence]
sw2232A-ms98-a-0103	A.93	476.691625	476.803125		feel	feel
sw2232A-ms98-a-0103	A.93	476.803125	477.079625		like	like
sw2232A-ms98-a-0103	A.93	477.079625	477.222750		I	i
sw2232A-ms98-a-0103	A.93	477.222750	477.403125		know	know
sw2232A-ms98-a-0103	A.93	477.403125	477.546000		I	i
sw2232A-ms98-a-0103	A.93	477.546000	477.705625		do	do
sw2232A-ms98-a-0103	A.93	477.705625	477.950500		feel	feel
sw2232A-ms98-a-0103	A.93	477.950500	478.179000		this	this
sw2232A-ms98-a-0103	A.93	478.179000	478.713750		[silence]	[silence]
sw2232A-ms98-a-0103	A.93	478.713750	479.279125		strongly	strongly
sw2232A-ms98-a-0103	A.93	479.279125	479.738625		[silence]	[silence]
sw2232A-ms98-a-0103	A.93	479.738625	479.853125		that	that
sw2232A-ms98-a-0103	A.93	479.853125	480.101875		when	when
sw2232A-ms98-a-0103	A.93	480.101875	480.365500		if	if
sw2232A-ms98-a-0103	A.93	480.365500	480.503125		we	we
sw2232A-ms98-a-0103	A.93	480.503125	480.683125		had	had
sw2232A-ms98-a-0103	A.93	480.683125	481.083125		someone	someone
sw2232A-ms98-a-0103	A.93	481.083125	481.363125		come	come
sw2232A-ms98-a-0103	A.93	481.363125	481.437375		and	and
sw2232A-ms98-a-0103	A.93	481.437375	481.993125		attack	attack
sw2232A-ms98-a-0103	A.93	481.993125	482.313125		us	us
sw2232A-ms98-a-0103	A.93	482.313125	482.456000		the	the
sw2232A-ms98-a-0103	A.93	482.456000	482.660625		[silence]	[silence]
sw2232A-ms98-a-0103	A.93	482.660625	482.842750		best	best
sw2232A-ms98-a-0103	A.93	482.842750	482.982750		[silence]	[silence]
sw2232A-ms98-a-0103	A.93	482.982750	483.082125		way	way
sw2232A-ms98-a-0103	A.93	483.082125	483.183125		to	to
sw2232A-ms98-a-0103	A.93	483.183125	483.603125		handle	handle
sw2232A-ms98-a-0103	A.93	483.603125	483.713000		it	it
sw2232A-ms98-a-0103	A.93	483.713000	483.905750		[silence]	[silence]
sw2232A-ms98-a-0104	A.93	483.905750	484.205750		[silence]	[silence]
sw2232A-ms98-a-0104	A.93	484.205750	484.365750		would	would
sw2232A-ms98-a-0104	A.93	484.365750	484.565750		be	be
sw2232A-ms98-a-0104	A.93	484.565750	484.745750		to	to
sw2232A-ms98-a-0104	A.93	484.745750	485.249125		bless	bless
sw2232A-ms98-a-0104	A.93	485.249125	485.454750		them	them
sw2232A-ms98-a-0104	A.93	485.454750	485.616625		and	and
sw2232A-ms98-a-0104	A.93	485.616625	486.065750		humbly	humbly
sw2232A-ms98-a-0104	A.93	486.065750	486.325750		go	go
sw2232A-ms98-a-0104	A.93	486.325750	486.465750		to	to
sw2232A-ms98-a-0104	A.93	486.465750	486.795750		their	their
sw2232A-ms98-a-0104	A.93	486.795750	487.005750		other	other
sw2232A-ms98-a-0104	A.93	487.005750	487.425750		king	king
sw2232A-ms98-a-0104	A.93	487.425750	487.505750		or	or
sw2232A-ms98-a-0104	A.93	487.505750	487.625750		the	the
sw2232A-ms98-a-0104	A.93	487.625750	487.805750		other	other
sw2232A-ms98-a-0104	A.93	487.805750	488.125750		ruler	ruler
sw2232A-ms98-a-0104	A.93	488.125750	488.334625		and	and
sw2232A-ms98-a-0104	A.93	488.334625	488.571875		say	say
sw2232A-ms98-a-0104	A.93	488.571875	488.925750		[silence]	[silence]
sw2232A-ms98-a-0104	A.93	488.925750	489.065750		what	what
sw2232A-ms98-a-0104	A.93	489.065750	489.175750		have	have
sw2232A-ms98-a-0104	A.93	489.175750	489.295750		we	we
sw2232A-ms98-a-0104	A.93	489.295750	489.555750		done	done
sw2232A-ms98-a-0104	A.93	489.555750	489.725750		to	to
sw2232A-ms98-a-0104	A.93	489.725750	490.184875		offend	offend
sw2232A-ms98-a-0104	A.93	490.184875	490.524875		you	you
sw2232A-ms98-a-0104	A.93	490.524875	490.762750		[silence]	[silence]
sw2232A-ms98-a-0105	A.93	490.762750	491.002750		[silence]	[silence]
sw2232A-ms98-a-0105	A.93	491.002750	491.302750		What	what
sw2232A-ms98-a-0105	A.93	491.302750	491.452750		can	can
sw2232A-ms98-a-0105	A.93	491.452750	491.582750		we	we
sw2232A-ms98-a-0105	A.93	491.582750	491.792750		do	do
sw2232A-ms98-a-0105	A.93	491.792750	491.892750		to	to
sw2232A-ms98-a-0105	A.93	491.892750	492.422750		rectify	rectify
sw2232A-ms98-a-0105	A.93	492.422750	492.612750		this	this
sw2232A-ms98-a-0105	A.93	492.612750	493.440000		situation	situation
sw2232A-ms98-a-0105	A.93	493.440000	493.721375		[silence]	[silence]
sw2232A-ms98-a-0106	A.93	493.721375	494.031375		[silence]	[silence]
sw2232A-ms98-a-0106	A.93	494.031375	494.211375		and	and
sw2232A-ms98-a-0106	A.93	494.211375	494.551375		that	that
sw2232A-ms98-a-0106	A.93	494.551375	494.861375		God	God
sw2232A-ms98-a-0106	A.93	494.861375	495.051375		would	would
sw2232A-ms98-a-0106	A.93	495.051375	495.431375		move	move
sw2232A-ms98-a-0106	A.93	495.431375	495.591375		in	in
sw2232A-ms98-a-0106	A.93	495.591375	496.011375		that	that
sw2232A-ms98-a-0106	A.93	496.011375	496.677875		sovereignly	sovereignly
sw2232A-ms98-a-0106	A.95	496.677875	496.809750		[silence]	[silence]
sw2232A-ms98-a-0106	A.95	496.809750	496.961500		and	and
sw2232A-ms98-a-0106	A.95	496.961500	497.131000		he	he
sw2232A-ms98-a-0106	A.95	497.131000	497.281375		would	would
sw2232A-ms98-a-0106	A.95	497.281375	497.451375		get	get
sw2232A-ms98-a-0106	A.95	497.451375	497.521375		the	the
sw2232A-ms98-a-0106	A.95	497.521375	497.991375		glory	glory
sw2232A-ms98-a-0106	A.95	497.991375	498.141375		though	though
sw2232A-ms98-a-0106	A.95	498.141375	498.381375		no	no
sw2232A-ms98-a-0106	A.95	498.381375	498.801375		king	king
sw2232A-ms98-a-0106	A.95	498.801375	498.966625		no	no
sw2232A-ms98-a-0106	A.95	498.966625	499.226500		[silence]	[silence]
sw2232A-ms98-a-0106	A.95	499.226500	499.501375		Bush	Bush
sw2232A-ms98-a-0106	A.95	499.501375	499.907375		wouldn't	wouldn't
sw2232A-ms98-a-0106	A.95	499.907375	500.087375		[silence]	[silence]
sw2232A-ms98-a-0107	A.95	500.087375	500.287375		[silence]	[silence]
sw2232A-ms98-a-0107	A.95	500.287375	500.527375		because	because
sw2232A-ms98-a-0107	A.95	500.527375	500.617375		it	it
sw2232A-ms98-a-0107	A.95	500.617375	500.797375		wouldn't	wouldn't
sw2232A-ms98-a-0107	A.95	500.797375	501.027375		make	make
sw2232A-ms98-a-0107	A.95	501.027375	501.237375		any	any
sw2232A-ms98-a-0107	A.95	501.237375	501.777375		sense	sense
sw2232A-ms98-a-0107	A.95	501.777375	501.857375		you	you
sw2232A-ms98-a-0107	A.95	501.857375	501.917375		know	know
sw2232A-ms98-a-0107	A.95	501.917375	502.017375		what	what
sw2232A-ms98-a-0107	A.95	502.017375	502.017375	<INS>	are	---
sw2232A-ms98-a-0107	A.95	502.017375	502.087375		I'm	i'm
sw2232A-ms98-a-0107	A.95	502.087375	502.451125		saying	saying
sw2232A-ms98-a-0107	A.97	502.451125	502.876750		[silence]	[silence]
sw2232A-ms98-a-0107	A.97	502.876750	503.007375	<CONT>	It	it'd
sw2232A-ms98-a-0107	A.97	503.007375	503.007375	<CONT>	would	+++
sw2232A-ms98-a-0107	A.97	503.007375	503.187375		look	look
sw2232A-ms98-a-0107	A.97	503.187375	503.727375		absolutely	absolutely
sw2232A-ms98-a-0107	A.97	503.727375	504.457375		ridiculously	ridiculously
sw2232A-ms98-a-0107	A.97	504.457375	504.932000		stupid	stupid
sw2232A-ms98-a-0107	A.97	504.932000	505.120250		[silence]	[silence]
sw2232A-ms98-a-0107	A.97	505.120250	505.434000		but	but
sw2232A-ms98-a-0107	A.97	505.434000	505.761750		[silence]	[silence]
sw2232A-ms98-a-0107	A.97	505.761750	505.917375		it	it
sw2232A-ms98-a-0107	A.97	505.917375	506.107375		would	would
sw2232A-ms98-a-0107	A.97	506.107375	506.404625		work	work
sw2232A-ms98-a-0107	A.97	506.404625	506.762500		out	out
sw2232A-ms98-a-0107	A.97	506.762500	507.404250		because	because
sw2232A-ms98-a-0107	A.97	507.404250	507.619125		[silence]	[silence]
sw2232A-ms98-a-0108	A.97	507.619125	507.759125		[silence]	[silence]
sw2232A-ms98-a-0108	A.97	507.759125	507.929125		if	if
sw2232A-ms98-a-0108	A.97	507.929125	508.049125		you	you
sw2232A-ms98-a-0108	A.97	508.049125	508.299125		follow	follow
sw2232A-ms98-a-0108	A.97	508.299125	508.429125		the	the
sw2232A-ms98-a-0108	A.97	508.429125	508.869125		scriptural	scriptural
sw2232A-ms98-a-0108	A.97	508.869125	509.509125		principals	principals
sw2232A-ms98-a-0108	A.97	509.509125	509.659125		it's	it's
sw2232A-ms98-a-0108	A.97	509.659125	509.789125		going	going
sw2232A-ms98-a-0108	A.97	509.789125	509.889125		to	to
sw2232A-ms98-a-0108	A.97	509.889125	510.109000		work	work
sw2232A-ms98-a-0108	A.97	510.109000	510.399125		out	out
sw2232A-ms98-a-0108	A.97	510.399125	510.549125		because	because_1
sw2232A-ms98-a-0108	A.97	510.549125	510.769125		those	those
sw2232A-ms98-a-0108	A.97	510.769125	510.879125		are	are
sw2232A-ms98-a-0108	A.97	510.879125	511.117625		that's	that's
sw2232A-ms98-a-0108	A.97	511.117625	511.319250		[silence]	[silence]
sw2232A-ms98-a-0109	A.97	511.319250	511.540500		[silence]	[silence]
sw2232A-ms98-a-0109	A.97	511.540500	511.617375		the	the
sw2232A-ms98-a-0109	A.97	511.617375	511.899250		best	best
sw2232A-ms98-a-0109	A.97	511.899250	512.052625		way	way
sw2232A-ms98-a-0109	A.97	512.052625	512.195875		to	to
sw2232A-ms98-a-0109	A.97	512.195875	512.309250		do	do
sw2232A-ms98-a-0109	A.97	512.309250	512.469250		it	it
sw2232A-ms98-a-0109	A.97	512.469250	512.579250		you	you
sw2232A-ms98-a-0109	A.97	512.579250	512.823250		know	know
sw2232A-ms98-a-0109	A.97	512.823250	513.117000		[silence]	[silence]
sw2232A-ms98-a-0109	A.97	513.117000	513.319250		but	but
sw2232A-ms98-a-0109	A.97	513.319250	513.458125		the	the
sw2232A-ms98-a-0109	A.97	513.458125	513.710500		thing	thing
sw2232A-ms98-a-0109	A.97	513.710500	513.939250		is	is
sw2232A-ms98-a-0109	A.97	513.939250	514.059250		is	is
sw2232A-ms98-a-0109	A.97	514.059250	514.259250		that	that
sw2232A-ms98-a-0109	A.97	514.259250	514.469250		then	then
sw2232A-ms98-a-0109	A.97	514.469250	514.799250		God	God
sw2232A-ms98-a-0109	A.97	514.799250	515.009250		gets	gets
sw2232A-ms98-a-0109	A.97	515.009250	515.099250		the	the
sw2232A-ms98-a-0109	A.97	515.099250	515.583000		glory	glory
sw2232A-ms98-a-0109	A.97	515.583000	515.910750		[silence]	[silence]
sw2232A-ms98-a-0109	A.97	515.910750	516.159250		not	not
sw2232A-ms98-a-0109	A.97	516.159250	516.209250		a	a
sw2232A-ms98-a-0109	A.97	516.209250	516.899250		president	president
sw2232A-ms98-a-0109	A.97	516.899250	517.139250		not	not
sw2232A-ms98-a-0109	A.97	517.139250	517.199250		a	a
sw2232A-ms98-a-0109	A.97	517.199250	517.755375		king	king
sw2232A-ms98-a-0109	A.97	517.755375	518.098125		[silence]	[silence]
sw2232A-ms98-a-0109	A.97	518.098125	518.178375		and	and
sw2232A-ms98-a-0109	A.97	518.178375	518.302625		I	i
sw2232A-ms98-a-0109	A.97	518.302625	518.519250		think	think
sw2232A-ms98-a-0109	A.97	518.519250	518.759250		that's	that's
sw2232A-ms98-a-0109	A.97	518.759250	518.839250		a	a
sw2232A-ms98-a-0109	A.97	518.839250	519.339250		problem	problem
sw2232A-ms98-a-0109	A.97	519.339250	519.529250		for	for
sw2232A-ms98-a-0109	A.97	519.529250	519.569250		a	a
sw2232A-ms98-a-0109	A.97	519.569250	519.749250		lot	lot
sw2232A-ms98-a-0109	A.97	519.749250	519.819250		of	of
sw2232A-ms98-a-0109	A.97	519.819250	520.659250		politicians	politicians
sw2232A-ms98-a-0109	A.97	520.659250	520.869250		is	is
sw2232A-ms98-a-0109	A.97	520.869250	520.979250		they	they
sw2232A-ms98-a-0109	A.97	520.979250	521.199250		want	want
sw2232A-ms98-a-0109	A.97	521.199250	521.259250		the	the
sw2232A-ms98-a-0109	A.97	521.259250	521.799250		glory	glory
sw2232A-ms98-a-0109	A.99	521.799250	522.113875		[silence]	[silence]
sw2232A-ms98-a-0110	A.99	522.113875	525.815875		[silence]	[silence]
sw2232A-ms98-a-0111	A.99	525.815875	526.186750		[silence]	[silence]
sw2232A-ms98-a-0111	A.99	526.186750	526.688875	<SUB>	Uh-huh	um-hum
sw2232A-ms98-a-0111	A.101	526.688875	527.558500		[silence]	[silence]
sw2232A-ms98-a-0112	A.101	527.558500	528.208500		[silence]	[silence]
sw2232A-ms98-a-0112	A.101	528.208500	528.528500	<SUB>	N-	no
sw2232A-ms98-a-0112	A.101	528.528500	528.988500		well	well
sw2232A-ms98-a-0112	A.101	528.988500	529.088500		I	i
sw2232A-ms98-a-0112	A.101	529.088500	529.423500		believe	believe
sw2232A-ms98-a-0112	A.101	529.423500	529.724875		[silence]	[silence]
sw2232A-ms98-a-0112	A.101	529.724875	530.338500		personally	personally
sw2232A-ms98-a-0112	A.101	530.338500	530.578500		I	i
sw2232A-ms98-a-0112	A.101	530.578500	530.678500		ho-	ho[pe]-
sw2232A-ms98-a-0112	A.101	530.678500	530.678500	<INS>	I	---
sw2232A-ms98-a-0112	A.101	530.678500	530.708500		I	i
sw2232A-ms98-a-0112	A.101	530.708500	531.152625		[laughter]	[laughter]
sw2232A-ms98-a-0112	A.101	531.152625	531.276625		[silence]	[silence]
sw2232A-ms98-a-0113	A.101	531.276625	531.776625		[silence]	[silence]
sw2232A-ms98-a-0113	A.101	531.776625	532.006625	<SUB>	woman	this
sw2232A-ms98-a-0113	A.101	532.006625	532.076625	<DEL>	---	is
sw2232A-ms98-a-0113	A.101	532.076625	532.236625	<DEL>	---	where
sw2232A-ms98-a-0113	A.101	532.236625	532.526625	<DEL>	---	everyone
sw2232A-ms98-a-0113	A.101	532.526625	532.766625		always	always
sw2232A-ms98-a-0113	A.101	532.766625	532.946625		says	says
sw2232A-ms98-a-0113	A.101	532.946625	533.056625		my	my
sw2232A-ms98-a-0113	A.101	533.056625	533.326625		husband	husband
sw2232A-ms98-a-0113	A.101	533.326625	533.526625		always	always
sw2232A-ms98-a-0113	A.101	533.526625	533.736625		goes	goes
sw2232A-ms98-a-0113	A.101	533.736625	533.826625	<SUB>	three	through
sw2232A-ms98-a-0113	A.101	533.826625	534.036625		that	that
sw2232A-ms98-a-0113	A.101	534.036625	534.126625		I	i
sw2232A-ms98-a-0113	A.101	534.126625	534.371000	<SUB>	guess	go
sw2232A-ms98-a-0113	A.101	534.371000	534.987625		[silence]	[silence]
sw2232A-ms98-a-0113	A.101	534.987625	535.277750		Yeah	yeah
sw2232A-ms98-a-0113	A.101	535.277750	535.436625	<SUB>	if	for
sw2232A-ms98-a-0113	A.101	535.436625	535.436625	<INS>	the	---
sw2232A-ms98-a-0113	A.101	535.436625	535.716625		one	one
sw2232A-ms98-a-0113	A.101	535.716625	535.861500		if	if
sw2232A-ms98-a-0113	A.101	535.861500	536.162875		[silence]	[silence]
sw2232A-ms98-a-0113	A.101	536.162875	536.435750	<SUB>	somebody	someone
sw2232A-ms98-a-0113	A.101	536.435750	536.622000		broke	broke
sw2232A-ms98-a-0113	A.101	536.622000	536.682375		in	in
sw2232A-ms98-a-0113	A.101	536.682375	536.766625		my	my
sw2232A-ms98-a-0113	A.101	536.766625	537.106625		house	house
sw2232A-ms98-a-0113	A.101	537.106625	537.246625		I	i
sw2232A-ms98-a-0113	A.101	537.246625	537.456625		would	would
sw2232A-ms98-a-0113	A.101	537.456625	537.796625		pray	pray
sw2232A-ms98-a-0113	A.101	537.796625	537.916625		that	that
sw2232A-ms98-a-0113	A.101	537.916625	537.996625		I	i
sw2232A-ms98-a-0113	A.101	537.996625	538.106625		would	would
sw2232A-ms98-a-0113	A.101	538.106625	538.306625		have	have
sw2232A-ms98-a-0113	A.101	538.306625	538.483625		this	this
sw2232A-ms98-a-0113	A.101	538.483625	538.876625		faith	faith
sw2232A-ms98-a-0113	A.101	538.876625	538.994000		[silence]	[silence]
sw2232A-ms98-a-0113	A.101	538.994000	539.142250	<SUB>	ta-	to
sw2232A-ms98-a-0113	A.101	539.142250	539.270375		[silence]	[silence]
sw2232A-ms98-a-0113	A.101	539.270375	539.626625		to	to
sw2232A-ms98-a-0113	A.101	539.626625	539.778125		[silence]	[silence]
sw2232A-ms98-a-0113	A.101	539.778125	539.917500		to	to
sw2232A-ms98-a-0113	A.101	539.917500	540.145750		take	take
sw2232A-ms98-a-0113	A.101	540.145750	540.771000		authority	authority
sw2232A-ms98-a-0113	A.101	540.771000	541.046625		over	over
sw2232A-ms98-a-0113	A.101	541.046625	541.376625		that	that
sw2232A-ms98-a-0113	A.101	541.376625	541.769750		[silence]	[silence]
sw2232A-ms98-a-0114	A.101	541.769750	542.082750		[silence]	[silence]
sw2232A-ms98-a-0114	A.101	542.082750	542.190750		and	and
sw2232A-ms98-a-0114	A.101	542.190750	542.300125		I	i
sw2232A-ms98-a-0114	A.101	542.300125	542.511125		know	know
sw2232A-ms98-a-0114	A.101	542.511125	542.804625		people	people
sw2232A-ms98-a-0114	A.101	542.804625	542.909750		that	that
sw2232A-ms98-a-0114	A.101	542.909750	543.079750		have	have
sw2232A-ms98-a-0114	A.101	543.079750	543.379750		done	done
sw2232A-ms98-a-0114	A.101	543.379750	543.709750		that	that
sw2232A-ms98-a-0114	A.101	543.709750	543.919000		[silence]	[silence]
sw2232A-ms98-a-0114	A.101	543.919000	544.016625		I	i
sw2232A-ms98-a-0114	A.101	544.016625	544.155875		mean	mean
sw2232A-ms98-a-0114	A.101	544.155875	544.272000		I	i
sw2232A-ms98-a-0114	A.101	544.272000	544.731500		know	know
sw2232A-ms98-a-0114	A.101	544.731500	544.859750		that	that
sw2232A-ms98-a-0114	A.101	544.859750	544.949750		there	there
sw2232A-ms98-a-0114	A.101	544.949750	545.039750		have	have
sw2232A-ms98-a-0114	A.101	545.039750	545.179750		been	been
sw2232A-ms98-a-0114	A.101	545.179750	545.449750		people	people
sw2232A-ms98-a-0114	A.101	545.449750	545.509750		who	who
sw2232A-ms98-a-0114	A.101	545.509750	545.609750		have	have
sw2232A-ms98-a-0114	A.101	545.609750	545.769750		had	had
sw2232A-ms98-a-0114	A.101	545.769750	546.049750		people	people
sw2232A-ms98-a-0114	A.101	546.049750	546.279750		break	break
sw2232A-ms98-a-0114	A.101	546.279750	546.359750		in	in
sw2232A-ms98-a-0114	A.101	546.359750	546.519750		their	their
sw2232A-ms98-a-0114	A.101	546.519750	546.849750		homes	homes
sw2232A-ms98-a-0114	A.101	546.849750	547.099625		[silence]	[silence]
sw2232A-ms98-a-0115	A.101	547.099625	547.399625		[silence]	[silence]
sw2232A-ms98-a-0115	A.101	547.399625	547.569625		and	and
sw2232A-ms98-a-0115	A.101	547.569625	547.819625		just	just
sw2232A-ms98-a-0115	A.101	547.819625	548.009625		say	say
sw2232A-ms98-a-0115	A.101	548.009625	548.089625		I	i
sw2232A-ms98-a-0115	A.101	548.089625	548.539625		bind	bind
sw2232A-ms98-a-0115	A.101	548.539625	548.653500		you	you
sw2232A-ms98-a-0115	A.101	548.653500	548.804125		in	in
sw2232A-ms98-a-0115	A.101	548.804125	549.279625		Jesus	Jesus
sw2232A-ms98-a-0115	A.101	549.279625	549.499625		name	name
sw2232A-ms98-a-0115	A.101	549.499625	549.669625		your	your
sw2232A-ms98-a-0115	A.101	549.669625	549.669625	<INS>	n-	---
sw2232A-ms98-a-0115	A.101	549.669625	550.007250		[vocalized-noise]	[vocalized-noise]
sw2232A-ms98-a-0115	A.101	550.007250	550.229500		I	i
sw2232A-ms98-a-0115	A.101	550.229500	550.539625		just	just
sw2232A-ms98-a-0115	A.101	550.539625	550.729625		and	and
sw2232A-ms98-a-0115	A.101	550.729625	551.199625		rebuke	rebuke
sw2232A-ms98-a-0115	A.101	551.199625	551.299625		[silence]	[silence]
sw2232A-ms98-a-0115	A.101	551.299625	551.559625		any	any
sw2232A-ms98-a-0115	A.101	551.559625	551.907125		enemy	enemy
sw2232A-ms98-a-0115	A.101	551.907125	552.291250		[silence]	[silence]
sw2232A-ms98-a-0115	A.101	552.291250	552.507500		because	because
sw2232A-ms98-a-0115	A.101	552.507500	552.639250		I	i
sw2232A-ms98-a-0115	A.101	552.639250	552.869625		believe	believe
sw2232A-ms98-a-0115	A.101	552.869625	553.009625		it's	it's
sw2232A-ms98-a-0115	A.101	553.009625	553.109625		a	a
sw2232A-ms98-a-0115	A.101	553.109625	553.729625		spiritual	spiritual
sw2232A-ms98-a-0115	A.101	553.729625	554.069625		war	war
sw2232A-ms98-a-0115	A.101	554.069625	554.329625		that's	that's
sw2232A-ms98-a-0115	A.101	554.329625	554.589500		going	going
sw2232A-ms98-a-0115	A.101	554.589500	554.923875		on	on
sw2232A-ms98-a-0115	A.101	554.923875	555.094750		[silence]	[silence]
sw2232A-ms98-a-0116	A.101	555.094750	555.264750		[silence]	[silence]
sw2232A-ms98-a-0116	A.101	555.264750	555.354750		and	and
sw2232A-ms98-a-0116	A.101	555.354750	555.464750		it's	it's
sw2232A-ms98-a-0116	A.101	555.464750	555.622500		not	not
sw2232A-ms98-a-0116	A.101	555.622500	556.083000		normal	normal
sw2232A-ms98-a-0116	A.101	556.083000	556.273625		for	for
sw2232A-ms98-a-0116	A.101	556.273625	556.556000		someone	someone
sw2232A-ms98-a-0116	A.101	556.556000	556.614750		to	to
sw2232A-ms98-a-0116	A.101	556.614750	556.864750		come	come
sw2232A-ms98-a-0116	A.101	556.864750	557.124750		into	into
sw2232A-ms98-a-0116	A.101	557.124750	557.414750		someone	someone
sw2232A-ms98-a-0116	A.101	557.414750	557.724750		elses	elses
sw2232A-ms98-a-0116	A.101	557.724750	558.214750		home	home
sw2232A-ms98-a-0116	A.101	558.214750	558.788625	<DEL>	---	illegally
sw2232A-ms98-a-0116	A.101	558.788625	559.048500		[silence]	[silence]
sw2232A-ms98-a-0116	A.101	559.048500	559.254750		that's	that's
sw2232A-ms98-a-0116	A.101	559.254750	559.434750		not	not
sw2232A-ms98-a-0116	A.101	559.434750	559.894750		normal	normal
sw2232A-ms98-a-0116	A.101	559.894750	560.009875		[silence]	[silence]
sw2232A-ms98-a-0117	A.101	560.009875	560.159875		[silence]	[silence]
sw2232A-ms98-a-0117	A.101	560.159875	560.379875		there's	there's
sw2232A-ms98-a-0117	A.101	560.379875	560.879875		something	something
sw2232A-ms98-a-0117	A.101	560.879875	561.149875		going	going
sw2232A-ms98-a-0117	A.101	561.149875	561.409875		on	on
sw2232A-ms98-a-0117	A.101	561.409875	561.609750		there	there
sw2232A-ms98-a-0117	A.101	561.609750	561.971375		[silence]	[silence]
sw2232A-ms98-a-0117	A.101	561.971375	562.069875		and	and
sw2232A-ms98-a-0117	A.101	562.069875	562.169875		that	that
sw2232A-ms98-a-0117	A.101	562.169875	562.249875		I	i
sw2232A-ms98-a-0117	A.101	562.249875	562.369875		would	would
sw2232A-ms98-a-0117	A.101	562.369875	562.519875		have	have
sw2232A-ms98-a-0117	A.101	562.519875	563.239875		discernment	discernment
sw2232A-ms98-a-0117	A.101	563.239875	563.349875		by	by
sw2232A-ms98-a-0117	A.101	563.349875	563.419875		the	the
sw2232A-ms98-a-0117	A.101	563.419875	563.649875		holy	Holy
sw2232A-ms98-a-0117	A.101	563.649875	564.079875		spirit	Spirit
sw2232A-ms98-a-0117	A.101	564.079875	564.229875		to	to
sw2232A-ms98-a-0117	A.101	564.229875	564.309875	<SUB>	deal	be
sw2232A-ms98-a-0117	A.101	564.309875	564.479875	<SUB>	with	able
sw2232A-ms98-a-0117	A.101	564.479875	564.539875	<SUB>	pride	to
sw2232A-ms98-a-0117	A.101	564.539875	564.876750	<DEL>	---	pray
sw2232A-ms98-a-0117	A.101	564.876750	565.219750		over	over
sw2232A-ms98-a-0117	A.101	565.219750	565.546375		that	that
sw2232A-ms98-a-0117	A.101	565.546375	565.793625		[silence]	[silence]
sw2232A-ms98-a-0118	A.101	565.793625	565.963625		[silence]	[silence]
sw2232A-ms98-a-0118	A.101	565.963625	566.043625		Do	do
sw2232A-ms98-a-0118	A.101	566.043625	566.113625		you	you
sw2232A-ms98-a-0118	A.101	566.113625	566.223625		see	see
sw2232A-ms98-a-0118	A.101	566.223625	566.313625		what	what
sw2232A-ms98-a-0118	A.101	566.313625	566.373625		I	i
sw2232A-ms98-a-0118	A.101	566.373625	566.713625		mean	mean
sw2232A-ms98-a-0118	A.103	566.713625	567.061000		[silence]	[silence]
sw2232A-ms98-a-0118	A.103	567.061000	567.143875		And	and
sw2232A-ms98-a-0118	A.103	567.143875	567.293625		then	then
sw2232A-ms98-a-0118	A.103	567.293625	567.463625		the	the
sw2232A-ms98-a-0118	A.103	567.463625	567.733625		same	same
sw2232A-ms98-a-0118	A.103	567.733625	567.853625		in	in
sw2232A-ms98-a-0118	A.103	567.853625	568.472500		Vietnam	Vietnam
sw2232A-ms98-a-0118	A.103	568.472500	568.732375		[silence]	[silence]
sw2232A-ms98-a-0118	A.103	568.732375	568.813625		you	you
sw2232A-ms98-a-0118	A.103	568.813625	568.983625		would	would
sw2232A-ms98-a-0118	A.103	568.983625	569.083625		you	you
sw2232A-ms98-a-0118	A.103	569.083625	569.273625		wouldn't	wouldn't
sw2232A-ms98-a-0118	A.103	569.273625	569.553625		handle	handle
sw2232A-ms98-a-0118	A.103	569.553625	570.012625		Vietnam	Vietnam
sw2232A-ms98-a-0118	A.103	570.012625	570.110625		the	the
sw2232A-ms98-a-0118	A.103	570.110625	570.363625		same	same
sw2232A-ms98-a-0118	A.103	570.363625	570.453625		way	way
sw2232A-ms98-a-0118	A.103	570.453625	570.583625		you	you
sw2232A-ms98-a-0118	A.103	570.583625	570.743625		would	would
sw2232A-ms98-a-0118	A.103	570.743625	571.121375		handle	handle
sw2232A-ms98-a-0118	A.103	571.121375	571.272000		[silence]	[silence]
sw2232A-ms98-a-0118	A.103	571.272000	571.463625		uh	uh
sw2232A-ms98-a-0118	A.103	571.463625	571.883625		Saddam	Saddam
sw2232A-ms98-a-0118	A.103	571.883625	572.463625	<SUB>	Houssein	Hussein
sw2232A-ms98-a-0118	A.103	572.463625	572.885375		[silence]	[silence]
sw2232A-ms98-a-0119	A.103	572.885375	573.235375		[silence]	[silence]
sw2232A-ms98-a-0119	A.103	573.235375	574.003875		But	but
sw2232A-ms98-a-0119	A.103	574.003875	574.195375		I	i
sw2232A-ms98-a-0119	A.103	574.195375	574.455375	<SUB>	was	just
sw2232A-ms98-a-0119	A.103	574.455375	574.615375		I	i
sw2232A-ms98-a-0119	A.103	574.615375	574.755375		have	have
sw2232A-ms98-a-0119	A.103	574.755375	574.835375		a	a
sw2232A-ms98-a-0119	A.103	574.835375	575.225375		problem	problem
sw2232A-ms98-a-0119	A.103	575.225375	575.395375		with	with
sw2232A-ms98-a-0119	A.103	575.395375	575.525375		all	all
sw2232A-ms98-a-0119	A.103	575.525375	575.595375		the	the
sw2232A-ms98-a-0119	A.103	575.595375	576.135375		killing	killing
sw2232A-ms98-a-0119	A.103	576.135375	576.255375		but	but
sw2232A-ms98-a-0119	A.103	576.255375	576.365375		I'm	i'm
sw2232A-ms98-a-0119	A.103	576.365375	576.605375		not	not
sw2232A-ms98-a-0119	A.103	576.605375	576.655375		a	a
sw2232A-ms98-a-0119	A.103	576.655375	576.905375		new	new
sw2232A-ms98-a-0119	A.103	576.905375	577.345375		ager	ager
sw2232A-ms98-a-0119	A.103	577.345375	577.415375		I	i
sw2232A-ms98-a-0119	A.103	577.415375	577.665375		don't	don't
sw2232A-ms98-a-0119	A.103	577.665375	578.181250		believe	believe
sw2232A-ms98-a-0119	A.103	578.181250	578.550375		[silence]	[silence]
sw2232A-ms98-a-0120	A.103	578.550375	578.699250		[silence]	[silence]
sw2232A-ms98-a-0120	A.103	578.699250	578.969625	<DEL>	---	means
sw2232A-ms98-a-0120	A.103	578.969625	579.186125	<DEL>	---	that
sw2232A-ms98-a-0120	A.103	579.186125	579.330375		I	i
sw2232A-ms98-a-0120	A.103	579.330375	579.450375		am	am
sw2232A-ms98-a-0120	A.103	579.450375	579.690375		not	not
sw2232A-ms98-a-0120	A.103	579.690375	579.880375		for	for
sw2232A-ms98-a-0120	A.103	579.880375	580.140375		one	one
sw2232A-ms98-a-0120	A.103	580.140375	580.380375		world	world
sw2232A-ms98-a-0120	A.103	580.380375	580.930375		government	government
sw2232A-ms98-a-0120	A.103	580.930375	581.030375		I'm	i'm
sw2232A-ms98-a-0120	A.103	581.030375	581.290375		not	not
sw2232A-ms98-a-0120	A.103	581.290375	581.440375		for	for
sw2232A-ms98-a-0120	A.103	581.440375	581.590375		all	all
sw2232A-ms98-a-0120	A.103	581.590375	581.753000		these	these
sw2232A-ms98-a-0120	A.103	581.753000	581.956375		[silence]	[silence]
sw2232A-ms98-a-0120	A.103	581.956375	582.200375		new	new
sw2232A-ms98-a-0120	A.103	582.200375	582.529000		age	age
sw2232A-ms98-a-0120	A.103	582.529000	582.939000		things	things
sw2232A-ms98-a-0120	A.103	582.939000	583.364625		[silence]	[silence]
sw2232A-ms98-a-0120	A.103	583.364625	583.517875	<SUB>	I	i-
sw2232A-ms98-a-0120	A.103	583.517875	583.980625		[vocalized-noise]	[vocalized-noise]
sw2232A-ms98-a-0120	A.103	583.980625	584.054125		I	i
sw2232A-ms98-a-0120	A.103	584.054125	584.054125	<INS>	you	---
sw2232A-ms98-a-0120	A.103	584.054125	584.054125	<INS>	know	---
sw2232A-ms98-a-0120	A.103	584.054125	584.054125	<INS>	I	---
sw2232A-ms98-a-0120	A.103	584.054125	584.180375		don't	don't
sw2232A-ms98-a-0120	A.103	584.180375	584.310375		have	have
sw2232A-ms98-a-0120	A.103	584.310375	584.380375		a	a
sw2232A-ms98-a-0120	A.103	584.380375	584.790375		problem	problem
sw2232A-ms98-a-0120	A.103	584.790375	584.982000		with	with
sw2232A-ms98-a-0120	A.103	584.982000	585.084875		[silence]	[silence]
sw2232A-ms98-a-0120	A.103	585.084875	585.521625		uh	uh
sw2232A-ms98-a-0120	A.103	585.521625	585.772250		[silence]	[silence]
sw2232A-ms98-a-0121	A.103	585.772250	585.962250		[silence]	[silence]
sw2232A-ms98-a-0121	A.103	585.962250	586.501250		national	national
sw2232A-ms98-a-0121	A.103	586.501250	587.179125		identity	identity
sw2232A-ms98-a-0121	A.103	587.179125	587.436000		and	and
sw2232A-ms98-a-0121	A.103	587.436000	587.661875		[silence]	[silence]
sw2232A-ms98-a-0121	A.103	587.661875	587.822250		I'm	i'm
sw2232A-ms98-a-0121	A.103	587.822250	587.902250		an	an
sw2232A-ms98-a-0121	A.103	587.902250	588.506875		American	American
sw2232A-ms98-a-0121	A.103	588.506875	588.691375		and	and
sw2232A-ms98-a-0121	A.103	588.691375	589.042250		[silence]	[silence]
sw2232A-ms98-a-0121	A.103	589.042250	589.332250		having	having
sw2232A-ms98-a-0121	A.103	589.332250	589.642250		different	different
sw2232A-ms98-a-0121	A.103	589.642250	590.172250		nations	nations
sw2232A-ms98-a-0121	A.103	590.172250	590.302250		and	and
sw2232A-ms98-a-0121	A.103	590.302250	590.432250		all	all
sw2232A-ms98-a-0121	A.103	590.432250	590.502250		of	of
sw2232A-ms98-a-0121	A.103	590.502250	590.811375		this	this
sw2232A-ms98-a-0121	A.103	590.811375	591.174375		[silence]	[silence]
sw2232A-ms98-a-0122	A.103	591.174375	591.600750		[silence]	[silence]
sw2232A-ms98-a-0122	A.103	591.600750	591.815250		But	but
sw2232A-ms98-a-0122	A.103	591.815250	592.035500		[silence]	[silence]
sw2232A-ms98-a-0122	A.103	592.035500	592.174375	<CONT>	I'm	i
sw2232A-ms98-a-0122	A.103	592.174375	592.374375	<CONT>	+++	am
sw2232A-ms98-a-0122	A.103	592.374375	592.864375		concerned	concerned
sw2232A-ms98-a-0122	A.103	592.864375	593.134375		about	about
sw2232A-ms98-a-0122	A.103	593.134375	593.258625		[silence]	[silence]
sw2232A-ms98-a-0122	A.103	593.258625	593.360375		the	the
sw2232A-ms98-a-0122	A.103	593.360375	593.794375		killing	killing
sw2232A-ms98-a-0122	A.103	593.794375	593.914375		that	that
sw2232A-ms98-a-0122	A.103	593.914375	594.124375		went	went
sw2232A-ms98-a-0122	A.103	594.124375	594.344375		on	on
sw2232A-ms98-a-0122	A.103	594.344375	594.625750		there	there
sw2232A-ms98-a-0122	A.103	594.625750	594.953375		[silence]	[silence]
sw2232A-ms98-a-0122	A.103	594.953375	595.066125		because	because
sw2232A-ms98-a-0122	A.103	595.066125	595.171625		I	i
sw2232A-ms98-a-0122	A.103	595.171625	595.514375		just	just
sw2232A-ms98-a-0122	A.103	595.514375	595.694375		feel	feel
sw2232A-ms98-a-0122	A.103	595.694375	595.904375		like	like
sw2232A-ms98-a-0122	A.103	595.904375	596.164375		God	God
sw2232A-ms98-a-0122	A.103	596.164375	596.384375		has	has
sw2232A-ms98-a-0122	A.103	596.384375	596.434375		a	a
sw2232A-ms98-a-0122	A.103	596.434375	596.664375		better	better
sw2232A-ms98-a-0122	A.103	596.664375	596.815000		way	way
sw2232A-ms98-a-0122	A.103	596.815000	596.894000		to	to
sw2232A-ms98-a-0122	A.103	596.894000	597.184375		handle	handle
sw2232A-ms98-a-0122	A.103	597.184375	597.314750		it	it
sw2232A-ms98-a-0122	A.103	597.314750	597.947500		[silence]	[silence]
sw2232A-ms98-a-0122	A.103	597.947500	598.174375		than	than
sw2232A-ms98-a-0122	A.103	598.174375	598.604375		that	that
sw2232A-ms98-a-0122	A.103	598.604375	598.824625		[silence]	[silence]
sw2232A-ms98-a-0122	A.103	598.824625	599.022000		and	and
sw2232A-ms98-a-0122	A.103	599.022000	599.022000		[silence]	[silence]
