sw2268A-ms98-a-0001	A.1	0.000000	0.003000		[silence]	[silence]
sw2268A-ms98-a-0001	A.1	0.003000	0.083625		[noise]	[noise]
sw2268A-ms98-a-0001	A.1	0.083625	0.312750		[silence]	[silence]
sw2268A-ms98-a-0002	A.1	0.312750	0.581875		[silence]	[silence]
sw2268A-ms98-a-0002	A.1	0.581875	0.782750		what	what
sw2268A-ms98-a-0002	A.1	0.782750	1.012750		kind	kind
sw2268A-ms98-a-0002	A.1	1.012750	1.082750		of	of
sw2268A-ms98-a-0002	A.1	1.082750	1.492750		fishing	fishing
sw2268A-ms98-a-0002	A.1	1.492750	1.572750		do	do
sw2268A-ms98-a-0002	A.1	1.572750	1.732750		you	you
sw2268A-ms98-a-0002	A.1	1.732750	2.423000		enjoy	enjoy
sw2268A-ms98-a-0002	A.3	2.423000	2.825000		[silence]	[silence]
sw2268A-ms98-a-0003	A.3	2.825000	18.428125		[silence]	[silence]
sw2268A-ms98-a-0004	A.3	18.428125	19.018125		[silence]	[silence]
sw2268A-ms98-a-0004	A.3	19.018125	19.198125		So	so
sw2268A-ms98-a-0004	A.3	19.198125	19.348125		you	you
sw2268A-ms98-a-0004	A.3	19.348125	19.548125		like	like
sw2268A-ms98-a-0004	A.3	19.548125	19.868125		fresh	fresh
sw2268A-ms98-a-0004	A.3	19.868125	20.211750		water	water
sw2268A-ms98-a-0004	A.5	20.211750	20.466750		[silence]	[silence]
sw2268A-ms98-a-0005	A.5	20.466750	24.646500		[silence]	[silence]
sw2268A-ms98-a-0006	A.5	24.646500	25.136500		[silence]	[silence]
sw2268A-ms98-a-0006	A.5	25.136500	25.575750		Uh-huh	uh-huh
sw2268A-ms98-a-0006	A.7	25.575750	26.204875		[silence]	[silence]
sw2268A-ms98-a-0007	A.7	26.204875	26.861375		[silence]	[silence]
sw2268A-ms98-a-0007	A.7	26.861375	27.164875		Oh	oh
sw2268A-ms98-a-0007	A.7	27.164875	27.381250		I	i
sw2268A-ms98-a-0007	A.7	27.381250	27.788750		see	[laughter-see]
sw2268A-ms98-a-0007	A.9	27.788750	28.268875		[silence]	[silence]
sw2268A-ms98-a-0008	A.9	28.268875	33.726375		[silence]	[silence]
sw2268A-ms98-a-0009	A.9	33.726375	34.230750		[silence]	[silence]
sw2268A-ms98-a-0009	A.9	34.230750	34.416375		Well	well
sw2268A-ms98-a-0009	A.9	34.416375	34.546375		I	i
sw2268A-ms98-a-0009	A.9	34.546375	34.796375		was	was
sw2268A-ms98-a-0009	A.9	34.796375	35.186375		raised	raised
sw2268A-ms98-a-0009	A.9	35.186375	35.276375		on	on
sw2268A-ms98-a-0009	A.9	35.276375	35.346375		the	the
sw2268A-ms98-a-0009	A.9	35.346375	35.806375		Texas	Texas
sw2268A-ms98-a-0009	A.9	35.806375	36.096375		gulf	Gulf
sw2268A-ms98-a-0009	A.9	36.096375	36.486375		coast	Coast
sw2268A-ms98-a-0009	A.11	36.486375	36.596375		in	in
sw2268A-ms98-a-0009	A.11	36.596375	36.696375		the	the
sw2268A-ms98-a-0009	A.11	36.696375	37.385125		summers	summers
sw2268A-ms98-a-0009	A.11	37.385125	37.742875		[silence]	[silence]
sw2268A-ms98-a-0009	A.11	37.742875	38.256375		and	and
sw2268A-ms98-a-0009	A.11	38.256375	38.636375		during	during
sw2268A-ms98-a-0009	A.11	38.636375	38.696375		the	the
sw2268A-ms98-a-0009	A.11	38.696375	39.256375		Christmas	Christmas
sw2268A-ms98-a-0009	A.11	39.256375	39.926375		holidays	holidays
sw2268A-ms98-a-0009	A.11	39.926375	40.086375		we'd	we'd
sw2268A-ms98-a-0009	A.11	40.086375	40.236375		go	go
sw2268A-ms98-a-0009	A.11	40.236375	40.446375		down	down
sw2268A-ms98-a-0009	A.11	40.446375	40.546375		to	to
sw2268A-ms98-a-0009	A.11	40.546375	40.696375		our	our
sw2268A-ms98-a-0009	A.11	40.696375	41.046375		house	house
sw2268A-ms98-a-0009	A.11	41.046375	41.146625		on	on
sw2268A-ms98-a-0009	A.11	41.146625	41.255125		the	the
sw2268A-ms98-a-0009	A.11	41.255125	41.702125		coast	coast
sw2268A-ms98-a-0009	A.13	41.702125	41.842000		[silence]	[silence]
sw2268A-ms98-a-0010	A.13	41.842000	42.492000		[silence]	[silence]
sw2268A-ms98-a-0010	A.13	42.492000	42.802000		and	and
sw2268A-ms98-a-0010	A.13	42.802000	43.238875		so	so
sw2268A-ms98-a-0010	A.13	43.238875	43.792625		[silence]	[silence]
sw2268A-ms98-a-0010	A.13	43.792625	44.105250		I	i
sw2268A-ms98-a-0010	A.13	44.105250	44.532000		thought	thought
sw2268A-ms98-a-0010	A.13	44.532000	44.832000		fish	fish
sw2268A-ms98-a-0010	A.13	44.832000	45.112000		came	came
sw2268A-ms98-a-0010	A.13	45.112000	45.282000		out	out
sw2268A-ms98-a-0010	A.13	45.282000	45.414875		of	of
sw2268A-ms98-a-0010	A.13	45.414875	45.640250		the	the
sw2268A-ms98-a-0010	A.13	45.640250	46.293750		ocean	ocean
sw2268A-ms98-a-0010	A.15	46.293750	46.406875		[silence]	[silence]
sw2268A-ms98-a-0011	A.15	46.406875	47.430125		[silence]	[silence]
sw2268A-ms98-a-0012	A.15	47.430125	47.744125		[silence]	[silence]
sw2268A-ms98-a-0012	A.15	47.744125	47.900125		and	and
sw2268A-ms98-a-0012	A.15	47.900125	48.360125		anything	anything
sw2268A-ms98-a-0012	A.15	48.360125	48.470125		that	that
sw2268A-ms98-a-0012	A.15	48.470125	48.680125		was	was
sw2268A-ms98-a-0012	A.15	48.680125	49.030125		fresh	fresh
sw2268A-ms98-a-0012	A.15	49.030125	49.380125		water	water
sw2268A-ms98-a-0012	A.15	49.380125	49.677125		was	was
sw2268A-ms98-a-0012	A.15	49.677125	50.290125		muddy	muddy
sw2268A-ms98-a-0012	A.17	50.290125	50.517125		[silence]	[silence]
sw2268A-ms98-a-0013	A.17	50.517125	50.863750		[silence]	[silence]
sw2268A-ms98-a-0013	A.17	50.863750	51.328375		so	so
sw2268A-ms98-a-0013	A.17	51.328375	51.620000		I	i
sw2268A-ms98-a-0013	A.17	51.620000	52.078375		didn't	didn't
sw2268A-ms98-a-0013	A.17	52.078375	52.409750		[silence]	[silence]
sw2268A-ms98-a-0013	A.17	52.409750	52.767125		learn	learn
sw2268A-ms98-a-0013	A.17	52.767125	52.947125		to	to
sw2268A-ms98-a-0013	A.17	52.947125	53.247125		fish	fish
sw2268A-ms98-a-0013	A.17	53.247125	53.387125		in	in
sw2268A-ms98-a-0013	A.17	53.387125	53.507125		a	a
sw2268A-ms98-a-0013	A.17	53.507125	53.907125		lake	lake
sw2268A-ms98-a-0013	A.17	53.907125	54.347125		until	until
sw2268A-ms98-a-0013	A.17	54.347125	54.457125		I	i
sw2268A-ms98-a-0013	A.17	54.457125	54.697125		was	was
sw2268A-ms98-a-0013	A.17	54.697125	54.887125		well	well
sw2268A-ms98-a-0013	A.17	54.887125	55.117125		into	into
sw2268A-ms98-a-0013	A.17	55.117125	55.349000		my	my
sw2268A-ms98-a-0013	A.17	55.349000	56.046125		twenties	twenties
sw2268A-ms98-a-0013	A.19	56.046125	56.435750		[silence]	[silence]
sw2268A-ms98-a-0014	A.19	56.435750	56.722125		[silence]	[silence]
sw2268A-ms98-a-0014	A.19	56.722125	57.125750		so	so
sw2268A-ms98-a-0014	A.19	57.125750	57.345750		I	i
sw2268A-ms98-a-0014	A.19	57.345750	57.667500		had	had
sw2268A-ms98-a-0014	A.19	57.667500	57.895750		I	i
sw2268A-ms98-a-0014	A.19	57.895750	58.165750		had	had
sw2268A-ms98-a-0014	A.19	58.165750	58.515750		always	always
sw2268A-ms98-a-0014	A.19	58.515750	58.755750		been	been
sw2268A-ms98-a-0014	A.19	58.755750	58.987000		a	a
sw2268A-ms98-a-0014	A.19	58.987000	59.352375		[silence]	[silence]
sw2268A-ms98-a-0014	A.19	59.352375	59.515750		a	a
sw2268A-ms98-a-0014	A.19	59.515750	59.885750		sea	sea
sw2268A-ms98-a-0014	A.19	59.885750	60.355750		fisher	fisher
sw2268A-ms98-a-0014	A.19	60.355750	60.977000		type	type
sw2268A-ms98-a-0014	A.21	60.977000	61.421375		[silence]	[silence]
sw2268A-ms98-a-0014	A.21	61.421375	61.585750		which	which
sw2268A-ms98-a-0014	A.21	61.585750	61.745750		is	is
sw2268A-ms98-a-0014	A.21	61.745750	61.955750		a	a
sw2268A-ms98-a-0014	A.21	61.955750	62.678625		lot	lot
sw2268A-ms98-a-0014	A.21	62.678625	62.797500		[silence]	[silence]
sw2268A-ms98-a-0014	A.21	62.797500	63.067875		of	of
sw2268A-ms98-a-0014	A.21	63.067875	63.293750		[silence]	[silence]
sw2268A-ms98-a-0014	A.21	63.293750	63.887375		fun	fun
sw2268A-ms98-a-0014	A.23	63.887375	64.351250		[silence]	[silence]
sw2268A-ms98-a-0015	A.23	64.351250	65.001250		[silence]	[silence]
sw2268A-ms98-a-0015	A.23	65.001250	65.241250		There's	there's
sw2268A-ms98-a-0015	A.23	65.241250	65.391250		so	so
sw2268A-ms98-a-0015	A.23	65.391250	65.591250		many	many
sw2268A-ms98-a-0015	A.23	65.591250	66.161250		different	different
sw2268A-ms98-a-0015	A.23	66.161250	66.691250		ways	ways
sw2268A-ms98-a-0015	A.23	66.691250	66.811250		to	to
sw2268A-ms98-a-0015	A.23	66.811250	67.399000		catch	catch
sw2268A-ms98-a-0015	A.23	67.399000	67.832375		fish	fish
sw2268A-ms98-a-0015	A.25	67.832375	68.325750		[silence]	[silence]
sw2268A-ms98-a-0015	A.25	68.325750	68.401250		You	you
sw2268A-ms98-a-0015	A.25	68.401250	68.461250		know	know
sw2268A-ms98-a-0015	A.25	68.461250	68.561250		at	at
sw2268A-ms98-a-0015	A.25	68.561250	68.941250		night	night
sw2268A-ms98-a-0015	A.25	68.941250	69.071250		you	you
sw2268A-ms98-a-0015	A.25	69.071250	69.314000		can	can
sw2268A-ms98-a-0015	A.25	69.314000	69.573750		[silence]	[silence]
sw2268A-ms98-a-0016	A.25	69.573750	69.905500		[silence]	[silence]
sw2268A-ms98-a-0016	A.25	69.905500	70.043750		go	go
sw2268A-ms98-a-0016	A.25	70.043750	70.623750		walking	walking
sw2268A-ms98-a-0016	A.25	70.623750	70.723750		in	in
sw2268A-ms98-a-0016	A.25	70.723750	70.783750		the	the
sw2268A-ms98-a-0016	A.25	70.783750	71.583750		shallows	shallows
sw2268A-ms98-a-0016	A.25	71.583750	71.783750		and	and
sw2268A-ms98-a-0016	A.25	71.783750	72.213750		gig	gig
sw2268A-ms98-a-0016	A.25	72.213750	72.813750		flounder	flounder
sw2268A-ms98-a-0016	A.25	72.813750	72.983750		and	and
sw2268A-ms98-a-0016	A.25	72.983750	73.353750		things	things
sw2268A-ms98-a-0016	A.25	73.353750	73.653750		like	like
sw2268A-ms98-a-0016	A.25	73.653750	73.833750		that	that
sw2268A-ms98-a-0016	A.25	73.833750	74.033750		Which	which
sw2268A-ms98-a-0016	A.25	74.033750	74.353750		isn't	isn't
sw2268A-ms98-a-0016	A.25	74.353750	74.913750		technically	technically
sw2268A-ms98-a-0016	A.25	74.913750	75.343750		fishing	fishing
sw2268A-ms98-a-0016	A.25	75.343750	75.453750		but	but
sw2268A-ms98-a-0016	A.25	75.453750	75.613750		it's	it's
sw2268A-ms98-a-0016	A.25	75.613750	75.760250		a	a
sw2268A-ms98-a-0016	A.25	75.760250	76.033750		lot	lot
sw2268A-ms98-a-0016	A.25	76.033750	76.143750		of	of
sw2268A-ms98-a-0016	A.25	76.143750	76.543750		fun	fun
sw2268A-ms98-a-0016	A.27	76.543750	76.912125		[silence]	[silence]
sw2268A-ms98-a-0017	A.27	76.912125	77.462125		[silence]	[silence]
sw2268A-ms98-a-0017	A.27	77.462125	77.902125		So	so
sw2268A-ms98-a-0017	A.27	77.902125	78.072125	<SUB>	I	i-
sw2268A-ms98-a-0017	A.27	78.072125	78.292125		I	i
sw2268A-ms98-a-0017	A.27	78.292125	78.532125		grew	grew
sw2268A-ms98-a-0017	A.27	78.532125	78.822125		up	up
sw2268A-ms98-a-0017	A.27	78.822125	79.398625		fishing	fishing
sw2268A-ms98-a-0017	A.29	79.398625	79.705875		[silence]	[silence]
sw2268A-ms98-a-0018	A.29	79.705875	79.985500		[silence]	[silence]
sw2268A-ms98-a-0018	A.29	79.985500	80.195875		What	what
sw2268A-ms98-a-0018	A.29	80.195875	80.575875		area	area
sw2268A-ms98-a-0018	A.29	80.575875	80.575875	<INS>	of	---
sw2268A-ms98-a-0018	A.29	80.575875	80.875875		lakes	lakes
sw2268A-ms98-a-0018	A.29	80.875875	80.985875		do	do
sw2268A-ms98-a-0018	A.29	80.985875	81.125875		you	you
sw2268A-ms98-a-0018	A.29	81.125875	81.593250		like	like
sw2268A-ms98-a-0018	A.31	81.593250	81.847875		[silence]	[silence]
sw2268A-ms98-a-0019	A.31	81.847875	86.897250		[silence]	[silence]
sw2268A-ms98-a-0020	A.31	86.897250	87.477250		[silence]	[silence]
sw2268A-ms98-a-0020	A.31	87.477250	87.737250		Oh	oh
sw2268A-ms98-a-0020	A.31	87.737250	87.937250		I	i
sw2268A-ms98-a-0020	A.31	87.937250	88.393500		see	see
sw2268A-ms98-a-0020	A.33	88.393500	88.707250		[silence]	[silence]
sw2268A-ms98-a-0021	A.33	88.707250	113.001125		[silence]	[silence]
sw2268A-ms98-a-0022	A.33	113.001125	113.631375		[silence]	[silence]
sw2268A-ms98-a-0022	A.33	113.631375	114.071000		Oh	oh
sw2268A-ms98-a-0022	A.33	114.071000	114.376000		oh	oh
sw2268A-ms98-a-0022	A.33	114.376000	114.927375		oh	oh
sw2268A-ms98-a-0022	A.33	114.927375	115.483750		uh	uh
sw2268A-ms98-a-0022	A.33	115.483750	115.849125		[silence]	[silence]
sw2268A-ms98-a-0022	A.33	115.849125	116.157375		I	i
sw2268A-ms98-a-0022	A.33	116.157375	116.451250		think	think
sw2268A-ms98-a-0022	A.33	116.451250	116.531125		I	i
sw2268A-ms98-a-0022	A.33	116.531125	116.831125		know	know
sw2268A-ms98-a-0022	A.33	116.831125	117.114875		where	where
sw2268A-ms98-a-0022	A.33	117.114875	117.451125		uh	uh
sw2268A-ms98-a-0022	A.33	117.451125	117.823000		[silence]	[silence]
sw2268A-ms98-a-0023	A.33	117.823000	119.017000		[silence]	[silence]
sw2268A-ms98-a-0024	A.33	119.017000	119.300000		[silence]	[silence]
sw2268A-ms98-a-0024	A.33	119.300000	119.507000		Lake	Lake
sw2268A-ms98-a-0024	A.33	119.507000	120.117250		Caddo	Caddo
sw2268A-ms98-a-0024	A.33	120.117250	120.365875		[silence]	[silence]
sw2268A-ms98-a-0024	A.33	120.365875	120.437000		or	or
sw2268A-ms98-a-0024	A.33	120.437000	120.737000		something	something
sw2268A-ms98-a-0024	A.33	120.737000	121.027000		like	like
sw2268A-ms98-a-0024	A.33	121.027000	121.437000		that	that
sw2268A-ms98-a-0024	A.35	121.437000	121.638250		[silence]	[silence]
sw2268A-ms98-a-0025	A.35	121.638250	124.080000		[silence]	[silence]
sw2268A-ms98-a-0026	A.35	124.080000	124.460000		[silence]	[silence]
sw2268A-ms98-a-0026	A.35	124.460000	124.590000		If	if
sw2268A-ms98-a-0026	A.35	124.590000	124.720000		it's	it's
sw2268A-ms98-a-0026	A.35	124.720000	125.000000		supposed	supposed
sw2268A-ms98-a-0026	A.35	125.000000	125.070000		to	to
sw2268A-ms98-a-0026	A.35	125.070000	125.210000		be	be
sw2268A-ms98-a-0026	A.35	125.210000	125.340000		one	one
sw2268A-ms98-a-0026	A.35	125.340000	125.420000		of	of
sw2268A-ms98-a-0026	A.35	125.420000	125.490000		the	the
sw2268A-ms98-a-0026	A.35	125.490000	125.820000		best	best
sw2268A-ms98-a-0026	A.35	125.820000	126.170000		bass	bass
sw2268A-ms98-a-0026	A.35	126.170000	126.550000		fishing	fishing
sw2268A-ms98-a-0026	A.35	126.550000	127.098250		places	places
sw2268A-ms98-a-0026	A.35	127.098250	127.425875		[silence]	[silence]
sw2268A-ms98-a-0026	A.35	127.425875	127.540000		They	they
sw2268A-ms98-a-0026	A.35	127.540000	127.770000		hold	hold
sw2268A-ms98-a-0026	A.35	127.770000	128.320000		tournaments	tournaments
sw2268A-ms98-a-0026	A.35	128.320000	128.540000		there	there
sw2268A-ms98-a-0026	A.35	128.540000	128.640000		and	and
sw2268A-ms98-a-0026	A.35	128.640000	129.241875		everything	everything
sw2268A-ms98-a-0026	A.37	129.241875	129.914125		[silence]	[silence]
sw2268A-ms98-a-0027	A.37	129.914125	147.955875		[silence]	[silence]
sw2268A-ms98-a-0028	A.37	147.955875	148.696125		[silence]	[silence]
sw2268A-ms98-a-0028	A.37	148.696125	148.875875		I	i
sw2268A-ms98-a-0028	A.37	148.875875	149.135875		would	would
sw2268A-ms98-a-0028	A.37	149.135875	149.355875		love	love
sw2268A-ms98-a-0028	A.37	149.355875	149.595875		to	to
sw2268A-ms98-a-0028	A.37	149.595875	149.815875		do	do
sw2268A-ms98-a-0028	A.37	149.815875	150.267875		that	that
sw2268A-ms98-a-0028	A.37	150.267875	150.908250		[silence]	[silence]
sw2268A-ms98-a-0028	A.37	150.908250	151.165875		but	but
sw2268A-ms98-a-0028	A.37	151.165875	151.265875		they	they
sw2268A-ms98-a-0028	A.37	151.265875	151.435875		have	have
sw2268A-ms98-a-0028	A.37	151.435875	152.155875		snakes	snakes
sw2268A-ms98-a-0028	A.37	152.155875	152.465875		over	over
sw2268A-ms98-a-0028	A.37	152.465875	152.810375		there	there
sw2268A-ms98-a-0028	A.39	152.810375	153.092000		[silence]	[silence]
sw2268A-ms98-a-0029	A.39	153.092000	153.832000		[silence]	[silence]
sw2268A-ms98-a-0029	A.39	153.832000	153.992000		and	and
sw2268A-ms98-a-0029	A.39	153.992000	154.152000		I'm	i'm
sw2268A-ms98-a-0029	A.39	154.152000	154.502000		not	not
sw2268A-ms98-a-0029	A.39	154.502000	154.740375		too	too
sw2268A-ms98-a-0029	A.39	154.740375	155.257750		[silence]	[silence]
sw2268A-ms98-a-0030	A.39	155.257750	155.767750		[silence]	[silence]
sw2268A-ms98-a-0030	A.39	155.767750	156.467750		welcome	welcome
sw2268A-ms98-a-0030	A.39	156.467750	156.857750		around	around
sw2268A-ms98-a-0030	A.39	156.857750	156.927750		I	i
sw2268A-ms98-a-0030	A.39	156.927750	157.147750		don't	don't
sw2268A-ms98-a-0030	A.39	157.147750	157.227750		I	i
sw2268A-ms98-a-0030	A.39	157.227750	157.487750		really	really
sw2268A-ms98-a-0030	A.39	157.487750	157.717750		don't	don't
sw2268A-ms98-a-0030	A.39	157.717750	157.867750		want	want
sw2268A-ms98-a-0030	A.39	157.867750	157.967750		to	to
sw2268A-ms98-a-0030	A.39	157.967750	158.187750		share	share
sw2268A-ms98-a-0030	A.39	158.187750	158.247750		a	a
sw2268A-ms98-a-0030	A.39	158.247750	158.487750		boat	boat
sw2268A-ms98-a-0030	A.39	158.487750	158.657750		with	with
sw2268A-ms98-a-0030	A.39	158.657750	158.697750		a	a
sw2268A-ms98-a-0030	A.39	158.697750	159.339625		snake	snake
sw2268A-ms98-a-0030	A.41	159.339625	159.581625		[silence]	[silence]
sw2268A-ms98-a-0031	A.41	159.581625	160.011625		[silence]	[silence]
sw2268A-ms98-a-0031	A.41	160.011625	160.151625		I	i
sw2268A-ms98-a-0031	A.41	160.151625	160.521625		just	just
sw2268A-ms98-a-0031	A.41	160.521625	160.710750	<SUB>	I	i-
sw2268A-ms98-a-0031	A.41	160.710750	160.961625		I	i
sw2268A-ms98-a-0031	A.41	160.961625	161.132500		I	i
sw2268A-ms98-a-0031	A.41	161.132500	161.358000		don't	don't
sw2268A-ms98-a-0031	A.41	161.358000	161.610375		[silence]	[silence]
sw2268A-ms98-a-0031	A.41	161.610375	161.931625		see	see
sw2268A-ms98-a-0031	A.41	161.931625	162.199500		it	it
sw2268A-ms98-a-0031	A.43	162.199500	162.565125		[silence]	[silence]
sw2268A-ms98-a-0032	A.43	162.565125	162.835125		[silence]	[silence]
sw2268A-ms98-a-0032	A.43	162.835125	163.005125		I	i
sw2268A-ms98-a-0032	A.43	163.005125	163.335125		just	just
sw2268A-ms98-a-0032	A.43	163.335125	163.395125		I	i
sw2268A-ms98-a-0032	A.43	163.395125	163.575125		don't	don't
sw2268A-ms98-a-0032	A.43	163.575125	163.725125		I	i
sw2268A-ms98-a-0032	A.43	163.725125	163.985125		think	think
sw2268A-ms98-a-0032	A.43	163.985125	164.145125		that	that
sw2268A-ms98-a-0032	A.43	164.145125	164.235125		I	i
sw2268A-ms98-a-0032	A.43	164.235125	164.715125		perhaps	perhaps
sw2268A-ms98-a-0032	A.43	164.715125	164.845125		would	would
sw2268A-ms98-a-0032	A.43	164.845125	165.005125		let	let
sw2268A-ms98-a-0032	A.43	165.005125	165.125125		them	them
sw2268A-ms98-a-0032	A.43	165.125125	165.405125		have	have
sw2268A-ms98-a-0032	A.43	165.405125	165.485125		the	the
sw2268A-ms98-a-0032	A.43	165.485125	165.765125		boat	boat
sw2268A-ms98-a-0032	A.43	165.765125	165.855125		or	or
sw2268A-ms98-a-0032	A.43	165.855125	166.365125		something	something
sw2268A-ms98-a-0032	A.45	166.365125	166.689875		I'd	i'd
sw2268A-ms98-a-0032	A.45	166.689875	166.915125		make	make
sw2268A-ms98-a-0032	A.45	166.915125	167.095125		some	some
sw2268A-ms98-a-0032	A.45	167.095125	167.355125		quick	quick
sw2268A-ms98-a-0032	A.45	167.355125	168.151750		arrangements	arrangements
sw2268A-ms98-a-0032	A.47	168.151750	168.458500		[silence]	[silence]
sw2268A-ms98-a-0033	A.47	168.458500	169.168500		[silence]	[silence]
sw2268A-ms98-a-0033	A.47	169.168500	169.288500		and	and
sw2268A-ms98-a-0033	A.47	169.288500	169.378500		I've	i've
sw2268A-ms98-a-0033	A.47	169.378500	169.598500	<SUB>	told	heard
sw2268A-ms98-a-0033	A.47	169.598500	169.718500		so	so
sw2268A-ms98-a-0033	A.47	169.718500	169.898500		many	many
sw2268A-ms98-a-0033	A.47	169.898500	170.478500		stories	stories
sw2268A-ms98-a-0033	A.47	170.478500	170.740625		about	about
sw2268A-ms98-a-0033	A.47	170.740625	170.851625		the	the
sw2268A-ms98-a-0033	A.47	170.851625	171.326125		snakes	snakes
sw2268A-ms98-a-0033	A.49	171.326125	171.615625		[silence]	[silence]
sw2268A-ms98-a-0034	A.49	171.615625	171.900375		[silence]	[silence]
sw2268A-ms98-a-0034	A.49	171.900375	171.965625		you	you
sw2268A-ms98-a-0034	A.49	171.965625	172.065625		know	know
sw2268A-ms98-a-0034	A.49	172.065625	172.195625		when	when
sw2268A-ms98-a-0034	A.49	172.195625	172.275625		they	they
sw2268A-ms98-a-0034	A.49	172.275625	172.615625		pull	pull
sw2268A-ms98-a-0034	A.49	172.615625	173.265625		in	in
sw2268A-ms98-a-0034	A.49	173.265625	173.473250		there's	there's
sw2268A-ms98-a-0034	A.49	173.473250	173.575000		a	a
sw2268A-ms98-a-0034	A.49	173.575000	173.985625		snake	snake
sw2268A-ms98-a-0034	A.49	173.985625	174.355625		instead	instead
sw2268A-ms98-a-0034	A.49	174.355625	174.445625		of	of
sw2268A-ms98-a-0034	A.49	174.445625	174.535625		a	a
sw2268A-ms98-a-0034	A.49	174.535625	174.975625		fish	fish
sw2268A-ms98-a-0034	A.51	174.975625	175.115625		and	and
sw2268A-ms98-a-0034	A.51	175.115625	175.485625		things	things
sw2268A-ms98-a-0034	A.51	175.485625	175.775625		like	like
sw2268A-ms98-a-0034	A.51	175.775625	176.096625		that	that
sw2268A-ms98-a-0034	A.51	176.096625	176.214750	<DEL>	---	that
sw2268A-ms98-a-0034	A.51	176.214750	176.415625		I'm	i'm
sw2268A-ms98-a-0034	A.51	176.415625	176.716375		just	just
sw2268A-ms98-a-0034	A.53	176.716375	177.016250		[silence]	[silence]
sw2268A-ms98-a-0035	A.53	177.016250	177.536250		[silence]	[silence]
sw2268A-ms98-a-0035	A.53	177.536250	177.726250		I	i
sw2268A-ms98-a-0035	A.53	177.726250	177.966250		don't	don't
sw2268A-ms98-a-0035	A.53	177.966250	178.241000		know	know
sw2268A-ms98-a-0035	A.55	178.241000	178.681625		[silence]	[silence]
sw2268A-ms98-a-0035	A.55	178.681625	178.976250		What's	what's
sw2268A-ms98-a-0035	A.55	178.976250	179.046250		the	the
sw2268A-ms98-a-0035	A.55	179.046250	179.406250		largest	largest
sw2268A-ms98-a-0035	A.55	179.406250	179.676250		fish	fish
sw2268A-ms98-a-0035	A.55	179.676250	179.776250		you	you
sw2268A-ms98-a-0035	A.55	179.776250	179.916250		ever	ever
sw2268A-ms98-a-0035	A.55	179.916250	180.281250		caught	caught
sw2268A-ms98-a-0035	A.57	180.281250	180.281250	<INS>	Oh	---
sw2268A-ms98-a-0035	A.57	180.281250	180.746500		[silence]	[silence]
sw2268A-ms98-a-0036	A.57	180.746500	196.792125		[silence]	[silence]
sw2268A-ms98-a-0037	A.57	196.792125	197.226500		[silence]	[silence]
sw2268A-ms98-a-0037	A.57	197.226500	197.372125		on	on
sw2268A-ms98-a-0037	A.57	197.372125	197.507125		a	a
sw2268A-ms98-a-0037	A.57	197.507125	197.970500		lake	lake
sw2268A-ms98-a-0037	A.57	197.970500	198.076000		[silence]	[silence]
sw2268A-ms98-a-0037	A.57	198.076000	198.382125		yeah	yeah
sw2268A-ms98-a-0037	A.59	198.382125	198.597875		On	on
sw2268A-ms98-a-0037	A.59	198.597875	198.733750		a	a
sw2268A-ms98-a-0037	A.59	198.733750	198.869375		[silence]	[silence]
sw2268A-ms98-a-0037	A.59	198.869375	198.972125	<SUB>	like	la[ke]-
sw2268A-ms98-a-0037	A.59	198.972125	199.032125	<DEL>	---	on
sw2268A-ms98-a-0037	A.59	199.032125	199.062125	<DEL>	---	a
sw2268A-ms98-a-0037	A.59	199.062125	199.272125	<DEL>	---	lake
sw2268A-ms98-a-0037	A.59	199.272125	199.472000		that's	that's
sw2268A-ms98-a-0037	A.59	199.472000	199.588750		not	not
sw2268A-ms98-a-0037	A.59	199.588750	199.662125		a	a
sw2268A-ms98-a-0037	A.59	199.662125	199.872125		bad	bad
sw2268A-ms98-a-0037	A.59	199.872125	200.102125		size	size
sw2268A-ms98-a-0037	A.59	200.102125	200.636625		fish	fish
sw2268A-ms98-a-0037	A.61	200.636625	200.976250		[silence]	[silence]
sw2268A-ms98-a-0038	A.61	200.976250	202.587625		[silence]	[silence]
sw2268A-ms98-a-0039	A.61	202.587625	202.997625		[silence]	[silence]
sw2268A-ms98-a-0039	A.61	202.997625	203.197625	<DEL>	---	i-
sw2268A-ms98-a-0039	A.61	203.197625	203.367625		I	i
sw2268A-ms98-a-0039	A.61	203.367625	203.477625		would	would
sw2268A-ms98-a-0039	A.61	203.477625	203.637625		be	be
sw2268A-ms98-a-0039	A.61	203.637625	204.189500		impressed	impressed
sw2268A-ms98-a-0039	A.63	204.189500	204.317625	<DEL>	---	[laughter-i]
sw2268A-ms98-a-0039	A.63	204.317625	204.407625	<DEL>	---	[laughter-mean]
sw2268A-ms98-a-0039	A.63	204.407625	204.617625	<DEL>	---	[laughter-you]
sw2268A-ms98-a-0039	A.63	204.617625	204.918250	<DEL>	---	[laughter-know]
sw2268A-ms98-a-0039	A.63	204.918250	205.355375		[silence]	[silence]
sw2268A-ms98-a-0040	A.63	205.355375	210.133625		[silence]	[silence]
sw2268A-ms98-a-0041	A.63	210.133625	210.340750		[silence]	[silence]
sw2268A-ms98-a-0041	A.63	210.340750	210.523625		I've	i've
sw2268A-ms98-a-0041	A.63	210.523625	210.833625		never	never
sw2268A-ms98-a-0041	A.63	210.833625	211.133625		done	done
sw2268A-ms98-a-0041	A.63	211.133625	211.577000		that	that
sw2268A-ms98-a-0041	A.65	211.577000	211.646250		[silence]	[silence]
sw2268A-ms98-a-0042	A.65	211.646250	211.849000		[silence]	[silence]
sw2268A-ms98-a-0042	A.65	211.849000	212.140375		I've	i've
sw2268A-ms98-a-0042	A.65	212.140375	212.456875		I've	i've
sw2268A-ms98-a-0042	A.65	212.456875	212.856250		seen	seen
sw2268A-ms98-a-0042	A.65	212.856250	213.134250		it	it
sw2268A-ms98-a-0042	A.65	213.134250	213.425250		[silence]	[silence]
sw2268A-ms98-a-0043	A.65	213.425250	213.685375		[silence]	[silence]
sw2268A-ms98-a-0043	A.65	213.685375	214.031000		uh	uh
sw2268A-ms98-a-0043	A.65	214.031000	214.396375		[silence]	[silence]
sw2268A-ms98-a-0043	A.65	214.396375	214.545250		and	and
sw2268A-ms98-a-0043	A.65	214.545250	214.735250		and	and
sw2268A-ms98-a-0043	A.65	214.735250	214.795250		I	i
sw2268A-ms98-a-0043	A.65	214.795250	215.015250		have	have
sw2268A-ms98-a-0043	A.65	215.015250	215.115250		no	no
sw2268A-ms98-a-0043	A.65	215.115250	215.495250		problem	problem
sw2268A-ms98-a-0043	A.65	215.495250	215.815250		going	going
sw2268A-ms98-a-0043	A.65	215.815250	215.945250		out	out
sw2268A-ms98-a-0043	A.65	215.945250	216.005250		in	in
sw2268A-ms98-a-0043	A.65	216.005250	216.065250		a	a
sw2268A-ms98-a-0043	A.65	216.065250	216.578375		boat	boat
sw2268A-ms98-a-0043	A.65	216.578375	216.858125		[silence]	[silence]
sw2268A-ms98-a-0043	A.65	216.858125	217.216625		uh	uh
sw2268A-ms98-a-0043	A.65	217.216625	217.516375		[silence]	[silence]
sw2268A-ms98-a-0044	A.65	217.516375	217.904625		[silence]	[silence]
sw2268A-ms98-a-0044	A.65	217.904625	218.016375		it's	it's
sw2268A-ms98-a-0044	A.65	218.016375	218.266375		just	just
sw2268A-ms98-a-0044	A.65	218.266375	218.396375		so	so
sw2268A-ms98-a-0044	A.65	218.396375	218.936375		dreadfully	dreadfully
sw2268A-ms98-a-0044	A.65	218.936375	219.656375		expensive	expensive
sw2268A-ms98-a-0044	A.65	219.656375	219.816375		and	and
sw2268A-ms98-a-0044	A.65	219.816375	219.936375		there's	there's
sw2268A-ms98-a-0044	A.65	219.936375	220.056375		just	just
sw2268A-ms98-a-0044	A.65	220.056375	220.126375		so	so
sw2268A-ms98-a-0044	A.65	220.126375	220.406375		many	many
sw2268A-ms98-a-0044	A.65	220.406375	220.646375		other	other
sw2268A-ms98-a-0044	A.65	220.646375	220.932500		ways	ways
sw2268A-ms98-a-0044	A.65	220.932500	220.978500	<DEL>	---	you
sw2268A-ms98-a-0044	A.65	220.978500	221.057625	<DEL>	---	know
sw2268A-ms98-a-0044	A.65	221.057625	221.208000	<DEL>	---	when
sw2268A-ms98-a-0044	A.65	221.208000	221.327125	<DEL>	---	you
sw2268A-ms98-a-0044	A.65	221.327125	221.936375		live	live
sw2268A-ms98-a-0044	A.65	221.936375	222.236375		down	down
sw2268A-ms98-a-0044	A.65	222.236375	222.533125		there	there
sw2268A-ms98-a-0044	A.67	222.533125	222.851750		[silence]	[silence]
sw2268A-ms98-a-0045	A.67	222.851750	222.981625		[silence]	[silence]
sw2268A-ms98-a-0045	A.67	222.981625	223.231750		It's	it's
sw2268A-ms98-a-0045	A.67	223.231750	223.521750		not	not
sw2268A-ms98-a-0045	A.67	223.521750	223.741750		a	a
sw2268A-ms98-a-0045	A.67	223.741750	224.262625		treat	treat
sw2268A-ms98-a-0045	A.69	224.262625	224.364125		[silence]	[silence]
sw2268A-ms98-a-0046	A.69	224.364125	224.696875		[silence]	[silence]
sw2268A-ms98-a-0046	A.69	224.696875	224.914125		it's	it's
sw2268A-ms98-a-0046	A.69	224.914125	225.224125		what	what
sw2268A-ms98-a-0046	A.69	225.224125	225.384125		you	you
sw2268A-ms98-a-0046	A.69	225.384125	225.664125		do	do
sw2268A-ms98-a-0046	A.69	225.664125	226.274125		every	every
sw2268A-ms98-a-0046	A.69	226.274125	227.040875		day	day
sw2268A-ms98-a-0046	A.71	227.040875	227.225125		[silence]	[silence]
sw2268A-ms98-a-0046	A.71	227.225125	227.359500		You	you
sw2268A-ms98-a-0046	A.71	227.359500	227.550125		know	know
sw2268A-ms98-a-0046	A.73	227.550125	227.874000		[silence]	[silence]
sw2268A-ms98-a-0047	A.73	227.874000	228.269375		[silence]	[silence]
sw2268A-ms98-a-0047	A.73	228.269375	228.693375		Uh	uh
sw2268A-ms98-a-0047	A.73	228.693375	229.096375		[silence]	[silence]
sw2268A-ms98-a-0047	A.73	229.096375	229.314000		one	one
sw2268A-ms98-a-0047	A.73	229.314000	229.384000		of	of
sw2268A-ms98-a-0047	A.73	229.384000	229.684000		my	my
sw2268A-ms98-a-0047	A.73	229.684000	230.123000		favorite	favorite
sw2268A-ms98-a-0047	A.73	230.123000	230.588250		things	things
sw2268A-ms98-a-0047	A.73	230.588250	230.893500		[silence]	[silence]
sw2268A-ms98-a-0048	A.73	230.893500	231.479375		[silence]	[silence]
sw2268A-ms98-a-0048	A.73	231.479375	231.808625		was	was
sw2268A-ms98-a-0048	A.73	231.808625	232.034625		[silence]	[silence]
sw2268A-ms98-a-0048	A.73	232.034625	232.163500		we	we
sw2268A-ms98-a-0048	A.73	232.163500	232.303500		were	were
sw2268A-ms98-a-0048	A.73	232.303500	232.823500		forever	forever
sw2268A-ms98-a-0048	A.73	232.823500	233.458250		catching	catching
sw2268A-ms98-a-0048	A.73	233.458250	233.993125		[silence]	[silence]
sw2268A-ms98-a-0048	A.73	233.993125	234.363500		crab	crab
sw2268A-ms98-a-0048	A.73	234.363500	234.483500		and	and
sw2268A-ms98-a-0048	A.73	234.483500	234.953500		steaming	steaming
sw2268A-ms98-a-0048	A.73	234.953500	235.184500		them	them
sw2268A-ms98-a-0048	A.75	235.184500	235.567750		[silence]	[silence]
sw2268A-ms98-a-0049	A.75	235.567750	236.077125		[silence]	[silence]
sw2268A-ms98-a-0049	A.75	236.077125	236.207750		you	you
sw2268A-ms98-a-0049	A.75	236.207750	236.331125		know	know
sw2268A-ms98-a-0049	A.75	236.331125	236.567750		out	out
sw2268A-ms98-a-0049	A.75	236.567750	236.740250		on	on
sw2268A-ms98-a-0049	A.75	236.740250	236.835500		the	the
sw2268A-ms98-a-0049	A.75	236.835500	237.050125		[silence]	[silence]
sw2268A-ms98-a-0049	A.75	237.050125	237.423000		on	on
sw2268A-ms98-a-0049	A.75	237.423000	237.727000		the	the
sw2268A-ms98-a-0049	A.75	237.727000	237.832625		[silence]	[silence]
sw2268A-ms98-a-0049	A.75	237.832625	238.330750		beach	beach
sw2268A-ms98-a-0049	A.77	238.330750	238.618125		[silence]	[silence]
sw2268A-ms98-a-0050	A.77	238.618125	238.984250		[silence]	[silence]
sw2268A-ms98-a-0050	A.77	238.984250	239.208125		and	and
sw2268A-ms98-a-0050	A.77	239.208125	239.298125		you	you
sw2268A-ms98-a-0050	A.77	239.298125	239.485500		know	know
sw2268A-ms98-a-0050	A.77	239.485500	239.741625		just	just
sw2268A-ms98-a-0050	A.77	239.741625	239.878125		uh	uh
sw2268A-ms98-a-0050	A.77	239.878125	240.328125		pitching	pitching
sw2268A-ms98-a-0050	A.77	240.328125	240.508125		them	them
sw2268A-ms98-a-0050	A.77	240.508125	240.668125		out	out
sw2268A-ms98-a-0050	A.77	240.668125	241.108125		on	on
sw2268A-ms98-a-0050	A.77	241.108125	241.384750		uh	uh
sw2268A-ms98-a-0050	A.77	241.384750	241.830000		[silence]	[silence]
sw2268A-ms98-a-0051	A.77	241.830000	242.476375		[silence]	[silence]
sw2268A-ms98-a-0051	A.77	242.476375	242.790000		on	on
sw2268A-ms98-a-0051	A.77	242.790000	243.042375		uh	uh
sw2268A-ms98-a-0051	A.77	243.042375	243.436000		[silence]	[silence]
sw2268A-ms98-a-0052	A.77	243.436000	243.741000		[silence]	[silence]
sw2268A-ms98-a-0052	A.77	243.741000	243.856000		what	what
sw2268A-ms98-a-0052	A.77	243.856000	243.916000		am	am
sw2268A-ms98-a-0052	A.77	243.916000	243.946000		I	i
sw2268A-ms98-a-0052	A.77	243.946000	244.176000		trying	trying
sw2268A-ms98-a-0052	A.77	244.176000	244.236000		to	to
sw2268A-ms98-a-0052	A.77	244.236000	244.336000		say	say
sw2268A-ms98-a-0052	A.77	244.336000	245.063500		newspaper	newspaper
sw2268A-ms98-a-0052	A.79	245.063500	245.271875		[silence]	[silence]
sw2268A-ms98-a-0053	A.79	245.271875	245.476000		[silence]	[silence]
sw2268A-ms98-a-0053	A.79	245.476000	245.701875		and	and
sw2268A-ms98-a-0053	A.79	245.701875	245.891875		and	and
sw2268A-ms98-a-0053	A.79	245.891875	246.301875		breaking	breaking
sw2268A-ms98-a-0053	A.79	246.301875	246.441875		them	them
sw2268A-ms98-a-0053	A.79	246.441875	246.621875		up	up
sw2268A-ms98-a-0053	A.79	246.621875	246.771875		and	and
sw2268A-ms98-a-0053	A.79	246.771875	247.111875		sitting	sitting
sw2268A-ms98-a-0053	A.79	247.111875	247.321875		out	out
sw2268A-ms98-a-0053	A.79	247.321875	247.511875		there	there
sw2268A-ms98-a-0053	A.79	247.511875	247.681875		and	and
sw2268A-ms98-a-0053	A.79	247.681875	247.972250		eating	eating
sw2268A-ms98-a-0053	A.79	247.972250	248.149000		them	them
sw2268A-ms98-a-0053	A.81	248.149000	248.416375		[silence]	[silence]
sw2268A-ms98-a-0053	A.81	248.416375	248.525625		and	and
sw2268A-ms98-a-0053	A.81	248.525625	248.681875		then	then
sw2268A-ms98-a-0053	A.81	248.681875	249.051875		digging	digging
sw2268A-ms98-a-0053	A.81	249.051875	249.091875		a	a
sw2268A-ms98-a-0053	A.81	249.091875	249.361875		hole	hole
sw2268A-ms98-a-0053	A.81	249.361875	249.461875		and	and
sw2268A-ms98-a-0053	A.81	249.461875	249.771875		pitching	pitching
sw2268A-ms98-a-0053	A.81	249.771875	249.851875		the	the
sw2268A-ms98-a-0053	A.81	249.851875	250.071875		whole	whole
sw2268A-ms98-a-0053	A.81	250.071875	250.441875		thing	thing
sw2268A-ms98-a-0053	A.81	250.441875	250.551875		in	in
sw2268A-ms98-a-0053	A.81	250.551875	250.681875		it	it
sw2268A-ms98-a-0053	A.81	250.681875	250.831875		you	you
sw2268A-ms98-a-0053	A.81	250.831875	251.121875		know	know
sw2268A-ms98-a-0053	A.83	251.121875	251.371875		and	and
sw2268A-ms98-a-0053	A.83	251.371875	251.611875		and	and
sw2268A-ms98-a-0053	A.83	251.611875	251.931875		that's	that's
sw2268A-ms98-a-0053	A.83	251.931875	252.261875		it	it
sw2268A-ms98-a-0053	A.85	252.261875	252.621125		[silence]	[silence]
sw2268A-ms98-a-0054	A.85	252.621125	252.941125		[silence]	[silence]
sw2268A-ms98-a-0054	A.85	252.941125	253.471125		And	and
sw2268A-ms98-a-0054	A.85	253.471125	253.681125		uh	uh
sw2268A-ms98-a-0054	A.85	253.681125	253.921500	<SUB>	but	the
sw2268A-ms98-a-0054	A.85	253.921500	254.102250		[silence]	[silence]
sw2268A-ms98-a-0054	A.85	254.102250	254.191125		the	the
sw2268A-ms98-a-0054	A.85	254.191125	254.391125		other	other
sw2268A-ms98-a-0054	A.85	254.391125	254.591125		little	little
sw2268A-ms98-a-0054	A.85	254.591125	255.091125		creatures	creatures
sw2268A-ms98-a-0054	A.85	255.091125	255.231125		would	would
sw2268A-ms98-a-0054	A.85	255.231125	255.481125		take	take
sw2268A-ms98-a-0054	A.85	255.481125	255.681125		care	care
sw2268A-ms98-a-0054	A.85	255.681125	255.811125		of	of
sw2268A-ms98-a-0054	A.85	255.811125	256.001125		what	what
sw2268A-ms98-a-0054	A.85	256.001125	256.181125		was	was
sw2268A-ms98-a-0054	A.85	256.181125	256.610625		left	left
sw2268A-ms98-a-0054	A.87	256.610625	257.075875		[silence]	[silence]
sw2268A-ms98-a-0055	A.87	257.075875	257.466375		[silence]	[silence]
sw2268A-ms98-a-0055	A.87	257.466375	257.891000		So	so
sw2268A-ms98-a-0055	A.89	257.891000	258.225500		[silence]	[silence]
sw2268A-ms98-a-0055	A.89	258.225500	258.505875		going	going
sw2268A-ms98-a-0055	A.89	258.505875	258.645875		out	out
sw2268A-ms98-a-0055	A.89	258.645875	258.785875		on	on
sw2268A-ms98-a-0055	A.89	258.785875	258.845875		a	a
sw2268A-ms98-a-0055	A.89	258.845875	259.385875		boat	boat
sw2268A-ms98-a-0055	A.89	259.385875	259.605875		never	never
sw2268A-ms98-a-0055	A.89	259.605875	259.845875		did	did
sw2268A-ms98-a-0055	A.89	259.845875	260.205875		appeal	appeal
sw2268A-ms98-a-0055	A.89	260.205875	260.385875		to	to
sw2268A-ms98-a-0055	A.89	260.385875	260.485875		me	me
sw2268A-ms98-a-0055	A.89	260.485875	260.785875		simply	simply
sw2268A-ms98-a-0055	A.89	260.785875	261.105875		because	because
sw2268A-ms98-a-0055	A.89	261.105875	261.232375		it	it
sw2268A-ms98-a-0055	A.89	261.232375	261.443250		[silence]	[silence]
sw2268A-ms98-a-0055	A.89	261.443250	261.545875		you	you
sw2268A-ms98-a-0055	A.89	261.545875	261.645875		know	know
sw2268A-ms98-a-0055	A.89	261.645875	261.755875		there	there
sw2268A-ms98-a-0055	A.89	261.755875	261.845875		was	was
sw2268A-ms98-a-0055	A.89	261.845875	261.935875		so	so
sw2268A-ms98-a-0055	A.89	261.935875	262.205875		much	much
sw2268A-ms98-a-0055	A.89	262.205875	262.505875		else	else
sw2268A-ms98-a-0055	A.89	262.505875	262.665875		to	to
sw2268A-ms98-a-0055	A.89	262.665875	263.044250		do	do
sw2268A-ms98-a-0055	A.91	263.044250	263.371750		[silence]	[silence]
sw2268A-ms98-a-0056	A.91	263.371750	264.375625		[silence]	[silence]
sw2268A-ms98-a-0057	A.91	264.375625	264.654250		[silence]	[silence]
sw2268A-ms98-a-0057	A.91	264.654250	264.785250		No	no
sw2268A-ms98-a-0057	A.93	264.785250	265.008000		[silence]	[silence]
sw2268A-ms98-a-0058	A.93	265.008000	267.665000		[silence]	[silence]
sw2268A-ms98-a-0059	A.93	267.665000	268.101250		[silence]	[silence]
sw2268A-ms98-a-0059	A.93	268.101250	268.310500		no	no
sw2268A-ms98-a-0059	A.93	268.310500	268.642000		[silence]	[silence]
sw2268A-ms98-a-0059	A.93	268.642000	268.855000	<DEL>	---	no
sw2268A-ms98-a-0059	A.93	268.855000	268.995000		I	i
sw2268A-ms98-a-0059	A.93	268.995000	269.155000		live	live
sw2268A-ms98-a-0059	A.93	269.155000	269.255000		in	in
sw2268A-ms98-a-0059	A.93	269.255000	269.815000		Dallas	Dallas
sw2268A-ms98-a-0059	A.95	269.815000	270.004625		[silence]	[silence]
sw2268A-ms98-a-0060	A.95	270.004625	271.981875		[silence]	[silence]
sw2268A-ms98-a-0061	A.95	271.981875	272.520750		[silence]	[silence]
sw2268A-ms98-a-0061	A.95	272.520750	272.581875		I	i
sw2268A-ms98-a-0061	A.95	272.581875	272.821875		lived	lived
sw2268A-ms98-a-0061	A.95	272.821875	272.941875		in	in
sw2268A-ms98-a-0061	A.95	272.941875	273.541875		Dallas	Dallas
sw2268A-ms98-a-0061	A.97	273.541875	273.626250		[silence]	[silence]
sw2268A-ms98-a-0062	A.97	273.626250	274.792500		[silence]	[silence]
sw2268A-ms98-a-0063	A.97	274.792500	275.219125		[silence]	[silence]
sw2268A-ms98-a-0063	A.97	275.219125	275.382500		We	we
sw2268A-ms98-a-0063	A.97	275.382500	275.592500		had	had
sw2268A-ms98-a-0063	A.97	275.592500	275.642500		a	a
sw2268A-ms98-a-0063	A.97	275.642500	275.942500		house	house
sw2268A-ms98-a-0063	A.97	275.942500	276.062500		in	in
sw2268A-ms98-a-0063	A.97	276.062500	276.262500		Port	Port
sw2268A-ms98-a-0063	A.97	276.262500	276.952500		Aransas	Aransas
sw2268A-ms98-a-0063	A.99	276.952500	277.016000		[silence]	[silence]
sw2268A-ms98-a-0064	A.99	277.016000	278.304500		[silence]	[silence]
sw2268A-ms98-a-0065	A.99	278.304500	278.704500		[silence]	[silence]
sw2268A-ms98-a-0065	A.99	278.704500	278.984500		It's	it's
sw2268A-ms98-a-0065	A.99	278.984500	279.134500		a	a
sw2268A-ms98-a-0065	A.99	279.134500	279.494500		little	little
sw2268A-ms98-a-0065	A.99	279.494500	279.994500		fishing	fishing
sw2268A-ms98-a-0065	A.99	279.994500	280.604125		village	village
sw2268A-ms98-a-0065	A.99	280.604125	281.044875		[silence]	[silence]
sw2268A-ms98-a-0065	A.99	281.044875	281.504000		that	that
sw2268A-ms98-a-0065	A.99	281.504000	282.203250		is	is
sw2268A-ms98-a-0065	A.101	282.203250	282.537625		[silence]	[silence]
sw2268A-ms98-a-0066	A.101	282.537625	283.715250		[silence]	[silence]
sw2268A-ms98-a-0067	A.101	283.715250	284.191000		[silence]	[silence]
sw2268A-ms98-a-0067	A.101	284.191000	284.704875		Corpus	corpus
sw2268A-ms98-a-0067	A.103	284.704875	284.781125		[silence]	[silence]
sw2268A-ms98-a-0068	A.103	284.781125	285.138750		[silence]	[silence]
sw2268A-ms98-a-0068	A.103	285.138750	285.540125		Well	well
sw2268A-ms98-a-0068	A.105	285.540125	286.056625		[silence]	[silence]
sw2268A-ms98-a-0069	A.105	286.056625	286.715375		[silence]	[silence]
sw2268A-ms98-a-0069	A.105	286.715375	287.374250		uh	uh
sw2268A-ms98-a-0069	A.105	287.374250	287.622875		[silence]	[silence]
sw2268A-ms98-a-0069	A.105	287.622875	288.056625		South	South
sw2268A-ms98-a-0069	A.105	288.056625	288.566625		Padre	Padre
sw2268A-ms98-a-0069	A.105	288.566625	288.802375		is	is
sw2268A-ms98-a-0069	A.105	288.802375	289.446625		on	on
sw2268A-ms98-a-0069	A.105	289.446625	290.016625		down	down
sw2268A-ms98-a-0069	A.105	290.016625	290.096625		the	the
sw2268A-ms98-a-0069	A.105	290.096625	290.653000		bend	bend
sw2268A-ms98-a-0069	A.107	290.653000	291.025875		[silence]	[silence]
sw2268A-ms98-a-0070	A.107	291.025875	291.567125		[silence]	[silence]
sw2268A-ms98-a-0070	A.107	291.567125	292.008875		it's	it's
sw2268A-ms98-a-0070	A.107	292.008875	292.121875		[silence]	[silence]
sw2268A-ms98-a-0070	A.107	292.121875	292.445875		like	like
sw2268A-ms98-a-0070	A.107	292.445875	292.555875		if	if
sw2268A-ms98-a-0070	A.107	292.555875	292.645875		you	you
sw2268A-ms98-a-0070	A.107	292.645875	292.885875		drew	drew
sw2268A-ms98-a-0070	A.107	292.885875	292.945875		a	a
sw2268A-ms98-a-0070	A.107	292.945875	293.265875		line	line
sw2268A-ms98-a-0070	A.107	293.265875	293.595875		from	from
sw2268A-ms98-a-0070	A.107	293.595875	294.125875		Austin	Austin
sw2268A-ms98-a-0070	A.107	294.125875	294.605875		straight	straight
sw2268A-ms98-a-0070	A.107	294.605875	294.895875		down	down
sw2268A-ms98-a-0070	A.107	294.895875	295.009750		it	it
sw2268A-ms98-a-0070	A.107	295.009750	295.179250		[silence]	[silence]
sw2268A-ms98-a-0070	A.107	295.179250	295.375875		would	would
sw2268A-ms98-a-0070	A.107	295.375875	295.565875		be	be
sw2268A-ms98-a-0070	A.107	295.565875	295.685875		in	in
sw2268A-ms98-a-0070	A.107	295.685875	295.925875		that	that
sw2268A-ms98-a-0070	A.107	295.925875	296.540500		region	region
sw2268A-ms98-a-0070	A.109	296.540500	297.185875		[silence]	[silence]
sw2268A-ms98-a-0071	A.109	297.185875	297.875875		[silence]	[silence]
sw2268A-ms98-a-0071	A.109	297.875875	298.315875		Small	small
sw2268A-ms98-a-0071	A.109	298.315875	298.806875		island	island
sw2268A-ms98-a-0071	A.111	298.806875	299.151375		[silence]	[silence]
sw2268A-ms98-a-0072	A.111	299.151375	299.506125		[silence]	[silence]
sw2268A-ms98-a-0072	A.111	299.506125	299.985250		Uh	uh
sw2268A-ms98-a-0072	A.113	299.985250	300.322750		[silence]	[silence]
sw2268A-ms98-a-0073	A.113	300.322750	302.904000		[silence]	[silence]
sw2268A-ms98-a-0074	A.113	302.904000	303.314000		[silence]	[silence]
sw2268A-ms98-a-0074	A.113	303.314000	303.534000		Oh	oh
sw2268A-ms98-a-0074	A.113	303.534000	303.974250		okay	okay
sw2268A-ms98-a-0074	A.115	303.974250	304.216250		[silence]	[silence]
sw2268A-ms98-a-0075	A.115	304.216250	316.952375		[silence]	[silence]
sw2268A-ms98-a-0076	A.115	316.952375	317.519375		[silence]	[silence]
sw2268A-ms98-a-0076	A.115	317.519375	317.642375		Was	was
sw2268A-ms98-a-0076	A.115	317.642375	317.752375		it	it
sw2268A-ms98-a-0076	A.115	317.752375	318.302375		bad	bad
sw2268A-ms98-a-0076	A.117	318.302375	318.546125		[silence]	[silence]
sw2268A-ms98-a-0077	A.117	318.546125	321.445625		[silence]	[silence]
sw2268A-ms98-a-0078	A.117	321.445625	321.895625		[silence]	[silence]
sw2268A-ms98-a-0078	A.117	321.895625	322.355625		Oh	oh
sw2268A-ms98-a-0078	A.117	322.355625	322.526750		I	i
sw2268A-ms98-a-0078	A.117	322.526750	322.832375		hate	hate
sw2268A-ms98-a-0078	A.117	322.832375	322.926500		[silence]	[silence]
sw2268A-ms98-a-0078	A.117	322.926500	323.055625		to	to
sw2268A-ms98-a-0078	A.117	323.055625	323.305625		hear	hear
sw2268A-ms98-a-0078	A.117	323.305625	323.749750		that	that
sw2268A-ms98-a-0078	A.119	323.749750	324.182625		[silence]	[silence]
sw2268A-ms98-a-0079	A.119	324.182625	330.948125		[silence]	[silence]
sw2268A-ms98-a-0080	A.119	330.948125	331.470625		[silence]	[silence]
sw2268A-ms98-a-0080	A.119	331.470625	331.828250		Huh-uh	huh-uh
sw2268A-ms98-a-0080	A.121	331.828250	332.085250		[silence]	[silence]
sw2268A-ms98-a-0081	A.121	332.085250	333.516500		[silence]	[silence]
sw2268A-ms98-a-0082	A.121	333.516500	333.951750		[silence]	[silence]
sw2268A-ms98-a-0082	A.121	333.951750	334.289250		No	no
sw2268A-ms98-a-0082	A.123	334.289250	334.432500		[silence]	[silence]
sw2268A-ms98-a-0082	A.123	334.432500	334.563500		no	no
sw2268A-ms98-a-0082	A.123	334.563500	334.683750		no	no
sw2268A-ms98-a-0082	A.125	334.683750	335.171000		[silence]	[silence]
sw2268A-ms98-a-0083	A.125	335.171000	335.554875		[silence]	[silence]
sw2268A-ms98-a-0083	A.125	335.554875	335.701000		You	you
sw2268A-ms98-a-0083	A.125	335.701000	335.861000		went	went
sw2268A-ms98-a-0083	A.125	335.861000	335.921000		to	to
sw2268A-ms98-a-0083	A.125	335.921000	336.587750		Galveston	Galveston
sw2268A-ms98-a-0083	A.125	336.587750	337.035875		[silence]	[silence]
sw2268A-ms98-a-0083	A.125	337.035875	337.434375		Uh	uh
sw2268A-ms98-a-0083	A.125	337.434375	337.796000		[silence]	[silence]
sw2268A-ms98-a-0084	A.125	337.796000	338.343875		[silence]	[silence]
sw2268A-ms98-a-0084	A.125	338.343875	338.456000		I	i
sw2268A-ms98-a-0084	A.125	338.456000	338.723125		have	have
sw2268A-ms98-a-0084	A.125	338.723125	338.906000		a	a
sw2268A-ms98-a-0084	A.125	338.906000	339.346000		favorite	favorite
sw2268A-ms98-a-0084	A.125	339.346000	339.836000		hotel	hotel
sw2268A-ms98-a-0084	A.125	339.836000	339.956000		that	that
sw2268A-ms98-a-0084	A.125	339.956000	340.436000		extends	extends
sw2268A-ms98-a-0084	A.125	340.436000	340.616000		out	out
sw2268A-ms98-a-0084	A.125	340.616000	340.846000		over	over
sw2268A-ms98-a-0084	A.125	340.846000	340.926000		the	the
sw2268A-ms98-a-0084	A.125	340.926000	341.430125		water	water
sw2268A-ms98-a-0084	A.127	341.430125	341.705000		[silence]	[silence]
sw2268A-ms98-a-0085	A.127	341.705000	342.151625		[silence]	[silence]
sw2268A-ms98-a-0085	A.127	342.151625	342.461625		the	the
sw2268A-ms98-a-0085	A.127	342.461625	342.655000		uh	uh
sw2268A-ms98-a-0085	A.127	342.655000	342.785000		what	what
sw2268A-ms98-a-0085	A.127	342.785000	342.925000		is	is
sw2268A-ms98-a-0085	A.127	342.925000	343.035000		it	it
sw2268A-ms98-a-0085	A.127	343.035000	343.095000		the	the
sw2268A-ms98-a-0085	A.127	343.095000	343.856500		Flagship	Flagship
sw2268A-ms98-a-0085	A.129	343.856500	344.142875		[silence]	[silence]
sw2268A-ms98-a-0086	A.129	344.142875	344.551875		[silence]	[silence]
sw2268A-ms98-a-0086	A.129	344.551875	344.632875		Is	is
sw2268A-ms98-a-0086	A.129	344.632875	344.732875		it	it
sw2268A-ms98-a-0086	A.129	344.732875	344.992875		still	still
sw2268A-ms98-a-0086	A.129	344.992875	345.306000		there	there
sw2268A-ms98-a-0086	A.131	345.306000	345.587500		[silence]	[silence]
sw2268A-ms98-a-0087	A.131	345.587500	346.087500		[silence]	[silence]
sw2268A-ms98-a-0087	A.131	346.087500	346.187500		I	i
sw2268A-ms98-a-0087	A.131	346.187500	346.557500		like	like
sw2268A-ms98-a-0087	A.131	346.557500	346.717500		that	that
sw2268A-ms98-a-0087	A.131	346.717500	347.320000		place	place
sw2268A-ms98-a-0087	A.133	347.320000	347.472125		[silence]	[silence]
sw2268A-ms98-a-0088	A.133	347.472125	350.256125		[silence]	[silence]
sw2268A-ms98-a-0088	A.133	350.256125	355.951875		[noise]	[noise]
sw2268A-ms98-a-0088	A.133	355.951875	361.034625		[silence]	[silence]
sw2268A-ms98-a-0089	A.133	361.034625	361.554625		[silence]	[silence]
sw2268A-ms98-a-0089	A.133	361.554625	361.654625		I	i
sw2268A-ms98-a-0089	A.133	361.654625	361.874625		didn't	didn't
sw2268A-ms98-a-0089	A.133	361.874625	362.314625		realize	realize
sw2268A-ms98-a-0089	A.133	362.314625	362.474625		that	that
sw2268A-ms98-a-0089	A.133	362.474625	362.674625		had	had
sw2268A-ms98-a-0089	A.133	362.674625	363.224625		happened	happened
sw2268A-ms98-a-0089	A.135	363.224625	363.334625		for	for
sw2268A-ms98-a-0089	A.135	363.334625	363.603125		some	some
sw2268A-ms98-a-0089	A.135	363.603125	364.089750		reason	reason
sw2268A-ms98-a-0089	A.137	364.089750	364.348875		[silence]	[silence]
sw2268A-ms98-a-0090	A.137	364.348875	369.137875		[silence]	[silence]
sw2268A-ms98-a-0090	A.137	369.137875	369.518750		[noise]	[noise]
sw2268A-ms98-a-0090	A.137	369.518750	370.476500		[silence]	[silence]
sw2268A-ms98-a-0091	A.137	370.476500	370.992375		[silence]	[silence]
sw2268A-ms98-a-0091	A.137	370.992375	371.378000		Well	well
sw2268A-ms98-a-0091	A.137	371.378000	371.582250		of	of
sw2268A-ms98-a-0091	A.137	371.582250	371.846500		course	course
sw2268A-ms98-a-0091	A.137	371.846500	372.106500		being	being
sw2268A-ms98-a-0091	A.137	372.106500	372.476500		raised	raised
sw2268A-ms98-a-0091	A.137	372.476500	372.616500		on	on
sw2268A-ms98-a-0091	A.137	372.616500	372.676500		the	the
sw2268A-ms98-a-0091	A.137	372.676500	373.036500		water	water
sw2268A-ms98-a-0091	A.137	373.036500	373.136500		I'd	i'd
sw2268A-ms98-a-0091	A.137	373.136500	373.366500		never	never
sw2268A-ms98-a-0091	A.137	373.366500	373.696500		swim	swim
sw2268A-ms98-a-0091	A.137	373.696500	373.796500		in	in
sw2268A-ms98-a-0091	A.137	373.796500	374.051125		it	it
sw2268A-ms98-a-0091	A.139	374.051125	374.392750		[silence]	[silence]
sw2268A-ms98-a-0092	A.139	374.392750	374.922750		[silence]	[silence]
sw2268A-ms98-a-0092	A.139	374.922750	375.222125		Huh-uh	huh-uh
sw2268A-ms98-a-0092	A.141	375.222125	375.473750		[silence]	[silence]
sw2268A-ms98-a-0092	A.141	375.473750	376.127125		Swimming	swimming
sw2268A-ms98-a-0092	A.141	376.127125	376.422750		is	is
sw2268A-ms98-a-0092	A.141	376.422750	376.811875		for	for
sw2268A-ms98-a-0092	A.141	376.811875	376.943750		[silence]	[silence]
sw2268A-ms98-a-0092	A.141	376.943750	377.732750		swimming	swimming
sw2268A-ms98-a-0092	A.143	377.732750	377.914000		[silence]	[silence]
sw2268A-ms98-a-0093	A.143	377.914000	378.232500		[silence]	[silence]
sw2268A-ms98-a-0093	A.143	378.232500	378.762000		pool	pool
sw2268A-ms98-a-0093	A.145	378.762000	379.030375		[silence]	[silence]
sw2268A-ms98-a-0093	A.145	379.030375	379.264000		That's	that's
sw2268A-ms98-a-0093	A.145	379.264000	379.444000		why	why
sw2268A-ms98-a-0093	A.145	379.444000	379.564000		they	they
sw2268A-ms98-a-0093	A.145	379.564000	379.825250		call	call
sw2268A-ms98-a-0093	A.145	379.825250	379.988375		them	them
sw2268A-ms98-a-0093	A.145	379.988375	380.370000		swimming	swimming
sw2268A-ms98-a-0093	A.145	380.370000	381.238375		pools	[laughter-pools]
sw2268A-ms98-a-0093	A.147	381.238375	381.363000		[silence]	[silence]
sw2268A-ms98-a-0094	A.147	381.363000	381.513000		[silence]	[silence]
sw2268A-ms98-a-0094	A.147	381.513000	381.793000		That's	that's
sw2268A-ms98-a-0094	A.147	381.793000	381.913000		where	where
sw2268A-ms98-a-0094	A.147	381.913000	382.113000		you	you
sw2268A-ms98-a-0094	A.147	382.113000	382.439375		swim	swim
sw2268A-ms98-a-0094	A.147	382.439375	382.631500		[silence]	[silence]
sw2268A-ms98-a-0094	A.147	382.631500	382.793000		You	you
sw2268A-ms98-a-0094	A.147	382.793000	382.923000		do	do
sw2268A-ms98-a-0094	A.147	382.923000	383.173000		not	not
sw2268A-ms98-a-0094	A.147	383.173000	383.679250		swim	swim
sw2268A-ms98-a-0094	A.147	383.679250	383.961750		[silence]	[silence]
sw2268A-ms98-a-0094	A.147	383.961750	384.219250		in	in
sw2268A-ms98-a-0094	A.147	384.219250	384.541125		the	the
sw2268A-ms98-a-0094	A.147	384.541125	385.090625		ocean	ocean
sw2268A-ms98-a-0094	A.149	385.090625	385.500875		[silence]	[silence]
sw2268A-ms98-a-0095	A.149	385.500875	385.743000		[silence]	[silence]
sw2268A-ms98-a-0095	A.149	385.743000	385.937125		No	no
sw2268A-ms98-a-0095	A.151	385.937125	386.107250		[silence]	[silence]
sw2268A-ms98-a-0096	A.151	386.107250	386.427250		[silence]	[silence]
sw2268A-ms98-a-0096	A.151	386.427250	386.617250		I've	i've
sw2268A-ms98-a-0096	A.151	386.617250	386.977250		seen	seen
sw2268A-ms98-a-0096	A.151	386.977250	387.107250		what	what
sw2268A-ms98-a-0096	A.151	387.107250	387.397250		comes	comes
sw2268A-ms98-a-0096	A.151	387.397250	387.507250		out	out
sw2268A-ms98-a-0096	A.151	387.507250	387.650250		of	of
sw2268A-ms98-a-0096	A.151	387.650250	387.767250		the	the
sw2268A-ms98-a-0096	A.151	387.767250	388.147250		ocean	ocean
sw2268A-ms98-a-0096	A.151	388.147250	388.347250		and	and
sw2268A-ms98-a-0096	A.151	388.347250	388.397250		I	i
sw2268A-ms98-a-0096	A.151	388.397250	388.647250		have	have
sw2268A-ms98-a-0096	A.151	388.647250	388.787250		no	no
sw2268A-ms98-a-0096	A.151	388.787250	389.197250		desire	desire
sw2268A-ms98-a-0096	A.151	389.197250	389.287250		to	to
sw2268A-ms98-a-0096	A.151	389.287250	389.587250		share	share
sw2268A-ms98-a-0096	A.153	389.587250	389.797250		any	any
sw2268A-ms98-a-0096	A.153	389.797250	390.437250		space	space
sw2268A-ms98-a-0096	A.153	390.437250	390.597250		with	with
sw2268A-ms98-a-0096	A.153	390.597250	390.987250		anything	anything
sw2268A-ms98-a-0096	A.153	390.987250	391.277250		like	like
sw2268A-ms98-a-0096	A.153	391.277250	391.446250		that	that
sw2268A-ms98-a-0096	A.153	391.446250	391.799875		[silence]	[silence]
sw2268A-ms98-a-0097	A.153	391.799875	391.923875		[silence]	[silence]
sw2268A-ms98-a-0097	A.153	391.923875	392.179875		But	but
sw2268A-ms98-a-0097	A.153	392.179875	392.639875		really	really
sw2268A-ms98-a-0097	A.153	392.639875	392.639875	<INS>	but	---
sw2268A-ms98-a-0097	A.153	392.639875	393.641125		huge	huge
sw2268A-ms98-a-0097	A.153	393.641125	393.841375		[silence]	[silence]
sw2268A-ms98-a-0097	A.153	393.841375	394.494000		sharks	sharks
sw2268A-ms98-a-0097	A.155	394.494000	394.633375		[silence]	[silence]
sw2268A-ms98-a-0097	A.155	394.633375	394.729875		are	are
sw2268A-ms98-a-0097	A.155	394.729875	395.019875		down	down
sw2268A-ms98-a-0097	A.155	395.019875	395.239875		there	there
sw2268A-ms98-a-0097	A.155	395.239875	395.306500		I	i
sw2268A-ms98-a-0097	A.155	395.306500	395.617000		mean	mean
sw2268A-ms98-a-0097	A.155	395.617000	395.766500		[silence]	[silence]
sw2268A-ms98-a-0098	A.155	395.766500	396.073500		[silence]	[silence]
sw2268A-ms98-a-0098	A.155	396.073500	397.009625		incredibly	incredibly
sw2268A-ms98-a-0098	A.155	397.009625	397.475500		large	large
sw2268A-ms98-a-0098	A.155	397.475500	398.049000		sharks	sharks
sw2268A-ms98-a-0098	A.157	398.049000	398.297000		[silence]	[silence]
sw2268A-ms98-a-0099	A.157	398.297000	398.576375		[silence]	[silence]
sw2268A-ms98-a-0099	A.157	398.576375	398.885125		Uh	uh
sw2268A-ms98-a-0099	A.157	398.885125	398.973125		[silence]	[silence]
sw2268A-ms98-a-0099	A.157	398.973125	399.257000		some	some
sw2268A-ms98-a-0099	A.157	399.257000	399.327000		of	of
sw2268A-ms98-a-0099	A.157	399.327000	399.407000		the	the
sw2268A-ms98-a-0099	A.157	399.407000	399.920375		young	young
sw2268A-ms98-a-0099	A.157	399.920375	400.506375		[silence]	[silence]
sw2268A-ms98-a-0100	A.157	400.506375	401.016375		[silence]	[silence]
sw2268A-ms98-a-0100	A.157	401.016375	401.326375		dread	dread
sw2268A-ms98-a-0100	A.157	401.326375	401.646375		naughty	naughty
sw2268A-ms98-a-0100	A.157	401.646375	402.046375		boys	boys
sw2268A-ms98-a-0100	A.157	402.046375	402.156375		in	in
sw2268A-ms98-a-0100	A.157	402.156375	402.296375		my	my
sw2268A-ms98-a-0100	A.157	402.296375	402.726375		family	family
sw2268A-ms98-a-0100	A.157	402.726375	402.886375		would	would
sw2268A-ms98-a-0100	A.157	402.886375	403.276375		fish	fish
sw2268A-ms98-a-0100	A.157	403.276375	403.476375		for	for
sw2268A-ms98-a-0100	A.157	403.476375	403.616375		them	them
sw2268A-ms98-a-0100	A.157	403.616375	403.846375		all	all
sw2268A-ms98-a-0100	A.157	403.846375	404.329875		night	night
sw2268A-ms98-a-0100	A.159	404.329875	404.600000		[silence]	[silence]
sw2268A-ms98-a-0101	A.159	404.600000	404.972375		[silence]	[silence]
sw2268A-ms98-a-0101	A.159	404.972375	405.040000		it	it
sw2268A-ms98-a-0101	A.159	405.040000	405.200000		was	was
sw2268A-ms98-a-0101	A.159	405.200000	405.990000		incredible	incredible
sw2268A-ms98-a-0101	A.159	405.990000	406.050000		the	the
sw2268A-ms98-a-0101	A.159	406.050000	406.680000		size	size
sw2268A-ms98-a-0101	A.159	406.680000	406.790000		of	of
sw2268A-ms98-a-0101	A.159	406.790000	407.006625		them	them
sw2268A-ms98-a-0101	A.161	407.006625	407.146000		[silence]	[silence]
sw2268A-ms98-a-0101	A.161	407.146000	407.230000	<DEL>	---	that
sw2268A-ms98-a-0101	A.161	407.230000	407.320000	<DEL>	---	we
sw2268A-ms98-a-0101	A.161	407.320000	407.410000	<DEL>	---	would
sw2268A-ms98-a-0101	A.161	407.410000	407.650000	<DEL>	---	see
sw2268A-ms98-a-0101	A.161	407.650000	407.770375	<DEL>	---	on
sw2268A-ms98-a-0101	A.161	407.770375	407.888500	<DEL>	---	the
sw2268A-ms98-a-0101	A.161	407.888500	408.148375		[silence]	[silence]
sw2268A-ms98-a-0101	A.161	408.148375	408.310000		the	the
sw2268A-ms98-a-0101	A.161	408.310000	408.600000		next	next
sw2268A-ms98-a-0101	A.161	408.600000	408.840000		morning	morning
sw2268A-ms98-a-0101	A.161	408.840000	408.920000		they	they
sw2268A-ms98-a-0101	A.161	408.920000	409.040000		would	would
sw2268A-ms98-a-0101	A.161	409.040000	409.180000		have	have
sw2268A-ms98-a-0101	A.161	409.180000	409.357625		them	them
sw2268A-ms98-a-0101	A.161	409.357625	409.602375		[silence]	[silence]
sw2268A-ms98-a-0101	A.161	409.602375	410.040000		strung	strung
sw2268A-ms98-a-0101	A.161	410.040000	410.210000		up	up
sw2268A-ms98-a-0101	A.161	410.210000	410.672625		across	across
sw2268A-ms98-a-0101	A.161	410.672625	410.817375		the	the
sw2268A-ms98-a-0101	A.161	410.817375	410.817375	<INS>	getties	---
sw2268A-ms98-a-0101	A.163	410.817375	411.420000		[vocalized-noise]	[vocalized-noise]
sw2268A-ms98-a-0101	A.163	411.420000	411.766750		[silence]	[silence]
sw2268A-ms98-a-0102	A.163	411.766750	412.326750		[silence]	[silence]
sw2268A-ms98-a-0102	A.163	412.326750	412.697250		and	and
sw2268A-ms98-a-0102	A.163	412.697250	412.913250		it	it
sw2268A-ms98-a-0102	A.163	412.913250	413.647750		[silence]	[silence]
sw2268A-ms98-a-0102	A.163	413.647750	413.846750		you	you
sw2268A-ms98-a-0102	A.163	413.846750	414.036750		know	know
sw2268A-ms98-a-0102	A.163	414.036750	414.470875		so	so
sw2268A-ms98-a-0102	A.163	414.470875	414.862625		[silence]	[silence]
sw2268A-ms98-a-0102	A.163	414.862625	415.206375	<SUB>	just	if
sw2268A-ms98-a-0102	A.163	415.206375	415.726750		strung	strung
sw2268A-ms98-a-0102	A.163	415.726750	415.976750		up	up
sw2268A-ms98-a-0102	A.163	415.976750	416.096750		their	their
sw2268A-ms98-a-0102	A.163	416.096750	416.536750		tails	tails
sw2268A-ms98-a-0102	A.163	416.536750	416.706750		would	would
sw2268A-ms98-a-0102	A.163	416.706750	417.156750		still	still
sw2268A-ms98-a-0102	A.163	417.156750	417.586750		hang	hang
sw2268A-ms98-a-0102	A.163	417.586750	417.666750		on	on
sw2268A-ms98-a-0102	A.163	417.666750	417.726750		the	the
sw2268A-ms98-a-0102	A.163	417.726750	418.077750		bottom	bottom
sw2268A-ms98-a-0102	A.163	418.077750	418.215625		of	of
sw2268A-ms98-a-0102	A.163	418.215625	418.323125		the	the
sw2268A-ms98-a-0102	A.163	418.323125	418.988000		[vocalized-noise]	[vocalized-noise]
sw2268A-ms98-a-0102	A.163	418.988000	419.451750	<SUB>	getties	uh
sw2268A-ms98-a-0102	A.163	419.451750	419.451750	<INS>	yeah	---
sw2268A-ms98-a-0102	A.163	419.451750	419.776375		just	just
sw2268A-ms98-a-0102	A.165	419.776375	420.022875		[silence]	[silence]
sw2268A-ms98-a-0103	A.165	420.022875	424.133375		[silence]	[silence]
sw2268A-ms98-a-0104	A.165	424.133375	424.582750		[silence]	[silence]
sw2268A-ms98-a-0104	A.165	424.582750	424.783375	<DEL>	---	kind
sw2268A-ms98-a-0104	A.165	424.783375	425.055000	<DEL>	---	of
sw2268A-ms98-a-0104	A.165	425.055000	425.263375	<DEL>	---	kind
sw2268A-ms98-a-0104	A.165	425.263375	425.323375	<DEL>	---	of
sw2268A-ms98-a-0104	A.165	425.323375	425.673375	<DEL>	---	nothing
sw2268A-ms98-a-0104	A.165	425.673375	425.713375		I	i
sw2268A-ms98-a-0104	A.165	425.713375	425.893375		won't	won't
sw2268A-ms98-a-0104	A.165	425.893375	426.003375		have	have
sw2268A-ms98-a-0104	A.165	426.003375	426.363375		anything	anything
sw2268A-ms98-a-0104	A.165	426.363375	426.463375		to	to
sw2268A-ms98-a-0104	A.165	426.463375	426.673375		do	do
sw2268A-ms98-a-0104	A.165	426.673375	427.018750		with	with
sw2268A-ms98-a-0104	A.167	427.018750	427.302000		[silence]	[silence]
sw2268A-ms98-a-0105	A.167	427.302000	430.371375		[silence]	[silence]
sw2268A-ms98-a-0106	A.167	430.371375	430.792750		[silence]	[silence]
sw2268A-ms98-a-0106	A.167	430.792750	430.911375		Well	well
sw2268A-ms98-a-0106	A.167	430.911375	431.051375		it	it
sw2268A-ms98-a-0106	A.167	431.051375	431.521375		certainly	certainly
sw2268A-ms98-a-0106	A.167	431.521375	432.232000		was	was
sw2268A-ms98-a-0106	A.167	432.232000	432.726625	<SUB>	uh	um
sw2268A-ms98-a-0106	A.167	432.726625	433.283875		[noise]	[noise]
sw2268A-ms98-a-0106	A.167	433.283875	433.292750		[silence]	[silence]
sw2268A-ms98-a-0107	A.167	433.292750	433.707375		[silence]	[silence]
sw2268A-ms98-a-0107	A.167	433.707375	433.892750		Maybe	maybe
sw2268A-ms98-a-0107	A.167	433.892750	434.002750		you	you
sw2268A-ms98-a-0107	A.167	434.002750	434.092750		can	can
sw2268A-ms98-a-0107	A.167	434.092750	434.235750		get	get
sw2268A-ms98-a-0107	A.167	434.235750	434.367500		[noise]	[noise]
sw2268A-ms98-a-0107	A.167	434.367500	434.582750		how	how
sw2268A-ms98-a-0107	A.167	434.582750	434.852125		many	many
sw2268A-ms98-a-0107	A.167	434.852125	435.022750		have	have
sw2268A-ms98-a-0107	A.167	435.022750	435.112750		you	you
sw2268A-ms98-a-0107	A.167	435.112750	435.262750		had	had
sw2268A-ms98-a-0107	A.167	435.262750	435.412750		very	very
sw2268A-ms98-a-0107	A.167	435.412750	435.602750		many	many
sw2268A-ms98-a-0107	A.167	435.602750	435.662750		of	of
sw2268A-ms98-a-0107	A.167	435.662750	435.854500		these	these
sw2268A-ms98-a-0107	A.167	435.854500	436.303375		calls	calls
sw2268A-ms98-a-0107	A.169	436.303375	436.590250		[silence]	[silence]
sw2268A-ms98-a-0108	A.169	436.590250	439.622250		[silence]	[silence]
sw2268A-ms98-a-0109	A.169	439.622250	440.094750		[silence]	[silence]
sw2268A-ms98-a-0109	A.169	440.094750	440.256750		How	how
sw2268A-ms98-a-0109	A.169	440.256750	440.788500		wonderful	wonderful
sw2268A-ms98-a-0109	A.171	440.788500	441.020375		[silence]	[silence]
sw2268A-ms98-a-0110	A.171	441.020375	443.197250		[silence]	[silence]
sw2268A-ms98-a-0111	A.171	443.197250	443.617250		[silence]	[silence]
sw2268A-ms98-a-0111	A.171	443.617250	443.767250	<DEL>	---	how
sw2268A-ms98-a-0111	A.171	443.767250	444.218375	<DEL>	---	wonderful
sw2268A-ms98-a-0111	A.171	444.218375	444.376250		[silence]	[silence]
sw2268A-ms98-a-0112	A.171	444.376250	444.696250		[silence]	[silence]
sw2268A-ms98-a-0112	A.171	444.696250	444.916250		Maybe	maybe
sw2268A-ms98-a-0112	A.171	444.916250	445.136250		I'll	i'll
sw2268A-ms98-a-0112	A.171	445.136250	445.136250	<INS>	just	---
sw2268A-ms98-a-0112	A.171	445.136250	445.276250		be	be
sw2268A-ms98-a-0112	A.171	445.276250	445.476250		so	so
sw2268A-ms98-a-0112	A.171	445.476250	445.803625		lucky	lucky
sw2268A-ms98-a-0112	A.173	445.803625	445.848125		[silence]	[silence]
sw2268A-ms98-a-0113	A.173	445.848125	446.082625		[silence]	[silence]
sw2268A-ms98-a-0113	A.173	446.082625	446.428125		Okay	okay
sw2268A-ms98-a-0113	A.173	446.428125	446.458125		I	i
sw2268A-ms98-a-0113	A.173	446.458125	446.778125		enjoyed	enjoyed
sw2268A-ms98-a-0113	A.173	446.778125	447.138125		talking	talking
sw2268A-ms98-a-0113	A.173	447.138125	447.338250		to	to
sw2268A-ms98-a-0113	A.173	447.338250	447.479500		you	you
sw2268A-ms98-a-0113	A.175	447.479500	447.780750		[silence]	[silence]
sw2268A-ms98-a-0114	A.175	447.780750	448.090625		[silence]	[silence]
sw2268A-ms98-a-0114	A.175	448.090625	448.426250		Bye-bye	bye-bye
sw2268A-ms98-a-0114	A.175	448.426250	448.760125		[silence]	[silence]
sw2268A-ms98-a-0115	A.175	448.760125	449.512500		[silence]	[silence]
sw2268A-ms98-a-0115	A.175	449.512500	449.679750		[noise]	[noise]
sw2268A-ms98-a-0115	A.175	449.679750	450.467500		[silence]	[silence]
