sw2339B-ms98-a-0001	A.1	0.000000	0.390000		[silence]	[silence]
sw2339B-ms98-a-0001	A.1	0.390000	1.354000		[noise]	[noise]
sw2339B-ms98-a-0001	A.1	1.354000	1.415250		[silence]	[silence]
sw2339B-ms98-a-0002	A.1	1.415250	1.525250		[silence]	[silence]
sw2339B-ms98-a-0002	A.1	1.525250	2.215250		Okay	okay
sw2339B-ms98-a-0002	A.1	2.215250	2.545250		[noise]	[noise]
sw2339B-ms98-a-0002	A.1	2.545250	2.645250		I	i
sw2339B-ms98-a-0002	A.1	2.645250	2.745250		was	was
sw2339B-ms98-a-0002	A.1	2.745250	3.025250		thinking	thinking
sw2339B-ms98-a-0002	A.1	3.025250	3.275250		about	about
sw2339B-ms98-a-0002	A.1	3.275250	3.971625		camping	camping
sw2339B-ms98-a-0002	A.1	3.971625	4.250375		[silence]	[silence]
sw2339B-ms98-a-0002	A.1	4.250375	4.415250		and	and
sw2339B-ms98-a-0002	A.1	4.415250	4.785250		different	different
sw2339B-ms98-a-0002	A.1	4.785250	4.896250		i-	i-
sw2339B-ms98-a-0002	A.1	4.896250	5.335250		people's	people's
sw2339B-ms98-a-0002	A.1	5.335250	5.965250		ideas	ideas
sw2339B-ms98-a-0002	A.1	5.965250	6.375250		about	about
sw2339B-ms98-a-0002	A.1	6.375250	6.574250		it	it
sw2339B-ms98-a-0002	A.3	6.574250	6.895125		[silence]	[silence]
sw2339B-ms98-a-0003	A.3	6.895125	7.205125		[silence]	[silence]
sw2339B-ms98-a-0003	A.3	7.205125	7.595125		[noise]	[noise]
sw2339B-ms98-a-0003	A.3	7.595125	7.875125		We've	we've
sw2339B-ms98-a-0003	A.3	7.875125	8.105125		even	even
sw2339B-ms98-a-0003	A.3	8.105125	8.255125		seen	seen
sw2339B-ms98-a-0003	A.3	8.255125	8.525125		people	people
sw2339B-ms98-a-0003	A.3	8.525125	8.705125		with	with
sw2339B-ms98-a-0003	A.3	8.705125	8.885125		these	these
sw2339B-ms98-a-0003	A.3	8.885125	9.335125		campers	campers
sw2339B-ms98-a-0003	A.3	9.335125	9.425125		and	and
sw2339B-ms98-a-0003	A.3	9.425125	9.485125		they	they
sw2339B-ms98-a-0003	A.3	9.485125	9.645125		got	got
sw2339B-ms98-a-0003	A.3	9.645125	9.715125		the	the
sw2339B-ms98-a-0003	A.3	9.715125	9.905125		big	big
sw2339B-ms98-a-0003	A.3	9.905125	10.179375		old	old
sw2339B-ms98-a-0003	A.3	10.179375	10.782000		antennas	antennas
sw2339B-ms98-a-0003	A.3	10.782000	10.985125		up	up
sw2339B-ms98-a-0003	A.3	10.985125	11.105125		so	so
sw2339B-ms98-a-0003	A.3	11.105125	11.215125		they	they
sw2339B-ms98-a-0003	A.3	11.215125	11.335125		can	can
sw2339B-ms98-a-0003	A.3	11.335125	11.592875		watch	watch
sw2339B-ms98-a-0003	A.3	11.592875	11.728500		their	their
sw2339B-ms98-a-0003	A.3	11.728500	12.185125	<CONT>	T	TV
sw2339B-ms98-a-0003	A.3	12.185125	12.185125	<CONT>	V	+++
sw2339B-ms98-a-0003	A.3	12.185125	12.295125		when	when
sw2339B-ms98-a-0003	A.3	12.295125	12.405125		they're	they're
sw2339B-ms98-a-0003	A.3	12.405125	12.815125		going	going
sw2339B-ms98-a-0003	A.5	12.815125	13.275125		[silence]	[silence]
sw2339B-ms98-a-0003	A.5	13.275125	13.445125	<DEL>	---	but
sw2339B-ms98-a-0003	A.5	13.445125	13.655125		That's	that's
sw2339B-ms98-a-0003	A.5	13.655125	13.965500		not	not
sw2339B-ms98-a-0003	A.7	13.965500	14.349000		[silence]	[silence]
sw2339B-ms98-a-0004	A.7	14.349000	14.681500		[silence]	[silence]
sw2339B-ms98-a-0004	A.7	14.681500	15.349000		Yeah	[laughter-yeah]
sw2339B-ms98-a-0004	A.7	15.349000	15.419000		A	a
sw2339B-ms98-a-0004	A.7	15.419000	15.869000		satellite	satellite
sw2339B-ms98-a-0004	A.7	15.869000	15.919000		[silence]	[silence]
sw2339B-ms98-a-0004	A.7	15.919000	16.428625		dish	dish
sw2339B-ms98-a-0004	A.9	16.428625	16.658250		[silence]	[silence]
sw2339B-ms98-a-0005	A.9	16.658250	18.693375		[silence]	[silence]
sw2339B-ms98-a-0006	A.9	18.693375	18.853375		[silence]	[silence]
sw2339B-ms98-a-0006	A.9	18.853375	19.308000		Oh	oh
sw2339B-ms98-a-0006	A.9	19.308000	21.586625		golly	[laughter-golly]
sw2339B-ms98-a-0006	A.11	21.586625	21.761875		That's	that's
sw2339B-ms98-a-0006	A.11	21.761875	21.925875		not	not
sw2339B-ms98-a-0006	A.11	21.925875	22.050000		the	the
sw2339B-ms98-a-0006	A.11	22.050000	22.303375		kind	kind
sw2339B-ms98-a-0006	A.11	22.303375	22.463375		we	we
sw2339B-ms98-a-0006	A.11	22.463375	22.753375		do	do
sw2339B-ms98-a-0006	A.11	22.753375	22.843375		Do	do
sw2339B-ms98-a-0006	A.11	22.843375	22.923375		you	you
sw2339B-ms98-a-0006	A.11	22.923375	23.043375		go	go
sw2339B-ms98-a-0006	A.11	23.043375	23.603375		camping	camping
sw2339B-ms98-a-0006	A.15	23.603375	23.727250		[silence]	[silence]
sw2339B-ms98-a-0007	A.15	23.727250	26.794125		[silence]	[silence]
sw2339B-ms98-a-0008	A.15	26.794125	27.356625		[silence]	[silence]
sw2339B-ms98-a-0008	A.15	27.356625	29.475125		[laughter]	[laughter]
sw2339B-ms98-a-0008	A.15	29.475125	32.024250		[silence]	[silence]
sw2339B-ms98-a-0009	A.15	32.024250	32.404250		[silence]	[silence]
sw2339B-ms98-a-0009	A.15	32.404250	32.516625		Well	well
sw2339B-ms98-a-0009	A.15	32.516625	32.748000		so	so
sw2339B-ms98-a-0009	A.15	32.748000	32.858500		do	do
sw2339B-ms98-a-0009	A.15	32.858500	33.121250		we	we
sw2339B-ms98-a-0009	A.15	33.121250	33.956250		[silence]	[silence]
sw2339B-ms98-a-0009	A.15	33.956250	34.072250		In	in
sw2339B-ms98-a-0009	A.15	34.072250	34.478375		fact	fact
sw2339B-ms98-a-0009	A.15	34.478375	34.583875		[silence]	[silence]
sw2339B-ms98-a-0009	A.15	34.583875	34.784250		when	when
sw2339B-ms98-a-0009	A.15	34.784250	34.894250		we	we
sw2339B-ms98-a-0009	A.15	34.894250	35.134250		first	first
sw2339B-ms98-a-0009	A.15	35.134250	35.274250		got	got
sw2339B-ms98-a-0009	A.15	35.274250	35.874250		married	married
sw2339B-ms98-a-0009	A.15	35.874250	35.974250		we	we
sw2339B-ms98-a-0009	A.15	35.974250	36.084250		would	would
sw2339B-ms98-a-0009	A.15	36.084250	36.264250		try	try
sw2339B-ms98-a-0009	A.15	36.264250	36.354250		to	to
sw2339B-ms98-a-0009	A.15	36.354250	36.584250		take	take
sw2339B-ms98-a-0009	A.15	36.584250	36.804250		these	these
sw2339B-ms98-a-0009	A.15	36.804250	37.286375		trips	trips
sw2339B-ms98-a-0009	A.15	37.286375	37.651750		[silence]	[silence]
sw2339B-ms98-a-0009	A.15	37.651750	37.781250		to	to
sw2339B-ms98-a-0009	A.15	37.781250	38.294250		Minnesota	Minnesota
sw2339B-ms98-a-0009	A.15	38.294250	38.434250		to	to
sw2339B-ms98-a-0009	A.15	38.434250	38.584250		see	see
sw2339B-ms98-a-0009	A.15	38.584250	38.744250		his	his
sw2339B-ms98-a-0009	A.15	38.744250	39.237875		family	family
sw2339B-ms98-a-0009	A.17	39.237875	39.806625		[silence]	[silence]
sw2339B-ms98-a-0010	A.17	39.806625	40.128625		[silence]	[silence]
sw2339B-ms98-a-0010	A.17	40.128625	40.786625		[noise]	[noise]
sw2339B-ms98-a-0010	A.17	40.786625	40.946625		and	and
sw2339B-ms98-a-0010	A.17	40.946625	41.026625		we	we
sw2339B-ms98-a-0010	A.17	41.026625	41.248500		didn't	didn't
sw2339B-ms98-a-0010	A.17	41.248500	41.511250		have	have
sw2339B-ms98-a-0010	A.17	41.511250	41.665625		a	a
sw2339B-ms98-a-0010	A.17	41.665625	42.056625		tent	tent
sw2339B-ms98-a-0010	A.17	42.056625	42.156625		or	or
sw2339B-ms98-a-0010	A.17	42.156625	42.449500		any	any
sw2339B-ms98-a-0010	A.17	42.449500	42.600125		[silence]	[silence]
sw2339B-ms98-a-0010	A.17	42.600125	43.056625		camping	camping
sw2339B-ms98-a-0010	A.17	43.056625	43.476625		supplies	supplies
sw2339B-ms98-a-0010	A.17	43.476625	43.586625		so	so
sw2339B-ms98-a-0010	A.17	43.586625	43.801500		we'd	we'd
sw2339B-ms98-a-0010	A.17	43.801500	44.065250		sleep	sleep
sw2339B-ms98-a-0010	A.17	44.065250	44.226625		on	on
sw2339B-ms98-a-0010	A.17	44.226625	44.396125		those	those
sw2339B-ms98-a-0010	A.17	44.396125	44.821750		picnic	picnic
sw2339B-ms98-a-0010	A.17	44.821750	45.286625		tables	tables
sw2339B-ms98-a-0010	A.17	45.286625	45.442125		at	at
sw2339B-ms98-a-0010	A.17	45.442125	45.558875		[silence]	[silence]
sw2339B-ms98-a-0010	A.17	45.558875	45.996625		roadside	roadside
sw2339B-ms98-a-0010	A.17	45.996625	46.526625		parks	parks
sw2339B-ms98-a-0010	A.19	46.526625	46.579500		I	i
sw2339B-ms98-a-0010	A.19	46.579500	46.698750		mean	mean
sw2339B-ms98-a-0010	A.19	46.698750	46.789250		I	i
sw2339B-ms98-a-0010	A.19	46.789250	46.946625		know	know
sw2339B-ms98-a-0010	A.19	46.946625	47.136625		it's	it's
sw2339B-ms98-a-0010	A.19	47.136625	47.656625		dangerous	dangerous
sw2339B-ms98-a-0010	A.19	47.656625	47.696625		I	i
sw2339B-ms98-a-0010	A.19	47.696625	47.956625		wouldn't	wouldn't
sw2339B-ms98-a-0010	A.19	47.956625	48.084000		do	do
sw2339B-ms98-a-0010	A.19	48.084000	48.208750		it	it
sw2339B-ms98-a-0010	A.19	48.208750	48.426625		now	now
sw2339B-ms98-a-0010	A.19	48.426625	48.550375		but	but
sw2339B-ms98-a-0010	A.19	48.550375	48.701625		we	we
sw2339B-ms98-a-0010	A.19	48.701625	49.016625		did	did
sw2339B-ms98-a-0010	A.21	49.016625	49.141500		[silence]	[silence]
sw2339B-ms98-a-0011	A.21	49.141500	50.111625		[silence]	[silence]
sw2339B-ms98-a-0011	A.21	50.111625	51.021500		[noise]	[noise]
sw2339B-ms98-a-0011	A.21	51.021500	51.191500		And	and
sw2339B-ms98-a-0011	A.21	51.191500	51.341500		one	one
sw2339B-ms98-a-0011	A.21	51.341500	51.571500		time	time
sw2339B-ms98-a-0011	A.21	51.571500	51.651500		we	we
sw2339B-ms98-a-0011	A.21	51.651500	51.881500		went	went
sw2339B-ms98-a-0011	A.21	51.881500	51.971500		to	to
sw2339B-ms98-a-0011	A.21	51.971500	52.651500		Yellowstone	Yellowstone
sw2339B-ms98-a-0011	A.21	52.651500	52.801500		and	and
sw2339B-ms98-a-0011	A.21	52.801500	52.871500		we	we
sw2339B-ms98-a-0011	A.21	52.871500	53.041500		were	were
sw2339B-ms98-a-0011	A.21	53.041500	53.231500		doing	doing
sw2339B-ms98-a-0011	A.21	53.231500	53.301500		the	the
sw2339B-ms98-a-0011	A.21	53.301500	53.521500		same	same
sw2339B-ms98-a-0011	A.21	53.521500	53.691500		thing	thing
sw2339B-ms98-a-0011	A.21	53.691500	53.781500		We	we
sw2339B-ms98-a-0011	A.21	53.781500	54.141500		couldn't	couldn't
sw2339B-ms98-a-0011	A.21	54.141500	54.401500		find	find
sw2339B-ms98-a-0011	A.21	54.401500	54.441500		a	a
sw2339B-ms98-a-0011	A.21	54.441500	54.881500		place	place
sw2339B-ms98-a-0011	A.21	54.881500	55.041500		to	to
sw2339B-ms98-a-0011	A.21	55.041500	55.633875		camp	camp
sw2339B-ms98-a-0011	A.21	55.633875	55.751375		[silence]	[silence]
sw2339B-ms98-a-0011	A.21	55.751375	55.901500		and	and
sw2339B-ms98-a-0011	A.21	55.901500	56.021500		so	so
sw2339B-ms98-a-0011	A.21	56.021500	56.121500		we	we
sw2339B-ms98-a-0011	A.21	56.121500	56.278375		were	were
sw2339B-ms98-a-0011	A.21	56.278375	56.541500		[silence]	[silence]
sw2339B-ms98-a-0012	A.21	56.541500	56.853875		[silence]	[silence]
sw2339B-ms98-a-0012	A.21	56.853875	57.062125		on	on
sw2339B-ms98-a-0012	A.21	57.062125	57.291500		top	top
sw2339B-ms98-a-0012	A.21	57.291500	57.411500		of	of
sw2339B-ms98-a-0012	A.21	57.411500	57.501500		a	a
sw2339B-ms98-a-0012	A.21	57.501500	57.881500		picnic	picnic
sw2339B-ms98-a-0012	A.21	57.881500	58.351500		table	table
sw2339B-ms98-a-0012	A.21	58.351500	58.561500		with	with
sw2339B-ms98-a-0012	A.21	58.561500	58.797375		our	our
sw2339B-ms98-a-0012	A.21	58.797375	59.234250		[silence]	[silence]
sw2339B-ms98-a-0012	A.21	59.234250	59.445125		our	our
sw2339B-ms98-a-0012	A.21	59.445125	59.781500		sleeping	sleeping
sw2339B-ms98-a-0012	A.21	59.781500	60.000500		bags	bags
sw2339B-ms98-a-0012	A.21	60.000500	60.110000		I	i
sw2339B-ms98-a-0012	A.21	60.110000	60.547125		guess	guess
sw2339B-ms98-a-0012	A.21	60.547125	60.570750		[silence]	[silence]
sw2339B-ms98-a-0013	A.21	60.570750	60.990750		[silence]	[silence]
sw2339B-ms98-a-0013	A.21	60.990750	61.090750		And	and
sw2339B-ms98-a-0013	A.21	61.090750	61.280750		this	this
sw2339B-ms98-a-0013	A.21	61.280750	61.650750		ranger	ranger
sw2339B-ms98-a-0013	A.21	61.650750	62.120750		comes	comes
sw2339B-ms98-a-0013	A.21	62.120750	62.400750		up	up
sw2339B-ms98-a-0013	A.21	62.400750	62.530750		with	with
sw2339B-ms98-a-0013	A.21	62.530750	62.686750		this	this
sw2339B-ms98-a-0013	A.21	62.686750	62.984250		light	light
sw2339B-ms98-a-0013	A.21	62.984250	63.380750		shines	shines
sw2339B-ms98-a-0013	A.21	63.380750	63.480750		it	it
sw2339B-ms98-a-0013	A.21	63.480750	63.660750		on	on
sw2339B-ms98-a-0013	A.21	63.660750	63.860750		us	us
sw2339B-ms98-a-0013	A.21	63.860750	64.080750		and	and
sw2339B-ms98-a-0013	A.21	64.080750	64.310750		said	said
sw2339B-ms98-a-0013	A.21	64.310750	64.400750		that	that
sw2339B-ms98-a-0013	A.21	64.400750	64.540750		we're	we're
sw2339B-ms98-a-0013	A.21	64.540750	64.830750		just	just
sw2339B-ms98-a-0013	A.21	64.830750	65.080750		bear	bear
sw2339B-ms98-a-0013	A.21	65.080750	65.380750		bait	bait
sw2339B-ms98-a-0013	A.21	65.380750	65.570750		out	out
sw2339B-ms98-a-0013	A.21	65.570750	65.710750		there	there
sw2339B-ms98-a-0013	A.21	65.710750	65.790750		We	we
sw2339B-ms98-a-0013	A.21	65.790750	65.910750		had	had
sw2339B-ms98-a-0013	A.21	65.910750	66.107125		our	our
sw2339B-ms98-a-0013	A.21	66.107125	66.556250		food	food
sw2339B-ms98-a-0013	A.23	66.556250	66.680750		you	you
sw2339B-ms98-a-0013	A.23	66.680750	66.990750		know	know
sw2339B-ms98-a-0013	A.25	66.990750	67.104500		[silence]	[silence]
sw2339B-ms98-a-0014	A.25	67.104500	67.534500		[silence]	[silence]
sw2339B-ms98-a-0014	A.25	67.534500	67.634500		and	and
sw2339B-ms98-a-0014	A.25	67.634500	67.874500		told	told
sw2339B-ms98-a-0014	A.25	67.874500	67.984500		us	us
sw2339B-ms98-a-0014	A.25	67.984500	68.094500		to	to
sw2339B-ms98-a-0014	A.25	68.094500	68.244500		get	get
sw2339B-ms98-a-0014	A.25	68.244500	68.594500		inside	inside
sw2339B-ms98-a-0014	A.25	68.594500	68.664500		our	our
sw2339B-ms98-a-0014	A.25	68.664500	69.197250		car	car
sw2339B-ms98-a-0014	A.27	69.197250	69.490250		[silence]	[silence]
sw2339B-ms98-a-0015	A.27	69.490250	70.610500		[silence]	[silence]
sw2339B-ms98-a-0016	A.27	70.610500	70.920375		[silence]	[silence]
sw2339B-ms98-a-0016	A.27	70.920375	71.610500		[laughter]	[laughter]
sw2339B-ms98-a-0016	A.27	71.610500	71.840500		Bear	bear
sw2339B-ms98-a-0016	A.27	71.840500	72.363250		bait	bait
sw2339B-ms98-a-0016	A.29	72.363250	73.010000		[silence]	[silence]
sw2339B-ms98-a-0017	A.29	73.010000	74.574375		[silence]	[silence]
sw2339B-ms98-a-0018	A.29	74.574375	74.987375		[silence]	[silence]
sw2339B-ms98-a-0018	A.29	74.987375	75.477500		Yeah	yeah
sw2339B-ms98-a-0018	A.31	75.477500	75.857750		[silence]	[silence]
sw2339B-ms98-a-0019	A.31	75.857750	77.014875		[silence]	[silence]
sw2339B-ms98-a-0020	A.31	77.014875	77.484875		[silence]	[silence]
sw2339B-ms98-a-0020	A.31	77.484875	77.834875		Yeah	yeah
sw2339B-ms98-a-0020	A.31	77.834875	77.944875		We've	we've
sw2339B-ms98-a-0020	A.31	77.944875	78.164875		got	got
sw2339B-ms98-a-0020	A.31	78.164875	78.314875		some	some
sw2339B-ms98-a-0020	A.31	78.314875	78.604875		land	land
sw2339B-ms98-a-0020	A.31	78.604875	78.704875		at	at
sw2339B-ms98-a-0020	A.31	78.704875	79.044875		Holly	Holly
sw2339B-ms98-a-0020	A.31	79.044875	79.480000		Lake	Lake
sw2339B-ms98-a-0020	A.33	79.480000	79.758750		[silence]	[silence]
sw2339B-ms98-a-0020	A.33	79.758750	80.094875		outside	outside
sw2339B-ms98-a-0020	A.33	80.094875	80.154875		of	of
sw2339B-ms98-a-0020	A.33	80.154875	80.624875		Tyler	Tyler
sw2339B-ms98-a-0020	A.33	80.624875	81.202250		[silence]	[silence]
sw2339B-ms98-a-0021	A.33	81.202250	81.302250		[silence]	[silence]
sw2339B-ms98-a-0021	A.33	81.302250	81.532250		And	and
sw2339B-ms98-a-0021	A.33	81.532250	81.532250	<INS>	we	---
sw2339B-ms98-a-0021	A.33	81.532250	81.752250		[silence]	[silence]
sw2339B-ms98-a-0021	A.33	81.752250	81.872250		go	go
sw2339B-ms98-a-0021	A.33	81.872250	82.032250		up	up
sw2339B-ms98-a-0021	A.33	82.032250	82.142250		there	there
sw2339B-ms98-a-0021	A.33	82.142250	82.572250		fairly	fairly
sw2339B-ms98-a-0021	A.33	82.572250	82.982250		often	often
sw2339B-ms98-a-0021	A.33	82.982250	83.143250		[silence]	[silence]
sw2339B-ms98-a-0022	A.33	83.143250	83.373250		[silence]	[silence]
sw2339B-ms98-a-0022	A.33	83.373250	83.713250		[noise]	[noise]
sw2339B-ms98-a-0022	A.33	83.713250	84.023250		Sometimes	sometimes
sw2339B-ms98-a-0022	A.33	84.023250	84.153250		we	we
sw2339B-ms98-a-0022	A.33	84.153250	84.273250		get	get
sw2339B-ms98-a-0022	A.33	84.273250	84.313250		a	a
sw2339B-ms98-a-0022	A.33	84.313250	84.453250		lot	lot
sw2339B-ms98-a-0022	A.33	84.453250	84.513250		of	of
sw2339B-ms98-a-0022	A.33	84.513250	84.823250		people	people
sw2339B-ms98-a-0022	A.33	84.823250	85.253250		together	together
sw2339B-ms98-a-0022	A.33	85.253250	85.413250		to	to
sw2339B-ms98-a-0022	A.33	85.413250	85.613250		do	do
sw2339B-ms98-a-0022	A.33	85.613250	85.982375		it	it
sw2339B-ms98-a-0022	A.35	85.982375	86.584125		[silence]	[silence]
sw2339B-ms98-a-0023	A.35	86.584125	87.494125		[silence]	[silence]
sw2339B-ms98-a-0023	A.35	87.494125	87.614125		And	and
sw2339B-ms98-a-0023	A.35	87.614125	87.754125		we've	we've
sw2339B-ms98-a-0023	A.35	87.754125	87.954125		done	done
sw2339B-ms98-a-0023	A.35	87.954125	88.224125		things	things
sw2339B-ms98-a-0023	A.35	88.224125	88.464125		like	like
sw2339B-ms98-a-0023	A.35	88.464125	88.564125		when	when
sw2339B-ms98-a-0023	A.35	88.564125	88.624125		[silence]	[silence]
sw2339B-ms98-a-0023	A.35	88.624125	88.764125		when	when
sw2339B-ms98-a-0023	A.35	88.764125	88.890625		it's	it's
sw2339B-ms98-a-0023	A.35	88.890625	89.014875		kind	kind
sw2339B-ms98-a-0023	A.35	89.014875	89.080750		of	of
sw2339B-ms98-a-0023	A.35	89.080750	89.596750		cold	cold
sw2339B-ms98-a-0023	A.35	89.596750	90.144125		[silence]	[silence]
sw2339B-ms98-a-0023	A.35	90.144125	90.204125		We	we
sw2339B-ms98-a-0023	A.35	90.204125	90.334125		take	take
sw2339B-ms98-a-0023	A.35	90.334125	90.824125		extension	extension
sw2339B-ms98-a-0023	A.35	90.824125	91.254125		cords	cords
sw2339B-ms98-a-0023	A.35	91.254125	91.354125		and	and
sw2339B-ms98-a-0023	A.35	91.354125	91.504125		we've	we've
sw2339B-ms98-a-0023	A.35	91.504125	91.614125		all	all
sw2339B-ms98-a-0023	A.35	91.614125	91.854125		got	got
sw2339B-ms98-a-0023	A.35	91.854125	92.194125		heaters	heaters
sw2339B-ms98-a-0023	A.35	92.194125	92.284125		in	in
sw2339B-ms98-a-0023	A.35	92.284125	92.364125		our	our
sw2339B-ms98-a-0023	A.35	92.364125	93.061750		tents	tents
sw2339B-ms98-a-0023	A.37	93.061750	93.164375		[silence]	[silence]
sw2339B-ms98-a-0024	A.37	93.164375	93.694375		[silence]	[silence]
sw2339B-ms98-a-0024	A.37	93.694375	93.814375		And	and
sw2339B-ms98-a-0024	A.37	93.814375	93.894375		in	in
sw2339B-ms98-a-0024	A.37	93.894375	93.954375		the	the
sw2339B-ms98-a-0024	A.37	93.954375	94.666375		Summer	[laughter-summer]
sw2339B-ms98-a-0024	A.37	94.666375	95.025125		[silence]	[silence]
sw2339B-ms98-a-0024	A.37	95.025125	95.296250		Same	same
sw2339B-ms98-a-0024	A.37	95.296250	95.414375		thing	thing
sw2339B-ms98-a-0024	A.37	95.414375	95.484375		we	we
sw2339B-ms98-a-0024	A.37	95.484375	95.634375		get	get
sw2339B-ms98-a-0024	A.37	95.634375	95.704375		our	our
sw2339B-ms98-a-0024	A.37	95.704375	96.144375		extension	extension
sw2339B-ms98-a-0024	A.37	96.144375	96.514375		cords	cords
sw2339B-ms98-a-0024	A.37	96.514375	96.824375		running	running
sw2339B-ms98-a-0024	A.37	96.824375	96.954375		from	from
sw2339B-ms98-a-0024	A.37	96.954375	97.111750		all	all
sw2339B-ms98-a-0024	A.37	97.111750	97.341500		these	these
sw2339B-ms98-a-0024	A.37	97.341500	97.634375		tents	tents
sw2339B-ms98-a-0024	A.37	97.634375	97.724375		but	but
sw2339B-ms98-a-0024	A.37	97.724375	97.835625		we've	we've
sw2339B-ms98-a-0024	A.37	97.835625	97.972875		got	got
sw2339B-ms98-a-0024	A.37	97.972875	98.123500		the	the
sw2339B-ms98-a-0024	A.37	98.123500	98.524375		fans	fans
sw2339B-ms98-a-0024	A.37	98.524375	98.973375		going	going
sw2339B-ms98-a-0024	A.39	98.973375	99.301000		[silence]	[silence]
sw2339B-ms98-a-0025	A.39	99.301000	99.731000		[silence]	[silence]
sw2339B-ms98-a-0025	A.39	99.731000	99.901000		So	so
sw2339B-ms98-a-0025	A.39	99.901000	100.011000		we're	we're
sw2339B-ms98-a-0025	A.39	100.011000	100.281000		not	not
sw2339B-ms98-a-0025	A.39	100.281000	100.591000		roughing	roughing
sw2339B-ms98-a-0025	A.39	100.591000	100.731000		it	it
sw2339B-ms98-a-0025	A.39	100.731000	100.981000		too	too
sw2339B-ms98-a-0025	A.39	100.981000	101.420625		much	much
sw2339B-ms98-a-0025	A.41	101.420625	101.917750		[silence]	[silence]
sw2339B-ms98-a-0025	A.41	101.917750	102.051000		And	and
sw2339B-ms98-a-0025	A.41	102.051000	102.221000		we	we
sw2339B-ms98-a-0025	A.41	102.221000	102.404625		have	have
sw2339B-ms98-a-0025	A.41	102.404625	102.728125		taken	taken
sw2339B-ms98-a-0025	A.41	102.728125	103.142500	<CONT>	T	TVs
sw2339B-ms98-a-0025	A.41	103.142500	103.142500	<CONT>	V	+++
sw2339B-ms98-a-0025	A.41	103.142500	103.142500	<CONT>	-s	+++
sw2339B-ms98-a-0025	A.41	103.142500	103.341000		out	out
sw2339B-ms98-a-0025	A.41	103.341000	103.491000		there	there
sw2339B-ms98-a-0025	A.41	103.491000	103.664625		for	for
sw2339B-ms98-a-0025	A.41	103.664625	103.741750		the	the
sw2339B-ms98-a-0025	A.41	103.741750	104.628625		kids	[laughter-kids]
sw2339B-ms98-a-0025	A.43	104.628625	104.867625		[silence]	[silence]
sw2339B-ms98-a-0026	A.43	104.867625	105.617625		[silence]	[silence]
sw2339B-ms98-a-0026	A.43	105.617625	105.857625		And	and
sw2339B-ms98-a-0026	A.43	105.857625	105.987625		they've	they've
sw2339B-ms98-a-0026	A.43	105.987625	106.337625		got	got
sw2339B-ms98-a-0026	A.43	106.337625	106.471750		their	their
sw2339B-ms98-a-0026	A.43	106.471750	107.051750		electrical	electrical
sw2339B-ms98-a-0026	A.43	107.051750	107.735250		hookups	hookups
sw2339B-ms98-a-0026	A.43	107.735250	108.395625		[silence]	[silence]
sw2339B-ms98-a-0027	A.43	108.395625	109.421750		[silence]	[silence]
sw2339B-ms98-a-0028	A.43	109.421750	109.561750		[silence]	[silence]
sw2339B-ms98-a-0028	A.43	109.561750	109.701750		So	so
sw2339B-ms98-a-0028	A.43	109.701750	109.841750		it's	it's
sw2339B-ms98-a-0028	A.43	109.841750	110.071750		not	not
sw2339B-ms98-a-0028	A.43	110.071750	110.251750		so	so
sw2339B-ms98-a-0028	A.43	110.251750	110.849750		bad	bad
sw2339B-ms98-a-0028	A.45	110.849750	111.255375		[silence]	[silence]
sw2339B-ms98-a-0029	A.45	111.255375	113.755125		[silence]	[silence]
sw2339B-ms98-a-0030	A.45	113.755125	113.895125		[silence]	[silence]
sw2339B-ms98-a-0030	A.45	113.895125	114.015125		I	i
sw2339B-ms98-a-0030	A.45	114.015125	114.205125		think	think
sw2339B-ms98-a-0030	A.45	114.205125	114.305125		the	the
sw2339B-ms98-a-0030	A.45	114.305125	114.695125		longest	longest
sw2339B-ms98-a-0030	A.45	114.695125	114.825125		we've	we've
sw2339B-ms98-a-0030	A.45	114.825125	115.075125		stayed	stayed
sw2339B-ms98-a-0030	A.45	115.075125	115.235125		out	out
sw2339B-ms98-a-0030	A.45	115.235125	115.445125		there	there
sw2339B-ms98-a-0030	A.45	115.445125	115.545125		is	is
sw2339B-ms98-a-0030	A.45	115.545125	115.695125		like	like
sw2339B-ms98-a-0030	A.45	115.695125	116.095125		five	five
sw2339B-ms98-a-0030	A.45	116.095125	116.957375		days	days
sw2339B-ms98-a-0030	A.47	116.957375	117.160875		[silence]	[silence]
sw2339B-ms98-a-0030	A.47	117.160875	117.295125		And	and
sw2339B-ms98-a-0030	A.47	117.295125	117.495125		they	they
sw2339B-ms98-a-0030	A.47	117.495125	117.835125		even	even
sw2339B-ms98-a-0030	A.47	117.835125	117.941625		they	they
sw2339B-ms98-a-0030	A.47	117.941625	118.058500		had	had
sw2339B-ms98-a-0030	A.47	118.058500	118.145125		a	a
sw2339B-ms98-a-0030	A.47	118.145125	118.745125		library	library
sw2339B-ms98-a-0030	A.47	118.745125	118.848875		at	at
sw2339B-ms98-a-0030	A.47	118.848875	119.048500		one	one
sw2339B-ms98-a-0030	A.47	119.048500	119.345125		time	time
sw2339B-ms98-a-0030	A.47	119.345125	119.495125		out	out
sw2339B-ms98-a-0030	A.47	119.495125	119.920250		there	there
sw2339B-ms98-a-0030	A.49	119.920250	120.591125		[silence]	[silence]
sw2339B-ms98-a-0031	A.49	120.591125	120.851125		[silence]	[silence]
sw2339B-ms98-a-0031	A.49	120.851125	120.971125		So	so
sw2339B-ms98-a-0031	A.49	120.971125	121.191125		that's	that's
sw2339B-ms98-a-0031	A.49	121.191125	121.291125		[silence]	[silence]
sw2339B-ms98-a-0031	A.49	121.291125	121.641125		really	really
sw2339B-ms98-a-0031	A.49	121.641125	121.881125		not	not
sw2339B-ms98-a-0031	A.49	121.881125	122.201125		roughing	roughing
sw2339B-ms98-a-0031	A.49	122.201125	122.291125		it	it
sw2339B-ms98-a-0031	A.49	122.291125	122.541125		so	so
sw2339B-ms98-a-0031	A.49	122.541125	122.981125		much	much
sw2339B-ms98-a-0031	A.49	122.981125	123.171125		but	but
sw2339B-ms98-a-0031	A.51	123.171125	123.455000		[silence]	[silence]
sw2339B-ms98-a-0032	A.51	123.455000	123.670250		[silence]	[silence]
sw2339B-ms98-a-0032	A.51	123.670250	123.750875		[noise]	[noise]
sw2339B-ms98-a-0032	A.51	123.750875	124.192500		[silence]	[silence]
sw2339B-ms98-a-0033	A.51	124.192500	124.252500		[silence]	[silence]
sw2339B-ms98-a-0033	A.51	124.252500	124.442500		we	we
sw2339B-ms98-a-0033	A.51	124.442500	124.602500		have	have
sw2339B-ms98-a-0033	A.51	124.602500	124.762500		gone	gone
sw2339B-ms98-a-0033	A.51	124.762500	124.872500		on	on
sw2339B-ms98-a-0033	A.51	124.872500	125.212500		trips	trips
sw2339B-ms98-a-0033	A.51	125.212500	125.512500	<SUB>	where	we've
sw2339B-ms98-a-0033	A.51	125.512500	125.512500	<INS>	we	---
sw2339B-ms98-a-0033	A.51	125.512500	125.902500		bathed	bathed
sw2339B-ms98-a-0033	A.51	125.902500	126.002500		in	in
sw2339B-ms98-a-0033	A.51	126.002500	127.194750		streams	streams
sw2339B-ms98-a-0033	A.53	127.194750	127.761125		[silence]	[silence]
sw2339B-ms98-a-0034	A.53	127.761125	128.331125		[silence]	[silence]
sw2339B-ms98-a-0034	A.53	128.331125	128.511125		That's	that's
sw2339B-ms98-a-0034	A.53	128.511125	128.711125		kind	kind
sw2339B-ms98-a-0034	A.53	128.711125	128.821125		of	of
sw2339B-ms98-a-0034	A.53	128.821125	129.401125		[silence]	[silence]
sw2339B-ms98-a-0034	A.53	129.401125	130.011125		different	different
sw2339B-ms98-a-0034	A.55	130.011125	130.951750		[silence]	[silence]
sw2339B-ms98-a-0035	A.55	130.951750	134.770750		[silence]	[silence]
sw2339B-ms98-a-0036	A.55	134.770750	135.260750		[silence]	[silence]
sw2339B-ms98-a-0036	A.55	135.260750	135.397250		And	and
sw2339B-ms98-a-0036	A.55	135.397250	135.501625		a	a
sw2339B-ms98-a-0036	A.55	135.501625	135.850750		pool	pool
sw2339B-ms98-a-0036	A.55	135.850750	136.038250		to	to
sw2339B-ms98-a-0036	A.55	136.038250	136.264250		go	go
sw2339B-ms98-a-0036	A.55	136.264250	136.690750		to	to
sw2339B-ms98-a-0036	A.57	136.690750	136.840750		That	that
sw2339B-ms98-a-0036	A.57	136.840750	136.980750		would	would
sw2339B-ms98-a-0036	A.57	136.980750	137.110750		be	be
sw2339B-ms98-a-0036	A.57	137.110750	137.570750		nice	nice
sw2339B-ms98-a-0036	A.61	137.570750	137.570750	<INS>	Uh-huh	---
sw2339B-ms98-a-0036	A.69	137.570750	138.080750		[noise]	[noise]
sw2339B-ms98-a-0036	A.69	138.080750	138.202875		[silence]	[silence]
sw2339B-ms98-a-0037	A.69	138.202875	153.080250		[silence]	[silence]
sw2339B-ms98-a-0038	A.69	153.080250	153.500250		[silence]	[silence]
sw2339B-ms98-a-0038	A.69	153.500250	153.630250		Well	well
sw2339B-ms98-a-0038	A.69	153.630250	153.821500		my	my
sw2339B-ms98-a-0038	A.69	153.821500	154.118000		[silence]	[silence]
sw2339B-ms98-a-0038	A.69	154.118000	154.660250		husband	husband
sw2339B-ms98-a-0038	A.69	154.660250	154.850250		has	has
sw2339B-ms98-a-0038	A.69	154.850250	155.020250		even	even
sw2339B-ms98-a-0038	A.69	155.020250	155.360250		camped	camped
sw2339B-ms98-a-0038	A.69	155.360250	155.476375		at	at
sw2339B-ms98-a-0038	A.69	155.476375	155.721125		Lake	Lake
sw2339B-ms98-a-0038	A.69	155.721125	156.386625		Lavon	Lavon
sw2339B-ms98-a-0038	A.71	156.386625	156.567375		[silence]	[silence]
sw2339B-ms98-a-0038	A.71	156.567375	156.800250		with	with
sw2339B-ms98-a-0038	A.71	156.800250	156.920250		one	one
sw2339B-ms98-a-0038	A.71	156.920250	157.000250		of	of
sw2339B-ms98-a-0038	A.71	157.000250	157.170250		his	his
sw2339B-ms98-a-0038	A.71	157.170250	157.520250		friends	friends
sw2339B-ms98-a-0038	A.71	157.520250	157.590250		he	he
sw2339B-ms98-a-0038	A.71	157.590250	157.770250		just	just
sw2339B-ms98-a-0038	A.71	157.770250	158.150250		decided	decided
sw2339B-ms98-a-0038	A.71	158.150250	158.220250		[silence]	[silence]
sw2339B-ms98-a-0038	A.71	158.220250	158.280250		to	to
sw2339B-ms98-a-0038	A.71	158.280250	158.560250		take	take
sw2339B-ms98-a-0038	A.71	158.560250	158.620250		the	the
sw2339B-ms98-a-0038	A.71	158.620250	158.820250		kids	kids
sw2339B-ms98-a-0038	A.71	158.820250	158.940250		out	out
sw2339B-ms98-a-0038	A.71	158.940250	158.990250		[silence]	[silence]
sw2339B-ms98-a-0038	A.71	158.990250	159.225125		there	there
sw2339B-ms98-a-0038	A.73	159.225125	159.411625		[silence]	[silence]
sw2339B-ms98-a-0039	A.73	159.411625	160.011625		[silence]	[silence]
sw2339B-ms98-a-0039	A.73	160.011625	160.073750		I	i
sw2339B-ms98-a-0039	A.73	160.073750	160.201625		mean	mean
sw2339B-ms98-a-0039	A.73	160.201625	160.321625		it's	it's
sw2339B-ms98-a-0039	A.73	160.321625	160.521625		not	not
sw2339B-ms98-a-0039	A.73	160.521625	160.681625		very	very
sw2339B-ms98-a-0039	A.73	160.681625	160.821625		many	many
sw2339B-ms98-a-0039	A.73	160.821625	161.191625		miles	miles
sw2339B-ms98-a-0039	A.73	161.191625	161.321625		from	from
sw2339B-ms98-a-0039	A.73	161.321625	161.421625		our	our
sw2339B-ms98-a-0039	A.73	161.421625	161.511625		[silence]	[silence]
sw2339B-ms98-a-0039	A.73	161.511625	161.731625		house	house
sw2339B-ms98-a-0039	A.73	161.731625	161.831625		at	at
sw2339B-ms98-a-0039	A.73	161.831625	162.171625		all	all
sw2339B-ms98-a-0039	A.75	162.171625	162.535000		[silence]	[silence]
sw2339B-ms98-a-0040	A.75	162.535000	162.895000		[silence]	[silence]
sw2339B-ms98-a-0040	A.75	162.895000	163.035000		But	but
sw2339B-ms98-a-0040	A.75	163.035000	163.135000		they	they
sw2339B-ms98-a-0040	A.75	163.135000	163.315000		had	had
sw2339B-ms98-a-0040	A.75	163.315000	163.395000		the	[laughter-the]
sw2339B-ms98-a-0040	A.75	163.395000	163.745000		time	[laughter-time]
sw2339B-ms98-a-0040	A.75	163.745000	163.845000		of	of
sw2339B-ms98-a-0040	A.75	163.845000	164.030000		their	their
sw2339B-ms98-a-0040	A.75	164.030000	164.500500		lives	lives
sw2339B-ms98-a-0040	A.75	164.500500	164.603250		you	you
sw2339B-ms98-a-0040	A.75	164.603250	164.750375		know	know
sw2339B-ms98-a-0040	A.77	164.750375	164.778375		[silence]	[silence]
sw2339B-ms98-a-0041	A.77	164.778375	165.118375		[silence]	[silence]
sw2339B-ms98-a-0041	A.77	165.118375	165.248375		Had	had
sw2339B-ms98-a-0041	A.77	165.248375	165.318375		the	the
sw2339B-ms98-a-0041	A.77	165.318375	165.558375		boat	boat
sw2339B-ms98-a-0041	A.77	165.558375	165.738375		just	just
sw2339B-ms98-a-0041	A.77	165.738375	166.048375		pulled	pulled
sw2339B-ms98-a-0041	A.77	166.048375	166.168375		up	up
sw2339B-ms98-a-0041	A.77	166.168375	166.338375		right	right
sw2339B-ms98-a-0041	A.77	166.338375	166.466375		by	by
sw2339B-ms98-a-0041	A.77	166.466375	166.553000		the	the
sw2339B-ms98-a-0041	A.77	166.553000	167.108375		tents	tents
sw2339B-ms98-a-0041	A.79	167.108375	167.728000		[silence]	[silence]
sw2339B-ms98-a-0042	A.79	167.728000	168.028000		[silence]	[silence]
sw2339B-ms98-a-0042	A.79	168.028000	168.753875		[noise]	[noise]
sw2339B-ms98-a-0042	A.79	168.753875	168.802375		[silence]	[silence]
sw2339B-ms98-a-0043	A.79	168.802375	169.072375		[silence]	[silence]
sw2339B-ms98-a-0043	A.79	169.072375	169.222375		It	it
sw2339B-ms98-a-0043	A.79	169.222375	169.452375		wasn't	wasn't
sw2339B-ms98-a-0043	A.79	169.452375	169.742375		bad	bad
sw2339B-ms98-a-0043	A.81	169.742375	170.307125		[silence]	[silence]
sw2339B-ms98-a-0044	A.81	170.307125	170.707125		[silence]	[silence]
sw2339B-ms98-a-0044	A.81	170.707125	171.014125		Yeah	yeah
sw2339B-ms98-a-0044	A.81	171.014125	171.462250		[silence]	[silence]
sw2339B-ms98-a-0044	A.81	171.462250	171.575250		And	and
sw2339B-ms98-a-0044	A.81	171.575250	171.747125		we've	we've
sw2339B-ms98-a-0044	A.81	171.747125	172.177125		taken	taken
sw2339B-ms98-a-0044	A.83	172.177125	172.335375		our	our
sw2339B-ms98-a-0044	A.83	172.335375	172.760375		tents	tents
sw2339B-ms98-a-0044	A.83	172.760375	172.933625		though	though
sw2339B-ms98-a-0044	A.83	172.933625	173.207125		loaded	loaded
sw2339B-ms98-a-0044	A.83	173.207125	173.317125		them	them
sw2339B-ms98-a-0044	A.83	173.317125	173.563125		up	up
sw2339B-ms98-a-0044	A.83	173.563125	173.647375		in	in
sw2339B-ms98-a-0044	A.83	173.647375	173.721375	<DEL>	---	the
sw2339B-ms98-a-0044	A.83	173.721375	173.967125		car	car
sw2339B-ms98-a-0044	A.83	173.967125	174.517375		carrier	carrier
sw2339B-ms98-a-0044	A.83	174.517375	174.925375		[silence]	[silence]
sw2339B-ms98-a-0045	A.83	174.925375	175.415375		[silence]	[silence]
sw2339B-ms98-a-0045	A.83	175.415375	175.515375		and	and
sw2339B-ms98-a-0045	A.83	175.515375	175.845375		decided	decided
sw2339B-ms98-a-0045	A.83	175.845375	175.945375		we	we
sw2339B-ms98-a-0045	A.83	175.945375	176.005375		were	were
sw2339B-ms98-a-0045	A.83	176.005375	176.135375		going	going
sw2339B-ms98-a-0045	A.83	176.135375	176.205375		to	to
sw2339B-ms98-a-0045	A.83	176.205375	176.535375		tent	tent
sw2339B-ms98-a-0045	A.83	176.535375	176.615375		[silence]	[silence]
sw2339B-ms98-a-0045	A.83	176.615375	176.896000		most	most
sw2339B-ms98-a-0045	A.83	176.896000	176.990125		of	of
sw2339B-ms98-a-0045	A.83	176.990125	177.115375		the	the
sw2339B-ms98-a-0045	A.83	177.115375	177.399000		way	way
sw2339B-ms98-a-0045	A.83	177.399000	177.779375		[silence]	[silence]
sw2339B-ms98-a-0045	A.83	177.779375	177.905375		And	and
sw2339B-ms98-a-0045	A.83	177.905375	178.025375		it	it
sw2339B-ms98-a-0045	A.83	178.025375	178.285375		ended	ended
sw2339B-ms98-a-0045	A.83	178.285375	178.516500		up	up
sw2339B-ms98-a-0045	A.83	178.516500	178.885625		[silence]	[silence]
sw2339B-ms98-a-0045	A.83	178.885625	179.015375		when	when
sw2339B-ms98-a-0045	A.83	179.015375	179.076625		it	it
sw2339B-ms98-a-0045	A.83	179.076625	179.325125		came	came
sw2339B-ms98-a-0045	A.83	179.325125	179.635375		time	time
sw2339B-ms98-a-0045	A.83	179.635375	179.815375		for	for
sw2339B-ms98-a-0045	A.83	179.815375	179.965375		us	us
sw2339B-ms98-a-0045	A.83	179.965375	180.135375		to	to
sw2339B-ms98-a-0045	A.83	180.135375	180.385375		pull	pull
sw2339B-ms98-a-0045	A.83	180.385375	180.555375		in	in
sw2339B-ms98-a-0045	A.83	180.555375	180.645375		for	for
sw2339B-ms98-a-0045	A.83	180.645375	180.745375		the	the
sw2339B-ms98-a-0045	A.83	180.745375	181.095375		night	night
sw2339B-ms98-a-0045	A.83	181.095375	181.412250		[silence]	[silence]
sw2339B-ms98-a-0046	A.83	181.412250	181.832250		[silence]	[silence]
sw2339B-ms98-a-0046	A.83	181.832250	181.972250		we'd	we'd
sw2339B-ms98-a-0046	A.83	181.972250	182.182250		take	take
sw2339B-ms98-a-0046	A.83	182.182250	182.222250		a	a
sw2339B-ms98-a-0046	A.83	182.222250	182.740875		vote	vote
sw2339B-ms98-a-0046	A.83	182.740875	183.219250		[silence]	[silence]
sw2339B-ms98-a-0046	A.83	183.219250	183.342250		And	and
sw2339B-ms98-a-0046	A.83	183.342250	183.622250		most	most
sw2339B-ms98-a-0046	A.83	183.622250	183.697500		of	of
sw2339B-ms98-a-0046	A.83	183.697500	183.806750		the	the
sw2339B-ms98-a-0046	A.83	183.806750	184.012250		time	time
sw2339B-ms98-a-0046	A.83	184.012250	184.122250		we	we
sw2339B-ms98-a-0046	A.83	184.122250	184.482250		decided	decided
sw2339B-ms98-a-0046	A.83	184.482250	184.612250		we	we
sw2339B-ms98-a-0046	A.83	184.612250	184.962250		wanted	wanted
sw2339B-ms98-a-0046	A.83	184.962250	185.052250		to	to
sw2339B-ms98-a-0046	A.83	185.052250	185.302250		stay	stay
sw2339B-ms98-a-0046	A.83	185.302250	185.412250		in	in
sw2339B-ms98-a-0046	A.83	185.412250	185.452250		a	a
sw2339B-ms98-a-0046	A.83	185.452250	186.152250		hotel	hotel
sw2339B-ms98-a-0046	A.85	186.152250	186.259000		[silence]	[silence]
sw2339B-ms98-a-0047	A.85	186.259000	186.519000		[silence]	[silence]
sw2339B-ms98-a-0047	A.85	186.519000	186.899000		Instead	instead
sw2339B-ms98-a-0047	A.85	186.899000	186.979000		of	of
sw2339B-ms98-a-0047	A.85	186.979000	187.239000		getting	getting
sw2339B-ms98-a-0047	A.85	187.239000	187.419000		out	out
sw2339B-ms98-a-0047	A.85	187.419000	187.550250		all	all
sw2339B-ms98-a-0047	A.85	187.550250	187.738500		that	that
sw2339B-ms98-a-0047	A.85	187.738500	188.339000		stuff	stuff
sw2339B-ms98-a-0047	A.85	188.339000	188.399000		[silence]	[silence]
sw2339B-ms98-a-0047	A.85	188.399000	188.519000		you	you
sw2339B-ms98-a-0047	A.85	188.519000	188.757875		know	know
sw2339B-ms98-a-0047	A.87	188.757875	189.007875		[silence]	[silence]
sw2339B-ms98-a-0048	A.87	189.007875	191.147000		[silence]	[silence]
sw2339B-ms98-a-0049	A.87	191.147000	191.348000		[silence]	[silence]
sw2339B-ms98-a-0049	A.87	191.348000	191.887750		[vocalized-noise]	[vocalized-noise]
sw2339B-ms98-a-0049	A.87	191.887750	192.177000		Yeah	yeah
sw2339B-ms98-a-0049	A.87	192.177000	192.347000		Then	then
sw2339B-ms98-a-0049	A.87	192.347000	192.417000		you	you
sw2339B-ms98-a-0049	A.87	192.417000	192.547000		have	have
sw2339B-ms98-a-0049	A.87	192.547000	192.637000		to	to
sw2339B-ms98-a-0049	A.87	192.637000	192.777000		get	get
sw2339B-ms98-a-0049	A.87	192.777000	192.867000		up	up
sw2339B-ms98-a-0049	A.87	192.867000	192.957000		the	the
sw2339B-ms98-a-0049	A.87	192.957000	193.237000		next	next
sw2339B-ms98-a-0049	A.87	193.237000	193.491500		day	day
sw2339B-ms98-a-0049	A.87	193.491500	193.589375		and	and
sw2339B-ms98-a-0049	A.87	193.589375	193.867000		move	move
sw2339B-ms98-a-0049	A.87	193.867000	193.987000		it	it
sw2339B-ms98-a-0049	A.87	193.987000	194.297000		on	on
sw2339B-ms98-a-0049	A.89	194.297000	194.637625		[silence]	[silence]
sw2339B-ms98-a-0050	A.89	194.637625	195.217625		[silence]	[silence]
sw2339B-ms98-a-0050	A.89	195.217625	195.657625		Huh-uh	huh-uh
sw2339B-ms98-a-0050	A.89	195.657625	196.142625		[silence]	[silence]
sw2339B-ms98-a-0051	A.89	196.142625	196.432625		[silence]	[silence]
sw2339B-ms98-a-0051	A.89	196.432625	196.582625		But	but
sw2339B-ms98-a-0051	A.89	196.582625	196.712625		we're	we're
sw2339B-ms98-a-0051	A.89	196.712625	197.052625		set	set
sw2339B-ms98-a-0051	A.89	197.052625	197.202625		now	now
sw2339B-ms98-a-0051	A.89	197.202625	197.342625		We've	we've
sw2339B-ms98-a-0051	A.89	197.342625	197.532625		got	got
sw2339B-ms98-a-0051	A.89	197.532625	197.792625		cook	cook
sw2339B-ms98-a-0051	A.89	197.792625	198.392625		stoves	stoves
sw2339B-ms98-a-0051	A.89	198.392625	198.482625		and	and
sw2339B-ms98-a-0051	A.89	198.482625	198.572625		we've	we've
sw2339B-ms98-a-0051	A.89	198.572625	198.712625		got	got
sw2339B-ms98-a-0051	A.89	198.712625	198.792625		our	our
sw2339B-ms98-a-0051	A.89	198.792625	199.162625		bug	bug
sw2339B-ms98-a-0051	A.89	199.162625	199.592625		light	light
sw2339B-ms98-a-0051	A.89	199.592625	199.792125		[silence]	[silence]
sw2339B-ms98-a-0052	A.89	199.792125	200.827375		[silence]	[silence]
sw2339B-ms98-a-0053	A.89	200.827375	200.905125		[silence]	[silence]
sw2339B-ms98-a-0053	A.89	200.905125	200.975625		and	and
sw2339B-ms98-a-0053	A.89	200.975625	201.287375		everybody's	everybody's
sw2339B-ms98-a-0053	A.89	201.287375	201.447375		got	got
sw2339B-ms98-a-0053	A.89	201.447375	201.547375		their	their
sw2339B-ms98-a-0053	A.89	201.547375	202.037375		sleeping	sleeping
sw2339B-ms98-a-0053	A.89	202.037375	202.447375		bags	bags
sw2339B-ms98-a-0053	A.89	202.447375	202.523750		we	we
sw2339B-ms98-a-0053	A.89	202.523750	202.730875		got	got
sw2339B-ms98-a-0053	A.89	202.730875	202.927375		air	air
sw2339B-ms98-a-0053	A.89	202.927375	203.667375		mattresses	mattresses
sw2339B-ms98-a-0053	A.89	203.667375	203.747375		We	we
sw2339B-ms98-a-0053	A.89	203.747375	204.137375		decided	decided
sw2339B-ms98-a-0053	A.89	204.137375	204.227375		that	that
sw2339B-ms98-a-0053	A.89	204.227375	204.367375		was	was
sw2339B-ms98-a-0053	A.89	204.367375	204.717375		easier	easier
sw2339B-ms98-a-0053	A.89	204.717375	204.877375		than	than
sw2339B-ms98-a-0053	A.89	204.877375	205.357375		cots	cots
sw2339B-ms98-a-0053	A.89	205.357375	205.447375		and	and
sw2339B-ms98-a-0053	A.89	205.447375	205.587375		more	more
sw2339B-ms98-a-0053	A.89	205.587375	206.317375		comfortable	comfortable
sw2339B-ms98-a-0053	A.91	206.317375	207.253750		[silence]	[silence]
sw2339B-ms98-a-0054	A.91	207.253750	207.783750		[silence]	[silence]
sw2339B-ms98-a-0054	A.91	207.783750	208.113750		Yeah	yeah
sw2339B-ms98-a-0054	A.91	208.113750	208.383750		Those	those
sw2339B-ms98-a-0054	A.91	208.383750	208.693750		double	double
sw2339B-ms98-a-0054	A.91	208.693750	209.176250		ones	ones
sw2339B-ms98-a-0054	A.93	209.176250	209.439000		[silence]	[silence]
sw2339B-ms98-a-0055	A.93	209.439000	210.500375		[silence]	[silence]
sw2339B-ms98-a-0056	A.93	210.500375	210.770375		[silence]	[silence]
sw2339B-ms98-a-0056	A.93	210.770375	210.960375		Pretty	pretty
sw2339B-ms98-a-0056	A.93	210.960375	211.180375		good	good
sw2339B-ms98-a-0056	A.93	211.180375	211.290375		We're	we're
sw2339B-ms98-a-0056	A.93	211.290375	211.360375		on	on
sw2339B-ms98-a-0056	A.93	211.360375	211.484750		our	our
sw2339B-ms98-a-0056	A.93	211.484750	211.578625		[silence]	[silence]
sw2339B-ms98-a-0056	A.93	211.578625	211.810375		third	third
sw2339B-ms98-a-0056	A.93	211.810375	211.960375		one	one
sw2339B-ms98-a-0056	A.93	211.960375	212.050375		I	i
sw2339B-ms98-a-0056	A.93	212.050375	212.390375		think	think
sw2339B-ms98-a-0056	A.93	212.390375	212.760375		[silence]	[silence]
sw2339B-ms98-a-0056	A.93	212.760375	213.169250		Somehow	somehow
sw2339B-ms98-a-0056	A.95	213.169250	213.483375		[silence]	[silence]
sw2339B-ms98-a-0057	A.95	213.483375	213.993375		[silence]	[silence]
sw2339B-ms98-a-0057	A.95	213.993375	214.193375		We've	we've
sw2339B-ms98-a-0057	A.95	214.193375	214.303375		got	got
sw2339B-ms98-a-0057	A.95	214.303375	214.363375		an	an
sw2339B-ms98-a-0057	A.95	214.363375	214.843375		electric	electric
sw2339B-ms98-a-0057	A.95	214.843375	215.261000		pump	pump
sw2339B-ms98-a-0057	A.95	215.261000	215.449250		that	that
sw2339B-ms98-a-0057	A.95	215.449250	215.683375		hooks	hooks
sw2339B-ms98-a-0057	A.95	215.683375	215.883375		into	into
sw2339B-ms98-a-0057	A.95	215.883375	215.953375		the	the
sw2339B-ms98-a-0057	A.95	215.953375	216.323375		cigarette	cigarette
sw2339B-ms98-a-0057	A.95	216.323375	216.653375		lighter	lighter
sw2339B-ms98-a-0057	A.97	216.653375	217.180000		[silence]	[silence]
sw2339B-ms98-a-0058	A.97	217.180000	222.237375		[silence]	[silence]
sw2339B-ms98-a-0059	A.97	222.237375	222.447375		[silence]	[silence]
sw2339B-ms98-a-0059	A.97	222.447375	222.545500		I	i
sw2339B-ms98-a-0059	A.97	222.545500	222.707375		didn't	didn't
sw2339B-ms98-a-0059	A.97	222.707375	222.787375		know	know
sw2339B-ms98-a-0059	A.97	222.787375	222.907375		you	you
sw2339B-ms98-a-0059	A.97	222.907375	223.047375		could	could
sw2339B-ms98-a-0059	A.97	223.047375	223.117375		[silence]	[silence]
sw2339B-ms98-a-0059	A.97	223.117375	223.317375		do	do
sw2339B-ms98-a-0059	A.97	223.317375	223.857250		that	that
sw2339B-ms98-a-0059	A.101	223.857250	224.234250		[silence]	[silence]
sw2339B-ms98-a-0060	A.101	224.234250	225.432500		[silence]	[silence]
sw2339B-ms98-a-0061	A.101	225.432500	225.780875		[silence]	[silence]
sw2339B-ms98-a-0061	A.101	225.780875	226.023375		[noise]	[noise]
sw2339B-ms98-a-0061	A.101	226.023375	226.684500		[silence]	[silence]
sw2339B-ms98-a-0062	A.101	226.684500	227.274500		[silence]	[silence]
sw2339B-ms98-a-0062	A.101	227.274500	227.612250		Yeah	yeah
sw2339B-ms98-a-0062	A.103	227.612250	228.179750		[silence]	[silence]
sw2339B-ms98-a-0063	A.103	228.179750	234.852375		[silence]	[silence]
sw2339B-ms98-a-0064	A.103	234.852375	235.252375		[silence]	[silence]
sw2339B-ms98-a-0064	A.103	235.252375	235.532375		No	no
sw2339B-ms98-a-0064	A.103	235.532375	236.122375		joke	joke
sw2339B-ms98-a-0064	A.105	236.122375	236.569750		[noise]	[noise]
sw2339B-ms98-a-0064	A.105	236.569750	236.656375		I	i
sw2339B-ms98-a-0064	A.105	236.656375	236.842375		hope	hope
sw2339B-ms98-a-0064	A.105	236.842375	236.902375		you	you
sw2339B-ms98-a-0064	A.105	236.902375	237.082375		didn't	didn't
sw2339B-ms98-a-0064	A.105	237.082375	237.202375		have	have
sw2339B-ms98-a-0064	A.105	237.202375	237.272375		a	a
sw2339B-ms98-a-0064	A.105	237.272375	237.472375		big	big
sw2339B-ms98-a-0064	A.105	237.472375	237.972375		vacuum	vacuum
sw2339B-ms98-a-0064	A.105	237.972375	238.382375		cleaner	cleaner
sw2339B-ms98-a-0064	A.109	238.382375	239.052250		[silence]	[silence]
sw2339B-ms98-a-0065	A.109	239.052250	239.612125		[silence]	[silence]
sw2339B-ms98-a-0065	A.109	239.612125	240.117875		[noise]	[noise]
sw2339B-ms98-a-0065	A.109	240.117875	240.600625		[silence]	[silence]
sw2339B-ms98-a-0066	A.109	240.600625	243.503250		[silence]	[silence]
sw2339B-ms98-a-0067	A.109	243.503250	243.973250		[silence]	[silence]
sw2339B-ms98-a-0067	A.109	243.973250	244.227125		Yeah	yeah
sw2339B-ms98-a-0067	A.109	244.227125	244.286500		[silence]	[silence]
sw2339B-ms98-a-0067	A.109	244.286500	244.423250		Now	now
sw2339B-ms98-a-0067	A.109	244.423250	244.634500		we've	we've
sw2339B-ms98-a-0067	A.109	244.634500	244.802875		used	used
sw2339B-ms98-a-0067	A.109	244.802875	244.866875		a	a
sw2339B-ms98-a-0067	A.109	244.866875	245.113250		hair	hair
sw2339B-ms98-a-0067	A.109	245.113250	245.413250		dryer	dryer
sw2339B-ms98-a-0067	A.109	245.413250	245.925000		before	before
sw2339B-ms98-a-0067	A.111	245.925000	246.221875		[silence]	[silence]
sw2339B-ms98-a-0068	A.111	246.221875	246.511875		[silence]	[silence]
sw2339B-ms98-a-0068	A.111	246.511875	246.611875		But	but
sw2339B-ms98-a-0068	A.111	246.611875	246.661875		I	i
sw2339B-ms98-a-0068	A.111	246.661875	246.841875		put	put
sw2339B-ms98-a-0068	A.111	246.841875	246.971875		it	it
sw2339B-ms98-a-0068	A.111	246.971875	247.111875		on	on
sw2339B-ms98-a-0068	A.111	247.111875	247.371875		hot	hot
sw2339B-ms98-a-0068	A.111	247.371875	247.481875		and	and
sw2339B-ms98-a-0068	A.111	247.481875	247.741875		also	also
sw2339B-ms98-a-0068	A.111	247.741875	248.201875		melted	melted
sw2339B-ms98-a-0068	A.111	248.201875	248.428750		it	it
sw2339B-ms98-a-0068	A.113	248.428750	248.713125		[silence]	[silence]
sw2339B-ms98-a-0069	A.113	248.713125	248.883125		[silence]	[silence]
sw2339B-ms98-a-0069	A.113	248.883125	248.974625		I	i
sw2339B-ms98-a-0069	A.113	248.974625	249.253125		found	found
sw2339B-ms98-a-0069	A.113	249.253125	249.393125		that	that
sw2339B-ms98-a-0069	A.113	249.393125	249.483125		you	you
sw2339B-ms98-a-0069	A.113	249.483125	249.713125		don't	don't
sw2339B-ms98-a-0069	A.113	249.713125	249.933125		do	do
sw2339B-ms98-a-0069	A.113	249.933125	250.487000		that	that
sw2339B-ms98-a-0069	A.115	250.487000	251.229000		[silence]	[silence]
sw2339B-ms98-a-0070	A.115	251.229000	251.559000		[silence]	[silence]
sw2339B-ms98-a-0070	A.115	251.559000	251.662000		I	i
sw2339B-ms98-a-0070	A.115	251.662000	251.759000		didn't	didn't
sw2339B-ms98-a-0070	A.115	251.759000	252.009000		realize	realize
sw2339B-ms98-a-0070	A.115	252.009000	252.069000		it	it
sw2339B-ms98-a-0070	A.115	252.069000	252.189000		would	would
sw2339B-ms98-a-0070	A.115	252.189000	252.449000		melt	melt
sw2339B-ms98-a-0070	A.115	252.449000	252.649000		so	so
sw2339B-ms98-a-0070	A.115	252.649000	253.089000		easily	easily
sw2339B-ms98-a-0070	A.117	253.089000	254.131375		[silence]	[silence]
sw2339B-ms98-a-0071	A.117	254.131375	254.541375		[silence]	[silence]
sw2339B-ms98-a-0071	A.117	254.541375	254.649375		I	i
sw2339B-ms98-a-0071	A.117	254.649375	254.802375		don't	don't
sw2339B-ms98-a-0071	A.117	254.802375	255.012750		know	know
sw2339B-ms98-a-0071	A.119	255.012750	255.556500		[silence]	[silence]
sw2339B-ms98-a-0072	A.119	255.556500	259.637875		[silence]	[silence]
sw2339B-ms98-a-0073	A.119	259.637875	260.407875		[silence]	[silence]
sw2339B-ms98-a-0073	A.119	260.407875	260.683875		Yeah	yeah
sw2339B-ms98-a-0073	A.123	260.683875	261.128125		[silence]	[silence]
sw2339B-ms98-a-0074	A.123	261.128125	263.230000		[silence]	[silence]
sw2339B-ms98-a-0075	A.123	263.230000	263.670000		[silence]	[silence]
sw2339B-ms98-a-0075	A.123	263.670000	263.735250		I	i
sw2339B-ms98-a-0075	A.123	263.735250	263.860000		don't	don't
sw2339B-ms98-a-0075	A.123	263.860000	264.030000		like	like
sw2339B-ms98-a-0075	A.123	264.030000	264.110000		it	it
sw2339B-ms98-a-0075	A.123	264.110000	264.230000		when	when
sw2339B-ms98-a-0075	A.123	264.230000	264.390000		there's	there's
sw2339B-ms98-a-0075	A.123	264.390000	265.020000	<SUB>	mosquitos	mosquitoes
sw2339B-ms98-a-0075	A.123	265.020000	265.180000		so	so
sw2339B-ms98-a-0075	A.123	265.180000	265.624250		bad	bad
sw2339B-ms98-a-0075	A.125	265.624250	266.231000		[silence]	[silence]
sw2339B-ms98-a-0076	A.125	266.231000	267.269625		[silence]	[silence]
sw2339B-ms98-a-0077	A.125	267.269625	267.659625		[silence]	[silence]
sw2339B-ms98-a-0077	A.125	267.659625	267.749625		And	and
sw2339B-ms98-a-0077	A.125	267.749625	267.899625		then	then
sw2339B-ms98-a-0077	A.125	267.899625	268.069625		one	one
sw2339B-ms98-a-0077	A.125	268.069625	268.269625		night	night
sw2339B-ms98-a-0077	A.125	268.269625	268.369625		we	we
sw2339B-ms98-a-0077	A.125	268.369625	268.459625		were	were
sw2339B-ms98-a-0077	A.125	268.459625	268.989625		camping	camping
sw2339B-ms98-a-0077	A.125	268.989625	269.109625		and	and
sw2339B-ms98-a-0077	A.125	269.109625	269.189625		it	it
sw2339B-ms98-a-0077	A.125	269.189625	269.489625		came	came
sw2339B-ms98-a-0077	A.125	269.489625	269.703875		just	just
sw2339B-ms98-a-0077	A.125	269.703875	269.845375		a	a
sw2339B-ms98-a-0077	A.125	269.845375	270.449500		torrential	torrential
sw2339B-ms98-a-0077	A.125	270.449500	271.309625		downpour	downpour
sw2339B-ms98-a-0077	A.125	271.309625	271.429625		We	we
sw2339B-ms98-a-0077	A.125	271.429625	271.569625		had	had
sw2339B-ms98-a-0077	A.125	271.569625	271.659625		the	the
sw2339B-ms98-a-0077	A.125	271.659625	272.169625		steaks	steaks
sw2339B-ms98-a-0077	A.125	272.169625	272.289625		on	on
sw2339B-ms98-a-0077	A.125	272.289625	272.369625		the	the
sw2339B-ms98-a-0077	A.125	272.369625	272.919625		grill	grill
sw2339B-ms98-a-0077	A.125	272.919625	273.277000		[silence]	[silence]
sw2339B-ms98-a-0078	A.125	273.277000	273.317000		[silence]	[silence]
sw2339B-ms98-a-0078	A.125	273.317000	273.459875		These	these
sw2339B-ms98-a-0078	A.125	273.459875	273.512750		[silence]	[silence]
sw2339B-ms98-a-0078	A.125	273.512750	273.777000		people	people
sw2339B-ms98-a-0078	A.125	273.777000	273.937000		were	were
sw2339B-ms98-a-0078	A.125	273.937000	274.257000		with	with
sw2339B-ms98-a-0078	A.125	274.257000	274.478250		us	us
sw2339B-ms98-a-0078	A.125	274.478250	274.641375		And	and
sw2339B-ms98-a-0078	A.125	274.641375	274.868125		it	it
sw2339B-ms98-a-0078	A.125	274.868125	275.687375		[silence]	[silence]
sw2339B-ms98-a-0079	A.125	275.687375	275.892750		[silence]	[silence]
sw2339B-ms98-a-0079	A.125	275.892750	276.237375		[noise]	[noise]
sw2339B-ms98-a-0079	A.125	276.237375	276.308250		I	i
sw2339B-ms98-a-0079	A.125	276.308250	276.456000		mean	mean
sw2339B-ms98-a-0079	A.125	276.456000	277.135375		everything	everything
sw2339B-ms98-a-0079	A.125	277.135375	277.308625		was	was
sw2339B-ms98-a-0079	A.125	277.308625	277.667375		sopping	sopping
sw2339B-ms98-a-0079	A.125	277.667375	277.924625		wet	wet
sw2339B-ms98-a-0079	A.125	277.924625	278.212500		inside	inside
sw2339B-ms98-a-0079	A.125	278.212500	278.310375		the	the
sw2339B-ms98-a-0079	A.125	278.310375	278.537375		tent	tent
sw2339B-ms98-a-0079	A.125	278.537375	278.597375		It	it
sw2339B-ms98-a-0079	A.125	278.597375	278.727375		was	was
sw2339B-ms98-a-0079	A.125	278.727375	278.907375		just	just
sw2339B-ms98-a-0079	A.125	278.907375	279.037375		that	that
sw2339B-ms98-a-0079	A.125	279.037375	279.501875		bad	bad
sw2339B-ms98-a-0079	A.125	279.501875	279.657375		[silence]	[silence]
sw2339B-ms98-a-0079	A.125	279.657375	279.787375		you	you
sw2339B-ms98-a-0079	A.125	279.787375	280.005000		know	know
sw2339B-ms98-a-0079	A.127	280.005000	280.377500		[silence]	[silence]
sw2339B-ms98-a-0080	A.127	280.377500	280.457500		[silence]	[silence]
sw2339B-ms98-a-0080	A.127	280.457500	280.560875		And	and
sw2339B-ms98-a-0080	A.127	280.560875	280.682375		we	we
sw2339B-ms98-a-0080	A.127	280.682375	281.137500		decided	decided
sw2339B-ms98-a-0080	A.127	281.137500	281.277500		we'd	we'd
sw2339B-ms98-a-0080	A.127	281.277500	281.507500		just	just
sw2339B-ms98-a-0080	A.127	281.507500	281.817500		go	go
sw2339B-ms98-a-0080	A.127	281.817500	282.217500		across	across
sw2339B-ms98-a-0080	A.127	282.217500	282.327500		the	the
sw2339B-ms98-a-0080	A.127	282.327500	282.797750		road	road
sw2339B-ms98-a-0080	A.127	282.797750	283.025000		[silence]	[silence]
sw2339B-ms98-a-0080	A.127	283.025000	283.257000		to	to
sw2339B-ms98-a-0080	A.127	283.257000	283.362500		the	the
sw2339B-ms98-a-0080	A.127	283.362500	283.677500		office	office
sw2339B-ms98-a-0080	A.127	283.677500	283.777500		and	and
sw2339B-ms98-a-0080	A.127	283.777500	283.947500		see	see
sw2339B-ms98-a-0080	A.127	283.947500	284.027500		if	if
sw2339B-ms98-a-0080	A.127	284.027500	284.087500		we	we
sw2339B-ms98-a-0080	A.127	284.087500	284.256250		could	could
sw2339B-ms98-a-0080	A.127	284.256250	284.493500		rent	rent
sw2339B-ms98-a-0080	A.127	284.493500	285.190625		anything	anything
sw2339B-ms98-a-0080	A.129	285.190625	285.579250		[silence]	[silence]
sw2339B-ms98-a-0081	A.129	285.579250	286.009250		[silence]	[silence]
sw2339B-ms98-a-0081	A.129	286.009250	286.349250		So	so
sw2339B-ms98-a-0081	A.129	286.349250	286.439250		I	i
sw2339B-ms98-a-0081	A.129	286.439250	286.579250		got	got
sw2339B-ms98-a-0081	A.129	286.579250	286.629250		a	a
sw2339B-ms98-a-0081	A.129	286.629250	287.219250		condo	condo
sw2339B-ms98-a-0081	A.129	287.219250	287.389250		with	with
sw2339B-ms98-a-0081	A.129	287.389250	287.439250		a	a
sw2339B-ms98-a-0081	A.129	287.439250	288.041750		jacuzzi	jacuzzi
sw2339B-ms98-a-0081	A.129	288.041750	288.117000		and	and
sw2339B-ms98-a-0081	A.129	288.117000	288.160250		it	it
sw2339B-ms98-a-0081	A.129	288.160250	288.390375		was	was
sw2339B-ms98-a-0081	A.129	288.390375	289.152125		wonderful	wonderful
sw2339B-ms98-a-0081	A.131	289.152125	289.617500		[silence]	[silence]
sw2339B-ms98-a-0081	A.131	289.617500	290.246000		Yeah	[laughter-yeah]
sw2339B-ms98-a-0081	A.133	290.246000	290.358125		[silence]	[silence]
sw2339B-ms98-a-0082	A.133	290.358125	291.374625		[silence]	[silence]
sw2339B-ms98-a-0083	A.133	291.374625	291.484625		[silence]	[silence]
sw2339B-ms98-a-0083	A.133	291.484625	291.934625		Yeah	yeah
sw2339B-ms98-a-0083	A.133	291.934625	292.094625		it	it
sw2339B-ms98-a-0083	A.133	292.094625	292.781500		was	was
sw2339B-ms98-a-0083	A.135	292.781500	293.168750		[silence]	[silence]
sw2339B-ms98-a-0084	A.135	293.168750	296.229750		[silence]	[silence]
sw2339B-ms98-a-0085	A.135	296.229750	296.659750		[silence]	[silence]
sw2339B-ms98-a-0085	A.135	296.659750	296.859750		It's	it's
sw2339B-ms98-a-0085	A.135	296.859750	297.349750		horrible	horrible
sw2339B-ms98-a-0085	A.137	297.349750	297.760250		[silence]	[silence]
sw2339B-ms98-a-0086	A.137	297.760250	311.706250		[silence]	[silence]
sw2339B-ms98-a-0087	A.137	311.706250	312.136250		[silence]	[silence]
sw2339B-ms98-a-0087	A.137	312.136250	312.276250		You	you
sw2339B-ms98-a-0087	A.137	312.276250	312.476250		mean	mean
sw2339B-ms98-a-0087	A.137	312.476250	312.686250		that	that
sw2339B-ms98-a-0087	A.137	312.686250	312.746250		you	you
sw2339B-ms98-a-0087	A.137	312.746250	312.896250		put	put
sw2339B-ms98-a-0087	A.137	312.896250	313.006250		on	on
sw2339B-ms98-a-0087	A.137	313.006250	313.106250		a	a
sw2339B-ms98-a-0087	A.137	313.106250	313.506250		truck	truck
sw2339B-ms98-a-0087	A.137	313.506250	313.596250		or	or
sw2339B-ms98-a-0087	A.137	313.596250	313.656250		[silence]	[silence]
sw2339B-ms98-a-0087	A.137	313.656250	313.996250		what	what
sw2339B-ms98-a-0087	A.139	313.996250	314.773375		[silence]	[silence]
sw2339B-ms98-a-0088	A.139	314.773375	316.658125		[silence]	[silence]
sw2339B-ms98-a-0089	A.139	316.658125	316.958125		[silence]	[silence]
sw2339B-ms98-a-0089	A.139	316.958125	317.161875		Oh	oh
sw2339B-ms98-a-0089	A.139	317.161875	317.468125		yeah	yeah
sw2339B-ms98-a-0089	A.139	317.468125	317.828125		yeah	yeah
sw2339B-ms98-a-0089	A.143	317.828125	317.828125	<INS>	Uh-huh	---
sw2339B-ms98-a-0089	A.145	317.828125	318.058500		[silence]	[silence]
sw2339B-ms98-a-0090	A.145	318.058500	324.651375		[silence]	[silence]
sw2339B-ms98-a-0091	A.145	324.651375	324.926375		[silence]	[silence]
sw2339B-ms98-a-0091	A.145	324.926375	325.011375		How	how
sw2339B-ms98-a-0091	A.145	325.011375	325.161375		many	many
sw2339B-ms98-a-0091	A.145	325.161375	325.351375		weeks	weeks
sw2339B-ms98-a-0091	A.145	325.351375	325.481375		have	have
sw2339B-ms98-a-0091	A.145	325.481375	325.561375		you	you
sw2339B-ms98-a-0091	A.145	325.561375	325.701375		been	been
sw2339B-ms98-a-0091	A.145	325.701375	325.881375		doing	doing
sw2339B-ms98-a-0091	A.145	325.881375	326.071375		these	these
sw2339B-ms98-a-0091	A.145	326.071375	326.550500		calls	calls
sw2339B-ms98-a-0091	A.147	326.550500	326.723375		[silence]	[silence]
sw2339B-ms98-a-0092	A.147	326.723375	331.702250		[silence]	[silence]
sw2339B-ms98-a-0093	A.147	331.702250	331.932250		[silence]	[silence]
sw2339B-ms98-a-0093	A.147	331.932250	332.012250		I	i
sw2339B-ms98-a-0093	A.147	332.012250	332.232250		think	think
sw2339B-ms98-a-0093	A.147	332.232250	332.452250		this	this
sw2339B-ms98-a-0093	A.147	332.452250	332.652250		must	must
sw2339B-ms98-a-0093	A.147	332.652250	332.792250		be	be
sw2339B-ms98-a-0093	A.147	332.792250	332.952250		into	into
sw2339B-ms98-a-0093	A.147	332.952250	333.152250		my	my
sw2339B-ms98-a-0093	A.147	333.152250	333.409125		third	third
sw2339B-ms98-a-0093	A.147	333.409125	333.629750		week	week
sw2339B-ms98-a-0093	A.147	333.629750	333.959500		too	too
sw2339B-ms98-a-0093	A.147	333.959500	334.359500		[silence]	[silence]
sw2339B-ms98-a-0094	A.147	334.359500	335.457500		[silence]	[silence]
sw2339B-ms98-a-0095	A.147	335.457500	335.717500		[silence]	[silence]
sw2339B-ms98-a-0095	A.147	335.717500	335.807500		So	so
sw2339B-ms98-a-0095	A.147	335.807500	335.877500		do	do
sw2339B-ms98-a-0095	A.147	335.877500	335.947500		you	you
sw2339B-ms98-a-0095	A.147	335.947500	336.137500		work	work
sw2339B-ms98-a-0095	A.147	336.137500	336.217500		for	for
sw2339B-ms98-a-0095	A.147	336.217500	336.628500	<CONT>	T	TI
sw2339B-ms98-a-0095	A.147	336.628500	336.628500	<CONT>	I	+++
sw2339B-ms98-a-0095	A.149	336.628500	337.042625		[silence]	[silence]
sw2339B-ms98-a-0096	A.149	337.042625	339.636750		[silence]	[silence]
sw2339B-ms98-a-0097	A.149	339.636750	340.166750		[silence]	[silence]
sw2339B-ms98-a-0097	A.149	340.166750	340.356750		In	in
sw2339B-ms98-a-0097	A.149	340.356750	340.416750		a	a
sw2339B-ms98-a-0097	A.149	340.416750	340.846750		Speech	speech
sw2339B-ms98-a-0097	A.149	340.846750	341.224500		Lab	lab
sw2339B-ms98-a-0097	A.151	341.224500	341.778125		[silence]	[silence]
sw2339B-ms98-a-0098	A.151	341.778125	344.558375		[silence]	[silence]
sw2339B-ms98-a-0099	A.151	344.558375	345.068375		[silence]	[silence]
sw2339B-ms98-a-0099	A.151	345.068375	345.208375		And	and
sw2339B-ms98-a-0099	A.151	345.208375	345.318375		what	what
sw2339B-ms98-a-0099	A.151	345.318375	345.748375		exactly	exactly
sw2339B-ms98-a-0099	A.151	345.748375	345.808375		are	are
sw2339B-ms98-a-0099	A.151	345.808375	345.908375		they	they
sw2339B-ms98-a-0099	A.151	345.908375	346.028375		going	going
sw2339B-ms98-a-0099	A.151	346.028375	346.148375		to	to
sw2339B-ms98-a-0099	A.151	346.148375	346.468375		do	do
sw2339B-ms98-a-0099	A.153	346.468375	347.242250		[silence]	[silence]
sw2339B-ms98-a-0100	A.153	347.242250	355.775875		[silence]	[silence]
sw2339B-ms98-a-0101	A.153	355.775875	356.385875		[silence]	[silence]
sw2339B-ms98-a-0101	A.153	356.385875	356.588000		So	so
sw2339B-ms98-a-0101	A.153	356.588000	356.650125		[silence]	[silence]
sw2339B-ms98-a-0101	A.153	356.650125	356.885875		any	any
sw2339B-ms98-a-0101	A.153	356.885875	357.295875		voice	voice
sw2339B-ms98-a-0101	A.153	357.295875	357.405875		no	no
sw2339B-ms98-a-0101	A.153	357.405875	357.805875		matter	matter
sw2339B-ms98-a-0101	A.153	357.805875	358.005875		what	what
sw2339B-ms98-a-0101	A.153	358.005875	358.231500		the	the
sw2339B-ms98-a-0101	A.153	358.231500	358.960125		[silence]	[silence]
sw2339B-ms98-a-0102	A.153	358.960125	359.520125		[silence]	[silence]
sw2339B-ms98-a-0102	A.153	359.520125	359.950125		speech	speech
sw2339B-ms98-a-0102	A.153	359.950125	360.440125		pattern	pattern
sw2339B-ms98-a-0102	A.153	360.440125	360.540125		or	or
sw2339B-ms98-a-0102	A.153	360.540125	360.676625		the	the
sw2339B-ms98-a-0102	A.153	360.676625	360.865000		[silence]	[silence]
sw2339B-ms98-a-0102	A.153	360.865000	361.390125		dialect	dialect
sw2339B-ms98-a-0102	A.155	361.390125	361.460125		or	or
sw2339B-ms98-a-0102	A.155	361.460125	362.112500		anything	anything
sw2339B-ms98-a-0102	A.157	362.112500	362.475500		[silence]	[silence]
sw2339B-ms98-a-0103	A.157	362.475500	362.896500		[silence]	[silence]
sw2339B-ms98-a-0103	A.157	362.896500	363.370750		[noise]	[noise]
sw2339B-ms98-a-0103	A.157	363.370750	363.482625		[silence]	[silence]
sw2339B-ms98-a-0104	A.157	363.482625	363.727250		[silence]	[silence]
sw2339B-ms98-a-0104	A.157	363.727250	364.061750	<SUB>	Um	hum
sw2339B-ms98-a-0104	A.157	364.061750	364.304875		[silence]	[silence]
sw2339B-ms98-a-0105	A.157	364.304875	365.342750		[silence]	[silence]
sw2339B-ms98-a-0106	A.157	365.342750	365.665750		[silence]	[silence]
sw2339B-ms98-a-0106	A.157	365.665750	365.766750		I	i
sw2339B-ms98-a-0106	A.157	365.766750	365.892750		wonder	wonder
sw2339B-ms98-a-0106	A.157	365.892750	366.002750		if	if
sw2339B-ms98-a-0106	A.157	366.002750	366.172750		these	these
sw2339B-ms98-a-0106	A.157	366.172750	366.232750		are	are
sw2339B-ms98-a-0106	A.157	366.232750	366.362750		going	going
sw2339B-ms98-a-0106	A.157	366.362750	366.422750		to	to
sw2339B-ms98-a-0106	A.157	366.422750	366.502750		be	be
sw2339B-ms98-a-0106	A.157	366.502750	367.182750		speaking	speaking
sw2339B-ms98-a-0106	A.157	367.182750	367.529250		[silence]	[silence]
sw2339B-ms98-a-0107	A.157	367.529250	368.579625		[silence]	[silence]
sw2339B-ms98-a-0108	A.157	368.579625	368.899625		[silence]	[silence]
sw2339B-ms98-a-0108	A.157	368.899625	369.021375		The	the
sw2339B-ms98-a-0108	A.157	369.021375	369.499625		computers	computers
sw2339B-ms98-a-0108	A.159	369.499625	370.343125		[silence]	[silence]
sw2339B-ms98-a-0109	A.159	370.343125	375.297500		[silence]	[silence]
sw2339B-ms98-a-0110	A.159	375.297500	375.777500		[silence]	[silence]
sw2339B-ms98-a-0110	A.159	375.777500	375.897500		Oh	oh
sw2339B-ms98-a-0110	A.159	375.897500	376.097500		that's	that's
sw2339B-ms98-a-0110	A.159	376.097500	376.277500		kind	kind
sw2339B-ms98-a-0110	A.159	376.277500	376.337500		of	of
sw2339B-ms98-a-0110	A.159	376.337500	376.780125		neat	neat
sw2339B-ms98-a-0110	A.161	376.780125	377.234375		[silence]	[silence]
sw2339B-ms98-a-0111	A.161	377.234375	378.992875		[silence]	[silence]
sw2339B-ms98-a-0112	A.161	378.992875	379.382875		[silence]	[silence]
sw2339B-ms98-a-0112	A.161	379.382875	379.472875		Do	do
sw2339B-ms98-a-0112	A.161	379.472875	379.542875		you	you
sw2339B-ms98-a-0112	A.161	379.542875	379.732875		put	put
sw2339B-ms98-a-0112	A.161	379.732875	379.862875		all	all
sw2339B-ms98-a-0112	A.161	379.862875	379.962875		the	the
sw2339B-ms98-a-0112	A.161	379.962875	380.572875	<SUB>	uh-huhs	uh-hums
sw2339B-ms98-a-0112	A.161	380.572875	380.732875		in	in
sw2339B-ms98-a-0112	A.161	380.732875	380.852875		here	here
sw2339B-ms98-a-0112	A.161	380.852875	380.922375		on	on
sw2339B-ms98-a-0112	A.161	380.922375	381.364000		everything	everything
sw2339B-ms98-a-0112	A.161	381.364000	381.748875		too	too
sw2339B-ms98-a-0112	A.163	381.748875	382.136625		[silence]	[silence]
sw2339B-ms98-a-0113	A.163	382.136625	384.322625		[silence]	[silence]
sw2339B-ms98-a-0114	A.163	384.322625	384.832625		[silence]	[silence]
sw2339B-ms98-a-0114	A.163	384.832625	385.002625		What	what
sw2339B-ms98-a-0114	A.163	385.002625	385.062625		do	do
sw2339B-ms98-a-0114	A.163	385.062625	385.142625		you	you
sw2339B-ms98-a-0114	A.163	385.142625	385.334000		write	write
sw2339B-ms98-a-0114	A.163	385.334000	385.511000		for	for
sw2339B-ms98-a-0114	A.163	385.511000	386.162500		stutter	stutter
sw2339B-ms98-a-0114	A.163	386.162500	386.456750		[silence]	[silence]
sw2339B-ms98-a-0115	A.163	386.456750	386.776750		[silence]	[silence]
sw2339B-ms98-a-0115	A.163	386.776750	386.942500	<SUB>	That	duh
sw2339B-ms98-a-0115	A.163	386.942500	387.276750	<SUB>	uh	duh
sw2339B-ms98-a-0115	A.165	387.276750	387.922125		[silence]	[silence]
sw2339B-ms98-a-0116	A.165	387.922125	390.364625		[silence]	[silence]
sw2339B-ms98-a-0117	A.165	390.364625	390.694625		[silence]	[silence]
sw2339B-ms98-a-0117	A.165	390.694625	391.008125		Uh-huh	uh-huh
sw2339B-ms98-a-0117	A.167	391.008125	391.756750		[silence]	[silence]
sw2339B-ms98-a-0118	A.167	391.756750	394.419875		[silence]	[silence]
sw2339B-ms98-a-0119	A.167	394.419875	394.704125		[silence]	[silence]
sw2339B-ms98-a-0119	A.167	394.704125	396.459875		[laughter]	[laughter]
sw2339B-ms98-a-0119	A.167	396.459875	396.544125		I	i
sw2339B-ms98-a-0119	A.167	396.544125	396.669875		guess	guess
sw2339B-ms98-a-0119	A.167	396.669875	396.869875		so	so
sw2339B-ms98-a-0119	A.167	396.869875	397.139875		unless	unless
sw2339B-ms98-a-0119	A.167	397.139875	397.199875		you	you
sw2339B-ms98-a-0119	A.167	397.199875	397.359875		want	want
sw2339B-ms98-a-0119	A.167	397.359875	397.419875		to	to
sw2339B-ms98-a-0119	A.167	397.419875	397.549875		talk	talk
sw2339B-ms98-a-0119	A.167	397.549875	397.759875		about	about
sw2339B-ms98-a-0119	A.167	397.759875	398.329875		stakes	stakes
sw2339B-ms98-a-0119	A.169	398.329875	398.499875	<SUB>	What	which
sw2339B-ms98-a-0119	A.169	398.499875	398.789625	<SUB>	size	kind
sw2339B-ms98-a-0119	A.169	398.789625	399.006625	<DEL>	---	of
sw2339B-ms98-a-0119	A.169	399.006625	399.359875		stakes	stakes
sw2339B-ms98-a-0119	A.169	399.359875	399.479875		to	to
sw2339B-ms98-a-0119	A.169	399.479875	399.659875		put	put
sw2339B-ms98-a-0119	A.169	399.659875	399.899875		in	[laughter-in]
sw2339B-ms98-a-0119	A.171	399.899875	400.233625		[silence]	[silence]
sw2339B-ms98-a-0120	A.171	400.233625	400.743625		[silence]	[silence]
sw2339B-ms98-a-0120	A.171	400.743625	400.843625		You	you
sw2339B-ms98-a-0120	A.171	400.843625	401.003625		need	need
sw2339B-ms98-a-0120	A.171	401.003625	401.373625		metal	metal
sw2339B-ms98-a-0120	A.171	401.373625	401.733625		instead	instead
sw2339B-ms98-a-0120	A.171	401.733625	401.803625		of	of
sw2339B-ms98-a-0120	A.171	401.803625	402.581375		plastic	plastic
sw2339B-ms98-a-0120	A.173	402.581375	402.760250		[silence]	[silence]
sw2339B-ms98-a-0121	A.173	402.760250	403.409500		[silence]	[silence]
sw2339B-ms98-a-0121	A.173	403.409500	403.640250		And	and
sw2339B-ms98-a-0121	A.173	403.640250	403.720250		you	you
sw2339B-ms98-a-0121	A.173	403.720250	403.970250		make	make
sw2339B-ms98-a-0121	A.173	403.970250	404.040250		[silence]	[silence]
sw2339B-ms98-a-0121	A.173	404.040250	404.300250		sure	sure
sw2339B-ms98-a-0121	A.173	404.300250	404.460250		that	that
sw2339B-ms98-a-0121	A.173	404.460250	404.570250		you	you
sw2339B-ms98-a-0121	A.173	404.570250	404.890250		keep	keep
sw2339B-ms98-a-0121	A.173	404.890250	405.137750		up	up
sw2339B-ms98-a-0121	A.173	405.137750	405.292375		with	with
sw2339B-ms98-a-0121	A.173	405.292375	405.590000		them	them
sw2339B-ms98-a-0121	A.173	405.590000	405.740250		[silence]	[silence]
sw2339B-ms98-a-0121	A.173	405.740250	405.820250		for	for
sw2339B-ms98-a-0121	A.173	405.820250	405.937750		the	the
sw2339B-ms98-a-0121	A.173	405.937750	406.178750		next	next
sw2339B-ms98-a-0121	A.173	406.178750	406.386750		time	time
sw2339B-ms98-a-0121	A.175	406.386750	406.932875		[silence]	[silence]
sw2339B-ms98-a-0121	A.175	406.932875	407.060250		We	we
sw2339B-ms98-a-0121	A.175	407.060250	407.210250		got	got
sw2339B-ms98-a-0121	A.175	407.210250	407.330250		one	one
sw2339B-ms98-a-0121	A.175	407.330250	407.400250		of	of
sw2339B-ms98-a-0121	A.175	407.400250	407.590250		those	those
sw2339B-ms98-a-0121	A.175	407.590250	407.890250		kind	kind
sw2339B-ms98-a-0121	A.175	407.890250	407.980250		that	that
sw2339B-ms98-a-0121	A.175	407.980250	408.070250		have	have
sw2339B-ms98-a-0121	A.175	408.070250	408.340250		got	got
sw2339B-ms98-a-0121	A.175	408.340250	408.508000		the	the
sw2339B-ms98-a-0121	A.175	408.508000	409.195875		[silence]	[silence]
sw2339B-ms98-a-0122	A.175	409.195875	409.906125		[silence]	[silence]
sw2339B-ms98-a-0122	A.175	409.906125	410.235875		oh	oh
sw2339B-ms98-a-0122	A.175	410.235875	410.415875		what	what
sw2339B-ms98-a-0122	A.175	410.415875	410.575875		is	is
sw2339B-ms98-a-0122	A.175	410.575875	410.836500		it	it
sw2339B-ms98-a-0122	A.175	410.836500	411.228875		[silence]	[silence]
sw2339B-ms98-a-0123	A.175	411.228875	411.398875		[silence]	[silence]
sw2339B-ms98-a-0123	A.175	411.398875	411.669750		They're	they're
sw2339B-ms98-a-0123	A.175	411.669750	411.782875		[silence]	[silence]
sw2339B-ms98-a-0123	A.175	411.782875	412.513250		plastic	plastic
sw2339B-ms98-a-0123	A.175	412.513250	412.658875		and	and
sw2339B-ms98-a-0123	A.175	412.658875	412.748875		they've	they've
sw2339B-ms98-a-0123	A.175	412.748875	412.918875		got	got
sw2339B-ms98-a-0123	A.175	412.918875	413.111750		the	the
sw2339B-ms98-a-0123	A.175	413.111750	413.217250		[silence]	[silence]
sw2339B-ms98-a-0123	A.175	413.217250	413.791625		elastic	elastic
sw2339B-ms98-a-0123	A.175	413.791625	413.865000		on	on
sw2339B-ms98-a-0123	A.175	413.865000	413.966750		the	the
sw2339B-ms98-a-0123	A.175	413.966750	414.592375		inside	inside
sw2339B-ms98-a-0123	A.175	414.592375	415.028875		[silence]	[silence]
sw2339B-ms98-a-0123	A.175	415.028875	415.088875		of	of
sw2339B-ms98-a-0123	A.175	415.088875	415.148875		the	the
sw2339B-ms98-a-0123	A.175	415.148875	415.628875		poles	poles
sw2339B-ms98-a-0123	A.175	415.628875	415.808875		[silence]	[silence]
sw2339B-ms98-a-0123	A.175	415.808875	415.908875		and	and
sw2339B-ms98-a-0123	A.175	415.908875	415.968875		you	you
sw2339B-ms98-a-0123	A.175	415.968875	416.128875		just	just
sw2339B-ms98-a-0123	A.175	416.128875	416.268875		put	put
sw2339B-ms98-a-0123	A.175	416.268875	416.378875		them	them
sw2339B-ms98-a-0123	A.175	416.378875	416.906875		together	together
sw2339B-ms98-a-0123	A.177	416.906875	417.611250		[silence]	[silence]
sw2339B-ms98-a-0123	A.177	417.611250	417.748875		And	and
sw2339B-ms98-a-0123	A.177	417.748875	417.838875		it's	it's
sw2339B-ms98-a-0123	A.177	417.838875	417.942000		a	a
sw2339B-ms98-a-0123	A.177	417.942000	418.360125		dome	dome
sw2339B-ms98-a-0123	A.177	418.360125	418.820125		tent	tent
sw2339B-ms98-a-0123	A.179	418.820125	419.240000		[silence]	[silence]
sw2339B-ms98-a-0124	A.179	419.240000	419.750000		[silence]	[silence]
sw2339B-ms98-a-0124	A.179	419.750000	420.130000		That's	that's
sw2339B-ms98-a-0124	A.179	420.130000	420.460000		good	good
sw2339B-ms98-a-0124	A.179	420.460000	420.790000		isn't	isn't
sw2339B-ms98-a-0124	A.179	420.790000	420.976375		it	it
sw2339B-ms98-a-0124	A.181	420.976375	422.054000		[silence]	[silence]
sw2339B-ms98-a-0125	A.181	422.054000	422.634000		[silence]	[silence]
sw2339B-ms98-a-0125	A.181	422.634000	423.094000		Yeah	yeah
sw2339B-ms98-a-0125	A.183	423.094000	423.563750		[silence]	[silence]
sw2339B-ms98-a-0126	A.183	423.563750	424.413750		[silence]	[silence]
sw2339B-ms98-a-0126	A.183	424.413750	424.646125	<DEL>	---	but
sw2339B-ms98-a-0126	A.183	424.646125	424.729750		[silence]	[silence]
sw2339B-ms98-a-0127	A.183	424.729750	425.805125		[silence]	[silence]
sw2339B-ms98-a-0128	A.183	425.805125	426.105125		[silence]	[silence]
sw2339B-ms98-a-0128	A.183	426.105125	426.872750		Um	um
sw2339B-ms98-a-0128	A.183	426.872750	427.629750		[silence]	[silence]
sw2339B-ms98-a-0128	A.183	427.629750	428.033125		no	no
sw2339B-ms98-a-0128	A.185	428.033125	428.647500		[silence]	[silence]
sw2339B-ms98-a-0129	A.185	428.647500	436.247375		[silence]	[silence]
sw2339B-ms98-a-0130	A.185	436.247375	436.931125		[silence]	[silence]
sw2339B-ms98-a-0130	A.185	436.931125	437.047375		I've	i've
sw2339B-ms98-a-0130	A.185	437.047375	437.207375		done	done
sw2339B-ms98-a-0130	A.185	437.207375	437.327375		it	it
sw2339B-ms98-a-0130	A.185	437.327375	437.387375		in	in
sw2339B-ms98-a-0130	A.185	437.387375	437.477375		a	a
sw2339B-ms98-a-0130	A.185	437.477375	438.255625		shelter	shelter
sw2339B-ms98-a-0130	A.187	438.255625	439.060750		[silence]	[silence]
sw2339B-ms98-a-0131	A.187	439.060750	439.540750		[silence]	[silence]
sw2339B-ms98-a-0131	A.187	439.540750	439.600750		It	it
sw2339B-ms98-a-0131	A.187	439.600750	439.690750		was	was
sw2339B-ms98-a-0131	A.187	439.690750	439.750750		in	in
sw2339B-ms98-a-0131	A.187	439.750750	440.210750		Padre	Padre
sw2339B-ms98-a-0131	A.187	440.210750	440.740750		Island	Island
sw2339B-ms98-a-0131	A.187	440.740750	440.880750		[silence]	[silence]
sw2339B-ms98-a-0131	A.187	440.880750	441.010750		and	and
sw2339B-ms98-a-0131	A.187	441.010750	441.130750		in	in
sw2339B-ms98-a-0131	A.187	441.130750	441.190750		a	a
sw2339B-ms98-a-0131	A.189	441.190750	441.790750		truck	truck
sw2339B-ms98-a-0131	A.189	441.790750	442.208125		[silence]	[silence]
sw2339B-ms98-a-0131	A.189	442.208125	442.309750		[noise]	[noise]
sw2339B-ms98-a-0131	A.189	442.309750	442.515750	<SUB>	off	of
sw2339B-ms98-a-0131	A.189	442.515750	442.830750	<SUB>	Corpus	course
sw2339B-ms98-a-0131	A.189	442.830750	443.070750	<DEL>	---	it's
sw2339B-ms98-a-0131	A.189	443.070750	443.220750		not	not
sw2339B-ms98-a-0131	A.191	443.220750	443.330750		[silence]	[silence]
sw2339B-ms98-a-0131	A.191	443.330750	443.470750		but	but
sw2339B-ms98-a-0131	A.191	443.470750	443.650750		not	not
sw2339B-ms98-a-0131	A.191	443.650750	443.758250		in	in
sw2339B-ms98-a-0131	A.191	443.758250	443.848500		a	a
sw2339B-ms98-a-0131	A.191	443.848500	444.335375		tent	tent
sw2339B-ms98-a-0131	A.193	444.335375	444.500000		[silence]	[silence]
sw2339B-ms98-a-0132	A.193	444.500000	445.260000		[silence]	[silence]
sw2339B-ms98-a-0132	A.193	445.260000	445.350000		Oh	oh
sw2339B-ms98-a-0132	A.193	445.350000	445.520000		well	well
sw2339B-ms98-a-0132	A.193	445.520000	445.600000		[silence]	[silence]
sw2339B-ms98-a-0132	A.193	445.600000	445.800000		that's	that's
sw2339B-ms98-a-0132	A.193	445.800000	445.980000		about	about
sw2339B-ms98-a-0132	A.193	445.980000	446.170000		all	all
sw2339B-ms98-a-0132	A.195	446.170000	446.294250	<DEL>	---	i
sw2339B-ms98-a-0132	A.195	446.294250	446.464625	<DEL>	---	know
sw2339B-ms98-a-0132	A.195	446.464625	446.774125	<DEL>	---	to
sw2339B-ms98-a-0132	A.195	446.774125	447.447250		[silence]	[silence]
sw2339B-ms98-a-0132	A.195	447.447250	447.833625		Okay	okay
sw2339B-ms98-a-0132	A.197	447.833625	448.194625		[silence]	[silence]
sw2339B-ms98-a-0132	A.197	448.194625	448.557750		Uh-huh	uh-huh
sw2339B-ms98-a-0132	A.199	448.557750	448.728250		Bye	bye
sw2339B-ms98-a-0132	A.199	448.728250	448.823750		[silence]	[silence]
sw2339B-ms98-a-0133	A.199	448.823750	449.340375		[silence]	[silence]
sw2339B-ms98-a-0133	A.199	449.340375	450.123750		[noise]	[noise]
sw2339B-ms98-a-0133	A.199	450.123750	450.305000		[silence]	[silence]
