sw2325B-ms98-a-0001	@B.2	0.000000	0.003375		[silence]	[silence]
sw2325B-ms98-a-0001	@B.2	0.003375	0.243125		[noise]	[noise]
sw2325B-ms98-a-0001	@B.2	0.243125	0.594875		[silence]	[silence]
sw2325B-ms98-a-0002	@B.2	0.594875	6.341375		[silence]	[silence]
sw2325B-ms98-a-0003	@B.2	6.341375	6.660250		[silence]	[silence]
sw2325B-ms98-a-0003	@B.2	6.660250	7.177875		No	no
sw2325B-ms98-a-0003	@B.2	7.177875	7.355750		I	i
sw2325B-ms98-a-0003	@B.2	7.355750	7.561375		have	have
sw2325B-ms98-a-0003	@B.2	7.561375	7.771375		two	two
sw2325B-ms98-a-0003	@B.2	7.771375	8.251375		children	children
sw2325B-ms98-a-0003	@B.2	8.251375	8.351375		I	i
sw2325B-ms98-a-0003	@B.2	8.351375	8.501375		have	have
sw2325B-ms98-a-0003	@B.2	8.501375	8.571375		a	a
sw2325B-ms98-a-0003	@B.2	8.571375	8.731375		two	two
sw2325B-ms98-a-0003	@B.2	8.731375	8.871375		year	year
sw2325B-ms98-a-0003	@B.2	8.871375	9.051375		old	old
sw2325B-ms98-a-0003	@B.2	9.051375	9.141375		and	and
sw2325B-ms98-a-0003	@B.2	9.141375	9.171375		a	a
sw2325B-ms98-a-0003	@B.2	9.171375	9.311375		three	three
sw2325B-ms98-a-0003	@B.2	9.311375	9.401375		and	and
sw2325B-ms98-a-0003	@B.2	9.401375	9.451375		a	a
sw2325B-ms98-a-0003	@B.2	9.451375	9.733250		half	half
sw2325B-ms98-a-0003	@B.2	9.733250	9.941375		year	year
sw2325B-ms98-a-0003	@B.2	9.941375	10.249500		old	old
sw2325B-ms98-a-0003	B.4	10.249500	11.127625		[silence]	[silence]
sw2325B-ms98-a-0004	B.4	11.127625	11.725500		[silence]	[silence]
sw2325B-ms98-a-0004	B.4	11.725500	12.557625		Really	really
sw2325B-ms98-a-0004	B.6	12.557625	12.806625		That's	that's
sw2325B-ms98-a-0004	B.6	12.806625	13.399375		wild	wild
sw2325B-ms98-a-0004	B.10	13.399375	13.470875		[silence]	[silence]
sw2325B-ms98-a-0005	B.10	13.470875	14.083625		[silence]	[silence]
sw2325B-ms98-a-0005	B.10	14.083625	14.652000		[laughter]	[laughter]
sw2325B-ms98-a-0005	B.10	14.652000	14.767125		[silence]	[silence]
sw2325B-ms98-a-0006	B.10	14.767125	17.992875		[silence]	[silence]
sw2325B-ms98-a-0007	B.10	17.992875	18.502625		[silence]	[silence]
sw2325B-ms98-a-0007	B.10	18.502625	18.916625		Oh	oh
sw2325B-ms98-a-0007	B.10	18.916625	19.062875		boy	boy
sw2325B-ms98-a-0007	B.10	19.062875	19.332875		Well	well
sw2325B-ms98-a-0007	B.10	19.332875	19.572875		mine	mine
sw2325B-ms98-a-0007	B.10	19.572875	19.732250		was	was
sw2325B-ms98-a-0007	B.10	19.732250	19.922875		two	two
sw2325B-ms98-a-0007	B.10	19.922875	20.062875		in	in
sw2325B-ms98-a-0007	B.10	20.062875	20.462875		March	March
sw2325B-ms98-a-0007	B.10	20.462875	20.632875		and	and
sw2325B-ms98-a-0007	B.10	20.632875	20.692875		the	the
sw2325B-ms98-a-0007	B.10	20.692875	20.892875		three	three
sw2325B-ms98-a-0007	B.10	20.892875	20.982875		and	and
sw2325B-ms98-a-0007	B.10	20.982875	21.012875		a	a
sw2325B-ms98-a-0007	B.10	21.012875	21.262875		half	half
sw2325B-ms98-a-0007	B.10	21.262875	21.382875		year	year
sw2325B-ms98-a-0007	B.10	21.382875	21.512875		old	old
sw2325B-ms98-a-0007	B.10	21.512875	21.650500		will	will
sw2325B-ms98-a-0007	B.10	21.650500	21.822375		be	be
sw2325B-ms98-a-0007	B.10	21.822375	22.092875		four	four
sw2325B-ms98-a-0007	B.10	22.092875	22.232875		in	in
sw2325B-ms98-a-0007	B.10	22.232875	22.502875		in	in
sw2325B-ms98-a-0007	B.10	22.502875	23.010250		July	July
sw2325B-ms98-a-0007	B.12	23.010250	23.386875		[silence]	[silence]
sw2325B-ms98-a-0008	B.12	23.386875	23.676875		[silence]	[silence]
sw2325B-ms98-a-0008	B.12	23.676875	23.836875		So	so
sw2325B-ms98-a-0008	B.12	23.836875	24.076875		that	that
sw2325B-ms98-a-0008	B.12	24.076875	24.226875		is	is
sw2325B-ms98-a-0008	B.12	24.226875	24.455250		pretty	[laughter-pretty]
sw2325B-ms98-a-0008	B.12	24.455250	24.893000		close	[laughter-close]
sw2325B-ms98-a-0008	B.14	24.893000	25.020250		[silence]	[silence]
sw2325B-ms98-a-0009	B.14	25.020250	25.895500		[silence]	[silence]
sw2325B-ms98-a-0009	B.14	25.895500	26.070250		But	but
sw2325B-ms98-a-0009	B.14	26.070250	26.270250		I'm	i'm
sw2325B-ms98-a-0009	B.14	26.270250	26.450250		home	home
sw2325B-ms98-a-0009	B.14	26.450250	26.580250		with	with
sw2325B-ms98-a-0009	B.14	26.580250	26.640250		the	the
sw2325B-ms98-a-0009	B.14	26.640250	26.960250		kids	kids
sw2325B-ms98-a-0009	B.14	26.960250	27.180250		all	all
sw2325B-ms98-a-0009	B.14	27.180250	27.550250		day	day
sw2325B-ms98-a-0009	B.14	27.550250	27.690250		and	and
sw2325B-ms98-a-0009	B.14	27.690250	27.894500		I	i
sw2325B-ms98-a-0009	B.14	27.894500	27.988625		[silence]	[silence]
sw2325B-ms98-a-0009	B.14	27.988625	28.240250		have	have
sw2325B-ms98-a-0009	B.14	28.240250	28.760250		really	really
sw2325B-ms98-a-0009	B.14	28.760250	29.182250	<SUB>	uh	um
sw2325B-ms98-a-0009	B.14	29.182250	29.338625		[silence]	[silence]
sw2325B-ms98-a-0010	B.14	29.338625	29.742500		[silence]	[silence]
sw2325B-ms98-a-0010	B.14	29.742500	30.028625		tried	tried
sw2325B-ms98-a-0010	B.14	30.028625	30.098625		to	to
sw2325B-ms98-a-0010	B.14	30.098625	30.288625		make	make
sw2325B-ms98-a-0010	B.14	30.288625	30.448625		that	that
sw2325B-ms98-a-0010	B.14	30.448625	30.488625		a	a
sw2325B-ms98-a-0010	B.14	30.488625	31.028625		priority	priority
sw2325B-ms98-a-0010	B.14	31.028625	31.208625		even	even
sw2325B-ms98-a-0010	B.14	31.208625	31.358625		though	though
sw2325B-ms98-a-0010	B.14	31.358625	31.538625		it's	it's
sw2325B-ms98-a-0010	B.14	31.538625	32.328625		financially	financially
sw2325B-ms98-a-0010	B.14	32.328625	32.378625		a	a
sw2325B-ms98-a-0010	B.14	32.378625	32.558625		big	big
sw2325B-ms98-a-0010	B.14	32.558625	33.048625		strain	strain
sw2325B-ms98-a-0010	B.14	33.048625	33.228625		on	on
sw2325B-ms98-a-0010	B.14	33.228625	33.445250		us	us
sw2325B-ms98-a-0010	B.16	33.445250	33.805625		[silence]	[silence]
sw2325B-ms98-a-0011	B.16	33.805625	34.698250		[silence]	[silence]
sw2325B-ms98-a-0011	B.16	34.698250	34.915625		But	but
sw2325B-ms98-a-0011	B.18	34.915625	36.004625		[silence]	[silence]
sw2325B-ms98-a-0012	B.18	36.004625	36.648500		[silence]	[silence]
sw2325B-ms98-a-0012	B.18	36.648500	36.954625		Pretty	pretty
sw2325B-ms98-a-0012	B.18	36.954625	37.424625		much	much
sw2325B-ms98-a-0012	B.18	37.424625	37.694625		pretty	pretty
sw2325B-ms98-a-0012	B.18	37.694625	38.222750		much	much
sw2325B-ms98-a-0012	B.18	38.222750	38.524625		Uh	uh
sw2325B-ms98-a-0012	B.18	38.524625	38.701125		I	i
sw2325B-ms98-a-0012	B.18	38.701125	38.923375		work	work
sw2325B-ms98-a-0012	B.18	38.923375	39.764625		part-time	part-time
sw2325B-ms98-a-0012	B.18	39.764625	40.094625		but	but
sw2325B-ms98-a-0012	B.18	40.094625	40.264625		uh	uh
sw2325B-ms98-a-0012	B.18	40.264625	40.454625		my	my
sw2325B-ms98-a-0012	B.18	40.454625	40.894625		husband's	husband's
sw2325B-ms98-a-0012	B.18	40.894625	41.219875		able	able
sw2325B-ms98-a-0012	B.18	41.219875	41.396875		[silence]	[silence]
sw2325B-ms98-a-0012	B.18	41.396875	41.514625		you	you
sw2325B-ms98-a-0012	B.18	41.514625	41.614625		know	know
sw2325B-ms98-a-0012	B.18	41.614625	42.034625		mostly	mostly
sw2325B-ms98-a-0012	B.18	42.034625	42.104625		to	to
sw2325B-ms98-a-0012	B.18	42.104625	42.234625		take	take
sw2325B-ms98-a-0012	B.18	42.234625	42.414625		care	care
sw2325B-ms98-a-0012	B.18	42.414625	42.474625		of	of
sw2325B-ms98-a-0012	B.18	42.474625	42.574625		them	them
sw2325B-ms98-a-0012	B.18	42.574625	42.684625		when	when
sw2325B-ms98-a-0012	B.18	42.684625	42.874625		I'm	i'm
sw2325B-ms98-a-0012	B.18	42.874625	43.384625		working	working
sw2325B-ms98-a-0012	B.18	43.384625	43.951875		So	so
sw2325B-ms98-a-0012	B.20	43.951875	43.951875	<INS>	But	---
sw2325B-ms98-a-0012	B.20	43.951875	44.392750		[silence]	[silence]
sw2325B-ms98-a-0012	B.20	44.392750	44.596000		uh	uh
sw2325B-ms98-a-0012	B.20	44.596000	44.727875	<DEL>	---	but
sw2325B-ms98-a-0012	B.20	44.727875	44.864625		we	we
sw2325B-ms98-a-0012	B.20	44.864625	45.364625		adopted	adopted
sw2325B-ms98-a-0012	B.20	45.364625	45.574625		these	these
sw2325B-ms98-a-0012	B.20	45.574625	45.724625		two	two
sw2325B-ms98-a-0012	B.20	45.724625	45.934625		little	little
sw2325B-ms98-a-0012	B.20	45.934625	46.574625		guys	guys
sw2325B-ms98-a-0012	B.22	46.574625	47.011250		and	and
sw2325B-ms98-a-0012	B.22	47.011250	47.297500		[silence]	[silence]
sw2325B-ms98-a-0012	B.22	47.297500	47.544625		that	that
sw2325B-ms98-a-0012	B.22	47.544625	47.654625		was	was
sw2325B-ms98-a-0012	B.22	47.654625	47.994625		another	another
sw2325B-ms98-a-0012	B.22	47.994625	48.224625		reason	reason
sw2325B-ms98-a-0012	B.22	48.224625	48.344625		why	why
sw2325B-ms98-a-0012	B.22	48.344625	48.404625		I	i
sw2325B-ms98-a-0012	B.22	48.404625	48.674625		really	really
sw2325B-ms98-a-0012	B.22	48.674625	48.934625		wanted	wanted
sw2325B-ms98-a-0012	B.22	48.934625	49.004625		to	to
sw2325B-ms98-a-0012	B.22	49.004625	49.244625		be	be
sw2325B-ms98-a-0012	B.22	49.244625	49.524625		here	here
sw2325B-ms98-a-0012	B.22	49.524625	49.912750		because	because_1
sw2325B-ms98-a-0012	B.22	49.912750	50.071000		[silence]	[silence]
sw2325B-ms98-a-0012	B.22	50.071000	50.154625		you	you
sw2325B-ms98-a-0012	B.22	50.154625	50.354625		know	know
sw2325B-ms98-a-0012	B.22	50.354625	50.451750		they	they
sw2325B-ms98-a-0012	B.22	50.451750	50.492875		have	have
sw2325B-ms98-a-0012	B.22	50.492875	50.677375		had	had
sw2325B-ms98-a-0012	B.22	50.677375	50.789125		a	a
sw2325B-ms98-a-0012	B.22	50.789125	50.980250		[silence]	[silence]
sw2325B-ms98-a-0013	B.22	50.980250	51.270500		[silence]	[silence]
sw2325B-ms98-a-0013	B.22	51.270500	51.540250		couple	couple
sw2325B-ms98-a-0013	B.22	51.540250	51.940250		foster	foster
sw2325B-ms98-a-0013	B.22	51.940250	52.140250		homes	homes
sw2325B-ms98-a-0013	B.22	52.140250	52.705375		already	already
sw2325B-ms98-a-0013	B.24	52.705375	53.625875		[silence]	[silence]
sw2325B-ms98-a-0014	B.24	53.625875	54.457500		[silence]	[silence]
sw2325B-ms98-a-0014	B.24	54.457500	54.595875		The	the
sw2325B-ms98-a-0014	B.24	54.595875	54.935875		baby	baby
sw2325B-ms98-a-0014	B.24	54.935875	55.065875		was	was
sw2325B-ms98-a-0014	B.24	55.065875	55.425875		eleven	eleven
sw2325B-ms98-a-0014	B.24	55.425875	55.705875		weeks	weeks
sw2325B-ms98-a-0014	B.24	55.705875	56.190375		old	old
sw2325B-ms98-a-0014	B.24	56.190375	56.535875		and	and
sw2325B-ms98-a-0014	B.24	56.535875	56.745875		his	his
sw2325B-ms98-a-0014	B.24	56.745875	57.075875		brother	brother
sw2325B-ms98-a-0014	B.24	57.075875	57.403375		was	was
sw2325B-ms98-a-0014	B.26	57.403375	57.742375		[silence]	[silence]
sw2325B-ms98-a-0014	B.26	57.742375	58.126500		twenty	twenty
sw2325B-ms98-a-0014	B.26	58.126500	58.375875	<CONT>	twenty-two	twenty
sw2325B-ms98-a-0014	B.26	58.375875	58.545875	<CONT>	+++	two
sw2325B-ms98-a-0014	B.26	58.545875	59.089250		months	months
sw2325B-ms98-a-0014	B.28	59.089250	59.530875		[silence]	[silence]
sw2325B-ms98-a-0015	B.28	59.530875	59.970875		[silence]	[silence]
sw2325B-ms98-a-0015	B.28	59.970875	60.611625		Yeah	yeah
sw2325B-ms98-a-0015	B.28	60.611625	60.924000		So	so
sw2325B-ms98-a-0015	B.30	60.924000	61.596125		[silence]	[silence]
sw2325B-ms98-a-0016	B.30	61.596125	66.737375		[silence]	[silence]
sw2325B-ms98-a-0017	B.30	66.737375	67.204000		[silence]	[silence]
sw2325B-ms98-a-0017	B.30	67.204000	67.720500	<SUB>	Yeah	um-hum
sw2325B-ms98-a-0017	B.32	67.720500	68.103750		[silence]	[silence]
sw2325B-ms98-a-0018	B.32	68.103750	70.200250		[silence]	[silence]
sw2325B-ms98-a-0019	B.32	70.200250	70.690625		[silence]	[silence]
sw2325B-ms98-a-0019	B.32	70.690625	71.223125		Yeah	yeah
sw2325B-ms98-a-0019	B.34	71.223125	71.641500		[silence]	[silence]
sw2325B-ms98-a-0020	B.34	71.641500	75.625375		[silence]	[silence]
sw2325B-ms98-a-0021	B.34	75.625375	76.045375		[silence]	[silence]
sw2325B-ms98-a-0021	B.34	76.045375	76.675375		Yeah	yeah
sw2325B-ms98-a-0021	B.36	76.675375	77.069750		[silence]	[silence]
sw2325B-ms98-a-0022	B.36	77.069750	83.790875		[silence]	[silence]
sw2325B-ms98-a-0023	B.36	83.790875	84.019625		[silence]	[silence]
sw2325B-ms98-a-0023	B.36	84.019625	84.357000		Oh	oh
sw2325B-ms98-a-0023	B.36	84.357000	84.976375		boy	boy
sw2325B-ms98-a-0023	B.38	84.976375	85.518375		[silence]	[silence]
sw2325B-ms98-a-0024	B.38	85.518375	92.300125		[silence]	[silence]
sw2325B-ms98-a-0025	B.38	92.300125	92.804500		[silence]	[silence]
sw2325B-ms98-a-0025	B.38	92.804500	93.420625		Yeah	yeah
sw2325B-ms98-a-0025	B.40	93.420625	93.856750		[silence]	[silence]
sw2325B-ms98-a-0026	B.40	93.856750	99.223125		[silence]	[silence]
sw2325B-ms98-a-0027	B.40	99.223125	99.825125		[silence]	[silence]
sw2325B-ms98-a-0027	B.40	99.825125	100.073125		Oh	oh
sw2325B-ms98-a-0027	B.40	100.073125	100.452750		that's	that's
sw2325B-ms98-a-0027	B.40	100.452750	100.755125	<SUB>	neat	mean
sw2325B-ms98-a-0027	B.42	100.755125	101.427000		[silence]	[silence]
sw2325B-ms98-a-0028	B.42	101.427000	112.268500		[silence]	[silence]
sw2325B-ms98-a-0029	B.42	112.268500	112.878500		[silence]	[silence]
sw2325B-ms98-a-0029	B.42	112.878500	113.425375		Yeah	yeah
sw2325B-ms98-a-0029	B.42	113.425375	113.500625		[silence]	[silence]
sw2325B-ms98-a-0029	B.42	113.500625	114.028500		yeah	yeah
sw2325B-ms98-a-0029	B.44	114.028500	114.583500		[silence]	[silence]
sw2325B-ms98-a-0030	B.44	114.583500	118.639500		[silence]	[silence]
sw2325B-ms98-a-0031	B.44	118.639500	119.142875		[silence]	[silence]
sw2325B-ms98-a-0031	B.44	119.142875	119.745750		Yeah	yeah
sw2325B-ms98-a-0031	B.46	119.745750	120.199250		[silence]	[silence]
sw2325B-ms98-a-0032	B.46	120.199250	122.964000		[silence]	[silence]
sw2325B-ms98-a-0033	B.46	122.964000	123.454000		[silence]	[silence]
sw2325B-ms98-a-0033	B.46	123.454000	123.664000		That's	that's
sw2325B-ms98-a-0033	B.46	123.664000	123.824000		the	the
sw2325B-ms98-a-0033	B.46	123.824000	124.214000		hardest	hardest
sw2325B-ms98-a-0033	B.46	124.214000	124.364000		thing	thing
sw2325B-ms98-a-0033	B.46	124.364000	124.529250		I	i
sw2325B-ms98-a-0033	B.46	124.529250	124.846750		think	think
sw2325B-ms98-a-0033	B.46	124.846750	124.952250		[silence]	[silence]
sw2325B-ms98-a-0033	B.46	124.952250	125.114000		you	you
sw2325B-ms98-a-0033	B.46	125.114000	125.320750		know	know
sw2325B-ms98-a-0033	B.48	125.320750	125.574000		to	to
sw2325B-ms98-a-0033	B.48	125.574000	125.754000		to	to
sw2325B-ms98-a-0033	B.48	125.754000	126.054000		deal	deal
sw2325B-ms98-a-0033	B.48	126.054000	126.289500		with	with
sw2325B-ms98-a-0033	B.48	126.289500	126.474000		is	is
sw2325B-ms98-a-0033	B.48	126.474000	126.624375		that	that
sw2325B-ms98-a-0033	B.48	126.624375	126.809000		[silence]	[silence]
sw2325B-ms98-a-0033	B.48	126.809000	127.104000		people	people
sw2325B-ms98-a-0033	B.48	127.104000	127.294000		love	love
sw2325B-ms98-a-0033	B.48	127.294000	127.424000		your	your
sw2325B-ms98-a-0033	B.50	127.424000	127.784000		kids	kids
sw2325B-ms98-a-0033	B.50	127.784000	127.904000		I	i
sw2325B-ms98-a-0033	B.50	127.904000	128.264000		put	put
sw2325B-ms98-a-0033	B.50	128.264000	128.603250	<SUB>	uh	um
sw2325B-ms98-a-0033	B.50	128.603250	129.180125		[silence]	[silence]
sw2325B-ms98-a-0034	B.50	129.180125	129.425625		[silence]	[silence]
sw2325B-ms98-a-0034	B.50	129.425625	129.530125		my	my
sw2325B-ms98-a-0034	B.50	129.530125	130.080125		oldest	oldest
sw2325B-ms98-a-0034	B.50	130.080125	130.380125		in	in
sw2325B-ms98-a-0034	B.50	130.380125	130.440125		a	a
sw2325B-ms98-a-0034	B.50	130.440125	130.940125		preschool	preschool
sw2325B-ms98-a-0034	B.50	130.940125	131.310125		program	program
sw2325B-ms98-a-0034	B.50	131.310125	131.510125		just	just
sw2325B-ms98-a-0034	B.50	131.510125	131.590125		for	for
sw2325B-ms98-a-0034	B.50	131.590125	131.750125		him	him
sw2325B-ms98-a-0034	B.50	131.750125	131.810125		to	to
sw2325B-ms98-a-0034	B.50	131.810125	131.980125		have	have
sw2325B-ms98-a-0034	B.50	131.980125	132.060125		the	the
sw2325B-ms98-a-0034	B.50	132.060125	132.800125		experience	experience
sw2325B-ms98-a-0034	B.50	132.800125	133.030125		of	of
sw2325B-ms98-a-0034	B.52	133.030125	133.190125		two	two
sw2325B-ms98-a-0034	B.52	133.190125	133.620125		mornings	mornings
sw2325B-ms98-a-0034	B.52	133.620125	133.690125		a	a
sw2325B-ms98-a-0034	B.52	133.690125	134.000125		week	week
sw2325B-ms98-a-0034	B.52	134.000125	134.218500		of	of
sw2325B-ms98-a-0034	B.52	134.218500	134.665500		being	being
sw2325B-ms98-a-0034	B.52	134.665500	135.010125		with	with
sw2325B-ms98-a-0034	B.52	135.010125	135.180125		other	other
sw2325B-ms98-a-0034	B.52	135.180125	135.620125		kids	kids
sw2325B-ms98-a-0034	B.52	135.620125	135.760125		and	and
sw2325B-ms98-a-0034	B.52	135.760125	136.100125		starting	starting
sw2325B-ms98-a-0034	B.52	136.100125	136.240125		to	to
sw2325B-ms98-a-0034	B.52	136.240125	136.540125		learn	learn
sw2325B-ms98-a-0034	B.52	136.540125	136.720125		some	some
sw2325B-ms98-a-0034	B.52	136.720125	137.070125		taking	taking
sw2325B-ms98-a-0034	B.52	137.070125	137.590125		turns	turns
sw2325B-ms98-a-0034	B.52	137.590125	137.820125		and	and
sw2325B-ms98-a-0034	B.52	137.820125	137.910125		you	you
sw2325B-ms98-a-0034	B.52	137.910125	138.090125		know	know
sw2325B-ms98-a-0034	B.54	138.090125	138.270125		that	that
sw2325B-ms98-a-0034	B.54	138.270125	138.470125		kind	kind
sw2325B-ms98-a-0034	B.54	138.470125	138.540125		of	of
sw2325B-ms98-a-0034	B.54	138.540125	138.860125		thing	thing
sw2325B-ms98-a-0034	B.54	138.860125	139.210125		and	and
sw2325B-ms98-a-0034	B.54	139.210125	139.570750		uh	uh
sw2325B-ms98-a-0034	B.54	139.570750	139.700125		he	he
sw2325B-ms98-a-0034	B.54	139.700125	139.840125		was	was
sw2325B-ms98-a-0034	B.54	139.840125	139.960125		in	in
sw2325B-ms98-a-0034	B.54	139.960125	140.090125		there	there
sw2325B-ms98-a-0034	B.54	140.090125	140.220125		for	for
sw2325B-ms98-a-0034	B.54	140.220125	140.490125		three	three
sw2325B-ms98-a-0034	B.54	140.490125	140.930125		months	months
sw2325B-ms98-a-0034	B.54	140.930125	141.090125		when	when
sw2325B-ms98-a-0034	B.54	141.090125	141.160125		I	i
sw2325B-ms98-a-0034	B.54	141.160125	141.420125		pulled	pulled
sw2325B-ms98-a-0034	B.54	141.420125	141.580125		him	him
sw2325B-ms98-a-0034	B.54	141.580125	142.083250		out	out
sw2325B-ms98-a-0034	B.54	142.083250	142.450500		[silence]	[silence]
sw2325B-ms98-a-0035	B.54	142.450500	142.600500		[silence]	[silence]
sw2325B-ms98-a-0035	B.54	142.600500	143.137375		and	and
sw2325B-ms98-a-0035	B.54	143.137375	143.344375		[silence]	[silence]
sw2325B-ms98-a-0035	B.54	143.344375	143.487375		the	the
sw2325B-ms98-a-0035	B.54	143.487375	143.630500		the	the
sw2325B-ms98-a-0035	B.54	143.630500	144.040500		teacher	teacher
sw2325B-ms98-a-0035	B.54	144.040500	144.200500		had	had
sw2325B-ms98-a-0035	B.54	144.200500	144.740500		eleven	eleven
sw2325B-ms98-a-0035	B.54	144.740500	145.240500		kids	kids
sw2325B-ms98-a-0035	B.54	145.240500	145.330500		It	it
sw2325B-ms98-a-0035	B.54	145.330500	145.451250		was	was
sw2325B-ms98-a-0035	B.54	145.451250	146.080500		excellent	excellent
sw2325B-ms98-a-0035	B.54	146.080500	146.430500		supposedly	supposedly
sw2325B-ms98-a-0035	B.54	146.430500	146.510500		The	the
sw2325B-ms98-a-0035	B.54	146.510500	147.110500		reputation	reputation
sw2325B-ms98-a-0035	B.54	147.110500	147.220500		was	was
sw2325B-ms98-a-0035	B.54	147.220500	147.950500		fantastic	fantastic
sw2325B-ms98-a-0035	B.54	147.950500	148.040500		for	for
sw2325B-ms98-a-0035	B.54	148.040500	148.140500		this	this
sw2325B-ms98-a-0035	B.54	148.140500	148.310500		place	place
sw2325B-ms98-a-0035	B.54	148.310500	148.480500		Was	was
sw2325B-ms98-a-0035	B.54	148.480500	148.700500		supposed	supposed
sw2325B-ms98-a-0035	B.54	148.700500	148.760500		to	to
sw2325B-ms98-a-0035	B.54	148.760500	148.820500		be	be
sw2325B-ms98-a-0035	B.54	148.820500	148.900500		an	an
sw2325B-ms98-a-0035	B.54	148.900500	149.330500		excellent	excellent
sw2325B-ms98-a-0035	B.54	149.330500	149.630500		school	school
sw2325B-ms98-a-0035	B.54	149.630500	149.720500		and	and
sw2325B-ms98-a-0035	B.54	149.720500	149.750500		I	i
sw2325B-ms98-a-0035	B.54	149.750500	149.850500		had	had
sw2325B-ms98-a-0035	B.54	149.850500	150.130500		several	several
sw2325B-ms98-a-0035	B.54	150.130500	150.500500		friends	friends
sw2325B-ms98-a-0035	B.54	150.500500	150.600500		who	who
sw2325B-ms98-a-0035	B.54	150.600500	150.872625		had	had
sw2325B-ms98-a-0035	B.54	150.872625	151.050500		had	had
sw2325B-ms98-a-0035	B.54	151.050500	151.560500		recommended	recommended
sw2325B-ms98-a-0035	B.54	151.560500	151.670500		it	it
sw2325B-ms98-a-0035	B.54	151.670500	152.004875		too	too
sw2325B-ms98-a-0035	B.54	152.004875	152.193750		But	but
sw2325B-ms98-a-0035	B.54	152.193750	152.660750		[silence]	[silence]
sw2325B-ms98-a-0035	B.54	152.660750	152.780500		it	it
sw2325B-ms98-a-0035	B.54	152.780500	153.000500		really	really
sw2325B-ms98-a-0035	B.54	153.000500	153.230500		gets	gets
sw2325B-ms98-a-0035	B.54	153.230500	153.490500		down	down
sw2325B-ms98-a-0035	B.54	153.490500	153.570500		to	to
sw2325B-ms98-a-0035	B.54	153.570500	153.640500		the	the
sw2325B-ms98-a-0035	B.54	153.640500	154.169750		particular	particular
sw2325B-ms98-a-0035	B.54	154.169750	154.725500		teacher	teacher
sw2325B-ms98-a-0035	B.56	154.725500	154.997875		[silence]	[silence]
sw2325B-ms98-a-0036	B.56	154.997875	155.304875		[silence]	[silence]
sw2325B-ms98-a-0036	B.56	155.304875	155.447875		And	and
sw2325B-ms98-a-0036	B.56	155.447875	155.547875		she	she
sw2325B-ms98-a-0036	B.56	155.547875	155.667875		was	was
sw2325B-ms98-a-0036	B.56	155.667875	155.727875		a	a
sw2325B-ms98-a-0036	B.56	155.727875	155.907875		new	new
sw2325B-ms98-a-0036	B.56	155.907875	156.297875		teacher	teacher
sw2325B-ms98-a-0036	B.56	156.297875	156.427875		at	at
sw2325B-ms98-a-0036	B.56	156.427875	156.567875		the	the
sw2325B-ms98-a-0036	B.56	156.567875	157.121000		school	school
sw2325B-ms98-a-0036	B.56	157.121000	157.307875		and	and
sw2325B-ms98-a-0036	B.56	157.307875	157.397875		she	she
sw2325B-ms98-a-0036	B.56	157.397875	157.497875		had	had
sw2325B-ms98-a-0036	B.56	157.497875	158.035625		eleven	eleven
sw2325B-ms98-a-0036	B.56	158.035625	158.175000		[silence]	[silence]
sw2325B-ms98-a-0036	B.56	158.175000	158.277875		you	you
sw2325B-ms98-a-0036	B.56	158.277875	158.377875		know	know
sw2325B-ms98-a-0036	B.56	158.377875	158.607875		three	three
sw2325B-ms98-a-0036	B.56	158.607875	158.797875		year	year
sw2325B-ms98-a-0036	B.56	158.797875	159.037875		olds	olds
sw2325B-ms98-a-0036	B.56	159.037875	159.147875		in	in
sw2325B-ms98-a-0036	B.56	159.147875	159.227875		a	a
sw2325B-ms98-a-0036	B.56	159.227875	159.577875		room	room
sw2325B-ms98-a-0036	B.56	159.577875	159.687875		and	and
sw2325B-ms98-a-0036	B.56	159.687875	159.807875		I	i
sw2325B-ms98-a-0036	B.56	159.807875	160.007875		just	just
sw2325B-ms98-a-0036	B.56	160.007875	160.157875		think	think
sw2325B-ms98-a-0036	B.56	160.157875	160.257875		it	it
sw2325B-ms98-a-0036	B.56	160.257875	160.487875		was	was
sw2325B-ms98-a-0036	B.56	160.487875	160.627875		way	way
sw2325B-ms98-a-0036	B.56	160.627875	160.827875		too	too
sw2325B-ms98-a-0036	B.56	160.827875	161.267875		much	much
sw2325B-ms98-a-0036	B.56	161.267875	161.337875	<SUB>	The	they
sw2325B-ms98-a-0036	B.56	161.337875	161.407875		were	were
sw2325B-ms98-a-0036	B.56	161.407875	161.757875		almost	almost
sw2325B-ms98-a-0036	B.56	161.757875	161.987875		all	all
sw2325B-ms98-a-0036	B.56	161.987875	162.657125		boys	boys
sw2325B-ms98-a-0036	B.58	162.657125	163.134500		[silence]	[silence]
sw2325B-ms98-a-0037	B.58	163.134500	163.503125		[silence]	[silence]
sw2325B-ms98-a-0037	B.58	163.503125	163.874500		Pardon	pardon
sw2325B-ms98-a-0037	B.60	163.874500	164.693750		[silence]	[silence]
sw2325B-ms98-a-0038	B.60	164.693750	165.137500		[silence]	[silence]
sw2325B-ms98-a-0038	B.60	165.137500	165.369000		I	i
sw2325B-ms98-a-0038	B.60	165.369000	165.643750		didn't	didn't
sw2325B-ms98-a-0038	B.60	165.643750	165.853750		think	think
sw2325B-ms98-a-0038	B.60	165.853750	166.323750		much	much
sw2325B-ms98-a-0038	B.60	166.323750	166.413750		I	i
sw2325B-ms98-a-0038	B.60	166.413750	166.593750		don't	don't
sw2325B-ms98-a-0038	B.60	166.593750	166.783750		think	think
sw2325B-ms98-a-0038	B.60	166.783750	167.413750		much	much
sw2325B-ms98-a-0038	B.62	167.413750	167.902375		[silence]	[silence]
sw2325B-ms98-a-0039	B.62	167.902375	168.441000		[silence]	[silence]
sw2325B-ms98-a-0039	B.62	168.441000	168.882375		Yeah	yeah
sw2325B-ms98-a-0039	B.62	168.882375	169.172375		And	and
sw2325B-ms98-a-0039	B.62	169.172375	169.402375		she	she
sw2325B-ms98-a-0039	B.62	169.402375	169.592375		was	was
sw2325B-ms98-a-0039	B.62	169.592375	169.902375		just	just
sw2325B-ms98-a-0039	B.62	169.902375	170.338000		my	my
sw2325B-ms98-a-0039	B.62	170.338000	170.662375		uh	uh
sw2325B-ms98-a-0039	B.62	170.662375	170.852375		three	three
sw2325B-ms98-a-0039	B.62	170.852375	171.092375		year	year
sw2325B-ms98-a-0039	B.62	171.092375	171.312375		old	old
sw2325B-ms98-a-0039	B.62	171.312375	171.472375		is	is
sw2325B-ms98-a-0039	B.62	171.472375	171.704375		real	real
sw2325B-ms98-a-0039	B.62	171.704375	172.358875		active	active
sw2325B-ms98-a-0039	B.64	172.358875	172.844750		[silence]	[silence]
sw2325B-ms98-a-0039	B.64	172.844750	173.032375		And	and
sw2325B-ms98-a-0039	B.64	173.032375	173.222375		she	she
sw2325B-ms98-a-0039	B.64	173.222375	173.402375		just	just
sw2325B-ms98-a-0039	B.64	173.402375	173.672375		kept	kept
sw2325B-ms98-a-0039	B.64	173.672375	173.862375		saying	saying
sw2325B-ms98-a-0039	B.64	173.862375	174.002375		how	how
sw2325B-ms98-a-0039	B.64	174.002375	174.572375		wild	wild
sw2325B-ms98-a-0039	B.64	174.572375	174.682375		he	he
sw2325B-ms98-a-0039	B.64	174.682375	175.191125		was	was
sw2325B-ms98-a-0039	B.64	175.191125	175.609125		[silence]	[silence]
sw2325B-ms98-a-0039	B.64	175.609125	176.019250		Well	well
sw2325B-ms98-a-0039	B.64	176.019250	176.152375		you	you
sw2325B-ms98-a-0039	B.64	176.152375	176.322375		know	know
sw2325B-ms98-a-0039	B.64	176.322375	176.432375		there	there
sw2325B-ms98-a-0039	B.64	176.432375	176.576875		was	was
sw2325B-ms98-a-0039	B.64	176.576875	176.732375		kind	kind
sw2325B-ms98-a-0039	B.64	176.732375	176.792375		of	of
sw2325B-ms98-a-0039	B.64	176.792375	176.842375		a	a
sw2325B-ms98-a-0039	B.64	176.842375	177.592375		connotation	connotation
sw2325B-ms98-a-0039	B.64	177.592375	177.912375		there	there
sw2325B-ms98-a-0039	B.64	177.912375	178.072375		of	of
sw2325B-ms98-a-0039	B.64	178.072375	178.332375		him	him
sw2325B-ms98-a-0039	B.64	178.332375	178.787750		being	being
sw2325B-ms98-a-0039	B.64	178.787750	179.224125		[silence]	[silence]
sw2325B-ms98-a-0040	B.64	179.224125	179.436625		[silence]	[silence]
sw2325B-ms98-a-0040	B.64	179.436625	179.484125		you	you
sw2325B-ms98-a-0040	B.64	179.484125	179.544125		know	know
sw2325B-ms98-a-0040	B.64	179.544125	179.704125		it	it
sw2325B-ms98-a-0040	B.64	179.704125	179.864125		being	being
sw2325B-ms98-a-0040	B.64	179.864125	179.934125		a	a
sw2325B-ms98-a-0040	B.64	179.934125	180.484125		problem	problem
sw2325B-ms98-a-0040	B.64	180.484125	180.634125		Like	like
sw2325B-ms98-a-0040	B.64	180.634125	180.724125		he	he
sw2325B-ms98-a-0040	B.64	180.724125	181.014125		ran	ran
sw2325B-ms98-a-0040	B.64	181.014125	181.244125		back	back
sw2325B-ms98-a-0040	B.64	181.244125	181.394125		from	from
sw2325B-ms98-a-0040	B.64	181.394125	181.493625		the	the
sw2325B-ms98-a-0040	B.64	181.493625	181.990750		bathroom	bathroom
sw2325B-ms98-a-0040	B.64	181.990750	182.374125		singing	singing
sw2325B-ms98-a-0040	B.64	182.374125	182.554125		and	and
sw2325B-ms98-a-0040	B.64	182.554125	182.974125		skipping	skipping
sw2325B-ms98-a-0040	B.64	182.974125	183.134125		she	she
sw2325B-ms98-a-0040	B.64	183.134125	183.494125		said	said
sw2325B-ms98-a-0040	B.64	183.494125	183.774125		Well	well
sw2325B-ms98-a-0040	B.64	183.774125	183.864125		you	you
sw2325B-ms98-a-0040	B.64	183.864125	183.974125		know	know
sw2325B-ms98-a-0040	B.64	183.974125	184.111125		at	at
sw2325B-ms98-a-0040	B.64	184.111125	184.324125		three	three
sw2325B-ms98-a-0040	B.64	184.324125	184.584125		years	years
sw2325B-ms98-a-0040	B.64	184.584125	184.891500		old	old
sw2325B-ms98-a-0040	B.66	184.891500	185.177000		[silence]	[silence]
sw2325B-ms98-a-0040	B.66	185.177000	185.267375		I	i
sw2325B-ms98-a-0040	B.66	185.267375	185.424125		don't	don't
sw2325B-ms98-a-0040	B.66	185.424125	185.654125		find	find
sw2325B-ms98-a-0040	B.66	185.654125	185.834125		that	that
sw2325B-ms98-a-0040	B.66	185.834125	185.904125		to	to
sw2325B-ms98-a-0040	B.66	185.904125	186.034125		be	be
sw2325B-ms98-a-0040	B.66	186.034125	186.094125		a	a
sw2325B-ms98-a-0040	B.66	186.094125	186.574125		behavioral	behavioral
sw2325B-ms98-a-0040	B.66	186.574125	187.691750		problem	[laughter-problem]
sw2325B-ms98-a-0040	B.68	187.691750	187.937750		You	[laughter-you]
sw2325B-ms98-a-0040	B.68	187.937750	188.299375		know	[laughter-know]
sw2325B-ms98-a-0040	B.68	188.299375	188.954125		[laughter]	[laughter]
sw2325B-ms98-a-0040	B.68	188.954125	189.148250		I	i
sw2325B-ms98-a-0040	B.68	189.148250	189.324125		mean	mean
sw2325B-ms98-a-0040	B.68	189.324125	189.564125		it's	it's
sw2325B-ms98-a-0040	B.68	189.564125	189.744125		kind	kind
sw2325B-ms98-a-0040	B.68	189.744125	189.804125		of	of
sw2325B-ms98-a-0040	B.68	189.804125	189.954125		like	like
sw2325B-ms98-a-0040	B.68	189.954125	190.186375		she	she
sw2325B-ms98-a-0040	B.68	190.186375	190.424250		was	was
sw2325B-ms98-a-0040	B.68	190.424250	190.539000		[silence]	[silence]
sw2325B-ms98-a-0041	B.68	190.539000	190.718000		[silence]	[silence]
sw2325B-ms98-a-0041	B.68	190.718000	190.819000		there	there
sw2325B-ms98-a-0041	B.68	190.819000	190.949000		was	was
sw2325B-ms98-a-0041	B.68	190.949000	191.139000		so	so
sw2325B-ms98-a-0041	B.68	191.139000	191.409000		much	much
sw2325B-ms98-a-0041	B.68	191.409000	191.749000		going	going
sw2325B-ms98-a-0041	B.68	191.749000	191.989000		on	on
sw2325B-ms98-a-0041	B.68	191.989000	192.119000		that	that
sw2325B-ms98-a-0041	B.68	192.119000	192.319000		she	she
sw2325B-ms98-a-0041	B.68	192.319000	192.549000		felt	felt
sw2325B-ms98-a-0041	B.68	192.549000	192.699000		like	like
sw2325B-ms98-a-0041	B.68	192.699000	192.869000		she	she
sw2325B-ms98-a-0041	B.68	192.869000	193.069000		needed	needed
sw2325B-ms98-a-0041	B.68	193.069000	193.139000		to	to
sw2325B-ms98-a-0041	B.68	193.139000	193.729000		control	control
sw2325B-ms98-a-0041	B.68	193.729000	194.193375		more	more
sw2325B-ms98-a-0041	B.70	194.193375	194.349000		and	and
sw2325B-ms98-a-0041	B.70	194.349000	194.529000		it's	it's
sw2325B-ms98-a-0041	B.70	194.529000	194.749000		really	really
sw2325B-ms98-a-0041	B.70	194.749000	194.999000		hard	hard
sw2325B-ms98-a-0041	B.70	194.999000	195.059000		to	to
sw2325B-ms98-a-0041	B.70	195.059000	195.309000		con-	con[trol]-
sw2325B-ms98-a-0041	B.70	195.309000	195.389000		you	you
sw2325B-ms98-a-0041	B.70	195.389000	195.659000		can't	can't
sw2325B-ms98-a-0041	B.70	195.659000	196.019000		control	control
sw2325B-ms98-a-0041	B.70	196.019000	196.329000		eleven	eleven
sw2325B-ms98-a-0041	B.70	196.329000	196.499000		three	three
sw2325B-ms98-a-0041	B.70	196.499000	196.649000		year	year
sw2325B-ms98-a-0041	B.70	196.649000	196.789000		olds	olds
sw2325B-ms98-a-0041	B.70	196.789000	196.899000		with	with
sw2325B-ms98-a-0041	B.70	196.899000	197.129000		one	one
sw2325B-ms98-a-0041	B.70	197.129000	197.569000		person	person
sw2325B-ms98-a-0041	B.70	197.569000	197.706125		you	you
sw2325B-ms98-a-0041	B.70	197.706125	197.962375		know	know
sw2325B-ms98-a-0041	B.72	197.962375	198.902625		[silence]	[silence]
sw2325B-ms98-a-0041	B.72	198.902625	199.466875		Yeah	yeah
sw2325B-ms98-a-0041	B.72	199.466875	199.704250		you	you
sw2325B-ms98-a-0041	B.72	199.704250	200.018125		know	know
sw2325B-ms98-a-0041	B.74	200.018125	200.517125		[silence]	[silence]
sw2325B-ms98-a-0042	B.74	200.517125	200.817125		[silence]	[silence]
sw2325B-ms98-a-0042	B.74	200.817125	200.987125		So	so
sw2325B-ms98-a-0042	B.74	200.987125	201.127125		I	i
sw2325B-ms98-a-0042	B.74	201.127125	201.357125		just	just
sw2325B-ms98-a-0042	B.74	201.357125	201.727125		finally	finally
sw2325B-ms98-a-0042	B.74	201.727125	201.937125		took	took
sw2325B-ms98-a-0042	B.74	201.937125	202.087125		him	him
sw2325B-ms98-a-0042	B.74	202.087125	202.377125		out	out
sw2325B-ms98-a-0042	B.74	202.377125	202.597125		Plus	plus
sw2325B-ms98-a-0042	B.74	202.597125	203.217125		financial	financial
sw2325B-ms98-a-0042	B.74	203.217125	203.647125		reasons	reasons
sw2325B-ms98-a-0042	B.76	203.647125	203.757125		It	it
sw2325B-ms98-a-0042	B.76	203.757125	204.017125		was	was
sw2325B-ms98-a-0042	B.76	204.017125	204.797125		expensive	expensive
sw2325B-ms98-a-0042	B.76	204.797125	204.957125		But	but
sw2325B-ms98-a-0042	B.76	204.957125	205.117125		I	i
sw2325B-ms98-a-0042	B.76	205.117125	205.427125		was	was
sw2325B-ms98-a-0042	B.76	205.427125	205.764250		real	real
sw2325B-ms98-a-0042	B.76	205.764250	206.280250		[silence]	[silence]
sw2325B-ms98-a-0042	B.76	206.280250	206.717125		careful	careful
sw2325B-ms98-a-0042	B.76	206.717125	206.807125		and	and
sw2325B-ms98-a-0042	B.76	206.807125	207.217125		visited	visited
sw2325B-ms98-a-0042	B.76	207.217125	207.357125		and	and
sw2325B-ms98-a-0042	B.76	207.357125	207.727125		everything	everything
sw2325B-ms98-a-0042	B.76	207.727125	207.947125		ahead	ahead
sw2325B-ms98-a-0042	B.76	207.947125	208.047125		of	of
sw2325B-ms98-a-0042	B.76	208.047125	208.327125		time	time
sw2325B-ms98-a-0042	B.76	208.327125	208.437125		But	but
sw2325B-ms98-a-0042	B.76	208.437125	208.557125		I	i
sw2325B-ms98-a-0042	B.76	208.557125	208.797125		still	still
sw2325B-ms98-a-0042	B.76	208.797125	209.007125		felt	felt
sw2325B-ms98-a-0042	B.76	209.007125	209.167125		like	like
sw2325B-ms98-a-0042	B.76	209.167125	209.387125		even	even
sw2325B-ms98-a-0042	B.76	209.387125	209.647125		after	after
sw2325B-ms98-a-0042	B.76	209.647125	209.747125		all	all
sw2325B-ms98-a-0042	B.76	209.747125	209.817125		the	the
sw2325B-ms98-a-0042	B.76	209.817125	210.177125		checking	checking
sw2325B-ms98-a-0042	B.76	210.177125	210.374125		I	i
sw2325B-ms98-a-0042	B.76	210.374125	210.797375		did	did
sw2325B-ms98-a-0042	B.76	210.797375	211.589500		[silence]	[silence]
sw2325B-ms98-a-0043	B.76	211.589500	211.750750		[silence]	[silence]
sw2325B-ms98-a-0043	B.76	211.750750	211.869500		you	you
sw2325B-ms98-a-0043	B.76	211.869500	212.019500		know	know
sw2325B-ms98-a-0043	B.76	212.019500	212.299500		you	you
sw2325B-ms98-a-0043	B.76	212.299500	212.549500		really	really
sw2325B-ms98-a-0043	B.76	212.549500	212.889500		can't	can't
sw2325B-ms98-a-0043	B.76	212.889500	213.099500		know	know
sw2325B-ms98-a-0043	B.76	213.099500	213.817750		everything	everything
sw2325B-ms98-a-0043	B.78	213.817750	214.109500		about	about
sw2325B-ms98-a-0043	B.78	214.109500	214.299500		what's	what's
sw2325B-ms98-a-0043	B.78	214.299500	214.419500		going	going
sw2325B-ms98-a-0043	B.78	214.419500	214.489500		to	to
sw2325B-ms98-a-0043	B.78	214.489500	214.769500		happen	happen
sw2325B-ms98-a-0043	B.78	214.769500	214.945375		I	i
sw2325B-ms98-a-0043	B.78	214.945375	215.153625		felt	felt
sw2325B-ms98-a-0043	B.78	215.153625	215.619500		safe	safe
sw2325B-ms98-a-0043	B.78	215.619500	215.854750		that	that
sw2325B-ms98-a-0043	B.78	215.854750	215.983500		[silence]	[silence]
sw2325B-ms98-a-0044	B.78	215.983500	216.013500		[silence]	[silence]
sw2325B-ms98-a-0044	B.78	216.013500	216.238375		the	the
sw2325B-ms98-a-0044	B.78	216.238375	216.483500		kids	kids
sw2325B-ms98-a-0044	B.78	216.483500	216.653500		weren't	weren't
sw2325B-ms98-a-0044	B.78	216.653500	216.773500		going	going
sw2325B-ms98-a-0044	B.78	216.773500	216.873500		to	to
sw2325B-ms98-a-0044	B.78	216.873500	217.123500		be	be
sw2325B-ms98-a-0044	B.78	217.123500	217.413500		left	left
sw2325B-ms98-a-0044	B.78	217.413500	217.803500		alone	alone
sw2325B-ms98-a-0044	B.78	217.803500	218.213500		somewhere	somewhere
sw2325B-ms98-a-0044	B.78	218.213500	218.283500		in	in
sw2325B-ms98-a-0044	B.78	218.283500	218.363500		a	a
sw2325B-ms98-a-0044	B.78	218.363500	218.613500		room	room
sw2325B-ms98-a-0044	B.78	218.613500	218.753500		where	where
sw2325B-ms98-a-0044	B.78	218.753500	218.823500		a	a
sw2325B-ms98-a-0044	B.78	218.823500	219.153500		teacher	teacher
sw2325B-ms98-a-0044	B.78	219.153500	219.423500		could	could
sw2325B-ms98-a-0044	B.78	219.423500	219.623500		do	do
sw2325B-ms98-a-0044	B.78	219.623500	219.953500		something	something
sw2325B-ms98-a-0044	B.78	219.953500	220.673500		inappropriate	inappropriate
sw2325B-ms98-a-0044	B.78	220.673500	220.843500		with	with
sw2325B-ms98-a-0044	B.78	220.843500	220.993500		them	them
sw2325B-ms98-a-0044	B.78	220.993500	221.063500		you	you
sw2325B-ms98-a-0044	B.78	221.063500	221.163500		know	know
sw2325B-ms98-a-0044	B.78	221.163500	221.363500		because	because
sw2325B-ms98-a-0044	B.80	221.363500	221.453500		there	there
sw2325B-ms98-a-0044	B.80	221.453500	221.563500		was	was
sw2325B-ms98-a-0044	B.80	221.563500	221.950500		enough	enough
sw2325B-ms98-a-0044	B.80	221.950500	222.573500		classrooms	classrooms
sw2325B-ms98-a-0044	B.80	222.573500	222.923500		close	close
sw2325B-ms98-a-0044	B.80	222.923500	223.423500		together	together
sw2325B-ms98-a-0044	B.80	223.423500	223.533500		that	that
sw2325B-ms98-a-0044	B.80	223.533500	223.593500		it	it
sw2325B-ms98-a-0044	B.80	223.593500	223.713500		was	was
sw2325B-ms98-a-0044	B.80	223.713500	223.853500		like	like
sw2325B-ms98-a-0044	B.80	223.853500	223.903500		a	a
sw2325B-ms98-a-0044	B.80	223.903500	224.353500		house	house
sw2325B-ms98-a-0044	B.80	224.353500	224.453500		with	with
sw2325B-ms98-a-0044	B.80	224.453500	224.753500		different	different
sw2325B-ms98-a-0044	B.80	224.753500	225.473500		classrooms	classrooms
sw2325B-ms98-a-0044	B.80	225.473500	225.593500		And	and
sw2325B-ms98-a-0044	B.80	225.593500	225.643500		I	i
sw2325B-ms98-a-0044	B.82	225.643500	225.953500		felt	felt
sw2325B-ms98-a-0044	B.82	225.953500	226.224125		like	like
sw2325B-ms98-a-0044	B.82	226.224125	226.704750		[silence]	[silence]
sw2325B-ms98-a-0045	B.82	226.704750	226.782375		[silence]	[silence]
sw2325B-ms98-a-0045	B.82	226.782375	226.944750		that	that
sw2325B-ms98-a-0045	B.82	226.944750	227.084750		was	was
sw2325B-ms98-a-0045	B.82	227.084750	227.194750		a	a
sw2325B-ms98-a-0045	B.82	227.194750	227.344750		big	big
sw2325B-ms98-a-0045	B.82	227.344750	227.794750		factor	factor
sw2325B-ms98-a-0045	B.82	227.794750	227.944750		for	for
sw2325B-ms98-a-0045	B.82	227.944750	228.174750		me	me
sw2325B-ms98-a-0045	B.82	228.174750	228.334750		That	that
sw2325B-ms98-a-0045	B.82	228.334750	228.434750		they	they
sw2325B-ms98-a-0045	B.82	228.434750	228.524750		would	would
sw2325B-ms98-a-0045	B.82	228.524750	228.624750		would	would
sw2325B-ms98-a-0045	B.82	228.624750	228.774750		be	be
sw2325B-ms98-a-0045	B.82	228.774750	229.437750		safe	safe
sw2325B-ms98-a-0045	B.84	229.437750	230.074375		[silence]	[silence]
sw2325B-ms98-a-0045	B.84	230.074375	230.224750		you	you
sw2325B-ms98-a-0045	B.84	230.224750	230.514750		know	know
sw2325B-ms98-a-0045	B.84	230.514750	230.854750		from	from
sw2325B-ms98-a-0045	B.84	230.854750	231.004750		any	any
sw2325B-ms98-a-0045	B.84	231.004750	231.194750		kind	kind
sw2325B-ms98-a-0045	B.84	231.194750	231.264750		of	of
sw2325B-ms98-a-0045	B.84	231.264750	231.894750		abuse	abuse
sw2325B-ms98-a-0045	B.84	231.894750	232.161000		or	or
sw2325B-ms98-a-0045	B.84	232.161000	232.541375		[silence]	[silence]
sw2325B-ms98-a-0045	B.84	232.541375	232.704750		that	that
sw2325B-ms98-a-0045	B.86	232.704750	232.914750		kind	kind
sw2325B-ms98-a-0045	B.86	232.914750	233.004750		of	of
sw2325B-ms98-a-0045	B.86	233.004750	233.405875		thing	thing
sw2325B-ms98-a-0045	B.88	233.405875	233.612000		[silence]	[silence]
sw2325B-ms98-a-0046	B.88	233.612000	240.207125		[silence]	[silence]
sw2325B-ms98-a-0047	B.88	240.207125	240.690875		[silence]	[silence]
sw2325B-ms98-a-0047	B.88	240.690875	241.218125		Yeah	yeah
sw2325B-ms98-a-0047	B.90	241.218125	241.657875		[silence]	[silence]
sw2325B-ms98-a-0048	B.90	241.657875	253.624375		[silence]	[silence]
sw2325B-ms98-a-0049	B.90	253.624375	254.152625		[silence]	[silence]
sw2325B-ms98-a-0049	B.90	254.152625	255.190750		Uh-huh	uh-huh
sw2325B-ms98-a-0049	B.92	255.190750	255.520500		[silence]	[silence]
sw2325B-ms98-a-0050	B.92	255.520500	263.029875		[silence]	[silence]
sw2325B-ms98-a-0051	B.92	263.029875	263.179875		[silence]	[silence]
sw2325B-ms98-a-0051	B.92	263.179875	263.781625		Yeah	yeah
sw2325B-ms98-a-0051	B.94	263.781625	264.321625		[silence]	[silence]
sw2325B-ms98-a-0052	B.94	264.321625	267.571750		[silence]	[silence]
sw2325B-ms98-a-0053	B.94	267.571750	267.606500		[silence]	[silence]
sw2325B-ms98-a-0053	B.94	267.606500	268.101750		Oh	oh
sw2325B-ms98-a-0053	B.94	268.101750	269.056750		gosh	gosh
sw2325B-ms98-a-0053	B.96	269.056750	269.593250		[silence]	[silence]
sw2325B-ms98-a-0054	B.96	269.593250	276.505250		[silence]	[silence]
sw2325B-ms98-a-0055	B.96	276.505250	277.115250		[silence]	[silence]
sw2325B-ms98-a-0055	B.96	277.115250	277.215250	<DEL>	---	so
sw2325B-ms98-a-0055	B.96	277.215250	277.275250		You	you
sw2325B-ms98-a-0055	B.96	277.275250	277.405250		had	had
sw2325B-ms98-a-0055	B.96	277.405250	277.475250		to	to
sw2325B-ms98-a-0055	B.96	277.475250	277.725250		come	come
sw2325B-ms98-a-0055	B.96	277.725250	277.945250		home	home
sw2325B-ms98-a-0055	B.96	277.945250	278.055250		and	and
sw2325B-ms98-a-0055	B.96	278.055250	278.784875		clean	clean
sw2325B-ms98-a-0055	B.96	278.784875	279.125250		before	before
sw2325B-ms98-a-0055	B.96	279.125250	279.255250		you	you
sw2325B-ms98-a-0055	B.96	279.255250	279.415250		could	could
sw2325B-ms98-a-0055	B.98	279.415250	279.745250		even	even
sw2325B-ms98-a-0055	B.98	279.745250	279.925250		do	do
sw2325B-ms98-a-0055	B.98	279.925250	280.345250		anything	anything
sw2325B-ms98-a-0055	B.98	280.345250	280.843375		probably	probably
sw2325B-ms98-a-0055	B.100	280.843375	281.230750		[silence]	[silence]
sw2325B-ms98-a-0056	B.100	281.230750	292.056250		[silence]	[silence]
sw2325B-ms98-a-0057	B.100	292.056250	292.684750		[silence]	[silence]
sw2325B-ms98-a-0057	B.100	292.684750	293.375625		Oh	oh
sw2325B-ms98-a-0057	B.100	293.375625	294.525375		gosh	gosh
sw2325B-ms98-a-0057	B.102	294.525375	295.714875		[silence]	[silence]
sw2325B-ms98-a-0058	B.102	295.714875	296.424875		[silence]	[silence]
sw2325B-ms98-a-0058	B.102	296.424875	297.225250		Yeah	yeah
sw2325B-ms98-a-0058	B.104	297.225250	297.365625		[silence]	[silence]
sw2325B-ms98-a-0059	B.104	297.365625	305.489125		[silence]	[silence]
sw2325B-ms98-a-0060	B.104	305.489125	305.830625		[silence]	[silence]
sw2325B-ms98-a-0060	B.104	305.830625	306.153500		Oh	oh
sw2325B-ms98-a-0060	B.104	306.153500	306.444625		yeah	yeah
sw2325B-ms98-a-0060	B.104	306.444625	306.559125		I	i
sw2325B-ms98-a-0060	B.104	306.559125	306.714750		was	was
sw2325B-ms98-a-0060	B.104	306.714750	306.819125		I	i
sw2325B-ms98-a-0060	B.104	306.819125	307.029125		took	took
sw2325B-ms98-a-0060	B.104	307.029125	307.126750		the	the
sw2325B-ms98-a-0060	B.104	307.126750	307.390375		kids	kids
sw2325B-ms98-a-0060	B.104	307.390375	307.529125		there	there
sw2325B-ms98-a-0060	B.104	307.529125	307.779125		once	once
sw2325B-ms98-a-0060	B.104	307.779125	307.929125		just	just
sw2325B-ms98-a-0060	B.104	307.929125	308.009125		to	to
sw2325B-ms98-a-0060	B.104	308.009125	308.249125		try	try
sw2325B-ms98-a-0060	B.104	308.249125	308.349125		it	it
sw2325B-ms98-a-0060	B.104	308.349125	308.439125		They	they
sw2325B-ms98-a-0060	B.104	308.439125	308.559125		had	had
sw2325B-ms98-a-0060	B.104	308.559125	308.599125		a	a
sw2325B-ms98-a-0060	B.104	308.599125	308.889125		free	free
sw2325B-ms98-a-0060	B.104	308.889125	309.199125		day	day
sw2325B-ms98-a-0060	B.104	309.199125	309.289125		at	at
sw2325B-ms98-a-0060	B.104	309.289125	309.924750		Kindercare	Kindercare
sw2325B-ms98-a-0060	B.106	309.924750	310.321500		Yeah	yeah
sw2325B-ms98-a-0060	B.108	310.321500	310.879875		[silence]	[silence]
sw2325B-ms98-a-0061	B.108	310.879875	321.730625		[silence]	[silence]
sw2325B-ms98-a-0062	B.108	321.730625	322.097875		[silence]	[silence]
sw2325B-ms98-a-0062	B.108	322.097875	322.572125	<SUB>	Uh-huh	uh-hum
sw2325B-ms98-a-0062	B.112	322.572125	322.802250		[silence]	[silence]
sw2325B-ms98-a-0063	B.112	322.802250	328.509000		[silence]	[silence]
sw2325B-ms98-a-0064	B.112	328.509000	328.824000		[silence]	[silence]
sw2325B-ms98-a-0064	B.112	328.824000	330.119375		[laughter]	[laughter]
sw2325B-ms98-a-0064	B.112	330.119375	330.535000		[silence]	[silence]
sw2325B-ms98-a-0065	B.112	330.535000	334.163500		[silence]	[silence]
sw2325B-ms98-a-0066	B.112	334.163500	334.667875		[silence]	[silence]
sw2325B-ms98-a-0066	B.112	334.667875	334.877250		I	i
sw2325B-ms98-a-0066	B.112	334.877250	335.098500		didn't	didn't
sw2325B-ms98-a-0066	B.112	335.098500	335.533500		either	either
sw2325B-ms98-a-0066	B.112	335.533500	335.725875		I	i
sw2325B-ms98-a-0066	B.112	335.725875	335.947625		had	had
sw2325B-ms98-a-0066	B.114	335.947625	336.177375		[silence]	[silence]
sw2325B-ms98-a-0066	B.114	336.177375	336.448500		one	one
sw2325B-ms98-a-0066	B.114	336.448500	336.761125		[silence]	[silence]
sw2325B-ms98-a-0066	B.114	336.761125	337.025875		bad	bad
sw2325B-ms98-a-0066	B.114	337.025875	337.154000		[vocalized-noise]	[vocalized-noise]
sw2325B-ms98-a-0066	B.114	337.154000	337.250500		I	i
sw2325B-ms98-a-0066	B.114	337.250500	337.373500		had	had
sw2325B-ms98-a-0066	B.114	337.373500	337.563500		two	two
sw2325B-ms98-a-0066	B.114	337.563500	337.783500		bad	bad
sw2325B-ms98-a-0066	B.114	337.783500	338.353500		experiences	experiences
sw2325B-ms98-a-0066	B.114	338.353500	338.523500		just	just
sw2325B-ms98-a-0066	B.114	338.523500	338.693500		that	that
sw2325B-ms98-a-0066	B.114	338.693500	338.923500		one	one
sw2325B-ms98-a-0066	B.114	338.923500	339.143500		day	day
sw2325B-ms98-a-0066	B.114	339.143500	339.303500		with	with
sw2325B-ms98-a-0066	B.114	339.303500	339.783500		medicine	medicine
sw2325B-ms98-a-0066	B.114	339.783500	339.873500		that	that
sw2325B-ms98-a-0066	B.114	339.873500	340.013500		my	my
sw2325B-ms98-a-0066	B.114	340.013500	340.243500		son	son
sw2325B-ms98-a-0066	B.114	340.243500	340.343500		was	was
sw2325B-ms98-a-0066	B.114	340.343500	340.623500		supposed	supposed
sw2325B-ms98-a-0066	B.114	340.623500	340.683500		to	to
sw2325B-ms98-a-0066	B.114	340.683500	340.853500		have	have
sw2325B-ms98-a-0066	B.114	340.853500	341.003500		for	for
sw2325B-ms98-a-0066	B.114	341.003500	341.053500		a	a
sw2325B-ms98-a-0066	B.114	341.053500	341.383500		cold	cold
sw2325B-ms98-a-0066	B.114	341.383500	341.493500		that	that
sw2325B-ms98-a-0066	B.114	341.493500	341.593500		they	they
sw2325B-ms98-a-0066	B.114	341.593500	341.863500		never	never
sw2325B-ms98-a-0066	B.114	341.863500	342.193500		gave	gave
sw2325B-ms98-a-0066	B.114	342.193500	342.441375		him	him
sw2325B-ms98-a-0066	B.116	342.441375	342.780125		[silence]	[silence]
sw2325B-ms98-a-0067	B.116	342.780125	343.230125		[silence]	[silence]
sw2325B-ms98-a-0067	B.116	343.230125	343.410125		And	and
sw2325B-ms98-a-0067	B.116	343.410125	343.490125		the	the
sw2325B-ms98-a-0067	B.116	343.490125	343.730125		other	other
sw2325B-ms98-a-0067	B.116	343.730125	343.870125		one	one
sw2325B-ms98-a-0067	B.116	343.870125	344.050125		was	was
sw2325B-ms98-a-0067	B.116	344.050125	344.300125		that	that
sw2325B-ms98-a-0067	B.116	344.300125	344.390125		the	the
sw2325B-ms98-a-0067	B.116	344.390125	344.630125		the	the
sw2325B-ms98-a-0067	B.116	344.630125	345.000125		younger	younger
sw2325B-ms98-a-0067	B.116	345.000125	345.190125		one	one
sw2325B-ms98-a-0067	B.116	345.190125	345.407125		got	got
sw2325B-ms98-a-0067	B.116	345.407125	345.576125		[silence]	[silence]
sw2325B-ms98-a-0067	B.116	345.576125	346.033625		bit	bit
sw2325B-ms98-a-0067	B.118	346.033625	346.382125		[silence]	[silence]
sw2325B-ms98-a-0068	B.118	346.382125	346.702625		[silence]	[silence]
sw2325B-ms98-a-0068	B.118	346.702625	347.022125		really	really
sw2325B-ms98-a-0068	B.118	347.022125	347.442125		badly	badly
sw2325B-ms98-a-0068	B.118	347.442125	347.612125		by	by
sw2325B-ms98-a-0068	B.118	347.612125	347.920125		another	another
sw2325B-ms98-a-0068	B.118	347.920125	348.476500		child	child
sw2325B-ms98-a-0068	B.118	348.476500	348.632125		and	and
sw2325B-ms98-a-0068	B.118	348.632125	348.762125		what	what
sw2325B-ms98-a-0068	B.118	348.762125	348.892125		they	they
sw2325B-ms98-a-0068	B.118	348.892125	349.092125		did	did
sw2325B-ms98-a-0068	B.118	349.092125	349.232125		was	was
sw2325B-ms98-a-0068	B.118	349.232125	349.412125		they	they
sw2325B-ms98-a-0068	B.118	349.412125	349.773875		took	took
sw2325B-ms98-a-0068	B.118	349.773875	350.055125		my	my
sw2325B-ms98-a-0068	B.118	350.055125	350.371500		[silence]	[silence]
sw2325B-ms98-a-0069	B.118	350.371500	350.807250		[silence]	[silence]
sw2325B-ms98-a-0069	B.118	350.807250	351.111500		younger	younger
sw2325B-ms98-a-0069	B.118	351.111500	351.261500		one	one
sw2325B-ms98-a-0069	B.118	351.261500	351.401500		out	out
sw2325B-ms98-a-0069	B.118	351.401500	351.491500		and	and
sw2325B-ms98-a-0069	B.118	351.491500	351.601500		put	put
sw2325B-ms98-a-0069	B.118	351.601500	351.711500		him	him
sw2325B-ms98-a-0069	B.118	351.711500	351.781500		in	in
sw2325B-ms98-a-0069	B.118	351.781500	351.831500		a	a
sw2325B-ms98-a-0069	B.118	351.831500	352.121500		crib	crib
sw2325B-ms98-a-0069	B.118	352.121500	352.211500		and	and
sw2325B-ms98-a-0069	B.118	352.211500	352.381500		left	left
sw2325B-ms98-a-0069	B.118	352.381500	352.481500		him	him
sw2325B-ms98-a-0069	B.118	352.481500	352.541500		in	in
sw2325B-ms98-a-0069	B.118	352.541500	352.581500		a	a
sw2325B-ms98-a-0069	B.118	352.581500	352.863125		crib	crib
sw2325B-ms98-a-0069	B.118	352.863125	353.001500		the	the
sw2325B-ms98-a-0069	B.118	353.001500	353.141500		rest	rest
sw2325B-ms98-a-0069	B.118	353.141500	353.201500		of	of
sw2325B-ms98-a-0069	B.118	353.201500	353.319250		the	the
sw2325B-ms98-a-0069	B.118	353.319250	353.628500		day	day
sw2325B-ms98-a-0069	B.120	353.628500	354.042875		[silence]	[silence]
sw2325B-ms98-a-0070	B.120	354.042875	354.472875		[silence]	[silence]
sw2325B-ms98-a-0070	B.120	354.472875	354.772875		Instead	instead
sw2325B-ms98-a-0070	B.120	354.772875	354.832875		of	of
sw2325B-ms98-a-0070	B.120	354.832875	355.032875		taking	taking
sw2325B-ms98-a-0070	B.120	355.032875	355.092875		the	the
sw2325B-ms98-a-0070	B.120	355.092875	355.292875		kid	kid
sw2325B-ms98-a-0070	B.120	355.292875	355.382875		that	that
sw2325B-ms98-a-0070	B.120	355.382875	355.557375		was	was
sw2325B-ms98-a-0070	B.120	355.557375	355.898375		biting	biting
sw2325B-ms98-a-0070	B.120	355.898375	356.158875		out	out
sw2325B-ms98-a-0070	B.120	356.158875	356.279375		and	[laughter-and]
sw2325B-ms98-a-0070	B.120	356.279375	356.395875		do	[laughter-do]
sw2325B-ms98-a-0070	B.120	356.395875	356.757250		something	[laughter-something]
sw2325B-ms98-a-0070	B.120	356.757250	356.958875		with	[laughter-with]
sw2325B-ms98-a-0070	B.120	356.958875	357.203875		him	[laughter-him]
sw2325B-ms98-a-0070	B.122	357.203875	357.795000		[silence]	[silence]
sw2325B-ms98-a-0070	B.122	357.795000	358.363875		Yeah	yeah
sw2325B-ms98-a-0070	B.124	358.363875	358.532250		[silence]	[silence]
sw2325B-ms98-a-0071	B.124	358.532250	363.257625		[silence]	[silence]
sw2325B-ms98-a-0072	B.124	363.257625	363.397625		[silence]	[silence]
sw2325B-ms98-a-0072	B.124	363.397625	363.942750		Yeah	yeah
sw2325B-ms98-a-0072	B.126	363.942750	364.490750		[silence]	[silence]
sw2325B-ms98-a-0073	B.126	364.490750	371.470500		[silence]	[silence]
sw2325B-ms98-a-0074	B.126	371.470500	371.761250		[silence]	[silence]
sw2325B-ms98-a-0074	B.126	371.761250	372.227500		Yeah	yeah
sw2325B-ms98-a-0074	B.128	372.227500	372.609125		[silence]	[silence]
sw2325B-ms98-a-0075	B.128	372.609125	375.312000		[silence]	[silence]
sw2325B-ms98-a-0076	B.128	375.312000	375.532000		[silence]	[silence]
sw2325B-ms98-a-0076	B.128	375.532000	375.632375		So	so
sw2325B-ms98-a-0076	B.128	375.632375	375.746750		you	you
sw2325B-ms98-a-0076	B.128	375.746750	375.922000		feel	feel
sw2325B-ms98-a-0076	B.128	375.922000	376.112000		like	like
sw2325B-ms98-a-0076	B.128	376.112000	376.292000		your	your
sw2325B-ms98-a-0076	B.128	376.292000	376.842000		values	values
sw2325B-ms98-a-0076	B.128	376.842000	377.072000		aren't	aren't
sw2325B-ms98-a-0076	B.128	377.072000	377.412000		getting	getting
sw2325B-ms98-a-0076	B.128	377.412000	377.901500		yeah	yeah
sw2325B-ms98-a-0076	B.128	377.901500	378.014000		[silence]	[silence]
sw2325B-ms98-a-0076	B.128	378.014000	378.452375		yeah	yeah
sw2325B-ms98-a-0076	B.130	378.452375	378.837375		[silence]	[silence]
sw2325B-ms98-a-0077	B.130	378.837375	380.240250		[silence]	[silence]
sw2325B-ms98-a-0078	B.130	380.240250	380.740250		[silence]	[silence]
sw2325B-ms98-a-0078	B.130	380.740250	381.377250		Yeah	yeah
sw2325B-ms98-a-0078	B.130	381.377250	381.730250		yeah	yeah
sw2325B-ms98-a-0078	B.132	381.730250	382.060250		God	God
sw2325B-ms98-a-0078	B.132	382.060250	382.350250		loves	loves
sw2325B-ms98-a-0078	B.132	382.350250	382.620250		you	you
sw2325B-ms98-a-0078	B.134	382.620250	382.690250		You	you
sw2325B-ms98-a-0078	B.134	382.690250	382.820250		know	know
sw2325B-ms98-a-0078	B.134	382.820250	383.270250		basic	basic
sw2325B-ms98-a-0078	B.134	383.270250	383.580250		things	things
sw2325B-ms98-a-0078	B.134	383.580250	383.790250		like	like
sw2325B-ms98-a-0078	B.134	383.790250	383.946500		that	that
sw2325B-ms98-a-0078	B.136	383.946500	384.456500		[silence]	[silence]
sw2325B-ms98-a-0079	B.136	384.456500	384.664750		[silence]	[silence]
sw2325B-ms98-a-0079	B.136	384.664750	385.225500		Yeah	yeah
sw2325B-ms98-a-0079	B.138	385.225500	385.679000		[silence]	[silence]
sw2325B-ms98-a-0080	B.138	385.679000	406.959375		[silence]	[silence]
sw2325B-ms98-a-0081	B.138	406.959375	407.379375		[silence]	[silence]
sw2325B-ms98-a-0081	B.138	407.379375	407.829375	<SUB>	Uh-huh	um-hum
sw2325B-ms98-a-0081	B.140	407.829375	407.915375		[silence]	[silence]
sw2325B-ms98-a-0082	B.140	407.915375	419.596875		[silence]	[silence]
sw2325B-ms98-a-0083	B.140	419.596875	420.233375		[silence]	[silence]
sw2325B-ms98-a-0083	B.140	420.233375	420.778625		Yeah	yeah
sw2325B-ms98-a-0083	B.142	420.778625	421.116375		[silence]	[silence]
sw2325B-ms98-a-0084	B.142	421.116375	426.273625		[silence]	[silence]
sw2325B-ms98-a-0085	B.142	426.273625	426.769125		[silence]	[silence]
sw2325B-ms98-a-0085	B.142	426.769125	427.729500		Wow	wow
sw2325B-ms98-a-0085	B.144	427.729500	428.166250		[silence]	[silence]
sw2325B-ms98-a-0086	B.144	428.166250	432.258500		[silence]	[silence]
sw2325B-ms98-a-0087	B.144	432.258500	432.880000		[silence]	[silence]
sw2325B-ms98-a-0087	B.144	432.880000	433.348500		Oh	oh
sw2325B-ms98-a-0087	B.144	433.348500	433.788500		what	what
sw2325B-ms98-a-0087	B.144	433.788500	434.499125		luck	luck
sw2325B-ms98-a-0087	B.148	434.499125	434.853250		[silence]	[silence]
sw2325B-ms98-a-0088	B.148	434.853250	436.468250		[silence]	[silence]
sw2325B-ms98-a-0089	B.148	436.468250	436.956625		[silence]	[silence]
sw2325B-ms98-a-0089	B.148	436.956625	437.616375		Really	[laughter-really]
sw2325B-ms98-a-0089	B.150	437.616375	437.995375		[silence]	[silence]
sw2325B-ms98-a-0090	B.150	437.995375	443.645375		[silence]	[silence]
sw2325B-ms98-a-0091	B.150	443.645375	444.191375		[silence]	[silence]
sw2325B-ms98-a-0091	B.150	444.191375	444.641625		Oh	oh
sw2325B-ms98-a-0091	B.150	444.641625	444.984750		that's	that's
sw2325B-ms98-a-0091	B.150	444.984750	445.533250		great	great
sw2325B-ms98-a-0091	B.152	445.533250	446.084375		[silence]	[silence]
sw2325B-ms98-a-0092	B.152	446.084375	451.053500		[silence]	[silence]
sw2325B-ms98-a-0093	B.152	451.053500	451.643875		[silence]	[silence]
sw2325B-ms98-a-0093	B.152	451.643875	452.354875		Yeah	yeah
sw2325B-ms98-a-0093	B.154	452.354875	452.739375		[silence]	[silence]
sw2325B-ms98-a-0094	B.154	452.739375	454.959500		[silence]	[silence]
sw2325B-ms98-a-0095	B.154	454.959500	455.390875		[silence]	[silence]
sw2325B-ms98-a-0095	B.154	455.390875	455.679500		Oh	oh
sw2325B-ms98-a-0095	B.154	455.679500	456.569500		really	really
sw2325B-ms98-a-0095	B.154	456.569500	457.197500		Wow	wow
sw2325B-ms98-a-0095	B.156	457.197500	457.963250		[silence]	[silence]
sw2325B-ms98-a-0096	B.156	457.963250	458.760375		[silence]	[silence]
sw2325B-ms98-a-0096	B.156	458.760375	459.068750		That's	that's
sw2325B-ms98-a-0096	B.156	459.068750	459.712875		okay	[laughter-okay]
sw2325B-ms98-a-0096	B.156	459.712875	459.858750		I	i
sw2325B-ms98-a-0096	B.156	459.858750	459.973250		got	got
sw2325B-ms98-a-0096	B.156	459.973250	460.033250		the	the
sw2325B-ms98-a-0096	B.156	460.033250	460.403250		dryer	dryer
sw2325B-ms98-a-0096	B.156	460.403250	460.668750		going	going
sw2325B-ms98-a-0096	B.158	460.668750	460.763250		in	in
sw2325B-ms98-a-0096	B.158	460.763250	460.863250		the	the
sw2325B-ms98-a-0096	B.158	460.863250	461.404000		background	[laughter-background]
sw2325B-ms98-a-0096	B.158	461.404000	461.604250		so	so
sw2325B-ms98-a-0096	B.160	461.604250	462.029125		[silence]	[silence]
sw2325B-ms98-a-0097	B.160	462.029125	467.180750		[silence]	[silence]
sw2325B-ms98-a-0098	B.160	467.180750	467.775875		[silence]	[silence]
sw2325B-ms98-a-0098	B.160	467.775875	468.401000		Yeah	yeah
sw2325B-ms98-a-0098	B.162	468.401000	469.152875		[silence]	[silence]
sw2325B-ms98-a-0099	B.162	469.152875	469.943375		[silence]	[silence]
sw2325B-ms98-a-0099	B.162	469.943375	470.222875		Oh	oh
sw2325B-ms98-a-0099	B.162	470.222875	470.612875		that's	that's
sw2325B-ms98-a-0099	B.162	470.612875	471.112875		great	great
sw2325B-ms98-a-0099	B.164	471.112875	471.740875		[silence]	[silence]
sw2325B-ms98-a-0100	B.164	471.740875	475.760000		[silence]	[silence]
sw2325B-ms98-a-0101	B.164	475.760000	476.240000		[silence]	[silence]
sw2325B-ms98-a-0101	B.164	476.240000	476.865000		Yeah	yeah
sw2325B-ms98-a-0101	B.166	476.865000	477.405500		[silence]	[silence]
sw2325B-ms98-a-0102	B.166	477.405500	490.185250		[silence]	[silence]
sw2325B-ms98-a-0103	B.166	490.185250	490.843750		[silence]	[silence]
sw2325B-ms98-a-0103	B.166	490.843750	491.519125		Yeah	yeah
sw2325B-ms98-a-0103	B.168	491.519125	491.824125		[silence]	[silence]
sw2325B-ms98-a-0103	B.168	491.824125	492.396000		Yeah	yeah
sw2325B-ms98-a-0103	B.170	492.396000	493.144375		[silence]	[silence]
sw2325B-ms98-a-0104	B.170	493.144375	493.723875		[silence]	[silence]
sw2325B-ms98-a-0104	B.170	493.723875	493.844375	<DEL>	---	at
sw2325B-ms98-a-0104	B.170	493.844375	493.974375	<DEL>	---	least
sw2325B-ms98-a-0104	B.170	493.974375	494.084375		They	they
sw2325B-ms98-a-0104	B.170	494.084375	494.274375		think	think
sw2325B-ms98-a-0104	B.170	494.274375	494.434375		it's	it's
sw2325B-ms98-a-0104	B.170	494.434375	494.794375		fun	fun
sw2325B-ms98-a-0104	B.170	494.794375	494.944375		It's	it's
sw2325B-ms98-a-0104	B.170	494.944375	495.144375		not	not
sw2325B-ms98-a-0104	B.170	495.144375	495.265875		a	a
sw2325B-ms98-a-0104	B.170	495.265875	495.510625		big	big
sw2325B-ms98-a-0104	B.170	495.510625	495.623500		you	you
sw2325B-ms98-a-0104	B.170	495.623500	495.859875		know	know
sw2325B-ms98-a-0104	B.172	495.859875	496.153625		[silence]	[silence]
sw2325B-ms98-a-0104	B.172	496.153625	496.544375		trauma	trauma
sw2325B-ms98-a-0104	B.172	496.544375	496.664375		to	to
sw2325B-ms98-a-0104	B.172	496.664375	496.814375		them	them
sw2325B-ms98-a-0104	B.172	496.814375	496.904375		to	to
sw2325B-ms98-a-0104	B.172	496.904375	497.224375		learn	learn
sw2325B-ms98-a-0104	B.172	497.224375	497.742625		something	something
sw2325B-ms98-a-0104	B.172	497.742625	497.932875		[noise]	[noise]
sw2325B-ms98-a-0104	B.172	497.932875	498.335750		Yeah	yeah
sw2325B-ms98-a-0104	B.174	498.335750	498.714875		[silence]	[silence]
sw2325B-ms98-a-0105	B.174	498.714875	514.112875		[silence]	[silence]
sw2325B-ms98-a-0106	B.174	514.112875	514.189875		[silence]	[silence]
sw2325B-ms98-a-0106	B.174	514.189875	514.853625		Yeah	yeah
sw2325B-ms98-a-0106	B.176	514.853625	515.063000		[silence]	[silence]
sw2325B-ms98-a-0107	B.176	515.063000	519.833375		[silence]	[silence]
sw2325B-ms98-a-0108	B.176	519.833375	520.197875		[silence]	[silence]
sw2325B-ms98-a-0108	B.176	520.197875	520.783375		Really	really
sw2325B-ms98-a-0108	B.176	520.783375	520.933375		Because	because_1
sw2325B-ms98-a-0108	B.176	520.933375	521.343375		sometimes	sometimes
sw2325B-ms98-a-0108	B.176	521.343375	521.443375		it	it
sw2325B-ms98-a-0108	B.176	521.443375	521.593375		is	is
sw2325B-ms98-a-0108	B.176	521.593375	521.673375		a	a
sw2325B-ms98-a-0108	B.176	521.673375	522.003375		burden	burden
sw2325B-ms98-a-0108	B.176	522.003375	522.293375		having	having
sw2325B-ms98-a-0108	B.176	522.293375	522.443375		them	them
sw2325B-ms98-a-0108	B.176	522.443375	522.623375		all	all
sw2325B-ms98-a-0108	B.176	522.623375	522.913375		day	day
sw2325B-ms98-a-0108	B.176	522.913375	523.253375		because	because
sw2325B-ms98-a-0108	B.176	523.253375	523.363375		I	i
sw2325B-ms98-a-0108	B.176	523.363375	523.723375		can't	can't
sw2325B-ms98-a-0108	B.178	523.723375	523.933375		do	do
sw2325B-ms98-a-0108	B.178	523.933375	524.263375		anything	anything
sw2325B-ms98-a-0108	B.178	524.263375	524.393375		with	with
sw2325B-ms98-a-0108	B.178	524.393375	524.593375		them	them
sw2325B-ms98-a-0108	B.178	524.593375	524.813375		here	here
sw2325B-ms98-a-0108	B.178	524.813375	524.853375		I	i
sw2325B-ms98-a-0108	B.178	524.853375	525.023375		can't	can't
sw2325B-ms98-a-0108	B.178	525.023375	525.143375		even	even
sw2325B-ms98-a-0108	B.178	525.143375	525.223375		go	go
sw2325B-ms98-a-0108	B.178	525.223375	525.703375		grocery	grocery
sw2325B-ms98-a-0108	B.178	525.703375	526.063375		shopping	shopping
sw2325B-ms98-a-0108	B.178	526.063375	526.263375		right	right
sw2325B-ms98-a-0108	B.178	526.263375	526.533375		now	now
sw2325B-ms98-a-0108	B.180	526.533375	526.673375		with	with
sw2325B-ms98-a-0108	B.180	526.673375	526.733375		the	the
sw2325B-ms98-a-0108	B.180	526.733375	526.903375		two	two
sw2325B-ms98-a-0108	B.180	526.903375	527.013375		of	of
sw2325B-ms98-a-0108	B.180	527.013375	527.073375		them	them_1
sw2325B-ms98-a-0108	B.180	527.073375	527.233375		because	because
sw2325B-ms98-a-0108	B.180	527.233375	527.293375		the	the
sw2325B-ms98-a-0108	B.180	527.293375	527.693375		baby	baby
sw2325B-ms98-a-0108	B.180	527.693375	527.863375		is	is
sw2325B-ms98-a-0108	B.180	527.863375	528.121250		so	so
sw2325B-ms98-a-0108	B.180	528.121250	528.338000		[silence]	[silence]
sw2325B-ms98-a-0109	B.180	528.338000	528.587875		[silence]	[silence]
sw2325B-ms98-a-0109	B.180	528.587875	528.798000		into	into
sw2325B-ms98-a-0109	B.180	528.798000	529.303250		everything	everything
sw2325B-ms98-a-0109	B.180	529.303250	529.420000		and	and
sw2325B-ms98-a-0109	B.180	529.420000	529.518000		the	the
sw2325B-ms98-a-0109	B.180	529.518000	529.738000		older	older
sw2325B-ms98-a-0109	B.180	529.738000	530.188000		brother	[laughter-brother]
sw2325B-ms98-a-0109	B.180	530.188000	530.370625		is	is
sw2325B-ms98-a-0109	B.180	530.370625	530.713375		[silence]	[silence]
sw2325B-ms98-a-0109	B.180	530.713375	530.768000		you	you
sw2325B-ms98-a-0109	B.180	530.768000	530.898000		know	know
sw2325B-ms98-a-0109	B.180	530.898000	531.138000		running	running
sw2325B-ms98-a-0109	B.180	531.138000	531.538000		around	around
sw2325B-ms98-a-0109	B.180	531.538000	531.698000		all	all
sw2325B-ms98-a-0109	B.180	531.698000	531.878000		over	over
sw2325B-ms98-a-0109	B.180	531.878000	531.991500		the	the
sw2325B-ms98-a-0109	B.180	531.991500	532.428375		place	place
sw2325B-ms98-a-0109	B.180	532.428375	532.750625		so	so
sw2325B-ms98-a-0109	B.182	532.750625	533.266875		[silence]	[silence]
sw2325B-ms98-a-0109	B.182	533.266875	533.428875		it	it
sw2325B-ms98-a-0109	B.182	533.428875	533.668000		is	is
sw2325B-ms98-a-0109	B.182	533.668000	533.853625	<SUB>	it's	a
sw2325B-ms98-a-0109	B.182	533.853625	533.853625	<INS>	hard	---
sw2325B-ms98-a-0109	B.184	533.853625	534.595625		[vocalized-noise]	[vocalized-noise]
sw2325B-ms98-a-0109	B.184	534.595625	535.269625		Yeah	yeah
sw2325B-ms98-a-0109	B.186	535.269625	535.932375		Yeah	yeah
sw2325B-ms98-a-0109	B.186	535.932375	535.932375	<INS>	So	---
sw2325B-ms98-a-0109	B.188	535.932375	536.488625		[silence]	[silence]
sw2325B-ms98-a-0110	B.188	536.488625	542.723250		[silence]	[silence]
sw2325B-ms98-a-0111	B.188	542.723250	543.255625		[silence]	[silence]
sw2325B-ms98-a-0111	B.188	543.255625	543.745000		Yeah	yeah
sw2325B-ms98-a-0111	B.188	543.745000	543.922000		I	i
sw2325B-ms98-a-0111	B.188	543.922000	544.093250		need	need
sw2325B-ms98-a-0111	B.188	544.093250	544.213250		to	to
sw2325B-ms98-a-0111	B.190	544.213250	544.503250		Even	even
sw2325B-ms98-a-0111	B.190	544.503250	544.503250	<INS>	for	---
sw2325B-ms98-a-0111	B.190	544.503250	544.733250		just	just
sw2325B-ms98-a-0111	B.190	544.733250	544.863250	<DEL>	---	for
sw2325B-ms98-a-0111	B.190	544.863250	544.970250		a	a
sw2325B-ms98-a-0111	B.190	544.970250	545.233250		couple	couple
sw2325B-ms98-a-0111	B.190	545.233250	545.503250		days	days
sw2325B-ms98-a-0111	B.190	545.503250	545.665250		a	a
sw2325B-ms98-a-0111	B.190	545.665250	546.053250		mornings	mornings
sw2325B-ms98-a-0111	B.190	546.053250	546.113250		a	a
sw2325B-ms98-a-0111	B.190	546.113250	546.373250		week	week
sw2325B-ms98-a-0111	B.190	546.373250	546.463250		or	or
sw2325B-ms98-a-0111	B.190	546.463250	546.953250		something	something
sw2325B-ms98-a-0111	B.192	546.953250	547.023250		to	to
sw2325B-ms98-a-0111	B.192	547.023250	547.213250		have	have
sw2325B-ms98-a-0111	B.192	547.213250	547.633250		something	something
sw2325B-ms98-a-0111	B.192	547.633250	547.873250		like	like
sw2325B-ms98-a-0111	B.192	547.873250	548.173250		that	that
sw2325B-ms98-a-0111	B.192	548.173250	548.253250		so	so
sw2325B-ms98-a-0111	B.192	548.253250	548.443750	<SUB>	I	i-
sw2325B-ms98-a-0111	B.192	548.443750	548.571750		I	i
sw2325B-ms98-a-0111	B.192	548.571750	548.693250		think	think
sw2325B-ms98-a-0111	B.192	548.693250	548.753250		I'm	i'm
sw2325B-ms98-a-0111	B.192	548.753250	548.873250		going	going
sw2325B-ms98-a-0111	B.192	548.873250	548.933250		to	to
sw2325B-ms98-a-0111	B.192	548.933250	549.123250		look	look
sw2325B-ms98-a-0111	B.192	549.123250	549.223250		for	for
sw2325B-ms98-a-0111	B.192	549.223250	549.473250		that	that
sw2325B-ms98-a-0111	B.192	549.473250	549.873250		Remind	remind
sw2325B-ms98-a-0111	B.192	549.873250	549.953250		me	me
sw2325B-ms98-a-0111	B.192	549.953250	550.023250		of	of
sw2325B-ms98-a-0111	B.192	550.023250	550.181750		that	that
sw2325B-ms98-a-0111	B.192	550.181750	550.333250		now	[laughter-now]
sw2325B-ms98-a-0111	B.192	550.333250	550.493250		that	[laughter-that]
sw2325B-ms98-a-0111	B.192	550.493250	550.633250		you	[laughter-you]
sw2325B-ms98-a-0111	B.192	550.633250	551.139750		mention	[laughter-mention]
sw2325B-ms98-a-0111	B.192	551.139750	551.609125		it	[laughter-it]
sw2325B-ms98-a-0111	B.194	551.609125	551.713250		I	i
sw2325B-ms98-a-0111	B.194	551.713250	551.803250		was	was
sw2325B-ms98-a-0111	B.194	551.803250	551.893250		been	been
sw2325B-ms98-a-0111	B.194	551.893250	552.153250		meaning	meaning
sw2325B-ms98-a-0111	B.194	552.153250	552.243250		to	to
sw2325B-ms98-a-0111	B.194	552.243250	552.473250		do	do
sw2325B-ms98-a-0111	B.194	552.473250	552.793250		that	that
sw2325B-ms98-a-0111	B.194	552.793250	552.873250		you	you
sw2325B-ms98-a-0111	B.194	552.873250	553.144500		know	know
sw2325B-ms98-a-0111	B.196	553.144500	553.310375		[silence]	[silence]
sw2325B-ms98-a-0112	B.196	553.310375	553.654875		[silence]	[silence]
sw2325B-ms98-a-0112	B.196	553.654875	553.780375		Because	because_1
sw2325B-ms98-a-0112	B.196	553.780375	553.980375		some	some
sw2325B-ms98-a-0112	B.196	553.980375	554.070375		of	of
sw2325B-ms98-a-0112	B.196	554.070375	554.130375		the	the
sw2325B-ms98-a-0112	B.196	554.130375	554.570375		churches	churches
sw2325B-ms98-a-0112	B.196	554.570375	554.770375		do	do
sw2325B-ms98-a-0112	B.196	554.770375	555.070375		have	have
sw2325B-ms98-a-0112	B.196	555.070375	555.290375		them	them
sw2325B-ms98-a-0112	B.196	555.290375	555.740375	<SUB>	uh	um
sw2325B-ms98-a-0112	B.196	555.740375	555.840375		you	you
sw2325B-ms98-a-0112	B.196	555.840375	556.020375		know	know
sw2325B-ms98-a-0112	B.196	556.020375	556.180375		for	for
sw2325B-ms98-a-0112	B.196	556.180375	556.370375		like	like
sw2325B-ms98-a-0112	B.196	556.370375	556.692500		six	six
sw2325B-ms98-a-0112	B.196	556.692500	556.990375		dollars	dollars
sw2325B-ms98-a-0112	B.196	556.990375	557.130375		per	per
sw2325B-ms98-a-0112	B.196	557.130375	557.680375		child	child
sw2325B-ms98-a-0112	B.198	557.680375	557.980375		and	and
sw2325B-ms98-a-0112	B.198	557.980375	558.210375		that's	that's
sw2325B-ms98-a-0112	B.198	558.210375	558.420375		not	not
sw2325B-ms98-a-0112	B.198	558.420375	558.590375		that	that
sw2325B-ms98-a-0112	B.198	558.590375	558.760375		big	big
sw2325B-ms98-a-0112	B.198	558.760375	558.820375		a	a
sw2325B-ms98-a-0112	B.198	558.820375	559.230375		deal	deal
sw2325B-ms98-a-0112	B.198	559.230375	559.356375		you	you
sw2325B-ms98-a-0112	B.198	559.356375	559.639875		know	know
sw2325B-ms98-a-0112	B.200	559.639875	559.826500		For	for
sw2325B-ms98-a-0112	B.200	559.826500	559.885000		a	a
sw2325B-ms98-a-0112	B.200	559.885000	560.150375		couple	couple
sw2325B-ms98-a-0112	B.200	560.150375	560.475875		times	times
sw2325B-ms98-a-0112	B.202	560.475875	560.641500		[silence]	[silence]
sw2325B-ms98-a-0113	B.202	560.641500	567.843000		[silence]	[silence]
sw2325B-ms98-a-0114	B.202	567.843000	567.997375		[silence]	[silence]
sw2325B-ms98-a-0114	B.202	567.997375	568.586625		Yeah	yeah
sw2325B-ms98-a-0114	B.204	568.586625	568.936750		[silence]	[silence]
sw2325B-ms98-a-0115	B.204	568.936750	571.008750		[silence]	[silence]
sw2325B-ms98-a-0116	B.204	571.008750	571.384250		[silence]	[silence]
sw2325B-ms98-a-0116	B.204	571.384250	571.936750		Yeah	yeah
sw2325B-ms98-a-0116	B.206	571.936750	572.041750		[silence]	[silence]
sw2325B-ms98-a-0117	B.206	572.041750	573.732750		[silence]	[silence]
sw2325B-ms98-a-0117	B.206	573.732750	573.856750	<SUB>	That's	yep
sw2325B-ms98-a-0117	B.206	573.856750	573.870500		[silence]	[silence]
sw2325B-ms98-a-0118	B.206	573.870500	573.912375		[silence]	[silence]
sw2325B-ms98-a-0118	B.206	573.912375	574.220500		sounds	sounds
sw2325B-ms98-a-0118	B.206	574.220500	574.647000		good	good
sw2325B-ms98-a-0118	@@B.208	574.647000	575.100375	<DEL>	---	yeah
sw2325B-ms98-a-0118	@@B.208	575.100375	575.369875		[silence]	[silence]
sw2325B-ms98-a-0119	@@B.208	575.369875	576.961500		[silence]	[silence]
sw2325B-ms98-a-0120	@@B.208	576.961500	577.161500		[silence]	[silence]
sw2325B-ms98-a-0120	@@B.208	577.161500	577.452000		Well	well
sw2325B-ms98-a-0120	@@B.208	577.452000	578.021125		thanks	thanks
sw2325B-ms98-a-0120	B.210	578.021125	578.315000		[silence]	[silence]
sw2325B-ms98-a-0120	B.210	578.315000	578.491500		Did	did
sw2325B-ms98-a-0120	B.210	578.491500	578.601500		we	we
sw2325B-ms98-a-0120	B.210	578.601500	578.931500		cover	cover
sw2325B-ms98-a-0120	B.210	578.931500	579.381500		everything	everything
sw2325B-ms98-a-0120	B.210	579.381500	579.507375		we	we
sw2325B-ms98-a-0120	B.210	579.507375	579.678500		need	need
sw2325B-ms98-a-0120	B.210	579.678500	579.678500	<INS>	to	---
sw2325B-ms98-a-0120	B.212	579.678500	579.690000		[silence]	[silence]
sw2325B-ms98-a-0121	B.212	579.690000	579.707375		[silence]	[silence]
sw2325B-ms98-a-0121	B.212	579.707375	579.886875		[laughter]	[laughter]
sw2325B-ms98-a-0121	B.212	579.886875	580.231750		[silence]	[silence]
sw2325B-ms98-a-0122	B.212	580.231750	580.502875		[silence]	[silence]
sw2325B-ms98-a-0122	B.212	580.502875	581.050375		Okay	okay
sw2325B-ms98-a-0122	B.214	581.050375	581.657125		[silence]	[silence]
sw2325B-ms98-a-0123	B.214	581.657125	582.206000		[silence]	[silence]
sw2325B-ms98-a-0123	B.214	582.206000	582.742250		Okay	okay
sw2325B-ms98-a-0123	B.216	582.742250	583.720625		[silence]	[silence]
sw2325B-ms98-a-0124	B.216	583.720625	584.260625		[silence]	[silence]
sw2325B-ms98-a-0124	B.216	584.260625	584.922250		Yeah	yeah
sw2325B-ms98-a-0124	B.216	584.922250	585.091750		[silence]	[silence]
sw2325B-ms98-a-0124	B.216	585.091750	585.519750		Okay	okay
sw2325B-ms98-a-0124	B.216	585.519750	585.680625		Well	well
sw2325B-ms98-a-0124	B.216	585.680625	585.930625		great	great
sw2325B-ms98-a-0124	B.216	585.930625	586.060625		Well	well
sw2325B-ms98-a-0124	B.216	586.060625	586.360625		thanks	thanks
sw2325B-ms98-a-0124	B.216	586.360625	586.460625		a	a
sw2325B-ms98-a-0124	B.216	586.460625	586.730625		lot	lot
sw2325B-ms98-a-0124	B.216	586.730625	586.790625		You	you
sw2325B-ms98-a-0124	B.216	586.790625	586.880625		have	have
sw2325B-ms98-a-0124	B.216	586.880625	586.963500		a	a
sw2325B-ms98-a-0124	B.216	586.963500	587.118000		good	good
sw2325B-ms98-a-0124	B.216	587.118000	587.521500		day	day
sw2325B-ms98-a-0124	B.218	587.521500	587.764750		[silence]	[silence]
sw2325B-ms98-a-0124	B.218	587.764750	588.203375		Bye-bye	bye-bye
sw2325B-ms98-a-0124	B.218	588.203375	588.572000		[silence]	[silence]
sw2325B-ms98-a-0125	B.218	588.572000	591.011750		[silence]	[silence]
sw2325B-ms98-a-0125	B.218	591.011750	591.790500		[noise]	[noise]
sw2325B-ms98-a-0125	B.218	591.790500	592.791875		[silence]	[silence]
