sw2397B-ms98-a-0001	B.2	0.000000	0.958750		[silence]	[silence]
sw2397B-ms98-a-0001	B.2	0.958750	1.455625		[laughter]	[laughter]
sw2397B-ms98-a-0001	B.2	1.455625	1.929750		[silence]	[silence]
sw2397B-ms98-a-0002	B.2	1.929750	11.413000		[silence]	[silence]
sw2397B-ms98-a-0003	B.2	11.413000	11.933000		[silence]	[silence]
sw2397B-ms98-a-0003	B.2	11.933000	12.123000		Oh	oh
sw2397B-ms98-a-0003	B.2	12.123000	12.560875		really	really
sw2397B-ms98-a-0003	B.4	12.560875	13.231375		[silence]	[silence]
sw2397B-ms98-a-0003	B.4	13.231375	13.413000		What	what
sw2397B-ms98-a-0003	B.4	13.413000	13.703000		kinds	kinds
sw2397B-ms98-a-0003	B.4	13.703000	13.793000		of	of
sw2397B-ms98-a-0003	B.4	13.793000	14.083000		things	things
sw2397B-ms98-a-0003	B.4	14.083000	14.203000		have	have
sw2397B-ms98-a-0003	B.4	14.203000	14.323000		you	you
sw2397B-ms98-a-0003	B.4	14.323000	14.736000		done	done
sw2397B-ms98-a-0003	B.6	14.736000	14.901125		[silence]	[silence]
sw2397B-ms98-a-0004	B.6	14.901125	16.594500		[silence]	[silence]
sw2397B-ms98-a-0005	B.6	16.594500	17.223625		[silence]	[silence]
sw2397B-ms98-a-0005	B.6	17.223625	17.703500	<SUB>	Uh-huh	aha
sw2397B-ms98-a-0005	B.8	17.703500	18.609375		[laughter]	[laughter]
sw2397B-ms98-a-0005	B.8	18.609375	19.083500		[silence]	[silence]
sw2397B-ms98-a-0006	B.8	19.083500	28.773625		[silence]	[silence]
sw2397B-ms98-a-0007	B.8	28.773625	29.131875		[silence]	[silence]
sw2397B-ms98-a-0007	B.8	29.131875	29.223625		Do	do
sw2397B-ms98-a-0007	B.8	29.223625	29.383625		you	you
sw2397B-ms98-a-0007	B.8	29.383625	29.573625		ever	ever
sw2397B-ms98-a-0007	B.8	29.573625	29.923625		keep	keep
sw2397B-ms98-a-0007	B.8	29.923625	30.213625		any	any
sw2397B-ms98-a-0007	B.8	30.213625	30.353625		of	of
sw2397B-ms98-a-0007	B.8	30.353625	30.633625		your	your
sw2397B-ms98-a-0007	B.8	30.633625	31.173625		stuff	stuff
sw2397B-ms98-a-0007	B.10	31.173625	31.756500		[silence]	[silence]
sw2397B-ms98-a-0008	B.10	31.756500	32.453750		[silence]	[silence]
sw2397B-ms98-a-0008	B.10	32.453750	33.753625		[laughter]	[laughter]
sw2397B-ms98-a-0008	B.10	33.753625	33.929875		I	i
sw2397B-ms98-a-0008	B.10	33.929875	34.248750		do	do
sw2397B-ms98-a-0008	B.10	34.248750	34.816500		crochet	crochet
sw2397B-ms98-a-0008	B.10	34.816500	34.936500		and	and
sw2397B-ms98-a-0008	B.10	34.936500	34.996500		a	a
sw2397B-ms98-a-0008	B.10	34.996500	35.451250		lot	lot
sw2397B-ms98-a-0008	B.10	35.451250	35.865250		of	of
sw2397B-ms98-a-0008	B.10	35.865250	36.115000		uh	uh
sw2397B-ms98-a-0008	B.10	36.115000	36.759000		[silence]	[silence]
sw2397B-ms98-a-0008	B.10	36.759000	37.176500		things	things
sw2397B-ms98-a-0008	B.10	37.176500	37.436500		like	like
sw2397B-ms98-a-0008	B.10	37.436500	37.656500		that	that
sw2397B-ms98-a-0008	B.10	37.656500	37.776500		and	and
sw2397B-ms98-a-0008	B.10	37.776500	37.826500		I	i
sw2397B-ms98-a-0008	B.10	37.826500	38.046500		have	have
sw2397B-ms98-a-0008	B.10	38.046500	38.276500		very	very
sw2397B-ms98-a-0008	B.10	38.276500	38.576500		little	little
sw2397B-ms98-a-0008	B.10	38.576500	38.666500		of	of
sw2397B-ms98-a-0008	B.10	38.666500	38.916500		my	my
sw2397B-ms98-a-0008	B.10	38.916500	39.096500		own	own
sw2397B-ms98-a-0008	B.10	39.096500	39.555375		stuff	stuff
sw2397B-ms98-a-0008	B.10	39.555375	39.778500		and	and
sw2397B-ms98-a-0008	B.10	39.778500	39.872625	<DEL>	---	and
sw2397B-ms98-a-0008	B.10	39.872625	40.031375	<DEL>	---	it
sw2397B-ms98-a-0008	B.10	40.031375	40.127875		[silence]	[silence]
sw2397B-ms98-a-0008	B.10	40.127875	40.346500		it's	it's
sw2397B-ms98-a-0008	B.10	40.346500	40.566500		kind	kind
sw2397B-ms98-a-0008	B.10	40.566500	40.636500		of	of
sw2397B-ms98-a-0008	B.10	40.636500	41.246500		embarrassing	embarrassing
sw2397B-ms98-a-0008	B.10	41.246500	41.426500		People	people
sw2397B-ms98-a-0008	B.10	41.426500	41.772750		say	say
sw2397B-ms98-a-0008	B.10	41.772750	41.908375		let	let
sw2397B-ms98-a-0008	B.10	41.908375	42.066500		me	me
sw2397B-ms98-a-0008	B.10	42.066500	42.206500		see	see
sw2397B-ms98-a-0008	B.10	42.206500	42.606500		some	some
sw2397B-ms98-a-0008	B.10	42.606500	42.686500		of	of
sw2397B-ms98-a-0008	B.10	42.686500	42.776500		your	your
sw2397B-ms98-a-0008	B.10	42.776500	43.088375		work	work
sw2397B-ms98-a-0008	B.12	43.088375	43.423250		[silence]	[silence]
sw2397B-ms98-a-0009	B.12	43.423250	43.703250		[silence]	[silence]
sw2397B-ms98-a-0009	B.12	43.703250	44.033250		Oh	oh
sw2397B-ms98-a-0009	B.12	44.033250	44.303250		well	well
sw2397B-ms98-a-0009	B.12	44.303250	44.453250		can	can
sw2397B-ms98-a-0009	B.12	44.453250	44.543250		you	you
sw2397B-ms98-a-0009	B.12	44.543250	44.673250	<SUB>	do	go
sw2397B-ms98-a-0009	B.12	44.673250	44.823250	<SUB>	it	to
sw2397B-ms98-a-0009	B.14	44.823250	44.943250	<DEL>	---	so
sw2397B-ms98-a-0009	B.14	44.943250	45.103250	<DEL>	---	and
sw2397B-ms98-a-0009	B.14	45.103250	45.363250	<DEL>	---	so's
sw2397B-ms98-a-0009	B.14	45.363250	46.638750	<DEL>	---	[laughter-house]
sw2397B-ms98-a-0009	B.14	46.638750	47.520250		[silence]	[silence]
sw2397B-ms98-a-0010	B.14	47.520250	48.266375		[silence]	[silence]
sw2397B-ms98-a-0010	B.14	48.266375	48.743625	<DEL>	---	yes
sw2397B-ms98-a-0010	B.14	48.743625	49.178125		[silence]	[silence]
sw2397B-ms98-a-0011	B.14	49.178125	54.259500		[silence]	[silence]
sw2397B-ms98-a-0012	B.14	54.259500	54.732875		[silence]	[silence]
sw2397B-ms98-a-0012	B.14	54.732875	55.224250		Ooh	ooh
sw2397B-ms98-a-0012	B.16	55.224250	55.761500		[silence]	[silence]
sw2397B-ms98-a-0013	B.16	55.761500	62.190000		[silence]	[silence]
sw2397B-ms98-a-0014	B.16	62.190000	62.511250		[silence]	[silence]
sw2397B-ms98-a-0014	B.16	62.511250	62.738750		That	that
sw2397B-ms98-a-0014	B.16	62.738750	62.960000		that	that
sw2397B-ms98-a-0014	B.16	62.960000	63.080000		would	would
sw2397B-ms98-a-0014	B.16	63.080000	63.270500		be	be
sw2397B-ms98-a-0014	B.16	63.270500	63.398500		[silence]	[silence]
sw2397B-ms98-a-0014	B.16	63.398500	63.848125		definitely	definitely
sw2397B-ms98-a-0014	B.16	63.848125	64.170000		something	something
sw2397B-ms98-a-0014	B.16	64.170000	64.310000		you'd	you'd
sw2397B-ms98-a-0014	B.16	64.310000	64.520000		want	want
sw2397B-ms98-a-0014	B.16	64.520000	64.580000		to	to
sw2397B-ms98-a-0014	B.16	64.580000	64.819750		keep	keep
sw2397B-ms98-a-0014	B.18	64.819750	65.253000		[silence]	[silence]
sw2397B-ms98-a-0014	B.18	65.253000	65.513875		Was	was
sw2397B-ms98-a-0014	B.18	65.513875	65.834000		[silence]	[silence]
sw2397B-ms98-a-0014	B.18	65.834000	66.070000		was	was
sw2397B-ms98-a-0014	B.18	66.070000	66.210000		the	the
sw2397B-ms98-a-0014	B.18	66.210000	66.450000		whole	whole
sw2397B-ms98-a-0014	B.18	66.450000	66.900000		face	face
sw2397B-ms98-a-0014	B.18	66.900000	67.180000		done	done
sw2397B-ms98-a-0014	B.18	67.180000	67.390000		or	or
sw2397B-ms98-a-0014	B.18	67.390000	67.670000		just	just
sw2397B-ms98-a-0014	B.18	67.670000	67.760000		the	the
sw2397B-ms98-a-0014	B.18	67.760000	68.580500		numbers	numbers
sw2397B-ms98-a-0014	B.18	68.580500	68.731250		[silence]	[silence]
sw2397B-ms98-a-0014	B.18	68.731250	69.126625	<DEL>	---	uh
sw2397B-ms98-a-0014	B.18	69.126625	69.600000		and	and
sw2397B-ms98-a-0014	B.18	69.600000	69.950000		and	and
sw2397B-ms98-a-0014	B.18	69.950000	70.180000		[silence]	[silence]
sw2397B-ms98-a-0014	B.18	70.180000	70.430000		like	like
sw2397B-ms98-a-0014	B.18	70.430000	70.777500		minute	minute
sw2397B-ms98-a-0014	B.18	70.777500	71.196750		[silence]	[silence]
sw2397B-ms98-a-0015	B.18	71.196750	71.545125		[silence]	[silence]
sw2397B-ms98-a-0015	B.18	71.545125	72.227000		marks	marks
sw2397B-ms98-a-0015	B.20	72.227000	72.331750		[silence]	[silence]
sw2397B-ms98-a-0016	B.20	72.331750	79.473250		[silence]	[silence]
sw2397B-ms98-a-0017	B.20	79.473250	80.023250		[silence]	[silence]
sw2397B-ms98-a-0017	B.20	80.023250	80.593250		Oh	oh
sw2397B-ms98-a-0017	B.22	80.593250	81.202375		[silence]	[silence]
sw2397B-ms98-a-0018	B.22	81.202375	91.485000		[silence]	[silence]
sw2397B-ms98-a-0019	B.22	91.485000	91.631375		[silence]	[silence]
sw2397B-ms98-a-0019	B.22	91.631375	91.803375		I	i
sw2397B-ms98-a-0019	B.22	91.803375	92.036500		did	did
sw2397B-ms98-a-0019	B.22	92.036500	92.235000		some	some
sw2397B-ms98-a-0019	B.22	92.235000	92.829000		needlepoint	needlepoint
sw2397B-ms98-a-0019	B.22	92.829000	92.960750		[silence]	[silence]
sw2397B-ms98-a-0019	B.22	92.960750	93.325000		years	years
sw2397B-ms98-a-0019	B.22	93.325000	93.917000		ago	ago
sw2397B-ms98-a-0019	B.22	93.917000	94.105000		and	and
sw2397B-ms98-a-0019	B.22	94.105000	94.255000		then	then
sw2397B-ms98-a-0019	B.22	94.255000	94.345000		I	i
sw2397B-ms98-a-0019	B.22	94.345000	94.535000		got	got
sw2397B-ms98-a-0019	B.22	94.535000	95.162625		into	into
sw2397B-ms98-a-0019	B.22	95.162625	95.317250		the	the
sw2397B-ms98-a-0019	B.22	95.317250	96.099125		Bargello	Bargello
sw2397B-ms98-a-0019	B.24	96.099125	96.838000		[silence]	[silence]
sw2397B-ms98-a-0020	B.24	96.838000	97.457375		[silence]	[silence]
sw2397B-ms98-a-0020	B.24	97.457375	97.685625		Well	well
sw2397B-ms98-a-0020	B.24	97.685625	97.928000		it's	it's
sw2397B-ms98-a-0020	B.24	97.928000	98.048000		an	an
sw2397B-ms98-a-0020	B.24	98.048000	98.942375		Italian	Italian
sw2397B-ms98-a-0020	B.24	98.942375	99.511875		um	um
sw2397B-ms98-a-0020	B.24	99.511875	100.239125		[silence]	[silence]
sw2397B-ms98-a-0021	B.24	100.239125	100.601125		[silence]	[silence]
sw2397B-ms98-a-0021	B.24	100.601125	101.476125		needlework	needlework
sw2397B-ms98-a-0021	B.24	101.476125	102.088250		using	using
sw2397B-ms98-a-0021	B.24	102.088250	102.227625		[silence]	[silence]
sw2397B-ms98-a-0021	B.24	102.227625	102.749125		using	using
sw2397B-ms98-a-0021	B.24	102.749125	103.129125		the	the
sw2397B-ms98-a-0021	B.24	103.129125	103.371125		uh	uh
sw2397B-ms98-a-0021	B.24	103.371125	103.883375		[silence]	[silence]
sw2397B-ms98-a-0021	B.24	103.883375	104.019125		I	i
sw2397B-ms98-a-0021	B.24	104.019125	104.349125		started	started
sw2397B-ms98-a-0021	B.24	104.349125	104.489125		to	to
sw2397B-ms98-a-0021	B.24	104.489125	104.579125		say	say
sw2397B-ms98-a-0021	B.24	104.579125	104.639125		the	the
sw2397B-ms98-a-0021	B.24	104.639125	105.159125		canvas	canvas
sw2397B-ms98-a-0021	B.24	105.159125	105.371125		but	but
sw2397B-ms98-a-0021	B.24	105.371125	105.868375		[silence]	[silence]
sw2397B-ms98-a-0021	B.24	105.868375	106.169125		the	the
sw2397B-ms98-a-0021	B.24	106.169125	107.090125		[silence]	[silence]
sw2397B-ms98-a-0022	B.24	107.090125	107.517125		[silence]	[silence]
sw2397B-ms98-a-0022	B.24	107.517125	108.101000		uh	uh
sw2397B-ms98-a-0022	B.24	108.101000	108.233000		[silence]	[silence]
sw2397B-ms98-a-0022	B.24	108.233000	108.516750	<SUB>	huh	hum
sw2397B-ms98-a-0022	B.24	108.516750	108.624625	<DEL>	---	the
sw2397B-ms98-a-0022	B.24	108.624625	109.012625		[silence]	[silence]
sw2397B-ms98-a-0023	B.24	109.012625	109.461500		[silence]	[silence]
sw2397B-ms98-a-0023	B.24	109.461500	109.614625		what	what
sw2397B-ms98-a-0023	B.24	109.614625	109.772625	<DEL>	---	what
sw2397B-ms98-a-0023	B.24	109.772625	109.952625		kind	kind
sw2397B-ms98-a-0023	B.24	109.952625	110.012625		of	of
sw2397B-ms98-a-0023	B.24	110.012625	110.352625		cloth	cloth
sw2397B-ms98-a-0023	B.24	110.352625	110.652625		uses	uses
sw2397B-ms98-a-0023	B.24	110.652625	110.912875		that	that
sw2397B-ms98-a-0023	B.24	110.912875	111.300750		[silence]	[silence]
sw2397B-ms98-a-0023	B.24	111.300750	111.452625		I	i
sw2397B-ms98-a-0023	B.24	111.452625	111.682625		I've	i've
sw2397B-ms98-a-0023	B.24	111.682625	111.912625		just	just
sw2397B-ms98-a-0023	B.24	111.912625	112.172625		gone	gone
sw2397B-ms98-a-0023	B.24	112.172625	112.952625		blank	blank
sw2397B-ms98-a-0023	B.24	112.952625	113.302625		But	but
sw2397B-ms98-a-0023	B.24	113.302625	113.602625		it's	it's
sw2397B-ms98-a-0023	B.24	113.602625	113.912625		used	used
sw2397B-ms98-a-0023	B.24	113.912625	114.119375	<DEL>	---	wi[th]-
sw2397B-ms98-a-0023	B.24	114.119375	114.258750	<DEL>	---	uh
sw2397B-ms98-a-0023	B.24	114.258750	114.451500		with	with
sw2397B-ms98-a-0023	B.24	114.451500	115.082250		yarn	yarn
sw2397B-ms98-a-0023	B.24	115.082250	115.442625		and	and
sw2397B-ms98-a-0023	B.24	115.442625	115.569875		it	it
sw2397B-ms98-a-0023	B.24	115.569875	115.946500		[silence]	[silence]
sw2397B-ms98-a-0023	B.24	115.946500	116.312625		usually	usually
sw2397B-ms98-a-0023	B.24	116.312625	116.811875		takes	takes
sw2397B-ms98-a-0023	B.24	116.811875	117.405125		long	long
sw2397B-ms98-a-0023	B.24	117.405125	117.672500		[silence]	[silence]
sw2397B-ms98-a-0023	B.24	117.672500	118.302625		stitches	stitches
sw2397B-ms98-a-0023	B.24	118.302625	118.542625		over	over
sw2397B-ms98-a-0023	B.24	118.542625	118.812625		two	two
sw2397B-ms98-a-0023	B.24	118.812625	118.962625		or	or
sw2397B-ms98-a-0023	B.24	118.962625	119.388625		three	three
sw2397B-ms98-a-0023	B.24	119.388625	119.912625		openings	openings
sw2397B-ms98-a-0023	B.24	119.912625	120.052625		in	in
sw2397B-ms98-a-0023	B.24	120.052625	120.198500		the	the
sw2397B-ms98-a-0023	B.24	120.198500	120.785625		cloth	cloth
sw2397B-ms98-a-0023	B.26	120.785625	121.022500		[silence]	[silence]
sw2397B-ms98-a-0024	B.26	121.022500	121.387000		[silence]	[silence]
sw2397B-ms98-a-0024	B.26	121.387000	121.692875		and	and
sw2397B-ms98-a-0024	B.26	121.692875	121.853875		[silence]	[silence]
sw2397B-ms98-a-0024	B.26	121.853875	122.052500		you	you
sw2397B-ms98-a-0024	B.26	122.052500	122.413125		weave	weave
sw2397B-ms98-a-0024	B.26	122.413125	122.852500		intricate	intricate
sw2397B-ms98-a-0024	B.26	122.852500	123.462500		patterns	patterns
sw2397B-ms98-a-0024	B.26	123.462500	123.632500		and	and
sw2397B-ms98-a-0024	B.26	123.632500	123.842500		use	use
sw2397B-ms98-a-0024	B.26	123.842500	124.262500		different	different
sw2397B-ms98-a-0024	B.26	124.262500	124.772500		colors	colors
sw2397B-ms98-a-0024	B.26	124.772500	124.923625		Like	like
sw2397B-ms98-a-0024	B.26	124.923625	125.208750		[silence]	[silence]
sw2397B-ms98-a-0024	B.26	125.208750	125.250250		it	it
sw2397B-ms98-a-0024	B.26	125.250250	125.352500		could	could
sw2397B-ms98-a-0024	B.26	125.352500	125.512500		be	be
sw2397B-ms98-a-0024	B.26	125.512500	125.552500		a	a
sw2397B-ms98-a-0024	B.26	125.552500	125.952500		flame	flame
sw2397B-ms98-a-0024	B.26	125.952500	126.352500		stitch	stitch
sw2397B-ms98-a-0024	B.26	126.352500	126.542500		where	where
sw2397B-ms98-a-0024	B.26	126.542500	126.792500		so	so
sw2397B-ms98-a-0024	B.26	126.792500	127.062500		rather	rather
sw2397B-ms98-a-0024	B.26	127.062500	127.282500		than	than
sw2397B-ms98-a-0024	B.26	127.282500	127.682500		drawing	drawing
sw2397B-ms98-a-0024	B.26	127.682500	127.742500		a	a
sw2397B-ms98-a-0024	B.26	127.742500	128.298625		picture	picture
sw2397B-ms98-a-0024	B.26	128.298625	128.682750		[silence]	[silence]
sw2397B-ms98-a-0024	B.26	128.682750	128.812500		you're	you're
sw2397B-ms98-a-0024	B.26	128.812500	129.232500		making	making
sw2397B-ms98-a-0024	B.26	129.232500	129.292500		a	a
sw2397B-ms98-a-0024	B.26	129.292500	129.842500		design	design
sw2397B-ms98-a-0024	B.26	129.842500	130.042500		like	like
sw2397B-ms98-a-0024	B.26	130.042500	130.122500		a	a
sw2397B-ms98-a-0024	B.26	130.122500	130.981750		geometric	geometric
sw2397B-ms98-a-0024	B.26	130.981750	131.385375		or	or
sw2397B-ms98-a-0024	B.26	131.385375	131.656375		[silence]	[silence]
sw2397B-ms98-a-0025	B.26	131.656375	131.876375		[silence]	[silence]
sw2397B-ms98-a-0025	B.26	131.876375	132.521500		whatever	whatever
sw2397B-ms98-a-0025	B.26	132.521500	133.238000		and	and
sw2397B-ms98-a-0025	B.26	133.238000	133.494125		[silence]	[silence]
sw2397B-ms98-a-0025	B.26	133.494125	133.696375		it	it
sw2397B-ms98-a-0025	B.26	133.696375	133.916375		was	was
sw2397B-ms98-a-0025	B.26	133.916375	134.216375		used	used
sw2397B-ms98-a-0025	B.26	134.216375	134.549500		quite	quite
sw2397B-ms98-a-0025	B.26	134.549500	135.036375		often	often
sw2397B-ms98-a-0025	B.26	135.036375	135.196375		in	in
sw2397B-ms98-a-0025	B.26	135.196375	135.256375		the	the
sw2397B-ms98-a-0025	B.26	135.256375	135.826375		colonial	colonial
sw2397B-ms98-a-0025	B.26	135.826375	136.386375		times	times
sw2397B-ms98-a-0025	B.26	136.386375	136.821625		to	to
sw2397B-ms98-a-0025	B.26	136.821625	137.088750		[silence]	[silence]
sw2397B-ms98-a-0026	B.26	137.088750	137.518750		[silence]	[silence]
sw2397B-ms98-a-0026	B.26	137.518750	138.013125		uh	uh
sw2397B-ms98-a-0026	B.26	138.013125	138.548000		[silence]	[silence]
sw2397B-ms98-a-0026	B.26	138.548000	138.893000		uh	uh
sw2397B-ms98-a-0026	B.26	138.893000	139.168750		to	to
sw2397B-ms98-a-0026	B.26	139.168750	139.648750		upholster	upholster
sw2397B-ms98-a-0026	B.26	139.648750	140.362125		chairs	chairs
sw2397B-ms98-a-0026	B.26	140.362125	140.508750		and	and
sw2397B-ms98-a-0026	B.26	140.508750	140.698750		so	so
sw2397B-ms98-a-0026	B.26	140.698750	141.098750		forth	forth
sw2397B-ms98-a-0026	B.26	141.098750	141.238000		as	as
sw2397B-ms98-a-0026	B.26	141.238000	141.578500		well	well
sw2397B-ms98-a-0026	B.26	141.578500	141.868500		as	as
sw2397B-ms98-a-0026	B.26	141.868500	142.015000		the	the
sw2397B-ms98-a-0026	B.26	142.015000	142.536875		crewel	crewel
sw2397B-ms98-a-0026	B.26	142.536875	143.034125		[silence]	[silence]
sw2397B-ms98-a-0026	B.26	143.034125	143.558625		um	um
sw2397B-ms98-a-0026	B.26	143.558625	143.856250		[silence]	[silence]
sw2397B-ms98-a-0026	B.26	143.856250	144.388750		embroidery	embroidery
sw2397B-ms98-a-0026	B.26	144.388750	144.628750		work	work
sw2397B-ms98-a-0026	B.26	144.628750	144.718750		that	that
sw2397B-ms98-a-0026	B.26	144.718750	144.908750		was	was
sw2397B-ms98-a-0026	B.26	144.908750	145.068750		done	done
sw2397B-ms98-a-0026	B.26	145.068750	145.148750		on	on
sw2397B-ms98-a-0026	B.26	145.148750	145.410875		them	them
sw2397B-ms98-a-0026	B.28	145.410875	145.916625		[silence]	[silence]
sw2397B-ms98-a-0027	B.28	145.916625	148.633500		[silence]	[silence]
sw2397B-ms98-a-0028	B.28	148.633500	149.193375		[silence]	[silence]
sw2397B-ms98-a-0028	B.28	149.193375	149.393500		What	what
sw2397B-ms98-a-0028	B.28	149.393500	149.657875		I	i
sw2397B-ms98-a-0028	B.28	149.657875	150.129500		did	did
sw2397B-ms98-a-0028	B.28	150.129500	150.329125		[silence]	[silence]
sw2397B-ms98-a-0028	B.28	150.329125	150.496250		when	when
sw2397B-ms98-a-0028	B.28	150.496250	150.597000		[silence]	[silence]
sw2397B-ms98-a-0028	B.28	150.597000	150.741875	<DEL>	---	when
sw2397B-ms98-a-0028	B.28	150.741875	150.813500		I	i
sw2397B-ms98-a-0028	B.28	150.813500	150.903500		was	was
sw2397B-ms98-a-0028	B.28	150.903500	151.103500		doing	doing
sw2397B-ms98-a-0028	B.28	151.103500	151.283500		that	that
sw2397B-ms98-a-0028	B.28	151.283500	151.463500		was	was
sw2397B-ms98-a-0028	B.28	151.463500	151.939250		mostly	mostly
sw2397B-ms98-a-0028	B.28	151.939250	152.500500		[silence]	[silence]
sw2397B-ms98-a-0028	B.28	152.500500	153.050500		pillows	pillows
sw2397B-ms98-a-0028	B.28	153.050500	153.414500		[laughter]	[laughter]
sw2397B-ms98-a-0028	B.28	153.414500	153.663125		[silence]	[silence]
sw2397B-ms98-a-0028	B.28	153.663125	153.733500		you	you
sw2397B-ms98-a-0028	B.28	153.733500	153.923500		know	know
sw2397B-ms98-a-0028	B.28	153.923500	154.073500		for	for
sw2397B-ms98-a-0028	B.28	154.073500	154.503500		sofas	sofas
sw2397B-ms98-a-0028	B.28	154.503500	154.633500		and	and
sw2397B-ms98-a-0028	B.28	154.633500	154.793500		so	so
sw2397B-ms98-a-0028	B.28	154.793500	155.103500		forth	forth
sw2397B-ms98-a-0028	B.28	155.103500	155.362750		and	and
sw2397B-ms98-a-0028	B.28	155.362750	155.806125		[silence]	[silence]
sw2397B-ms98-a-0029	B.28	155.806125	156.246125		[silence]	[silence]
sw2397B-ms98-a-0029	B.28	156.246125	156.436125		I	i
sw2397B-ms98-a-0029	B.28	156.436125	156.806125		can't	can't
sw2397B-ms98-a-0029	B.28	156.806125	157.186125		find	find
sw2397B-ms98-a-0029	B.28	157.186125	157.436125		one	one
sw2397B-ms98-a-0029	B.28	157.436125	157.556125		that	that
sw2397B-ms98-a-0029	B.28	157.556125	157.696125		I've	i've
sw2397B-ms98-a-0029	B.28	157.696125	158.101125		done	done
sw2397B-ms98-a-0029	B.30	158.101125	158.387375		[silence]	[silence]
sw2397B-ms98-a-0029	B.30	158.387375	158.683250	<DEL>	---	it
sw2397B-ms98-a-0029	B.30	158.683250	158.956125		It's	it's
sw2397B-ms98-a-0029	B.30	158.956125	159.076125		one	one
sw2397B-ms98-a-0029	B.30	159.076125	159.176125		of	of
sw2397B-ms98-a-0029	B.30	159.176125	159.326125		those	those
sw2397B-ms98-a-0029	B.30	159.326125	159.616125		things	things
sw2397B-ms98-a-0029	B.30	159.616125	159.686125		I	i
sw2397B-ms98-a-0029	B.30	159.686125	159.986125	<SUB>	did-	didn't
sw2397B-ms98-a-0029	B.30	159.986125	160.076125		I	i
sw2397B-ms98-a-0029	B.30	160.076125	160.396125		didn't	didn't
sw2397B-ms98-a-0029	B.30	160.396125	160.536125		give	give
sw2397B-ms98-a-0029	B.30	160.536125	160.686125		them	them
sw2397B-ms98-a-0029	B.30	160.686125	161.096125		away	away
sw2397B-ms98-a-0029	B.30	161.096125	161.286125		but	but
sw2397B-ms98-a-0029	B.30	161.286125	161.356125		I	i
sw2397B-ms98-a-0029	B.30	161.356125	161.526125		didn't	didn't
sw2397B-ms98-a-0029	B.30	161.526125	161.596125		know	know
sw2397B-ms98-a-0029	B.30	161.596125	161.696125		if	if
sw2397B-ms98-a-0029	B.30	161.696125	161.836125		it's	it's
sw2397B-ms98-a-0029	B.30	161.836125	161.986125		been	been
sw2397B-ms98-a-0029	B.30	161.986125	162.116125		my	my
sw2397B-ms98-a-0029	B.30	162.116125	162.476125		color	color
sw2397B-ms98-a-0029	B.30	162.476125	162.966125		choice	choice
sw2397B-ms98-a-0029	B.30	162.966125	163.136125		or	or
sw2397B-ms98-a-0029	B.30	163.136125	163.696125		multiple	multiple
sw2397B-ms98-a-0029	B.30	163.696125	164.292125		moves	moves
sw2397B-ms98-a-0029	B.32	164.292125	164.449875		[silence]	[silence]
sw2397B-ms98-a-0030	B.32	164.449875	164.929750		[silence]	[silence]
sw2397B-ms98-a-0030	B.32	164.929750	165.254125		or	or
sw2397B-ms98-a-0030	B.32	165.254125	165.359500		[silence]	[silence]
sw2397B-ms98-a-0030	B.32	165.359500	165.579875		or	or
sw2397B-ms98-a-0030	B.32	165.579875	165.899875		what	what
sw2397B-ms98-a-0030	B.32	165.899875	166.059875		and	and
sw2397B-ms98-a-0030	B.32	166.059875	166.217750		it	it
sw2397B-ms98-a-0030	B.32	166.217750	166.319500		[silence]	[silence]
sw2397B-ms98-a-0030	B.32	166.319500	166.429875		I	i
sw2397B-ms98-a-0030	B.32	166.429875	166.599875		was	was
sw2397B-ms98-a-0030	B.32	166.599875	166.819875		so	so
sw2397B-ms98-a-0030	B.32	166.819875	167.149875		proud	proud
sw2397B-ms98-a-0030	B.32	167.149875	167.249875		of	of
sw2397B-ms98-a-0030	B.32	167.249875	167.399875		them	them
sw2397B-ms98-a-0030	B.32	167.399875	167.529875		when	when
sw2397B-ms98-a-0030	B.32	167.529875	167.669375		I	i
sw2397B-ms98-a-0030	B.32	167.669375	167.879875		got	got
sw2397B-ms98-a-0030	B.32	167.879875	168.049875		them	them
sw2397B-ms98-a-0030	B.32	168.049875	168.560000		finished	finished
sw2397B-ms98-a-0030	B.32	168.560000	168.762000		[silence]	[silence]
sw2397B-ms98-a-0031	B.32	168.762000	169.381375		[silence]	[silence]
sw2397B-ms98-a-0031	B.32	169.381375	169.462000		but	but
sw2397B-ms98-a-0031	B.32	169.462000	169.512000		I	i
sw2397B-ms98-a-0031	B.32	169.512000	169.662000		have	have
sw2397B-ms98-a-0031	B.32	169.662000	169.822000		no	no
sw2397B-ms98-a-0031	B.32	169.822000	170.132000		idea	idea
sw2397B-ms98-a-0031	B.32	170.132000	170.272000		where	where
sw2397B-ms98-a-0031	B.32	170.272000	170.452000		they	they
sw2397B-ms98-a-0031	B.32	170.452000	170.763375		are	are
sw2397B-ms98-a-0031	B.34	170.763375	171.336750		[silence]	[silence]
sw2397B-ms98-a-0032	B.34	171.336750	172.384000		[silence]	[silence]
sw2397B-ms98-a-0032	B.34	172.384000	173.130625		Bargello	bargello
sw2397B-ms98-a-0032	B.34	173.130625	173.439125		It's	it's
sw2397B-ms98-a-0032	B.34	173.439125	173.696750		B	B
sw2397B-ms98-a-0032	B.34	173.696750	173.866750		A	A
sw2397B-ms98-a-0032	B.34	173.866750	174.208625		R	R
sw2397B-ms98-a-0032	B.34	174.208625	174.743500		[silence]	[silence]
sw2397B-ms98-a-0032	B.34	174.743500	175.097000		G	G
sw2397B-ms98-a-0032	B.34	175.097000	175.438375		E	E
sw2397B-ms98-a-0032	B.34	175.438375	175.796125		double	double
sw2397B-ms98-a-0032	B.34	175.796125	176.016750		L	L
sw2397B-ms98-a-0032	B.34	176.016750	176.396750		O	O
sw2397B-ms98-a-0032	B.36	176.396750	176.877625		[silence]	[silence]
sw2397B-ms98-a-0033	B.36	176.877625	181.410000		[silence]	[silence]
sw2397B-ms98-a-0034	B.36	181.410000	181.921125		[silence]	[silence]
sw2397B-ms98-a-0034	B.36	181.921125	182.060000		I	i
sw2397B-ms98-a-0034	B.36	182.060000	182.890000		suspect	suspect
sw2397B-ms98-a-0034	B.36	182.890000	183.123500		you	you
sw2397B-ms98-a-0034	B.38	183.123500	183.362375		[silence]	[silence]
sw2397B-ms98-a-0034	B.38	183.362375	183.554500		I	i
sw2397B-ms98-a-0034	B.38	183.554500	184.240000		suspect	suspect
sw2397B-ms98-a-0034	B.38	184.240000	184.390000		you	you
sw2397B-ms98-a-0034	B.38	184.390000	184.980875		have	have
sw2397B-ms98-a-0034	B.40	184.980875	185.305125		[silence]	[silence]
sw2397B-ms98-a-0035	B.40	185.305125	205.660500		[silence]	[silence]
sw2397B-ms98-a-0036	B.40	205.660500	206.223250		[silence]	[silence]
sw2397B-ms98-a-0036	B.40	206.223250	206.427000		Me	me
sw2397B-ms98-a-0036	B.40	206.427000	206.834625		too	too
sw2397B-ms98-a-0036	B.42	206.834625	207.538125		[silence]	[silence]
sw2397B-ms98-a-0036	B.42	207.538125	208.082750	<SUB>	Yes	yeah
sw2397B-ms98-a-0036	B.42	208.082750	208.934750		[laughter]	[laughter]
sw2397B-ms98-a-0036	B.42	208.934750	209.210750		That's	that's
sw2397B-ms98-a-0036	B.42	209.210750	209.953750		interesting	interesting
sw2397B-ms98-a-0036	B.44	209.953750	210.326125		[silence]	[silence]
sw2397B-ms98-a-0037	B.44	210.326125	210.608875		[silence]	[silence]
sw2397B-ms98-a-0037	B.44	210.608875	210.816125		How	how
sw2397B-ms98-a-0037	B.44	210.816125	211.056125		did	did
sw2397B-ms98-a-0037	B.44	211.056125	211.236125		you	you
sw2397B-ms98-a-0037	B.44	211.236125	211.546125		know	know
sw2397B-ms98-a-0037	B.44	211.546125	211.646125		to	to
sw2397B-ms98-a-0037	B.44	211.646125	211.896125		choose	choose
sw2397B-ms98-a-0037	B.44	211.896125	212.136125		this	this
sw2397B-ms98-a-0037	B.44	212.136125	212.596125		subject	subject
sw2397B-ms98-a-0037	B.44	212.596125	213.083375		tonight	tonight
sw2397B-ms98-a-0037	B.44	213.083375	213.482625		[silence]	[silence]
sw2397B-ms98-a-0037	B.44	213.482625	213.746125		That's	that's
sw2397B-ms98-a-0037	B.44	213.746125	214.185250		funny	funny
sw2397B-ms98-a-0037	B.44	214.185250	214.933875		[silence]	[silence]
sw2397B-ms98-a-0037	B.44	214.933875	215.464625	<DEL>	---	uh
sw2397B-ms98-a-0037	B.44	215.464625	215.688125		[silence]	[silence]
sw2397B-ms98-a-0038	B.44	215.688125	216.044000		[silence]	[silence]
sw2397B-ms98-a-0038	B.44	216.044000	216.239250	<DEL>	---	uh
sw2397B-ms98-a-0038	B.44	216.239250	216.681000		What	what
sw2397B-ms98-a-0038	B.44	216.681000	216.918125		how	how
sw2397B-ms98-a-0038	B.44	216.918125	217.088750		did	did
sw2397B-ms98-a-0038	B.44	217.088750	217.358125		you	you
sw2397B-ms98-a-0038	B.44	217.358125	217.511375		what	what
sw2397B-ms98-a-0038	B.44	217.511375	218.042375		[silence]	[silence]
sw2397B-ms98-a-0038	B.44	218.042375	218.378125		kinds	kinds
sw2397B-ms98-a-0038	B.44	218.378125	218.468125		of	of
sw2397B-ms98-a-0038	B.44	218.468125	219.178125		decorations	decorations
sw2397B-ms98-a-0038	B.44	219.178125	219.328125		did	did
sw2397B-ms98-a-0038	B.44	219.328125	219.418125		you	you
sw2397B-ms98-a-0038	B.44	219.418125	219.688125		use	use
sw2397B-ms98-a-0038	B.44	219.688125	219.798125		with	with
sw2397B-ms98-a-0038	B.44	219.798125	219.868125		the	the
sw2397B-ms98-a-0038	B.44	219.868125	220.148500		bas-	bas[kets]-
sw2397B-ms98-a-0038	B.44	220.148500	220.468125		how	how
sw2397B-ms98-a-0038	B.44	220.468125	220.558125		were	were
sw2397B-ms98-a-0038	B.44	220.558125	220.738125		you	you
sw2397B-ms98-a-0038	B.44	220.738125	221.268125		decorating	decorating
sw2397B-ms98-a-0038	B.44	221.268125	221.368125		the	the
sw2397B-ms98-a-0038	B.44	221.368125	221.942125		baskets	baskets
sw2397B-ms98-a-0038	B.46	221.942125	223.285250		[silence]	[silence]
sw2397B-ms98-a-0039	B.46	223.285250	223.882750		[silence]	[silence]
sw2397B-ms98-a-0039	B.46	223.882750	224.489375		Um	um
sw2397B-ms98-a-0039	B.48	224.489375	225.164500		[silence]	[silence]
sw2397B-ms98-a-0040	B.48	225.164500	236.018500		[silence]	[silence]
sw2397B-ms98-a-0041	B.48	236.018500	236.909625		[silence]	[silence]
sw2397B-ms98-a-0041	B.48	236.909625	237.218500		Like	like
sw2397B-ms98-a-0041	B.48	237.218500	237.808500		fabric	fabric
sw2397B-ms98-a-0041	B.48	237.808500	238.038500		that's	that's
sw2397B-ms98-a-0041	B.48	238.038500	238.198500		been	been
sw2397B-ms98-a-0041	B.48	238.198500	238.868500		stiffened	stiffened
sw2397B-ms98-a-0041	B.50	238.868500	239.371500	<DEL>	---	in
sw2397B-ms98-a-0041	B.50	239.371500	239.863375		Yes	yes
sw2397B-ms98-a-0041	B.52	239.863375	240.563500		[silence]	[silence]
sw2397B-ms98-a-0042	B.52	240.563500	244.380625		[silence]	[silence]
sw2397B-ms98-a-0043	B.52	244.380625	244.807250		[silence]	[silence]
sw2397B-ms98-a-0043	B.52	244.807250	245.020625		I've	i've
sw2397B-ms98-a-0043	B.52	245.020625	245.400625		seen	seen
sw2397B-ms98-a-0043	B.52	245.400625	245.660625		some	some
sw2397B-ms98-a-0043	B.52	245.660625	245.800625		and	and
sw2397B-ms98-a-0043	B.52	245.800625	246.007250		there	there
sw2397B-ms98-a-0043	B.52	246.007250	246.131625		[silence]	[silence]
sw2397B-ms98-a-0043	B.52	246.131625	246.461000		there	there
sw2397B-ms98-a-0043	B.52	246.461000	246.607875		[silence]	[silence]
sw2397B-ms98-a-0043	B.52	246.607875	246.930125		they	they
sw2397B-ms98-a-0043	B.52	246.930125	247.039375		[silence]	[silence]
sw2397B-ms98-a-0043	B.52	247.039375	247.140625		I	i
sw2397B-ms98-a-0043	B.52	247.140625	247.690625		suspect	suspect
sw2397B-ms98-a-0043	B.52	247.690625	247.830625		they're	they're
sw2397B-ms98-a-0043	B.52	247.830625	248.260625		fairly	fairly
sw2397B-ms98-a-0043	B.52	248.260625	248.670625		simple	simple
sw2397B-ms98-a-0043	B.52	248.670625	248.990625		because	because
sw2397B-ms98-a-0043	B.52	248.990625	249.090625		the	the
sw2397B-ms98-a-0043	B.52	249.090625	249.270625		one	one
sw2397B-ms98-a-0043	B.52	249.270625	249.560625		lady	lady
sw2397B-ms98-a-0043	B.52	249.560625	249.670625		I've	i've
sw2397B-ms98-a-0043	B.52	249.670625	250.074375		seen	seen
sw2397B-ms98-a-0043	B.52	250.074375	250.390750		[silence]	[silence]
sw2397B-ms98-a-0043	B.52	250.390750	250.460625		I	i
sw2397B-ms98-a-0043	B.52	250.460625	250.760625		know	know
sw2397B-ms98-a-0043	B.52	250.760625	250.960625		that	that
sw2397B-ms98-a-0043	B.52	250.960625	251.250625		does	does
sw2397B-ms98-a-0043	B.52	251.250625	251.498000		it	it
sw2397B-ms98-a-0043	B.52	251.498000	251.837000		[silence]	[silence]
sw2397B-ms98-a-0043	B.52	251.837000	252.070625		I've	i've
sw2397B-ms98-a-0043	B.52	252.070625	252.280625		never	never
sw2397B-ms98-a-0043	B.52	252.280625	252.590625		asked	asked
sw2397B-ms98-a-0043	B.52	252.590625	252.650625		her	her
sw2397B-ms98-a-0043	B.52	252.650625	252.780625		any	any
sw2397B-ms98-a-0043	B.52	252.780625	253.320625		questions	questions
sw2397B-ms98-a-0043	B.52	253.320625	253.555000		but	but
sw2397B-ms98-a-0043	B.52	253.555000	254.089750		[silence]	[silence]
sw2397B-ms98-a-0043	B.52	254.089750	254.300625		she	she
sw2397B-ms98-a-0043	B.52	254.300625	254.660625		has	has
sw2397B-ms98-a-0043	B.52	254.660625	255.010625		three	three
sw2397B-ms98-a-0043	B.52	255.010625	255.540000		kids	kids
sw2397B-ms98-a-0043	B.52	255.540000	255.770625		all	all
sw2397B-ms98-a-0043	B.52	255.770625	256.042500		under	under
sw2397B-ms98-a-0043	B.52	256.042500	256.260625		the	the
sw2397B-ms98-a-0043	B.52	256.260625	256.480625		age	age
sw2397B-ms98-a-0043	B.52	256.480625	256.650625		of	of
sw2397B-ms98-a-0043	B.52	256.650625	256.994125		like	like
sw2397B-ms98-a-0043	B.52	256.994125	257.067750		[silence]	[silence]
sw2397B-ms98-a-0043	B.52	257.067750	257.716125		six	six
sw2397B-ms98-a-0043	B.54	257.716125	257.787000		[silence]	[silence]
sw2397B-ms98-a-0044	B.54	257.787000	258.234000		[silence]	[silence]
sw2397B-ms98-a-0044	B.54	258.234000	258.685375		And	and
sw2397B-ms98-a-0044	B.54	258.685375	258.788375		[silence]	[silence]
sw2397B-ms98-a-0044	B.54	258.788375	259.007000		and	and
sw2397B-ms98-a-0044	B.54	259.007000	259.237000		they're	they're
sw2397B-ms98-a-0044	B.54	259.237000	259.659000		all	all
sw2397B-ms98-a-0044	B.54	259.659000	259.813500		a	a
sw2397B-ms98-a-0044	B.54	259.813500	260.317000		handful	handful
sw2397B-ms98-a-0044	B.54	260.317000	260.497000		So	so
sw2397B-ms98-a-0044	B.54	260.497000	260.667000		it's	it's
sw2397B-ms98-a-0044	B.54	260.667000	260.827000		got	got
sw2397B-ms98-a-0044	B.54	260.827000	260.917000		to	to
sw2397B-ms98-a-0044	B.54	260.917000	261.037000		be	be
sw2397B-ms98-a-0044	B.54	261.037000	261.457000		something	something
sw2397B-ms98-a-0044	B.54	261.457000	261.687000		she	she
sw2397B-ms98-a-0044	B.54	261.687000	261.877000		can	can
sw2397B-ms98-a-0044	B.54	261.877000	262.047000		do	do
sw2397B-ms98-a-0044	B.54	262.047000	262.577000		fairly	fairly
sw2397B-ms98-a-0044	B.54	262.577000	262.997000		easily	easily
sw2397B-ms98-a-0044	B.56	262.997000	263.187000		and	and
sw2397B-ms98-a-0044	B.56	263.187000	263.477000		fairly	fairly
sw2397B-ms98-a-0044	B.56	263.477000	264.157000		quickly	quickly
sw2397B-ms98-a-0044	B.56	264.157000	264.430250		[silence]	[silence]
sw2397B-ms98-a-0045	B.56	264.430250	265.549750		[silence]	[silence]
sw2397B-ms98-a-0045	B.56	265.549750	265.760250		When	when
sw2397B-ms98-a-0045	B.56	265.760250	265.972500		I	i
sw2397B-ms98-a-0045	B.56	265.972500	266.383500		do	do
sw2397B-ms98-a-0045	B.56	266.383500	266.835500		um	um
sw2397B-ms98-a-0045	B.56	266.835500	266.967375		[silence]	[silence]
sw2397B-ms98-a-0045	B.56	266.967375	267.808125		crochet	crochet
sw2397B-ms98-a-0045	B.56	267.808125	267.955000		[silence]	[silence]
sw2397B-ms98-a-0045	B.56	267.955000	268.224500		it's	it's
sw2397B-ms98-a-0045	B.56	268.224500	268.430250	<DEL>	---	it's
sw2397B-ms98-a-0045	B.56	268.430250	268.790250		usually	usually
sw2397B-ms98-a-0045	B.56	268.790250	269.019625		the	the
sw2397B-ms98-a-0045	B.56	269.019625	269.248375		[silence]	[silence]
sw2397B-ms98-a-0045	B.56	269.248375	269.498875	<DEL>	---	the
sw2397B-ms98-a-0045	B.56	269.498875	269.607625		[silence]	[silence]
sw2397B-ms98-a-0045	B.56	269.607625	270.336125		lacy	lacy
sw2397B-ms98-a-0045	B.56	270.336125	271.270250		Victorian	Victorian
sw2397B-ms98-a-0045	B.56	271.270250	271.606125		type	type
sw2397B-ms98-a-0045	B.58	271.606125	272.266375		[silence]	[silence]
sw2397B-ms98-a-0046	B.58	272.266375	272.557125		[silence]	[silence]
sw2397B-ms98-a-0046	B.58	272.557125	272.836375		things	things
sw2397B-ms98-a-0046	B.58	272.836375	273.056375		like	like
sw2397B-ms98-a-0046	B.58	273.056375	273.316375		that	that
sw2397B-ms98-a-0046	B.58	273.316375	273.436375		and	and
sw2397B-ms98-a-0046	B.58	273.436375	273.759625		I	i
sw2397B-ms98-a-0046	B.58	273.759625	274.356375		stiffen	stiffen
sw2397B-ms98-a-0046	B.58	274.356375	274.856375		those	those
sw2397B-ms98-a-0046	B.58	274.856375	275.096375		with	with
sw2397B-ms98-a-0046	B.58	275.096375	275.208500		a	a
sw2397B-ms98-a-0046	B.58	275.208500	275.675500		[silence]	[silence]
sw2397B-ms98-a-0046	B.58	275.675500	275.836375		a	a
sw2397B-ms98-a-0046	B.58	275.836375	276.400625		glue	glue
sw2397B-ms98-a-0046	B.58	276.400625	277.036375		mixture	mixture
sw2397B-ms98-a-0046	B.58	277.036375	277.206375		It's	it's
sw2397B-ms98-a-0046	B.58	277.206375	277.416375		like	like
sw2397B-ms98-a-0046	B.58	277.416375	277.706375		white	white
sw2397B-ms98-a-0046	B.58	277.706375	278.143875		glue	glue
sw2397B-ms98-a-0046	B.58	278.143875	278.432250		[silence]	[silence]
sw2397B-ms98-a-0047	B.58	278.432250	278.826625		[silence]	[silence]
sw2397B-ms98-a-0047	B.58	278.826625	278.982250		and	and
sw2397B-ms98-a-0047	B.58	278.982250	279.102250		it	it
sw2397B-ms98-a-0047	B.58	279.102250	279.332250		may	may
sw2397B-ms98-a-0047	B.58	279.332250	279.482250		be	be
sw2397B-ms98-a-0047	B.58	279.482250	279.932250		something	something
sw2397B-ms98-a-0047	B.58	279.932250	280.302250		similar	similar
sw2397B-ms98-a-0047	B.58	280.302250	280.502250		to	to
sw2397B-ms98-a-0047	B.58	280.502250	280.912250		that	that
sw2397B-ms98-a-0047	B.58	280.912250	281.132250		that	that
sw2397B-ms98-a-0047	B.58	281.132250	281.272250		the	the
sw2397B-ms98-a-0047	B.58	281.272250	281.842250		fabric	fabric
sw2397B-ms98-a-0047	B.58	281.842250	282.022250		is	is
sw2397B-ms98-a-0047	B.58	282.022250	282.402250		dipped	dipped
sw2397B-ms98-a-0047	B.58	282.402250	282.780375		in	in
sw2397B-ms98-a-0047	B.58	282.780375	283.032250		and	and
sw2397B-ms98-a-0047	B.58	283.032250	283.418500		then	then
sw2397B-ms98-a-0047	B.58	283.418500	283.586375		[silence]	[silence]
sw2397B-ms98-a-0048	B.58	283.586375	283.904125		[silence]	[silence]
sw2397B-ms98-a-0048	B.58	283.904125	284.193750		um	um
sw2397B-ms98-a-0048	B.58	284.193750	284.556375		allowed	allowed
sw2397B-ms98-a-0048	B.58	284.556375	284.706375		to	to
sw2397B-ms98-a-0048	B.58	284.706375	285.443375		dry	dry
sw2397B-ms98-a-0048	B.58	285.443375	285.661875		in	in
sw2397B-ms98-a-0048	B.58	285.661875	286.059375		those	those
sw2397B-ms98-a-0048	B.58	286.059375	286.210000		[silence]	[silence]
sw2397B-ms98-a-0048	B.58	286.210000	286.456375		those	those
sw2397B-ms98-a-0048	B.58	286.456375	287.086375		draping	draping
sw2397B-ms98-a-0048	B.58	287.086375	287.594750		bows	bows
sw2397B-ms98-a-0048	B.58	287.594750	287.782125		I	i
sw2397B-ms98-a-0048	B.58	287.782125	287.996375		mean	mean
sw2397B-ms98-a-0048	B.58	287.996375	288.156375		those	those
sw2397B-ms98-a-0048	B.58	288.156375	288.586375		draping	draping
sw2397B-ms98-a-0048	B.58	288.586375	289.180875		streamers	streamers
sw2397B-ms98-a-0048	B.60	289.180875	289.296375		I	i
sw2397B-ms98-a-0048	B.60	289.296375	289.556375		don't	don't
sw2397B-ms98-a-0048	B.60	289.556375	289.935875		know	know
sw2397B-ms98-a-0048	B.60	289.935875	290.086375		I	i
sw2397B-ms98-a-0048	B.60	290.086375	290.186375		was	was
sw2397B-ms98-a-0048	B.60	290.186375	290.526375		just	just
sw2397B-ms98-a-0048	B.60	290.526375	290.726375		There's	there's
sw2397B-ms98-a-0048	B.60	290.726375	291.006375		bound	bound
sw2397B-ms98-a-0048	B.60	291.006375	291.066375		to	to
sw2397B-ms98-a-0048	B.60	291.066375	291.166375		be	be
sw2397B-ms98-a-0048	B.60	291.166375	291.366375		some	some
sw2397B-ms98-a-0048	B.60	291.366375	291.526375		kind	kind
sw2397B-ms98-a-0048	B.60	291.526375	291.646375		of	of
sw2397B-ms98-a-0048	B.60	291.646375	291.956375		fabric	fabric
sw2397B-ms98-a-0048	B.60	291.956375	292.326375		stiffener	stiffener
sw2397B-ms98-a-0048	B.60	292.326375	292.516375		like	like
sw2397B-ms98-a-0048	B.60	292.516375	292.796375		that	that
sw2397B-ms98-a-0048	B.60	292.796375	293.026375		that's	that's
sw2397B-ms98-a-0048	B.60	293.026375	293.196375		very	very
sw2397B-ms98-a-0048	B.60	293.196375	293.715750		similar	similar
sw2397B-ms98-a-0048	B.62	293.715750	294.205375		[silence]	[silence]
sw2397B-ms98-a-0048	B.62	294.205375	294.406375		that's	that's
sw2397B-ms98-a-0048	B.62	294.406375	294.606375		not	not
sw2397B-ms98-a-0048	B.62	294.606375	294.736375		going	going
sw2397B-ms98-a-0048	B.62	294.736375	294.806375		to	to
sw2397B-ms98-a-0048	B.62	294.806375	295.156375		melt	melt
sw2397B-ms98-a-0048	B.62	295.156375	295.356375		too	too
sw2397B-ms98-a-0048	B.62	295.356375	295.736375		much	much
sw2397B-ms98-a-0048	B.62	295.736375	295.949875		with	with
sw2397B-ms98-a-0048	B.62	295.949875	296.131125		[silence]	[silence]
sw2397B-ms98-a-0048	B.62	296.131125	296.390125		uh	uh
sw2397B-ms98-a-0048	B.62	296.390125	296.753500		[silence]	[silence]
sw2397B-ms98-a-0049	B.62	296.753500	297.107500		[silence]	[silence]
sw2397B-ms98-a-0049	B.62	297.107500	297.334875		uh	uh
sw2397B-ms98-a-0049	B.62	297.334875	297.653500		high	high
sw2397B-ms98-a-0049	B.62	297.653500	298.335250		humidity	humidity
sw2397B-ms98-a-0049	B.64	298.335250	298.595375		[silence]	[silence]
sw2397B-ms98-a-0050	B.64	298.595375	299.086125		[silence]	[silence]
sw2397B-ms98-a-0050	B.64	299.086125	299.285375		in	in
sw2397B-ms98-a-0050	B.64	299.285375	299.425375	<DEL>	---	in
sw2397B-ms98-a-0050	B.64	299.425375	299.505375		a	a
sw2397B-ms98-a-0050	B.64	299.505375	299.805375		room	room
sw2397B-ms98-a-0050	B.66	299.805375	299.973000		[silence]	[silence]
sw2397B-ms98-a-0051	B.66	299.973000	305.922625		[silence]	[silence]
sw2397B-ms98-a-0052	B.66	305.922625	306.467375		[silence]	[silence]
sw2397B-ms98-a-0052	B.66	306.467375	306.552625		Do	do
sw2397B-ms98-a-0052	B.66	306.552625	306.612625		you	you
sw2397B-ms98-a-0052	B.66	306.612625	306.712625		know	know
sw2397B-ms98-a-0052	B.66	306.712625	306.812625		what	what
sw2397B-ms98-a-0052	B.66	306.812625	306.992625		my	my
sw2397B-ms98-a-0052	B.66	306.992625	307.532625		concern	concern
sw2397B-ms98-a-0052	B.66	307.532625	307.888125		is	is
sw2397B-ms98-a-0052	B.66	307.888125	308.323125		[silence]	[silence]
sw2397B-ms98-a-0052	B.66	308.323125	308.502625		How	how
sw2397B-ms98-a-0052	B.66	308.502625	308.662625		will	will
sw2397B-ms98-a-0052	B.66	308.662625	308.762625		I	i
sw2397B-ms98-a-0052	B.66	308.762625	309.312625		dust	dust
sw2397B-ms98-a-0052	B.66	309.312625	309.482625		this	this
sw2397B-ms98-a-0052	B.66	309.482625	309.732625		thing	thing
sw2397B-ms98-a-0052	B.68	309.732625	311.321375		[laughter]	[laughter]
sw2397B-ms98-a-0052	B.68	311.321375	311.572125	<SUB>	That's	i'm
sw2397B-ms98-a-0052	B.68	311.572125	312.724625		terrible	[laughter-terrible]
sw2397B-ms98-a-0052	B.70	312.724625	313.272000		[silence]	[silence]
sw2397B-ms98-a-0053	B.70	313.272000	313.315625		[silence]	[silence]
sw2397B-ms98-a-0053	B.70	313.315625	315.240875		[laughter]	[laughter]
sw2397B-ms98-a-0053	B.70	315.240875	315.472000		So	so
sw2397B-ms98-a-0053	B.70	315.472000	315.732000		many	many
sw2397B-ms98-a-0053	B.70	315.732000	315.872000		of	of
sw2397B-ms98-a-0053	B.70	315.872000	316.099750		my	my
sw2397B-ms98-a-0053	B.70	316.099750	316.912000		crafts	crafts
sw2397B-ms98-a-0053	B.70	316.912000	317.142000		well	well
sw2397B-ms98-a-0053	B.70	317.142000	317.332000		right	right
sw2397B-ms98-a-0053	B.70	317.332000	317.492000		now	now
sw2397B-ms98-a-0053	B.70	317.492000	317.602000		I'm	i'm
sw2397B-ms98-a-0053	B.70	317.602000	317.822000		looking	looking
sw2397B-ms98-a-0053	B.70	317.822000	317.892000		at	at
sw2397B-ms98-a-0053	B.70	317.892000	317.922000		a	a
sw2397B-ms98-a-0053	B.70	317.922000	318.216625		little	little
sw2397B-ms98-a-0053	B.70	318.216625	318.532000	<DEL>	---	uh
sw2397B-ms98-a-0053	B.70	318.532000	318.845500		[silence]	[silence]
sw2397B-ms98-a-0054	B.70	318.845500	319.186875		[silence]	[silence]
sw2397B-ms98-a-0054	B.70	319.186875	319.399000	<DEL>	---	uh
sw2397B-ms98-a-0054	B.70	319.399000	320.023125		quilted	quilted
sw2397B-ms98-a-0054	B.70	320.023125	320.219000		[silence]	[silence]
sw2397B-ms98-a-0054	B.70	320.219000	320.564500		uh	uh
sw2397B-ms98-a-0054	B.70	320.564500	320.993875		uh	uh
sw2397B-ms98-a-0054	B.70	320.993875	321.523375		hanging	hanging
sw2397B-ms98-a-0054	B.70	321.523375	321.625125		[silence]	[silence]
sw2397B-ms98-a-0054	B.70	321.625125	321.884250		it's	it's
sw2397B-ms98-a-0054	B.70	321.884250	322.155500		[silence]	[silence]
sw2397B-ms98-a-0054	B.70	322.155500	322.385500		like	like
sw2397B-ms98-a-0054	B.70	322.385500	322.535500		it's	it's
sw2397B-ms98-a-0054	B.70	322.535500	322.655500		a	a
sw2397B-ms98-a-0054	B.70	322.655500	323.180375		flag	flag
sw2397B-ms98-a-0054	B.70	323.180375	323.542000		[silence]	[silence]
sw2397B-ms98-a-0054	B.70	323.542000	323.852125		and	and
sw2397B-ms98-a-0054	B.70	323.852125	323.976375		[silence]	[silence]
sw2397B-ms98-a-0054	B.70	323.976375	324.065500		I	i
sw2397B-ms98-a-0054	B.70	324.065500	324.275500		don't	don't
sw2397B-ms98-a-0054	B.70	324.275500	324.415500		want	want
sw2397B-ms98-a-0054	B.70	324.415500	324.515500		to	to
sw2397B-ms98-a-0054	B.70	324.515500	324.895500		wash	wash
sw2397B-ms98-a-0054	B.70	324.895500	325.065500		it	it
sw2397B-ms98-a-0054	B.70	325.065500	325.415500		because	because
sw2397B-ms98-a-0054	B.70	325.415500	325.575500		that	that
sw2397B-ms98-a-0054	B.70	325.575500	325.735500		would	would
sw2397B-ms98-a-0054	B.70	325.735500	326.025500		start	start
sw2397B-ms98-a-0054	B.70	326.025500	326.535500		breaking	breaking
sw2397B-ms98-a-0054	B.70	326.535500	326.835500		down	down
sw2397B-ms98-a-0054	B.70	326.835500	326.905500		the	the
sw2397B-ms98-a-0054	B.70	326.905500	327.345500		batting	batting
sw2397B-ms98-a-0054	B.70	327.345500	327.475500		and	and
sw2397B-ms98-a-0054	B.70	327.475500	327.685500		so	so
sw2397B-ms98-a-0054	B.70	327.685500	328.095500		forth	forth
sw2397B-ms98-a-0054	B.70	328.095500	328.336500		but	but
sw2397B-ms98-a-0054	B.70	328.336500	328.732000		[silence]	[silence]
sw2397B-ms98-a-0054	B.70	328.732000	329.155500		it's	it's
sw2397B-ms98-a-0054	B.70	329.155500	329.543500		such	such
sw2397B-ms98-a-0054	B.70	329.543500	329.649000		a	a
sw2397B-ms98-a-0054	B.70	329.649000	329.925500		dust	dust
sw2397B-ms98-a-0054	B.70	329.925500	330.515500		collector	collector
sw2397B-ms98-a-0054	B.70	330.515500	330.685500		to	to
sw2397B-ms98-a-0054	B.70	330.685500	330.984875		be	be
sw2397B-ms98-a-0054	B.70	330.984875	331.240625		[silence]	[silence]
sw2397B-ms98-a-0055	B.70	331.240625	331.700125		[silence]	[silence]
sw2397B-ms98-a-0055	B.70	331.700125	331.962375		out	out
sw2397B-ms98-a-0055	B.70	331.962375	332.267250		[silence]	[silence]
sw2397B-ms98-a-0055	B.70	332.267250	332.310000		and	and
sw2397B-ms98-a-0055	B.70	332.310000	332.415500		so	so
sw2397B-ms98-a-0055	B.70	332.415500	332.660625		forth	forth
sw2397B-ms98-a-0055	B.72	332.660625	332.790625		And	and
sw2397B-ms98-a-0055	B.72	332.790625	333.070625		most	most
sw2397B-ms98-a-0055	B.72	333.070625	333.130625		of	of
sw2397B-ms98-a-0055	B.72	333.130625	333.270625		my	my
sw2397B-ms98-a-0055	B.72	333.270625	333.711250		things	things
sw2397B-ms98-a-0055	B.72	333.711250	334.255000		are	are
sw2397B-ms98-a-0055	B.72	334.255000	334.936750		[silence]	[silence]
sw2397B-ms98-a-0055	B.72	334.936750	335.190625		dust	dust
sw2397B-ms98-a-0055	B.72	335.190625	335.922875		collectors	collectors
sw2397B-ms98-a-0055	B.74	335.922875	336.383875		[laughter]	[laughter]
sw2397B-ms98-a-0055	B.74	336.383875	336.508125		Uh	uh
sw2397B-ms98-a-0055	B.74	336.508125	336.678250		and	and
sw2397B-ms98-a-0055	B.74	336.678250	336.891250		I	i
sw2397B-ms98-a-0055	B.74	336.891250	337.090625		hate	hate
sw2397B-ms98-a-0055	B.74	337.090625	337.210625		to	to
sw2397B-ms98-a-0055	B.74	337.210625	337.557000		dust	dust
sw2397B-ms98-a-0055	B.76	337.557000	337.767875		[silence]	[silence]
sw2397B-ms98-a-0055	B.76	337.767875	338.063250		So	so
sw2397B-ms98-a-0055	B.76	338.063250	338.277000		[silence]	[silence]
sw2397B-ms98-a-0055	B.76	338.277000	338.516625	<DEL>	---	that's
sw2397B-ms98-a-0055	B.76	338.516625	338.663625	<DEL>	---	the
sw2397B-ms98-a-0055	B.76	338.663625	338.860625		first	first
sw2397B-ms98-a-0055	B.76	338.860625	339.040625		thing	thing
sw2397B-ms98-a-0055	B.76	339.040625	339.110625		I	i
sw2397B-ms98-a-0055	B.76	339.110625	339.330625		think	think
sw2397B-ms98-a-0055	B.76	339.330625	339.440625		of	of
sw2397B-ms98-a-0055	B.76	339.440625	339.595750		is	is
sw2397B-ms98-a-0055	B.76	339.595750	339.840625		[silence]	[silence]
sw2397B-ms98-a-0055	B.76	339.840625	340.100625		how	how
sw2397B-ms98-a-0055	B.76	340.100625	340.400625		easy	easy
sw2397B-ms98-a-0055	B.76	340.400625	340.600625		would	would
sw2397B-ms98-a-0055	B.76	340.600625	340.810625		this	this
sw2397B-ms98-a-0055	B.78	340.810625	340.980625		thing	thing
sw2397B-ms98-a-0055	B.78	340.980625	341.040625		be	be
sw2397B-ms98-a-0055	B.78	341.040625	341.320625		to	to
sw2397B-ms98-a-0055	B.78	341.320625	341.703500		clean	clean
sw2397B-ms98-a-0055	B.80	341.703500	342.135375		[laughter]	[laughter]
sw2397B-ms98-a-0055	B.80	342.135375	342.658125		[silence]	[silence]
sw2397B-ms98-a-0056	B.80	342.658125	357.343000		[silence]	[silence]
sw2397B-ms98-a-0057	B.80	357.343000	358.498375		[silence]	[silence]
sw2397B-ms98-a-0057	B.80	358.498375	358.713000		Oh	oh
sw2397B-ms98-a-0057	B.80	358.713000	358.863000		you	you
sw2397B-ms98-a-0057	B.80	358.863000	359.053000		don't	don't
sw2397B-ms98-a-0057	B.80	359.053000	359.352875		have	have
sw2397B-ms98-a-0057	B.80	359.352875	360.125250		time	time
sw2397B-ms98-a-0057	B.82	360.125250	360.307000		[silence]	[silence]
sw2397B-ms98-a-0058	B.82	360.307000	361.895000		[silence]	[silence]
sw2397B-ms98-a-0059	B.82	361.895000	362.205000		[silence]	[silence]
sw2397B-ms98-a-0059	B.82	362.205000	362.395000		You	you
sw2397B-ms98-a-0059	B.82	362.395000	363.155000		definitely	definitely
sw2397B-ms98-a-0059	B.82	363.155000	363.445000		don't	don't
sw2397B-ms98-a-0059	B.82	363.445000	363.665000		have	have
sw2397B-ms98-a-0059	B.82	363.665000	364.326375		time	[laughter-time]
sw2397B-ms98-a-0059	B.84	364.326375	364.613625		[silence]	[silence]
sw2397B-ms98-a-0060	B.84	364.613625	376.130000		[silence]	[silence]
sw2397B-ms98-a-0061	B.84	376.130000	376.469250		[silence]	[silence]
sw2397B-ms98-a-0061	B.84	376.469250	376.641250	<DEL>	---	that
sw2397B-ms98-a-0061	B.84	376.641250	376.945250		[silence]	[silence]
sw2397B-ms98-a-0062	B.84	376.945250	377.338000		[silence]	[silence]
sw2397B-ms98-a-0062	B.84	377.338000	377.445250		I	i
sw2397B-ms98-a-0062	B.84	377.445250	377.665250		have	have
sw2397B-ms98-a-0062	B.84	377.665250	377.715250		a	a
sw2397B-ms98-a-0062	B.84	377.715250	378.115250		similar	similar
sw2397B-ms98-a-0062	B.84	378.115250	378.737125		problem	problem
sw2397B-ms98-a-0062	B.84	378.737125	378.959250		I've	i've
sw2397B-ms98-a-0062	B.84	378.959250	379.215250		got	got
sw2397B-ms98-a-0062	B.84	379.215250	379.455250		to	to
sw2397B-ms98-a-0062	B.84	379.455250	379.785250		have	have
sw2397B-ms98-a-0062	B.84	379.785250	380.205250		time	time
sw2397B-ms98-a-0062	B.84	380.205250	380.295250		or	or
sw2397B-ms98-a-0062	B.84	380.295250	380.335250		I	i
sw2397B-ms98-a-0062	B.84	380.335250	380.595250		don't	don't
sw2397B-ms98-a-0062	B.84	380.595250	380.745250		even	even
sw2397B-ms98-a-0062	B.84	380.745250	380.865250		want	want
sw2397B-ms98-a-0062	B.84	380.865250	380.925250		to	to
sw2397B-ms98-a-0062	B.84	380.925250	381.085250		get	get
sw2397B-ms98-a-0062	B.84	381.085250	381.425250		into	into
sw2397B-ms98-a-0062	B.84	381.425250	381.485250		it	it
sw2397B-ms98-a-0062	B.84	381.485250	381.545250		in	in
sw2397B-ms98-a-0062	B.84	381.545250	381.605250		the	the
sw2397B-ms98-a-0062	B.84	381.605250	381.965250		first	first
sw2397B-ms98-a-0062	B.84	381.965250	382.314125		place	place
sw2397B-ms98-a-0062	B.86	382.314125	382.652500		[silence]	[silence]
sw2397B-ms98-a-0063	B.86	382.652500	383.089750		[silence]	[silence]
sw2397B-ms98-a-0063	B.86	383.089750	383.392500		And	and
sw2397B-ms98-a-0063	B.86	383.392500	383.562500		so	so
sw2397B-ms98-a-0063	B.86	383.562500	383.642500		I	i
sw2397B-ms98-a-0063	B.86	383.642500	383.922500		end	end
sw2397B-ms98-a-0063	B.86	383.922500	384.080500		up	up
sw2397B-ms98-a-0063	B.86	384.080500	384.363000		[silence]	[silence]
sw2397B-ms98-a-0063	B.86	384.363000	384.802500		lots	lots
sw2397B-ms98-a-0063	B.86	384.802500	384.862500		of	of
sw2397B-ms98-a-0063	B.86	384.862500	385.187000		time	time
sw2397B-ms98-a-0063	B.86	385.187000	385.462500		not	not
sw2397B-ms98-a-0063	B.86	385.462500	385.742500		doing	doing
sw2397B-ms98-a-0063	B.86	385.742500	386.112500		anything	anything
sw2397B-ms98-a-0063	B.86	386.112500	386.222500		at	at
sw2397B-ms98-a-0063	B.86	386.222500	386.552500		all	all
sw2397B-ms98-a-0063	B.88	386.552500	386.919125		[silence]	[silence]
sw2397B-ms98-a-0064	B.88	386.919125	395.509750		[silence]	[silence]
sw2397B-ms98-a-0065	B.88	395.509750	396.313875		[silence]	[silence]
sw2397B-ms98-a-0065	B.88	396.313875	396.459750		You	you
sw2397B-ms98-a-0065	B.88	396.459750	396.689750		just	just
sw2397B-ms98-a-0065	B.88	396.689750	396.929750		didn't	didn't
sw2397B-ms98-a-0065	B.88	396.929750	397.099750		say	say
sw2397B-ms98-a-0065	B.88	397.099750	397.329750		which	which
sw2397B-ms98-a-0065	B.88	397.329750	397.859750		Christmas	Christmas
sw2397B-ms98-a-0065	B.88	397.859750	398.297125		right	right
sw2397B-ms98-a-0065	B.90	398.297125	398.685875		[laughter]	[laughter]
sw2397B-ms98-a-0065	B.90	398.685875	399.159125		[silence]	[silence]
sw2397B-ms98-a-0066	B.90	399.159125	399.688750		[silence]	[silence]
sw2397B-ms98-a-0066	B.90	399.688750	400.800875		[laughter]	[laughter]
sw2397B-ms98-a-0066	B.90	400.800875	401.625000		[silence]	[silence]
sw2397B-ms98-a-0067	B.90	401.625000	402.386250		[silence]	[silence]
sw2397B-ms98-a-0067	B.90	402.386250	403.242125		[laughter]	[laughter]
sw2397B-ms98-a-0067	B.90	403.242125	403.460125		[silence]	[silence]
sw2397B-ms98-a-0068	B.90	403.460125	404.010625		[silence]	[silence]
sw2397B-ms98-a-0068	B.90	404.010625	404.150125		What	what
sw2397B-ms98-a-0068	B.90	404.150125	404.330125		was	was
sw2397B-ms98-a-0068	B.90	404.330125	404.520125		this	this
sw2397B-ms98-a-0068	B.90	404.520125	404.981750		project	project
sw2397B-ms98-a-0068	B.92	404.981750	405.295250		[silence]	[silence]
sw2397B-ms98-a-0069	B.92	405.295250	423.337500		[silence]	[silence]
sw2397B-ms98-a-0070	B.92	423.337500	423.988625		[silence]	[silence]
sw2397B-ms98-a-0070	B.92	423.988625	424.223375		Now	now
sw2397B-ms98-a-0070	B.92	424.223375	424.449375		this	this
sw2397B-ms98-a-0070	B.92	424.449375	424.648125		is	is
sw2397B-ms98-a-0070	B.92	424.648125	424.828625	<DEL>	---	this
sw2397B-ms98-a-0070	B.92	424.828625	425.032000	<DEL>	---	is
sw2397B-ms98-a-0070	B.92	425.032000	425.237500		done	done
sw2397B-ms98-a-0070	B.92	425.237500	425.347500		in	in
sw2397B-ms98-a-0070	B.92	425.347500	425.464250		the	the
sw2397B-ms98-a-0070	B.92	425.464250	426.093750		needlepoint	needlepoint
sw2397B-ms98-a-0070	B.94	426.093750	427.088125		[silence]	[silence]
sw2397B-ms98-a-0070	B.94	427.088125	427.544750	<DEL>	---	hm
sw2397B-ms98-a-0070	B.94	427.544750	428.148375		[silence]	[silence]
sw2397B-ms98-a-0071	B.94	428.148375	435.156125		[silence]	[silence]
sw2397B-ms98-a-0072	B.94	435.156125	435.701625		[silence]	[silence]
sw2397B-ms98-a-0072	B.94	435.701625	436.180250		Yes	yes
sw2397B-ms98-a-0072	B.94	436.180250	436.965125		[silence]	[silence]
sw2397B-ms98-a-0072	B.94	436.965125	437.226250		Yes	yes
sw2397B-ms98-a-0072	B.94	437.226250	437.425875		[silence]	[silence]
sw2397B-ms98-a-0072	B.94	437.425875	437.656500		I	i
sw2397B-ms98-a-0072	B.94	437.656500	437.866125		do	do
sw2397B-ms98-a-0072	B.94	437.866125	438.326750		know	know
sw2397B-ms98-a-0072	B.96	438.326750	438.476125		I	i
sw2397B-ms98-a-0072	B.96	438.476125	438.656125		have	have
sw2397B-ms98-a-0072	B.96	438.656125	438.866125		done	done
sw2397B-ms98-a-0072	B.96	438.866125	438.916125		a	a
sw2397B-ms98-a-0072	B.96	438.916125	439.166125		little	little
sw2397B-ms98-a-0072	B.96	439.166125	439.316125		bit	bit
sw2397B-ms98-a-0072	B.96	439.316125	439.416125		of	of
sw2397B-ms98-a-0072	B.96	439.416125	439.736125		that	that
sw2397B-ms98-a-0072	B.96	439.736125	439.826125		but	but
sw2397B-ms98-a-0072	B.96	439.826125	439.976125	<SUB>	I	i've
sw2397B-ms98-a-0072	B.96	439.976125	440.616125		decided	decided
sw2397B-ms98-a-0072	B.96	440.616125	440.864125		that	that
sw2397B-ms98-a-0072	B.96	440.864125	441.417875		[silence]	[silence]
sw2397B-ms98-a-0072	B.96	441.417875	441.696125		that's	that's
sw2397B-ms98-a-0072	B.96	441.696125	441.986125		something	something
sw2397B-ms98-a-0072	B.96	441.986125	442.116125		that	that
sw2397B-ms98-a-0072	B.96	442.116125	442.596125		demands	demands
sw2397B-ms98-a-0072	B.96	442.596125	442.806125		my	my
sw2397B-ms98-a-0072	B.96	442.806125	443.336125	<SUB>	tim-	time
sw2397B-ms98-a-0072	B.96	443.336125	443.726125		my	my
sw2397B-ms98-a-0072	B.96	443.726125	443.921000		my	my
sw2397B-ms98-a-0072	B.96	443.921000	444.140375	<DEL>	---	to[tal]-
sw2397B-ms98-a-0072	B.96	444.140375	444.324875	<DEL>	---	my
sw2397B-ms98-a-0072	B.96	444.324875	444.626125		total	total
sw2397B-ms98-a-0072	B.96	444.626125	445.221875		attention	attention
sw2397B-ms98-a-0072	B.98	445.221875	445.654625		[silence]	[silence]
sw2397B-ms98-a-0073	B.98	445.654625	445.978000		[silence]	[silence]
sw2397B-ms98-a-0073	B.98	445.978000	446.144625		And	and
sw2397B-ms98-a-0073	B.98	446.144625	446.434625		so	so
sw2397B-ms98-a-0073	B.98	446.434625	446.634625		I've	i've
sw2397B-ms98-a-0073	B.98	446.634625	446.824625		got	got
sw2397B-ms98-a-0073	B.98	446.824625	446.924625		to	to
sw2397B-ms98-a-0073	B.98	446.924625	447.363500		have	have
sw2397B-ms98-a-0073	B.98	447.363500	447.735875		[silence]	[silence]
sw2397B-ms98-a-0074	B.98	447.735875	448.193875		[silence]	[silence]
sw2397B-ms98-a-0074	B.98	448.193875	448.655875		total	total
sw2397B-ms98-a-0074	B.98	448.655875	448.985875		almost	almost
sw2397B-ms98-a-0074	B.98	448.985875	449.255875		total	total
sw2397B-ms98-a-0074	B.98	449.255875	449.665875		silence	silence
sw2397B-ms98-a-0074	B.98	449.665875	449.755875		I	i
sw2397B-ms98-a-0074	B.98	449.755875	450.105875		can't	can't
sw2397B-ms98-a-0074	B.98	450.105875	450.325875		really	really
sw2397B-ms98-a-0074	B.98	450.325875	450.675875		watch	watch
sw2397B-ms98-a-0074	B.98	450.675875	451.225875		television	television
sw2397B-ms98-a-0074	B.98	451.225875	451.375875		if	if
sw2397B-ms98-a-0074	B.98	451.375875	451.435875		the	the
sw2397B-ms98-a-0074	B.98	451.435875	451.885875		pattern	pattern
sw2397B-ms98-a-0074	B.98	451.885875	452.055875		is	is
sw2397B-ms98-a-0074	B.98	452.055875	452.325875		very	very
sw2397B-ms98-a-0074	B.98	452.325875	452.875875		intricate	intricate
sw2397B-ms98-a-0074	B.98	452.875875	452.985875		It	it
sw2397B-ms98-a-0074	B.98	452.985875	453.255875		sounds	sounds
sw2397B-ms98-a-0074	B.98	453.255875	453.455875		like	like
sw2397B-ms98-a-0074	B.98	453.455875	453.565875		you'd	you'd
sw2397B-ms98-a-0074	B.98	453.565875	453.821875		have	have
sw2397B-ms98-a-0074	B.98	453.821875	454.307750		[silence]	[silence]
sw2397B-ms98-a-0074	B.98	454.307750	454.555875		lots	lots
sw2397B-ms98-a-0074	B.98	454.555875	454.655875		of	of
sw2397B-ms98-a-0074	B.98	454.655875	455.441500		shading	shading
sw2397B-ms98-a-0074	B.100	455.441500	455.975375		[silence]	[silence]
sw2397B-ms98-a-0074	B.100	455.975375	456.145875		on	on
sw2397B-ms98-a-0074	B.100	456.145875	456.375875		that	that
sw2397B-ms98-a-0074	B.100	456.375875	457.065875		particular	particular
sw2397B-ms98-a-0074	B.100	457.065875	457.495875		piece	piece
sw2397B-ms98-a-0074	B.102	457.495875	457.613375		It	it
sw2397B-ms98-a-0074	B.102	457.613375	457.850625		[silence]	[silence]
sw2397B-ms98-a-0074	B.102	457.850625	458.195875		is	is
sw2397B-ms98-a-0074	B.102	458.195875	458.528750		not	not
sw2397B-ms98-a-0074	B.102	458.528750	458.660625		[silence]	[silence]
sw2397B-ms98-a-0074	B.102	458.660625	458.785875		does	does
sw2397B-ms98-a-0074	B.102	458.785875	459.025875		not	not
sw2397B-ms98-a-0074	B.102	459.025875	459.185875		sound	sound
sw2397B-ms98-a-0074	B.102	459.185875	459.335875		like	like
sw2397B-ms98-a-0074	B.102	459.335875	459.425875		an	an
sw2397B-ms98-a-0074	B.102	459.425875	459.715875		easy	easy
sw2397B-ms98-a-0074	B.102	459.715875	459.885875		one	one
sw2397B-ms98-a-0074	B.102	459.885875	460.025875		to	to
sw2397B-ms98-a-0074	B.102	460.025875	460.442875		finish	finish
sw2397B-ms98-a-0074	B.104	460.442875	460.925500		[silence]	[silence]
sw2397B-ms98-a-0075	B.104	460.925500	465.826250		[silence]	[silence]
sw2397B-ms98-a-0076	B.104	465.826250	466.297625		[silence]	[silence]
sw2397B-ms98-a-0076	B.104	466.297625	467.035000		[laughter]	[laughter]
sw2397B-ms98-a-0076	B.104	467.035000	467.408250		[silence]	[silence]
sw2397B-ms98-a-0077	B.104	467.408250	469.940875		[silence]	[silence]
sw2397B-ms98-a-0078	B.104	469.940875	470.449375		[silence]	[silence]
sw2397B-ms98-a-0078	B.104	470.449375	470.835750		Oh	oh
sw2397B-ms98-a-0078	B.104	470.835750	471.300375		[silence]	[silence]
sw2397B-ms98-a-0079	B.104	471.300375	471.790375		[silence]	[silence]
sw2397B-ms98-a-0079	B.104	471.790375	472.020375		I'm	i'm
sw2397B-ms98-a-0079	B.104	472.020375	472.270375		sure	sure
sw2397B-ms98-a-0079	B.104	472.270375	472.420375		you'll	you'll
sw2397B-ms98-a-0079	B.104	472.420375	472.600375		get	get
sw2397B-ms98-a-0079	B.104	472.600375	472.800375		it	it
sw2397B-ms98-a-0079	B.104	472.800375	473.070375		done	done
sw2397B-ms98-a-0079	B.104	473.070375	473.200375		but	but
sw2397B-ms98-a-0079	B.104	473.200375	473.340375		it	it
sw2397B-ms98-a-0079	B.104	473.340375	473.566500		just	just
sw2397B-ms98-a-0079	B.104	473.566500	473.864000	<SUB>	may	maybe
sw2397B-ms98-a-0079	B.104	473.864000	474.060375		not	not
sw2397B-ms98-a-0079	B.104	474.060375	474.199500	<SUB>	of	on
sw2397B-ms98-a-0079	B.104	474.199500	474.335000		the	the
sw2397B-ms98-a-0079	B.104	474.335000	474.892000		original	original
sw2397B-ms98-a-0079	B.104	474.892000	475.129250		[silence]	[silence]
sw2397B-ms98-a-0079	B.104	475.129250	475.620375		obviously	obviously
sw2397B-ms98-a-0079	B.104	475.620375	475.820375		not	not
sw2397B-ms98-a-0079	B.104	475.820375	475.951000	<SUB>	of	on
sw2397B-ms98-a-0079	B.104	475.951000	476.092625		the	the
sw2397B-ms98-a-0079	B.104	476.092625	476.491875		original	original
sw2397B-ms98-a-0079	B.104	476.491875	476.860375		time	time
sw2397B-ms98-a-0079	B.104	476.860375	477.471500		schedule	schedule
sw2397B-ms98-a-0079	B.106	477.471500	477.916000		[silence]	[silence]
sw2397B-ms98-a-0080	B.106	477.916000	494.028000		[silence]	[silence]
sw2397B-ms98-a-0081	B.106	494.028000	494.623250		[silence]	[silence]
sw2397B-ms98-a-0081	B.106	494.623250	494.818000		Just	just
sw2397B-ms98-a-0081	B.106	494.818000	495.068000		hard	hard
sw2397B-ms98-a-0081	B.106	495.068000	495.518000		finding	finding
sw2397B-ms98-a-0081	B.106	495.518000	495.608000		the	the
sw2397B-ms98-a-0081	B.106	495.608000	496.169125		time	time
sw2397B-ms98-a-0081	B.108	496.169125	496.481750		[silence]	[silence]
sw2397B-ms98-a-0081	B.108	496.481750	496.618000		that	that
sw2397B-ms98-a-0081	B.108	496.618000	496.758000		can	can
sw2397B-ms98-a-0081	B.108	496.758000	496.868000		be	be
sw2397B-ms98-a-0081	B.108	496.868000	497.500125		dedicated	dedicated
sw2397B-ms98-a-0081	B.110	497.500125	497.813000		[silence]	[silence]
sw2397B-ms98-a-0081	B.110	497.813000	497.958000	<DEL>	---	to
sw2397B-ms98-a-0081	B.110	497.958000	498.240375	<DEL>	---	that
sw2397B-ms98-a-0081	B.110	498.240375	498.435375		[silence]	[silence]
sw2397B-ms98-a-0082	B.110	498.435375	514.294875		[silence]	[silence]
sw2397B-ms98-a-0083	B.110	514.294875	515.038375		[silence]	[silence]
sw2397B-ms98-a-0083	B.110	515.038375	515.202250		Do	do
sw2397B-ms98-a-0083	B.110	515.202250	515.436375		you	you
sw2397B-ms98-a-0083	B.110	515.436375	515.556875		[silence]	[silence]
sw2397B-ms98-a-0083	B.110	515.556875	515.704875		do	do
sw2397B-ms98-a-0083	B.110	515.704875	515.954875		you	you
sw2397B-ms98-a-0083	B.110	515.954875	516.349125		use	use
sw2397B-ms98-a-0083	B.110	516.349125	516.944875		patterns	patterns
sw2397B-ms98-a-0083	B.110	516.944875	517.024875		I	i
sw2397B-ms98-a-0083	B.110	517.024875	517.184875		mean	mean
sw2397B-ms98-a-0083	B.110	517.184875	517.374875		like	like
sw2397B-ms98-a-0083	B.110	517.374875	517.474875		a	a
sw2397B-ms98-a-0083	B.110	517.474875	517.744875		book	book
sw2397B-ms98-a-0083	B.110	517.744875	517.804875		of	of
sw2397B-ms98-a-0083	B.110	517.804875	518.344875		patterns	patterns
sw2397B-ms98-a-0083	B.110	518.344875	518.434875		or	or
sw2397B-ms98-a-0083	B.110	518.434875	518.554875		do	do
sw2397B-ms98-a-0083	B.110	518.554875	518.654875		you	you
sw2397B-ms98-a-0083	B.110	518.654875	518.744875		go	go
sw2397B-ms98-a-0083	B.110	518.744875	518.904875		out	out
sw2397B-ms98-a-0083	B.110	518.904875	519.004875		an	an
sw2397B-ms98-a-0083	B.110	519.004875	519.390500		buy	buy
sw2397B-ms98-a-0083	B.110	519.390500	519.616500		a	a
sw2397B-ms98-a-0083	B.110	519.616500	519.773750		a	a
sw2397B-ms98-a-0083	B.110	519.773750	520.260750		kit	kit
sw2397B-ms98-a-0083	B.110	520.260750	520.897250		[silence]	[silence]
sw2397B-ms98-a-0083	B.110	520.897250	521.174875		like	like
sw2397B-ms98-a-0083	B.110	521.174875	521.304875		for	for
sw2397B-ms98-a-0083	B.110	521.304875	521.394875		a	a
sw2397B-ms98-a-0083	B.110	521.394875	521.654875		bib	bib
sw2397B-ms98-a-0083	B.110	521.654875	521.794875		or	or
sw2397B-ms98-a-0083	B.110	521.794875	522.084875		something	something
sw2397B-ms98-a-0083	B.110	522.084875	522.304875		like	like
sw2397B-ms98-a-0083	B.110	522.304875	522.626250		that	that
sw2397B-ms98-a-0083	B.112	522.626250	523.111625		[silence]	[silence]
sw2397B-ms98-a-0084	B.112	523.111625	526.727375		[silence]	[silence]
sw2397B-ms98-a-0085	B.112	526.727375	527.073250		[silence]	[silence]
sw2397B-ms98-a-0085	B.112	527.073250	527.661500		Okay	okay
sw2397B-ms98-a-0085	B.114	527.661500	527.709625		[silence]	[silence]
sw2397B-ms98-a-0086	B.114	527.709625	537.660625		[silence]	[silence]
sw2397B-ms98-a-0087	B.114	537.660625	538.100625		[silence]	[silence]
sw2397B-ms98-a-0087	B.114	538.100625	538.469750		Um	um
sw2397B-ms98-a-0087	B.116	538.469750	538.845000		[silence]	[silence]
sw2397B-ms98-a-0088	B.116	538.845000	549.616375		[silence]	[silence]
sw2397B-ms98-a-0089	B.116	549.616375	550.214250		[silence]	[silence]
sw2397B-ms98-a-0089	B.116	550.214250	550.466375		That's	that's
sw2397B-ms98-a-0089	B.116	550.466375	550.576375		what	what
sw2397B-ms98-a-0089	B.116	550.576375	550.696375		I	i
sw2397B-ms98-a-0089	B.116	550.696375	550.936375		would	would
sw2397B-ms98-a-0089	B.116	550.936375	551.160875		do	do
sw2397B-ms98-a-0089	B.116	551.160875	551.588875		too	too
sw2397B-ms98-a-0089	B.118	551.588875	552.127750		[silence]	[silence]
sw2397B-ms98-a-0090	B.118	552.127750	552.759375		[silence]	[silence]
sw2397B-ms98-a-0090	B.118	552.759375	552.948250		Or	or
sw2397B-ms98-a-0090	B.118	552.948250	553.117750	<DEL>	---	or
sw2397B-ms98-a-0090	B.118	553.117750	553.507750		whatever	whatever
sw2397B-ms98-a-0090	B.118	553.507750	553.597750		I	i
sw2397B-ms98-a-0090	B.118	553.597750	554.017750		have	have
sw2397B-ms98-a-0090	B.120	554.017750	554.878375	<DEL>	---	[laughter-that's]
sw2397B-ms98-a-0090	B.120	554.878375	555.403375		[silence]	[silence]
sw2397B-ms98-a-0091	B.120	555.403375	571.568875		[silence]	[silence]
sw2397B-ms98-a-0092	B.120	571.568875	571.971625		[silence]	[silence]
sw2397B-ms98-a-0092	B.120	571.971625	572.797750		Ooh	ooh
sw2397B-ms98-a-0092	B.122	572.797750	573.034625		[silence]	[silence]
sw2397B-ms98-a-0093	B.122	573.034625	577.023625		[silence]	[silence]
sw2397B-ms98-a-0094	B.122	577.023625	577.665375		[silence]	[silence]
sw2397B-ms98-a-0094	B.122	577.665375	577.819750		What	what
sw2397B-ms98-a-0094	B.122	577.819750	578.194625		[silence]	[silence]
sw2397B-ms98-a-0095	B.122	578.194625	578.497500		[silence]	[silence]
sw2397B-ms98-a-0095	B.122	578.497500	578.828375		With	with
sw2397B-ms98-a-0095	B.122	578.828375	579.182875		ink	ink
sw2397B-ms98-a-0095	B.124	579.182875	579.288375		[silence]	[silence]
sw2397B-ms98-a-0095	B.124	579.288375	579.558125	<DEL>	---	or
sw2397B-ms98-a-0095	B.124	579.558125	580.195625		[silence]	[silence]
sw2397B-ms98-a-0095	B.124	580.195625	580.362875		Oh	oh
sw2397B-ms98-a-0095	B.124	580.362875	580.947500		okay	okay
sw2397B-ms98-a-0095	B.126	580.947500	581.507000		[silence]	[silence]
sw2397B-ms98-a-0096	B.126	581.507000	590.420000		[silence]	[silence]
sw2397B-ms98-a-0097	B.126	590.420000	591.066375		[silence]	[silence]
sw2397B-ms98-a-0097	B.126	591.066375	591.220000		Oh	oh
sw2397B-ms98-a-0097	B.126	591.220000	591.450000		that	that
sw2397B-ms98-a-0097	B.126	591.450000	592.010000		sounds	sounds
sw2397B-ms98-a-0097	B.126	592.010000	592.440000		really	really
sw2397B-ms98-a-0097	B.126	592.440000	592.730625		neat	neat
sw2397B-ms98-a-0097	B.128	592.730625	593.258000		[silence]	[silence]
sw2397B-ms98-a-0097	B.128	593.258000	593.420000		Did	did
sw2397B-ms98-a-0097	B.128	593.420000	593.520000		you	you
sw2397B-ms98-a-0097	B.128	593.520000	593.871625		do	do
sw2397B-ms98-a-0097	B.128	593.871625	593.992250		[silence]	[silence]
sw2397B-ms98-a-0097	B.128	593.992250	594.120000		did	did
sw2397B-ms98-a-0097	B.128	594.120000	594.210000		you	you
sw2397B-ms98-a-0097	B.128	594.210000	594.440000		use	use
sw2397B-ms98-a-0097	B.128	594.440000	594.630000		like	like
sw2397B-ms98-a-0097	B.128	594.630000	594.630000	<INS>	uh	---
sw2397B-ms98-a-0097	B.128	594.630000	594.803000		a	a
sw2397B-ms98-a-0097	B.128	594.803000	595.280000		stamp	stamp
sw2397B-ms98-a-0097	B.128	595.280000	595.744125		pad	pad
sw2397B-ms98-a-0097	B.130	595.744125	595.860875		[silence]	[silence]
sw2397B-ms98-a-0097	B.130	595.860875	596.129500	<SUB>	and	an
sw2397B-ms98-a-0097	B.130	596.129500	596.529250		ink	ink
sw2397B-ms98-a-0097	B.130	596.529250	597.055500	<SUB>	Ok	okay
sw2397B-ms98-a-0097	B.130	597.055500	597.232500		[silence]	[silence]
sw2397B-ms98-a-0097	B.130	597.232500	597.350000		so	so
sw2397B-ms98-a-0097	B.130	597.350000	597.520000		you	you
sw2397B-ms98-a-0097	B.130	597.520000	597.785125	<DEL>	---	just
sw2397B-ms98-a-0097	B.130	597.785125	598.161500		[silence]	[silence]
sw2397B-ms98-a-0098	B.130	598.161500	598.538625		[silence]	[silence]
sw2397B-ms98-a-0098	B.130	598.538625	598.791500		just	just
sw2397B-ms98-a-0098	B.130	598.791500	598.991500		like	like
sw2397B-ms98-a-0098	B.130	598.991500	599.221500		being	being
sw2397B-ms98-a-0098	B.130	599.221500	599.561500		finger	finger
sw2397B-ms98-a-0098	B.130	599.561500	600.001625		printed	printed
sw2397B-ms98-a-0098	B.130	600.001625	600.209250		[silence]	[silence]
