sw2435B-ms98-a-0001	B.2	0.000000	0.770000		[silence]	[silence]
sw2435B-ms98-a-0001	B.2	0.770000	0.990000		[noise]	[noise]
sw2435B-ms98-a-0001	B.2	0.990000	1.498250		[silence]	[silence]
sw2435B-ms98-a-0002	B.2	1.498250	2.278250		[silence]	[silence]
sw2435B-ms98-a-0002	B.2	2.278250	2.868250		Um	um
sw2435B-ms98-a-0002	B.2	2.868250	3.688250		[noise]	[noise]
sw2435B-ms98-a-0002	B.2	3.688250	3.783000		[silence]	[silence]
sw2435B-ms98-a-0003	B.2	3.783000	4.323000		[silence]	[silence]
sw2435B-ms98-a-0003	B.2	4.323000	4.413000		a	a
sw2435B-ms98-a-0003	B.2	4.413000	4.683000		lot	lot
sw2435B-ms98-a-0003	B.2	4.683000	5.462250		well	[laughter-well]
sw2435B-ms98-a-0003	B.2	5.462250	5.843000		[silence]	[silence]
sw2435B-ms98-a-0003	B.2	5.843000	5.963000		the	the
sw2435B-ms98-a-0003	B.2	5.963000	6.283000		last	last
sw2435B-ms98-a-0003	B.2	6.283000	6.583000		movie	movie
sw2435B-ms98-a-0003	B.2	6.583000	6.713000		I	i
sw2435B-ms98-a-0003	B.2	6.713000	7.313000		saw	saw
sw2435B-ms98-a-0003	B.2	7.313000	7.473000		but	but
sw2435B-ms98-a-0003	B.2	7.473000	7.563000		it	it
sw2435B-ms98-a-0003	B.2	7.563000	7.863000		wasn't	wasn't
sw2435B-ms98-a-0003	B.2	7.863000	8.013000		my	my
sw2435B-ms98-a-0003	B.2	8.013000	8.583000		choice	choice
sw2435B-ms98-a-0003	B.2	8.583000	8.773000		was	was
sw2435B-ms98-a-0003	B.2	8.773000	8.873000		the	the
sw2435B-ms98-a-0003	B.2	8.873000	9.233000		NINJA	Ninja
sw2435B-ms98-a-0003	B.2	9.233000	9.553000		TURTLE	Turtle
sw2435B-ms98-a-0003	B.2	9.553000	9.883000		movie	movie
sw2435B-ms98-a-0003	B.4	9.883000	10.623000		[laughter]	[laughter]
sw2435B-ms98-a-0003	B.4	10.623000	11.257750		[silence]	[silence]
sw2435B-ms98-a-0004	B.4	11.257750	11.802500		[silence]	[silence]
sw2435B-ms98-a-0004	B.4	11.802500	12.272500		That's	[laughter-that's]
sw2435B-ms98-a-0004	B.4	12.272500	12.826250		right	[laughter-right]
sw2435B-ms98-a-0004	B.4	12.826250	13.685500		[silence]	[silence]
sw2435B-ms98-a-0004	B.4	13.685500	14.117750		Yeah	yeah
sw2435B-ms98-a-0004	B.4	14.117750	14.452375		but	but
sw2435B-ms98-a-0004	B.4	14.452375	14.840375	<DEL>	---	uh
sw2435B-ms98-a-0004	B.4	14.840375	15.217750		[silence]	[silence]
sw2435B-ms98-a-0004	B.4	15.217750	15.357750		my	my
sw2435B-ms98-a-0004	B.4	15.357750	15.887750		preference	preference
sw2435B-ms98-a-0004	B.4	15.887750	16.167750		is	is
sw2435B-ms98-a-0004	B.4	16.167750	16.227750		the	the
sw2435B-ms98-a-0004	B.4	16.227750	16.377750		one	one
sw2435B-ms98-a-0004	B.4	16.377750	16.597750		we	we
sw2435B-ms98-a-0004	B.4	16.597750	16.827750		saw	saw
sw2435B-ms98-a-0004	B.4	16.827750	17.147750		before	before
sw2435B-ms98-a-0004	B.4	17.147750	17.417750		that	that
sw2435B-ms98-a-0004	B.4	17.417750	17.617750		was	was
sw2435B-ms98-a-0004	B.4	17.617750	18.197750		SILENCE	Silence
sw2435B-ms98-a-0004	B.4	18.197750	18.257750		OF	of
sw2435B-ms98-a-0004	B.4	18.257750	18.337750		THE	the
sw2435B-ms98-a-0004	B.4	18.337750	19.043375		LAMBS	Lambs
sw2435B-ms98-a-0004	B.6	19.043375	19.707125		[silence]	[silence]
sw2435B-ms98-a-0005	B.6	19.707125	20.487125		[silence]	[silence]
sw2435B-ms98-a-0005	B.6	20.487125	20.737125		That's	that's
sw2435B-ms98-a-0005	B.6	20.737125	20.847125		an	an
sw2435B-ms98-a-0005	B.6	20.847125	20.937125		[silence]	[silence]
sw2435B-ms98-a-0005	B.6	20.937125	21.377125		excellent	excellent
sw2435B-ms98-a-0005	B.6	21.377125	21.777125		movie	movie
sw2435B-ms98-a-0005	B.8	21.777125	23.056125		[silence]	[silence]
sw2435B-ms98-a-0006	B.8	23.056125	25.865625		[silence]	[silence]
sw2435B-ms98-a-0007	B.8	25.865625	26.455625		[silence]	[silence]
sw2435B-ms98-a-0007	B.8	26.455625	26.625625		Oh	oh
sw2435B-ms98-a-0007	B.8	26.625625	26.755625		was	was
sw2435B-ms98-a-0007	B.8	26.755625	26.915625		that	that
sw2435B-ms98-a-0007	B.8	26.915625	27.215625		good	good
sw2435B-ms98-a-0007	B.8	27.215625	27.285625		I	i
sw2435B-ms98-a-0007	B.8	27.285625	27.595625		heard	heard
sw2435B-ms98-a-0007	B.10	27.595625	28.018500		[silence]	[silence]
sw2435B-ms98-a-0008	B.10	28.018500	29.543000		[silence]	[silence]
sw2435B-ms98-a-0009	B.10	29.543000	30.000375		[silence]	[silence]
sw2435B-ms98-a-0009	B.10	30.000375	30.403000		Oh	oh
sw2435B-ms98-a-0009	B.10	30.403000	30.805375		okay	okay
sw2435B-ms98-a-0009	B.12	30.805375	31.342875		[silence]	[silence]
sw2435B-ms98-a-0010	B.12	31.342875	35.364750		[silence]	[silence]
sw2435B-ms98-a-0011	B.12	35.364750	35.994750		[silence]	[silence]
sw2435B-ms98-a-0011	B.12	35.994750	36.134750		Well	well
sw2435B-ms98-a-0011	B.12	36.134750	36.444750		that's	that's
sw2435B-ms98-a-0011	B.12	36.444750	36.953375		good	good
sw2435B-ms98-a-0011	B.14	36.953375	37.439875		[silence]	[silence]
sw2435B-ms98-a-0012	B.14	37.439875	39.224250		[silence]	[silence]
sw2435B-ms98-a-0013	B.14	39.224250	39.684250		[silence]	[silence]
sw2435B-ms98-a-0013	B.14	39.684250	40.522500		Yeah	yeah
sw2435B-ms98-a-0013	B.16	40.522500	41.009000		[silence]	[silence]
sw2435B-ms98-a-0014	B.16	41.009000	41.588375		[silence]	[silence]
sw2435B-ms98-a-0014	B.16	41.588375	41.790500	<DEL>	---	that's
sw2435B-ms98-a-0014	B.16	41.790500	41.909000	<DEL>	---	uh
sw2435B-ms98-a-0014	B.16	41.909000	42.329000		SILENCE	Silence
sw2435B-ms98-a-0014	B.16	42.329000	42.389000		OF	of
sw2435B-ms98-a-0014	B.16	42.389000	42.449000		THE	the
sw2435B-ms98-a-0014	B.16	42.449000	42.799000		LAMBS	Lambs
sw2435B-ms98-a-0014	B.16	42.799000	43.149000		kept	kept
sw2435B-ms98-a-0014	B.16	43.149000	43.329000		me	me
sw2435B-ms98-a-0014	B.16	43.329000	43.449000		on	on
sw2435B-ms98-a-0014	B.16	43.449000	43.545250		the	the
sw2435B-ms98-a-0014	B.16	43.545250	43.763125		edge	edge
sw2435B-ms98-a-0014	B.16	43.763125	43.849750		of	of
sw2435B-ms98-a-0014	B.16	43.849750	44.049000		my	my
sw2435B-ms98-a-0014	B.16	44.049000	44.489000		seat	seat
sw2435B-ms98-a-0014	B.18	44.489000	45.030375		[silence]	[silence]
sw2435B-ms98-a-0015	B.18	45.030375	47.924000		[silence]	[silence]
sw2435B-ms98-a-0016	B.18	47.924000	48.374000		[silence]	[silence]
sw2435B-ms98-a-0016	B.18	48.374000	48.854000		Right	right
sw2435B-ms98-a-0016	B.20	48.854000	49.382625		[silence]	[silence]
sw2435B-ms98-a-0017	B.20	49.382625	50.581875		[silence]	[silence]
sw2435B-ms98-a-0018	B.20	50.581875	51.025750		[silence]	[silence]
sw2435B-ms98-a-0018	B.20	51.025750	51.545875		Yeah	yeah
sw2435B-ms98-a-0018	B.20	51.545875	51.730250		it	it
sw2435B-ms98-a-0018	B.20	51.730250	52.176250		is	is
sw2435B-ms98-a-0018	B.22	52.176250	53.072500		[silence]	[silence]
sw2435B-ms98-a-0018	B.22	53.072500	53.551875		Right	right
sw2435B-ms98-a-0018	B.24	53.551875	54.021875		[silence]	[silence]
sw2435B-ms98-a-0018	B.24	54.021875	54.151875		And	and
sw2435B-ms98-a-0018	B.24	54.151875	54.231875		I	i
sw2435B-ms98-a-0018	B.24	54.231875	54.666500		do	do
sw2435B-ms98-a-0018	B.26	54.666500	54.851500		[silence]	[silence]
sw2435B-ms98-a-0018	B.26	54.851500	55.117250	<DEL>	---	i-
sw2435B-ms98-a-0018	B.26	55.117250	55.622500		[silence]	[silence]
sw2435B-ms98-a-0019	B.26	55.622500	58.207000		[silence]	[silence]
sw2435B-ms98-a-0020	B.26	58.207000	58.802875		[silence]	[silence]
sw2435B-ms98-a-0020	B.26	58.802875	59.131625	<DEL>	---	[laughter-oh]
sw2435B-ms98-a-0020	B.26	59.131625	59.709250		Really	[laughter-really]
sw2435B-ms98-a-0020	B.26	59.709250	60.657125		[silence]	[silence]
sw2435B-ms98-a-0020	B.26	60.657125	60.877500		Oh	oh
sw2435B-ms98-a-0020	B.26	60.877500	60.990500		I	i
sw2435B-ms98-a-0020	B.26	60.990500	61.177000		love	love
sw2435B-ms98-a-0020	B.26	61.177000	61.347000		them	them
sw2435B-ms98-a-0020	B.26	61.347000	61.587000		like	like
sw2435B-ms98-a-0020	B.26	61.587000	61.980500		that	that
sw2435B-ms98-a-0020	B.28	61.980500	62.364625		[silence]	[silence]
sw2435B-ms98-a-0020	B.28	62.364625	62.497000		I'm	i'm
sw2435B-ms98-a-0020	B.28	62.497000	62.727000		not	not
sw2435B-ms98-a-0020	B.28	62.727000	62.817000		I	i
sw2435B-ms98-a-0020	B.28	62.817000	63.127000		mean	mean
sw2435B-ms98-a-0020	B.28	63.127000	63.438875		I	i
sw2435B-ms98-a-0020	B.28	63.438875	63.899000		[silence]	[silence]
sw2435B-ms98-a-0020	B.28	63.899000	64.091125		I	i
sw2435B-ms98-a-0020	B.28	64.091125	64.287000		like	like
sw2435B-ms98-a-0020	B.28	64.287000	64.537000		all	all
sw2435B-ms98-a-0020	B.28	64.537000	65.097000		ranges	ranges
sw2435B-ms98-a-0020	B.28	65.097000	65.207000		of	of
sw2435B-ms98-a-0020	B.28	65.207000	65.815875		movies	movies
sw2435B-ms98-a-0020	B.28	65.815875	66.057000		but	but
sw2435B-ms98-a-0020	B.28	66.057000	66.622000		[silence]	[silence]
sw2435B-ms98-a-0021	B.28	66.622000	67.372000		[silence]	[silence]
sw2435B-ms98-a-0021	B.28	67.372000	67.542000		I	i
sw2435B-ms98-a-0021	B.28	67.542000	67.792000		like	like
sw2435B-ms98-a-0021	B.28	67.792000	68.052000		that	that
sw2435B-ms98-a-0021	B.28	68.052000	68.202000		where	where
sw2435B-ms98-a-0021	B.28	68.202000	68.272000	<SUB>	they	they're
sw2435B-ms98-a-0021	B.28	68.272000	68.474125	<SUB>	run	real
sw2435B-ms98-a-0021	B.28	68.474125	69.339375	<SUB>	tense	intense
sw2435B-ms98-a-0021	B.30	69.339375	69.952000		[silence]	[silence]
sw2435B-ms98-a-0021	B.30	69.952000	70.012000		I	i
sw2435B-ms98-a-0021	B.30	70.012000	70.272000		really	really
sw2435B-ms98-a-0021	B.30	70.272000	70.652000		enjoy	enjoy
sw2435B-ms98-a-0021	B.30	70.652000	70.822000		they	they
sw2435B-ms98-a-0021	B.30	70.822000	71.112000		keep	keep
sw2435B-ms98-a-0021	B.30	71.112000	71.492000		me	me
sw2435B-ms98-a-0021	B.30	71.492000	71.892000		guessing	guessing
sw2435B-ms98-a-0021	B.30	71.892000	71.972000		the	the
sw2435B-ms98-a-0021	B.30	71.972000	72.132000		whole	whole
sw2435B-ms98-a-0021	B.30	72.132000	72.514250		time	time
sw2435B-ms98-a-0021	B.30	72.514250	73.463500		[silence]	[silence]
sw2435B-ms98-a-0021	B.30	73.463500	73.722000		It's	it's
sw2435B-ms98-a-0021	B.30	73.722000	74.039875		really	really
sw2435B-ms98-a-0021	B.30	74.039875	74.175250		[silence]	[silence]
sw2435B-ms98-a-0021	B.30	74.175250	74.412125	<DEL>	---	it's
sw2435B-ms98-a-0021	B.30	74.412125	74.539250	<DEL>	---	real
sw2435B-ms98-a-0021	B.30	74.539250	74.624875		it	it
sw2435B-ms98-a-0021	B.30	74.624875	74.786875		was	was
sw2435B-ms98-a-0021	B.30	74.786875	74.992000		really	really
sw2435B-ms98-a-0021	B.30	74.992000	75.552000		interesting	interesting
sw2435B-ms98-a-0021	B.32	75.552000	76.038125		[silence]	[silence]
sw2435B-ms98-a-0022	B.32	76.038125	77.677875		[silence]	[silence]
sw2435B-ms98-a-0023	B.32	77.677875	78.277875		[silence]	[silence]
sw2435B-ms98-a-0023	B.32	78.277875	79.336750		Oh	oh
sw2435B-ms98-a-0023	B.34	79.336750	79.863250		[silence]	[silence]
sw2435B-ms98-a-0024	B.34	79.863250	81.286625		[silence]	[silence]
sw2435B-ms98-a-0025	B.34	81.286625	81.826625		[silence]	[silence]
sw2435B-ms98-a-0025	B.34	81.826625	82.076625		Yes	yes
sw2435B-ms98-a-0025	B.34	82.076625	82.206625		the	the
sw2435B-ms98-a-0025	B.34	82.206625	82.486625		new	new
sw2435B-ms98-a-0025	B.34	82.486625	82.876625		one	one
sw2435B-ms98-a-0025	B.34	82.876625	83.026625		of	of
sw2435B-ms98-a-0025	B.34	83.026625	83.496625		course	course
sw2435B-ms98-a-0025	B.36	83.496625	84.188125		[laughter]	[laughter]
sw2435B-ms98-a-0025	B.36	84.188125	84.654875		[silence]	[silence]
sw2435B-ms98-a-0026	B.36	84.654875	89.982625		[silence]	[silence]
sw2435B-ms98-a-0027	B.36	89.982625	90.401875		[silence]	[silence]
sw2435B-ms98-a-0027	B.36	90.401875	90.794250		[vocalized-noise]	[vocalized-noise]
sw2435B-ms98-a-0027	B.36	90.794250	91.128875		[silence]	[silence]
sw2435B-ms98-a-0028	B.36	91.128875	92.879375		[silence]	[silence]
sw2435B-ms98-a-0029	B.36	92.879375	93.349375		[silence]	[silence]
sw2435B-ms98-a-0029	B.36	93.349375	94.458375		Oh	oh
sw2435B-ms98-a-0029	B.38	94.458375	95.405000		[silence]	[silence]
sw2435B-ms98-a-0029	B.38	95.405000	95.614375	<SUB>	Amarillo	it
sw2435B-ms98-a-0029	B.38	95.614375	95.952750	<DEL>	---	really
sw2435B-ms98-a-0029	B.38	95.952750	96.122250	<DEL>	---	was
sw2435B-ms98-a-0029	B.38	96.122250	96.314750		I	i
sw2435B-ms98-a-0029	B.38	96.314750	96.519375		didn't	didn't
sw2435B-ms98-a-0029	B.38	96.519375	96.589375		see	see
sw2435B-ms98-a-0029	B.38	96.589375	96.699375	<DEL>	---	it
sw2435B-ms98-a-0029	B.38	96.699375	96.789375		the	the
sw2435B-ms98-a-0029	B.38	96.789375	96.959375		first	first
sw2435B-ms98-a-0029	B.38	96.959375	97.069375		one	one
sw2435B-ms98-a-0029	B.38	97.069375	97.169375		My	my
sw2435B-ms98-a-0029	B.38	97.169375	97.569375		husband	husband
sw2435B-ms98-a-0029	B.38	97.569375	97.789375		said	said
sw2435B-ms98-a-0029	B.38	97.789375	97.919375		it	it
sw2435B-ms98-a-0029	B.38	97.919375	98.257500		was	was
sw2435B-ms98-a-0029	B.38	98.257500	98.822500		[silence]	[silence]
sw2435B-ms98-a-0029	B.38	98.822500	99.419375		um	um
sw2435B-ms98-a-0029	B.38	99.419375	99.559375		[silence]	[silence]
sw2435B-ms98-a-0029	B.38	99.559375	99.779375		about	about
sw2435B-ms98-a-0029	B.38	99.779375	99.839375		the	the
sw2435B-ms98-a-0029	B.38	99.839375	100.079375		same	same
sw2435B-ms98-a-0029	B.38	100.079375	100.585000		lines	lines
sw2435B-ms98-a-0029	B.40	100.585000	101.158500		[silence]	[silence]
sw2435B-ms98-a-0030	B.40	101.158500	101.508500		[silence]	[silence]
sw2435B-ms98-a-0030	B.40	101.508500	101.914000		So	so
sw2435B-ms98-a-0030	B.40	101.914000	102.312125	<SUB>	yeah	yes
sw2435B-ms98-a-0030	B.42	102.312125	102.809500		[silence]	[silence]
sw2435B-ms98-a-0031	B.42	102.809500	105.765125		[silence]	[silence]
sw2435B-ms98-a-0032	B.42	105.765125	106.375125		[silence]	[silence]
sw2435B-ms98-a-0032	B.42	106.375125	106.825125		Right	right
sw2435B-ms98-a-0032	B.42	106.825125	107.085125		[silence]	[silence]
sw2435B-ms98-a-0032	B.42	107.085125	107.535125		right	right
sw2435B-ms98-a-0032	B.42	107.535125	107.885125		And	and
sw2435B-ms98-a-0032	B.42	107.885125	108.309250	<DEL>	---	um
sw2435B-ms98-a-0032	B.42	108.309250	108.441000		[silence]	[silence]
sw2435B-ms98-a-0032	B.42	108.441000	108.660750		I	i
sw2435B-ms98-a-0032	B.42	108.660750	108.855250		was	was
sw2435B-ms98-a-0032	B.42	108.855250	108.998375	<DEL>	---	i
sw2435B-ms98-a-0032	B.42	108.998375	109.175125	<DEL>	---	was
sw2435B-ms98-a-0032	B.42	109.175125	109.595125		impressed	impressed
sw2435B-ms98-a-0032	B.42	109.595125	109.685125		with	with
sw2435B-ms98-a-0032	B.42	109.685125	109.755125		the	the
sw2435B-ms98-a-0032	B.42	109.755125	110.125125		fact	fact
sw2435B-ms98-a-0032	B.42	110.125125	110.615125		that	that
sw2435B-ms98-a-0032	B.42	110.615125	111.115125		um	um
sw2435B-ms98-a-0032	B.42	111.115125	111.361125		[silence]	[silence]
sw2435B-ms98-a-0033	B.42	111.361125	111.741125		[silence]	[silence]
sw2435B-ms98-a-0033	B.42	111.741125	111.801125		it	it
sw2435B-ms98-a-0033	B.42	111.801125	112.071125		wasn't	wasn't
sw2435B-ms98-a-0033	B.42	112.071125	112.271125		that	that
sw2435B-ms98-a-0033	B.42	112.271125	112.991125		childish	childish
sw2435B-ms98-a-0033	B.44	112.991125	113.767875		[silence]	[silence]
sw2435B-ms98-a-0033	B.44	113.767875	113.851125		You	you
sw2435B-ms98-a-0033	B.44	113.851125	113.931125		know	know
sw2435B-ms98-a-0033	B.44	113.931125	114.021125		what	what
sw2435B-ms98-a-0033	B.44	114.021125	114.051125		I	i
sw2435B-ms98-a-0033	B.44	114.051125	114.261125		mean	mean
sw2435B-ms98-a-0033	B.44	114.261125	114.381125		It	it
sw2435B-ms98-a-0033	B.44	114.381125	115.011125		wasn't	wasn't
sw2435B-ms98-a-0033	B.44	115.011125	115.101125		my	my
sw2435B-ms98-a-0033	B.44	115.101125	115.473500		daughter's	daughter's
sw2435B-ms98-a-0033	B.44	115.473500	115.831250		five	five
sw2435B-ms98-a-0033	B.44	115.831250	115.936500		I	i
sw2435B-ms98-a-0033	B.44	115.936500	116.101125		mean	mean
sw2435B-ms98-a-0033	B.44	116.101125	116.251125		she	she
sw2435B-ms98-a-0033	B.44	116.251125	116.611125		understood	understood
sw2435B-ms98-a-0033	B.44	116.611125	117.128250		everything	everything
sw2435B-ms98-a-0033	B.44	117.128250	117.568875		[silence]	[silence]
sw2435B-ms98-a-0033	B.44	117.568875	117.771125		She	she
sw2435B-ms98-a-0033	B.44	117.771125	118.011125		goes	goes
sw2435B-ms98-a-0033	B.44	118.011125	118.255125		to	to
sw2435B-ms98-a-0033	B.44	118.255125	118.420750		[silence]	[silence]
sw2435B-ms98-a-0033	B.44	118.420750	118.781125		almost	almost
sw2435B-ms98-a-0033	B.44	118.781125	119.001125		all	all
sw2435B-ms98-a-0033	B.44	119.001125	119.341125		movies	movies
sw2435B-ms98-a-0033	B.44	119.341125	119.551125		with	with
sw2435B-ms98-a-0033	B.44	119.551125	119.691125		us	us
sw2435B-ms98-a-0033	B.44	119.691125	120.198750		except	except
sw2435B-ms98-a-0033	B.44	120.198750	120.295375		you	you
sw2435B-ms98-a-0033	B.44	120.295375	120.404625		know	know
sw2435B-ms98-a-0033	B.44	120.404625	120.561125		R	R
sw2435B-ms98-a-0033	B.44	120.561125	120.931125		rated	rated
sw2435B-ms98-a-0033	B.44	120.931125	121.601125		[silence]	[silence]
sw2435B-ms98-a-0033	B.44	121.601125	121.971125		And	and
sw2435B-ms98-a-0033	B.44	121.971125	122.231125	<DEL>	---	uh
sw2435B-ms98-a-0033	B.44	122.231125	122.605000		[silence]	[silence]
sw2435B-ms98-a-0034	B.44	122.605000	123.175000		[silence]	[silence]
sw2435B-ms98-a-0034	B.44	123.175000	123.415000		she	she
sw2435B-ms98-a-0034	B.44	123.415000	123.675000		really	really
sw2435B-ms98-a-0034	B.44	123.675000	124.085000		enjoyed	enjoyed
sw2435B-ms98-a-0034	B.44	124.085000	124.311500		it	it
sw2435B-ms98-a-0034	B.44	124.311500	124.556250		[silence]	[silence]
sw2435B-ms98-a-0034	B.44	124.556250	124.873375		but	but
sw2435B-ms98-a-0034	B.44	124.873375	125.301750		[silence]	[silence]
sw2435B-ms98-a-0034	B.44	125.301750	125.373500	<DEL>	---	but
sw2435B-ms98-a-0034	B.44	125.373500	125.435000		it	it
sw2435B-ms98-a-0034	B.44	125.435000	125.596750		was	was
sw2435B-ms98-a-0034	B.44	125.596750	125.708625		on	on
sw2435B-ms98-a-0034	B.44	125.708625	125.919750		a	a
sw2435B-ms98-a-0034	B.44	125.919750	126.144375	<DEL>	---	on
sw2435B-ms98-a-0034	B.44	126.144375	126.255000	<DEL>	---	a
sw2435B-ms98-a-0034	B.44	126.255000	126.475000		higher	higher
sw2435B-ms98-a-0034	B.44	126.475000	126.865000		level	level
sw2435B-ms98-a-0034	B.44	126.865000	127.055000		[silence]	[silence]
sw2435B-ms98-a-0034	B.44	127.055000	127.155000		you	you
sw2435B-ms98-a-0034	B.44	127.155000	127.315000		know	know
sw2435B-ms98-a-0034	B.44	127.315000	127.575000		where	where
sw2435B-ms98-a-0034	B.44	127.575000	127.715000		there	there
sw2435B-ms98-a-0034	B.44	127.715000	127.805000		were	were
sw2435B-ms98-a-0034	B.44	127.805000	127.995000		some	some
sw2435B-ms98-a-0034	B.44	127.995000	128.245000		things	things
sw2435B-ms98-a-0034	B.44	128.245000	128.355000		that	that
sw2435B-ms98-a-0034	B.44	128.355000	128.625000		kids	kids
sw2435B-ms98-a-0034	B.44	128.625000	128.835000		didn't	didn't
sw2435B-ms98-a-0034	B.44	128.835000	129.405000		understand	understand
sw2435B-ms98-a-0034	B.44	129.405000	129.605000		that	that
sw2435B-ms98-a-0034	B.44	129.605000	130.005000		adults	adults
sw2435B-ms98-a-0034	B.44	130.005000	130.225000		did	did
sw2435B-ms98-a-0034	B.44	130.225000	130.465000		and	and
sw2435B-ms98-a-0034	B.44	130.465000	130.535000		I	i
sw2435B-ms98-a-0034	B.44	130.535000	130.805000		liked	liked
sw2435B-ms98-a-0034	B.44	130.805000	131.175000		that	that
sw2435B-ms98-a-0034	B.46	131.175000	131.997250		[silence]	[silence]
sw2435B-ms98-a-0035	B.46	131.997250	136.446500		[silence]	[silence]
sw2435B-ms98-a-0036	B.46	136.446500	137.106500		[silence]	[silence]
sw2435B-ms98-a-0036	B.46	137.106500	137.516500		Right	right
sw2435B-ms98-a-0036	B.50	137.516500	138.211125		[silence]	[silence]
sw2435B-ms98-a-0037	B.50	138.211125	138.985625		[silence]	[silence]
sw2435B-ms98-a-0037	B.50	138.985625	139.958750		[laughter]	[laughter]
sw2435B-ms98-a-0037	B.50	139.958750	141.428250		[silence]	[silence]
sw2435B-ms98-a-0037	B.50	141.428250	141.821125		That's	that's
sw2435B-ms98-a-0037	B.50	141.821125	142.111125		right	right
sw2435B-ms98-a-0037	B.50	142.111125	142.431125		that's	that's
sw2435B-ms98-a-0037	B.50	142.431125	142.784250		right	right
sw2435B-ms98-a-0037	B.52	142.784250	142.953750	<DEL>	---	and
sw2435B-ms98-a-0037	B.52	142.953750	143.122375	<DEL>	---	it
sw2435B-ms98-a-0037	B.52	143.122375	143.374750		[silence]	[silence]
sw2435B-ms98-a-0037	B.52	143.374750	143.651125		It's	it's
sw2435B-ms98-a-0037	B.52	143.651125	143.891125		pretty	pretty
sw2435B-ms98-a-0037	B.52	143.891125	144.191125		good	good
sw2435B-ms98-a-0037	B.52	144.191125	144.411125		But	but
sw2435B-ms98-a-0037	B.52	144.411125	144.561125		we	we
sw2435B-ms98-a-0037	B.52	144.561125	144.901125		take	take
sw2435B-ms98-a-0037	B.52	144.901125	144.981875		[silence]	[silence]
sw2435B-ms98-a-0037	B.52	144.981875	145.143875	<DEL>	---	we
sw2435B-ms98-a-0037	B.52	145.143875	145.331125	<DEL>	---	take
sw2435B-ms98-a-0037	B.52	145.331125	145.531125		her	her
sw2435B-ms98-a-0037	B.52	145.531125	145.651125		to	to
sw2435B-ms98-a-0037	B.52	145.651125	145.891125		just	just
sw2435B-ms98-a-0037	B.52	145.891125	146.151125		about	about
sw2435B-ms98-a-0037	B.52	146.151125	146.595750		[silence]	[silence]
sw2435B-ms98-a-0038	B.52	146.595750	147.065750		[silence]	[silence]
sw2435B-ms98-a-0038	B.52	147.065750	147.375750		every	every
sw2435B-ms98-a-0038	B.52	147.375750	147.795750		movie	movie
sw2435B-ms98-a-0038	B.52	147.795750	147.955750		and	and
sw2435B-ms98-a-0038	B.52	147.955750	148.365750		she	she
sw2435B-ms98-a-0038	B.52	148.365750	148.822750		uh	uh
sw2435B-ms98-a-0038	B.52	148.822750	149.435750		[silence]	[silence]
sw2435B-ms98-a-0038	B.52	149.435750	149.685750		she	she
sw2435B-ms98-a-0038	B.52	149.685750	149.975750		does	does
sw2435B-ms98-a-0038	B.52	149.975750	150.255750		really	really
sw2435B-ms98-a-0038	B.52	150.255750	150.505750		good	good
sw2435B-ms98-a-0038	B.52	150.505750	150.695750		We've	we've
sw2435B-ms98-a-0038	B.52	150.695750	150.945750		taken	taken
sw2435B-ms98-a-0038	B.52	150.945750	151.045750		her	her
sw2435B-ms98-a-0038	B.52	151.045750	151.295750		[silence]	[silence]
sw2435B-ms98-a-0038	B.52	151.295750	151.475750		from	from
sw2435B-ms98-a-0038	B.52	151.475750	151.605750		real	real
sw2435B-ms98-a-0038	B.52	151.605750	151.915750		young	young
sw2435B-ms98-a-0038	B.52	151.915750	152.095750		and	and
sw2435B-ms98-a-0038	B.52	152.095750	152.235750		she	she
sw2435B-ms98-a-0038	B.52	152.235750	152.565750		does	does
sw2435B-ms98-a-0038	B.52	152.565750	152.715750		real	real
sw2435B-ms98-a-0038	B.52	152.715750	153.035750		good	good
sw2435B-ms98-a-0038	B.52	153.035750	153.455750		[silence]	[silence]
sw2435B-ms98-a-0038	B.52	153.455750	153.575750		Like	like
sw2435B-ms98-a-0038	B.52	153.575750	153.605750		I	i
sw2435B-ms98-a-0038	B.52	153.605750	153.825750		said	said
sw2435B-ms98-a-0038	B.52	153.825750	153.915750		we	we
sw2435B-ms98-a-0038	B.52	153.915750	154.085750		don't	don't
sw2435B-ms98-a-0038	B.52	154.085750	154.285750		take	take
sw2435B-ms98-a-0038	B.52	154.285750	154.345750		her	her
sw2435B-ms98-a-0038	B.52	154.345750	154.405750		to	to
sw2435B-ms98-a-0038	B.52	154.405750	154.785750	<CONT>	R	R's
sw2435B-ms98-a-0038	B.52	154.785750	154.785750	<CONT>	-s	+++
sw2435B-ms98-a-0038	B.54	154.785750	155.715750		[silence]	[silence]
sw2435B-ms98-a-0038	B.54	155.715750	156.149375		So	so
sw2435B-ms98-a-0038	B.54	156.149375	156.289125		[silence]	[silence]
sw2435B-ms98-a-0038	B.54	156.289125	156.413375		[noise]	[noise]
sw2435B-ms98-a-0038	B.54	156.413375	156.495875		[silence]	[silence]
sw2435B-ms98-a-0038	B.54	156.495875	156.715750		if	if
sw2435B-ms98-a-0038	B.54	156.715750	156.855750		and	and
sw2435B-ms98-a-0038	B.54	156.855750	157.015750		when	when
sw2435B-ms98-a-0038	B.54	157.015750	157.125750		we	we
sw2435B-ms98-a-0038	B.54	157.125750	157.255750		ever	ever
sw2435B-ms98-a-0038	B.54	157.255750	157.355750		get	get
sw2435B-ms98-a-0038	B.54	157.355750	157.385750		a	a
sw2435B-ms98-a-0038	B.54	157.385750	157.905750		baby-sitter	babysitter
sw2435B-ms98-a-0038	B.54	157.905750	158.325750		[silence]	[silence]
sw2435B-ms98-a-0038	B.54	158.325750	158.475750		like	like
sw2435B-ms98-a-0038	B.54	158.475750	158.545750		we	we
sw2435B-ms98-a-0038	B.54	158.545750	158.675750		did	did
sw2435B-ms98-a-0038	B.54	158.675750	158.785750		with	with
sw2435B-ms98-a-0038	B.54	158.785750	159.115750		SILENCE	Silence
sw2435B-ms98-a-0038	B.54	159.115750	159.175750		OF	of
sw2435B-ms98-a-0038	B.54	159.175750	159.235750		THE	the
sw2435B-ms98-a-0038	B.54	159.235750	159.595750		LAMBS	[laughter-Lambs]
sw2435B-ms98-a-0038	B.54	159.595750	159.725750		we	[laughter-we]
sw2435B-ms98-a-0038	B.54	159.725750	159.895750		go	[laughter-go]
sw2435B-ms98-a-0038	B.54	159.895750	160.155750		see	see
sw2435B-ms98-a-0038	B.54	160.155750	160.354750		it	it
sw2435B-ms98-a-0038	B.56	160.354750	160.589375		[laughter]	[laughter]
sw2435B-ms98-a-0038	B.56	160.589375	161.350875		[silence]	[silence]
sw2435B-ms98-a-0039	B.56	161.350875	161.729250		[silence]	[silence]
sw2435B-ms98-a-0039	B.56	161.729250	162.528875	<SUB>	Oh	no
sw2435B-ms98-a-0039	B.56	162.528875	162.750875		no	no
sw2435B-ms98-a-0039	B.56	162.750875	163.263375		no	no
sw2435B-ms98-a-0039	B.58	163.263375	164.614625		[silence]	[silence]
sw2435B-ms98-a-0040	B.58	164.614625	166.554500		[silence]	[silence]
sw2435B-ms98-a-0041	B.58	166.554500	167.194500		[silence]	[silence]
sw2435B-ms98-a-0041	B.58	167.194500	167.954500		Yeah	yeah
sw2435B-ms98-a-0041	B.58	167.954500	168.284500		[silence]	[silence]
sw2435B-ms98-a-0041	B.58	168.284500	168.769000		yeah	yeah
sw2435B-ms98-a-0041	B.60	168.769000	169.364500	<DEL>	---	um
sw2435B-ms98-a-0041	B.60	169.364500	170.507500		[silence]	[silence]
sw2435B-ms98-a-0042	B.60	170.507500	170.672750		[silence]	[silence]
sw2435B-ms98-a-0042	B.60	170.672750	171.038000		Oh	oh
sw2435B-ms98-a-0042	B.60	171.038000	171.459750		gosh	gosh
sw2435B-ms98-a-0042	B.60	171.459750	171.707625		what	what
sw2435B-ms98-a-0042	B.60	171.707625	171.816750		was	was
sw2435B-ms98-a-0042	B.60	171.816750	171.944750		the	the
sw2435B-ms98-a-0042	B.60	171.944750	172.257500		last	last
sw2435B-ms98-a-0042	B.60	172.257500	172.737500		comedy	comedy
sw2435B-ms98-a-0042	B.60	172.737500	172.907500		we	we
sw2435B-ms98-a-0042	B.60	172.907500	173.470375		saw	saw
sw2435B-ms98-a-0042	B.60	173.470375	173.835750		[silence]	[silence]
sw2435B-ms98-a-0042	B.60	173.835750	174.139500		Huh	huh
sw2435B-ms98-a-0042	B.60	174.139500	174.494625		huh	huh
sw2435B-ms98-a-0042	B.60	174.494625	175.136875		huh	huh
sw2435B-ms98-a-0042	B.60	175.136875	175.636500		[silence]	[silence]
sw2435B-ms98-a-0042	B.60	175.636500	175.844750		Good	good
sw2435B-ms98-a-0042	B.60	175.844750	176.355375		question	question
sw2435B-ms98-a-0042	B.60	176.355375	177.630125		[laughter]	[laughter]
sw2435B-ms98-a-0042	B.60	177.630125	177.837500		good	good
sw2435B-ms98-a-0042	B.60	177.837500	178.397500		question	question
sw2435B-ms98-a-0042	B.60	178.397500	178.497500		We	we
sw2435B-ms98-a-0042	B.60	178.497500	178.687500		don't	don't
sw2435B-ms98-a-0042	B.60	178.687500	178.787500		get	get
sw2435B-ms98-a-0042	B.60	178.787500	178.847500		to	to
sw2435B-ms98-a-0042	B.60	178.847500	179.017500		go	go
sw2435B-ms98-a-0042	B.60	179.017500	179.477500		that	that
sw2435B-ms98-a-0042	B.60	179.477500	179.937500		often	often
sw2435B-ms98-a-0042	B.60	179.937500	180.154375		but	but
sw2435B-ms98-a-0042	B.60	180.154375	180.331375		[silence]	[silence]
sw2435B-ms98-a-0042	B.60	180.331375	180.693375	<DEL>	---	i'm
sw2435B-ms98-a-0042	B.60	180.693375	181.417375		[silence]	[silence]
sw2435B-ms98-a-0043	B.60	181.417375	181.737375		[silence]	[silence]
sw2435B-ms98-a-0043	B.60	181.737375	182.057375		something	something
sw2435B-ms98-a-0043	B.60	182.057375	182.237375		on	on
sw2435B-ms98-a-0043	B.60	182.237375	182.297375		the	the
sw2435B-ms98-a-0043	B.60	182.297375	182.427375		tip	tip
sw2435B-ms98-a-0043	B.60	182.427375	182.487375		of	of
sw2435B-ms98-a-0043	B.60	182.487375	182.666375		my	my
sw2435B-ms98-a-0043	B.60	182.666375	182.862250		tongue	tongue
sw2435B-ms98-a-0043	B.60	182.862250	182.957375		and	and
sw2435B-ms98-a-0043	B.60	182.957375	182.997375		I	i
sw2435B-ms98-a-0043	B.60	182.997375	183.257375		can't	can't
sw2435B-ms98-a-0043	B.60	183.257375	183.387375		think	think
sw2435B-ms98-a-0043	B.60	183.387375	183.447375		of	of
sw2435B-ms98-a-0043	B.60	183.447375	183.677375		which	which
sw2435B-ms98-a-0043	B.60	183.677375	183.817375		one	one
sw2435B-ms98-a-0043	B.60	183.817375	183.907375		it	it
sw2435B-ms98-a-0043	B.60	183.907375	184.597375		was	was
sw2435B-ms98-a-0043	B.60	184.597375	185.329000	<SUB>	Uh	um
sw2435B-ms98-a-0043	B.60	185.329000	186.047000		[silence]	[silence]
sw2435B-ms98-a-0043	B.60	186.047000	186.377000		[noise]	[noise]
sw2435B-ms98-a-0043	B.60	186.377000	187.330000		[silence]	[silence]
sw2435B-ms98-a-0044	B.60	187.330000	187.680000		[silence]	[silence]
sw2435B-ms98-a-0044	B.60	187.680000	188.290000		Gosh	gosh
sw2435B-ms98-a-0044	B.60	188.290000	188.386500		I	i
sw2435B-ms98-a-0044	B.60	188.386500	188.610000		can't	can't
sw2435B-ms98-a-0044	B.60	188.610000	188.975000		remember	remember
sw2435B-ms98-a-0044	B.62	188.975000	189.309875		[silence]	[silence]
sw2435B-ms98-a-0044	B.62	189.309875	189.625000	<DEL>	---	i
sw2435B-ms98-a-0044	B.62	189.625000	190.972000		[silence]	[silence]
sw2435B-ms98-a-0045	B.62	190.972000	193.028500		[silence]	[silence]
sw2435B-ms98-a-0046	B.62	193.028500	193.358500		[silence]	[silence]
sw2435B-ms98-a-0046	B.62	193.358500	193.634500		Uh-huh	uh-huh
sw2435B-ms98-a-0046	B.64	193.634500	194.009625		[silence]	[silence]
sw2435B-ms98-a-0047	B.64	194.009625	197.460500		[silence]	[silence]
sw2435B-ms98-a-0048	B.64	197.460500	198.164250		[silence]	[silence]
sw2435B-ms98-a-0048	B.64	198.164250	198.321000		But	but
sw2435B-ms98-a-0048	B.64	198.321000	198.581875		that	that
sw2435B-ms98-a-0048	B.64	198.581875	198.871125		that	that
sw2435B-ms98-a-0048	B.64	198.871125	199.235500		sounds	sounds
sw2435B-ms98-a-0048	B.64	199.235500	199.446750	<DEL>	---	that
sw2435B-ms98-a-0048	B.64	199.446750	199.798875	<DEL>	---	sounds
sw2435B-ms98-a-0048	B.64	199.798875	200.130500		good	good
sw2435B-ms98-a-0048	B.66	200.130500	200.769000		[silence]	[silence]
sw2435B-ms98-a-0049	B.66	200.769000	205.009875		[silence]	[silence]
sw2435B-ms98-a-0050	B.66	205.009875	205.609875		[silence]	[silence]
sw2435B-ms98-a-0050	B.66	205.609875	206.029875		Uh-huh	uh-huh
sw2435B-ms98-a-0050	B.68	206.029875	206.377625		[silence]	[silence]
sw2435B-ms98-a-0051	B.68	206.377625	207.419125		[silence]	[silence]
sw2435B-ms98-a-0052	B.68	207.419125	207.759125		[silence]	[silence]
sw2435B-ms98-a-0052	B.68	207.759125	208.081125		Right	right
sw2435B-ms98-a-0052	B.70	208.081125	208.503000		[silence]	[silence]
sw2435B-ms98-a-0053	B.70	208.503000	215.376875		[silence]	[silence]
sw2435B-ms98-a-0054	B.70	215.376875	216.016875		[silence]	[silence]
sw2435B-ms98-a-0054	B.70	216.016875	216.486875		Oh	oh
sw2435B-ms98-a-0054	B.70	216.486875	216.916875		okay	okay
sw2435B-ms98-a-0054	B.72	216.916875	217.879625		[silence]	[silence]
sw2435B-ms98-a-0055	B.72	217.879625	220.335125		[silence]	[silence]
sw2435B-ms98-a-0056	B.72	220.335125	220.825125		[silence]	[silence]
sw2435B-ms98-a-0056	B.72	220.825125	221.188000	<DEL>	---	uh-huh
sw2435B-ms98-a-0056	B.72	221.188000	221.618000		[silence]	[silence]
sw2435B-ms98-a-0057	B.72	221.618000	223.828500		[silence]	[silence]
sw2435B-ms98-a-0058	B.72	223.828500	224.028500		[silence]	[silence]
sw2435B-ms98-a-0058	B.72	224.028500	224.408500		That's	that's
sw2435B-ms98-a-0058	B.72	224.408500	224.898500		neat	neat
sw2435B-ms98-a-0058	B.74	224.898500	225.658500		[silence]	[silence]
sw2435B-ms98-a-0058	B.74	225.658500	225.768500	<DEL>	---	cause
sw2435B-ms98-a-0058	B.74	225.768500	226.008500	<DEL>	---	that
sw2435B-ms98-a-0058	B.74	226.008500	226.148500		The	the
sw2435B-ms98-a-0058	B.74	226.148500	226.388500		part	part
sw2435B-ms98-a-0058	B.74	226.388500	226.518500		was	was
sw2435B-ms98-a-0058	B.74	226.518500	226.828500		hard	hard
sw2435B-ms98-a-0058	B.74	226.828500	226.978625		to	to
sw2435B-ms98-a-0058	B.74	226.978625	227.621750		[silence]	[silence]
sw2435B-ms98-a-0058	B.74	227.621750	227.843375	<DEL>	---	to
sw2435B-ms98-a-0058	B.74	227.843375	227.978500		do	do
sw2435B-ms98-a-0058	B.74	227.978500	228.291375		that	[laughter-that]
sw2435B-ms98-a-0058	B.76	228.291375	229.658500		[silence]	[silence]
sw2435B-ms98-a-0059	B.76	229.658500	233.448000		[silence]	[silence]
sw2435B-ms98-a-0060	B.76	233.448000	234.058000		[silence]	[silence]
sw2435B-ms98-a-0060	B.76	234.058000	234.458000		Right	right
sw2435B-ms98-a-0060	B.78	234.458000	234.954750		[silence]	[silence]
sw2435B-ms98-a-0061	B.78	234.954750	237.998000		[silence]	[silence]
sw2435B-ms98-a-0062	B.78	237.998000	238.488000		[silence]	[silence]
sw2435B-ms98-a-0062	B.78	238.488000	239.076000		Yeah	yeah
sw2435B-ms98-a-0062	B.80	239.076000	239.520625		[silence]	[silence]
sw2435B-ms98-a-0063	B.80	239.520625	242.528625		[silence]	[silence]
sw2435B-ms98-a-0064	B.80	242.528625	242.968625		[silence]	[silence]
sw2435B-ms98-a-0064	B.80	242.968625	243.353125		Right	right
sw2435B-ms98-a-0064	B.82	243.353125	243.665750		[silence]	[silence]
sw2435B-ms98-a-0065	B.82	243.665750	245.595625		[silence]	[silence]
sw2435B-ms98-a-0066	B.82	245.595625	246.105625		[silence]	[silence]
sw2435B-ms98-a-0066	B.82	246.105625	246.435625	<DEL>	---	yeah
sw2435B-ms98-a-0066	B.82	246.435625	246.923375		[silence]	[silence]
sw2435B-ms98-a-0067	B.82	246.923375	248.991250		[silence]	[silence]
sw2435B-ms98-a-0068	B.82	248.991250	249.451250		[silence]	[silence]
sw2435B-ms98-a-0068	B.82	249.451250	249.821250		Right	right
sw2435B-ms98-a-0068	B.84	249.821250	250.291000		[silence]	[silence]
sw2435B-ms98-a-0069	B.84	250.291000	255.380000		[silence]	[silence]
sw2435B-ms98-a-0070	B.84	255.380000	255.890000		[silence]	[silence]
sw2435B-ms98-a-0070	B.84	255.890000	256.238750		Uh-huh	uh-huh
sw2435B-ms98-a-0070	B.86	256.238750	256.508625		[silence]	[silence]
sw2435B-ms98-a-0071	B.86	256.508625	261.325250		[silence]	[silence]
sw2435B-ms98-a-0072	B.86	261.325250	261.855250		[silence]	[silence]
sw2435B-ms98-a-0072	B.86	261.855250	262.265250		Yeah	yeah
sw2435B-ms98-a-0072	B.86	262.265250	262.340250		I	i
sw2435B-ms98-a-0072	B.86	262.340250	262.641500		like	like
sw2435B-ms98-a-0072	B.86	262.641500	262.995250		him	him
sw2435B-ms98-a-0072	B.90	262.995250	263.486625		[silence]	[silence]
sw2435B-ms98-a-0073	B.90	263.486625	267.642625		[silence]	[silence]
sw2435B-ms98-a-0074	B.90	267.642625	268.061500		[silence]	[silence]
sw2435B-ms98-a-0074	B.90	268.061500	271.172625		[laughter]	[laughter]
sw2435B-ms98-a-0074	B.90	271.172625	271.452625		Probably	probably
sw2435B-ms98-a-0074	B.90	271.452625	271.512625		the	the
sw2435B-ms98-a-0074	B.90	271.512625	271.642625		last	last
sw2435B-ms98-a-0074	B.90	271.642625	272.022625		comedy	comedy
sw2435B-ms98-a-0074	B.90	272.022625	272.152625		we	we
sw2435B-ms98-a-0074	B.90	272.152625	272.452625		saw	saw
sw2435B-ms98-a-0074	B.90	272.452625	272.682625		now	now
sw2435B-ms98-a-0074	B.90	272.682625	272.772625		that	that
sw2435B-ms98-a-0074	B.90	272.772625	272.802625		I	i
sw2435B-ms98-a-0074	B.90	272.802625	272.972625		think	think
sw2435B-ms98-a-0074	B.90	272.972625	273.152625		about	about
sw2435B-ms98-a-0074	B.90	273.152625	273.292625		it	it
sw2435B-ms98-a-0074	B.90	273.292625	273.352625		is	is
sw2435B-ms98-a-0074	B.90	273.352625	273.492625		HOME	Home
sw2435B-ms98-a-0074	B.90	273.492625	273.962625		ALONE	Alone
sw2435B-ms98-a-0074	B.92	273.962625	274.504625		[silence]	[silence]
sw2435B-ms98-a-0075	B.92	274.504625	277.179125		[silence]	[silence]
sw2435B-ms98-a-0076	B.92	277.179125	277.659125		[silence]	[silence]
sw2435B-ms98-a-0076	B.92	277.659125	278.067375	<DEL>	---	yeah
sw2435B-ms98-a-0076	B.92	278.067375	278.526000		[silence]	[silence]
sw2435B-ms98-a-0077	B.92	278.526000	281.409000		[silence]	[silence]
sw2435B-ms98-a-0078	B.92	281.409000	281.819000		[silence]	[silence]
sw2435B-ms98-a-0078	B.92	281.819000	282.181250	<DEL>	---	uh-huh
sw2435B-ms98-a-0078	B.92	282.181250	282.491000		[silence]	[silence]
sw2435B-ms98-a-0079	B.92	282.491000	284.663625		[silence]	[silence]
sw2435B-ms98-a-0080	B.92	284.663625	285.113625		[silence]	[silence]
sw2435B-ms98-a-0080	B.92	285.113625	285.303625		It	it
sw2435B-ms98-a-0080	B.92	285.303625	285.483625		was	was
sw2435B-ms98-a-0080	B.92	285.483625	285.723625		really	really
sw2435B-ms98-a-0080	B.92	285.723625	286.183625		cute	cute
sw2435B-ms98-a-0080	B.96	286.183625	286.493625		[silence]	[silence]
sw2435B-ms98-a-0080	B.96	286.493625	287.420750		[laughter]	[laughter]
sw2435B-ms98-a-0080	B.96	287.420750	287.802875		[silence]	[silence]
sw2435B-ms98-a-0081	B.96	287.802875	293.319250		[silence]	[silence]
sw2435B-ms98-a-0082	B.96	293.319250	293.699250		[silence]	[silence]
sw2435B-ms98-a-0082	B.96	293.699250	294.153750		[noise]	[noise]
sw2435B-ms98-a-0082	B.96	294.153750	294.410625		[silence]	[silence]
sw2435B-ms98-a-0083	B.96	294.410625	295.807250		[silence]	[silence]
sw2435B-ms98-a-0084	B.96	295.807250	296.345375		[silence]	[silence]
sw2435B-ms98-a-0084	B.96	296.345375	297.327250		Yeah	yeah
sw2435B-ms98-a-0084	B.98	297.327250	298.013625		[silence]	[silence]
sw2435B-ms98-a-0085	B.98	298.013625	302.139125		[silence]	[silence]
sw2435B-ms98-a-0086	B.98	302.139125	302.679125		[silence]	[silence]
sw2435B-ms98-a-0086	B.98	302.679125	303.149125		Uh-huh	uh-huh
sw2435B-ms98-a-0086	B.98	303.149125	303.537625		uh-huh	uh-huh
sw2435B-ms98-a-0086	B.100	303.537625	303.843625		[silence]	[silence]
sw2435B-ms98-a-0087	B.100	303.843625	305.089500		[silence]	[silence]
sw2435B-ms98-a-0088	B.100	305.089500	305.479500		[silence]	[silence]
sw2435B-ms98-a-0088	B.100	305.479500	305.909500		Yeah	yeah
sw2435B-ms98-a-0088	B.102	305.909500	306.353000		[silence]	[silence]
sw2435B-ms98-a-0089	B.102	306.353000	310.704750		[silence]	[silence]
sw2435B-ms98-a-0090	B.102	310.704750	311.154750		[silence]	[silence]
sw2435B-ms98-a-0090	B.102	311.154750	311.714750		Right	right
sw2435B-ms98-a-0090	B.104	311.714750	311.988625		[silence]	[silence]
sw2435B-ms98-a-0091	B.104	311.988625	313.146750		[silence]	[silence]
sw2435B-ms98-a-0092	B.104	313.146750	313.606750		[silence]	[silence]
sw2435B-ms98-a-0092	B.104	313.606750	313.961875	<DEL>	---	[laughter-yeah]
sw2435B-ms98-a-0092	B.104	313.961875	314.317875		Maybe	maybe
sw2435B-ms98-a-0092	B.104	314.317875	314.681125		so	so
sw2435B-ms98-a-0092	B.104	314.681125	315.061500		maybe	maybe
sw2435B-ms98-a-0092	B.104	315.061500	315.433875		so	so
sw2435B-ms98-a-0092	B.106	315.433875	316.218000		[silence]	[silence]
sw2435B-ms98-a-0093	B.106	316.218000	317.475625		[silence]	[silence]
sw2435B-ms98-a-0094	B.106	317.475625	317.985625		[silence]	[silence]
sw2435B-ms98-a-0094	B.106	317.985625	318.275625		Yeah	yeah
sw2435B-ms98-a-0094	B.106	318.275625	318.365125		I	i
sw2435B-ms98-a-0094	B.106	318.365125	318.553500		did	did
sw2435B-ms98-a-0094	B.106	318.553500	318.837250		too	too
sw2435B-ms98-a-0094	B.106	318.837250	319.127250		[silence]	[silence]
sw2435B-ms98-a-0094	B.106	319.127250	319.245625		I'm	i'm
sw2435B-ms98-a-0094	B.106	319.245625	319.495625		looking	looking
sw2435B-ms98-a-0094	B.106	319.495625	319.795625		forward	forward
sw2435B-ms98-a-0094	B.106	319.795625	319.985625		to	to
sw2435B-ms98-a-0094	B.106	319.985625	320.185625		this	this
sw2435B-ms98-a-0094	B.106	320.185625	320.575625		summer	summer
sw2435B-ms98-a-0094	B.106	320.575625	321.033125		uh	uh
sw2435B-ms98-a-0094	B.106	321.033125	321.372125		[silence]	[silence]
sw2435B-ms98-a-0094	B.106	321.372125	321.775625		NAKED	Naked
sw2435B-ms98-a-0094	B.106	321.775625	321.995625		GUN	Gun
sw2435B-ms98-a-0094	B.106	321.995625	322.175625		TWO	Two
sw2435B-ms98-a-0094	B.106	322.175625	322.285625		AND	and
sw2435B-ms98-a-0094	B.106	322.285625	322.325625		A	a
sw2435B-ms98-a-0094	B.106	322.325625	322.585625		HALF	Half
sw2435B-ms98-a-0094	B.106	322.585625	322.695625		is	is
sw2435B-ms98-a-0094	B.106	322.695625	322.935625		coming	coming
sw2435B-ms98-a-0094	B.106	322.935625	323.337250		out	out
sw2435B-ms98-a-0094	B.108	323.337250	324.145375		[silence]	[silence]
sw2435B-ms98-a-0095	B.108	324.145375	324.915375		[silence]	[silence]
sw2435B-ms98-a-0095	B.108	324.915375	325.013625		I	i
sw2435B-ms98-a-0095	B.108	325.013625	325.175250		do	do
sw2435B-ms98-a-0095	B.108	325.175250	325.555375		too	too
sw2435B-ms98-a-0095	B.108	325.555375	325.685375		I	i
sw2435B-ms98-a-0095	B.108	325.685375	325.925375		mean	mean
sw2435B-ms98-a-0095	B.108	325.925375	326.095375		they	they
sw2435B-ms98-a-0095	B.108	326.095375	326.235375		are	are
sw2435B-ms98-a-0095	B.108	326.235375	327.365375		just	just
sw2435B-ms98-a-0095	B.108	327.365375	328.875375		slapstick	slapstick
sw2435B-ms98-a-0095	B.110	328.875375	329.240000	<DEL>	---	and
sw2435B-ms98-a-0095	B.110	329.240000	329.351500		[silence]	[silence]
sw2435B-ms98-a-0095	B.110	329.351500	329.730875	<SUB>	It	it's
sw2435B-ms98-a-0095	B.110	329.730875	329.948875	<DEL>	---	just
sw2435B-ms98-a-0095	B.110	329.948875	330.160375		you	you
sw2435B-ms98-a-0095	B.110	330.160375	330.345375		have	have
sw2435B-ms98-a-0095	B.110	330.345375	330.475375		to	to
sw2435B-ms98-a-0095	B.110	330.475375	330.615375		see	see
sw2435B-ms98-a-0095	B.110	330.615375	330.885375		those	those
sw2435B-ms98-a-0095	B.110	330.885375	331.365375		twice	twice
sw2435B-ms98-a-0095	B.110	331.365375	331.495375		to	to
sw2435B-ms98-a-0095	B.110	331.495375	331.785375		catch	catch
sw2435B-ms98-a-0095	B.110	331.785375	332.458500		everything	everything
sw2435B-ms98-a-0095	B.112	332.458500	333.098250		[silence]	[silence]
sw2435B-ms98-a-0096	B.112	333.098250	333.670750		[silence]	[silence]
sw2435B-ms98-a-0096	B.112	333.670750	334.070875		Yeah	yeah
sw2435B-ms98-a-0096	B.112	334.070875	334.438875		yeah	yeah
sw2435B-ms98-a-0096	B.114	334.438875	334.981625	<DEL>	---	those
sw2435B-ms98-a-0096	B.114	334.981625	335.499750		[silence]	[silence]
sw2435B-ms98-a-0097	B.114	335.499750	336.151500		[silence]	[silence]
sw2435B-ms98-a-0097	B.114	336.151500	336.860375		Yeah	yeah
sw2435B-ms98-a-0097	B.116	336.860375	337.783000		[silence]	[silence]
sw2435B-ms98-a-0097	B.116	337.783000	337.949750		I	i
sw2435B-ms98-a-0097	B.116	337.949750	338.122250		do	do
sw2435B-ms98-a-0097	B.116	338.122250	338.419750		too	too
sw2435B-ms98-a-0097	B.118	338.419750	339.134875		[silence]	[silence]
sw2435B-ms98-a-0098	B.118	339.134875	339.683875		[silence]	[silence]
sw2435B-ms98-a-0098	B.118	339.683875	339.866750		I	i
sw2435B-ms98-a-0098	B.118	339.866750	340.036250		do	do
sw2435B-ms98-a-0098	B.118	340.036250	340.410375		too	too
sw2435B-ms98-a-0098	B.120	340.410375	340.554875		So	so
sw2435B-ms98-a-0098	B.120	340.554875	340.694875		I'm	i'm
sw2435B-ms98-a-0098	B.120	340.694875	340.994875		looking	looking
sw2435B-ms98-a-0098	B.120	340.994875	341.234875		forward	forward
sw2435B-ms98-a-0098	B.120	341.234875	341.334875		to	to
sw2435B-ms98-a-0098	B.120	341.334875	341.684875		seeing	seeing
sw2435B-ms98-a-0098	B.120	341.684875	341.984875		that	that
sw2435B-ms98-a-0098	B.122	341.984875	342.284875		because	because
sw2435B-ms98-a-0098	B.122	342.284875	342.594875		that	that
sw2435B-ms98-a-0098	B.122	342.594875	343.064875		looks	looks
sw2435B-ms98-a-0098	B.122	343.064875	343.294875		[silence]	[silence]
sw2435B-ms98-a-0098	B.122	343.294875	343.914875		hilarious	hilarious
sw2435B-ms98-a-0098	B.124	343.914875	344.344875		[silence]	[silence]
sw2435B-ms98-a-0098	B.124	344.344875	344.484875		as	as
sw2435B-ms98-a-0098	B.124	344.484875	344.684875		they	they
sw2435B-ms98-a-0098	B.124	344.684875	344.884875		all	all
sw2435B-ms98-a-0098	B.124	344.884875	345.291125		do	do
sw2435B-ms98-a-0098	B.126	345.291125	345.673250	<DEL>	---	but
sw2435B-ms98-a-0098	B.126	345.673250	346.417000		[silence]	[silence]
sw2435B-ms98-a-0098	B.126	346.417000	346.840500		Well	well
sw2435B-ms98-a-0098	B.126	346.840500	347.057375		we	we
sw2435B-ms98-a-0098	B.126	347.057375	347.552375		[silence]	[silence]
sw2435B-ms98-a-0098	B.126	347.552375	347.885625		[noise]	[noise]
sw2435B-ms98-a-0098	B.126	347.885625	348.104875		we	we
sw2435B-ms98-a-0098	B.126	348.104875	348.494875		try	try
sw2435B-ms98-a-0098	B.126	348.494875	348.604875		to	to
sw2435B-ms98-a-0098	B.126	348.604875	349.114875		go	go
sw2435B-ms98-a-0098	B.126	349.114875	349.962125		[silence]	[silence]
sw2435B-ms98-a-0099	B.126	349.962125	350.752125		[silence]	[silence]
sw2435B-ms98-a-0099	B.126	350.752125	350.832125		a	a
sw2435B-ms98-a-0099	B.126	350.832125	351.102125		couple	couple
sw2435B-ms98-a-0099	B.126	351.102125	351.192125	<DEL>	---	of
sw2435B-ms98-a-0099	B.126	351.192125	351.472125		times	times
sw2435B-ms98-a-0099	B.126	351.472125	351.532125		a	a
sw2435B-ms98-a-0099	B.126	351.532125	351.912125		month	month
sw2435B-ms98-a-0099	B.126	351.912125	351.992125		I	i
sw2435B-ms98-a-0099	B.126	351.992125	352.272125		guess	guess
sw2435B-ms98-a-0099	B.128	352.272125	352.412125		to	to
sw2435B-ms98-a-0099	B.128	352.412125	352.632125		see	see
sw2435B-ms98-a-0099	B.128	352.632125	352.672125		a	a
sw2435B-ms98-a-0099	B.128	352.672125	352.842125		movie	movie
sw2435B-ms98-a-0099	B.128	352.842125	352.912125		It	it
sw2435B-ms98-a-0099	B.128	352.912125	353.202125		it's	it's
sw2435B-ms98-a-0099	B.128	353.202125	353.432125		just	just
sw2435B-ms98-a-0099	B.128	353.432125	353.632125		getting	getting
sw2435B-ms98-a-0099	B.128	353.632125	353.752125		so	so
sw2435B-ms98-a-0099	B.128	353.752125	354.582125		expensive	expensive
sw2435B-ms98-a-0099	B.130	354.582125	355.113625		[silence]	[silence]
sw2435B-ms98-a-0100	B.130	355.113625	359.637250		[silence]	[silence]
sw2435B-ms98-a-0101	B.130	359.637250	359.986125		[silence]	[silence]
sw2435B-ms98-a-0101	B.130	359.986125	360.447875	<DEL>	---	right
sw2435B-ms98-a-0101	B.130	360.447875	361.024000		[silence]	[silence]
sw2435B-ms98-a-0101	B.130	361.024000	361.167250		But	but
sw2435B-ms98-a-0101	B.130	361.167250	361.517250		normally	normally
sw2435B-ms98-a-0101	B.130	361.517250	361.647250		we	we
sw2435B-ms98-a-0101	B.130	361.647250	361.927250		don't	don't
sw2435B-ms98-a-0101	B.130	361.927250	362.127250		think	think
sw2435B-ms98-a-0101	B.130	362.127250	362.367250		about	about
sw2435B-ms98-a-0101	B.130	362.367250	362.437250		it	it
sw2435B-ms98-a-0101	B.130	362.437250	363.001125		until	until
sw2435B-ms98-a-0101	B.134	363.001125	363.524750		[silence]	[silence]
sw2435B-ms98-a-0101	B.134	363.524750	364.243125		[laughter]	[laughter]
sw2435B-ms98-a-0101	B.134	364.243125	365.738250		[silence]	[silence]
sw2435B-ms98-a-0101	B.134	365.738250	366.222250	<DEL>	---	right
sw2435B-ms98-a-0101	B.134	366.222250	366.626000		[silence]	[silence]
sw2435B-ms98-a-0102	B.134	366.626000	367.870625		[silence]	[silence]
sw2435B-ms98-a-0103	B.134	367.870625	368.917125		[silence]	[silence]
sw2435B-ms98-a-0103	B.134	368.917125	369.030625		I	i
sw2435B-ms98-a-0103	B.134	369.030625	369.260625		know	know
sw2435B-ms98-a-0103	B.134	369.260625	369.700625		because	because
sw2435B-ms98-a-0103	B.134	369.700625	369.820625		we	we
sw2435B-ms98-a-0103	B.134	369.820625	369.910625		can	can
sw2435B-ms98-a-0103	B.134	369.910625	370.050625		go	go
sw2435B-ms98-a-0103	B.134	370.050625	370.490625		spend	spend
sw2435B-ms98-a-0103	B.134	370.490625	371.040625		fifteen	fifteen
sw2435B-ms98-a-0103	B.134	371.040625	371.640375		dollars	dollars
sw2435B-ms98-a-0103	B.136	371.640375	372.107500		[silence]	[silence]
sw2435B-ms98-a-0103	B.136	372.107500	372.369625		just	just
sw2435B-ms98-a-0103	B.136	372.369625	372.546375	<DEL>	---	the
sw2435B-ms98-a-0103	B.136	372.546375	372.806250		[silence]	[silence]
sw2435B-ms98-a-0103	B.136	372.806250	372.990625	<DEL>	---	just
sw2435B-ms98-a-0103	B.136	372.990625	373.390625		getting	getting
sw2435B-ms98-a-0103	B.136	373.390625	373.610625		in	in
sw2435B-ms98-a-0103	B.138	373.610625	374.280625		[silence]	[silence]
sw2435B-ms98-a-0103	B.138	374.280625	374.400625		the	the
sw2435B-ms98-a-0103	B.138	374.400625	374.700625		three	three
sw2435B-ms98-a-0103	B.138	374.700625	374.800625		of	of
sw2435B-ms98-a-0103	B.138	374.800625	375.080750		us	us
sw2435B-ms98-a-0103	B.140	375.080750	375.080750	<INS>	Yeah	---
sw2435B-ms98-a-0103	B.142	375.080750	375.447000		[silence]	[silence]
sw2435B-ms98-a-0104	B.142	375.447000	376.741750		[silence]	[silence]
sw2435B-ms98-a-0105	B.142	376.741750	377.162750		[silence]	[silence]
sw2435B-ms98-a-0105	B.142	377.162750	377.616125		[vocalized-noise]	[vocalized-noise]
sw2435B-ms98-a-0105	B.142	377.616125	377.871375		[silence]	[silence]
sw2435B-ms98-a-0106	B.142	377.871375	379.134750		[silence]	[silence]
sw2435B-ms98-a-0107	B.142	379.134750	379.724750		[silence]	[silence]
sw2435B-ms98-a-0107	B.142	379.724750	379.818875		I	i
sw2435B-ms98-a-0107	B.142	379.818875	379.984750		don't	don't
sw2435B-ms98-a-0107	B.142	379.984750	380.434750		understand	understand
sw2435B-ms98-a-0107	B.142	380.434750	380.560125		why	why
sw2435B-ms98-a-0107	B.142	380.560125	380.706000		they	they
sw2435B-ms98-a-0107	B.142	380.706000	380.857875	<DEL>	---	ch[arge]-
sw2435B-ms98-a-0107	B.142	380.857875	380.983250		[silence]	[silence]
sw2435B-ms98-a-0107	B.142	380.983250	381.261000	<DEL>	---	they
sw2435B-ms98-a-0107	B.142	381.261000	381.444250		[vocalized-noise]	[vocalized-noise]
sw2435B-ms98-a-0107	B.142	381.444250	381.585000	<DEL>	---	they
sw2435B-ms98-a-0107	B.142	381.585000	381.889125		charge	charge
sw2435B-ms98-a-0107	B.142	381.889125	382.239750		you	you
sw2435B-ms98-a-0107	B.142	382.239750	382.880125		[silence]	[silence]
sw2435B-ms98-a-0107	B.142	382.880125	383.124750		out	out
sw2435B-ms98-a-0107	B.142	383.124750	383.234750		the	the
sw2435B-ms98-a-0107	B.142	383.234750	383.544750		kazoo	kazoo
sw2435B-ms98-a-0107	B.142	383.544750	383.724750		for	for
sw2435B-ms98-a-0107	B.142	383.724750	384.197750		both	both
sw2435B-ms98-a-0107	B.142	384.197750	384.578125		[silence]	[silence]
sw2435B-ms98-a-0107	B.142	384.578125	384.784750		You	you
sw2435B-ms98-a-0107	B.142	384.784750	385.044750		know	know
sw2435B-ms98-a-0107	B.142	385.044750	385.634750		popcorn	popcorn
sw2435B-ms98-a-0107	B.142	385.634750	386.024750		is	is
sw2435B-ms98-a-0107	B.142	386.024750	386.504750		not	not
sw2435B-ms98-a-0107	B.142	386.504750	386.694750		that	that
sw2435B-ms98-a-0107	B.142	386.694750	387.593750		expensive	expensive
sw2435B-ms98-a-0107	B.144	387.593750	387.788875	<DEL>	---	when
sw2435B-ms98-a-0107	B.144	387.788875	387.990750	<DEL>	---	you
sw2435B-ms98-a-0107	B.144	387.990750	388.241125	<DEL>	---	buy
sw2435B-ms98-a-0107	B.144	388.241125	388.844250		[silence]	[silence]
sw2435B-ms98-a-0107	B.144	388.844250	389.179500	<DEL>	---	yeah
sw2435B-ms98-a-0107	B.144	389.179500	389.325000	<DEL>	---	and
sw2435B-ms98-a-0107	B.144	389.325000	389.509625		So	so
sw2435B-ms98-a-0107	B.144	389.509625	389.756625		they	they
sw2435B-ms98-a-0107	B.144	389.756625	389.943625		get	get
sw2435B-ms98-a-0107	B.144	389.943625	390.079875		you	you
sw2435B-ms98-a-0107	B.144	390.079875	390.194750		at	at
sw2435B-ms98-a-0107	B.144	390.194750	390.254750		the	the
sw2435B-ms98-a-0107	B.144	390.254750	390.564750		ticket	ticket
sw2435B-ms98-a-0107	B.144	390.564750	390.774750		booth	booth
sw2435B-ms98-a-0107	B.144	390.774750	390.884750		and	and
sw2435B-ms98-a-0107	B.144	390.884750	390.984750		then	then
sw2435B-ms98-a-0107	B.144	390.984750	391.204750		try	try
sw2435B-ms98-a-0107	B.144	391.204750	391.304750		and	and
sw2435B-ms98-a-0107	B.144	391.304750	391.394750		get	get
sw2435B-ms98-a-0107	B.144	391.394750	391.504750		you	you
sw2435B-ms98-a-0107	B.144	391.504750	391.584750		at	at
sw2435B-ms98-a-0107	B.144	391.584750	391.644750		the	the
sw2435B-ms98-a-0107	B.144	391.644750	392.154750		popcorn	popcorn
sw2435B-ms98-a-0107	B.144	392.154750	392.284750		and	and
sw2435B-ms98-a-0107	B.144	392.284750	393.013375		coke	Coke
sw2435B-ms98-a-0107	B.146	393.013375	393.013375	<INS>	Yeah	---
sw2435B-ms98-a-0107	B.146	393.013375	393.609750		[silence]	[silence]
sw2435B-ms98-a-0108	B.146	393.609750	398.057125		[silence]	[silence]
sw2435B-ms98-a-0109	B.146	398.057125	398.744125		[silence]	[silence]
sw2435B-ms98-a-0109	B.146	398.744125	399.307125		[vocalized-noise]	[vocalized-noise]
sw2435B-ms98-a-0109	B.146	399.307125	399.597125		[silence]	[silence]
sw2435B-ms98-a-0109	B.146	399.597125	399.687125		We	we
sw2435B-ms98-a-0109	B.146	399.687125	399.857125		just	just
sw2435B-ms98-a-0109	B.146	399.857125	400.197125		[silence]	[silence]
sw2435B-ms98-a-0109	B.146	400.197125	400.467125		keep	keep
sw2435B-ms98-a-0109	B.146	400.467125	400.927125		breeding	breeding
sw2435B-ms98-a-0109	B.146	400.927125	401.254625		them	[laughter-them]
sw2435B-ms98-a-0109	B.148	401.254625	401.797000		[silence]	[silence]
sw2435B-ms98-a-0109	B.148	401.797000	402.002250	<DEL>	---	that
sw2435B-ms98-a-0109	B.148	402.002250	402.274250	<DEL>	---	way
sw2435B-ms98-a-0109	B.148	402.274250	402.973125		[silence]	[silence]
sw2435B-ms98-a-0110	B.148	402.973125	404.235625		[silence]	[silence]
sw2435B-ms98-a-0111	B.148	404.235625	404.668250		[silence]	[silence]
sw2435B-ms98-a-0111	B.148	404.668250	404.905625		I	i
sw2435B-ms98-a-0111	B.148	404.905625	405.145625		guess	guess
sw2435B-ms98-a-0111	B.148	405.145625	405.225625		so	so
sw2435B-ms98-a-0111	B.148	405.225625	405.315625		Now	now
sw2435B-ms98-a-0111	B.148	405.315625	406.495625		have	have
sw2435B-ms98-a-0111	B.148	406.495625	406.555625		you	you
sw2435B-ms98-a-0111	B.148	406.555625	406.775625		seen	seen
sw2435B-ms98-a-0111	B.148	406.775625	407.215625		DANCES	Dances
sw2435B-ms98-a-0111	B.148	407.215625	407.445625		WITH	With
sw2435B-ms98-a-0111	B.148	407.445625	408.001250		WOLVES	Wolves
sw2435B-ms98-a-0111	B.150	408.001250	408.399625		[silence]	[silence]
sw2435B-ms98-a-0112	B.150	408.399625	408.779625		[silence]	[silence]
sw2435B-ms98-a-0112	B.150	408.779625	408.949625	<DEL>	---	did
sw2435B-ms98-a-0112	B.150	408.949625	409.069625	<DEL>	---	you
sw2435B-ms98-a-0112	B.150	409.069625	409.309625	<DEL>	---	love
sw2435B-ms98-a-0112	B.150	409.309625	409.469625	<DEL>	---	it
sw2435B-ms98-a-0112	B.150	409.469625	410.149750		[silence]	[silence]
sw2435B-ms98-a-0113	B.150	410.149750	411.306125		[silence]	[silence]
sw2435B-ms98-a-0114	B.150	411.306125	411.826000		[silence]	[silence]
sw2435B-ms98-a-0114	B.150	411.826000	411.956125		I	i
sw2435B-ms98-a-0114	B.150	411.956125	412.316125		haven't	haven't
sw2435B-ms98-a-0114	B.150	412.316125	412.646125		seen	seen
sw2435B-ms98-a-0114	B.150	412.646125	412.776125		we're	we're
sw2435B-ms98-a-0114	B.150	412.776125	413.116125		waiting	waiting
sw2435B-ms98-a-0114	B.150	413.116125	413.246125		for	for
sw2435B-ms98-a-0114	B.150	413.246125	413.396125		the	the
sw2435B-ms98-a-0114	B.150	413.396125	414.159625		video	video
sw2435B-ms98-a-0114	B.152	414.159625	415.051000		[silence]	[silence]
sw2435B-ms98-a-0115	B.152	415.051000	415.411000		[silence]	[silence]
sw2435B-ms98-a-0115	B.152	415.411000	416.171000		[laughter]	[laughter]
sw2435B-ms98-a-0115	B.152	416.171000	416.551000		No	no
sw2435B-ms98-a-0115	B.152	416.551000	417.047875		really	really
sw2435B-ms98-a-0115	B.154	417.047875	417.518000		[silence]	[silence]
sw2435B-ms98-a-0116	B.154	417.518000	418.598500		[silence]	[silence]
sw2435B-ms98-a-0117	B.154	418.598500	419.048500		[silence]	[silence]
sw2435B-ms98-a-0117	B.154	419.048500	419.830375		Oh	oh
sw2435B-ms98-a-0117	B.156	419.830375	420.217875		[silence]	[silence]
sw2435B-ms98-a-0118	B.156	420.217875	421.642125		[silence]	[silence]
sw2435B-ms98-a-0119	B.156	421.642125	422.152125		[silence]	[silence]
sw2435B-ms98-a-0119	B.156	422.152125	422.457875		Uh-huh	uh-huh
sw2435B-ms98-a-0119	B.158	422.457875	422.959875		[silence]	[silence]
sw2435B-ms98-a-0120	B.158	422.959875	426.103250		[silence]	[silence]
sw2435B-ms98-a-0121	B.158	426.103250	426.563250		[silence]	[silence]
sw2435B-ms98-a-0121	B.158	426.563250	426.852750		Uh-huh	uh-huh
sw2435B-ms98-a-0121	B.160	426.852750	427.421000		[silence]	[silence]
sw2435B-ms98-a-0122	B.160	427.421000	428.493125		[silence]	[silence]
sw2435B-ms98-a-0123	B.160	428.493125	428.873125		[silence]	[silence]
sw2435B-ms98-a-0123	B.160	428.873125	429.033125		Oh	oh
sw2435B-ms98-a-0123	B.160	429.033125	429.662875		really	really
sw2435B-ms98-a-0123	B.162	429.662875	430.204125		[silence]	[silence]
sw2435B-ms98-a-0123	B.162	430.204125	430.810750		Oh	oh
sw2435B-ms98-a-0123	B.164	430.810750	431.509500		[silence]	[silence]
sw2435B-ms98-a-0124	B.164	431.509500	435.388625		[silence]	[silence]
sw2435B-ms98-a-0125	B.164	435.388625	435.849250		[silence]	[silence]
sw2435B-ms98-a-0125	B.164	435.849250	436.558625	<DEL>	---	really
sw2435B-ms98-a-0125	B.164	436.558625	437.140125		[silence]	[silence]
sw2435B-ms98-a-0126	B.164	437.140125	440.951250		[silence]	[silence]
sw2435B-ms98-a-0127	B.164	440.951250	441.461250		[silence]	[silence]
sw2435B-ms98-a-0127	B.164	441.461250	442.246250		Uh-huh	uh-huh
sw2435B-ms98-a-0127	B.166	442.246250	442.819250		[silence]	[silence]
sw2435B-ms98-a-0128	B.166	442.819250	446.786875		[silence]	[silence]
sw2435B-ms98-a-0129	B.166	446.786875	447.046875		[silence]	[silence]
sw2435B-ms98-a-0129	B.166	447.046875	447.366875	<SUB>	Right	that's
sw2435B-ms98-a-0129	B.168	447.366875	447.516875	<SUB>	Everythin-	good
sw2435B-ms98-a-0129	B.168	447.516875	447.645750		[silence]	[silence]
sw2435B-ms98-a-0130	B.168	447.645750	450.481375		[silence]	[silence]
sw2435B-ms98-a-0131	B.168	450.481375	450.831625		[silence]	[silence]
sw2435B-ms98-a-0131	B.168	450.831625	451.071375	<DEL>	---	i
sw2435B-ms98-a-0131	B.168	451.071375	451.251375	<DEL>	---	heard
sw2435B-ms98-a-0131	B.168	451.251375	451.411375	<DEL>	---	that
sw2435B-ms98-a-0131	B.168	451.411375	451.661375		yeah	yeah
sw2435B-ms98-a-0131	B.168	451.661375	452.031375		yeah	yeah
sw2435B-ms98-a-0131	B.170	452.031375	452.615875		[silence]	[silence]
sw2435B-ms98-a-0132	B.170	452.615875	454.796375		[silence]	[silence]
sw2435B-ms98-a-0133	B.170	454.796375	455.066375		[silence]	[silence]
sw2435B-ms98-a-0133	B.170	455.066375	455.751875		Yeah	yeah
sw2435B-ms98-a-0133	B.170	455.751875	455.989250		[silence]	[silence]
sw2435B-ms98-a-0133	B.170	455.989250	456.622000		oh	oh
sw2435B-ms98-a-0133	B.172	456.622000	457.184250		[silence]	[silence]
sw2435B-ms98-a-0134	B.172	457.184250	460.629000		[silence]	[silence]
sw2435B-ms98-a-0135	B.172	460.629000	461.209000		[silence]	[silence]
sw2435B-ms98-a-0135	B.172	461.209000	461.621000		Yeah	yeah
sw2435B-ms98-a-0135	B.176	461.621000	462.050250		[silence]	[silence]
sw2435B-ms98-a-0136	B.176	462.050250	477.656875		[silence]	[silence]
sw2435B-ms98-a-0137	B.176	477.656875	478.227000		[silence]	[silence]
sw2435B-ms98-a-0137	B.176	478.227000	478.706875	<DEL>	---	oh
sw2435B-ms98-a-0137	B.176	478.706875	478.996875	<DEL>	---	gosh
sw2435B-ms98-a-0137	B.176	478.996875	481.163000		[laughter]	[laughter]
sw2435B-ms98-a-0137	B.176	481.163000	481.765875		Yeah	yeah
sw2435B-ms98-a-0137	B.178	481.765875	482.206875		Yeah	yeah
sw2435B-ms98-a-0137	B.180	482.206875	482.740250		[silence]	[silence]
sw2435B-ms98-a-0138	B.180	482.740250	483.924750		[silence]	[silence]
sw2435B-ms98-a-0139	B.180	483.924750	484.284750		[silence]	[silence]
sw2435B-ms98-a-0139	B.180	484.284750	484.795000		Yeah	yeah
sw2435B-ms98-a-0139	B.182	484.795000	485.205750		[silence]	[silence]
sw2435B-ms98-a-0140	B.182	485.205750	491.495625		[silence]	[silence]
sw2435B-ms98-a-0141	B.182	491.495625	491.965625		[silence]	[silence]
sw2435B-ms98-a-0141	B.182	491.965625	492.738750	<DEL>	---	yeah
sw2435B-ms98-a-0141	B.182	492.738750	493.138125		[silence]	[silence]
sw2435B-ms98-a-0142	B.182	493.138125	493.578125		[silence]	[silence]
sw2435B-ms98-a-0142	B.182	493.578125	493.658125	<DEL>	---	do
sw2435B-ms98-a-0142	B.182	493.658125	493.718125		You	you
sw2435B-ms98-a-0142	B.182	493.718125	493.898125		think	think
sw2435B-ms98-a-0142	B.182	493.898125	494.126000		my	my
sw2435B-ms98-a-0142	B.182	494.126000	494.276750		[silence]	[silence]
sw2435B-ms98-a-0142	B.182	494.276750	494.568125		daughter	daughter
sw2435B-ms98-a-0142	B.182	494.568125	494.718125		would	would
sw2435B-ms98-a-0142	B.182	494.718125	494.978125		like	like
sw2435B-ms98-a-0142	B.182	494.978125	495.128125		it	it
sw2435B-ms98-a-0142	B.184	495.128125	495.536875		[silence]	[silence]
sw2435B-ms98-a-0143	B.184	495.536875	497.181250		[silence]	[silence]
sw2435B-ms98-a-0144	B.184	497.181250	497.701250		[silence]	[silence]
sw2435B-ms98-a-0144	B.184	497.701250	497.821250	<DEL>	---	or
sw2435B-ms98-a-0144	B.184	497.821250	498.161250	<DEL>	---	just
sw2435B-ms98-a-0144	B.184	498.161250	498.517500		[silence]	[silence]
sw2435B-ms98-a-0145	B.184	498.517500	500.279125		[silence]	[silence]
sw2435B-ms98-a-0146	B.184	500.279125	500.759125		[silence]	[silence]
sw2435B-ms98-a-0146	B.184	500.759125	500.949125		Oh	oh
sw2435B-ms98-a-0146	B.184	500.949125	501.454250		okay	okay
sw2435B-ms98-a-0146	B.186	501.454250	502.256750		[silence]	[silence]
sw2435B-ms98-a-0146	B.186	502.256750	502.467750		She	she
sw2435B-ms98-a-0146	B.186	502.467750	502.709125		doesn't	doesn't
sw2435B-ms98-a-0146	B.186	502.709125	502.919125		mind	mind
sw2435B-ms98-a-0146	B.186	502.919125	503.079125		when	when
sw2435B-ms98-a-0146	B.186	503.079125	503.159125		we	we
sw2435B-ms98-a-0146	B.186	503.159125	503.409125		cover	cover
sw2435B-ms98-a-0146	B.186	503.409125	503.499125		up	up
sw2435B-ms98-a-0146	B.186	503.499125	503.629125		her	her
sw2435B-ms98-a-0146	B.186	503.629125	503.989125		eyes	eyes
sw2435B-ms98-a-0146	B.190	503.989125	505.719750		[laughter]	[laughter]
sw2435B-ms98-a-0146	B.190	505.719750	506.092000		[silence]	[silence]
sw2435B-ms98-a-0147	B.190	506.092000	514.311750		[silence]	[silence]
sw2435B-ms98-a-0148	B.190	514.311750	514.821750		[silence]	[silence]
sw2435B-ms98-a-0148	B.190	514.821750	515.091750		See	see
sw2435B-ms98-a-0148	B.190	515.091750	515.431750		that's	that's
sw2435B-ms98-a-0148	B.190	515.431750	515.551750		the	the
sw2435B-ms98-a-0148	B.190	515.551750	515.803375		one	one
sw2435B-ms98-a-0148	B.190	515.803375	515.905125		[silence]	[silence]
sw2435B-ms98-a-0148	B.190	515.905125	516.151750		that	that
sw2435B-ms98-a-0148	B.190	516.151750	516.241750		is	is
sw2435B-ms98-a-0148	B.190	516.241750	516.351750		the	the
sw2435B-ms98-a-0148	B.190	516.351750	516.691750		honest	honest
sw2435B-ms98-a-0148	B.190	516.691750	516.761750		to	to
sw2435B-ms98-a-0148	B.190	516.761750	517.031750		God	God
sw2435B-ms98-a-0148	B.190	517.031750	517.121750		the	the
sw2435B-ms98-a-0148	B.190	517.121750	517.371750		one	one
sw2435B-ms98-a-0148	B.190	517.371750	517.701750		reason	reason
sw2435B-ms98-a-0148	B.190	517.701750	517.811750		I	i
sw2435B-ms98-a-0148	B.190	517.811750	518.011750		don't	don't
sw2435B-ms98-a-0148	B.190	518.011750	518.211750		want	want
sw2435B-ms98-a-0148	B.190	518.211750	518.341750		to	to
sw2435B-ms98-a-0148	B.190	518.341750	518.511750		see	see
sw2435B-ms98-a-0148	B.190	518.511750	518.601750		the	the
sw2435B-ms98-a-0148	B.190	518.601750	519.095500		movie	movie
sw2435B-ms98-a-0148	B.192	519.095500	519.460750		[silence]	[silence]
sw2435B-ms98-a-0148	B.192	519.460750	519.591750		is	is
sw2435B-ms98-a-0148	B.192	519.591750	519.831750		because	because
sw2435B-ms98-a-0148	B.192	519.831750	519.965750		I	i
sw2435B-ms98-a-0148	B.192	519.965750	520.181750		love	love
sw2435B-ms98-a-0148	B.192	520.181750	520.801750	<SUB>	buffalos	buffaloes
sw2435B-ms98-a-0148	B.192	520.801750	520.941750		for	for
sw2435B-ms98-a-0148	B.192	520.941750	521.271750		some	some
sw2435B-ms98-a-0148	B.192	521.271750	521.551750		weird	weird
sw2435B-ms98-a-0148	B.192	521.551750	522.031750		reason	reason
sw2435B-ms98-a-0148	B.192	522.031750	523.123250		[laughter]	[laughter]
sw2435B-ms98-a-0148	B.192	523.123250	523.350375		and	and
sw2435B-ms98-a-0148	B.192	523.350375	523.463375		I	i
sw2435B-ms98-a-0148	B.192	523.463375	523.601750		know	know
sw2435B-ms98-a-0148	B.192	523.601750	523.731750		they're	they're
sw2435B-ms98-a-0148	B.192	523.731750	524.700500		fake	fake
sw2435B-ms98-a-0148	B.194	524.700500	526.204750		[silence]	[silence]
sw2435B-ms98-a-0149	B.194	526.204750	533.014875		[silence]	[silence]
sw2435B-ms98-a-0150	B.194	533.014875	533.804875		[silence]	[silence]
sw2435B-ms98-a-0150	B.194	533.804875	534.424250		Okay	okay
sw2435B-ms98-a-0150	B.194	534.424250	534.593750		[silence]	[silence]
sw2435B-ms98-a-0150	B.194	534.593750	535.146000		okay	okay
sw2435B-ms98-a-0150	B.196	535.146000	535.668125		[silence]	[silence]
sw2435B-ms98-a-0151	B.196	535.668125	540.459625		[silence]	[silence]
sw2435B-ms98-a-0152	B.196	540.459625	540.999625		[silence]	[silence]
sw2435B-ms98-a-0152	B.196	540.999625	541.309625		Oh	oh
sw2435B-ms98-a-0152	B.196	541.309625	541.569625		that'll	that'll
sw2435B-ms98-a-0152	B.196	541.569625	541.699625		be	be
sw2435B-ms98-a-0152	B.196	541.699625	542.095500		good	good
sw2435B-ms98-a-0152	B.196	542.095500	542.301750	<DEL>	---	yeah
sw2435B-ms98-a-0152	B.196	542.301750	542.516500		We	we
sw2435B-ms98-a-0152	B.196	542.516500	542.714250	<DEL>	---	we
sw2435B-ms98-a-0152	B.196	542.714250	542.959625		really	really
sw2435B-ms98-a-0152	B.196	542.959625	543.139625		need	need
sw2435B-ms98-a-0152	B.196	543.139625	543.279625		some	some
sw2435B-ms98-a-0152	B.196	543.279625	543.359625		my	my
sw2435B-ms98-a-0152	B.196	543.359625	543.669625		husband	husband
sw2435B-ms98-a-0152	B.196	543.669625	543.979625		keeps	keeps
sw2435B-ms98-a-0152	B.196	543.979625	544.549625		[silence]	[silence]
sw2435B-ms98-a-0152	B.196	544.549625	544.829625		wanting	wanting
sw2435B-ms98-a-0152	B.196	544.829625	545.229000		to	to
sw2435B-ms98-a-0152	B.198	545.229000	545.873125		[silence]	[silence]
sw2435B-ms98-a-0152	B.198	545.873125	546.371000		Yeah	yeah
sw2435B-ms98-a-0152	B.198	546.371000	546.694875		[silence]	[silence]
sw2435B-ms98-a-0152	B.198	546.694875	546.799625		and	and
sw2435B-ms98-a-0152	B.198	546.799625	546.829625		I	i
sw2435B-ms98-a-0152	B.198	546.829625	546.939625		heard	heard
sw2435B-ms98-a-0152	B.198	546.939625	546.999625		the	the
sw2435B-ms98-a-0152	B.198	546.999625	547.369625		video's	video's
sw2435B-ms98-a-0152	B.198	547.369625	547.549625		even	even
sw2435B-ms98-a-0152	B.198	547.549625	547.669625		going	going
sw2435B-ms98-a-0152	B.198	547.669625	547.729625		to	to
sw2435B-ms98-a-0152	B.198	547.729625	547.829625		be	be
sw2435B-ms98-a-0152	B.198	547.829625	548.248125		longer	longer
sw2435B-ms98-a-0152	B.200	548.248125	548.496750		[silence]	[silence]
sw2435B-ms98-a-0152	B.200	548.496750	548.675750	<SUB>	They	they're
sw2435B-ms98-a-0152	B.200	548.675750	548.856625	<DEL>	---	gonna
sw2435B-ms98-a-0152	B.200	548.856625	549.010125	<DEL>	---	put
sw2435B-ms98-a-0152	B.200	549.010125	549.111750	<SUB>	did	in
sw2435B-ms98-a-0152	B.200	549.111750	549.179625		a	a
sw2435B-ms98-a-0152	B.200	549.179625	549.379625		lot	lot
sw2435B-ms98-a-0152	B.200	549.379625	549.439625		of	of
sw2435B-ms98-a-0152	B.200	549.439625	549.709625		stuff	stuff
sw2435B-ms98-a-0152	B.200	549.709625	549.849625		that	that
sw2435B-ms98-a-0152	B.200	549.849625	550.049625		they	they
sw2435B-ms98-a-0152	B.200	550.049625	550.329625		cut	cut
sw2435B-ms98-a-0152	B.200	550.329625	550.735125		out	out
sw2435B-ms98-a-0152	B.202	550.735125	551.095125		[silence]	[silence]
sw2435B-ms98-a-0153	B.202	551.095125	551.780875		[silence]	[silence]
sw2435B-ms98-a-0153	B.202	551.780875	552.036625		Yeah	yeah
sw2435B-ms98-a-0153	B.202	552.036625	552.261500		that's	that's
sw2435B-ms98-a-0153	B.202	552.261500	552.696375		[laughter]	[laughter]
sw2435B-ms98-a-0153	B.202	552.696375	553.147000		[silence]	[silence]
sw2435B-ms98-a-0153	B.202	553.147000	553.521750	<DEL>	---	that's
sw2435B-ms98-a-0153	B.202	553.521750	553.868500		true	true
sw2435B-ms98-a-0153	B.202	553.868500	554.015125		they	they
sw2435B-ms98-a-0153	B.202	554.015125	554.345125		said	said
sw2435B-ms98-a-0153	B.204	554.345125	554.995125		[silence]	[silence]
sw2435B-ms98-a-0153	B.204	554.995125	555.195125		Yeah	yeah
sw2435B-ms98-a-0153	B.204	555.195125	555.315125		they	they
sw2435B-ms98-a-0153	B.204	555.315125	555.475125		said	said
sw2435B-ms98-a-0153	B.204	555.475125	555.695125		there's	there's
sw2435B-ms98-a-0153	B.204	555.695125	555.755125		a	a
sw2435B-ms98-a-0153	B.204	555.755125	556.065125		lot	lot
sw2435B-ms98-a-0153	B.204	556.065125	556.235125		[silence]	[silence]
sw2435B-ms98-a-0153	B.204	556.235125	556.705125		that	that
sw2435B-ms98-a-0153	B.204	556.705125	556.955125		[silence]	[silence]
sw2435B-ms98-a-0153	B.204	556.955125	557.225125		had	had
sw2435B-ms98-a-0153	B.204	557.225125	557.355125		been	been
sw2435B-ms98-a-0153	B.204	557.355125	557.842750		edited	edited
sw2435B-ms98-a-0153	B.204	557.842750	557.978375		[silence]	[silence]
sw2435B-ms98-a-0153	B.204	557.978375	558.285125		because	because
sw2435B-ms98-a-0153	B.204	558.285125	558.375125		of	of
sw2435B-ms98-a-0153	B.204	558.375125	558.445125		the	the
sw2435B-ms98-a-0153	B.204	558.445125	558.927500		length	length
sw2435B-ms98-a-0153	B.206	558.927500	559.223000		[silence]	[silence]
sw2435B-ms98-a-0154	B.206	559.223000	559.543000		[silence]	[silence]
sw2435B-ms98-a-0154	B.206	559.543000	559.703000		and	and
sw2435B-ms98-a-0154	B.206	559.703000	559.833000		that	that
sw2435B-ms98-a-0154	B.206	559.833000	559.933000		they	they
sw2435B-ms98-a-0154	B.206	559.933000	560.313000		wanted	wanted
sw2435B-ms98-a-0154	B.206	560.313000	560.790125		in	in
sw2435B-ms98-a-0154	B.206	560.790125	561.163125		[silence]	[silence]
sw2435B-ms98-a-0154	B.206	561.163125	561.345250		so	so
sw2435B-ms98-a-0154	B.206	561.345250	561.441250		they're	they're
sw2435B-ms98-a-0154	B.206	561.441250	561.498000		going	going
sw2435B-ms98-a-0154	B.206	561.498000	561.581625		to	to
sw2435B-ms98-a-0154	B.206	561.581625	561.709125		put	put
sw2435B-ms98-a-0154	B.206	561.709125	561.790750		it	it
sw2435B-ms98-a-0154	B.206	561.790750	561.841750		in	in
sw2435B-ms98-a-0154	B.206	561.841750	561.907875		the	the
sw2435B-ms98-a-0154	B.206	561.907875	562.361125		video	video
sw2435B-ms98-a-0154	B.208	562.361125	562.758375		[silence]	[silence]
sw2435B-ms98-a-0154	B.208	562.758375	562.923000		And	and
sw2435B-ms98-a-0154	B.208	562.923000	563.043000		that	that
sw2435B-ms98-a-0154	B.208	563.043000	563.213000		way	way
sw2435B-ms98-a-0154	B.208	563.213000	563.353000		you	you
sw2435B-ms98-a-0154	B.208	563.353000	563.623000		can	can
sw2435B-ms98-a-0154	B.208	563.623000	563.913000		[silence]	[silence]
sw2435B-ms98-a-0154	B.208	563.913000	564.193000		watch	watch
sw2435B-ms98-a-0154	B.208	564.193000	564.303000		it	it
sw2435B-ms98-a-0154	B.208	564.303000	564.363000		at	at
sw2435B-ms98-a-0154	B.208	564.363000	564.563000		your	your
sw2435B-ms98-a-0154	B.208	564.563000	565.003000		leisure	leisure
sw2435B-ms98-a-0154	B.210	565.003000	565.826625		[silence]	[silence]
sw2435B-ms98-a-0154	B.210	565.826625	566.423125	<DEL>	---	so
sw2435B-ms98-a-0154	B.210	566.423125	566.888250		[silence]	[silence]
sw2435B-ms98-a-0155	B.210	566.888250	570.939625		[silence]	[silence]
sw2435B-ms98-a-0156	B.210	570.939625	571.519625		[silence]	[silence]
sw2435B-ms98-a-0156	B.210	571.519625	572.009625		Yeah	yeah
sw2435B-ms98-a-0156	B.212	572.009625	572.249625	<DEL>	---	that's
sw2435B-ms98-a-0156	B.212	572.249625	572.592875	<DEL>	---	true
sw2435B-ms98-a-0156	B.212	572.592875	572.979750		[silence]	[silence]
sw2435B-ms98-a-0157	B.212	572.979750	575.565250		[silence]	[silence]
sw2435B-ms98-a-0158	B.212	575.565250	576.035250		[silence]	[silence]
sw2435B-ms98-a-0158	B.212	576.035250	576.465250		Yeah	yeah
sw2435B-ms98-a-0158	B.212	576.465250	576.625250		[silence]	[silence]
sw2435B-ms98-a-0158	B.212	576.625250	576.955250		yeah	yeah
sw2435B-ms98-a-0158	B.214	576.955250	577.480125		[silence]	[silence]
sw2435B-ms98-a-0159	B.214	577.480125	579.108125		[silence]	[silence]
sw2435B-ms98-a-0160	B.214	579.108125	579.558125		[silence]	[silence]
sw2435B-ms98-a-0160	B.214	579.558125	580.115875		True	true
sw2435B-ms98-a-0160	B.216	580.115875	580.511875		[silence]	[silence]
sw2435B-ms98-a-0161	B.216	580.511875	583.847500		[silence]	[silence]
sw2435B-ms98-a-0162	B.216	583.847500	584.367500		[silence]	[silence]
sw2435B-ms98-a-0162	B.216	584.367500	584.940875	<DEL>	---	yeah
sw2435B-ms98-a-0162	B.216	584.940875	585.350250		[silence]	[silence]
sw2435B-ms98-a-0163	B.216	585.350250	586.415500		[silence]	[silence]
sw2435B-ms98-a-0164	B.216	586.415500	586.838875		[silence]	[silence]
sw2435B-ms98-a-0164	B.216	586.838875	587.037750		I	i
sw2435B-ms98-a-0164	B.216	587.037750	587.310250		know	know
sw2435B-ms98-a-0164	B.216	587.310250	587.540000		it	it
sw2435B-ms98-a-0164	B.216	587.540000	587.765500		Isn't	isn't
sw2435B-ms98-a-0164	B.216	587.765500	587.875500		that	that
sw2435B-ms98-a-0164	B.216	587.875500	588.515500		ridiculous	ridiculous
sw2435B-ms98-a-0164	B.216	588.515500	588.675500		We	we
sw2435B-ms98-a-0164	B.216	588.675500	588.785500		have	have
sw2435B-ms98-a-0164	B.216	588.785500	589.375500		cable	cable
sw2435B-ms98-a-0164	B.216	589.375500	589.765500		which	which
sw2435B-ms98-a-0164	B.218	589.765500	590.605500		[silence]	[silence]
sw2435B-ms98-a-0164	B.218	590.605500	591.125500		helps	helps
sw2435B-ms98-a-0164	B.218	591.125500	591.321750		a	a
sw2435B-ms98-a-0164	B.218	591.321750	591.823750		lot	lot
sw2435B-ms98-a-0164	B.220	591.823750	592.325625		[laughter]	[laughter]
sw2435B-ms98-a-0164	B.220	592.325625	592.967625		[silence]	[silence]
sw2435B-ms98-a-0165	B.220	592.967625	593.567625		[silence]	[silence]
sw2435B-ms98-a-0165	B.220	593.567625	593.977625		Yeah	yeah
sw2435B-ms98-a-0165	B.220	593.977625	594.117625		we	we
sw2435B-ms98-a-0165	B.220	594.117625	594.347625		keep	keep
sw2435B-ms98-a-0165	B.220	594.347625	594.647625		holding	holding
sw2435B-ms98-a-0165	B.220	594.647625	594.987625		out	out
sw2435B-ms98-a-0165	B.220	594.987625	595.087625		you	you
sw2435B-ms98-a-0165	B.220	595.087625	595.217625		know	know
sw2435B-ms98-a-0165	B.220	595.217625	595.594875		[silence]	[silence]
sw2435B-ms98-a-0166	B.220	595.594875	599.625250		[silence]	[silence]
sw2435B-ms98-a-0167	B.220	599.625250	600.140625		[silence]	[silence]
sw2435B-ms98-a-0167	B.220	600.140625	600.265500		[vocalized-noise]	[vocalized-noise]
sw2435B-ms98-a-0167	B.220	600.265500	600.269125		[silence]	[silence]
