sw2445B-ms98-a-0001	B.2	0.000000	2.494000		[silence]	[silence]
sw2445B-ms98-a-0002	B.2	2.494000	2.724000		[silence]	[silence]
sw2445B-ms98-a-0002	B.2	2.724000	2.994000		Well	well
sw2445B-ms98-a-0002	B.2	2.994000	3.134000		my	my
sw2445B-ms98-a-0002	B.2	3.134000	3.544000		husband	husband
sw2445B-ms98-a-0002	B.2	3.544000	3.634000		and	and
sw2445B-ms98-a-0002	B.2	3.634000	3.674000		I	i
sw2445B-ms98-a-0002	B.2	3.674000	4.014000		haven't	haven't
sw2445B-ms98-a-0002	B.2	4.014000	4.194000		done	done
sw2445B-ms98-a-0002	B.2	4.194000	4.314000		a	a
sw2445B-ms98-a-0002	B.2	4.314000	4.484000		whole	whole
sw2445B-ms98-a-0002	B.2	4.484000	4.644000		lot	lot
sw2445B-ms98-a-0002	B.2	4.644000	4.714000		of	of
sw2445B-ms98-a-0002	B.2	4.714000	5.254000		camping	camping
sw2445B-ms98-a-0002	B.2	5.254000	5.474000		we	we
sw2445B-ms98-a-0002	B.2	5.474000	5.584000		[silence]	[silence]
sw2445B-ms98-a-0002	B.2	5.584000	5.694000		but	but
sw2445B-ms98-a-0002	B.2	5.694000	5.814000		we	we
sw2445B-ms98-a-0002	B.2	5.814000	6.084000		bought	bought
sw2445B-ms98-a-0002	B.2	6.084000	6.134000		a	a
sw2445B-ms98-a-0002	B.2	6.134000	6.444000		van	van
sw2445B-ms98-a-0002	B.2	6.444000	6.884000		last	last
sw2445B-ms98-a-0002	B.2	6.884000	7.174750		year	year
sw2445B-ms98-a-0002	B.4	7.174750	7.698250		[silence]	[silence]
sw2445B-ms98-a-0002	B.4	7.698250	7.914000		and	and
sw2445B-ms98-a-0002	B.4	7.914000	8.014000		we	we
sw2445B-ms98-a-0002	B.4	8.014000	8.174000		were	were
sw2445B-ms98-a-0002	B.4	8.174000	8.524000		hoping	hoping
sw2445B-ms98-a-0002	B.4	8.524000	8.794000	<SUB>	uh	to
sw2445B-ms98-a-0002	B.4	8.794000	8.934000		[silence]	[silence]
sw2445B-ms98-a-0002	B.4	8.934000	9.114000		to	to
sw2445B-ms98-a-0002	B.4	9.114000	9.324000		do	do
sw2445B-ms98-a-0002	B.4	9.324000	9.474000		some	some
sw2445B-ms98-a-0002	B.4	9.474000	9.884000		camping	camping
sw2445B-ms98-a-0002	B.4	9.884000	10.004000		in	in
sw2445B-ms98-a-0002	B.4	10.004000	10.094000		the	the
sw2445B-ms98-a-0002	B.4	10.094000	10.624000		van	van
sw2445B-ms98-a-0002	B.4	10.624000	10.831875		[silence]	[silence]
sw2445B-ms98-a-0003	B.4	10.831875	11.071875		[silence]	[silence]
sw2445B-ms98-a-0003	B.4	11.071875	11.570125		um	um
sw2445B-ms98-a-0003	B.4	11.570125	11.742000		[silence]	[silence]
sw2445B-ms98-a-0003	B.4	11.742000	11.851875		we	we
sw2445B-ms98-a-0003	B.4	11.851875	12.041875		did	did
sw2445B-ms98-a-0003	B.4	12.041875	12.161875		go	go
sw2445B-ms98-a-0003	B.4	12.161875	12.866250		camping	camping
sw2445B-ms98-a-0003	B.4	12.866250	12.915250		[silence]	[silence]
sw2445B-ms98-a-0003	B.4	12.915250	13.321875		in	in
sw2445B-ms98-a-0003	B.4	13.321875	13.663375	<SUB>	Arkans-	Arkan[sas]-
sw2445B-ms98-a-0003	B.4	13.663375	13.821500		[silence]	[silence]
sw2445B-ms98-a-0003	B.4	13.821500	13.971875		not	not
sw2445B-ms98-a-0003	B.4	13.971875	14.541875		Arkansas	Arkansas
sw2445B-ms98-a-0003	B.4	14.541875	15.271375		Oklahoma	Oklahoma
sw2445B-ms98-a-0003	B.4	15.271375	15.821250		[silence]	[silence]
sw2445B-ms98-a-0003	B.4	15.821250	16.208625		Uh	uh
sw2445B-ms98-a-0003	B.4	16.208625	16.287750		[silence]	[silence]
sw2445B-ms98-a-0003	B.4	16.287750	16.751875		last	last
sw2445B-ms98-a-0003	B.4	16.751875	17.133500		year	year
sw2445B-ms98-a-0003	B.4	17.133500	17.212625		[silence]	[silence]
sw2445B-ms98-a-0003	B.4	17.212625	17.651875		in	in
sw2445B-ms98-a-0003	B.4	17.651875	17.751875		we	we
sw2445B-ms98-a-0003	B.4	17.751875	18.051875		camped	camped
sw2445B-ms98-a-0003	B.4	18.051875	18.161875		in	in
sw2445B-ms98-a-0003	B.4	18.161875	18.231875		a	a
sw2445B-ms98-a-0003	B.4	18.231875	18.631875		tent	tent
sw2445B-ms98-a-0003	B.4	18.631875	19.081625		[silence]	[silence]
sw2445B-ms98-a-0004	B.4	19.081625	19.521625		[silence]	[silence]
sw2445B-ms98-a-0004	B.4	19.521625	20.041625		and	and
sw2445B-ms98-a-0004	B.4	20.041625	20.441625		uh	uh
sw2445B-ms98-a-0004	B.4	20.441625	20.581625		there	there
sw2445B-ms98-a-0004	B.4	20.581625	20.711625		were	were
sw2445B-ms98-a-0004	B.4	20.711625	20.911625		two	two
sw2445B-ms98-a-0004	B.4	20.911625	21.081625		other	other
sw2445B-ms98-a-0004	B.4	21.081625	21.501625		couples	couples
sw2445B-ms98-a-0004	B.4	21.501625	21.701625		with	with
sw2445B-ms98-a-0004	B.4	21.701625	21.891625		us	us
sw2445B-ms98-a-0004	B.4	21.891625	22.001625		and	and
sw2445B-ms98-a-0004	B.4	22.001625	22.091625		there	there
sw2445B-ms98-a-0004	B.4	22.091625	22.310750		was	was
sw2445B-ms98-a-0004	B.4	22.310750	22.397375		[silence]	[silence]
sw2445B-ms98-a-0004	B.4	22.397375	22.701625		uh	uh
sw2445B-ms98-a-0004	B.4	22.701625	23.041625		state	state
sw2445B-ms98-a-0004	B.4	23.041625	23.521625		park	park
sw2445B-ms98-a-0004	B.6	23.521625	23.955375		[silence]	[silence]
sw2445B-ms98-a-0005	B.6	23.955375	24.445375		[silence]	[silence]
sw2445B-ms98-a-0005	B.6	24.445375	24.565375		And	and
sw2445B-ms98-a-0005	B.6	24.565375	24.625375		it	it
sw2445B-ms98-a-0005	B.6	24.625375	24.785375		was	was
sw2445B-ms98-a-0005	B.6	24.785375	25.015375		really	really
sw2445B-ms98-a-0005	B.6	25.015375	25.627875		nice	nice
sw2445B-ms98-a-0005	B.8	25.627875	25.901875		[silence]	[silence]
sw2445B-ms98-a-0006	B.8	25.901875	32.318000		[silence]	[silence]
sw2445B-ms98-a-0007	B.8	32.318000	32.778000		[silence]	[silence]
sw2445B-ms98-a-0007	B.8	32.778000	33.188000		Really	really
sw2445B-ms98-a-0007	B.10	33.188000	33.609875		[silence]	[silence]
sw2445B-ms98-a-0008	B.10	33.609875	41.220000		[silence]	[silence]
sw2445B-ms98-a-0009	B.10	41.220000	41.590000		[silence]	[silence]
sw2445B-ms98-a-0009	B.10	41.590000	42.030000		Um	um
sw2445B-ms98-a-0009	B.12	42.030000	42.471875		[silence]	[silence]
sw2445B-ms98-a-0010	B.12	42.471875	52.777000		[silence]	[silence]
sw2445B-ms98-a-0011	B.12	52.777000	53.269125		[silence]	[silence]
sw2445B-ms98-a-0011	B.12	53.269125	53.489125		I	i
sw2445B-ms98-a-0011	B.12	53.489125	53.704250		[silence]	[silence]
sw2445B-ms98-a-0011	B.12	53.704250	53.822250		I	i
sw2445B-ms98-a-0011	B.12	53.822250	54.025625		don't	don't
sw2445B-ms98-a-0011	B.12	54.025625	54.247000		like	like
sw2445B-ms98-a-0011	B.12	54.247000	54.867000		really	really
sw2445B-ms98-a-0011	B.12	54.867000	55.227000		[silence]	[silence]
sw2445B-ms98-a-0011	B.12	55.227000	55.677000		camping	camping
sw2445B-ms98-a-0011	B.12	55.677000	55.827000		in	in
sw2445B-ms98-a-0011	B.12	55.827000	55.967000		the	the
sw2445B-ms98-a-0011	B.12	55.967000	56.377000		rough	rough
sw2445B-ms98-a-0011	B.12	56.377000	56.485875		I	i
sw2445B-ms98-a-0011	B.12	56.485875	56.767000		like	like
sw2445B-ms98-a-0011	B.12	56.767000	56.903125		the	the
sw2445B-ms98-a-0011	B.12	56.903125	57.267000		[silence]	[silence]
sw2445B-ms98-a-0011	B.12	57.267000	57.527000		the	the
sw2445B-ms98-a-0011	B.12	57.527000	58.297750		[silence]	[silence]
sw2445B-ms98-a-0012	B.12	58.297750	58.967750		[silence]	[silence]
sw2445B-ms98-a-0012	B.12	58.967750	59.143125		the	the
sw2445B-ms98-a-0012	B.12	59.143125	59.467750		little	little
sw2445B-ms98-a-0012	B.12	59.467750	60.277750	<SUB>	necessities	niceties
sw2445B-ms98-a-0012	B.12	60.277750	60.657750		like	like
sw2445B-ms98-a-0012	B.12	60.657750	61.149500		having	having
sw2445B-ms98-a-0012	B.12	61.149500	61.262500		[silence]	[silence]
sw2445B-ms98-a-0012	B.12	61.262500	62.150750		electricity	electricity
sw2445B-ms98-a-0012	B.12	62.150750	62.900000		available	available
sw2445B-ms98-a-0012	B.12	62.900000	63.190625		and	and
sw2445B-ms98-a-0012	B.12	63.190625	63.281125		[silence]	[silence]
sw2445B-ms98-a-0012	B.12	63.281125	63.637750		running	running
sw2445B-ms98-a-0012	B.12	63.637750	64.077750		water	water
sw2445B-ms98-a-0012	B.12	64.077750	64.237750		and	and
sw2445B-ms98-a-0012	B.12	64.237750	64.837750		showers	showers
sw2445B-ms98-a-0012	B.12	64.837750	64.957750		and	and
sw2445B-ms98-a-0012	B.12	64.957750	65.177750		things	things
sw2445B-ms98-a-0012	B.12	65.177750	65.387750		like	like
sw2445B-ms98-a-0012	B.12	65.387750	65.807750		that	that
sw2445B-ms98-a-0012	B.14	65.807750	66.294875		[silence]	[silence]
sw2445B-ms98-a-0013	B.14	66.294875	80.197875		[silence]	[silence]
sw2445B-ms98-a-0014	B.14	80.197875	80.607875		[silence]	[silence]
sw2445B-ms98-a-0014	B.14	80.607875	80.834375		Yeah	yeah
sw2445B-ms98-a-0014	B.14	80.834375	80.967875		that	that
sw2445B-ms98-a-0014	B.14	80.967875	81.137875		would	would
sw2445B-ms98-a-0014	B.14	81.137875	81.197875		[silence]	[silence]
sw2445B-ms98-a-0014	B.14	81.197875	81.347875		that	that
sw2445B-ms98-a-0014	B.14	81.347875	81.477875		would	would
sw2445B-ms98-a-0014	B.14	81.477875	81.630125		be	be
sw2445B-ms98-a-0014	B.14	81.630125	82.087875		much	much
sw2445B-ms98-a-0014	B.16	82.087875	82.497625		[laughter]	[laughter]
sw2445B-ms98-a-0014	B.16	82.497625	82.994125		[silence]	[silence]
sw2445B-ms98-a-0015	B.16	82.994125	90.452625		[silence]	[silence]
sw2445B-ms98-a-0016	B.16	90.452625	90.952625		[silence]	[silence]
sw2445B-ms98-a-0016	B.16	90.952625	91.162625		Yeah	yeah
sw2445B-ms98-a-0016	B.16	91.162625	91.312250		the	the
sw2445B-ms98-a-0016	B.16	91.312250	91.822625		campsite	campsite
sw2445B-ms98-a-0016	B.16	91.822625	91.942625		that	that
sw2445B-ms98-a-0016	B.16	91.942625	92.082625		we	we
sw2445B-ms98-a-0016	B.16	92.082625	92.392625		went	went
sw2445B-ms98-a-0016	B.16	92.392625	92.642625		to	to
sw2445B-ms98-a-0016	B.16	92.642625	92.912625		was	was
sw2445B-ms98-a-0016	B.16	92.912625	93.012625		[silence]	[silence]
sw2445B-ms98-a-0016	B.16	93.012625	93.122625		an	an
sw2445B-ms98-a-0016	B.16	93.122625	93.572625		area	area
sw2445B-ms98-a-0016	B.16	93.572625	93.892625		that	that
sw2445B-ms98-a-0016	B.16	93.892625	94.082625		it's	it's
sw2445B-ms98-a-0016	B.16	94.082625	94.272625		right	right
sw2445B-ms98-a-0016	B.16	94.272625	94.422625		on	on
sw2445B-ms98-a-0016	B.16	94.422625	94.482625		a	a
sw2445B-ms98-a-0016	B.16	94.482625	94.752625		big	big
sw2445B-ms98-a-0016	B.16	94.752625	95.082625		lake	lake
sw2445B-ms98-a-0016	B.16	95.082625	95.302625		and	and
sw2445B-ms98-a-0016	B.16	95.302625	95.882625		[silence]	[silence]
sw2445B-ms98-a-0016	B.16	95.882625	96.112625		there's	there's
sw2445B-ms98-a-0016	B.16	96.112625	96.182625		a	a
sw2445B-ms98-a-0016	B.16	96.182625	96.382625		lot	lot
sw2445B-ms98-a-0016	B.16	96.382625	96.492625		of	of
sw2445B-ms98-a-0016	B.16	96.492625	96.892625		boating	boating
sw2445B-ms98-a-0016	B.16	96.892625	97.082625		out	out
sw2445B-ms98-a-0016	B.16	97.082625	97.464875		there	there
sw2445B-ms98-a-0016	B.16	97.464875	97.909250		[silence]	[silence]
sw2445B-ms98-a-0016	B.16	97.909250	98.062625		and	and
sw2445B-ms98-a-0016	B.16	98.062625	98.402625		we	we
sw2445B-ms98-a-0016	B.16	98.402625	98.612625		we	we
sw2445B-ms98-a-0016	B.16	98.612625	98.822625		went	went
sw2445B-ms98-a-0016	B.16	98.822625	99.002625		up	up
sw2445B-ms98-a-0016	B.16	99.002625	99.434250		there	there
sw2445B-ms98-a-0016	B.16	99.434250	99.558500		[silence]	[silence]
sw2445B-ms98-a-0016	B.16	99.558500	99.662625	<DEL>	---	uh
sw2445B-ms98-a-0016	B.16	99.662625	99.852625		to	to
sw2445B-ms98-a-0016	B.16	99.852625	100.552625		hopefully	hopefully
sw2445B-ms98-a-0016	B.16	100.552625	101.084125		[silence]	[silence]
sw2445B-ms98-a-0017	B.16	101.084125	101.424125		[silence]	[silence]
sw2445B-ms98-a-0017	B.16	101.424125	101.704125		be	be
sw2445B-ms98-a-0017	B.16	101.704125	101.884125		able	able
sw2445B-ms98-a-0017	B.16	101.884125	101.974125		to	to
sw2445B-ms98-a-0017	B.16	101.974125	102.134125		get	get
sw2445B-ms98-a-0017	B.16	102.134125	102.274125		on	on
sw2445B-ms98-a-0017	B.16	102.274125	102.344125		the	the
sw2445B-ms98-a-0017	B.16	102.344125	102.714125		water	water
sw2445B-ms98-a-0017	B.16	102.714125	102.754125		a	a
sw2445B-ms98-a-0017	B.16	102.754125	102.954125		little	little
sw2445B-ms98-a-0017	B.16	102.954125	103.274125		bit	bit
sw2445B-ms98-a-0017	B.16	103.274125	103.424125		but	but
sw2445B-ms98-a-0017	B.16	103.424125	103.494125		it	it
sw2445B-ms98-a-0017	B.16	103.494125	103.644125		was	was
sw2445B-ms98-a-0017	B.16	103.644125	103.864125		still	still
sw2445B-ms98-a-0017	B.16	103.864125	104.032250		uh	uh
sw2445B-ms98-a-0017	B.16	104.032250	104.118875		it	it
sw2445B-ms98-a-0017	B.16	104.118875	104.254125		was	was
sw2445B-ms98-a-0017	B.16	104.254125	104.424125		still	still
sw2445B-ms98-a-0017	B.16	104.424125	104.564125		too	too
sw2445B-ms98-a-0017	B.16	104.564125	105.119875		cold	cold
sw2445B-ms98-a-0017	B.18	105.119875	105.771875		[silence]	[silence]
sw2445B-ms98-a-0018	B.18	105.771875	106.141875		[silence]	[silence]
sw2445B-ms98-a-0018	B.18	106.141875	106.559875		Yeah	yeah
sw2445B-ms98-a-0018	B.18	106.559875	106.771250		it	it
sw2445B-ms98-a-0018	B.18	106.771250	106.933000		[silence]	[silence]
sw2445B-ms98-a-0018	B.18	106.933000	107.034625		it	it
sw2445B-ms98-a-0018	B.18	107.034625	107.171875		was	was
sw2445B-ms98-a-0018	B.18	107.171875	107.421875		pretty	pretty
sw2445B-ms98-a-0018	B.18	107.421875	107.741875		early	early
sw2445B-ms98-a-0018	B.18	107.741875	107.851875		in	in
sw2445B-ms98-a-0018	B.18	107.851875	107.911875		the	the
sw2445B-ms98-a-0018	B.18	107.911875	108.391875		year	year
sw2445B-ms98-a-0018	B.20	108.391875	108.854875		[silence]	[silence]
sw2445B-ms98-a-0019	B.20	108.854875	114.653000		[silence]	[silence]
sw2445B-ms98-a-0020	B.20	114.653000	115.143000		[silence]	[silence]
sw2445B-ms98-a-0020	B.20	115.143000	115.547625		Yeah	yeah
sw2445B-ms98-a-0020	B.22	115.547625	116.024375		[silence]	[silence]
sw2445B-ms98-a-0021	B.22	116.024375	134.511500		[silence]	[silence]
sw2445B-ms98-a-0022	B.22	134.511500	134.881500		[silence]	[silence]
sw2445B-ms98-a-0022	B.22	134.881500	135.428125		Yeah	yeah
sw2445B-ms98-a-0022	B.24	135.428125	135.847000		[silence]	[silence]
sw2445B-ms98-a-0023	B.24	135.847000	141.957750		[silence]	[silence]
sw2445B-ms98-a-0024	B.24	141.957750	142.447750		[silence]	[silence]
sw2445B-ms98-a-0024	B.24	142.447750	142.817750		Yeah	yeah
sw2445B-ms98-a-0024	B.24	142.817750	143.073375		we	we
sw2445B-ms98-a-0024	B.24	143.073375	143.177750		[silence]	[silence]
sw2445B-ms98-a-0024	B.24	143.177750	143.297750		we	we
sw2445B-ms98-a-0024	B.24	143.297750	143.457750		have	have
sw2445B-ms98-a-0024	B.24	143.457750	143.607750	<DEL>	---	a
sw2445B-ms98-a-0024	B.24	143.607750	143.737750		we	we
sw2445B-ms98-a-0024	B.24	143.737750	143.867750		have	have
sw2445B-ms98-a-0024	B.24	143.867750	143.947750		a	a
sw2445B-ms98-a-0024	B.24	143.947750	144.337750		dog	dog
sw2445B-ms98-a-0024	B.24	144.337750	144.427750		and	and
sw2445B-ms98-a-0024	B.24	144.427750	144.667750		that's	that's
sw2445B-ms98-a-0024	B.24	144.667750	144.837750		[silence]	[silence]
sw2445B-ms98-a-0024	B.24	144.837750	145.037750		just	just
sw2445B-ms98-a-0024	B.24	145.037750	145.297750		about	about
sw2445B-ms98-a-0024	B.24	145.297750	145.407750		as	as
sw2445B-ms98-a-0024	B.24	145.407750	145.637750		bad	bad
sw2445B-ms98-a-0024	B.24	145.637750	145.737750		as	as
sw2445B-ms98-a-0024	B.24	145.737750	145.797750		a	a
sw2445B-ms98-a-0024	B.24	145.797750	146.137750		kid	kid
sw2445B-ms98-a-0024	B.26	146.137750	146.441625		[laughter]	[laughter]
sw2445B-ms98-a-0024	B.26	146.441625	146.601375		[silence]	[silence]
sw2445B-ms98-a-0025	B.26	146.601375	151.191625		[silence]	[silence]
sw2445B-ms98-a-0026	B.26	151.191625	151.513500		[silence]	[silence]
sw2445B-ms98-a-0026	B.26	151.513500	151.950125	<SUB>	Uh-huh	um-hum
sw2445B-ms98-a-0026	B.28	151.950125	152.439250		[silence]	[silence]
sw2445B-ms98-a-0027	B.28	152.439250	155.503250		[silence]	[silence]
sw2445B-ms98-a-0028	B.28	155.503250	155.963250		[silence]	[silence]
sw2445B-ms98-a-0028	B.28	155.963250	156.320375		Yeah	yeah
sw2445B-ms98-a-0028	B.28	156.320375	156.580750		[silence]	[silence]
sw2445B-ms98-a-0028	B.28	156.580750	156.679500		I	i
sw2445B-ms98-a-0028	B.28	156.679500	156.856500		don't	don't
sw2445B-ms98-a-0028	B.28	156.856500	157.023500		know	know
sw2445B-ms98-a-0028	B.28	157.023500	157.189125		how	how
sw2445B-ms98-a-0028	B.28	157.189125	157.333250		you	you
sw2445B-ms98-a-0028	B.28	157.333250	157.483250		can	can
sw2445B-ms98-a-0028	B.28	157.483250	157.733250		really	really
sw2445B-ms98-a-0028	B.28	157.733250	158.171000		keep	keep
sw2445B-ms98-a-0028	B.28	158.171000	158.443250		[silence]	[silence]
sw2445B-ms98-a-0028	B.28	158.443250	158.783250		uh	uh
sw2445B-ms98-a-0028	B.28	158.783250	159.033250		the	the
sw2445B-ms98-a-0028	B.28	159.033250	159.413250		inside	inside
sw2445B-ms98-a-0028	B.28	159.413250	159.503250		of	of
sw2445B-ms98-a-0028	B.28	159.503250	159.573250		a	a
sw2445B-ms98-a-0028	B.28	159.573250	159.953250		tent	tent
sw2445B-ms98-a-0028	B.28	159.953250	160.479250		clean	clean
sw2445B-ms98-a-0028	B.30	160.479250	160.916125		[silence]	[silence]
sw2445B-ms98-a-0028	B.30	160.916125	161.218875		Other	other
sw2445B-ms98-a-0028	B.30	161.218875	161.286625		[silence]	[silence]
sw2445B-ms98-a-0028	B.30	161.286625	161.543250	<DEL>	---	other
sw2445B-ms98-a-0028	B.30	161.543250	161.933250		than	than
sw2445B-ms98-a-0028	B.30	161.933250	162.103250		[silence]	[silence]
sw2445B-ms98-a-0028	B.30	162.103250	162.203250		you	you
sw2445B-ms98-a-0028	B.30	162.203250	162.542750		know	know
sw2445B-ms98-a-0028	B.30	162.542750	163.058750		[silence]	[silence]
sw2445B-ms98-a-0028	B.30	163.058750	163.413250		taking	taking
sw2445B-ms98-a-0028	B.30	163.413250	163.533250		your	your
sw2445B-ms98-a-0028	B.30	163.533250	163.843250		shoes	shoes
sw2445B-ms98-a-0028	B.30	163.843250	164.093250		off	off
sw2445B-ms98-a-0028	B.30	164.093250	164.213250		right	right
sw2445B-ms98-a-0028	B.30	164.213250	164.493250		before	before
sw2445B-ms98-a-0028	B.30	164.493250	164.613250		you	you
sw2445B-ms98-a-0028	B.30	164.613250	164.933250		walk	walk
sw2445B-ms98-a-0028	B.30	164.933250	165.083250		in	in
sw2445B-ms98-a-0028	B.30	165.083250	165.193250		or	or
sw2445B-ms98-a-0028	B.30	165.193250	165.792375		something	something
sw2445B-ms98-a-0028	B.30	165.792375	166.214750		[silence]	[silence]
sw2445B-ms98-a-0029	B.30	166.214750	166.564750		[silence]	[silence]
sw2445B-ms98-a-0029	B.30	166.564750	166.904750		and	and
sw2445B-ms98-a-0029	B.30	166.904750	167.174750		[silence]	[silence]
sw2445B-ms98-a-0029	B.30	167.174750	167.314750		and	and
sw2445B-ms98-a-0029	B.30	167.314750	167.674750		sweeping	sweeping
sw2445B-ms98-a-0029	B.30	167.674750	167.764750		it	it
sw2445B-ms98-a-0029	B.30	167.764750	167.934750		out	out
sw2445B-ms98-a-0029	B.30	167.934750	168.364750		everyday	everyday
sw2445B-ms98-a-0029	B.30	168.364750	168.554750		it's	it's
sw2445B-ms98-a-0029	B.30	168.554750	168.724750		really	really
sw2445B-ms98-a-0029	B.30	168.724750	169.014750		hard	hard
sw2445B-ms98-a-0029	B.30	169.014750	169.234750		to	to
sw2445B-ms98-a-0029	B.30	169.234750	169.444750		[silence]	[silence]
sw2445B-ms98-a-0029	B.30	169.444750	169.544750		to	to
sw2445B-ms98-a-0029	B.30	169.544750	169.784750		keep	keep
sw2445B-ms98-a-0029	B.30	169.784750	169.864750		the	the
sw2445B-ms98-a-0029	B.30	169.864750	170.224750		sand	sand
sw2445B-ms98-a-0029	B.30	170.224750	170.374750		and	and
sw2445B-ms98-a-0029	B.30	170.374750	170.564750		dirt	dirt
sw2445B-ms98-a-0029	B.30	170.564750	170.754750		out	out
sw2445B-ms98-a-0029	B.30	170.754750	170.864750		of	of
sw2445B-ms98-a-0029	B.30	170.864750	171.098500		it	it
sw2445B-ms98-a-0029	B.32	171.098500	171.479875		[silence]	[silence]
sw2445B-ms98-a-0030	B.32	171.479875	190.017000		[silence]	[silence]
sw2445B-ms98-a-0031	B.32	190.017000	190.547000		[silence]	[silence]
sw2445B-ms98-a-0031	B.32	190.547000	190.841875		Did	did
sw2445B-ms98-a-0031	B.34	190.841875	191.233250		[silence]	[silence]
sw2445B-ms98-a-0032	B.34	191.233250	193.796500		[silence]	[silence]
sw2445B-ms98-a-0033	B.34	193.796500	194.277750		[silence]	[silence]
sw2445B-ms98-a-0033	B.34	194.277750	194.663750	<SUB>	Uh-huh	um-hum
sw2445B-ms98-a-0033	B.34	194.663750	195.171625		[silence]	[silence]
sw2445B-ms98-a-0033	B.34	195.171625	195.616500		Um	um
sw2445B-ms98-a-0033	B.34	195.616500	195.766500		[silence]	[silence]
sw2445B-ms98-a-0033	B.34	195.766500	195.926500		did	did
sw2445B-ms98-a-0033	B.34	195.926500	196.126500		you	you
sw2445B-ms98-a-0033	B.34	196.126500	196.306500		have	have
sw2445B-ms98-a-0033	B.34	196.306500	196.901125		another	another
sw2445B-ms98-a-0033	B.34	196.901125	197.285375		[silence]	[silence]
sw2445B-ms98-a-0033	B.34	197.285375	197.456500		a	a
sw2445B-ms98-a-0033	B.34	197.456500	197.786500		big	big
sw2445B-ms98-a-0033	B.34	197.786500	198.156500		tent	tent
sw2445B-ms98-a-0033	B.34	198.156500	198.436500		like	like
sw2445B-ms98-a-0033	B.34	198.436500	198.798125		uh	uh
sw2445B-ms98-a-0033	B.34	198.798125	198.899875		[silence]	[silence]
sw2445B-ms98-a-0033	B.34	198.899875	199.416500		um	um
sw2445B-ms98-a-0033	B.34	199.416500	200.111000		[silence]	[silence]
sw2445B-ms98-a-0034	B.34	200.111000	200.671000		[silence]	[silence]
sw2445B-ms98-a-0034	B.34	200.671000	200.844500	<DEL>	---	for
sw2445B-ms98-a-0034	B.34	200.844500	200.994750		like	like
sw2445B-ms98-a-0034	B.34	200.994750	201.182250		a	a
sw2445B-ms98-a-0034	B.34	201.182250	201.401000		looks	looks
sw2445B-ms98-a-0034	B.34	201.401000	201.531000		like	like
sw2445B-ms98-a-0034	B.34	201.531000	201.591000		a	a
sw2445B-ms98-a-0034	B.34	201.591000	201.991000		sitting	sitting
sw2445B-ms98-a-0034	B.34	201.991000	202.311000		area	area
sw2445B-ms98-a-0034	B.34	202.311000	202.611000		type	type
sw2445B-ms98-a-0034	B.34	202.611000	202.691000		you	you
sw2445B-ms98-a-0034	B.34	202.691000	202.751000		know	know
sw2445B-ms98-a-0034	B.34	202.751000	202.881000		like	like
sw2445B-ms98-a-0034	B.34	202.881000	202.931000		a	a
sw2445B-ms98-a-0034	B.34	202.931000	203.181000		two	two
sw2445B-ms98-a-0034	B.34	203.181000	203.481000		room	room
sw2445B-ms98-a-0034	B.34	203.481000	203.781000		type	type
sw2445B-ms98-a-0034	B.36	203.781000	204.215500	<DEL>	---	tent
sw2445B-ms98-a-0034	B.36	204.215500	204.417625		[silence]	[silence]
sw2445B-ms98-a-0035	B.36	204.417625	213.995625		[silence]	[silence]
sw2445B-ms98-a-0036	B.36	213.995625	214.475625		[silence]	[silence]
sw2445B-ms98-a-0036	B.36	214.475625	214.905625		Yeah	yeah
sw2445B-ms98-a-0036	B.36	214.905625	215.115625		[silence]	[silence]
sw2445B-ms98-a-0036	B.36	215.115625	215.528000		yeah	yeah
sw2445B-ms98-a-0036	B.36	215.528000	215.923375		[silence]	[silence]
sw2445B-ms98-a-0036	B.36	215.923375	216.045625		we	we
sw2445B-ms98-a-0036	B.36	216.045625	216.215625		don't	don't
sw2445B-ms98-a-0036	B.36	216.215625	216.365625		really	really
sw2445B-ms98-a-0036	B.36	216.365625	216.555625		have	have
sw2445B-ms98-a-0036	B.36	216.555625	216.635625		a	a
sw2445B-ms98-a-0036	B.36	216.635625	217.115625		problem	problem
sw2445B-ms98-a-0036	B.36	217.115625	217.295625		with	with
sw2445B-ms98-a-0036	B.36	217.295625	217.905625		that	that
sw2445B-ms98-a-0036	B.36	217.905625	218.394375		um	um
sw2445B-ms98-a-0036	B.36	218.394375	218.691875		[silence]	[silence]
sw2445B-ms98-a-0036	B.36	218.691875	218.915625		in	in
sw2445B-ms98-a-0036	B.36	218.915625	219.285625		these	these
sw2445B-ms98-a-0036	B.36	219.285625	219.950000		areas	areas
sw2445B-ms98-a-0036	B.36	219.950000	220.530000		[silence]	[silence]
sw2445B-ms98-a-0036	B.36	220.530000	221.145625		um	um
sw2445B-ms98-a-0036	B.36	221.145625	221.358250		[silence]	[silence]
sw2445B-ms98-a-0037	B.36	221.358250	222.387625		[silence]	[silence]
sw2445B-ms98-a-0038	B.36	222.387625	222.627625		[silence]	[silence]
sw2445B-ms98-a-0038	B.36	222.627625	222.722625		and	and
sw2445B-ms98-a-0038	B.36	222.722625	223.004125	<SUB>	even	ev[en]-
sw2445B-ms98-a-0038	B.36	223.004125	223.317625		even	even
sw2445B-ms98-a-0038	B.36	223.317625	223.457625		when	when
sw2445B-ms98-a-0038	B.36	223.457625	223.687625		in	in
sw2445B-ms98-a-0038	B.36	223.687625	224.207625		Oklahoma	Oklahoma
sw2445B-ms98-a-0038	B.36	224.207625	224.357625		when	when
sw2445B-ms98-a-0038	B.36	224.357625	224.506000		we	we
sw2445B-ms98-a-0038	B.36	224.506000	224.912875		camped	camped
sw2445B-ms98-a-0038	B.36	224.912875	225.067625		I	i
sw2445B-ms98-a-0038	B.36	225.067625	225.327625		really	really
sw2445B-ms98-a-0038	B.36	225.327625	225.607625		didn't	didn't
sw2445B-ms98-a-0038	B.36	225.607625	225.907625		notice	notice
sw2445B-ms98-a-0038	B.36	225.907625	225.967625		a	a
sw2445B-ms98-a-0038	B.36	225.967625	226.387625		problem	problem
sw2445B-ms98-a-0038	B.36	226.387625	226.567625		with	with
sw2445B-ms98-a-0038	B.36	226.567625	227.076250		bugs	bugs
sw2445B-ms98-a-0038	B.36	227.076250	227.656375		[silence]	[silence]
sw2445B-ms98-a-0038	B.36	227.656375	227.787625		And	and
sw2445B-ms98-a-0038	B.36	227.787625	227.867625		I	i
sw2445B-ms98-a-0038	B.36	227.867625	228.297625		noticed	noticed
sw2445B-ms98-a-0038	B.36	228.297625	228.607625		that	that
sw2445B-ms98-a-0038	B.36	228.607625	228.677625		I	i
sw2445B-ms98-a-0038	B.36	228.677625	228.897625		know	know
sw2445B-ms98-a-0038	B.36	228.897625	229.036750		that	that
sw2445B-ms98-a-0038	B.36	229.036750	229.161125		I	i
sw2445B-ms98-a-0038	B.36	229.161125	229.327625		said	said
sw2445B-ms98-a-0038	B.36	229.327625	229.537625		[silence]	[silence]
sw2445B-ms98-a-0038	B.36	229.537625	229.721625		that's	that's
sw2445B-ms98-a-0038	B.36	229.721625	229.808250		[silence]	[silence]
sw2445B-ms98-a-0038	B.36	229.808250	230.058000		I've	i've
sw2445B-ms98-a-0038	B.36	230.058000	230.238750		[silence]	[silence]
sw2445B-ms98-a-0038	B.36	230.238750	230.447625		I've	i've
sw2445B-ms98-a-0038	B.36	230.447625	230.707625		lived	lived
sw2445B-ms98-a-0038	B.36	230.707625	230.937625		back	back
sw2445B-ms98-a-0038	B.36	230.937625	231.197625		east	east
sw2445B-ms98-a-0038	B.36	231.197625	231.795000		before	before
sw2445B-ms98-a-0038	B.36	231.795000	232.499250		[silence]	[silence]
sw2445B-ms98-a-0038	B.36	232.499250	232.943125		um	um
sw2445B-ms98-a-0038	B.36	232.943125	233.233250		[silence]	[silence]
sw2445B-ms98-a-0038	B.36	233.233250	233.606375	<SUB>	they	and
sw2445B-ms98-a-0038	B.38	233.606375	234.061125		[silence]	[silence]
sw2445B-ms98-a-0039	B.38	234.061125	258.862750		[silence]	[silence]
sw2445B-ms98-a-0040	B.38	258.862750	259.292750		[silence]	[silence]
sw2445B-ms98-a-0040	B.38	259.292750	259.622625	<SUB>	Huh	hum
sw2445B-ms98-a-0040	B.40	259.622625	260.078125		[silence]	[silence]
sw2445B-ms98-a-0041	B.40	260.078125	276.043625		[silence]	[silence]
sw2445B-ms98-a-0042	B.40	276.043625	276.623625		[silence]	[silence]
sw2445B-ms98-a-0042	B.40	276.623625	276.998000		Really	really
sw2445B-ms98-a-0042	B.42	276.998000	277.416750		[silence]	[silence]
sw2445B-ms98-a-0043	B.42	277.416750	299.523875		[silence]	[silence]
sw2445B-ms98-a-0044	B.42	299.523875	299.973875		[silence]	[silence]
sw2445B-ms98-a-0044	B.42	299.973875	300.383875	<SUB>	Huh	hum
sw2445B-ms98-a-0044	B.44	300.383875	300.873500		[silence]	[silence]
sw2445B-ms98-a-0045	B.44	300.873500	314.528375		[silence]	[silence]
sw2445B-ms98-a-0046	B.44	314.528375	314.968375		[silence]	[silence]
sw2445B-ms98-a-0046	B.44	314.968375	315.148375		Well	well
sw2445B-ms98-a-0046	B.44	315.148375	315.318375		have	have
sw2445B-ms98-a-0046	B.44	315.318375	315.408375		you	you
sw2445B-ms98-a-0046	B.44	315.408375	315.716375		ever	ever
sw2445B-ms98-a-0046	B.44	315.716375	315.784125		[silence]	[silence]
sw2445B-ms98-a-0046	B.44	315.784125	315.978375		have	have
sw2445B-ms98-a-0046	B.44	315.978375	316.038375		you	you
sw2445B-ms98-a-0046	B.44	316.038375	316.188375		ever	ever
sw2445B-ms98-a-0046	B.44	316.188375	316.558375		taken	taken
sw2445B-ms98-a-0046	B.44	316.558375	316.728375		any	any
sw2445B-ms98-a-0046	B.44	316.728375	316.818375		of	of
sw2445B-ms98-a-0046	B.44	316.818375	317.241375		those	those
sw2445B-ms98-a-0046	B.44	317.241375	317.354375		[silence]	[silence]
sw2445B-ms98-a-0046	B.44	317.354375	317.858375		um	um
sw2445B-ms98-a-0046	B.44	317.858375	318.262875		[silence]	[silence]
sw2445B-ms98-a-0047	B.44	318.262875	318.702875		[silence]	[silence]
sw2445B-ms98-a-0047	B.44	318.702875	318.792875		what	what
sw2445B-ms98-a-0047	B.44	318.792875	318.852875		do	do
sw2445B-ms98-a-0047	B.44	318.852875	318.952875		they	they
sw2445B-ms98-a-0047	B.44	318.952875	319.223750		call	call
sw2445B-ms98-a-0047	B.44	319.223750	319.607875		this	this
sw2445B-ms98-a-0047	B.44	319.607875	320.440250	<DEL>	---	citronella
sw2445B-ms98-a-0047	B.44	320.440250	320.935000		[silence]	[silence]
sw2445B-ms98-a-0047	B.44	320.935000	321.504375		lights	lights
sw2445B-ms98-a-0047	B.44	321.504375	321.792875		[silence]	[silence]
sw2445B-ms98-a-0047	B.44	321.792875	321.882875		have	have
sw2445B-ms98-a-0047	B.44	321.882875	321.952875		you	you
sw2445B-ms98-a-0047	B.44	321.952875	322.072875		ever	ever
sw2445B-ms98-a-0047	B.44	322.072875	322.332875		used	used
sw2445B-ms98-a-0047	B.44	322.332875	322.642875		those	those
sw2445B-ms98-a-0047	B.46	322.642875	323.215750		[silence]	[silence]
sw2445B-ms98-a-0048	B.46	323.215750	336.105250		[silence]	[silence]
sw2445B-ms98-a-0049	B.46	336.105250	336.455250		[silence]	[silence]
sw2445B-ms98-a-0049	B.46	336.455250	336.884875	<SUB>	Uh-huh	um-hum
sw2445B-ms98-a-0049	B.48	336.884875	337.119875		[silence]	[silence]
sw2445B-ms98-a-0050	B.48	337.119875	350.403500		[silence]	[silence]
sw2445B-ms98-a-0051	B.48	350.403500	350.893500		[silence]	[silence]
sw2445B-ms98-a-0051	B.48	350.893500	351.313500		Yeah	yeah
sw2445B-ms98-a-0051	B.50	351.313500	351.541500		[silence]	[silence]
sw2445B-ms98-a-0052	B.50	351.541500	355.676750		[silence]	[silence]
sw2445B-ms98-a-0053	B.50	355.676750	356.136750		[silence]	[silence]
sw2445B-ms98-a-0053	B.50	356.136750	356.464750	<SUB>	Huh	hum
sw2445B-ms98-a-0053	B.52	356.464750	356.694750		[silence]	[silence]
sw2445B-ms98-a-0054	B.52	356.694750	377.545500		[silence]	[silence]
sw2445B-ms98-a-0055	B.52	377.545500	378.010000		[silence]	[silence]
sw2445B-ms98-a-0055	B.52	378.010000	378.575500	<SUB>	Uh-huh	um-hum
sw2445B-ms98-a-0055	B.54	378.575500	378.859875		[silence]	[silence]
sw2445B-ms98-a-0056	B.54	378.859875	388.966875		[silence]	[silence]
sw2445B-ms98-a-0057	B.54	388.966875	389.377375		[silence]	[silence]
sw2445B-ms98-a-0057	B.54	389.377375	389.635500		Yeah	yeah
sw2445B-ms98-a-0057	B.54	389.635500	390.012875		[silence]	[silence]
sw2445B-ms98-a-0057	B.54	390.012875	390.292125		I'd	i'd
sw2445B-ms98-a-0057	B.54	390.292125	390.404375		[silence]	[silence]
sw2445B-ms98-a-0057	B.54	390.404375	390.577625		I'd	i'd
sw2445B-ms98-a-0057	B.54	390.577625	390.816875		like	like
sw2445B-ms98-a-0057	B.54	390.816875	390.906875		to	to
sw2445B-ms98-a-0057	B.54	390.906875	391.056875		go	go
sw2445B-ms98-a-0057	B.54	391.056875	391.486875		camping	camping
sw2445B-ms98-a-0057	B.54	391.486875	391.856875	<CONT>	cross-country	cross
sw2445B-ms98-a-0057	B.54	391.856875	392.437000	<CONT>	+++	country
sw2445B-ms98-a-0057	B.54	392.437000	392.852625		[silence]	[silence]
sw2445B-ms98-a-0058	B.54	392.852625	393.252625		[silence]	[silence]
sw2445B-ms98-a-0058	B.54	393.252625	393.752625		um	um
sw2445B-ms98-a-0058	B.54	393.752625	394.140500		[silence]	[silence]
sw2445B-ms98-a-0059	B.54	394.140500	394.600500		[silence]	[silence]
sw2445B-ms98-a-0059	B.54	394.600500	394.740500		I	i
sw2445B-ms98-a-0059	B.54	394.740500	394.910500		just	just
sw2445B-ms98-a-0059	B.54	394.910500	395.090500		got	got
sw2445B-ms98-a-0059	B.54	395.090500	395.520500		married	married
sw2445B-ms98-a-0059	B.54	395.520500	395.660500		[silence]	[silence]
sw2445B-ms98-a-0059	B.54	395.660500	395.900500		less	less
sw2445B-ms98-a-0059	B.54	395.900500	396.020500		than	than
sw2445B-ms98-a-0059	B.54	396.020500	396.210500		two	two
sw2445B-ms98-a-0059	B.54	396.210500	396.460500		years	years
sw2445B-ms98-a-0059	B.54	396.460500	396.800500		ago	ago
sw2445B-ms98-a-0059	B.54	396.800500	397.010500		so	so
sw2445B-ms98-a-0059	B.54	397.010500	397.110500		we	we
sw2445B-ms98-a-0059	B.54	397.110500	397.260500		don't	don't
sw2445B-ms98-a-0059	B.54	397.260500	397.420500		have	have
sw2445B-ms98-a-0059	B.54	397.420500	397.623250		any	any
sw2445B-ms98-a-0059	B.54	397.623250	397.837875		[silence]	[silence]
sw2445B-ms98-a-0059	B.54	397.837875	398.000500		any	any
sw2445B-ms98-a-0059	B.54	398.000500	398.460500		children	children
sw2445B-ms98-a-0059	B.54	398.460500	398.770500		yet	yet
sw2445B-ms98-a-0059	B.54	398.770500	399.350500		[silence]	[silence]
sw2445B-ms98-a-0059	B.54	399.350500	399.890500		um	um
sw2445B-ms98-a-0059	B.56	399.890500	400.326125		[silence]	[silence]
sw2445B-ms98-a-0060	B.56	400.326125	400.876125		[silence]	[silence]
sw2445B-ms98-a-0060	B.56	400.876125	401.158000	<DEL>	---	and
sw2445B-ms98-a-0060	B.56	401.158000	401.749375		[silence]	[silence]
sw2445B-ms98-a-0060	B.56	401.749375	402.311875		Yeah	yeah
sw2445B-ms98-a-0060	B.56	402.311875	402.447500		[silence]	[silence]
sw2445B-ms98-a-0060	B.56	402.447500	402.576125		so	so
sw2445B-ms98-a-0060	B.56	402.576125	402.686125	<DEL>	---	it's
sw2445B-ms98-a-0060	B.56	402.686125	402.946125		easy	easy
sw2445B-ms98-a-0060	B.56	402.946125	403.046125		to	to
sw2445B-ms98-a-0060	B.56	403.046125	403.306125		pick	pick
sw2445B-ms98-a-0060	B.56	403.306125	403.486125		up	up
sw2445B-ms98-a-0060	B.56	403.486125	403.656125		and	and
sw2445B-ms98-a-0060	B.56	403.656125	404.173500		go	go
sw2445B-ms98-a-0060	B.56	404.173500	404.594875		[silence]	[silence]
sw2445B-ms98-a-0060	B.56	404.594875	405.118500		and	and
sw2445B-ms98-a-0060	B.56	405.118500	405.276125		s-	s[o]-
sw2445B-ms98-a-0060	B.56	405.276125	405.366125		we	we
sw2445B-ms98-a-0060	B.56	405.366125	405.506125		have	have
sw2445B-ms98-a-0060	B.56	405.506125	405.606125		a	a
sw2445B-ms98-a-0060	B.56	405.606125	406.166750		van	van
sw2445B-ms98-a-0060	B.56	406.166750	406.792000		[silence]	[silence]
sw2445B-ms98-a-0060	B.56	406.792000	407.313875		and	and
sw2445B-ms98-a-0060	B.56	407.313875	407.426875		[silence]	[silence]
sw2445B-ms98-a-0060	B.56	407.426875	407.596125		we	we
sw2445B-ms98-a-0060	B.56	407.596125	407.716125		can	can
sw2445B-ms98-a-0060	B.56	407.716125	407.956125		just	just
sw2445B-ms98-a-0060	B.56	407.956125	408.480375		throw	throw
sw2445B-ms98-a-0060	B.56	408.480375	408.642250		[silence]	[silence]
sw2445B-ms98-a-0060	B.56	408.642250	408.716125		a	a
sw2445B-ms98-a-0060	B.56	408.716125	408.956125		couple	couple
sw2445B-ms98-a-0060	B.56	408.956125	409.016125		of	of
sw2445B-ms98-a-0060	B.56	409.016125	409.386125		sleeping	sleeping
sw2445B-ms98-a-0060	B.56	409.386125	409.716125		bags	bags
sw2445B-ms98-a-0060	B.56	409.716125	409.806125		in	in
sw2445B-ms98-a-0060	B.56	409.806125	409.876125		the	the
sw2445B-ms98-a-0060	B.56	409.876125	410.206125		back	back
sw2445B-ms98-a-0060	B.56	410.206125	410.316125		of	of
sw2445B-ms98-a-0060	B.56	410.316125	410.629500		it	it
sw2445B-ms98-a-0060	B.58	410.629500	410.969500		[silence]	[silence]
sw2445B-ms98-a-0061	B.58	410.969500	413.977125		[silence]	[silence]
sw2445B-ms98-a-0062	B.58	413.977125	414.267125		[silence]	[silence]
sw2445B-ms98-a-0062	B.58	414.267125	414.367125		So	so
sw2445B-ms98-a-0062	B.58	414.367125	414.477125		it's	it's
sw2445B-ms98-a-0062	B.58	414.477125	414.677125	<DEL>	---	it's
sw2445B-ms98-a-0062	B.58	414.677125	414.887125		not	not
sw2445B-ms98-a-0062	B.58	414.887125	415.192125		really	really
sw2445B-ms98-a-0062	B.58	415.192125	415.501000		[silence]	[silence]
sw2445B-ms98-a-0062	B.58	415.501000	415.607125		I	i
sw2445B-ms98-a-0062	B.58	415.607125	415.797125		guess	guess
sw2445B-ms98-a-0062	B.58	415.797125	416.452250		camping	camping
sw2445B-ms98-a-0062	B.58	416.452250	416.738500		[silence]	[silence]
sw2445B-ms98-a-0062	B.58	416.738500	416.817125		the	the
sw2445B-ms98-a-0062	B.58	416.817125	416.927125		way	way
sw2445B-ms98-a-0062	B.58	416.927125	417.177125		peop-	peop[le]-
sw2445B-ms98-a-0062	B.58	417.177125	417.417125		most	most
sw2445B-ms98-a-0062	B.58	417.417125	417.627125		people	people
sw2445B-ms98-a-0062	B.58	417.627125	417.977125		picture	picture
sw2445B-ms98-a-0062	B.58	417.977125	418.417125		camping	camping
sw2445B-ms98-a-0062	B.58	418.417125	418.517125		in	in
sw2445B-ms98-a-0062	B.58	418.517125	418.577125		the	the
sw2445B-ms98-a-0062	B.58	418.577125	419.087125		tent	tent
sw2445B-ms98-a-0062	B.58	419.087125	419.437125		but	but
sw2445B-ms98-a-0062	B.60	419.437125	419.667500		[silence]	[silence]
sw2445B-ms98-a-0063	B.60	419.667500	435.506625		[silence]	[silence]
sw2445B-ms98-a-0064	B.60	435.506625	435.986625		[silence]	[silence]
sw2445B-ms98-a-0064	B.60	435.986625	436.277750		Yeah	yeah
sw2445B-ms98-a-0064	B.60	436.277750	436.678125		[silence]	[silence]
sw2445B-ms98-a-0064	B.60	436.678125	437.072000		or	or
sw2445B-ms98-a-0064	B.60	437.072000	437.192500		[silence]	[silence]
sw2445B-ms98-a-0064	B.60	437.192500	437.316625		or	or
sw2445B-ms98-a-0064	B.60	437.316625	437.662000		get	get
sw2445B-ms98-a-0064	B.60	437.662000	437.816375		my	my
sw2445B-ms98-a-0064	B.60	437.816375	438.101875		brother	brother
sw2445B-ms98-a-0064	B.60	438.101875	438.218625		has	has
sw2445B-ms98-a-0064	B.60	438.218625	438.306625		a	a
sw2445B-ms98-a-0064	B.60	438.306625	438.446625		real	real
sw2445B-ms98-a-0064	B.60	438.446625	438.676625		nice	nice
sw2445B-ms98-a-0064	B.60	438.676625	439.216625		pop-up	pop-up
sw2445B-ms98-a-0064	B.62	439.216625	439.515375		[silence]	[silence]
sw2445B-ms98-a-0065	B.62	439.515375	440.538875		[silence]	[silence]
sw2445B-ms98-a-0066	B.62	440.538875	440.878875		[silence]	[silence]
sw2445B-ms98-a-0066	B.62	440.878875	441.068875		And	and
sw2445B-ms98-a-0066	B.62	441.068875	441.208500		he	he
sw2445B-ms98-a-0066	B.62	441.208500	441.446500		just	just
sw2445B-ms98-a-0066	B.62	441.446500	441.608875		he	he
sw2445B-ms98-a-0066	B.62	441.608875	441.808875		just	just
sw2445B-ms98-a-0066	B.62	441.808875	442.048875		tows	tows
sw2445B-ms98-a-0066	B.62	442.048875	442.168875		it	it
sw2445B-ms98-a-0066	B.62	442.168875	442.498875		behind	behind
sw2445B-ms98-a-0066	B.62	442.498875	442.658875		his	his
sw2445B-ms98-a-0066	B.62	442.658875	443.128875		truck	truck
sw2445B-ms98-a-0066	B.64	443.128875	443.765125		[silence]	[silence]
sw2445B-ms98-a-0067	B.64	443.765125	444.475125		[silence]	[silence]
sw2445B-ms98-a-0067	B.64	444.475125	444.785125		And	and
sw2445B-ms98-a-0067	B.64	444.785125	444.985125		he	he
sw2445B-ms98-a-0067	B.64	444.985125	445.214250		he's	he's
sw2445B-ms98-a-0067	B.64	445.214250	445.375125		got	got
sw2445B-ms98-a-0067	B.64	445.375125	445.615125		three	three
sw2445B-ms98-a-0067	B.64	445.615125	446.015125		kids	kids
sw2445B-ms98-a-0067	B.64	446.015125	446.387875		so	so
sw2445B-ms98-a-0067	B.64	446.387875	446.625125		[silence]	[silence]
sw2445B-ms98-a-0067	B.64	446.625125	446.807375		his	his
sw2445B-ms98-a-0067	B.64	446.807375	447.245125	<CONT>	kids	kids'll
sw2445B-ms98-a-0067	B.64	447.245125	447.245125	<CONT>	will	+++
sw2445B-ms98-a-0067	B.64	447.245125	447.495125		sleep	sleep
sw2445B-ms98-a-0067	B.64	447.495125	447.585125		in	in
sw2445B-ms98-a-0067	B.64	447.585125	447.665125		the	the
sw2445B-ms98-a-0067	B.64	447.665125	448.144125		truck	truck
sw2445B-ms98-a-0067	B.64	448.144125	448.335125		[silence]	[silence]
sw2445B-ms98-a-0067	B.64	448.335125	448.425125		in	in
sw2445B-ms98-a-0067	B.64	448.425125	448.485125		the	the
sw2445B-ms98-a-0067	B.64	448.485125	448.585125		[silence]	[silence]
sw2445B-ms98-a-0067	B.64	448.585125	448.685125		in	in
sw2445B-ms98-a-0067	B.64	448.685125	448.745125		the	the
sw2445B-ms98-a-0067	B.64	448.745125	449.005125		back	back
sw2445B-ms98-a-0067	B.64	449.005125	449.075125		of	of
sw2445B-ms98-a-0067	B.64	449.075125	449.135125		the	the
sw2445B-ms98-a-0067	B.64	449.135125	449.695125		bed	bed
sw2445B-ms98-a-0067	B.64	449.695125	450.052250		[silence]	[silence]
sw2445B-ms98-a-0068	B.64	450.052250	450.522250		[silence]	[silence]
sw2445B-ms98-a-0068	B.64	450.522250	450.966250		Um	um
sw2445B-ms98-a-0068	B.64	450.966250	451.066250		[silence]	[silence]
sw2445B-ms98-a-0068	B.64	451.066250	451.242250		and	and
sw2445B-ms98-a-0068	B.64	451.242250	451.442250		they	they
sw2445B-ms98-a-0068	B.64	451.442250	451.672250		sleep	sleep
sw2445B-ms98-a-0068	B.64	451.672250	451.732250		in	in
sw2445B-ms98-a-0068	B.64	451.732250	451.839250		the	the
sw2445B-ms98-a-0068	B.64	451.839250	452.462250		pop-up	[laughter-pop-up]
sw2445B-ms98-a-0068	B.66	452.462250	452.621625		[laughter]	[laughter]
sw2445B-ms98-a-0068	B.66	452.621625	453.221500		[silence]	[silence]
sw2445B-ms98-a-0069	B.66	453.221500	459.974875		[silence]	[silence]
sw2445B-ms98-a-0070	B.66	459.974875	460.454875		[silence]	[silence]
sw2445B-ms98-a-0070	B.66	460.454875	460.874875		Yeah	yeah
sw2445B-ms98-a-0070	B.68	460.874875	461.051500		[silence]	[silence]
sw2445B-ms98-a-0071	B.68	461.051500	471.823125		[silence]	[silence]
sw2445B-ms98-a-0072	B.68	471.823125	472.273125		[silence]	[silence]
sw2445B-ms98-a-0072	B.68	472.273125	472.605625		Yeah	yeah
sw2445B-ms98-a-0072	B.68	472.605625	472.787250		[silence]	[silence]
sw2445B-ms98-a-0072	B.68	472.787250	472.953125		he	he
sw2445B-ms98-a-0072	B.68	472.953125	473.293125		did	did
sw2445B-ms98-a-0072	B.68	473.293125	473.413125		have	have
sw2445B-ms98-a-0072	B.68	473.413125	473.443125		a	a
sw2445B-ms98-a-0072	B.68	473.443125	474.100125		problem	problem
sw2445B-ms98-a-0072	B.68	474.100125	474.299750		[silence]	[silence]
sw2445B-ms98-a-0072	B.68	474.299750	474.881625		uh	uh
sw2445B-ms98-a-0072	B.68	474.881625	475.323875		[silence]	[silence]
sw2445B-ms98-a-0073	B.68	475.323875	475.673875		[silence]	[silence]
sw2445B-ms98-a-0073	B.68	475.673875	475.783875		when	when
sw2445B-ms98-a-0073	B.68	475.783875	475.903875		he	he
sw2445B-ms98-a-0073	B.68	475.903875	476.103875		went	went
sw2445B-ms98-a-0073	B.68	476.103875	476.513875		camping	camping
sw2445B-ms98-a-0073	B.68	476.513875	476.973875		last	last
sw2445B-ms98-a-0073	B.68	476.973875	477.425250		year	year
sw2445B-ms98-a-0073	B.68	477.425250	477.636250		[silence]	[silence]
sw2445B-ms98-a-0073	B.68	477.636250	477.913875		in	in
sw2445B-ms98-a-0073	B.68	477.913875	478.063875	<DEL>	---	uh
sw2445B-ms98-a-0073	B.68	478.063875	478.459625		Beavers	Beavers
sw2445B-ms98-a-0073	B.68	478.459625	478.660625		Bend	Bend
sw2445B-ms98-a-0073	B.68	478.660625	478.810125	<DEL>	---	O[klahoma]-
sw2445B-ms98-a-0073	B.68	478.810125	479.006000	<DEL>	---	O[klahoma]-
sw2445B-ms98-a-0073	B.68	479.006000	479.253875		Ok-	Ok[lahoma]-
sw2445B-ms98-a-0073	B.68	479.253875	479.913875		Oklahoma	Oklahoma
sw2445B-ms98-a-0073	B.68	479.913875	480.307000		[silence]	[silence]
sw2445B-ms98-a-0074	B.68	480.307000	480.617000		[silence]	[silence]
sw2445B-ms98-a-0074	B.68	480.617000	481.137000		um	um
sw2445B-ms98-a-0074	B.68	481.137000	481.662875		[silence]	[silence]
sw2445B-ms98-a-0074	B.68	481.662875	481.783875		a	a
sw2445B-ms98-a-0074	B.68	481.783875	481.964625	<DEL>	---	s[torm]-
sw2445B-ms98-a-0074	B.68	481.964625	482.127000		a	a
sw2445B-ms98-a-0074	B.68	482.127000	482.457000		storm	storm
sw2445B-ms98-a-0074	B.68	482.457000	482.777000		came	came
sw2445B-ms98-a-0074	B.68	482.777000	483.136250		in	in
sw2445B-ms98-a-0074	B.68	483.136250	483.757750		[silence]	[silence]
sw2445B-ms98-a-0074	B.68	483.757750	484.367000		and	and
sw2445B-ms98-a-0074	B.68	484.367000	484.557000		it	it
sw2445B-ms98-a-0074	B.68	484.557000	484.857000		started	started
sw2445B-ms98-a-0074	B.68	484.857000	485.257000		raining	raining
sw2445B-ms98-a-0074	B.68	485.257000	485.517000		really	really
sw2445B-ms98-a-0074	B.68	485.517000	486.058625		heavy	heavy
sw2445B-ms98-a-0074	B.68	486.058625	486.186750		[silence]	[silence]
sw2445B-ms98-a-0074	B.68	486.186750	486.637000		and	and
sw2445B-ms98-a-0074	B.68	486.637000	487.337000		[silence]	[silence]
sw2445B-ms98-a-0074	B.68	487.337000	487.437000		they	they
sw2445B-ms98-a-0074	B.68	487.437000	487.624500		were	were
sw2445B-ms98-a-0074	B.68	487.624500	487.873000		all	all
sw2445B-ms98-a-0074	B.68	487.873000	488.307000		everybody	everybody
sw2445B-ms98-a-0074	B.68	488.307000	488.517000		was	was
sw2445B-ms98-a-0074	B.68	488.517000	488.837000		trying	trying
sw2445B-ms98-a-0074	B.68	488.837000	488.919250		to	to
sw2445B-ms98-a-0074	B.68	488.919250	489.241625		flee	flee
sw2445B-ms98-a-0074	B.68	489.241625	489.358375		the	the
sw2445B-ms98-a-0074	B.68	489.358375	490.177000		campsite	campsite
sw2445B-ms98-a-0074	B.68	490.177000	490.627000	<DEL>	---	[laughter-and]
sw2445B-ms98-a-0074	B.68	490.627000	491.047000		everybody	everybody
sw2445B-ms98-a-0074	B.68	491.047000	491.210750		was	was
sw2445B-ms98-a-0074	B.68	491.210750	491.481875		getting	getting
sw2445B-ms98-a-0074	B.68	491.481875	491.827000		stuck	stuck
sw2445B-ms98-a-0074	B.68	491.827000	491.947000		in	in
sw2445B-ms98-a-0074	B.68	491.947000	492.007000		the	the
sw2445B-ms98-a-0074	B.68	492.007000	492.564125		mud	mud
sw2445B-ms98-a-0074	B.70	492.564125	493.031250		[silence]	[silence]
sw2445B-ms98-a-0075	B.70	493.031250	494.399500		[silence]	[silence]
sw2445B-ms98-a-0076	B.70	494.399500	494.879500		[silence]	[silence]
sw2445B-ms98-a-0076	B.70	494.879500	495.029500		And	and
sw2445B-ms98-a-0076	B.70	495.029500	495.298000	<SUB>	uh	the
sw2445B-ms98-a-0076	B.72	495.298000	495.501375		[silence]	[silence]
sw2445B-ms98-a-0077	B.72	495.501375	502.011625		[silence]	[silence]
sw2445B-ms98-a-0078	B.72	502.011625	502.481625		[silence]	[silence]
sw2445B-ms98-a-0078	B.72	502.481625	502.890500		Well	well
sw2445B-ms98-a-0078	B.72	502.890500	503.188000		[silence]	[silence]
sw2445B-ms98-a-0078	B.72	503.188000	503.481625		theirs	theirs
sw2445B-ms98-a-0078	B.72	503.481625	503.651625		was	was
sw2445B-ms98-a-0078	B.72	503.651625	503.881625		so	so
sw2445B-ms98-a-0078	B.72	503.881625	504.131625		bad	bad
sw2445B-ms98-a-0078	B.72	504.131625	504.241625		and	and
sw2445B-ms98-a-0078	B.72	504.241625	504.311625		they	they
sw2445B-ms98-a-0078	B.72	504.311625	504.441625		were	were
sw2445B-ms98-a-0078	B.72	504.441625	504.641625		so	so
sw2445B-ms98-a-0078	B.72	504.641625	504.991625		close	close
sw2445B-ms98-a-0078	B.72	504.991625	505.121625		to	to
sw2445B-ms98-a-0078	B.72	505.121625	505.201625		the	the
sw2445B-ms98-a-0078	B.72	505.201625	505.571625		water	water
sw2445B-ms98-a-0078	B.72	505.571625	505.721625		that	that
sw2445B-ms98-a-0078	B.72	505.721625	505.791625		the	the
sw2445B-ms98-a-0078	B.72	505.791625	506.121625		water	water
sw2445B-ms98-a-0078	B.72	506.121625	506.281625		was	was
sw2445B-ms98-a-0078	B.72	506.281625	506.651625		coming	coming
sw2445B-ms98-a-0078	B.72	506.651625	506.871625		up	up
sw2445B-ms98-a-0078	B.74	506.871625	507.311625		[silence]	[silence]
sw2445B-ms98-a-0078	B.74	507.311625	507.401625		and	and
sw2445B-ms98-a-0078	B.74	507.401625	507.511625		they	they
sw2445B-ms98-a-0078	B.74	507.511625	507.721625		had	had
sw2445B-ms98-a-0078	B.74	507.721625	507.811625		to	to
sw2445B-ms98-a-0078	B.74	507.811625	507.971625		get	get
sw2445B-ms98-a-0078	B.74	507.971625	508.161625		out	out
sw2445B-ms98-a-0078	B.74	508.161625	508.241625		of	of
sw2445B-ms98-a-0078	B.74	508.241625	508.491625		there	there
sw2445B-ms98-a-0078	B.76	508.491625	508.912000		[silence]	[silence]
sw2445B-ms98-a-0079	B.76	508.912000	510.081000		[silence]	[silence]
sw2445B-ms98-a-0080	B.76	510.081000	510.401000		[silence]	[silence]
sw2445B-ms98-a-0080	B.76	510.401000	510.661000		Yeah	yeah
sw2445B-ms98-a-0080	B.76	510.661000	510.884250		they	they
sw2445B-ms98-a-0080	B.76	510.884250	510.949250		[silence]	[silence]
sw2445B-ms98-a-0080	B.76	510.949250	511.131000		yeah	yeah
sw2445B-ms98-a-0080	B.76	511.131000	511.261000		they	they
sw2445B-ms98-a-0080	B.76	511.261000	511.721000		were	were
sw2445B-ms98-a-0080	B.78	511.721000	512.044500		[silence]	[silence]
sw2445B-ms98-a-0081	B.78	512.044500	513.106250		[silence]	[silence]
sw2445B-ms98-a-0082	B.78	513.106250	513.226250		[silence]	[silence]
sw2445B-ms98-a-0082	B.78	513.226250	513.386250		But	but
sw2445B-ms98-a-0082	B.78	513.386250	513.689500		yeah	yeah
sw2445B-ms98-a-0082	B.78	513.689500	513.800625		[silence]	[silence]
sw2445B-ms98-a-0082	B.78	513.800625	514.219625		they	they
sw2445B-ms98-a-0082	B.78	514.219625	515.166250		[laughter]	[laughter]
sw2445B-ms98-a-0082	B.78	515.166250	515.416250		they	they
sw2445B-ms98-a-0082	B.78	515.416250	515.976250		decided	decided
sw2445B-ms98-a-0082	B.78	515.976250	516.236250		that	that
sw2445B-ms98-a-0082	B.78	516.236250	516.396250		that	that
sw2445B-ms98-a-0082	B.78	516.396250	516.556250		was	was
sw2445B-ms98-a-0082	B.78	516.556250	516.886250		enough	enough
sw2445B-ms98-a-0082	B.78	516.886250	517.316250		camping	camping
sw2445B-ms98-a-0082	B.78	517.316250	517.446250		for	for
sw2445B-ms98-a-0082	B.78	517.446250	517.541875		the	the
sw2445B-ms98-a-0082	B.78	517.541875	517.985500		weekend	weekend
sw2445B-ms98-a-0082	B.80	517.985500	518.175000		[laughter]	[laughter]
sw2445B-ms98-a-0082	B.80	518.175000	518.432000		[silence]	[silence]
sw2445B-ms98-a-0083	B.80	518.432000	519.953625		[silence]	[silence]
sw2445B-ms98-a-0084	B.80	519.953625	520.453625		[silence]	[silence]
sw2445B-ms98-a-0084	B.80	520.453625	520.753625		No	no
sw2445B-ms98-a-0084	B.80	520.753625	520.893625		they	they
sw2445B-ms98-a-0084	B.80	520.893625	521.123625		ended	ended
sw2445B-ms98-a-0084	B.80	521.123625	521.183625		up	up
sw2445B-ms98-a-0084	B.80	521.183625	521.493625		getting	getting
sw2445B-ms98-a-0084	B.80	521.493625	521.843625		out	out
sw2445B-ms98-a-0084	B.80	521.843625	521.913625		[silence]	[silence]
sw2445B-ms98-a-0084	B.80	521.913625	522.053625		They	they
sw2445B-ms98-a-0084	B.80	522.053625	522.243625		ended	ended
sw2445B-ms98-a-0084	B.80	522.243625	522.343625		up	up
sw2445B-ms98-a-0084	B.80	522.343625	522.713625		helping	helping
sw2445B-ms98-a-0084	B.80	522.713625	522.983625		several	several
sw2445B-ms98-a-0084	B.80	522.983625	523.133625		other	other
sw2445B-ms98-a-0084	B.80	523.133625	523.443625		people	people
sw2445B-ms98-a-0084	B.80	523.443625	523.613625		though	though
sw2445B-ms98-a-0084	B.80	523.613625	523.753625		that	that
sw2445B-ms98-a-0084	B.80	523.753625	523.903625		were	were
sw2445B-ms98-a-0084	B.80	523.903625	524.013625		[silence]	[silence]
sw2445B-ms98-a-0084	B.80	524.013625	524.163625		that	that
sw2445B-ms98-a-0084	B.80	524.163625	524.343625		were	were
sw2445B-ms98-a-0084	B.80	524.343625	524.831250		stuck	stuck
sw2445B-ms98-a-0084	B.82	524.831250	525.005375		[silence]	[silence]
sw2445B-ms98-a-0085	B.82	525.005375	529.640750		[silence]	[silence]
sw2445B-ms98-a-0086	B.82	529.640750	530.080750		[silence]	[silence]
sw2445B-ms98-a-0086	B.82	530.080750	530.370750		Yeah	yeah
sw2445B-ms98-a-0086	B.82	530.370750	530.620750		yeah	yeah
sw2445B-ms98-a-0086	B.82	530.620750	530.970750		they	they
sw2445B-ms98-a-0086	B.82	530.970750	531.210750		the	the
sw2445B-ms98-a-0086	B.82	531.210750	531.520750		whole	whole
sw2445B-ms98-a-0086	B.82	531.520750	531.580750		[silence]	[silence]
sw2445B-ms98-a-0086	B.82	531.580750	531.660750		the	the
sw2445B-ms98-a-0086	B.82	531.660750	531.870750		whole	whole
sw2445B-ms98-a-0086	B.82	531.870750	532.470750		campsite	campsite
sw2445B-ms98-a-0086	B.82	532.470750	532.620750		was	was
sw2445B-ms98-a-0086	B.82	532.620750	533.414000		evacuated	evacuated
sw2445B-ms98-a-0086	B.84	533.414000	534.030750		[silence]	[silence]
sw2445B-ms98-a-0086	B.84	534.030750	534.098750		I	i
sw2445B-ms98-a-0086	B.84	534.098750	534.215500		mean	mean
sw2445B-ms98-a-0086	B.84	534.215500	534.550875		some	some
sw2445B-ms98-a-0086	B.84	534.550875	534.789375		[silence]	[silence]
sw2445B-ms98-a-0086	B.84	534.789375	534.860875		I	i
sw2445B-ms98-a-0086	B.84	534.860875	535.090750		think	think
sw2445B-ms98-a-0086	B.84	535.090750	535.280750		some	some
sw2445B-ms98-a-0086	B.84	535.280750	535.630750		people	people
sw2445B-ms98-a-0086	B.84	535.630750	535.870750		that	that
sw2445B-ms98-a-0086	B.84	535.870750	536.100750		had	had
sw2445B-ms98-a-0086	B.84	536.100750	536.160750		[silence]	[silence]
sw2445B-ms98-a-0086	B.84	536.160750	536.450750		fairly	fairly
sw2445B-ms98-a-0086	B.84	536.450750	537.111625		sturdy	sturdy
sw2445B-ms98-a-0086	B.84	537.111625	537.616250		[silence]	[silence]
sw2445B-ms98-a-0086	B.84	537.616250	538.161375		um	um
sw2445B-ms98-a-0086	B.84	538.161375	538.589750		[silence]	[silence]
sw2445B-ms98-a-0087	B.84	538.589750	538.929750		[silence]	[silence]
sw2445B-ms98-a-0087	B.84	538.929750	539.459750		vehicles	vehicles
sw2445B-ms98-a-0087	B.84	539.459750	539.549750		or	or
sw2445B-ms98-a-0087	B.84	539.549750	540.029750		whatever	whatever
sw2445B-ms98-a-0087	B.84	540.029750	540.169750		if	if
sw2445B-ms98-a-0087	B.84	540.169750	540.279750		they	they
sw2445B-ms98-a-0087	B.84	540.279750	540.559750		had	had
sw2445B-ms98-a-0087	B.84	540.559750	540.849750		like	like
sw2445B-ms98-a-0087	B.84	540.849750	540.954250		a	a
sw2445B-ms98-a-0087	B.84	540.954250	541.529750		Winnebago	Winnebago
sw2445B-ms98-a-0087	B.84	541.529750	541.679750		or	or
sw2445B-ms98-a-0087	B.84	541.679750	542.129750		something	something
sw2445B-ms98-a-0087	B.84	542.129750	542.229750		and	and
sw2445B-ms98-a-0087	B.84	542.229750	542.309750		they	they
sw2445B-ms98-a-0087	B.84	542.309750	542.429750		were	were
sw2445B-ms98-a-0087	B.84	542.429750	542.880500		farther	farther
sw2445B-ms98-a-0087	B.84	542.880500	543.228750		in	in
sw2445B-ms98-a-0087	B.84	543.228750	543.375625		[silence]	[silence]
sw2445B-ms98-a-0087	B.84	543.375625	543.659750		away	away
sw2445B-ms98-a-0087	B.84	543.659750	543.849750		from	from
sw2445B-ms98-a-0087	B.84	543.849750	543.929750		the	the
sw2445B-ms98-a-0087	B.84	543.929750	544.329750		water	water
sw2445B-ms98-a-0087	B.84	544.329750	544.369750		I	i
sw2445B-ms98-a-0087	B.84	544.369750	544.589750		think	think
sw2445B-ms98-a-0087	B.84	544.589750	544.679750		they	they
sw2445B-ms98-a-0087	B.84	544.679750	545.261750		stayed	stayed
sw2445B-ms98-a-0087	B.86	545.261750	545.631000		[silence]	[silence]
sw2445B-ms98-a-0088	B.86	545.631000	546.001000		[silence]	[silence]
sw2445B-ms98-a-0088	B.86	546.001000	546.191000		But	but
sw2445B-ms98-a-0088	B.86	546.191000	546.671000		everybody	everybody
sw2445B-ms98-a-0088	B.86	546.671000	546.791000		that	that
sw2445B-ms98-a-0088	B.86	546.791000	546.931000		was	was
sw2445B-ms98-a-0088	B.86	546.931000	547.051000		real	real
sw2445B-ms98-a-0088	B.86	547.051000	547.301000		close	close
sw2445B-ms98-a-0088	B.86	547.301000	547.431000		to	to
sw2445B-ms98-a-0088	B.86	547.431000	547.551000		the	the
sw2445B-ms98-a-0088	B.86	547.551000	547.991000		water	water
sw2445B-ms98-a-0088	B.86	547.991000	548.271000		ended	ended
sw2445B-ms98-a-0088	B.86	548.271000	548.571375		up	up
sw2445B-ms98-a-0088	B.86	548.571375	549.170250		[silence]	[silence]
sw2445B-ms98-a-0088	B.86	549.170250	549.301000		it	it
sw2445B-ms98-a-0088	B.86	549.301000	549.461000		was	was
sw2445B-ms98-a-0088	B.86	549.461000	549.561000		either	either
sw2445B-ms98-a-0088	B.86	549.561000	549.851000		that	that
sw2445B-ms98-a-0088	B.86	549.851000	550.121375		or	or
sw2445B-ms98-a-0088	B.86	550.121375	550.253125		[silence]	[silence]
sw2445B-ms98-a-0088	B.86	550.253125	550.571000		their	their
sw2445B-ms98-a-0088	B.86	550.571000	550.701000		[silence]	[silence]
sw2445B-ms98-a-0088	B.86	550.701000	551.011000		truck	truck
sw2445B-ms98-a-0088	B.86	551.011000	551.161000		was	was
sw2445B-ms98-a-0088	B.86	551.161000	551.291000		going	going
sw2445B-ms98-a-0088	B.86	551.291000	551.361000		to	to
sw2445B-ms98-a-0088	B.86	551.361000	551.518000		go	go
sw2445B-ms98-a-0088	B.86	551.518000	551.947375		floating	floating
sw2445B-ms98-a-0088	B.86	551.947375	552.741000		downstream	[laughter-downstream]
sw2445B-ms98-a-0088	B.88	552.741000	553.201250		[silence]	[silence]
sw2445B-ms98-a-0089	B.88	553.201250	558.663000		[silence]	[silence]
sw2445B-ms98-a-0090	B.88	558.663000	558.813000		[silence]	[silence]
sw2445B-ms98-a-0090	B.88	558.813000	559.293000		Yeah	yeah
sw2445B-ms98-a-0090	B.90	559.293000	559.739375		[silence]	[silence]
sw2445B-ms98-a-0091	B.90	559.739375	568.806125		[silence]	[silence]
sw2445B-ms98-a-0092	B.90	568.806125	568.996125		[silence]	[silence]
sw2445B-ms98-a-0092	B.90	568.996125	569.166125		They	they
sw2445B-ms98-a-0092	B.90	569.166125	569.416125		have	have
sw2445B-ms98-a-0092	B.90	569.416125	569.476125		them	them_1
sw2445B-ms98-a-0092	B.90	569.476125	569.656125		right	right
sw2445B-ms98-a-0092	B.90	569.656125	569.756125		at	at
sw2445B-ms98-a-0092	B.90	569.756125	569.816125		the	the
sw2445B-ms98-a-0092	B.90	569.816125	570.388750		campsites	campsites
sw2445B-ms98-a-0092	B.92	570.388750	570.697250		[silence]	[silence]
sw2445B-ms98-a-0093	B.92	570.697250	572.226375		[silence]	[silence]
sw2445B-ms98-a-0094	B.92	572.226375	572.726375		[silence]	[silence]
sw2445B-ms98-a-0094	B.92	572.726375	573.186375		Wow	wow
sw2445B-ms98-a-0094	B.92	573.186375	573.532125		[silence]	[silence]
sw2445B-ms98-a-0095	B.92	573.532125	598.641625		[silence]	[silence]
