sw2478B-ms98-a-0001	B.1	0.000000	0.020000		[silence]	[silence]
sw2478B-ms98-a-0001	B.1	0.020000	0.340000		Colorado	Colorado
sw2478B-ms98-a-0001	B.1	0.340000	0.910000		Springs	Springs
sw2478B-ms98-a-0001	B.3	0.910000	1.248625		[silence]	[silence]
sw2478B-ms98-a-0002	B.3	1.248625	2.271125		[silence]	[silence]
sw2478B-ms98-a-0003	B.3	2.271125	2.631125		[silence]	[silence]
sw2478B-ms98-a-0003	B.3	2.631125	2.916875		Yeah	yeah
sw2478B-ms98-a-0003	B.5	2.916875	3.267875		[silence]	[silence]
sw2478B-ms98-a-0004	B.5	3.267875	3.977000		[silence]	[silence]
sw2478B-ms98-a-0005	B.5	3.977000	4.177000		[silence]	[silence]
sw2478B-ms98-a-0005	B.5	4.177000	4.297000		Did	did
sw2478B-ms98-a-0005	B.5	4.297000	4.377000		you	you
sw2478B-ms98-a-0005	B.5	4.377000	4.587000		hit	hit
sw2478B-ms98-a-0005	B.5	4.587000	4.887000		one	one
sw2478B-ms98-a-0005	B.7	4.887000	5.221625		[silence]	[silence]
sw2478B-ms98-a-0006	B.7	5.221625	6.194250		[silence]	[silence]
sw2478B-ms98-a-0007	B.7	6.194250	6.554250		[silence]	[silence]
sw2478B-ms98-a-0007	B.7	6.554250	6.774125		All	all
sw2478B-ms98-a-0007	B.7	6.774125	7.054250		right	right
sw2478B-ms98-a-0007	B.9	7.054250	7.360625		[silence]	[silence]
sw2478B-ms98-a-0008	B.9	7.360625	7.830625		[silence]	[silence]
sw2478B-ms98-a-0008	B.9	7.830625	7.920625		The	the
sw2478B-ms98-a-0008	B.9	7.920625	8.340625		savings	savings
sw2478B-ms98-a-0008	B.9	8.340625	8.500625		and	and
sw2478B-ms98-a-0008	B.9	8.500625	8.930625		loan	loan
sw2478B-ms98-a-0008	B.9	8.930625	9.020625		[silence]	[silence]
sw2478B-ms98-a-0008	B.9	9.020625	9.700625		scandal	scandal
sw2478B-ms98-a-0008	B.11	9.700625	9.881125		[silence]	[silence]
sw2478B-ms98-a-0009	B.11	9.881125	12.907000		[silence]	[silence]
sw2478B-ms98-a-0010	B.11	12.907000	13.498375		[silence]	[silence]
sw2478B-ms98-a-0010	B.11	13.498375	14.081125		Uh	uh
sw2478B-ms98-a-0010	B.11	14.081125	14.671625		[silence]	[silence]
sw2478B-ms98-a-0011	B.11	14.671625	14.871625		[silence]	[silence]
sw2478B-ms98-a-0011	B.11	14.871625	15.241625		kind	kind
sw2478B-ms98-a-0011	B.11	15.241625	15.321625		of	of
sw2478B-ms98-a-0011	B.11	15.321625	15.927625		neither	neither
sw2478B-ms98-a-0011	B.13	15.927625	16.248500		[silence]	[silence]
sw2478B-ms98-a-0012	B.13	16.248500	20.233500		[silence]	[silence]
sw2478B-ms98-a-0013	B.13	20.233500	20.613500		[silence]	[silence]
sw2478B-ms98-a-0013	B.13	20.613500	20.890250		I	i
sw2478B-ms98-a-0013	B.13	20.890250	21.093500		do	do
sw2478B-ms98-a-0013	B.13	21.093500	21.458000		have	have
sw2478B-ms98-a-0013	B.13	21.458000	21.951500		[silence]	[silence]
sw2478B-ms98-a-0013	B.13	21.951500	22.243500		some	some
sw2478B-ms98-a-0013	B.13	22.243500	22.803500		Republican	Republican
sw2478B-ms98-a-0013	B.13	22.803500	23.163500		leanings	leanings
sw2478B-ms98-a-0013	B.13	23.163500	23.333500		because	because
sw2478B-ms98-a-0013	B.15	23.333500	23.503500		I	i
sw2478B-ms98-a-0013	B.15	23.503500	23.673500		am	am
sw2478B-ms98-a-0013	B.15	23.673500	24.163500		division	division
sw2478B-ms98-a-0013	B.15	24.163500	24.453500		one	one
sw2478B-ms98-a-0013	B.15	24.453500	24.573500		you	you
sw2478B-ms98-a-0013	B.15	24.573500	24.803500		know	know
sw2478B-ms98-a-0013	B.19	24.803500	24.978375		[silence]	[silence]
sw2478B-ms98-a-0014	B.19	24.978375	50.143375		[silence]	[silence]
sw2478B-ms98-a-0015	B.19	50.143375	50.563375		[silence]	[silence]
sw2478B-ms98-a-0015	B.19	50.563375	50.953750		Uh	uh
sw2478B-ms98-a-0015	B.19	50.953750	51.434000		[silence]	[silence]
sw2478B-ms98-a-0015	B.19	51.434000	51.595875		I	i
sw2478B-ms98-a-0015	B.19	51.595875	51.813375		think	think
sw2478B-ms98-a-0015	B.19	51.813375	51.953375		it's	it's
sw2478B-ms98-a-0015	B.19	51.953375	52.023375		a	a
sw2478B-ms98-a-0015	B.19	52.023375	52.483375		stinking	stinking
sw2478B-ms98-a-0015	B.19	52.483375	53.040125		shame	shame
sw2478B-ms98-a-0015	B.19	53.040125	53.529750		[silence]	[silence]
sw2478B-ms98-a-0015	B.19	53.529750	53.943250		that	that
sw2478B-ms98-a-0015	B.19	53.943250	54.823750		[silence]	[silence]
sw2478B-ms98-a-0016	B.19	54.823750	55.283750		[silence]	[silence]
sw2478B-ms98-a-0016	B.19	55.283750	55.373750	<DEL>	---	that
sw2478B-ms98-a-0016	B.19	55.373750	55.523750		there	there
sw2478B-ms98-a-0016	B.19	55.523750	55.763750		isn't	isn't
sw2478B-ms98-a-0016	B.19	55.763750	56.143750		capital	capital
sw2478B-ms98-a-0016	B.19	56.143750	56.733750		punishment	punishment
sw2478B-ms98-a-0016	B.19	56.733750	56.883750		for	for
sw2478B-ms98-a-0016	B.19	56.883750	57.213750		those	those
sw2478B-ms98-a-0016	B.19	57.213750	57.813750		assholes	assholes
sw2478B-ms98-a-0016	B.19	57.813750	57.903750		that	that
sw2478B-ms98-a-0016	B.19	57.903750	58.303750	<SUB>	stold	stole
sw2478B-ms98-a-0016	B.19	58.303750	58.443750		our	our
sw2478B-ms98-a-0016	B.19	58.443750	58.843750		money	money
sw2478B-ms98-a-0016	B.21	58.843750	58.896500		[silence]	[silence]
sw2478B-ms98-a-0017	B.21	58.896500	75.160500		[silence]	[silence]
sw2478B-ms98-a-0018	B.21	75.160500	75.898750		[silence]	[silence]
sw2478B-ms98-a-0018	B.21	75.898750	76.283625		I	i
sw2478B-ms98-a-0018	B.21	76.283625	77.070000		[silence]	[silence]
sw2478B-ms98-a-0018	B.21	77.070000	77.390500		agree	agree
sw2478B-ms98-a-0018	B.21	77.390500	77.620500		with	with
sw2478B-ms98-a-0018	B.21	77.620500	77.740500		you	you
sw2478B-ms98-a-0018	B.21	77.740500	77.800500		I	i
sw2478B-ms98-a-0018	B.21	77.800500	78.129500		think	think
sw2478B-ms98-a-0018	B.21	78.129500	78.360500		[silence]	[silence]
sw2478B-ms98-a-0018	B.21	78.360500	78.470500		it	it
sw2478B-ms98-a-0018	B.21	78.470500	78.647000		had	had
sw2478B-ms98-a-0018	B.21	78.647000	78.760000		[silence]	[silence]
sw2478B-ms98-a-0018	B.21	78.760000	79.520500		something	something
sw2478B-ms98-a-0018	B.21	79.520500	79.630500		to	to
sw2478B-ms98-a-0018	B.21	79.630500	79.810500		do	do
sw2478B-ms98-a-0018	B.21	79.810500	80.000500		with	with
sw2478B-ms98-a-0018	B.21	80.000500	81.080500		deregulation	deregulation
sw2478B-ms98-a-0018	B.21	81.080500	81.280500		but	but
sw2478B-ms98-a-0018	B.21	81.280500	81.430500		I	i
sw2478B-ms98-a-0018	B.21	81.430500	82.110500		believe	believe
sw2478B-ms98-a-0018	B.21	82.110500	82.349125		uh	uh
sw2478B-ms98-a-0018	B.21	82.349125	82.861000		[silence]	[silence]
sw2478B-ms98-a-0019	B.21	82.861000	83.411000		[silence]	[silence]
sw2478B-ms98-a-0019	B.21	83.411000	83.631000		more	more
sw2478B-ms98-a-0019	B.21	83.631000	83.691000		of	of
sw2478B-ms98-a-0019	B.21	83.691000	83.761000		it	it
sw2478B-ms98-a-0019	B.21	83.761000	83.911000		was	was
sw2478B-ms98-a-0019	B.21	83.911000	84.141000		just	just
sw2478B-ms98-a-0019	B.21	84.141000	84.484750		greed	greed
sw2478B-ms98-a-0019	B.23	84.484750	84.805375		[silence]	[silence]
sw2478B-ms98-a-0020	B.23	84.805375	106.492500		[silence]	[silence]
sw2478B-ms98-a-0021	B.23	106.492500	106.552500		[silence]	[silence]
sw2478B-ms98-a-0021	B.23	106.552500	107.022500		Well	well
sw2478B-ms98-a-0021	B.25	107.022500	107.725000		[silence]	[silence]
sw2478B-ms98-a-0022	B.25	107.725000	108.045000		[silence]	[silence]
sw2478B-ms98-a-0022	B.25	108.045000	108.135000		You	you
sw2478B-ms98-a-0022	B.25	108.135000	108.245000		know	know
sw2478B-ms98-a-0022	B.25	108.245000	108.515000		we've	we've
sw2478B-ms98-a-0022	B.25	108.515000	109.027875		watched	watched
sw2478B-ms98-a-0022	B.25	109.027875	109.159750		[silence]	[silence]
sw2478B-ms98-a-0022	B.25	109.159750	109.285000		and	and
sw2478B-ms98-a-0022	B.25	109.285000	109.795000		watched	watched
sw2478B-ms98-a-0022	B.25	109.795000	110.285000	<CONT>	T	TV
sw2478B-ms98-a-0022	B.25	110.285000	110.285000	<CONT>	V	+++
sw2478B-ms98-a-0022	B.25	110.285000	110.405000		and	and
sw2478B-ms98-a-0022	B.25	110.405000	110.915000		seen	seen
sw2478B-ms98-a-0022	B.25	110.915000	111.115000		that	that
sw2478B-ms98-a-0022	B.25	111.115000	111.815000		[silence]	[silence]
sw2478B-ms98-a-0022	B.25	111.815000	111.875000		a	a
sw2478B-ms98-a-0022	B.25	111.875000	112.095000		lot	lot
sw2478B-ms98-a-0022	B.25	112.095000	112.165000		of	of
sw2478B-ms98-a-0022	B.25	112.165000	112.405000		these	these
sw2478B-ms98-a-0022	B.25	112.405000	112.945000		people	people
sw2478B-ms98-a-0022	B.25	112.945000	113.553625		[silence]	[silence]
sw2478B-ms98-a-0023	B.25	113.553625	114.073625		[silence]	[silence]
sw2478B-ms98-a-0023	B.25	114.073625	114.178750		were	were
sw2478B-ms98-a-0023	B.25	114.178750	114.403625		doing	doing
sw2478B-ms98-a-0023	B.25	114.403625	114.836500		things	things
sw2478B-ms98-a-0023	B.25	114.836500	114.975875		[silence]	[silence]
sw2478B-ms98-a-0023	B.25	114.975875	115.223625		not	not
sw2478B-ms98-a-0023	B.25	115.223625	115.363625		just	just
sw2478B-ms98-a-0023	B.25	115.363625	115.643625		playing	playing
sw2478B-ms98-a-0023	B.25	115.643625	115.743625		in	in
sw2478B-ms98-a-0023	B.25	115.743625	115.813625		the	the
sw2478B-ms98-a-0023	B.25	115.813625	116.263625		gray	gray
sw2478B-ms98-a-0023	B.25	116.263625	116.363625		and	and
sw2478B-ms98-a-0023	B.25	116.363625	116.543625		not	not
sw2478B-ms98-a-0023	B.25	116.543625	116.713625		just	just
sw2478B-ms98-a-0023	B.25	116.713625	117.283625		reselling	reselling
sw2478B-ms98-a-0023	B.25	117.283625	117.753625		property	property
sw2478B-ms98-a-0023	B.25	117.753625	117.833625		at	at
sw2478B-ms98-a-0023	B.25	117.833625	117.863625		a	a
sw2478B-ms98-a-0023	B.25	117.863625	118.411250		profit	profit
sw2478B-ms98-a-0023	B.25	118.411250	119.285000		[silence]	[silence]
sw2478B-ms98-a-0023	B.25	119.285000	119.484500		but	but
sw2478B-ms98-a-0023	B.25	119.484500	119.887500		[silence]	[silence]
sw2478B-ms98-a-0023	B.25	119.887500	120.463625		financing	financing
sw2478B-ms98-a-0023	B.25	120.463625	120.543625		the	the
sw2478B-ms98-a-0023	B.25	120.543625	120.803625		same	same
sw2478B-ms98-a-0023	B.25	120.803625	121.173625		property	property
sw2478B-ms98-a-0023	B.25	121.173625	121.463625		three	three
sw2478B-ms98-a-0023	B.25	121.463625	121.563625		and	and
sw2478B-ms98-a-0023	B.25	121.563625	121.843625		four	four
sw2478B-ms98-a-0023	B.25	121.843625	122.755750		times	times
sw2478B-ms98-a-0023	B.27	122.755750	122.996875		[silence]	[silence]
sw2478B-ms98-a-0024	B.27	122.996875	123.776875		[silence]	[silence]
sw2478B-ms98-a-0024	B.27	123.776875	123.846875		you	you
sw2478B-ms98-a-0024	B.27	123.846875	124.122000		know	know
sw2478B-ms98-a-0024	B.27	124.122000	124.389375		[silence]	[silence]
sw2478B-ms98-a-0024	B.27	124.389375	124.556875		and	and
sw2478B-ms98-a-0024	B.27	124.556875	124.636875		the	the
sw2478B-ms98-a-0024	B.27	124.636875	124.926875		list	list
sw2478B-ms98-a-0024	B.27	124.926875	125.156875		goes	goes
sw2478B-ms98-a-0024	B.27	125.156875	125.356875		on	on
sw2478B-ms98-a-0024	B.27	125.356875	125.506875		and	and
sw2478B-ms98-a-0024	B.27	125.506875	125.989000		on	on
sw2478B-ms98-a-0024	B.29	125.989000	126.371000		[silence]	[silence]
sw2478B-ms98-a-0025	B.29	126.371000	127.875500		[silence]	[silence]
sw2478B-ms98-a-0026	B.29	127.875500	128.145500		[silence]	[silence]
sw2478B-ms98-a-0026	B.29	128.145500	128.265500		You	you
sw2478B-ms98-a-0026	B.29	128.265500	128.567250		know	know
sw2478B-ms98-a-0026	B.29	128.567250	128.897875		of	of
sw2478B-ms98-a-0026	B.29	128.897875	129.063375		of	of
sw2478B-ms98-a-0026	B.29	129.063375	129.255500		just	just
sw2478B-ms98-a-0026	B.29	129.255500	129.315500		the	the
sw2478B-ms98-a-0026	B.29	129.315500	129.765500		crimes	crimes
sw2478B-ms98-a-0026	B.29	129.765500	130.302625		committed	committed
sw2478B-ms98-a-0026	B.31	130.302625	130.896875		[silence]	[silence]
sw2478B-ms98-a-0027	B.31	130.896875	131.346875		[silence]	[silence]
sw2478B-ms98-a-0027	B.31	131.346875	131.616875		Much	much
sw2478B-ms98-a-0027	B.31	131.616875	131.846875		less	less
sw2478B-ms98-a-0027	B.31	131.846875	132.076875		for	for
sw2478B-ms98-a-0027	B.31	132.076875	132.863625		criminals	criminals
sw2478B-ms98-a-0027	B.31	132.863625	132.991625		[silence]	[silence]
sw2478B-ms98-a-0027	B.31	132.991625	133.216875		that	that
sw2478B-ms98-a-0027	B.31	133.216875	133.496875		should	should
sw2478B-ms98-a-0027	B.31	133.496875	133.636875		be	be
sw2478B-ms98-a-0027	B.31	133.636875	134.235500		indicted	indicted
sw2478B-ms98-a-0027	B.33	134.235500	134.532750		[silence]	[silence]
sw2478B-ms98-a-0028	B.33	134.532750	154.630750		[silence]	[silence]
sw2478B-ms98-a-0029	B.33	154.630750	155.170750		[silence]	[silence]
sw2478B-ms98-a-0029	B.33	155.170750	155.430750		Yeah	yeah
sw2478B-ms98-a-0029	B.35	155.430750	155.557875		[silence]	[silence]
sw2478B-ms98-a-0030	B.35	155.557875	173.040250		[silence]	[silence]
sw2478B-ms98-a-0031	B.35	173.040250	173.670250		[silence]	[silence]
sw2478B-ms98-a-0031	B.35	173.670250	174.080250		Yeah	yeah
sw2478B-ms98-a-0031	B.35	174.080250	174.400250		It	it
sw2478B-ms98-a-0031	B.35	174.400250	174.952250		[silence]	[silence]
sw2478B-ms98-a-0032	B.35	174.952250	175.502250		[silence]	[silence]
sw2478B-ms98-a-0032	B.35	175.502250	175.842250		everyone	everyone
sw2478B-ms98-a-0032	B.35	175.842250	176.442250		forgets	forgets
sw2478B-ms98-a-0032	B.35	176.442250	176.792250		whose	whose
sw2478B-ms98-a-0032	B.35	176.792250	177.152250		money	money
sw2478B-ms98-a-0032	B.35	177.152250	177.282250		it	it
sw2478B-ms98-a-0032	B.35	177.282250	177.920875		was	was
sw2478B-ms98-a-0032	B.37	177.920875	177.960000		[silence]	[silence]
sw2478B-ms98-a-0033	B.37	177.960000	179.088000		[silence]	[silence]
sw2478B-ms98-a-0034	B.37	179.088000	179.358000		[silence]	[silence]
sw2478B-ms98-a-0034	B.37	179.358000	179.688750		And	and
sw2478B-ms98-a-0034	B.37	179.688750	180.008000		[silence]	[silence]
sw2478B-ms98-a-0034	B.37	180.008000	180.298000		everyone	everyone
sw2478B-ms98-a-0034	B.37	180.298000	180.878000		forgets	forgets
sw2478B-ms98-a-0034	B.37	180.878000	181.078000		that	that
sw2478B-ms98-a-0034	B.37	181.078000	181.208000		there	there
sw2478B-ms98-a-0034	B.37	181.208000	181.278000		are	are
sw2478B-ms98-a-0034	B.37	181.278000	181.688000		several	several
sw2478B-ms98-a-0034	B.37	181.688000	181.798000		of	of
sw2478B-ms98-a-0034	B.37	181.798000	182.008000		these	these
sw2478B-ms98-a-0034	B.37	182.008000	182.533375		people	people
sw2478B-ms98-a-0034	B.37	182.533375	183.094625		[silence]	[silence]
sw2478B-ms98-a-0034	B.37	183.094625	183.458000		that	that
sw2478B-ms98-a-0034	B.37	183.458000	183.916625		are	are
sw2478B-ms98-a-0034	B.37	183.916625	184.429000		[silence]	[silence]
sw2478B-ms98-a-0035	B.37	184.429000	184.799000		[silence]	[silence]
sw2478B-ms98-a-0035	B.37	184.799000	185.411125		wanted	wanted
sw2478B-ms98-a-0035	B.37	185.411125	185.762750		[silence]	[silence]
sw2478B-ms98-a-0036	B.37	185.762750	186.252750		[silence]	[silence]
sw2478B-ms98-a-0036	B.37	186.252750	186.382750		by	by
sw2478B-ms98-a-0036	B.37	186.382750	186.452750		the	the
sw2478B-ms98-a-0036	B.37	186.452750	186.792750		federal	federal
sw2478B-ms98-a-0036	B.37	186.792750	187.172750		government	government
sw2478B-ms98-a-0036	B.37	187.172750	187.746875		currently	currently
sw2478B-ms98-a-0036	B.37	187.746875	188.436125		[silence]	[silence]
sw2478B-ms98-a-0036	B.37	188.436125	188.752750		and	and
sw2478B-ms98-a-0036	B.37	188.752750	189.106000		are	are
sw2478B-ms98-a-0036	B.37	189.106000	189.595625		[silence]	[silence]
sw2478B-ms98-a-0036	B.37	189.595625	190.332750		overseas	overseas
sw2478B-ms98-a-0036	B.37	190.332750	190.572750		where	where
sw2478B-ms98-a-0036	B.37	190.572750	191.172750		extradition	extradition
sw2478B-ms98-a-0036	B.37	191.172750	191.262750		is	is
sw2478B-ms98-a-0036	B.37	191.262750	191.742750		merely	merely
sw2478B-ms98-a-0036	B.37	191.742750	191.802750		a	a
sw2478B-ms98-a-0036	B.37	191.802750	192.232750		funny	funny
sw2478B-ms98-a-0036	B.37	192.232750	192.772750		American	American
sw2478B-ms98-a-0036	B.37	192.772750	193.212750		word	word
sw2478B-ms98-a-0036	B.39	193.212750	193.887125		[silence]	[silence]
sw2478B-ms98-a-0037	B.39	193.887125	194.577125		[silence]	[silence]
sw2478B-ms98-a-0037	B.39	194.577125	194.976500		I	i
sw2478B-ms98-a-0037	B.39	194.976500	195.406000		[silence]	[silence]
sw2478B-ms98-a-0038	B.39	195.406000	196.859000		[silence]	[silence]
sw2478B-ms98-a-0039	B.39	196.859000	197.184500		[silence]	[silence]
sw2478B-ms98-a-0039	B.39	197.184500	197.319000		as	as
sw2478B-ms98-a-0039	B.39	197.319000	197.529000		far	far
sw2478B-ms98-a-0039	B.39	197.529000	197.609000		as	as
sw2478B-ms98-a-0039	B.39	197.609000	197.819000		being	being
sw2478B-ms98-a-0039	B.39	197.819000	197.899000		a	a
sw2478B-ms98-a-0039	B.39	197.899000	198.389000		Republican	Republican
sw2478B-ms98-a-0039	B.39	198.389000	198.509000		or	or
sw2478B-ms98-a-0039	B.39	198.509000	198.569000		a	a
sw2478B-ms98-a-0039	B.39	198.569000	199.229000		Democrat	Democrat
sw2478B-ms98-a-0039	B.39	199.229000	199.329000		I	i
sw2478B-ms98-a-0039	B.39	199.329000	199.589000		think	think
sw2478B-ms98-a-0039	B.39	199.589000	199.779000		no	no
sw2478B-ms98-a-0039	B.39	199.779000	200.409000		American	American
sw2478B-ms98-a-0039	B.39	200.409000	200.868125		[silence]	[silence]
sw2478B-ms98-a-0040	B.39	200.868125	201.498125		[silence]	[silence]
sw2478B-ms98-a-0040	B.39	201.498125	201.648125		could	could
sw2478B-ms98-a-0040	B.39	201.648125	202.273250		stand	stand
sw2478B-ms98-a-0040	B.39	202.273250	202.729000		[silence]	[silence]
sw2478B-ms98-a-0041	B.39	202.729000	203.179000		[silence]	[silence]
sw2478B-ms98-a-0041	B.39	203.179000	203.527625		for	for
sw2478B-ms98-a-0041	B.39	203.527625	203.701750		[silence]	[silence]
sw2478B-ms98-a-0041	B.39	203.701750	204.155125		criminal	criminal
sw2478B-ms98-a-0041	B.39	204.155125	204.639000		action	action
sw2478B-ms98-a-0041	B.41	204.639000	204.858500		[silence]	[silence]
sw2478B-ms98-a-0042	B.41	204.858500	223.731250		[silence]	[silence]
sw2478B-ms98-a-0043	B.41	223.731250	224.206500		[silence]	[silence]
sw2478B-ms98-a-0043	B.41	224.206500	224.591250		Well	well
sw2478B-ms98-a-0043	B.43	224.591250	224.809625		[silence]	[silence]
sw2478B-ms98-a-0044	B.43	224.809625	225.165625		[silence]	[silence]
sw2478B-ms98-a-0044	B.43	225.165625	225.379625		In	in
sw2478B-ms98-a-0044	B.43	225.379625	225.912125		theory	theory
sw2478B-ms98-a-0044	B.43	225.912125	226.217250		[silence]	[silence]
sw2478B-ms98-a-0044	B.43	226.217250	226.419625		in	in
sw2478B-ms98-a-0044	B.43	226.419625	226.836500		theory	theory
sw2478B-ms98-a-0044	B.43	226.836500	227.446625		[silence]	[silence]
sw2478B-ms98-a-0044	B.43	227.446625	227.549625		a	a
sw2478B-ms98-a-0044	B.43	227.549625	227.919625		healthy	healthy
sw2478B-ms98-a-0044	B.43	227.919625	228.579625		economy	economy
sw2478B-ms98-a-0044	B.43	228.579625	228.873250		[silence]	[silence]
sw2478B-ms98-a-0045	B.43	228.873250	230.225875		[silence]	[silence]
sw2478B-ms98-a-0046	B.43	230.225875	230.525875		[silence]	[silence]
sw2478B-ms98-a-0046	B.43	230.525875	230.815875		has	has
sw2478B-ms98-a-0046	B.43	230.815875	230.845875		a	a
sw2478B-ms98-a-0046	B.43	230.845875	231.005875		lot	lot
sw2478B-ms98-a-0046	B.43	231.005875	231.065875		of	of
sw2478B-ms98-a-0046	B.43	231.065875	231.465875		spending	spending
sw2478B-ms98-a-0046	B.43	231.465875	231.765875		going	going
sw2478B-ms98-a-0046	B.43	231.765875	232.015875		on	on
sw2478B-ms98-a-0046	B.45	232.015875	232.269250		[silence]	[silence]
sw2478B-ms98-a-0047	B.45	232.269250	234.551625		[silence]	[silence]
sw2478B-ms98-a-0048	B.45	234.551625	234.871625		[silence]	[silence]
sw2478B-ms98-a-0048	B.45	234.871625	235.421125		And	and
sw2478B-ms98-a-0048	B.45	235.421125	235.653500		[silence]	[silence]
sw2478B-ms98-a-0049	B.45	235.653500	236.969500		[silence]	[silence]
sw2478B-ms98-a-0050	B.45	236.969500	237.287125		[silence]	[silence]
sw2478B-ms98-a-0050	B.45	237.287125	237.489500		if	if
sw2478B-ms98-a-0050	B.45	237.489500	237.899500		people	people
sw2478B-ms98-a-0050	B.45	237.899500	238.039500		are	are
sw2478B-ms98-a-0050	B.45	238.039500	238.509500		making	making
sw2478B-ms98-a-0050	B.45	238.509500	238.860000		money	money
sw2478B-ms98-a-0050	B.45	238.860000	239.241500		[silence]	[silence]
sw2478B-ms98-a-0051	B.45	239.241500	239.681500		[silence]	[silence]
sw2478B-ms98-a-0051	B.45	239.681500	239.971500		people	people
sw2478B-ms98-a-0051	B.45	239.971500	240.141500		can	can
sw2478B-ms98-a-0051	B.45	240.141500	240.581500		spend	spend
sw2478B-ms98-a-0051	B.45	240.581500	240.941500		money	money
sw2478B-ms98-a-0051	B.47	240.941500	241.526125		[silence]	[silence]
sw2478B-ms98-a-0052	B.47	241.526125	242.106125		[silence]	[silence]
sw2478B-ms98-a-0052	B.47	242.106125	242.216125		and	and
sw2478B-ms98-a-0052	B.47	242.216125	242.386125		it'll	it'll
sw2478B-ms98-a-0052	B.47	242.386125	242.816125		generate	generate
sw2478B-ms98-a-0052	B.47	242.816125	243.469625		taxes	taxes
sw2478B-ms98-a-0052	B.49	243.469625	243.810625		[silence]	[silence]
sw2478B-ms98-a-0053	B.49	243.810625	249.432375		[silence]	[silence]
sw2478B-ms98-a-0054	B.49	249.432375	249.732375		[silence]	[silence]
sw2478B-ms98-a-0054	B.49	249.732375	250.112375		Well	well
sw2478B-ms98-a-0054	B.49	250.112375	250.182375		the	the
sw2478B-ms98-a-0054	B.49	250.182375	250.732375		problem	problem
sw2478B-ms98-a-0054	B.49	250.732375	251.192750		is	is
sw2478B-ms98-a-0054	B.49	251.192750	251.972375		[silence]	[silence]
sw2478B-ms98-a-0054	B.49	251.972375	252.062375		and	and
sw2478B-ms98-a-0054	B.49	252.062375	252.122375		the	the
sw2478B-ms98-a-0054	B.49	252.122375	252.392375		problem	problem
sw2478B-ms98-a-0054	B.49	252.392375	252.612375		with	with
sw2478B-ms98-a-0054	B.49	252.612375	253.242375		Reaganomics	{Reaganomics}
sw2478B-ms98-a-0054	B.49	253.242375	253.572500		is	is
sw2478B-ms98-a-0054	B.49	253.572500	253.791125		[silence]	[silence]
sw2478B-ms98-a-0055	B.49	253.791125	255.040375		[silence]	[silence]
sw2478B-ms98-a-0056	B.49	255.040375	255.370375		[silence]	[silence]
sw2478B-ms98-a-0056	B.49	255.370375	255.830375		that	that
sw2478B-ms98-a-0056	B.49	255.830375	256.126375		[silence]	[silence]
sw2478B-ms98-a-0057	B.49	256.126375	257.168875		[silence]	[silence]
sw2478B-ms98-a-0058	B.49	257.168875	257.438875		[silence]	[silence]
sw2478B-ms98-a-0058	B.49	257.438875	257.573375		the	the
sw2478B-ms98-a-0058	B.49	257.573375	258.028875		people	people
sw2478B-ms98-a-0058	B.49	258.028875	258.128875		at	at
sw2478B-ms98-a-0058	B.49	258.128875	258.198875		the	the
sw2478B-ms98-a-0058	B.49	258.198875	258.528875		top	top
sw2478B-ms98-a-0058	B.49	258.528875	258.598875		are	are
sw2478B-ms98-a-0058	B.49	258.598875	258.668875		the	the
sw2478B-ms98-a-0058	B.49	258.668875	258.988875		ones	ones
sw2478B-ms98-a-0058	B.49	258.988875	259.268875		getting	getting
sw2478B-ms98-a-0058	B.49	259.268875	259.836250		rich	rich
sw2478B-ms98-a-0058	B.51	259.836250	260.404375		[silence]	[silence]
sw2478B-ms98-a-0059	B.51	260.404375	260.974375		[silence]	[silence]
sw2478B-ms98-a-0059	B.51	260.974375	261.614375		And	and
sw2478B-ms98-a-0059	B.51	261.614375	261.984500		[silence]	[silence]
sw2478B-ms98-a-0060	B.51	261.984500	262.464500		[silence]	[silence]
sw2478B-ms98-a-0060	B.51	262.464500	262.734500		for	for
sw2478B-ms98-a-0060	B.51	262.734500	262.904500		what	what
sw2478B-ms98-a-0060	B.51	262.904500	263.077375		they	they
sw2478B-ms98-a-0060	B.51	263.077375	263.235500		would	would
sw2478B-ms98-a-0060	B.51	263.235500	263.694500		cost	cost
sw2478B-ms98-a-0060	B.51	263.694500	264.004500		and	and
sw2478B-ms98-a-0060	B.51	264.004500	264.104500		we	we
sw2478B-ms98-a-0060	B.51	264.104500	264.314000		weren't	weren't
sw2478B-ms98-a-0060	B.51	264.314000	264.766000		producing	producing
sw2478B-ms98-a-0060	B.51	264.766000	265.224500		anything	anything
sw2478B-ms98-a-0060	B.53	265.224500	265.884375		[silence]	[silence]
sw2478B-ms98-a-0061	B.53	265.884375	265.964375		[silence]	[silence]
sw2478B-ms98-a-0061	B.53	265.964375	266.184375		We	we
sw2478B-ms98-a-0061	B.53	266.184375	266.334375		as	as
sw2478B-ms98-a-0061	B.53	266.334375	266.951000		Americans	Americans
sw2478B-ms98-a-0061	B.53	266.951000	267.056500		[silence]	[silence]
sw2478B-ms98-a-0061	B.53	267.056500	267.374375		weren't	weren't
sw2478B-ms98-a-0061	B.53	267.374375	267.834375		producing	producing
sw2478B-ms98-a-0061	B.53	267.834375	268.301125		anything	anything
sw2478B-ms98-a-0061	B.53	268.301125	268.525625		[silence]	[silence]
sw2478B-ms98-a-0061	B.53	268.525625	268.649875		It	it
sw2478B-ms98-a-0061	B.53	268.649875	268.744375		was	was
sw2478B-ms98-a-0061	B.53	268.744375	269.004375		all	all
sw2478B-ms98-a-0061	B.53	269.004375	269.627000		inflation	inflation
sw2478B-ms98-a-0061	B.55	269.627000	269.904625		[silence]	[silence]
sw2478B-ms98-a-0062	B.55	269.904625	271.469375		[silence]	[silence]
sw2478B-ms98-a-0063	B.55	271.469375	271.834000		[silence]	[silence]
sw2478B-ms98-a-0063	B.55	271.834000	271.979375		And	and
sw2478B-ms98-a-0063	B.55	271.979375	272.089375		I'm	i'm
sw2478B-ms98-a-0063	B.55	272.089375	272.409375		sorry	sorry
sw2478B-ms98-a-0063	B.55	272.409375	272.519375		we	we
sw2478B-ms98-a-0063	B.55	272.519375	272.689375		don't	don't
sw2478B-ms98-a-0063	B.55	272.689375	272.789375		get	get
sw2478B-ms98-a-0063	B.55	272.789375	272.979375		into	into
sw2478B-ms98-a-0063	B.55	272.979375	273.079375		a	a
sw2478B-ms98-a-0063	B.55	273.079375	273.299375		real	real
sw2478B-ms98-a-0063	B.55	273.299375	273.719375		argument	argument
sw2478B-ms98-a-0063	B.55	273.719375	273.929375		over	over
sw2478B-ms98-a-0063	B.55	273.929375	273.999375		it	it
sw2478B-ms98-a-0063	B.55	273.999375	274.139375		we	we
sw2478B-ms98-a-0063	B.55	274.139375	274.409375		agree	agree
sw2478B-ms98-a-0063	B.55	274.409375	274.579375		too	too
sw2478B-ms98-a-0063	B.55	274.579375	275.059375		closely	closely
sw2478B-ms98-a-0063	B.55	275.059375	275.329375		but	but
sw2478B-ms98-a-0063	B.57	275.329375	275.942250		[silence]	[silence]
sw2478B-ms98-a-0064	B.57	275.942250	276.381250		[silence]	[silence]
sw2478B-ms98-a-0064	B.57	276.381250	277.792250		[laughter]	[laughter]
sw2478B-ms98-a-0064	B.57	277.792250	277.972250		But	but
sw2478B-ms98-a-0064	B.57	277.972250	278.152250		[silence]	[silence]
sw2478B-ms98-a-0064	B.57	278.152250	278.490375		you	you
sw2478B-ms98-a-0064	B.57	278.490375	278.903125		[silence]	[silence]
sw2478B-ms98-a-0065	B.57	278.903125	279.263125		[silence]	[silence]
sw2478B-ms98-a-0065	B.57	279.263125	279.434500		you	you
sw2478B-ms98-a-0065	B.57	279.434500	279.512000		[silence]	[silence]
sw2478B-ms98-a-0065	B.57	279.512000	279.783125		can't	can't
sw2478B-ms98-a-0065	B.57	279.783125	280.163125		say	say
sw2478B-ms98-a-0065	B.57	280.163125	280.343125		that	that
sw2478B-ms98-a-0065	B.57	280.343125	280.523125		that	that
sw2478B-ms98-a-0065	B.57	280.523125	280.653125		was	was
sw2478B-ms98-a-0065	B.57	280.653125	281.084750		right	right
sw2478B-ms98-a-0065	B.59	281.084750	281.243750		[silence]	[silence]
sw2478B-ms98-a-0066	B.59	281.243750	281.753750		[silence]	[silence]
sw2478B-ms98-a-0066	B.59	281.753750	282.043750		No	no
sw2478B-ms98-a-0066	B.59	282.043750	282.553750		intelligent	intelligent
sw2478B-ms98-a-0066	B.59	282.553750	282.993750		person	person
sw2478B-ms98-a-0066	B.59	282.993750	283.163750		can	can
sw2478B-ms98-a-0066	B.59	283.163750	283.668125		say	say
sw2478B-ms98-a-0066	B.59	283.668125	284.369750		[silence]	[silence]
sw2478B-ms98-a-0067	B.59	284.369750	285.004125		[silence]	[silence]
sw2478B-ms98-a-0067	B.59	285.004125	285.419750		that	that
sw2478B-ms98-a-0067	B.59	285.419750	285.944375		[silence]	[silence]
sw2478B-ms98-a-0068	B.59	285.944375	286.474375		[silence]	[silence]
sw2478B-ms98-a-0068	B.59	286.474375	286.574375		we	we
sw2478B-ms98-a-0068	B.59	286.574375	286.724375		could	could
sw2478B-ms98-a-0068	B.59	286.724375	287.104375		spend	spend
sw2478B-ms98-a-0068	B.59	287.104375	287.274375		our	our
sw2478B-ms98-a-0068	B.59	287.274375	287.641625		way	way
sw2478B-ms98-a-0068	B.59	287.641625	288.343625		[silence]	[silence]
sw2478B-ms98-a-0068	B.59	288.343625	288.856250		rich	rich
sw2478B-ms98-a-0068	B.61	288.856250	289.336500		[silence]	[silence]
sw2478B-ms98-a-0069	B.61	289.336500	290.386500		[silence]	[silence]
sw2478B-ms98-a-0069	B.61	290.386500	290.686500		Remember	remember
sw2478B-ms98-a-0069	B.61	290.686500	290.866500		all	all
sw2478B-ms98-a-0069	B.61	290.866500	291.016500		we're	we're
sw2478B-ms98-a-0069	B.61	291.016500	291.376500		doing	doing
sw2478B-ms98-a-0069	B.61	291.376500	292.025125		[silence]	[silence]
sw2478B-ms98-a-0070	B.61	292.025125	292.705125		[silence]	[silence]
sw2478B-ms98-a-0070	B.61	292.705125	292.855125		is	is
sw2478B-ms98-a-0070	B.61	292.855125	293.245125		delivering	delivering
sw2478B-ms98-a-0070	B.61	293.245125	293.669000		pizzas	pizzas
sw2478B-ms98-a-0070	B.61	293.669000	293.792875		to	to
sw2478B-ms98-a-0070	B.61	293.792875	293.957875		each	each
sw2478B-ms98-a-0070	B.61	293.957875	294.325125		other	other
sw2478B-ms98-a-0070	B.63	294.325125	294.523125		[silence]	[silence]
sw2478B-ms98-a-0071	B.63	294.523125	299.309250		[silence]	[silence]
sw2478B-ms98-a-0072	B.63	299.309250	299.479250		[silence]	[silence]
sw2478B-ms98-a-0072	B.63	299.479250	299.782250		Yeah	yeah
sw2478B-ms98-a-0072	B.63	299.782250	299.898625		[silence]	[silence]
sw2478B-ms98-a-0072	B.63	299.898625	300.279250		Well	well
sw2478B-ms98-a-0072	B.65	300.279250	300.681875		[silence]	[silence]
sw2478B-ms98-a-0073	B.65	300.681875	319.629250		[silence]	[silence]
sw2478B-ms98-a-0074	B.65	319.629250	319.949250		[silence]	[silence]
sw2478B-ms98-a-0074	B.65	319.949250	320.129250		It	it
sw2478B-ms98-a-0074	B.65	320.129250	320.249250		is	is
sw2478B-ms98-a-0074	B.65	320.249250	320.299250		a	a
sw2478B-ms98-a-0074	B.65	320.299250	320.689250		life	life
sw2478B-ms98-a-0074	B.65	320.689250	320.829250		and	and
sw2478B-ms98-a-0074	B.65	320.829250	321.049250		death	death
sw2478B-ms98-a-0074	B.65	321.049250	321.649250		struggle	struggle
sw2478B-ms98-a-0074	B.67	321.649250	321.939250		with	with
sw2478B-ms98-a-0074	B.67	321.939250	322.209250		Jap-	Jap[anese]-
sw2478B-ms98-a-0074	B.67	322.209250	322.379250		[silence]	[silence]
sw2478B-ms98-a-0074	B.67	322.379250	322.539250		with	with
sw2478B-ms98-a-0074	B.67	322.539250	322.609250		the	the
sw2478B-ms98-a-0074	B.67	322.609250	323.462625		Japanese	Japanese
sw2478B-ms98-a-0074	B.69	323.462625	323.942000		[silence]	[silence]
sw2478B-ms98-a-0075	B.69	323.942000	335.286625		[silence]	[silence]
sw2478B-ms98-a-0076	B.69	335.286625	335.756625		[silence]	[silence]
sw2478B-ms98-a-0076	B.69	335.756625	336.169375		I	i
sw2478B-ms98-a-0076	B.69	336.169375	336.337875		[silence]	[silence]
sw2478B-ms98-a-0076	B.69	336.337875	336.766625		I'm	i'm
sw2478B-ms98-a-0076	B.69	336.766625	337.106625		very	very
sw2478B-ms98-a-0076	B.69	337.106625	337.648125		tired	tired
sw2478B-ms98-a-0076	B.69	337.648125	337.763625		[silence]	[silence]
sw2478B-ms98-a-0076	B.69	337.763625	338.110125		of	of
sw2478B-ms98-a-0076	B.69	338.110125	338.266625		it	it
sw2478B-ms98-a-0076	B.69	338.266625	338.456625		all	all
sw2478B-ms98-a-0076	B.69	338.456625	338.741625		pays	pays
sw2478B-ms98-a-0076	B.69	338.741625	338.967125		by	by
sw2478B-ms98-a-0076	B.69	338.967125	339.136625		the	the
sw2478B-ms98-a-0076	B.69	339.136625	339.516625		hour	hour
sw2478B-ms98-a-0076	B.71	339.516625	339.592000		[silence]	[silence]
sw2478B-ms98-a-0077	B.71	339.592000	341.008875		[silence]	[silence]
sw2478B-ms98-a-0078	B.71	341.008875	341.248875		[silence]	[silence]
sw2478B-ms98-a-0078	B.71	341.248875	341.554625		Uh	uh
sw2478B-ms98-a-0078	B.71	341.554625	341.863625		[silence]	[silence]
sw2478B-ms98-a-0079	B.71	341.863625	342.273625		[silence]	[silence]
sw2478B-ms98-a-0079	B.71	342.273625	342.372875		and	and
sw2478B-ms98-a-0079	B.71	342.372875	342.563625		I'm	i'm
sw2478B-ms98-a-0079	B.71	342.563625	343.344500		nonexempt	nonexempt
sw2478B-ms98-a-0079	B.73	343.344500	343.532125		[silence]	[silence]
sw2478B-ms98-a-0080	B.73	343.532125	345.466250		[silence]	[silence]
sw2478B-ms98-a-0081	B.73	345.466250	345.736250		[silence]	[silence]
sw2478B-ms98-a-0081	B.73	345.736250	345.876250	<DEL>	---	is
sw2478B-ms98-a-0081	B.73	345.876250	346.304625	<DEL>	---	so
sw2478B-ms98-a-0081	B.73	346.304625	346.709125		[silence]	[silence]
sw2478B-ms98-a-0082	B.73	346.709125	347.109125		[silence]	[silence]
sw2478B-ms98-a-0082	B.73	347.109125	347.395750		What	what
sw2478B-ms98-a-0082	B.75	347.395750	347.797500		[silence]	[silence]
sw2478B-ms98-a-0083	B.75	347.797500	348.925375		[silence]	[silence]
sw2478B-ms98-a-0084	B.75	348.925375	349.205000		[silence]	[silence]
sw2478B-ms98-a-0084	B.75	349.205000	349.438375		What	what
sw2478B-ms98-a-0084	B.75	349.438375	349.595375		what	what
sw2478B-ms98-a-0084	B.75	349.595375	349.655375		[silence]	[silence]
sw2478B-ms98-a-0084	B.75	349.655375	349.845375		does	does
sw2478B-ms98-a-0084	B.75	349.845375	349.885375		a	a
sw2478B-ms98-a-0084	B.75	349.885375	350.355750		nonexempt	nonexempt
sw2478B-ms98-a-0084	B.75	350.355750	350.593000		sound	sound
sw2478B-ms98-a-0084	B.75	350.593000	350.921125		like	like
sw2478B-ms98-a-0084	B.77	350.921125	351.284750		[silence]	[silence]
sw2478B-ms98-a-0085	B.77	351.284750	360.427000		[silence]	[silence]
sw2478B-ms98-a-0086	B.77	360.427000	360.737000		[silence]	[silence]
sw2478B-ms98-a-0086	B.77	360.737000	361.352375		Uh	uh
sw2478B-ms98-a-0086	B.79	361.352375	361.767750		[silence]	[silence]
sw2478B-ms98-a-0087	B.79	361.767750	364.162750		[silence]	[silence]
sw2478B-ms98-a-0088	B.79	364.162750	364.562750		[silence]	[silence]
sw2478B-ms98-a-0088	B.79	364.562750	364.812750		Uh	uh
sw2478B-ms98-a-0088	B.79	364.812750	365.202750		that's	that's
sw2478B-ms98-a-0088	B.81	365.202750	365.401000		[silence]	[silence]
sw2478B-ms98-a-0089	B.81	365.401000	367.809750		[silence]	[silence]
sw2478B-ms98-a-0090	B.81	367.809750	368.299750		[silence]	[silence]
sw2478B-ms98-a-0090	B.81	368.299750	368.809750		Well	well
sw2478B-ms98-a-0090	B.81	368.809750	369.085750		I	i
sw2478B-ms98-a-0090	B.81	369.085750	369.666375		[silence]	[silence]
sw2478B-ms98-a-0091	B.81	369.666375	370.286375		[silence]	[silence]
sw2478B-ms98-a-0091	B.81	370.286375	370.466375		now	now
sw2478B-ms98-a-0091	B.81	370.466375	370.786375		maybe	maybe
sw2478B-ms98-a-0091	B.81	370.786375	370.916375		I'm	i'm
sw2478B-ms98-a-0091	B.81	370.916375	371.126375		not	not
sw2478B-ms98-a-0091	B.81	371.126375	371.266375		[silence]	[silence]
sw2478B-ms98-a-0091	B.81	371.266375	371.606375		the	the
sw2478B-ms98-a-0091	B.81	371.606375	371.986625		uh	uh
sw2478B-ms98-a-0091	B.81	371.986625	372.163625		[silence]	[silence]
sw2478B-ms98-a-0091	B.81	372.163625	372.860125		typical	typical
sw2478B-ms98-a-0091	B.81	372.860125	373.142625		[silence]	[silence]
sw2478B-ms98-a-0091	B.81	373.142625	373.826375		nonexempt	nonexempt
sw2478B-ms98-a-0091	B.81	373.826375	373.976375		that	that
sw2478B-ms98-a-0091	B.81	373.976375	374.106375		you	you
sw2478B-ms98-a-0091	B.81	374.106375	374.426375		deal	deal
sw2478B-ms98-a-0091	B.81	374.426375	374.877750		with	with
sw2478B-ms98-a-0091	B.81	374.877750	375.281875		[silence]	[silence]
sw2478B-ms98-a-0092	B.81	375.281875	375.817625		[silence]	[silence]
sw2478B-ms98-a-0092	B.81	375.817625	375.951875		The	the
sw2478B-ms98-a-0092	B.81	375.951875	376.271875		badge	badge
sw2478B-ms98-a-0092	B.81	376.271875	376.431875		is	is
sw2478B-ms98-a-0092	B.81	376.431875	376.902625		silver	silver
sw2478B-ms98-a-0092	B.83	376.902625	377.074750		[silence]	[silence]
sw2478B-ms98-a-0093	B.83	377.074750	378.207000		[silence]	[silence]
sw2478B-ms98-a-0094	B.83	378.207000	378.367000		[silence]	[silence]
sw2478B-ms98-a-0094	B.83	378.367000	378.927000		And	and
sw2478B-ms98-a-0094	B.83	378.927000	379.146625		uh	uh
sw2478B-ms98-a-0094	B.83	379.146625	379.269750		[silence]	[silence]
sw2478B-ms98-a-0094	B.83	379.269750	379.407000		I	i
sw2478B-ms98-a-0094	B.83	379.407000	379.577000		am	am
sw2478B-ms98-a-0094	B.83	379.577000	380.027000		degreed	degreed
sw2478B-ms98-a-0094	B.83	380.027000	380.199625		though	though
sw2478B-ms98-a-0094	B.83	380.199625	380.947000		nonexempt	nonexempt
sw2478B-ms98-a-0094	B.85	380.947000	381.053500		[silence]	[silence]
sw2478B-ms98-a-0095	B.85	381.053500	382.078375		[silence]	[silence]
sw2478B-ms98-a-0096	B.85	382.078375	382.428375		[silence]	[silence]
sw2478B-ms98-a-0096	B.85	382.428375	382.724750		No	no
sw2478B-ms98-a-0096	B.85	382.724750	382.889375		[silence]	[silence]
sw2478B-ms98-a-0096	B.85	382.889375	383.358375		[laughter]	[laughter]
sw2478B-ms98-a-0096	B.85	383.358375	383.658375		That's	that's
sw2478B-ms98-a-0096	B.85	383.658375	383.898375		not	not
sw2478B-ms98-a-0096	B.85	383.898375	384.328375		good	[laughter-good]
sw2478B-ms98-a-0096	B.85	384.328375	384.538375		but	but
sw2478B-ms98-a-0096	B.89	384.538375	384.929250		[silence]	[silence]
sw2478B-ms98-a-0097	B.89	384.929250	390.039000		[silence]	[silence]
sw2478B-ms98-a-0098	B.89	390.039000	390.449000		[silence]	[silence]
sw2478B-ms98-a-0098	B.89	390.449000	390.859000		No	no
sw2478B-ms98-a-0098	B.89	390.859000	391.109000		I	i
sw2478B-ms98-a-0098	B.89	391.109000	391.179000		[silence]	[silence]
sw2478B-ms98-a-0098	B.89	391.179000	391.419000		I	i
sw2478B-ms98-a-0098	B.89	391.419000	391.639000		do	do
sw2478B-ms98-a-0098	B.89	391.639000	391.879000		not	not
sw2478B-ms98-a-0098	B.89	391.879000	392.129000		wish	wish
sw2478B-ms98-a-0098	B.89	392.129000	392.289000		my	my
sw2478B-ms98-a-0098	B.89	392.289000	392.619000		time	time
sw2478B-ms98-a-0098	B.89	392.619000	392.719000		to	to
sw2478B-ms98-a-0098	B.89	392.719000	393.059000		come	come
sw2478B-ms98-a-0098	B.91	393.059000	393.113250		[silence]	[silence]
sw2478B-ms98-a-0099	B.91	393.113250	395.728750		[silence]	[silence]
sw2478B-ms98-a-0100	B.91	395.728750	396.208750		[silence]	[silence]
sw2478B-ms98-a-0100	B.91	396.208750	396.545125		Oh	oh
sw2478B-ms98-a-0100	B.91	396.545125	396.829000		no	no
sw2478B-ms98-a-0100	B.91	396.829000	397.122750		no	no
sw2478B-ms98-a-0100	B.91	397.122750	397.122750	<INS>	no	---
sw2478B-ms98-a-0100	B.91	397.122750	397.210875		[silence]	[silence]
sw2478B-ms98-a-0100	B.91	397.210875	397.548500		I	i
sw2478B-ms98-a-0100	B.91	397.548500	398.223000		[silence]	[silence]
sw2478B-ms98-a-0101	B.91	398.223000	398.913000		[silence]	[silence]
sw2478B-ms98-a-0101	B.91	398.913000	399.233000		government	government
sw2478B-ms98-a-0101	B.91	399.233000	399.443000		tool	tool
sw2478B-ms98-a-0101	B.91	399.443000	399.783000		control	control
sw2478B-ms98-a-0101	B.91	399.783000	399.893000		is	is
sw2478B-ms98-a-0101	B.91	399.893000	400.063000		my	my
sw2478B-ms98-a-0101	B.91	400.063000	400.703000		specialty	specialty
sw2478B-ms98-a-0101	B.91	400.703000	400.963000		now	now
sw2478B-ms98-a-0101	B.91	400.963000	401.063375		I	i
sw2478B-ms98-a-0101	B.91	401.063375	401.213000		did	did
sw2478B-ms98-a-0101	B.91	401.213000	401.403000		[silence]	[silence]
sw2478B-ms98-a-0101	B.91	401.403000	401.903000	<CONT>	P	PC
sw2478B-ms98-a-0101	B.91	401.903000	401.903000	<CONT>	C	+++
sw2478B-ms98-a-0101	B.91	401.903000	402.453000		protection	protection
sw2478B-ms98-a-0101	B.91	402.453000	402.803000		control	control
sw2478B-ms98-a-0101	B.91	402.803000	403.043000		work	work
sw2478B-ms98-a-0101	B.91	403.043000	403.403000		for	for
sw2478B-ms98-a-0101	B.91	403.403000	403.593000		uh	uh
sw2478B-ms98-a-0101	B.93	403.593000	403.593000	<INS>	About	---
sw2478B-ms98-a-0101	B.93	403.593000	403.886125		[silence]	[silence]
sw2478B-ms98-a-0102	B.93	403.886125	404.356125		[silence]	[silence]
sw2478B-ms98-a-0102	B.93	404.356125	404.526125		ten	ten
sw2478B-ms98-a-0102	B.93	404.526125	404.656125		or	or
sw2478B-ms98-a-0102	B.93	404.656125	405.026125		[silence]	[silence]
sw2478B-ms98-a-0102	B.93	405.026125	405.596125		twelve	twelve
sw2478B-ms98-a-0102	B.93	405.596125	406.386125		years	years
sw2478B-ms98-a-0102	B.93	406.386125	406.741000		uh	uh
sw2478B-ms98-a-0102	B.93	406.741000	407.701375		[silence]	[silence]
sw2478B-ms98-a-0102	B.93	407.701375	407.896125		right	right
sw2478B-ms98-a-0102	B.93	407.896125	408.016125		now	now
sw2478B-ms98-a-0102	B.93	408.016125	408.106125		I'm	i'm
sw2478B-ms98-a-0102	B.93	408.106125	408.246125		just	just
sw2478B-ms98-a-0102	B.93	408.246125	408.536125		trying	trying
sw2478B-ms98-a-0102	B.93	408.536125	408.596125		to	to
sw2478B-ms98-a-0102	B.93	408.596125	408.876125		tool	tool
sw2478B-ms98-a-0102	B.93	408.876125	409.146125		crib	crib
sw2478B-ms98-a-0102	B.93	409.146125	409.236125		and	and
sw2478B-ms98-a-0102	B.93	409.236125	409.526125	<DEL>	---	hauling
sw2478B-ms98-a-0102	B.93	409.526125	410.176125		chips	chips
sw2478B-ms98-a-0102	B.95	410.176125	410.708250		[silence]	[silence]
sw2478B-ms98-a-0103	B.95	410.708250	411.468250		[silence]	[silence]
sw2478B-ms98-a-0103	B.95	411.468250	411.748250		Times	times
sw2478B-ms98-a-0103	B.95	411.748250	411.808250		are	are
sw2478B-ms98-a-0103	B.95	411.808250	412.118250		bad	bad
sw2478B-ms98-a-0103	B.97	412.118250	412.520125		[silence]	[silence]
sw2478B-ms98-a-0104	B.97	412.520125	441.765750		[silence]	[silence]
sw2478B-ms98-a-0105	B.97	441.765750	442.035750		[silence]	[silence]
sw2478B-ms98-a-0105	B.97	442.035750	443.015750		[laughter]	[laughter]
sw2478B-ms98-a-0105	B.97	443.015750	443.452250		It's	it's
sw2478B-ms98-a-0105	B.99	443.452250	443.577000		[silence]	[silence]
sw2478B-ms98-a-0106	B.99	443.577000	451.313500		[silence]	[silence]
sw2478B-ms98-a-0107	B.99	451.313500	451.543500		[silence]	[silence]
sw2478B-ms98-a-0107	B.99	451.543500	451.720750		They	they
sw2478B-ms98-a-0107	B.99	451.720750	452.062125		turned	turned
sw2478B-ms98-a-0107	B.99	452.062125	452.363500		all	all
sw2478B-ms98-a-0107	B.99	452.363500	453.103500		installation	installation
sw2478B-ms98-a-0107	B.99	453.103500	453.273500		up	up
sw2478B-ms98-a-0107	B.99	453.273500	453.567000		here	here
sw2478B-ms98-a-0107	B.99	453.567000	454.043500		off	off
sw2478B-ms98-a-0107	B.101	454.043500	454.459750		[silence]	[silence]
sw2478B-ms98-a-0108	B.101	454.459750	454.989750		[silence]	[silence]
sw2478B-ms98-a-0108	B.101	454.989750	455.149750		They	they
sw2478B-ms98-a-0108	B.101	455.149750	455.439750		told	told
sw2478B-ms98-a-0108	B.101	455.439750	456.269750		facilities	facilities
sw2478B-ms98-a-0108	B.101	456.269750	456.409750		they	they
sw2478B-ms98-a-0108	B.101	456.409750	456.649750		could	could
sw2478B-ms98-a-0108	B.101	456.649750	456.899750		not	not
sw2478B-ms98-a-0108	B.101	456.899750	457.319750		work	work
sw2478B-ms98-a-0108	B.103	457.319750	457.395375		[silence]	[silence]
sw2478B-ms98-a-0109	B.103	457.395375	458.417250		[silence]	[silence]
sw2478B-ms98-a-0110	B.103	458.417250	458.797250		[silence]	[silence]
sw2478B-ms98-a-0110	B.103	458.797250	458.947750		I	i
sw2478B-ms98-a-0110	B.103	458.947750	459.074625		don't	don't
sw2478B-ms98-a-0110	B.103	459.074625	459.247250		care	care
sw2478B-ms98-a-0110	B.103	459.247250	459.437250		what	what
sw2478B-ms98-a-0110	B.103	459.437250	459.507250		the	the
sw2478B-ms98-a-0110	B.103	459.507250	459.917250		jobs	jobs
sw2478B-ms98-a-0110	B.103	459.917250	460.287250		are	are
sw2478B-ms98-a-0110	B.103	460.287250	460.841750		[silence]	[silence]
sw2478B-ms98-a-0111	B.103	460.841750	461.411750		[silence]	[silence]
sw2478B-ms98-a-0111	B.103	461.411750	461.531750		you	you
sw2478B-ms98-a-0111	B.103	461.531750	461.791750		will	will
sw2478B-ms98-a-0111	B.103	461.791750	462.021750		not	not
sw2478B-ms98-a-0111	B.103	462.021750	462.451750		work	work
sw2478B-ms98-a-0111	B.105	462.451750	462.608125		[silence]	[silence]
sw2478B-ms98-a-0112	B.105	462.608125	463.168125		[silence]	[silence]
sw2478B-ms98-a-0112	B.105	463.168125	463.558125		And	and
sw2478B-ms98-a-0112	B.105	463.558125	463.768125		and	and
sw2478B-ms98-a-0112	B.105	463.768125	464.338125		[silence]	[silence]
sw2478B-ms98-a-0112	B.105	464.338125	464.508125		as	as
sw2478B-ms98-a-0112	B.105	464.508125	464.778125		far	far
sw2478B-ms98-a-0112	B.105	464.778125	464.918125		as	as
sw2478B-ms98-a-0112	B.105	464.918125	465.228125		our	our
sw2478B-ms98-a-0112	B.105	465.228125	465.378125		[silence]	[silence]
sw2478B-ms98-a-0112	B.105	465.378125	465.468125		you	you
sw2478B-ms98-a-0112	B.105	465.468125	465.691125		know	know
sw2478B-ms98-a-0112	B.105	465.691125	466.386375		[silence]	[silence]
sw2478B-ms98-a-0113	B.105	466.386375	467.056375		[silence]	[silence]
sw2478B-ms98-a-0113	B.105	467.056375	467.246375		our	our
sw2478B-ms98-a-0113	B.105	467.246375	468.026375		conversation	conversation
sw2478B-ms98-a-0113	B.105	468.026375	468.470125		goes	goes
sw2478B-ms98-a-0113	B.105	468.470125	468.628375		[silence]	[silence]
sw2478B-ms98-a-0114	B.105	468.628375	470.099375		[silence]	[silence]
sw2478B-ms98-a-0115	B.105	470.099375	470.449375		[silence]	[silence]
sw2478B-ms98-a-0115	B.105	470.449375	470.595250		I	i
sw2478B-ms98-a-0115	B.105	470.595250	470.729375		would	would
sw2478B-ms98-a-0115	B.105	470.729375	470.939375		really	really
sw2478B-ms98-a-0115	B.105	470.939375	471.039375		be	be
sw2478B-ms98-a-0115	B.105	471.039375	471.459375		interested	interested
sw2478B-ms98-a-0115	B.105	471.459375	471.559375		to	to
sw2478B-ms98-a-0115	B.105	471.559375	471.944625		know	know
sw2478B-ms98-a-0115	B.105	471.944625	472.382375		[silence]	[silence]
sw2478B-ms98-a-0116	B.105	472.382375	472.712375		[silence]	[silence]
sw2478B-ms98-a-0116	B.105	472.712375	473.022375		how	how
sw2478B-ms98-a-0116	B.105	473.022375	473.642375		much	much
sw2478B-ms98-a-0116	B.105	473.642375	473.964000		[silence]	[silence]
sw2478B-ms98-a-0117	B.105	473.964000	474.474000		[silence]	[silence]
sw2478B-ms98-a-0117	B.105	474.474000	474.604000		of	of
sw2478B-ms98-a-0117	B.105	474.604000	475.094000	<CONT>	T	TI's
sw2478B-ms98-a-0117	B.105	475.094000	475.094000	<CONT>	I's	+++
sw2478B-ms98-a-0117	B.105	475.094000	475.674000		problems	problems
sw2478B-ms98-a-0117	B.105	475.674000	476.094000		now	now
sw2478B-ms98-a-0117	B.105	476.094000	476.264000		are	are
sw2478B-ms98-a-0117	B.105	476.264000	476.724000		related	related
sw2478B-ms98-a-0117	B.105	476.724000	477.024000		[silence]	[silence]
sw2478B-ms98-a-0117	B.105	477.024000	477.492000		to	to
sw2478B-ms98-a-0117	B.107	477.492000	478.232500		[silence]	[silence]
sw2478B-ms98-a-0118	B.107	478.232500	478.732500		[silence]	[silence]
sw2478B-ms98-a-0118	B.107	478.732500	478.832500		the	the
sw2478B-ms98-a-0118	B.107	478.832500	479.222500		banking	banking
sw2478B-ms98-a-0118	B.107	479.222500	479.422500		[silence]	[silence]
sw2478B-ms98-a-0118	B.107	479.422500	480.012500		structure	structure
sw2478B-ms98-a-0118	B.109	480.012500	480.162125		[silence]	[silence]
sw2478B-ms98-a-0119	B.109	480.162125	504.744125		[silence]	[silence]
sw2478B-ms98-a-0120	B.109	504.744125	505.124125		[silence]	[silence]
sw2478B-ms98-a-0120	B.109	505.124125	505.446625	<SUB>	Uh	i
sw2478B-ms98-a-0120	B.109	505.446625	505.715625		[silence]	[silence]
sw2478B-ms98-a-0121	B.109	505.715625	506.445625		[silence]	[silence]
sw2478B-ms98-a-0121	B.109	506.445625	506.585625		it	it
sw2478B-ms98-a-0121	B.109	506.585625	506.875625		really	really
sw2478B-ms98-a-0121	B.109	506.875625	507.205625		hurts	hurts
sw2478B-ms98-a-0121	B.109	507.205625	507.385625		me	me
sw2478B-ms98-a-0121	B.111	507.385625	507.566625		[silence]	[silence]
sw2478B-ms98-a-0122	B.111	507.566625	509.514375		[silence]	[silence]
sw2478B-ms98-a-0123	B.111	509.514375	509.814375		[silence]	[silence]
sw2478B-ms98-a-0123	B.111	509.814375	509.984375		to	to
sw2478B-ms98-a-0123	B.111	509.984375	510.744375		realize	realize
sw2478B-ms98-a-0123	B.111	510.744375	511.034375		that	that
sw2478B-ms98-a-0123	B.111	511.034375	511.313500		[silence]	[silence]
sw2478B-ms98-a-0124	B.111	511.313500	512.865000		[silence]	[silence]
sw2478B-ms98-a-0125	B.111	512.865000	513.175000		[silence]	[silence]
sw2478B-ms98-a-0125	B.111	513.175000	513.300125		a	a
sw2478B-ms98-a-0125	B.111	513.300125	513.515000		lot	lot
sw2478B-ms98-a-0125	B.111	513.515000	513.625000		of	of
sw2478B-ms98-a-0125	B.111	513.625000	514.005000		people	people
sw2478B-ms98-a-0125	B.111	514.005000	514.195000		out	out
sw2478B-ms98-a-0125	B.111	514.195000	514.575000		there	there
sw2478B-ms98-a-0125	B.111	514.575000	514.775000		[silence]	[silence]
sw2478B-ms98-a-0125	B.111	514.775000	514.905000		are	are
sw2478B-ms98-a-0125	B.111	514.905000	515.505000		trying	trying
sw2478B-ms98-a-0125	B.111	515.505000	515.885000		[silence]	[silence]
sw2478B-ms98-a-0125	B.111	515.885000	516.015000		to	to
sw2478B-ms98-a-0125	B.111	516.015000	516.749625		retire	retire
sw2478B-ms98-a-0125	B.111	516.749625	517.265625		[silence]	[silence]
sw2478B-ms98-a-0125	B.111	517.265625	517.435000		on	on
sw2478B-ms98-a-0125	B.111	517.435000	517.565000		their	their
sw2478B-ms98-a-0125	B.111	517.565000	517.805000		home	home
sw2478B-ms98-a-0125	B.111	517.805000	518.491125		values	values
sw2478B-ms98-a-0125	B.113	518.491125	518.913625		[silence]	[silence]
sw2478B-ms98-a-0126	B.113	518.913625	521.382750		[silence]	[silence]
sw2478B-ms98-a-0127	B.113	521.382750	521.452750		[silence]	[silence]
sw2478B-ms98-a-0127	B.113	521.452750	521.791000		Uh	uh
sw2478B-ms98-a-0127	B.113	521.791000	522.411125		[silence]	[silence]
sw2478B-ms98-a-0127	B.113	522.411125	522.612750		one	one
sw2478B-ms98-a-0127	B.113	522.612750	522.702750		of	of
sw2478B-ms98-a-0127	B.113	522.702750	523.022750		our	our
sw2478B-ms98-a-0127	B.113	523.022750	523.332500		[silence]	[silence]
sw2478B-ms98-a-0128	B.113	523.332500	523.732500		[silence]	[silence]
sw2478B-ms98-a-0128	B.113	523.732500	524.376625		senior	senior
sw2478B-ms98-a-0128	B.115	524.376625	524.644250		[silence]	[silence]
sw2478B-ms98-a-0129	B.115	524.644250	527.901750		[silence]	[silence]
sw2478B-ms98-a-0130	B.115	527.901750	528.341750		[silence]	[silence]
sw2478B-ms98-a-0130	B.115	528.341750	528.725375		No	no
sw2478B-ms98-a-0130	B.117	528.725375	528.955625		[silence]	[silence]
sw2478B-ms98-a-0131	B.117	528.955625	529.125625		[silence]	[silence]
sw2478B-ms98-a-0131	B.117	529.125625	529.335625		Our	our
sw2478B-ms98-a-0131	B.117	529.335625	529.815625		economy	economy
sw2478B-ms98-a-0131	B.117	529.815625	529.885625		in	in
sw2478B-ms98-a-0131	B.117	529.885625	530.435625		Colorado	Colorado
sw2478B-ms98-a-0131	B.117	530.435625	531.075875		Springs	Springs
sw2478B-ms98-a-0131	B.117	531.075875	531.294250		[silence]	[silence]
sw2478B-ms98-a-0131	B.117	531.294250	531.829750		fell	fell
sw2478B-ms98-a-0131	B.117	531.829750	532.511500		completely	completely
sw2478B-ms98-a-0131	B.117	532.511500	533.101250		apart	apart
sw2478B-ms98-a-0131	B.119	533.101250	533.407250		[silence]	[silence]
sw2478B-ms98-a-0132	B.119	533.407250	535.465750		[silence]	[silence]
sw2478B-ms98-a-0133	B.119	535.465750	535.655750		[silence]	[silence]
sw2478B-ms98-a-0133	B.119	535.655750	536.115750		Right	right
sw2478B-ms98-a-0133	B.121	536.115750	536.335000		[silence]	[silence]
sw2478B-ms98-a-0134	B.121	536.335000	552.806125		[silence]	[silence]
sw2478B-ms98-a-0135	B.121	552.806125	553.166125		[silence]	[silence]
sw2478B-ms98-a-0135	B.121	553.166125	553.326125		Yeah	yeah
sw2478B-ms98-a-0135	B.121	553.326125	553.466125		it's	it's
sw2478B-ms98-a-0135	B.121	553.466125	554.596125		northwest	northwest
sw2478B-ms98-a-0135	B.123	554.596125	555.306125		Seattle	Seattle
sw2478B-ms98-a-0135	B.125	555.306125	555.786125		[silence]	[silence]
sw2478B-ms98-a-0135	B.125	555.786125	556.306125		Seattle	Seattle
sw2478B-ms98-a-0135	B.125	556.306125	556.576125		and	and
sw2478B-ms98-a-0135	B.125	556.576125	557.390000		also	also
sw2478B-ms98-a-0135	B.125	557.390000	557.757125		uh	uh
sw2478B-ms98-a-0135	B.125	557.757125	558.006125		[silence]	[silence]
sw2478B-ms98-a-0135	B.125	558.006125	558.096125		they	they
sw2478B-ms98-a-0135	B.125	558.096125	558.246125		do	do
sw2478B-ms98-a-0135	B.125	558.246125	558.466125		some	some
sw2478B-ms98-a-0135	B.125	558.466125	558.626125		of	of
sw2478B-ms98-a-0135	B.125	558.626125	558.856125		that	that
sw2478B-ms98-a-0135	B.125	558.856125	558.916125		in	in
sw2478B-ms98-a-0135	B.125	558.916125	559.329875		Wichita	Wichita
sw2478B-ms98-a-0135	B.125	559.329875	559.891375		Kansas	Kansas
sw2478B-ms98-a-0135	B.127	559.891375	560.137375		[silence]	[silence]
sw2478B-ms98-a-0136	B.127	560.137375	571.431250		[silence]	[silence]
sw2478B-ms98-a-0137	B.127	571.431250	571.711250		[silence]	[silence]
sw2478B-ms98-a-0137	B.127	571.711250	572.075250		Huh	huh
sw2478B-ms98-a-0137	B.129	572.075250	572.400000		[silence]	[silence]
sw2478B-ms98-a-0138	B.129	572.400000	577.202125		[silence]	[silence]
sw2478B-ms98-a-0139	B.129	577.202125	577.502125		[silence]	[silence]
sw2478B-ms98-a-0139	B.129	577.502125	578.192125		Secorski	Secorski
sw2478B-ms98-a-0139	B.129	578.192125	578.768375		Boeing	Boeing
sw2478B-ms98-a-0139	B.131	578.768375	579.198625		[silence]	[silence]
sw2478B-ms98-a-0140	B.131	579.198625	598.235750		[silence]	[silence]
sw2478B-ms98-a-0141	B.131	598.235750	598.415750		[silence]	[silence]
sw2478B-ms98-a-0141	B.131	598.415750	598.925750		Well	well
sw2478B-ms98-a-0141	B.131	598.925750	599.135750		[silence]	[silence]
sw2478B-ms98-a-0141	B.131	599.135750	599.285750		you	you
sw2478B-ms98-a-0141	B.131	599.285750	599.933000		realize	realize
sw2478B-ms98-a-0141	B.131	599.933000	600.085625		[silence]	[silence]
