sw2450A-ms98-a-0001	@A.1	0.000000	0.004500		[silence]	[silence]
sw2450A-ms98-a-0001	@A.1	0.004500	0.403250		[noise]	[noise]
sw2450A-ms98-a-0001	@A.1	0.403250	0.481250		[silence]	[silence]
sw2450A-ms98-a-0002	@A.1	0.481250	0.952875		[silence]	[silence]
sw2450A-ms98-a-0002	@A.1	0.952875	1.141250		So	so
sw2450A-ms98-a-0002	@A.1	1.141250	1.261250		what	what
sw2450A-ms98-a-0002	@A.1	1.261250	1.461250		kind	kind
sw2450A-ms98-a-0002	@A.1	1.461250	1.521250		of	of
sw2450A-ms98-a-0002	@A.1	1.521250	1.731250		weather	weather
sw2450A-ms98-a-0002	@A.1	1.731250	1.841250		have	have
sw2450A-ms98-a-0002	@A.1	1.841250	2.001250		you	you
sw2450A-ms98-a-0002	@A.1	2.001250	2.171250		had	had
sw2450A-ms98-a-0002	@A.1	2.171250	2.291250		in	in
sw2450A-ms98-a-0002	@A.1	2.291250	2.819375		Dallas	Dallas
sw2450A-ms98-a-0002	A.3	2.819375	3.353000		[laughter]	[laughter]
sw2450A-ms98-a-0002	A.3	3.353000	3.835250		[silence]	[silence]
sw2450A-ms98-a-0003	A.3	3.835250	9.150625		[silence]	[silence]
sw2450A-ms98-a-0004	A.3	9.150625	9.745875		[silence]	[silence]
sw2450A-ms98-a-0004	A.3	9.745875	10.176750		Really	really
sw2450A-ms98-a-0004	A.3	10.176750	10.534500		[silence]	[silence]
sw2450A-ms98-a-0004	A.3	10.534500	10.900625		Yeah	yeah
sw2450A-ms98-a-0004	A.3	10.900625	11.000625		see	see
sw2450A-ms98-a-0004	A.3	11.000625	11.144250		I	i
sw2450A-ms98-a-0004	A.3	11.144250	11.390000		didn't	didn't
sw2450A-ms98-a-0004	A.3	11.390000	11.526500		I	i
sw2450A-ms98-a-0004	A.3	11.526500	11.771250		don't	don't
sw2450A-ms98-a-0004	A.3	11.771250	12.050625		I	i
sw2450A-ms98-a-0004	A.3	12.050625	12.459500		thought	thought
sw2450A-ms98-a-0004	A.3	12.459500	12.708000		[silence]	[silence]
sw2450A-ms98-a-0004	A.3	12.708000	12.830625	<DEL>	---	my
sw2450A-ms98-a-0004	A.3	12.830625	12.870625		uh	uh
sw2450A-ms98-a-0004	A.3	12.870625	13.000625		I	i
sw2450A-ms98-a-0004	A.3	13.000625	13.100625	<SUB>	thought	th[ought]-
sw2450A-ms98-a-0004	A.3	13.100625	13.290625		I	i
sw2450A-ms98-a-0004	A.3	13.290625	13.470625	<SUB>	lived	live
sw2450A-ms98-a-0004	A.3	13.470625	13.610625		in	in
sw2450A-ms98-a-0004	A.3	13.610625	14.070625		Euless	Euless
sw2450A-ms98-a-0004	A.3	14.070625	14.230625		and	and
sw2450A-ms98-a-0004	A.3	14.230625	14.280625		I	i
sw2450A-ms98-a-0004	A.3	14.280625	14.490625		thought	thought
sw2450A-ms98-a-0004	A.3	14.490625	14.570625		it	it
sw2450A-ms98-a-0004	A.3	14.570625	14.750625		was	was
sw2450A-ms98-a-0004	A.3	14.750625	15.010625		pretty	pretty
sw2450A-ms98-a-0004	A.3	15.010625	15.470625		normal	normal
sw2450A-ms98-a-0004	A.3	15.470625	15.664750		but	but
sw2450A-ms98-a-0004	A.3	15.664750	16.331375		[silence]	[silence]
sw2450A-ms98-a-0004	A.3	16.331375	16.901125		anyway	anyway
sw2450A-ms98-a-0004	A.3	16.901125	17.070625		[silence]	[silence]
sw2450A-ms98-a-0004	A.3	17.070625	17.290625		but	but
sw2450A-ms98-a-0004	A.3	17.290625	17.370625		I	i
sw2450A-ms98-a-0004	A.3	17.370625	17.610625		guess	guess
sw2450A-ms98-a-0004	A.3	17.610625	17.760625		you're	you're
sw2450A-ms98-a-0004	A.3	17.760625	18.020625		right	right
sw2450A-ms98-a-0004	A.3	18.020625	18.110625		though	though
sw2450A-ms98-a-0004	A.3	18.110625	18.290625		it	it
sw2450A-ms98-a-0004	A.3	18.290625	18.520625		has	has
sw2450A-ms98-a-0004	A.3	18.520625	18.700625		been	been
sw2450A-ms98-a-0004	A.3	18.700625	18.870625		real	real
sw2450A-ms98-a-0004	A.3	18.870625	19.200625		hot	hot
sw2450A-ms98-a-0004	A.3	19.200625	19.645750		because	because
sw2450A-ms98-a-0004	A.3	19.645750	19.895875		[silence]	[silence]
sw2450A-ms98-a-0005	A.3	19.895875	20.327000		[silence]	[silence]
sw2450A-ms98-a-0005	A.3	20.327000	20.555875		it	it
sw2450A-ms98-a-0005	A.3	20.555875	21.038250		um	um
sw2450A-ms98-a-0005	A.3	21.038250	21.369625		[noise]	[noise]
sw2450A-ms98-a-0005	A.3	21.369625	21.475875		I've	i've
sw2450A-ms98-a-0005	A.3	21.475875	21.635875		had	had
sw2450A-ms98-a-0005	A.3	21.635875	21.695875		to	to
sw2450A-ms98-a-0005	A.3	21.695875	21.865875		use	use
sw2450A-ms98-a-0005	A.3	21.865875	21.925875		the	the
sw2450A-ms98-a-0005	A.3	21.925875	22.105875		air	air
sw2450A-ms98-a-0005	A.3	22.105875	22.860625		conditioner	conditioner
sw2450A-ms98-a-0005	A.3	22.860625	23.050750		[silence]	[silence]
sw2450A-ms98-a-0005	A.3	23.050750	23.165875		in	in
sw2450A-ms98-a-0005	A.3	23.165875	23.675875		March	March
sw2450A-ms98-a-0005	A.5	23.675875	23.765875	<SUB>	my	and
sw2450A-ms98-a-0005	A.5	23.765875	23.855875	<SUB>	husband	that
sw2450A-ms98-a-0005	A.5	23.855875	24.015875	<SUB>	usually	is
sw2450A-ms98-a-0005	A.7	24.015875	24.265875	<DEL>	---	pretty
sw2450A-ms98-a-0005	A.7	24.265875	24.724625	<DEL>	---	usual
sw2450A-ms98-a-0005	A.7	24.724625	25.328000		[silence]	[silence]
sw2450A-ms98-a-0006	A.7	25.328000	30.115875		[silence]	[silence]
sw2450A-ms98-a-0007	A.7	30.115875	30.851125		[silence]	[silence]
sw2450A-ms98-a-0007	A.7	30.851125	31.221125		Uh-huh	uh-huh
sw2450A-ms98-a-0007	A.13	31.221125	31.730250		[silence]	[silence]
sw2450A-ms98-a-0008	A.13	31.730250	35.093375		[silence]	[silence]
sw2450A-ms98-a-0009	A.13	35.093375	35.613375		[silence]	[silence]
sw2450A-ms98-a-0009	A.13	35.613375	36.280250		[laughter]	[laughter]
sw2450A-ms98-a-0009	A.13	36.280250	36.789500		[silence]	[silence]
sw2450A-ms98-a-0010	A.13	36.789500	39.510750		[silence]	[silence]
sw2450A-ms98-a-0011	A.13	39.510750	40.043125		[silence]	[silence]
sw2450A-ms98-a-0011	A.13	40.043125	40.494500		Yeah	yeah
sw2450A-ms98-a-0011	A.15	40.494500	41.082125		[silence]	[silence]
sw2450A-ms98-a-0012	A.15	41.082125	42.379500		[silence]	[silence]
sw2450A-ms98-a-0012	A.15	42.379500	42.712625		[noise]	[noise]
sw2450A-ms98-a-0012	A.15	42.712625	43.405625		[silence]	[silence]
sw2450A-ms98-a-0013	A.15	43.405625	44.069375		[silence]	[silence]
sw2450A-ms98-a-0013	A.15	44.069375	44.375625		Yeah	yeah
sw2450A-ms98-a-0013	A.15	44.375625	44.455625		I	i
sw2450A-ms98-a-0013	A.15	44.455625	44.788000		know	know
sw2450A-ms98-a-0013	A.17	44.788000	45.816250		[noise]	[noise]
sw2450A-ms98-a-0013	A.17	45.816250	45.945625		The	the
sw2450A-ms98-a-0013	A.17	45.945625	46.355625		trees	trees
sw2450A-ms98-a-0013	A.17	46.355625	46.475625		are	are
sw2450A-ms98-a-0013	A.17	46.475625	46.605625		real	real
sw2450A-ms98-a-0013	A.17	46.605625	46.995625		pretty	pretty
sw2450A-ms98-a-0013	A.17	46.995625	47.245625		right	right
sw2450A-ms98-a-0013	A.17	47.245625	47.385625		now	now
sw2450A-ms98-a-0013	A.17	47.385625	47.505625		and	and
sw2450A-ms98-a-0013	A.17	47.505625	48.105500		everything	everything
sw2450A-ms98-a-0013	A.17	48.105500	48.493500		[silence]	[silence]
sw2450A-ms98-a-0013	A.17	48.493500	48.825625		And	and
sw2450A-ms98-a-0013	A.17	48.825625	49.345250		uh	uh
sw2450A-ms98-a-0013	A.17	49.345250	49.680375		[silence]	[silence]
sw2450A-ms98-a-0013	A.17	49.680375	49.773625		I	i
sw2450A-ms98-a-0013	A.17	49.773625	49.890375		don't	don't
sw2450A-ms98-a-0013	A.17	49.890375	49.995625		know	know
sw2450A-ms98-a-0013	A.17	49.995625	50.025625		I	i
sw2450A-ms98-a-0013	A.17	50.025625	50.165625		know	know
sw2450A-ms98-a-0013	A.17	50.165625	50.255625		the	the
sw2450A-ms98-a-0013	A.17	50.255625	50.775625		pollen	pollen
sw2450A-ms98-a-0013	A.17	50.775625	50.965625		is	is
sw2450A-ms98-a-0013	A.17	50.965625	51.135625		real	real
sw2450A-ms98-a-0013	A.17	51.135625	51.425625		high	high
sw2450A-ms98-a-0013	A.17	51.425625	51.645625		but	but
sw2450A-ms98-a-0013	A.17	51.645625	51.675625		I	i
sw2450A-ms98-a-0013	A.17	51.675625	52.195625		think	think
sw2450A-ms98-a-0013	A.17	52.195625	52.395625		it's	it's
sw2450A-ms98-a-0013	A.17	52.395625	52.725625		higher	higher
sw2450A-ms98-a-0013	A.17	52.725625	52.895625		than	than
sw2450A-ms98-a-0013	A.17	52.895625	53.385625		usual	usual
sw2450A-ms98-a-0013	A.17	53.385625	53.533000		isn't	isn't
sw2450A-ms98-a-0013	A.17	53.533000	53.702500		it	it
sw2450A-ms98-a-0013	A.19	53.702500	54.896875		[silence]	[silence]
sw2450A-ms98-a-0014	A.19	54.896875	58.786500		[silence]	[silence]
sw2450A-ms98-a-0015	A.19	58.786500	59.864750		[silence]	[silence]
sw2450A-ms98-a-0015	A.19	59.864750	60.196500		Yeah	yeah
sw2450A-ms98-a-0015	A.19	60.196500	60.246500		I	i
sw2450A-ms98-a-0015	A.19	60.246500	60.456500		know	know
sw2450A-ms98-a-0015	A.19	60.456500	60.616500		It's	it's
sw2450A-ms98-a-0015	A.19	60.616500	60.806500		been	been
sw2450A-ms98-a-0015	A.19	60.806500	61.246500		bothering	bothering
sw2450A-ms98-a-0015	A.19	61.246500	61.386500		me	me
sw2450A-ms98-a-0015	A.19	61.386500	61.466500		a	a
sw2450A-ms98-a-0015	A.19	61.466500	61.806500		lot	lot
sw2450A-ms98-a-0015	A.19	61.806500	62.016250		but	but
sw2450A-ms98-a-0015	A.19	62.016250	62.434250		[silence]	[silence]
sw2450A-ms98-a-0015	A.19	62.434250	62.626500		yeah	yeah
sw2450A-ms98-a-0015	A.19	62.626500	62.715625		I	i
sw2450A-ms98-a-0015	A.19	62.715625	63.017125		think	think
sw2450A-ms98-a-0015	A.19	63.017125	63.376500		nor-	nor[mally]-
sw2450A-ms98-a-0015	A.19	63.376500	63.496500		I	i
sw2450A-ms98-a-0015	A.19	63.496500	63.696500		think	think
sw2450A-ms98-a-0015	A.19	63.696500	63.786500		the	the
sw2450A-ms98-a-0015	A.19	63.786500	64.096500		weather	weather
sw2450A-ms98-a-0015	A.19	64.096500	64.596500		overall	overall
sw2450A-ms98-a-0015	A.19	64.596500	64.866500		has	has
sw2450A-ms98-a-0015	A.19	64.866500	65.196875		been	been
sw2450A-ms98-a-0015	A.19	65.196875	65.621750		um	um
sw2450A-ms98-a-0015	A.19	65.621750	66.382625		[silence]	[silence]
sw2450A-ms98-a-0015	A.19	66.382625	66.676500		probably	probably
sw2450A-ms98-a-0015	A.19	66.676500	66.896500		like	like
sw2450A-ms98-a-0015	A.19	66.896500	67.046500		you	you
sw2450A-ms98-a-0015	A.19	67.046500	67.226500		said	said
sw2450A-ms98-a-0015	A.19	67.226500	67.596500		probably	probably
sw2450A-ms98-a-0015	A.19	67.596500	67.626500		a	a
sw2450A-ms98-a-0015	A.19	67.626500	67.846500		little	little
sw2450A-ms98-a-0015	A.19	67.846500	68.046500		bit	bit
sw2450A-ms98-a-0015	A.19	68.046500	68.516500		warm	warm
sw2450A-ms98-a-0015	A.19	68.516500	68.747375		and	and
sw2450A-ms98-a-0015	A.21	68.747375	69.592750		[noise]	[noise]
sw2450A-ms98-a-0015	A.21	69.592750	70.206875	<SUB>	Uh	so
sw2450A-ms98-a-0015	A.23	70.206875	71.160875		[noise]	[noise]
sw2450A-ms98-a-0015	A.23	71.160875	71.302625		[silence]	[silence]
sw2450A-ms98-a-0016	A.23	71.302625	71.606750		[silence]	[silence]
sw2450A-ms98-a-0016	A.23	71.606750	72.172625		Anyway	anyway
sw2450A-ms98-a-0016	A.23	72.172625	72.568875		so	so
sw2450A-ms98-a-0016	A.23	72.568875	72.904125		[silence]	[silence]
sw2450A-ms98-a-0016	A.23	72.904125	73.002625		we	we
sw2450A-ms98-a-0016	A.23	73.002625	73.512625		basically	basically
sw2450A-ms98-a-0016	A.23	73.512625	73.682625		live	live
sw2450A-ms98-a-0016	A.23	73.682625	73.782625		in	in
sw2450A-ms98-a-0016	A.23	73.782625	73.942625		the	the
sw2450A-ms98-a-0016	A.23	73.942625	74.152625		same	same
sw2450A-ms98-a-0016	A.23	74.152625	74.572625		area	area
sw2450A-ms98-a-0016	A.23	74.572625	74.682625		so	so
sw2450A-ms98-a-0016	A.23	74.682625	74.872625		it's	it's
sw2450A-ms98-a-0016	A.23	74.872625	75.002625		real	real
sw2450A-ms98-a-0016	A.23	75.002625	75.292625		hard	hard
sw2450A-ms98-a-0016	A.23	75.292625	75.544250		to	to
sw2450A-ms98-a-0016	A.25	75.544250	75.837625		[silence]	[silence]
sw2450A-ms98-a-0017	A.25	75.837625	76.554000		[silence]	[silence]
sw2450A-ms98-a-0017	A.25	76.554000	77.902625		[noise]	[noise]
sw2450A-ms98-a-0017	A.25	77.902625	77.994875		[silence]	[silence]
sw2450A-ms98-a-0018	A.25	77.994875	78.475375		[silence]	[silence]
sw2450A-ms98-a-0018	A.25	78.475375	78.684875		[noise]	[noise]
sw2450A-ms98-a-0018	A.25	78.684875	78.844875		I	i
sw2450A-ms98-a-0018	A.25	78.844875	79.351750		know	know
sw2450A-ms98-a-0018	A.27	79.351750	79.544875		I	i
sw2450A-ms98-a-0018	A.27	79.544875	79.764875		just	just
sw2450A-ms98-a-0018	A.27	79.764875	80.083375		think	think
sw2450A-ms98-a-0018	A.27	80.083375	80.682250		[silence]	[silence]
sw2450A-ms98-a-0018	A.27	80.682250	80.794875		it's	it's
sw2450A-ms98-a-0018	A.27	80.794875	80.984875		been	been
sw2450A-ms98-a-0018	A.27	80.984875	81.364875		warm	warm
sw2450A-ms98-a-0018	A.27	81.364875	81.474875		and	and
sw2450A-ms98-a-0018	A.27	81.474875	81.704875		it's	it's
sw2450A-ms98-a-0018	A.27	81.704875	82.034875		been	been
sw2450A-ms98-a-0018	A.27	82.034875	82.468125		hot	hot
sw2450A-ms98-a-0018	A.27	82.468125	82.971250		and	and
sw2450A-ms98-a-0018	A.27	82.971250	83.110625		[silence]	[silence]
sw2450A-ms98-a-0018	A.27	83.110625	83.234875		I	i
sw2450A-ms98-a-0018	A.27	83.234875	83.584875	<SUB>	liked	like
sw2450A-ms98-a-0018	A.27	83.584875	83.844875		it	it
sw2450A-ms98-a-0018	A.27	83.844875	83.974875		and	and
sw2450A-ms98-a-0018	A.27	83.974875	84.184875		it's	it's
sw2450A-ms98-a-0018	A.27	84.184875	84.594875		beautiful	beautiful
sw2450A-ms98-a-0018	A.27	84.594875	84.694875		and	and
sw2450A-ms98-a-0018	A.27	84.694875	84.814875		all	all
sw2450A-ms98-a-0018	A.27	84.814875	84.944250		the	the
sw2450A-ms98-a-0018	A.27	84.944250	85.234875		trees	trees
sw2450A-ms98-a-0018	A.27	85.234875	85.314875		are	are
sw2450A-ms98-a-0018	A.27	85.314875	85.705500		pretty	pretty
sw2450A-ms98-a-0018	A.27	85.705500	86.278000		[silence]	[silence]
sw2450A-ms98-a-0018	A.27	86.278000	86.604875		and	and
sw2450A-ms98-a-0018	A.27	86.604875	86.634875		I	i
sw2450A-ms98-a-0018	A.27	86.634875	86.844875		wish	wish
sw2450A-ms98-a-0018	A.27	86.844875	86.904875		it	it
sw2450A-ms98-a-0018	A.27	86.904875	87.034875		would	would
sw2450A-ms98-a-0018	A.27	87.034875	87.274875		stay	stay
sw2450A-ms98-a-0018	A.27	87.274875	87.545750		like	like
sw2450A-ms98-a-0018	A.27	87.545750	87.862500		this	this
sw2450A-ms98-a-0018	A.27	87.862500	88.152500		[silence]	[silence]
sw2450A-ms98-a-0018	A.27	88.152500	88.364875		all	all
sw2450A-ms98-a-0018	A.27	88.364875	88.467000		the	the
sw2450A-ms98-a-0018	A.27	88.467000	88.814875		time	time
sw2450A-ms98-a-0018	A.29	88.814875	89.134500		[laughter]	[laughter]
sw2450A-ms98-a-0018	A.29	89.134500	89.895875		[silence]	[silence]
sw2450A-ms98-a-0019	A.29	89.895875	90.751750		[silence]	[silence]
sw2450A-ms98-a-0019	A.29	90.751750	91.075875		So	so
sw2450A-ms98-a-0019	A.29	91.075875	91.315875		yeah	yeah
sw2450A-ms98-a-0019	A.29	91.315875	91.395875		I	i
sw2450A-ms98-a-0019	A.29	91.395875	91.675875		could	could
sw2450A-ms98-a-0019	A.29	91.675875	92.115375		too	too
sw2450A-ms98-a-0019	A.29	92.115375	92.639000		[silence]	[silence]
sw2450A-ms98-a-0019	A.29	92.639000	93.065875		And	and
sw2450A-ms98-a-0019	A.29	93.065875	93.354250		uh	uh
sw2450A-ms98-a-0019	A.29	93.354250	93.435875		gah	gah
sw2450A-ms98-a-0019	A.29	93.435875	93.575875		I	i
sw2450A-ms98-a-0019	A.29	93.575875	93.765875		don't	don't
sw2450A-ms98-a-0019	A.29	93.765875	93.935875		think	think
sw2450A-ms98-a-0019	A.29	93.935875	94.055875		we	we
sw2450A-ms98-a-0019	A.29	94.055875	94.225875		can	can
sw2450A-ms98-a-0019	A.29	94.225875	94.395875		say	say
sw2450A-ms98-a-0019	A.29	94.395875	94.815875		anything	anything
sw2450A-ms98-a-0019	A.29	94.815875	95.065875		else	else
sw2450A-ms98-a-0019	A.29	95.065875	95.435875		really	really
sw2450A-ms98-a-0019	A.31	95.435875	96.336000		[silence]	[silence]
sw2450A-ms98-a-0020	A.31	96.336000	97.099875		[silence]	[silence]
sw2450A-ms98-a-0020	A.31	97.099875	97.366000		Yeah	yeah
sw2450A-ms98-a-0020	A.31	97.366000	97.566000		that	that
sw2450A-ms98-a-0020	A.31	97.566000	97.746000		sounds	sounds
sw2450A-ms98-a-0020	A.31	97.746000	97.896000		like	like
sw2450A-ms98-a-0020	A.31	97.896000	97.996000		a	a
sw2450A-ms98-a-0020	A.31	97.996000	98.246000		good	good
sw2450A-ms98-a-0020	A.31	98.246000	98.726750		deal	deal
sw2450A-ms98-a-0020	A.31	98.726750	98.926000		Well	well
sw2450A-ms98-a-0020	A.31	98.926000	99.106000		you	you
sw2450A-ms98-a-0020	A.31	99.106000	99.256000		have	have
sw2450A-ms98-a-0020	A.31	99.256000	99.306000		a	a
sw2450A-ms98-a-0020	A.31	99.306000	99.536000		nice	nice
sw2450A-ms98-a-0020	A.31	99.536000	100.013000		day	day
sw2450A-ms98-a-0020	A.33	100.013000	100.396000		And	and
sw2450A-ms98-a-0020	A.33	100.396000	100.536000		we'll	we'll
sw2450A-ms98-a-0020	A.33	100.536000	100.786000		talk	talk
sw2450A-ms98-a-0020	A.33	100.786000	100.863875		to	to
sw2450A-ms98-a-0020	A.33	100.863875	100.984375		you	you
sw2450A-ms98-a-0020	A.33	100.984375	101.241250		later	later
sw2450A-ms98-a-0020	A.35	101.241250	101.646000		[silence]	[silence]
sw2450A-ms98-a-0020	A.35	101.646000	101.802000		Bye	bye
sw2450A-ms98-a-0020	A.35	101.802000	102.351375		[noise]	[noise]
sw2450A-ms98-a-0020	A.35	102.351375	102.478875		[silence]	[silence]
sw2450A-ms98-a-0021	A.35	102.478875	102.911500		[silence]	[silence]
sw2450A-ms98-a-0021	A.35	102.911500	103.050250		[noise]	[noise]
sw2450A-ms98-a-0021	A.35	103.050250	103.098125		[silence]	[silence]
