sw2657B-ms98-a-0001	B.2	0.000000	0.756625		[silence]	[silence]
sw2657B-ms98-a-0002	B.2	0.756625	1.056625		[silence]	[silence]
sw2657B-ms98-a-0002	B.2	1.056625	1.163500		I	i
sw2657B-ms98-a-0002	B.2	1.163500	1.286625		don't	don't
sw2657B-ms98-a-0002	B.2	1.286625	1.386625		know	know
sw2657B-ms98-a-0002	B.2	1.386625	1.486625		how	how
sw2657B-ms98-a-0002	B.2	1.486625	1.626625		much	much
sw2657B-ms98-a-0002	B.2	1.626625	1.696625		I	i
sw2657B-ms98-a-0002	B.2	1.696625	1.866625		know	know
sw2657B-ms98-a-0002	B.2	1.866625	2.116625		about	about
sw2657B-ms98-a-0002	B.2	2.116625	2.286625		this	this
sw2657B-ms98-a-0002	B.2	2.286625	3.210125		subject	[laughter-subject]
sw2657B-ms98-a-0002	B.4	3.210125	3.354000		[silence]	[silence]
sw2657B-ms98-a-0003	B.4	3.354000	4.990250		[silence]	[silence]
sw2657B-ms98-a-0004	B.4	4.990250	5.500250		[silence]	[silence]
sw2657B-ms98-a-0004	B.4	5.500250	6.042750		Yeah	[laughter-yeah]
sw2657B-ms98-a-0004	B.6	6.042750	6.999250		[silence]	[silence]
sw2657B-ms98-a-0005	B.6	6.999250	7.609750		[silence]	[silence]
sw2657B-ms98-a-0005	B.6	7.609750	8.139250		Okay	okay
sw2657B-ms98-a-0005	B.6	8.139250	8.259250		Go	go
sw2657B-ms98-a-0005	B.6	8.259250	8.719250		ahead	ahead
sw2657B-ms98-a-0005	B.8	8.719250	8.987625		[silence]	[silence]
sw2657B-ms98-a-0006	B.8	8.987625	11.499000		[silence]	[silence]
sw2657B-ms98-a-0007	B.8	11.499000	12.039000		[silence]	[silence]
sw2657B-ms98-a-0007	B.8	12.039000	12.269000		Yeah	yeah
sw2657B-ms98-a-0007	B.10	12.269000	13.479000		[laughter]	[laughter]
sw2657B-ms98-a-0007	B.10	13.479000	15.123625		[silence]	[silence]
sw2657B-ms98-a-0008	B.10	15.123625	44.497750		[silence]	[silence]
sw2657B-ms98-a-0009	B.10	44.497750	45.047750		[silence]	[silence]
sw2657B-ms98-a-0009	B.10	45.047750	45.297750		That's	that's
sw2657B-ms98-a-0009	B.10	45.297750	45.607750		true	true
sw2657B-ms98-a-0009	B.12	45.607750	45.997625		[silence]	[silence]
sw2657B-ms98-a-0010	B.12	45.997625	51.474000		[silence]	[silence]
sw2657B-ms98-a-0011	B.12	51.474000	52.004000		[silence]	[silence]
sw2657B-ms98-a-0011	B.12	52.004000	52.269875		Um	um
sw2657B-ms98-a-0011	B.12	52.269875	52.484750		[silence]	[silence]
sw2657B-ms98-a-0011	B.12	52.484750	52.718500		me	me
sw2657B-ms98-a-0011	B.12	52.718500	53.132750		either	either
sw2657B-ms98-a-0011	B.12	53.132750	53.514000		I	i
sw2657B-ms98-a-0011	B.12	53.514000	53.998875		[silence]	[silence]
sw2657B-ms98-a-0012	B.12	53.998875	54.468875		[silence]	[silence]
sw2657B-ms98-a-0012	B.12	54.468875	54.657125		I	i
sw2657B-ms98-a-0012	B.12	54.657125	54.778875		went	went
sw2657B-ms98-a-0012	B.12	54.778875	54.838875		to	to
sw2657B-ms98-a-0012	B.12	54.838875	55.238875		college	college
sw2657B-ms98-a-0012	B.12	55.238875	55.368875		and	and
sw2657B-ms98-a-0012	B.12	55.368875	55.478875		then	then
sw2657B-ms98-a-0012	B.12	55.478875	55.848875		started	started
sw2657B-ms98-a-0012	B.12	55.848875	56.238875		working	working
sw2657B-ms98-a-0012	B.12	56.238875	56.428875		and	and
sw2657B-ms98-a-0012	B.12	56.428875	56.708875		then	then
sw2657B-ms98-a-0012	B.12	56.708875	57.378875		[silence]	[silence]
sw2657B-ms98-a-0012	B.12	57.378875	57.618875		got	got
sw2657B-ms98-a-0012	B.12	57.618875	58.138875		married	married
sw2657B-ms98-a-0012	B.12	58.138875	58.438875		and	and
sw2657B-ms98-a-0012	B.14	58.438875	58.988250		[silence]	[silence]
sw2657B-ms98-a-0013	B.14	58.988250	59.836625		[silence]	[silence]
sw2657B-ms98-a-0013	B.14	59.836625	60.913875		[vocalized-noise]	[vocalized-noise]
sw2657B-ms98-a-0013	B.14	60.913875	61.836750		[silence]	[silence]
sw2657B-ms98-a-0014	B.14	61.836750	83.010000		[silence]	[silence]
sw2657B-ms98-a-0015	B.14	83.010000	84.170000		[silence]	[silence]
sw2657B-ms98-a-0015	B.14	84.170000	84.310000		No	no
sw2657B-ms98-a-0015	B.14	84.310000	84.360000		I	i
sw2657B-ms98-a-0015	B.14	84.360000	84.600000		haven't	haven't
sw2657B-ms98-a-0015	B.14	84.600000	84.660000		I	i
sw2657B-ms98-a-0015	B.14	84.660000	84.980000		know	know
sw2657B-ms98-a-0015	B.14	84.980000	85.200000		that	that
sw2657B-ms98-a-0015	B.14	85.200000	85.430000		uh	uh
sw2657B-ms98-a-0015	B.14	85.430000	85.894875		[silence]	[silence]
sw2657B-ms98-a-0015	B.14	85.894875	86.045625		my	my
sw2657B-ms98-a-0015	B.14	86.045625	86.540000		sister	sister
sw2657B-ms98-a-0015	B.14	86.540000	86.570000		I	i
sw2657B-ms98-a-0015	B.14	86.570000	86.720000		have	have
sw2657B-ms98-a-0015	B.14	86.720000	86.790000		a	a
sw2657B-ms98-a-0015	B.14	86.790000	87.050000		twin	twin
sw2657B-ms98-a-0015	B.14	87.050000	87.410000		sister	sister
sw2657B-ms98-a-0015	B.14	87.410000	87.520000		and	and
sw2657B-ms98-a-0015	B.14	87.520000	87.630000		when	when
sw2657B-ms98-a-0015	B.14	87.630000	87.800000	<SUB>	they	she
sw2657B-ms98-a-0015	B.14	87.800000	88.430000		graduated	graduated
sw2657B-ms98-a-0015	B.14	88.430000	88.600000		she	she
sw2657B-ms98-a-0015	B.14	88.600000	88.930000		went	went
sw2657B-ms98-a-0015	B.14	88.930000	89.310000		to	to
sw2657B-ms98-a-0015	B.14	89.310000	89.310000	<INS>	uh	---
sw2657B-ms98-a-0015	B.14	89.310000	89.800000		[silence]	[silence]
sw2657B-ms98-a-0015	B.14	89.800000	90.110000		teach	teach
sw2657B-ms98-a-0015	B.14	90.110000	90.200000		in	in
sw2657B-ms98-a-0015	B.14	90.200000	90.230000		a	a
sw2657B-ms98-a-0015	B.14	90.230000	90.524500		small	small
sw2657B-ms98-a-0015	B.14	90.524500	90.965250		town	town
sw2657B-ms98-a-0015	B.14	90.965250	91.190000		down	down
sw2657B-ms98-a-0015	B.14	91.190000	91.260000		in	in
sw2657B-ms98-a-0015	B.14	91.260000	91.510000		south	south
sw2657B-ms98-a-0015	B.14	91.510000	91.940000		Texas	Texas
sw2657B-ms98-a-0015	B.14	91.940000	92.050000		and	and
sw2657B-ms98-a-0015	B.14	92.050000	92.120000		I	i
sw2657B-ms98-a-0015	B.14	92.120000	92.360000		know	know
sw2657B-ms98-a-0015	B.14	92.360000	92.600000		that	that
sw2657B-ms98-a-0015	B.14	92.600000	92.670000		[silence]	[silence]
sw2657B-ms98-a-0015	B.14	92.670000	92.910000		like	like
sw2657B-ms98-a-0015	B.14	92.910000	93.000000		if	if
sw2657B-ms98-a-0015	B.14	93.000000	93.090000		you	you
sw2657B-ms98-a-0015	B.14	93.090000	93.240000		have	have
sw2657B-ms98-a-0015	B.14	93.240000	93.770000		college	college
sw2657B-ms98-a-0015	B.14	93.770000	94.180000		notes	notes
sw2657B-ms98-a-0015	B.14	94.180000	94.330000		if	if
sw2657B-ms98-a-0015	B.14	94.330000	94.450000		you	you
sw2657B-ms98-a-0015	B.14	94.450000	94.860000		teach	teach
sw2657B-ms98-a-0015	B.14	94.860000	95.120000		in	in
sw2657B-ms98-a-0015	B.14	95.120000	95.351375		[silence]	[silence]
sw2657B-ms98-a-0016	B.14	95.351375	95.670000		[silence]	[silence]
sw2657B-ms98-a-0016	B.14	95.670000	95.885125		a	a
sw2657B-ms98-a-0016	B.14	95.885125	96.171375		lower	lower
sw2657B-ms98-a-0016	B.14	96.171375	96.511375		income	income
sw2657B-ms98-a-0016	B.14	96.511375	96.851375		bracket	bracket
sw2657B-ms98-a-0016	B.14	96.851375	96.971375		where	where
sw2657B-ms98-a-0016	B.14	96.971375	97.071375		they	they
sw2657B-ms98-a-0016	B.14	97.071375	97.281375		don't	don't
sw2657B-ms98-a-0016	B.14	97.281375	97.561375		pay	pay
sw2657B-ms98-a-0016	B.14	97.561375	97.711375		as	as
sw2657B-ms98-a-0016	B.14	97.711375	98.061375		much	much
sw2657B-ms98-a-0016	B.14	98.061375	98.261375		and	and
sw2657B-ms98-a-0016	B.14	98.261375	98.421375		they	they
sw2657B-ms98-a-0016	B.14	98.421375	98.871375		cancel	cancel
sw2657B-ms98-a-0016	B.14	98.871375	99.111375		part	part
sw2657B-ms98-a-0016	B.14	99.111375	99.261375		of	of
sw2657B-ms98-a-0016	B.14	99.261375	99.521375		your	your
sw2657B-ms98-a-0016	B.14	99.521375	100.201375		[silence]	[silence]
sw2657B-ms98-a-0016	B.14	100.201375	100.261375		you	you
sw2657B-ms98-a-0016	B.14	100.261375	100.361375		know	know
sw2657B-ms98-a-0016	B.14	100.361375	100.471375		your	your
sw2657B-ms98-a-0016	B.14	100.471375	100.911375		college	college
sw2657B-ms98-a-0016	B.14	100.911375	101.151375		note	note
sw2657B-ms98-a-0016	B.14	101.151375	101.281375		or	or
sw2657B-ms98-a-0016	B.14	101.281375	101.791375		whatever	whatever
sw2657B-ms98-a-0016	B.16	101.791375	102.035750		[silence]	[silence]
sw2657B-ms98-a-0017	B.16	102.035750	102.825750		[silence]	[silence]
sw2657B-ms98-a-0017	B.16	102.825750	103.265750	<SUB>	Uh-huh	um-hum
sw2657B-ms98-a-0017	B.16	103.265750	103.496250		[silence]	[silence]
sw2657B-ms98-a-0018	B.16	103.496250	104.316250		[silence]	[silence]
sw2657B-ms98-a-0018	B.16	104.316250	104.496250		If	if
sw2657B-ms98-a-0018	B.16	104.496250	104.666250		it's	it's
sw2657B-ms98-a-0018	B.16	104.666250	104.975000		like	like
sw2657B-ms98-a-0018	B.16	104.975000	105.355375		[silence]	[silence]
sw2657B-ms98-a-0018	B.16	105.355375	105.466250		you	you
sw2657B-ms98-a-0018	B.16	105.466250	105.736250		know	know
sw2657B-ms98-a-0018	B.16	105.736250	106.376250		[silence]	[silence]
sw2657B-ms98-a-0018	B.16	106.376250	106.746250		really	really
sw2657B-ms98-a-0018	B.16	106.746250	106.886250		a	a
sw2657B-ms98-a-0018	B.16	106.886250	107.476250		[silence]	[silence]
sw2657B-ms98-a-0018	B.16	107.476250	107.576250		you	you
sw2657B-ms98-a-0018	B.16	107.576250	107.756250		know	know
sw2657B-ms98-a-0018	B.16	107.756250	107.816250		a	a
sw2657B-ms98-a-0018	B.16	107.816250	108.096250		lower	lower
sw2657B-ms98-a-0018	B.16	108.096250	108.426250		paying	paying
sw2657B-ms98-a-0018	B.16	108.426250	108.806250		job	job
sw2657B-ms98-a-0018	B.16	108.806250	108.886250		you	you
sw2657B-ms98-a-0018	B.16	108.886250	109.226250		know	know
sw2657B-ms98-a-0018	B.16	109.226250	109.396250		where	where
sw2657B-ms98-a-0018	B.16	109.396250	109.526250		in	in
sw2657B-ms98-a-0018	B.16	109.526250	109.586250		a	a
sw2657B-ms98-a-0018	B.16	109.586250	109.806250		small	small
sw2657B-ms98-a-0018	B.16	109.806250	110.116250		town	town
sw2657B-ms98-a-0018	B.16	110.116250	110.216250		you	you
sw2657B-ms98-a-0018	B.16	110.216250	110.486250		don't	don't
sw2657B-ms98-a-0018	B.16	110.486250	110.846250		[silence]	[silence]
sw2657B-ms98-a-0018	B.16	110.846250	111.286250		obviously	obviously
sw2657B-ms98-a-0018	B.16	111.286250	111.346250		you	you
sw2657B-ms98-a-0018	B.16	111.346250	111.546250		don't	don't
sw2657B-ms98-a-0018	B.16	111.546250	111.746250		need	need
sw2657B-ms98-a-0018	B.16	111.746250	111.896250		as	as
sw2657B-ms98-a-0018	B.16	111.896250	112.176250		much	much
sw2657B-ms98-a-0018	B.16	112.176250	112.306250		as	as
sw2657B-ms98-a-0018	B.16	112.306250	112.526250		far	far
sw2657B-ms98-a-0018	B.16	112.526250	112.646250		as	as
sw2657B-ms98-a-0018	B.16	112.646250	113.086250		[silence]	[silence]
sw2657B-ms98-a-0018	B.16	113.086250	113.548250		to	to
sw2657B-ms98-a-0018	B.16	113.548250	114.105625		[silence]	[silence]
sw2657B-ms98-a-0018	B.16	114.105625	114.226250		you	you
sw2657B-ms98-a-0018	B.16	114.226250	114.346250		know	know
sw2657B-ms98-a-0018	B.16	114.346250	114.516250		to	to
sw2657B-ms98-a-0018	B.16	114.516250	115.156250		live	live
sw2657B-ms98-a-0018	B.18	115.156250	115.260250		[silence]	[silence]
sw2657B-ms98-a-0019	B.18	115.260250	118.226000		[silence]	[silence]
sw2657B-ms98-a-0020	B.18	118.226000	118.646000		[silence]	[silence]
sw2657B-ms98-a-0020	B.18	118.646000	118.836000		Yeah	yeah
sw2657B-ms98-a-0020	B.18	118.836000	118.946000		she	she
sw2657B-ms98-a-0020	B.18	118.946000	119.076000		only	only
sw2657B-ms98-a-0020	B.18	119.076000	119.276000		taught	taught
sw2657B-ms98-a-0020	B.18	119.276000	119.406000		there	there
sw2657B-ms98-a-0020	B.18	119.406000	119.606000		one	one
sw2657B-ms98-a-0020	B.18	119.606000	119.926000		year	year
sw2657B-ms98-a-0020	B.18	119.926000	120.306000		but	but
sw2657B-ms98-a-0020	B.18	120.306000	120.446000		I	i
sw2657B-ms98-a-0020	B.20	120.446000	120.582625		[silence]	[silence]
sw2657B-ms98-a-0021	B.20	120.582625	121.458875		[silence]	[silence]
sw2657B-ms98-a-0022	B.20	121.458875	121.948875		[silence]	[silence]
sw2657B-ms98-a-0022	B.20	121.948875	122.398875	<SUB>	Uh-huh	um-hum
sw2657B-ms98-a-0022	B.22	122.398875	122.695250		[silence]	[silence]
sw2657B-ms98-a-0023	B.22	122.695250	123.995125		[silence]	[silence]
sw2657B-ms98-a-0024	B.22	123.995125	124.585125		[silence]	[silence]
sw2657B-ms98-a-0024	B.22	124.585125	124.945125		And	and
sw2657B-ms98-a-0024	B.22	124.945125	125.289750		um	um
sw2657B-ms98-a-0024	B.22	125.289750	125.704000		[silence]	[silence]
sw2657B-ms98-a-0024	B.22	125.704000	125.905125		I	i
sw2657B-ms98-a-0024	B.22	125.905125	126.115125		think	think
sw2657B-ms98-a-0024	B.22	126.115125	126.175125		it	it
sw2657B-ms98-a-0024	B.22	126.175125	126.304000		would	would
sw2657B-ms98-a-0024	B.22	126.304000	126.526625		be	be
sw2657B-ms98-a-0024	B.22	126.526625	126.666000		I	i
sw2657B-ms98-a-0024	B.22	126.666000	126.925125		know	know
sw2657B-ms98-a-0024	B.22	126.925125	127.225125		that	that
sw2657B-ms98-a-0024	B.22	127.225125	127.505125		also	also
sw2657B-ms98-a-0024	B.22	127.505125	127.615125		one	one
sw2657B-ms98-a-0024	B.22	127.615125	127.685125		of	of
sw2657B-ms98-a-0024	B.22	127.685125	127.798250		my	my
sw2657B-ms98-a-0024	B.22	127.798250	128.333125		cousins	cousins
sw2657B-ms98-a-0024	B.22	128.333125	128.605125		who	who
sw2657B-ms98-a-0024	B.22	128.605125	128.894375		uh	uh
sw2657B-ms98-a-0024	B.22	128.894375	129.327500		[silence]	[silence]
sw2657B-ms98-a-0024	B.22	129.327500	129.565125		he	he
sw2657B-ms98-a-0024	B.22	129.565125	129.735125		is	is
sw2657B-ms98-a-0024	B.22	129.735125	129.935125		in	in
sw2657B-ms98-a-0024	B.22	129.935125	130.125125		like	like
sw2657B-ms98-a-0024	B.22	130.125125	130.195125		[silence]	[silence]
sw2657B-ms98-a-0024	B.22	130.195125	130.418000		the	the
sw2657B-ms98-a-0024	B.22	130.418000	130.542375		[silence]	[silence]
sw2657B-ms98-a-0024	B.22	130.542375	131.015125		therapy	therapy
sw2657B-ms98-a-0024	B.22	131.015125	131.415125		type	type
sw2657B-ms98-a-0024	B.22	131.415125	131.555125		thing	thing
sw2657B-ms98-a-0024	B.22	131.555125	131.805125		and	and
sw2657B-ms98-a-0024	B.22	131.805125	132.015125	<DEL>	---	and
sw2657B-ms98-a-0024	B.22	132.015125	132.155125		he	he
sw2657B-ms98-a-0024	B.22	132.155125	132.455125		was	was
sw2657B-ms98-a-0024	B.22	132.455125	132.775125		um	um
sw2657B-ms98-a-0024	B.22	132.775125	132.966375		[silence]	[silence]
sw2657B-ms98-a-0025	B.22	132.966375	133.486375		[silence]	[silence]
sw2657B-ms98-a-0025	B.22	133.486375	133.716375		some	some
sw2657B-ms98-a-0025	B.22	133.716375	133.956375		group	group
sw2657B-ms98-a-0025	B.22	133.956375	134.166375		paid	paid
sw2657B-ms98-a-0025	B.22	134.166375	134.446375		part	part
sw2657B-ms98-a-0025	B.22	134.446375	134.536375		of	of
sw2657B-ms98-a-0025	B.22	134.536375	135.086375		his	his
sw2657B-ms98-a-0025	B.22	135.086375	135.583875		college	college
sw2657B-ms98-a-0025	B.22	135.583875	135.916375		[silence]	[silence]
sw2657B-ms98-a-0025	B.22	135.916375	136.256375		income	income
sw2657B-ms98-a-0025	B.22	136.256375	136.406375		but	but
sw2657B-ms98-a-0025	B.22	136.406375	136.536375		then	then
sw2657B-ms98-a-0025	B.22	136.536375	136.616375		he	he
sw2657B-ms98-a-0025	B.22	136.616375	136.786375		was	was
sw2657B-ms98-a-0025	B.22	136.786375	137.186375		required	required
sw2657B-ms98-a-0025	B.22	137.186375	137.256375		to	to
sw2657B-ms98-a-0025	B.22	137.256375	137.386375		go	go
sw2657B-ms98-a-0025	B.22	137.386375	137.686375		back	back
sw2657B-ms98-a-0025	B.22	137.686375	137.836375		and	and
sw2657B-ms98-a-0025	B.22	137.836375	138.016375		work	work
sw2657B-ms98-a-0025	B.22	138.016375	138.194250		for	for
sw2657B-ms98-a-0025	B.22	138.194250	138.254500		a	a
sw2657B-ms98-a-0025	B.22	138.254500	138.486375		certain	certain
sw2657B-ms98-a-0025	B.22	138.486375	138.796375		number	number
sw2657B-ms98-a-0025	B.22	138.796375	138.886375		of	of
sw2657B-ms98-a-0025	B.22	138.886375	139.196375		years	years
sw2657B-ms98-a-0025	B.22	139.196375	139.286375		in	in
sw2657B-ms98-a-0025	B.22	139.286375	139.446375		this	this
sw2657B-ms98-a-0025	B.22	139.446375	139.776375		town	town
sw2657B-ms98-a-0025	B.22	139.776375	139.936375		at	at
sw2657B-ms98-a-0025	B.22	139.936375	140.146375		uh	uh
sw2657B-ms98-a-0025	B.22	140.146375	140.492625		[silence]	[silence]
sw2657B-ms98-a-0026	B.22	140.492625	140.802625		[silence]	[silence]
sw2657B-ms98-a-0026	B.22	140.802625	140.953500		uh	uh
sw2657B-ms98-a-0026	B.22	140.953500	141.261375		[silence]	[silence]
sw2657B-ms98-a-0026	B.22	141.261375	141.332375		I	i
sw2657B-ms98-a-0026	B.22	141.332375	141.392625		mean	mean
sw2657B-ms98-a-0026	B.22	141.392625	141.482625		it's	it's
sw2657B-ms98-a-0026	B.22	141.482625	141.542625		a	a
sw2657B-ms98-a-0026	B.22	141.542625	141.892625		nursing	nursing
sw2657B-ms98-a-0026	B.22	141.892625	142.102625		home	home
sw2657B-ms98-a-0026	B.22	142.102625	142.162625		or	or
sw2657B-ms98-a-0026	B.22	142.162625	142.452625		something	something
sw2657B-ms98-a-0026	B.22	142.452625	142.622625		like	like
sw2657B-ms98-a-0026	B.22	142.622625	143.044750		that	that
sw2657B-ms98-a-0026	B.24	143.044750	144.001500		[silence]	[silence]
sw2657B-ms98-a-0026	B.24	144.001500	144.436750		So	so
sw2657B-ms98-a-0026	B.24	144.436750	144.643875		[silence]	[silence]
sw2657B-ms98-a-0026	B.24	144.643875	144.782625		you	you
sw2657B-ms98-a-0026	B.24	144.782625	144.992625		know	know
sw2657B-ms98-a-0026	B.24	144.992625	145.152625		if	if
sw2657B-ms98-a-0026	B.24	145.152625	145.782625		[silence]	[silence]
sw2657B-ms98-a-0026	B.24	145.782625	146.216625	<DEL>	---	if
sw2657B-ms98-a-0026	B.24	146.216625	146.457750		[silence]	[silence]
sw2657B-ms98-a-0026	B.24	146.457750	146.613000		I	i
sw2657B-ms98-a-0026	B.24	146.613000	146.792625		think	think
sw2657B-ms98-a-0026	B.24	146.792625	146.902625	<DEL>	---	that
sw2657B-ms98-a-0026	B.24	146.902625	147.072625		that's	that's
sw2657B-ms98-a-0026	B.24	147.072625	147.102625		a	a
sw2657B-ms98-a-0026	B.24	147.102625	147.312625		good	good
sw2657B-ms98-a-0026	B.24	147.312625	147.572625		way	way
sw2657B-ms98-a-0026	B.24	147.572625	148.042500		for	for
sw2657B-ms98-a-0026	B.24	148.042500	148.462625		[silence]	[silence]
sw2657B-ms98-a-0026	B.24	148.462625	148.822625		people	people
sw2657B-ms98-a-0026	B.24	148.822625	149.237625		to	to
sw2657B-ms98-a-0026	B.24	149.237625	149.562625		[silence]	[silence]
sw2657B-ms98-a-0026	B.24	149.562625	149.652625		you	you
sw2657B-ms98-a-0026	B.24	149.652625	149.742625		know	know
sw2657B-ms98-a-0026	B.24	149.742625	149.982625		maybe	maybe
sw2657B-ms98-a-0026	B.24	149.982625	150.122625		get	get
sw2657B-ms98-a-0026	B.24	150.122625	150.362625		people	people
sw2657B-ms98-a-0026	B.24	150.362625	150.432625		to	to
sw2657B-ms98-a-0026	B.24	150.432625	150.602625		come	come
sw2657B-ms98-a-0026	B.24	150.602625	150.822625		back	back
sw2657B-ms98-a-0026	B.24	150.822625	150.942625		to	to
sw2657B-ms98-a-0026	B.24	150.942625	151.112625		these	these
sw2657B-ms98-a-0026	B.24	151.112625	151.332625		small	small
sw2657B-ms98-a-0026	B.24	151.332625	151.862625		towns	towns
sw2657B-ms98-a-0026	B.24	151.862625	152.022625		to	to
sw2657B-ms98-a-0026	B.24	152.022625	152.627875		work	work
sw2657B-ms98-a-0026	B.24	152.627875	153.046000		[silence]	[silence]
sw2657B-ms98-a-0026	B.24	153.046000	153.292625		by	by
sw2657B-ms98-a-0026	B.24	153.292625	153.862625		helping	helping
sw2657B-ms98-a-0026	B.24	153.862625	154.261250		[silence]	[silence]
sw2657B-ms98-a-0027	B.24	154.261250	154.621250		[silence]	[silence]
sw2657B-ms98-a-0027	B.24	154.621250	154.881250		people	people
sw2657B-ms98-a-0027	B.24	154.881250	155.001250		that	that
sw2657B-ms98-a-0027	B.24	155.001250	155.411250		normally	normally
sw2657B-ms98-a-0027	B.24	155.411250	155.621250		might	might
sw2657B-ms98-a-0027	B.24	155.621250	155.771250		not	not
sw2657B-ms98-a-0027	B.24	155.771250	155.851250		be	be
sw2657B-ms98-a-0027	B.24	155.851250	156.001250		able	able
sw2657B-ms98-a-0027	B.24	156.001250	156.091250		to	to
sw2657B-ms98-a-0027	B.24	156.091250	156.231250		go	go
sw2657B-ms98-a-0027	B.24	156.231250	156.301250		to	to
sw2657B-ms98-a-0027	B.24	156.301250	156.811250		college	college
sw2657B-ms98-a-0027	B.24	156.811250	157.051250		and	and
sw2657B-ms98-a-0027	B.24	157.051250	157.481250		[silence]	[silence]
sw2657B-ms98-a-0027	B.24	157.481250	157.641250		get	get
sw2657B-ms98-a-0027	B.24	157.641250	157.701250		the	the
sw2657B-ms98-a-0027	B.24	157.701250	157.941250		type	type
sw2657B-ms98-a-0027	B.24	157.941250	158.031250		of	of
sw2657B-ms98-a-0027	B.24	158.031250	158.351250		degree	degree
sw2657B-ms98-a-0027	B.24	158.351250	158.521250		they	they
sw2657B-ms98-a-0027	B.24	158.521250	159.151000		want	want
sw2657B-ms98-a-0027	B.26	159.151000	159.335250		[silence]	[silence]
sw2657B-ms98-a-0028	B.26	159.335250	165.990375		[silence]	[silence]
sw2657B-ms98-a-0029	B.26	165.990375	166.590375		[silence]	[silence]
sw2657B-ms98-a-0029	B.26	166.590375	166.939000		Yeah	yeah
sw2657B-ms98-a-0029	B.28	166.939000	167.490125		[silence]	[silence]
sw2657B-ms98-a-0030	B.28	167.490125	174.231125		[silence]	[silence]
sw2657B-ms98-a-0031	B.28	174.231125	174.621125		[silence]	[silence]
sw2657B-ms98-a-0031	B.28	174.621125	174.721125		As	as
sw2657B-ms98-a-0031	B.28	174.721125	174.901125		far	far
sw2657B-ms98-a-0031	B.28	174.901125	175.021125		as	as
sw2657B-ms98-a-0031	B.28	175.021125	175.131125		ge-	ge[tting]-
sw2657B-ms98-a-0031	B.28	175.131125	175.381125		yeah	yeah
sw2657B-ms98-a-0031	B.28	175.381125	175.691125		getting	getting
sw2657B-ms98-a-0031	B.28	175.691125	176.221125		doctors	doctors
sw2657B-ms98-a-0031	B.28	176.221125	176.351125		and	and
sw2657B-ms98-a-0031	B.28	176.351125	176.461125		all	all
sw2657B-ms98-a-0031	B.28	176.461125	176.601125		that	that
sw2657B-ms98-a-0031	B.28	176.601125	176.771125	<DEL>	---	kind
sw2657B-ms98-a-0031	B.28	176.771125	176.851125	<DEL>	---	of
sw2657B-ms98-a-0031	B.28	176.851125	177.151125		stuff	stuff
sw2657B-ms98-a-0031	B.28	177.151125	177.481125		yeah	yeah
sw2657B-ms98-a-0031	B.30	177.481125	177.633500		[silence]	[silence]
sw2657B-ms98-a-0032	B.30	177.633500	185.732000		[silence]	[silence]
sw2657B-ms98-a-0033	B.30	185.732000	186.286000		[silence]	[silence]
sw2657B-ms98-a-0033	B.30	186.286000	186.562000		Yeah	yeah
sw2657B-ms98-a-0033	B.32	186.562000	186.994625		[silence]	[silence]
sw2657B-ms98-a-0034	B.32	186.994625	189.009000		[silence]	[silence]
sw2657B-ms98-a-0035	B.32	189.009000	189.489000		[silence]	[silence]
sw2657B-ms98-a-0035	B.32	189.489000	189.889000	<SUB>	Uh-huh	um-hum
sw2657B-ms98-a-0035	B.34	189.889000	190.225625		[silence]	[silence]
sw2657B-ms98-a-0036	B.34	190.225625	193.752750		[silence]	[silence]
sw2657B-ms98-a-0037	B.34	193.752750	194.162750		[silence]	[silence]
sw2657B-ms98-a-0037	B.34	194.162750	194.542750		Yeah	yeah
sw2657B-ms98-a-0037	B.36	194.542750	194.979875		[silence]	[silence]
sw2657B-ms98-a-0038	B.36	194.979875	202.984875		[silence]	[silence]
sw2657B-ms98-a-0039	B.36	202.984875	203.784875		[silence]	[silence]
sw2657B-ms98-a-0039	B.36	203.784875	203.900250		I	i
sw2657B-ms98-a-0039	B.36	203.900250	204.024875		really	really
sw2657B-ms98-a-0039	B.36	204.024875	204.184875		don't	don't
sw2657B-ms98-a-0039	B.36	204.184875	204.294875		know	know
sw2657B-ms98-a-0039	B.36	204.294875	204.414875		that	that
sw2657B-ms98-a-0039	B.36	204.414875	204.604875		much	much
sw2657B-ms98-a-0039	B.36	204.604875	204.964875		about	about
sw2657B-ms98-a-0039	B.36	204.964875	205.184875		it	it
sw2657B-ms98-a-0039	B.36	205.184875	205.314875		you	you
sw2657B-ms98-a-0039	B.36	205.314875	205.444875		know	know
sw2657B-ms98-a-0039	B.36	205.444875	205.645750		I	i
sw2657B-ms98-a-0039	B.36	205.645750	206.116500		[silence]	[silence]
sw2657B-ms98-a-0039	B.36	206.116500	206.428000		I	i
sw2657B-ms98-a-0039	B.36	206.428000	206.612500		I	i
sw2657B-ms98-a-0039	B.36	206.612500	206.764875		think	think
sw2657B-ms98-a-0039	B.36	206.764875	206.824875		of	of
sw2657B-ms98-a-0039	B.36	206.824875	206.884875		the	the
sw2657B-ms98-a-0039	B.36	206.884875	207.144875		Peace	Peace
sw2657B-ms98-a-0039	B.36	207.144875	207.604875		Corps	Corps
sw2657B-ms98-a-0039	B.36	207.604875	207.734875		you	you
sw2657B-ms98-a-0039	B.36	207.734875	207.964875		know	know
sw2657B-ms98-a-0039	B.36	207.964875	208.094875		[silence]	[silence]
sw2657B-ms98-a-0039	B.36	208.094875	208.364875		more	more
sw2657B-ms98-a-0039	B.36	208.364875	208.624875		like	like
sw2657B-ms98-a-0039	B.36	208.624875	208.734875		the	the
sw2657B-ms98-a-0039	B.36	208.734875	209.374875		sixties	sixties
sw2657B-ms98-a-0039	B.36	209.374875	209.464875		and	and
sw2657B-ms98-a-0039	B.36	209.464875	209.604875		that	that
sw2657B-ms98-a-0039	B.36	209.604875	209.764875		kind	kind
sw2657B-ms98-a-0039	B.36	209.764875	209.824875		of	of
sw2657B-ms98-a-0039	B.36	209.824875	210.234875		stuff	stuff
sw2657B-ms98-a-0039	B.36	210.234875	210.474875		when	when
sw2657B-ms98-a-0039	B.38	210.474875	211.354875		[silence]	[silence]
sw2657B-ms98-a-0039	B.38	211.354875	211.616250	<DEL>	---	but
sw2657B-ms98-a-0039	B.38	211.616250	212.275375		[silence]	[silence]
sw2657B-ms98-a-0039	B.38	212.275375	212.634875		Yeah	yeah
sw2657B-ms98-a-0039	B.38	212.634875	213.384875		[silence]	[silence]
sw2657B-ms98-a-0039	B.38	213.384875	213.574875		And	and
sw2657B-ms98-a-0039	B.38	213.574875	213.684875		[silence]	[silence]
sw2657B-ms98-a-0039	B.38	213.684875	213.854875		don't	don't
sw2657B-ms98-a-0039	B.38	213.854875	213.944875		they	they
sw2657B-ms98-a-0039	B.38	213.944875	214.104875		go	go
sw2657B-ms98-a-0039	B.38	214.104875	214.324875		into	into
sw2657B-ms98-a-0039	B.38	214.324875	214.514875		other	other
sw2657B-ms98-a-0039	B.38	214.514875	215.064875		countries	countries
sw2657B-ms98-a-0039	B.38	215.064875	215.204875		and	and
sw2657B-ms98-a-0039	B.38	215.204875	215.564875		stuff	stuff
sw2657B-ms98-a-0039	B.40	215.564875	215.713125		[silence]	[silence]
sw2657B-ms98-a-0040	B.40	215.713125	221.494625		[silence]	[silence]
sw2657B-ms98-a-0041	B.40	221.494625	221.600500		[silence]	[silence]
sw2657B-ms98-a-0041	B.40	221.600500	222.007125	<SUB>	Uh-huh	um-hum
sw2657B-ms98-a-0041	B.42	222.007125	222.820375		[silence]	[silence]
sw2657B-ms98-a-0042	B.42	222.820375	224.279750		[silence]	[silence]
sw2657B-ms98-a-0043	B.42	224.279750	224.639750		[silence]	[silence]
sw2657B-ms98-a-0043	B.42	224.639750	224.949750		Things	things
sw2657B-ms98-a-0043	B.42	224.949750	225.039750		that	that
sw2657B-ms98-a-0043	B.42	225.039750	225.269750		make	make
sw2657B-ms98-a-0043	B.42	225.269750	225.339750	<SUB>	the	the[m]-
sw2657B-ms98-a-0043	B.42	225.339750	225.699750		yeah	yeah
sw2657B-ms98-a-0043	B.44	225.699750	226.679750		[silence]	[silence]
sw2657B-ms98-a-0043	B.44	226.679750	226.869750		Make	make
sw2657B-ms98-a-0043	B.44	226.869750	226.989750		them	them
sw2657B-ms98-a-0043	B.44	226.989750	227.169750		more	more
sw2657B-ms98-a-0043	B.44	227.169750	228.049750		self-supporting	self-supporting
sw2657B-ms98-a-0043	B.46	228.049750	228.547250		[silence]	[silence]
sw2657B-ms98-a-0043	B.46	228.547250	228.857125		Yeah	yeah
sw2657B-ms98-a-0043	B.48	228.857125	229.191875		[silence]	[silence]
sw2657B-ms98-a-0044	B.48	229.191875	234.795375		[silence]	[silence]
sw2657B-ms98-a-0045	B.48	234.795375	235.225375		[silence]	[silence]
sw2657B-ms98-a-0045	B.48	235.225375	235.625375		Right	right
sw2657B-ms98-a-0045	B.48	235.625375	235.905375		Yeah	yeah
sw2657B-ms98-a-0045	B.50	235.905375	236.315375		[silence]	[silence]
sw2657B-ms98-a-0046	B.50	236.315375	244.802625		[silence]	[silence]
sw2657B-ms98-a-0047	B.50	244.802625	245.282625		[silence]	[silence]
sw2657B-ms98-a-0047	B.50	245.282625	245.402625		But	but
sw2657B-ms98-a-0047	B.50	245.402625	245.512625		it	it
sw2657B-ms98-a-0047	B.50	245.512625	245.922625		definitely	definitely
sw2657B-ms98-a-0047	B.50	245.922625	246.172625		would	would
sw2657B-ms98-a-0047	B.50	246.172625	246.717625		give	give
sw2657B-ms98-a-0047	B.50	246.717625	247.205375		[silence]	[silence]
sw2657B-ms98-a-0048	B.50	247.205375	247.785375		[silence]	[silence]
sw2657B-ms98-a-0048	B.50	247.785375	247.895125		a	a
sw2657B-ms98-a-0048	B.50	247.895125	248.096250		lot	lot
sw2657B-ms98-a-0048	B.50	248.096250	248.245375		of	of
sw2657B-ms98-a-0048	B.50	248.245375	248.402375		the	the
sw2657B-ms98-a-0048	B.50	248.402375	248.967375		[silence]	[silence]
sw2657B-ms98-a-0048	B.50	248.967375	249.255375		kids	kids
sw2657B-ms98-a-0048	B.50	249.255375	249.565375		now	now
sw2657B-ms98-a-0048	B.50	249.565375	249.785375		that	that
sw2657B-ms98-a-0048	B.50	249.785375	250.055375		[silence]	[silence]
sw2657B-ms98-a-0048	B.50	250.055375	250.275375		have	have
sw2657B-ms98-a-0048	B.50	250.275375	250.655375		everything	everything
sw2657B-ms98-a-0048	B.50	250.655375	250.915375		given	given
sw2657B-ms98-a-0048	B.50	250.915375	251.035375		to	to
sw2657B-ms98-a-0048	B.50	251.035375	251.175375		them	them_1
sw2657B-ms98-a-0048	B.50	251.175375	251.315375		that	that
sw2657B-ms98-a-0048	B.50	251.315375	251.435375		they	they
sw2657B-ms98-a-0048	B.50	251.435375	252.005375		want	want
sw2657B-ms98-a-0048	B.50	252.005375	252.195375		to	to
sw2657B-ms98-a-0048	B.50	252.195375	252.665375		see	see
sw2657B-ms98-a-0048	B.50	252.665375	252.975000		[silence]	[silence]
sw2657B-ms98-a-0049	B.50	252.975000	253.395000		[silence]	[silence]
sw2657B-ms98-a-0049	B.50	253.395000	253.615000		what	what
sw2657B-ms98-a-0049	B.50	253.615000	253.835000		it's	it's
sw2657B-ms98-a-0049	B.50	253.835000	254.572000		like	like
sw2657B-ms98-a-0049	B.50	254.572000	255.061750		[silence]	[silence]
sw2657B-ms98-a-0049	B.50	255.061750	255.345000		if	if
sw2657B-ms98-a-0049	B.50	255.345000	255.465000		you	you
sw2657B-ms98-a-0049	B.50	255.465000	255.865000		don't	don't
sw2657B-ms98-a-0049	B.50	255.865000	256.205000		[silence]	[silence]
sw2657B-ms98-a-0049	B.50	256.205000	256.375000		have	have
sw2657B-ms98-a-0049	B.50	256.375000	256.475000		all	all
sw2657B-ms98-a-0049	B.50	256.475000	256.555000		the	the
sw2657B-ms98-a-0049	B.50	256.555000	257.008625		money	money
sw2657B-ms98-a-0049	B.50	257.008625	257.325000		[silence]	[silence]
sw2657B-ms98-a-0049	B.50	257.325000	257.575000		and	and
sw2657B-ms98-a-0049	B.50	257.575000	257.885000		can't	can't
sw2657B-ms98-a-0049	B.50	257.885000	258.255000		have	have
sw2657B-ms98-a-0049	B.50	258.255000	258.445000		what	what
sw2657B-ms98-a-0049	B.50	258.445000	258.555000		you	you
sw2657B-ms98-a-0049	B.50	258.555000	258.915000		want	want
sw2657B-ms98-a-0049	B.50	258.915000	259.175000		[silence]	[silence]
sw2657B-ms98-a-0049	B.50	259.175000	259.335000		when	when
sw2657B-ms98-a-0049	B.50	259.335000	259.415000		you	you
sw2657B-ms98-a-0049	B.50	259.415000	259.695000		want	want
sw2657B-ms98-a-0049	B.50	259.695000	260.004250		it	it
sw2657B-ms98-a-0049	B.52	260.004250	260.225375		[silence]	[silence]
sw2657B-ms98-a-0050	B.52	260.225375	271.739875		[silence]	[silence]
sw2657B-ms98-a-0051	B.52	271.739875	272.229875		[silence]	[silence]
sw2657B-ms98-a-0051	B.52	272.229875	272.628125	<SUB>	Uh-huh	um-hum
sw2657B-ms98-a-0051	B.54	272.628125	273.263500		[silence]	[silence]
sw2657B-ms98-a-0052	B.54	273.263500	282.485125		[silence]	[silence]
sw2657B-ms98-a-0053	B.54	282.485125	283.005125		[silence]	[silence]
sw2657B-ms98-a-0053	B.54	283.005125	283.315125		Yeah	yeah
sw2657B-ms98-a-0053	B.56	283.315125	283.740375		[silence]	[silence]
sw2657B-ms98-a-0054	B.56	283.740375	284.670500		[silence]	[silence]
sw2657B-ms98-a-0054	B.56	284.670500	284.793250		I	i
sw2657B-ms98-a-0054	B.56	284.793250	284.940375		don't	don't
sw2657B-ms98-a-0054	B.56	284.940375	285.032000		I	i
sw2657B-ms98-a-0054	B.56	285.032000	285.170375		don't	don't
sw2657B-ms98-a-0054	B.56	285.170375	285.310375		know	know
sw2657B-ms98-a-0054	B.56	285.310375	285.450375		that	that
sw2657B-ms98-a-0054	B.56	285.450375	285.530375		you	you
sw2657B-ms98-a-0054	B.56	285.530375	285.810375		could	could
sw2657B-ms98-a-0054	B.56	285.810375	286.140375		[silence]	[silence]
sw2657B-ms98-a-0054	B.56	286.140375	286.720375		require	require
sw2657B-ms98-a-0054	B.56	286.720375	287.440375		everyone	everyone
sw2657B-ms98-a-0054	B.56	287.440375	287.616750		to	to
sw2657B-ms98-a-0054	B.58	287.616750	288.481500		[silence]	[silence]
sw2657B-ms98-a-0054	B.58	288.481500	288.541750	<DEL>	---	to
sw2657B-ms98-a-0054	B.58	288.541750	288.620375		do	do
sw2657B-ms98-a-0054	B.58	288.620375	289.000375		that	that
sw2657B-ms98-a-0054	B.58	289.000375	289.190375		for	for
sw2657B-ms98-a-0054	B.58	289.190375	289.490375		yeah	yeah
sw2657B-ms98-a-0054	B.60	289.490375	289.640375		to	to
sw2657B-ms98-a-0054	B.60	289.640375	289.820375		do	do
sw2657B-ms98-a-0054	B.60	289.820375	290.040375		it	it
sw2657B-ms98-a-0054	B.60	290.040375	290.190375		for	for
sw2657B-ms98-a-0054	B.60	290.190375	290.240375		a	a
sw2657B-ms98-a-0054	B.60	290.240375	290.570375		whole	whole
sw2657B-ms98-a-0054	B.60	290.570375	291.130375		year	year
sw2657B-ms98-a-0054	B.62	291.130375	291.340375		or	or
sw2657B-ms98-a-0054	B.62	291.340375	291.630375		two	two
sw2657B-ms98-a-0054	B.62	291.630375	291.940375		years	years
sw2657B-ms98-a-0054	B.62	291.940375	292.000375		or	or
sw2657B-ms98-a-0054	B.62	292.000375	292.280375		something	something
sw2657B-ms98-a-0054	B.62	292.280375	292.440375		like	like
sw2657B-ms98-a-0054	B.62	292.440375	292.610375		that	that
sw2657B-ms98-a-0054	B.62	292.610375	292.770375		I	i
sw2657B-ms98-a-0054	B.62	292.770375	292.980375		don't	don't
sw2657B-ms98-a-0054	B.62	292.980375	293.090375		know	know
sw2657B-ms98-a-0054	B.62	293.090375	293.230375		that	that
sw2657B-ms98-a-0054	B.62	293.230375	293.420375		that	that
sw2657B-ms98-a-0054	B.62	293.420375	293.570375		would	would
sw2657B-ms98-a-0054	B.62	293.570375	293.900375		work	work
sw2657B-ms98-a-0054	B.62	293.900375	294.208875		if	if
sw2657B-ms98-a-0054	B.64	294.208875	294.807750		[silence]	[silence]
sw2657B-ms98-a-0054	B.64	294.807750	294.990375	<DEL>	---	if
sw2657B-ms98-a-0054	B.64	294.990375	295.571125		somebody's	somebody's
sw2657B-ms98-a-0054	B.64	295.571125	295.996375		[silence]	[silence]
sw2657B-ms98-a-0055	B.64	295.996375	296.516375		[silence]	[silence]
sw2657B-ms98-a-0055	B.64	296.516375	296.816375		was	was
sw2657B-ms98-a-0055	B.64	296.816375	296.906375		[silence]	[silence]
sw2657B-ms98-a-0055	B.64	296.906375	297.156375		didn't	didn't
sw2657B-ms98-a-0055	B.64	297.156375	297.336375		really	really
sw2657B-ms98-a-0055	B.64	297.336375	297.506375		want	want
sw2657B-ms98-a-0055	B.64	297.506375	297.596375		to	to
sw2657B-ms98-a-0055	B.64	297.596375	297.796375		be	be
sw2657B-ms98-a-0055	B.64	297.796375	298.146375		there	there
sw2657B-ms98-a-0055	B.64	298.146375	298.426375		and	and
sw2657B-ms98-a-0055	B.64	298.426375	298.927000		[silence]	[silence]
sw2657B-ms98-a-0056	B.64	298.927000	299.397000		[silence]	[silence]
sw2657B-ms98-a-0056	B.64	299.397000	299.677000		didn't	didn't
sw2657B-ms98-a-0056	B.64	299.677000	300.067000		have	have
sw2657B-ms98-a-0056	B.66	300.067000	300.987000		[silence]	[silence]
sw2657B-ms98-a-0056	B.66	300.987000	301.227000		Yeah	yeah
sw2657B-ms98-a-0056	B.66	301.227000	301.467000		[silence]	[silence]
sw2657B-ms98-a-0056	B.66	301.467000	301.559875		I	i
sw2657B-ms98-a-0056	B.66	301.559875	301.727000		mean	mean
sw2657B-ms98-a-0056	B.66	301.727000	301.877000	<CONT>	there	there'd
sw2657B-ms98-a-0056	B.66	301.877000	301.877000	<CONT>	would	+++
sw2657B-ms98-a-0056	B.66	301.877000	302.117000		be	be
sw2657B-ms98-a-0056	B.66	302.117000	302.287000		[silence]	[silence]
sw2657B-ms98-a-0056	B.66	302.287000	302.747000		loopholes	loopholes
sw2657B-ms98-a-0056	B.66	302.747000	302.907000		just	just
sw2657B-ms98-a-0056	B.66	302.907000	303.097000		like	like
sw2657B-ms98-a-0056	B.66	303.097000	303.227000		there	there
sw2657B-ms98-a-0056	B.66	303.227000	303.337000		is	is
sw2657B-ms98-a-0056	B.66	303.337000	303.427000		in	in
sw2657B-ms98-a-0056	B.66	303.427000	303.747000		anything	anything
sw2657B-ms98-a-0056	B.66	303.747000	304.695750		else	[laughter-else]
sw2657B-ms98-a-0056	B.68	304.695750	305.900000		[silence]	[silence]
sw2657B-ms98-a-0057	B.68	305.900000	349.292375		[silence]	[silence]
sw2657B-ms98-a-0058	B.68	349.292375	349.852375		[silence]	[silence]
sw2657B-ms98-a-0058	B.68	349.852375	350.182375		Yeah	yeah
sw2657B-ms98-a-0058	B.70	350.182375	350.686625		[silence]	[silence]
sw2657B-ms98-a-0059	B.70	350.686625	352.364250		[silence]	[silence]
sw2657B-ms98-a-0060	B.70	352.364250	352.839250		[silence]	[silence]
sw2657B-ms98-a-0060	B.70	352.839250	353.234250		Yeah	yeah
sw2657B-ms98-a-0060	B.72	353.234250	353.990875		[silence]	[silence]
sw2657B-ms98-a-0061	B.72	353.990875	369.741250		[silence]	[silence]
sw2657B-ms98-a-0062	B.72	369.741250	370.321250		[silence]	[silence]
sw2657B-ms98-a-0062	B.72	370.321250	370.791250	<SUB>	Uh-huh	um-hum
sw2657B-ms98-a-0062	B.74	370.791250	371.487250		[silence]	[silence]
sw2657B-ms98-a-0063	B.74	371.487250	381.984125		[silence]	[silence]
sw2657B-ms98-a-0064	B.74	381.984125	382.134125		[silence]	[silence]
sw2657B-ms98-a-0064	B.74	382.134125	382.564125	<SUB>	Uh-huh	um-hum
sw2657B-ms98-a-0064	B.76	382.564125	383.733625		[silence]	[silence]
sw2657B-ms98-a-0065	B.76	383.733625	404.453875		[silence]	[silence]
sw2657B-ms98-a-0066	B.76	404.453875	404.773875		[silence]	[silence]
sw2657B-ms98-a-0066	B.76	404.773875	405.123875		Right	right
sw2657B-ms98-a-0066	B.76	405.123875	405.393875		yeah	yeah
sw2657B-ms98-a-0066	B.78	405.393875	405.818375		[silence]	[silence]
sw2657B-ms98-a-0067	B.78	405.818375	409.995750		[silence]	[silence]
sw2657B-ms98-a-0068	B.78	409.995750	410.675750		[silence]	[silence]
sw2657B-ms98-a-0068	B.78	410.675750	410.985000		Yeah	yeah
sw2657B-ms98-a-0068	B.78	410.985000	411.369000		[silence]	[silence]
sw2657B-ms98-a-0068	B.78	411.369000	411.715750	<SUB>	uh-huh	um-hum
sw2657B-ms98-a-0068	B.80	411.715750	411.986000		[silence]	[silence]
sw2657B-ms98-a-0069	B.80	411.986000	434.453125		[silence]	[silence]
sw2657B-ms98-a-0070	B.80	434.453125	434.903125		[silence]	[silence]
sw2657B-ms98-a-0070	B.80	434.903125	435.293125		Yeah	yeah
sw2657B-ms98-a-0070	B.82	435.293125	435.508250		[silence]	[silence]
sw2657B-ms98-a-0071	B.82	435.508250	440.764000		[silence]	[silence]
sw2657B-ms98-a-0072	B.82	440.764000	441.224000		[silence]	[silence]
sw2657B-ms98-a-0072	B.82	441.224000	441.554000		Yeah	yeah
sw2657B-ms98-a-0072	B.84	441.554000	441.783375	<DEL>	---	real[ly]-
sw2657B-ms98-a-0072	B.84	441.783375	441.997750		[silence]	[silence]
sw2657B-ms98-a-0073	B.84	441.997750	447.986625		[silence]	[silence]
sw2657B-ms98-a-0074	B.84	447.986625	448.646625		[silence]	[silence]
sw2657B-ms98-a-0074	B.84	448.646625	449.016625		Yeah	yeah
sw2657B-ms98-a-0074	B.86	449.016625	449.309625		[silence]	[silence]
sw2657B-ms98-a-0075	B.86	449.309625	450.374125		[silence]	[silence]
sw2657B-ms98-a-0076	B.86	450.374125	450.714125		[silence]	[silence]
sw2657B-ms98-a-0076	B.86	450.714125	451.064125		Well	well
sw2657B-ms98-a-0076	B.88	451.064125	451.995000		[silence]	[silence]
sw2657B-ms98-a-0077	B.88	451.995000	452.565000		[silence]	[silence]
sw2657B-ms98-a-0077	B.88	452.565000	452.725000	<SUB>	Down	and
sw2657B-ms98-a-0077	B.88	452.725000	452.825000		here	here
sw2657B-ms98-a-0077	B.88	452.825000	452.925000		with	with
sw2657B-ms98-a-0077	B.88	452.925000	452.985000		the	the
sw2657B-ms98-a-0077	B.88	452.985000	453.155000		Peace	Peace
sw2657B-ms98-a-0077	B.88	453.155000	453.325000		Corps	Corps
sw2657B-ms98-a-0077	B.88	453.325000	453.415000		we're	we're
sw2657B-ms98-a-0077	B.88	453.415000	453.635000		talking	talking
sw2657B-ms98-a-0077	B.88	453.635000	453.925000		about	about
sw2657B-ms98-a-0077	B.88	453.925000	454.045000		all	all
sw2657B-ms98-a-0077	B.88	454.045000	454.155000		these	these
sw2657B-ms98-a-0077	B.88	454.155000	454.495000		people	people
sw2657B-ms98-a-0077	B.88	454.495000	454.805000		that	that
sw2657B-ms98-a-0077	B.88	454.805000	454.995000		[silence]	[silence]
sw2657B-ms98-a-0077	B.88	454.995000	455.145000		aren't	aren't
sw2657B-ms98-a-0077	B.88	455.145000	455.335000		even	even
sw2657B-ms98-a-0077	B.88	455.335000	455.425000		in	in
sw2657B-ms98-a-0077	B.88	455.425000	455.545000		our	our
sw2657B-ms98-a-0077	B.88	455.545000	455.675000		own	own
sw2657B-ms98-a-0077	B.88	455.675000	456.095000		country	country
sw2657B-ms98-a-0077	B.88	456.095000	456.245000		when	when
sw2657B-ms98-a-0077	B.88	456.245000	456.475000		there's	there's
sw2657B-ms98-a-0077	B.88	456.475000	456.695000		enough	enough
sw2657B-ms98-a-0077	B.88	456.695000	457.152250		people	people
sw2657B-ms98-a-0077	B.88	457.152250	457.559000		[silence]	[silence]
sw2657B-ms98-a-0077	B.88	457.559000	457.825000		here	here
sw2657B-ms98-a-0077	B.88	457.825000	457.955000		that	that
sw2657B-ms98-a-0077	B.88	457.955000	458.045000		I	i
sw2657B-ms98-a-0077	B.88	458.045000	458.305000		think	think
sw2657B-ms98-a-0077	B.88	458.305000	458.745000		probably	probably
sw2657B-ms98-a-0077	B.88	458.745000	458.975000		need	need
sw2657B-ms98-a-0077	B.88	458.975000	459.285000		help	help
sw2657B-ms98-a-0077	B.88	459.285000	459.535000		and	and
sw2657B-ms98-a-0077	B.90	459.535000	460.125000		[silence]	[silence]
sw2657B-ms98-a-0077	B.90	460.125000	460.365000		could	could
sw2657B-ms98-a-0077	B.90	460.365000	460.585000		be	be
sw2657B-ms98-a-0077	B.90	460.585000	461.078750		helped	helped
sw2657B-ms98-a-0077	B.92	461.078750	461.487000		[silence]	[silence]
sw2657B-ms98-a-0078	B.92	461.487000	464.990625		[silence]	[silence]
sw2657B-ms98-a-0079	B.92	464.990625	465.640625		[silence]	[silence]
sw2657B-ms98-a-0079	B.92	465.640625	466.020625		Yeah	yeah
sw2657B-ms98-a-0079	B.94	466.020625	466.492375		[silence]	[silence]
sw2657B-ms98-a-0080	B.94	466.492375	469.786875		[silence]	[silence]
sw2657B-ms98-a-0081	B.94	469.786875	470.496875		[silence]	[silence]
sw2657B-ms98-a-0081	B.94	470.496875	470.616875		And	and
sw2657B-ms98-a-0081	B.94	470.616875	470.926875		maybe	maybe
sw2657B-ms98-a-0081	B.94	470.926875	471.236875		rather	rather
sw2657B-ms98-a-0081	B.94	471.236875	471.466875		than	than
sw2657B-ms98-a-0081	B.94	471.466875	471.748000		just	just
sw2657B-ms98-a-0081	B.94	471.748000	471.962625		[silence]	[silence]
sw2657B-ms98-a-0081	B.94	471.962625	472.496875		require	require
sw2657B-ms98-a-0081	B.94	472.496875	472.766875		somebody	somebody
sw2657B-ms98-a-0081	B.94	472.766875	472.886875		to	to
sw2657B-ms98-a-0081	B.94	472.886875	473.126875		join	join
sw2657B-ms98-a-0081	B.94	473.126875	473.286875		like	like
sw2657B-ms98-a-0081	B.94	473.286875	473.346875		the	the
sw2657B-ms98-a-0081	B.94	473.346875	473.546875		Peace	Peace
sw2657B-ms98-a-0081	B.94	473.546875	473.786875		Corps	Corps
sw2657B-ms98-a-0081	B.94	473.786875	473.976875		for	for
sw2657B-ms98-a-0081	B.94	473.976875	474.026875		a	a
sw2657B-ms98-a-0081	B.94	474.026875	474.426875		year	year
sw2657B-ms98-a-0081	B.94	474.426875	474.831125		maybe	maybe
sw2657B-ms98-a-0081	B.94	474.831125	475.479000		[silence]	[silence]
sw2657B-ms98-a-0081	B.94	475.479000	475.836875		like	like
sw2657B-ms98-a-0081	B.94	475.836875	476.216875		um	um
sw2657B-ms98-a-0081	B.94	476.216875	476.616875		[silence]	[silence]
sw2657B-ms98-a-0081	B.94	476.616875	476.866875		during	during
sw2657B-ms98-a-0081	B.94	476.866875	477.416875		college	college
sw2657B-ms98-a-0081	B.94	477.416875	477.486875		you	you
sw2657B-ms98-a-0081	B.94	477.486875	477.626875		know	know
sw2657B-ms98-a-0081	B.94	477.626875	477.876875		maybe	maybe
sw2657B-ms98-a-0081	B.94	477.876875	478.184625		have	have
sw2657B-ms98-a-0081	B.94	478.184625	478.275000		[silence]	[silence]
sw2657B-ms98-a-0081	B.94	478.275000	478.536875		some	some
sw2657B-ms98-a-0081	B.94	478.536875	478.716875		kind	kind
sw2657B-ms98-a-0081	B.94	478.716875	478.796875		of	of
sw2657B-ms98-a-0081	B.94	478.796875	479.226875		course	course
sw2657B-ms98-a-0081	B.94	479.226875	479.346875		where	where
sw2657B-ms98-a-0081	B.94	479.346875	479.516875		they'd	they'd
sw2657B-ms98-a-0081	B.94	479.516875	479.727375		be	be
sw2657B-ms98-a-0081	B.94	479.727375	479.817750		[silence]	[silence]
sw2657B-ms98-a-0081	B.94	479.817750	480.386875		required	required
sw2657B-ms98-a-0081	B.94	480.386875	480.496875		to	to
sw2657B-ms98-a-0081	B.94	480.496875	480.796875		do	do
sw2657B-ms98-a-0081	B.94	480.796875	480.986875		some	some
sw2657B-ms98-a-0081	B.94	480.986875	481.186875		kind	kind
sw2657B-ms98-a-0081	B.94	481.186875	481.257500		of	of
sw2657B-ms98-a-0081	B.94	481.257500	481.773500		community	community
sw2657B-ms98-a-0081	B.94	481.773500	482.146875		service	service
sw2657B-ms98-a-0081	B.94	482.146875	482.446875		type	type
sw2657B-ms98-a-0081	B.94	482.446875	482.796875		work	work
sw2657B-ms98-a-0081	B.94	482.796875	483.096875		and	and
sw2657B-ms98-a-0081	B.94	483.096875	483.253375		[silence]	[silence]
sw2657B-ms98-a-0082	B.94	483.253375	483.793375		[silence]	[silence]
sw2657B-ms98-a-0082	B.94	483.793375	484.093375		help	help
sw2657B-ms98-a-0082	B.94	484.093375	484.553375		people	people
sw2657B-ms98-a-0082	B.94	484.553375	484.643375		in	in
sw2657B-ms98-a-0082	B.94	484.643375	484.833375		that	that
sw2657B-ms98-a-0082	B.94	484.833375	485.343375		area	area
sw2657B-ms98-a-0082	B.94	485.343375	485.643375		or	or
sw2657B-ms98-a-0082	B.94	485.643375	485.713375		[silence]	[silence]
sw2657B-ms98-a-0082	B.94	485.713375	486.023375		people	people
sw2657B-ms98-a-0082	B.94	486.023375	486.103375		in	in
sw2657B-ms98-a-0082	B.94	486.103375	486.163375		the	the
sw2657B-ms98-a-0082	B.94	486.163375	486.493375		United	United
sw2657B-ms98-a-0082	B.94	486.493375	487.191875		States	States
sw2657B-ms98-a-0082	B.96	487.191875	487.691125		[silence]	[silence]
sw2657B-ms98-a-0083	B.96	487.691125	494.208625		[silence]	[silence]
sw2657B-ms98-a-0084	B.96	494.208625	494.858625		[silence]	[silence]
sw2657B-ms98-a-0084	B.96	494.858625	494.998625		There	there
sw2657B-ms98-a-0084	B.96	494.998625	495.448625		probably	probably
sw2657B-ms98-a-0084	B.96	495.448625	495.758625		are	are
sw2657B-ms98-a-0084	B.96	495.758625	495.868625		you	you
sw2657B-ms98-a-0084	B.96	495.868625	496.078625		know	know
sw2657B-ms98-a-0084	B.96	496.078625	496.322000		for	for
sw2657B-ms98-a-0084	B.96	496.322000	496.878625		[silence]	[silence]
sw2657B-ms98-a-0084	B.96	496.878625	497.068625		but	but
sw2657B-ms98-a-0084	B.96	497.068625	497.218625		I'm	i'm
sw2657B-ms98-a-0084	B.96	497.218625	497.468625		sure	sure
sw2657B-ms98-a-0084	B.96	497.468625	497.928625		[silence]	[silence]
sw2657B-ms98-a-0084	B.96	497.928625	498.139500		that's	that's
sw2657B-ms98-a-0084	B.96	498.139500	498.572625		probably	probably
sw2657B-ms98-a-0084	B.96	498.572625	498.898625		like	like
sw2657B-ms98-a-0084	B.96	498.898625	499.198625		people	people
sw2657B-ms98-a-0084	B.96	499.198625	499.378625		that	that
sw2657B-ms98-a-0084	B.96	499.378625	499.838625		[silence]	[silence]
sw2657B-ms98-a-0084	B.96	499.838625	499.988625		do	do
sw2657B-ms98-a-0084	B.96	499.988625	500.190000		that	that
sw2657B-ms98-a-0084	B.96	500.190000	500.325625		are	are
sw2657B-ms98-a-0084	B.96	500.325625	500.458625	<DEL>	---	s[ocial]-
sw2657B-ms98-a-0084	B.96	500.458625	500.518625		are	are
sw2657B-ms98-a-0084	B.96	500.518625	500.578625		the	the
sw2657B-ms98-a-0084	B.96	500.578625	500.968625		people	people
sw2657B-ms98-a-0084	B.96	500.968625	501.128625		that	that
sw2657B-ms98-a-0084	B.96	501.128625	501.218625		are	are
sw2657B-ms98-a-0084	B.96	501.218625	501.378625		going	going
sw2657B-ms98-a-0084	B.96	501.378625	501.468625		to	to
sw2657B-ms98-a-0084	B.96	501.468625	501.608625		go	go
sw2657B-ms98-a-0084	B.96	501.608625	501.778625		into	into
sw2657B-ms98-a-0084	B.96	501.778625	502.108625		social	social
sw2657B-ms98-a-0084	B.96	502.108625	502.298625		work	work
sw2657B-ms98-a-0084	B.96	502.298625	502.398625		and	and
sw2657B-ms98-a-0084	B.96	502.398625	502.668625		stuff	stuff
sw2657B-ms98-a-0084	B.96	502.668625	502.767750		but	but
sw2657B-ms98-a-0084	B.96	502.767750	502.899500		I	i
sw2657B-ms98-a-0084	B.96	502.899500	503.198625		think	think
sw2657B-ms98-a-0084	B.96	503.198625	503.318625		that	that
sw2657B-ms98-a-0084	B.96	503.318625	503.408625		it	it
sw2657B-ms98-a-0084	B.96	503.408625	503.618625		wouldn't	wouldn't
sw2657B-ms98-a-0084	B.96	503.618625	503.888625		really	really
sw2657B-ms98-a-0084	B.96	503.888625	504.245750		be	be
sw2657B-ms98-a-0084	B.96	504.245750	504.733625		[silence]	[silence]
sw2657B-ms98-a-0085	B.96	504.733625	505.363625		[silence]	[silence]
sw2657B-ms98-a-0085	B.96	505.363625	505.633625		half	half
sw2657B-ms98-a-0085	B.96	505.633625	505.923625		bad	bad
sw2657B-ms98-a-0085	B.96	505.923625	506.043625		for	for
sw2657B-ms98-a-0085	B.96	506.043625	506.513625		everybody	everybody
sw2657B-ms98-a-0085	B.96	506.513625	506.803625		not	not
sw2657B-ms98-a-0085	B.96	506.803625	506.913625		to	to
sw2657B-ms98-a-0085	B.96	506.913625	507.053625		do	do
sw2657B-ms98-a-0085	B.96	507.053625	507.563625		something	something
sw2657B-ms98-a-0085	B.96	507.563625	507.693625		you	you
sw2657B-ms98-a-0085	B.96	507.693625	507.873625		know	know
sw2657B-ms98-a-0085	B.96	507.873625	507.983625		and	and
sw2657B-ms98-a-0085	B.96	507.983625	508.383625		realize	realize
sw2657B-ms98-a-0085	B.96	508.383625	508.587875	<DEL>	---	that
sw2657B-ms98-a-0085	B.96	508.587875	508.703625		it's	it's
sw2657B-ms98-a-0085	B.96	508.703625	509.183625		everybody's	everybody's
sw2657B-ms98-a-0085	B.96	509.183625	510.235250		responsibility	responsibility
sw2657B-ms98-a-0085	B.96	510.235250	510.676750		[silence]	[silence]
sw2657B-ms98-a-0086	B.96	510.676750	511.184500		[silence]	[silence]
sw2657B-ms98-a-0086	B.96	511.184500	511.451625		to	to
sw2657B-ms98-a-0086	B.96	511.451625	511.745375		um	um
sw2657B-ms98-a-0086	B.96	511.745375	512.516750		[silence]	[silence]
sw2657B-ms98-a-0086	B.96	512.516750	512.706750		help	help
sw2657B-ms98-a-0086	B.96	512.706750	512.876750		these	these
sw2657B-ms98-a-0086	B.96	512.876750	513.226750		people	people
sw2657B-ms98-a-0086	B.96	513.226750	513.326750		you	you
sw2657B-ms98-a-0086	B.96	513.326750	513.516750		know	know
sw2657B-ms98-a-0086	B.96	513.516750	513.646750		and	and
sw2657B-ms98-a-0086	B.96	513.646750	513.806750		no-	no[t]-
sw2657B-ms98-a-0086	B.96	513.806750	513.986750		I'm	i'm
sw2657B-ms98-a-0086	B.96	513.986750	514.166750		not	not
sw2657B-ms98-a-0086	B.96	514.166750	514.516750		saying	saying
sw2657B-ms98-a-0086	B.96	514.516750	514.765625		just	just
sw2657B-ms98-a-0086	B.96	514.765625	514.920125		[silence]	[silence]
sw2657B-ms98-a-0086	B.96	514.920125	515.116750		give	give
sw2657B-ms98-a-0086	B.96	515.116750	515.226750		them	them_1
sw2657B-ms98-a-0086	B.96	515.226750	515.616750		money	money
sw2657B-ms98-a-0086	B.96	515.616750	515.966750		but	but
sw2657B-ms98-a-0086	B.96	515.966750	516.006750		I	i
sw2657B-ms98-a-0086	B.96	516.006750	516.136750		mean	mean
sw2657B-ms98-a-0086	B.96	516.136750	516.276750		because	because_1
sw2657B-ms98-a-0086	B.96	516.276750	516.396750		they	they
sw2657B-ms98-a-0086	B.96	516.396750	516.606750		have	have
sw2657B-ms98-a-0086	B.96	516.606750	516.696750		to	to
sw2657B-ms98-a-0086	B.96	516.696750	516.820500		be	be
sw2657B-ms98-a-0086	B.96	516.820500	517.136750		taught	taught
sw2657B-ms98-a-0086	B.96	517.136750	517.286750		to	to
sw2657B-ms98-a-0086	B.96	517.286750	517.631500		be	be
sw2657B-ms98-a-0086	B.98	517.631500	518.079750		[silence]	[silence]
sw2657B-ms98-a-0086	B.98	518.079750	518.616750		Yeah	yeah
sw2657B-ms98-a-0086	B.100	518.616750	518.646750		[silence]	[silence]
sw2657B-ms98-a-0086	B.100	518.646750	519.646750		[laughter]	[laughter]
sw2657B-ms98-a-0086	B.100	519.646750	519.730875		I	i
sw2657B-ms98-a-0086	B.100	519.730875	519.856750		mean	mean
sw2657B-ms98-a-0086	B.100	519.856750	519.936750		I	i
sw2657B-ms98-a-0086	B.100	519.936750	520.056750		know	know
sw2657B-ms98-a-0086	B.100	520.056750	520.236750		that's	that's
sw2657B-ms98-a-0086	B.100	520.236750	520.386750		what	what
sw2657B-ms98-a-0086	B.100	520.386750	520.446750		my	my
sw2657B-ms98-a-0086	B.100	520.446750	520.936750		father-in-law	father-in-law
sw2657B-ms98-a-0086	B.100	520.936750	521.046750		was	was
sw2657B-ms98-a-0086	B.100	521.046750	521.256750		talking	talking
sw2657B-ms98-a-0086	B.100	521.256750	521.386750		about	about
sw2657B-ms98-a-0086	B.100	521.386750	521.456750		you	you
sw2657B-ms98-a-0086	B.100	521.456750	521.556750		know	know
sw2657B-ms98-a-0086	B.100	521.556750	521.666750		when	when
sw2657B-ms98-a-0086	B.100	521.666750	521.756750		you	you
sw2657B-ms98-a-0086	B.100	521.756750	521.896750		give	give
sw2657B-ms98-a-0086	B.100	521.896750	522.026750		these	these
sw2657B-ms98-a-0086	B.100	522.026750	522.506750		people	people
sw2657B-ms98-a-0086	B.100	522.506750	522.997500		[silence]	[silence]
sw2657B-ms98-a-0087	B.100	522.997500	523.357500		[silence]	[silence]
sw2657B-ms98-a-0087	B.100	523.357500	524.077500		money	money
sw2657B-ms98-a-0087	B.100	524.077500	524.304875		or	or
sw2657B-ms98-a-0087	B.100	524.304875	524.700125		[silence]	[silence]
sw2657B-ms98-a-0088	B.100	524.700125	525.570125		[silence]	[silence]
sw2657B-ms98-a-0088	B.100	525.570125	525.810125		what	what
sw2657B-ms98-a-0088	B.100	525.810125	526.010125		was	was
sw2657B-ms98-a-0088	B.100	526.010125	526.100125		it	it
sw2657B-ms98-a-0088	B.100	526.100125	526.250125		they	they
sw2657B-ms98-a-0088	B.100	526.250125	526.570125		were	were
sw2657B-ms98-a-0088	B.100	526.570125	526.730125		[silence]	[silence]
sw2657B-ms98-a-0088	B.100	526.730125	527.010125		bringing	bringing
sw2657B-ms98-a-0088	B.100	527.010125	527.140125		up	up
sw2657B-ms98-a-0088	B.100	527.140125	527.660250		points	points
sw2657B-ms98-a-0088	B.100	527.660250	527.987875		[silence]	[silence]
sw2657B-ms98-a-0088	B.100	527.987875	528.610125		asking	asking
sw2657B-ms98-a-0088	B.100	528.610125	528.740125		as	as
sw2657B-ms98-a-0088	B.100	528.740125	528.930125		far	far
sw2657B-ms98-a-0088	B.100	528.930125	529.060125		as	as
sw2657B-ms98-a-0088	B.100	529.060125	529.180125		whether	whether
sw2657B-ms98-a-0088	B.100	529.180125	529.300125		they	they
sw2657B-ms98-a-0088	B.100	529.300125	529.500125		need	need
sw2657B-ms98-a-0088	B.100	529.500125	529.580125		to	to
sw2657B-ms98-a-0088	B.100	529.580125	529.920125		give	give
sw2657B-ms98-a-0088	B.100	529.920125	530.280125		um	um
sw2657B-ms98-a-0088	B.100	530.280125	530.642625		[silence]	[silence]
sw2657B-ms98-a-0089	B.100	530.642625	531.032625		[silence]	[silence]
sw2657B-ms98-a-0089	B.100	531.032625	531.182625		more	more
sw2657B-ms98-a-0089	B.100	531.182625	531.382625		money	money
sw2657B-ms98-a-0089	B.100	531.382625	531.452625		to	to
sw2657B-ms98-a-0089	B.100	531.452625	531.592625		these	these
sw2657B-ms98-a-0089	B.100	531.592625	531.912625		people	people
sw2657B-ms98-a-0089	B.100	531.912625	532.137875		I	i
sw2657B-ms98-a-0089	B.100	532.137875	532.362625		mean	mean
sw2657B-ms98-a-0089	B.100	532.362625	532.902625		[silence]	[silence]
sw2657B-ms98-a-0089	B.100	532.902625	533.012625		and	and
sw2657B-ms98-a-0089	B.100	533.012625	533.182625		that's	that's
sw2657B-ms98-a-0089	B.100	533.182625	533.306375		not	not
sw2657B-ms98-a-0089	B.100	533.306375	533.473875		really	really
sw2657B-ms98-a-0089	B.100	533.473875	533.556750		the	the
sw2657B-ms98-a-0089	B.100	533.556750	533.962625		answer	answer
sw2657B-ms98-a-0089	B.100	533.962625	533.992625		I	i
sw2657B-ms98-a-0089	B.100	533.992625	534.082625		mean	mean
sw2657B-ms98-a-0089	B.100	534.082625	534.232625		because	because_1
sw2657B-ms98-a-0089	B.100	534.232625	534.442625		if	if
sw2657B-ms98-a-0089	B.100	534.442625	534.732625		they're	they're
sw2657B-ms98-a-0089	B.100	534.732625	535.312625		alcoholics	alcoholics
sw2657B-ms98-a-0089	B.100	535.312625	535.402625		they'll	they'll
sw2657B-ms98-a-0089	B.100	535.402625	535.602625		just	just
sw2657B-ms98-a-0089	B.100	535.602625	535.682625		go	go
sw2657B-ms98-a-0089	B.100	535.682625	535.762625		out	out
sw2657B-ms98-a-0089	B.100	535.762625	535.882625		and	and
sw2657B-ms98-a-0089	B.100	535.882625	536.132625		spend	spend
sw2657B-ms98-a-0089	B.102	536.132625	536.232625		it	it
sw2657B-ms98-a-0089	B.102	536.232625	536.436625		on	on
sw2657B-ms98-a-0089	B.102	536.436625	536.568500		[silence]	[silence]
sw2657B-ms98-a-0089	B.102	536.568500	536.752625		you	you
sw2657B-ms98-a-0089	B.102	536.752625	536.952625		know	know
sw2657B-ms98-a-0089	B.102	536.952625	537.232625		booze	booze
sw2657B-ms98-a-0089	B.102	537.232625	537.302625		or	or
sw2657B-ms98-a-0089	B.102	537.302625	537.572625		something	something
sw2657B-ms98-a-0089	B.102	537.572625	537.732625		like	like
sw2657B-ms98-a-0089	B.102	537.732625	538.002625		that	that
sw2657B-ms98-a-0089	B.102	538.002625	538.222625		but	but
sw2657B-ms98-a-0089	B.104	538.222625	538.494875		[silence]	[silence]
sw2657B-ms98-a-0090	B.104	538.494875	543.499625		[silence]	[silence]
sw2657B-ms98-a-0091	B.104	543.499625	544.149625		[silence]	[silence]
sw2657B-ms98-a-0091	B.104	544.149625	544.614875		Yeah	yeah
sw2657B-ms98-a-0091	B.106	544.614875	545.212500		[noise]	[noise]
sw2657B-ms98-a-0091	B.106	545.212500	545.497750		[silence]	[silence]
sw2657B-ms98-a-0092	B.106	545.497750	545.867750		[silence]	[silence]
sw2657B-ms98-a-0092	B.106	545.867750	546.267750		Or	or
sw2657B-ms98-a-0092	B.106	546.267750	546.397750		you	you
sw2657B-ms98-a-0092	B.106	546.397750	546.557750		know	know
sw2657B-ms98-a-0092	B.106	546.557750	546.657750		to	to
sw2657B-ms98-a-0092	B.106	546.657750	546.897750		find	find
sw2657B-ms98-a-0092	B.106	546.897750	546.957750		a	a
sw2657B-ms98-a-0092	B.106	546.957750	547.287750		job	job
sw2657B-ms98-a-0092	B.106	547.287750	547.397750		where	where
sw2657B-ms98-a-0092	B.106	547.397750	547.497750		they	they
sw2657B-ms98-a-0092	B.106	547.497750	547.727750		can	can
sw2657B-ms98-a-0092	B.106	547.727750	547.857750		learn	learn
sw2657B-ms98-a-0092	B.106	547.857750	547.971625		how	how
sw2657B-ms98-a-0092	B.106	547.971625	548.099750		to	to
sw2657B-ms98-a-0092	B.106	548.099750	548.487750		support	support
sw2657B-ms98-a-0092	B.106	548.487750	549.037750		themselves	themselves
sw2657B-ms98-a-0092	B.108	549.037750	549.097750		I	i
sw2657B-ms98-a-0092	B.108	549.097750	549.357750		mean	mean
sw2657B-ms98-a-0092	B.108	549.357750	549.494000		[silence]	[silence]
sw2657B-ms98-a-0093	B.108	549.494000	550.054000		[silence]	[silence]
sw2657B-ms98-a-0093	B.108	550.054000	550.192000		I	i
sw2657B-ms98-a-0093	B.108	550.192000	550.354000		guess	guess
sw2657B-ms98-a-0093	B.108	550.354000	550.454000		we're	we're
sw2657B-ms98-a-0093	B.108	550.454000	550.644000		getting	getting
sw2657B-ms98-a-0093	B.108	550.644000	550.854000		kind	kind
sw2657B-ms98-a-0093	B.108	550.854000	550.957500		of	of
sw2657B-ms98-a-0093	B.108	550.957500	551.125875		off	off
sw2657B-ms98-a-0093	B.108	551.125875	551.238875		the	the
sw2657B-ms98-a-0093	B.108	551.238875	552.154000		subject	[laughter-subject]
sw2657B-ms98-a-0093	B.108	552.154000	552.434000		here	here
sw2657B-ms98-a-0093	B.108	552.434000	552.644000		but	but
sw2657B-ms98-a-0093	B.110	552.644000	553.304000		[silence]	[silence]
sw2657B-ms98-a-0093	B.110	553.304000	553.524000		Yeah	yeah
sw2657B-ms98-a-0093	B.110	553.524000	553.634000		I	i
sw2657B-ms98-a-0093	B.110	553.634000	553.794000		mean	mean
sw2657B-ms98-a-0093	B.110	553.794000	554.040625		it's	it's
sw2657B-ms98-a-0093	B.112	554.040625	554.487875		[silence]	[silence]
sw2657B-ms98-a-0094	B.112	554.487875	556.786750		[silence]	[silence]
sw2657B-ms98-a-0095	B.112	556.786750	557.286750		[silence]	[silence]
sw2657B-ms98-a-0095	B.112	557.286750	557.636750		True	true
sw2657B-ms98-a-0095	B.112	557.636750	557.776750		[silence]	[silence]
sw2657B-ms98-a-0095	B.112	557.776750	558.046750		Yeah	yeah
sw2657B-ms98-a-0095	B.114	558.046750	558.495250		[silence]	[silence]
sw2657B-ms98-a-0096	B.114	558.495250	574.330375		[silence]	[silence]
sw2657B-ms98-a-0097	B.114	574.330375	574.850375		[silence]	[silence]
sw2657B-ms98-a-0097	B.114	574.850375	575.200375		Yeah	yeah
sw2657B-ms98-a-0097	B.116	575.200375	575.726000		[silence]	[silence]
sw2657B-ms98-a-0098	B.116	575.726000	582.621875		[silence]	[silence]
sw2657B-ms98-a-0099	B.116	582.621875	583.231875		[silence]	[silence]
sw2657B-ms98-a-0099	B.116	583.231875	583.431875		Flower	Flower
sw2657B-ms98-a-0099	B.116	583.431875	583.871875		Mound	Mound
sw2657B-ms98-a-0099	B.116	583.871875	584.111875		yeah	yeah
sw2657B-ms98-a-0099	B.116	584.111875	584.466000		[silence]	[silence]
sw2657B-ms98-a-0100	B.116	584.466000	585.499125		[silence]	[silence]
sw2657B-ms98-a-0101	B.116	585.499125	585.929125		[silence]	[silence]
sw2657B-ms98-a-0101	B.116	585.929125	586.119125		So	so
sw2657B-ms98-a-0101	B.116	586.119125	586.279125		we're	we're
sw2657B-ms98-a-0101	B.116	586.279125	586.319125		a	a
sw2657B-ms98-a-0101	B.116	586.319125	586.709125		little	little
sw2657B-ms98-a-0101	B.116	586.709125	587.217250		[silence]	[silence]
sw2657B-ms98-a-0102	B.116	587.217250	587.441000		[silence]	[silence]
sw2657B-ms98-a-0102	B.116	587.441000	587.692750		fa-	fa[rther]-
sw2657B-ms98-a-0102	B.116	587.692750	587.927250		[silence]	[silence]
sw2657B-ms98-a-0102	B.116	587.927250	588.007250		you	you
sw2657B-ms98-a-0102	B.116	588.007250	588.197250		know	know
sw2657B-ms98-a-0102	B.116	588.197250	588.577250		farther	farther
sw2657B-ms98-a-0102	B.116	588.577250	589.087250		removed	removed
sw2657B-ms98-a-0102	B.116	589.087250	589.327250		from	from
sw2657B-ms98-a-0102	B.116	589.327250	589.622750		like	like
sw2657B-ms98-a-0102	B.116	589.622750	589.965500		[silence]	[silence]
sw2657B-ms98-a-0102	B.116	589.965500	590.457250		Dallas	Dallas
sw2657B-ms98-a-0102	B.116	590.457250	590.567250		and	and
sw2657B-ms98-a-0102	B.116	590.567250	590.717250		some	some
sw2657B-ms98-a-0102	B.116	590.717250	590.787250		of	of
sw2657B-ms98-a-0102	B.116	590.787250	590.847250		the	the
sw2657B-ms98-a-0102	B.116	590.847250	591.297250		areas	areas
sw2657B-ms98-a-0102	B.116	591.297250	591.387250		where	where
sw2657B-ms98-a-0102	B.116	591.387250	591.447250		they	they
sw2657B-ms98-a-0102	B.116	591.447250	591.747250		probably	probably
sw2657B-ms98-a-0102	B.116	591.747250	591.917250		have	have
sw2657B-ms98-a-0102	B.116	591.917250	592.187250		more	more
sw2657B-ms98-a-0102	B.116	592.187250	592.317250		of	of
sw2657B-ms98-a-0102	B.116	592.317250	592.576500		the	the
sw2657B-ms98-a-0102	B.116	592.576500	593.205500		[silence]	[silence]
sw2657B-ms98-a-0102	B.116	593.205500	593.777250		homeless	homeless
sw2657B-ms98-a-0102	B.116	593.777250	593.887250		and	and
sw2657B-ms98-a-0102	B.116	593.887250	594.037250		that	that
sw2657B-ms98-a-0102	B.116	594.037250	594.227250		type	type
sw2657B-ms98-a-0102	B.116	594.227250	594.357250		of	of
sw2657B-ms98-a-0102	B.116	594.357250	594.727250		thing	thing
sw2657B-ms98-a-0102	B.116	594.727250	594.828250		[silence]	[silence]
sw2657B-ms98-a-0103	B.116	594.828250	599.953750		[silence]	[silence]
