sw2608B-ms98-a-0001	B.2	0.000000	0.090000		[silence]	[silence]
sw2608B-ms98-a-0001	B.2	0.090000	0.750000		[noise]	[noise]
sw2608B-ms98-a-0001	B.2	0.750000	0.944250		[silence]	[silence]
sw2608B-ms98-a-0002	B.2	0.944250	1.424250		[silence]	[silence]
sw2608B-ms98-a-0002	B.2	1.424250	1.524250		Do	do
sw2608B-ms98-a-0002	B.2	1.524250	1.584250		you	you
sw2608B-ms98-a-0002	B.2	1.584250	1.704250		want	want
sw2608B-ms98-a-0002	B.2	1.704250	1.764250		to	to
sw2608B-ms98-a-0002	B.2	1.764250	1.874250		go	go
sw2608B-ms98-a-0002	B.2	1.874250	2.214250		first	first
sw2608B-ms98-a-0002	B.4	2.214250	2.668375		[silence]	[silence]
sw2608B-ms98-a-0003	B.4	2.668375	4.628750		[silence]	[silence]
sw2608B-ms98-a-0004	B.4	4.628750	5.088750		[silence]	[silence]
sw2608B-ms98-a-0004	B.4	5.088750	5.208750		Well	well
sw2608B-ms98-a-0004	B.4	5.208750	5.268750		you	you
sw2608B-ms98-a-0004	B.4	5.268750	5.388750		go	go
sw2608B-ms98-a-0004	B.4	5.388750	5.658750		ahead	ahead
sw2608B-ms98-a-0004	B.8	5.658750	6.118250		[silence]	[silence]
sw2608B-ms98-a-0005	B.8	6.118250	9.365000		[silence]	[silence]
sw2608B-ms98-a-0006	B.8	9.365000	9.824875		[silence]	[silence]
sw2608B-ms98-a-0006	B.8	9.824875	11.212750		[laughter]	[laughter]
sw2608B-ms98-a-0006	B.8	11.212750	11.584875		[silence]	[silence]
sw2608B-ms98-a-0007	B.8	11.584875	12.977125		[silence]	[silence]
sw2608B-ms98-a-0008	B.8	12.977125	13.457125		[silence]	[silence]
sw2608B-ms98-a-0008	B.8	13.457125	13.764875		Oh	oh
sw2608B-ms98-a-0008	B.10	13.764875	14.100375		yeah	yeah
sw2608B-ms98-a-0008	B.12	14.100375	14.544750		[silence]	[silence]
sw2608B-ms98-a-0009	B.12	14.544750	16.750000		[silence]	[silence]
sw2608B-ms98-a-0010	B.12	16.750000	17.250000		[silence]	[silence]
sw2608B-ms98-a-0010	B.12	17.250000	17.525500		Oh	oh
sw2608B-ms98-a-0010	B.12	17.525500	17.748500		yeah	yeah
sw2608B-ms98-a-0010	B.14	17.748500	18.299250		[silence]	[silence]
sw2608B-ms98-a-0010	B.14	18.299250	18.639250		Uh-huh	uh-huh
sw2608B-ms98-a-0010	B.16	18.639250	19.133875		[silence]	[silence]
sw2608B-ms98-a-0011	B.16	19.133875	24.790125		[silence]	[silence]
sw2608B-ms98-a-0012	B.16	24.790125	25.260125		[silence]	[silence]
sw2608B-ms98-a-0012	B.16	25.260125	25.460125		Oh	oh
sw2608B-ms98-a-0012	B.16	25.460125	25.560125		it	it
sw2608B-ms98-a-0012	B.16	25.560125	25.940125		sounds	sounds
sw2608B-ms98-a-0012	B.16	25.940125	26.840125		fantastic	fantastic
sw2608B-ms98-a-0012	B.18	26.840125	27.271375		[silence]	[silence]
sw2608B-ms98-a-0013	B.18	27.271375	34.213750		[silence]	[silence]
sw2608B-ms98-a-0014	B.18	34.213750	34.703750		[silence]	[silence]
sw2608B-ms98-a-0014	B.18	34.703750	34.893750		Oh	oh
sw2608B-ms98-a-0014	B.18	34.893750	35.133750		yeah	yeah
sw2608B-ms98-a-0014	B.20	35.133750	35.673750		[silence]	[silence]
sw2608B-ms98-a-0014	B.20	35.673750	36.073750		Uh-huh	uh-huh
sw2608B-ms98-a-0014	B.22	36.073750	36.579750		[silence]	[silence]
sw2608B-ms98-a-0015	B.22	36.579750	45.530375		[silence]	[silence]
sw2608B-ms98-a-0016	B.22	45.530375	46.010375		[silence]	[silence]
sw2608B-ms98-a-0016	B.22	46.010375	46.430375		Uh-huh	uh-huh
sw2608B-ms98-a-0016	B.24	46.430375	46.939000		[silence]	[silence]
sw2608B-ms98-a-0017	B.24	46.939000	52.524000		[silence]	[silence]
sw2608B-ms98-a-0018	B.24	52.524000	53.014000		[silence]	[silence]
sw2608B-ms98-a-0018	B.24	53.014000	53.204000		Is	is
sw2608B-ms98-a-0018	B.24	53.204000	53.364000		it	it
sw2608B-ms98-a-0018	B.24	53.364000	53.754000		cayenne	cayenne
sw2608B-ms98-a-0018	B.24	53.754000	54.104000		pepper	pepper
sw2608B-ms98-a-0018	B.24	54.104000	54.264000		you	you
sw2608B-ms98-a-0018	B.24	54.264000	54.534000		mean	mean
sw2608B-ms98-a-0018	B.26	54.534000	55.042875		[silence]	[silence]
sw2608B-ms98-a-0019	B.26	55.042875	55.542875		[silence]	[silence]
sw2608B-ms98-a-0019	B.26	55.542875	55.942875		Yes	yes
sw2608B-ms98-a-0019	B.28	55.942875	56.276125		[silence]	[silence]
sw2608B-ms98-a-0020	B.28	56.276125	56.656125		[silence]	[silence]
sw2608B-ms98-a-0020	B.28	56.656125	57.076125		Uh-huh	uh-huh
sw2608B-ms98-a-0020	B.30	57.076125	57.586375		[silence]	[silence]
sw2608B-ms98-a-0021	B.30	57.586375	60.273375		[silence]	[silence]
sw2608B-ms98-a-0022	B.30	60.273375	60.743375		[silence]	[silence]
sw2608B-ms98-a-0022	B.30	60.743375	61.133375		Yes	yes
sw2608B-ms98-a-0022	B.32	61.133375	61.586125		[silence]	[silence]
sw2608B-ms98-a-0023	B.32	61.586125	66.809250		[silence]	[silence]
sw2608B-ms98-a-0024	B.32	66.809250	67.259250		[silence]	[silence]
sw2608B-ms98-a-0024	B.32	67.259250	67.439250		And	and
sw2608B-ms98-a-0024	B.32	67.439250	67.569250		how	how
sw2608B-ms98-a-0024	B.32	67.569250	67.779250		much	much
sw2608B-ms98-a-0024	B.32	67.779250	68.159250		shrimp	shrimp
sw2608B-ms98-a-0024	B.32	68.159250	68.329250		would	would
sw2608B-ms98-a-0024	B.32	68.329250	68.419250		you	you
sw2608B-ms98-a-0024	B.32	68.419250	68.729250		use	use
sw2608B-ms98-a-0024	B.34	68.729250	69.172375		[silence]	[silence]
sw2608B-ms98-a-0025	B.34	69.172375	69.642375		[silence]	[silence]
sw2608B-ms98-a-0025	B.34	69.642375	69.802375		Two	two
sw2608B-ms98-a-0025	B.34	69.802375	70.272375		pounds	pounds
sw2608B-ms98-a-0025	B.34	70.272375	70.622375		okay	okay
sw2608B-ms98-a-0025	B.36	70.622375	71.442625		[silence]	[silence]
sw2608B-ms98-a-0026	B.36	71.442625	72.222625		[silence]	[silence]
sw2608B-ms98-a-0026	B.36	72.222625	72.342625		Oh	oh
sw2608B-ms98-a-0026	B.36	72.342625	72.652625		yeah	yeah
sw2608B-ms98-a-0026	B.38	72.652625	73.101125		[silence]	[silence]
sw2608B-ms98-a-0027	B.38	73.101125	74.274875		[silence]	[silence]
sw2608B-ms98-a-0028	B.38	74.274875	74.754875		[silence]	[silence]
sw2608B-ms98-a-0028	B.38	74.754875	75.154875		Uh-huh	uh-huh
sw2608B-ms98-a-0028	B.40	75.154875	75.636250		[silence]	[silence]
sw2608B-ms98-a-0029	B.40	75.636250	77.248250		[silence]	[silence]
sw2608B-ms98-a-0030	B.40	77.248250	77.718250		[silence]	[silence]
sw2608B-ms98-a-0030	B.40	77.718250	78.088250		Uh-huh	uh-huh
sw2608B-ms98-a-0030	B.42	78.088250	78.589625		[silence]	[silence]
sw2608B-ms98-a-0031	B.42	78.589625	80.496250		[silence]	[silence]
sw2608B-ms98-a-0032	B.42	80.496250	80.966250		[silence]	[silence]
sw2608B-ms98-a-0032	B.42	80.966250	81.516250		Okay	okay
sw2608B-ms98-a-0032	B.44	81.516250	82.231625		[silence]	[silence]
sw2608B-ms98-a-0033	B.44	82.231625	82.851625		[silence]	[silence]
sw2608B-ms98-a-0033	B.44	82.851625	83.311625		Uh-huh	uh-huh
sw2608B-ms98-a-0033	B.46	83.311625	83.803875		[silence]	[silence]
sw2608B-ms98-a-0034	B.46	83.803875	90.408750		[silence]	[silence]
sw2608B-ms98-a-0035	B.46	90.408750	90.898750		[silence]	[silence]
sw2608B-ms98-a-0035	B.46	90.898750	91.078750		Oh	oh
sw2608B-ms98-a-0035	B.46	91.078750	91.438750		yeah	yeah
sw2608B-ms98-a-0035	B.48	91.438750	91.917750		[silence]	[silence]
sw2608B-ms98-a-0036	B.48	91.917750	94.427000		[silence]	[silence]
sw2608B-ms98-a-0037	B.48	94.427000	94.897000		[silence]	[silence]
sw2608B-ms98-a-0037	B.48	94.897000	95.317000		Sure	sure
sw2608B-ms98-a-0037	B.50	95.317000	95.783500		[silence]	[silence]
sw2608B-ms98-a-0038	B.50	95.783500	98.418375		[silence]	[silence]
sw2608B-ms98-a-0039	B.50	98.418375	98.898375		[silence]	[silence]
sw2608B-ms98-a-0039	B.50	98.898375	99.268375		Uh-huh	uh-huh
sw2608B-ms98-a-0039	B.52	99.268375	99.780500		[silence]	[silence]
sw2608B-ms98-a-0040	B.52	99.780500	104.794625		[silence]	[silence]
sw2608B-ms98-a-0041	B.52	104.794625	105.274625		[silence]	[silence]
sw2608B-ms98-a-0041	B.52	105.274625	105.714625		Uh-huh	uh-huh
sw2608B-ms98-a-0041	B.54	105.714625	106.192000		[silence]	[silence]
sw2608B-ms98-a-0042	B.54	106.192000	110.499875		[silence]	[silence]
sw2608B-ms98-a-0043	B.54	110.499875	110.979875		[silence]	[silence]
sw2608B-ms98-a-0043	B.54	110.979875	111.339875		Uh-huh	uh-huh
sw2608B-ms98-a-0043	B.56	111.339875	111.779250		[silence]	[silence]
sw2608B-ms98-a-0044	B.56	111.779250	112.802625		[silence]	[silence]
sw2608B-ms98-a-0045	B.56	112.802625	113.182625		[silence]	[silence]
sw2608B-ms98-a-0045	B.56	113.182625	113.302625		A	a
sw2608B-ms98-a-0045	B.56	113.302625	113.782625		glass	glass
sw2608B-ms98-a-0045	B.56	113.782625	114.162625		dish	dish
sw2608B-ms98-a-0045	B.58	114.162625	114.692625		[silence]	[silence]
sw2608B-ms98-a-0045	B.58	114.692625	115.072625		Uh-huh	uh-huh
sw2608B-ms98-a-0045	B.60	115.072625	115.581125		[silence]	[silence]
sw2608B-ms98-a-0046	B.60	115.581125	116.609375		[silence]	[silence]
sw2608B-ms98-a-0047	B.60	116.609375	117.109375		[silence]	[silence]
sw2608B-ms98-a-0047	B.60	117.109375	117.705125		Okay	okay
sw2608B-ms98-a-0047	B.60	117.705125	118.009375		uh-huh	uh-huh
sw2608B-ms98-a-0047	B.62	118.009375	118.500375		[silence]	[silence]
sw2608B-ms98-a-0048	B.62	118.500375	123.772000		[silence]	[silence]
sw2608B-ms98-a-0049	B.62	123.772000	124.262000		[silence]	[silence]
sw2608B-ms98-a-0049	B.62	124.262000	124.512000		Yeah	yeah
sw2608B-ms98-a-0049	B.64	124.512000	124.978125		[silence]	[silence]
sw2608B-ms98-a-0050	B.64	124.978125	126.163750		[silence]	[silence]
sw2608B-ms98-a-0051	B.64	126.163750	126.593750		[silence]	[silence]
sw2608B-ms98-a-0051	B.64	126.593750	126.993750		Uh-huh	uh-huh
sw2608B-ms98-a-0051	B.66	126.993750	127.469750		[silence]	[silence]
sw2608B-ms98-a-0052	B.66	127.469750	132.163375		[silence]	[silence]
sw2608B-ms98-a-0053	B.66	132.163375	132.643375		[silence]	[silence]
sw2608B-ms98-a-0053	B.66	132.643375	132.953375		And	and
sw2608B-ms98-a-0053	B.66	132.953375	133.083375		it's	it's
sw2608B-ms98-a-0053	B.66	133.083375	133.123375		[silence]	[silence]
sw2608B-ms98-a-0053	B.66	133.123375	133.233375		are	are
sw2608B-ms98-a-0053	B.66	133.233375	133.443375		you	you
sw2608B-ms98-a-0053	B.66	133.443375	133.883375		cooking	cooking
sw2608B-ms98-a-0053	B.66	133.883375	133.973375		the	the
sw2608B-ms98-a-0053	B.66	133.973375	134.303375		whole	whole
sw2608B-ms98-a-0053	B.66	134.303375	134.593375		head	head
sw2608B-ms98-a-0053	B.68	134.593375	134.613375		[silence]	[silence]
sw2608B-ms98-a-0053	B.68	134.613375	134.793375		at	at
sw2608B-ms98-a-0053	B.68	134.793375	134.993375		one	one
sw2608B-ms98-a-0053	B.68	134.993375	135.233375		time	time
sw2608B-ms98-a-0053	B.70	135.233375	135.693375		[silence]	[silence]
sw2608B-ms98-a-0053	B.70	135.693375	136.113375		Okay	okay
sw2608B-ms98-a-0053	B.72	136.113375	136.622750		[silence]	[silence]
sw2608B-ms98-a-0054	B.72	136.622750	138.843875		[silence]	[silence]
sw2608B-ms98-a-0055	B.72	138.843875	139.333875		[silence]	[silence]
sw2608B-ms98-a-0055	B.72	139.333875	139.613875		I	i
sw2608B-ms98-a-0055	B.72	139.613875	140.063875		see	see
sw2608B-ms98-a-0055	B.74	140.063875	140.567375		[silence]	[silence]
sw2608B-ms98-a-0056	B.74	140.567375	145.546000		[silence]	[silence]
sw2608B-ms98-a-0057	B.74	145.546000	146.026000		[silence]	[silence]
sw2608B-ms98-a-0057	B.74	146.026000	146.396000		Uh-huh	uh-huh
sw2608B-ms98-a-0057	B.76	146.396000	146.954250		[silence]	[silence]
sw2608B-ms98-a-0058	B.76	146.954250	156.448500		[silence]	[silence]
sw2608B-ms98-a-0059	B.76	156.448500	156.948500		[silence]	[silence]
sw2608B-ms98-a-0059	B.76	156.948500	157.378500		Uh-huh	uh-huh
sw2608B-ms98-a-0059	B.78	157.378500	157.887875		[silence]	[silence]
sw2608B-ms98-a-0060	B.78	157.887875	167.483875		[silence]	[silence]
sw2608B-ms98-a-0061	B.78	167.483875	167.973875		[silence]	[silence]
sw2608B-ms98-a-0061	B.78	167.973875	168.263875		Uh-huh	uh-huh
sw2608B-ms98-a-0061	B.80	168.263875	168.760625		[silence]	[silence]
sw2608B-ms98-a-0062	B.80	168.760625	171.624875		[silence]	[silence]
sw2608B-ms98-a-0063	B.80	171.624875	172.014875		[silence]	[silence]
sw2608B-ms98-a-0063	B.80	172.014875	172.344875		Yeah	yeah
sw2608B-ms98-a-0063	B.82	172.344875	172.794625		[silence]	[silence]
sw2608B-ms98-a-0064	B.82	172.794625	173.284625		[silence]	[silence]
sw2608B-ms98-a-0064	B.82	173.284625	173.444625		Oh	oh
sw2608B-ms98-a-0064	B.82	173.444625	173.664625		that	that
sw2608B-ms98-a-0064	B.82	173.664625	174.014625		sounds	sounds
sw2608B-ms98-a-0064	B.82	174.014625	174.844625		fantastic	fantastic
sw2608B-ms98-a-0064	B.86	174.844625	175.449750		[silence]	[silence]
sw2608B-ms98-a-0065	B.86	175.449750	176.899750		[silence]	[silence]
sw2608B-ms98-a-0065	B.86	176.899750	177.029750		[laughter]	[laughter]
sw2608B-ms98-a-0065	B.86	177.029750	177.498375		[silence]	[silence]
sw2608B-ms98-a-0066	B.86	177.498375	185.280125		[silence]	[silence]
sw2608B-ms98-a-0067	B.86	185.280125	185.770125		[silence]	[silence]
sw2608B-ms98-a-0067	B.86	185.770125	186.200125		Um	um
sw2608B-ms98-a-0067	B.86	186.200125	186.230125		[silence]	[silence]
sw2608B-ms98-a-0067	B.86	186.230125	186.590125		um	um
sw2608B-ms98-a-0067	B.88	186.590125	186.982500		[silence]	[silence]
sw2608B-ms98-a-0068	B.88	186.982500	187.372500		[silence]	[silence]
sw2608B-ms98-a-0068	B.88	187.372500	187.842500		Uh-huh	uh-huh
sw2608B-ms98-a-0068	B.90	187.842500	188.337875		[silence]	[silence]
sw2608B-ms98-a-0069	B.90	188.337875	196.816500		[silence]	[silence]
sw2608B-ms98-a-0070	B.90	196.816500	197.266500		[silence]	[silence]
sw2608B-ms98-a-0070	B.90	197.266500	197.596500		Sure	sure
sw2608B-ms98-a-0070	B.92	197.596500	198.076500		[silence]	[silence]
sw2608B-ms98-a-0071	B.92	198.076500	201.568625		[silence]	[silence]
sw2608B-ms98-a-0072	B.92	201.568625	202.058625		[silence]	[silence]
sw2608B-ms98-a-0072	B.92	202.058625	202.188625		And	and
sw2608B-ms98-a-0072	B.92	202.188625	202.398625		it's	it's
sw2608B-ms98-a-0072	B.94	202.398625	202.638625		not	not
sw2608B-ms98-a-0072	B.94	202.638625	202.938625		much	much
sw2608B-ms98-a-0072	B.94	202.938625	203.418625		work	work
sw2608B-ms98-a-0072	B.96	203.418625	203.981875		[silence]	[silence]
sw2608B-ms98-a-0073	B.96	203.981875	204.471875		[silence]	[silence]
sw2608B-ms98-a-0073	B.96	204.471875	204.711875		That	that
sw2608B-ms98-a-0073	B.96	204.711875	205.111875		sounds	sounds
sw2608B-ms98-a-0073	B.98	205.111875	205.521500		[silence]	[silence]
sw2608B-ms98-a-0074	B.98	205.521500	205.751500		[silence]	[silence]
sw2608B-ms98-a-0074	B.98	205.751500	205.851500		[laughter]	[laughter]
sw2608B-ms98-a-0074	B.98	205.851500	206.071500		Yeah	yeah
sw2608B-ms98-a-0074	B.98	206.071500	206.231500		real-	real[ly]-
sw2608B-ms98-a-0074	B.100	206.231500	206.271500		I	i
sw2608B-ms98-a-0074	B.100	206.271500	207.411500		[silence]	[silence]
sw2608B-ms98-a-0074	B.100	207.411500	207.661500		bet	bet
sw2608B-ms98-a-0074	B.100	207.661500	207.861500		it	it
sw2608B-ms98-a-0074	B.100	207.861500	208.271500		tastes	tastes
sw2608B-ms98-a-0074	B.100	208.271500	208.601500		good	good
sw2608B-ms98-a-0074	B.100	208.601500	208.931500		too	too
sw2608B-ms98-a-0074	B.102	208.931500	209.434500		[silence]	[silence]
sw2608B-ms98-a-0075	B.102	209.434500	212.138625		[silence]	[silence]
sw2608B-ms98-a-0076	B.102	212.138625	212.618625		[silence]	[silence]
sw2608B-ms98-a-0076	B.102	212.618625	212.768625		Oh	oh
sw2608B-ms98-a-0076	B.102	212.768625	213.078625		yeah	yeah
sw2608B-ms98-a-0076	B.104	213.078625	213.810500		[silence]	[silence]
sw2608B-ms98-a-0077	B.104	213.810500	214.420500		[silence]	[silence]
sw2608B-ms98-a-0077	B.104	214.420500	214.850500	<DEL>	---	sure
sw2608B-ms98-a-0077	B.104	214.850500	215.314125		[silence]	[silence]
sw2608B-ms98-a-0078	B.104	215.314125	217.978875		[silence]	[silence]
sw2608B-ms98-a-0079	B.104	217.978875	218.448875		[silence]	[silence]
sw2608B-ms98-a-0079	B.104	218.448875	218.598875		Now	now
sw2608B-ms98-a-0079	B.104	218.598875	218.788875		how	how
sw2608B-ms98-a-0079	B.104	218.788875	219.008875		many	many
sw2608B-ms98-a-0079	B.104	219.008875	219.288875		could	could
sw2608B-ms98-a-0079	B.104	219.288875	219.408875		you	you
sw2608B-ms98-a-0079	B.104	219.408875	219.848875		serve	serve
sw2608B-ms98-a-0079	B.106	219.848875	220.288500		[silence]	[silence]
sw2608B-ms98-a-0080	B.106	220.288500	222.941250		[silence]	[silence]
sw2608B-ms98-a-0081	B.106	222.941250	223.411250		[silence]	[silence]
sw2608B-ms98-a-0081	B.106	223.411250	223.651250		Yeah	yeah
sw2608B-ms98-a-0081	B.106	223.651250	223.861250		[silence]	[silence]
sw2608B-ms98-a-0081	B.106	223.861250	223.891250		O-	o[kay]-
sw2608B-ms98-a-0081	B.106	223.891250	224.421250		okay	okay
sw2608B-ms98-a-0081	B.106	224.421250	224.451250		I	i
sw2608B-ms98-a-0081	B.106	224.451250	224.751250		figured	figured
sw2608B-ms98-a-0081	B.106	224.751250	225.081250		about	about
sw2608B-ms98-a-0081	B.106	225.081250	225.341250		that	that
sw2608B-ms98-a-0081	B.108	225.341250	225.719250		[silence]	[silence]
sw2608B-ms98-a-0082	B.108	225.719250	226.099250		[silence]	[silence]
sw2608B-ms98-a-0082	B.108	226.099250	226.209250		Oh	oh
sw2608B-ms98-a-0082	B.108	226.209250	226.529250		that's	that's
sw2608B-ms98-a-0082	B.108	226.529250	226.569250		[silence]	[silence]
sw2608B-ms98-a-0082	B.108	226.569250	226.819250		good	good
sw2608B-ms98-a-0082	B.108	226.819250	227.037250		[silence]	[silence]
sw2608B-ms98-a-0083	B.108	227.037250	227.247250		[silence]	[silence]
sw2608B-ms98-a-0083	B.108	227.247250	227.397250		See	see
sw2608B-ms98-a-0083	B.108	227.397250	227.427250		[silence]	[silence]
sw2608B-ms98-a-0083	B.108	227.427250	227.657250		out	out
sw2608B-ms98-a-0083	B.108	227.657250	227.757250		[silence]	[silence]
sw2608B-ms98-a-0083	B.108	227.757250	228.027250		here	here
sw2608B-ms98-a-0083	B.108	228.027250	228.147250		we	we
sw2608B-ms98-a-0083	B.108	228.147250	228.357250		have	have
sw2608B-ms98-a-0083	B.108	228.357250	228.597250		so	so
sw2608B-ms98-a-0083	B.108	228.597250	228.927250		many	many
sw2608B-ms98-a-0083	B.108	228.927250	229.047250		[silence]	[silence]
sw2608B-ms98-a-0083	B.108	229.047250	229.237250		uh	uh
sw2608B-ms98-a-0083	B.108	229.237250	229.397250		[silence]	[silence]
sw2608B-ms98-a-0083	B.108	229.397250	229.847250		ethnic	ethnic
sw2608B-ms98-a-0083	B.108	229.847250	230.267250		people	people
sw2608B-ms98-a-0083	B.108	230.267250	230.717250		[silence]	[silence]
sw2608B-ms98-a-0083	B.108	230.717250	230.807250		We	we
sw2608B-ms98-a-0083	B.108	230.807250	231.037250		have	have
sw2608B-ms98-a-0083	B.108	231.037250	231.117250		[silence]	[silence]
sw2608B-ms98-a-0083	B.108	231.117250	231.827250		Italians	Italians
sw2608B-ms98-a-0083	B.108	231.827250	231.937250		and	and
sw2608B-ms98-a-0083	B.108	231.937250	232.037250		we	we
sw2608B-ms98-a-0083	B.108	232.037250	232.227250		have	have
sw2608B-ms98-a-0083	B.108	232.227250	232.867250		Portuguese	Portuguese
sw2608B-ms98-a-0083	B.108	232.867250	232.957250		and	and
sw2608B-ms98-a-0083	B.108	232.957250	233.067250		we	we
sw2608B-ms98-a-0083	B.108	233.067250	233.267250		have	have
sw2608B-ms98-a-0083	B.108	233.267250	233.337250		[silence]	[silence]
sw2608B-ms98-a-0083	B.108	233.337250	233.857250		Russians	Russians
sw2608B-ms98-a-0083	B.108	233.857250	234.017250		and	and
sw2608B-ms98-a-0083	B.108	234.017250	234.587250		Polish	Polish
sw2608B-ms98-a-0083	B.108	234.587250	234.787250		And	and
sw2608B-ms98-a-0083	B.108	234.787250	235.014250		[silence]	[silence]
sw2608B-ms98-a-0084	B.108	235.014250	235.264250		[silence]	[silence]
sw2608B-ms98-a-0084	B.108	235.264250	235.474250		it	it
sw2608B-ms98-a-0084	B.108	235.474250	236.074250		depends	depends
sw2608B-ms98-a-0084	B.108	236.074250	236.204250		[silence]	[silence]
sw2608B-ms98-a-0084	B.108	236.204250	236.384250		out	out
sw2608B-ms98-a-0084	B.108	236.384250	236.664250		here	here
sw2608B-ms98-a-0084	B.108	236.664250	236.744250		[silence]	[silence]
sw2608B-ms98-a-0084	B.108	236.744250	236.944250		like	like
sw2608B-ms98-a-0084	B.108	236.944250	237.004250		the	the
sw2608B-ms98-a-0084	B.108	237.004250	237.264250		type	type
sw2608B-ms98-a-0084	B.108	237.264250	237.344250		of	of
sw2608B-ms98-a-0084	B.108	237.344250	237.484250		[silence]	[silence]
sw2608B-ms98-a-0084	B.108	237.484250	237.944250		people	people
sw2608B-ms98-a-0084	B.108	237.944250	237.984250		[silence]	[silence]
sw2608B-ms98-a-0084	B.108	237.984250	238.124250		you're	you're
sw2608B-ms98-a-0084	B.108	238.124250	238.244250		going	going
sw2608B-ms98-a-0084	B.108	238.244250	238.324250		to	to
sw2608B-ms98-a-0084	B.108	238.324250	239.074250		entertain	entertain
sw2608B-ms98-a-0084	B.108	239.074250	239.420875		[silence]	[silence]
sw2608B-ms98-a-0085	B.108	239.420875	239.790875		[silence]	[silence]
sw2608B-ms98-a-0085	B.108	239.790875	239.900875		you	you
sw2608B-ms98-a-0085	B.108	239.900875	240.140875		know	know
sw2608B-ms98-a-0085	B.110	240.140875	240.560875		[silence]	[silence]
sw2608B-ms98-a-0085	B.110	240.560875	240.740875		So	so
sw2608B-ms98-a-0085	B.110	240.740875	240.910875		it's	it's
sw2608B-ms98-a-0085	B.110	240.910875	241.340875		hard	hard
sw2608B-ms98-a-0085	B.110	241.340875	241.500875		[silence]	[silence]
sw2608B-ms98-a-0085	B.110	241.500875	241.640875		uh	uh
sw2608B-ms98-a-0085	B.110	241.640875	241.720875		[silence]	[silence]
sw2608B-ms98-a-0085	B.110	241.720875	241.880875		you	you
sw2608B-ms98-a-0085	B.110	241.880875	242.390875		[silence]	[silence]
sw2608B-ms98-a-0085	B.110	242.390875	242.500875		you	you
sw2608B-ms98-a-0085	B.110	242.500875	242.710875		just	just
sw2608B-ms98-a-0085	B.110	242.710875	242.840875		have	have
sw2608B-ms98-a-0085	B.110	242.840875	242.950875		to	to
sw2608B-ms98-a-0085	B.110	242.950875	243.180875		pick	pick
sw2608B-ms98-a-0085	B.110	243.180875	243.720875		something	something
sw2608B-ms98-a-0085	B.110	243.720875	244.060875		[silence]	[silence]
sw2608B-ms98-a-0085	B.110	244.060875	244.200875		for	for
sw2608B-ms98-a-0085	B.110	244.200875	244.330875		the	the
sw2608B-ms98-a-0085	B.110	244.330875	244.460875		[silence]	[silence]
sw2608B-ms98-a-0085	B.110	244.460875	244.570875		the	the
sw2608B-ms98-a-0085	B.110	244.570875	244.870875		group	group
sw2608B-ms98-a-0085	B.110	244.870875	244.900875		[silence]	[silence]
sw2608B-ms98-a-0085	B.110	244.900875	245.060875		that	that
sw2608B-ms98-a-0085	B.110	245.060875	245.170875		you're	you're
sw2608B-ms98-a-0085	B.110	245.170875	245.310875		going	going
sw2608B-ms98-a-0085	B.110	245.310875	245.370875		to	to
sw2608B-ms98-a-0085	B.110	245.370875	245.870875		entertain	entertain
sw2608B-ms98-a-0085	B.110	245.870875	245.970875		for	for
sw2608B-ms98-a-0085	B.110	245.970875	246.150875		that	that
sw2608B-ms98-a-0085	B.110	246.150875	246.680875		particular	particular
sw2608B-ms98-a-0085	B.110	246.680875	247.150875		time	time
sw2608B-ms98-a-0085	B.112	247.150875	247.513375		[silence]	[silence]
sw2608B-ms98-a-0086	B.112	247.513375	247.883375		[silence]	[silence]
sw2608B-ms98-a-0086	B.112	247.883375	248.223375		And	and
sw2608B-ms98-a-0086	B.112	248.223375	248.313375		[silence]	[silence]
sw2608B-ms98-a-0086	B.112	248.313375	248.563375		uh	uh
sw2608B-ms98-a-0086	B.112	248.563375	248.783375		they're	they're
sw2608B-ms98-a-0086	B.112	248.783375	248.823375		[silence]	[silence]
sw2608B-ms98-a-0086	B.112	248.823375	249.033375		big	big
sw2608B-ms98-a-0086	B.112	249.033375	249.243375		on	on
sw2608B-ms98-a-0086	B.112	249.243375	249.523375		finger	finger
sw2608B-ms98-a-0086	B.112	249.523375	249.833375		food	food
sw2608B-ms98-a-0086	B.112	249.833375	250.093375		here	here
sw2608B-ms98-a-0086	B.112	250.093375	250.343375		too	too
sw2608B-ms98-a-0086	B.112	250.343375	250.913375		[silence]	[silence]
sw2608B-ms98-a-0086	B.112	250.913375	250.983375		You	you
sw2608B-ms98-a-0086	B.112	250.983375	251.073375		know	know
sw2608B-ms98-a-0086	B.112	251.073375	251.433375		chicken	chicken
sw2608B-ms98-a-0086	B.112	251.433375	251.803375		wings	wings
sw2608B-ms98-a-0086	B.112	251.803375	252.183375		and	and
sw2608B-ms98-a-0086	B.112	252.183375	252.233375		[silence]	[silence]
sw2608B-ms98-a-0086	B.112	252.233375	252.383375		uh	uh
sw2608B-ms98-a-0086	B.112	252.383375	252.653375		[silence]	[silence]
sw2608B-ms98-a-0086	B.112	252.653375	253.103375		ribs	ribs
sw2608B-ms98-a-0086	B.112	253.103375	253.423375		and	and
sw2608B-ms98-a-0086	B.112	253.423375	253.473375		[silence]	[silence]
sw2608B-ms98-a-0086	B.112	253.473375	253.653375		that	that
sw2608B-ms98-a-0086	B.112	253.653375	253.843375		kind	kind
sw2608B-ms98-a-0086	B.112	253.843375	253.903375		of	of
sw2608B-ms98-a-0086	B.112	253.903375	254.943375		stuff	stuff
sw2608B-ms98-a-0086	B.114	254.943375	255.063375		Uh	uh
sw2608B-ms98-a-0086	B.114	255.063375	255.153375		[silence]	[silence]
sw2608B-ms98-a-0086	B.114	255.153375	255.873375		barbecue	barbecue
sw2608B-ms98-a-0086	B.114	255.873375	256.459750		[silence]	[silence]
sw2608B-ms98-a-0087	B.114	256.459750	257.069750		[silence]	[silence]
sw2608B-ms98-a-0087	B.114	257.069750	257.379750		and	and
sw2608B-ms98-a-0087	B.114	257.379750	257.459750		[silence]	[silence]
sw2608B-ms98-a-0087	B.114	257.459750	257.559750		uh	uh
sw2608B-ms98-a-0087	B.114	257.559750	258.019750		cooking	cooking
sw2608B-ms98-a-0087	B.114	258.019750	258.209750		out	out
sw2608B-ms98-a-0087	B.114	258.209750	258.279750		[silence]	[silence]
sw2608B-ms98-a-0087	B.114	258.279750	258.409750		in	in
sw2608B-ms98-a-0087	B.114	258.409750	258.439750		[silence]	[silence]
sw2608B-ms98-a-0087	B.114	258.439750	258.499750		the	the
sw2608B-ms98-a-0087	B.114	258.499750	258.879750		yard	yard
sw2608B-ms98-a-0087	B.114	258.879750	258.999750		it	it
sw2608B-ms98-a-0087	B.114	258.999750	259.009750		[silence]	[silence]
sw2608B-ms98-a-0087	B.114	259.009750	259.099750		ya-	ya[rd]-
sw2608B-ms98-a-0087	B.114	259.099750	259.349750		you	you
sw2608B-ms98-a-0087	B.114	259.349750	259.429750		know	know
sw2608B-ms98-a-0087	B.114	259.429750	259.559750		when	when
sw2608B-ms98-a-0087	B.114	259.559750	259.789750		it's	it's
sw2608B-ms98-a-0087	B.114	259.789750	260.679750		nice	nice
sw2608B-ms98-a-0087	B.114	260.679750	260.799750		[silence]	[silence]
sw2608B-ms98-a-0087	B.114	260.799750	261.239750		Barbecue	barbecue
sw2608B-ms98-a-0087	B.114	261.239750	261.699750		outside	outside
sw2608B-ms98-a-0087	B.114	261.699750	261.719750		[silence]	[silence]
sw2608B-ms98-a-0087	B.114	261.719750	262.179750		chicken	chicken
sw2608B-ms98-a-0087	B.114	262.179750	262.449750		and	and
sw2608B-ms98-a-0087	B.114	262.449750	262.529750		[silence]	[silence]
sw2608B-ms98-a-0087	B.114	262.529750	262.699750		that	that
sw2608B-ms98-a-0087	B.114	262.699750	262.889750		kind	kind
sw2608B-ms98-a-0087	B.114	262.889750	262.949750		of	of
sw2608B-ms98-a-0087	B.114	262.949750	262.979750		[silence]	[silence]
sw2608B-ms98-a-0087	B.114	262.979750	263.279750		stuff	stuff
sw2608B-ms98-a-0087	B.116	263.279750	263.705750		[silence]	[silence]
sw2608B-ms98-a-0088	B.116	263.705750	265.395000		[silence]	[silence]
sw2608B-ms98-a-0089	B.116	265.395000	265.895000		[silence]	[silence]
sw2608B-ms98-a-0089	B.116	265.895000	266.115000		Uh	uh
sw2608B-ms98-a-0089	B.116	266.115000	266.195000		[silence]	[silence]
sw2608B-ms98-a-0089	B.116	266.195000	266.505000		no	no
sw2608B-ms98-a-0089	B.116	266.505000	266.655000		but	but
sw2608B-ms98-a-0089	B.116	266.655000	266.715000		I	i
sw2608B-ms98-a-0089	B.116	266.715000	266.985000		have	have
sw2608B-ms98-a-0089	B.116	266.985000	267.205000		had	had
sw2608B-ms98-a-0089	B.116	267.205000	267.235000		[silence]	[silence]
sw2608B-ms98-a-0089	B.116	267.235000	267.645000		shrimp	shrimp
sw2608B-ms98-a-0089	B.118	267.645000	268.110750		[silence]	[silence]
sw2608B-ms98-a-0090	B.118	268.110750	280.804000		[silence]	[silence]
sw2608B-ms98-a-0091	B.118	280.804000	281.294000		[silence]	[silence]
sw2608B-ms98-a-0091	B.118	281.294000	281.474000		Oh	oh
sw2608B-ms98-a-0091	B.118	281.474000	281.584000		of	of
sw2608B-ms98-a-0091	B.118	281.584000	281.714000		[silence]	[silence]
sw2608B-ms98-a-0091	B.118	281.714000	282.034000		course	course
sw2608B-ms98-a-0091	B.120	282.034000	282.074000		[silence]	[silence]
sw2608B-ms98-a-0091	B.120	282.074000	282.224000		That's	that's
sw2608B-ms98-a-0091	B.122	282.224000	283.055250		[silence]	[silence]
sw2608B-ms98-a-0092	B.122	283.055250	283.715250		[silence]	[silence]
sw2608B-ms98-a-0092	B.122	283.715250	284.065250		Yeah	yeah
sw2608B-ms98-a-0092	B.124	284.065250	284.563250		[silence]	[silence]
sw2608B-ms98-a-0093	B.124	284.563250	291.711875		[silence]	[silence]
sw2608B-ms98-a-0094	B.124	291.711875	292.161875		[silence]	[silence]
sw2608B-ms98-a-0094	B.124	292.161875	292.611875		Really	really
sw2608B-ms98-a-0094	B.126	292.611875	293.081875		[silence]	[silence]
sw2608B-ms98-a-0094	B.126	293.081875	293.241875		Is	is
sw2608B-ms98-a-0094	B.126	293.241875	293.431875		it	it
sw2608B-ms98-a-0094	B.126	293.431875	293.661875		like	like
sw2608B-ms98-a-0094	B.126	293.661875	293.691875		[silence]	[silence]
sw2608B-ms98-a-0094	B.126	293.691875	294.141875		shrimp	shrimp
sw2608B-ms98-a-0094	B.128	294.141875	294.516125		[silence]	[silence]
sw2608B-ms98-a-0095	B.128	294.516125	296.087125		[silence]	[silence]
sw2608B-ms98-a-0096	B.128	296.087125	296.537125		[silence]	[silence]
sw2608B-ms98-a-0096	B.128	296.537125	296.807125		It's	it's
sw2608B-ms98-a-0096	B.128	296.807125	297.257125		similar	similar
sw2608B-ms98-a-0096	B.130	297.257125	297.257125	<INS>	Ch-	---
sw2608B-ms98-a-0096	B.132	297.257125	297.450875		[silence]	[silence]
sw2608B-ms98-a-0097	B.132	297.450875	297.740875		[silence]	[silence]
sw2608B-ms98-a-0097	B.132	297.740875	297.870875		[vocalized-noise]	[vocalized-noise]
sw2608B-ms98-a-0097	B.132	297.870875	298.497625		[silence]	[silence]
sw2608B-ms98-a-0098	B.132	298.497625	300.475750		[silence]	[silence]
sw2608B-ms98-a-0099	B.132	300.475750	300.935750		[silence]	[silence]
sw2608B-ms98-a-0099	B.132	300.935750	301.095750		Oh	oh
sw2608B-ms98-a-0099	B.132	301.095750	301.245750		it	it
sw2608B-ms98-a-0099	B.132	301.245750	301.535750		does	does
sw2608B-ms98-a-0099	B.134	301.535750	301.830250		[silence]	[silence]
sw2608B-ms98-a-0100	B.134	301.830250	303.617375		[silence]	[silence]
sw2608B-ms98-a-0101	B.134	303.617375	304.077375		[silence]	[silence]
sw2608B-ms98-a-0101	B.134	304.077375	304.267375		Does	does
sw2608B-ms98-a-0101	B.136	304.267375	304.417375		it	it
sw2608B-ms98-a-0101	B.136	304.417375	304.597375		look	look
sw2608B-ms98-a-0101	B.136	304.597375	304.807375		like	like
sw2608B-ms98-a-0101	B.136	304.807375	304.827375		[silence]	[silence]
sw2608B-ms98-a-0101	B.136	304.827375	304.877375		a	a
sw2608B-ms98-a-0101	B.136	304.877375	305.537375		lobster	lobster
sw2608B-ms98-a-0101	B.138	305.537375	306.018500		[silence]	[silence]
sw2608B-ms98-a-0102	B.138	306.018500	308.584875		[silence]	[silence]
sw2608B-ms98-a-0103	B.138	308.584875	309.034875		[silence]	[silence]
sw2608B-ms98-a-0103	B.138	309.034875	309.204875		Oh	oh
sw2608B-ms98-a-0103	B.138	309.204875	309.304875		it	it
sw2608B-ms98-a-0103	B.138	309.304875	309.534875		looks	looks
sw2608B-ms98-a-0103	B.138	309.534875	309.714875		more	more
sw2608B-ms98-a-0103	B.138	309.714875	309.904875		like	like
sw2608B-ms98-a-0103	B.138	309.904875	309.994875		a	a
sw2608B-ms98-a-0103	B.138	309.994875	310.464875		crab	crab
sw2608B-ms98-a-0103	B.140	310.464875	310.514875		Oh	oh
sw2608B-ms98-a-0103	B.142	310.514875	312.205750		[silence]	[silence]
sw2608B-ms98-a-0104	B.142	312.205750	312.745750		[silence]	[silence]
sw2608B-ms98-a-0104	B.142	312.745750	312.995750		Are	are
sw2608B-ms98-a-0104	B.142	312.995750	313.175750		they	they
sw2608B-ms98-a-0104	B.142	313.175750	313.225750		[silence]	[silence]
sw2608B-ms98-a-0104	B.142	313.225750	313.655750		thin	thin
sw2608B-ms98-a-0104	B.142	313.655750	313.845750		[silence]	[silence]
sw2608B-ms98-a-0104	B.142	313.845750	314.295750		long	long
sw2608B-ms98-a-0104	B.144	314.295750	314.924250		[silence]	[silence]
sw2608B-ms98-a-0105	B.144	314.924250	315.514250		[silence]	[silence]
sw2608B-ms98-a-0105	B.144	315.514250	315.774250		or	or
sw2608B-ms98-a-0105	B.144	315.774250	316.194250		wide	wide
sw2608B-ms98-a-0105	B.146	316.194250	316.774375		[silence]	[silence]
sw2608B-ms98-a-0106	B.146	316.774375	325.658125		[silence]	[silence]
sw2608B-ms98-a-0107	B.146	325.658125	326.128125		[silence]	[silence]
sw2608B-ms98-a-0107	B.146	326.128125	326.578125		Uh-huh	uh-huh
sw2608B-ms98-a-0107	B.148	326.578125	327.084375		[silence]	[silence]
sw2608B-ms98-a-0108	B.148	327.084375	328.961750		[silence]	[silence]
sw2608B-ms98-a-0109	B.148	328.961750	329.441750		[silence]	[silence]
sw2608B-ms98-a-0109	B.148	329.441750	329.831750		Uh-huh	uh-huh
sw2608B-ms98-a-0109	B.150	329.831750	330.335875		[silence]	[silence]
sw2608B-ms98-a-0110	B.150	330.335875	336.130500		[silence]	[silence]
sw2608B-ms98-a-0111	B.150	336.130500	336.590500		[silence]	[silence]
sw2608B-ms98-a-0111	B.150	336.590500	336.780500		Oh	oh
sw2608B-ms98-a-0111	B.150	336.780500	337.090500		yeah	yeah
sw2608B-ms98-a-0111	B.152	337.090500	337.220500		Yep	yep
sw2608B-ms98-a-0111	B.154	337.220500	338.696250		[silence]	[silence]
sw2608B-ms98-a-0112	B.154	338.696250	340.251500		[silence]	[silence]
sw2608B-ms98-a-0113	B.154	340.251500	340.521500		[silence]	[silence]
sw2608B-ms98-a-0113	B.154	340.521500	340.741500		[laughter]	[laughter]
sw2608B-ms98-a-0113	B.154	340.741500	341.421500		Oh	oh
sw2608B-ms98-a-0113	B.156	341.421500	342.371500		[laughter]	[laughter]
sw2608B-ms98-a-0113	B.156	342.371500	342.683250		[silence]	[silence]
sw2608B-ms98-a-0114	B.156	342.683250	347.850625		[silence]	[silence]
sw2608B-ms98-a-0115	B.156	347.850625	348.320625		[silence]	[silence]
sw2608B-ms98-a-0115	B.156	348.320625	348.530625		And	and
sw2608B-ms98-a-0115	B.156	348.530625	348.720625		and	and
sw2608B-ms98-a-0115	B.156	348.720625	348.990625		where	where
sw2608B-ms98-a-0115	B.156	348.990625	349.010625		[silence]	[silence]
sw2608B-ms98-a-0115	B.156	349.010625	349.180625		did	did
sw2608B-ms98-a-0115	B.156	349.180625	349.300625		you	you
sw2608B-ms98-a-0115	B.156	349.300625	349.350625		[silence]	[silence]
sw2608B-ms98-a-0115	B.156	349.350625	349.470625		say	say
sw2608B-ms98-a-0115	B.156	349.470625	349.550625		you	you
sw2608B-ms98-a-0115	B.156	349.550625	349.670625		were	were
sw2608B-ms98-a-0115	B.156	349.670625	349.930625		from	from
sw2608B-ms98-a-0115	B.158	349.930625	350.304125		[silence]	[silence]
sw2608B-ms98-a-0116	B.158	350.304125	350.654125		[silence]	[silence]
sw2608B-ms98-a-0116	B.158	350.654125	351.434125		Louisiana	Louisiana
sw2608B-ms98-a-0116	B.158	351.434125	351.564125		[silence]	[silence]
sw2608B-ms98-a-0116	B.158	351.564125	351.804125		Oh	oh
sw2608B-ms98-a-0116	B.158	351.804125	352.094125		well	well
sw2608B-ms98-a-0116	B.158	352.094125	352.424125		[silence]	[silence]
sw2608B-ms98-a-0116	B.158	352.424125	352.524125		do	do
sw2608B-ms98-a-0116	B.158	352.524125	352.604125		you	you
sw2608B-ms98-a-0116	B.158	352.604125	352.764125		do	do
sw2608B-ms98-a-0116	B.158	352.764125	353.234125		cajun	cajun
sw2608B-ms98-a-0116	B.158	353.234125	353.764125		cooking	cooking
sw2608B-ms98-a-0116	B.160	353.764125	353.961750		[silence]	[silence]
sw2608B-ms98-a-0117	B.160	353.961750	354.251750		[silence]	[silence]
sw2608B-ms98-a-0117	B.160	354.251750	354.461750		Oh	oh
sw2608B-ms98-a-0117	B.160	354.461750	354.581750		I	i
sw2608B-ms98-a-0117	B.160	354.581750	354.861750		love	love
sw2608B-ms98-a-0117	B.160	354.861750	355.091750		[silence]	[silence]
sw2608B-ms98-a-0117	B.160	355.091750	355.241750		uh	uh
sw2608B-ms98-a-0117	B.160	355.241750	355.841750		blackened	blackened
sw2608B-ms98-a-0117	B.160	355.841750	356.311750		[silence]	[silence]
sw2608B-ms98-a-0117	B.160	356.311750	356.371750		you	you
sw2608B-ms98-a-0117	B.160	356.371750	356.541750		know	know
sw2608B-ms98-a-0117	B.160	356.541750	356.651750		[silence]	[silence]
sw2608B-ms98-a-0117	B.160	356.651750	356.861750		uh	uh
sw2608B-ms98-a-0117	B.160	356.861750	356.931750		[silence]	[silence]
sw2608B-ms98-a-0117	B.160	356.931750	357.131750		the	the
sw2608B-ms98-a-0117	B.160	357.131750	357.241750		[silence]	[silence]
sw2608B-ms98-a-0117	B.160	357.241750	357.401750		the	the
sw2608B-ms98-a-0117	B.160	357.401750	357.781750		fish	fish
sw2608B-ms98-a-0117	B.160	357.781750	357.931750		and	and
sw2608B-ms98-a-0117	B.160	357.931750	357.991750		the	the
sw2608B-ms98-a-0117	B.160	357.991750	358.431750		chicken	chicken
sw2608B-ms98-a-0117	B.160	358.431750	358.691750		and	and
sw2608B-ms98-a-0117	B.160	358.691750	358.811750		[silence]	[silence]
sw2608B-ms98-a-0117	B.160	358.811750	359.001750		that	that
sw2608B-ms98-a-0117	B.160	359.001750	359.211750		kind	kind
sw2608B-ms98-a-0117	B.160	359.211750	359.271750		of	of
sw2608B-ms98-a-0117	B.160	359.271750	359.301750		[silence]	[silence]
sw2608B-ms98-a-0117	B.160	359.301750	359.901750		stuff	stuff
sw2608B-ms98-a-0117	B.162	359.901750	360.041750		[silence]	[silence]
sw2608B-ms98-a-0117	B.162	360.041750	360.251750		Oh	oh
sw2608B-ms98-a-0117	B.162	360.251750	360.771750		[silence]	[silence]
sw2608B-ms98-a-0117	B.162	360.771750	360.841750		We	we
sw2608B-ms98-a-0117	B.162	360.841750	360.991750		have	have
sw2608B-ms98-a-0117	B.162	360.991750	361.061750		a	a
sw2608B-ms98-a-0117	B.162	361.061750	361.091750		[silence]	[silence]
sw2608B-ms98-a-0117	B.162	361.091750	361.251750		few	few
sw2608B-ms98-a-0117	B.162	361.251750	361.691750		places	places
sw2608B-ms98-a-0117	B.162	361.691750	361.851750		up	up
sw2608B-ms98-a-0117	B.162	361.851750	362.001750		here	here
sw2608B-ms98-a-0117	B.162	362.001750	362.191750		that	that
sw2608B-ms98-a-0117	B.162	362.191750	362.221750		[silence]	[silence]
sw2608B-ms98-a-0117	B.162	362.221750	362.391750		do	do
sw2608B-ms98-a-0117	B.162	362.391750	362.741750		that	that
sw2608B-ms98-a-0117	B.164	362.741750	363.145500		[silence]	[silence]
sw2608B-ms98-a-0118	B.164	363.145500	363.535500		[silence]	[silence]
sw2608B-ms98-a-0118	B.164	363.535500	363.715500		And	and
sw2608B-ms98-a-0118	B.164	363.715500	363.845500		if	if
sw2608B-ms98-a-0118	B.164	363.845500	364.105500		ever	ever
sw2608B-ms98-a-0118	B.164	364.105500	364.175500		I	i
sw2608B-ms98-a-0118	B.164	364.175500	364.415500		see	see
sw2608B-ms98-a-0118	B.164	364.415500	364.485500		it	it
sw2608B-ms98-a-0118	B.164	364.485500	364.605500		on	on
sw2608B-ms98-a-0118	B.164	364.605500	364.665500		the	the
sw2608B-ms98-a-0118	B.164	364.665500	364.965500		menu	menu
sw2608B-ms98-a-0118	B.164	364.965500	365.175500		I	i
sw2608B-ms98-a-0118	B.164	365.175500	365.465500		always	always
sw2608B-ms98-a-0118	B.164	365.465500	365.685500		get	get
sw2608B-ms98-a-0118	B.164	365.685500	365.805500		it	it
sw2608B-ms98-a-0118	B.166	365.805500	366.173375		[silence]	[silence]
sw2608B-ms98-a-0119	B.166	366.173375	366.553375		[silence]	[silence]
sw2608B-ms98-a-0119	B.166	366.553375	366.743375		It	it
sw2608B-ms98-a-0119	B.166	366.743375	366.763375		[silence]	[silence]
sw2608B-ms98-a-0119	B.166	366.763375	366.903375		is	is
sw2608B-ms98-a-0119	B.166	366.903375	366.943375		[silence]	[silence]
sw2608B-ms98-a-0119	B.166	366.943375	367.423375		so	so
sw2608B-ms98-a-0119	B.166	367.423375	367.503375		[silence]	[silence]
sw2608B-ms98-a-0119	B.166	367.503375	367.793375		good	good
sw2608B-ms98-a-0119	B.168	367.793375	367.990375		[silence]	[silence]
sw2608B-ms98-a-0120	B.168	367.990375	368.160375		[silence]	[silence]
sw2608B-ms98-a-0120	B.168	368.160375	368.380375		[laughter]	[laughter]
sw2608B-ms98-a-0120	B.168	368.380375	368.497625		[silence]	[silence]
sw2608B-ms98-a-0121	B.168	368.497625	368.947625		[silence]	[silence]
sw2608B-ms98-a-0121	B.168	368.947625	369.107625		Now	now
sw2608B-ms98-a-0121	B.168	369.107625	369.367625		how	how
sw2608B-ms98-a-0121	B.168	369.367625	369.527625		do	do
sw2608B-ms98-a-0121	B.168	369.527625	369.687625		they	they
sw2608B-ms98-a-0121	B.168	369.687625	369.927625		do	do
sw2608B-ms98-a-0121	B.168	369.927625	370.047625		the	the
sw2608B-ms98-a-0121	B.168	370.047625	370.727625		blackened	blackened
sw2608B-ms98-a-0121	B.170	370.727625	371.253875		[silence]	[silence]
sw2608B-ms98-a-0122	B.170	371.253875	374.064125		[silence]	[silence]
sw2608B-ms98-a-0123	B.170	374.064125	374.464125		[silence]	[silence]
sw2608B-ms98-a-0123	B.170	374.464125	374.804125		But	but
sw2608B-ms98-a-0123	B.170	374.804125	375.004125		[silence]	[silence]
sw2608B-ms98-a-0123	B.170	375.004125	375.084125		uh	uh
sw2608B-ms98-a-0123	B.170	375.084125	375.244125		do	do
sw2608B-ms98-a-0123	B.170	375.244125	375.394125		you	you
sw2608B-ms98-a-0123	B.170	375.394125	375.524125		have	have
sw2608B-ms98-a-0123	B.170	375.524125	375.634125		to	to
sw2608B-ms98-a-0123	B.170	375.634125	375.754125		have	have
sw2608B-ms98-a-0123	B.170	375.754125	375.814125		a	a
sw2608B-ms98-a-0123	B.170	375.814125	375.874125		[silence]	[silence]
sw2608B-ms98-a-0123	B.170	375.874125	376.164125		certain	certain
sw2608B-ms98-a-0123	B.170	376.164125	376.214125		[silence]	[silence]
sw2608B-ms98-a-0123	B.170	376.214125	376.664125		skillet	skillet
sw2608B-ms98-a-0123	B.172	376.664125	376.734125		[silence]	[silence]
sw2608B-ms98-a-0123	B.172	376.734125	376.814125		or	or
sw2608B-ms98-a-0123	B.172	376.814125	376.874125		[silence]	[silence]
sw2608B-ms98-a-0123	B.172	376.874125	377.274125		something	something
sw2608B-ms98-a-0123	B.174	377.274125	377.672625		[silence]	[silence]
sw2608B-ms98-a-0124	B.174	377.672625	378.082625		[silence]	[silence]
sw2608B-ms98-a-0124	B.174	378.082625	378.542625		No	no
sw2608B-ms98-a-0124	B.176	378.542625	378.969375		[silence]	[silence]
sw2608B-ms98-a-0125	B.176	378.969375	382.301500		[silence]	[silence]
sw2608B-ms98-a-0126	B.176	382.301500	382.801500		[silence]	[silence]
sw2608B-ms98-a-0126	B.176	382.801500	382.901500		I	i
sw2608B-ms98-a-0126	B.176	382.901500	383.211500		did	did
sw2608B-ms98-a-0126	B.176	383.211500	383.451500		have	have
sw2608B-ms98-a-0126	B.176	383.451500	383.501500		[silence]	[silence]
sw2608B-ms98-a-0126	B.176	383.501500	383.571500		I	i
sw2608B-ms98-a-0126	B.176	383.571500	383.831500		don't	don't
sw2608B-ms98-a-0126	B.176	383.831500	383.971500		have	have
sw2608B-ms98-a-0126	B.176	383.971500	384.061500		it	it
sw2608B-ms98-a-0126	B.176	384.061500	384.211500		now	now
sw2608B-ms98-a-0126	B.176	384.211500	384.341500		But	but
sw2608B-ms98-a-0126	B.176	384.341500	384.371500		I	i
sw2608B-ms98-a-0126	B.176	384.371500	384.621500		have	have
sw2608B-ms98-a-0126	B.176	384.621500	384.741500		[silence]	[silence]
sw2608B-ms98-a-0126	B.176	384.741500	385.111500		mostly	mostly
sw2608B-ms98-a-0126	B.176	385.111500	385.811500		Teflon	Teflon
sw2608B-ms98-a-0126	B.178	385.811500	386.283750		[silence]	[silence]
sw2608B-ms98-a-0127	B.178	386.283750	386.723750		[silence]	[silence]
sw2608B-ms98-a-0127	B.178	386.723750	386.863750		You	you
sw2608B-ms98-a-0127	B.178	386.863750	387.043750		now	now
sw2608B-ms98-a-0127	B.178	387.043750	387.493750		but	but
sw2608B-ms98-a-0127	B.180	387.493750	387.663750	<SUB>	Do-	uh
sw2608B-ms98-a-0127	B.180	387.663750	388.152000		[silence]	[silence]
sw2608B-ms98-a-0128	B.180	388.152000	393.567750		[silence]	[silence]
sw2608B-ms98-a-0129	B.180	393.567750	393.957750		[silence]	[silence]
sw2608B-ms98-a-0129	B.180	393.957750	394.017750	<DEL>	---	d[oes]-
sw2608B-ms98-a-0129	B.180	394.017750	394.267750		[silence]	[silence]
sw2608B-ms98-a-0129	B.180	394.267750	394.427750		does	does
sw2608B-ms98-a-0129	B.180	394.427750	394.517750		it	it
sw2608B-ms98-a-0129	B.180	394.517750	394.667750		have	have
sw2608B-ms98-a-0129	B.180	394.667750	394.687750		[silence]	[silence]
sw2608B-ms98-a-0129	B.180	394.687750	394.797750		to	to
sw2608B-ms98-a-0129	B.180	394.797750	394.947750		get	get
sw2608B-ms98-a-0129	B.180	394.947750	395.587750		extremely	extremely
sw2608B-ms98-a-0129	B.180	395.587750	395.687750		[silence]	[silence]
sw2608B-ms98-a-0129	B.180	395.687750	396.007750		hot	hot
sw2608B-ms98-a-0129	B.182	396.007750	396.527750		[silence]	[silence]
sw2608B-ms98-a-0130	B.182	396.527750	396.997750		[silence]	[silence]
sw2608B-ms98-a-0130	B.182	396.997750	397.427750		Yeah	yeah
sw2608B-ms98-a-0130	B.184	397.427750	398.008750		[silence]	[silence]
sw2608B-ms98-a-0131	B.184	398.008750	403.481250		[silence]	[silence]
sw2608B-ms98-a-0132	B.184	403.481250	403.951250		[silence]	[silence]
sw2608B-ms98-a-0132	B.184	403.951250	404.431250		Uh-huh	uh-huh
sw2608B-ms98-a-0132	B.186	404.431250	405.261250		[silence]	[silence]
sw2608B-ms98-a-0132	B.186	405.261250	405.291250		Oh	oh
sw2608B-ms98-a-0132	B.186	405.291250	405.681250		oh	oh
sw2608B-ms98-a-0132	B.188	405.681250	405.991250		[silence]	[silence]
sw2608B-ms98-a-0132	B.188	405.991250	406.141250		I	i
sw2608B-ms98-a-0132	B.188	406.141250	406.511250		see	see
sw2608B-ms98-a-0132	B.190	406.511250	407.110000		[silence]	[silence]
sw2608B-ms98-a-0133	B.190	407.110000	407.660000		[silence]	[silence]
sw2608B-ms98-a-0133	B.190	407.660000	408.100000		Yeah	yeah
sw2608B-ms98-a-0133	B.192	408.100000	408.633375		[silence]	[silence]
sw2608B-ms98-a-0134	B.192	408.633375	415.054250		[silence]	[silence]
sw2608B-ms98-a-0135	B.192	415.054250	415.534250		[silence]	[silence]
sw2608B-ms98-a-0135	B.192	415.534250	415.834250		Oh	oh
sw2608B-ms98-a-0135	B.192	415.834250	415.974250		I	i
sw2608B-ms98-a-0135	B.192	415.974250	416.124250		[silence]	[silence]
sw2608B-ms98-a-0135	B.192	416.124250	416.694250		see	see
sw2608B-ms98-a-0135	B.194	416.694250	417.184625		[silence]	[silence]
sw2608B-ms98-a-0136	B.194	417.184625	422.777625		[silence]	[silence]
sw2608B-ms98-a-0137	B.194	422.777625	423.247625		[silence]	[silence]
sw2608B-ms98-a-0137	B.194	423.247625	423.597625		Oh	oh
sw2608B-ms98-a-0137	B.196	423.597625	424.242250		[silence]	[silence]
sw2608B-ms98-a-0138	B.196	424.242250	424.892250		[silence]	[silence]
sw2608B-ms98-a-0138	B.196	424.892250	425.562250		Oh	oh
sw2608B-ms98-a-0138	B.196	425.562250	426.043125		[silence]	[silence]
sw2608B-ms98-a-0139	B.196	426.043125	428.352000		[silence]	[silence]
sw2608B-ms98-a-0140	B.196	428.352000	428.832000		[silence]	[silence]
sw2608B-ms98-a-0140	B.196	428.832000	429.042000	<DEL>	---	oh
sw2608B-ms98-a-0140	B.196	429.042000	429.462000		really	really
sw2608B-ms98-a-0140	B.198	429.462000	429.798875		[silence]	[silence]
sw2608B-ms98-a-0141	B.198	429.798875	430.188875		[silence]	[silence]
sw2608B-ms98-a-0141	B.198	430.188875	430.568875		Oh	oh
sw2608B-ms98-a-0141	B.198	430.568875	431.018875		[silence]	[silence]
sw2608B-ms98-a-0141	B.198	431.018875	431.188875		Now	now
sw2608B-ms98-a-0141	B.198	431.188875	431.328875		[silence]	[silence]
sw2608B-ms98-a-0141	B.198	431.328875	431.548875		would	would
sw2608B-ms98-a-0141	B.198	431.548875	431.678875		you	you
sw2608B-ms98-a-0141	B.198	431.678875	431.878875		would	would
sw2608B-ms98-a-0141	B.198	431.878875	432.168875		cook	cook
sw2608B-ms98-a-0141	B.198	432.168875	432.188875		[silence]	[silence]
sw2608B-ms98-a-0141	B.198	432.188875	432.338875		it	it
sw2608B-ms98-a-0141	B.198	432.338875	432.408875		[silence]	[silence]
sw2608B-ms98-a-0141	B.198	432.408875	432.548875		for	for
sw2608B-ms98-a-0141	B.198	432.548875	432.648875		the	the
sw2608B-ms98-a-0141	B.198	432.648875	432.898875		same	same
sw2608B-ms98-a-0141	B.198	432.898875	433.168875		amount	amount
sw2608B-ms98-a-0141	B.198	433.168875	433.228875		of	of
sw2608B-ms98-a-0141	B.198	433.228875	433.258875		[silence]	[silence]
sw2608B-ms98-a-0141	B.198	433.258875	433.558875		time	time
sw2608B-ms98-a-0141	B.198	433.558875	433.678875		as	as
sw2608B-ms98-a-0141	B.198	433.678875	433.778875		you	you
sw2608B-ms98-a-0141	B.198	433.778875	434.028875		would	would
sw2608B-ms98-a-0141	B.198	434.028875	434.418875		[silence]	[silence]
sw2608B-ms98-a-0141	B.198	434.418875	434.878875		prepare	prepare
sw2608B-ms98-a-0141	B.198	434.878875	435.048875		it	it
sw2608B-ms98-a-0141	B.198	435.048875	435.258875		[silence]	[silence]
sw2608B-ms98-a-0141	B.198	435.258875	435.478875		any	any
sw2608B-ms98-a-0141	B.198	435.478875	435.698875		other	other
sw2608B-ms98-a-0141	B.198	435.698875	436.028875		time	time
sw2608B-ms98-a-0141	B.200	436.028875	436.438875		[silence]	[silence]
sw2608B-ms98-a-0141	B.200	436.438875	436.498875		Is	is
sw2608B-ms98-a-0141	B.200	436.498875	436.668875		[silence]	[silence]
sw2608B-ms98-a-0141	B.200	436.668875	436.838875		that	that
sw2608B-ms98-a-0141	B.200	436.838875	436.948875		what	what
sw2608B-ms98-a-0141	B.200	436.948875	437.078875		you're	you're
sw2608B-ms98-a-0141	B.200	437.078875	437.338875		saying	saying
sw2608B-ms98-a-0141	B.202	437.338875	437.572250		[silence]	[silence]
sw2608B-ms98-a-0142	B.202	437.572250	437.802250		[silence]	[silence]
sw2608B-ms98-a-0142	B.202	437.802250	438.152250		Oh	oh
sw2608B-ms98-a-0142	B.202	438.152250	438.712250		uh-huh	uh-huh
sw2608B-ms98-a-0142	B.202	438.712250	439.050000		[silence]	[silence]
sw2608B-ms98-a-0143	B.202	439.050000	439.340000		[silence]	[silence]
sw2608B-ms98-a-0143	B.202	439.340000	439.530000		Because	because
sw2608B-ms98-a-0143	B.204	439.530000	439.630000		I	i
sw2608B-ms98-a-0143	B.204	439.630000	439.800000		could	could
sw2608B-ms98-a-0143	B.204	439.800000	440.030000		have	have
sw2608B-ms98-a-0143	B.204	440.030000	440.310000		[silence]	[silence]
sw2608B-ms98-a-0143	B.204	440.310000	440.410000		the	the
sw2608B-ms98-a-0143	B.204	440.410000	440.580000		uh	uh
sw2608B-ms98-a-0143	B.204	440.580000	441.000000		chicken	chicken
sw2608B-ms98-a-0143	B.204	441.000000	441.100000		on	on
sw2608B-ms98-a-0143	B.204	441.100000	441.160000		the	the
sw2608B-ms98-a-0143	B.204	441.160000	441.670000		skewers	skewers
sw2608B-ms98-a-0143	B.204	441.670000	442.273500		[silence]	[silence]
sw2608B-ms98-a-0144	B.204	442.273500	442.713500		[silence]	[silence]
sw2608B-ms98-a-0144	B.204	442.713500	443.053500		with	with
sw2608B-ms98-a-0144	B.204	443.053500	443.253500		uh	uh
sw2608B-ms98-a-0144	B.204	443.253500	443.343500		uh	uh
sw2608B-ms98-a-0144	B.204	443.343500	443.413500		[silence]	[silence]
sw2608B-ms98-a-0144	B.204	443.413500	443.873500		blackened	blackened
sw2608B-ms98-a-0144	B.204	443.873500	444.473500		seasoning	seasoning
sw2608B-ms98-a-0144	B.206	444.473500	444.891375		[silence]	[silence]
sw2608B-ms98-a-0145	B.206	444.891375	445.341375		[silence]	[silence]
sw2608B-ms98-a-0145	B.206	445.341375	445.571375		And	and
sw2608B-ms98-a-0145	B.206	445.571375	445.691375		[silence]	[silence]
sw2608B-ms98-a-0145	B.206	445.691375	445.961375		oh	oh
sw2608B-ms98-a-0145	B.206	445.961375	446.191375		that	that
sw2608B-ms98-a-0145	B.206	446.191375	446.331375		is	is
sw2608B-ms98-a-0145	B.206	446.331375	446.371375		[silence]	[silence]
sw2608B-ms98-a-0145	B.206	446.371375	446.691375		so	so
sw2608B-ms98-a-0145	B.206	446.691375	447.061375		good	good
sw2608B-ms98-a-0145	B.206	447.061375	447.801375		[silence]	[silence]
sw2608B-ms98-a-0145	B.206	447.801375	448.601375		Delicious	delicious
sw2608B-ms98-a-0145	B.208	448.601375	448.834750		[silence]	[silence]
sw2608B-ms98-a-0146	B.208	448.834750	454.184375		[silence]	[silence]
sw2608B-ms98-a-0147	B.208	454.184375	454.594375		[silence]	[silence]
sw2608B-ms98-a-0147	B.208	454.594375	455.044375		Uh-huh	uh-huh
sw2608B-ms98-a-0147	B.210	455.044375	455.044375	<INS>	Uh-huh	---
sw2608B-ms98-a-0147	B.212	455.044375	455.548000		[silence]	[silence]
sw2608B-ms98-a-0148	B.212	455.548000	462.475250		[silence]	[silence]
sw2608B-ms98-a-0149	B.212	462.475250	462.965250		[silence]	[silence]
sw2608B-ms98-a-0149	B.212	462.965250	463.585250		Oh	oh
sw2608B-ms98-a-0149	B.214	463.585250	464.305875		[silence]	[silence]
sw2608B-ms98-a-0150	B.214	464.305875	464.985875		[silence]	[silence]
sw2608B-ms98-a-0150	B.214	464.985875	465.175875		It	it
sw2608B-ms98-a-0150	B.214	465.175875	465.415875		is	is
sw2608B-ms98-a-0150	B.214	465.415875	465.555875		I	i
sw2608B-ms98-a-0150	B.214	465.555875	465.805875		I	i
sw2608B-ms98-a-0150	B.214	465.805875	465.855875		[silence]	[silence]
sw2608B-ms98-a-0150	B.214	465.855875	466.115875		love	love
sw2608B-ms98-a-0150	B.214	466.115875	466.255875		it	it
sw2608B-ms98-a-0150	B.216	466.255875	466.625875		[silence]	[silence]
sw2608B-ms98-a-0150	B.216	466.625875	466.745875		I	i
sw2608B-ms98-a-0150	B.216	466.745875	466.795875		[silence]	[silence]
sw2608B-ms98-a-0150	B.216	466.795875	466.905875		I	i
sw2608B-ms98-a-0150	B.216	466.905875	467.145875		in	in
sw2608B-ms98-a-0150	B.216	467.145875	467.405875		fact	fact
sw2608B-ms98-a-0150	B.216	467.405875	467.485875		I	i
sw2608B-ms98-a-0150	B.216	467.485875	467.645875		was	was
sw2608B-ms98-a-0150	B.216	467.645875	467.755875		in	in
sw2608B-ms98-a-0150	B.216	467.755875	468.155875		Texas	Texas
sw2608B-ms98-a-0150	B.216	468.155875	468.255875		for	for
sw2608B-ms98-a-0150	B.216	468.255875	468.295875		a	a
sw2608B-ms98-a-0150	B.216	468.295875	468.515875		little	little
sw2608B-ms98-a-0150	B.216	468.515875	468.855875		while	while
sw2608B-ms98-a-0150	B.218	468.855875	469.345875		[silence]	[silence]
sw2608B-ms98-a-0150	B.218	469.345875	469.475875		And	and
sw2608B-ms98-a-0150	B.218	469.475875	469.565875		I	i
sw2608B-ms98-a-0150	B.218	469.565875	470.055875		liked	liked
sw2608B-ms98-a-0150	B.218	470.055875	470.275875		uh	uh
sw2608B-ms98-a-0150	B.218	470.275875	471.005875		[silence]	[silence]
sw2608B-ms98-a-0150	B.218	471.005875	471.355875		the	the
sw2608B-ms98-a-0150	B.218	471.355875	472.075875		barbecues	barbecues
sw2608B-ms98-a-0150	B.218	472.075875	472.185875		and	and
sw2608B-ms98-a-0150	B.218	472.185875	472.245875		the	the
sw2608B-ms98-a-0150	B.218	472.245875	472.745875		Mexican	Mexican
sw2608B-ms98-a-0150	B.218	472.745875	473.105875		food	food
sw2608B-ms98-a-0150	B.220	473.105875	473.293375		[silence]	[silence]
sw2608B-ms98-a-0151	B.220	473.293375	473.473375		[silence]	[silence]
sw2608B-ms98-a-0151	B.220	473.473375	473.563375		I	i
sw2608B-ms98-a-0151	B.220	473.563375	473.833375		have	have
sw2608B-ms98-a-0151	B.220	473.833375	473.883375		[silence]	[silence]
sw2608B-ms98-a-0151	B.220	473.883375	473.963375		a	a
sw2608B-ms98-a-0151	B.220	473.963375	474.373375		passion	passion
sw2608B-ms98-a-0151	B.220	474.373375	474.503375		for	for
sw2608B-ms98-a-0151	B.220	474.503375	474.693375		all	all
sw2608B-ms98-a-0151	B.220	474.693375	474.893375		that	that
sw2608B-ms98-a-0151	B.220	474.893375	475.163375		type	type
sw2608B-ms98-a-0151	B.220	475.163375	475.273375		of	of
sw2608B-ms98-a-0151	B.220	475.273375	475.363375		[silence]	[silence]
sw2608B-ms98-a-0151	B.220	475.363375	476.143375		different	different
sw2608B-ms98-a-0151	B.220	476.143375	476.903375		tastes	tastes
sw2608B-ms98-a-0151	B.220	476.903375	477.113375		Because	because
sw2608B-ms98-a-0151	B.220	477.113375	477.173375		I	i
sw2608B-ms98-a-0151	B.220	477.173375	477.273375		have	have
sw2608B-ms98-a-0151	B.220	477.273375	477.413375		been	been
sw2608B-ms98-a-0151	B.220	477.413375	477.623375		brought	brought
sw2608B-ms98-a-0151	B.220	477.623375	477.733375		up	up
sw2608B-ms98-a-0151	B.220	477.733375	478.053375		mostly	mostly
sw2608B-ms98-a-0151	B.220	478.053375	478.613375		Italian	Italian
sw2608B-ms98-a-0151	B.220	478.613375	478.763375		[silence]	[silence]
sw2608B-ms98-a-0151	B.220	478.763375	479.333375		American	American
sw2608B-ms98-a-0151	B.220	479.333375	479.673375		food	food
sw2608B-ms98-a-0151	B.220	479.673375	480.003375		[silence]	[silence]
sw2608B-ms98-a-0151	B.220	480.003375	480.173375		Because	because
sw2608B-ms98-a-0151	B.220	480.173375	480.303375		my	my
sw2608B-ms98-a-0151	B.220	480.303375	480.783375		[silence]	[silence]
sw2608B-ms98-a-0151	B.220	480.783375	480.933375		uh	uh
sw2608B-ms98-a-0151	B.220	480.933375	481.463375		parents	parents
sw2608B-ms98-a-0151	B.220	481.463375	481.683375		are	are
sw2608B-ms98-a-0151	B.220	481.683375	481.833375		[silence]	[silence]
sw2608B-ms98-a-0151	B.220	481.833375	482.293375		Italian	Italian
sw2608B-ms98-a-0151	B.220	482.293375	482.483375		and	and
sw2608B-ms98-a-0151	B.220	482.483375	483.073375		Portuguese	Portuguese
sw2608B-ms98-a-0151	B.220	483.073375	483.335500		[silence]	[silence]
sw2608B-ms98-a-0152	B.220	483.335500	483.545500		[silence]	[silence]
sw2608B-ms98-a-0152	B.220	483.545500	483.675500		So	so
sw2608B-ms98-a-0152	B.220	483.675500	483.785500		we	we
sw2608B-ms98-a-0152	B.220	483.785500	484.005500		cook	cook
sw2608B-ms98-a-0152	B.220	484.005500	484.075500		a	a
sw2608B-ms98-a-0152	B.220	484.075500	484.285500		lot	lot
sw2608B-ms98-a-0152	B.220	484.285500	484.355500		of	of
sw2608B-ms98-a-0152	B.220	484.355500	485.155500		pasta	pasta
sw2608B-ms98-a-0152	B.220	485.155500	485.375500		and	and
sw2608B-ms98-a-0152	B.220	485.375500	485.895500		[silence]	[silence]
sw2608B-ms98-a-0152	B.220	485.895500	486.075500		uh	uh
sw2608B-ms98-a-0152	B.220	486.075500	486.745500		gravies	gravies
sw2608B-ms98-a-0152	B.220	486.745500	486.915500		and	and
sw2608B-ms98-a-0152	B.220	486.915500	487.625500		pizzas	pizzas
sw2608B-ms98-a-0152	B.220	487.625500	487.875500		and	and
sw2608B-ms98-a-0152	B.220	487.875500	488.405500		[silence]	[silence]
sw2608B-ms98-a-0152	B.220	488.405500	488.515500		you	you
sw2608B-ms98-a-0152	B.220	488.515500	488.725500		know	know
sw2608B-ms98-a-0152	B.220	488.725500	489.075500		roasts	roasts
sw2608B-ms98-a-0152	B.220	489.075500	489.185500		and	and
sw2608B-ms98-a-0152	B.220	489.185500	489.345500		that	that
sw2608B-ms98-a-0152	B.220	489.345500	489.555500		kind	kind
sw2608B-ms98-a-0152	B.220	489.555500	489.615500		of	of
sw2608B-ms98-a-0152	B.220	489.615500	489.675500		[silence]	[silence]
sw2608B-ms98-a-0152	B.220	489.675500	489.925500		thing	thing
sw2608B-ms98-a-0152	B.222	489.925500	490.565500		[silence]	[silence]
sw2608B-ms98-a-0152	B.222	490.565500	490.765500		That's	that's
sw2608B-ms98-a-0152	B.222	490.765500	490.885500		why	why
sw2608B-ms98-a-0152	B.222	490.885500	490.985500		I	i
sw2608B-ms98-a-0152	B.222	490.985500	491.355500		enjoy	enjoy
sw2608B-ms98-a-0152	B.222	491.355500	491.645500		going	going
sw2608B-ms98-a-0152	B.222	491.645500	491.805500		to	to
sw2608B-ms98-a-0152	B.222	491.805500	492.265500		restaurants	restaurants
sw2608B-ms98-a-0152	B.222	492.265500	492.405500		and	and
sw2608B-ms98-a-0152	B.222	492.405500	492.645500		have	have
sw2608B-ms98-a-0152	B.222	492.645500	492.655500		[silence]	[silence]
sw2608B-ms98-a-0152	B.222	492.655500	492.735500		you	you
sw2608B-ms98-a-0152	B.222	492.735500	492.875500		know	know
sw2608B-ms98-a-0152	B.222	492.875500	493.295500		trying	trying
sw2608B-ms98-a-0152	B.222	493.295500	493.645500		different	different
sw2608B-ms98-a-0152	B.222	493.645500	493.695500		[silence]	[silence]
sw2608B-ms98-a-0152	B.222	493.695500	494.025500		things	things
sw2608B-ms98-a-0152	B.224	494.025500	494.499500		[silence]	[silence]
sw2608B-ms98-a-0153	B.224	494.499500	497.352625		[silence]	[silence]
sw2608B-ms98-a-0154	B.224	497.352625	497.832625		[silence]	[silence]
sw2608B-ms98-a-0154	B.224	497.832625	497.952625		I	i
sw2608B-ms98-a-0154	B.224	497.952625	498.172625		would	would
sw2608B-ms98-a-0154	B.224	498.172625	498.372625		love	love
sw2608B-ms98-a-0154	B.224	498.372625	498.692625		to	to
sw2608B-ms98-a-0154	B.226	498.692625	499.197125		[silence]	[silence]
sw2608B-ms98-a-0155	B.226	499.197125	499.587125		[silence]	[silence]
sw2608B-ms98-a-0155	B.226	499.587125	499.907125		I	i
sw2608B-ms98-a-0155	B.228	499.907125	500.398000		[silence]	[silence]
sw2608B-ms98-a-0156	B.228	500.398000	505.475875		[silence]	[silence]
sw2608B-ms98-a-0157	B.228	505.475875	505.955875		[silence]	[silence]
sw2608B-ms98-a-0157	B.228	505.955875	506.415875		Really	really
sw2608B-ms98-a-0157	B.230	506.415875	506.919125		[silence]	[silence]
sw2608B-ms98-a-0158	B.230	506.919125	508.411750		[silence]	[silence]
sw2608B-ms98-a-0159	B.230	508.411750	508.871750		[silence]	[silence]
sw2608B-ms98-a-0159	B.230	508.871750	509.281750		Uh-huh	uh-huh
sw2608B-ms98-a-0159	B.232	509.281750	509.792125		[silence]	[silence]
sw2608B-ms98-a-0160	B.232	509.792125	514.094250		[silence]	[silence]
sw2608B-ms98-a-0161	B.232	514.094250	514.554250		[silence]	[silence]
sw2608B-ms98-a-0161	B.232	514.554250	514.794250		Is	is
sw2608B-ms98-a-0161	B.232	514.794250	514.994250		that	that
sw2608B-ms98-a-0161	B.232	514.994250	515.264250		right	right
sw2608B-ms98-a-0161	B.234	515.264250	515.710500		[silence]	[silence]
sw2608B-ms98-a-0162	B.234	515.710500	519.013000		[silence]	[silence]
sw2608B-ms98-a-0163	B.234	519.013000	519.493000		[silence]	[silence]
sw2608B-ms98-a-0163	B.234	519.493000	519.893000		Uh-huh	uh-huh
sw2608B-ms98-a-0163	B.236	519.893000	520.394250		[silence]	[silence]
sw2608B-ms98-a-0164	B.236	520.394250	523.617500		[silence]	[silence]
sw2608B-ms98-a-0165	B.236	523.617500	524.107500		[silence]	[silence]
sw2608B-ms98-a-0165	B.236	524.107500	524.297500		Now	now
sw2608B-ms98-a-0165	B.236	524.297500	524.797500	<SUB>	wher-	where
sw2608B-ms98-a-0165	B.236	524.797500	525.027500		where	where
sw2608B-ms98-a-0165	B.236	525.027500	525.087500		do	do
sw2608B-ms98-a-0165	B.236	525.087500	525.217500		you	you
sw2608B-ms98-a-0165	B.236	525.217500	525.267500		[silence]	[silence]
sw2608B-ms98-a-0165	B.236	525.267500	525.487500		go	go
sw2608B-ms98-a-0165	B.236	525.487500	525.657500		when	when
sw2608B-ms98-a-0165	B.236	525.657500	525.747500		you	you
sw2608B-ms98-a-0165	B.236	525.747500	525.917500		go	go
sw2608B-ms98-a-0165	B.236	525.917500	525.977500		[silence]	[silence]
sw2608B-ms98-a-0165	B.236	525.977500	526.147500		there	there
sw2608B-ms98-a-0165	B.236	526.147500	526.477500		[silence]	[silence]
sw2608B-ms98-a-0165	B.236	526.477500	526.567500		Uh	uh
sw2608B-ms98-a-0165	B.236	526.567500	526.787500		[silence]	[silence]
sw2608B-ms98-a-0165	B.236	526.787500	527.007500		right	right
sw2608B-ms98-a-0165	B.236	527.007500	527.197500		on	on
sw2608B-ms98-a-0165	B.236	527.197500	527.657500		Basin	Basin
sw2608B-ms98-a-0165	B.236	527.657500	527.697500		[silence]	[silence]
sw2608B-ms98-a-0165	B.236	527.697500	527.947500		Street	Street
sw2608B-ms98-a-0165	B.236	527.947500	528.037500		and	and
sw2608B-ms98-a-0165	B.236	528.037500	528.247500		those	those
sw2608B-ms98-a-0165	B.236	528.247500	528.697500		places	places
sw2608B-ms98-a-0165	B.238	528.697500	529.181875		[silence]	[silence]
sw2608B-ms98-a-0166	B.238	529.181875	532.963750		[silence]	[silence]
sw2608B-ms98-a-0167	B.238	532.963750	533.393750		[silence]	[silence]
sw2608B-ms98-a-0167	B.238	533.393750	533.823750		Uh-huh	uh-huh
sw2608B-ms98-a-0167	B.240	533.823750	534.314250		[silence]	[silence]
sw2608B-ms98-a-0168	B.240	534.314250	540.164875		[silence]	[silence]
sw2608B-ms98-a-0169	B.240	540.164875	540.654875		[silence]	[silence]
sw2608B-ms98-a-0169	B.240	540.654875	540.774875		Oh	oh
sw2608B-ms98-a-0169	B.242	540.774875	541.252625		[silence]	[silence]
sw2608B-ms98-a-0170	B.242	541.252625	542.713375		[silence]	[silence]
sw2608B-ms98-a-0171	B.242	542.713375	543.203375		[silence]	[silence]
sw2608B-ms98-a-0171	B.242	543.203375	543.433375		Oh	oh
sw2608B-ms98-a-0171	B.242	543.433375	543.583375		I	i
sw2608B-ms98-a-0171	B.242	543.583375	543.983375		see	see
sw2608B-ms98-a-0171	B.244	543.983375	544.487750		[silence]	[silence]
sw2608B-ms98-a-0172	B.244	544.487750	555.849750		[silence]	[silence]
sw2608B-ms98-a-0173	B.244	555.849750	556.349750		[silence]	[silence]
sw2608B-ms98-a-0173	B.244	556.349750	556.979750		Oh	oh
sw2608B-ms98-a-0173	B.244	556.979750	557.029750		[silence]	[silence]
sw2608B-ms98-a-0173	B.244	557.029750	557.449750		that's	that's
sw2608B-ms98-a-0173	B.244	557.449750	557.749750		nice	nice
sw2608B-ms98-a-0173	B.246	557.749750	558.207625		[silence]	[silence]
sw2608B-ms98-a-0174	B.246	558.207625	564.583875		[silence]	[silence]
sw2608B-ms98-a-0175	B.246	564.583875	565.073875		[silence]	[silence]
sw2608B-ms98-a-0175	B.246	565.073875	565.403875		Uh-huh	uh-huh
sw2608B-ms98-a-0175	B.248	565.403875	565.905125		[silence]	[silence]
sw2608B-ms98-a-0176	B.248	565.905125	568.677375		[silence]	[silence]
sw2608B-ms98-a-0177	B.248	568.677375	569.167375		[silence]	[silence]
sw2608B-ms98-a-0177	B.248	569.167375	569.687375		Really	really
sw2608B-ms98-a-0177	B.250	569.687375	570.143625		[silence]	[silence]
sw2608B-ms98-a-0178	B.250	570.143625	572.952500		[silence]	[silence]
sw2608B-ms98-a-0179	B.250	572.952500	573.432500		[silence]	[silence]
sw2608B-ms98-a-0179	B.250	573.432500	573.672500		And	and
sw2608B-ms98-a-0179	B.250	573.672500	573.732500		[silence]	[silence]
sw2608B-ms98-a-0179	B.250	573.732500	573.932500		don't	don't
sw2608B-ms98-a-0179	B.250	573.932500	574.002500		they	they
sw2608B-ms98-a-0179	B.250	574.002500	574.232500		make	make
sw2608B-ms98-a-0179	B.250	574.232500	574.262500		a	a
sw2608B-ms98-a-0179	B.250	574.262500	574.532500		lot	lot
sw2608B-ms98-a-0179	B.250	574.532500	574.612500		of	of
sw2608B-ms98-a-0179	B.250	574.612500	574.792500		[silence]	[silence]
sw2608B-ms98-a-0179	B.250	574.792500	575.202500		um	um
sw2608B-ms98-a-0179	B.250	575.202500	575.892500		[silence]	[silence]
sw2608B-ms98-a-0179	B.250	575.892500	576.042500		I'm	i'm
sw2608B-ms98-a-0179	B.250	576.042500	576.252500		trying	trying
sw2608B-ms98-a-0179	B.250	576.252500	576.312500		to	to
sw2608B-ms98-a-0179	B.250	576.312500	576.472500		think	think
sw2608B-ms98-a-0179	B.250	576.472500	576.622500		what	what
sw2608B-ms98-a-0179	B.250	576.622500	576.702500		they	they
sw2608B-ms98-a-0179	B.250	576.702500	576.962500		call	call
sw2608B-ms98-a-0179	B.250	576.962500	577.222500		their	their
sw2608B-ms98-a-0179	B.250	577.222500	577.602500		soup	soup
sw2608B-ms98-a-0179	B.250	577.602500	577.862500		[silence]	[silence]
sw2608B-ms98-a-0179	B.250	577.862500	577.932500		I	i
sw2608B-ms98-a-0179	B.250	577.932500	578.142500		don't	don't
sw2608B-ms98-a-0179	B.250	578.142500	578.322500		know	know
sw2608B-ms98-a-0179	B.252	578.322500	578.744375		[silence]	[silence]
sw2608B-ms98-a-0180	B.252	578.744375	579.124375		[silence]	[silence]
sw2608B-ms98-a-0180	B.252	579.124375	579.452875		Yeah	yeah
sw2608B-ms98-a-0180	B.252	579.452875	579.924375		jumbo	jumbo
sw2608B-ms98-a-0180	B.254	579.924375	580.644375		[silence]	[silence]
sw2608B-ms98-a-0180	B.254	580.644375	581.274375		Gumbo	gumbo
sw2608B-ms98-a-0180	B.256	581.274375	581.544375		right	right
sw2608B-ms98-a-0180	B.258	581.544375	581.954375		[silence]	[silence]
sw2608B-ms98-a-0180	B.258	581.954375	582.164375		Is	is
sw2608B-ms98-a-0180	B.258	582.164375	582.294375		is	is
sw2608B-ms98-a-0180	B.258	582.294375	582.584375		[silence]	[silence]
sw2608B-ms98-a-0180	B.258	582.584375	582.724375		is	is
sw2608B-ms98-a-0180	B.258	582.724375	582.894375		that	that
sw2608B-ms98-a-0180	B.258	582.894375	583.094375		with	with
sw2608B-ms98-a-0180	B.258	583.094375	583.694375		seafood	seafood
sw2608B-ms98-a-0180	B.260	583.694375	584.121500		[silence]	[silence]
sw2608B-ms98-a-0181	B.260	584.121500	586.410000		[silence]	[silence]
sw2608B-ms98-a-0182	B.260	586.410000	586.900000		[silence]	[silence]
sw2608B-ms98-a-0182	B.260	586.900000	587.030000		Oh	oh
sw2608B-ms98-a-0182	B.260	587.030000	587.180000		you	you
sw2608B-ms98-a-0182	B.260	587.180000	587.660000		can	can
sw2608B-ms98-a-0182	B.262	587.660000	588.126125		[silence]	[silence]
sw2608B-ms98-a-0183	B.262	588.126125	588.606125		[silence]	[silence]
sw2608B-ms98-a-0183	B.262	588.606125	588.826125		That	that
sw2608B-ms98-a-0183	B.262	588.826125	589.166125		looks	looks
sw2608B-ms98-a-0183	B.262	589.166125	589.426125		good	good
sw2608B-ms98-a-0183	B.262	589.426125	589.636125		too	too
sw2608B-ms98-a-0183	B.262	589.636125	589.786125		I've	i've
sw2608B-ms98-a-0183	B.262	589.786125	590.076125		seen	seen
sw2608B-ms98-a-0183	B.262	590.076125	590.266125		them	them
sw2608B-ms98-a-0183	B.262	590.266125	590.496125		[silence]	[silence]
sw2608B-ms98-a-0183	B.262	590.496125	590.526125		d-	d[o]-
sw2608B-ms98-a-0183	B.262	590.526125	590.596125		the	the
sw2608B-ms98-a-0183	B.262	590.596125	590.946125		chefs	chefs
sw2608B-ms98-a-0183	B.262	590.946125	591.066125		on	on
sw2608B-ms98-a-0183	B.262	591.066125	591.456125	<CONT>	T	TV
sw2608B-ms98-a-0183	B.262	591.456125	591.456125	<CONT>	V	+++
sw2608B-ms98-a-0183	B.262	591.456125	591.656125		do	do
sw2608B-ms98-a-0183	B.262	591.656125	591.956125		that	that
sw2608B-ms98-a-0183	B.264	591.956125	592.506125		[silence]	[silence]
sw2608B-ms98-a-0183	B.264	592.506125	592.596125		And	and
sw2608B-ms98-a-0183	B.264	592.596125	592.716125		oh	oh
sw2608B-ms98-a-0183	B.264	592.716125	592.836125		it	it
sw2608B-ms98-a-0183	B.264	592.836125	593.056125		looks	looks
sw2608B-ms98-a-0183	B.264	593.056125	593.596125		delicious	delicious
sw2608B-ms98-a-0183	B.266	593.596125	593.896125		[silence]	[silence]
sw2608B-ms98-a-0184	B.266	593.896125	594.196125		[silence]	[silence]
sw2608B-ms98-a-0184	B.266	594.196125	594.326125		See	see
sw2608B-ms98-a-0184	B.266	594.326125	594.446125		we	we
sw2608B-ms98-a-0184	B.266	594.446125	594.686125		do	do
sw2608B-ms98-a-0184	B.266	594.686125	595.096125		um	um
sw2608B-ms98-a-0184	B.266	595.096125	595.296125		[silence]	[silence]
sw2608B-ms98-a-0184	B.266	595.296125	595.536125		uh	uh
sw2608B-ms98-a-0184	B.266	595.536125	595.606125		a	a
sw2608B-ms98-a-0184	B.266	595.606125	595.936125		thing	thing
sw2608B-ms98-a-0184	B.266	595.936125	596.066125		we	we
sw2608B-ms98-a-0184	B.266	596.066125	596.366125		call	call
sw2608B-ms98-a-0184	B.266	596.366125	596.576125		it	it
sw2608B-ms98-a-0184	B.266	596.576125	596.626125		a	a
sw2608B-ms98-a-0184	B.266	596.626125	596.986125		sea	sea
sw2608B-ms98-a-0184	B.266	596.986125	597.556125		bake	bake
sw2608B-ms98-a-0184	B.266	597.556125	598.206125		[silence]	[silence]
sw2608B-ms98-a-0184	B.266	598.206125	598.326125		You	you
sw2608B-ms98-a-0184	B.266	598.326125	598.446125		uh	uh
sw2608B-ms98-a-0184	B.266	598.446125	598.586125		[silence]	[silence]
sw2608B-ms98-a-0184	B.266	598.586125	598.646125		you	you
sw2608B-ms98-a-0184	B.266	598.646125	599.036125		take	take
sw2608B-ms98-a-0184	B.266	599.036125	599.466125		[silence]	[silence]
sw2608B-ms98-a-0184	B.266	599.466125	600.036125		clams	clams
sw2608B-ms98-a-0184	B.266	600.036125	600.111125		[silence]	[silence]
