sw2726A-ms98-a-0001	A.1	0.000000	0.009375		[silence]	[silence]
sw2726A-ms98-a-0001	A.1	0.009375	0.504000		[noise]	[noise]
sw2726A-ms98-a-0001	A.1	0.504000	0.998500		[silence]	[silence]
sw2726A-ms98-a-0002	A.1	0.998500	1.198500		[silence]	[silence]
sw2726A-ms98-a-0002	A.1	1.198500	1.578500		Okay	okay
sw2726A-ms98-a-0002	A.1	1.578500	1.768500		yeah	yeah
sw2726A-ms98-a-0002	A.1	1.768500	1.868500		I'm	i'm
sw2726A-ms98-a-0002	A.1	1.868500	2.298500		originally	originally
sw2726A-ms98-a-0002	A.1	2.298500	2.518500		from	from
sw2726A-ms98-a-0002	A.1	2.518500	2.648500		New	New
sw2726A-ms98-a-0002	A.1	2.648500	2.998500		York	York
sw2726A-ms98-a-0002	A.1	2.998500	3.158500		and	and
sw2726A-ms98-a-0002	A.1	3.158500	3.258500		I	i
sw2726A-ms98-a-0002	A.1	3.258500	3.428500		go	go
sw2726A-ms98-a-0002	A.1	3.428500	3.828500		visit	visit
sw2726A-ms98-a-0002	A.1	3.828500	4.008500		[silence]	[silence]
sw2726A-ms98-a-0002	A.1	4.008500	4.078500		a	a
sw2726A-ms98-a-0002	A.1	4.078500	4.448500		lot	lot
sw2726A-ms98-a-0002	A.1	4.448500	4.748500		and	and
sw2726A-ms98-a-0002	A.1	4.748500	5.237250		their	their
sw2726A-ms98-a-0002	A.1	5.237250	5.488500		real	real
sw2726A-ms98-a-0002	A.1	5.488500	5.778500		estate	estate
sw2726A-ms98-a-0002	A.1	5.778500	5.888500		up	up
sw2726A-ms98-a-0002	A.1	5.888500	6.168500		there	there
sw2726A-ms98-a-0002	A.1	6.168500	6.468500		is	is
sw2726A-ms98-a-0002	A.1	6.468500	6.538500		I	i
sw2726A-ms98-a-0002	A.1	6.538500	6.791125		mean	mean
sw2726A-ms98-a-0002	A.1	6.791125	7.612750		ridiculous	ridiculous
sw2726A-ms98-a-0002	A.1	7.612750	8.278500		absolutely	absolutely
sw2726A-ms98-a-0002	A.1	8.278500	8.800625		ridiculous	ridiculous
sw2726A-ms98-a-0002	A.3	8.800625	8.849000		[silence]	[silence]
sw2726A-ms98-a-0003	A.3	8.849000	9.368000		[silence]	[silence]
sw2726A-ms98-a-0003	A.3	9.368000	9.491250		An	an
sw2726A-ms98-a-0003	A.3	9.491250	10.111375		apartment	apartment
sw2726A-ms98-a-0003	A.3	10.111375	10.656875		here	here
sw2726A-ms98-a-0003	A.3	10.656875	10.999625		[silence]	[silence]
sw2726A-ms98-a-0003	A.3	10.999625	11.209000		like	like
sw2726A-ms98-a-0003	A.3	11.209000	11.319000		I	i
sw2726A-ms98-a-0003	A.3	11.319000	11.489000		live	live
sw2726A-ms98-a-0003	A.3	11.489000	11.559000		in	in
sw2726A-ms98-a-0003	A.3	11.559000	11.659000		an	an
sw2726A-ms98-a-0003	A.3	11.659000	12.259000		apartment	apartment
sw2726A-ms98-a-0003	A.3	12.259000	12.379000		and	and
sw2726A-ms98-a-0003	A.3	12.379000	12.549000		my	my
sw2726A-ms98-a-0003	A.3	12.549000	13.189000		apartment	apartment
sw2726A-ms98-a-0003	A.3	13.189000	13.299000		is	is
sw2726A-ms98-a-0003	A.3	13.299000	13.509000		three	three
sw2726A-ms98-a-0003	A.3	13.509000	14.199000		fifteen	fifteen
sw2726A-ms98-a-0003	A.3	14.199000	14.249000		a	a
sw2726A-ms98-a-0003	A.3	14.249000	14.849000		month	month
sw2726A-ms98-a-0003	A.3	14.849000	14.959000		and	and
sw2726A-ms98-a-0003	A.3	14.959000	15.129000		it's	it's
sw2726A-ms98-a-0003	A.3	15.129000	15.299000		just	just
sw2726A-ms98-a-0003	A.3	15.299000	15.369000		the	the
sw2726A-ms98-a-0003	A.3	15.369000	15.579000		one	one
sw2726A-ms98-a-0003	A.5	15.579000	15.719000		it's	it's
sw2726A-ms98-a-0003	A.5	15.719000	15.779000		a	a
sw2726A-ms98-a-0003	A.5	15.779000	16.029000		one	one
sw2726A-ms98-a-0003	A.5	16.029000	16.569000		bedroom	bedroom
sw2726A-ms98-a-0003	A.5	16.569000	16.610875		[silence]	[silence]
sw2726A-ms98-a-0004	A.5	16.610875	16.980875		[silence]	[silence]
sw2726A-ms98-a-0004	A.5	16.980875	17.140875		Which	which
sw2726A-ms98-a-0004	A.5	17.140875	17.210875		is	is
sw2726A-ms98-a-0004	A.5	17.210875	17.460875		still	still
sw2726A-ms98-a-0004	A.5	17.460875	17.636250		kind	kind
sw2726A-ms98-a-0004	A.5	17.636250	17.730875		of	of
sw2726A-ms98-a-0004	A.5	17.730875	18.460875		expensive	expensive
sw2726A-ms98-a-0004	A.5	18.460875	18.592500		but	but
sw2726A-ms98-a-0004	A.5	18.592500	18.710750		I	i
sw2726A-ms98-a-0004	A.5	18.710750	19.072750		prefer	prefer
sw2726A-ms98-a-0004	A.5	19.072750	19.180875		to	to
sw2726A-ms98-a-0004	A.5	19.180875	19.360875		live	live
sw2726A-ms98-a-0004	A.5	19.360875	19.470875		in	in
sw2726A-ms98-a-0004	A.5	19.470875	19.578750		uh	uh
sw2726A-ms98-a-0004	A.5	19.578750	19.750875		[silence]	[silence]
sw2726A-ms98-a-0004	A.5	19.750875	19.890875		in	in
sw2726A-ms98-a-0004	A.5	19.890875	20.020375		a	a
sw2726A-ms98-a-0004	A.5	20.020375	20.242625		[silence]	[silence]
sw2726A-ms98-a-0004	A.5	20.242625	20.564875		nice	nice
sw2726A-ms98-a-0004	A.5	20.564875	20.780875		part	part
sw2726A-ms98-a-0004	A.5	20.780875	20.840875		of	of
sw2726A-ms98-a-0004	A.5	20.840875	21.140875		town	town
sw2726A-ms98-a-0004	A.5	21.140875	21.380875		because	because
sw2726A-ms98-a-0004	A.5	21.380875	21.460875		I	i
sw2726A-ms98-a-0004	A.5	21.460875	21.680875		feel	feel
sw2726A-ms98-a-0004	A.5	21.680875	22.280375		safe	safe
sw2726A-ms98-a-0004	A.5	22.280375	22.777500		[silence]	[silence]
sw2726A-ms98-a-0004	A.5	22.777500	23.077375		here	here
sw2726A-ms98-a-0004	A.7	23.077375	23.181125		And	and
sw2726A-ms98-a-0004	A.7	23.181125	23.356000	<SUB>	I	i-
sw2726A-ms98-a-0004	A.7	23.356000	23.617250	<SUB>	I	i-
sw2726A-ms98-a-0004	A.7	23.617250	23.771750		[silence]	[silence]
sw2726A-ms98-a-0004	A.7	23.771750	24.023375		I	i
sw2726A-ms98-a-0004	A.7	24.023375	24.519500		pay	pay
sw2726A-ms98-a-0004	A.7	24.519500	24.800875		more	more
sw2726A-ms98-a-0004	A.7	24.800875	24.890875		to	to
sw2726A-ms98-a-0004	A.7	24.890875	25.130875		feel	feel
sw2726A-ms98-a-0004	A.7	25.130875	25.878125		safe	safe
sw2726A-ms98-a-0004	A.7	25.878125	26.040875		you	you
sw2726A-ms98-a-0004	A.7	26.040875	26.320875		know	know
sw2726A-ms98-a-0004	A.9	26.320875	26.984875		[silence]	[silence]
sw2726A-ms98-a-0005	A.9	26.984875	28.212500		[silence]	[silence]
sw2726A-ms98-a-0006	A.9	28.212500	28.678250		[silence]	[silence]
sw2726A-ms98-a-0006	A.9	28.678250	28.752500		You	you
sw2726A-ms98-a-0006	A.9	28.752500	28.922500		mean	mean
sw2726A-ms98-a-0006	A.9	28.922500	28.992500		in	in
sw2726A-ms98-a-0006	A.9	28.992500	29.032500		a	a
sw2726A-ms98-a-0006	A.9	29.032500	29.222500		one	one
sw2726A-ms98-a-0006	A.9	29.222500	29.816500		bedroom	bedroom
sw2726A-ms98-a-0006	A.11	29.816500	30.485875		[silence]	[silence]
sw2726A-ms98-a-0006	A.11	30.485875	30.693000		Oh	oh
sw2726A-ms98-a-0006	A.11	30.693000	31.140875		nothing	nothing
sw2726A-ms98-a-0006	A.13	31.140875	31.600375		[silence]	[silence]
sw2726A-ms98-a-0006	A.13	31.600375	32.038625	<SUB>	Huh-uh	hum-um
sw2726A-ms98-a-0006	A.13	32.038625	32.201125		[silence]	[silence]
sw2726A-ms98-a-0006	A.13	32.201125	32.344875		I	i
sw2726A-ms98-a-0006	A.13	32.344875	32.579875		mean	mean
sw2726A-ms98-a-0006	A.13	32.579875	32.953750		just	just
sw2726A-ms98-a-0006	A.13	32.953750	33.242000		[silence]	[silence]
sw2726A-ms98-a-0007	A.13	33.242000	33.522000		[silence]	[silence]
sw2726A-ms98-a-0007	A.13	33.522000	33.912000		nothing	nothing
sw2726A-ms98-a-0007	A.13	33.912000	34.072000		no	no
sw2726A-ms98-a-0007	A.13	34.072000	34.702000		microwave	microwave
sw2726A-ms98-a-0007	A.13	34.702000	34.792000		we've	we've
sw2726A-ms98-a-0007	A.13	34.792000	34.922000		got	got
sw2726A-ms98-a-0007	A.13	34.922000	35.022000		I	i
sw2726A-ms98-a-0007	A.13	35.022000	35.192000		have	have
sw2726A-ms98-a-0007	A.13	35.192000	35.562000		ceiling	ceiling
sw2726A-ms98-a-0007	A.13	35.562000	35.972750		fan	fan
sw2726A-ms98-a-0007	A.15	35.972750	36.469875		[silence]	[silence]
sw2726A-ms98-a-0007	A.15	36.469875	36.572000		I	i
sw2726A-ms98-a-0007	A.15	36.572000	36.712000		guess	guess
sw2726A-ms98-a-0007	A.15	36.712000	36.969375		that's	that's
sw2726A-ms98-a-0007	A.15	36.969375	37.426500		something	something
sw2726A-ms98-a-0007	A.17	37.426500	37.822000		[silence]	[silence]
sw2726A-ms98-a-0007	A.17	37.822000	38.018250		It's	it's
sw2726A-ms98-a-0007	A.17	38.018250	38.070625	<DEL>	---	a
sw2726A-ms98-a-0007	A.17	38.070625	38.222000		real	real
sw2726A-ms98-a-0007	A.17	38.222000	38.522000		cute	cute
sw2726A-ms98-a-0007	A.17	38.522000	38.622000		it's	it's
sw2726A-ms98-a-0007	A.17	38.622000	38.762000		got	got
sw2726A-ms98-a-0007	A.17	38.762000	38.802000		a	a
sw2726A-ms98-a-0007	A.17	38.802000	38.982000		little	little
sw2726A-ms98-a-0007	A.17	38.982000	39.422000		vaulted	vaulted
sw2726A-ms98-a-0007	A.17	39.422000	40.142000		ceiling	ceiling
sw2726A-ms98-a-0007	A.17	40.142000	40.462000		and	and
sw2726A-ms98-a-0007	A.17	40.462000	40.850750		mirrored	mirrored
sw2726A-ms98-a-0007	A.17	40.850750	41.084250		[silence]	[silence]
sw2726A-ms98-a-0007	A.17	41.084250	41.521500	<SUB>	uh	um
sw2726A-ms98-a-0007	A.17	41.521500	41.999750		[silence]	[silence]
sw2726A-ms98-a-0007	A.17	41.999750	42.472000		mirrored	mirrored
sw2726A-ms98-a-0007	A.17	42.472000	42.750625		uh	uh
sw2726A-ms98-a-0007	A.19	42.750625	43.289750		[silence]	[silence]
sw2726A-ms98-a-0008	A.19	43.289750	43.674500		[silence]	[silence]
sw2726A-ms98-a-0008	A.19	43.674500	43.914875		It's	it's
sw2726A-ms98-a-0008	A.19	43.914875	44.184250		Wood	Wood
sw2726A-ms98-a-0008	A.19	44.184250	44.507500	<SUB>	uh	um
sw2726A-ms98-a-0008	A.19	44.507500	45.319750		[noise]	[noise]
sw2726A-ms98-a-0008	A.19	45.319750	45.669750		listen	listen
sw2726A-ms98-a-0008	A.19	45.669750	45.749750		to	to
sw2726A-ms98-a-0008	A.19	45.749750	45.929750		me	me
sw2726A-ms98-a-0008	A.19	45.929750	45.979750		I	i
sw2726A-ms98-a-0008	A.19	45.979750	46.169750		can't	can't
sw2726A-ms98-a-0008	A.19	46.169750	46.289750		even	even
sw2726A-ms98-a-0008	A.19	46.289750	46.429750		think	think
sw2726A-ms98-a-0008	A.19	46.429750	46.489750		of	of
sw2726A-ms98-a-0008	A.19	46.489750	46.549750		the	the
sw2726A-ms98-a-0008	A.19	46.549750	46.709750		name	name
sw2726A-ms98-a-0008	A.19	46.709750	46.769750		of	of
sw2726A-ms98-a-0008	A.19	46.769750	46.889750		my	my
sw2726A-ms98-a-0008	A.19	46.889750	47.019750		own	own
sw2726A-ms98-a-0008	A.19	47.019750	47.349750		apartment	apartment
sw2726A-ms98-a-0008	A.19	47.349750	47.999375		Woodhollow	Woodhollow
sw2726A-ms98-a-0008	A.21	47.999375	48.541750		[silence]	[silence]
sw2726A-ms98-a-0008	A.21	48.541750	48.739750		right	right
sw2726A-ms98-a-0008	A.21	48.739750	48.979750		next	next
sw2726A-ms98-a-0008	A.21	48.979750	49.079750		to	to
sw2726A-ms98-a-0008	A.21	49.079750	49.439750		Village	Village
sw2726A-ms98-a-0008	A.21	49.439750	49.961250		Green	Green
sw2726A-ms98-a-0008	A.21	49.961250	50.590250		[silence]	[silence]
sw2726A-ms98-a-0008	A.21	50.590250	50.769750		it's	it's
sw2726A-ms98-a-0008	A.21	50.769750	51.261750		on	on
sw2726A-ms98-a-0008	A.23	51.261750	51.849375		[silence]	[silence]
sw2726A-ms98-a-0008	A.23	51.849375	52.112625		yeah	yeah
sw2726A-ms98-a-0008	A.23	52.112625	52.289750		kind	kind
sw2726A-ms98-a-0008	A.23	52.289750	52.349750		of	of
sw2726A-ms98-a-0008	A.23	52.349750	52.759750		far	far
sw2726A-ms98-a-0008	A.23	52.759750	53.089750		north	North
sw2726A-ms98-a-0008	A.23	53.089750	53.658875		Waco	Waco
sw2726A-ms98-a-0008	A.25	53.658875	53.989000		[silence]	[silence]
sw2726A-ms98-a-0009	A.25	53.989000	54.339000		[silence]	[silence]
sw2726A-ms98-a-0009	A.25	54.339000	54.519000		Oh	oh
sw2726A-ms98-a-0009	A.25	54.519000	54.889000		okay	okay
sw2726A-ms98-a-0009	A.25	54.889000	55.099000		yeah	yeah
sw2726A-ms98-a-0009	A.25	55.099000	55.409000		far	far
sw2726A-ms98-a-0009	A.25	55.409000	55.873500		north	north
sw2726A-ms98-a-0009	A.25	55.873500	56.155000		like	like
sw2726A-ms98-a-0009	A.25	56.155000	56.386875	<DEL>	---	um
sw2726A-ms98-a-0009	A.25	56.386875	56.599000		on	on
sw2726A-ms98-a-0009	A.25	56.599000	56.799000		Lake	Lake
sw2726A-ms98-a-0009	A.25	56.799000	57.314250		Shore	Shore
sw2726A-ms98-a-0009	A.25	57.314250	57.639000		[silence]	[silence]
sw2726A-ms98-a-0009	A.25	57.639000	57.729000		where	where
sw2726A-ms98-a-0009	A.25	57.729000	57.859000		all	all
sw2726A-ms98-a-0009	A.25	57.859000	58.039000		those	those
sw2726A-ms98-a-0009	A.25	58.039000	58.629000		apartments	apartments
sw2726A-ms98-a-0009	A.25	58.629000	58.789000		are	are
sw2726A-ms98-a-0009	A.27	58.789000	58.939000		it's	it's
sw2726A-ms98-a-0009	A.27	58.939000	59.089000		right	right
sw2726A-ms98-a-0009	A.27	59.089000	59.249000		up	up
sw2726A-ms98-a-0009	A.27	59.249000	59.541625		there	there
sw2726A-ms98-a-0009	A.27	59.541625	60.215250		[silence]	[silence]
sw2726A-ms98-a-0009	A.27	60.215250	60.706375		so	so
sw2726A-ms98-a-0009	A.29	60.706375	61.295125		[silence]	[silence]
sw2726A-ms98-a-0010	A.29	61.295125	63.478750		[silence]	[silence]
sw2726A-ms98-a-0011	A.29	63.478750	64.138750		[silence]	[silence]
sw2726A-ms98-a-0011	A.29	64.138750	64.574125		Uh-huh	uh-huh
sw2726A-ms98-a-0011	A.31	64.574125	64.975625		[silence]	[silence]
sw2726A-ms98-a-0012	A.31	64.975625	66.989125		[silence]	[silence]
sw2726A-ms98-a-0013	A.31	66.989125	67.360500		[silence]	[silence]
sw2726A-ms98-a-0013	A.31	67.360500	67.828625		Uh-huh	uh-huh
sw2726A-ms98-a-0013	A.33	67.828625	68.334750		[silence]	[silence]
sw2726A-ms98-a-0014	A.33	68.334750	72.762625		[silence]	[silence]
sw2726A-ms98-a-0015	A.33	72.762625	73.382625		[silence]	[silence]
sw2726A-ms98-a-0015	A.33	73.382625	73.871500		Uh-huh	uh-huh
sw2726A-ms98-a-0015	A.33	73.871500	74.504250		[silence]	[silence]
sw2726A-ms98-a-0015	A.33	74.504250	74.880000		uh-huh	uh-huh
sw2726A-ms98-a-0015	A.35	74.880000	75.291625		[silence]	[silence]
sw2726A-ms98-a-0016	A.35	75.291625	76.990875		[silence]	[silence]
sw2726A-ms98-a-0017	A.35	76.990875	77.530875		[silence]	[silence]
sw2726A-ms98-a-0017	A.35	77.530875	77.921125		Uh-huh	uh-huh
sw2726A-ms98-a-0017	A.37	77.921125	78.481625		[silence]	[silence]
sw2726A-ms98-a-0018	A.37	78.481625	79.441625		[silence]	[silence]
sw2726A-ms98-a-0018	A.37	79.441625	79.915625		Right	right
sw2726A-ms98-a-0018	A.39	79.915625	80.486375		[silence]	[silence]
sw2726A-ms98-a-0019	A.39	80.486375	83.497875		[silence]	[silence]
sw2726A-ms98-a-0020	A.39	83.497875	84.107875		[silence]	[silence]
sw2726A-ms98-a-0020	A.39	84.107875	84.561625		Uh-huh	uh-huh
sw2726A-ms98-a-0020	A.41	84.561625	84.995625		[silence]	[silence]
sw2726A-ms98-a-0021	A.41	84.995625	86.493500		[silence]	[silence]
sw2726A-ms98-a-0022	A.41	86.493500	87.074250		[silence]	[silence]
sw2726A-ms98-a-0022	A.41	87.074250	87.733500		Right	right
sw2726A-ms98-a-0022	A.41	87.733500	87.997750		[silence]	[silence]
sw2726A-ms98-a-0023	A.41	87.997750	88.712125		[silence]	[silence]
sw2726A-ms98-a-0023	A.41	88.712125	89.156375		uh-huh	uh-huh
sw2726A-ms98-a-0023	A.43	89.156375	89.995625		[silence]	[silence]
sw2726A-ms98-a-0024	A.43	89.995625	90.701750		[silence]	[silence]
sw2726A-ms98-a-0024	A.43	90.701750	90.805625		that	that
sw2726A-ms98-a-0024	A.43	90.805625	90.945625		could	could
sw2726A-ms98-a-0024	A.43	90.945625	91.035625		have	have
sw2726A-ms98-a-0024	A.43	91.035625	91.225625		been	been
sw2726A-ms98-a-0024	A.43	91.225625	91.495625		used	used
sw2726A-ms98-a-0024	A.43	91.495625	91.725625		as	as
sw2726A-ms98-a-0024	A.43	91.725625	92.230125		yeah	yeah
sw2726A-ms98-a-0024	A.43	92.230125	92.600375		yeah	yeah
sw2726A-ms98-a-0024	A.45	92.600375	93.768875		[silence]	[silence]
sw2726A-ms98-a-0025	A.45	93.768875	98.314125		[silence]	[silence]
sw2726A-ms98-a-0026	A.45	98.314125	98.907375		[silence]	[silence]
sw2726A-ms98-a-0026	A.45	98.907375	99.264625		Um	um
sw2726A-ms98-a-0026	A.47	99.264625	99.836625		[silence]	[silence]
sw2726A-ms98-a-0027	A.47	99.836625	101.986250		[silence]	[silence]
sw2726A-ms98-a-0028	A.47	101.986250	102.550500		[silence]	[silence]
sw2726A-ms98-a-0028	A.47	102.550500	103.036250		Uh-huh	uh-huh
sw2726A-ms98-a-0028	A.49	103.036250	103.677000		[silence]	[silence]
sw2726A-ms98-a-0029	A.49	103.677000	106.484250		[silence]	[silence]
sw2726A-ms98-a-0030	A.49	106.484250	107.234250		[silence]	[silence]
sw2726A-ms98-a-0030	A.49	107.234250	107.618375	<DEL>	---	yeah
sw2726A-ms98-a-0030	A.49	107.618375	107.734375		So	so
sw2726A-ms98-a-0030	A.49	107.734375	107.930625		that	that
sw2726A-ms98-a-0030	A.49	107.930625	108.154250		looks	looks
sw2726A-ms98-a-0030	A.49	108.154250	108.404250		good	good
sw2726A-ms98-a-0030	A.49	108.404250	108.544250		when	when
sw2726A-ms98-a-0030	A.49	108.544250	108.614250		you	you
sw2726A-ms98-a-0030	A.49	108.614250	108.714250		all	all
sw2726A-ms98-a-0030	A.49	108.714250	108.884250		get	get
sw2726A-ms98-a-0030	A.49	108.884250	109.124250		ready	ready
sw2726A-ms98-a-0030	A.49	109.124250	109.194250		to	to
sw2726A-ms98-a-0030	A.49	109.194250	109.564250		sell	sell
sw2726A-ms98-a-0030	A.49	109.564250	109.674250		you'll	you'll
sw2726A-ms98-a-0030	A.49	109.674250	109.984250		probably	probably
sw2726A-ms98-a-0030	A.49	109.984250	110.164250		do	do
sw2726A-ms98-a-0030	A.49	110.164250	110.404250		really	really
sw2726A-ms98-a-0030	A.49	110.404250	110.814250		well	well
sw2726A-ms98-a-0030	A.51	110.814250	111.184250		[silence]	[silence]
sw2726A-ms98-a-0030	A.51	111.184250	111.284250		My	my
sw2726A-ms98-a-0030	A.51	111.284250	111.764250		father	father
sw2726A-ms98-a-0030	A.51	111.764250	111.984250		used	used
sw2726A-ms98-a-0030	A.51	111.984250	112.084250		to	to
sw2726A-ms98-a-0030	A.51	112.084250	112.264250		live	live
sw2726A-ms98-a-0030	A.51	112.264250	112.384250		in	in
sw2726A-ms98-a-0030	A.51	112.384250	113.040750		Dallas	Dallas
sw2726A-ms98-a-0030	A.51	113.040750	113.219500		uh	uh
sw2726A-ms98-a-0030	A.51	113.219500	113.465875		now	now
sw2726A-ms98-a-0030	A.51	113.465875	113.611250		he	he
sw2726A-ms98-a-0030	A.51	113.611250	113.807125		[silence]	[silence]
sw2726A-ms98-a-0030	A.51	113.807125	114.020625		he	he
sw2726A-ms98-a-0030	A.51	114.020625	114.216500		[silence]	[silence]
sw2726A-ms98-a-0030	A.51	114.216500	114.404250		went	went
sw2726A-ms98-a-0030	A.51	114.404250	114.594250		back	back
sw2726A-ms98-a-0030	A.51	114.594250	114.724250		to	to
sw2726A-ms98-a-0030	A.51	114.724250	114.874250		New	New
sw2726A-ms98-a-0030	A.51	114.874250	115.274250		Jersey	Jersey
sw2726A-ms98-a-0030	A.51	115.274250	115.444250		we're	we're
sw2726A-ms98-a-0030	A.51	115.444250	115.884250		originally	originally
sw2726A-ms98-a-0030	A.51	115.884250	116.114250		from	from
sw2726A-ms98-a-0030	A.51	116.114250	116.174250		the	the
sw2726A-ms98-a-0030	A.51	116.174250	116.496625		East	East
sw2726A-ms98-a-0030	A.51	116.496625	117.044250		[silence]	[silence]
sw2726A-ms98-a-0030	A.51	117.044250	117.204250		But	but
sw2726A-ms98-a-0030	A.51	117.204250	117.414625		he	he
sw2726A-ms98-a-0030	A.53	117.414625	117.723000		[silence]	[silence]
sw2726A-ms98-a-0031	A.53	117.723000	118.012875		[silence]	[silence]
sw2726A-ms98-a-0031	A.53	118.012875	118.183000		oh	oh
sw2726A-ms98-a-0031	A.53	118.183000	118.523000		really	really
sw2726A-ms98-a-0031	A.53	118.523000	118.973000		[laughter]	[laughter]
sw2726A-ms98-a-0031	A.53	118.973000	119.164000		he	he
sw2726A-ms98-a-0031	A.53	119.164000	119.442125		uh	uh
sw2726A-ms98-a-0031	A.53	119.442125	119.690750		[silence]	[silence]
sw2726A-ms98-a-0031	A.53	119.690750	119.821000		well	well
sw2726A-ms98-a-0031	A.53	119.821000	120.163000		actually	actually
sw2726A-ms98-a-0031	A.53	120.163000	120.333000		right	right
sw2726A-ms98-a-0031	A.53	120.333000	120.423000		now	now
sw2726A-ms98-a-0031	A.53	120.423000	120.573000		he	he
sw2726A-ms98-a-0031	A.53	120.573000	120.733000		lives	lives
sw2726A-ms98-a-0031	A.53	120.733000	120.873000		in	in
sw2726A-ms98-a-0031	A.53	120.873000	121.053000		Rhode	Rhode
sw2726A-ms98-a-0031	A.53	121.053000	121.393000		Island	Island
sw2726A-ms98-a-0031	A.53	121.393000	121.485875		he	he
sw2726A-ms98-a-0031	A.53	121.485875	121.643625		[silence]	[silence]
sw2726A-ms98-a-0032	A.53	121.643625	121.747875		[silence]	[silence]
sw2726A-ms98-a-0032	A.53	121.747875	122.043625		lived	lived
sw2726A-ms98-a-0032	A.53	122.043625	122.123625		in	in
sw2726A-ms98-a-0032	A.53	122.123625	122.233625		New	New
sw2726A-ms98-a-0032	A.53	122.233625	122.543625		Jersey	Jersey
sw2726A-ms98-a-0032	A.53	122.543625	122.683625		for	for
sw2726A-ms98-a-0032	A.53	122.683625	122.713625		a	a
sw2726A-ms98-a-0032	A.53	122.713625	122.963625		while	while
sw2726A-ms98-a-0032	A.53	122.963625	123.163625		now	now
sw2726A-ms98-a-0032	A.53	123.163625	123.273625		he's	he's
sw2726A-ms98-a-0032	A.53	123.273625	123.393625		in	in
sw2726A-ms98-a-0032	A.53	123.393625	123.563625		Rhode	Rhode
sw2726A-ms98-a-0032	A.53	123.563625	123.913625		Island	Island
sw2726A-ms98-a-0032	A.53	123.913625	124.433625		[silence]	[silence]
sw2726A-ms98-a-0032	A.53	124.433625	124.650625		And	and
sw2726A-ms98-a-0032	A.53	124.650625	124.906750	<SUB>	uh	um
sw2726A-ms98-a-0032	A.53	124.906750	125.093625		he	he
sw2726A-ms98-a-0032	A.53	125.093625	125.313625		used	used
sw2726A-ms98-a-0032	A.53	125.313625	125.423625		to	to
sw2726A-ms98-a-0032	A.53	125.423625	125.613625		like	like
sw2726A-ms98-a-0032	A.53	125.613625	125.713625		to	to
sw2726A-ms98-a-0032	A.53	125.713625	125.923625		go	go
sw2726A-ms98-a-0032	A.53	125.923625	126.013625		and	and
sw2726A-ms98-a-0032	A.53	126.013625	126.073625		we	we
sw2726A-ms98-a-0032	A.53	126.073625	126.243625		used	used
sw2726A-ms98-a-0032	A.53	126.243625	126.323625		to	to
sw2726A-ms98-a-0032	A.53	126.323625	126.663625		go	go
sw2726A-ms98-a-0032	A.53	126.663625	126.923625		just	just
sw2726A-ms98-a-0032	A.53	126.923625	127.163625		every	every
sw2726A-ms98-a-0032	A.53	127.163625	127.553625		weekend	weekend
sw2726A-ms98-a-0032	A.53	127.553625	127.713625		just	just
sw2726A-ms98-a-0032	A.53	127.713625	127.813625		to	to
sw2726A-ms98-a-0032	A.53	127.813625	127.993625		look	look
sw2726A-ms98-a-0032	A.53	127.993625	128.089000		at	at
sw2726A-ms98-a-0032	A.53	128.089000	128.736750		houses	houses
sw2726A-ms98-a-0032	A.53	128.736750	128.966500		for	for
sw2726A-ms98-a-0032	A.53	128.966500	129.183875		no	no
sw2726A-ms98-a-0032	A.53	129.183875	129.492875		reason	reason
sw2726A-ms98-a-0032	A.53	129.492875	129.598125		we	we
sw2726A-ms98-a-0032	A.53	129.598125	129.763625		weren't	weren't
sw2726A-ms98-a-0032	A.53	129.763625	130.093625		buying	buying
sw2726A-ms98-a-0032	A.53	130.093625	130.213625		one	one
sw2726A-ms98-a-0032	A.53	130.213625	130.443625		every	every
sw2726A-ms98-a-0032	A.53	130.443625	130.863625		weekend	weekend
sw2726A-ms98-a-0032	A.53	130.863625	130.993625		but	but
sw2726A-ms98-a-0032	A.53	130.993625	131.193625		just	just
sw2726A-ms98-a-0032	A.53	131.193625	131.323625		to	to
sw2726A-ms98-a-0032	A.53	131.323625	131.543625		look	look
sw2726A-ms98-a-0032	A.53	131.543625	131.733625		at	at
sw2726A-ms98-a-0032	A.53	131.733625	131.836250		them	them
sw2726A-ms98-a-0032	A.53	131.836250	131.885875		[silence]	[silence]
sw2726A-ms98-a-0033	A.53	131.885875	132.275875		[silence]	[silence]
sw2726A-ms98-a-0033	A.53	132.275875	132.395875		And	and
sw2726A-ms98-a-0033	A.53	132.395875	132.485875		so	so
sw2726A-ms98-a-0033	A.53	132.485875	132.545875		I	i
sw2726A-ms98-a-0033	A.53	132.545875	132.705875		got	got
sw2726A-ms98-a-0033	A.53	132.705875	132.745875		a	a
sw2726A-ms98-a-0033	A.53	132.745875	133.005875		pretty	pretty
sw2726A-ms98-a-0033	A.53	133.005875	133.195875		good	good
sw2726A-ms98-a-0033	A.53	133.195875	133.605875		feel	feel
sw2726A-ms98-a-0033	A.53	133.605875	133.948000		of	of
sw2726A-ms98-a-0033	A.53	133.948000	134.125875		you	you
sw2726A-ms98-a-0033	A.53	134.125875	134.255875		know	know
sw2726A-ms98-a-0033	A.53	134.255875	134.445875		what	what
sw2726A-ms98-a-0033	A.53	134.445875	134.535875		I	i
sw2726A-ms98-a-0033	A.53	134.535875	134.975875		want	want
sw2726A-ms98-a-0033	A.53	134.975875	135.102500		when	when
sw2726A-ms98-a-0033	A.53	135.102500	135.264500		I	i
sw2726A-ms98-a-0033	A.53	135.264500	135.796500		do	do
sw2726A-ms98-a-0033	A.53	135.796500	135.984875		[silence]	[silence]
sw2726A-ms98-a-0033	A.53	135.984875	136.105875		you	you
sw2726A-ms98-a-0033	A.53	136.105875	136.255875		know	know
sw2726A-ms98-a-0033	A.53	136.255875	136.455875		get	get
sw2726A-ms98-a-0033	A.53	136.455875	136.657250		my	my
sw2726A-ms98-a-0033	A.53	136.657250	136.952750		house	house
sw2726A-ms98-a-0033	A.53	136.952750	137.261625		whenever	whenever
sw2726A-ms98-a-0033	A.53	137.261625	137.475875		that	that
sw2726A-ms98-a-0033	A.53	137.475875	137.782875		is	is
sw2726A-ms98-a-0033	A.53	137.782875	138.551250		[silence]	[silence]
sw2726A-ms98-a-0033	A.53	138.551250	139.155875		um	um
sw2726A-ms98-a-0033	A.53	139.155875	139.744625		[silence]	[silence]
sw2726A-ms98-a-0034	A.53	139.744625	140.155875		[silence]	[silence]
sw2726A-ms98-a-0034	A.53	140.155875	141.071375		[noise]	[noise]
sw2726A-ms98-a-0034	A.53	141.071375	141.154625		What	what
sw2726A-ms98-a-0034	A.53	141.154625	141.284625		was	was
sw2726A-ms98-a-0034	A.53	141.284625	141.354625		I	i
sw2726A-ms98-a-0034	A.53	141.354625	141.514625		going	going
sw2726A-ms98-a-0034	A.53	141.514625	141.624625		to	to
sw2726A-ms98-a-0034	A.53	141.624625	141.864625		say	say
sw2726A-ms98-a-0034	A.53	141.864625	142.154625		about	about
sw2726A-ms98-a-0034	A.53	142.154625	142.336125		that	that
sw2726A-ms98-a-0034	A.53	142.336125	142.445375		[silence]	[silence]
sw2726A-ms98-a-0034	A.53	142.445375	142.814625		[laughter]	[laughter]
sw2726A-ms98-a-0034	A.53	142.814625	142.884625		I	i
sw2726A-ms98-a-0034	A.53	142.884625	143.374625		completely	completely
sw2726A-ms98-a-0034	A.53	143.374625	143.624625		lost	lost
sw2726A-ms98-a-0034	A.53	143.624625	143.741000		my	my
sw2726A-ms98-a-0034	A.53	143.741000	143.946250		train	train
sw2726A-ms98-a-0034	A.53	143.946250	144.108125		of	of
sw2726A-ms98-a-0034	A.53	144.108125	144.402000		thought	thought
sw2726A-ms98-a-0034	A.53	144.402000	145.064625		[silence]	[silence]
sw2726A-ms98-a-0034	A.53	145.064625	145.464875		Um	um
sw2726A-ms98-a-0034	A.53	145.464875	145.732250		[silence]	[silence]
sw2726A-ms98-a-0034	A.53	145.732250	145.994625		but	but
sw2726A-ms98-a-0034	A.53	145.994625	146.147250		we	we
sw2726A-ms98-a-0034	A.53	146.147250	146.331875		[silence]	[silence]
sw2726A-ms98-a-0034	A.53	146.331875	146.645625		we	we
sw2726A-ms98-a-0034	A.53	146.645625	147.041125		enjoy	enjoy
sw2726A-ms98-a-0034	A.53	147.041125	147.244625		going	going
sw2726A-ms98-a-0034	A.53	147.244625	147.484625		looking	looking
sw2726A-ms98-a-0034	A.53	147.484625	147.544625		at	at
sw2726A-ms98-a-0034	A.53	147.544625	148.224625		houses	houses
sw2726A-ms98-a-0034	A.53	148.224625	148.602125		and	and
sw2726A-ms98-a-0034	A.53	148.602125	148.820625		[silence]	[silence]
sw2726A-ms98-a-0034	A.53	148.820625	149.074625		and	and
sw2726A-ms98-a-0034	A.53	149.074625	149.312500	<SUB>	uh	um
sw2726A-ms98-a-0034	A.53	149.312500	149.425500		[silence]	[silence]
sw2726A-ms98-a-0034	A.53	149.425500	149.512250		we	we
sw2726A-ms98-a-0034	A.53	149.512250	149.823750		now	now
sw2726A-ms98-a-0034	A.53	149.823750	149.966875		[silence]	[silence]
sw2726A-ms98-a-0034	A.53	149.966875	150.124750		I	i
sw2726A-ms98-a-0034	A.53	150.124750	150.384625		kind	kind
sw2726A-ms98-a-0034	A.53	150.384625	150.504625		of	of
sw2726A-ms98-a-0034	A.53	150.504625	150.694625		have	have
sw2726A-ms98-a-0034	A.53	150.694625	150.739875		a	a
sw2726A-ms98-a-0034	A.53	150.739875	150.883000		good	good
sw2726A-ms98-a-0034	A.53	150.883000	151.154625		idea	idea
sw2726A-ms98-a-0034	A.53	151.154625	151.244625		of	of
sw2726A-ms98-a-0034	A.53	151.244625	151.354625		what	what
sw2726A-ms98-a-0034	A.53	151.354625	151.404625		I	i
sw2726A-ms98-a-0034	A.53	151.404625	151.714625		want	want
sw2726A-ms98-a-0034	A.53	151.714625	151.774625		I	i
sw2726A-ms98-a-0034	A.53	151.774625	151.904625		know	know
sw2726A-ms98-a-0034	A.53	151.904625	151.944625		I	i
sw2726A-ms98-a-0034	A.53	151.944625	152.174625		want	want
sw2726A-ms98-a-0034	A.53	152.174625	152.214625		a	a
sw2726A-ms98-a-0034	A.53	152.214625	152.454625		big	big
sw2726A-ms98-a-0034	A.53	152.454625	153.044625		family	family
sw2726A-ms98-a-0034	A.53	153.044625	153.539000		area	area
sw2726A-ms98-a-0034	A.55	153.539000	154.085125		[silence]	[silence]
sw2726A-ms98-a-0034	A.55	154.085125	154.404000	<SUB>	uh	um
sw2726A-ms98-a-0034	A.55	154.404000	154.642625		[silence]	[silence]
sw2726A-ms98-a-0035	A.55	154.642625	154.881000		[silence]	[silence]
sw2726A-ms98-a-0035	A.55	154.881000	155.280250		yeah	yeah
sw2726A-ms98-a-0035	A.55	155.280250	155.768125		fire	fire
sw2726A-ms98-a-0035	A.55	155.768125	155.862250		a	a
sw2726A-ms98-a-0035	A.55	155.862250	156.582625		fireplace	fireplace
sw2726A-ms98-a-0035	A.55	156.582625	156.622625		I	i
sw2726A-ms98-a-0035	A.55	156.622625	156.822625		saw	saw
sw2726A-ms98-a-0035	A.55	156.822625	157.002625		this	this
sw2726A-ms98-a-0035	A.55	157.002625	157.302625		awesome	awesome
sw2726A-ms98-a-0035	A.55	157.302625	157.562625		house	house
sw2726A-ms98-a-0035	A.55	157.562625	157.672625		the	the
sw2726A-ms98-a-0035	A.55	157.672625	157.832625		other	other
sw2726A-ms98-a-0035	A.55	157.832625	158.202625		weekend	weekend
sw2726A-ms98-a-0035	A.55	158.202625	158.262625		it	it
sw2726A-ms98-a-0035	A.55	158.262625	158.462625		was	was
sw2726A-ms98-a-0035	A.55	158.462625	158.555125		a	a
sw2726A-ms98-a-0035	A.55	158.555125	158.796250		[silence]	[silence]
sw2726A-ms98-a-0035	A.55	158.796250	159.172625		great	great
sw2726A-ms98-a-0035	A.55	159.172625	159.372625		big	big
sw2726A-ms98-a-0035	A.55	159.372625	159.822625		family	family
sw2726A-ms98-a-0035	A.55	159.822625	160.219250		room	room
sw2726A-ms98-a-0035	A.55	160.219250	160.837000		[silence]	[silence]
sw2726A-ms98-a-0035	A.55	160.837000	160.991750		and	and
sw2726A-ms98-a-0035	A.55	160.991750	161.152625		it	it
sw2726A-ms98-a-0035	A.55	161.152625	161.292375		was	was
sw2726A-ms98-a-0035	A.55	161.292375	162.219625		circular	circular
sw2726A-ms98-a-0035	A.55	162.219625	162.367125		[silence]	[silence]
sw2726A-ms98-a-0035	A.55	162.367125	162.514250		and	and
sw2726A-ms98-a-0035	A.55	162.514250	162.608375		the	the
sw2726A-ms98-a-0035	A.55	162.608375	162.882625		other	other
sw2726A-ms98-a-0035	A.55	162.882625	163.600125		side	side
sw2726A-ms98-a-0035	A.55	163.600125	163.862625		[silence]	[silence]
sw2726A-ms98-a-0035	A.55	163.862625	164.176875		was	was
sw2726A-ms98-a-0035	A.55	164.176875	164.304875		the	the
sw2726A-ms98-a-0035	A.55	164.304875	164.822625		patio	patio
sw2726A-ms98-a-0035	A.55	164.822625	164.912625		and	and
sw2726A-ms98-a-0035	A.55	164.912625	165.001875		the	the
sw2726A-ms98-a-0035	A.55	165.001875	165.677125		backyard	backyard
sw2726A-ms98-a-0035	A.55	165.677125	165.922625		[silence]	[silence]
sw2726A-ms98-a-0036	A.55	165.922625	166.069125		[silence]	[silence]
sw2726A-ms98-a-0036	A.55	166.069125	166.198750		and	and
sw2726A-ms98-a-0036	A.55	166.198750	166.312625		it	it
sw2726A-ms98-a-0036	A.55	166.312625	166.492625		had	had
sw2726A-ms98-a-0036	A.55	166.492625	166.542625		a	a
sw2726A-ms98-a-0036	A.55	166.542625	166.842625		built	built
sw2726A-ms98-a-0036	A.55	166.842625	167.342625		in	in
sw2726A-ms98-a-0036	A.55	167.342625	167.718000		uh	uh
sw2726A-ms98-a-0036	A.55	167.718000	167.925125		[silence]	[silence]
sw2726A-ms98-a-0036	A.55	167.925125	168.452625		grill	grill
sw2726A-ms98-a-0036	A.55	168.452625	168.542625		and	and
sw2726A-ms98-a-0036	A.55	168.542625	168.792625		every	every
sw2726A-ms98-a-0036	A.57	168.792625	168.881750		I	i
sw2726A-ms98-a-0036	A.57	168.881750	169.022625		mean	mean
sw2726A-ms98-a-0036	A.57	169.022625	169.102625		it	it
sw2726A-ms98-a-0036	A.57	169.102625	169.332625		was	was
sw2726A-ms98-a-0036	A.57	169.332625	169.452625		it	it
sw2726A-ms98-a-0036	A.57	169.452625	169.572625		was	was
sw2726A-ms98-a-0036	A.57	169.572625	169.817750		just	just
sw2726A-ms98-a-0036	A.57	169.817750	170.371375		[silence]	[silence]
sw2726A-ms98-a-0036	A.57	170.371375	170.536875		an	an
sw2726A-ms98-a-0036	A.57	170.536875	170.791500		ul-	ul[timate]-
sw2726A-ms98-a-0036	A.57	170.791500	170.893250		the	the
sw2726A-ms98-a-0036	A.57	170.893250	171.312625		ultimate	ultimate
sw2726A-ms98-a-0036	A.57	171.312625	171.682625		party	party
sw2726A-ms98-a-0036	A.57	171.682625	172.142625		room	room
sw2726A-ms98-a-0036	A.57	172.142625	172.282625		you	[laughter-you]
sw2726A-ms98-a-0036	A.57	172.282625	172.606750		know	[laughter-know]
sw2726A-ms98-a-0036	A.59	172.606750	172.860750		I	i
sw2726A-ms98-a-0036	A.59	172.860750	173.054875		was	was
sw2726A-ms98-a-0036	A.59	173.054875	173.054875	<INS>	just	---
sw2726A-ms98-a-0036	A.59	173.054875	173.280125		going	going
sw2726A-ms98-a-0036	A.59	173.280125	173.439375		I	i
sw2726A-ms98-a-0036	A.59	173.439375	173.603250		could	could
sw2726A-ms98-a-0036	A.59	173.603250	173.835625		have	have
sw2726A-ms98-a-0036	A.59	173.835625	173.946000		a	a
sw2726A-ms98-a-0036	A.59	173.946000	174.341500		party	party
sw2726A-ms98-a-0036	A.59	174.341500	174.466375		in	in
sw2726A-ms98-a-0036	A.59	174.466375	174.791875		here	here
sw2726A-ms98-a-0036	A.59	174.791875	175.601375		[silence]	[silence]
sw2726A-ms98-a-0036	A.59	175.601375	175.789750		But	but
sw2726A-ms98-a-0036	A.59	175.789750	176.060750		that's	that's
sw2726A-ms98-a-0036	A.59	176.060750	176.351750		pretty	pretty
sw2726A-ms98-a-0036	A.59	176.351750	176.769375		nice	nice
sw2726A-ms98-a-0036	A.61	176.769375	177.459000		[silence]	[silence]
sw2726A-ms98-a-0037	A.61	177.459000	182.496125		[silence]	[silence]
sw2726A-ms98-a-0038	A.61	182.496125	183.016125		[silence]	[silence]
sw2726A-ms98-a-0038	A.61	183.016125	183.494875	<SUB>	Uh-huh	um-hum
sw2726A-ms98-a-0038	A.63	183.494875	183.992000		[silence]	[silence]
sw2726A-ms98-a-0039	A.63	183.992000	185.665750		[silence]	[silence]
sw2726A-ms98-a-0040	A.63	185.665750	186.095750		[silence]	[silence]
sw2726A-ms98-a-0040	A.63	186.095750	186.566875		Right	right
sw2726A-ms98-a-0040	A.63	186.566875	186.823000		[silence]	[silence]
sw2726A-ms98-a-0040	A.63	186.823000	187.095750		yeah	yeah
sw2726A-ms98-a-0040	A.63	187.095750	187.213500		I	i
sw2726A-ms98-a-0040	A.63	187.213500	187.395750		like	like
sw2726A-ms98-a-0040	A.63	187.395750	187.445750		a	a
sw2726A-ms98-a-0040	A.63	187.445750	187.605750		lot	lot
sw2726A-ms98-a-0040	A.63	187.605750	187.695750		of	of
sw2726A-ms98-a-0040	A.63	187.695750	188.075750		closet	closet
sw2726A-ms98-a-0040	A.63	188.075750	188.275750		space	space
sw2726A-ms98-a-0040	A.63	188.275750	188.376250		I	i
sw2726A-ms98-a-0040	A.63	188.376250	188.472625		don't	don't
sw2726A-ms98-a-0040	A.63	188.472625	188.687375		like	like
sw2726A-ms98-a-0040	A.63	188.687375	188.915750		because	because_1
sw2726A-ms98-a-0040	A.63	188.915750	188.985750		I	i
sw2726A-ms98-a-0040	A.63	188.985750	189.115750		don't	don't
sw2726A-ms98-a-0040	A.63	189.115750	189.255750		like	like
sw2726A-ms98-a-0040	A.63	189.255750	189.355750		to	to
sw2726A-ms98-a-0040	A.63	189.355750	189.485750		have	have
sw2726A-ms98-a-0040	A.63	189.485750	189.525750		a	a
sw2726A-ms98-a-0040	A.63	189.525750	189.705750		lot	lot
sw2726A-ms98-a-0040	A.63	189.705750	189.765750		of	of
sw2726A-ms98-a-0040	A.63	189.765750	190.087750		things	things
sw2726A-ms98-a-0040	A.63	190.087750	190.522250		out	out
sw2726A-ms98-a-0040	A.63	190.522250	191.011875		[silence]	[silence]
sw2726A-ms98-a-0040	A.63	191.011875	191.118625		you	you
sw2726A-ms98-a-0040	A.63	191.118625	191.255750		know	know
sw2726A-ms98-a-0040	A.63	191.255750	191.485750		just	just
sw2726A-ms98-a-0040	A.63	191.485750	191.675750		all	all
sw2726A-ms98-a-0040	A.63	191.675750	191.805750		over	over
sw2726A-ms98-a-0040	A.63	191.805750	191.904750		the	the
sw2726A-ms98-a-0040	A.63	191.904750	192.155750		place	place
sw2726A-ms98-a-0040	A.65	192.155750	192.185750		I	i
sw2726A-ms98-a-0040	A.65	192.185750	192.305750		like	like
sw2726A-ms98-a-0040	A.65	192.305750	192.395750		to	to
sw2726A-ms98-a-0040	A.65	192.395750	192.575750		have	have
sw2726A-ms98-a-0040	A.65	192.575750	192.635750		them	them_1
sw2726A-ms98-a-0040	A.65	192.635750	192.805750		kind	kind
sw2726A-ms98-a-0040	A.65	192.805750	192.865750		of	of
sw2726A-ms98-a-0040	A.65	192.865750	193.173125		tucked	tucked
sw2726A-ms98-a-0040	A.65	193.173125	193.535750		away	away
sw2726A-ms98-a-0040	A.67	193.535750	193.992500		[silence]	[silence]
sw2726A-ms98-a-0041	A.67	193.992500	201.220625		[silence]	[silence]
sw2726A-ms98-a-0042	A.67	201.220625	201.850625		[silence]	[silence]
sw2726A-ms98-a-0042	A.67	201.850625	202.327875	<SUB>	Uh-huh	um-hum
sw2726A-ms98-a-0042	A.69	202.327875	202.972125		[silence]	[silence]
sw2726A-ms98-a-0043	A.69	202.972125	204.987750		[silence]	[silence]
sw2726A-ms98-a-0044	A.69	204.987750	205.494125		[silence]	[silence]
sw2726A-ms98-a-0044	A.69	205.494125	205.954375	<SUB>	Uh-huh	um-hum
sw2726A-ms98-a-0044	A.71	205.954375	206.801000		[silence]	[silence]
sw2726A-ms98-a-0045	A.71	206.801000	207.591000		[silence]	[silence]
sw2726A-ms98-a-0045	A.71	207.591000	208.054875		Right	right
sw2726A-ms98-a-0045	A.73	208.054875	208.497375		[silence]	[silence]
sw2726A-ms98-a-0046	A.73	208.497375	213.134875		[silence]	[silence]
sw2726A-ms98-a-0047	A.73	213.134875	213.635125		[silence]	[silence]
sw2726A-ms98-a-0047	A.73	213.635125	214.104875	<SUB>	Uh-huh	um-hum
sw2726A-ms98-a-0047	A.75	214.104875	214.499250		[silence]	[silence]
sw2726A-ms98-a-0048	A.75	214.499250	216.494625		[silence]	[silence]
sw2726A-ms98-a-0049	A.75	216.494625	216.983875		[silence]	[silence]
sw2726A-ms98-a-0049	A.75	216.983875	217.384625	<SUB>	Uh-huh	um-hum
sw2726A-ms98-a-0049	A.77	217.384625	217.996000		[silence]	[silence]
sw2726A-ms98-a-0050	A.77	217.996000	219.506750		[silence]	[silence]
sw2726A-ms98-a-0051	A.77	219.506750	220.126750		[silence]	[silence]
sw2726A-ms98-a-0051	A.77	220.126750	220.266750		My	my
sw2726A-ms98-a-0051	A.77	220.266750	220.676750		father	father
sw2726A-ms98-a-0051	A.77	220.676750	221.246750		had	had
sw2726A-ms98-a-0051	A.77	221.246750	221.664250		uh	uh
sw2726A-ms98-a-0051	A.77	221.664250	222.006750		[silence]	[silence]
sw2726A-ms98-a-0051	A.77	222.006750	222.036750		I	i
sw2726A-ms98-a-0051	A.77	222.036750	222.216750		keep	keep
sw2726A-ms98-a-0051	A.77	222.216750	222.376750		talking	talking
sw2726A-ms98-a-0051	A.77	222.376750	222.506750		about	about
sw2726A-ms98-a-0051	A.77	222.506750	222.616750		my	my
sw2726A-ms98-a-0051	A.77	222.616750	222.886750		father	father
sw2726A-ms98-a-0051	A.77	222.886750	223.076750		because	because_1
sw2726A-ms98-a-0051	A.77	223.076750	223.236750		he	he
sw2726A-ms98-a-0051	A.77	223.236750	223.356750		owned	owned
sw2726A-ms98-a-0051	A.77	223.356750	223.386750		a	a
sw2726A-ms98-a-0051	A.77	223.386750	223.707500		house	house
sw2726A-ms98-a-0051	A.77	223.707500	224.216750		[silence]	[silence]
sw2726A-ms98-a-0051	A.77	224.216750	224.616750	<SUB>	uh	um
sw2726A-ms98-a-0051	A.77	224.616750	224.962000		[silence]	[silence]
sw2726A-ms98-a-0052	A.77	224.962000	225.342000		[silence]	[silence]
sw2726A-ms98-a-0052	A.77	225.342000	225.569000		he	he
sw2726A-ms98-a-0052	A.77	225.569000	225.723875		had	had
sw2726A-ms98-a-0052	A.77	225.723875	225.804750		the	the
sw2726A-ms98-a-0052	A.77	225.804750	226.493750		kitchen	kitchen
sw2726A-ms98-a-0052	A.77	226.493750	226.625625		kind	kind
sw2726A-ms98-a-0052	A.77	226.625625	226.702000		of	of
sw2726A-ms98-a-0052	A.77	226.702000	226.772000		a	a
sw2726A-ms98-a-0052	A.77	226.772000	227.352000		kitchen	kitchen
sw2726A-ms98-a-0052	A.77	227.352000	227.502000		and	and
sw2726A-ms98-a-0052	A.77	227.502000	227.562000		a	a
sw2726A-ms98-a-0052	A.77	227.562000	227.862000		very	very
sw2726A-ms98-a-0052	A.77	227.862000	228.102000		long	long
sw2726A-ms98-a-0052	A.77	228.102000	228.542000		family	family
sw2726A-ms98-a-0052	A.77	228.542000	228.862000		room	room
sw2726A-ms98-a-0052	A.79	228.862000	228.952000		it's	it's
sw2726A-ms98-a-0052	A.79	228.952000	229.162000		just	just
sw2726A-ms98-a-0052	A.79	229.162000	229.352000		kind	kind
sw2726A-ms98-a-0052	A.79	229.352000	229.432000		of	of
sw2726A-ms98-a-0052	A.79	229.432000	229.702000		one	one
sw2726A-ms98-a-0052	A.79	229.702000	229.982000		room	room
sw2726A-ms98-a-0052	A.79	229.982000	230.132000		and	and
sw2726A-ms98-a-0052	A.79	230.132000	230.262000		what	what
sw2726A-ms98-a-0052	A.79	230.262000	230.322000		he	he
sw2726A-ms98-a-0052	A.79	230.322000	230.682000		did	did
sw2726A-ms98-a-0052	A.79	230.682000	230.752000		he	he
sw2726A-ms98-a-0052	A.79	230.752000	231.043625		put	put
sw2726A-ms98-a-0052	A.79	231.043625	231.237125		uh	uh
sw2726A-ms98-a-0052	A.79	231.237125	231.723000		[silence]	[silence]
sw2726A-ms98-a-0052	A.79	231.723000	231.946625		a	a
sw2726A-ms98-a-0052	A.79	231.946625	232.535625		bar	bar
sw2726A-ms98-a-0052	A.79	232.535625	232.678750		[silence]	[silence]
sw2726A-ms98-a-0052	A.79	232.678750	232.922000		right	right
sw2726A-ms98-a-0052	A.79	232.922000	233.022000		in	in
sw2726A-ms98-a-0052	A.79	233.022000	233.092000		the	the
sw2726A-ms98-a-0052	A.79	233.092000	233.670250		center	center
sw2726A-ms98-a-0052	A.81	233.670250	234.178625		[silence]	[silence]
sw2726A-ms98-a-0052	A.81	234.178625	234.422000		and	and
sw2726A-ms98-a-0052	A.81	234.422000	234.612000		put	put
sw2726A-ms98-a-0052	A.81	234.612000	235.056500		some	some
sw2726A-ms98-a-0052	A.81	235.056500	235.613875		[silence]	[silence]
sw2726A-ms98-a-0052	A.81	235.613875	236.008375	<SUB>	uh	um
sw2726A-ms98-a-0052	A.81	236.008375	236.203500		[silence]	[silence]
sw2726A-ms98-a-0052	A.81	236.203500	236.342875		a	a
sw2726A-ms98-a-0052	A.81	236.342875	236.822000		glass	glass
sw2726A-ms98-a-0052	A.81	236.822000	237.337375		rack	rack
sw2726A-ms98-a-0052	A.81	237.337375	237.498000		[silence]	[silence]
sw2726A-ms98-a-0053	A.81	237.498000	237.689125		[silence]	[silence]
sw2726A-ms98-a-0053	A.81	237.689125	238.038000		down	down
sw2726A-ms98-a-0053	A.81	238.038000	238.158000		so	so
sw2726A-ms98-a-0053	A.81	238.158000	238.308000		you	you
sw2726A-ms98-a-0053	A.81	238.308000	238.438000		had	had
sw2726A-ms98-a-0053	A.81	238.438000	238.598000		like	like
sw2726A-ms98-a-0053	A.81	238.598000	238.888000		wine	wine
sw2726A-ms98-a-0053	A.81	238.888000	239.288000		glasses	glasses
sw2726A-ms98-a-0053	A.81	239.288000	239.528000		hanging	hanging
sw2726A-ms98-a-0053	A.81	239.528000	239.668000		from	from
sw2726A-ms98-a-0053	A.81	239.668000	239.738000		the	the
sw2726A-ms98-a-0053	A.81	239.738000	240.248000		ceiling	ceiling
sw2726A-ms98-a-0053	A.81	240.248000	240.338000		and	and
sw2726A-ms98-a-0053	A.81	240.338000	240.438000		then	then
sw2726A-ms98-a-0053	A.81	240.438000	240.498000		the	the
sw2726A-ms98-a-0053	A.81	240.498000	240.896500		bar	bar
sw2726A-ms98-a-0053	A.81	240.896500	241.269500		[silence]	[silence]
sw2726A-ms98-a-0053	A.81	241.269500	241.428000		and	and
sw2726A-ms98-a-0053	A.81	241.428000	241.518000		it	it
sw2726A-ms98-a-0053	A.81	241.518000	241.688000		just	just
sw2726A-ms98-a-0053	A.81	241.688000	241.968000		kind	kind
sw2726A-ms98-a-0053	A.81	241.968000	242.228000		of	of
sw2726A-ms98-a-0053	A.81	242.228000	242.331625		it	it
sw2726A-ms98-a-0053	A.81	242.331625	242.425750		[silence]	[silence]
sw2726A-ms98-a-0053	A.81	242.425750	242.628000		kind	kind
sw2726A-ms98-a-0053	A.81	242.628000	242.688000		of	of
sw2726A-ms98-a-0053	A.81	242.688000	243.338000		separated	separated
sw2726A-ms98-a-0053	A.81	243.338000	243.518000		it	it
sw2726A-ms98-a-0053	A.81	243.518000	243.608000		It	it
sw2726A-ms98-a-0053	A.81	243.608000	243.698000		was	was
sw2726A-ms98-a-0053	A.81	243.698000	244.068000		still	still
sw2726A-ms98-a-0053	A.81	244.068000	244.168000		you	you
sw2726A-ms98-a-0053	A.81	244.168000	244.288000		know	know
sw2726A-ms98-a-0053	A.81	244.288000	244.748000		together	together
sw2726A-ms98-a-0053	A.81	244.748000	245.017375		but	but
sw2726A-ms98-a-0053	A.81	245.017375	245.438000		[silence]	[silence]
sw2726A-ms98-a-0053	A.81	245.438000	245.548000		it	it
sw2726A-ms98-a-0053	A.81	245.548000	245.778000		just	just
sw2726A-ms98-a-0053	A.81	245.778000	245.948000		looked	looked
sw2726A-ms98-a-0053	A.81	245.948000	246.018000		a	a
sw2726A-ms98-a-0053	A.81	246.018000	246.254750		lot	lot
sw2726A-ms98-a-0053	A.81	246.254750	246.757125		better	better
sw2726A-ms98-a-0053	A.81	246.757125	246.978500		[silence]	[silence]
sw2726A-ms98-a-0054	A.81	246.978500	247.232625		[silence]	[silence]
sw2726A-ms98-a-0054	A.81	247.232625	247.378500		Because	because_1
sw2726A-ms98-a-0054	A.81	247.378500	247.518500		I	i
sw2726A-ms98-a-0054	A.81	247.518500	247.948500		personally	personally
sw2726A-ms98-a-0054	A.81	247.948500	248.168500		don't	don't
sw2726A-ms98-a-0054	A.81	248.168500	248.425750		like	like
sw2726A-ms98-a-0054	A.81	248.425750	248.546000		the	the
sw2726A-ms98-a-0054	A.81	248.546000	248.710625		[silence]	[silence]
sw2726A-ms98-a-0054	A.81	248.710625	249.678500		combination	combination
sw2726A-ms98-a-0054	A.81	249.678500	250.150375		[silence]	[silence]
sw2726A-ms98-a-0055	A.81	250.150375	250.631125		[silence]	[silence]
sw2726A-ms98-a-0055	A.81	250.631125	251.378875		rooms	rooms
sw2726A-ms98-a-0055	A.83	251.378875	251.495625		[silence]	[silence]
sw2726A-ms98-a-0055	A.83	251.495625	251.937375	<SUB>	Uh-huh	so
sw2726A-ms98-a-0055	A.85	251.937375	252.472625		[silence]	[silence]
sw2726A-ms98-a-0056	A.85	252.472625	254.261000		[silence]	[silence]
sw2726A-ms98-a-0057	A.85	254.261000	254.872750		[silence]	[silence]
sw2726A-ms98-a-0057	A.85	254.872750	255.350750	<SUB>	Uh-huh	um-hum
sw2726A-ms98-a-0057	A.87	255.350750	255.732000		[silence]	[silence]
sw2726A-ms98-a-0058	A.87	255.732000	261.730500		[silence]	[silence]
sw2726A-ms98-a-0059	A.87	261.730500	262.360500		[silence]	[silence]
sw2726A-ms98-a-0059	A.87	262.360500	262.833875	<DEL>	---	um-hum
sw2726A-ms98-a-0059	A.87	262.833875	263.272000		[silence]	[silence]
sw2726A-ms98-a-0060	A.87	263.272000	265.301375		[silence]	[silence]
sw2726A-ms98-a-0061	A.87	265.301375	265.682875		[silence]	[silence]
sw2726A-ms98-a-0061	A.87	265.682875	266.037250		Yeah	yeah
sw2726A-ms98-a-0061	A.87	266.037250	266.221375		I'd	i'd
sw2726A-ms98-a-0061	A.87	266.221375	266.411375		like	like
sw2726A-ms98-a-0061	A.87	266.411375	266.471375		a	a
sw2726A-ms98-a-0061	A.87	266.471375	266.694375		big	big
sw2726A-ms98-a-0061	A.87	266.694375	267.349375		backyard	backyard
sw2726A-ms98-a-0061	A.89	267.349375	267.762875		[silence]	[silence]
sw2726A-ms98-a-0062	A.89	267.762875	268.995875		[silence]	[silence]
sw2726A-ms98-a-0063	A.89	268.995875	269.585250		[silence]	[silence]
sw2726A-ms98-a-0063	A.89	269.585250	270.105875		[laughter]	[laughter]
sw2726A-ms98-a-0063	A.89	270.105875	270.275875		Oh	oh
sw2726A-ms98-a-0063	A.89	270.275875	270.630750		really	really
sw2726A-ms98-a-0063	A.91	270.630750	271.989250		[silence]	[silence]
sw2726A-ms98-a-0064	A.91	271.989250	272.535250		[silence]	[silence]
sw2726A-ms98-a-0064	A.91	272.535250	273.040000	<DEL>	---	yeah
sw2726A-ms98-a-0064	A.91	273.040000	273.215250		[silence]	[silence]
sw2726A-ms98-a-0064	A.91	273.215250	273.329250		A	a
sw2726A-ms98-a-0064	A.91	273.329250	273.919250		little	little
sw2726A-ms98-a-0064	A.91	273.919250	274.224750		hot	hot
sw2726A-ms98-a-0064	A.93	274.224750	275.597625		[laughter]	[laughter]
sw2726A-ms98-a-0064	A.93	275.597625	275.750000		Try	try
sw2726A-ms98-a-0064	A.93	275.750000	275.819250		to	to
sw2726A-ms98-a-0064	A.93	275.819250	275.929250		do	do
sw2726A-ms98-a-0064	A.93	275.929250	276.009250		it	it
sw2726A-ms98-a-0064	A.93	276.009250	276.279250		early	early
sw2726A-ms98-a-0064	A.93	276.279250	276.359250		in	in
sw2726A-ms98-a-0064	A.93	276.359250	276.419250		the	the
sw2726A-ms98-a-0064	A.93	276.419250	276.929250		mornings	mornings
sw2726A-ms98-a-0064	A.95	276.929250	277.459625		[silence]	[silence]
sw2726A-ms98-a-0065	A.95	277.459625	278.109625		[silence]	[silence]
sw2726A-ms98-a-0065	A.95	278.109625	278.589625	<DEL>	---	um
sw2726A-ms98-a-0065	A.95	278.589625	278.988625		[silence]	[silence]
sw2726A-ms98-a-0066	A.95	278.988625	285.494250		[silence]	[silence]
sw2726A-ms98-a-0067	A.95	285.494250	286.094250		[silence]	[silence]
sw2726A-ms98-a-0067	A.95	286.094250	286.464250		Uh-huh	uh-huh
sw2726A-ms98-a-0067	A.97	286.464250	286.998375		[silence]	[silence]
sw2726A-ms98-a-0068	A.97	286.998375	288.478000		[silence]	[silence]
sw2726A-ms98-a-0069	A.97	288.478000	289.003500		[silence]	[silence]
sw2726A-ms98-a-0069	A.97	289.003500	289.393250	<DEL>	---	hum
sw2726A-ms98-a-0069	A.97	289.393250	289.707375		[silence]	[silence]
sw2726A-ms98-a-0070	A.97	289.707375	290.997500		[silence]	[silence]
sw2726A-ms98-a-0071	A.97	290.997500	291.441875		[silence]	[silence]
sw2726A-ms98-a-0071	A.97	291.441875	291.862250		Wow	wow
sw2726A-ms98-a-0071	A.101	291.862250	292.479750		[silence]	[silence]
sw2726A-ms98-a-0072	A.101	292.479750	293.072250		[silence]	[silence]
sw2726A-ms98-a-0072	A.101	293.072250	294.679750		[laughter]	[laughter]
sw2726A-ms98-a-0072	A.101	294.679750	294.993000		[silence]	[silence]
sw2726A-ms98-a-0073	A.101	294.993000	296.009125		[silence]	[silence]
sw2726A-ms98-a-0073	A.101	296.009125	296.445500		Uh-huh	uh-huh
sw2726A-ms98-a-0073	A.101	296.445500	296.634625		[silence]	[silence]
sw2726A-ms98-a-0073	A.101	296.634625	296.790125		well	well
sw2726A-ms98-a-0073	A.101	296.790125	297.076750		that's	that's
sw2726A-ms98-a-0073	A.101	297.076750	297.410875		good	good
sw2726A-ms98-a-0073	A.103	297.410875	298.518375		[silence]	[silence]
sw2726A-ms98-a-0073	A.103	298.518375	299.163625		Yeah	yeah
sw2726A-ms98-a-0073	A.103	299.163625	299.261500		[silence]	[silence]
sw2726A-ms98-a-0073	A.103	299.261500	299.673000		yeah	yeah
sw2726A-ms98-a-0073	A.105	299.673000	300.482500		[silence]	[silence]
sw2726A-ms98-a-0074	A.105	300.482500	302.291875		[silence]	[silence]
sw2726A-ms98-a-0075	A.105	302.291875	302.746625		[silence]	[silence]
sw2726A-ms98-a-0075	A.105	302.746625	303.444875	<DEL>	---	uh-huh
sw2726A-ms98-a-0075	A.105	303.444875	304.023875		[silence]	[silence]
sw2726A-ms98-a-0075	A.105	304.023875	305.511875		[laughter]	[laughter]
sw2726A-ms98-a-0075	A.105	305.511875	305.737000		That's	that's
sw2726A-ms98-a-0075	A.105	305.737000	305.931875		true	true
sw2726A-ms98-a-0075	A.105	305.931875	306.071875		they	they
sw2726A-ms98-a-0075	A.105	306.071875	306.221875		do	do
sw2726A-ms98-a-0075	A.105	306.221875	306.477000		throw	throw
sw2726A-ms98-a-0075	A.105	306.477000	306.691875		those	those
sw2726A-ms98-a-0075	A.105	306.691875	307.061875		up	up
sw2726A-ms98-a-0075	A.107	307.061875	307.488625		[silence]	[silence]
sw2726A-ms98-a-0076	A.107	307.488625	308.238750		[silence]	[silence]
sw2726A-ms98-a-0076	A.107	308.238750	308.374500		Are	are
sw2726A-ms98-a-0076	A.107	308.374500	308.468625		you	you
sw2726A-ms98-a-0076	A.107	308.468625	308.568625		all	all
sw2726A-ms98-a-0076	A.107	308.568625	308.888625		planning	planning
sw2726A-ms98-a-0076	A.107	308.888625	308.958625		to	to
sw2726A-ms98-a-0076	A.107	308.958625	309.328625		move	move
sw2726A-ms98-a-0076	A.107	309.328625	309.678625		anytime	anytime
sw2726A-ms98-a-0076	A.107	309.678625	309.788625		are	are
sw2726A-ms98-a-0076	A.107	309.788625	309.878625		you	you
sw2726A-ms98-a-0076	A.107	309.878625	310.118625		looking	looking
sw2726A-ms98-a-0076	A.107	310.118625	310.268625		for	for
sw2726A-ms98-a-0076	A.107	310.268625	310.348625		a	a
sw2726A-ms98-a-0076	A.107	310.348625	310.778375		house	house
sw2726A-ms98-a-0076	A.107	310.778375	311.158750		or	or
sw2726A-ms98-a-0076	A.107	311.158750	311.416000		not	not
sw2726A-ms98-a-0076	A.109	311.416000	311.993000	<SUB>	Uh-huh	um-hum
sw2726A-ms98-a-0076	A.111	311.993000	312.426125		[silence]	[silence]
sw2726A-ms98-a-0076	A.111	312.426125	312.813375	<SUB>	Uh-huh	um-hum
sw2726A-ms98-a-0076	A.113	312.813375	313.470375		[silence]	[silence]
sw2726A-ms98-a-0077	A.113	313.470375	315.692375		[silence]	[silence]
sw2726A-ms98-a-0078	A.113	315.692375	316.161750		[silence]	[silence]
sw2726A-ms98-a-0078	A.113	316.161750	316.562375	<SUB>	Uh-huh	um-hum
sw2726A-ms98-a-0078	A.115	316.562375	317.142250		[silence]	[silence]
sw2726A-ms98-a-0079	A.115	317.142250	319.796000		[silence]	[silence]
sw2726A-ms98-a-0080	A.115	319.796000	320.356000		[silence]	[silence]
sw2726A-ms98-a-0080	A.115	320.356000	320.796000	<DEL>	---	um-hum
sw2726A-ms98-a-0080	A.115	320.796000	321.243375		[silence]	[silence]
sw2726A-ms98-a-0081	A.115	321.243375	324.495250		[silence]	[silence]
sw2726A-ms98-a-0082	A.115	324.495250	325.085250		[silence]	[silence]
sw2726A-ms98-a-0082	A.115	325.085250	325.625250		Yeah	[laughter-yeah]
sw2726A-ms98-a-0082	A.115	325.625250	325.975250		really	really
sw2726A-ms98-a-0082	A.117	325.975250	326.520750		[silence]	[silence]
sw2726A-ms98-a-0083	A.117	326.520750	328.352750		[silence]	[silence]
sw2726A-ms98-a-0084	A.117	328.352750	328.880750		[silence]	[silence]
sw2726A-ms98-a-0084	A.117	328.880750	329.244750	<DEL>	---	um-hum
sw2726A-ms98-a-0084	A.117	329.244750	329.993875		[silence]	[silence]
sw2726A-ms98-a-0085	A.117	329.993875	330.919125		[silence]	[silence]
sw2726A-ms98-a-0085	A.117	330.919125	331.013875		To	to
sw2726A-ms98-a-0085	A.117	331.013875	331.433875		find	find
sw2726A-ms98-a-0085	A.117	331.433875	331.579250		it	it
sw2726A-ms98-a-0085	A.117	331.579250	331.873000		[silence]	[silence]
sw2726A-ms98-a-0085	A.117	331.873000	332.301375	<SUB>	uh-huh	um-hum
sw2726A-ms98-a-0085	A.119	332.301375	332.990250		[silence]	[silence]
sw2726A-ms98-a-0086	A.119	332.990250	334.255125		[silence]	[silence]
sw2726A-ms98-a-0087	A.119	334.255125	334.685125		[silence]	[silence]
sw2726A-ms98-a-0087	A.119	334.685125	334.805125		You	you
sw2726A-ms98-a-0087	A.119	334.805125	334.965125		knew	knew
sw2726A-ms98-a-0087	A.119	334.965125	335.155125		that	that
sw2726A-ms98-a-0087	A.119	335.155125	335.295125		was	was
sw2726A-ms98-a-0087	A.119	335.295125	335.525125		it	it
sw2726A-ms98-a-0087	A.121	335.525125	335.525125	<INS>	Uh-huh	---
sw2726A-ms98-a-0087	A.121	335.525125	336.167750		[laughter]	[laughter]
sw2726A-ms98-a-0087	A.121	336.167750	336.684125		[silence]	[silence]
sw2726A-ms98-a-0087	A.121	336.684125	336.833625		I'll	i'll
sw2726A-ms98-a-0087	A.121	336.833625	337.262750		probably	probably
sw2726A-ms98-a-0087	A.121	337.262750	337.537625		[silence]	[silence]
sw2726A-ms98-a-0087	A.121	337.537625	337.695125		I'll	i'll
sw2726A-ms98-a-0087	A.121	337.695125	338.015125		probably	probably
sw2726A-ms98-a-0087	A.121	338.015125	338.355125		move	move
sw2726A-ms98-a-0087	A.121	338.355125	338.455125		but	but
sw2726A-ms98-a-0087	A.121	338.455125	338.555125		I'll	i'll
sw2726A-ms98-a-0087	A.121	338.555125	338.835125		probably	probably
sw2726A-ms98-a-0087	A.121	338.835125	339.045125		move	move
sw2726A-ms98-a-0087	A.121	339.045125	339.175125		to	to
sw2726A-ms98-a-0087	A.121	339.175125	339.629750		another	another
sw2726A-ms98-a-0087	A.121	339.629750	340.089250		[silence]	[silence]
sw2726A-ms98-a-0087	A.121	340.089250	340.645125		apartment	apartment
sw2726A-ms98-a-0087	A.121	340.645125	340.725125		or	or
sw2726A-ms98-a-0087	A.121	340.725125	341.125125		something	something
sw2726A-ms98-a-0087	A.121	341.125125	341.245125		because	because_1
sw2726A-ms98-a-0087	A.121	341.245125	341.415125		I'm	i'm
sw2726A-ms98-a-0087	A.121	341.415125	341.649250		I'm	i'm
sw2726A-ms98-a-0087	A.121	341.649250	341.795125		[silence]	[silence]
sw2726A-ms98-a-0087	A.121	341.795125	342.015125		I'm	i'm
sw2726A-ms98-a-0087	A.121	342.015125	342.415125		really	really
sw2726A-ms98-a-0087	A.121	342.415125	342.702500		[silence]	[silence]
sw2726A-ms98-a-0088	A.121	342.702500	343.022500		[silence]	[silence]
sw2726A-ms98-a-0088	A.121	343.022500	343.202500		[noise]	[noise]
sw2726A-ms98-a-0088	A.121	343.202500	343.612500	<SUB>	uh	um
sw2726A-ms98-a-0088	A.121	343.612500	343.802500		what's	what's
sw2726A-ms98-a-0088	A.121	343.802500	343.892500		the	the
sw2726A-ms98-a-0088	A.121	343.892500	344.359375		word	word
sw2726A-ms98-a-0088	A.121	344.359375	344.992500		[silence]	[silence]
sw2726A-ms98-a-0088	A.121	344.992500	345.080125		I	i
sw2726A-ms98-a-0088	A.121	345.080125	345.312500		move	move
sw2726A-ms98-a-0088	A.121	345.312500	345.372500		a	a
sw2726A-ms98-a-0088	A.121	345.372500	345.752500		lot	lot
sw2726A-ms98-a-0088	A.121	345.752500	346.302500		anyway	anyway
sw2726A-ms98-a-0088	A.123	346.302500	346.584250		because	because_1
sw2726A-ms98-a-0088	A.123	346.584250	346.719875		[silence]	[silence]
sw2726A-ms98-a-0088	A.123	346.719875	346.831875		the	the
sw2726A-ms98-a-0088	A.123	346.831875	347.095625		job	job
sw2726A-ms98-a-0088	A.123	347.095625	347.252500		I	i
sw2726A-ms98-a-0088	A.123	347.252500	347.482500		have	have
sw2726A-ms98-a-0088	A.123	347.482500	347.642500		I	i
sw2726A-ms98-a-0088	A.123	347.642500	347.892500		only	only
sw2726A-ms98-a-0088	A.123	347.892500	348.420500		work	work
sw2726A-ms98-a-0088	A.123	348.420500	348.544750		[silence]	[silence]
sw2726A-ms98-a-0088	A.123	348.544750	348.735875		like	like
sw2726A-ms98-a-0088	A.123	348.735875	349.157750		[silence]	[silence]
sw2726A-ms98-a-0088	A.123	349.157750	349.492500		here	here
sw2726A-ms98-a-0088	A.123	349.492500	349.642500		I'll	i'll
sw2726A-ms98-a-0088	A.123	349.642500	349.802500		be	be
sw2726A-ms98-a-0088	A.123	349.802500	349.972500		here	here
sw2726A-ms98-a-0088	A.123	349.972500	350.142500		for	for
sw2726A-ms98-a-0088	A.123	350.142500	350.372500		like	like
sw2726A-ms98-a-0088	A.123	350.372500	350.412500		a	a
sw2726A-ms98-a-0088	A.123	350.412500	350.912500		year	year
sw2726A-ms98-a-0088	A.123	350.912500	351.262750		[silence]	[silence]
sw2726A-ms98-a-0088	A.123	351.262750	351.392500		and	and
sw2726A-ms98-a-0088	A.123	351.392500	351.482500		then	then
sw2726A-ms98-a-0088	A.123	351.482500	351.642500		I'll	i'll
sw2726A-ms98-a-0088	A.123	351.642500	351.882500		move	move
sw2726A-ms98-a-0088	A.123	351.882500	352.182500		off	off
sw2726A-ms98-a-0088	A.123	352.182500	352.272500		I	i
sw2726A-ms98-a-0088	A.123	352.272500	352.442500		can	can
sw2726A-ms98-a-0088	A.123	352.442500	352.662500		move	move
sw2726A-ms98-a-0088	A.123	352.662500	353.081375		up	up
sw2726A-ms98-a-0088	A.123	353.081375	353.315750		[silence]	[silence]
sw2726A-ms98-a-0089	A.123	353.315750	353.394125		[silence]	[silence]
sw2726A-ms98-a-0089	A.123	353.394125	353.560000		and	and
sw2726A-ms98-a-0089	A.123	353.560000	353.932000		so	so
sw2726A-ms98-a-0089	A.125	353.932000	354.582625		[silence]	[silence]
sw2726A-ms98-a-0089	A.125	354.582625	354.817125		I'm	i'm
sw2726A-ms98-a-0089	A.125	354.817125	354.975250		a	a
sw2726A-ms98-a-0089	A.125	354.975250	355.147375		I'm	i'm
sw2726A-ms98-a-0089	A.125	355.147375	355.319250	<DEL>	---	i'm
sw2726A-ms98-a-0089	A.125	355.319250	355.375750		a	a
sw2726A-ms98-a-0089	A.125	355.375750	355.605750		news	news
sw2726A-ms98-a-0089	A.125	355.605750	356.157750		reporter	reporter
sw2726A-ms98-a-0089	A.127	356.157750	356.511750		[silence]	[silence]
sw2726A-ms98-a-0089	A.127	356.511750	356.637375		I	i
sw2726A-ms98-a-0089	A.127	356.637375	356.805750		work	work
sw2726A-ms98-a-0089	A.127	356.805750	356.893250		at	at
sw2726A-ms98-a-0089	A.127	356.893250	357.149375		Channel	Channel
sw2726A-ms98-a-0089	A.127	357.149375	357.726500		Six	Six
sw2726A-ms98-a-0089	A.129	357.726500	358.265750		[silence]	[silence]
sw2726A-ms98-a-0089	A.129	358.265750	358.395750		and	and
sw2726A-ms98-a-0089	A.129	358.395750	358.565750		so	so
sw2726A-ms98-a-0089	A.129	358.565750	358.755750		this	this
sw2726A-ms98-a-0089	A.129	358.755750	358.825750		is	is
sw2726A-ms98-a-0089	A.129	358.825750	359.015750		like	like
sw2726A-ms98-a-0089	A.129	359.015750	359.129250		my	my
sw2726A-ms98-a-0089	A.129	359.129250	359.513375		first	first
sw2726A-ms98-a-0089	A.129	359.513375	359.925750		job	job
sw2726A-ms98-a-0089	A.129	359.925750	360.035750		so	so
sw2726A-ms98-a-0089	A.129	360.035750	360.112250		I	i
sw2726A-ms98-a-0089	A.129	360.112250	360.295750		won't	won't
sw2726A-ms98-a-0089	A.129	360.295750	360.465750		be	be
sw2726A-ms98-a-0089	A.129	360.465750	360.605750		here	here
sw2726A-ms98-a-0089	A.129	360.605750	360.845750		very	very
sw2726A-ms98-a-0089	A.129	360.845750	361.095750		long	long
sw2726A-ms98-a-0089	A.131	361.095750	361.235750		so	so
sw2726A-ms98-a-0089	A.131	361.235750	361.365750		I'm	i'm
sw2726A-ms98-a-0089	A.131	361.365750	361.525750		not	not
sw2726A-ms98-a-0089	A.131	361.525750	361.715750		even	even
sw2726A-ms98-a-0089	A.131	361.715750	362.124375		looking	looking
sw2726A-ms98-a-0089	A.131	362.124375	362.408000		to	to
sw2726A-ms98-a-0089	A.131	362.408000	362.897625		[silence]	[silence]
sw2726A-ms98-a-0089	A.131	362.897625	363.119750		buy	buy
sw2726A-ms98-a-0089	A.131	363.119750	363.355750		anything	anything
sw2726A-ms98-a-0089	A.131	363.355750	363.465750		as	as
sw2726A-ms98-a-0089	A.131	363.465750	363.995750		permanent	permanent
sw2726A-ms98-a-0089	A.131	363.995750	364.104750		as	as
sw2726A-ms98-a-0089	A.131	364.104750	364.191250	<DEL>	---	a
sw2726A-ms98-a-0089	A.131	364.191250	364.735750		house	house
sw2726A-ms98-a-0089	A.131	364.735750	364.998500		[silence]	[silence]
sw2726A-ms98-a-0090	A.131	364.998500	365.204875		[silence]	[silence]
sw2726A-ms98-a-0090	A.131	365.204875	365.338500		you	you
sw2726A-ms98-a-0090	A.131	365.338500	365.518500		know	know
sw2726A-ms98-a-0090	A.133	365.518500	365.778500		so	so
sw2726A-ms98-a-0090	A.133	365.778500	365.936000		I'm	i'm
sw2726A-ms98-a-0090	A.133	365.936000	366.033875		st-	st[aying]-
sw2726A-ms98-a-0090	A.133	366.033875	366.318500		[silence]	[silence]
sw2726A-ms98-a-0090	A.133	366.318500	366.578500		staying	staying
sw2726A-ms98-a-0090	A.133	366.578500	366.638500		in	in
sw2726A-ms98-a-0090	A.133	366.638500	366.768500		an	an
sw2726A-ms98-a-0090	A.133	366.768500	367.318500		apartment	apartment
sw2726A-ms98-a-0090	A.133	367.318500	368.088500		[silence]	[silence]
sw2726A-ms98-a-0090	A.133	368.088500	368.206375		and	and
sw2726A-ms98-a-0090	A.133	368.206375	368.298500		I'm	i'm
sw2726A-ms98-a-0090	A.133	368.298500	368.458500		not	not
sw2726A-ms98-a-0090	A.133	368.458500	368.878500		married	married
sw2726A-ms98-a-0090	A.133	368.878500	368.958500		or	or
sw2726A-ms98-a-0090	A.133	368.958500	369.368500		anything	anything
sw2726A-ms98-a-0090	A.133	369.368500	369.758500		so	so
sw2726A-ms98-a-0090	A.135	369.758500	369.958500		It's	it's
sw2726A-ms98-a-0090	A.135	369.958500	371.008500		[silence]	[silence]
sw2726A-ms98-a-0090	A.135	371.008500	371.148500		no	no
sw2726A-ms98-a-0090	A.135	371.148500	371.528500		biggie	biggie
sw2726A-ms98-a-0090	A.137	371.528500	372.187250		[silence]	[silence]
sw2726A-ms98-a-0091	A.137	372.187250	379.266125		[silence]	[silence]
sw2726A-ms98-a-0092	A.137	379.266125	379.853500		[silence]	[silence]
sw2726A-ms98-a-0092	A.137	379.853500	380.426125	<SUB>	Uh-huh	um-hum
sw2726A-ms98-a-0092	A.139	380.426125	380.984000		[silence]	[silence]
sw2726A-ms98-a-0093	A.139	380.984000	382.974125		[silence]	[silence]
sw2726A-ms98-a-0094	A.139	382.974125	383.624125		[silence]	[silence]
sw2726A-ms98-a-0094	A.139	383.624125	384.060250		Yeah	yeah
sw2726A-ms98-a-0094	A.139	384.060250	384.633000		[silence]	[silence]
sw2726A-ms98-a-0094	A.139	384.633000	385.099250		yeah	yeah
sw2726A-ms98-a-0094	A.141	385.099250	385.992125		[silence]	[silence]
sw2726A-ms98-a-0095	A.141	385.992125	386.757375		[silence]	[silence]
sw2726A-ms98-a-0095	A.141	386.757375	387.102375	<DEL>	---	um-hum
sw2726A-ms98-a-0095	A.141	387.102375	387.983875		[silence]	[silence]
sw2726A-ms98-a-0096	A.141	387.983875	389.486750		[silence]	[silence]
sw2726A-ms98-a-0097	A.141	389.486750	390.027750		[silence]	[silence]
sw2726A-ms98-a-0097	A.141	390.027750	390.582875		Yeah	yeah
sw2726A-ms98-a-0097	A.143	390.582875	391.497625		[silence]	[silence]
sw2726A-ms98-a-0098	A.143	391.497625	392.277625		[silence]	[silence]
sw2726A-ms98-a-0098	A.143	392.277625	392.687625		Yeah	yeah
sw2726A-ms98-a-0098	A.143	392.687625	392.994250		[silence]	[silence]
sw2726A-ms98-a-0099	A.143	392.994250	394.024250		[silence]	[silence]
sw2726A-ms98-a-0099	A.143	394.024250	394.154250		like	like
sw2726A-ms98-a-0099	A.143	394.154250	394.324250		I'm	i'm
sw2726A-ms98-a-0099	A.143	394.324250	394.764250		amazed	amazed
sw2726A-ms98-a-0099	A.143	394.764250	394.844250		at	at
sw2726A-ms98-a-0099	A.143	394.844250	394.944250		how	how
sw2726A-ms98-a-0099	A.143	394.944250	395.114250		much	much
sw2726A-ms98-a-0099	A.143	395.114250	395.334250		stuff	stuff
sw2726A-ms98-a-0099	A.143	395.334250	395.534250		I've	i've
sw2726A-ms98-a-0099	A.143	395.534250	396.174250		accumulated	accumulated
sw2726A-ms98-a-0099	A.143	396.174250	396.264250		in	in
sw2726A-ms98-a-0099	A.143	396.264250	396.404250		my	my
sw2726A-ms98-a-0099	A.143	396.404250	396.955625		apartment	apartment
sw2726A-ms98-a-0099	A.145	396.955625	397.181625		[silence]	[silence]
sw2726A-ms98-a-0099	A.145	397.181625	397.562750		because	because
sw2726A-ms98-a-0099	A.145	397.562750	397.913000		[silence]	[silence]
sw2726A-ms98-a-0099	A.145	397.913000	398.064250		up	up
sw2726A-ms98-a-0099	A.145	398.064250	398.204250		to	to
sw2726A-ms98-a-0099	A.145	398.204250	398.434250		this	this
sw2726A-ms98-a-0099	A.145	398.434250	398.894250		point	point
sw2726A-ms98-a-0099	A.145	398.894250	399.014250		I	i
sw2726A-ms98-a-0099	A.145	399.014250	399.244250		was	was
sw2726A-ms98-a-0099	A.145	399.244250	399.394250		in	in
sw2726A-ms98-a-0099	A.145	399.394250	399.904250		school	school
sw2726A-ms98-a-0099	A.145	399.904250	400.104250		[silence]	[silence]
sw2726A-ms98-a-0099	A.145	400.104250	400.214250	<DEL>	---	and
sw2726A-ms98-a-0099	A.145	400.214250	400.344250		so	so
sw2726A-ms98-a-0099	A.145	400.344250	400.554250		I'd	i'd
sw2726A-ms98-a-0099	A.145	400.554250	400.694250		go	go
sw2726A-ms98-a-0099	A.145	400.694250	400.974250		home	home
sw2726A-ms98-a-0099	A.145	400.974250	401.194250		every	every
sw2726A-ms98-a-0099	A.145	401.194250	401.244250		[silence]	[silence]
sw2726A-ms98-a-0099	A.145	401.244250	401.674250		summer	summer
sw2726A-ms98-a-0099	A.145	401.674250	401.709500		[silence]	[silence]
sw2726A-ms98-a-0100	A.145	401.709500	402.099500		[silence]	[silence]
sw2726A-ms98-a-0100	A.145	402.099500	402.270625		and	and
sw2726A-ms98-a-0100	A.145	402.270625	402.401125		I	i
sw2726A-ms98-a-0100	A.145	402.401125	402.519500		could	could
sw2726A-ms98-a-0100	A.145	402.519500	402.799500		take	take
sw2726A-ms98-a-0100	A.145	402.799500	402.909500		all	all
sw2726A-ms98-a-0100	A.145	402.909500	403.019500		my	my
sw2726A-ms98-a-0100	A.145	403.019500	403.319500		stuff	stuff
sw2726A-ms98-a-0100	A.145	403.319500	403.519500		home	home
sw2726A-ms98-a-0100	A.145	403.519500	403.649500		because	because_1
sw2726A-ms98-a-0100	A.145	403.649500	403.739500		I	i
sw2726A-ms98-a-0100	A.145	403.739500	403.919500		didn't	didn't
sw2726A-ms98-a-0100	A.145	403.919500	404.199500		have	have
sw2726A-ms98-a-0100	A.145	404.199500	404.279500		a	a
sw2726A-ms98-a-0100	A.145	404.279500	404.649500		bed	bed
sw2726A-ms98-a-0100	A.145	404.649500	404.729500		or	or
sw2726A-ms98-a-0100	A.145	404.729500	404.769500		a	a
sw2726A-ms98-a-0100	A.145	404.769500	405.209500		couch	couch
sw2726A-ms98-a-0100	A.145	405.209500	405.329500		or	or
sw2726A-ms98-a-0100	A.145	405.329500	405.531000		any	any
sw2726A-ms98-a-0100	A.145	405.531000	405.644000		[silence]	[silence]
sw2726A-ms98-a-0100	A.145	405.644000	405.879500		any	any
sw2726A-ms98-a-0100	A.145	405.879500	405.949500		of	of
sw2726A-ms98-a-0100	A.145	405.949500	406.179500		that	that
sw2726A-ms98-a-0100	A.147	406.179500	406.319500		but	but
sw2726A-ms98-a-0100	A.147	406.319500	406.890750		now	now
sw2726A-ms98-a-0100	A.147	406.890750	407.226000		[silence]	[silence]
sw2726A-ms98-a-0100	A.147	407.226000	407.386125		I	i
sw2726A-ms98-a-0100	A.147	407.386125	407.525500		could	could
sw2726A-ms98-a-0100	A.147	407.525500	407.809500		not	not
sw2726A-ms98-a-0100	A.147	407.809500	408.029500		move	move
sw2726A-ms98-a-0100	A.147	408.029500	408.269500		back	back
sw2726A-ms98-a-0100	A.147	408.269500	408.729750		home	home
sw2726A-ms98-a-0100	A.147	408.729750	408.925625		[silence]	[silence]
sw2726A-ms98-a-0100	A.147	408.925625	409.057375		And	and
sw2726A-ms98-a-0100	A.147	409.057375	409.159500		I	i
sw2726A-ms98-a-0100	A.147	409.159500	409.321500		just	just
sw2726A-ms98-a-0100	A.147	409.321500	409.779500		realized	realized
sw2726A-ms98-a-0100	A.147	409.779500	410.009500		this	this
sw2726A-ms98-a-0100	A.147	410.009500	410.079500		you	you
sw2726A-ms98-a-0100	A.147	410.079500	410.219500		know	know
sw2726A-ms98-a-0100	A.147	410.219500	410.349500		the	the
sw2726A-ms98-a-0100	A.147	410.349500	410.509500		other	other
sw2726A-ms98-a-0100	A.147	410.509500	410.739500		day	day
sw2726A-ms98-a-0100	A.147	410.739500	410.849500		I'm	i'm
sw2726A-ms98-a-0100	A.147	410.849500	411.099500		going	going
sw2726A-ms98-a-0100	A.147	411.099500	411.269500		wait	wait
sw2726A-ms98-a-0100	A.147	411.269500	411.319500		a	a
sw2726A-ms98-a-0100	A.147	411.319500	411.569500		minute	minute
sw2726A-ms98-a-0100	A.147	411.569500	411.639500		I	i
sw2726A-ms98-a-0100	A.147	411.639500	411.879500		can't	can't
sw2726A-ms98-a-0100	A.147	411.879500	411.989500		go	go
sw2726A-ms98-a-0100	A.147	411.989500	412.189500		back	back
sw2726A-ms98-a-0100	A.147	412.189500	412.499500		home	home
sw2726A-ms98-a-0100	A.147	412.499500	412.609500		for	for
sw2726A-ms98-a-0100	A.147	412.609500	412.699500		the	the
sw2726A-ms98-a-0100	A.147	412.699500	412.979500		summer	summer
sw2726A-ms98-a-0100	A.147	412.979500	413.059500		or	or
sw2726A-ms98-a-0100	A.147	413.059500	413.439500		anything	anything
sw2726A-ms98-a-0100	A.147	413.439500	413.499500		I	i
sw2726A-ms98-a-0100	A.147	413.499500	413.659500		have	have
sw2726A-ms98-a-0100	A.147	413.659500	413.809500		too	too
sw2726A-ms98-a-0100	A.147	413.809500	414.009500		much	much
sw2726A-ms98-a-0100	A.147	414.009500	414.455375		stuff	stuff
sw2726A-ms98-a-0100	A.149	414.455375	415.149750		[silence]	[silence]
sw2726A-ms98-a-0100	A.149	415.149750	415.578500		So	so
sw2726A-ms98-a-0100	A.149	415.578500	415.816875		[silence]	[silence]
sw2726A-ms98-a-0101	A.149	415.816875	415.997875		[silence]	[silence]
sw2726A-ms98-a-0101	A.149	415.997875	416.066875		it	it
sw2726A-ms98-a-0101	A.149	416.066875	416.166875		was	was
sw2726A-ms98-a-0101	A.149	416.166875	416.356875		just	just
sw2726A-ms98-a-0101	A.149	416.356875	416.496875		like	like
sw2726A-ms98-a-0101	A.149	416.496875	416.596875		a	a
sw2726A-ms98-a-0101	A.149	416.596875	416.886875		weird	weird
sw2726A-ms98-a-0101	A.149	416.886875	417.556875		transition	transition
sw2726A-ms98-a-0101	A.149	417.556875	417.746875		out	out
sw2726A-ms98-a-0101	A.149	417.746875	417.856875		of	of
sw2726A-ms98-a-0101	A.149	417.856875	418.316875		home	home
sw2726A-ms98-a-0101	A.149	418.316875	418.806875		[laughter]	[laughter]
sw2726A-ms98-a-0101	A.149	418.806875	418.876875		so	so
sw2726A-ms98-a-0101	A.149	418.876875	418.946875		I	i
sw2726A-ms98-a-0101	A.149	418.946875	419.176875		have	have
sw2726A-ms98-a-0101	A.149	419.176875	419.326875		to	to
sw2726A-ms98-a-0101	A.149	419.326875	419.496875		move	move
sw2726A-ms98-a-0101	A.149	419.496875	419.586875		in	in
sw2726A-ms98-a-0101	A.149	419.586875	419.936875		apartments	apartments
sw2726A-ms98-a-0101	A.149	419.936875	420.066875		just	just
sw2726A-ms98-a-0101	A.149	420.066875	420.216875		because	because_1
sw2726A-ms98-a-0101	A.149	420.216875	420.266875		I	i
sw2726A-ms98-a-0101	A.149	420.266875	420.426875		have	have
sw2726A-ms98-a-0101	A.149	420.426875	420.516875		so	so
sw2726A-ms98-a-0101	A.149	420.516875	420.686875		much	much
sw2726A-ms98-a-0101	A.149	420.686875	421.216875		stuff	stuff
sw2726A-ms98-a-0101	A.151	421.216875	421.476125		[silence]	[silence]
sw2726A-ms98-a-0102	A.151	421.476125	424.991000		[silence]	[silence]
sw2726A-ms98-a-0103	A.151	424.991000	425.901000		[silence]	[silence]
sw2726A-ms98-a-0103	A.151	425.901000	426.101000		No	no
sw2726A-ms98-a-0103	A.151	426.101000	426.201000		it's	it's
sw2726A-ms98-a-0103	A.151	426.201000	426.371000		not	not
sw2726A-ms98-a-0103	A.151	426.371000	426.451000		[silence]	[silence]
sw2726A-ms98-a-0103	A.151	426.451000	426.621000		it's	it's
sw2726A-ms98-a-0103	A.151	426.621000	427.021375		not	not
sw2726A-ms98-a-0103	A.153	427.021375	427.502500		[silence]	[silence]
sw2726A-ms98-a-0103	A.153	427.502500	427.909625		Yeah	yeah
sw2726A-ms98-a-0103	A.155	427.909625	428.493375		[silence]	[silence]
sw2726A-ms98-a-0104	A.155	428.493375	430.992750		[silence]	[silence]
sw2726A-ms98-a-0105	A.155	430.992750	431.612750		[silence]	[silence]
sw2726A-ms98-a-0105	A.155	431.612750	431.792750		Oh	oh
sw2726A-ms98-a-0105	A.155	431.792750	431.942750		my	my
sw2726A-ms98-a-0105	A.155	431.942750	432.382750		goodness	goodness
sw2726A-ms98-a-0105	A.155	432.382750	432.694125		yeah	yeah
sw2726A-ms98-a-0105	A.157	432.694125	433.095500		[silence]	[silence]
sw2726A-ms98-a-0105	A.157	433.095500	433.306125	<SUB>	Uh-huh	um-hum
sw2726A-ms98-a-0105	A.157	433.306125	433.323875		[silence]	[silence]
sw2726A-ms98-a-0106	A.157	433.323875	434.862000		[silence]	[silence]
sw2726A-ms98-a-0107	A.157	434.862000	435.430875		[silence]	[silence]
sw2726A-ms98-a-0107	A.157	435.430875	435.842000	<DEL>	---	um-hum
sw2726A-ms98-a-0107	A.157	435.842000	436.376000		[silence]	[silence]
sw2726A-ms98-a-0108	A.157	436.376000	436.956125		[silence]	[silence]
sw2726A-ms98-a-0108	A.157	436.956125	437.411750		yeah	yeah
sw2726A-ms98-a-0108	A.157	437.411750	437.754625		[silence]	[silence]
sw2726A-ms98-a-0108	A.157	437.754625	438.244625	<SUB>	uh-huh	um-hum
sw2726A-ms98-a-0108	A.157	438.244625	439.013000		[silence]	[silence]
sw2726A-ms98-a-0108	A.157	439.013000	439.352750		There	there
sw2726A-ms98-a-0108	A.157	439.352750	439.462000		[silence]	[silence]
sw2726A-ms98-a-0108	A.157	439.462000	439.596000		there	there
sw2726A-ms98-a-0108	A.157	439.596000	439.666000		are	are
sw2726A-ms98-a-0108	A.157	439.666000	440.256000		tons	tons
sw2726A-ms98-a-0108	A.157	440.256000	440.356000		of	of
sw2726A-ms98-a-0108	A.157	440.356000	440.867000		apartments	apartments
sw2726A-ms98-a-0108	A.157	440.867000	441.106625		down	down
sw2726A-ms98-a-0108	A.157	441.106625	441.437000		here	here
sw2726A-ms98-a-0108	A.157	441.437000	441.585375		I	i
sw2726A-ms98-a-0108	A.157	441.585375	441.835625		mean	mean
sw2726A-ms98-a-0108	A.157	441.835625	442.346375		[silence]	[silence]
sw2726A-ms98-a-0108	A.157	442.346375	442.531375		and	and
sw2726A-ms98-a-0108	A.157	442.531375	442.805500		it	it
sw2726A-ms98-a-0108	A.159	442.805500	443.754750		[silence]	[silence]
sw2726A-ms98-a-0109	A.159	443.754750	450.289875		[silence]	[silence]
sw2726A-ms98-a-0110	A.159	450.289875	450.945250		[silence]	[silence]
sw2726A-ms98-a-0110	A.159	450.945250	451.559875	<CONT>	M	MCC
sw2726A-ms98-a-0110	A.159	451.559875	451.559875	<CONT>	C	+++
sw2726A-ms98-a-0110	A.159	451.559875	451.559875	<CONT>	C	+++
sw2726A-ms98-a-0110	A.159	451.559875	452.029875		yeah	yeah
sw2726A-ms98-a-0110	A.159	452.029875	452.339875		yeah	yeah
sw2726A-ms98-a-0110	A.159	452.339875	452.406000	<SUB>	I	i-
sw2726A-ms98-a-0110	A.159	452.406000	452.518875		I	i
sw2726A-ms98-a-0110	A.159	452.518875	452.739750		think	think
sw2726A-ms98-a-0110	A.159	452.739750	452.862375	<DEL>	---	i
sw2726A-ms98-a-0110	A.159	452.862375	452.989875	<DEL>	---	think
sw2726A-ms98-a-0110	A.159	452.989875	453.099875		they're	they're
sw2726A-ms98-a-0110	A.159	453.099875	453.319875		called	called
sw2726A-ms98-a-0110	A.159	453.319875	453.499875		Lake	Lake
sw2726A-ms98-a-0110	A.159	453.499875	453.719875		Shore	Shore
sw2726A-ms98-a-0110	A.159	453.719875	454.242250		Villa	Villa
sw2726A-ms98-a-0110	A.159	454.242250	454.349875		or	or
sw2726A-ms98-a-0110	A.159	454.349875	454.886625		something	something
sw2726A-ms98-a-0110	A.161	454.886625	455.251500		[silence]	[silence]
sw2726A-ms98-a-0111	A.161	455.251500	457.998000		[silence]	[silence]
sw2726A-ms98-a-0112	A.161	457.998000	458.534500		[silence]	[silence]
sw2726A-ms98-a-0112	A.161	458.534500	458.953625	<SUB>	Um	hum
sw2726A-ms98-a-0112	A.163	458.953625	459.068000		[silence]	[silence]
sw2726A-ms98-a-0112	A.163	459.068000	459.218000		And	and
sw2726A-ms98-a-0112	A.163	459.218000	459.368000		it's	it's
sw2726A-ms98-a-0112	A.163	459.368000	459.428000		a	a
sw2726A-ms98-a-0112	A.163	459.428000	459.898000		nursing	nursing
sw2726A-ms98-a-0112	A.163	459.898000	459.998000		there	there
sw2726A-ms98-a-0112	A.163	459.998000	460.118000		was	was
sw2726A-ms98-a-0112	A.163	460.118000	460.178000		a	a
sw2726A-ms98-a-0112	A.163	460.178000	460.558000		nursing	nursing
sw2726A-ms98-a-0112	A.163	460.558000	460.888000		home	home
sw2726A-ms98-a-0112	A.163	460.888000	460.978000		or	or
sw2726A-ms98-a-0112	A.163	460.978000	461.408000		something	something
sw2726A-ms98-a-0112	A.163	461.408000	461.608000	<SUB>	right	like
sw2726A-ms98-a-0112	A.163	461.608000	461.926375	<SUB>	there	that
sw2726A-ms98-a-0112	A.165	461.926375	462.364875		[silence]	[silence]
sw2726A-ms98-a-0113	A.165	462.364875	463.480750		[silence]	[silence]
sw2726A-ms98-a-0114	A.165	463.480750	463.954000		[silence]	[silence]
sw2726A-ms98-a-0114	A.165	463.954000	464.424000	<SUB>	Uh-huh	um-hum
sw2726A-ms98-a-0114	A.165	464.424000	464.823750	<SUB>	uh-huh	um-hum
sw2726A-ms98-a-0114	A.167	464.823750	465.226000		[silence]	[silence]
sw2726A-ms98-a-0115	A.167	465.226000	465.855750		[silence]	[silence]
sw2726A-ms98-a-0115	A.167	465.855750	466.076625	<DEL>	---	um
sw2726A-ms98-a-0115	A.167	466.076625	466.196000		[silence]	[silence]
sw2726A-ms98-a-0115	A.167	466.196000	466.298375	<DEL>	---	i
sw2726A-ms98-a-0115	A.167	466.298375	466.466000	<DEL>	---	think
sw2726A-ms98-a-0115	A.167	466.466000	466.678875	<DEL>	---	tha[t]-
sw2726A-ms98-a-0115	A.167	466.678875	467.773625		[silence]	[silence]
sw2726A-ms98-a-0115	A.167	467.773625	468.178000		Uh-huh	uh-huh
sw2726A-ms98-a-0115	A.169	468.178000	469.018000		[silence]	[silence]
sw2726A-ms98-a-0116	A.169	469.018000	470.490750		[silence]	[silence]
sw2726A-ms98-a-0117	A.169	470.490750	471.050250		[silence]	[silence]
sw2726A-ms98-a-0117	A.169	471.050250	471.559000		Yeah	yeah
sw2726A-ms98-a-0117	A.171	471.559000	471.993750		[silence]	[silence]
sw2726A-ms98-a-0118	A.171	471.993750	472.795000		[silence]	[silence]
sw2726A-ms98-a-0118	A.171	472.795000	472.883750		How	how
sw2726A-ms98-a-0118	A.171	472.883750	473.153750		often	often
sw2726A-ms98-a-0118	A.171	473.153750	473.213750		do	do
sw2726A-ms98-a-0118	A.171	473.213750	473.313750		you	you
sw2726A-ms98-a-0118	A.171	473.313750	473.423750		all	all
sw2726A-ms98-a-0118	A.171	473.423750	473.633750		come	come
sw2726A-ms98-a-0118	A.171	473.633750	473.843750		through	through
sw2726A-ms98-a-0118	A.171	473.843750	474.327750		Waco	Waco
sw2726A-ms98-a-0118	A.173	474.327750	474.990375		[silence]	[silence]
sw2726A-ms98-a-0119	A.173	474.990375	475.837625		[silence]	[silence]
sw2726A-ms98-a-0119	A.173	475.837625	476.227625	<SUB>	Uh-huh	um-hum
sw2726A-ms98-a-0119	A.175	476.227625	476.672000		[silence]	[silence]
sw2726A-ms98-a-0120	A.175	476.672000	478.214000		[silence]	[silence]
sw2726A-ms98-a-0121	A.175	478.214000	478.698500		[silence]	[silence]
sw2726A-ms98-a-0121	A.175	478.698500	479.001000		Depends	depends
sw2726A-ms98-a-0121	A.175	479.001000	479.084000		on	on
sw2726A-ms98-a-0121	A.175	479.084000	479.274000		what's	what's
sw2726A-ms98-a-0121	A.175	479.274000	479.544000		going	going
sw2726A-ms98-a-0121	A.175	479.544000	479.844000		on	on
sw2726A-ms98-a-0121	A.177	479.844000	480.987750		[silence]	[silence]
sw2726A-ms98-a-0122	A.177	480.987750	483.455750		[silence]	[silence]
sw2726A-ms98-a-0123	A.177	483.455750	484.001000		[silence]	[silence]
sw2726A-ms98-a-0123	A.177	484.001000	484.493750	<SUB>	Uh-huh	um-hum
sw2726A-ms98-a-0123	A.177	484.493750	484.719750		[silence]	[silence]
sw2726A-ms98-a-0123	A.177	484.719750	485.088750	<SUB>	uh-huh	um-hum
sw2726A-ms98-a-0123	A.177	485.088750	485.969375		[silence]	[silence]
sw2726A-ms98-a-0123	A.177	485.969375	486.420375		yeah	yeah
sw2726A-ms98-a-0123	A.179	486.420375	486.983750		[silence]	[silence]
sw2726A-ms98-a-0124	A.179	486.983750	489.750000		[silence]	[silence]
sw2726A-ms98-a-0125	A.179	489.750000	490.231500		[silence]	[silence]
sw2726A-ms98-a-0125	A.179	490.231500	490.544375	<SUB>	Uh-huh	um-hum
sw2726A-ms98-a-0125	A.179	490.544375	490.660000		[silence]	[silence]
sw2726A-ms98-a-0125	A.179	490.660000	490.730000		[noise]	[noise]
sw2726A-ms98-a-0125	A.179	490.730000	490.870000		all	all
sw2726A-ms98-a-0125	A.179	490.870000	491.383125		right	right
sw2726A-ms98-a-0125	A.181	491.383125	493.015250		[laughter]	[laughter]
sw2726A-ms98-a-0125	A.181	493.015250	493.993500		[silence]	[silence]
sw2726A-ms98-a-0126	A.181	493.993500	494.365750		[silence]	[silence]
sw2726A-ms98-a-0126	A.181	494.365750	494.796625	<DEL>	---	hum
sw2726A-ms98-a-0126	A.181	494.796625	495.236875		[silence]	[silence]
sw2726A-ms98-a-0127	A.181	495.236875	497.569500		[silence]	[silence]
sw2726A-ms98-a-0128	A.181	497.569500	498.162250		[silence]	[silence]
sw2726A-ms98-a-0128	A.181	498.162250	498.288250		You	you
sw2726A-ms98-a-0128	A.181	498.288250	498.558000		think	think
sw2726A-ms98-a-0128	A.181	498.558000	498.851875		[silence]	[silence]
sw2726A-ms98-a-0128	A.181	498.851875	499.210625		uh-huh	uh-huh
sw2726A-ms98-a-0128	A.181	499.210625	499.414875		[silence]	[silence]
sw2726A-ms98-a-0128	A.181	499.414875	499.752750		uh-huh	uh-huh
sw2726A-ms98-a-0128	A.183	499.752750	499.989125		[silence]	[silence]
sw2726A-ms98-a-0129	A.183	499.989125	500.791750		[silence]	[silence]
sw2726A-ms98-a-0129	A.183	500.791750	501.179125		Um	um
sw2726A-ms98-a-0129	A.185	501.179125	502.213500		[silence]	[silence]
sw2726A-ms98-a-0130	A.185	502.213500	509.217625		[silence]	[silence]
sw2726A-ms98-a-0131	A.185	509.217625	509.757625		[silence]	[silence]
sw2726A-ms98-a-0131	A.185	509.757625	510.187625		Um	um
sw2726A-ms98-a-0131	A.187	510.187625	510.756250		[silence]	[silence]
sw2726A-ms98-a-0132	A.187	510.756250	517.728125		[silence]	[silence]
sw2726A-ms98-a-0133	A.187	517.728125	518.358125		[silence]	[silence]
sw2726A-ms98-a-0133	A.187	518.358125	518.861000		Waco	Waco
sw2726A-ms98-a-0133	A.187	518.861000	519.028125		to	to
sw2726A-ms98-a-0133	A.187	519.028125	519.418125		me	me
sw2726A-ms98-a-0133	A.187	519.418125	520.110500		seems	seems
sw2726A-ms98-a-0133	A.187	520.110500	520.408125		seems	seems
sw2726A-ms98-a-0133	A.187	520.408125	520.558125		like	like
sw2726A-ms98-a-0133	A.187	520.558125	520.678125		it's	it's
sw2726A-ms98-a-0133	A.187	520.678125	520.948125		pretty	pretty
sw2726A-ms98-a-0133	A.187	520.948125	521.558125		steady	steady
sw2726A-ms98-a-0133	A.187	521.558125	521.598125		I	i
sw2726A-ms98-a-0133	A.187	521.598125	521.768125		mean	mean
sw2726A-ms98-a-0133	A.187	521.768125	521.898125		I'm	i'm
sw2726A-ms98-a-0133	A.187	521.898125	522.138125		not	not
sw2726A-ms98-a-0133	A.187	522.138125	522.238125		a	a
sw2726A-ms98-a-0133	A.187	522.238125	522.468125		real	real
sw2726A-ms98-a-0133	A.187	522.468125	522.788125		estate	estate
sw2726A-ms98-a-0133	A.187	522.788125	523.178125		person	person
sw2726A-ms98-a-0133	A.187	523.178125	523.238125		or	or
sw2726A-ms98-a-0133	A.187	523.238125	523.667000		anything	anything
sw2726A-ms98-a-0133	A.189	523.667000	524.159500		[silence]	[silence]
sw2726A-ms98-a-0133	A.189	524.159500	524.272750		but	but
sw2726A-ms98-a-0133	A.189	524.272750	524.352375		it	it
sw2726A-ms98-a-0133	A.189	524.352375	524.478625		[silence]	[silence]
sw2726A-ms98-a-0133	A.189	524.478625	524.606625	<DEL>	---	it
sw2726A-ms98-a-0133	A.189	524.606625	524.793375		[silence]	[silence]
sw2726A-ms98-a-0134	A.189	524.793375	525.141250		[silence]	[silence]
sw2726A-ms98-a-0134	A.189	525.141250	525.363375		it's	it's
sw2726A-ms98-a-0134	A.189	525.363375	525.433375		a	a
sw2726A-ms98-a-0134	A.189	525.433375	525.683375		real	real
sw2726A-ms98-a-0134	A.189	525.683375	526.133375		college	college
sw2726A-ms98-a-0134	A.189	526.133375	526.655000		town	town
sw2726A-ms98-a-0134	A.189	526.655000	526.813125		[silence]	[silence]
sw2726A-ms98-a-0134	A.189	526.813125	526.905875		and	and
sw2726A-ms98-a-0134	A.189	526.905875	527.183375		so	so
sw2726A-ms98-a-0134	A.189	527.183375	527.283375		you	you
sw2726A-ms98-a-0134	A.189	527.283375	527.343375		know	know
sw2726A-ms98-a-0134	A.189	527.343375	527.493375		you	you
sw2726A-ms98-a-0134	A.189	527.493375	527.653375		have	have
sw2726A-ms98-a-0134	A.189	527.653375	527.803375		these	these
sw2726A-ms98-a-0134	A.189	527.803375	528.343375		apartments	apartments
sw2726A-ms98-a-0134	A.189	528.343375	528.493375		and	and
sw2726A-ms98-a-0134	A.189	528.493375	528.693375		then	then
sw2726A-ms98-a-0134	A.189	528.693375	528.811125		the	the
sw2726A-ms98-a-0134	A.189	528.811125	529.018250		[silence]	[silence]
sw2726A-ms98-a-0134	A.189	529.018250	529.093375		the	the
sw2726A-ms98-a-0134	A.189	529.093375	529.639500		houses	houses
sw2726A-ms98-a-0134	A.189	529.639500	529.763750		are	are
sw2726A-ms98-a-0134	A.189	529.763750	530.184375		all	all
sw2726A-ms98-a-0134	A.189	530.184375	530.647625		[silence]	[silence]
sw2726A-ms98-a-0134	A.189	530.647625	530.903375		most	most
sw2726A-ms98-a-0134	A.189	530.903375	530.973375		of	of
sw2726A-ms98-a-0134	A.189	530.973375	531.063375		the	the
sw2726A-ms98-a-0134	A.189	531.063375	531.638250		houses	houses
sw2726A-ms98-a-0134	A.189	531.638250	532.063875		[silence]	[silence]
sw2726A-ms98-a-0134	A.189	532.063875	532.265875		are	are
sw2726A-ms98-a-0134	A.189	532.265875	532.382625		[silence]	[silence]
sw2726A-ms98-a-0134	A.189	532.382625	532.603375		pretty	pretty
sw2726A-ms98-a-0134	A.189	532.603375	533.239250		nice	nice
sw2726A-ms98-a-0134	A.191	533.239250	533.733000		[silence]	[silence]
sw2726A-ms98-a-0134	A.191	533.733000	533.985375		and	and
sw2726A-ms98-a-0134	A.191	533.985375	534.138500		I	i
sw2726A-ms98-a-0134	A.191	534.138500	534.368250		don't	don't
sw2726A-ms98-a-0134	A.191	534.368250	534.493750		I	i
sw2726A-ms98-a-0134	A.191	534.493750	534.631500		don't	don't
sw2726A-ms98-a-0134	A.191	534.631500	534.906375		[silence]	[silence]
sw2726A-ms98-a-0134	A.191	534.906375	535.013375		you	you
sw2726A-ms98-a-0134	A.191	535.013375	535.143375		know	know
sw2726A-ms98-a-0134	A.191	535.143375	535.343375		really	really
sw2726A-ms98-a-0134	A.191	535.343375	535.543375		see	see
sw2726A-ms98-a-0134	A.191	535.543375	535.593375		a	a
sw2726A-ms98-a-0134	A.191	535.593375	535.823375		lot	lot
sw2726A-ms98-a-0134	A.191	535.823375	535.983375		on	on
sw2726A-ms98-a-0134	A.191	535.983375	536.613375		sale	sale
sw2726A-ms98-a-0134	A.191	536.613375	536.773375		or	or
sw2726A-ms98-a-0134	A.191	536.773375	537.203375		anything	anything
sw2726A-ms98-a-0134	A.191	537.203375	537.313375		and	and
sw2726A-ms98-a-0134	A.191	537.313375	537.563375		people	people
sw2726A-ms98-a-0134	A.191	537.563375	537.633375		are	are
sw2726A-ms98-a-0134	A.191	537.633375	537.964750		pretty	pretty
sw2726A-ms98-a-0134	A.191	537.964750	538.145625		[silence]	[silence]
sw2726A-ms98-a-0134	A.191	538.145625	538.693375		stable	stable
sw2726A-ms98-a-0134	A.191	538.693375	539.033375		here	here
sw2726A-ms98-a-0134	A.193	539.033375	539.217750		[silence]	[silence]
sw2726A-ms98-a-0135	A.193	539.217750	539.567750		[silence]	[silence]
sw2726A-ms98-a-0135	A.193	539.567750	539.697750		You	you
sw2726A-ms98-a-0135	A.193	539.697750	539.807750		know	know
sw2726A-ms98-a-0135	A.193	539.807750	539.857750		I	i
sw2726A-ms98-a-0135	A.193	539.857750	540.037750		kind	kind
sw2726A-ms98-a-0135	A.193	540.037750	540.097750		of	of
sw2726A-ms98-a-0135	A.193	540.097750	540.237750		see	see
sw2726A-ms98-a-0135	A.193	540.237750	540.397750		this	this
sw2726A-ms98-a-0135	A.193	540.397750	540.497750		as	as
sw2726A-ms98-a-0135	A.193	540.497750	540.717750		kind	kind
sw2726A-ms98-a-0135	A.193	540.717750	540.807750		of	of
sw2726A-ms98-a-0135	A.193	540.807750	540.887750		a	a
sw2726A-ms98-a-0135	A.193	540.887750	541.567750		retirement	retirement
sw2726A-ms98-a-0135	A.193	541.567750	542.097750		community	community
sw2726A-ms98-a-0135	A.193	542.097750	542.487750		[laughter]	[laughter]
sw2726A-ms98-a-0135	A.193	542.487750	542.677750		as	as
sw2726A-ms98-a-0135	A.193	542.677750	542.817750		I	i
sw2726A-ms98-a-0135	A.193	542.817750	543.123250		always	always
sw2726A-ms98-a-0135	A.193	543.123250	543.385625		call	call
sw2726A-ms98-a-0135	A.193	543.385625	543.503000		it	it
sw2726A-ms98-a-0135	A.195	543.503000	544.970875		[silence]	[silence]
sw2726A-ms98-a-0135	A.195	544.970875	545.419250		Yeah	yeah
sw2726A-ms98-a-0135	A.197	545.419250	545.790875		[silence]	[silence]
sw2726A-ms98-a-0135	A.197	545.790875	546.081750	<SUB>	Uh-huh	um
sw2726A-ms98-a-0135	A.199	546.081750	546.715250		[silence]	[silence]
sw2726A-ms98-a-0135	A.199	546.715250	547.107250	<DEL>	---	um-hum
sw2726A-ms98-a-0135	A.199	547.107250	547.494375		[silence]	[silence]
sw2726A-ms98-a-0136	A.199	547.494375	548.174375		[silence]	[silence]
sw2726A-ms98-a-0136	A.199	548.174375	548.374375		Nice	nice
sw2726A-ms98-a-0136	A.199	548.374375	548.514375		and	and
sw2726A-ms98-a-0136	A.199	548.514375	548.974375		quiet	quiet
sw2726A-ms98-a-0136	A.199	548.974375	549.496250		[silence]	[silence]
sw2726A-ms98-a-0137	A.199	549.496250	549.591375		[silence]	[silence]
sw2726A-ms98-a-0137	A.199	549.591375	549.722875		so	so
sw2726A-ms98-a-0137	A.199	549.722875	550.202125		[silence]	[silence]
sw2726A-ms98-a-0137	A.199	550.202125	550.246250		I	i
sw2726A-ms98-a-0137	A.199	550.246250	550.366250		don't	don't
sw2726A-ms98-a-0137	A.199	550.366250	550.486250		think	think
sw2726A-ms98-a-0137	A.199	550.486250	550.576250		I	i
sw2726A-ms98-a-0137	A.199	550.576250	550.766250		could	could
sw2726A-ms98-a-0137	A.199	550.766250	550.896250		live	live
sw2726A-ms98-a-0137	A.199	550.896250	551.076250		here	here
sw2726A-ms98-a-0137	A.199	551.076250	551.336250		much	much
sw2726A-ms98-a-0137	A.199	551.336250	551.696250		longer	longer
sw2726A-ms98-a-0137	A.199	551.696250	551.834375		but	but
sw2726A-ms98-a-0137	A.201	551.834375	552.711875		[laughter]	[laughter]
sw2726A-ms98-a-0137	A.201	552.711875	553.096250		[noise]	[noise]
sw2726A-ms98-a-0137	A.201	553.096250	553.461750		I'll	i'll
sw2726A-ms98-a-0137	A.201	553.461750	553.706250		deal	deal
sw2726A-ms98-a-0137	A.201	553.706250	553.856250		with	with
sw2726A-ms98-a-0137	A.201	553.856250	554.138375		it	it
sw2726A-ms98-a-0137	A.203	554.138375	554.478000		[silence]	[silence]
sw2726A-ms98-a-0138	A.203	554.478000	555.499000		[silence]	[silence]
sw2726A-ms98-a-0139	A.203	555.499000	555.994375		[silence]	[silence]
sw2726A-ms98-a-0139	A.203	555.994375	556.136375		Well	well
sw2726A-ms98-a-0139	A.203	556.136375	556.267125		it	it
sw2726A-ms98-a-0139	A.205	556.267125	557.280250		[silence]	[silence]
sw2726A-ms98-a-0140	A.205	557.280250	558.372000		[silence]	[silence]
sw2726A-ms98-a-0140	A.205	558.372000	560.268000		Yeah	[laughter-yeah]
sw2726A-ms98-a-0140	A.207	560.268000	560.744000		Really	really
sw2726A-ms98-a-0140	A.207	560.744000	561.075375		[silence]	[silence]
sw2726A-ms98-a-0140	A.207	561.075375	561.370250		okay	okay
sw2726A-ms98-a-0140	A.207	561.370250	561.460250		well	well
sw2726A-ms98-a-0140	A.207	561.460250	561.540250		it	it
sw2726A-ms98-a-0140	A.207	561.540250	561.740250		was	was
sw2726A-ms98-a-0140	A.207	561.740250	561.960250		very	very
sw2726A-ms98-a-0140	A.207	561.960250	562.140250		nice	nice
sw2726A-ms98-a-0140	A.207	562.140250	562.480250		talking	talking
sw2726A-ms98-a-0140	A.207	562.480250	562.580250		to	to
sw2726A-ms98-a-0140	A.207	562.580250	562.936000		you	you
sw2726A-ms98-a-0140	A.209	562.936000	563.497125		[silence]	[silence]
sw2726A-ms98-a-0140	A.209	563.497125	563.810250		Okay	okay
sw2726A-ms98-a-0140	A.209	563.810250	563.920250		you	you
sw2726A-ms98-a-0140	A.209	563.920250	564.160250		take	take
sw2726A-ms98-a-0140	A.209	564.160250	564.469125		care	care
sw2726A-ms98-a-0140	A.211	564.469125	564.764750		[silence]	[silence]
sw2726A-ms98-a-0140	A.211	564.764750	565.124375		Okay	okay
sw2726A-ms98-a-0140	A.211	565.124375	565.322500		[silence]	[silence]
sw2726A-ms98-a-0140	A.211	565.322500	565.708875	<CONT>	bye	bye-bye
sw2726A-ms98-a-0140	A.211	565.708875	565.708875	<CONT>	bye	+++
sw2726A-ms98-a-0140	A.211	565.708875	566.305750		[silence]	[silence]
sw2726A-ms98-a-0141	A.211	566.305750	567.181125		[silence]	[silence]
sw2726A-ms98-a-0141	A.211	567.181125	567.618250		[noise]	[noise]
sw2726A-ms98-a-0141	A.211	567.618250	569.479500		[silence]	[silence]
