sw2893B-ms98-a-0001	B.2	0.000000	1.230000		[silence]	[silence]
sw2893B-ms98-a-0002	B.2	1.230000	1.962500		[silence]	[silence]
sw2893B-ms98-a-0002	B.2	1.962500	2.347875		Okay	okay
sw2893B-ms98-a-0002	B.2	2.347875	2.524875		[silence]	[silence]
sw2893B-ms98-a-0002	B.2	2.524875	2.620000		do	do
sw2893B-ms98-a-0002	B.2	2.620000	2.730000		you	you
sw2893B-ms98-a-0002	B.2	2.730000	3.020500	<SUB>	rec-	reg[ularly]-
sw2893B-ms98-a-0002	B.2	3.020500	3.122125		[silence]	[silence]
sw2893B-ms98-a-0002	B.2	3.122125	3.730000		exercise	exercise
sw2893B-ms98-a-0002	B.2	3.730000	4.267250		regularly	regularly
sw2893B-ms98-a-0002	B.4	4.267250	4.843875		[silence]	[silence]
sw2893B-ms98-a-0003	B.4	4.843875	5.399000		[silence]	[silence]
sw2893B-ms98-a-0003	B.4	5.399000	5.493875		What	what
sw2893B-ms98-a-0003	B.4	5.493875	5.553875		do	do
sw2893B-ms98-a-0003	B.4	5.553875	5.653875		you	you
sw2893B-ms98-a-0003	B.4	5.653875	5.979000		do	do
sw2893B-ms98-a-0003	B.6	5.979000	6.409000		[silence]	[silence]
sw2893B-ms98-a-0004	B.6	6.409000	11.105125		[silence]	[silence]
sw2893B-ms98-a-0005	B.6	11.105125	11.392500		[silence]	[silence]
sw2893B-ms98-a-0005	B.6	11.392500	11.673875		Okay	okay
sw2893B-ms98-a-0005	B.6	11.673875	11.963625		[silence]	[silence]
sw2893B-ms98-a-0005	B.6	11.963625	12.105125		I	i
sw2893B-ms98-a-0005	B.6	12.105125	12.285125		love	love
sw2893B-ms98-a-0005	B.6	12.285125	12.375125		to	to
sw2893B-ms98-a-0005	B.6	12.375125	12.555125		ride	ride
sw2893B-ms98-a-0005	B.6	12.555125	12.605125		a	a
sw2893B-ms98-a-0005	B.6	12.605125	13.377625		bicycle	bicycle
sw2893B-ms98-a-0005	B.8	13.377625	13.856500		[silence]	[silence]
sw2893B-ms98-a-0006	B.8	13.856500	19.485625		[silence]	[silence]
sw2893B-ms98-a-0007	B.8	19.485625	20.005625		[silence]	[silence]
sw2893B-ms98-a-0007	B.8	20.005625	20.165625		Oh	oh
sw2893B-ms98-a-0007	B.8	20.165625	20.435625		that's	that's
sw2893B-ms98-a-0007	B.8	20.435625	21.005500		good	good
sw2893B-ms98-a-0007	B.10	21.005500	21.489000		[silence]	[silence]
sw2893B-ms98-a-0008	B.10	21.489000	22.766500		[silence]	[silence]
sw2893B-ms98-a-0009	B.10	22.766500	23.219500		[silence]	[silence]
sw2893B-ms98-a-0009	B.10	23.219500	23.412000		I	i
sw2893B-ms98-a-0009	B.10	23.412000	23.654500		went	went
sw2893B-ms98-a-0009	B.10	23.654500	23.934375		an	an
sw2893B-ms98-a-0009	B.10	23.934375	24.051125		[silence]	[silence]
sw2893B-ms98-a-0009	B.10	24.051125	24.516500		last	last
sw2893B-ms98-a-0009	B.10	24.516500	24.766500		year	year
sw2893B-ms98-a-0009	B.10	24.766500	24.916500		I	i
sw2893B-ms98-a-0009	B.10	24.916500	25.576500		went	went
sw2893B-ms98-a-0009	B.10	25.576500	25.636500		an	an
sw2893B-ms98-a-0009	B.10	25.636500	25.806500		was	was
sw2893B-ms98-a-0009	B.10	25.806500	26.426500		exercising	exercising
sw2893B-ms98-a-0009	B.10	26.426500	26.576500		on	on
sw2893B-ms98-a-0009	B.10	26.576500	26.626500		a	a
sw2893B-ms98-a-0009	B.10	26.626500	26.936500		bike	bike
sw2893B-ms98-a-0009	B.10	26.936500	27.036500		for	for
sw2893B-ms98-a-0009	B.10	27.036500	27.106500		a	a
sw2893B-ms98-a-0009	B.10	27.106500	27.356500		while	while
sw2893B-ms98-a-0009	B.10	27.356500	27.486500		and	and
sw2893B-ms98-a-0009	B.10	27.486500	27.600625		I	i
sw2893B-ms98-a-0009	B.10	27.600625	27.743750		[silence]	[silence]
sw2893B-ms98-a-0009	B.10	27.743750	27.916500		when	when
sw2893B-ms98-a-0009	B.10	27.916500	28.116500		I'd	i'd
sw2893B-ms98-a-0009	B.10	28.116500	28.456500		gotten	gotten
sw2893B-ms98-a-0009	B.10	28.456500	28.832875		back	back
sw2893B-ms98-a-0009	B.10	28.832875	29.619375		[silence]	[silence]
sw2893B-ms98-a-0009	B.10	29.619375	29.751125		I	i
sw2893B-ms98-a-0009	B.10	29.751125	29.906500		had	had
sw2893B-ms98-a-0009	B.10	29.906500	30.186500		gotten	gotten
sw2893B-ms98-a-0009	B.10	30.186500	30.396500		some	some
sw2893B-ms98-a-0009	B.10	30.396500	30.706500		sun	sun
sw2893B-ms98-a-0009	B.10	30.706500	30.926500		that	that
sw2893B-ms98-a-0009	B.10	30.926500	31.349625		day	day
sw2893B-ms98-a-0009	B.10	31.349625	31.833500		[silence]	[silence]
sw2893B-ms98-a-0010	B.10	31.833500	32.282375		[silence]	[silence]
sw2893B-ms98-a-0010	B.10	32.282375	32.464250		the	the
sw2893B-ms98-a-0010	B.10	32.464250	32.853500		sweat	sweat
sw2893B-ms98-a-0010	B.10	32.853500	33.033500		had	had
sw2893B-ms98-a-0010	B.10	33.033500	33.303500		built	built
sw2893B-ms98-a-0010	B.10	33.303500	33.543500		up	up
sw2893B-ms98-a-0010	B.10	33.543500	33.753500		on	on
sw2893B-ms98-a-0010	B.10	33.753500	33.863500		me	me
sw2893B-ms98-a-0010	B.10	33.863500	34.013500		and	and
sw2893B-ms98-a-0010	B.10	34.013500	34.333500		built	built
sw2893B-ms98-a-0010	B.10	34.333500	34.523500		up	up
sw2893B-ms98-a-0010	B.10	34.523500	34.763500		under	under
sw2893B-ms98-a-0010	B.10	34.763500	34.993500		my	my
sw2893B-ms98-a-0010	B.10	34.993500	35.453500		skin	skin
sw2893B-ms98-a-0010	B.10	35.453500	35.603500		and	and
sw2893B-ms98-a-0010	B.10	35.603500	35.943500		caused	caused
sw2893B-ms98-a-0010	B.10	35.943500	36.063500		me	me
sw2893B-ms98-a-0010	B.10	36.063500	36.183500		to	to
sw2893B-ms98-a-0010	B.10	36.183500	36.503500		peel	peel
sw2893B-ms98-a-0010	B.10	36.503500	36.583500		It	it
sw2893B-ms98-a-0010	B.10	36.583500	36.743500		was	was
sw2893B-ms98-a-0010	B.10	36.743500	36.973500		the	the
sw2893B-ms98-a-0010	B.10	36.973500	37.353500		sweating	sweating
sw2893B-ms98-a-0010	B.10	37.353500	37.713500		not	not
sw2893B-ms98-a-0010	B.10	37.713500	37.884125		the	the
sw2893B-ms98-a-0010	B.10	37.884125	38.313500		[silence]	[silence]
sw2893B-ms98-a-0010	B.10	38.313500	38.713625		burn	burn
sw2893B-ms98-a-0010	B.12	38.713625	39.119125		[silence]	[silence]
sw2893B-ms98-a-0011	B.12	39.119125	39.539500		[silence]	[silence]
sw2893B-ms98-a-0011	B.12	39.539500	39.679125		that	that
sw2893B-ms98-a-0011	B.12	39.679125	39.789125		was	was
sw2893B-ms98-a-0011	B.12	39.789125	40.226750		wild	wild
sw2893B-ms98-a-0011	B.12	40.226750	41.123125		[silence]	[silence]
sw2893B-ms98-a-0011	B.12	41.123125	41.209125		But	but
sw2893B-ms98-a-0011	B.12	41.209125	41.319125		I	i
sw2893B-ms98-a-0011	B.12	41.319125	41.970750		exercise	exercise
sw2893B-ms98-a-0011	B.12	41.970750	42.121500		[silence]	[silence]
sw2893B-ms98-a-0011	B.12	42.121500	42.209125		I	i
sw2893B-ms98-a-0011	B.12	42.209125	42.399125		don't	don't
sw2893B-ms98-a-0011	B.12	42.399125	42.929125		exercise	exercise
sw2893B-ms98-a-0011	B.12	42.929125	43.139125		now	now
sw2893B-ms98-a-0011	B.12	43.139125	43.199125		I	i
sw2893B-ms98-a-0011	B.12	43.199125	43.439125		just	just
sw2893B-ms98-a-0011	B.12	43.439125	43.589125		had	had
sw2893B-ms98-a-0011	B.12	43.589125	43.639125		a	a
sw2893B-ms98-a-0011	B.12	43.639125	44.048625		baby	baby
sw2893B-ms98-a-0011	B.12	44.048625	44.572250		[silence]	[silence]
sw2893B-ms98-a-0011	B.12	44.572250	44.789125		three	three
sw2893B-ms98-a-0011	B.12	44.789125	45.129125		months	months
sw2893B-ms98-a-0011	B.12	45.129125	45.369125		ago	ago
sw2893B-ms98-a-0011	B.12	45.369125	45.429125		I	i
sw2893B-ms98-a-0011	B.12	45.429125	45.989125		haven't	haven't
sw2893B-ms98-a-0011	B.12	45.989125	46.209125		really	really
sw2893B-ms98-a-0011	B.12	46.209125	46.459125		gotten	gotten
sw2893B-ms98-a-0011	B.12	46.459125	46.699125		back	back
sw2893B-ms98-a-0011	B.12	46.699125	46.869125		into	into
sw2893B-ms98-a-0011	B.12	46.869125	47.567250		exercising	exercising
sw2893B-ms98-a-0011	B.14	47.567250	48.184875		[silence]	[silence]
sw2893B-ms98-a-0011	B.14	48.184875	48.289125		But	but
sw2893B-ms98-a-0011	B.14	48.289125	48.479125		I	i
sw2893B-ms98-a-0011	B.14	48.479125	49.109125		exercised	exercised
sw2893B-ms98-a-0011	B.14	49.109125	49.379125		real	real
sw2893B-ms98-a-0011	B.14	49.379125	49.639125		good	good
sw2893B-ms98-a-0011	B.14	49.639125	49.799125		for	for
sw2893B-ms98-a-0011	B.14	49.799125	49.859125		a	a
sw2893B-ms98-a-0011	B.14	49.859125	50.149125		couple	couple
sw2893B-ms98-a-0011	B.14	50.149125	50.279125		of	of
sw2893B-ms98-a-0011	B.14	50.279125	50.609125		years	years
sw2893B-ms98-a-0011	B.14	50.609125	50.729125		It	it
sw2893B-ms98-a-0011	B.14	50.729125	50.929000		was	was
sw2893B-ms98-a-0011	B.14	50.929000	51.165250		[silence]	[silence]
sw2893B-ms98-a-0012	B.14	51.165250	51.530375		[silence]	[silence]
sw2893B-ms98-a-0012	B.14	51.530375	52.065250		aerobics	aerobics
sw2893B-ms98-a-0012	B.14	52.065250	52.235250		and	and
sw2893B-ms98-a-0012	B.14	52.235250	52.575250		lifting	lifting
sw2893B-ms98-a-0012	B.14	52.575250	52.895250		weights	weights
sw2893B-ms98-a-0012	B.14	52.895250	53.115250		three	three
sw2893B-ms98-a-0012	B.14	53.115250	53.435250		nights	nights
sw2893B-ms98-a-0012	B.14	53.435250	53.505250		a	a
sw2893B-ms98-a-0012	B.14	53.505250	53.825250		week	week
sw2893B-ms98-a-0012	B.14	53.825250	53.945250		and	and
sw2893B-ms98-a-0012	B.14	53.945250	54.015250		it	it
sw2893B-ms98-a-0012	B.14	54.015250	54.175250		was	was
sw2893B-ms98-a-0012	B.14	54.175250	54.511875		running	running
sw2893B-ms98-a-0012	B.14	54.511875	54.670125		[silence]	[silence]
sw2893B-ms98-a-0012	B.14	54.670125	54.825250		three	three
sw2893B-ms98-a-0012	B.14	54.825250	55.135250		nights	nights
sw2893B-ms98-a-0012	B.14	55.135250	55.235250		a	a
sw2893B-ms98-a-0012	B.14	55.235250	55.529625		week	week
sw2893B-ms98-a-0012	B.16	55.529625	55.978000		[silence]	[silence]
sw2893B-ms98-a-0013	B.16	55.978000	56.997250		[silence]	[silence]
sw2893B-ms98-a-0014	B.16	56.997250	57.535625		[silence]	[silence]
sw2893B-ms98-a-0014	B.16	57.535625	57.727250		What	what
sw2893B-ms98-a-0014	B.16	57.727250	58.007250	<SUB>	what's	was
sw2893B-ms98-a-0014	B.16	58.007250	58.157250		my	my
sw2893B-ms98-a-0014	B.16	58.157250	58.867250		motivation	motivation
sw2893B-ms98-a-0014	B.18	58.867250	59.252625		[silence]	[silence]
sw2893B-ms98-a-0015	B.18	59.252625	59.584250		[silence]	[silence]
sw2893B-ms98-a-0015	B.18	59.584250	59.676750		A	a
sw2893B-ms98-a-0015	B.18	59.676750	59.942625		friend	friend
sw2893B-ms98-a-0015	B.18	59.942625	60.012625		of	of
sw2893B-ms98-a-0015	B.18	60.012625	60.417875		mine	mine
sw2893B-ms98-a-0015	B.18	60.417875	60.594875		[silence]	[silence]
sw2893B-ms98-a-0015	B.18	60.594875	60.912625		always	always
sw2893B-ms98-a-0015	B.18	60.912625	61.292625		pushing	pushing
sw2893B-ms98-a-0015	B.18	61.292625	61.517000		me	me
sw2893B-ms98-a-0015	B.18	61.517000	61.637500		[silence]	[silence]
sw2893B-ms98-a-0015	B.18	61.637500	61.812625		This	this
sw2893B-ms98-a-0015	B.18	61.812625	61.932625		was	was
sw2893B-ms98-a-0015	B.18	61.932625	62.112625		in	in
sw2893B-ms98-a-0015	B.18	62.112625	62.770125		Louisiana	Louisiana
sw2893B-ms98-a-0015	B.18	62.770125	63.071375		[silence]	[silence]
sw2893B-ms98-a-0016	B.18	63.071375	63.421750		[silence]	[silence]
sw2893B-ms98-a-0016	B.18	63.421750	63.561375		And	and
sw2893B-ms98-a-0016	B.18	63.561375	63.701375		she	she
sw2893B-ms98-a-0016	B.18	63.701375	63.871375		would	would
sw2893B-ms98-a-0016	B.18	63.871375	64.141375		push	push
sw2893B-ms98-a-0016	B.18	64.141375	64.261375		you	you
sw2893B-ms98-a-0016	B.18	64.261375	64.381375		know	know
sw2893B-ms98-a-0016	B.18	64.381375	64.541375		she	she
sw2893B-ms98-a-0016	B.18	64.541375	64.670500		was	was
sw2893B-ms98-a-0016	B.18	64.670500	64.941375		hey	hey
sw2893B-ms98-a-0016	B.18	64.941375	65.141375		let's	let's
sw2893B-ms98-a-0016	B.18	65.141375	65.281375		go	go
sw2893B-ms98-a-0016	B.18	65.281375	65.451375		do	do
sw2893B-ms98-a-0016	B.18	65.451375	65.626375		it	it
sw2893B-ms98-a-0016	B.18	65.626375	65.939000		[silence]	[silence]
sw2893B-ms98-a-0016	B.18	65.939000	66.161375		and	and
sw2893B-ms98-a-0016	B.18	66.161375	66.241375		you	you
sw2893B-ms98-a-0016	B.18	66.241375	66.381375		know	know
sw2893B-ms98-a-0016	B.18	66.381375	66.571375		she	she
sw2893B-ms98-a-0016	B.18	66.571375	66.974125		wouldn't	wouldn't
sw2893B-ms98-a-0016	B.18	66.974125	67.192500		[silence]	[silence]
sw2893B-ms98-a-0016	B.18	67.192500	67.381375		take	take
sw2893B-ms98-a-0016	B.18	67.381375	67.571375		no	no
sw2893B-ms98-a-0016	B.18	67.571375	67.711375		for	for
sw2893B-ms98-a-0016	B.18	67.711375	67.771375		an	an
sw2893B-ms98-a-0016	B.18	67.771375	68.182875		answer	answer
sw2893B-ms98-a-0016	B.20	68.182875	68.770125		[silence]	[silence]
sw2893B-ms98-a-0017	B.20	68.770125	70.550000		[silence]	[silence]
sw2893B-ms98-a-0018	B.20	70.550000	70.951125		[silence]	[silence]
sw2893B-ms98-a-0018	B.20	70.951125	71.060000		Oh	oh
sw2893B-ms98-a-0018	B.20	71.060000	71.160000		I	i
sw2893B-ms98-a-0018	B.20	71.160000	71.320000		ju-	ju[st]-
sw2893B-ms98-a-0018	B.20	71.320000	71.380000		I	i
sw2893B-ms98-a-0018	B.20	71.380000	71.620000		just	just
sw2893B-ms98-a-0018	B.20	71.620000	71.810000		wanted	wanted
sw2893B-ms98-a-0018	B.20	71.810000	71.920000		to	to
sw2893B-ms98-a-0018	B.20	71.920000	72.130000		look	look
sw2893B-ms98-a-0018	B.20	72.130000	72.482875		good	good
sw2893B-ms98-a-0018	B.20	72.482875	72.948625		[silence]	[silence]
sw2893B-ms98-a-0019	B.20	72.948625	73.390750		[silence]	[silence]
sw2893B-ms98-a-0019	B.20	73.390750	73.628625		yeah	yeah
sw2893B-ms98-a-0019	B.22	73.628625	73.698625		it	it
sw2893B-ms98-a-0019	B.22	73.698625	73.908625	<SUB>	wasn't	weren't
sw2893B-ms98-a-0019	B.22	73.908625	74.138625		really	really
sw2893B-ms98-a-0019	B.22	74.138625	74.428625		health	health
sw2893B-ms98-a-0019	B.22	74.428625	75.009750		related	related
sw2893B-ms98-a-0019	B.24	75.009750	75.971625		[silence]	[silence]
sw2893B-ms98-a-0020	B.24	75.971625	76.684375		[silence]	[silence]
sw2893B-ms98-a-0020	B.24	76.684375	77.196500		Yeah	yeah
sw2893B-ms98-a-0020	B.24	77.196500	77.860625		[silence]	[silence]
sw2893B-ms98-a-0020	B.24	77.860625	78.344500		yeah	yeah
sw2893B-ms98-a-0020	B.24	78.344500	78.709875		[silence]	[silence]
sw2893B-ms98-a-0020	B.24	78.709875	78.861625		because	because_1
sw2893B-ms98-a-0020	B.24	78.861625	78.991625		I'm	i'm
sw2893B-ms98-a-0020	B.24	78.991625	79.360000		not	not
sw2893B-ms98-a-0020	B.24	79.360000	79.581625	<DEL>	---	um
sw2893B-ms98-a-0020	B.24	79.581625	79.751625		I'm	i'm
sw2893B-ms98-a-0020	B.24	79.751625	80.014625		not	not
sw2893B-ms98-a-0020	B.24	80.014625	80.293375		[silence]	[silence]
sw2893B-ms98-a-0020	B.24	80.293375	80.541625		big	big
sw2893B-ms98-a-0020	B.24	80.541625	80.631625		or	or
sw2893B-ms98-a-0020	B.24	80.631625	81.231625		anything	anything
sw2893B-ms98-a-0020	B.24	81.231625	81.361625		but	but
sw2893B-ms98-a-0020	B.24	81.361625	81.461625		I'm	i'm
sw2893B-ms98-a-0020	B.24	81.461625	81.661625		not	not
sw2893B-ms98-a-0020	B.24	81.661625	81.821625		in	in
sw2893B-ms98-a-0020	B.24	81.821625	82.121625		great	great
sw2893B-ms98-a-0020	B.24	82.121625	82.518375		shape	shape
sw2893B-ms98-a-0020	B.24	82.518375	83.181000		[silence]	[silence]
sw2893B-ms98-a-0020	B.24	83.181000	83.570750		so	so
sw2893B-ms98-a-0020	B.24	83.570750	83.970625		[silence]	[silence]
sw2893B-ms98-a-0020	B.24	83.970625	84.171625		But	but
sw2893B-ms98-a-0020	B.24	84.171625	84.341625		when	when
sw2893B-ms98-a-0020	B.24	84.341625	84.611625		I	i
sw2893B-ms98-a-0020	B.24	84.611625	84.941625		worked	worked
sw2893B-ms98-a-0020	B.24	84.941625	85.091625		out	out
sw2893B-ms98-a-0020	B.24	85.091625	85.201625		I	i
sw2893B-ms98-a-0020	B.24	85.201625	85.371625		got	got
sw2893B-ms98-a-0020	B.24	85.371625	85.431625		in	in
sw2893B-ms98-a-0020	B.24	85.431625	85.661625		pretty	pretty
sw2893B-ms98-a-0020	B.24	85.661625	85.921625		good	good
sw2893B-ms98-a-0020	B.24	85.921625	86.410250		shape	shape
sw2893B-ms98-a-0020	B.24	86.410250	87.291375		[silence]	[silence]
sw2893B-ms98-a-0020	B.24	87.291375	87.423250		I	i
sw2893B-ms98-a-0020	B.24	87.423250	87.651625		didn't	didn't
sw2893B-ms98-a-0020	B.24	87.651625	87.881625		build	build
sw2893B-ms98-a-0020	B.24	87.881625	88.011625		up	up
sw2893B-ms98-a-0020	B.24	88.011625	88.431625		muscle	muscle
sw2893B-ms98-a-0020	B.24	88.431625	88.601625		though	though
sw2893B-ms98-a-0020	B.24	88.601625	88.701625		I	i
sw2893B-ms98-a-0020	B.24	88.701625	88.951625		just	just
sw2893B-ms98-a-0020	B.24	88.951625	89.201625		got	got
sw2893B-ms98-a-0020	B.24	89.201625	89.321625		real	real
sw2893B-ms98-a-0020	B.24	89.321625	89.511625		good	good
sw2893B-ms98-a-0020	B.24	89.511625	89.621625		and	and
sw2893B-ms98-a-0020	B.24	89.621625	90.113000		toned	toned
sw2893B-ms98-a-0020	B.26	90.113000	90.535250		[silence]	[silence]
sw2893B-ms98-a-0021	B.26	90.535250	90.961000		[silence]	[silence]
sw2893B-ms98-a-0021	B.26	90.961000	91.023375		I	i
sw2893B-ms98-a-0021	B.26	91.023375	91.155250		don't	don't
sw2893B-ms98-a-0021	B.26	91.155250	91.455250		think	think
sw2893B-ms98-a-0021	B.26	91.455250	91.735250		women	women
sw2893B-ms98-a-0021	B.26	91.735250	91.925250		look	look
sw2893B-ms98-a-0021	B.26	91.925250	92.185250		good	good
sw2893B-ms98-a-0021	B.26	92.185250	92.345250		with	with
sw2893B-ms98-a-0021	B.26	92.345250	92.957000		muscles	muscles
sw2893B-ms98-a-0021	B.28	92.957000	93.722500		[silence]	[silence]
sw2893B-ms98-a-0022	B.28	93.722500	94.473500		[silence]	[silence]
sw2893B-ms98-a-0022	B.28	94.473500	94.642500		Up	up
sw2893B-ms98-a-0022	B.28	94.642500	94.772500		to	to
sw2893B-ms98-a-0022	B.28	94.772500	94.842500		a	a
sw2893B-ms98-a-0022	B.28	94.842500	95.212500		point	point
sw2893B-ms98-a-0022	B.28	95.212500	95.366625		no	no
sw2893B-ms98-a-0022	B.28	95.366625	95.524750		m-	m[ore]-
sw2893B-ms98-a-0022	B.28	95.524750	95.982500		yeah	yeah
sw2893B-ms98-a-0022	B.30	95.982500	96.842500		[laughter]	[laughter]
sw2893B-ms98-a-0022	B.30	96.842500	96.982500		It's	it's
sw2893B-ms98-a-0022	B.30	96.982500	97.142500		just	just
sw2893B-ms98-a-0022	B.30	97.142500	97.272500		some	some
sw2893B-ms98-a-0022	B.30	97.272500	97.372500		of	of
sw2893B-ms98-a-0022	B.30	97.372500	97.582500		those	those
sw2893B-ms98-a-0022	B.30	97.582500	97.822500		women	women
sw2893B-ms98-a-0022	B.30	97.822500	97.922500		that	that
sw2893B-ms98-a-0022	B.30	97.922500	98.092500		come	come
sw2893B-ms98-a-0022	B.30	98.092500	98.262500		up	up
sw2893B-ms98-a-0022	B.30	98.262500	98.422500		there	there
sw2893B-ms98-a-0022	B.30	98.422500	98.662500		looking	looking
sw2893B-ms98-a-0022	B.30	98.662500	98.842500		like	like
sw2893B-ms98-a-0022	B.30	98.842500	99.132500		Arnold	Arnold
sw2893B-ms98-a-0022	B.30	99.132500	99.772500		Schwarzenegger's	Schwarzenegger's
sw2893B-ms98-a-0022	B.30	99.772500	100.192500		sister	sister
sw2893B-ms98-a-0022	B.30	100.192500	100.462500		just	just
sw2893B-ms98-a-0022	B.30	100.462500	100.872500		doesn't	doesn't
sw2893B-ms98-a-0022	B.30	100.872500	101.112500		get	get
sw2893B-ms98-a-0022	B.30	101.112500	101.312125		it	it
sw2893B-ms98-a-0022	B.32	101.312125	101.733250		[silence]	[silence]
sw2893B-ms98-a-0023	B.32	101.733250	108.021625		[silence]	[silence]
sw2893B-ms98-a-0024	B.32	108.021625	108.889125		[silence]	[silence]
sw2893B-ms98-a-0024	B.32	108.889125	109.021625		I	i
sw2893B-ms98-a-0024	B.32	109.021625	109.271625		guess	guess
sw2893B-ms98-a-0024	B.32	109.271625	109.431625		it's	it's
sw2893B-ms98-a-0024	B.32	109.431625	109.531625		a	a
sw2893B-ms98-a-0024	B.32	109.531625	109.831625		task	task
sw2893B-ms98-a-0024	B.32	109.831625	110.021625		'cause	because_1
sw2893B-ms98-a-0024	B.32	110.021625	110.101625		I	i
sw2893B-ms98-a-0024	B.32	110.101625	110.321625		can't	can't
sw2893B-ms98-a-0024	B.32	110.321625	110.491625		make	make
sw2893B-ms98-a-0024	B.32	110.491625	110.961625		myself	myself
sw2893B-ms98-a-0024	B.32	110.961625	111.051625		do	do
sw2893B-ms98-a-0024	B.32	111.051625	111.261625		it	it
sw2893B-ms98-a-0024	B.32	111.261625	111.802875		lately	lately
sw2893B-ms98-a-0024	B.34	111.802875	112.357875		[silence]	[silence]
sw2893B-ms98-a-0025	B.34	112.357875	116.646000		[silence]	[silence]
sw2893B-ms98-a-0026	B.34	116.646000	117.276000		[silence]	[silence]
sw2893B-ms98-a-0026	B.34	117.276000	117.910500		Yeah	yeah
sw2893B-ms98-a-0026	B.36	117.910500	118.415750		[silence]	[silence]
sw2893B-ms98-a-0027	B.36	118.415750	120.156000		[silence]	[silence]
sw2893B-ms98-a-0028	B.36	120.156000	120.720250		[silence]	[silence]
sw2893B-ms98-a-0028	B.36	120.720250	121.423000		[laughter]	[laughter]
sw2893B-ms98-a-0028	B.36	121.423000	121.577500		You	you
sw2893B-ms98-a-0028	B.36	121.577500	121.746000		don't	don't
sw2893B-ms98-a-0028	B.36	121.746000	121.866000		want	want
sw2893B-ms98-a-0028	B.36	121.866000	121.926000		to	to
sw2893B-ms98-a-0028	B.36	121.926000	122.196000		lose	lose
sw2893B-ms98-a-0028	B.36	122.196000	122.696000		yourself	yourself
sw2893B-ms98-a-0028	B.38	122.696000	123.289375		[silence]	[silence]
sw2893B-ms98-a-0029	B.38	123.289375	127.217500		[silence]	[silence]
sw2893B-ms98-a-0030	B.38	127.217500	127.756125		[silence]	[silence]
sw2893B-ms98-a-0030	B.38	127.756125	127.907500		Well	well
sw2893B-ms98-a-0030	B.38	127.907500	128.177500		how	how
sw2893B-ms98-a-0030	B.38	128.177500	128.267500		old	old
sw2893B-ms98-a-0030	B.38	128.267500	128.418000		are	are
sw2893B-ms98-a-0030	B.38	128.418000	128.631000		you	you
sw2893B-ms98-a-0030	B.40	128.631000	129.240750		[silence]	[silence]
sw2893B-ms98-a-0031	B.40	129.240750	130.508000		[silence]	[silence]
sw2893B-ms98-a-0032	B.40	130.508000	130.714125		[silence]	[silence]
sw2893B-ms98-a-0032	B.40	130.714125	131.110000		Okay	okay
sw2893B-ms98-a-0032	B.40	131.110000	131.340500		[silence]	[silence]
sw2893B-ms98-a-0032	B.40	131.340500	131.463875		so	so
sw2893B-ms98-a-0032	B.40	131.463875	131.568000		you're	you're
sw2893B-ms98-a-0032	B.40	131.568000	131.840125		still	still
sw2893B-ms98-a-0032	B.40	131.840125	132.200375		young	young
sw2893B-ms98-a-0032	B.42	132.200375	132.759500		[silence]	[silence]
sw2893B-ms98-a-0033	B.42	132.759500	133.671000		[silence]	[silence]
sw2893B-ms98-a-0033	B.42	133.671000	134.402875	<DEL>	---	um-hum
sw2893B-ms98-a-0033	B.42	134.402875	135.086500		[silence]	[silence]
sw2893B-ms98-a-0034	B.42	135.086500	135.615875		[silence]	[silence]
sw2893B-ms98-a-0034	B.42	135.615875	135.816500		We	we
sw2893B-ms98-a-0034	B.42	135.816500	136.036500		all	all
sw2893B-ms98-a-0034	B.42	136.036500	136.266500		are	are
sw2893B-ms98-a-0034	B.42	136.266500	136.850625		so	so
sw2893B-ms98-a-0034	B.44	136.850625	137.473750		[silence]	[silence]
sw2893B-ms98-a-0035	B.44	137.473750	138.015125		[silence]	[silence]
sw2893B-ms98-a-0035	B.44	138.015125	138.433750	<DEL>	---	yeah
sw2893B-ms98-a-0035	B.44	138.433750	138.949625		[silence]	[silence]
sw2893B-ms98-a-0036	B.44	138.949625	139.456375		[silence]	[silence]
sw2893B-ms98-a-0036	B.44	139.456375	139.609625		It's	it's
sw2893B-ms98-a-0036	B.44	139.609625	139.789625		not	not
sw2893B-ms98-a-0036	B.44	139.789625	139.999625		hard	hard
sw2893B-ms98-a-0036	B.44	139.999625	140.079625		to	to
sw2893B-ms98-a-0036	B.44	140.079625	140.379625		stay	stay
sw2893B-ms98-a-0036	B.44	140.379625	140.519625		well	well
sw2893B-ms98-a-0036	B.44	140.519625	140.769625		if	if
sw2893B-ms98-a-0036	B.44	140.769625	140.869625		you	you
sw2893B-ms98-a-0036	B.44	140.869625	141.139625		keep	keep
sw2893B-ms98-a-0036	B.44	141.139625	141.459625		working	working
sw2893B-ms98-a-0036	B.44	141.459625	141.640000		out	out
sw2893B-ms98-a-0036	B.44	141.640000	141.745500		[silence]	[silence]
sw2893B-ms98-a-0036	B.44	141.745500	141.899625		when	when
sw2893B-ms98-a-0036	B.44	141.899625	142.019625		you're	you're
sw2893B-ms98-a-0036	B.44	142.019625	142.349625		young	young
sw2893B-ms98-a-0036	B.44	142.349625	142.549625		though	though
sw2893B-ms98-a-0036	B.44	142.549625	142.769625		when	when
sw2893B-ms98-a-0036	B.44	142.769625	142.849625		you	you
sw2893B-ms98-a-0036	B.44	142.849625	143.009625		get	get
sw2893B-ms98-a-0036	B.44	143.009625	143.520000		older	older
sw2893B-ms98-a-0036	B.44	143.520000	143.734625		[silence]	[silence]
sw2893B-ms98-a-0036	B.44	143.734625	143.819625		you	you
sw2893B-ms98-a-0036	B.44	143.819625	143.919625		know	know
sw2893B-ms98-a-0036	B.44	143.919625	144.069625		your	your
sw2893B-ms98-a-0036	B.44	144.069625	144.379625		body's	body's
sw2893B-ms98-a-0036	B.44	144.379625	144.559625		not	not
sw2893B-ms98-a-0036	B.44	144.559625	144.679625		going	going
sw2893B-ms98-a-0036	B.44	144.679625	144.749625		to	to
sw2893B-ms98-a-0036	B.44	144.749625	144.939625		look	look
sw2893B-ms98-a-0036	B.44	144.939625	145.059625		as	as
sw2893B-ms98-a-0036	B.44	145.059625	145.389625		bad	bad
sw2893B-ms98-a-0036	B.44	145.389625	145.509625		I	i
sw2893B-ms98-a-0036	B.44	145.509625	145.769625		seen	seen
sw2893B-ms98-a-0036	B.44	145.769625	145.829625		an	an
sw2893B-ms98-a-0036	B.44	145.829625	146.029625		old	old
sw2893B-ms98-a-0036	B.44	146.029625	146.359625		woman	woman
sw2893B-ms98-a-0036	B.44	146.359625	146.812125		today	today
sw2893B-ms98-a-0036	B.44	146.812125	147.152500		[silence]	[silence]
sw2893B-ms98-a-0037	B.44	147.152500	147.382500		[silence]	[silence]
sw2893B-ms98-a-0037	B.44	147.382500	147.482500		she	she
sw2893B-ms98-a-0037	B.44	147.482500	147.582500		was	was
sw2893B-ms98-a-0037	B.44	147.582500	147.844500		about	about
sw2893B-ms98-a-0037	B.44	147.844500	148.055750		[silence]	[silence]
sw2893B-ms98-a-0037	B.44	148.055750	148.569000		eighty	eighty
sw2893B-ms98-a-0037	B.44	148.569000	148.776250		[silence]	[silence]
sw2893B-ms98-a-0037	B.44	148.776250	148.922500		and	and
sw2893B-ms98-a-0037	B.44	148.922500	149.142500		she	she
sw2893B-ms98-a-0037	B.44	149.142500	149.402500		looked	looked
sw2893B-ms98-a-0037	B.44	149.402500	149.662500		so	so
sw2893B-ms98-a-0037	B.44	149.662500	150.292500		good	good
sw2893B-ms98-a-0037	B.46	150.292500	150.382500		I	i
sw2893B-ms98-a-0037	B.46	150.382500	150.682500		mean	mean
sw2893B-ms98-a-0037	B.46	150.682500	150.932500		she	she
sw2893B-ms98-a-0037	B.46	150.932500	151.032500		was	was
sw2893B-ms98-a-0037	B.46	151.032500	151.502500		standing	standing
sw2893B-ms98-a-0037	B.46	151.502500	151.742500		just	just
sw2893B-ms98-a-0037	B.46	151.742500	151.832500		as	as
sw2893B-ms98-a-0037	B.46	151.832500	152.192500		straight	straight
sw2893B-ms98-a-0037	B.46	152.192500	152.322500		and	and
sw2893B-ms98-a-0037	B.46	152.322500	152.602500		tall	tall
sw2893B-ms98-a-0037	B.46	152.602500	152.752500		and	and
sw2893B-ms98-a-0037	B.46	152.752500	152.912500		she	she
sw2893B-ms98-a-0037	B.46	152.912500	153.193500		had	had
sw2893B-ms98-a-0037	B.46	153.193500	153.645500		[silence]	[silence]
sw2893B-ms98-a-0037	B.46	153.645500	153.722500		a	a
sw2893B-ms98-a-0037	B.46	153.722500	154.252500		small	small
sw2893B-ms98-a-0037	B.46	154.252500	154.742500		waist	waist
sw2893B-ms98-a-0037	B.46	154.742500	154.842500		and	and
sw2893B-ms98-a-0037	B.46	154.842500	154.972500		she	she
sw2893B-ms98-a-0037	B.46	154.972500	155.172500		didn't	didn't
sw2893B-ms98-a-0037	B.46	155.172500	155.424500		have	have
sw2893B-ms98-a-0037	B.46	155.424500	155.917875		[silence]	[silence]
sw2893B-ms98-a-0037	B.46	155.917875	156.002500		you	you
sw2893B-ms98-a-0037	B.46	156.002500	156.224125		know	know
sw2893B-ms98-a-0037	B.46	156.224125	156.333375		[silence]	[silence]
sw2893B-ms98-a-0037	B.46	156.333375	156.582500		like	like
sw2893B-ms98-a-0037	B.46	156.582500	156.662500		you	you
sw2893B-ms98-a-0037	B.46	156.662500	156.772500		know	know
sw2893B-ms98-a-0037	B.46	156.772500	156.872500		how	how
sw2893B-ms98-a-0037	B.46	156.872500	157.082500		some	some
sw2893B-ms98-a-0037	B.46	157.082500	157.322500		older	older
sw2893B-ms98-a-0037	B.46	157.322500	157.582500		women	women
sw2893B-ms98-a-0037	B.46	157.582500	157.692500		will	will
sw2893B-ms98-a-0037	B.46	157.692500	157.862500		get	get
sw2893B-ms98-a-0037	B.46	157.862500	157.962500		the	the
sw2893B-ms98-a-0037	B.46	157.962500	158.172500		big	big
sw2893B-ms98-a-0037	B.46	158.172500	158.622500		bulge	bulge
sw2893B-ms98-a-0037	B.46	158.622500	158.802500		right	right
sw2893B-ms98-a-0037	B.46	158.802500	158.932500		in	in
sw2893B-ms98-a-0037	B.46	158.932500	158.992500		the	the
sw2893B-ms98-a-0037	B.46	158.992500	159.399125		middle	middle
sw2893B-ms98-a-0037	B.48	159.399125	159.843125		[silence]	[silence]
sw2893B-ms98-a-0038	B.48	159.843125	160.302250		[silence]	[silence]
sw2893B-ms98-a-0038	B.48	160.302250	160.443125	<SUB>	A-	and
sw2893B-ms98-a-0038	B.48	160.443125	160.593125		she	she
sw2893B-ms98-a-0038	B.48	160.593125	160.803125		didn't	didn't
sw2893B-ms98-a-0038	B.48	160.803125	161.033125		have	have
sw2893B-ms98-a-0038	B.48	161.033125	161.283125		that	that
sw2893B-ms98-a-0038	B.48	161.283125	161.433125		at	at
sw2893B-ms98-a-0038	B.48	161.433125	161.753125		all	all
sw2893B-ms98-a-0038	B.48	161.753125	162.043125		She	she
sw2893B-ms98-a-0038	B.48	162.043125	162.163125		her	her
sw2893B-ms98-a-0038	B.48	162.163125	162.473125		lips	lips
sw2893B-ms98-a-0038	B.48	162.473125	162.593125		were	were
sw2893B-ms98-a-0038	B.48	162.593125	162.673125		a	a
sw2893B-ms98-a-0038	B.48	162.673125	162.843125		little	little
sw2893B-ms98-a-0038	B.48	162.843125	163.023125		bit	bit
sw2893B-ms98-a-0038	B.48	163.023125	163.373125		wide	wide
sw2893B-ms98-a-0038	B.48	163.373125	163.524875		but	but
sw2893B-ms98-a-0038	B.48	163.524875	164.059750		[silence]	[silence]
sw2893B-ms98-a-0038	B.48	164.059750	164.153125		a	a
sw2893B-ms98-a-0038	B.48	164.153125	164.343125		lot	lot
sw2893B-ms98-a-0038	B.48	164.343125	164.488625		of	of
sw2893B-ms98-a-0038	B.48	164.488625	164.673125		[silence]	[silence]
sw2893B-ms98-a-0038	B.48	164.673125	164.908250		back	back
sw2893B-ms98-a-0038	B.48	164.908250	165.149250		[silence]	[silence]
sw2893B-ms98-a-0038	B.48	165.149250	165.283125		in	in
sw2893B-ms98-a-0038	B.48	165.283125	165.443125		her	her
sw2893B-ms98-a-0038	B.48	165.443125	165.823125		time	time
sw2893B-ms98-a-0038	B.48	165.823125	165.973125		they	they
sw2893B-ms98-a-0038	B.48	165.973125	166.223125		liked	liked
sw2893B-ms98-a-0038	B.48	166.223125	166.533125		women	women
sw2893B-ms98-a-0038	B.48	166.533125	166.713125		with	with
sw2893B-ms98-a-0038	B.48	166.713125	166.913125		big	big
sw2893B-ms98-a-0038	B.48	166.913125	167.283125		hips	hips
sw2893B-ms98-a-0038	B.48	167.283125	167.703375		anyway	anyway
sw2893B-ms98-a-0038	B.50	167.703375	168.000125		[silence]	[silence]
sw2893B-ms98-a-0039	B.50	168.000125	168.200125		[silence]	[silence]
sw2893B-ms98-a-0039	B.50	168.200125	168.320125		so	so
sw2893B-ms98-a-0039	B.50	168.320125	168.460125		she	she
sw2893B-ms98-a-0039	B.50	168.460125	168.600125		may	may
sw2893B-ms98-a-0039	B.50	168.600125	168.690125		be	be
sw2893B-ms98-a-0039	B.50	168.690125	169.050125		keeping	keeping
sw2893B-ms98-a-0039	B.50	169.050125	169.210125		that	that
sw2893B-ms98-a-0039	B.50	169.210125	169.360125		on	on
sw2893B-ms98-a-0039	B.50	169.360125	169.750125		purpose	purpose
sw2893B-ms98-a-0039	B.50	169.750125	169.915250		so	so
sw2893B-ms98-a-0039	B.52	169.915250	170.205625		[laughter]	[laughter]
sw2893B-ms98-a-0039	B.52	170.205625	170.678875		[silence]	[silence]
sw2893B-ms98-a-0040	B.52	170.678875	174.152625		[silence]	[silence]
sw2893B-ms98-a-0041	B.52	174.152625	174.684125		[silence]	[silence]
sw2893B-ms98-a-0041	B.52	174.684125	175.027125	<SUB>	Uh-huh	um-hum
sw2893B-ms98-a-0041	B.54	175.027125	175.444500		[silence]	[silence]
sw2893B-ms98-a-0042	B.54	175.444500	186.711250		[silence]	[silence]
sw2893B-ms98-a-0043	B.54	186.711250	187.421250		[silence]	[silence]
sw2893B-ms98-a-0043	B.54	187.421250	187.621250		Well	well
sw2893B-ms98-a-0043	B.54	187.621250	188.131250		smoking	smoking
sw2893B-ms98-a-0043	B.54	188.131250	188.561250		ages	ages
sw2893B-ms98-a-0043	B.54	188.561250	188.651250		you	you
sw2893B-ms98-a-0043	B.54	188.651250	189.161250		quick	quick
sw2893B-ms98-a-0043	B.56	189.161250	189.321250		it	it
sw2893B-ms98-a-0043	B.56	189.321250	189.541250		puts	puts
sw2893B-ms98-a-0043	B.56	189.541250	189.731250		those	those
sw2893B-ms98-a-0043	B.56	189.731250	189.951250		little	little
sw2893B-ms98-a-0043	B.56	189.951250	190.341250		wrinkles	wrinkles
sw2893B-ms98-a-0043	B.56	190.341250	190.671250		around	around
sw2893B-ms98-a-0043	B.56	190.671250	190.801250		your	your
sw2893B-ms98-a-0043	B.56	190.801250	191.251875		lips	lips
sw2893B-ms98-a-0043	B.58	191.251875	191.739875		[silence]	[silence]
sw2893B-ms98-a-0044	B.58	191.739875	192.488500		[silence]	[silence]
sw2893B-ms98-a-0044	B.58	192.488500	192.854125		[vocalized-noise]	[vocalized-noise]
sw2893B-ms98-a-0044	B.58	192.854125	196.362375		[silence]	[silence]
sw2893B-ms98-a-0045	B.58	196.362375	196.919875		[silence]	[silence]
sw2893B-ms98-a-0045	B.58	196.919875	197.142375		You	you
sw2893B-ms98-a-0045	B.58	197.142375	197.322375		get	get
sw2893B-ms98-a-0045	B.58	197.322375	197.833250		winded	winded
sw2893B-ms98-a-0045	B.60	197.833250	198.055125		[silence]	[silence]
sw2893B-ms98-a-0046	B.60	198.055125	198.366125		[silence]	[silence]
sw2893B-ms98-a-0046	B.60	198.366125	198.516375		Oh	oh
sw2893B-ms98-a-0046	B.60	198.516375	198.688875		I	i
sw2893B-ms98-a-0046	B.60	198.688875	199.115125		smoke	smoke
sw2893B-ms98-a-0046	B.60	199.115125	199.180000		a	a
sw2893B-ms98-a-0046	B.60	199.180000	199.477625		pack	pack
sw2893B-ms98-a-0046	B.60	199.477625	199.565125		a	a
sw2893B-ms98-a-0046	B.60	199.565125	200.000625		day	day
sw2893B-ms98-a-0046	B.60	200.000625	200.206375		[silence]	[silence]
sw2893B-ms98-a-0046	B.60	200.206375	200.347125	<SUB>	an	and
sw2893B-ms98-a-0046	B.62	200.347125	200.695375		[silence]	[silence]
sw2893B-ms98-a-0047	B.62	200.695375	200.787625		[silence]	[silence]
sw2893B-ms98-a-0047	B.62	200.787625	201.214250		[laughter]	[laughter]
sw2893B-ms98-a-0047	B.62	201.214250	202.180250		[silence]	[silence]
sw2893B-ms98-a-0047	B.62	202.180250	202.724875	<DEL>	---	oh
sw2893B-ms98-a-0047	B.62	202.724875	204.174625		[silence]	[silence]
sw2893B-ms98-a-0048	B.62	204.174625	204.494625		[silence]	[silence]
sw2893B-ms98-a-0048	B.62	204.494625	204.674625	<DEL>	---	and
sw2893B-ms98-a-0048	B.62	204.674625	204.804625		I	i
sw2893B-ms98-a-0048	B.62	204.804625	205.104625		can't	can't
sw2893B-ms98-a-0048	B.62	205.104625	205.334625		quit	quit
sw2893B-ms98-a-0048	B.62	205.334625	205.724625		smoking	smoking
sw2893B-ms98-a-0048	B.62	205.724625	205.944625		I've	i've
sw2893B-ms98-a-0048	B.62	205.944625	206.404625		tried	tried
sw2893B-ms98-a-0048	B.62	206.404625	206.484625		I	i
sw2893B-ms98-a-0048	B.62	206.484625	206.664625		was	was
sw2893B-ms98-a-0048	B.62	206.664625	206.984625		telling	telling
sw2893B-ms98-a-0048	B.62	206.984625	207.014625		a	a
sw2893B-ms98-a-0048	B.62	207.014625	207.214625		friend	friend
sw2893B-ms98-a-0048	B.62	207.214625	207.284625		of	of
sw2893B-ms98-a-0048	B.62	207.284625	207.564625		mine	mine
sw2893B-ms98-a-0048	B.62	207.564625	207.764625		that	that
sw2893B-ms98-a-0048	B.62	207.764625	207.764625	<INS>	I'd	---
sw2893B-ms98-a-0048	B.62	207.764625	208.032500		be	be
sw2893B-ms98-a-0048	B.62	208.032500	208.409000		[silence]	[silence]
sw2893B-ms98-a-0049	B.62	208.409000	208.952125		[silence]	[silence]
sw2893B-ms98-a-0049	B.62	208.952125	209.309000		almo-	almo[st]-
sw2893B-ms98-a-0049	B.62	209.309000	209.709000		almost	almost
sw2893B-ms98-a-0049	B.62	209.709000	209.809000		as	as
sw2893B-ms98-a-0049	B.62	209.809000	210.039000		bad	bad
sw2893B-ms98-a-0049	B.62	210.039000	210.169000		as	as
sw2893B-ms98-a-0049	B.62	210.169000	210.299000		being	being
sw2893B-ms98-a-0049	B.62	210.299000	210.359000		an	an
sw2893B-ms98-a-0049	B.62	210.359000	211.041750		alcoholic	alcoholic
sw2893B-ms98-a-0049	B.64	211.041750	211.041750	<INS>	I	---
sw2893B-ms98-a-0049	B.64	211.041750	211.218750		[silence]	[silence]
sw2893B-ms98-a-0049	B.64	211.218750	211.519000		can't	can't
sw2893B-ms98-a-0049	B.64	211.519000	211.729000		quit	quit
sw2893B-ms98-a-0049	B.64	211.729000	212.336625		smoking	smoking
sw2893B-ms98-a-0049	B.64	212.336625	212.643375		[silence]	[silence]
sw2893B-ms98-a-0050	B.64	212.643375	213.010250		[silence]	[silence]
sw2893B-ms98-a-0050	B.64	213.010250	213.223375		I've	i've
sw2893B-ms98-a-0050	B.64	213.223375	213.693375		tried	tried
sw2893B-ms98-a-0050	B.64	213.693375	213.783375		I	i
sw2893B-ms98-a-0050	B.64	213.783375	213.993375		just	just
sw2893B-ms98-a-0050	B.64	213.993375	214.243375		can't	can't
sw2893B-ms98-a-0050	B.64	214.243375	214.323375		do	do
sw2893B-ms98-a-0050	B.64	214.323375	214.638625		it	it
sw2893B-ms98-a-0050	B.64	214.638625	215.303000		[silence]	[silence]
sw2893B-ms98-a-0050	B.64	215.303000	215.434750		I	i
sw2893B-ms98-a-0050	B.64	215.434750	215.643375		quit	quit
sw2893B-ms98-a-0050	B.64	215.643375	215.763375		when	when
sw2893B-ms98-a-0050	B.64	215.763375	215.813375		I	i
sw2893B-ms98-a-0050	B.64	215.813375	215.913375		was	was
sw2893B-ms98-a-0050	B.64	215.913375	216.283375		pregnant	pregnant
sw2893B-ms98-a-0050	B.64	216.283375	216.403375		with	with
sw2893B-ms98-a-0050	B.64	216.403375	216.543375		my	my
sw2893B-ms98-a-0050	B.64	216.543375	216.963375		kids	kids
sw2893B-ms98-a-0050	B.64	216.963375	217.133250		but	but
sw2893B-ms98-a-0050	B.64	217.133250	217.483625		[silence]	[silence]
sw2893B-ms98-a-0050	B.64	217.483625	217.593375		you	you
sw2893B-ms98-a-0050	B.64	217.593375	217.683375		know	know
sw2893B-ms98-a-0050	B.64	217.683375	217.773375		as	as
sw2893B-ms98-a-0050	B.64	217.773375	218.013375		soon	soon
sw2893B-ms98-a-0050	B.64	218.013375	218.143375		as	as
sw2893B-ms98-a-0050	B.64	218.143375	218.203375		I	i
sw2893B-ms98-a-0050	B.64	218.203375	218.483375		had	had
sw2893B-ms98-a-0050	B.64	218.483375	218.681500		them	them_1
sw2893B-ms98-a-0050	B.64	218.681500	219.574125		[silence]	[silence]
sw2893B-ms98-a-0050	B.64	219.574125	219.773375		right	right
sw2893B-ms98-a-0050	B.64	219.773375	219.983375		back	back
sw2893B-ms98-a-0050	B.64	219.983375	220.293375		to	to
sw2893B-ms98-a-0050	B.64	220.293375	220.383375		it	it
sw2893B-ms98-a-0050	B.66	220.383375	221.042125		[silence]	[silence]
sw2893B-ms98-a-0051	B.66	221.042125	221.492500		[silence]	[silence]
sw2893B-ms98-a-0051	B.66	221.492500	221.895250		Yeah	yeah
sw2893B-ms98-a-0051	B.68	221.895250	222.272000		[silence]	[silence]
sw2893B-ms98-a-0051	B.68	222.272000	222.402125		It	it
sw2893B-ms98-a-0051	B.68	222.402125	222.492125		was	was
sw2893B-ms98-a-0051	B.68	222.492125	222.762125		like	like
sw2893B-ms98-a-0051	B.68	222.762125	222.822125		you	you
sw2893B-ms98-a-0051	B.68	222.822125	223.060000		know	know
sw2893B-ms98-a-0051	B.68	223.060000	223.218250		[silence]	[silence]
sw2893B-ms98-a-0051	B.68	223.218250	223.302125		that	that
sw2893B-ms98-a-0051	B.68	223.302125	223.412125		was	was
sw2893B-ms98-a-0051	B.68	223.412125	223.502125		the	the
sw2893B-ms98-a-0051	B.68	223.502125	223.702125		only	only
sw2893B-ms98-a-0051	B.68	223.702125	224.022125		reason	reason
sw2893B-ms98-a-0051	B.68	224.022125	224.092125		I	i
sw2893B-ms98-a-0051	B.68	224.092125	224.412125		quit	quit
sw2893B-ms98-a-0051	B.68	224.412125	224.502125		I	i
sw2893B-ms98-a-0051	B.68	224.502125	224.802125		didn't	didn't
sw2893B-ms98-a-0051	B.68	224.802125	225.022125		want	want
sw2893B-ms98-a-0051	B.68	225.022125	225.314750		to	to
sw2893B-ms98-a-0051	B.70	225.314750	225.918750		[silence]	[silence]
sw2893B-ms98-a-0052	B.70	225.918750	226.491875		[silence]	[silence]
sw2893B-ms98-a-0052	B.70	226.491875	226.718750		And	and
sw2893B-ms98-a-0052	B.70	226.718750	226.778750		I	i
sw2893B-ms98-a-0052	B.70	226.778750	227.008750		don't	don't
sw2893B-ms98-a-0052	B.70	227.008750	227.168750		want	want
sw2893B-ms98-a-0052	B.70	227.168750	227.228750		to	to
sw2893B-ms98-a-0052	B.70	227.228750	227.428750		quit	quit
sw2893B-ms98-a-0052	B.70	227.428750	227.838750		smoking	smoking
sw2893B-ms98-a-0052	B.70	227.838750	228.018750		I	i
sw2893B-ms98-a-0052	B.70	228.018750	228.358750		enjoy	enjoy
sw2893B-ms98-a-0052	B.70	228.358750	228.648750		that	that
sw2893B-ms98-a-0052	B.70	228.648750	228.748750		I	i
sw2893B-ms98-a-0052	B.70	228.748750	228.948750		said	said
sw2893B-ms98-a-0052	B.70	228.948750	229.048750		I	i
sw2893B-ms98-a-0052	B.70	229.048750	229.328750		have	have
sw2893B-ms98-a-0052	B.70	229.328750	229.608750		very	very
sw2893B-ms98-a-0052	B.70	229.608750	229.818750		few	few
sw2893B-ms98-a-0052	B.70	229.818750	230.378750		vices	vices
sw2893B-ms98-a-0052	B.70	230.378750	230.518750		I'll	i'll
sw2893B-ms98-a-0052	B.70	230.518750	230.798750		keep	keep
sw2893B-ms98-a-0052	B.70	230.798750	231.048750		this	this
sw2893B-ms98-a-0052	B.70	231.048750	231.188750		one	one
sw2893B-ms98-a-0052	B.70	231.188750	231.528750		thank	thank
sw2893B-ms98-a-0052	B.70	231.528750	231.738750		you	you
sw2893B-ms98-a-0052	B.72	231.738750	233.898750		[laughter]	[laughter]
sw2893B-ms98-a-0052	B.72	233.898750	234.058750		But	but
sw2893B-ms98-a-0052	B.72	234.058750	234.290125		uh	uh
sw2893B-ms98-a-0052	B.72	234.290125	234.972375		[silence]	[silence]
sw2893B-ms98-a-0053	B.72	234.972375	235.996625		[silence]	[silence]
sw2893B-ms98-a-0053	B.72	235.996625	236.142375		did	did
sw2893B-ms98-a-0053	B.72	236.142375	236.242375		you	you
sw2893B-ms98-a-0053	B.72	236.242375	236.432375		ever	ever
sw2893B-ms98-a-0053	B.72	236.432375	236.562375		go	go
sw2893B-ms98-a-0053	B.72	236.562375	236.692375		to	to
sw2893B-ms98-a-0053	B.72	236.692375	236.872375		like	like
sw2893B-ms98-a-0053	B.72	236.872375	236.972375		one	one
sw2893B-ms98-a-0053	B.72	236.972375	237.032375		of	of
sw2893B-ms98-a-0053	B.72	237.032375	237.180500		those	those
sw2893B-ms98-a-0053	B.72	237.180500	237.422375		health	health
sw2893B-ms98-a-0053	B.72	237.422375	237.752375		clubs	clubs
sw2893B-ms98-a-0053	B.72	237.752375	237.832375		or	or
sw2893B-ms98-a-0053	B.72	237.832375	238.297750		anything	anything
sw2893B-ms98-a-0053	B.74	238.297750	239.110000		[silence]	[silence]
sw2893B-ms98-a-0054	B.74	239.110000	244.971500		[silence]	[silence]
sw2893B-ms98-a-0055	B.74	244.971500	245.618250		[silence]	[silence]
sw2893B-ms98-a-0055	B.74	245.618250	245.914375		Uh-huh	uh-huh
sw2893B-ms98-a-0055	B.76	245.914375	246.586875		[silence]	[silence]
sw2893B-ms98-a-0056	B.76	246.586875	250.895250		[silence]	[silence]
sw2893B-ms98-a-0057	B.76	250.895250	251.429625		[silence]	[silence]
sw2893B-ms98-a-0057	B.76	251.429625	251.545250		I	i
sw2893B-ms98-a-0057	B.76	251.545250	251.775250		like	like
sw2893B-ms98-a-0057	B.76	251.775250	251.895250		to	to
sw2893B-ms98-a-0057	B.76	251.895250	252.195250		work	work
sw2893B-ms98-a-0057	B.76	252.195250	252.415250		out	out
sw2893B-ms98-a-0057	B.76	252.415250	252.555375		with	with
sw2893B-ms98-a-0057	B.76	252.555375	252.724875		[silence]	[silence]
sw2893B-ms98-a-0057	B.76	252.724875	253.105250		people	people
sw2893B-ms98-a-0057	B.78	253.105250	253.215250		I	i
sw2893B-ms98-a-0057	B.78	253.215250	253.625250		need	need
sw2893B-ms98-a-0057	B.78	253.625250	253.865250		like	like
sw2893B-ms98-a-0057	B.78	253.865250	254.052125		you	you
sw2893B-ms98-a-0057	B.78	254.052125	254.275250	<SUB>	I	i-
sw2893B-ms98-a-0057	B.78	254.275250	254.455250		I	i
sw2893B-ms98-a-0057	B.78	254.455250	254.701875		need	need
sw2893B-ms98-a-0057	B.78	254.701875	254.991875		[silence]	[silence]
sw2893B-ms98-a-0057	B.78	254.991875	256.015250		competition	competition
sw2893B-ms98-a-0057	B.78	256.015250	256.135250		is	is
sw2893B-ms98-a-0057	B.78	256.135250	256.315250		what	what
sw2893B-ms98-a-0057	B.78	256.315250	256.395250		I	i
sw2893B-ms98-a-0057	B.78	256.395250	256.735250		need	need
sw2893B-ms98-a-0057	B.80	256.735250	256.905250		I've	i've
sw2893B-ms98-a-0057	B.80	256.905250	257.085250		got	got
sw2893B-ms98-a-0057	B.80	257.085250	257.145250		to	to
sw2893B-ms98-a-0057	B.80	257.145250	257.265250		have	have
sw2893B-ms98-a-0057	B.80	257.265250	257.595250		somebody	somebody
sw2893B-ms98-a-0057	B.80	257.595250	257.695250		to	to
sw2893B-ms98-a-0057	B.80	257.695250	258.065250		compete	compete
sw2893B-ms98-a-0057	B.80	258.065250	258.375250		with	with
sw2893B-ms98-a-0057	B.80	258.375250	258.543375		or	or
sw2893B-ms98-a-0057	B.80	258.543375	259.117875		[silence]	[silence]
sw2893B-ms98-a-0057	B.80	259.117875	259.219625		I	i
sw2893B-ms98-a-0057	B.80	259.219625	259.335250		don't	don't
sw2893B-ms98-a-0057	B.80	259.335250	259.465250		want	want
sw2893B-ms98-a-0057	B.80	259.465250	259.525250		to	to
sw2893B-ms98-a-0057	B.80	259.525250	259.605250		do	do
sw2893B-ms98-a-0057	B.80	259.605250	260.141750		anything	anything
sw2893B-ms98-a-0057	B.82	260.141750	260.996375		[silence]	[silence]
sw2893B-ms98-a-0058	B.82	260.996375	265.844375		[silence]	[silence]
sw2893B-ms98-a-0059	B.82	265.844375	266.439500		[silence]	[silence]
sw2893B-ms98-a-0059	B.82	266.439500	266.611500	<SUB>	Uh-huh	um-hum
sw2893B-ms98-a-0059	B.82	266.611500	266.945375		[silence]	[silence]
sw2893B-ms98-a-0059	B.82	266.945375	267.034375		are	are
sw2893B-ms98-a-0059	B.82	267.034375	267.266500		you	you
sw2893B-ms98-a-0059	B.84	267.266500	267.815750		[silence]	[silence]
sw2893B-ms98-a-0060	B.84	267.815750	269.065000		[silence]	[silence]
sw2893B-ms98-a-0061	B.84	269.065000	269.299750		[silence]	[silence]
sw2893B-ms98-a-0061	B.84	269.299750	269.554875		Uh-huh	uh-huh
sw2893B-ms98-a-0061	B.84	269.554875	269.811500		[silence]	[silence]
sw2893B-ms98-a-0061	B.84	269.811500	269.905000		are	are
sw2893B-ms98-a-0061	B.84	269.905000	270.055000		you	you
sw2893B-ms98-a-0061	B.84	270.055000	270.395000		married	married
sw2893B-ms98-a-0061	B.84	270.395000	270.465000		or	or
sw2893B-ms98-a-0061	B.84	270.465000	270.972000		anything	anything
sw2893B-ms98-a-0061	B.86	270.972000	271.401375		[silence]	[silence]
sw2893B-ms98-a-0061	B.86	271.401375	271.668375		No	no
sw2893B-ms98-a-0061	B.86	271.668375	272.147500		[silence]	[silence]
sw2893B-ms98-a-0062	B.86	272.147500	272.563375		[silence]	[silence]
sw2893B-ms98-a-0062	B.86	272.563375	272.884125		well	well
sw2893B-ms98-a-0062	B.86	272.884125	273.771750		[silence]	[silence]
sw2893B-ms98-a-0062	B.86	273.771750	274.004125		get	get
sw2893B-ms98-a-0062	B.86	274.004125	274.137500		your	your
sw2893B-ms98-a-0062	B.86	274.137500	274.557500		girlfriend	girlfriend
sw2893B-ms98-a-0062	B.86	274.557500	274.637500		to	to
sw2893B-ms98-a-0062	B.86	274.637500	274.877500		work	work
sw2893B-ms98-a-0062	B.86	274.877500	274.997500		out	out
sw2893B-ms98-a-0062	B.86	274.997500	275.147500		with	with
sw2893B-ms98-a-0062	B.86	275.147500	275.247500		you	you
sw2893B-ms98-a-0062	B.86	275.247500	275.277500		A	a
sw2893B-ms98-a-0062	B.86	275.277500	275.437500		lot	lot
sw2893B-ms98-a-0062	B.86	275.437500	275.557500		of	of
sw2893B-ms98-a-0062	B.86	275.557500	275.827500		women	women
sw2893B-ms98-a-0062	B.86	275.827500	276.087500		like	like
sw2893B-ms98-a-0062	B.86	276.087500	276.237500		that	that
sw2893B-ms98-a-0062	B.86	276.237500	276.427500		I'd	i'd
sw2893B-ms98-a-0062	B.86	276.427500	276.577500		love	love
sw2893B-ms98-a-0062	B.86	276.577500	276.657500		it	it
sw2893B-ms98-a-0062	B.86	276.657500	276.747500		if	if
sw2893B-ms98-a-0062	B.86	276.747500	276.887500		my	my
sw2893B-ms98-a-0062	B.86	276.887500	277.267500		husband	husband
sw2893B-ms98-a-0062	B.86	277.267500	277.387500		would	would
sw2893B-ms98-a-0062	B.86	277.387500	277.687500		ask	ask
sw2893B-ms98-a-0062	B.86	277.687500	277.817500		me	me
sw2893B-ms98-a-0062	B.86	277.817500	277.967500		to	to
sw2893B-ms98-a-0062	B.86	277.967500	278.247500		work	work
sw2893B-ms98-a-0062	B.86	278.247500	278.407500		out	out
sw2893B-ms98-a-0062	B.86	278.407500	278.677500		with	with
sw2893B-ms98-a-0062	B.86	278.677500	278.881000		him	him
sw2893B-ms98-a-0062	B.86	278.881000	279.310375		[silence]	[silence]
sw2893B-ms98-a-0062	B.86	279.310375	279.407500		He	he
sw2893B-ms98-a-0062	B.86	279.407500	279.717500		doesn't	doesn't
sw2893B-ms98-a-0062	B.86	279.717500	279.957500		work	work
sw2893B-ms98-a-0062	B.86	279.957500	280.107500		out	out
sw2893B-ms98-a-0062	B.86	280.107500	280.337500		very	very
sw2893B-ms98-a-0062	B.86	280.337500	280.657500		often	often
sw2893B-ms98-a-0062	B.86	280.657500	280.857500		Course	course
sw2893B-ms98-a-0062	B.86	280.857500	280.977500		he	he
sw2893B-ms98-a-0062	B.86	280.977500	281.187500		don't	don't
sw2893B-ms98-a-0062	B.86	281.187500	281.407500		need	need
sw2893B-ms98-a-0062	B.86	281.407500	281.632500		to	to
sw2893B-ms98-a-0062	B.86	281.632500	281.900500		He's	he's
sw2893B-ms98-a-0062	B.86	281.900500	282.256750		[silence]	[silence]
sw2893B-ms98-a-0063	B.86	282.256750	282.491750		[silence]	[silence]
sw2893B-ms98-a-0063	B.86	282.491750	282.906750		small	small
sw2893B-ms98-a-0063	B.86	282.906750	283.046750		and	and
sw2893B-ms98-a-0063	B.86	283.046750	283.116750		he	he
sw2893B-ms98-a-0063	B.86	283.116750	283.426750		works	works
sw2893B-ms98-a-0063	B.86	283.426750	283.546750		as	as
sw2893B-ms98-a-0063	B.86	283.546750	283.636750		a	a
sw2893B-ms98-a-0063	B.86	283.636750	283.976750		laborer	laborer
sw2893B-ms98-a-0063	B.86	283.976750	284.126750		on	on
sw2893B-ms98-a-0063	B.86	284.126750	284.226750		the	the
sw2893B-ms98-a-0063	B.86	284.226750	284.816750		railroad	railroad
sw2893B-ms98-a-0063	B.88	284.816750	285.536750		So	so
sw2893B-ms98-a-0063	B.88	285.536750	285.676750		you	you
sw2893B-ms98-a-0063	B.88	285.676750	285.786750		know	know
sw2893B-ms98-a-0063	B.88	285.786750	286.102000		he's	he's
sw2893B-ms98-a-0063	B.88	286.102000	286.358000		[silence]	[silence]
sw2893B-ms98-a-0063	B.88	286.358000	286.686750		building	building
sw2893B-ms98-a-0063	B.88	286.686750	286.876750		his	his
sw2893B-ms98-a-0063	B.88	286.876750	287.286750		muscles	muscles
sw2893B-ms98-a-0063	B.88	287.286750	287.496750		up	up
sw2893B-ms98-a-0063	B.88	287.496750	287.656750		all	all
sw2893B-ms98-a-0063	B.88	287.656750	287.906750		day	day
sw2893B-ms98-a-0063	B.88	287.906750	287.996750		he	he
sw2893B-ms98-a-0063	B.88	287.996750	288.440625		doesn't	doesn't
sw2893B-ms98-a-0063	B.88	288.440625	288.696750		[silence]	[silence]
sw2893B-ms98-a-0063	B.88	288.696750	288.876750		have	have
sw2893B-ms98-a-0063	B.88	288.876750	288.946750		to	to
sw2893B-ms98-a-0063	B.88	288.946750	289.166750		do	do
sw2893B-ms98-a-0063	B.88	289.166750	289.759125		anything	anything
sw2893B-ms98-a-0063	B.90	289.759125	290.351625		[silence]	[silence]
sw2893B-ms98-a-0063	B.90	290.351625	290.496750		He	he
sw2893B-ms98-a-0063	B.90	290.496750	290.616750		can	can
sw2893B-ms98-a-0063	B.90	290.616750	290.776750		eat	eat
sw2893B-ms98-a-0063	B.90	290.776750	290.976750		like	like
sw2893B-ms98-a-0063	B.90	290.976750	291.056750		a	a
sw2893B-ms98-a-0063	B.90	291.056750	291.436750		horse	horse
sw2893B-ms98-a-0063	B.90	291.436750	291.915125		too	too
sw2893B-ms98-a-0063	B.90	291.915125	292.575250		[silence]	[silence]
sw2893B-ms98-a-0064	B.90	292.575250	293.376500		[silence]	[silence]
sw2893B-ms98-a-0064	B.90	293.376500	293.524250		And	and
sw2893B-ms98-a-0064	B.90	293.524250	293.678625		he	he
sw2893B-ms98-a-0064	B.90	293.678625	294.105250		don't	don't
sw2893B-ms98-a-0064	B.90	294.105250	294.225250		you	you
sw2893B-ms98-a-0064	B.90	294.225250	294.405250		know	know
sw2893B-ms98-a-0064	B.90	294.405250	294.525250		he	he
sw2893B-ms98-a-0064	B.90	294.525250	294.745250		don't	don't
sw2893B-ms98-a-0064	B.90	294.745250	294.975250		gain	gain
sw2893B-ms98-a-0064	B.90	294.975250	295.075250		it	it
sw2893B-ms98-a-0064	B.90	295.075250	295.237750		like	like
sw2893B-ms98-a-0064	B.90	295.237750	295.676375		[silence]	[silence]
sw2893B-ms98-a-0064	B.90	295.676375	295.879875		I	i
sw2893B-ms98-a-0064	B.90	295.879875	296.293375		do	do
sw2893B-ms98-a-0064	B.90	296.293375	297.465750		[silence]	[silence]
sw2893B-ms98-a-0064	B.90	297.465750	297.569125		But	but
sw2893B-ms98-a-0064	B.90	297.569125	297.879125		uh	uh
sw2893B-ms98-a-0064	B.92	297.879125	298.458750		[silence]	[silence]
sw2893B-ms98-a-0065	B.92	298.458750	301.148000		[silence]	[silence]
sw2893B-ms98-a-0066	B.92	301.148000	301.703125		[silence]	[silence]
sw2893B-ms98-a-0066	B.92	301.703125	301.923375		Yeah	yeah
sw2893B-ms98-a-0066	B.92	301.923375	302.431000		[silence]	[silence]
sw2893B-ms98-a-0067	B.92	302.431000	303.445375		[silence]	[silence]
sw2893B-ms98-a-0068	B.92	303.445375	303.931875		[silence]	[silence]
sw2893B-ms98-a-0068	B.92	303.931875	304.055375	<DEL>	---	yeah
sw2893B-ms98-a-0068	B.92	304.055375	304.195375		you	you
sw2893B-ms98-a-0068	B.92	304.195375	304.411500		have	have
sw2893B-ms98-a-0068	B.92	304.411500	304.490500		[silence]	[silence]
sw2893B-ms98-a-0068	B.92	304.490500	304.686000		to	to
sw2893B-ms98-a-0068	B.94	304.686000	305.401750		[silence]	[silence]
sw2893B-ms98-a-0068	B.94	305.401750	305.555375		Well	well
sw2893B-ms98-a-0068	B.94	305.555375	305.795375		you	you
sw2893B-ms98-a-0068	B.94	305.795375	305.955375		can	can
sw2893B-ms98-a-0068	B.94	305.955375	306.215375		gain	gain
sw2893B-ms98-a-0068	B.94	306.215375	306.395375		too	too
sw2893B-ms98-a-0068	B.94	306.395375	306.725375		much	much
sw2893B-ms98-a-0068	B.94	306.725375	306.975375		weight	weight
sw2893B-ms98-a-0068	B.94	306.975375	307.065375		I	i
sw2893B-ms98-a-0068	B.94	307.065375	307.395375		gained	gained
sw2893B-ms98-a-0068	B.94	307.395375	307.455375		a	a
sw2893B-ms98-a-0068	B.94	307.455375	307.665375		little	little
sw2893B-ms98-a-0068	B.94	307.665375	307.855375		bit	bit
sw2893B-ms98-a-0068	B.94	307.855375	308.025375		too	too
sw2893B-ms98-a-0068	B.94	308.025375	308.395375		much	much
sw2893B-ms98-a-0068	B.94	308.395375	308.645375		but	but
sw2893B-ms98-a-0068	B.94	308.645375	308.845125		I	i
sw2893B-ms98-a-0068	B.94	308.845125	308.992750		looked	looked
sw2893B-ms98-a-0068	B.94	308.992750	309.693750		[silence]	[silence]
sw2893B-ms98-a-0069	B.94	309.693750	310.243750		[silence]	[silence]
sw2893B-ms98-a-0069	B.94	310.243750	310.413750		with	with
sw2893B-ms98-a-0069	B.94	310.413750	310.553750		my	my
sw2893B-ms98-a-0069	B.94	310.553750	310.893750		first	first
sw2893B-ms98-a-0069	B.94	310.893750	311.083750		little	little
sw2893B-ms98-a-0069	B.94	311.083750	311.313750		boy	boy
sw2893B-ms98-a-0069	B.94	311.313750	311.433750		I	i
sw2893B-ms98-a-0069	B.94	311.433750	311.663750		did	did
sw2893B-ms98-a-0069	B.94	311.663750	311.873750		gain	gain
sw2893B-ms98-a-0069	B.94	311.873750	311.963750		a	a
sw2893B-ms98-a-0069	B.94	311.963750	312.193750		lot	lot
sw2893B-ms98-a-0069	B.94	312.193750	312.293750		of	of
sw2893B-ms98-a-0069	B.94	312.293750	312.573750		weight	weight
sw2893B-ms98-a-0069	B.94	312.573750	312.753750		I	i
sw2893B-ms98-a-0069	B.94	312.753750	312.973375		got	got
sw2893B-ms98-a-0069	B.94	312.973375	313.406500		[silence]	[silence]
sw2893B-ms98-a-0069	B.94	313.406500	313.553750		I	i
sw2893B-ms98-a-0069	B.94	313.553750	313.753750		got	got
sw2893B-ms98-a-0069	B.94	313.753750	313.973750		about	about
sw2893B-ms98-a-0069	B.94	313.973750	314.303750		fifty	fifty
sw2893B-ms98-a-0069	B.94	314.303750	314.663750		pounds	pounds
sw2893B-ms98-a-0069	B.94	314.663750	315.103750		overweight	overweight
sw2893B-ms98-a-0069	B.94	315.103750	315.323750		with	with
sw2893B-ms98-a-0069	B.94	315.323750	315.664750		him	him
sw2893B-ms98-a-0069	B.94	315.664750	316.060250		[silence]	[silence]
sw2893B-ms98-a-0069	B.94	316.060250	316.193750		and	and
sw2893B-ms98-a-0069	B.94	316.193750	316.253750		I	i
sw2893B-ms98-a-0069	B.94	316.253750	316.503750		didn't	didn't
sw2893B-ms98-a-0069	B.94	316.503750	316.723750		loose	loose
sw2893B-ms98-a-0069	B.94	316.723750	316.873750		it	it
sw2893B-ms98-a-0069	B.94	316.873750	317.083750		until	until
sw2893B-ms98-a-0069	B.94	317.083750	317.303750		two	two
sw2893B-ms98-a-0069	B.94	317.303750	317.553750		years	years
sw2893B-ms98-a-0069	B.94	317.553750	317.863750		ago	ago
sw2893B-ms98-a-0069	B.94	317.863750	318.013750		and	and
sw2893B-ms98-a-0069	B.94	318.013750	318.123750		then	then
sw2893B-ms98-a-0069	B.94	318.123750	318.203750		I	i
sw2893B-ms98-a-0069	B.94	318.203750	318.403750		got	got
sw2893B-ms98-a-0069	B.94	318.403750	318.913750		pregnant	pregnant
sw2893B-ms98-a-0069	B.94	318.913750	319.243750		and	and
sw2893B-ms98-a-0069	B.94	319.243750	319.533375		you	you
sw2893B-ms98-a-0069	B.94	319.533375	319.909000		know	know
sw2893B-ms98-a-0069	B.94	319.909000	320.097250		[silence]	[silence]
sw2893B-ms98-a-0069	B.94	320.097250	320.433750		ruined	ruined
sw2893B-ms98-a-0069	B.94	320.433750	320.654750		that	that
sw2893B-ms98-a-0069	B.94	320.654750	321.205500		[laughter]	[laughter]
sw2893B-ms98-a-0069	B.94	321.205500	321.606375		so	[laughter-so]
sw2893B-ms98-a-0069	B.96	321.606375	322.184625		[silence]	[silence]
sw2893B-ms98-a-0069	B.96	322.184625	322.485625	<DEL>	---	uh-huh
sw2893B-ms98-a-0069	B.96	322.485625	323.563000		[silence]	[silence]
sw2893B-ms98-a-0070	B.96	323.563000	324.164500		[silence]	[silence]
sw2893B-ms98-a-0070	B.96	324.164500	324.582000		Yeah	yeah
sw2893B-ms98-a-0070	B.96	324.582000	324.872000		[silence]	[silence]
sw2893B-ms98-a-0070	B.96	324.872000	324.953000		well	well
sw2893B-ms98-a-0070	B.96	324.953000	325.293000		actually	actually
sw2893B-ms98-a-0070	B.96	325.293000	325.443000		like	like
sw2893B-ms98-a-0070	B.96	325.443000	325.473000		I	i
sw2893B-ms98-a-0070	B.96	325.473000	325.553000		say	say
sw2893B-ms98-a-0070	B.96	325.553000	325.633000		it	it
sw2893B-ms98-a-0070	B.96	325.633000	325.913000		ain't	ain't
sw2893B-ms98-a-0070	B.96	325.913000	326.013000		as	as
sw2893B-ms98-a-0070	B.96	326.013000	326.323000		bad	bad
sw2893B-ms98-a-0070	B.96	326.323000	326.533000		this	this
sw2893B-ms98-a-0070	B.96	326.533000	326.773000		time	time
sw2893B-ms98-a-0070	B.96	326.773000	327.053000		because	because
sw2893B-ms98-a-0070	B.96	327.053000	327.133000		I	i
sw2893B-ms98-a-0070	B.96	327.133000	327.383000		was	was
sw2893B-ms98-a-0070	B.96	327.383000	327.593000		in	in
sw2893B-ms98-a-0070	B.96	327.593000	327.953000		shape	shape
sw2893B-ms98-a-0070	B.96	327.953000	328.083000		when	when
sw2893B-ms98-a-0070	B.96	328.083000	328.163000		I	i
sw2893B-ms98-a-0070	B.96	328.163000	328.403000		got	got
sw2893B-ms98-a-0070	B.96	328.403000	329.003000		pregnant	pregnant
sw2893B-ms98-a-0070	B.98	329.003000	329.343375		[silence]	[silence]
sw2893B-ms98-a-0071	B.98	329.343375	329.683375		[silence]	[silence]
sw2893B-ms98-a-0071	B.98	329.683375	329.957375		I	i
sw2893B-ms98-a-0071	B.98	329.957375	330.253375		wasn't	wasn't
sw2893B-ms98-a-0071	B.98	330.253375	330.423375		out	out
sw2893B-ms98-a-0071	B.98	330.423375	330.543375		of	of
sw2893B-ms98-a-0071	B.98	330.543375	330.643375		sha-	sha[pe]-
sw2893B-ms98-a-0071	B.98	330.643375	330.753375		I	i
sw2893B-ms98-a-0071	B.98	330.753375	331.053375		wasn't	wasn't
sw2893B-ms98-a-0071	B.98	331.053375	331.583375		overweight	overweight
sw2893B-ms98-a-0071	B.98	331.583375	331.885500	<DEL>	---	with
sw2893B-ms98-a-0071	B.98	331.885500	332.023375		when	when
sw2893B-ms98-a-0071	B.98	332.023375	332.083375		I	i
sw2893B-ms98-a-0071	B.98	332.083375	332.243375		got	got
sw2893B-ms98-a-0071	B.98	332.243375	332.563375		pregnant	pregnant
sw2893B-ms98-a-0071	B.98	332.563375	332.703375		with	with
sw2893B-ms98-a-0071	B.98	332.703375	332.893375		him	him
sw2893B-ms98-a-0071	B.98	332.893375	332.953375		I	i
sw2893B-ms98-a-0071	B.98	332.953375	333.173375		just	just
sw2893B-ms98-a-0071	B.98	333.173375	333.473375		wasn't	wasn't
sw2893B-ms98-a-0071	B.98	333.473375	333.637375		in	in
sw2893B-ms98-a-0071	B.98	333.637375	333.848250		[silence]	[silence]
sw2893B-ms98-a-0071	B.98	333.848250	334.083375		in	in
sw2893B-ms98-a-0071	B.98	334.083375	334.430875		shape	shape
sw2893B-ms98-a-0071	B.98	334.430875	335.303375		[silence]	[silence]
sw2893B-ms98-a-0071	B.98	335.303375	335.393750		I	i
sw2893B-ms98-a-0071	B.98	335.393750	335.633375		don't	don't
sw2893B-ms98-a-0071	B.98	335.633375	335.793375		know	know
sw2893B-ms98-a-0071	B.98	335.793375	335.977625		the	the
sw2893B-ms98-a-0071	B.98	335.977625	336.132125		[silence]	[silence]
sw2893B-ms98-a-0071	B.98	336.132125	336.583375		difference	difference
sw2893B-ms98-a-0071	B.98	336.583375	336.844875		but	but
sw2893B-ms98-a-0071	B.100	336.844875	337.370375		[silence]	[silence]
sw2893B-ms98-a-0072	B.100	337.370375	339.924625		[silence]	[silence]
sw2893B-ms98-a-0073	B.100	339.924625	340.465625		[silence]	[silence]
sw2893B-ms98-a-0073	B.100	340.465625	340.734625		About	about
sw2893B-ms98-a-0073	B.100	340.734625	341.017750		weight	weight
sw2893B-ms98-a-0073	B.102	341.017750	341.441500		[silence]	[silence]
sw2893B-ms98-a-0074	B.102	341.441500	342.622375		[silence]	[silence]
sw2893B-ms98-a-0075	B.102	342.622375	343.171875		[silence]	[silence]
sw2893B-ms98-a-0075	B.102	343.171875	343.992375		Exercise	exercise
sw2893B-ms98-a-0075	B.104	343.992375	344.513375		[silence]	[silence]
sw2893B-ms98-a-0076	B.104	344.513375	353.071875		[silence]	[silence]
sw2893B-ms98-a-0077	B.104	353.071875	353.606375		[silence]	[silence]
sw2893B-ms98-a-0077	B.104	353.606375	353.851875		Well	well
sw2893B-ms98-a-0077	B.104	353.851875	354.181875		that's	that's
sw2893B-ms98-a-0077	B.104	354.181875	354.321875		what	what
sw2893B-ms98-a-0077	B.104	354.321875	354.491875		my	my
sw2893B-ms98-a-0077	B.104	354.491875	354.851875		friend	friend
sw2893B-ms98-a-0077	B.104	354.851875	355.128000		did	did
sw2893B-ms98-a-0077	B.106	355.128000	355.579750		[silence]	[silence]
sw2893B-ms98-a-0078	B.106	355.579750	357.046500		[silence]	[silence]
sw2893B-ms98-a-0079	B.106	357.046500	357.508750		[silence]	[silence]
sw2893B-ms98-a-0079	B.106	357.508750	357.606500		Well	well
sw2893B-ms98-a-0079	B.106	357.606500	357.856500		she	she
sw2893B-ms98-a-0079	B.106	357.856500	358.066875		was	was
sw2893B-ms98-a-0079	B.106	358.066875	358.396500		she	she
sw2893B-ms98-a-0079	B.106	358.396500	358.536500		was	was
sw2893B-ms98-a-0079	B.106	358.536500	358.716500		with	with
sw2893B-ms98-a-0079	B.106	358.716500	358.796500		the	the
sw2893B-ms98-a-0079	B.106	358.796500	359.116500		wheat	wheat
sw2893B-ms98-a-0079	B.106	359.116500	359.566500		germ	germ
sw2893B-ms98-a-0079	B.106	359.566500	359.696500		and	and
sw2893B-ms98-a-0079	B.106	359.696500	359.886500		all	all
sw2893B-ms98-a-0079	B.106	359.886500	359.956500		the	the
sw2893B-ms98-a-0079	B.106	359.956500	360.626500		vitamins	vitamins
sw2893B-ms98-a-0079	B.106	360.626500	360.726500		and	and
sw2893B-ms98-a-0079	B.106	360.726500	361.106500		everything	everything
sw2893B-ms98-a-0079	B.106	361.106500	361.686500		else	else
sw2893B-ms98-a-0079	B.106	361.686500	361.866500		and	and
sw2893B-ms98-a-0079	B.106	361.866500	362.126500		really	really
sw2893B-ms98-a-0079	B.106	362.126500	362.316500		we	we
sw2893B-ms98-a-0079	B.106	362.316500	362.524375		was	was
sw2893B-ms98-a-0079	B.106	362.524375	362.716500		[silence]	[silence]
sw2893B-ms98-a-0079	B.106	362.716500	362.816500		you	you
sw2893B-ms98-a-0079	B.106	362.816500	362.906500		know	know
sw2893B-ms98-a-0079	B.106	362.906500	363.166500		even	even
sw2893B-ms98-a-0079	B.106	363.166500	363.286500		with	with
sw2893B-ms98-a-0079	B.106	363.286500	363.436500		her	her
sw2893B-ms98-a-0079	B.106	363.436500	363.736500		taking	taking
sw2893B-ms98-a-0079	B.106	363.736500	363.906500		all	all
sw2893B-ms98-a-0079	B.106	363.906500	364.182750		those	those
sw2893B-ms98-a-0079	B.106	364.182750	364.310875		[silence]	[silence]
sw2893B-ms98-a-0079	B.106	364.310875	364.566500		e-	e[xpensive]-
sw2893B-ms98-a-0079	B.106	364.566500	365.316500		expensive	expensive
sw2893B-ms98-a-0079	B.106	365.316500	366.056500		vitamins	vitamins
sw2893B-ms98-a-0079	B.106	366.056500	366.146500		and	and
sw2893B-ms98-a-0079	B.106	366.146500	366.545250		stuff	stuff
sw2893B-ms98-a-0079	B.108	366.545250	366.633375		[silence]	[silence]
sw2893B-ms98-a-0080	B.108	366.633375	366.761875		[silence]	[silence]
sw2893B-ms98-a-0080	B.108	366.761875	366.913375		we	we
sw2893B-ms98-a-0080	B.108	366.913375	367.323375		stayed	stayed
sw2893B-ms98-a-0080	B.108	367.323375	367.493375		right	right
sw2893B-ms98-a-0080	B.108	367.493375	367.623375		on	on
sw2893B-ms98-a-0080	B.108	367.623375	367.693375		the	the
sw2893B-ms98-a-0080	B.108	367.693375	367.973375		same	same
sw2893B-ms98-a-0080	B.108	367.973375	368.325375		track	track
sw2893B-ms98-a-0080	B.108	368.325375	368.513375		with	with
sw2893B-ms98-a-0080	B.108	368.513375	368.703375		each	each
sw2893B-ms98-a-0080	B.108	368.703375	369.031250		other	other
sw2893B-ms98-a-0080	B.110	369.031250	369.174375		[silence]	[silence]
sw2893B-ms98-a-0080	B.110	369.174375	369.283375		you	you
sw2893B-ms98-a-0080	B.110	369.283375	369.521375		know	know
sw2893B-ms98-a-0080	B.110	369.521375	369.649375		[silence]	[silence]
sw2893B-ms98-a-0080	B.110	369.649375	370.213375		developing	developing
sw2893B-ms98-a-0080	B.110	370.213375	370.473375		and	and
sw2893B-ms98-a-0080	B.110	370.473375	370.956500		everything	everything
sw2893B-ms98-a-0080	B.110	370.956500	371.626875		[silence]	[silence]
sw2893B-ms98-a-0080	B.110	371.626875	371.713375		Now	now
sw2893B-ms98-a-0080	B.110	371.713375	371.883375		there	there
sw2893B-ms98-a-0080	B.110	371.883375	372.093375		you	you
sw2893B-ms98-a-0080	B.110	372.093375	372.412750		can	can
sw2893B-ms98-a-0080	B.110	372.412750	372.653375		take	take
sw2893B-ms98-a-0080	B.110	372.653375	372.863375		those	those
sw2893B-ms98-a-0080	B.110	372.863375	373.166125		uh	uh
sw2893B-ms98-a-0080	B.110	373.166125	373.433500		[silence]	[silence]
sw2893B-ms98-a-0080	B.110	373.433500	373.563375		what	what
sw2893B-ms98-a-0080	B.110	373.563375	373.703375		is	is
sw2893B-ms98-a-0080	B.110	373.703375	373.871125		it	it
sw2893B-ms98-a-0080	B.112	373.871125	374.492375		[silence]	[silence]
sw2893B-ms98-a-0081	B.112	374.492375	374.752375		[silence]	[silence]
sw2893B-ms98-a-0081	B.112	374.752375	375.392375		Steroids	steroids
sw2893B-ms98-a-0081	B.112	375.392375	375.709500		yeah	yeah
sw2893B-ms98-a-0081	B.112	375.709500	375.812375		I	i
sw2893B-ms98-a-0081	B.112	375.812375	376.072375		couldn't	couldn't
sw2893B-ms98-a-0081	B.112	376.072375	376.232375		think	think
sw2893B-ms98-a-0081	B.114	376.232375	376.322375		I	i
sw2893B-ms98-a-0081	B.114	376.322375	376.432375		was	was
sw2893B-ms98-a-0081	B.114	376.432375	376.572375	<SUB>	goin-	going
sw2893B-ms98-a-0081	B.114	376.572375	376.858125		I	i
sw2893B-ms98-a-0081	B.114	376.858125	377.102375		was	was
sw2893B-ms98-a-0081	B.114	377.102375	377.322375		trying	trying
sw2893B-ms98-a-0081	B.114	377.322375	377.402375		to	to
sw2893B-ms98-a-0081	B.114	377.402375	377.542375		say	say
sw2893B-ms98-a-0081	B.114	377.542375	378.089875		hemorrhoids	hemorrhoids
sw2893B-ms98-a-0081	B.114	378.089875	379.572375		[laughter]	[laughter]
sw2893B-ms98-a-0081	B.114	379.572375	379.712375		no	no
sw2893B-ms98-a-0081	B.114	379.712375	379.772375		I	i
sw2893B-ms98-a-0081	B.114	379.772375	379.872375		was	was
sw2893B-ms98-a-0081	B.114	379.872375	380.132375		trying	trying
sw2893B-ms98-a-0081	B.114	380.132375	380.242375		to	to
sw2893B-ms98-a-0081	B.114	380.242375	380.352375		say	say
sw2893B-ms98-a-0081	B.114	380.352375	380.609875	<SUB>	hem-	[hem/hormones]
sw2893B-ms98-a-0081	B.114	380.609875	380.982750		[silence]	[silence]
sw2893B-ms98-a-0081	B.114	380.982750	381.777625		hormones	hormones
sw2893B-ms98-a-0081	B.116	381.777625	382.340625		[silence]	[silence]
sw2893B-ms98-a-0081	B.116	382.340625	382.641000		Yeah	yeah
sw2893B-ms98-a-0081	B.116	382.641000	383.205625		hormones	hormones
sw2893B-ms98-a-0081	B.116	383.205625	383.675000		[silence]	[silence]
sw2893B-ms98-a-0081	B.116	383.675000	383.832375		but	but
sw2893B-ms98-a-0081	B.116	383.832375	384.188375		yeah	yeah
sw2893B-ms98-a-0081	B.116	384.188375	384.459625		[silence]	[silence]
sw2893B-ms98-a-0081	B.116	384.459625	384.767625		uh	uh
sw2893B-ms98-a-0081	B.116	384.767625	385.666375		steroids	steroids
sw2893B-ms98-a-0081	B.116	385.666375	386.293500		[silence]	[silence]
sw2893B-ms98-a-0081	B.116	386.293500	386.562375		But	but
sw2893B-ms98-a-0081	B.116	386.562375	386.782375		I	i
sw2893B-ms98-a-0081	B.116	386.782375	386.994625		stay	stay
sw2893B-ms98-a-0081	B.116	386.994625	387.189500	<DEL>	---	away
sw2893B-ms98-a-0081	B.116	387.189500	387.362375		from	from
sw2893B-ms98-a-0081	B.116	387.362375	387.552375		that	that
sw2893B-ms98-a-0081	B.116	387.552375	387.965750		crap	crap
sw2893B-ms98-a-0081	B.118	387.965750	388.708125		[silence]	[silence]
sw2893B-ms98-a-0082	B.118	388.708125	390.032000		[silence]	[silence]
sw2893B-ms98-a-0082	B.118	390.032000	390.424625	<DEL>	---	hm
sw2893B-ms98-a-0082	B.118	390.424625	390.525375		[silence]	[silence]
sw2893B-ms98-a-0083	B.118	390.525375	391.073125		[silence]	[silence]
sw2893B-ms98-a-0083	B.118	391.073125	391.235375		Oh	oh
sw2893B-ms98-a-0083	B.118	391.235375	391.387375		I	i
sw2893B-ms98-a-0083	B.118	391.387375	391.749625		wouldn't	wouldn't
sw2893B-ms98-a-0083	B.118	391.749625	392.374875		[laughter]	[laughter]
sw2893B-ms98-a-0083	B.118	392.374875	392.515750		I	i
sw2893B-ms98-a-0083	B.118	392.515750	392.665375		could	could
sw2893B-ms98-a-0083	B.118	392.665375	392.915375		just	just
sw2893B-ms98-a-0083	B.118	392.915375	393.195375		see	see
sw2893B-ms98-a-0083	B.118	393.195375	393.465375		hair	hair
sw2893B-ms98-a-0083	B.118	393.465375	393.815375		start	start
sw2893B-ms98-a-0083	B.118	393.815375	394.175375		growing	growing
sw2893B-ms98-a-0083	B.118	394.175375	394.315375		out	out
sw2893B-ms98-a-0083	B.118	394.315375	394.375375		of	of
sw2893B-ms98-a-0083	B.118	394.375375	394.585375		my	my
sw2893B-ms98-a-0083	B.118	394.585375	394.785375		upper	upper
sw2893B-ms98-a-0083	B.118	394.785375	395.055375		lip	lip
sw2893B-ms98-a-0083	B.118	395.055375	395.165375		or	or
sw2893B-ms98-a-0083	B.118	395.165375	395.757375		something	something
sw2893B-ms98-a-0083	B.122	395.757375	396.345000		[silence]	[silence]
sw2893B-ms98-a-0084	B.122	396.345000	396.876750		[silence]	[silence]
sw2893B-ms98-a-0084	B.122	396.876750	397.145000		[laughter]	[laughter]
sw2893B-ms98-a-0084	B.122	397.145000	397.635625		[silence]	[silence]
sw2893B-ms98-a-0085	B.122	397.635625	404.503875		[silence]	[silence]
sw2893B-ms98-a-0086	B.122	404.503875	404.974625		[silence]	[silence]
sw2893B-ms98-a-0086	B.122	404.974625	405.610625		Really	really
sw2893B-ms98-a-0086	B.124	405.610625	406.502750		[silence]	[silence]
sw2893B-ms98-a-0087	B.124	406.502750	407.380750		[silence]	[silence]
sw2893B-ms98-a-0087	B.124	407.380750	407.825625	<SUB>	Ugh	ooh
sw2893B-ms98-a-0087	B.126	407.825625	408.357125		[silence]	[silence]
sw2893B-ms98-a-0088	B.126	408.357125	408.743250		[silence]	[silence]
sw2893B-ms98-a-0088	B.126	408.743250	408.817125		I	i
sw2893B-ms98-a-0088	B.126	408.817125	408.987125		didn't	didn't
sw2893B-ms98-a-0088	B.126	408.987125	409.107125		know	know
sw2893B-ms98-a-0088	B.126	409.107125	409.197125		it	it
sw2893B-ms98-a-0088	B.126	409.197125	409.387125		did	did
sw2893B-ms98-a-0088	B.126	409.387125	409.757125		that	that
sw2893B-ms98-a-0088	B.128	409.757125	410.274625		[silence]	[silence]
sw2893B-ms98-a-0089	B.128	410.274625	416.871375		[silence]	[silence]
sw2893B-ms98-a-0090	B.128	416.871375	417.406250		[silence]	[silence]
sw2893B-ms98-a-0090	B.128	417.406250	417.629000		Yeah	yeah
sw2893B-ms98-a-0090	B.128	417.629000	417.960375		[silence]	[silence]
sw2893B-ms98-a-0090	B.128	417.960375	418.141375		but	but
sw2893B-ms98-a-0090	B.128	418.141375	418.291375		I've	i've
sw2893B-ms98-a-0090	B.128	418.291375	418.511375		been	been
sw2893B-ms98-a-0090	B.128	418.511375	418.731375		wanting	wanting
sw2893B-ms98-a-0090	B.128	418.731375	418.811375		to	to
sw2893B-ms98-a-0090	B.128	418.811375	418.961375		get	get
sw2893B-ms98-a-0090	B.128	418.961375	419.121375		me	me
sw2893B-ms98-a-0090	B.128	419.121375	419.181375		a	a
sw2893B-ms98-a-0090	B.128	419.181375	419.972750		bicycle	bicycle
sw2893B-ms98-a-0090	B.128	419.972750	420.210000		[silence]	[silence]
sw2893B-ms98-a-0090	B.128	420.210000	420.331375		or	or
sw2893B-ms98-a-0090	B.128	420.331375	420.391375		a	a
sw2893B-ms98-a-0090	B.128	420.391375	420.781375		bike	bike
sw2893B-ms98-a-0090	B.128	420.781375	420.911375		I've	i've
sw2893B-ms98-a-0090	B.128	420.911375	421.051375		been	been
sw2893B-ms98-a-0090	B.128	421.051375	421.231375		wanting	wanting
sw2893B-ms98-a-0090	B.128	421.231375	421.291375		to	to
sw2893B-ms98-a-0090	B.128	421.291375	421.401375		get	get
sw2893B-ms98-a-0090	B.128	421.401375	421.431375		a	a
sw2893B-ms98-a-0090	B.128	421.431375	421.671375		ten	ten
sw2893B-ms98-a-0090	B.128	421.671375	422.011375		speed	speed
sw2893B-ms98-a-0090	B.128	422.011375	422.121375		to	to
sw2893B-ms98-a-0090	B.128	422.121375	422.311375		ride	ride
sw2893B-ms98-a-0090	B.128	422.311375	422.491375		around	around
sw2893B-ms98-a-0090	B.128	422.491375	422.591375		I'm	i'm
sw2893B-ms98-a-0090	B.128	422.591375	422.941375		scared	scared
sw2893B-ms98-a-0090	B.128	422.941375	423.061375		to	to
sw2893B-ms98-a-0090	B.128	423.061375	423.543250		run	run
sw2893B-ms98-a-0090	B.128	423.543250	423.781375		for	for
sw2893B-ms98-a-0090	B.128	423.781375	424.781375		dogs	dogs
sw2893B-ms98-a-0090	B.128	424.781375	424.991375		Course	course
sw2893B-ms98-a-0090	B.128	424.991375	425.031375		I	i
sw2893B-ms98-a-0090	B.128	425.031375	425.201375		know	know
sw2893B-ms98-a-0090	B.128	425.201375	425.531375		dogs	dogs
sw2893B-ms98-a-0090	B.128	425.531375	425.631375		can	can
sw2893B-ms98-a-0090	B.128	425.631375	425.841375		get	get
sw2893B-ms98-a-0090	B.128	425.841375	425.901375		you	you
sw2893B-ms98-a-0090	B.128	425.901375	426.021375		on	on
sw2893B-ms98-a-0090	B.128	426.021375	426.081375		a	a
sw2893B-ms98-a-0090	B.128	426.081375	426.331375		bike	bike
sw2893B-ms98-a-0090	B.128	426.331375	426.701375		too	too
sw2893B-ms98-a-0090	B.128	426.701375	426.911750		but	but
sw2893B-ms98-a-0090	B.130	426.911750	427.560000		[silence]	[silence]
sw2893B-ms98-a-0091	B.130	427.560000	428.421000		[silence]	[silence]
sw2893B-ms98-a-0091	B.130	428.421000	428.690000		seems	seems
sw2893B-ms98-a-0091	B.130	428.690000	428.880000		like	like
sw2893B-ms98-a-0091	B.130	428.880000	428.980000		it	it
sw2893B-ms98-a-0091	B.132	428.980000	429.857250		[silence]	[silence]
sw2893B-ms98-a-0092	B.132	429.857250	430.323250		[silence]	[silence]
sw2893B-ms98-a-0092	B.132	430.323250	430.757250		Yeah	yeah
sw2893B-ms98-a-0092	B.134	430.757250	431.320625		[laughter]	[laughter]
sw2893B-ms98-a-0092	B.134	431.320625	431.399875		[silence]	[silence]
sw2893B-ms98-a-0093	B.134	431.399875	437.220625		[silence]	[silence]
sw2893B-ms98-a-0094	B.134	437.220625	437.615000		[silence]	[silence]
sw2893B-ms98-a-0094	B.134	437.615000	437.778000		Well	well
sw2893B-ms98-a-0094	B.134	437.778000	438.078000		they	they
sw2893B-ms98-a-0094	B.134	438.078000	438.846375		[silence]	[silence]
sw2893B-ms98-a-0094	B.134	438.846375	439.123375		yeah	yeah
sw2893B-ms98-a-0094	B.134	439.123375	439.330625		they've	they've
sw2893B-ms98-a-0094	B.134	439.330625	439.630625		come	come
sw2893B-ms98-a-0094	B.134	439.630625	439.890625		up	up
sw2893B-ms98-a-0094	B.134	439.890625	440.069500		that	that
sw2893B-ms98-a-0094	B.134	440.069500	440.871750		[noise]	[noise]
sw2893B-ms98-a-0094	B.134	440.871750	441.393125		running	running
sw2893B-ms98-a-0094	B.134	441.393125	441.713250		[silence]	[silence]
sw2893B-ms98-a-0094	B.134	441.713250	441.860625		is	is
sw2893B-ms98-a-0094	B.134	441.860625	442.060625		not	not
sw2893B-ms98-a-0094	B.134	442.060625	442.160625		as	as
sw2893B-ms98-a-0094	B.134	442.160625	442.350625		good	good
sw2893B-ms98-a-0094	B.134	442.350625	442.590625		for	for
sw2893B-ms98-a-0094	B.134	442.590625	442.720625		you	you
sw2893B-ms98-a-0094	B.134	442.720625	442.840625		as	as
sw2893B-ms98-a-0094	B.134	442.840625	442.950625		they	they
sw2893B-ms98-a-0094	B.134	442.950625	443.200625		thought	thought
sw2893B-ms98-a-0094	B.134	443.200625	443.270625		it	it
sw2893B-ms98-a-0094	B.134	443.270625	443.539625		was	was
sw2893B-ms98-a-0094	B.136	443.539625	444.030375		[silence]	[silence]
sw2893B-ms98-a-0095	B.136	444.030375	447.905000		[silence]	[silence]
sw2893B-ms98-a-0096	B.136	447.905000	448.384875		[silence]	[silence]
sw2893B-ms98-a-0096	B.136	448.384875	448.593250		Yeah	yeah
sw2893B-ms98-a-0096	B.136	448.593250	448.925125		it's	it's
sw2893B-ms98-a-0096	B.136	448.925125	449.195000		real	real
sw2893B-ms98-a-0096	B.136	449.195000	449.445000		hard	hard
sw2893B-ms98-a-0096	B.136	449.445000	449.595000		on	on
sw2893B-ms98-a-0096	B.136	449.595000	449.725000		your	your
sw2893B-ms98-a-0096	B.136	449.725000	450.125000		legs	legs
sw2893B-ms98-a-0096	B.136	450.125000	450.325000		and	and
sw2893B-ms98-a-0096	B.136	450.325000	450.445000		it's	it's
sw2893B-ms98-a-0096	B.136	450.445000	450.705000		hard	hard
sw2893B-ms98-a-0096	B.136	450.705000	451.060250		on	on
sw2893B-ms98-a-0096	B.136	451.060250	451.531125		women	women
sw2893B-ms98-a-0096	B.136	451.531125	451.996000		[silence]	[silence]
sw2893B-ms98-a-0097	B.136	451.996000	452.528000		[silence]	[silence]
sw2893B-ms98-a-0097	B.136	452.528000	452.676000		And	and
sw2893B-ms98-a-0097	B.136	452.676000	452.806000		it	it
sw2893B-ms98-a-0097	B.136	452.806000	452.956000		it	it
sw2893B-ms98-a-0097	B.136	452.956000	453.166000		just	just
sw2893B-ms98-a-0097	B.136	453.166000	453.396000		makes	makes
sw2893B-ms98-a-0097	B.136	453.396000	453.696000		stuff	stuff
sw2893B-ms98-a-0097	B.136	453.696000	453.996000		move	move
sw2893B-ms98-a-0097	B.136	453.996000	454.493125		down	down
sw2893B-ms98-a-0097	B.138	454.493125	455.163625		[silence]	[silence]
sw2893B-ms98-a-0097	B.138	455.163625	455.326000		And	and
sw2893B-ms98-a-0097	B.138	455.326000	455.657000		uh	uh
sw2893B-ms98-a-0097	B.138	455.657000	456.007250		[silence]	[silence]
sw2893B-ms98-a-0097	B.138	456.007250	456.136000		but	but
sw2893B-ms98-a-0097	B.138	456.136000	456.256000	<SUB>	I	i-
sw2893B-ms98-a-0097	B.138	456.256000	456.571125	<SUB>	I	i-
sw2893B-ms98-a-0097	B.138	456.571125	456.782125		I	i
sw2893B-ms98-a-0097	B.138	456.782125	457.046000		like	like
sw2893B-ms98-a-0097	B.138	457.046000	457.528875		jogging	jogging
sw2893B-ms98-a-0097	B.138	457.528875	457.673250		[silence]	[silence]
sw2893B-ms98-a-0097	B.138	457.673250	457.778625		I	i
sw2893B-ms98-a-0097	B.138	457.778625	458.025625		don't	don't
sw2893B-ms98-a-0097	B.138	458.025625	458.424875		[silence]	[silence]
sw2893B-ms98-a-0097	B.138	458.424875	458.706000		mind	mind
sw2893B-ms98-a-0097	B.138	458.706000	458.966000		that	that
sw2893B-ms98-a-0097	B.138	458.966000	459.056000		I	i
sw2893B-ms98-a-0097	B.138	459.056000	459.156000		can	can
sw2893B-ms98-a-0097	B.138	459.156000	459.326000		get	get
sw2893B-ms98-a-0097	B.138	459.326000	459.496000		out	out
sw2893B-ms98-a-0097	B.138	459.496000	459.586000		and	and
sw2893B-ms98-a-0097	B.138	459.586000	459.746000		do	do
sw2893B-ms98-a-0097	B.138	459.746000	460.020625		that	that
sw2893B-ms98-a-0097	B.140	460.020625	460.487750		[silence]	[silence]
sw2893B-ms98-a-0097	B.140	460.487750	460.586000		as	as
sw2893B-ms98-a-0097	B.140	460.586000	460.716000		long	long
sw2893B-ms98-a-0097	B.140	460.716000	460.816000		as	as
sw2893B-ms98-a-0097	B.140	460.816000	460.966000		it's	it's
sw2893B-ms98-a-0097	B.140	460.966000	461.136000		not	not
sw2893B-ms98-a-0097	B.140	461.136000	461.466000		hot	hot
sw2893B-ms98-a-0097	B.140	461.466000	461.596000		If	if
sw2893B-ms98-a-0097	B.140	461.596000	461.706000		it's	it's
sw2893B-ms98-a-0097	B.140	461.706000	462.034125		hot	hot
sw2893B-ms98-a-0097	B.140	462.034125	462.126000		you	you
sw2893B-ms98-a-0097	B.140	462.126000	462.396000		can't	can't
sw2893B-ms98-a-0097	B.140	462.396000	462.456000		do	do
sw2893B-ms98-a-0097	B.140	462.456000	462.678375		that	that
sw2893B-ms98-a-0097	B.140	462.678375	463.128750		[silence]	[silence]
sw2893B-ms98-a-0098	B.140	463.128750	463.246250		[silence]	[silence]
sw2893B-ms98-a-0098	B.140	463.246250	463.328750		But	but
sw2893B-ms98-a-0098	B.140	463.328750	463.458750		in	in
sw2893B-ms98-a-0098	B.140	463.458750	463.578750		the	the
sw2893B-ms98-a-0098	B.140	463.578750	464.017375		rain	rain
sw2893B-ms98-a-0098	B.140	464.017375	464.118750		oh	oh
sw2893B-ms98-a-0098	B.140	464.118750	464.278750		I	i
sw2893B-ms98-a-0098	B.140	464.278750	464.488750		love	love
sw2893B-ms98-a-0098	B.140	464.488750	464.548750		to	to
sw2893B-ms98-a-0098	B.140	464.548750	464.778750		run	run
sw2893B-ms98-a-0098	B.140	464.778750	464.878750		in	in
sw2893B-ms98-a-0098	B.140	464.878750	464.978750		the	the
sw2893B-ms98-a-0098	B.140	464.978750	465.345375		rain	rain
sw2893B-ms98-a-0098	B.140	465.345375	465.499750		[silence]	[silence]
sw2893B-ms98-a-0098	B.140	465.499750	465.740375		just	just
sw2893B-ms98-a-0098	B.140	465.740375	465.970125		[silence]	[silence]
sw2893B-ms98-a-0098	B.140	465.970125	466.078750		you	you
sw2893B-ms98-a-0098	B.140	466.078750	466.208750		know	know
sw2893B-ms98-a-0098	B.140	466.208750	466.318750		be	be
sw2893B-ms98-a-0098	B.140	466.318750	466.608750		careful	careful
sw2893B-ms98-a-0098	B.140	466.608750	466.748750		not	not
sw2893B-ms98-a-0098	B.140	466.748750	466.808750		to	to
sw2893B-ms98-a-0098	B.140	466.808750	467.209625		slide	slide
sw2893B-ms98-a-0098	B.142	467.209625	467.576625		[silence]	[silence]
sw2893B-ms98-a-0099	B.142	467.576625	467.872375		[silence]	[silence]
sw2893B-ms98-a-0099	B.142	467.872375	467.986625		But	but
sw2893B-ms98-a-0099	B.142	467.986625	468.076625		you	you
sw2893B-ms98-a-0099	B.142	468.076625	468.306625		can't	can't
sw2893B-ms98-a-0099	B.142	468.306625	468.496625		ride	ride
sw2893B-ms98-a-0099	B.142	468.496625	468.586625		your	your
sw2893B-ms98-a-0099	B.142	468.586625	468.836625		bike	bike
sw2893B-ms98-a-0099	B.142	468.836625	468.926625		at	at
sw2893B-ms98-a-0099	B.142	468.926625	469.116625		all	all
sw2893B-ms98-a-0099	B.142	469.116625	469.206625		in	in
sw2893B-ms98-a-0099	B.142	469.206625	469.296625		the	the
sw2893B-ms98-a-0099	B.142	469.296625	469.576625		rain	rain
sw2893B-ms98-a-0099	B.142	469.576625	469.836625		can	can
sw2893B-ms98-a-0099	B.142	469.836625	470.002125		you	you
sw2893B-ms98-a-0099	B.144	470.002125	470.506250		[silence]	[silence]
sw2893B-ms98-a-0100	B.144	470.506250	471.096250		[silence]	[silence]
sw2893B-ms98-a-0100	B.144	471.096250	471.256250		You	you
sw2893B-ms98-a-0100	B.144	471.256250	471.670375		slide	slide
sw2893B-ms98-a-0100	B.146	471.670375	472.235750		[silence]	[silence]
sw2893B-ms98-a-0101	B.146	472.235750	475.895000		[silence]	[silence]
sw2893B-ms98-a-0102	B.146	475.895000	476.225000		[silence]	[silence]
sw2893B-ms98-a-0102	B.146	476.225000	476.663500		Uh-huh	uh-huh
sw2893B-ms98-a-0102	B.148	476.663500	477.594125		[silence]	[silence]
sw2893B-ms98-a-0103	B.148	477.594125	478.103750		[silence]	[silence]
sw2893B-ms98-a-0103	B.148	478.103750	478.562875		Yeah	yeah
sw2893B-ms98-a-0103	B.148	478.562875	479.443000		[silence]	[silence]
sw2893B-ms98-a-0103	B.148	479.443000	479.694125		Oh	oh
sw2893B-ms98-a-0103	B.148	479.694125	479.834125		I	i
sw2893B-ms98-a-0103	B.148	479.834125	480.004125		when	when
sw2893B-ms98-a-0103	B.148	480.004125	480.274625		I	i
sw2893B-ms98-a-0103	B.148	480.274625	480.447875		[silence]	[silence]
sw2893B-ms98-a-0103	B.148	480.447875	480.644125		did	did
sw2893B-ms98-a-0103	B.148	480.644125	480.844125		ride	ride
sw2893B-ms98-a-0103	B.148	480.844125	480.994125		my	my
sw2893B-ms98-a-0103	B.148	480.994125	481.364125		friends	friends
sw2893B-ms98-a-0103	B.148	481.364125	481.734125		bike	bike
sw2893B-ms98-a-0103	B.148	481.734125	481.914125		that	that
sw2893B-ms98-a-0103	B.148	481.914125	482.104125		one	one
sw2893B-ms98-a-0103	B.148	482.104125	482.476250		time	time
sw2893B-ms98-a-0103	B.148	482.476250	483.131625		[silence]	[silence]
sw2893B-ms98-a-0103	B.148	483.131625	483.294125		I	i
sw2893B-ms98-a-0103	B.148	483.294125	483.524125		had	had
sw2893B-ms98-a-0103	B.148	483.524125	483.821750		uh	uh
sw2893B-ms98-a-0103	B.148	483.821750	484.232250		[silence]	[silence]
sw2893B-ms98-a-0103	B.148	484.232250	484.334125		I	i
sw2893B-ms98-a-0103	B.148	484.334125	484.514125		don't	don't
sw2893B-ms98-a-0103	B.148	484.514125	484.624125		know	know
sw2893B-ms98-a-0103	B.148	484.624125	484.794125		what	what
sw2893B-ms98-a-0103	B.148	484.794125	484.864125		I	i
sw2893B-ms98-a-0103	B.148	484.864125	485.004125		was	was
sw2893B-ms98-a-0103	B.148	485.004125	485.154125		trying	trying
sw2893B-ms98-a-0103	B.148	485.154125	485.224125		to	to
sw2893B-ms98-a-0103	B.148	485.224125	485.304125		do	do
sw2893B-ms98-a-0103	B.148	485.304125	485.334125		I	i
sw2893B-ms98-a-0103	B.148	485.334125	485.424125		was	was
sw2893B-ms98-a-0103	B.148	485.424125	485.624125		trying	trying
sw2893B-ms98-a-0103	B.148	485.624125	485.684125		to	to
sw2893B-ms98-a-0103	B.148	485.684125	485.824125		make	make
sw2893B-ms98-a-0103	B.148	485.824125	485.854125		a	a
sw2893B-ms98-a-0103	B.148	485.854125	486.124125		U	U
sw2893B-ms98-a-0103	B.148	486.124125	486.394125		turn	turn
sw2893B-ms98-a-0103	B.148	486.394125	486.584125		and	and
sw2893B-ms98-a-0103	B.148	486.584125	486.664125		I	i
sw2893B-ms98-a-0103	B.148	486.664125	486.954125		never	never
sw2893B-ms98-a-0103	B.148	486.954125	487.204125		could	could
sw2893B-ms98-a-0103	B.148	487.204125	487.424125		make	make
sw2893B-ms98-a-0103	B.148	487.424125	487.464125		a	a
sw2893B-ms98-a-0103	B.148	487.464125	487.644125		U	U
sw2893B-ms98-a-0103	B.148	487.644125	487.854125		turn	turn
sw2893B-ms98-a-0103	B.148	487.854125	487.994125		in	in
sw2893B-ms98-a-0103	B.148	487.994125	488.054125		a	a
sw2893B-ms98-a-0103	B.148	488.054125	488.404125		bike	bike
sw2893B-ms98-a-0103	B.148	488.404125	488.514125		I	i
sw2893B-ms98-a-0103	B.148	488.514125	488.634125		can	can
sw2893B-ms98-a-0103	B.148	488.634125	488.704125		do	do
sw2893B-ms98-a-0103	B.148	488.704125	488.844125		it	it
sw2893B-ms98-a-0103	B.148	488.844125	488.924125		in	in
sw2893B-ms98-a-0103	B.148	488.924125	489.105500		my	my
sw2893B-ms98-a-0103	B.148	489.105500	489.479750		car	car
sw2893B-ms98-a-0103	B.148	489.479750	489.846000		[silence]	[silence]
sw2893B-ms98-a-0104	B.148	489.846000	490.187500		[silence]	[silence]
sw2893B-ms98-a-0104	B.148	490.187500	490.256000		but	but
sw2893B-ms98-a-0104	B.148	490.256000	490.296000		I	i
sw2893B-ms98-a-0104	B.148	490.296000	490.536000		tried	tried
sw2893B-ms98-a-0104	B.148	490.536000	490.596000		to	to
sw2893B-ms98-a-0104	B.148	490.596000	490.656000		do	do
sw2893B-ms98-a-0104	B.148	490.656000	490.736000		it	it
sw2893B-ms98-a-0104	B.148	490.736000	490.846000		on	on
sw2893B-ms98-a-0104	B.148	490.846000	491.046000		that	that
sw2893B-ms98-a-0104	B.148	491.046000	491.296000		ten	ten
sw2893B-ms98-a-0104	B.148	491.296000	491.626000		speed	speed
sw2893B-ms98-a-0104	B.148	491.626000	491.766000		and	and
sw2893B-ms98-a-0104	B.148	491.766000	492.213375		wrecked	wrecked
sw2893B-ms98-a-0104	B.148	492.213375	492.336000		and	and
sw2893B-ms98-a-0104	B.148	492.336000	492.865750		[silence]	[silence]
sw2893B-ms98-a-0104	B.148	492.865750	492.976000		I	i
sw2893B-ms98-a-0104	B.148	492.976000	493.246000		told	told
sw2893B-ms98-a-0104	B.148	493.246000	493.416000		her	her
sw2893B-ms98-a-0104	B.148	493.416000	493.506000		a	a
sw2893B-ms98-a-0104	B.148	493.506000	493.816000		dog	dog
sw2893B-ms98-a-0104	B.148	493.816000	494.006000		was	was
sw2893B-ms98-a-0104	B.148	494.006000	494.496000		chasing	chasing
sw2893B-ms98-a-0104	B.148	494.496000	494.683250		me	me
sw2893B-ms98-a-0104	B.148	494.683250	496.301000		[laughter]	[laughter]
sw2893B-ms98-a-0104	B.148	496.301000	496.431875		But	but
sw2893B-ms98-a-0104	B.148	496.431875	496.526000		I	i
sw2893B-ms98-a-0104	B.148	496.526000	496.776000		wrecked	wrecked
sw2893B-ms98-a-0104	B.148	496.776000	496.886000		it	it
sw2893B-ms98-a-0104	B.148	496.886000	497.136000		into	into
sw2893B-ms98-a-0104	B.148	497.136000	497.196000		the	the
sw2893B-ms98-a-0104	B.148	497.196000	497.586000		curb	curb
sw2893B-ms98-a-0104	B.148	497.586000	497.646000		I	i
sw2893B-ms98-a-0104	B.148	497.646000	497.876000		didn't	didn't
sw2893B-ms98-a-0104	B.148	497.876000	498.066000		hurt	hurt
sw2893B-ms98-a-0104	B.148	498.066000	498.196000		it	it
sw2893B-ms98-a-0104	B.148	498.196000	498.376000		too	too
sw2893B-ms98-a-0104	B.148	498.376000	498.768625		bad	bad
sw2893B-ms98-a-0104	B.148	498.768625	500.139000		[silence]	[silence]
sw2893B-ms98-a-0104	B.148	500.139000	500.356875		I	i
sw2893B-ms98-a-0104	B.148	500.356875	500.876000		scratched	scratched
sw2893B-ms98-a-0104	B.148	500.876000	501.076000		it	it
sw2893B-ms98-a-0104	B.148	501.076000	501.236000		on	on
sw2893B-ms98-a-0104	B.148	501.236000	501.474000		the	the
sw2893B-ms98-a-0104	B.148	501.474000	502.276625		[silence]	[silence]
sw2893B-ms98-a-0104	B.148	502.276625	502.592625		the	the
sw2893B-ms98-a-0104	B.148	502.592625	503.109375		[silence]	[silence]
sw2893B-ms98-a-0105	B.148	503.109375	504.018250		[silence]	[silence]
sw2893B-ms98-a-0105	B.148	504.018250	504.259375		oh	oh
sw2893B-ms98-a-0105	B.148	504.259375	504.439375		she	she
sw2893B-ms98-a-0105	B.148	504.439375	504.539375		had	had
sw2893B-ms98-a-0105	B.148	504.539375	504.679375		some	some
sw2893B-ms98-a-0105	B.148	504.679375	504.819375		kind	kind
sw2893B-ms98-a-0105	B.148	504.819375	504.879375		of	of
sw2893B-ms98-a-0105	B.148	504.879375	505.289375		fender	fender
sw2893B-ms98-a-0105	B.148	505.289375	505.529375		thing	thing
sw2893B-ms98-a-0105	B.148	505.529375	505.749375		going	going
sw2893B-ms98-a-0105	B.148	505.749375	505.909375		over	over
sw2893B-ms98-a-0105	B.148	505.909375	505.969375		the	the
sw2893B-ms98-a-0105	B.148	505.969375	506.209375		back	back
sw2893B-ms98-a-0105	B.148	506.209375	506.509375		tire	tire
sw2893B-ms98-a-0105	B.148	506.509375	506.629875		I	i
sw2893B-ms98-a-0105	B.148	506.629875	507.004625		think	think
sw2893B-ms98-a-0105	B.150	507.004625	508.206000		[silence]	[silence]
sw2893B-ms98-a-0105	B.150	508.206000	508.364875		But	but
sw2893B-ms98-a-0105	B.150	508.364875	508.532875		oh	oh
sw2893B-ms98-a-0105	B.150	508.532875	508.860250		well	well
sw2893B-ms98-a-0105	B.150	508.860250	509.869500		[silence]	[silence]
sw2893B-ms98-a-0106	B.150	509.869500	510.946500		[silence]	[silence]
sw2893B-ms98-a-0106	B.150	510.946500	511.434875		Anyway	anyway
sw2893B-ms98-a-0106	B.150	511.434875	511.619375		[silence]	[silence]
sw2893B-ms98-a-0106	B.150	511.619375	511.769500		it's	it's
sw2893B-ms98-a-0106	B.150	511.769500	511.909500		been	been
sw2893B-ms98-a-0106	B.150	511.909500	512.169500		nice	nice
sw2893B-ms98-a-0106	B.150	512.169500	512.519500		talking	talking
sw2893B-ms98-a-0106	B.150	512.519500	512.746875		to	to
sw2893B-ms98-a-0106	B.150	512.746875	512.929750		you	you
sw2893B-ms98-a-0106	B.152	512.929750	513.696000		[silence]	[silence]
sw2893B-ms98-a-0107	B.152	513.696000	514.255875		[silence]	[silence]
sw2893B-ms98-a-0107	B.152	514.255875	514.396000		And	and
sw2893B-ms98-a-0107	B.152	514.396000	514.633125		uh	uh
sw2893B-ms98-a-0107	B.154	514.633125	515.692500		[silence]	[silence]
sw2893B-ms98-a-0108	B.154	515.692500	516.340875		[silence]	[silence]
sw2893B-ms98-a-0108	B.154	516.340875	516.798875		[laughter]	[laughter]
sw2893B-ms98-a-0108	B.154	516.798875	517.047500		Thank	thank
sw2893B-ms98-a-0108	B.154	517.047500	517.284500		you	you
sw2893B-ms98-a-0108	B.154	517.284500	517.800625		[laughter]	[laughter]
sw2893B-ms98-a-0108	B.154	517.800625	518.166375		she's	she's
sw2893B-ms98-a-0108	B.154	518.166375	518.486500		[silence]	[silence]
sw2893B-ms98-a-0108	B.154	518.486500	518.619000		it	it
sw2893B-ms98-a-0108	B.154	518.619000	518.788500		[silence]	[silence]
sw2893B-ms98-a-0108	B.154	518.788500	519.052500		she's	she's
sw2893B-ms98-a-0108	B.154	519.052500	519.371875		good	good
sw2893B-ms98-a-0108	B.154	519.371875	519.944375		[silence]	[silence]
sw2893B-ms98-a-0108	B.154	519.944375	520.252500		Anyway	anyway
sw2893B-ms98-a-0108	B.154	520.252500	520.412500		have	have
sw2893B-ms98-a-0108	B.154	520.412500	520.672500		fun	fun
sw2893B-ms98-a-0108	B.154	520.672500	521.433625		exercising	exercising
sw2893B-ms98-a-0108	B.156	521.433625	521.914625		[silence]	[silence]
sw2893B-ms98-a-0108	B.156	521.914625	522.059625		All	all
sw2893B-ms98-a-0108	B.156	522.059625	522.323625		right	right
sw2893B-ms98-a-0108	B.156	522.323625	522.492000		[silence]	[silence]
sw2893B-ms98-a-0108	B.156	522.492000	522.859625		bye-bye	bye-bye
sw2893B-ms98-a-0108	B.156	522.859625	523.172500		[silence]	[silence]
sw2893B-ms98-a-0109	B.156	523.172500	523.361375		[silence]	[silence]
sw2893B-ms98-a-0109	B.156	523.361375	523.449750		[noise]	[noise]
sw2893B-ms98-a-0109	B.156	523.449750	524.262875		[silence]	[silence]
