sw2871A-ms98-a-0001	A.1	0.000000	0.580000		[silence]	[silence]
sw2871A-ms98-a-0001	A.1	0.580000	0.730000		[noise]	[noise]
sw2871A-ms98-a-0001	A.1	0.730000	0.877000		[silence]	[silence]
sw2871A-ms98-a-0002	A.1	0.877000	1.287000		[silence]	[silence]
sw2871A-ms98-a-0002	A.1	1.287000	1.625375		Okay	okay
sw2871A-ms98-a-0002	A.3	1.625375	1.974750		[silence]	[silence]
sw2871A-ms98-a-0003	A.3	1.974750	2.447500		[silence]	[silence]
sw2871A-ms98-a-0003	A.3	2.447500	2.887125		Okay	okay
sw2871A-ms98-a-0003	A.3	2.887125	3.404750		um	um
sw2871A-ms98-a-0003	A.3	3.404750	3.715750		[silence]	[silence]
sw2871A-ms98-a-0003	A.3	3.715750	3.840125		the	the
sw2871A-ms98-a-0003	A.3	3.840125	4.084750		last	last
sw2871A-ms98-a-0003	A.3	4.084750	4.314750		movie	movie
sw2871A-ms98-a-0003	A.3	4.314750	4.384750		I	i
sw2871A-ms98-a-0003	A.3	4.384750	4.624750		saw	saw
sw2871A-ms98-a-0003	A.3	4.624750	4.784750		was	was
sw2871A-ms98-a-0003	A.3	4.784750	4.874750		the	the
sw2871A-ms98-a-0003	A.3	4.874750	5.154750		FIVE	Five
sw2871A-ms98-a-0003	A.3	5.154750	5.784750		HEARTBEATS	Heartbeats
sw2871A-ms98-a-0003	A.3	5.784750	5.994750		and	and
sw2871A-ms98-a-0003	A.3	5.994750	6.064750		I	i
sw2871A-ms98-a-0003	A.3	6.064750	6.354750		liked	liked
sw2871A-ms98-a-0003	A.3	6.354750	6.414750		it	it
sw2871A-ms98-a-0003	A.3	6.414750	6.464750		a	a
sw2871A-ms98-a-0003	A.3	6.464750	6.714750		lot	lot
sw2871A-ms98-a-0003	A.3	6.714750	6.974750		because	because
sw2871A-ms98-a-0003	A.3	6.974750	7.064750		it	it
sw2871A-ms98-a-0003	A.3	7.064750	7.224750		had	had
sw2871A-ms98-a-0003	A.3	7.224750	7.264750		a	a
sw2871A-ms98-a-0003	A.3	7.264750	7.404750		lot	lot
sw2871A-ms98-a-0003	A.3	7.404750	7.484750		of	of
sw2871A-ms98-a-0003	A.3	7.484750	7.884750		music	music
sw2871A-ms98-a-0003	A.3	7.884750	8.014750		in	in
sw2871A-ms98-a-0003	A.3	8.014750	8.274750		it	it
sw2871A-ms98-a-0003	A.5	8.274750	8.889375		[silence]	[silence]
sw2871A-ms98-a-0004	A.5	8.889375	9.329375		[silence]	[silence]
sw2871A-ms98-a-0004	A.5	9.329375	9.762750		Yeah	yeah
sw2871A-ms98-a-0004	A.5	9.762750	9.842500		[silence]	[silence]
sw2871A-ms98-a-0004	A.5	9.842500	10.059375		it's	it's
sw2871A-ms98-a-0004	A.7	10.059375	10.582000		[silence]	[silence]
sw2871A-ms98-a-0005	A.7	10.582000	10.932000		[silence]	[silence]
sw2871A-ms98-a-0005	A.7	10.932000	11.232000		It's	it's
sw2871A-ms98-a-0005	A.7	11.232000	11.232000	<INS>	it's	---
sw2871A-ms98-a-0005	A.7	11.232000	11.662000		uh	uh
sw2871A-ms98-a-0005	A.7	11.662000	11.982000		Robert	Robert
sw2871A-ms98-a-0005	A.7	11.982000	12.432000		Townsend	Townsend
sw2871A-ms98-a-0005	A.7	12.432000	12.961375		movie	movie
sw2871A-ms98-a-0005	A.9	12.961375	13.514000		[silence]	[silence]
sw2871A-ms98-a-0006	A.9	13.514000	14.124000		[silence]	[silence]
sw2871A-ms98-a-0006	A.9	14.124000	14.753250		Um	um
sw2871A-ms98-a-0006	A.9	14.753250	14.983000		[silence]	[silence]
sw2871A-ms98-a-0006	A.9	14.983000	15.170500		I	i
sw2871A-ms98-a-0006	A.9	15.170500	15.362625		[silence]	[silence]
sw2871A-ms98-a-0006	A.9	15.362625	15.484375		I	i
sw2871A-ms98-a-0006	A.9	15.484375	15.624000		don't	don't
sw2871A-ms98-a-0006	A.9	15.624000	15.754000		know	know
sw2871A-ms98-a-0006	A.9	15.754000	15.924000		all	all
sw2871A-ms98-a-0006	A.9	15.924000	16.004000		the	the
sw2871A-ms98-a-0006	A.9	16.004000	16.514000		actors	actors
sw2871A-ms98-a-0006	A.9	16.514000	16.584000		or	or
sw2871A-ms98-a-0006	A.9	16.584000	17.024000		anything	anything
sw2871A-ms98-a-0006	A.9	17.024000	17.154000		[silence]	[silence]
sw2871A-ms98-a-0006	A.9	17.154000	17.254000		but	but
sw2871A-ms98-a-0006	A.9	17.254000	17.344000		it	it
sw2871A-ms98-a-0006	A.9	17.344000	17.464000		was	was
sw2871A-ms98-a-0006	A.9	17.464000	17.684000		just	just
sw2871A-ms98-a-0006	A.9	17.684000	17.774000		it	it
sw2871A-ms98-a-0006	A.9	17.774000	17.904000		was	was
sw2871A-ms98-a-0006	A.9	17.904000	17.964000		a	a
sw2871A-ms98-a-0006	A.9	17.964000	18.154000		lot	lot
sw2871A-ms98-a-0006	A.9	18.154000	18.224000		of	of
sw2871A-ms98-a-0006	A.9	18.224000	18.654000		music	music
sw2871A-ms98-a-0006	A.9	18.654000	18.684000		a	a
sw2871A-ms98-a-0006	A.9	18.684000	18.814000		lot	lot
sw2871A-ms98-a-0006	A.9	18.814000	18.884000		of	of
sw2871A-ms98-a-0006	A.9	18.884000	19.134000		old	old
sw2871A-ms98-a-0006	A.9	19.134000	19.734000		songs	songs
sw2871A-ms98-a-0006	A.9	19.734000	20.024000		things	things
sw2871A-ms98-a-0006	A.9	20.024000	20.254000		like	like
sw2871A-ms98-a-0006	A.9	20.254000	20.524000		that	that
sw2871A-ms98-a-0006	A.11	20.524000	21.256250		[silence]	[silence]
sw2871A-ms98-a-0007	A.11	21.256250	21.496250		[silence]	[silence]
sw2871A-ms98-a-0007	A.11	21.496250	21.886250		Um	um
sw2871A-ms98-a-0007	A.11	21.886250	22.076250		it's	it's
sw2871A-ms98-a-0007	A.11	22.076250	22.306250		still	still
sw2871A-ms98-a-0007	A.11	22.306250	22.516250		out	out
sw2871A-ms98-a-0007	A.11	22.516250	23.004125		now	now
sw2871A-ms98-a-0007	A.11	23.004125	23.169875		[silence]	[silence]
sw2871A-ms98-a-0007	A.11	23.169875	23.836250		uh	uh
sw2871A-ms98-a-0007	A.11	23.836250	24.306250		[silence]	[silence]
sw2871A-ms98-a-0007	A.11	24.306250	24.406250		it	it
sw2871A-ms98-a-0007	A.11	24.406250	24.706250		came	came
sw2871A-ms98-a-0007	A.11	24.706250	25.036250		out	out
sw2871A-ms98-a-0007	A.11	25.036250	25.106250		I	i
sw2871A-ms98-a-0007	A.11	25.106250	25.306250		guess	guess
sw2871A-ms98-a-0007	A.11	25.306250	25.556250		about	about
sw2871A-ms98-a-0007	A.11	25.556250	25.606250		a	a
sw2871A-ms98-a-0007	A.11	25.606250	26.206250		month	month
sw2871A-ms98-a-0007	A.11	26.206250	26.306250		or	or
sw2871A-ms98-a-0007	A.11	26.306250	26.786250		[silence]	[silence]
sw2871A-ms98-a-0007	A.11	26.786250	26.966250		about	about
sw2871A-ms98-a-0007	A.11	26.966250	27.006250		a	a
sw2871A-ms98-a-0007	A.11	27.006250	27.236250		month	month
sw2871A-ms98-a-0007	A.11	27.236250	27.346250		and	and
sw2871A-ms98-a-0007	A.11	27.346250	27.606250		half	half
sw2871A-ms98-a-0007	A.11	27.606250	27.836250		ago	ago
sw2871A-ms98-a-0007	A.11	27.836250	28.066250		something	something
sw2871A-ms98-a-0007	A.11	28.066250	28.246250		like	like
sw2871A-ms98-a-0007	A.11	28.246250	28.636250		that	that
sw2871A-ms98-a-0007	A.11	28.636250	29.146625		[silence]	[silence]
sw2871A-ms98-a-0008	A.11	29.146625	29.596625		[silence]	[silence]
sw2871A-ms98-a-0008	A.11	29.596625	29.776625		It's	it's
sw2871A-ms98-a-0008	A.11	29.776625	30.126625		about	about
sw2871A-ms98-a-0008	A.11	30.126625	30.226625		a	a
sw2871A-ms98-a-0008	A.11	30.226625	30.686625		Black	black
sw2871A-ms98-a-0008	A.11	30.686625	31.066625		singing	singing
sw2871A-ms98-a-0008	A.11	31.066625	31.628125		group	group
sw2871A-ms98-a-0008	A.11	31.628125	32.215125		[silence]	[silence]
sw2871A-ms98-a-0009	A.11	32.215125	32.805125		[silence]	[silence]
sw2871A-ms98-a-0009	A.11	32.805125	32.995125		It	it
sw2871A-ms98-a-0009	A.11	32.995125	33.035125		[silence]	[silence]
sw2871A-ms98-a-0009	A.11	33.035125	33.295125		and	and
sw2871A-ms98-a-0009	A.11	33.295125	33.665250		uh	uh
sw2871A-ms98-a-0009	A.11	33.665250	33.925125		[silence]	[silence]
sw2871A-ms98-a-0009	A.11	33.925125	34.075125		it	it
sw2871A-ms98-a-0009	A.11	34.075125	34.175125		was	was
sw2871A-ms98-a-0009	A.11	34.175125	34.405125		called	called
sw2871A-ms98-a-0009	A.11	34.405125	34.502875		the	the
sw2871A-ms98-a-0009	A.11	34.502875	35.146000		DELLS	Dells
sw2871A-ms98-a-0009	A.13	35.146000	35.657000		[silence]	[silence]
sw2871A-ms98-a-0010	A.13	35.657000	36.247000		[silence]	[silence]
sw2871A-ms98-a-0010	A.13	36.247000	36.507000		And	and
sw2871A-ms98-a-0010	A.13	36.507000	36.627000		uh	uh
sw2871A-ms98-a-0010	A.13	36.627000	36.687000		it	it
sw2871A-ms98-a-0010	A.13	36.687000	36.807000		was	was
sw2871A-ms98-a-0010	A.13	36.807000	36.997000		kind	kind
sw2871A-ms98-a-0010	A.13	36.997000	37.057000		of	of
sw2871A-ms98-a-0010	A.13	37.057000	37.567000		like	like
sw2871A-ms98-a-0010	A.13	37.567000	37.767000		just	just
sw2871A-ms98-a-0010	A.13	37.767000	38.037000		about	about
sw2871A-ms98-a-0010	A.13	38.037000	38.476625		their	their
sw2871A-ms98-a-0010	A.15	38.476625	39.003875		[silence]	[silence]
sw2871A-ms98-a-0010	A.15	39.003875	39.227000		their	their
sw2871A-ms98-a-0010	A.15	39.227000	39.807000		life	life
sw2871A-ms98-a-0010	A.15	39.807000	39.967000		and	and
sw2871A-ms98-a-0010	A.15	39.967000	40.367000		their	their
sw2871A-ms98-a-0010	A.15	40.367000	40.707000		uh	uh
sw2871A-ms98-a-0010	A.15	40.707000	41.317625		[silence]	[silence]
sw2871A-ms98-a-0011	A.15	41.317625	41.779500		[silence]	[silence]
sw2871A-ms98-a-0011	A.15	41.779500	42.427625		history	history
sw2871A-ms98-a-0011	A.15	42.427625	42.537625		and	and
sw2871A-ms98-a-0011	A.15	42.537625	42.747625		things	things
sw2871A-ms98-a-0011	A.15	42.747625	42.977625		like	like
sw2871A-ms98-a-0011	A.15	42.977625	43.087625		that	that
sw2871A-ms98-a-0011	A.15	43.087625	43.247625		and	and
sw2871A-ms98-a-0011	A.15	43.247625	43.307625		the	the
sw2871A-ms98-a-0011	A.15	43.307625	43.467625		way	way
sw2871A-ms98-a-0011	A.15	43.467625	43.607625		they	they
sw2871A-ms98-a-0011	A.15	43.607625	43.867625		went	went
sw2871A-ms98-a-0011	A.15	43.867625	44.211500		from	from
sw2871A-ms98-a-0011	A.15	44.211500	44.422375		[silence]	[silence]
sw2871A-ms98-a-0011	A.15	44.422375	44.797625		from	from
sw2871A-ms98-a-0011	A.15	44.797625	45.027625		how	how
sw2871A-ms98-a-0011	A.15	45.027625	45.107625		they	they
sw2871A-ms98-a-0011	A.15	45.107625	45.287625		went	went
sw2871A-ms98-a-0011	A.15	45.287625	45.417625		from	from
sw2871A-ms98-a-0011	A.15	45.417625	45.907625		stardom	stardom
sw2871A-ms98-a-0011	A.15	45.907625	46.262500		to	to
sw2871A-ms98-a-0011	A.15	46.262500	46.706875		[silence]	[silence]
sw2871A-ms98-a-0011	A.15	46.706875	47.047625	<CONT>	nonstardom	non
sw2871A-ms98-a-0011	A.17	47.047625	47.710875	<CONT>	+++	[laughter-stardom]
sw2871A-ms98-a-0011	A.17	47.710875	48.416625		[silence]	[silence]
sw2871A-ms98-a-0012	A.17	48.416625	48.676625		[silence]	[silence]
sw2871A-ms98-a-0012	A.17	48.676625	48.866625		And	and
sw2871A-ms98-a-0012	A.17	48.866625	48.956625		uh	uh
sw2871A-ms98-a-0012	A.17	48.956625	49.236625		that	that
sw2871A-ms98-a-0012	A.17	49.236625	49.376625		was	was
sw2871A-ms98-a-0012	A.17	49.376625	49.616625		pretty	pretty
sw2871A-ms98-a-0012	A.17	49.616625	50.096625		good	good
sw2871A-ms98-a-0012	A.17	50.096625	50.456625		[silence]	[silence]
sw2871A-ms98-a-0012	A.17	50.456625	50.566625		I	i
sw2871A-ms98-a-0012	A.17	50.566625	51.036625		enjoyed	enjoyed
sw2871A-ms98-a-0012	A.17	51.036625	51.116625		I	i
sw2871A-ms98-a-0012	A.17	51.116625	51.306625		saw	saw
sw2871A-ms98-a-0012	A.17	51.306625	51.746625		DANCES	Dances
sw2871A-ms98-a-0012	A.17	51.746625	51.926625		WITH	with
sw2871A-ms98-a-0012	A.17	51.926625	52.602875		WOLVES	Wolves
sw2871A-ms98-a-0012	A.17	52.602875	52.946625		[silence]	[silence]
sw2871A-ms98-a-0012	A.17	52.946625	53.036625		Have	have
sw2871A-ms98-a-0012	A.17	53.036625	53.136625		you	you
sw2871A-ms98-a-0012	A.17	53.136625	53.366625		seen	seen
sw2871A-ms98-a-0012	A.17	53.366625	53.806625		that	that
sw2871A-ms98-a-0012	A.19	53.806625	54.226625		Yeah	yeah
sw2871A-ms98-a-0012	A.19	54.226625	54.619375		[silence]	[silence]
sw2871A-ms98-a-0013	A.19	54.619375	55.019375		[silence]	[silence]
sw2871A-ms98-a-0013	A.19	55.019375	55.449375		yeah	yeah
sw2871A-ms98-a-0013	A.21	55.449375	55.743500		[silence]	[silence]
sw2871A-ms98-a-0014	A.21	55.743500	58.271750		[silence]	[silence]
sw2871A-ms98-a-0015	A.21	58.271750	58.521750		[silence]	[silence]
sw2871A-ms98-a-0015	A.21	58.521750	58.971750		Uh-huh	uh-huh
sw2871A-ms98-a-0015	A.23	58.971750	59.352125		[silence]	[silence]
sw2871A-ms98-a-0016	A.23	59.352125	61.158125		[silence]	[silence]
sw2871A-ms98-a-0017	A.23	61.158125	61.618125		[silence]	[silence]
sw2871A-ms98-a-0017	A.23	61.618125	61.898125		Yeah	yeah
sw2871A-ms98-a-0017	A.23	61.898125	62.138125		right	right
sw2871A-ms98-a-0017	A.23	62.138125	62.438125		now	now
sw2871A-ms98-a-0017	A.23	62.438125	62.738125		Kevin	Kevin
sw2871A-ms98-a-0017	A.23	62.738125	63.078125		Costner	Costner
sw2871A-ms98-a-0017	A.23	63.078125	63.128125		I	i
sw2871A-ms98-a-0017	A.23	63.128125	63.268125		mean	mean
sw2871A-ms98-a-0017	A.23	63.268125	63.448125		he's	he's
sw2871A-ms98-a-0017	A.23	63.448125	63.662750		[silence]	[silence]
sw2871A-ms98-a-0018	A.23	63.662750	64.082750		[silence]	[silence]
sw2871A-ms98-a-0018	A.23	64.082750	64.462750		starring	starring
sw2871A-ms98-a-0018	A.23	64.462750	64.552750		in	in
sw2871A-ms98-a-0018	A.23	64.552750	64.992750		everything	everything
sw2871A-ms98-a-0018	A.23	64.992750	65.182750		He's	he's
sw2871A-ms98-a-0018	A.23	65.182750	65.432750		doing	doing
sw2871A-ms98-a-0018	A.23	65.432750	65.532750		the	the
sw2871A-ms98-a-0018	A.23	65.532750	66.072750		Kennedy	Kennedy
sw2871A-ms98-a-0018	A.23	66.072750	66.573125		movie	movie
sw2871A-ms98-a-0018	A.23	66.573125	66.671125		[silence]	[silence]
sw2871A-ms98-a-0018	A.23	66.671125	66.872750		that's	that's
sw2871A-ms98-a-0018	A.23	66.872750	67.182750		coming	coming
sw2871A-ms98-a-0018	A.23	67.182750	67.482750		out	out
sw2871A-ms98-a-0018	A.23	67.482750	68.009375		[silence]	[silence]
sw2871A-ms98-a-0019	A.23	68.009375	68.659375		[silence]	[silence]
sw2871A-ms98-a-0019	A.23	68.659375	69.169375		um	um
sw2871A-ms98-a-0019	A.23	69.169375	69.339375		[silence]	[silence]
sw2871A-ms98-a-0019	A.23	69.339375	69.429375		and	and
sw2871A-ms98-a-0019	A.23	69.429375	69.679375		there's	there's
sw2871A-ms98-a-0019	A.23	69.679375	70.050875		one	one
sw2871A-ms98-a-0019	A.25	70.050875	70.484125		[silence]	[silence]
sw2871A-ms98-a-0019	A.25	70.484125	70.919375		Yeah	yeah
sw2871A-ms98-a-0019	A.25	70.919375	71.159375		[laughter]	[laughter]
sw2871A-ms98-a-0019	A.25	71.159375	71.479375		yeah	yeah
sw2871A-ms98-a-0019	A.25	71.479375	71.949375		starring	starring
sw2871A-ms98-a-0019	A.25	71.949375	72.249375		Kevin	Kevin
sw2871A-ms98-a-0019	A.25	72.249375	72.757000		Costner	Costner
sw2871A-ms98-a-0019	A.25	72.757000	73.041125		[silence]	[silence]
sw2871A-ms98-a-0020	A.25	73.041125	73.551125		[silence]	[silence]
sw2871A-ms98-a-0020	A.25	73.551125	74.071125		and	and
sw2871A-ms98-a-0020	A.25	74.071125	74.161125		let	let
sw2871A-ms98-a-0020	A.25	74.161125	74.241125		me	me
sw2871A-ms98-a-0020	A.25	74.241125	74.441125		see	see
sw2871A-ms98-a-0020	A.25	74.441125	74.621125		what	what
sw2871A-ms98-a-0020	A.25	74.621125	75.021125		else	else
sw2871A-ms98-a-0020	A.25	75.021125	75.161125		[silence]	[silence]
sw2871A-ms98-a-0020	A.25	75.161125	76.061125		Um	um
sw2871A-ms98-a-0020	A.25	76.061125	76.211125		he's	he's
sw2871A-ms98-a-0020	A.25	76.211125	76.402250		doing	doing
sw2871A-ms98-a-0020	A.25	76.402250	76.658375		some	some
sw2871A-ms98-a-0020	A.25	76.658375	76.951125		other	other
sw2871A-ms98-a-0020	A.25	76.951125	77.251125		movie	movie
sw2871A-ms98-a-0020	A.25	77.251125	77.331000		I	i
sw2871A-ms98-a-0020	A.25	77.331000	77.670000		can't	can't
sw2871A-ms98-a-0020	A.25	77.670000	77.773875		I	i
sw2871A-ms98-a-0020	A.25	77.773875	78.001125		think	think
sw2871A-ms98-a-0020	A.25	78.001125	78.341125		ROBIN	Robin
sw2871A-ms98-a-0020	A.25	78.341125	78.691125		HOOD	Hood
sw2871A-ms98-a-0020	A.25	78.691125	78.961125		that's	that's
sw2871A-ms98-a-0020	A.25	78.961125	79.141125		it	it
sw2871A-ms98-a-0020	A.25	79.141125	79.881125		[silence]	[silence]
sw2871A-ms98-a-0020	A.25	79.881125	80.011125		the	the
sw2871A-ms98-a-0020	A.25	80.011125	80.331125		ROBIN	Robin
sw2871A-ms98-a-0020	A.25	80.331125	80.451125		HOOD	Hood
sw2871A-ms98-a-0020	A.25	80.451125	80.721125	<DEL>	---	movie
sw2871A-ms98-a-0020	A.25	80.721125	81.031125		coming	coming
sw2871A-ms98-a-0020	A.25	81.031125	81.091125		out	out
sw2871A-ms98-a-0020	A.25	81.091125	81.241125		and	and
sw2871A-ms98-a-0020	A.25	81.241125	81.411125		he's	he's
sw2871A-ms98-a-0020	A.25	81.411125	81.541125		going	going
sw2871A-ms98-a-0020	A.25	81.541125	81.611125		to	to
sw2871A-ms98-a-0020	A.25	81.611125	81.761125		be	be
sw2871A-ms98-a-0020	A.25	81.761125	81.871125		in	in
sw2871A-ms98-a-0020	A.25	81.871125	82.376625		also	also
sw2871A-ms98-a-0020	A.25	82.376625	82.953500		[silence]	[silence]
sw2871A-ms98-a-0021	A.25	82.953500	83.753500		[silence]	[silence]
sw2871A-ms98-a-0021	A.25	83.753500	84.383500		And	and
sw2871A-ms98-a-0021	A.25	84.383500	84.473500		let	let
sw2871A-ms98-a-0021	A.25	84.473500	84.563500		me	me
sw2871A-ms98-a-0021	A.25	84.563500	84.793500		see	see
sw2871A-ms98-a-0021	A.25	84.793500	84.953500		what	what
sw2871A-ms98-a-0021	A.25	84.953500	85.173500		else	else
sw2871A-ms98-a-0021	A.25	85.173500	85.303500		have	have
sw2871A-ms98-a-0021	A.25	85.303500	85.453500		I	i
sw2871A-ms98-a-0021	A.25	85.453500	86.163500		seen	seen
sw2871A-ms98-a-0021	A.25	86.163500	86.823500		[silence]	[silence]
sw2871A-ms98-a-0021	A.25	86.823500	86.923500		What	what
sw2871A-ms98-a-0021	A.25	86.923500	87.033500		have	have
sw2871A-ms98-a-0021	A.25	87.033500	87.173500		you	you
sw2871A-ms98-a-0021	A.25	87.173500	87.653500		seen	seen
sw2871A-ms98-a-0021	A.27	87.653500	88.063250		[silence]	[silence]
sw2871A-ms98-a-0022	A.27	88.063250	106.379625		[silence]	[silence]
sw2871A-ms98-a-0023	A.27	106.379625	106.739625		[silence]	[silence]
sw2871A-ms98-a-0023	A.27	106.739625	107.009625		Oh	oh
sw2871A-ms98-a-0023	A.27	107.009625	107.089625		I	i
sw2871A-ms98-a-0023	A.27	107.089625	107.169625		know	know
sw2871A-ms98-a-0023	A.27	107.169625	107.319625		what	what
sw2871A-ms98-a-0023	A.27	107.319625	107.409625		you're	you're
sw2871A-ms98-a-0023	A.27	107.409625	107.729625		talking	talking
sw2871A-ms98-a-0023	A.27	107.729625	107.989625		about	about
sw2871A-ms98-a-0023	A.29	107.989625	108.311125		[silence]	[silence]
sw2871A-ms98-a-0024	A.29	108.311125	110.480625		[silence]	[silence]
sw2871A-ms98-a-0025	A.29	110.480625	110.770625		[silence]	[silence]
sw2871A-ms98-a-0025	A.29	110.770625	111.077875		My	my
sw2871A-ms98-a-0025	A.31	111.077875	111.510375		[silence]	[silence]
sw2871A-ms98-a-0026	A.31	111.510375	113.172000		[silence]	[silence]
sw2871A-ms98-a-0027	A.31	113.172000	113.522000		[silence]	[silence]
sw2871A-ms98-a-0027	A.31	113.522000	113.665875		It's	it's
sw2871A-ms98-a-0027	A.31	113.665875	113.862000		called	called
sw2871A-ms98-a-0027	A.31	113.862000	114.292000		REVIEWING	Reviewing
sw2871A-ms98-a-0027	A.31	114.292000	114.422000		MY	My
sw2871A-ms98-a-0027	A.31	114.422000	114.882000		LIFE	Life
sw2871A-ms98-a-0027	A.31	114.882000	115.052000		or	or
sw2871A-ms98-a-0027	A.31	115.052000	115.412000		something	something
sw2871A-ms98-a-0027	A.31	115.412000	115.755625		like	[laughter-like]
sw2871A-ms98-a-0027	A.31	115.755625	116.283000		that	[laughter-that]
sw2871A-ms98-a-0027	A.33	116.283000	116.512750		[silence]	[silence]
sw2871A-ms98-a-0028	A.33	116.512750	116.921875		[silence]	[silence]
sw2871A-ms98-a-0028	A.33	116.921875	117.365625		Yeah	yeah
sw2871A-ms98-a-0028	A.33	117.365625	117.662125		[silence]	[silence]
sw2871A-ms98-a-0029	A.33	117.662125	118.132125		[silence]	[silence]
sw2871A-ms98-a-0029	A.33	118.132125	118.250250		I	i
sw2871A-ms98-a-0029	A.33	118.250250	118.372125		didn't	didn't
sw2871A-ms98-a-0029	A.33	118.372125	118.502125		get	get
sw2871A-ms98-a-0029	A.33	118.502125	118.622125		to	to
sw2871A-ms98-a-0029	A.33	118.622125	118.772125		see	see
sw2871A-ms98-a-0029	A.33	118.772125	119.003125		that	that
sw2871A-ms98-a-0029	A.35	119.003125	119.427375		[silence]	[silence]
sw2871A-ms98-a-0030	A.35	119.427375	120.067375		[silence]	[silence]
sw2871A-ms98-a-0030	A.35	120.067375	120.377375		Yeah	yeah
sw2871A-ms98-a-0030	A.35	120.377375	120.677375		that's	that's
sw2871A-ms98-a-0030	A.35	120.677375	120.947375		it	it
sw2871A-ms98-a-0030	A.35	120.947375	121.277375		okay	okay
sw2871A-ms98-a-0030	A.37	121.277375	121.475875		[silence]	[silence]
sw2871A-ms98-a-0031	A.37	121.475875	122.638500		[silence]	[silence]
sw2871A-ms98-a-0032	A.37	122.638500	122.860500		[silence]	[silence]
sw2871A-ms98-a-0032	A.37	122.860500	123.308500	<SUB>	Uh-huh	um-hum
sw2871A-ms98-a-0032	A.39	123.308500	123.511750		[silence]	[silence]
sw2871A-ms98-a-0033	A.39	123.511750	124.374125		[silence]	[silence]
sw2871A-ms98-a-0034	A.39	124.374125	124.746500		[silence]	[silence]
sw2871A-ms98-a-0034	A.39	124.746500	125.074125	<DEL>	---	hm
sw2871A-ms98-a-0034	A.39	125.074125	125.348125		[silence]	[silence]
sw2871A-ms98-a-0035	A.39	125.348125	132.296750		[silence]	[silence]
sw2871A-ms98-a-0036	A.39	132.296750	132.656750		[silence]	[silence]
sw2871A-ms98-a-0036	A.39	132.656750	132.826750		One	one
sw2871A-ms98-a-0036	A.39	132.826750	132.886750		of	of
sw2871A-ms98-a-0036	A.39	132.886750	132.996750		my	my
sw2871A-ms98-a-0036	A.39	132.996750	133.386750		favorite	favorite
sw2871A-ms98-a-0036	A.39	133.386750	133.726750		movies	movies
sw2871A-ms98-a-0036	A.39	133.726750	133.876750		it's	it's
sw2871A-ms98-a-0036	A.39	133.876750	134.056750		not	not
sw2871A-ms98-a-0036	A.39	134.056750	134.186750		one	one
sw2871A-ms98-a-0036	A.39	134.186750	134.356750		that	that
sw2871A-ms98-a-0036	A.39	134.356750	134.526750	<SUB>	I	i've
sw2871A-ms98-a-0036	A.39	134.526750	134.936750		haven't	haven't
sw2871A-ms98-a-0036	A.39	134.936750	135.146750		seen	seen
sw2871A-ms98-a-0036	A.39	135.146750	135.305875		I	i
sw2871A-ms98-a-0036	A.39	135.305875	135.554625		[silence]	[silence]
sw2871A-ms98-a-0037	A.39	135.554625	135.950125		[silence]	[silence]
sw2871A-ms98-a-0037	A.39	135.950125	136.256500		w-	w[ell]-
sw2871A-ms98-a-0037	A.39	136.256500	136.354625		it's	it's
sw2871A-ms98-a-0037	A.39	136.354625	136.512500		not	not
sw2871A-ms98-a-0037	A.39	136.512500	136.594625		a	a
sw2871A-ms98-a-0037	A.39	136.594625	136.974625		late	late
sw2871A-ms98-a-0037	A.39	136.974625	137.558750		movie	movie
sw2871A-ms98-a-0037	A.39	137.558750	138.049125		[silence]	[silence]
sw2871A-ms98-a-0037	A.39	138.049125	138.312750		It's	it's
sw2871A-ms98-a-0037	A.39	138.312750	138.727125		uh	uh
sw2871A-ms98-a-0037	A.41	138.727125	139.108625		[silence]	[silence]
sw2871A-ms98-a-0038	A.41	139.108625	139.557000		[silence]	[silence]
sw2871A-ms98-a-0038	A.41	139.557000	139.928625		FATAL	Fatal
sw2871A-ms98-a-0038	A.41	139.928625	140.578625		ATTRACTION	Attraction
sw2871A-ms98-a-0038	A.43	140.578625	140.679875		[silence]	[silence]
sw2871A-ms98-a-0039	A.43	140.679875	140.929875		[silence]	[silence]
sw2871A-ms98-a-0039	A.43	140.929875	141.339875		[laughter]	[laughter]
sw2871A-ms98-a-0039	A.43	141.339875	141.579875		It's	it's
sw2871A-ms98-a-0039	A.43	141.579875	141.879875		probably	probably
sw2871A-ms98-a-0039	A.43	141.879875	142.089875		my	my
sw2871A-ms98-a-0039	A.43	142.089875	142.339875		all	all
sw2871A-ms98-a-0039	A.43	142.339875	142.709875		time	time
sw2871A-ms98-a-0039	A.43	142.709875	143.059875		[silence]	[silence]
sw2871A-ms98-a-0039	A.43	143.059875	143.149875		well	well
sw2871A-ms98-a-0039	A.43	143.149875	143.329875		not	not
sw2871A-ms98-a-0039	A.43	143.329875	143.509875		all	all
sw2871A-ms98-a-0039	A.43	143.509875	143.779875		time	time
sw2871A-ms98-a-0039	A.43	143.779875	144.099875		favorite	favorite
sw2871A-ms98-a-0039	A.43	144.099875	144.219875		but	but
sw2871A-ms98-a-0039	A.43	144.219875	144.349875		one	one
sw2871A-ms98-a-0039	A.43	144.349875	144.409875		of	of
sw2871A-ms98-a-0039	A.43	144.409875	144.539875		my	my
sw2871A-ms98-a-0039	A.43	144.539875	145.129875		favorites	favorites
sw2871A-ms98-a-0039	A.45	145.129875	145.232875		that	that
sw2871A-ms98-a-0039	A.45	145.232875	145.345875		I	i
sw2871A-ms98-a-0039	A.45	145.345875	145.482250		can	can
sw2871A-ms98-a-0039	A.45	145.482250	145.717500		watch	watch
sw2871A-ms98-a-0039	A.45	145.717500	145.929875		over	over
sw2871A-ms98-a-0039	A.45	145.929875	146.019875		and	and
sw2871A-ms98-a-0039	A.45	146.019875	146.359875		over	over
sw2871A-ms98-a-0039	A.47	146.359875	146.552125		[silence]	[silence]
sw2871A-ms98-a-0040	A.47	146.552125	147.930750		[silence]	[silence]
sw2871A-ms98-a-0041	A.47	147.930750	148.260750		[silence]	[silence]
sw2871A-ms98-a-0041	A.47	148.260750	148.540750		No	no
sw2871A-ms98-a-0041	A.47	148.540750	148.600750		I	i
sw2871A-ms98-a-0041	A.47	148.600750	148.850750		never	never
sw2871A-ms98-a-0041	A.47	148.850750	149.260750		did	did
sw2871A-ms98-a-0041	A.47	149.260750	149.480750		[silence]	[silence]
sw2871A-ms98-a-0041	A.47	149.480750	149.600750		I	i
sw2871A-ms98-a-0041	A.47	149.600750	149.680750		[silence]	[silence]
sw2871A-ms98-a-0041	A.47	149.680750	149.830750		I	i
sw2871A-ms98-a-0041	A.47	149.830750	150.030750		heard	heard
sw2871A-ms98-a-0041	A.47	150.030750	150.130750		it	it
sw2871A-ms98-a-0041	A.47	150.130750	150.260750		was	was
sw2871A-ms98-a-0041	A.47	150.260750	150.490750		really	really
sw2871A-ms98-a-0041	A.47	150.490750	150.760750		good	good
sw2871A-ms98-a-0041	A.47	150.760750	150.870750		I've	i've
sw2871A-ms98-a-0041	A.47	150.870750	151.269250		never	never
sw2871A-ms98-a-0041	A.47	151.269250	151.690750		[silence]	[silence]
sw2871A-ms98-a-0041	A.47	151.690750	151.870750		just	just
sw2871A-ms98-a-0041	A.47	151.870750	152.090750		haven't	haven't
sw2871A-ms98-a-0041	A.47	152.090750	152.270750		gone	gone
sw2871A-ms98-a-0041	A.47	152.270750	152.420750		out	out
sw2871A-ms98-a-0041	A.47	152.420750	152.530750		to	to
sw2871A-ms98-a-0041	A.47	152.530750	152.770750		see	see
sw2871A-ms98-a-0041	A.47	152.770750	152.900750		it	it
sw2871A-ms98-a-0041	A.49	152.900750	153.020750		[silence]	[silence]
sw2871A-ms98-a-0041	A.49	153.020750	153.110750		Was	was
sw2871A-ms98-a-0041	A.49	153.110750	153.250750		that	that
sw2871A-ms98-a-0041	A.49	153.250750	153.420750		pretty	pretty
sw2871A-ms98-a-0041	A.49	153.420750	153.823625		funny	funny
sw2871A-ms98-a-0041	A.51	153.823625	154.092375		[silence]	[silence]
sw2871A-ms98-a-0042	A.51	154.092375	154.582375		[silence]	[silence]
sw2871A-ms98-a-0042	A.51	154.582375	154.962375		Yeah	yeah
sw2871A-ms98-a-0042	A.51	154.962375	155.371250		[silence]	[silence]
sw2871A-ms98-a-0043	A.51	155.371250	155.811250		[silence]	[silence]
sw2871A-ms98-a-0043	A.51	155.811250	156.101250		yeah	yeah
sw2871A-ms98-a-0043	A.51	156.101250	156.937125		[silence]	[silence]
sw2871A-ms98-a-0044	A.51	156.937125	157.217125		[silence]	[silence]
sw2871A-ms98-a-0044	A.51	157.217125	157.627125		somehow	somehow
sw2871A-ms98-a-0044	A.51	157.627125	157.807125		just	just
sw2871A-ms98-a-0044	A.51	157.807125	158.017125		never	never
sw2871A-ms98-a-0044	A.51	158.017125	158.237125		made	made
sw2871A-ms98-a-0044	A.51	158.237125	158.357125		it	it
sw2871A-ms98-a-0044	A.51	158.357125	158.477125		to	to
sw2871A-ms98-a-0044	A.51	158.477125	158.657125		see	see
sw2871A-ms98-a-0044	A.51	158.657125	158.937125		that	that
sw2871A-ms98-a-0044	A.51	158.937125	159.577125		[silence]	[silence]
sw2871A-ms98-a-0044	A.51	159.577125	159.757125		but	but
sw2871A-ms98-a-0044	A.51	159.757125	159.817125		I	i
sw2871A-ms98-a-0044	A.51	159.817125	160.017125		need	need
sw2871A-ms98-a-0044	A.51	160.017125	160.097125		to	to
sw2871A-ms98-a-0044	A.51	160.097125	160.357125		see	see
sw2871A-ms98-a-0044	A.51	160.357125	160.487125		it	it
sw2871A-ms98-a-0044	A.53	160.487125	161.005125		[silence]	[silence]
sw2871A-ms98-a-0045	A.53	161.005125	163.662250		[silence]	[silence]
sw2871A-ms98-a-0046	A.53	163.662250	164.032250		[silence]	[silence]
sw2871A-ms98-a-0046	A.53	164.032250	164.387250		Yeah	yeah
sw2871A-ms98-a-0046	A.53	164.387250	164.535625		[silence]	[silence]
sw2871A-ms98-a-0046	A.53	164.535625	164.782250		FATAL	Fatal
sw2871A-ms98-a-0046	A.53	164.782250	165.332250		ATTRACTION	Attraction
sw2871A-ms98-a-0046	A.53	165.332250	165.562250		that	that
sw2871A-ms98-a-0046	A.53	165.562250	166.142250		[silence]	[silence]
sw2871A-ms98-a-0046	A.53	166.142250	166.232750		I	i
sw2871A-ms98-a-0046	A.53	166.232750	166.332250		don't	don't
sw2871A-ms98-a-0046	A.53	166.332250	166.402250		know	know
sw2871A-ms98-a-0046	A.53	166.402250	166.612250		why	why
sw2871A-ms98-a-0046	A.53	166.612250	166.662250		I	i
sw2871A-ms98-a-0046	A.53	166.662250	166.902250		like	like
sw2871A-ms98-a-0046	A.53	166.902250	167.054750		that	that
sw2871A-ms98-a-0046	A.53	167.054750	167.280750		movie	movie
sw2871A-ms98-a-0046	A.53	167.280750	167.462250		so	so
sw2871A-ms98-a-0046	A.53	167.462250	167.652250		much	much
sw2871A-ms98-a-0046	A.53	167.652250	167.722625		I	i
sw2871A-ms98-a-0046	A.53	167.722625	167.913625		guess	guess
sw2871A-ms98-a-0046	A.53	167.913625	168.182250		[silence]	[silence]
sw2871A-ms98-a-0046	A.53	168.182250	168.284000		it	it
sw2871A-ms98-a-0046	A.53	168.284000	168.372250		was	was
sw2871A-ms98-a-0046	A.53	168.372250	168.512250		so	so
sw2871A-ms98-a-0046	A.53	168.512250	168.702250		much	much
sw2871A-ms98-a-0046	A.53	168.702250	169.462250		suspense	suspense
sw2871A-ms98-a-0046	A.55	169.462250	169.843625		[silence]	[silence]
sw2871A-ms98-a-0047	A.55	169.843625	170.483625		[silence]	[silence]
sw2871A-ms98-a-0047	A.55	170.483625	170.613625		And	and
sw2871A-ms98-a-0047	A.55	170.613625	170.663625		I	i
sw2871A-ms98-a-0047	A.55	170.663625	170.873625		like	like
sw2871A-ms98-a-0047	A.55	170.873625	171.493625		suspense	suspense
sw2871A-ms98-a-0047	A.57	171.493625	171.888750		[silence]	[silence]
sw2871A-ms98-a-0048	A.57	171.888750	175.482000		[silence]	[silence]
sw2871A-ms98-a-0049	A.57	175.482000	175.879250		[silence]	[silence]
sw2871A-ms98-a-0049	A.57	175.879250	176.470250		Yes	yes
sw2871A-ms98-a-0049	A.57	176.470250	176.907375		uh-huh	uh-huh
sw2871A-ms98-a-0049	A.57	176.907375	177.107000		[silence]	[silence]
sw2871A-ms98-a-0049	A.57	177.107000	177.510000		yeah	yeah
sw2871A-ms98-a-0049	A.57	177.510000	177.615500		[silence]	[silence]
sw2871A-ms98-a-0049	A.57	177.615500	177.762000		on	on
sw2871A-ms98-a-0049	A.57	177.762000	177.942000		that	that
sw2871A-ms98-a-0049	A.57	177.942000	178.377875		order	order
sw2871A-ms98-a-0049	A.59	178.377875	178.927750		[silence]	[silence]
sw2871A-ms98-a-0049	A.59	178.927750	179.412000		Certainly	certainly
sw2871A-ms98-a-0049	A.59	179.412000	179.592000		is	is
sw2871A-ms98-a-0049	A.61	179.592000	180.049375		[silence]	[silence]
sw2871A-ms98-a-0050	A.61	180.049375	181.833500		[silence]	[silence]
sw2871A-ms98-a-0051	A.61	181.833500	182.153500		[silence]	[silence]
sw2871A-ms98-a-0051	A.61	182.153500	182.247375		And	and
sw2871A-ms98-a-0051	A.61	182.247375	182.358500		I	i
sw2871A-ms98-a-0051	A.61	182.358500	182.523500		liked	liked
sw2871A-ms98-a-0051	A.61	182.523500	182.583500		the	the
sw2871A-ms98-a-0051	A.61	182.583500	182.888750		woman	woman
sw2871A-ms98-a-0051	A.61	182.888750	183.039375		that	that
sw2871A-ms98-a-0051	A.61	183.039375	183.283500		played	played
sw2871A-ms98-a-0051	A.61	183.283500	183.413500		in	in
sw2871A-ms98-a-0051	A.61	183.413500	183.683500		that	that
sw2871A-ms98-a-0051	A.61	183.683500	183.713500		I	i
sw2871A-ms98-a-0051	A.61	183.713500	184.043500		forgot	forgot
sw2871A-ms98-a-0051	A.61	184.043500	184.133500		what	what
sw2871A-ms98-a-0051	A.61	184.133500	184.223500		her	her
sw2871A-ms98-a-0051	A.61	184.223500	184.573500		name	name
sw2871A-ms98-a-0051	A.61	184.573500	184.733500		is	is
sw2871A-ms98-a-0051	A.61	184.733500	185.243500		now	now
sw2871A-ms98-a-0051	A.63	185.243500	185.561375		[silence]	[silence]
sw2871A-ms98-a-0052	A.63	185.561375	186.141375		[silence]	[silence]
sw2871A-ms98-a-0052	A.63	186.141375	186.351375		Anne	Anne
sw2871A-ms98-a-0052	A.63	186.351375	186.939125		Archer	Archer
sw2871A-ms98-a-0052	A.63	186.939125	187.644000		[silence]	[silence]
sw2871A-ms98-a-0053	A.63	187.644000	188.444000		[silence]	[silence]
sw2871A-ms98-a-0053	A.63	188.444000	188.684000		she's	she's
sw2871A-ms98-a-0053	A.63	188.684000	188.761375		the	the
sw2871A-ms98-a-0053	A.63	188.761375	189.040000		one	one
sw2871A-ms98-a-0053	A.63	189.040000	189.234000		she	she
sw2871A-ms98-a-0053	A.63	189.234000	189.394000		was	was
sw2871A-ms98-a-0053	A.63	189.394000	189.474000		the	the
sw2871A-ms98-a-0053	A.63	189.474000	189.914000		wife	wife
sw2871A-ms98-a-0053	A.63	189.914000	190.024000		in	in
sw2871A-ms98-a-0053	A.63	190.024000	190.314000		FATAL	Fatal
sw2871A-ms98-a-0053	A.63	190.314000	190.924000		ATTRACTION	Attraction
sw2871A-ms98-a-0053	A.63	190.924000	191.190000		[silence]	[silence]
sw2871A-ms98-a-0054	A.63	191.190000	191.760000		[silence]	[silence]
sw2871A-ms98-a-0054	A.63	191.760000	191.910000		yeah	yeah
sw2871A-ms98-a-0054	A.65	191.910000	192.120000		and	and
sw2871A-ms98-a-0054	A.65	192.120000	192.300000		she	she
sw2871A-ms98-a-0054	A.65	192.300000	192.630000		played	played
sw2871A-ms98-a-0054	A.65	192.630000	192.810000		in	in
sw2871A-ms98-a-0054	A.65	192.810000	193.080000		uh	uh
sw2871A-ms98-a-0054	A.65	193.080000	193.550000		narrow	Narrow
sw2871A-ms98-a-0054	A.65	193.550000	193.990000		margin	Margin
sw2871A-ms98-a-0054	A.65	193.990000	194.150000		which	which
sw2871A-ms98-a-0054	A.65	194.150000	194.270000		was	was
sw2871A-ms98-a-0054	A.65	194.270000	194.320000		a	a
sw2871A-ms98-a-0054	A.65	194.320000	194.510000		little	little
sw2871A-ms98-a-0054	A.65	194.510000	194.730000		more	more
sw2871A-ms98-a-0054	A.65	194.730000	195.180000		recent	recent
sw2871A-ms98-a-0054	A.67	195.180000	195.640000		[silence]	[silence]
sw2871A-ms98-a-0055	A.67	195.640000	195.960000		[silence]	[silence]
sw2871A-ms98-a-0055	A.67	195.960000	196.070000		and	and
sw2871A-ms98-a-0055	A.67	196.070000	196.190000		that	that
sw2871A-ms98-a-0055	A.67	196.190000	196.290000		was	was
sw2871A-ms98-a-0055	A.67	196.290000	196.590000		kind	kind
sw2871A-ms98-a-0055	A.67	196.590000	196.690000		of	of
sw2871A-ms98-a-0055	A.67	196.690000	196.780000		[silence]	[silence]
sw2871A-ms98-a-0055	A.67	196.780000	197.000000		another	another
sw2871A-ms98-a-0055	A.67	197.000000	197.590000		suspense	suspense
sw2871A-ms98-a-0055	A.67	197.590000	197.990000		type	type
sw2871A-ms98-a-0055	A.67	197.990000	198.560000		[silence]	[silence]
sw2871A-ms98-a-0055	A.67	198.560000	198.850000		Alfred	Alfred
sw2871A-ms98-a-0055	A.67	198.850000	199.250000		Hitchcock	Hitchcock
sw2871A-ms98-a-0055	A.67	199.250000	199.600000		type	type
sw2871A-ms98-a-0055	A.67	199.600000	200.372750		[silence]	[silence]
sw2871A-ms98-a-0056	A.67	200.372750	200.772750		[silence]	[silence]
sw2871A-ms98-a-0056	A.67	200.772750	201.392750		thriller	thriller
sw2871A-ms98-a-0056	A.69	201.392750	201.802750		[silence]	[silence]
sw2871A-ms98-a-0056	A.69	201.802750	201.932750		That	that
sw2871A-ms98-a-0056	A.69	201.932750	202.132750		was	was
sw2871A-ms98-a-0056	A.69	202.132750	202.472000		good	good
sw2871A-ms98-a-0056	A.69	202.472000	202.777625		[silence]	[silence]
sw2871A-ms98-a-0057	A.69	202.777625	203.937625		[silence]	[silence]
sw2871A-ms98-a-0058	A.69	203.937625	204.237625		[silence]	[silence]
sw2871A-ms98-a-0058	A.69	204.237625	204.797625	<SUB>	Uh	um
sw2871A-ms98-a-0058	A.69	204.797625	205.538625		[silence]	[silence]
sw2871A-ms98-a-0059	A.69	205.538625	206.228625		[silence]	[silence]
sw2871A-ms98-a-0059	A.69	206.228625	206.368625		God	God
sw2871A-ms98-a-0059	A.69	206.368625	206.438625		I	i
sw2871A-ms98-a-0059	A.69	206.438625	206.598625		guess	guess
sw2871A-ms98-a-0059	A.69	206.598625	206.648625		I	i
sw2871A-ms98-a-0059	A.69	206.648625	206.828625		haven't	haven't
sw2871A-ms98-a-0059	A.69	206.828625	207.008625		seen	seen
sw2871A-ms98-a-0059	A.69	207.008625	207.158625		too	too
sw2871A-ms98-a-0059	A.69	207.158625	207.478625		many	many
sw2871A-ms98-a-0059	A.69	207.478625	207.918625		movies	movies
sw2871A-ms98-a-0059	A.69	207.918625	208.248625		lately	lately
sw2871A-ms98-a-0059	A.69	208.248625	208.418625		[silence]	[silence]
sw2871A-ms98-a-0059	A.69	208.418625	208.475250		I	i
sw2871A-ms98-a-0059	A.69	208.475250	208.618625		need	need
sw2871A-ms98-a-0059	A.69	208.618625	208.788625		to	to
sw2871A-ms98-a-0059	A.71	208.788625	209.548125		[silence]	[silence]
sw2871A-ms98-a-0060	A.71	209.548125	210.498125		[silence]	[silence]
sw2871A-ms98-a-0060	A.71	210.498125	210.918125		Yeah	yeah
sw2871A-ms98-a-0060	A.73	210.918125	211.397250		[silence]	[silence]
sw2871A-ms98-a-0061	A.73	211.397250	214.294625		[silence]	[silence]
sw2871A-ms98-a-0062	A.73	214.294625	214.542875		[silence]	[silence]
sw2871A-ms98-a-0062	A.73	214.542875	214.954625	<SUB>	Uh-huh	um-hum
sw2871A-ms98-a-0062	A.73	214.954625	215.010875		[silence]	[silence]
sw2871A-ms98-a-0063	A.73	215.010875	216.479250		[silence]	[silence]
sw2871A-ms98-a-0064	A.73	216.479250	216.779250		[silence]	[silence]
sw2871A-ms98-a-0064	A.73	216.779250	217.319250		Somehow	somehow
sw2871A-ms98-a-0064	A.73	217.319250	217.430625		I	i
sw2871A-ms98-a-0064	A.73	217.430625	217.585000		mean	mean
sw2871A-ms98-a-0064	A.73	217.585000	217.700625	<DEL>	---	i
sw2871A-ms98-a-0064	A.73	217.700625	217.879250		it's	it's
sw2871A-ms98-a-0064	A.73	217.879250	218.009250		hard	hard
sw2871A-ms98-a-0064	A.73	218.009250	218.089250		for	for
sw2871A-ms98-a-0064	A.73	218.089250	218.149250		me	me
sw2871A-ms98-a-0064	A.73	218.149250	218.209250		to	to
sw2871A-ms98-a-0064	A.73	218.209250	218.349250		get	get
sw2871A-ms98-a-0064	A.73	218.349250	218.429250		to	to
sw2871A-ms98-a-0064	A.73	218.429250	218.489250	<DEL>	---	the
sw2871A-ms98-a-0064	A.73	218.489250	218.849250		movies	movies
sw2871A-ms98-a-0064	A.73	218.849250	219.156125		now	now
sw2871A-ms98-a-0064	A.73	219.156125	219.639250		because	because
sw2871A-ms98-a-0064	A.73	219.639250	219.969250		[silence]	[silence]
sw2871A-ms98-a-0064	A.73	219.969250	220.229250		it's	it's
sw2871A-ms98-a-0064	A.73	220.229250	220.489250		getting	[laughter-getting]
sw2871A-ms98-a-0064	A.73	220.489250	220.665875		so	so
sw2871A-ms98-a-0064	A.73	220.665875	221.349250		expensive	expensive
sw2871A-ms98-a-0064	A.73	221.349250	222.089250		[silence]	[silence]
sw2871A-ms98-a-0064	A.73	222.089250	222.199250		you	you
sw2871A-ms98-a-0064	A.73	222.199250	222.359250		know	know
sw2871A-ms98-a-0064	A.73	222.359250	222.559250		I'd	i'd
sw2871A-ms98-a-0064	A.73	222.559250	222.749250		I'd	i'd
sw2871A-ms98-a-0064	A.73	222.749250	223.119250		rather	rather
sw2871A-ms98-a-0064	A.73	223.119250	223.519250		rent	rent
sw2871A-ms98-a-0064	A.75	223.519250	224.062500		[silence]	[silence]
sw2871A-ms98-a-0065	A.75	224.062500	224.452500		[silence]	[silence]
sw2871A-ms98-a-0065	A.75	224.452500	224.832500		Yeah	yeah
sw2871A-ms98-a-0065	A.77	224.832500	225.271000		[silence]	[silence]
sw2871A-ms98-a-0066	A.77	225.271000	228.614625		[silence]	[silence]
sw2871A-ms98-a-0067	A.77	228.614625	229.064625		[silence]	[silence]
sw2871A-ms98-a-0067	A.77	229.064625	229.490875		Yeah	yeah
sw2871A-ms98-a-0067	A.77	229.490875	229.784625		[silence]	[silence]
sw2871A-ms98-a-0067	A.77	229.784625	229.904625		and	and
sw2871A-ms98-a-0067	A.77	229.904625	230.124625		that's	that's
sw2871A-ms98-a-0067	A.77	230.124625	230.274625		just	just
sw2871A-ms98-a-0067	A.77	230.274625	230.344625		for	for
sw2871A-ms98-a-0067	A.77	230.344625	230.404625		a	a
sw2871A-ms98-a-0067	A.77	230.404625	230.694625	<SUB>	bok-	[bocket/bucket]
sw2871A-ms98-a-0067	A.77	230.694625	230.824625		a	a
sw2871A-ms98-a-0067	A.77	230.824625	231.094625		bucket	bucket
sw2871A-ms98-a-0067	A.77	231.094625	231.174625		of	of
sw2871A-ms98-a-0067	A.77	231.174625	231.814625		popcorn	popcorn
sw2871A-ms98-a-0067	A.77	231.814625	231.914625		you	you
sw2871A-ms98-a-0067	A.77	231.914625	232.385625		know	know
sw2871A-ms98-a-0067	A.79	232.385625	232.855500		[silence]	[silence]
sw2871A-ms98-a-0067	A.79	232.855500	233.393125		Yeah	yeah
sw2871A-ms98-a-0067	A.79	233.393125	233.690250		[silence]	[silence]
sw2871A-ms98-a-0068	A.79	233.690250	233.977625		[silence]	[silence]
sw2871A-ms98-a-0068	A.79	233.977625	234.382000		yeah	yeah
sw2871A-ms98-a-0068	A.79	234.382000	234.542125		[silence]	[silence]
sw2871A-ms98-a-0068	A.79	234.542125	234.740250		God	God
sw2871A-ms98-a-0068	A.79	234.740250	235.080250		forbid	forbid
sw2871A-ms98-a-0068	A.79	235.080250	235.140250		you	you
sw2871A-ms98-a-0068	A.79	235.140250	235.310250		should	should
sw2871A-ms98-a-0068	A.79	235.310250	235.490250		want	want
sw2871A-ms98-a-0068	A.79	235.490250	235.740250		something	something
sw2871A-ms98-a-0068	A.79	235.740250	235.800250		to	to
sw2871A-ms98-a-0068	A.79	235.800250	236.090250		drink	drink
sw2871A-ms98-a-0068	A.79	236.090250	236.250250		with	with
sw2871A-ms98-a-0068	A.79	236.250250	236.470750		it	it
sw2871A-ms98-a-0068	A.79	236.470750	236.816000		[silence]	[silence]
sw2871A-ms98-a-0069	A.79	236.816000	237.426000		[silence]	[silence]
sw2871A-ms98-a-0069	A.79	237.426000	237.686000		but	but
sw2871A-ms98-a-0069	A.79	237.686000	237.876000		uh	uh
sw2871A-ms98-a-0069	A.81	237.876000	238.363000		[silence]	[silence]
sw2871A-ms98-a-0070	A.81	238.363000	239.567000		[silence]	[silence]
sw2871A-ms98-a-0071	A.81	239.567000	239.877000		[silence]	[silence]
sw2871A-ms98-a-0071	A.81	239.877000	240.237000		Uh-huh	uh-huh
sw2871A-ms98-a-0071	A.83	240.237000	240.674125		[silence]	[silence]
sw2871A-ms98-a-0072	A.83	240.674125	241.736375		[silence]	[silence]
sw2871A-ms98-a-0073	A.83	241.736375	242.086375		[silence]	[silence]
sw2871A-ms98-a-0073	A.83	242.086375	242.306375		Oh	oh
sw2871A-ms98-a-0073	A.83	242.306375	242.837875		yeah	yeah
sw2871A-ms98-a-0073	A.83	242.837875	243.030000		[silence]	[silence]
sw2871A-ms98-a-0073	A.83	243.030000	243.646375		easily	easily
sw2871A-ms98-a-0073	A.85	243.646375	244.017500		[silence]	[silence]
sw2871A-ms98-a-0074	A.85	244.017500	245.997375		[silence]	[silence]
sw2871A-ms98-a-0075	A.85	245.997375	246.297375		[silence]	[silence]
sw2871A-ms98-a-0075	A.85	246.297375	246.417375		And	and
sw2871A-ms98-a-0075	A.85	246.417375	246.417375	<INS>	you're	---
sw2871A-ms98-a-0075	A.85	246.417375	246.657375		usually	usually
sw2871A-ms98-a-0075	A.85	246.657375	246.787375		going	going
sw2871A-ms98-a-0075	A.85	246.787375	246.877375		to	to
sw2871A-ms98-a-0075	A.85	246.877375	247.107375		do	do
sw2871A-ms98-a-0075	A.85	247.107375	247.107375	<INS>	you're	---
sw2871A-ms98-a-0075	A.85	247.107375	247.437375		usually	usually
sw2871A-ms98-a-0075	A.85	247.437375	247.557375		going	going
sw2871A-ms98-a-0075	A.85	247.557375	247.627375		to	to
sw2871A-ms98-a-0075	A.85	247.627375	247.737375		go	go
sw2871A-ms98-a-0075	A.85	247.737375	247.967375		to	to
sw2871A-ms98-a-0075	A.85	247.967375	248.037375		a	a
sw2871A-ms98-a-0075	A.85	248.037375	248.477375	<SUB>	dinner	dinn[er]-
sw2871A-ms98-a-0075	A.85	248.477375	248.597375		go	go
sw2871A-ms98-a-0075	A.85	248.597375	248.697375		to	to
sw2871A-ms98-a-0075	A.85	248.697375	248.967375		dinner	dinner
sw2871A-ms98-a-0075	A.85	248.967375	249.079250		or	or
sw2871A-ms98-a-0075	A.85	249.079250	249.561375		something	something
sw2871A-ms98-a-0075	A.85	249.561375	249.927375		[laughter]	[laughter]
sw2871A-ms98-a-0075	A.85	249.927375	250.187375		with	with
sw2871A-ms98-a-0075	A.85	250.187375	250.453125		that	that
sw2871A-ms98-a-0075	A.87	250.453125	250.907500		[silence]	[silence]
sw2871A-ms98-a-0076	A.87	250.907500	252.983125		[silence]	[silence]
sw2871A-ms98-a-0077	A.87	252.983125	253.423125		[silence]	[silence]
sw2871A-ms98-a-0077	A.87	253.423125	253.746625		Yeah	yeah
sw2871A-ms98-a-0077	A.89	253.746625	254.299000		[silence]	[silence]
sw2871A-ms98-a-0078	A.89	254.299000	255.953500		[silence]	[silence]
sw2871A-ms98-a-0079	A.89	255.953500	256.143500		[silence]	[silence]
sw2871A-ms98-a-0079	A.89	256.143500	256.323500		It's	it's
sw2871A-ms98-a-0079	A.89	256.323500	256.733500		almost	almost
sw2871A-ms98-a-0079	A.89	256.733500	256.883500		more	more
sw2871A-ms98-a-0079	A.89	256.883500	257.233500		fun	fun
sw2871A-ms98-a-0079	A.89	257.233500	257.828875		really	really
sw2871A-ms98-a-0079	A.89	257.828875	258.077500		[silence]	[silence]
sw2871A-ms98-a-0079	A.89	258.077500	258.243500		yeah	yeah
sw2871A-ms98-a-0079	A.89	258.243500	258.363500		it's	it's
sw2871A-ms98-a-0079	A.89	258.363500	258.603500		almost	almost
sw2871A-ms98-a-0079	A.89	258.603500	258.723500		more	more
sw2871A-ms98-a-0079	A.89	258.723500	258.953500		fun	fun
sw2871A-ms98-a-0079	A.89	258.953500	259.233500		really	really
sw2871A-ms98-a-0079	A.89	259.233500	259.363500		to	to
sw2871A-ms98-a-0079	A.89	259.363500	259.603500		rent	rent
sw2871A-ms98-a-0079	A.89	259.603500	260.123750		movies	movies
sw2871A-ms98-a-0079	A.89	260.123750	260.361000		[silence]	[silence]
sw2871A-ms98-a-0079	A.89	260.361000	260.513500		You	you
sw2871A-ms98-a-0079	A.89	260.513500	260.733500		know	know
sw2871A-ms98-a-0079	A.89	260.733500	260.953500		just	just
sw2871A-ms98-a-0079	A.89	260.953500	261.093500		kind	kind
sw2871A-ms98-a-0079	A.89	261.093500	261.153500		of	of
sw2871A-ms98-a-0079	A.89	261.153500	261.303500		stay	stay
sw2871A-ms98-a-0079	A.89	261.303500	261.413500		at	at
sw2871A-ms98-a-0079	A.89	261.413500	261.683500		home	home
sw2871A-ms98-a-0079	A.89	261.683500	262.060375		maybe	maybe
sw2871A-ms98-a-0079	A.91	262.060375	262.536500		[silence]	[silence]
sw2871A-ms98-a-0080	A.91	262.536500	263.827375		[silence]	[silence]
sw2871A-ms98-a-0081	A.91	263.827375	264.147375		[silence]	[silence]
sw2871A-ms98-a-0081	A.91	264.147375	264.509250		Yeah	yeah
sw2871A-ms98-a-0081	A.91	264.509250	264.608500		[silence]	[silence]
sw2871A-ms98-a-0081	A.91	264.608500	264.877375		that's	that's
sw2871A-ms98-a-0081	A.91	264.877375	265.067375		true	true
sw2871A-ms98-a-0081	A.91	265.067375	265.455875		too	too
sw2871A-ms98-a-0081	A.93	265.455875	265.932125		[silence]	[silence]
sw2871A-ms98-a-0082	A.93	265.932125	267.211125		[silence]	[silence]
sw2871A-ms98-a-0083	A.93	267.211125	267.231125		[silence]	[silence]
sw2871A-ms98-a-0083	A.93	267.231125	267.601125		Yeah	yeah
sw2871A-ms98-a-0083	A.93	267.601125	268.490000		[silence]	[silence]
sw2871A-ms98-a-0084	A.93	268.490000	268.780000		[silence]	[silence]
sw2871A-ms98-a-0084	A.93	268.780000	268.980000		but	but
sw2871A-ms98-a-0084	A.93	268.980000	269.120000		then	then
sw2871A-ms98-a-0084	A.93	269.120000	269.220000		you	you
sw2871A-ms98-a-0084	A.93	269.220000	269.350000		can	can
sw2871A-ms98-a-0084	A.93	269.350000	269.540000		make	make
sw2871A-ms98-a-0084	A.93	269.540000	269.630000		your	your
sw2871A-ms98-a-0084	A.93	269.630000	270.450000		popcorn	popcorn
sw2871A-ms98-a-0084	A.93	270.450000	270.640000		and	and
sw2871A-ms98-a-0084	A.93	270.640000	270.770000		you	you
sw2871A-ms98-a-0084	A.93	270.770000	271.070000		know	know
sw2871A-ms98-a-0084	A.93	271.070000	271.505125		[silence]	[silence]
sw2871A-ms98-a-0085	A.93	271.505125	271.855125		[silence]	[silence]
sw2871A-ms98-a-0085	A.93	271.855125	271.977000		be	be
sw2871A-ms98-a-0085	A.93	271.977000	272.605125		comfortable	comfortable
sw2871A-ms98-a-0085	A.95	272.605125	272.904875		[silence]	[silence]
sw2871A-ms98-a-0086	A.95	272.904875	274.583250		[silence]	[silence]
sw2871A-ms98-a-0087	A.95	274.583250	274.888125		[silence]	[silence]
sw2871A-ms98-a-0087	A.95	274.888125	275.185625	<DEL>	---	so
sw2871A-ms98-a-0087	A.95	275.185625	275.378125		[silence]	[silence]
sw2871A-ms98-a-0087	A.95	275.378125	275.763250	<SUB>	Uh-huh	um-hum
sw2871A-ms98-a-0087	A.97	275.763250	276.043750		[silence]	[silence]
sw2871A-ms98-a-0088	A.97	276.043750	277.504625		[silence]	[silence]
sw2871A-ms98-a-0089	A.97	277.504625	277.964625		[silence]	[silence]
sw2871A-ms98-a-0089	A.97	277.964625	278.054625		Well	well
sw2871A-ms98-a-0089	A.97	278.054625	278.254625		that's	that's
sw2871A-ms98-a-0089	A.97	278.254625	278.464625		about	about
sw2871A-ms98-a-0089	A.97	278.464625	278.594625		all	all
sw2871A-ms98-a-0089	A.97	278.594625	278.704625		the	the
sw2871A-ms98-a-0089	A.97	278.704625	278.904625		movies	movies
sw2871A-ms98-a-0089	A.97	278.904625	279.024625		I've	i've
sw2871A-ms98-a-0089	A.97	279.024625	279.384625		seen	seen
sw2871A-ms98-a-0089	A.97	279.384625	280.292500		recently	[laughter-recently]
sw2871A-ms98-a-0089	A.99	280.292500	280.592375		[silence]	[silence]
sw2871A-ms98-a-0090	A.99	280.592375	282.247000		[silence]	[silence]
sw2871A-ms98-a-0091	A.99	282.247000	282.467000		[silence]	[silence]
sw2871A-ms98-a-0091	A.99	282.467000	282.787000	<DEL>	---	yeah
sw2871A-ms98-a-0091	A.99	282.787000	283.066250		[silence]	[silence]
sw2871A-ms98-a-0092	A.99	283.066250	289.122500		[silence]	[silence]
sw2871A-ms98-a-0093	A.99	289.122500	289.309875		[silence]	[silence]
sw2871A-ms98-a-0093	A.99	289.309875	289.682500	<SUB>	Uh-huh	um-hum
sw2871A-ms98-a-0093	A.101	289.682500	290.180625		[silence]	[silence]
sw2871A-ms98-a-0094	A.101	290.180625	294.912500		[silence]	[silence]
sw2871A-ms98-a-0095	A.101	294.912500	295.238875		[silence]	[silence]
sw2871A-ms98-a-0095	A.101	295.238875	295.565125	<DEL>	---	it's
sw2871A-ms98-a-0095	A.101	295.565125	296.266250		[silence]	[silence]
sw2871A-ms98-a-0096	A.101	296.266250	296.606250		[silence]	[silence]
sw2871A-ms98-a-0096	A.101	296.606250	296.916250		No	no
sw2871A-ms98-a-0096	A.101	296.916250	297.006250		I	i
sw2871A-ms98-a-0096	A.101	297.006250	297.236250		never	never
sw2871A-ms98-a-0096	A.101	297.236250	297.586250		did	did
sw2871A-ms98-a-0096	A.103	297.586250	298.020250		[silence]	[silence]
sw2871A-ms98-a-0097	A.103	298.020250	298.260250		[silence]	[silence]
sw2871A-ms98-a-0097	A.103	298.260250	298.380250		Was	was
sw2871A-ms98-a-0097	A.103	298.380250	298.520250		that	that
sw2871A-ms98-a-0097	A.103	298.520250	298.840250		Arnold	Arnold
sw2871A-ms98-a-0097	A.103	298.840250	299.528750		Schwarzenegger	Schwarzenegger
sw2871A-ms98-a-0097	A.105	299.528750	299.804250		[silence]	[silence]
sw2871A-ms98-a-0098	A.105	299.804250	300.167500		[silence]	[silence]
sw2871A-ms98-a-0098	A.105	300.167500	300.624250		Yeah	yeah
sw2871A-ms98-a-0098	A.105	300.624250	301.011375		yeah	yeah
sw2871A-ms98-a-0098	A.107	301.011375	301.368125		[silence]	[silence]
sw2871A-ms98-a-0099	A.107	301.368125	303.490375		[silence]	[silence]
sw2871A-ms98-a-0100	A.107	303.490375	303.870375		[silence]	[silence]
sw2871A-ms98-a-0100	A.107	303.870375	304.000375		There's	there's
sw2871A-ms98-a-0100	A.107	304.000375	304.040375		a	a
sw2871A-ms98-a-0100	A.107	304.040375	304.280375		movie	movie
sw2871A-ms98-a-0100	A.107	304.280375	304.320375		I	i
sw2871A-ms98-a-0100	A.107	304.320375	304.530375		do	do
sw2871A-ms98-a-0100	A.107	304.530375	304.740375		want	want
sw2871A-ms98-a-0100	A.107	304.740375	304.800375		to	to
sw2871A-ms98-a-0100	A.107	304.800375	305.260375		see	see
sw2871A-ms98-a-0100	A.107	305.260375	305.752625		uh	uh
sw2871A-ms98-a-0100	A.107	305.752625	306.185750		[noise]	[noise]
sw2871A-ms98-a-0100	A.107	306.185750	306.330375		I	i
sw2871A-ms98-a-0100	A.107	306.330375	306.750375		haven't	haven't
sw2871A-ms98-a-0100	A.107	306.750375	307.170375		seen	seen
sw2871A-ms98-a-0100	A.107	307.170375	307.360375		it	it
sw2871A-ms98-a-0100	A.107	307.360375	307.771250		[silence]	[silence]
sw2871A-ms98-a-0101	A.107	307.771250	308.211250		[silence]	[silence]
sw2871A-ms98-a-0101	A.107	308.211250	308.401250		what	what
sw2871A-ms98-a-0101	A.107	308.401250	308.581250		is	is
sw2871A-ms98-a-0101	A.107	308.581250	308.780000		it	it
sw2871A-ms98-a-0101	A.107	308.780000	309.036000		[silence]	[silence]
sw2871A-ms98-a-0101	A.107	309.036000	309.241250		oh	oh
sw2871A-ms98-a-0101	A.109	309.241250	309.571250		KISS	Kiss
sw2871A-ms98-a-0101	A.109	309.571250	309.911250		BEFORE	Before
sw2871A-ms98-a-0101	A.109	309.911250	310.471250		DYING	Dying
sw2871A-ms98-a-0101	A.111	310.471250	311.099625		[silence]	[silence]
sw2871A-ms98-a-0102	A.111	311.099625	311.919625		[silence]	[silence]
sw2871A-ms98-a-0102	A.111	311.919625	312.109625		It	it
sw2871A-ms98-a-0102	A.111	312.109625	312.459625		looks	looks
sw2871A-ms98-a-0102	A.111	312.459625	312.649625		it	it
sw2871A-ms98-a-0102	A.111	312.649625	312.819625		looks	looks
sw2871A-ms98-a-0102	A.111	312.819625	313.029625		pretty	pretty
sw2871A-ms98-a-0102	A.111	313.029625	313.749625		suspenseful	suspenseful
sw2871A-ms98-a-0102	A.115	313.749625	314.027875		[silence]	[silence]
sw2871A-ms98-a-0103	A.115	314.027875	332.189250		[silence]	[silence]
sw2871A-ms98-a-0104	A.115	332.189250	332.569250		[silence]	[silence]
sw2871A-ms98-a-0104	A.115	332.569250	333.020750	<DEL>	---	um-hum
sw2871A-ms98-a-0104	A.115	333.020750	333.160000		[silence]	[silence]
sw2871A-ms98-a-0104	A.115	333.160000	333.259250		Are	are
sw2871A-ms98-a-0104	A.115	333.259250	333.379250		you	you
sw2871A-ms98-a-0104	A.115	333.379250	333.609250		looking	looking
sw2871A-ms98-a-0104	A.115	333.609250	333.669250		in	in
sw2871A-ms98-a-0104	A.115	333.669250	333.729250		the	the
sw2871A-ms98-a-0104	A.115	333.729250	334.129250		paper	paper
sw2871A-ms98-a-0104	A.117	334.129250	334.935000		[silence]	[silence]
sw2871A-ms98-a-0105	A.117	334.935000	335.545000		[silence]	[silence]
sw2871A-ms98-a-0105	A.117	335.545000	335.805000		Oh	oh
sw2871A-ms98-a-0105	A.119	335.805000	336.145000		[laughter]	[laughter]
sw2871A-ms98-a-0105	A.119	336.145000	336.360375		[silence]	[silence]
sw2871A-ms98-a-0106	A.119	336.360375	339.667625		[silence]	[silence]
sw2871A-ms98-a-0107	A.119	339.667625	340.037625		[silence]	[silence]
sw2871A-ms98-a-0107	A.119	340.037625	340.327625		Oh	oh
sw2871A-ms98-a-0107	A.119	340.327625	340.657625		yeah	yeah
sw2871A-ms98-a-0107	A.119	340.657625	340.837625		that	that
sw2871A-ms98-a-0107	A.119	340.837625	341.027625		was	was
sw2871A-ms98-a-0107	A.119	341.027625	341.507625		great	great
sw2871A-ms98-a-0107	A.121	341.507625	341.921000		[silence]	[silence]
sw2871A-ms98-a-0108	A.121	341.921000	342.171000		[silence]	[silence]
sw2871A-ms98-a-0108	A.121	342.171000	342.791000		Yes	yes
sw2871A-ms98-a-0108	A.121	342.791000	342.971000		that	that
sw2871A-ms98-a-0108	A.121	342.971000	343.271000		was	was
sw2871A-ms98-a-0108	A.121	343.271000	343.731000		that	that
sw2871A-ms98-a-0108	A.121	343.731000	344.297375		[silence]	[silence]
sw2871A-ms98-a-0109	A.121	344.297375	344.667375		[silence]	[silence]
sw2871A-ms98-a-0109	A.121	344.667375	344.837375		that	that
sw2871A-ms98-a-0109	A.121	344.837375	345.027375		might	might
sw2871A-ms98-a-0109	A.121	345.027375	345.107375		be	be
sw2871A-ms98-a-0109	A.121	345.107375	345.247375		one	one
sw2871A-ms98-a-0109	A.121	345.247375	345.307375		of	of
sw2871A-ms98-a-0109	A.121	345.307375	345.377375		my	my
sw2871A-ms98-a-0109	A.121	345.377375	345.527375		all	all
sw2871A-ms98-a-0109	A.121	345.527375	345.777375		time	[laughter-time]
sw2871A-ms98-a-0109	A.121	345.777375	346.527375		favorites	[laughter-favorites]
sw2871A-ms98-a-0109	A.121	346.527375	346.757375		too	too
sw2871A-ms98-a-0109	A.121	346.757375	346.947375		that	that
sw2871A-ms98-a-0109	A.121	346.947375	347.097375		was	was
sw2871A-ms98-a-0109	A.121	347.097375	347.167375		an	an
sw2871A-ms98-a-0109	A.121	347.167375	347.587375		excellent	excellent
sw2871A-ms98-a-0109	A.121	347.587375	347.947375		movie	movie
sw2871A-ms98-a-0109	A.121	347.947375	348.043750		[silence]	[silence]
sw2871A-ms98-a-0110	A.121	348.043750	349.617750		[silence]	[silence]
sw2871A-ms98-a-0111	A.121	349.617750	349.867750		[silence]	[silence]
sw2871A-ms98-a-0111	A.121	349.867750	349.927750		It	it
sw2871A-ms98-a-0111	A.121	349.927750	350.047750		was	was
sw2871A-ms98-a-0111	A.121	350.047750	350.247750		pretty	pretty
sw2871A-ms98-a-0111	A.121	350.247750	350.617750		scary	scary
sw2871A-ms98-a-0111	A.121	350.617750	350.797750		because	because
sw2871A-ms98-a-0111	A.121	350.797750	350.897750		I	i
sw2871A-ms98-a-0111	A.121	350.897750	351.107750		was	was
sw2871A-ms98-a-0111	A.121	351.107750	351.627750		visiting	visiting
sw2871A-ms98-a-0111	A.121	351.627750	351.687750		a	a
sw2871A-ms98-a-0111	A.121	351.687750	352.007750	<CONT>	V	VA
sw2871A-ms98-a-0111	A.121	352.007750	352.007750	<CONT>	A	+++
sw2871A-ms98-a-0111	A.121	352.007750	352.692500		Hospital	Hospital
sw2871A-ms98-a-0111	A.121	352.692500	353.099375		[silence]	[silence]
sw2871A-ms98-a-0111	A.121	353.099375	353.287750		uh	uh
sw2871A-ms98-a-0111	A.121	353.287750	353.477750		near	near
sw2871A-ms98-a-0111	A.121	353.477750	353.617750		to	to
sw2871A-ms98-a-0111	A.121	353.617750	353.777750		where	where
sw2871A-ms98-a-0111	A.121	353.777750	353.857750		I	i
sw2871A-ms98-a-0111	A.121	353.857750	354.237750		live	live
sw2871A-ms98-a-0111	A.121	354.237750	354.327750		and	and
sw2871A-ms98-a-0111	A.121	354.327750	354.397750		they	they
sw2871A-ms98-a-0111	A.121	354.397750	354.557750		were	were
sw2871A-ms98-a-0111	A.121	354.557750	354.907750		saying	saying
sw2871A-ms98-a-0111	A.121	354.907750	355.097750		that	that
sw2871A-ms98-a-0111	A.121	355.097750	355.617750		some	some
sw2871A-ms98-a-0111	A.121	355.617750	355.677750		of	of
sw2871A-ms98-a-0111	A.121	355.677750	355.737750		the	the
sw2871A-ms98-a-0111	A.121	355.737750	356.187750		patients	patients
sw2871A-ms98-a-0111	A.121	356.187750	356.327750		there	there
sw2871A-ms98-a-0111	A.121	356.327750	356.437750		you	you
sw2871A-ms98-a-0111	A.121	356.437750	356.777750		can't	can't
sw2871A-ms98-a-0111	A.121	356.777750	357.097750		leave	leave
sw2871A-ms98-a-0111	A.121	357.097750	357.247750		by	by
sw2871A-ms98-a-0111	A.121	357.247750	357.987750		themselves	themselves
sw2871A-ms98-a-0111	A.121	357.987750	358.137750		because	because_1
sw2871A-ms98-a-0111	A.121	358.137750	358.317750		they'll	they'll
sw2871A-ms98-a-0111	A.121	358.317750	358.497750		make	make
sw2871A-ms98-a-0111	A.121	358.497750	358.597750		a	a
sw2871A-ms98-a-0111	A.121	358.597750	358.997750		weapon	weapon
sw2871A-ms98-a-0111	A.121	358.997750	359.117750		out	out
sw2871A-ms98-a-0111	A.121	359.117750	359.237750		of	of
sw2871A-ms98-a-0111	A.121	359.237750	359.807750		anything	anything
sw2871A-ms98-a-0111	A.121	359.807750	360.098375		[silence]	[silence]
sw2871A-ms98-a-0112	A.121	360.098375	360.448375		[silence]	[silence]
sw2871A-ms98-a-0112	A.121	360.448375	360.558375		you	you
sw2871A-ms98-a-0112	A.121	360.558375	360.668375		know	know
sw2871A-ms98-a-0112	A.121	360.668375	360.738375		out	out
sw2871A-ms98-a-0112	A.121	360.738375	360.838375		of	of
sw2871A-ms98-a-0112	A.121	360.838375	360.908375		a	a
sw2871A-ms98-a-0112	A.121	360.908375	361.128375		piece	piece
sw2871A-ms98-a-0112	A.121	361.128375	361.208375		of	of
sw2871A-ms98-a-0112	A.121	361.208375	361.548375		paper	paper
sw2871A-ms98-a-0112	A.121	361.548375	361.668375		they	they
sw2871A-ms98-a-0112	A.121	361.668375	361.768375		can	can
sw2871A-ms98-a-0112	A.121	361.768375	361.978375		kill	kill
sw2871A-ms98-a-0112	A.121	361.978375	362.538750		somebody	somebody
sw2871A-ms98-a-0112	A.121	362.538750	362.670625		[silence]	[silence]
sw2871A-ms98-a-0112	A.121	362.670625	362.828375		you	you
sw2871A-ms98-a-0112	A.121	362.828375	363.103000		know	know
sw2871A-ms98-a-0112	A.123	363.103000	363.603875		[silence]	[silence]
sw2871A-ms98-a-0112	A.123	363.603875	363.948375		And	and
sw2871A-ms98-a-0112	A.123	363.948375	364.138375		this	this
sw2871A-ms98-a-0112	A.123	364.138375	364.583375		guy	guy
sw2871A-ms98-a-0112	A.123	364.583375	365.163875		in	in
sw2871A-ms98-a-0112	A.123	365.163875	365.243000		[silence]	[silence]
sw2871A-ms98-a-0112	A.123	365.243000	365.698375		SILENCE	Silence
sw2871A-ms98-a-0112	A.123	365.698375	365.798375		OF	of
sw2871A-ms98-a-0112	A.123	365.798375	365.878375		THE	the
sw2871A-ms98-a-0112	A.123	365.878375	366.288375		LAMBS	Lambs
sw2871A-ms98-a-0112	A.123	366.288375	366.668375		Hannibal	Hannibal
sw2871A-ms98-a-0112	A.123	366.668375	367.178000		Lector	Lector
sw2871A-ms98-a-0112	A.123	367.178000	367.668375		[silence]	[silence]
sw2871A-ms98-a-0112	A.123	367.668375	367.798375		he	he
sw2871A-ms98-a-0112	A.123	367.798375	368.068375		was	was
sw2871A-ms98-a-0112	A.123	368.068375	368.288375		he	he
sw2871A-ms98-a-0112	A.123	368.288375	368.448375		was	was
sw2871A-ms98-a-0112	A.123	368.448375	368.628375		that	that
sw2871A-ms98-a-0112	A.123	368.628375	368.828375		kind	kind
sw2871A-ms98-a-0112	A.123	368.828375	368.898375		of	of
sw2871A-ms98-a-0112	A.123	368.898375	369.448000		person	person
sw2871A-ms98-a-0112	A.123	369.448000	369.885000		[silence]	[silence]
sw2871A-ms98-a-0112	A.123	369.885000	370.038375		and	and
sw2871A-ms98-a-0112	A.123	370.038375	370.108375		you	you
sw2871A-ms98-a-0112	A.123	370.108375	370.238375		they	they
sw2871A-ms98-a-0112	A.123	370.238375	370.598375		couldn't	couldn't
sw2871A-ms98-a-0112	A.123	370.598375	370.778375		leave	leave
sw2871A-ms98-a-0112	A.123	370.778375	370.918375		him	him
sw2871A-ms98-a-0112	A.123	370.918375	371.238375		alone	alone
sw2871A-ms98-a-0112	A.123	371.238375	371.328375		and	and
sw2871A-ms98-a-0112	A.123	371.328375	371.627875		that's	that's
sw2871A-ms98-a-0112	A.123	371.627875	371.917875		[silence]	[silence]
sw2871A-ms98-a-0112	A.123	371.917875	372.108375		that's	that's
sw2871A-ms98-a-0112	A.123	372.108375	372.218375		what	what
sw2871A-ms98-a-0112	A.123	372.218375	372.308375		was	was
sw2871A-ms98-a-0112	A.123	372.308375	372.488375		so	so
sw2871A-ms98-a-0112	A.123	372.488375	372.928375		scary	scary
sw2871A-ms98-a-0112	A.123	372.928375	373.168375		about	about
sw2871A-ms98-a-0112	A.123	373.168375	373.228375		the	the
sw2871A-ms98-a-0112	A.123	373.228375	373.638375		movie	movie
sw2871A-ms98-a-0112	A.123	373.638375	373.944375		[silence]	[silence]
sw2871A-ms98-a-0113	A.123	373.944375	374.194375		[silence]	[silence]
sw2871A-ms98-a-0113	A.123	374.194375	374.344375		you	you
sw2871A-ms98-a-0113	A.123	374.344375	374.524375		know	know
sw2871A-ms98-a-0113	A.125	374.524375	374.764375	<SUB>	Because	since
sw2871A-ms98-a-0113	A.125	374.764375	374.854375		he	he
sw2871A-ms98-a-0113	A.125	374.854375	374.994375		was	was
sw2871A-ms98-a-0113	A.125	374.994375	375.194375		such	such
sw2871A-ms98-a-0113	A.125	375.194375	375.294375		an	an
sw2871A-ms98-a-0113	A.125	375.294375	375.684375		awesome	awesome
sw2871A-ms98-a-0113	A.125	375.684375	376.344375		character	character
sw2871A-ms98-a-0113	A.125	376.344375	376.856750		[silence]	[silence]
sw2871A-ms98-a-0114	A.125	376.856750	377.176750		[silence]	[silence]
sw2871A-ms98-a-0114	A.125	377.176750	377.376750		you	you
sw2871A-ms98-a-0114	A.125	377.376750	377.516750		know	know
sw2871A-ms98-a-0114	A.125	377.516750	377.556750	<DEL>	---	i
sw2871A-ms98-a-0114	A.125	377.556750	377.786750	<DEL>	---	mean
sw2871A-ms98-a-0114	A.125	377.786750	377.856750		it	it
sw2871A-ms98-a-0114	A.125	377.856750	378.086750		was	was
sw2871A-ms98-a-0114	A.125	378.086750	378.186750		it	it
sw2871A-ms98-a-0114	A.125	378.186750	378.286750		was	was
sw2871A-ms98-a-0114	A.125	378.286750	378.496750		really	really
sw2871A-ms98-a-0114	A.125	378.496750	378.936750	<SUB>	fas-	fascin[ating]-
sw2871A-ms98-a-0114	A.125	378.936750	379.046750		he	he
sw2871A-ms98-a-0114	A.125	379.046750	379.196750		was	was
sw2871A-ms98-a-0114	A.125	379.196750	379.456750		very	very
sw2871A-ms98-a-0114	A.125	379.456750	380.056750		dangerous	dangerous
sw2871A-ms98-a-0114	A.125	380.056750	380.319000		but	but
sw2871A-ms98-a-0114	A.125	380.319000	380.748375		[silence]	[silence]
sw2871A-ms98-a-0114	A.125	380.748375	380.866750		you	you
sw2871A-ms98-a-0114	A.125	380.866750	380.926750		were	were
sw2871A-ms98-a-0114	A.125	380.926750	381.126750		kind	kind
sw2871A-ms98-a-0114	A.125	381.126750	381.196750		of	of
sw2871A-ms98-a-0114	A.125	381.196750	381.346750		on	on
sw2871A-ms98-a-0114	A.125	381.346750	381.456750		his	his
sw2871A-ms98-a-0114	A.125	381.456750	381.936750		side	side
sw2871A-ms98-a-0114	A.125	381.936750	382.076750		because	because_1
sw2871A-ms98-a-0114	A.125	382.076750	382.166750		he	he
sw2871A-ms98-a-0114	A.125	382.166750	382.256750		was	was
sw2871A-ms98-a-0114	A.125	382.256750	382.406750		so	so
sw2871A-ms98-a-0114	A.125	382.406750	383.166750		fascinating	fascinating
sw2871A-ms98-a-0114	A.127	383.166750	383.680625		[laughter]	[laughter]
sw2871A-ms98-a-0114	A.127	383.680625	384.258250		[silence]	[silence]
sw2871A-ms98-a-0115	A.127	384.258250	384.859000		[silence]	[silence]
sw2871A-ms98-a-0115	A.127	384.859000	385.288250		But	but
sw2871A-ms98-a-0115	A.127	385.288250	385.418250		but	but
sw2871A-ms98-a-0115	A.127	385.418250	385.508250		they	they
sw2871A-ms98-a-0115	A.127	385.508250	385.778250		couldn't	couldn't
sw2871A-ms98-a-0115	A.127	385.778250	385.918250		leave	leave
sw2871A-ms98-a-0115	A.127	385.918250	386.048250		him	him
sw2871A-ms98-a-0115	A.127	386.048250	386.448250		alone	alone
sw2871A-ms98-a-0115	A.127	386.448250	386.578250		at	at
sw2871A-ms98-a-0115	A.127	386.578250	387.018250		all	all
sw2871A-ms98-a-0115	A.127	387.018250	387.617125		[silence]	[silence]
sw2871A-ms98-a-0116	A.127	387.617125	388.417125		[silence]	[silence]
sw2871A-ms98-a-0116	A.127	388.417125	388.567500		And	and
sw2871A-ms98-a-0116	A.127	388.567500	388.669125		they	they
sw2871A-ms98-a-0116	A.127	388.669125	388.927125		found	found
sw2871A-ms98-a-0116	A.127	388.927125	389.017125		out	out
sw2871A-ms98-a-0116	A.127	389.017125	389.147125		what	what
sw2871A-ms98-a-0116	A.127	389.147125	389.407125		happened	happened
sw2871A-ms98-a-0116	A.127	389.407125	389.507125		when	when
sw2871A-ms98-a-0116	A.127	389.507125	389.607125		they	they
sw2871A-ms98-a-0116	A.127	389.607125	389.807125		did	did
sw2871A-ms98-a-0116	A.127	389.807125	389.977125		leave	leave
sw2871A-ms98-a-0116	A.127	389.977125	390.067125		him	him
sw2871A-ms98-a-0116	A.127	390.067125	390.377125		alone	alone
sw2871A-ms98-a-0116	A.127	390.377125	390.477125		one	one
sw2871A-ms98-a-0116	A.127	390.477125	390.677125		time	time
sw2871A-ms98-a-0116	A.127	390.677125	390.767125		but	but
sw2871A-ms98-a-0116	A.127	390.767125	390.797125		I	i
sw2871A-ms98-a-0116	A.127	390.797125	390.997125		won't	won't
sw2871A-ms98-a-0116	A.127	390.997125	391.127125		tell	tell
sw2871A-ms98-a-0116	A.127	391.127125	391.257125		you	you
sw2871A-ms98-a-0116	A.127	391.257125	391.407125		that	that
sw2871A-ms98-a-0116	A.127	391.407125	391.577125		just	just
sw2871A-ms98-a-0116	A.127	391.577125	391.637125		in	in
sw2871A-ms98-a-0116	A.127	391.637125	391.907125		case	case
sw2871A-ms98-a-0116	A.127	391.907125	392.037125		you	you
sw2871A-ms98-a-0116	A.127	392.037125	392.187125		see	see
sw2871A-ms98-a-0116	A.127	392.187125	392.257125		the	the
sw2871A-ms98-a-0116	A.127	392.257125	392.587125		movie	movie
sw2871A-ms98-a-0116	A.129	392.587125	392.797125		[laughter]	[laughter]
sw2871A-ms98-a-0116	A.129	392.797125	392.956000		[silence]	[silence]
sw2871A-ms98-a-0117	A.129	392.956000	394.281625		[silence]	[silence]
sw2871A-ms98-a-0118	A.129	394.281625	394.721625		[silence]	[silence]
sw2871A-ms98-a-0118	A.129	394.721625	395.131625	<SUB>	Uh-huh	um-hum
sw2871A-ms98-a-0118	A.129	395.131625	395.450375		[silence]	[silence]
sw2871A-ms98-a-0119	A.129	395.450375	396.591000		[silence]	[silence]
sw2871A-ms98-a-0120	A.129	396.591000	397.191000		[silence]	[silence]
sw2871A-ms98-a-0120	A.129	397.191000	397.361000		oh	oh
sw2871A-ms98-a-0120	A.129	397.361000	397.771000		very	very
sw2871A-ms98-a-0120	A.129	397.771000	398.031000		good	good
sw2871A-ms98-a-0120	A.131	398.031000	398.662000		[silence]	[silence]
sw2871A-ms98-a-0121	A.131	398.662000	399.092000		[silence]	[silence]
sw2871A-ms98-a-0121	A.131	399.092000	399.234875		Oh	oh
sw2871A-ms98-a-0121	A.131	399.234875	399.558375		yeah	yeah
sw2871A-ms98-a-0121	A.131	399.558375	399.687250		oh	oh
sw2871A-ms98-a-0121	A.131	399.687250	399.862000		yeah	yeah
sw2871A-ms98-a-0121	A.131	399.862000	400.117625		[silence]	[silence]
sw2871A-ms98-a-0122	A.131	400.117625	401.261500		[silence]	[silence]
sw2871A-ms98-a-0123	A.131	401.261500	401.581500		[silence]	[silence]
sw2871A-ms98-a-0123	A.131	401.581500	401.671500		I'm	i'm
sw2871A-ms98-a-0123	A.131	401.671500	401.811500		not	not
sw2871A-ms98-a-0123	A.131	401.811500	401.981500		sure	sure
sw2871A-ms98-a-0123	A.131	401.981500	402.111500		when	when
sw2871A-ms98-a-0123	A.131	402.111500	402.231500	<CONT>	it	it'll
sw2871A-ms98-a-0123	A.131	402.231500	402.231500	<CONT>	will	+++
sw2871A-ms98-a-0123	A.131	402.231500	402.311500		be	be
sw2871A-ms98-a-0123	A.131	402.311500	402.561500		hitting	hitting
sw2871A-ms98-a-0123	A.131	402.561500	402.871500		video	video
sw2871A-ms98-a-0123	A.131	402.871500	403.401500		stores	stores
sw2871A-ms98-a-0123	A.131	403.401500	403.701500		[silence]	[silence]
sw2871A-ms98-a-0123	A.131	403.701500	403.801500	<DEL>	---	but
sw2871A-ms98-a-0123	A.131	403.801500	403.901500		it	it
sw2871A-ms98-a-0123	A.131	403.901500	404.121500		should	should
sw2871A-ms98-a-0123	A.131	404.121500	404.251500		be	be
sw2871A-ms98-a-0123	A.131	404.251500	404.321500		a	a
sw2871A-ms98-a-0123	A.131	404.321500	404.581500		while	while
sw2871A-ms98-a-0123	A.131	404.581500	404.891500		yet	yet
sw2871A-ms98-a-0123	A.131	404.891500	405.141500		though	though
sw2871A-ms98-a-0123	A.133	405.141500	405.355250		[silence]	[silence]
sw2871A-ms98-a-0124	A.133	405.355250	409.285500		[silence]	[silence]
sw2871A-ms98-a-0125	A.133	409.285500	409.435500		[silence]	[silence]
sw2871A-ms98-a-0125	A.133	409.435500	410.044375		Oh	oh
sw2871A-ms98-a-0125	A.133	410.044375	410.385500		[noise]	[noise]
sw2871A-ms98-a-0125	A.133	410.385500	410.489375		I	i
sw2871A-ms98-a-0125	A.133	410.489375	410.725500		haven't	haven't
sw2871A-ms98-a-0125	A.133	410.725500	410.825500		heard	heard
sw2871A-ms98-a-0125	A.133	410.825500	411.195500		anything	anything
sw2871A-ms98-a-0125	A.133	411.195500	411.585500		about	about
sw2871A-ms98-a-0125	A.133	411.585500	411.765500		it	it
sw2871A-ms98-a-0125	A.133	411.765500	412.245375		[silence]	[silence]
sw2871A-ms98-a-0126	A.133	412.245375	412.575375		[silence]	[silence]
sw2871A-ms98-a-0126	A.133	412.575375	412.777625		I	i
sw2871A-ms98-a-0126	A.133	412.777625	412.932750		but	but
sw2871A-ms98-a-0126	A.133	412.932750	413.089125		I	i
sw2871A-ms98-a-0126	A.133	413.089125	413.274125		don't	don't
sw2871A-ms98-a-0126	A.133	413.274125	413.425375		[silence]	[silence]
sw2871A-ms98-a-0126	A.133	413.425375	413.655375		like	like
sw2871A-ms98-a-0126	A.133	413.655375	414.005375		Steven	Steven
sw2871A-ms98-a-0126	A.133	414.005375	414.415375		Seagal	Seagal
sw2871A-ms98-a-0126	A.133	414.415375	414.987750		things	things
sw2871A-ms98-a-0126	A.133	414.987750	415.409625		[silence]	[silence]
sw2871A-ms98-a-0126	A.133	415.409625	416.275500		uh	[laughter-uh]
sw2871A-ms98-a-0126	A.133	416.275500	417.133000		[silence]	[silence]
sw2871A-ms98-a-0126	A.133	417.133000	417.300375	<SUB>	so	they're
sw2871A-ms98-a-0126	A.135	417.300375	417.481750	<DEL>	---	just
sw2871A-ms98-a-0126	A.135	417.481750	417.639500	<DEL>	---	kind
sw2871A-ms98-a-0126	A.135	417.639500	417.837000	<DEL>	---	um
sw2871A-ms98-a-0126	A.135	417.837000	417.998500		[silence]	[silence]
sw2871A-ms98-a-0127	A.135	417.998500	419.381500		[silence]	[silence]
sw2871A-ms98-a-0128	A.135	419.381500	419.751500		[silence]	[silence]
sw2871A-ms98-a-0128	A.135	419.751500	419.891500		He's	he's
sw2871A-ms98-a-0128	A.135	419.891500	420.041500		had	had
sw2871A-ms98-a-0128	A.135	420.041500	420.221500		OUT	Out
sw2871A-ms98-a-0128	A.135	420.221500	420.331500		FOR	For
sw2871A-ms98-a-0128	A.135	420.331500	420.671500		JUSTICE	Justice
sw2871A-ms98-a-0128	A.135	420.671500	420.791500		and	and
sw2871A-ms98-a-0128	A.135	420.791500	420.961500		there	there
sw2871A-ms98-a-0128	A.135	420.961500	421.081500		was	was
sw2871A-ms98-a-0128	A.135	421.081500	421.321500		one	one
sw2871A-ms98-a-0128	A.135	421.321500	421.511500		right	right
sw2871A-ms98-a-0128	A.135	421.511500	421.901500		before	before
sw2871A-ms98-a-0128	A.135	421.901500	422.261500		that	that
sw2871A-ms98-a-0128	A.135	422.261500	422.641500		[silence]	[silence]
sw2871A-ms98-a-0128	A.135	422.641500	422.851500		with	with
sw2871A-ms98-a-0128	A.135	422.851500	422.891500		a	a
sw2871A-ms98-a-0128	A.135	422.891500	423.311500		similar	similar
sw2871A-ms98-a-0128	A.135	423.311500	423.771500		title	title
sw2871A-ms98-a-0128	A.135	423.771500	424.021500		like	like
sw2871A-ms98-a-0128	A.135	424.021500	424.496375		[silence]	[silence]
sw2871A-ms98-a-0129	A.135	424.496375	424.950750		[silence]	[silence]
sw2871A-ms98-a-0129	A.135	424.950750	425.396125		uh	uh
sw2871A-ms98-a-0129	A.135	425.396125	426.184000		[silence]	[silence]
sw2871A-ms98-a-0130	A.135	426.184000	426.924000		[silence]	[silence]
sw2871A-ms98-a-0130	A.135	426.924000	427.077750		I	i
sw2871A-ms98-a-0130	A.135	427.077750	427.224000		don't	don't
sw2871A-ms98-a-0130	A.135	427.224000	427.424000		know	know
sw2871A-ms98-a-0130	A.135	427.424000	427.851000		some	some
sw2871A-ms98-a-0130	A.135	427.851000	428.424000		[silence]	[silence]
sw2871A-ms98-a-0130	A.135	428.424000	428.504000		I	i
sw2871A-ms98-a-0130	A.135	428.504000	428.684000		don't	don't
sw2871A-ms98-a-0130	A.135	428.684000	428.784000		know	know
sw2871A-ms98-a-0130	A.135	428.784000	429.034000		some	some
sw2871A-ms98-a-0130	A.135	429.034000	429.504000		macho	macho
sw2871A-ms98-a-0130	A.135	429.504000	429.904000		title	title
sw2871A-ms98-a-0130	A.135	429.904000	431.104000		[laughter]	[laughter]
sw2871A-ms98-a-0130	A.135	431.104000	431.314000		That's	that's
sw2871A-ms98-a-0130	A.135	431.314000	431.374000		why	why
sw2871A-ms98-a-0130	A.135	431.374000	431.644000		I	i
sw2871A-ms98-a-0130	A.137	431.644000	431.774000		[silence]	[silence]
sw2871A-ms98-a-0130	A.137	431.774000	431.934000		I	i
sw2871A-ms98-a-0130	A.137	431.934000	432.104000		just	just
sw2871A-ms98-a-0130	A.137	432.104000	432.304000		don't	don't
sw2871A-ms98-a-0130	A.137	432.304000	432.514000		like	like
sw2871A-ms98-a-0130	A.137	432.514000	432.704000		the	the
sw2871A-ms98-a-0130	A.137	432.704000	433.348500		[silence]	[silence]
sw2871A-ms98-a-0131	A.137	433.348500	433.538500		[silence]	[silence]
sw2871A-ms98-a-0131	A.137	433.538500	433.778500		yeah	yeah
sw2871A-ms98-a-0131	A.137	433.778500	433.868500		it	it
sw2871A-ms98-a-0131	A.137	433.868500	434.168500		is	is
sw2871A-ms98-a-0131	A.137	434.168500	434.258500		I	i
sw2871A-ms98-a-0131	A.137	434.258500	434.418500		I	i
sw2871A-ms98-a-0131	A.137	434.418500	434.568500	<DEL>	---	d[on't]-
sw2871A-ms98-a-0131	A.137	434.568500	434.668500	<DEL>	---	i
sw2871A-ms98-a-0131	A.137	434.668500	434.838500		don't	don't
sw2871A-ms98-a-0131	A.137	434.838500	435.058500		like	like
sw2871A-ms98-a-0131	A.137	435.058500	435.198500		that	that
sw2871A-ms98-a-0131	A.137	435.198500	435.298625		a	a
sw2871A-ms98-a-0131	A.137	435.298625	435.578500		lot	lot
sw2871A-ms98-a-0131	A.137	435.578500	435.853500		[silence]	[silence]
sw2871A-ms98-a-0131	A.137	435.853500	435.993875		I	i
sw2871A-ms98-a-0131	A.137	435.993875	436.118500		don't	don't
sw2871A-ms98-a-0131	A.137	436.118500	436.288500		watch	watch
sw2871A-ms98-a-0131	A.137	436.288500	436.343875		a	a
sw2871A-ms98-a-0131	A.137	436.343875	436.508500		lot	lot
sw2871A-ms98-a-0131	A.137	436.508500	436.598500		of	of
sw2871A-ms98-a-0131	A.137	436.598500	436.858500		Arnold	Arnold
sw2871A-ms98-a-0131	A.137	436.858500	437.728500		Schwarzenegger	Schwarzenegger
sw2871A-ms98-a-0131	A.137	437.728500	437.798500		or	or
sw2871A-ms98-a-0131	A.137	437.798500	438.088500		anything	anything
sw2871A-ms98-a-0131	A.137	438.088500	438.299250		like	like
sw2871A-ms98-a-0131	A.137	438.299250	438.444625		that	that
sw2871A-ms98-a-0131	A.137	438.444625	438.808500		either	either
sw2871A-ms98-a-0131	A.139	438.808500	439.139375		[silence]	[silence]
sw2871A-ms98-a-0132	A.139	439.139375	441.420625		[silence]	[silence]
sw2871A-ms98-a-0133	A.139	441.420625	441.760625		[silence]	[silence]
sw2871A-ms98-a-0133	A.139	441.760625	442.150625		Yeah	yeah
sw2871A-ms98-a-0133	A.139	442.150625	442.511000		yeah	yeah
sw2871A-ms98-a-0133	A.139	442.511000	442.710625		[silence]	[silence]
sw2871A-ms98-a-0133	A.139	442.710625	442.890625		that	that
sw2871A-ms98-a-0133	A.139	442.890625	443.070625		might	might
sw2871A-ms98-a-0133	A.139	443.070625	443.180625		be	be
sw2871A-ms98-a-0133	A.139	443.180625	443.440625		good	good
sw2871A-ms98-a-0133	A.139	443.440625	443.620625		though	though
sw2871A-ms98-a-0133	A.139	443.620625	444.370625		[silence]	[silence]
sw2871A-ms98-a-0133	A.139	444.370625	444.490625		that	that
sw2871A-ms98-a-0133	A.139	444.490625	444.740625		might	might
sw2871A-ms98-a-0133	A.139	444.740625	444.810625		be	be
sw2871A-ms98-a-0133	A.139	444.810625	445.122500		good	good
sw2871A-ms98-a-0133	A.141	445.122500	445.444750		[silence]	[silence]
sw2871A-ms98-a-0134	A.141	445.444750	447.841750		[silence]	[silence]
sw2871A-ms98-a-0135	A.141	447.841750	448.231750		[silence]	[silence]
sw2871A-ms98-a-0135	A.141	448.231750	448.701750	<SUB>	Uh-huh	um-hum
sw2871A-ms98-a-0135	A.143	448.701750	448.987500		[silence]	[silence]
sw2871A-ms98-a-0136	A.143	448.987500	450.480250		[silence]	[silence]
sw2871A-ms98-a-0137	A.143	450.480250	450.786500		[silence]	[silence]
sw2871A-ms98-a-0137	A.143	450.786500	451.383500	<SUB>	Uh-huh	um-hum
sw2871A-ms98-a-0137	A.143	451.383500	452.112625		[silence]	[silence]
sw2871A-ms98-a-0137	A.143	452.112625	452.680250	<SUB>	uh-huh	um-hum
sw2871A-ms98-a-0137	A.145	452.680250	453.359750		[silence]	[silence]
sw2871A-ms98-a-0138	A.145	453.359750	454.139750		[silence]	[silence]
sw2871A-ms98-a-0138	A.145	454.139750	454.200625		I	i
sw2871A-ms98-a-0138	A.145	454.200625	454.339750		guess	guess
sw2871A-ms98-a-0138	A.145	454.339750	454.626625	<DEL>	---	i
sw2871A-ms98-a-0138	A.145	454.626625	454.841250		I'm	i'm
sw2871A-ms98-a-0138	A.145	454.841250	455.029750		not	not
sw2871A-ms98-a-0138	A.145	455.029750	455.329750		fond	fond
sw2871A-ms98-a-0138	A.145	455.329750	455.409750		of	of
sw2871A-ms98-a-0138	A.145	455.409750	455.509750		the	the
sw2871A-ms98-a-0138	A.145	455.509750	456.019750		action	action
sw2871A-ms98-a-0138	A.145	456.019750	456.429750		packed	packed
sw2871A-ms98-a-0138	A.145	456.429750	456.903625		movie	movie
sw2871A-ms98-a-0138	A.147	456.903625	457.144625		[silence]	[silence]
sw2871A-ms98-a-0138	A.147	457.144625	457.389750		where	where
sw2871A-ms98-a-0138	A.147	457.389750	457.569750		they're	they're
sw2871A-ms98-a-0138	A.147	457.569750	457.859750		always	always
sw2871A-ms98-a-0138	A.147	457.859750	458.579750		chasing	chasing
sw2871A-ms98-a-0138	A.147	458.579750	458.679750		or	or
sw2871A-ms98-a-0138	A.147	458.679750	459.529750		fighting	fighting
sw2871A-ms98-a-0138	A.147	459.529750	459.839750		or	or
sw2871A-ms98-a-0138	A.147	459.839750	460.009750		you	you
sw2871A-ms98-a-0138	A.147	460.009750	460.259250		know	know
sw2871A-ms98-a-0138	A.149	460.259250	460.771500		[silence]	[silence]
sw2871A-ms98-a-0138	A.149	460.771500	460.896250		I	i
sw2871A-ms98-a-0138	A.149	460.896250	461.099750		like	like
sw2871A-ms98-a-0138	A.149	461.099750	461.224875		the	the
sw2871A-ms98-a-0138	A.149	461.224875	461.627750		more	more
sw2871A-ms98-a-0138	A.149	461.627750	462.286875		[silence]	[silence]
sw2871A-ms98-a-0138	A.149	462.286875	462.569750		movies	movies
sw2871A-ms98-a-0138	A.149	462.569750	462.669750		that	that
sw2871A-ms98-a-0138	A.149	462.669750	462.829750		make	make
sw2871A-ms98-a-0138	A.149	462.829750	462.899750		you	you
sw2871A-ms98-a-0138	A.149	462.899750	463.342875		think	think
sw2871A-ms98-a-0138	A.151	463.342875	463.869750		[laughter]	[laughter]
sw2871A-ms98-a-0138	A.151	463.869750	463.926000		[silence]	[silence]
sw2871A-ms98-a-0139	A.151	463.926000	470.563000		[silence]	[silence]
sw2871A-ms98-a-0140	A.151	470.563000	470.843000		[silence]	[silence]
sw2871A-ms98-a-0140	A.151	470.843000	471.243000		No	no
sw2871A-ms98-a-0140	A.151	471.243000	471.313000		I	i
sw2871A-ms98-a-0140	A.151	471.313000	471.533000		haven't	haven't
sw2871A-ms98-a-0140	A.151	471.533000	471.813000		seen	seen
sw2871A-ms98-a-0140	A.151	471.813000	472.023000		that	that
sw2871A-ms98-a-0140	A.151	472.023000	472.294500		yet	yet
sw2871A-ms98-a-0140	A.151	472.294500	472.505500		[silence]	[silence]
sw2871A-ms98-a-0140	A.151	472.505500	472.613000		and	and
sw2871A-ms98-a-0140	A.151	472.613000	472.803000		that's	that's
sw2871A-ms98-a-0140	A.151	472.803000	473.063000		something	something
sw2871A-ms98-a-0140	A.151	473.063000	473.123000		I	i
sw2871A-ms98-a-0140	A.151	473.123000	473.373000		really	really
sw2871A-ms98-a-0140	A.151	473.373000	473.543000		should	should
sw2871A-ms98-a-0140	A.151	473.543000	473.643000		have	have
sw2871A-ms98-a-0140	A.151	473.643000	474.140125		seen	seen
sw2871A-ms98-a-0140	A.151	474.140125	474.633500		[silence]	[silence]
sw2871A-ms98-a-0140	A.151	474.633500	474.773000		Was	was
sw2871A-ms98-a-0140	A.151	474.773000	474.953000		that	that
sw2871A-ms98-a-0140	A.151	474.953000	475.243000		good	good
sw2871A-ms98-a-0140	A.151	475.243000	475.393000		did	did
sw2871A-ms98-a-0140	A.151	475.393000	475.533000		you	you
sw2871A-ms98-a-0140	A.151	475.533000	475.713000		see	see
sw2871A-ms98-a-0140	A.151	475.713000	475.873000		it	it
sw2871A-ms98-a-0140	A.153	475.873000	476.453000		[silence]	[silence]
sw2871A-ms98-a-0141	A.153	476.453000	478.851125		[silence]	[silence]
sw2871A-ms98-a-0142	A.153	478.851125	478.989875		[silence]	[silence]
sw2871A-ms98-a-0142	A.153	478.989875	479.547250	<SUB>	Uh-huh	um-hum
sw2871A-ms98-a-0142	A.155	479.547250	479.984250		[silence]	[silence]
sw2871A-ms98-a-0143	A.155	479.984250	481.713125		[silence]	[silence]
sw2871A-ms98-a-0144	A.155	481.713125	482.023125		[silence]	[silence]
sw2871A-ms98-a-0144	A.155	482.023125	482.424750		Yeah	yeah
sw2871A-ms98-a-0144	A.155	482.424750	482.539125		[silence]	[silence]
sw2871A-ms98-a-0144	A.155	482.539125	482.618875		a	a
sw2871A-ms98-a-0144	A.155	482.618875	482.843125		friend	friend
sw2871A-ms98-a-0144	A.155	482.843125	482.903125		of	of
sw2871A-ms98-a-0144	A.155	482.903125	483.073125		mine	mine
sw2871A-ms98-a-0144	A.155	483.073125	483.283125		saw	saw
sw2871A-ms98-a-0144	A.155	483.283125	483.343125		it	it
sw2871A-ms98-a-0144	A.155	483.343125	483.433125		and	and
sw2871A-ms98-a-0144	A.155	483.433125	483.543125		she	she
sw2871A-ms98-a-0144	A.155	483.543125	483.693125		said	said
sw2871A-ms98-a-0144	A.155	483.693125	483.763125		it	it
sw2871A-ms98-a-0144	A.155	483.763125	483.903125		was	was
sw2871A-ms98-a-0144	A.155	483.903125	484.549125		okay	okay
sw2871A-ms98-a-0144	A.157	484.549125	485.086375		[silence]	[silence]
sw2871A-ms98-a-0145	A.157	485.086375	485.156375		[silence]	[silence]
sw2871A-ms98-a-0145	A.157	485.156375	485.246375		you	you
sw2871A-ms98-a-0145	A.157	485.246375	485.306375		know	know
sw2871A-ms98-a-0145	A.157	485.306375	485.366375		it	it
sw2871A-ms98-a-0145	A.157	485.366375	485.586375		wasn't	wasn't
sw2871A-ms98-a-0145	A.157	485.586375	485.856375		anything	anything
sw2871A-ms98-a-0145	A.157	485.856375	486.806375		spectacular	spectacular
sw2871A-ms98-a-0145	A.159	486.806375	486.981625		[silence]	[silence]
sw2871A-ms98-a-0146	A.159	486.981625	487.364000		[silence]	[silence]
sw2871A-ms98-a-0146	A.159	487.364000	487.541375	<DEL>	---	but
sw2871A-ms98-a-0146	A.159	487.541375	487.669500	<DEL>	---	the
sw2871A-ms98-a-0146	A.159	487.669500	487.953000		[silence]	[silence]
sw2871A-ms98-a-0147	A.159	487.953000	490.031125		[silence]	[silence]
sw2871A-ms98-a-0148	A.159	490.031125	490.252250		[silence]	[silence]
sw2871A-ms98-a-0148	A.159	490.252250	490.710750		Yeah	yeah
sw2871A-ms98-a-0148	A.159	490.710750	491.140125		[silence]	[silence]
sw2871A-ms98-a-0148	A.159	491.140125	491.278500		the	the
sw2871A-ms98-a-0148	A.159	491.278500	491.701125		previews	previews
sw2871A-ms98-a-0148	A.159	491.701125	491.891125		looked	looked
sw2871A-ms98-a-0148	A.159	491.891125	492.041125		so	so
sw2871A-ms98-a-0148	A.159	492.041125	492.451125		good	good
sw2871A-ms98-a-0148	A.159	492.451125	493.151375		[silence]	[silence]
sw2871A-ms98-a-0149	A.159	493.151375	493.691375		[silence]	[silence]
sw2871A-ms98-a-0149	A.159	493.691375	493.831375		that	that
sw2871A-ms98-a-0149	A.159	493.831375	493.943000		I	i
sw2871A-ms98-a-0149	A.159	493.943000	494.191375		wanted	wanted
sw2871A-ms98-a-0149	A.159	494.191375	494.291375		to	to
sw2871A-ms98-a-0149	A.159	494.291375	494.541375		see	see
sw2871A-ms98-a-0149	A.159	494.541375	494.611375		it	it
sw2871A-ms98-a-0149	A.159	494.611375	494.711375		but	but
sw2871A-ms98-a-0149	A.159	494.711375	494.761375		I	i
sw2871A-ms98-a-0149	A.159	494.761375	495.043250		never	never
sw2871A-ms98-a-0149	A.159	495.043250	495.321375		did	did
sw2871A-ms98-a-0149	A.159	495.321375	495.615625		[silence]	[silence]
sw2871A-ms98-a-0150	A.159	495.615625	496.633000		[silence]	[silence]
sw2871A-ms98-a-0151	A.159	496.633000	496.913000		[silence]	[silence]
sw2871A-ms98-a-0151	A.159	496.913000	497.705875		uh	uh
sw2871A-ms98-a-0151	A.161	497.705875	498.258000		[silence]	[silence]
sw2871A-ms98-a-0152	A.161	498.258000	501.561000		[silence]	[silence]
sw2871A-ms98-a-0153	A.161	501.561000	502.051000		[silence]	[silence]
sw2871A-ms98-a-0153	A.161	502.051000	502.661000	<SUB>	Yea-	y[eah]-
sw2871A-ms98-a-0153	A.161	502.661000	502.981000		well	well
sw2871A-ms98-a-0153	A.161	502.981000	503.061000		I	i
sw2871A-ms98-a-0153	A.161	503.061000	503.251000		saw	saw
sw2871A-ms98-a-0153	A.161	503.251000	503.601000		half	half
sw2871A-ms98-a-0153	A.161	503.601000	503.741000		of	of
sw2871A-ms98-a-0153	A.161	503.741000	503.801000		it	it
sw2871A-ms98-a-0153	A.161	503.801000	503.901000		and	and
sw2871A-ms98-a-0153	A.161	503.901000	504.032125		I	i
sw2871A-ms98-a-0153	A.161	504.032125	504.513875		remember	remember
sw2871A-ms98-a-0153	A.161	504.513875	504.638250		[silence]	[silence]
sw2871A-ms98-a-0153	A.161	504.638250	504.711000		I	i
sw2871A-ms98-a-0153	A.161	504.711000	504.871000		was	was
sw2871A-ms98-a-0153	A.161	504.871000	504.991000		in	in
sw2871A-ms98-a-0153	A.161	504.991000	505.401000		school	school
sw2871A-ms98-a-0153	A.161	505.401000	505.461000		I	i
sw2871A-ms98-a-0153	A.161	505.461000	505.641000		saw	saw
sw2871A-ms98-a-0153	A.161	505.641000	505.931000		half	half
sw2871A-ms98-a-0153	A.161	505.931000	506.061000		of	of
sw2871A-ms98-a-0153	A.161	506.061000	506.131000		it	it
sw2871A-ms98-a-0153	A.161	506.131000	506.231000		and	and
sw2871A-ms98-a-0153	A.161	506.231000	506.301000		I	i
sw2871A-ms98-a-0153	A.161	506.301000	506.531000		fell	fell
sw2871A-ms98-a-0153	A.161	506.531000	507.021000		asleep	asleep
sw2871A-ms98-a-0153	A.161	507.021000	507.111000		and	and
sw2871A-ms98-a-0153	A.161	507.111000	507.411000		everyone	everyone
sw2871A-ms98-a-0153	A.161	507.411000	507.591000		else	else
sw2871A-ms98-a-0153	A.161	507.591000	507.931000		watched	watched
sw2871A-ms98-a-0153	A.161	507.931000	508.051000		it	it
sw2871A-ms98-a-0153	A.163	508.051000	508.501000		[laughter]	[laughter]
sw2871A-ms98-a-0153	A.163	508.501000	509.160500		[silence]	[silence]
sw2871A-ms98-a-0154	A.163	509.160500	509.900500		[silence]	[silence]
sw2871A-ms98-a-0154	A.163	509.900500	510.439500		Uh-huh	uh-huh
sw2871A-ms98-a-0154	A.163	510.439500	510.635250		[silence]	[silence]
sw2871A-ms98-a-0155	A.163	510.635250	511.881500		[silence]	[silence]
sw2871A-ms98-a-0156	A.163	511.881500	511.996000		[silence]	[silence]
sw2871A-ms98-a-0156	A.163	511.996000	512.501500	<SUB>	uh-huh	um-hum
sw2871A-ms98-a-0156	A.165	512.501500	512.750250		[silence]	[silence]
sw2871A-ms98-a-0157	A.165	512.750250	515.005125		[silence]	[silence]
sw2871A-ms98-a-0158	A.165	515.005125	515.305125		[silence]	[silence]
sw2871A-ms98-a-0158	A.165	515.305125	515.665125		Yeah	yeah
sw2871A-ms98-a-0158	A.167	515.665125	516.398000		[silence]	[silence]
sw2871A-ms98-a-0159	A.167	516.398000	517.168000		[silence]	[silence]
sw2871A-ms98-a-0159	A.167	517.168000	517.628000		Yeah	yeah
sw2871A-ms98-a-0159	A.167	517.628000	517.788000		[silence]	[silence]
sw2871A-ms98-a-0159	A.167	517.788000	518.148000		yeah	yeah
sw2871A-ms98-a-0159	A.167	518.148000	518.721000		[silence]	[silence]
sw2871A-ms98-a-0160	A.167	518.721000	519.321000		[silence]	[silence]
sw2871A-ms98-a-0160	A.167	519.321000	519.438250		I	i
sw2871A-ms98-a-0160	A.167	519.438250	519.641000		really	really
sw2871A-ms98-a-0160	A.167	519.641000	519.741000		need	need
sw2871A-ms98-a-0160	A.167	519.741000	519.801000		to	to
sw2871A-ms98-a-0160	A.167	519.801000	519.931000		go	go
sw2871A-ms98-a-0160	A.167	519.931000	520.101000		see	see
sw2871A-ms98-a-0160	A.167	520.101000	520.201000		the	the
sw2871A-ms98-a-0160	A.167	520.201000	520.601000		original	original
sw2871A-ms98-a-0160	A.167	520.601000	520.771000		one	one
sw2871A-ms98-a-0160	A.167	520.771000	520.871000		I'm	i'm
sw2871A-ms98-a-0160	A.167	520.871000	521.051000		sure	sure
sw2871A-ms98-a-0160	A.167	521.051000	521.141000		it	it
sw2871A-ms98-a-0160	A.167	521.141000	521.323625		was	was
sw2871A-ms98-a-0160	A.167	521.323625	521.500625		[silence]	[silence]
sw2871A-ms98-a-0160	A.167	521.500625	521.631000		a	a
sw2871A-ms98-a-0160	A.167	521.631000	521.811000		good	good
sw2871A-ms98-a-0160	A.167	521.811000	522.121000		movie	movie
sw2871A-ms98-a-0160	A.167	522.121000	522.227250		I	i
sw2871A-ms98-a-0160	A.167	522.227250	522.548625		just	just
sw2871A-ms98-a-0160	A.167	522.548625	523.078875		[silence]	[silence]
sw2871A-ms98-a-0160	A.167	523.078875	523.199375		I	i
sw2871A-ms98-a-0160	A.167	523.199375	523.441000		probably	probably
sw2871A-ms98-a-0160	A.167	523.441000	523.531000		had	had
sw2871A-ms98-a-0160	A.167	523.531000	523.561000		a	a
sw2871A-ms98-a-0160	A.167	523.561000	523.891000		test	test
sw2871A-ms98-a-0160	A.167	523.891000	524.216500		that	that
sw2871A-ms98-a-0160	A.167	524.216500	524.416125		[silence]	[silence]
sw2871A-ms98-a-0160	A.167	524.416125	524.671000		day	day
sw2871A-ms98-a-0160	A.167	524.671000	524.841000		or	or
sw2871A-ms98-a-0160	A.167	524.841000	525.251000		something	something
sw2871A-ms98-a-0160	A.167	525.251000	525.361000		I	i
sw2871A-ms98-a-0160	A.167	525.361000	525.531000		don't	don't
sw2871A-ms98-a-0160	A.167	525.531000	525.821000		know	know
sw2871A-ms98-a-0160	A.169	525.821000	526.487000		[silence]	[silence]
sw2871A-ms98-a-0161	A.169	526.487000	526.887000		[silence]	[silence]
sw2871A-ms98-a-0161	A.169	526.887000	527.781750		Yeah	yeah
sw2871A-ms98-a-0161	A.171	527.781750	528.257750		[silence]	[silence]
sw2871A-ms98-a-0161	A.171	528.257750	528.752875	<SUB>	Uh-huh	um-hum
sw2871A-ms98-a-0161	A.171	528.752875	529.046750		[silence]	[silence]
sw2871A-ms98-a-0162	A.171	529.046750	532.342500		[silence]	[silence]
sw2871A-ms98-a-0163	A.171	532.342500	532.753500		[silence]	[silence]
sw2871A-ms98-a-0163	A.171	532.753500	533.282875	<DEL>	---	um-hum
sw2871A-ms98-a-0163	A.171	533.282875	533.633125		[silence]	[silence]
sw2871A-ms98-a-0163	A.171	533.633125	534.002500		yeah	yeah
sw2871A-ms98-a-0163	A.173	534.002500	534.102500	<DEL>	---	and
sw2871A-ms98-a-0163	A.173	534.102500	534.406375	<DEL>	---	that
sw2871A-ms98-a-0163	A.173	534.406375	534.541875		[silence]	[silence]
sw2871A-ms98-a-0163	A.173	534.541875	534.934375	<DEL>	---	um-hum
sw2871A-ms98-a-0163	A.173	534.934375	535.390125		[silence]	[silence]
sw2871A-ms98-a-0164	A.173	535.390125	536.542125		[silence]	[silence]
sw2871A-ms98-a-0165	A.173	536.542125	536.711375		[silence]	[silence]
sw2871A-ms98-a-0165	A.173	536.711375	537.145250	<DEL>	---	um-hum
sw2871A-ms98-a-0165	A.173	537.145250	537.694125		[silence]	[silence]
sw2871A-ms98-a-0166	A.173	537.694125	539.998250		[silence]	[silence]
sw2871A-ms98-a-0167	A.173	539.998250	540.237625		[silence]	[silence]
sw2871A-ms98-a-0167	A.173	540.237625	540.347125		I	i
sw2871A-ms98-a-0167	A.173	540.347125	540.608250		think	think
sw2871A-ms98-a-0167	A.173	540.608250	540.699375		I	i
sw2871A-ms98-a-0167	A.173	540.699375	540.908250		think	think
sw2871A-ms98-a-0167	A.173	540.908250	541.068250		though	though
sw2871A-ms98-a-0167	A.173	541.068250	541.258250		that	that
sw2871A-ms98-a-0167	A.173	541.258250	541.698250		movies	movies
sw2871A-ms98-a-0167	A.173	541.698250	541.828250		are	are
sw2871A-ms98-a-0167	A.173	541.828250	542.248250		losing	losing
sw2871A-ms98-a-0167	A.173	542.248250	542.568250		their	their
sw2871A-ms98-a-0167	A.173	542.568250	543.188250		luster	luster
sw2871A-ms98-a-0167	A.175	543.188250	543.465375		[laughter]	[laughter]
sw2871A-ms98-a-0167	A.175	543.465375	544.128375		[silence]	[silence]
sw2871A-ms98-a-0167	A.175	544.128375	544.388250	<DEL>	---	kind
sw2871A-ms98-a-0167	A.175	544.388250	544.448250	<DEL>	---	of
sw2871A-ms98-a-0167	A.175	544.448250	544.488250		I	i
sw2871A-ms98-a-0167	A.175	544.488250	544.688250		think	think
sw2871A-ms98-a-0167	A.175	544.688250	545.078250		movies	movies
sw2871A-ms98-a-0167	A.175	545.078250	545.188250		are	are
sw2871A-ms98-a-0167	A.175	545.188250	545.588250		losing	losing
sw2871A-ms98-a-0167	A.175	545.588250	545.858250		their	their
sw2871A-ms98-a-0167	A.175	545.858250	546.628250		attractiveness	attractiveness
sw2871A-ms98-a-0167	A.175	546.628250	546.908250		just	just
sw2871A-ms98-a-0167	A.175	546.908250	546.998250		to	to
sw2871A-ms98-a-0167	A.175	546.998250	547.028250		a	a
sw2871A-ms98-a-0167	A.175	547.028250	547.208250		lot	lot
sw2871A-ms98-a-0167	A.175	547.208250	547.268250		of	of
sw2871A-ms98-a-0167	A.175	547.268250	547.693625		people	people
sw2871A-ms98-a-0167	A.175	547.693625	547.828125		[silence]	[silence]
sw2871A-ms98-a-0167	A.175	547.828125	548.127125		Just	just
sw2871A-ms98-a-0167	A.175	548.127125	548.434000		[silence]	[silence]
sw2871A-ms98-a-0167	A.175	548.434000	548.520750		I	i
sw2871A-ms98-a-0167	A.175	548.520750	548.728250		think	think
sw2871A-ms98-a-0167	A.175	548.728250	548.848250		I	i
sw2871A-ms98-a-0167	A.175	548.848250	549.008250		don't	don't
sw2871A-ms98-a-0167	A.175	549.008250	549.148250		know	know
sw2871A-ms98-a-0167	A.175	549.148250	549.438250		because	because
sw2871A-ms98-a-0167	A.175	549.438250	549.548250		of	of
sw2871A-ms98-a-0167	A.175	549.548250	549.621000		the	the
sw2871A-ms98-a-0167	A.175	549.621000	550.366750		cost	cost
sw2871A-ms98-a-0167	A.175	550.366750	550.971750		and	and
sw2871A-ms98-a-0167	A.175	550.971750	551.348375		[silence]	[silence]
sw2871A-ms98-a-0167	A.175	551.348375	551.448750		I	i
sw2871A-ms98-a-0167	A.175	551.448750	551.568250		think	think
sw2871A-ms98-a-0167	A.175	551.568250	551.708250		it	it
sw2871A-ms98-a-0167	A.175	551.708250	551.888250		it's	it's
sw2871A-ms98-a-0167	A.175	551.888250	552.058250		just	just
sw2871A-ms98-a-0167	A.175	552.058250	552.408250		losing	losing
sw2871A-ms98-a-0167	A.175	552.408250	552.568250		its	its
sw2871A-ms98-a-0167	A.175	552.568250	553.368250		originality	originality
sw2871A-ms98-a-0167	A.175	553.368250	553.892500		[silence]	[silence]
sw2871A-ms98-a-0168	A.175	553.892500	554.533000		[silence]	[silence]
sw2871A-ms98-a-0168	A.175	554.533000	554.692500		or	or
sw2871A-ms98-a-0168	A.175	554.692500	555.262500		something	something
sw2871A-ms98-a-0168	A.175	555.262500	555.342500		I	i
sw2871A-ms98-a-0168	A.175	555.342500	555.612500		don't	don't
sw2871A-ms98-a-0168	A.175	555.612500	555.702500		I	i
sw2871A-ms98-a-0168	A.175	555.702500	556.082500		can't	can't
sw2871A-ms98-a-0168	A.175	556.082500	556.455625		pin	pin[point]-
sw2871A-ms98-a-0168	A.175	556.455625	557.018750		pinpoint	pinpoint
sw2871A-ms98-a-0168	A.175	557.018750	557.143000		it	it
sw2871A-ms98-a-0168	A.177	557.143000	557.782500		[silence]	[silence]
sw2871A-ms98-a-0168	A.177	557.782500	557.902500		But	but
sw2871A-ms98-a-0168	A.177	557.902500	557.962500		it	it
sw2871A-ms98-a-0168	A.177	557.962500	558.142500		doesn't	doesn't
sw2871A-ms98-a-0168	A.177	558.142500	558.272500		seem	seem
sw2871A-ms98-a-0168	A.177	558.272500	558.432500		like	like
sw2871A-ms98-a-0168	A.177	558.432500	558.582500		it's	it's
sw2871A-ms98-a-0168	A.177	558.582500	558.722500		as	as
sw2871A-ms98-a-0168	A.177	558.722500	558.982500		big	big
sw2871A-ms98-a-0168	A.177	558.982500	559.088750		uh	uh
sw2871A-ms98-a-0168	A.177	559.088750	559.356125		[silence]	[silence]
sw2871A-ms98-a-0168	A.177	559.356125	559.862500		rage	rage
sw2871A-ms98-a-0168	A.177	559.862500	559.972500		to	to
sw2871A-ms98-a-0168	A.177	559.972500	560.142500		get	get
sw2871A-ms98-a-0168	A.177	560.142500	560.242500	<DEL>	---	to
sw2871A-ms98-a-0168	A.177	560.242500	560.302500		the	the
sw2871A-ms98-a-0168	A.177	560.302500	560.622500		movie	movie
sw2871A-ms98-a-0168	A.177	560.622500	561.012500		theater	theater
sw2871A-ms98-a-0168	A.177	561.012500	561.132500		as	as
sw2871A-ms98-a-0168	A.177	561.132500	561.232500		it	it
sw2871A-ms98-a-0168	A.177	561.232500	561.472500		used	used
sw2871A-ms98-a-0168	A.177	561.472500	561.642500		to	to
sw2871A-ms98-a-0168	A.177	561.642500	561.962500		be	be
sw2871A-ms98-a-0168	A.179	561.962500	562.180500		[silence]	[silence]
sw2871A-ms98-a-0169	A.179	562.180500	563.281500		[silence]	[silence]
sw2871A-ms98-a-0170	A.179	563.281500	563.704750		[silence]	[silence]
sw2871A-ms98-a-0170	A.179	563.704750	564.167000	<SUB>	Uh-huh	um-hum
sw2871A-ms98-a-0170	A.179	564.167000	564.562750		[silence]	[silence]
sw2871A-ms98-a-0171	A.179	564.562750	566.764625		[silence]	[silence]
sw2871A-ms98-a-0172	A.179	566.764625	566.838375		[silence]	[silence]
sw2871A-ms98-a-0172	A.179	566.838375	567.348750	<DEL>	---	um-hum
sw2871A-ms98-a-0172	A.179	567.348750	567.632000		[silence]	[silence]
sw2871A-ms98-a-0172	A.179	567.632000	567.984625		yeah	yeah
sw2871A-ms98-a-0172	A.179	567.984625	568.604625		exactly	exactly
sw2871A-ms98-a-0172	A.181	568.604625	569.082000		[silence]	[silence]
sw2871A-ms98-a-0173	A.181	569.082000	573.717750		[silence]	[silence]
sw2871A-ms98-a-0174	A.181	573.717750	574.117500		[silence]	[silence]
sw2871A-ms98-a-0174	A.181	574.117500	574.548125	<DEL>	---	um-hum
sw2871A-ms98-a-0174	A.181	574.548125	574.979250		[silence]	[silence]
sw2871A-ms98-a-0175	A.181	574.979250	577.204125		[silence]	[silence]
sw2871A-ms98-a-0176	A.181	577.204125	577.504125		[silence]	[silence]
sw2871A-ms98-a-0176	A.181	577.504125	578.024125		Right	right
sw2871A-ms98-a-0176	A.183	578.024125	578.240500		[silence]	[silence]
sw2871A-ms98-a-0177	A.183	578.240500	582.490875		[silence]	[silence]
sw2871A-ms98-a-0178	A.183	582.490875	582.530875		[silence]	[silence]
sw2871A-ms98-a-0178	A.183	582.530875	583.043125	<SUB>	Uh-huh	um-hum
sw2871A-ms98-a-0178	A.185	583.043125	583.565000		[silence]	[silence]
sw2871A-ms98-a-0179	A.185	583.565000	583.940000		[silence]	[silence]
sw2871A-ms98-a-0179	A.185	583.940000	584.415000	<DEL>	---	um-hum
sw2871A-ms98-a-0179	A.185	584.415000	584.841875		[silence]	[silence]
sw2871A-ms98-a-0180	A.185	584.841875	591.032750		[silence]	[silence]
sw2871A-ms98-a-0181	A.185	591.032750	591.512750		[silence]	[silence]
sw2871A-ms98-a-0181	A.185	591.512750	592.072750		Right	right
sw2871A-ms98-a-0181	A.185	592.072750	592.182750		[silence]	[silence]
sw2871A-ms98-a-0181	A.185	592.182750	592.637375		right	right
sw2871A-ms98-a-0181	A.185	592.637375	592.882500		[silence]	[silence]
sw2871A-ms98-a-0181	A.185	592.882500	593.337500	<SUB>	uh-huh	um-hum
sw2871A-ms98-a-0181	A.187	593.337500	593.462250		[silence]	[silence]
sw2871A-ms98-a-0182	A.187	593.462250	598.479000		[silence]	[silence]
sw2871A-ms98-a-0183	A.187	598.479000	598.789000		[silence]	[silence]
sw2871A-ms98-a-0183	A.187	598.789000	599.269000	<SUB>	Uh-huh	um-hum
sw2871A-ms98-a-0183	A.187	599.269000	599.558875		[silence]	[silence]
sw2871A-ms98-a-0184	A.187	599.558875	600.353875		[silence]	[silence]
