sw2887B-ms98-a-0001	B.2	0.000000	0.040750		[silence]	[silence]
sw2887B-ms98-a-0001	B.2	0.040750	0.828750		[noise]	[noise]
sw2887B-ms98-a-0001	B.2	0.828750	7.214500		[silence]	[silence]
sw2887B-ms98-a-0002	B.2	7.214500	7.885625		[silence]	[silence]
sw2887B-ms98-a-0002	B.2	7.885625	8.174500		Yeah	yeah
sw2887B-ms98-a-0002	B.2	8.174500	8.283750		I	i
sw2887B-ms98-a-0002	B.2	8.283750	8.724500		agree	agree
sw2887B-ms98-a-0002	B.2	8.724500	8.884500		on	on
sw2887B-ms98-a-0002	B.2	8.884500	9.104500		that	that
sw2887B-ms98-a-0002	B.2	9.104500	9.474750		And	and
sw2887B-ms98-a-0002	B.2	9.474750	10.246875		[silence]	[silence]
sw2887B-ms98-a-0002	B.2	10.246875	10.404500		you	you
sw2887B-ms98-a-0002	B.2	10.404500	10.494500		know	know
sw2887B-ms98-a-0002	B.2	10.494500	10.634500		it	it
sw2887B-ms98-a-0002	B.2	10.634500	11.185500		seems	seems
sw2887B-ms98-a-0002	B.2	11.185500	11.627000		[silence]	[silence]
sw2887B-ms98-a-0002	B.2	11.627000	11.839625		pa-	pai[d]-
sw2887B-ms98-a-0002	B.2	11.839625	12.152250		[silence]	[silence]
sw2887B-ms98-a-0002	B.2	12.152250	12.564500		compared	compared
sw2887B-ms98-a-0002	B.2	12.564500	12.654500		to	to
sw2887B-ms98-a-0002	B.2	12.654500	12.854500		what	what
sw2887B-ms98-a-0002	B.2	12.854500	13.192000		we	we
sw2887B-ms98-a-0002	B.2	13.192000	13.538500		[silence]	[silence]
sw2887B-ms98-a-0002	B.2	13.538500	13.684500		our	our
sw2887B-ms98-a-0002	B.2	13.684500	14.124500		salary	salary
sw2887B-ms98-a-0002	B.2	14.124500	14.404875		is	is
sw2887B-ms98-a-0002	B.4	14.404875	14.728750		[silence]	[silence]
sw2887B-ms98-a-0002	B.4	14.728750	15.204500		versus	versus
sw2887B-ms98-a-0002	B.4	15.204500	15.478500		what	what
sw2887B-ms98-a-0002	B.4	15.478500	15.678125		[silence]	[silence]
sw2887B-ms98-a-0002	B.4	15.678125	15.844500		our	our
sw2887B-ms98-a-0002	B.4	15.844500	16.114500		health	health
sw2887B-ms98-a-0002	B.4	16.114500	16.354500		care	care
sw2887B-ms98-a-0002	B.4	16.354500	16.637250		is	is
sw2887B-ms98-a-0002	B.4	16.637250	16.879000		[silence]	[silence]
sw2887B-ms98-a-0003	B.4	16.879000	17.160750		[silence]	[silence]
sw2887B-ms98-a-0003	B.4	17.160750	17.259000		our	our
sw2887B-ms98-a-0003	B.4	17.259000	17.519000		health	health
sw2887B-ms98-a-0003	B.4	17.519000	17.849000		care	care
sw2887B-ms98-a-0003	B.4	17.849000	18.129000		keeps	keeps
sw2887B-ms98-a-0003	B.4	18.129000	18.729000		increasing	increasing
sw2887B-ms98-a-0003	B.4	18.729000	19.279000		increasing	increasing
sw2887B-ms98-a-0003	B.4	19.279000	19.785750		increasing	increasing
sw2887B-ms98-a-0003	B.4	19.785750	20.339500		[silence]	[silence]
sw2887B-ms98-a-0003	B.4	20.339500	20.864500		and	and
sw2887B-ms98-a-0003	B.4	20.864500	20.966125		[silence]	[silence]
sw2887B-ms98-a-0003	B.4	20.966125	21.409000		not	not
sw2887B-ms98-a-0003	B.4	21.409000	21.549000		to	to
sw2887B-ms98-a-0003	B.4	21.549000	21.639000		the	the
sw2887B-ms98-a-0003	B.4	21.639000	21.979000		same	same
sw2887B-ms98-a-0003	B.4	21.979000	22.229000		rate	rate
sw2887B-ms98-a-0003	B.4	22.229000	22.379000		as	as
sw2887B-ms98-a-0003	B.4	22.379000	22.509000		our	our
sw2887B-ms98-a-0003	B.4	22.509000	22.799000		pay	pay
sw2887B-ms98-a-0003	B.8	22.799000	24.278125		[laughter]	[laughter]
sw2887B-ms98-a-0003	B.8	24.278125	24.660125		[silence]	[silence]
sw2887B-ms98-a-0004	B.8	24.660125	28.026250		[silence]	[silence]
sw2887B-ms98-a-0005	B.8	28.026250	28.438125		[silence]	[silence]
sw2887B-ms98-a-0005	B.8	28.438125	28.876250		Right	right
sw2887B-ms98-a-0005	B.8	28.876250	29.154625		Me	me
sw2887B-ms98-a-0005	B.8	29.154625	29.596625		either	either
sw2887B-ms98-a-0005	B.10	29.596625	30.136250		[noise]	[noise]
sw2887B-ms98-a-0005	B.10	30.136250	30.147875		[silence]	[silence]
sw2887B-ms98-a-0006	B.10	30.147875	38.654625		[silence]	[silence]
sw2887B-ms98-a-0007	B.10	38.654625	39.242625		[silence]	[silence]
sw2887B-ms98-a-0007	B.10	39.242625	39.681375		Uh-huh	uh-huh
sw2887B-ms98-a-0007	B.12	39.681375	40.338250		[silence]	[silence]
sw2887B-ms98-a-0008	B.12	40.338250	47.449750		[silence]	[silence]
sw2887B-ms98-a-0009	B.12	47.449750	47.970750		[silence]	[silence]
sw2887B-ms98-a-0009	B.12	47.970750	48.426125		Yes	yes
sw2887B-ms98-a-0009	B.14	48.426125	48.931625		[silence]	[silence]
sw2887B-ms98-a-0010	B.14	48.931625	53.267375		[silence]	[silence]
sw2887B-ms98-a-0011	B.14	53.267375	53.822000		[silence]	[silence]
sw2887B-ms98-a-0011	B.14	53.822000	54.234750		Right	right
sw2887B-ms98-a-0011	B.16	54.234750	54.850000		[silence]	[silence]
sw2887B-ms98-a-0012	B.16	54.850000	58.773875		[silence]	[silence]
sw2887B-ms98-a-0013	B.16	58.773875	59.263875		[silence]	[silence]
sw2887B-ms98-a-0013	B.16	59.263875	59.680500		Uh-huh	uh-huh
sw2887B-ms98-a-0013	B.16	59.680500	59.865375		[silence]	[silence]
sw2887B-ms98-a-0013	B.16	59.865375	60.197375		yeah	yeah
sw2887B-ms98-a-0013	B.18	60.197375	60.699500		[silence]	[silence]
sw2887B-ms98-a-0014	B.18	60.699500	62.543625		[silence]	[silence]
sw2887B-ms98-a-0015	B.18	62.543625	63.135750		[silence]	[silence]
sw2887B-ms98-a-0015	B.18	63.135750	63.585875		Money	money
sw2887B-ms98-a-0015	B.18	63.585875	64.190250		instead	instead
sw2887B-ms98-a-0015	B.20	64.190250	64.484250		[silence]	[silence]
sw2887B-ms98-a-0016	B.20	64.484250	64.841000		[silence]	[silence]
sw2887B-ms98-a-0016	B.20	64.841000	65.168625		[noise]	[noise]
sw2887B-ms98-a-0016	B.20	65.168625	65.742625		[silence]	[silence]
sw2887B-ms98-a-0017	B.20	65.742625	66.154625		[silence]	[silence]
sw2887B-ms98-a-0017	B.20	66.154625	66.592625		Yeah	yeah
sw2887B-ms98-a-0017	B.22	66.592625	67.132125		[silence]	[silence]
sw2887B-ms98-a-0018	B.22	67.132125	68.787125		[silence]	[silence]
sw2887B-ms98-a-0019	B.22	68.787125	69.307375		[silence]	[silence]
sw2887B-ms98-a-0019	B.22	69.307375	69.753750		Right	right
sw2887B-ms98-a-0019	B.22	69.753750	69.889375		[silence]	[silence]
sw2887B-ms98-a-0019	B.22	69.889375	70.077125		I	i
sw2887B-ms98-a-0019	B.22	70.077125	70.377125		feel	feel
sw2887B-ms98-a-0019	B.22	70.377125	70.377125	<INS>	the	---
sw2887B-ms98-a-0019	B.22	70.377125	70.697125		same	same
sw2887B-ms98-a-0019	B.22	70.697125	70.987125		way	way
sw2887B-ms98-a-0019	B.22	70.987125	71.453000		actually	actually
sw2887B-ms98-a-0019	B.22	71.453000	71.886125		[silence]	[silence]
sw2887B-ms98-a-0019	B.22	71.886125	72.334500		Um	um
sw2887B-ms98-a-0019	B.22	72.334500	72.635875		[silence]	[silence]
sw2887B-ms98-a-0019	B.22	72.635875	72.887125		we	we
sw2887B-ms98-a-0019	B.22	72.887125	73.237500		don't	don't
sw2887B-ms98-a-0019	B.22	73.237500	73.930500		[silence]	[silence]
sw2887B-ms98-a-0019	B.22	73.930500	74.316625		use	use
sw2887B-ms98-a-0019	B.22	74.316625	74.537125		any	any
sw2887B-ms98-a-0019	B.22	74.537125	74.657125		of	of
sw2887B-ms98-a-0019	B.22	74.657125	75.107125	<CONT>	T	TI's
sw2887B-ms98-a-0019	B.22	75.107125	75.107125	<CONT>	I	+++
sw2887B-ms98-a-0019	B.22	75.107125	75.107125	<CONT>	-s	+++
sw2887B-ms98-a-0019	B.22	75.107125	75.807125		benefits	benefits
sw2887B-ms98-a-0019	B.22	75.807125	76.027125		other	other
sw2887B-ms98-a-0019	B.22	76.027125	76.274375		than	than
sw2887B-ms98-a-0019	B.22	76.274375	76.673625		[silence]	[silence]
sw2887B-ms98-a-0019	B.22	76.673625	76.937125		I	i
sw2887B-ms98-a-0019	B.22	76.937125	77.097125		I	i
sw2887B-ms98-a-0019	B.22	77.097125	77.307125		buy	buy
sw2887B-ms98-a-0019	B.22	77.307125	77.827125		bonds	bonds
sw2887B-ms98-a-0019	B.22	77.827125	78.039750		and	and
sw2887B-ms98-a-0019	B.22	78.039750	78.781750		[noise]	[noise]
sw2887B-ms98-a-0019	B.22	78.781750	79.107125		and	and
sw2887B-ms98-a-0019	B.22	79.107125	79.487125		um	um
sw2887B-ms98-a-0019	B.22	79.487125	79.757375		[silence]	[silence]
sw2887B-ms98-a-0020	B.22	79.757375	80.267375		[silence]	[silence]
sw2887B-ms98-a-0020	B.22	80.267375	80.557375		that's	that's
sw2887B-ms98-a-0020	B.22	80.557375	80.993625		it	it
sw2887B-ms98-a-0020	B.22	80.993625	81.255375		[silence]	[silence]
sw2887B-ms98-a-0020	B.22	81.255375	81.705500	<SUB>	because	becau[se]-
sw2887B-ms98-a-0020	B.24	81.705500	82.322250		[silence]	[silence]
sw2887B-ms98-a-0021	B.24	82.322250	82.746625		[silence]	[silence]
sw2887B-ms98-a-0021	B.24	82.746625	83.002250		Not	not
sw2887B-ms98-a-0021	B.24	83.002250	83.092250		at	at
sw2887B-ms98-a-0021	B.24	83.092250	83.522250		all	all
sw2887B-ms98-a-0021	B.26	83.522250	84.057625		[silence]	[silence]
sw2887B-ms98-a-0022	B.26	84.057625	84.527750		[silence]	[silence]
sw2887B-ms98-a-0022	B.26	84.527750	84.675875		My	my
sw2887B-ms98-a-0022	B.26	84.675875	85.005500		[silence]	[silence]
sw2887B-ms98-a-0022	B.26	85.005500	85.167625	<DEL>	---	my
sw2887B-ms98-a-0022	B.26	85.167625	85.797625		husband's	husband's
sw2887B-ms98-a-0022	B.26	85.797625	86.197625		yes	yes
sw2887B-ms98-a-0022	B.26	86.197625	86.307625		we	we
sw2887B-ms98-a-0022	B.26	86.307625	86.507625		use	use
sw2887B-ms98-a-0022	B.26	86.507625	86.627625		my	my
sw2887B-ms98-a-0022	B.26	86.627625	87.191375		husband's	husband's
sw2887B-ms98-a-0022	B.28	87.191375	87.594375		[silence]	[silence]
sw2887B-ms98-a-0022	B.28	87.594375	87.777625	<DEL>	---	b[ut]-
sw2887B-ms98-a-0022	B.28	87.777625	88.188125		[silence]	[silence]
sw2887B-ms98-a-0022	B.28	88.188125	88.517250		He	he
sw2887B-ms98-a-0022	B.28	88.517250	88.690625		he	he
sw2887B-ms98-a-0022	B.28	88.690625	88.867625		works	works
sw2887B-ms98-a-0022	B.28	88.867625	88.987625		for	for
sw2887B-ms98-a-0022	B.28	88.987625	89.507625		Bramalea	Bramalea
sw2887B-ms98-a-0022	B.28	89.507625	90.090750		Company	Company
sw2887B-ms98-a-0022	B.28	90.090750	90.237625		and	and
sw2887B-ms98-a-0022	B.28	90.237625	90.357625		they	they
sw2887B-ms98-a-0022	B.28	90.357625	90.717625		pay	pay
sw2887B-ms98-a-0022	B.28	90.717625	91.097625		one	one
sw2887B-ms98-a-0022	B.28	91.097625	91.467625		hundred	hundred
sw2887B-ms98-a-0022	B.28	91.467625	92.010500		percent	percent
sw2887B-ms98-a-0022	B.30	92.010500	92.782875		[silence]	[silence]
sw2887B-ms98-a-0023	B.30	92.782875	93.067125		[silence]	[silence]
sw2887B-ms98-a-0023	B.30	93.067125	93.332875		Not	not
sw2887B-ms98-a-0023	B.30	93.332875	93.562875		one	one
sw2887B-ms98-a-0023	B.30	93.562875	93.892875		dime	dime
sw2887B-ms98-a-0023	B.30	93.892875	94.002875		is	is
sw2887B-ms98-a-0023	B.30	94.002875	94.502875		deducted	deducted
sw2887B-ms98-a-0023	B.30	94.502875	94.712875		from	from
sw2887B-ms98-a-0023	B.30	94.712875	94.881500		his	his
sw2887B-ms98-a-0023	B.30	94.881500	95.330000		check	check
sw2887B-ms98-a-0023	B.32	95.330000	95.476000		[silence]	[silence]
sw2887B-ms98-a-0024	B.32	95.476000	96.762875		[silence]	[silence]
sw2887B-ms98-a-0025	B.32	96.762875	96.845625		[silence]	[silence]
sw2887B-ms98-a-0025	B.32	96.845625	97.523500		[laughter]	[laughter]
sw2887B-ms98-a-0025	B.32	97.523500	98.144875		Bramalea	Bramalea
sw2887B-ms98-a-0025	B.34	98.144875	99.014000		[silence]	[silence]
sw2887B-ms98-a-0025	B.34	99.014000	99.277625		It's	it's
sw2887B-ms98-a-0025	B.34	99.277625	99.778500		a	a
sw2887B-ms98-a-0025	B.34	99.778500	100.222875		security	security
sw2887B-ms98-a-0025	B.34	100.222875	100.682875		company	company
sw2887B-ms98-a-0025	B.34	100.682875	100.982875		and	and
sw2887B-ms98-a-0025	B.34	100.982875	101.312875		and	and
sw2887B-ms98-a-0025	B.34	101.312875	102.033750		building	building
sw2887B-ms98-a-0025	B.34	102.033750	102.202875		they	they
sw2887B-ms98-a-0025	B.34	102.202875	102.432875		own	own
sw2887B-ms98-a-0025	B.34	102.432875	102.482875		a	a
sw2887B-ms98-a-0025	B.34	102.482875	102.662875		lot	lot
sw2887B-ms98-a-0025	B.34	102.662875	102.752875		of	of
sw2887B-ms98-a-0025	B.34	102.752875	103.222875		buildings	buildings
sw2887B-ms98-a-0025	B.34	103.222875	103.412875		and	and
sw2887B-ms98-a-0025	B.34	103.412875	103.712875		lease	lease
sw2887B-ms98-a-0025	B.34	103.712875	104.460750		buildings	buildings
sw2887B-ms98-a-0025	B.36	104.460750	105.192750		[noise]	[noise]
sw2887B-ms98-a-0025	B.36	105.192750	105.650125		And	and
sw2887B-ms98-a-0025	B.38	105.650125	106.324000		[silence]	[silence]
sw2887B-ms98-a-0026	B.38	106.324000	106.620250		[silence]	[silence]
sw2887B-ms98-a-0026	B.38	106.620250	106.954000		Yeah	yeah
sw2887B-ms98-a-0026	B.38	106.954000	107.464000		actually	actually
sw2887B-ms98-a-0026	B.38	107.464000	107.604000		they're	they're
sw2887B-ms98-a-0026	B.38	107.604000	107.814000		from	from
sw2887B-ms98-a-0026	B.38	107.814000	108.384000		Canada	Canada
sw2887B-ms98-a-0026	B.38	108.384000	108.514000		They're	they're
sw2887B-ms98-a-0026	B.38	108.514000	109.004000		Canada	Canada
sw2887B-ms98-a-0026	B.38	109.004000	109.564000		based	based
sw2887B-ms98-a-0026	B.40	109.564000	109.976000		[silence]	[silence]
sw2887B-ms98-a-0027	B.40	109.976000	115.458750		[silence]	[silence]
sw2887B-ms98-a-0028	B.40	115.458750	116.018750		[silence]	[silence]
sw2887B-ms98-a-0028	B.40	116.018750	116.420875		Uh-huh	uh-huh
sw2887B-ms98-a-0028	B.42	116.420875	117.036500		[silence]	[silence]
sw2887B-ms98-a-0029	B.42	117.036500	119.073250		[silence]	[silence]
sw2887B-ms98-a-0030	B.42	119.073250	119.573000		[silence]	[silence]
sw2887B-ms98-a-0030	B.42	119.573000	119.938000		Right	right
sw2887B-ms98-a-0030	B.44	119.938000	120.307125		[silence]	[silence]
sw2887B-ms98-a-0030	B.44	120.307125	120.633250		Right	right
sw2887B-ms98-a-0030	B.44	120.633250	120.863250		yeah	yeah
sw2887B-ms98-a-0030	B.44	120.863250	121.003250		it's	it's
sw2887B-ms98-a-0030	B.44	121.003250	121.123250		all	all
sw2887B-ms98-a-0030	B.44	121.123250	121.403250		taken	taken
sw2887B-ms98-a-0030	B.44	121.403250	121.679500		care	care
sw2887B-ms98-a-0030	B.46	121.679500	121.894250		[silence]	[silence]
sw2887B-ms98-a-0031	B.46	121.894250	122.340000		[silence]	[silence]
sw2887B-ms98-a-0031	B.46	122.340000	122.525375		Yeah	yeah
sw2887B-ms98-a-0031	B.46	122.525375	122.706500		but	but
sw2887B-ms98-a-0031	B.46	122.706500	123.151000		[vocalized-noise]	[vocalized-noise]
sw2887B-ms98-a-0031	B.46	123.151000	123.304250		our	our
sw2887B-ms98-a-0031	B.46	123.304250	123.994250		prescriptions	prescriptions
sw2887B-ms98-a-0031	B.46	123.994250	124.174250		and	and
sw2887B-ms98-a-0031	B.46	124.174250	124.922500		everything	everything
sw2887B-ms98-a-0031	B.46	124.922500	125.193375		our	our
sw2887B-ms98-a-0031	B.46	125.193375	125.389250		[silence]	[silence]
sw2887B-ms98-a-0031	B.46	125.389250	125.754250		visits	visits
sw2887B-ms98-a-0031	B.46	125.754250	125.874250		to	to
sw2887B-ms98-a-0031	B.46	125.874250	126.014250		the	the
sw2887B-ms98-a-0031	B.46	126.014250	126.544250		doctor	doctor
sw2887B-ms98-a-0031	B.46	126.544250	126.654250		our	our
sw2887B-ms98-a-0031	B.46	126.654250	128.014250		hospitalization	hospitalization
sw2887B-ms98-a-0031	B.46	128.014250	128.104250		the	the
sw2887B-ms98-a-0031	B.46	128.104250	128.314250		only	only
sw2887B-ms98-a-0031	B.46	128.314250	128.494250		thing	thing
sw2887B-ms98-a-0031	B.46	128.494250	128.634250		we	we
sw2887B-ms98-a-0031	B.46	128.634250	128.894250		pay	pay
sw2887B-ms98-a-0031	B.46	128.894250	129.184250		for	for
sw2887B-ms98-a-0031	B.46	129.184250	129.314250		is	is
sw2887B-ms98-a-0031	B.46	129.314250	129.556250		if	if
sw2887B-ms98-a-0031	B.46	129.556250	130.200250		[silence]	[silence]
sw2887B-ms98-a-0031	B.46	130.200250	130.394250		if	if
sw2887B-ms98-a-0031	B.46	130.394250	130.714250		something	something
sw2887B-ms98-a-0031	B.46	130.714250	131.014250		happened	happened
sw2887B-ms98-a-0031	B.46	131.014250	131.014250	<INS>	an	---
sw2887B-ms98-a-0031	B.46	131.014250	131.845500		emergency	emergency
sw2887B-ms98-a-0031	B.46	131.845500	132.165625		[silence]	[silence]
sw2887B-ms98-a-0031	B.46	132.165625	132.629750		and	and
sw2887B-ms98-a-0031	B.46	132.629750	132.746500		[silence]	[silence]
sw2887B-ms98-a-0031	B.46	132.746500	132.854250		we	we
sw2887B-ms98-a-0031	B.46	132.854250	133.014250		had	had
sw2887B-ms98-a-0031	B.46	133.014250	133.084250		to	to
sw2887B-ms98-a-0031	B.46	133.084250	133.184250		have	have
sw2887B-ms98-a-0031	B.46	133.184250	133.304250		an	an
sw2887B-ms98-a-0031	B.46	133.304250	133.784250		ambulance	ambulance
sw2887B-ms98-a-0031	B.46	133.784250	133.954250		it's	it's
sw2887B-ms98-a-0031	B.46	133.954250	134.224250	<CONT>	twenty-five	twenty
sw2887B-ms98-a-0031	B.46	134.224250	134.434250	<CONT>	+++	five
sw2887B-ms98-a-0031	B.46	134.434250	135.021250		dollars	dollars
sw2887B-ms98-a-0031	B.48	135.021250	135.306750		[silence]	[silence]
sw2887B-ms98-a-0032	B.48	135.306750	135.798125		[silence]	[silence]
sw2887B-ms98-a-0032	B.48	135.798125	135.866750		I	i
sw2887B-ms98-a-0032	B.48	135.866750	136.076750		mean	mean
sw2887B-ms98-a-0032	B.48	136.076750	136.346750		that's	that's
sw2887B-ms98-a-0032	B.48	136.346750	136.980875		nothing	nothing
sw2887B-ms98-a-0032	B.52	136.980875	137.146625		[silence]	[silence]
sw2887B-ms98-a-0032	B.52	137.146625	137.594125	<DEL>	---	compared
sw2887B-ms98-a-0032	B.52	137.594125	138.604750		[silence]	[silence]
sw2887B-ms98-a-0033	B.52	138.604750	139.142000		[silence]	[silence]
sw2887B-ms98-a-0033	B.52	139.142000	139.614750		Really	really
sw2887B-ms98-a-0033	B.52	139.614750	139.955875		yeah	yeah
sw2887B-ms98-a-0033	B.52	139.955875	140.385250		[silence]	[silence]
sw2887B-ms98-a-0033	B.52	140.385250	140.742625		well	well
sw2887B-ms98-a-0033	B.52	140.742625	141.264750	<DEL>	---	at
sw2887B-ms98-a-0033	B.52	141.264750	141.534750	<CONT>	T	TI
sw2887B-ms98-a-0033	B.52	141.534750	141.534750	<CONT>	I	+++
sw2887B-ms98-a-0033	B.52	141.534750	141.734750	<DEL>	---	i
sw2887B-ms98-a-0033	B.52	141.734750	142.034750		was	was
sw2887B-ms98-a-0033	B.52	142.034750	142.591250		getting	getting
sw2887B-ms98-a-0033	B.52	142.591250	142.745625		[silence]	[silence]
sw2887B-ms98-a-0033	B.52	142.745625	142.914750		for	for
sw2887B-ms98-a-0033	B.52	142.914750	142.974750		the	the
sw2887B-ms98-a-0033	B.52	142.974750	143.244750		both	both
sw2887B-ms98-a-0033	B.52	143.244750	143.354750		of	of
sw2887B-ms98-a-0033	B.52	143.354750	143.454750		us	us
sw2887B-ms98-a-0033	B.52	143.454750	143.514750		it	it
sw2887B-ms98-a-0033	B.52	143.514750	143.624750		was	was
sw2887B-ms98-a-0033	B.52	143.624750	143.804750		like	like
sw2887B-ms98-a-0033	B.52	143.804750	144.094750	<CONT>	seventy-five	seventy
sw2887B-ms98-a-0033	B.52	144.094750	144.314750	<CONT>	+++	five
sw2887B-ms98-a-0033	B.52	144.314750	144.692750		dollars	dollars
sw2887B-ms98-a-0033	B.52	144.692750	144.779375		a	a
sw2887B-ms98-a-0033	B.52	144.779375	145.199500		month	month
sw2887B-ms98-a-0033	B.54	145.199500	145.743625		[silence]	[silence]
sw2887B-ms98-a-0034	B.54	145.743625	146.246000		[silence]	[silence]
sw2887B-ms98-a-0034	B.54	146.246000	146.313625		You	you
sw2887B-ms98-a-0034	B.54	146.313625	146.563500		know	know
sw2887B-ms98-a-0034	B.54	146.563500	146.875125		[silence]	[silence]
sw2887B-ms98-a-0034	B.54	146.875125	147.543625		deducted	deducted
sw2887B-ms98-a-0034	B.54	147.543625	147.713625		for	for
sw2887B-ms98-a-0034	B.54	147.713625	147.823625		an	an
sw2887B-ms98-a-0034	B.54	147.823625	148.482125	<CONT>	H	HMO
sw2887B-ms98-a-0034	B.54	148.482125	148.482125	<CONT>	M	+++
sw2887B-ms98-a-0034	B.54	148.482125	148.482125	<CONT>	O	+++
sw2887B-ms98-a-0034	B.60	148.482125	148.976875		[silence]	[silence]
sw2887B-ms98-a-0035	B.60	148.976875	150.732875		[silence]	[silence]
sw2887B-ms98-a-0036	B.60	150.732875	151.193875		[silence]	[silence]
sw2887B-ms98-a-0036	B.60	151.193875	151.907875		[laughter]	[laughter]
sw2887B-ms98-a-0036	B.60	151.907875	151.985750		[silence]	[silence]
sw2887B-ms98-a-0037	B.60	151.985750	153.186125		[silence]	[silence]
sw2887B-ms98-a-0038	B.60	153.186125	153.469625		[silence]	[silence]
sw2887B-ms98-a-0038	B.60	153.469625	154.120375		[noise]	[noise]
sw2887B-ms98-a-0038	B.60	154.120375	154.301375		[silence]	[silence]
sw2887B-ms98-a-0039	B.60	154.301375	157.051875		[silence]	[silence]
sw2887B-ms98-a-0040	B.60	157.051875	157.635625		[silence]	[silence]
sw2887B-ms98-a-0040	B.60	157.635625	158.023500		Uh-huh	uh-huh
sw2887B-ms98-a-0040	B.62	158.023500	158.552500		[silence]	[silence]
sw2887B-ms98-a-0041	B.62	158.552500	162.981625		[silence]	[silence]
sw2887B-ms98-a-0042	B.62	162.981625	163.552500		[silence]	[silence]
sw2887B-ms98-a-0042	B.62	163.552500	163.948875		Uh-huh	uh-huh
sw2887B-ms98-a-0042	B.64	163.948875	164.463000		[silence]	[silence]
sw2887B-ms98-a-0043	B.64	164.463000	166.579375		[silence]	[silence]
sw2887B-ms98-a-0044	B.64	166.579375	167.149375		[silence]	[silence]
sw2887B-ms98-a-0044	B.64	167.149375	167.711375		Okay	okay_1
sw2887B-ms98-a-0044	B.66	167.711375	168.209875		[silence]	[silence]
sw2887B-ms98-a-0045	B.66	168.209875	175.655875		[silence]	[silence]
sw2887B-ms98-a-0046	B.66	175.655875	176.199000		[silence]	[silence]
sw2887B-ms98-a-0046	B.66	176.199000	176.596500		Uh-huh	uh-huh
sw2887B-ms98-a-0046	B.68	176.596500	177.066000		[silence]	[silence]
sw2887B-ms98-a-0047	B.68	177.066000	180.749125		[silence]	[silence]
sw2887B-ms98-a-0048	B.68	180.749125	181.027500		[silence]	[silence]
sw2887B-ms98-a-0048	B.68	181.027500	181.289125		Oh	oh
sw2887B-ms98-a-0048	B.68	181.289125	181.699000		yeah	yeah
sw2887B-ms98-a-0048	B.68	181.699000	182.071250		yeah	yeah
sw2887B-ms98-a-0048	B.70	182.071250	182.632500		[silence]	[silence]
sw2887B-ms98-a-0048	B.70	182.632500	182.759125		We	we
sw2887B-ms98-a-0048	B.70	182.759125	182.959500		don't	don't
sw2887B-ms98-a-0048	B.70	182.959500	183.352750		either	either
sw2887B-ms98-a-0048	B.72	183.352750	184.075875		[silence]	[silence]
sw2887B-ms98-a-0048	B.72	184.075875	184.289125		Neither	neither
sw2887B-ms98-a-0048	B.72	184.289125	184.409125		one	one
sw2887B-ms98-a-0048	B.72	184.409125	184.499125		of	of
sw2887B-ms98-a-0048	B.72	184.499125	184.702750		us	us
sw2887B-ms98-a-0048	B.72	184.702750	184.935375		do	do
sw2887B-ms98-a-0048	B.76	184.935375	185.022125		[silence]	[silence]
sw2887B-ms98-a-0049	B.76	185.022125	193.427500		[silence]	[silence]
sw2887B-ms98-a-0050	B.76	193.427500	193.905500		[silence]	[silence]
sw2887B-ms98-a-0050	B.76	193.905500	194.263875	<SUB>	Uh-huh	um-hum
sw2887B-ms98-a-0050	B.78	194.263875	194.996625		[silence]	[silence]
sw2887B-ms98-a-0051	B.78	194.996625	195.606625		[silence]	[silence]
sw2887B-ms98-a-0051	B.78	195.606625	196.016125		Right	right
sw2887B-ms98-a-0051	B.80	196.016125	196.255375		[silence]	[silence]
sw2887B-ms98-a-0052	B.80	196.255375	197.886875		[silence]	[silence]
sw2887B-ms98-a-0053	B.80	197.886875	198.458375		[silence]	[silence]
sw2887B-ms98-a-0053	B.80	198.458375	199.162375		Yeah	yeah
sw2887B-ms98-a-0053	B.82	199.162375	199.330625		[silence]	[silence]
sw2887B-ms98-a-0054	B.82	199.330625	202.109250		[silence]	[silence]
sw2887B-ms98-a-0055	B.82	202.109250	202.392000		[silence]	[silence]
sw2887B-ms98-a-0055	B.82	202.392000	203.080000	<SUB>	Uh-huh	um-hum
sw2887B-ms98-a-0055	B.84	203.080000	203.918750		Exactly	exactly
sw2887B-ms98-a-0055	B.86	203.918750	204.664875		[silence]	[silence]
sw2887B-ms98-a-0056	B.86	204.664875	205.272250		[silence]	[silence]
sw2887B-ms98-a-0056	B.86	205.272250	205.734375		Yeah	yeah
sw2887B-ms98-a-0056	B.88	205.734375	206.204625		[silence]	[silence]
sw2887B-ms98-a-0057	B.88	206.204625	208.023375		[silence]	[silence]
sw2887B-ms98-a-0058	B.88	208.023375	208.568875		[silence]	[silence]
sw2887B-ms98-a-0058	B.88	208.568875	209.078250	<SUB>	Uh-huh	um-hum
sw2887B-ms98-a-0058	B.90	209.078250	209.689250		[silence]	[silence]
sw2887B-ms98-a-0059	B.90	209.689250	210.284500		[silence]	[silence]
sw2887B-ms98-a-0059	B.90	210.284500	210.777000		Yeah	yeah
sw2887B-ms98-a-0059	B.92	210.777000	211.021875		[silence]	[silence]
sw2887B-ms98-a-0059	B.92	211.021875	211.659250		Exactly	exactly
sw2887B-ms98-a-0059	B.94	211.659250	211.729250		You	you
sw2887B-ms98-a-0059	B.94	211.729250	211.979250		can't	can't
sw2887B-ms98-a-0059	B.94	211.979250	212.259250		charge	charge
sw2887B-ms98-a-0059	B.94	212.259250	212.519250		more	more
sw2887B-ms98-a-0059	B.94	212.519250	212.679250		for	for
sw2887B-ms98-a-0059	B.94	212.679250	212.729250		a	a
sw2887B-ms98-a-0059	B.94	212.729250	213.119250		person	person
sw2887B-ms98-a-0059	B.94	213.119250	213.329250		who's	who's
sw2887B-ms98-a-0059	B.94	213.329250	213.509250		on	on
sw2887B-ms98-a-0059	B.94	213.509250	213.549250		a	a
sw2887B-ms98-a-0059	B.94	213.549250	214.130125		flight	flight
sw2887B-ms98-a-0059	B.96	214.130125	214.668625		[silence]	[silence]
sw2887B-ms98-a-0059	B.96	214.668625	214.879250		just	just
sw2887B-ms98-a-0059	B.96	214.879250	215.129250		because	because
sw2887B-ms98-a-0059	B.96	215.129250	215.279875		they're	they're
sw2887B-ms98-a-0059	B.96	215.279875	215.904000		larger	larger
sw2887B-ms98-a-0059	B.98	215.904000	216.416250		[silence]	[silence]
sw2887B-ms98-a-0059	B.98	216.416250	216.852375		Yeah	yeah
sw2887B-ms98-a-0059	B.102	216.852375	217.639250		[noise]	[noise]
sw2887B-ms98-a-0059	B.102	217.639250	217.720250		[silence]	[silence]
sw2887B-ms98-a-0060	B.102	217.720250	217.983250		[silence]	[silence]
sw2887B-ms98-a-0060	B.102	217.983250	218.250250		I	i
sw2887B-ms98-a-0060	B.102	218.250250	218.500250		don't	don't
sw2887B-ms98-a-0060	B.102	218.500250	218.910250		know	know
sw2887B-ms98-a-0060	B.104	218.910250	219.644750		[silence]	[silence]
sw2887B-ms98-a-0061	B.104	219.644750	220.569750		[silence]	[silence]
sw2887B-ms98-a-0061	B.104	220.569750	221.734750		[laughter]	[laughter]
sw2887B-ms98-a-0061	B.104	221.734750	222.227250		Yeah	yeah
sw2887B-ms98-a-0061	B.106	222.227250	223.212250		[silence]	[silence]
sw2887B-ms98-a-0062	B.106	223.212250	230.182750		[silence]	[silence]
sw2887B-ms98-a-0063	B.106	230.182750	230.719500		[silence]	[silence]
sw2887B-ms98-a-0063	B.106	230.719500	230.932750		Yeah	yeah
sw2887B-ms98-a-0063	B.106	230.932750	231.092750		they	they
sw2887B-ms98-a-0063	B.106	231.092750	231.272750		are	are
sw2887B-ms98-a-0063	B.106	231.272750	231.586750		as	as
sw2887B-ms98-a-0063	B.106	231.586750	231.711125		[silence]	[silence]
sw2887B-ms98-a-0063	B.106	231.711125	231.972750		far	far
sw2887B-ms98-a-0063	B.106	231.972750	232.062750		as	as
sw2887B-ms98-a-0063	B.106	232.062750	232.332750		their	their
sw2887B-ms98-a-0063	B.106	232.332750	232.542750		like	like
sw2887B-ms98-a-0063	B.106	232.542750	232.922750		pension	pension
sw2887B-ms98-a-0063	B.106	232.922750	233.502750		plans	plans
sw2887B-ms98-a-0063	B.108	233.502750	233.582750	<DEL>	---	i
sw2887B-ms98-a-0063	B.108	233.582750	233.749375	<DEL>	---	th[ink]-
sw2887B-ms98-a-0063	B.108	233.749375	233.862375		[silence]	[silence]
sw2887B-ms98-a-0063	B.108	233.862375	234.092750		they're	they're
sw2887B-ms98-a-0063	B.108	234.092750	234.683250		vested	vested
sw2887B-ms98-a-0063	B.108	234.683250	234.861750		a	a
sw2887B-ms98-a-0063	B.108	234.861750	235.076375		lot	lot
sw2887B-ms98-a-0063	B.108	235.076375	235.582750		earlier	earlier
sw2887B-ms98-a-0063	B.108	235.582750	235.622750		I	i
sw2887B-ms98-a-0063	B.108	235.622750	235.862750		think	think
sw2887B-ms98-a-0063	B.108	235.862750	236.002750		at	at
sw2887B-ms98-a-0063	B.108	236.002750	236.312750	<CONT>	T	TI
sw2887B-ms98-a-0063	B.108	236.312750	236.312750	<CONT>	I	+++
sw2887B-ms98-a-0063	B.108	236.312750	236.512750	<SUB>	it	it's
sw2887B-ms98-a-0063	B.108	236.512750	236.692750	<SUB>	took	what
sw2887B-ms98-a-0063	B.108	236.692750	236.922750		five	five
sw2887B-ms98-a-0063	B.108	236.922750	237.362500		years	years
sw2887B-ms98-a-0063	B.112	237.362500	238.269500		[silence]	[silence]
sw2887B-ms98-a-0064	B.112	238.269500	239.009500		[silence]	[silence]
sw2887B-ms98-a-0064	B.112	239.009500	239.319500		Five	five
sw2887B-ms98-a-0064	B.112	239.319500	239.419500		to	to
sw2887B-ms98-a-0064	B.112	239.419500	239.878000		seven	seven
sw2887B-ms98-a-0064	B.114	239.878000	240.205625		[silence]	[silence]
sw2887B-ms98-a-0064	B.114	240.205625	240.469500		And	and
sw2887B-ms98-a-0064	B.114	240.469500	240.599500		they're	they're
sw2887B-ms98-a-0064	B.114	240.599500	240.989500		vested	vested
sw2887B-ms98-a-0064	B.114	240.989500	241.249500		after	after
sw2887B-ms98-a-0064	B.114	241.249500	241.379500		their	their
sw2887B-ms98-a-0064	B.114	241.379500	241.769500		first	first
sw2887B-ms98-a-0064	B.114	241.769500	242.211500		year	year
sw2887B-ms98-a-0064	B.116	242.211500	242.554875		[silence]	[silence]
sw2887B-ms98-a-0065	B.116	242.554875	242.954875		[silence]	[silence]
sw2887B-ms98-a-0065	B.116	242.954875	243.230250		To-	to[tally]-
sw2887B-ms98-a-0065	B.116	243.230250	243.654875		totally	totally
sw2887B-ms98-a-0065	B.116	243.654875	244.087750		vested	vested
sw2887B-ms98-a-0065	B.118	244.087750	244.780750		[silence]	[silence]
sw2887B-ms98-a-0065	B.118	244.780750	244.914875		And	and
sw2887B-ms98-a-0065	B.118	244.914875	245.024875		they	they
sw2887B-ms98-a-0065	B.118	245.024875	245.224875		have	have
sw2887B-ms98-a-0065	B.118	245.224875	245.472750		the	the
sw2887B-ms98-a-0065	B.118	245.472750	245.762625		[silence]	[silence]
sw2887B-ms98-a-0065	B.118	245.762625	246.694875	<CONT>	four	401K
sw2887B-ms98-a-0065	B.118	246.694875	246.694875	<CONT>	one	+++
sw2887B-ms98-a-0065	B.118	246.694875	246.694875	<CONT>	K	+++
sw2887B-ms98-a-0065	B.118	246.694875	246.874875		and	and
sw2887B-ms98-a-0065	B.118	246.874875	246.934875		the	the
sw2887B-ms98-a-0065	B.120	246.934875	247.496375		usual	usual
sw2887B-ms98-a-0065	B.120	247.496375	247.601875		[silence]	[silence]
sw2887B-ms98-a-0065	B.120	247.601875	248.094875		benefits	benefits
sw2887B-ms98-a-0065	B.120	248.094875	248.324875		like	like
sw2887B-ms98-a-0065	B.120	248.324875	248.813750		that	that
sw2887B-ms98-a-0065	B.120	248.813750	249.258500		uh	uh
sw2887B-ms98-a-0065	B.122	249.258500	249.823125		[silence]	[silence]
sw2887B-ms98-a-0066	B.122	249.823125	251.888625		[silence]	[silence]
sw2887B-ms98-a-0067	B.122	251.888625	252.298625		[silence]	[silence]
sw2887B-ms98-a-0067	B.122	252.298625	252.723875		Right	right
sw2887B-ms98-a-0067	B.122	252.723875	252.890250		[silence]	[silence]
sw2887B-ms98-a-0067	B.122	252.890250	253.329375		right	right
sw2887B-ms98-a-0067	B.124	253.329375	253.864250		[silence]	[silence]
sw2887B-ms98-a-0068	B.124	253.864250	255.812375		[silence]	[silence]
sw2887B-ms98-a-0069	B.124	255.812375	256.339125		[silence]	[silence]
sw2887B-ms98-a-0069	B.124	256.339125	256.562375		No	no
sw2887B-ms98-a-0069	B.124	256.562375	256.672375		they	they
sw2887B-ms98-a-0069	B.124	256.672375	256.932375		match	match
sw2887B-ms98-a-0069	B.124	256.932375	256.992375		the	the
sw2887B-ms98-a-0069	B.124	256.992375	257.182375		same	same
sw2887B-ms98-a-0069	B.124	257.182375	257.660875		amount	amount
sw2887B-ms98-a-0069	B.126	257.660875	258.124125		[silence]	[silence]
sw2887B-ms98-a-0069	B.126	258.124125	258.362375		Yeah	yeah
sw2887B-ms98-a-0069	B.126	258.362375	258.818375		well	well
sw2887B-ms98-a-0069	B.126	258.818375	259.262875		[silence]	[silence]
sw2887B-ms98-a-0069	B.126	259.262875	259.342375		they	they
sw2887B-ms98-a-0069	B.126	259.342375	259.612375		match	match
sw2887B-ms98-a-0069	B.126	259.612375	259.842375		four	four
sw2887B-ms98-a-0069	B.126	259.842375	260.402375		percent	percent
sw2887B-ms98-a-0069	B.126	260.402375	260.592375		which	which
sw2887B-ms98-a-0069	B.126	260.592375	260.912375		is	is
sw2887B-ms98-a-0069	B.126	260.912375	260.992375		the	the
sw2887B-ms98-a-0069	B.126	260.992375	261.326375		same	same
sw2887B-ms98-a-0069	B.128	261.326375	261.495875		[silence]	[silence]
sw2887B-ms98-a-0069	B.128	261.495875	261.632375		You	you
sw2887B-ms98-a-0069	B.128	261.632375	261.822375		know	know
sw2887B-ms98-a-0069	B.128	261.822375	262.112375		fifty	fifty
sw2887B-ms98-a-0069	B.128	262.112375	262.462375		percent	percent
sw2887B-ms98-a-0069	B.128	262.462375	262.522375		or	or
sw2887B-ms98-a-0069	B.128	262.522375	262.808000		four	four
sw2887B-ms98-a-0069	B.128	262.808000	263.099250		percent	percent
sw2887B-ms98-a-0069	B.130	263.099250	263.306000		[silence]	[silence]
sw2887B-ms98-a-0070	B.130	263.306000	265.533625		[silence]	[silence]
sw2887B-ms98-a-0071	B.130	265.533625	266.203625		[silence]	[silence]
sw2887B-ms98-a-0071	B.130	266.203625	266.638000		Uh-huh	uh-huh
sw2887B-ms98-a-0071	B.132	266.638000	267.334750		[silence]	[silence]
sw2887B-ms98-a-0072	B.132	267.334750	272.761625		[silence]	[silence]
sw2887B-ms98-a-0073	B.132	272.761625	273.291625		[silence]	[silence]
sw2887B-ms98-a-0073	B.132	273.291625	273.644375		Uh-huh	uh-huh
sw2887B-ms98-a-0073	B.134	273.644375	274.064750		[silence]	[silence]
sw2887B-ms98-a-0074	B.134	274.064750	274.755125		[silence]	[silence]
sw2887B-ms98-a-0075	B.134	274.755125	275.445125		[silence]	[silence]
sw2887B-ms98-a-0075	B.134	275.445125	275.822250		Yeah	yeah
sw2887B-ms98-a-0075	B.136	275.822250	276.502125		[silence]	[silence]
sw2887B-ms98-a-0076	B.136	276.502125	278.600500		[silence]	[silence]
sw2887B-ms98-a-0077	B.136	278.600500	279.020250		[silence]	[silence]
sw2887B-ms98-a-0077	B.136	279.020250	279.519250		Yeah	yeah
sw2887B-ms98-a-0077	B.138	279.519250	279.794375		[silence]	[silence]
sw2887B-ms98-a-0077	B.138	279.794375	280.204000		Yeah	yeah
sw2887B-ms98-a-0077	B.140	280.204000	280.707875		[silence]	[silence]
sw2887B-ms98-a-0078	B.140	280.707875	281.799250		[silence]	[silence]
sw2887B-ms98-a-0079	B.140	281.799250	282.187500		[silence]	[silence]
sw2887B-ms98-a-0079	B.140	282.187500	282.525500		Uh-huh	uh-huh
sw2887B-ms98-a-0079	B.142	282.525500	283.063625		[silence]	[silence]
sw2887B-ms98-a-0080	B.142	283.063625	292.590500		[silence]	[silence]
sw2887B-ms98-a-0081	B.142	292.590500	293.170500		[silence]	[silence]
sw2887B-ms98-a-0081	B.142	293.170500	293.533125		Right	right
sw2887B-ms98-a-0081	B.144	293.533125	294.082875		[silence]	[silence]
sw2887B-ms98-a-0082	B.144	294.082875	295.586000		[silence]	[silence]
sw2887B-ms98-a-0083	B.144	295.586000	296.030375		[silence]	[silence]
sw2887B-ms98-a-0083	B.144	296.030375	296.354625		It's	it's
sw2887B-ms98-a-0083	B.146	296.354625	296.830375		[silence]	[silence]
sw2887B-ms98-a-0084	B.146	296.830375	303.944000		[silence]	[silence]
sw2887B-ms98-a-0085	B.146	303.944000	304.537875		[silence]	[silence]
sw2887B-ms98-a-0085	B.146	304.537875	304.912375		Right	right
sw2887B-ms98-a-0085	B.148	304.912375	305.304625		[silence]	[silence]
sw2887B-ms98-a-0086	B.148	305.304625	305.744375		[silence]	[silence]
sw2887B-ms98-a-0086	B.148	305.744375	306.034625		Yeah	yeah
sw2887B-ms98-a-0086	B.148	306.034625	306.367125		that	that
sw2887B-ms98-a-0086	B.148	306.367125	306.713625		[silence]	[silence]
sw2887B-ms98-a-0086	B.148	306.713625	306.824625		and	and
sw2887B-ms98-a-0086	B.148	306.824625	306.904625		I	i
sw2887B-ms98-a-0086	B.148	306.904625	307.124625		know	know
sw2887B-ms98-a-0086	B.148	307.124625	307.394625		that's	that's
sw2887B-ms98-a-0086	B.148	307.394625	307.434625		a	a
sw2887B-ms98-a-0086	B.148	307.434625	307.674625		big	big
sw2887B-ms98-a-0086	B.148	307.674625	307.984625		issue	issue
sw2887B-ms98-a-0086	B.148	307.984625	308.304625		because	because
sw2887B-ms98-a-0086	B.148	308.304625	308.521500		I	i
sw2887B-ms98-a-0086	B.148	308.521500	308.830250		[silence]	[silence]
sw2887B-ms98-a-0086	B.148	308.830250	308.954375		I	i
sw2887B-ms98-a-0086	B.148	308.954375	309.204625		belong	belong
sw2887B-ms98-a-0086	B.148	309.204625	309.294625		to	to
sw2887B-ms98-a-0086	B.148	309.294625	309.384625		a	a
sw2887B-ms98-a-0086	B.148	309.384625	309.804625		women's	women's
sw2887B-ms98-a-0086	B.148	309.804625	310.224625		forum	forum
sw2887B-ms98-a-0086	B.148	310.224625	310.626375		group	group
sw2887B-ms98-a-0086	B.150	310.626375	311.259125		[silence]	[silence]
sw2887B-ms98-a-0086	B.150	311.259125	311.682500		And	and
sw2887B-ms98-a-0086	B.150	311.682500	311.795500		[silence]	[silence]
sw2887B-ms98-a-0086	B.150	311.795500	311.974625		some	some
sw2887B-ms98-a-0086	B.150	311.974625	312.044625		of	of
sw2887B-ms98-a-0086	B.150	312.044625	312.104625		the	the
sw2887B-ms98-a-0086	B.150	312.104625	312.624625		questions	questions
sw2887B-ms98-a-0086	B.150	312.624625	312.774625		we're	we're
sw2887B-ms98-a-0086	B.150	312.774625	313.319000		getting	getting
sw2887B-ms98-a-0086	B.150	313.319000	313.494625		are	are
sw2887B-ms98-a-0086	B.150	313.494625	313.675250		are	are
sw2887B-ms98-a-0086	B.150	313.675250	313.874625		on	on
sw2887B-ms98-a-0086	B.150	313.874625	314.134625		site	site
sw2887B-ms98-a-0086	B.150	314.134625	314.274625		day	day
sw2887B-ms98-a-0086	B.150	314.274625	314.594625		care	care
sw2887B-ms98-a-0086	B.150	314.594625	314.754625		and	and
sw2887B-ms98-a-0086	B.150	314.754625	315.024625		things	things
sw2887B-ms98-a-0086	B.150	315.024625	315.194625		like	like
sw2887B-ms98-a-0086	B.150	315.194625	315.578000		that	that
sw2887B-ms98-a-0086	B.152	315.578000	316.214750		[silence]	[silence]
sw2887B-ms98-a-0086	B.152	316.214750	316.424375		That	that
sw2887B-ms98-a-0086	B.152	316.424375	316.640750		[silence]	[silence]
sw2887B-ms98-a-0087	B.152	316.640750	316.858375		[silence]	[silence]
sw2887B-ms98-a-0087	B.152	316.858375	317.080750		they	they
sw2887B-ms98-a-0087	B.152	317.080750	317.530750		consider	consider
sw2887B-ms98-a-0087	B.152	317.530750	317.810750		[silence]	[silence]
sw2887B-ms98-a-0087	B.152	317.810750	317.870750		a	a
sw2887B-ms98-a-0087	B.152	317.870750	318.220750		very	very
sw2887B-ms98-a-0087	B.152	318.220750	318.680750		serious	serious
sw2887B-ms98-a-0087	B.152	318.680750	319.205500		benefit	benefit
sw2887B-ms98-a-0087	B.152	319.205500	319.539000		[silence]	[silence]
sw2887B-ms98-a-0087	B.152	319.539000	319.819000		And	and
sw2887B-ms98-a-0087	B.152	319.819000	320.389125		[silence]	[silence]
sw2887B-ms98-a-0087	B.152	320.389125	320.494500		I	i
sw2887B-ms98-a-0087	B.152	320.494500	320.740750		can't	can't
sw2887B-ms98-a-0087	B.152	320.740750	320.850750		tell	tell
sw2887B-ms98-a-0087	B.152	320.850750	321.070750		you	you
sw2887B-ms98-a-0087	B.152	321.070750	321.500750		anybody	anybody
sw2887B-ms98-a-0087	B.152	321.500750	321.690750		right	right
sw2887B-ms98-a-0087	B.152	321.690750	321.860750		now	now
sw2887B-ms98-a-0087	B.152	321.860750	321.960750		at	at
sw2887B-ms98-a-0087	B.152	321.960750	322.260750	<CONT>	T	TI
sw2887B-ms98-a-0087	B.152	322.260750	322.260750	<CONT>	I	+++
sw2887B-ms98-a-0087	B.152	322.260750	322.586000		that's	that's
sw2887B-ms98-a-0087	B.152	322.586000	322.766750		[silence]	[silence]
sw2887B-ms98-a-0087	B.152	322.766750	323.090750		uh	uh
sw2887B-ms98-a-0087	B.152	323.090750	323.690750		considering	considering
sw2887B-ms98-a-0087	B.152	323.690750	323.974250		that	that
sw2887B-ms98-a-0087	B.156	323.974250	324.510125		[silence]	[silence]
sw2887B-ms98-a-0088	B.156	324.510125	324.847000		[silence]	[silence]
sw2887B-ms98-a-0088	B.156	324.847000	325.263625	<DEL>	---	so
sw2887B-ms98-a-0088	B.156	325.263625	325.724250		[noise]	[noise]
sw2887B-ms98-a-0088	B.156	325.724250	326.148750		[silence]	[silence]
sw2887B-ms98-a-0089	B.156	326.148750	326.648750		[silence]	[silence]
sw2887B-ms98-a-0089	B.156	326.648750	326.828750		They	they
sw2887B-ms98-a-0089	B.156	326.828750	327.128750		should	should
sw2887B-ms98-a-0089	B.156	327.128750	327.308750		be	be
sw2887B-ms98-a-0089	B.156	327.308750	327.678750		though	though
sw2887B-ms98-a-0089	B.158	327.678750	328.115375		[silence]	[silence]
sw2887B-ms98-a-0090	B.158	328.115375	340.488750		[silence]	[silence]
sw2887B-ms98-a-0091	B.158	340.488750	340.968375		[silence]	[silence]
sw2887B-ms98-a-0091	B.158	340.968375	341.384125		Uh-huh	uh-huh
sw2887B-ms98-a-0091	B.160	341.384125	342.496125		[silence]	[silence]
sw2887B-ms98-a-0091	B.160	342.496125	342.842125		Right	right
sw2887B-ms98-a-0091	B.162	342.842125	344.045375		[silence]	[silence]
sw2887B-ms98-a-0092	B.162	344.045375	346.939125		[silence]	[silence]
sw2887B-ms98-a-0093	B.162	346.939125	347.849125		[silence]	[silence]
sw2887B-ms98-a-0093	B.162	347.849125	348.239125		Right	right
sw2887B-ms98-a-0093	B.164	348.239125	348.769000		[silence]	[silence]
sw2887B-ms98-a-0094	B.164	348.769000	351.674625		[silence]	[silence]
sw2887B-ms98-a-0095	B.164	351.674625	352.156375		[silence]	[silence]
sw2887B-ms98-a-0095	B.164	352.156375	352.558375		Uh-huh	uh-huh
sw2887B-ms98-a-0095	B.166	352.558375	353.090875		[silence]	[silence]
sw2887B-ms98-a-0096	B.166	353.090875	355.500375		[silence]	[silence]
sw2887B-ms98-a-0097	B.166	355.500375	356.120375		[silence]	[silence]
sw2887B-ms98-a-0097	B.166	356.120375	356.764375		Yeah	yeah
sw2887B-ms98-a-0097	B.166	356.764375	357.037875		[silence]	[silence]
sw2887B-ms98-a-0097	B.166	357.037875	357.162125		a	a
sw2887B-ms98-a-0097	B.166	357.162125	357.310375		lot	lot
sw2887B-ms98-a-0097	B.166	357.310375	357.677125		better	better
sw2887B-ms98-a-0097	B.168	357.677125	358.310000		[silence]	[silence]
sw2887B-ms98-a-0097	B.168	358.310000	358.800375	<CONT>	E	EDS
sw2887B-ms98-a-0097	B.168	358.800375	358.800375	<CONT>	D	+++
sw2887B-ms98-a-0097	B.168	358.800375	358.800375	<CONT>	S	+++
sw2887B-ms98-a-0097	B.168	358.800375	358.950375		is	is
sw2887B-ms98-a-0097	B.168	358.950375	359.154625		m-	m[uch]-
sw2887B-ms98-a-0097	B.168	359.154625	359.252625		[silence]	[silence]
sw2887B-ms98-a-0097	B.168	359.252625	359.440375		is	is
sw2887B-ms98-a-0097	B.168	359.440375	359.690375		better	better
sw2887B-ms98-a-0097	B.168	359.690375	359.830375		than	than
sw2887B-ms98-a-0097	B.168	359.830375	360.080375		Spring	Spring
sw2887B-ms98-a-0097	B.168	360.080375	360.425375		Creek	Creek
sw2887B-ms98-a-0097	B.172	360.425375	361.114000		[noise]	[noise]
sw2887B-ms98-a-0097	B.172	361.114000	361.511125		[silence]	[silence]
sw2887B-ms98-a-0098	B.172	361.511125	362.005250		[silence]	[silence]
sw2887B-ms98-a-0098	B.172	362.005250	362.656250		Oh	oh
sw2887B-ms98-a-0098	B.172	362.656250	363.076875		man	man
sw2887B-ms98-a-0098	B.174	363.076875	363.484000		[silence]	[silence]
sw2887B-ms98-a-0099	B.174	363.484000	365.305125		[silence]	[silence]
sw2887B-ms98-a-0100	B.174	365.305125	365.712500		[silence]	[silence]
sw2887B-ms98-a-0100	B.174	365.712500	366.098375		Yeah	yeah
sw2887B-ms98-a-0100	B.176	366.098375	367.008625		[silence]	[silence]
sw2887B-ms98-a-0101	B.176	367.008625	368.038750		[silence]	[silence]
sw2887B-ms98-a-0102	B.176	368.038750	368.964125		[silence]	[silence]
sw2887B-ms98-a-0102	B.176	368.964125	369.358750		Oh	oh
sw2887B-ms98-a-0102	B.176	369.358750	369.731375		yeah	yeah
sw2887B-ms98-a-0102	B.178	369.731375	369.963750		[silence]	[silence]
sw2887B-ms98-a-0103	B.178	369.963750	370.970250		[silence]	[silence]
sw2887B-ms98-a-0104	B.178	370.970250	371.239000		[silence]	[silence]
sw2887B-ms98-a-0104	B.178	371.239000	371.660250		People	people
sw2887B-ms98-a-0104	B.178	371.660250	371.951000		yeah	yeah
sw2887B-ms98-a-0104	B.182	371.951000	372.228750		[silence]	[silence]
sw2887B-ms98-a-0105	B.182	372.228750	376.862375		[silence]	[silence]
sw2887B-ms98-a-0106	B.182	376.862375	377.402375		[silence]	[silence]
sw2887B-ms98-a-0106	B.182	377.402375	377.642375		Oh	oh
sw2887B-ms98-a-0106	B.182	377.642375	377.804125		I	i
sw2887B-ms98-a-0106	B.182	377.804125	378.165625		see	see
sw2887B-ms98-a-0106	B.184	378.165625	379.314000		[silence]	[silence]
sw2887B-ms98-a-0106	B.184	379.314000	379.686375		Right	right
sw2887B-ms98-a-0106	B.186	379.686375	379.930875		[silence]	[silence]
sw2887B-ms98-a-0107	B.186	379.930875	383.297125		[silence]	[silence]
sw2887B-ms98-a-0108	B.186	383.297125	384.371875		[silence]	[silence]
sw2887B-ms98-a-0108	B.186	384.371875	384.810875		Yeah	yeah
sw2887B-ms98-a-0108	B.188	384.810875	385.670000		[silence]	[silence]
sw2887B-ms98-a-0109	B.188	385.670000	385.900000		[silence]	[silence]
sw2887B-ms98-a-0109	B.188	385.900000	386.130000		That's	that's
sw2887B-ms98-a-0109	B.188	386.130000	386.520000		good	good
sw2887B-ms98-a-0109	B.188	386.520000	386.750000		That's	that's
sw2887B-ms98-a-0109	B.188	386.750000	386.840000		a	a
sw2887B-ms98-a-0109	B.188	386.840000	386.962875	<DEL>	---	f[ortunate]-
sw2887B-ms98-a-0109	B.188	386.962875	387.124875		[silence]	[silence]
sw2887B-ms98-a-0109	B.188	387.124875	387.370000		that's	that's
sw2887B-ms98-a-0109	B.188	387.370000	387.430000		a	a
sw2887B-ms98-a-0109	B.188	387.430000	388.001750		fortunate	fortunate
sw2887B-ms98-a-0109	B.188	388.001750	388.291875		[silence]	[silence]
sw2887B-ms98-a-0109	B.188	388.291875	388.910000		benefit	benefit
sw2887B-ms98-a-0109	B.188	388.910000	389.060000		you	you
sw2887B-ms98-a-0109	B.188	389.060000	389.270000		know	know
sw2887B-ms98-a-0109	B.188	389.270000	389.555625		that	that
sw2887B-ms98-a-0109	B.188	389.555625	390.150750		[silence]	[silence]
sw2887B-ms98-a-0109	B.188	390.150750	390.300000		they're	they're
sw2887B-ms98-a-0109	B.188	390.300000	390.490000		so	so
sw2887B-ms98-a-0109	B.188	390.490000	391.166625		active	active
sw2887B-ms98-a-0109	B.190	391.166625	391.426500		[silence]	[silence]
sw2887B-ms98-a-0109	B.190	391.426500	391.570000		for	for
sw2887B-ms98-a-0109	B.190	391.570000	391.740000		their	their
sw2887B-ms98-a-0109	B.190	391.740000	392.803250		employees	employees
sw2887B-ms98-a-0109	B.192	392.803250	393.081000		[silence]	[silence]
sw2887B-ms98-a-0110	B.192	393.081000	396.496500		[silence]	[silence]
sw2887B-ms98-a-0111	B.192	396.496500	397.007375		[silence]	[silence]
sw2887B-ms98-a-0111	B.192	397.007375	397.465375		Um	um
sw2887B-ms98-a-0111	B.192	397.465375	397.951625	<SUB>	uh-huh	um-hum
sw2887B-ms98-a-0111	B.194	397.951625	398.409125		[silence]	[silence]
sw2887B-ms98-a-0112	B.194	398.409125	400.281750		[silence]	[silence]
sw2887B-ms98-a-0113	B.194	400.281750	400.663375		[silence]	[silence]
sw2887B-ms98-a-0113	B.194	400.663375	401.121750		Right	right
sw2887B-ms98-a-0113	B.196	401.121750	401.649500		[silence]	[silence]
sw2887B-ms98-a-0114	B.196	401.649500	405.634125		[silence]	[silence]
sw2887B-ms98-a-0115	B.196	405.634125	406.174125		[silence]	[silence]
sw2887B-ms98-a-0115	B.196	406.174125	406.656625		Uh-huh	uh-huh
sw2887B-ms98-a-0115	B.200	406.656625	407.204375		[silence]	[silence]
sw2887B-ms98-a-0116	B.200	407.204375	412.454000		[silence]	[silence]
sw2887B-ms98-a-0117	B.200	412.454000	413.494750		[silence]	[silence]
sw2887B-ms98-a-0117	B.200	413.494750	413.914000		Yeah	yeah
sw2887B-ms98-a-0117	B.202	413.914000	414.405500		[silence]	[silence]
sw2887B-ms98-a-0118	B.202	414.405500	414.972500		[silence]	[silence]
sw2887B-ms98-a-0118	B.202	414.972500	415.183500		Me	me
sw2887B-ms98-a-0118	B.202	415.183500	415.564625		too	too
sw2887B-ms98-a-0118	B.204	415.564625	416.225375		[silence]	[silence]
sw2887B-ms98-a-0119	B.204	416.225375	416.788125		[silence]	[silence]
sw2887B-ms98-a-0119	B.204	416.788125	416.981875	<DEL>	---	uh
sw2887B-ms98-a-0119	B.204	416.981875	417.125375		Me	me
sw2887B-ms98-a-0119	B.204	417.125375	417.465375		too	too
sw2887B-ms98-a-0119	B.204	417.465375	417.945375		because	because
sw2887B-ms98-a-0119	B.204	417.945375	418.105375		you	you
sw2887B-ms98-a-0119	B.204	418.105375	418.185375		know	know
sw2887B-ms98-a-0119	B.204	418.185375	418.315375		with	with
sw2887B-ms98-a-0119	B.204	418.315375	419.235375		utilities	utilities
sw2887B-ms98-a-0119	B.204	419.235375	419.422000		and	and
sw2887B-ms98-a-0119	B.204	419.422000	419.825000		[silence]	[silence]
sw2887B-ms98-a-0119	B.204	419.825000	420.055375		and	and
sw2887B-ms98-a-0119	B.204	420.055375	420.725375		homes	homes
sw2887B-ms98-a-0119	B.204	420.725375	420.915375		that	that
sw2887B-ms98-a-0119	B.204	420.915375	421.132250		are	are
sw2887B-ms98-a-0119	B.204	421.132250	421.757500		[silence]	[silence]
sw2887B-ms98-a-0119	B.204	421.757500	422.035375		uh	uh
sw2887B-ms98-a-0119	B.204	422.035375	422.475375		price	price
sw2887B-ms98-a-0119	B.204	422.475375	422.545375		of	of
sw2887B-ms98-a-0119	B.204	422.545375	423.115375		homes	homes
sw2887B-ms98-a-0119	B.204	423.115375	423.355375	<SUB>	have	has
sw2887B-ms98-a-0119	B.206	423.355375	423.535375		went	went
sw2887B-ms98-a-0119	B.206	423.535375	423.696375		up	up
sw2887B-ms98-a-0119	B.206	423.696375	423.877250		[silence]	[silence]
sw2887B-ms98-a-0119	B.206	423.877250	424.124500		dr-	dr[astically]-
sw2887B-ms98-a-0119	B.206	424.124500	424.271375		[silence]	[silence]
sw2887B-ms98-a-0119	B.206	424.271375	424.895375		drastically	drastically
sw2887B-ms98-a-0119	B.206	424.895375	425.095375		Like	like
sw2887B-ms98-a-0119	B.206	425.095375	425.275375		an	an
sw2887B-ms98-a-0119	B.206	425.275375	425.605375		average	average
sw2887B-ms98-a-0119	B.206	425.605375	425.945375		house	house
sw2887B-ms98-a-0119	B.206	425.945375	426.175375		is	is
sw2887B-ms98-a-0119	B.206	426.175375	426.365375		now	now
sw2887B-ms98-a-0119	B.206	426.365375	426.425375		a	a
sw2887B-ms98-a-0119	B.206	426.425375	426.725375		hundred	hundred
sw2887B-ms98-a-0119	B.206	426.725375	426.725375	<INS>	and	---
sw2887B-ms98-a-0119	B.206	426.725375	426.995375		thirty	thirty
sw2887B-ms98-a-0119	B.206	426.995375	427.589375		thousand	thousand
sw2887B-ms98-a-0119	B.208	427.589375	428.222375		[silence]	[silence]
sw2887B-ms98-a-0120	B.208	428.222375	428.428875		[silence]	[silence]
sw2887B-ms98-a-0120	B.208	428.428875	428.651000	<DEL>	---	a[nd]-
sw2887B-ms98-a-0120	B.208	428.651000	428.754375		[silence]	[silence]
sw2887B-ms98-a-0120	B.208	428.754375	428.892375		And	and
sw2887B-ms98-a-0120	B.208	428.892375	429.092375		that	that
sw2887B-ms98-a-0120	B.208	429.092375	429.202375		is	is
sw2887B-ms98-a-0120	B.208	429.202375	429.813000		unreal	unreal
sw2887B-ms98-a-0120	B.210	429.813000	429.952375		[silence]	[silence]
sw2887B-ms98-a-0120	B.210	429.952375	430.092375		because	because_1
sw2887B-ms98-a-0120	B.210	430.092375	430.262375		we've	we've
sw2887B-ms98-a-0120	B.210	430.262375	430.472375		got	got
sw2887B-ms98-a-0120	B.210	430.472375	430.732375		people	people
sw2887B-ms98-a-0120	B.210	430.732375	430.892375		out	out
sw2887B-ms98-a-0120	B.210	430.892375	431.122375		here	here
sw2887B-ms98-a-0120	B.210	431.122375	431.262375		that	that
sw2887B-ms98-a-0120	B.210	431.262375	431.485250		are	are
sw2887B-ms98-a-0120	B.210	431.485250	431.669750		[silence]	[silence]
sw2887B-ms98-a-0120	B.210	431.669750	431.909000		just	just
sw2887B-ms98-a-0120	B.210	431.909000	432.564375		[noise]	[noise]
sw2887B-ms98-a-0120	B.210	432.564375	433.182375		poverty	poverty
sw2887B-ms98-a-0120	B.210	433.182375	433.602375		level	level
sw2887B-ms98-a-0120	B.210	433.602375	433.752375		But	but
sw2887B-ms98-a-0120	B.210	433.752375	433.882375		then	then
sw2887B-ms98-a-0120	B.210	433.882375	434.012375	<SUB>	we've	we
sw2887B-ms98-a-0120	B.210	434.012375	434.182375		got	got
sw2887B-ms98-a-0120	B.210	434.182375	434.352375		these	these
sw2887B-ms98-a-0120	B.210	434.352375	434.702375		million	million
sw2887B-ms98-a-0120	B.210	434.702375	434.992375		dollar	dollar
sw2887B-ms98-a-0120	B.210	434.992375	435.372375		homes	homes
sw2887B-ms98-a-0120	B.210	435.372375	435.668875		so	so
sw2887B-ms98-a-0120	B.212	435.668875	436.520125		[silence]	[silence]
sw2887B-ms98-a-0120	B.212	436.520125	436.602375		you	you
sw2887B-ms98-a-0120	B.212	436.602375	436.762375		know	know
sw2887B-ms98-a-0120	B.212	436.762375	436.952375		where	where
sw2887B-ms98-a-0120	B.212	436.952375	437.022375		do	do
sw2887B-ms98-a-0120	B.212	437.022375	437.142375		you	you
sw2887B-ms98-a-0120	B.212	437.142375	437.412375		find	find
sw2887B-ms98-a-0120	B.212	437.412375	437.442375		a	a
sw2887B-ms98-a-0120	B.212	437.442375	437.752375		happy	happy
sw2887B-ms98-a-0120	B.212	437.752375	438.222375		medium	medium
sw2887B-ms98-a-0120	B.212	438.222375	438.417125		And	and
sw2887B-ms98-a-0120	B.212	438.417125	438.793750		[silence]	[silence]
sw2887B-ms98-a-0120	B.212	438.793750	438.972375		how	how
sw2887B-ms98-a-0120	B.212	438.972375	439.152375		does	does
sw2887B-ms98-a-0120	B.212	439.152375	439.282375		your	your
sw2887B-ms98-a-0120	B.212	439.282375	439.950375		salary	salary
sw2887B-ms98-a-0120	B.212	439.950375	440.048250		[silence]	[silence]
sw2887B-ms98-a-0120	B.212	440.048250	440.312375		deal	deal
sw2887B-ms98-a-0120	B.214	440.312375	440.462375		with	with
sw2887B-ms98-a-0120	B.214	440.462375	440.662375		that	that
sw2887B-ms98-a-0120	B.214	440.662375	440.842375		It's	it's
sw2887B-ms98-a-0120	B.214	440.842375	441.222375		not	not
sw2887B-ms98-a-0120	B.216	441.222375	441.452375		It's	it's
sw2887B-ms98-a-0120	B.216	441.452375	441.761250		[silence]	[silence]
sw2887B-ms98-a-0120	B.216	441.761250	442.042375		just	just
sw2887B-ms98-a-0120	B.216	442.042375	442.222375		not	not
sw2887B-ms98-a-0120	B.216	442.222375	442.482375		doing	doing
sw2887B-ms98-a-0120	B.216	442.482375	442.577750		it	it
sw2887B-ms98-a-0120	B.218	442.577750	442.792250		[silence]	[silence]
sw2887B-ms98-a-0121	B.218	442.792250	448.795625		[silence]	[silence]
sw2887B-ms98-a-0122	B.218	448.795625	449.317000		[silence]	[silence]
sw2887B-ms98-a-0122	B.218	449.317000	449.862625		Yeah	[laughter-yeah]
sw2887B-ms98-a-0122	B.220	449.862625	450.038250		[silence]	[silence]
sw2887B-ms98-a-0122	B.220	450.038250	450.541750		Yeah	[laughter-yeah]
sw2887B-ms98-a-0122	B.222	450.541750	451.112750		[silence]	[silence]
sw2887B-ms98-a-0123	B.222	451.112750	454.840250		[silence]	[silence]
sw2887B-ms98-a-0124	B.222	454.840250	455.334000		[silence]	[silence]
sw2887B-ms98-a-0124	B.222	455.334000	455.886750	<SUB>	Uh-huh	um-hum
sw2887B-ms98-a-0124	B.224	455.886750	456.238125		[silence]	[silence]
sw2887B-ms98-a-0125	B.224	456.238125	457.398000		[silence]	[silence]
sw2887B-ms98-a-0126	B.224	457.398000	457.600125		[silence]	[silence]
sw2887B-ms98-a-0126	B.224	457.600125	457.848000		That's	that's
sw2887B-ms98-a-0126	B.224	457.848000	458.229625		true	true
sw2887B-ms98-a-0126	B.224	458.229625	458.478000		That	that
sw2887B-ms98-a-0126	B.224	458.478000	458.628000		is	is
sw2887B-ms98-a-0126	B.224	458.628000	459.308000		exactly	exactly
sw2887B-ms98-a-0126	B.224	459.308000	459.548000		where	where
sw2887B-ms98-a-0126	B.224	459.548000	459.798000		we	we
sw2887B-ms98-a-0126	B.224	459.798000	460.013500		are	are
sw2887B-ms98-a-0126	B.226	460.013500	460.697000		[silence]	[silence]
sw2887B-ms98-a-0127	B.226	460.697000	461.079250		[silence]	[silence]
sw2887B-ms98-a-0127	B.226	461.079250	461.287000	<SUB>	It's	that's
sw2887B-ms98-a-0127	B.226	461.287000	461.511250		so	so
sw2887B-ms98-a-0127	B.226	461.511250	461.993625		strange	strange
sw2887B-ms98-a-0127	B.228	461.993625	462.625625		[noise]	[noise]
sw2887B-ms98-a-0127	B.228	462.625625	463.124875		[silence]	[silence]
sw2887B-ms98-a-0128	B.228	463.124875	463.591625		[silence]	[silence]
sw2887B-ms98-a-0128	B.228	463.591625	463.984875		Common	common
sw2887B-ms98-a-0128	B.228	463.984875	464.489250		problem	problem
sw2887B-ms98-a-0128	B.232	464.489250	465.088125		[silence]	[silence]
sw2887B-ms98-a-0128	B.232	465.088125	465.344875	<DEL>	---	common
sw2887B-ms98-a-0128	B.232	465.344875	465.583000	<DEL>	---	prob[lem]-
sw2887B-ms98-a-0128	B.232	465.583000	465.786250		[silence]	[silence]
sw2887B-ms98-a-0129	B.232	465.786250	466.304875		[silence]	[silence]
sw2887B-ms98-a-0129	B.232	466.304875	466.916250		Yeah	[laughter-yeah]
sw2887B-ms98-a-0129	B.232	466.916250	467.556625		really	[laughter-really]
sw2887B-ms98-a-0129	B.236	467.556625	468.459000		[silence]	[silence]
sw2887B-ms98-a-0130	B.236	468.459000	468.955750		[silence]	[silence]
sw2887B-ms98-a-0130	B.236	468.955750	470.010875		[laughter]	[laughter]
sw2887B-ms98-a-0130	B.236	470.010875	470.706500		[silence]	[silence]
sw2887B-ms98-a-0131	B.236	470.706500	473.850000		[silence]	[silence]
sw2887B-ms98-a-0132	B.236	473.850000	474.506250		[silence]	[silence]
sw2887B-ms98-a-0132	B.236	474.506250	474.874000		Uh-huh	uh-huh
sw2887B-ms98-a-0132	B.238	474.874000	475.312125		[silence]	[silence]
sw2887B-ms98-a-0133	B.238	475.312125	478.687250		[silence]	[silence]
sw2887B-ms98-a-0134	B.238	478.687250	479.242125		[silence]	[silence]
sw2887B-ms98-a-0134	B.238	479.242125	479.657250		Right	right
sw2887B-ms98-a-0134	B.238	479.657250	479.988125		[silence]	[silence]
sw2887B-ms98-a-0135	B.238	479.988125	480.418750		[silence]	[silence]
sw2887B-ms98-a-0135	B.238	480.418750	480.708125		yeah	yeah
sw2887B-ms98-a-0135	B.238	480.708125	480.868125		and	and
sw2887B-ms98-a-0135	B.238	480.868125	480.963750		I	i
sw2887B-ms98-a-0135	B.238	480.963750	481.251750		think	think
sw2887B-ms98-a-0135	B.238	481.251750	481.654750		[silence]	[silence]
sw2887B-ms98-a-0135	B.238	481.654750	482.144625		Dallas	Dallas
sw2887B-ms98-a-0135	B.238	482.144625	482.348000		[silence]	[silence]
sw2887B-ms98-a-0135	B.238	482.348000	482.498125		as	as
sw2887B-ms98-a-0135	B.238	482.498125	482.788125		far	far
sw2887B-ms98-a-0135	B.238	482.788125	483.038875		as	as
sw2887B-ms98-a-0135	B.238	483.038875	483.600125		[silence]	[silence]
sw2887B-ms98-a-0135	B.238	483.600125	483.884875		um	um
sw2887B-ms98-a-0135	B.238	483.884875	484.648125		economic	economic
sw2887B-ms98-a-0135	B.238	484.648125	485.548125		uncertainty	uncertainty
sw2887B-ms98-a-0135	B.238	485.548125	485.738125		is	is
sw2887B-ms98-a-0135	B.238	485.738125	486.244750		better	better
sw2887B-ms98-a-0135	B.238	486.244750	486.376625		[silence]	[silence]
sw2887B-ms98-a-0135	B.238	486.376625	486.728125		than	than
sw2887B-ms98-a-0135	B.238	486.728125	487.142000		what	what
sw2887B-ms98-a-0135	B.238	487.142000	487.518625		[silence]	[silence]
sw2887B-ms98-a-0135	B.238	487.518625	487.808125		most	most
sw2887B-ms98-a-0135	B.238	487.808125	487.868125		of	of
sw2887B-ms98-a-0135	B.238	487.868125	487.928125		the	the
sw2887B-ms98-a-0135	B.238	487.928125	488.398125		country	country
sw2887B-ms98-a-0135	B.238	488.398125	488.691375		is	is
sw2887B-ms98-a-0135	B.240	488.691375	489.081625		[silence]	[silence]
sw2887B-ms98-a-0136	B.240	489.081625	489.541625		[silence]	[silence]
sw2887B-ms98-a-0136	B.240	489.541625	490.066625		So	so
sw2887B-ms98-a-0136	B.240	490.066625	490.334125		[silence]	[silence]
sw2887B-ms98-a-0136	B.240	490.334125	490.677250	<SUB>	wer-	we['re]-
sw2887B-ms98-a-0136	B.240	490.677250	491.212125		[silence]	[silence]
sw2887B-ms98-a-0136	B.240	491.212125	491.751625		somehow	somehow
sw2887B-ms98-a-0136	B.240	491.751625	492.021625		we're	we're
sw2887B-ms98-a-0136	B.240	492.021625	492.291625		better	better
sw2887B-ms98-a-0136	B.240	492.291625	492.561625		off	off
sw2887B-ms98-a-0136	B.240	492.561625	492.681625		than	than
sw2887B-ms98-a-0136	B.240	492.681625	492.741625		a	a
sw2887B-ms98-a-0136	B.240	492.741625	493.001625		lot	lot
sw2887B-ms98-a-0136	B.240	493.001625	493.171625		of	of
sw2887B-ms98-a-0136	B.240	493.171625	493.303750		them	them_1
sw2887B-ms98-a-0136	B.242	493.303750	493.847625		[silence]	[silence]
sw2887B-ms98-a-0137	B.242	493.847625	495.809375		[silence]	[silence]
sw2887B-ms98-a-0138	B.242	495.809375	495.975375		[silence]	[silence]
sw2887B-ms98-a-0138	B.242	495.975375	496.319375		No	no
sw2887B-ms98-a-0138	B.244	496.319375	496.617750		[laughter]	[laughter]
sw2887B-ms98-a-0138	B.244	496.617750	497.097875		[silence]	[silence]
sw2887B-ms98-a-0139	B.244	497.097875	504.955125		[silence]	[silence]
sw2887B-ms98-a-0140	B.244	504.955125	505.485125		[silence]	[silence]
sw2887B-ms98-a-0140	B.244	505.485125	505.935750		Uh-huh	uh-huh
sw2887B-ms98-a-0140	B.246	505.935750	506.407375		[silence]	[silence]
sw2887B-ms98-a-0141	B.246	506.407375	520.438625		[silence]	[silence]
sw2887B-ms98-a-0142	B.246	520.438625	520.878000		[silence]	[silence]
sw2887B-ms98-a-0142	B.246	520.878000	521.280750		Uh-huh	uh-huh
sw2887B-ms98-a-0142	B.248	521.280750	521.720000		[silence]	[silence]
sw2887B-ms98-a-0143	B.248	521.720000	529.605875		[silence]	[silence]
sw2887B-ms98-a-0144	B.248	529.605875	530.049000		[silence]	[silence]
sw2887B-ms98-a-0144	B.248	530.049000	531.293750		[noise]	[noise]
sw2887B-ms98-a-0144	B.248	531.293750	531.745000		[silence]	[silence]
sw2887B-ms98-a-0145	B.248	531.745000	536.480625		[silence]	[silence]
sw2887B-ms98-a-0146	B.248	536.480625	536.980375		[silence]	[silence]
sw2887B-ms98-a-0146	B.248	536.980375	537.401750		Yeah	yeah
sw2887B-ms98-a-0146	B.250	537.401750	537.827375		[silence]	[silence]
sw2887B-ms98-a-0146	B.250	537.827375	538.580625		Empowerment	empowerment
sw2887B-ms98-a-0146	B.250	538.580625	539.099500	<SUB>	issues	issue
sw2887B-ms98-a-0146	B.254	539.099500	539.563500		[noise]	[noise]
sw2887B-ms98-a-0146	B.254	539.563500	540.246125		[silence]	[silence]
sw2887B-ms98-a-0147	B.254	540.246125	540.656125		[silence]	[silence]
sw2887B-ms98-a-0147	B.254	540.656125	541.022250		Right	right
sw2887B-ms98-a-0147	B.256	541.022250	541.485000		[silence]	[silence]
sw2887B-ms98-a-0148	B.256	541.485000	542.960000		[silence]	[silence]
sw2887B-ms98-a-0149	B.256	542.960000	543.553000		[silence]	[silence]
sw2887B-ms98-a-0149	B.256	543.553000	543.876000		Well	well
sw2887B-ms98-a-0149	B.256	543.876000	544.170000		very	very
sw2887B-ms98-a-0149	B.256	544.170000	544.623750		well	well
sw2887B-ms98-a-0149	B.256	544.623750	544.921250		[silence]	[silence]
sw2887B-ms98-a-0149	B.256	544.921250	545.353875		um	um
sw2887B-ms98-a-0149	B.256	545.353875	546.286125		[silence]	[silence]
sw2887B-ms98-a-0149	B.256	546.286125	546.417250		it's	it's
sw2887B-ms98-a-0149	B.256	546.417250	546.910000		slow	slow
sw2887B-ms98-a-0149	B.256	546.910000	547.314750		though	though
sw2887B-ms98-a-0149	B.258	547.314750	547.766750		[silence]	[silence]
sw2887B-ms98-a-0149	B.258	547.766750	547.900000	<DEL>	---	i
sw2887B-ms98-a-0149	B.258	547.900000	547.930000	<DEL>	---	th[ink]-
sw2887B-ms98-a-0149	B.258	547.930000	548.260000		At	at
sw2887B-ms98-a-0149	B.258	548.260000	548.500000		least	least
sw2887B-ms98-a-0149	B.258	548.500000	548.590000		they're	they're
sw2887B-ms98-a-0149	B.258	548.590000	548.860000		making	making
sw2887B-ms98-a-0149	B.258	548.860000	548.970000		the	the
sw2887B-ms98-a-0149	B.258	548.970000	549.320000		effort	effort
sw2887B-ms98-a-0149	B.258	549.320000	549.380000		to	to
sw2887B-ms98-a-0149	B.258	549.380000	549.580000		put	put
sw2887B-ms98-a-0149	B.258	549.580000	549.710000		it	it
sw2887B-ms98-a-0149	B.258	549.710000	549.980000		out	out
sw2887B-ms98-a-0149	B.258	549.980000	550.180000		there	there
sw2887B-ms98-a-0149	B.258	550.180000	550.270000		and	and
sw2887B-ms98-a-0149	B.258	550.270000	550.460000		make	make
sw2887B-ms98-a-0149	B.258	550.460000	550.530000		it	it
sw2887B-ms98-a-0149	B.258	550.530000	551.210000		available	available
sw2887B-ms98-a-0149	B.258	551.210000	551.387250		and	and
sw2887B-ms98-a-0149	B.260	551.387250	551.897125		[silence]	[silence]
sw2887B-ms98-a-0149	B.260	551.897125	552.298375		and	and
sw2887B-ms98-a-0149	B.260	552.298375	552.644125		[silence]	[silence]
sw2887B-ms98-a-0150	B.260	552.644125	552.951875		[silence]	[silence]
sw2887B-ms98-a-0150	B.260	552.951875	553.344125		cultural	cultural
sw2887B-ms98-a-0150	B.260	553.344125	553.714125		change	change
sw2887B-ms98-a-0150	B.260	553.714125	554.034125		within	within
sw2887B-ms98-a-0150	B.260	554.034125	554.094125		the	the
sw2887B-ms98-a-0150	B.260	554.094125	554.764125		management	management
sw2887B-ms98-a-0150	B.260	554.764125	555.094125		first	first
sw2887B-ms98-a-0150	B.260	555.094125	555.234125		And	and
sw2887B-ms98-a-0150	B.260	555.234125	555.434125		now	now
sw2887B-ms98-a-0150	B.260	555.434125	555.564125		it's	it's
sw2887B-ms98-a-0150	B.260	555.564125	555.744125		kind	kind
sw2887B-ms98-a-0150	B.260	555.744125	555.824125		of	of
sw2887B-ms98-a-0150	B.260	555.824125	556.344125		filtering	filtering
sw2887B-ms98-a-0150	B.260	556.344125	556.574125		down	down
sw2887B-ms98-a-0150	B.260	556.574125	556.664125		to	to
sw2887B-ms98-a-0150	B.260	556.664125	556.724125		the	the
sw2887B-ms98-a-0150	B.260	556.724125	557.174125		peon	peon
sw2887B-ms98-a-0150	B.260	557.174125	557.627000		level	level
sw2887B-ms98-a-0150	B.262	557.627000	558.346375		[silence]	[silence]
sw2887B-ms98-a-0150	B.262	558.346375	558.586375		But	but
sw2887B-ms98-a-0150	B.262	558.586375	558.917875		[silence]	[silence]
sw2887B-ms98-a-0150	B.262	558.917875	559.334500		uh	uh
sw2887B-ms98-a-0150	B.262	559.334500	560.334500		[silence]	[silence]
sw2887B-ms98-a-0151	B.262	560.334500	560.910750		[silence]	[silence]
sw2887B-ms98-a-0151	B.262	560.910750	561.004750		I	i
sw2887B-ms98-a-0151	B.262	561.004750	561.264500		think	think
sw2887B-ms98-a-0151	B.262	561.264500	561.434500		they're	they're
sw2887B-ms98-a-0151	B.262	561.434500	561.784500		really	really
sw2887B-ms98-a-0151	B.262	561.784500	562.602500		trying	trying
sw2887B-ms98-a-0151	B.264	562.602500	562.834500		It's	it's
sw2887B-ms98-a-0151	B.264	562.834500	563.004500		going	going
sw2887B-ms98-a-0151	B.264	563.004500	563.084500		to	to
sw2887B-ms98-a-0151	B.264	563.084500	563.608875		take	take
sw2887B-ms98-a-0151	B.264	563.608875	564.074500		years	years
sw2887B-ms98-a-0151	B.264	564.074500	564.463375		though	though
sw2887B-ms98-a-0151	B.266	564.463375	564.877750		[silence]	[silence]
sw2887B-ms98-a-0151	B.266	564.877750	564.984500		I	i
sw2887B-ms98-a-0151	B.266	564.984500	565.254500		mean	mean
sw2887B-ms98-a-0151	B.266	565.254500	565.364500		it's	it's
sw2887B-ms98-a-0151	B.266	565.364500	565.904500		just	just
sw2887B-ms98-a-0151	B.266	565.904500	566.393750		it's	it's
sw2887B-ms98-a-0151	B.266	566.393750	566.654500		that	that
sw2887B-ms98-a-0151	B.266	566.654500	567.312250		mind-set	mindset
sw2887B-ms98-a-0151	B.268	567.312250	567.933250		[silence]	[silence]
sw2887B-ms98-a-0152	B.268	567.933250	568.104500		[silence]	[silence]
sw2887B-ms98-a-0152	B.268	568.104500	568.333250		has	has
sw2887B-ms98-a-0152	B.268	568.333250	568.473250		to	to
sw2887B-ms98-a-0152	B.268	568.473250	569.051375		change	change
sw2887B-ms98-a-0152	B.268	569.051375	569.426125		yeah	yeah
sw2887B-ms98-a-0152	B.270	569.426125	570.171875		[noise]	[noise]
sw2887B-ms98-a-0152	B.270	570.171875	570.684250		Yeah	yeah
sw2887B-ms98-a-0152	B.272	570.684250	571.199375		[silence]	[silence]
sw2887B-ms98-a-0153	B.272	571.199375	581.411250		[silence]	[silence]
sw2887B-ms98-a-0154	B.272	581.411250	582.191250		[silence]	[silence]
sw2887B-ms98-a-0154	B.272	582.191250	582.608125		Yeah	yeah
sw2887B-ms98-a-0154	B.274	582.608125	582.864000		[silence]	[silence]
sw2887B-ms98-a-0155	B.274	582.864000	583.467500		[silence]	[silence]
sw2887B-ms98-a-0156	B.274	583.467500	584.094250		[silence]	[silence]
sw2887B-ms98-a-0156	B.274	584.094250	584.347500		Doesn't	doesn't
sw2887B-ms98-a-0156	B.274	584.347500	584.587500		want	want
sw2887B-ms98-a-0156	B.274	584.587500	584.647500		to	to
sw2887B-ms98-a-0156	B.274	584.647500	585.210875		change	change
sw2887B-ms98-a-0156	B.276	585.210875	585.713375		[silence]	[silence]
sw2887B-ms98-a-0157	B.276	585.713375	587.706125		[silence]	[silence]
sw2887B-ms98-a-0158	B.276	587.706125	588.246125		[silence]	[silence]
sw2887B-ms98-a-0158	B.276	588.246125	588.719375		Right	right
sw2887B-ms98-a-0158	B.278	588.719375	589.166500		[silence]	[silence]
sw2887B-ms98-a-0159	B.278	589.166500	590.227375		[silence]	[silence]
sw2887B-ms98-a-0160	B.278	590.227375	590.627375		[silence]	[silence]
sw2887B-ms98-a-0160	B.278	590.627375	591.078500		Yeah	yeah
sw2887B-ms98-a-0160	B.280	591.078500	591.692750		[silence]	[silence]
sw2887B-ms98-a-0161	B.280	591.692750	592.252750		[silence]	[silence]
sw2887B-ms98-a-0161	B.280	592.252750	592.650000		Yeah	yeah
sw2887B-ms98-a-0161	@@B.282	592.650000	593.005125		[silence]	[silence]
sw2887B-ms98-a-0162	@@B.282	593.005125	594.041625		[silence]	[silence]
sw2887B-ms98-a-0163	@@B.282	594.041625	594.471625		[silence]	[silence]
sw2887B-ms98-a-0163	@@B.282	594.471625	594.921625		Okay	okay
sw2887B-ms98-a-0163	@@B.282	594.921625	595.181625		Yeah	yeah
sw2887B-ms98-a-0163	B.284	595.181625	595.401625		me	me
sw2887B-ms98-a-0163	B.284	595.401625	595.838750		too	too
sw2887B-ms98-a-0163	B.284	595.838750	596.004000	<SUB>	Go-	good
sw2887B-ms98-a-0163	B.284	596.004000	596.402125		[silence]	[silence]
sw2887B-ms98-a-0163	B.284	596.402125	596.586625		good	good
sw2887B-ms98-a-0163	B.284	596.586625	596.941625		talking	talking
sw2887B-ms98-a-0163	B.284	596.941625	597.041625		to	to
sw2887B-ms98-a-0163	B.284	597.041625	597.308375		you	you
sw2887B-ms98-a-0163	B.286	597.308375	598.020250		[silence]	[silence]
sw2887B-ms98-a-0163	B.286	598.020250	598.612375		Thanks	thanks
sw2887B-ms98-a-0163	B.288	598.612375	599.173500		[silence]	[silence]
sw2887B-ms98-a-0163	B.288	599.173500	599.636500		Okay	okay
sw2887B-ms98-a-0163	B.288	599.636500	600.034500		Bye-Bye	bye-bye
sw2887B-ms98-a-0163	B.288	600.034500	600.128000		[silence]	[silence]
