sw2883A-ms98-a-0001	A.1	0.000000	0.258375		[silence]	[silence]
sw2883A-ms98-a-0001	A.1	0.258375	1.242750		[noise]	[noise]
sw2883A-ms98-a-0001	A.1	1.242750	1.247500		[silence]	[silence]
sw2883A-ms98-a-0002	A.1	1.247500	1.337500		[silence]	[silence]
sw2883A-ms98-a-0002	A.1	1.337500	1.637500		Well	well
sw2883A-ms98-a-0002	A.1	1.637500	1.757500		what	what
sw2883A-ms98-a-0002	A.1	1.757500	1.987500		are	are
sw2883A-ms98-a-0002	A.1	1.987500	2.239375		your	your
sw2883A-ms98-a-0002	A.1	2.239375	2.687500		did	did
sw2883A-ms98-a-0002	A.1	2.687500	2.817500		you	you
sw2883A-ms98-a-0002	A.1	2.817500	3.097500		like	like
sw2883A-ms98-a-0002	A.1	3.097500	3.247500		do	do
sw2883A-ms98-a-0002	A.1	3.247500	3.347500		you	you
sw2883A-ms98-a-0002	A.1	3.347500	3.637500		use	use
sw2883A-ms98-a-0002	A.1	3.637500	3.927500		credit	credit
sw2883A-ms98-a-0002	A.1	3.927500	4.525125		cards	cards
sw2883A-ms98-a-0002	A.3	4.525125	4.726875		[silence]	[silence]
sw2883A-ms98-a-0003	A.3	4.726875	11.089250		[silence]	[silence]
sw2883A-ms98-a-0004	A.3	11.089250	11.803375		[silence]	[silence]
sw2883A-ms98-a-0004	A.3	11.803375	13.459250		Huh-uh	huh-uh
sw2883A-ms98-a-0004	A.5	13.459250	13.549250		So	so
sw2883A-ms98-a-0004	A.5	13.549250	13.629250		it	it
sw2883A-ms98-a-0004	A.5	13.629250	13.979250		doesn't	doesn't
sw2883A-ms98-a-0004	A.5	13.979250	14.269250	<SUB>	get	gets
sw2883A-ms98-a-0004	A.5	14.269250	14.349250		uh	uh
sw2883A-ms98-a-0004	A.5	14.349250	14.459250		uh	uh
sw2883A-ms98-a-0004	A.5	14.459250	14.998500		the	the
sw2883A-ms98-a-0004	A.5	14.998500	15.732625		credit	credit
sw2883A-ms98-a-0004	A.5	15.732625	16.313750		uh	uh
sw2883A-ms98-a-0004	A.7	16.313750	16.345000		[silence]	[silence]
sw2883A-ms98-a-0005	A.7	16.345000	16.775000		[silence]	[silence]
sw2883A-ms98-a-0005	A.7	16.775000	17.195000	<SUB>	the	uh
sw2883A-ms98-a-0005	A.7	17.195000	17.715000		interest	interest
sw2883A-ms98-a-0005	A.7	17.715000	17.925000		rate	rate
sw2883A-ms98-a-0005	A.7	17.925000	18.035000		is	is
sw2883A-ms98-a-0005	A.7	18.035000	18.315000		so	so
sw2883A-ms98-a-0005	A.7	18.315000	18.695000		high	high
sw2883A-ms98-a-0005	A.7	18.695000	19.075000		that	that
sw2883A-ms98-a-0005	A.7	19.075000	19.235000		you're	you're
sw2883A-ms98-a-0005	A.7	19.235000	19.615000		really	really
sw2883A-ms98-a-0005	A.7	19.615000	19.815000		if	if
sw2883A-ms98-a-0005	A.7	19.815000	19.945000		you're	you're
sw2883A-ms98-a-0005	A.7	19.945000	20.125000		going	going
sw2883A-ms98-a-0005	A.7	20.125000	20.340750		to	to
sw2883A-ms98-a-0005	A.7	20.340750	20.894375		[silence]	[silence]
sw2883A-ms98-a-0005	A.7	20.894375	21.245000		use	use
sw2883A-ms98-a-0005	A.7	21.245000	21.545000		credit	credit
sw2883A-ms98-a-0005	A.7	21.545000	21.805000		cards	cards
sw2883A-ms98-a-0005	A.7	21.805000	21.905000		you	you
sw2883A-ms98-a-0005	A.7	21.905000	22.125000		need	need
sw2883A-ms98-a-0005	A.7	22.125000	22.245000		to	to
sw2883A-ms98-a-0005	A.7	22.245000	22.545000		use	use
sw2883A-ms98-a-0005	A.7	22.545000	22.785000		that	that
sw2883A-ms98-a-0005	A.7	22.785000	23.315000		policy	policy
sw2883A-ms98-a-0005	A.7	23.315000	23.405000		I	i
sw2883A-ms98-a-0005	A.7	23.405000	23.705000		think	think
sw2883A-ms98-a-0005	A.7	23.705000	23.915000		don't	don't
sw2883A-ms98-a-0005	A.7	23.915000	24.115000		you	you
sw2883A-ms98-a-0005	A.9	24.115000	24.405500		[silence]	[silence]
sw2883A-ms98-a-0006	A.9	24.405500	24.859125		[silence]	[silence]
sw2883A-ms98-a-0006	A.9	24.859125	25.865500		Otherwise	otherwise
sw2883A-ms98-a-0006	A.9	25.865500	26.161500		you	you
sw2883A-ms98-a-0006	A.9	26.161500	26.575875		[silence]	[silence]
sw2883A-ms98-a-0006	A.9	26.575875	26.785500		end	end
sw2883A-ms98-a-0006	A.9	26.785500	26.875500		up	up
sw2883A-ms98-a-0006	A.9	26.875500	27.135500		paying	paying
sw2883A-ms98-a-0006	A.9	27.135500	27.305500		so	so
sw2883A-ms98-a-0006	A.9	27.305500	27.545500		much	much
sw2883A-ms98-a-0006	A.9	27.545500	27.735500		more	more
sw2883A-ms98-a-0006	A.9	27.735500	27.905500		for	for
sw2883A-ms98-a-0006	A.9	27.905500	28.354625		your	your
sw2883A-ms98-a-0006	A.9	28.354625	28.561750		[silence]	[silence]
sw2883A-ms98-a-0006	A.9	28.561750	29.335500		merchandise	merchandise
sw2883A-ms98-a-0006	A.9	29.335500	29.475500		that	that
sw2883A-ms98-a-0006	A.9	29.475500	29.675500		it's	it's
sw2883A-ms98-a-0006	A.9	29.675500	30.158875		hardly	hardly
sw2883A-ms98-a-0006	A.11	30.158875	30.564750		[silence]	[silence]
sw2883A-ms98-a-0007	A.11	30.564750	31.112750		[silence]	[silence]
sw2883A-ms98-a-0007	A.11	31.112750	31.374750		uh	uh
sw2883A-ms98-a-0007	A.11	31.374750	31.615250		it's	it's
sw2883A-ms98-a-0007	A.11	31.615250	31.974750		not	not
sw2883A-ms98-a-0007	A.11	31.974750	32.004750		a	a
sw2883A-ms98-a-0007	A.11	32.004750	32.194750		very	very
sw2883A-ms98-a-0007	A.11	32.194750	32.404750		good	good
sw2883A-ms98-a-0007	A.11	32.404750	33.063750		idea	idea
sw2883A-ms98-a-0007	A.13	33.063750	33.347875		[silence]	[silence]
sw2883A-ms98-a-0008	A.13	33.347875	34.593625		[silence]	[silence]
sw2883A-ms98-a-0009	A.13	34.593625	34.868125		[silence]	[silence]
sw2883A-ms98-a-0009	A.13	34.868125	35.613625		Well	well
sw2883A-ms98-a-0009	A.13	35.613625	35.643625		I	i
sw2883A-ms98-a-0009	A.13	35.643625	35.763625		have	have
sw2883A-ms98-a-0009	A.13	35.763625	35.793625		a	a
sw2883A-ms98-a-0009	A.13	35.793625	35.953625		lot	lot
sw2883A-ms98-a-0009	A.13	35.953625	36.013625		of	of
sw2883A-ms98-a-0009	A.13	36.013625	36.133625		them	them
sw2883A-ms98-a-0009	A.13	36.133625	36.233625		but	but
sw2883A-ms98-a-0009	A.13	36.233625	36.263625		I	i
sw2883A-ms98-a-0009	A.13	36.263625	36.413625		don't	don't
sw2883A-ms98-a-0009	A.13	36.413625	36.573625		use	use
sw2883A-ms98-a-0009	A.13	36.573625	36.693625		them	them
sw2883A-ms98-a-0009	A.13	36.693625	36.873625		very	very
sw2883A-ms98-a-0009	A.13	36.873625	37.193625		much	much
sw2883A-ms98-a-0009	A.13	37.193625	37.662875		though	though
sw2883A-ms98-a-0009	A.15	37.662875	37.701500		[silence]	[silence]
sw2883A-ms98-a-0010	A.15	37.701500	37.715000		[silence]	[silence]
sw2883A-ms98-a-0010	A.15	37.715000	38.353125		[laughter]	[laughter]
sw2883A-ms98-a-0010	A.15	38.353125	38.597875		[silence]	[silence]
sw2883A-ms98-a-0011	A.15	38.597875	38.677875		[silence]	[silence]
sw2883A-ms98-a-0011	A.15	38.677875	38.777875		I	i
sw2883A-ms98-a-0011	A.15	38.777875	39.037875		use	use
sw2883A-ms98-a-0011	A.15	39.037875	39.177875		them	them
sw2883A-ms98-a-0011	A.15	39.177875	39.687875		mostly	mostly
sw2883A-ms98-a-0011	A.15	39.687875	39.947875		for	for
sw2883A-ms98-a-0011	A.15	39.947875	40.297875		big	big
sw2883A-ms98-a-0011	A.15	40.297875	40.657875		things	things
sw2883A-ms98-a-0011	A.15	40.657875	40.987875		like	like
sw2883A-ms98-a-0011	A.15	40.987875	41.479750		maybe	maybe
sw2883A-ms98-a-0011	A.15	41.479750	42.217875		sometimes	sometimes
sw2883A-ms98-a-0011	A.15	42.217875	42.652375		uh	uh
sw2883A-ms98-a-0011	A.15	42.652375	43.187750		[silence]	[silence]
sw2883A-ms98-a-0012	A.15	43.187750	43.508625		[silence]	[silence]
sw2883A-ms98-a-0012	A.15	43.508625	44.157750		tuition	tuition
sw2883A-ms98-a-0012	A.15	44.157750	44.307750		if	if
sw2883A-ms98-a-0012	A.15	44.307750	44.778250		it's	it's
sw2883A-ms98-a-0012	A.15	44.778250	45.061500		[silence]	[silence]
sw2883A-ms98-a-0013	A.15	45.061500	45.395250		[silence]	[silence]
sw2883A-ms98-a-0013	A.15	45.395250	45.731500		you	you
sw2883A-ms98-a-0013	A.15	45.731500	46.048375		know	know
sw2883A-ms98-a-0013	A.15	46.048375	46.341500		if	if
sw2883A-ms98-a-0013	A.15	46.341500	46.521500		I'm	i'm
sw2883A-ms98-a-0013	A.15	46.521500	46.985000		short	short
sw2883A-ms98-a-0013	A.15	46.985000	47.260000		[silence]	[silence]
sw2883A-ms98-a-0013	A.15	47.260000	47.501500		to	to
sw2883A-ms98-a-0013	A.15	47.501500	47.671500		go	go
sw2883A-ms98-a-0013	A.15	47.671500	47.981500		ahead	ahead
sw2883A-ms98-a-0013	A.15	47.981500	48.493250		and	and
sw2883A-ms98-a-0013	A.15	48.493250	48.901500		get	get
sw2883A-ms98-a-0013	A.15	48.901500	49.101500		it	it
sw2883A-ms98-a-0013	A.15	49.101500	49.191500		and	and
sw2883A-ms98-a-0013	A.15	49.191500	49.321500		then	then
sw2883A-ms98-a-0013	A.15	49.321500	49.531500		try	try
sw2883A-ms98-a-0013	A.15	49.531500	49.671500		to	to
sw2883A-ms98-a-0013	A.15	49.671500	49.821500		get	get
sw2883A-ms98-a-0013	A.15	49.821500	49.921500		it	it
sw2883A-ms98-a-0013	A.15	49.921500	50.381500		saved	saved
sw2883A-ms98-a-0013	A.15	50.381500	50.661500		back	back
sw2883A-ms98-a-0013	A.15	50.661500	50.771500		as	as
sw2883A-ms98-a-0013	A.15	50.771500	50.951500		quick	quick
sw2883A-ms98-a-0013	A.15	50.951500	51.051500		as	as
sw2883A-ms98-a-0013	A.15	51.051500	51.131500		I	i
sw2883A-ms98-a-0013	A.15	51.131500	51.473000		can	can
sw2883A-ms98-a-0013	A.15	51.473000	52.047500		[silence]	[silence]
sw2883A-ms98-a-0014	A.15	52.047500	52.127500		[silence]	[silence]
sw2883A-ms98-a-0014	A.15	52.127500	52.247500		The	the
sw2883A-ms98-a-0014	A.15	52.247500	52.347500		other	other
sw2883A-ms98-a-0014	A.15	52.347500	52.587500		thing	thing
sw2883A-ms98-a-0014	A.15	52.587500	52.667500		I	i
sw2883A-ms98-a-0014	A.15	52.667500	52.855750		I	i
sw2883A-ms98-a-0014	A.15	52.855750	53.367500		think	think
sw2883A-ms98-a-0014	A.15	53.367500	53.527500		if	if
sw2883A-ms98-a-0014	A.15	53.527500	53.687500		you	you
sw2883A-ms98-a-0014	A.15	53.687500	53.967500		do	do
sw2883A-ms98-a-0014	A.15	53.967500	54.127500		get	get
sw2883A-ms98-a-0014	A.15	54.127500	54.817500		overextended	overextended
sw2883A-ms98-a-0014	A.15	54.817500	54.847500		a	a
sw2883A-ms98-a-0014	A.15	54.847500	55.017500		little	little
sw2883A-ms98-a-0014	A.15	55.017500	55.187500		bit	bit
sw2883A-ms98-a-0014	A.15	55.187500	55.257500		you	you
sw2883A-ms98-a-0014	A.15	55.257500	55.467500		need	need
sw2883A-ms98-a-0014	A.15	55.467500	55.557500		to	to
sw2883A-ms98-a-0014	A.15	55.557500	55.647500		be	be
sw2883A-ms98-a-0014	A.15	55.647500	55.977500		sure	sure
sw2883A-ms98-a-0014	A.15	55.977500	56.147500		and	and
sw2883A-ms98-a-0014	A.15	56.147500	56.387500		pay	pay
sw2883A-ms98-a-0014	A.15	56.387500	56.527500		it	it
sw2883A-ms98-a-0014	A.15	56.527500	56.861875		off	off
sw2883A-ms98-a-0014	A.15	56.861875	57.336750		[silence]	[silence]
sw2883A-ms98-a-0015	A.15	57.336750	57.593250		[silence]	[silence]
sw2883A-ms98-a-0015	A.15	57.593250	58.196750		uh	uh
sw2883A-ms98-a-0015	A.15	58.196750	58.406750		more	more
sw2883A-ms98-a-0015	A.15	58.406750	58.566750		than	than
sw2883A-ms98-a-0015	A.15	58.566750	58.746750		one	one
sw2883A-ms98-a-0015	A.15	58.746750	58.876750		at	at
sw2883A-ms98-a-0015	A.15	58.876750	58.946750		a	a
sw2883A-ms98-a-0015	A.15	58.946750	59.396750		time	time
sw2883A-ms98-a-0015	A.15	59.396750	59.646750		because	because
sw2883A-ms98-a-0015	A.15	59.646750	59.756750		I	i
sw2883A-ms98-a-0015	A.15	59.756750	60.016750		think	think
sw2883A-ms98-a-0015	A.15	60.016750	60.116750		you	you
sw2883A-ms98-a-0015	A.15	60.116750	60.316750		could	could
sw2883A-ms98-a-0015	A.15	60.316750	60.516750		run	run
sw2883A-ms98-a-0015	A.15	60.516750	61.175125		forever	forever
sw2883A-ms98-a-0015	A.15	61.175125	61.646750		paying	paying
sw2883A-ms98-a-0015	A.15	61.646750	61.866750		what	what
sw2883A-ms98-a-0015	A.15	61.866750	62.152125		they	they
sw2883A-ms98-a-0015	A.15	62.152125	62.291500		[silence]	[silence]
sw2883A-ms98-a-0015	A.15	62.291500	63.173125		require	require
sw2883A-ms98-a-0015	A.17	63.173125	63.433750		[silence]	[silence]
sw2883A-ms98-a-0016	A.17	63.433750	63.903750		[silence]	[silence]
sw2883A-ms98-a-0016	A.17	63.903750	64.103750		Just	just
sw2883A-ms98-a-0016	A.17	64.103750	64.343750		goes	goes
sw2883A-ms98-a-0016	A.17	64.343750	64.563750		on	on
sw2883A-ms98-a-0016	A.17	64.563750	64.663750		and	and
sw2883A-ms98-a-0016	A.17	64.663750	65.137500		on	on
sw2883A-ms98-a-0016	A.19	65.137500	65.531250		[silence]	[silence]
sw2883A-ms98-a-0017	A.19	65.531250	65.951250		[silence]	[silence]
sw2883A-ms98-a-0017	A.19	65.951250	66.444625		Yeah	yeah
sw2883A-ms98-a-0017	A.21	66.444625	66.767750		[silence]	[silence]
sw2883A-ms98-a-0018	A.21	66.767750	74.874750		[silence]	[silence]
sw2883A-ms98-a-0019	A.21	74.874750	75.304750		[silence]	[silence]
sw2883A-ms98-a-0019	A.21	75.304750	75.604750		Yeah	yeah
sw2883A-ms98-a-0019	A.21	75.604750	75.884750		that's	that's
sw2883A-ms98-a-0019	A.21	75.884750	76.271000		true	true
sw2883A-ms98-a-0019	A.23	76.271000	76.536750		[silence]	[silence]
sw2883A-ms98-a-0020	A.23	76.536750	77.379125		[silence]	[silence]
sw2883A-ms98-a-0021	A.23	77.379125	77.790125		[silence]	[silence]
sw2883A-ms98-a-0021	A.23	77.790125	78.029125		There	there
sw2883A-ms98-a-0021	A.23	78.029125	78.169125		are	are
sw2883A-ms98-a-0021	A.23	78.169125	78.759125		times	times
sw2883A-ms98-a-0021	A.25	78.759125	78.909125		when	when
sw2883A-ms98-a-0021	A.25	78.909125	79.169125		it's	it's
sw2883A-ms98-a-0021	A.25	79.169125	79.329125		when	when
sw2883A-ms98-a-0021	A.25	79.329125	79.519125		it's	it's
sw2883A-ms98-a-0021	A.25	79.519125	79.829125		very	very
sw2883A-ms98-a-0021	A.25	79.829125	80.309125		useful	useful
sw2883A-ms98-a-0021	A.27	80.309125	80.599125		like	like
sw2883A-ms98-a-0021	A.27	80.599125	80.799125		uh	uh
sw2883A-ms98-a-0021	A.27	80.799125	81.419125		emergency	emergency
sw2883A-ms98-a-0021	A.27	81.419125	81.965625		trip	trip
sw2883A-ms98-a-0021	A.29	81.965625	81.985000		[silence]	[silence]
sw2883A-ms98-a-0022	A.29	81.985000	82.625000		[silence]	[silence]
sw2883A-ms98-a-0022	A.29	82.625000	82.835000		or	or
sw2883A-ms98-a-0022	A.29	82.835000	83.305000		something	something
sw2883A-ms98-a-0022	A.29	83.305000	83.875000		Sometimes	sometimes
sw2883A-ms98-a-0022	A.29	83.875000	84.055000		when	when
sw2883A-ms98-a-0022	A.29	84.055000	84.381500		you	you
sw2883A-ms98-a-0022	A.29	84.381500	84.715000		when	when
sw2883A-ms98-a-0022	A.29	84.715000	85.050500		you	you
sw2883A-ms98-a-0022	A.29	85.050500	85.339750		[silence]	[silence]
sw2883A-ms98-a-0023	A.29	85.339750	85.439625		[silence]	[silence]
sw2883A-ms98-a-0023	A.29	85.439625	85.690250		the	the
sw2883A-ms98-a-0023	A.29	85.690250	85.899750	<DEL>	---	the
sw2883A-ms98-a-0023	A.29	85.899750	86.429750		money	money
sw2883A-ms98-a-0023	A.29	86.429750	86.639750		will	will
sw2883A-ms98-a-0023	A.29	86.639750	86.789750		be	be
sw2883A-ms98-a-0023	A.29	86.789750	87.369750		available	available
sw2883A-ms98-a-0023	A.29	87.369750	87.529750		but	but
sw2883A-ms98-a-0023	A.29	87.529750	87.947375		it's	it's
sw2883A-ms98-a-0023	A.29	87.947375	88.088250		[silence]	[silence]
sw2883A-ms98-a-0024	A.29	88.088250	88.418250		[silence]	[silence]
sw2883A-ms98-a-0024	A.29	88.418250	88.528250		you	you
sw2883A-ms98-a-0024	A.29	88.528250	88.698250		know	know
sw2883A-ms98-a-0024	A.29	88.698250	88.932625		not	not
sw2883A-ms98-a-0024	A.29	88.932625	89.568250		immediately	immediately
sw2883A-ms98-a-0024	A.29	89.568250	89.908250		handy	handy
sw2883A-ms98-a-0024	A.29	89.908250	89.938250		I	i
sw2883A-ms98-a-0024	A.29	89.938250	91.045625		think	think
sw2883A-ms98-a-0024	A.29	91.045625	91.528250		uh	uh
sw2883A-ms98-a-0024	A.29	91.528250	91.878250		they're	they're
sw2883A-ms98-a-0024	A.29	91.878250	92.396750		very	very
sw2883A-ms98-a-0024	A.29	92.396750	92.848750		[silence]	[silence]
sw2883A-ms98-a-0024	A.29	92.848750	93.378250		helpful	helpful
sw2883A-ms98-a-0024	A.29	93.378250	93.728250		plus	plus
sw2883A-ms98-a-0024	A.29	93.728250	93.798250		the	the
sw2883A-ms98-a-0024	A.29	93.798250	94.188250		fact	fact
sw2883A-ms98-a-0024	A.29	94.188250	94.308250		that	that
sw2883A-ms98-a-0024	A.29	94.308250	94.558250		it's	it's
sw2883A-ms98-a-0024	A.29	94.558250	94.948250		helpful	helpful
sw2883A-ms98-a-0024	A.29	94.948250	95.218250		not	not
sw2883A-ms98-a-0024	A.29	95.218250	95.328250		to	to
sw2883A-ms98-a-0024	A.29	95.328250	95.568250		have	have
sw2883A-ms98-a-0024	A.29	95.568250	95.668250		to	to
sw2883A-ms98-a-0024	A.29	95.668250	96.028250		carry	carry
sw2883A-ms98-a-0024	A.29	96.028250	96.098250		a	a
sw2883A-ms98-a-0024	A.29	96.098250	96.268250		lot	lot
sw2883A-ms98-a-0024	A.29	96.268250	96.368250		of	of
sw2883A-ms98-a-0024	A.29	96.368250	96.738250		money	money
sw2883A-ms98-a-0024	A.29	96.738250	97.770375		sometimes	sometimes
sw2883A-ms98-a-0024	A.31	97.770375	98.027750		[silence]	[silence]
sw2883A-ms98-a-0025	A.31	98.027750	98.399000		[silence]	[silence]
sw2883A-ms98-a-0025	A.31	98.399000	98.887750		But	but
sw2883A-ms98-a-0025	A.31	98.887750	99.427750		uh	uh
sw2883A-ms98-a-0025	A.31	99.427750	99.897750		I	i
sw2883A-ms98-a-0025	A.31	99.897750	99.977750		you	you
sw2883A-ms98-a-0025	A.31	99.977750	100.217750		really	really
sw2883A-ms98-a-0025	A.31	100.217750	100.437750		do	do
sw2883A-ms98-a-0025	A.31	100.437750	100.617750		need	need
sw2883A-ms98-a-0025	A.31	100.617750	100.737750		to	to
sw2883A-ms98-a-0025	A.31	100.737750	100.877750		be	be
sw2883A-ms98-a-0025	A.31	100.877750	101.691250		very	very
sw2883A-ms98-a-0025	A.31	101.691250	102.199750		[silence]	[silence]
sw2883A-ms98-a-0025	A.31	102.199750	103.111125		um	um
sw2883A-ms98-a-0025	A.31	103.111125	103.273250		[silence]	[silence]
sw2883A-ms98-a-0026	A.31	103.273250	104.369250		[silence]	[silence]
sw2883A-ms98-a-0027	A.31	104.369250	104.779375		[silence]	[silence]
sw2883A-ms98-a-0027	A.31	104.779375	105.049250		oh	oh
sw2883A-ms98-a-0027	A.31	105.049250	105.929250		responsible	responsible
sw2883A-ms98-a-0027	A.31	105.929250	106.309250		about	about
sw2883A-ms98-a-0027	A.31	106.309250	106.389250		it	it
sw2883A-ms98-a-0027	A.31	106.389250	106.589250		or	or
sw2883A-ms98-a-0027	A.31	106.589250	106.789250		you	you
sw2883A-ms98-a-0027	A.31	106.789250	107.019250		end	end
sw2883A-ms98-a-0027	A.31	107.019250	107.213125		up	up
sw2883A-ms98-a-0027	A.31	107.213125	107.779250		in	in
sw2883A-ms98-a-0027	A.31	107.779250	108.019250		deep	deep
sw2883A-ms98-a-0027	A.31	108.019250	108.725625		trouble	trouble
sw2883A-ms98-a-0027	A.33	108.725625	108.811250		[silence]	[silence]
sw2883A-ms98-a-0028	A.33	108.811250	114.570375		[silence]	[silence]
sw2883A-ms98-a-0029	A.33	114.570375	114.940125		[silence]	[silence]
sw2883A-ms98-a-0029	A.33	114.940125	115.547125		Uh-huh	uh-huh
sw2883A-ms98-a-0029	A.35	115.547125	116.057875		[silence]	[silence]
sw2883A-ms98-a-0030	A.35	116.057875	128.687875		[silence]	[silence]
sw2883A-ms98-a-0031	A.35	128.687875	128.945750		[silence]	[silence]
sw2883A-ms98-a-0031	A.35	128.945750	129.717250		Right	right
sw2883A-ms98-a-0031	A.37	129.717250	129.899625		[silence]	[silence]
sw2883A-ms98-a-0032	A.37	129.899625	130.165500		[silence]	[silence]
sw2883A-ms98-a-0032	A.37	130.165500	130.505250		Right	right
sw2883A-ms98-a-0032	A.37	130.505250	130.829625		[silence]	[silence]
sw2883A-ms98-a-0032	A.37	130.829625	130.969625		That	that
sw2883A-ms98-a-0032	A.37	130.969625	131.129625		can	can
sw2883A-ms98-a-0032	A.37	131.129625	131.239625		be	be
sw2883A-ms98-a-0032	A.37	131.239625	131.499625		very	very
sw2883A-ms98-a-0032	A.37	131.499625	131.929625		handy	handy
sw2883A-ms98-a-0032	A.37	131.929625	132.139625		under	under
sw2883A-ms98-a-0032	A.37	132.139625	132.369625		those	those
sw2883A-ms98-a-0032	A.37	132.369625	132.569625		kind	kind
sw2883A-ms98-a-0032	A.37	132.569625	132.629625		of	of
sw2883A-ms98-a-0032	A.37	132.629625	133.409000		circumstances	circumstances
sw2883A-ms98-a-0032	A.37	133.409000	133.704500		[silence]	[silence]
sw2883A-ms98-a-0033	A.37	133.704500	133.784500		[silence]	[silence]
sw2883A-ms98-a-0033	A.37	133.784500	133.854500		The	the
sw2883A-ms98-a-0033	A.37	133.854500	133.984500		other	other
sw2883A-ms98-a-0033	A.37	133.984500	134.174500		thing	thing
sw2883A-ms98-a-0033	A.37	134.174500	134.494500		about	about
sw2883A-ms98-a-0033	A.37	134.494500	134.604500		them	them
sw2883A-ms98-a-0033	A.37	134.604500	134.804500		is	is
sw2883A-ms98-a-0033	A.37	134.804500	135.014500		too	too
sw2883A-ms98-a-0033	A.37	135.014500	135.164500		if	if
sw2883A-ms98-a-0033	A.37	135.164500	135.264500		you	you
sw2883A-ms98-a-0033	A.37	135.264500	135.534500		really	really
sw2883A-ms98-a-0033	A.37	135.534500	135.849750		don't	don't
sw2883A-ms98-a-0033	A.37	135.849750	136.234500		you	you
sw2883A-ms98-a-0033	A.37	136.234500	136.524500		really	really
sw2883A-ms98-a-0033	A.37	136.524500	136.794500		need	need
sw2883A-ms98-a-0033	A.37	136.794500	136.904500		to	to
sw2883A-ms98-a-0033	A.37	136.904500	137.144500		get	get
sw2883A-ms98-a-0033	A.37	137.144500	137.454500		some	some
sw2883A-ms98-a-0033	A.37	137.454500	137.684500		and	and
sw2883A-ms98-a-0033	A.37	137.684500	137.904500		use	use
sw2883A-ms98-a-0033	A.37	137.904500	138.084500		them	them
sw2883A-ms98-a-0033	A.37	138.084500	138.801000		because	because
sw2883A-ms98-a-0033	A.37	138.801000	139.122500		[silence]	[silence]
sw2883A-ms98-a-0033	A.37	139.122500	139.295750		if	if
sw2883A-ms98-a-0033	A.37	139.295750	139.494500		you	you
sw2883A-ms98-a-0033	A.37	139.494500	139.674500		have	have
sw2883A-ms98-a-0033	A.37	139.674500	140.024500		never	never
sw2883A-ms98-a-0033	A.37	140.024500	140.344500		used	used
sw2883A-ms98-a-0033	A.37	140.344500	140.474500		them	them
sw2883A-ms98-a-0033	A.37	140.474500	140.594500		and	and
sw2883A-ms98-a-0033	A.37	140.594500	141.141375		developed	developed
sw2883A-ms98-a-0033	A.37	141.141375	141.434500		and	and
sw2883A-ms98-a-0033	A.37	141.434500	141.694500		haven't	haven't
sw2883A-ms98-a-0033	A.37	141.694500	142.064500		developed	developed
sw2883A-ms98-a-0033	A.37	142.064500	142.104500		a	a
sw2883A-ms98-a-0033	A.37	142.104500	142.414500		credit	credit
sw2883A-ms98-a-0033	A.37	142.414500	142.613125		thing	thing
sw2883A-ms98-a-0033	A.37	142.613125	142.888625		[silence]	[silence]
sw2883A-ms98-a-0034	A.37	142.888625	143.008625		[silence]	[silence]
sw2883A-ms98-a-0034	A.37	143.008625	143.158625		It	it
sw2883A-ms98-a-0034	A.37	143.158625	143.578625		stops	stops
sw2883A-ms98-a-0034	A.37	143.578625	143.658625		you	you
sw2883A-ms98-a-0034	A.37	143.658625	143.878625		from	from
sw2883A-ms98-a-0034	A.37	143.878625	144.128625		doing	doing
sw2883A-ms98-a-0034	A.37	144.128625	144.158625		a	a
sw2883A-ms98-a-0034	A.37	144.158625	144.398625		lot	lot
sw2883A-ms98-a-0034	A.37	144.398625	144.478625		of	of
sw2883A-ms98-a-0034	A.37	144.478625	145.048625		things	things
sw2883A-ms98-a-0034	A.37	145.048625	145.208625		If	if
sw2883A-ms98-a-0034	A.37	145.208625	145.529250		you	you
sw2883A-ms98-a-0034	A.39	145.529250	145.748625		if	if
sw2883A-ms98-a-0034	A.39	145.748625	145.878625		you	you
sw2883A-ms98-a-0034	A.39	145.878625	146.108625		pay	pay
sw2883A-ms98-a-0034	A.39	146.108625	146.278625		for	for
sw2883A-ms98-a-0034	A.39	146.278625	146.718625		everything	everything
sw2883A-ms98-a-0034	A.39	146.718625	146.878625		by	by
sw2883A-ms98-a-0034	A.39	146.878625	147.499500		cash	cash
sw2883A-ms98-a-0034	A.39	147.499500	147.978000		[silence]	[silence]
sw2883A-ms98-a-0034	A.39	147.978000	148.288625		uh	uh
sw2883A-ms98-a-0034	A.39	148.288625	148.458625		there	there
sw2883A-ms98-a-0034	A.39	148.458625	148.608625		is	is
sw2883A-ms98-a-0034	A.39	148.608625	148.648625		a	a
sw2883A-ms98-a-0034	A.39	148.648625	148.838625		lot	lot
sw2883A-ms98-a-0034	A.39	148.838625	148.928625		of	of
sw2883A-ms98-a-0034	A.39	148.928625	149.358625		things	things
sw2883A-ms98-a-0034	A.39	149.358625	149.577500		that	that
sw2883A-ms98-a-0034	A.39	149.577500	149.852375		[silence]	[silence]
sw2883A-ms98-a-0034	A.39	149.852375	149.908625		a	a
sw2883A-ms98-a-0034	A.39	149.908625	150.018625		lot	lot
sw2883A-ms98-a-0034	A.39	150.018625	150.078625		of	of
sw2883A-ms98-a-0034	A.39	150.078625	150.378625		people	people
sw2883A-ms98-a-0034	A.39	150.378625	150.498625		who	who
sw2883A-ms98-a-0034	A.39	150.498625	150.678625		will	will
sw2883A-ms98-a-0034	A.39	150.678625	151.011625		not	not
sw2883A-ms98-a-0034	A.39	151.011625	151.268625		give	give
sw2883A-ms98-a-0034	A.39	151.268625	151.368625		you	you
sw2883A-ms98-a-0034	A.39	151.368625	151.858625		credit	credit
sw2883A-ms98-a-0034	A.39	151.858625	152.008625		when	when
sw2883A-ms98-a-0034	A.39	152.008625	152.168625		you	you
sw2883A-ms98-a-0034	A.39	152.168625	152.398625		need	need
sw2883A-ms98-a-0034	A.39	152.398625	152.718625		something	something
sw2883A-ms98-a-0034	A.39	152.718625	152.908625		like	like
sw2883A-ms98-a-0034	A.39	152.908625	152.958625		a	a
sw2883A-ms98-a-0034	A.39	152.958625	153.448625		house	house
sw2883A-ms98-a-0034	A.39	153.448625	153.673625		or	or
sw2883A-ms98-a-0034	A.41	153.673625	154.097250		[silence]	[silence]
sw2883A-ms98-a-0035	A.41	154.097250	154.437250		[silence]	[silence]
sw2883A-ms98-a-0035	A.41	154.437250	154.477250		a	a
sw2883A-ms98-a-0035	A.41	154.477250	154.797250		car	car
sw2883A-ms98-a-0035	A.41	154.797250	155.255250		So	so
sw2883A-ms98-a-0035	A.41	155.255250	155.587250		so	so
sw2883A-ms98-a-0035	A.41	155.587250	156.020750		they	they
sw2883A-ms98-a-0035	A.41	156.020750	156.177250		they	they
sw2883A-ms98-a-0035	A.41	156.177250	156.337250		have	have
sw2883A-ms98-a-0035	A.41	156.337250	157.078250		become	become
sw2883A-ms98-a-0035	A.41	157.078250	157.507625		[silence]	[silence]
sw2883A-ms98-a-0035	A.41	157.507625	157.687250		a	a
sw2883A-ms98-a-0035	A.41	157.687250	158.027250		very	very
sw2883A-ms98-a-0035	A.41	158.027250	158.407250		vital	vital
sw2883A-ms98-a-0035	A.41	158.407250	158.877250		part	part
sw2883A-ms98-a-0035	A.41	158.877250	159.017250		of	of
sw2883A-ms98-a-0035	A.41	159.017250	159.564750		our	our
sw2883A-ms98-a-0035	A.41	159.564750	160.054375		[silence]	[silence]
sw2883A-ms98-a-0035	A.41	160.054375	160.277250		of	of
sw2883A-ms98-a-0035	A.41	160.277250	160.437250		our	our
sw2883A-ms98-a-0035	A.41	160.437250	161.006125		monetary	monetary
sw2883A-ms98-a-0035	A.41	161.006125	161.115375		[laughter]	[laughter]
sw2883A-ms98-a-0035	A.41	161.115375	161.667250		system	system
sw2883A-ms98-a-0035	A.43	161.667250	161.957250		over	over
sw2883A-ms98-a-0035	A.43	161.957250	162.427250		the	the
sw2883A-ms98-a-0035	A.43	162.427250	162.767250		last	last
sw2883A-ms98-a-0035	A.43	162.767250	162.987250		few	few
sw2883A-ms98-a-0035	A.43	162.987250	163.523125		years	years
sw2883A-ms98-a-0035	A.43	163.523125	163.773875		[silence]	[silence]
sw2883A-ms98-a-0036	A.43	163.773875	164.223875		[silence]	[silence]
sw2883A-ms98-a-0036	A.43	164.223875	164.573875		But	but
sw2883A-ms98-a-0036	A.43	164.573875	164.633875		uh	uh
sw2883A-ms98-a-0036	A.43	164.633875	164.943875		it's	it's
sw2883A-ms98-a-0036	A.43	164.943875	165.263875		true	true
sw2883A-ms98-a-0036	A.43	165.263875	165.333875		you	you
sw2883A-ms98-a-0036	A.43	165.333875	165.483875		have	have
sw2883A-ms98-a-0036	A.43	165.483875	165.613875		to	to
sw2883A-ms98-a-0036	A.43	165.613875	165.683875		be	be
sw2883A-ms98-a-0036	A.43	165.683875	165.963875		very	very
sw2883A-ms98-a-0036	A.43	165.963875	166.433875		careful	careful
sw2883A-ms98-a-0036	A.43	166.433875	166.573875		or	or
sw2883A-ms98-a-0036	A.43	166.573875	166.683875		you	you
sw2883A-ms98-a-0036	A.43	166.683875	166.903875		end	end
sw2883A-ms98-a-0036	A.43	166.903875	167.013875		up	up
sw2883A-ms98-a-0036	A.43	167.013875	167.490125		[silence]	[silence]
sw2883A-ms98-a-0037	A.43	167.490125	167.811875		[silence]	[silence]
sw2883A-ms98-a-0037	A.43	167.811875	168.553625		uh	uh
sw2883A-ms98-a-0037	A.43	168.553625	168.994500		[silence]	[silence]
sw2883A-ms98-a-0037	A.43	168.994500	169.540125		going	going
sw2883A-ms98-a-0037	A.43	169.540125	169.720125		in	in
sw2883A-ms98-a-0037	A.43	169.720125	169.800125		the	the
sw2883A-ms98-a-0037	A.43	169.800125	170.080125		deep	deep
sw2883A-ms98-a-0037	A.43	170.080125	170.330125		end	end
sw2883A-ms98-a-0037	A.43	170.330125	170.524375		and	and
sw2883A-ms98-a-0037	A.43	170.524375	171.089250		[silence]	[silence]
sw2883A-ms98-a-0037	A.43	171.089250	171.240125		uh	uh
sw2883A-ms98-a-0037	A.43	171.240125	171.440125		and	and
sw2883A-ms98-a-0037	A.43	171.440125	171.848500		an	an
sw2883A-ms98-a-0037	A.43	171.848500	172.259000		[silence]	[silence]
sw2883A-ms98-a-0037	A.43	172.259000	172.650125		awful	awful
sw2883A-ms98-a-0037	A.43	172.650125	172.750125		lot	lot
sw2883A-ms98-a-0037	A.43	172.750125	172.810125		of	of
sw2883A-ms98-a-0037	A.43	172.810125	173.230125		people	people
sw2883A-ms98-a-0037	A.43	173.230125	173.350125		are	are
sw2883A-ms98-a-0037	A.43	173.350125	173.510125		in	in
sw2883A-ms98-a-0037	A.43	173.510125	174.034000		trouble	trouble
sw2883A-ms98-a-0037	A.45	174.034000	174.238375		[silence]	[silence]
sw2883A-ms98-a-0038	A.45	174.238375	174.372375		[silence]	[silence]
sw2883A-ms98-a-0038	A.45	174.372375	174.508375		We	we
sw2883A-ms98-a-0038	A.45	174.508375	174.678375		have	have
sw2883A-ms98-a-0038	A.45	174.678375	174.768375		a	a
sw2883A-ms98-a-0038	A.45	174.768375	175.018375		boy	boy
sw2883A-ms98-a-0038	A.45	175.018375	175.358375		living	living
sw2883A-ms98-a-0038	A.45	175.358375	175.558375		with	with
sw2883A-ms98-a-0038	A.45	175.558375	175.788375		us	us
sw2883A-ms98-a-0038	A.45	175.788375	176.155250		who	who
sw2883A-ms98-a-0038	A.45	176.155250	176.638375		works	works
sw2883A-ms98-a-0038	A.45	176.638375	176.828375		for	for
sw2883A-ms98-a-0038	A.45	176.828375	176.878375		a	a
sw2883A-ms98-a-0038	A.45	176.878375	177.258375		credit	credit
sw2883A-ms98-a-0038	A.45	177.258375	177.765250		card	card
sw2883A-ms98-a-0038	A.45	177.765250	178.254875		[silence]	[silence]
sw2883A-ms98-a-0038	A.45	178.254875	179.088000		uh	uh
sw2883A-ms98-a-0038	A.45	179.088000	179.484375		[silence]	[silence]
sw2883A-ms98-a-0039	A.45	179.484375	179.864000		[silence]	[silence]
sw2883A-ms98-a-0039	A.45	179.864000	180.484375		company	company
sw2883A-ms98-a-0039	A.45	180.484375	180.809125		that	that
sw2883A-ms98-a-0039	A.45	180.809125	181.219625		[silence]	[silence]
sw2883A-ms98-a-0039	A.45	181.219625	181.534375		and	and
sw2883A-ms98-a-0039	A.45	181.534375	181.694375		he	he
sw2883A-ms98-a-0039	A.45	181.694375	181.994375		makes	makes
sw2883A-ms98-a-0039	A.45	181.994375	182.544375		calls	calls
sw2883A-ms98-a-0039	A.45	182.544375	182.644375		to	to
sw2883A-ms98-a-0039	A.45	182.644375	182.964375		people	people
sw2883A-ms98-a-0039	A.45	182.964375	183.124375		who	who
sw2883A-ms98-a-0039	A.45	183.124375	183.324375		have	have
sw2883A-ms98-a-0039	A.45	183.324375	183.914375		problems	problems
sw2883A-ms98-a-0039	A.45	183.914375	184.034375		you	you
sw2883A-ms98-a-0039	A.45	184.034375	184.364375		know	know
sw2883A-ms98-a-0039	A.45	184.364375	184.684375		credit	credit
sw2883A-ms98-a-0039	A.45	184.684375	185.184375		problems	problems
sw2883A-ms98-a-0039	A.47	185.184375	185.314375		that	that
sw2883A-ms98-a-0039	A.47	185.314375	185.484250		are	are
sw2883A-ms98-a-0039	A.47	185.484250	185.864750		[silence]	[silence]
sw2883A-ms98-a-0039	A.47	185.864750	186.094375		trying	trying
sw2883A-ms98-a-0039	A.47	186.094375	186.154375		to	to
sw2883A-ms98-a-0039	A.47	186.154375	186.364375		work	work
sw2883A-ms98-a-0039	A.47	186.364375	186.594375		out	out
sw2883A-ms98-a-0039	A.47	186.594375	186.744375	<DEL>	---	of
sw2883A-ms98-a-0039	A.47	186.744375	186.936625	<DEL>	---	them_1
sw2883A-ms98-a-0039	A.47	186.936625	187.347125		[silence]	[silence]
sw2883A-ms98-a-0039	A.47	187.347125	187.754375		and	and
sw2883A-ms98-a-0039	A.47	187.754375	188.159125		uh	uh
sw2883A-ms98-a-0039	A.47	188.159125	188.258000		[silence]	[silence]
sw2883A-ms98-a-0040	A.47	188.258000	188.287750		[silence]	[silence]
sw2883A-ms98-a-0040	A.47	188.287750	188.750375		[laughter]	[laughter]
sw2883A-ms98-a-0040	A.47	188.750375	189.011500		[silence]	[silence]
sw2883A-ms98-a-0041	A.47	189.011500	189.091500		[silence]	[silence]
sw2883A-ms98-a-0041	A.47	189.091500	189.251500		Poor	poor
sw2883A-ms98-a-0041	A.47	189.251500	189.441500		thing	thing
sw2883A-ms98-a-0041	A.47	189.441500	189.521500		he	he
sw2883A-ms98-a-0041	A.47	189.521500	189.801500		comes	comes
sw2883A-ms98-a-0041	A.47	189.801500	189.981500		home	home
sw2883A-ms98-a-0041	A.47	189.981500	190.201500		very	very
sw2883A-ms98-a-0041	A.47	190.201500	190.731500		depressed	depressed
sw2883A-ms98-a-0041	A.47	190.731500	190.961500		every	every
sw2883A-ms98-a-0041	A.47	190.961500	191.451250		night	[laughter-night]
sw2883A-ms98-a-0041	A.49	191.451250	191.463500		[silence]	[silence]
sw2883A-ms98-a-0042	A.49	191.463500	191.557750		[silence]	[silence]
sw2883A-ms98-a-0042	A.49	191.557750	191.993500		[laughter]	[laughter]
sw2883A-ms98-a-0042	A.49	191.993500	192.223500		because	because
sw2883A-ms98-a-0042	A.49	192.223500	192.313500		the	the
sw2883A-ms98-a-0042	A.49	192.313500	192.663500		world	world
sw2883A-ms98-a-0042	A.49	192.663500	192.853500		has	has
sw2883A-ms98-a-0042	A.49	192.853500	192.963500		so	so
sw2883A-ms98-a-0042	A.49	192.963500	193.143500		many	many
sw2883A-ms98-a-0042	A.49	193.143500	193.623500		problems	problems
sw2883A-ms98-a-0042	A.49	193.623500	193.723500		of	of
sw2883A-ms98-a-0042	A.49	193.723500	193.953500		that	that
sw2883A-ms98-a-0042	A.49	193.953500	194.323500		sort	sort
sw2883A-ms98-a-0042	A.49	194.323500	194.643500		so	so
sw2883A-ms98-a-0042	A.49	194.643500	194.917375		it's	it's
sw2883A-ms98-a-0042	A.51	194.917375	194.917375	<INS>	it's	---
sw2883A-ms98-a-0042	A.51	194.917375	195.225000		[silence]	[silence]
sw2883A-ms98-a-0042	A.51	195.225000	195.633500		uh	uh
sw2883A-ms98-a-0042	A.51	195.633500	195.785250		it's	it's
sw2883A-ms98-a-0042	A.51	195.785250	196.033500		uh	uh
sw2883A-ms98-a-0042	A.51	196.033500	196.223125		[silence]	[silence]
sw2883A-ms98-a-0043	A.51	196.223125	196.363625		[silence]	[silence]
sw2883A-ms98-a-0043	A.51	196.363625	196.663125		it's	it's
sw2883A-ms98-a-0043	A.51	196.663125	196.733125		a	a
sw2883A-ms98-a-0043	A.51	196.733125	197.113125		really	really
sw2883A-ms98-a-0043	A.51	197.113125	197.393125		big	big
sw2883A-ms98-a-0043	A.51	197.393125	197.873125		problem	problem
sw2883A-ms98-a-0043	A.51	197.873125	197.973125		I	i
sw2883A-ms98-a-0043	A.51	197.973125	198.353125		think	think
sw2883A-ms98-a-0043	A.51	198.353125	198.632625		and	and
sw2883A-ms98-a-0043	A.51	198.632625	199.133500		[silence]	[silence]
sw2883A-ms98-a-0043	A.51	199.133500	199.911250		um	um
sw2883A-ms98-a-0043	A.51	199.911250	200.436000		[silence]	[silence]
sw2883A-ms98-a-0043	A.51	200.436000	200.823125		takes	takes
sw2883A-ms98-a-0043	A.51	200.823125	201.323125		mature	mature
sw2883A-ms98-a-0043	A.51	201.323125	201.733125		people	people
sw2883A-ms98-a-0043	A.51	201.733125	202.158000		to	to
sw2883A-ms98-a-0043	A.51	202.158000	202.593750		[silence]	[silence]
sw2883A-ms98-a-0044	A.51	202.593750	202.937875		[silence]	[silence]
sw2883A-ms98-a-0044	A.51	202.937875	203.313750		to	to
sw2883A-ms98-a-0044	A.51	203.313750	203.653750		treat	treat
sw2883A-ms98-a-0044	A.51	203.653750	203.903125		it	it
sw2883A-ms98-a-0044	A.51	203.903125	204.183750		uh	uh
sw2883A-ms98-a-0044	A.51	204.183750	204.443750		so	so
sw2883A-ms98-a-0044	A.51	204.443750	204.563750		that	that
sw2883A-ms98-a-0044	A.51	204.563750	204.743750		it's	it's
sw2883A-ms98-a-0044	A.51	204.743750	204.951625		so	so
sw2883A-ms98-a-0044	A.51	204.951625	205.293750		that	that
sw2883A-ms98-a-0044	A.51	205.293750	205.483750		it's	it's
sw2883A-ms98-a-0044	A.51	205.483750	205.563750		a	a
sw2883A-ms98-a-0044	A.51	205.563750	206.011875		real	real
sw2883A-ms98-a-0044	A.51	206.011875	206.783750		advantage	advantage
sw2883A-ms98-a-0044	A.51	206.783750	206.943750		to	to
sw2883A-ms98-a-0044	A.51	206.943750	207.083750		you	you
sw2883A-ms98-a-0044	A.51	207.083750	207.453750		instead	instead
sw2883A-ms98-a-0044	A.51	207.453750	207.563750		of	of
sw2883A-ms98-a-0044	A.51	207.563750	207.623750		a	a
sw2883A-ms98-a-0044	A.51	207.623750	208.692250		disadvantage	disadvantage
sw2883A-ms98-a-0044	A.53	208.692250	208.971500		[silence]	[silence]
sw2883A-ms98-a-0045	A.53	208.971500	215.849375		[silence]	[silence]
sw2883A-ms98-a-0046	A.53	215.849375	216.247500		[silence]	[silence]
sw2883A-ms98-a-0046	A.53	216.247500	216.745500		Yeah	yeah
sw2883A-ms98-a-0046	A.55	216.745500	217.104750		[silence]	[silence]
sw2883A-ms98-a-0047	A.55	217.104750	218.785625		[silence]	[silence]
sw2883A-ms98-a-0048	A.55	218.785625	218.961625		[silence]	[silence]
sw2883A-ms98-a-0048	A.55	218.961625	219.305625		Right	right
sw2883A-ms98-a-0048	A.55	219.305625	219.415625		It	it
sw2883A-ms98-a-0048	A.55	219.415625	219.675625	<SUB>	didn't	doesn't
sw2883A-ms98-a-0048	A.55	219.675625	219.785625		do	do
sw2883A-ms98-a-0048	A.55	219.785625	219.855625		you	you
sw2883A-ms98-a-0048	A.55	219.855625	220.005625		any	any
sw2883A-ms98-a-0048	A.55	220.005625	220.235625		good	good
sw2883A-ms98-a-0048	A.55	220.235625	220.485625		now	now
sw2883A-ms98-a-0048	A.55	220.485625	220.615625		does	does
sw2883A-ms98-a-0048	A.55	220.615625	221.149125		it	it
sw2883A-ms98-a-0048	A.57	221.149125	221.764375	<DEL>	---	right
sw2883A-ms98-a-0048	A.57	221.764375	222.291125		[silence]	[silence]
sw2883A-ms98-a-0049	A.57	222.291125	222.823125		[silence]	[silence]
sw2883A-ms98-a-0049	A.57	222.823125	223.191125		Even	even
sw2883A-ms98-a-0049	A.57	223.191125	223.661125		before	before
sw2883A-ms98-a-0049	A.57	223.661125	223.771125		it	it
sw2883A-ms98-a-0049	A.57	223.771125	224.291125		probably	probably
sw2883A-ms98-a-0049	A.57	224.291125	224.761125		wasn't	wasn't
sw2883A-ms98-a-0049	A.57	224.761125	224.921125		though	though
sw2883A-ms98-a-0049	A.57	224.921125	225.271125		because	because
sw2883A-ms98-a-0049	A.57	225.271125	225.361125		you	you
sw2883A-ms98-a-0049	A.57	225.361125	225.641125		didn't	didn't
sw2883A-ms98-a-0049	A.57	225.641125	225.761125		get	get
sw2883A-ms98-a-0049	A.57	225.761125	226.081125		anywhere	anywhere
sw2883A-ms98-a-0049	A.57	226.081125	226.331125		near	near
sw2883A-ms98-a-0049	A.57	226.331125	226.431125		as	as
sw2883A-ms98-a-0049	A.57	226.431125	226.831125		much	much
sw2883A-ms98-a-0049	A.57	226.831125	226.991125		as	as
sw2883A-ms98-a-0049	A.57	226.991125	227.151125		what	what
sw2883A-ms98-a-0049	A.57	227.151125	227.519625		it	it
sw2883A-ms98-a-0049	A.59	227.519625	227.810875		[silence]	[silence]
sw2883A-ms98-a-0050	A.59	227.810875	228.150875		[silence]	[silence]
sw2883A-ms98-a-0050	A.59	228.150875	228.230875		you	you
sw2883A-ms98-a-0050	A.59	228.230875	228.380875		didn't	didn't
sw2883A-ms98-a-0050	A.59	228.380875	228.500875		get	get
sw2883A-ms98-a-0050	A.59	228.500875	228.560875		to	to
sw2883A-ms98-a-0050	A.59	228.560875	228.880875		claim	claim
sw2883A-ms98-a-0050	A.59	228.880875	229.170875		anywhere	anywhere
sw2883A-ms98-a-0050	A.59	229.170875	229.390875		near	near
sw2883A-ms98-a-0050	A.59	229.390875	229.580875		what	what
sw2883A-ms98-a-0050	A.59	229.580875	229.750875		you	you
sw2883A-ms98-a-0050	A.59	229.750875	230.020875		ended	ended
sw2883A-ms98-a-0050	A.59	230.020875	230.120875		up	up
sw2883A-ms98-a-0050	A.59	230.120875	230.641250		paying	paying
sw2883A-ms98-a-0050	A.59	230.641250	231.068625		[silence]	[silence]
sw2883A-ms98-a-0051	A.59	231.068625	231.453375		[silence]	[silence]
sw2883A-ms98-a-0051	A.59	231.453375	232.150250		So	so
sw2883A-ms98-a-0051	A.59	232.150250	232.794125		[silence]	[silence]
sw2883A-ms98-a-0051	A.59	232.794125	233.389000		well	well
sw2883A-ms98-a-0051	A.59	233.389000	233.718625		I'm	i'm
sw2883A-ms98-a-0051	A.59	233.718625	234.128625		not	not
sw2883A-ms98-a-0051	A.59	234.128625	234.441750	<DEL>	---	that
sw2883A-ms98-a-0051	A.59	234.441750	234.708625	<DEL>	---	uh
sw2883A-ms98-a-0051	A.59	234.708625	235.128625		other	other
sw2883A-ms98-a-0051	A.59	235.128625	235.228625		than	than
sw2883A-ms98-a-0051	A.59	235.228625	235.428625		that	that
sw2883A-ms98-a-0051	A.59	235.428625	235.508625		I	i
sw2883A-ms98-a-0051	A.59	235.508625	235.718625		don't	don't
sw2883A-ms98-a-0051	A.59	235.718625	235.938625		have	have
sw2883A-ms98-a-0051	A.59	235.938625	236.098625		too	too
sw2883A-ms98-a-0051	A.59	236.098625	236.358000		much	much
sw2883A-ms98-a-0051	A.59	236.358000	236.488625		on	on
sw2883A-ms98-a-0051	A.59	236.488625	236.818625		credit	credit
sw2883A-ms98-a-0051	A.59	236.818625	237.328625		cards	cards
sw2883A-ms98-a-0051	A.59	237.328625	237.561750		but	but
sw2883A-ms98-a-0051	A.61	237.561750	237.880625		[silence]	[silence]
sw2883A-ms98-a-0052	A.61	237.880625	238.358500		[silence]	[silence]
sw2883A-ms98-a-0052	A.61	238.358500	238.740625		It's	it's
sw2883A-ms98-a-0052	A.61	238.740625	238.950625		good	good
sw2883A-ms98-a-0052	A.61	238.950625	239.010625		to	to
sw2883A-ms98-a-0052	A.61	239.010625	239.220625		talk	talk
sw2883A-ms98-a-0052	A.61	239.220625	239.340625		to	to
sw2883A-ms98-a-0052	A.61	239.340625	239.641250		you	you
sw2883A-ms98-a-0052	A.63	239.641250	240.058125		[silence]	[silence]
sw2883A-ms98-a-0053	A.63	240.058125	240.478125		[silence]	[silence]
sw2883A-ms98-a-0053	A.63	240.478125	240.788125		Uh-huh	uh-huh
sw2883A-ms98-a-0053	A.63	240.788125	240.978125		bye	bye
sw2883A-ms98-a-0053	A.63	240.978125	241.329125		now	now
sw2883A-ms98-a-0053	A.63	241.329125	241.432875		[silence]	[silence]
sw2883A-ms98-a-0054	A.63	241.432875	241.641750		[silence]	[silence]
sw2883A-ms98-a-0054	A.63	241.641750	243.312875		[noise]	[noise]
sw2883A-ms98-a-0054	A.63	243.312875	243.853250		[silence]	[silence]
