sw2835A-ms98-a-0001	A.1	0.000000	0.180000		[silence]	[silence]
sw2835A-ms98-a-0001	A.1	0.180000	0.490000		[noise]	[noise]
sw2835A-ms98-a-0001	A.1	0.490000	0.536750		[silence]	[silence]
sw2835A-ms98-a-0002	A.1	0.536750	0.816750		[silence]	[silence]
sw2835A-ms98-a-0002	A.1	0.816750	0.906750		It	it
sw2835A-ms98-a-0002	A.1	0.906750	1.186750		seems	seems
sw2835A-ms98-a-0002	A.1	1.186750	1.306750		to	to
sw2835A-ms98-a-0002	A.1	1.306750	1.516750		me	me
sw2835A-ms98-a-0002	A.1	1.516750	1.676750		that	that
sw2835A-ms98-a-0002	A.1	1.676750	1.866750		one	one
sw2835A-ms98-a-0002	A.1	1.866750	1.966750		of	of
sw2835A-ms98-a-0002	A.1	1.966750	2.056750		the	the
sw2835A-ms98-a-0002	A.1	2.056750	2.536750		biggest	biggest
sw2835A-ms98-a-0002	A.1	2.536750	3.296750		differences	differences
sw2835A-ms98-a-0002	A.1	3.296750	3.647125		is	is
sw2835A-ms98-a-0002	A.1	3.647125	4.005000		[silence]	[silence]
sw2835A-ms98-a-0002	A.1	4.005000	4.478625		the	the
sw2835A-ms98-a-0002	A.1	4.478625	4.651875		[silence]	[silence]
sw2835A-ms98-a-0002	A.1	4.651875	5.176750		computer	computer
sw2835A-ms98-a-0002	A.1	5.176750	5.909500		revolution	revolution
sw2835A-ms98-a-0002	A.3	5.909500	6.473750		[silence]	[silence]
sw2835A-ms98-a-0003	A.3	6.473750	7.236125		[silence]	[silence]
sw2835A-ms98-a-0003	A.3	7.236125	7.663375		And	and
sw2835A-ms98-a-0003	A.3	7.663375	7.968500		[silence]	[silence]
sw2835A-ms98-a-0003	A.3	7.968500	8.171375		I	i
sw2835A-ms98-a-0003	A.3	8.171375	8.453875		can	can
sw2835A-ms98-a-0003	A.3	8.453875	8.553750		[silence]	[silence]
sw2835A-ms98-a-0003	A.3	8.553750	8.803750		very	very
sw2835A-ms98-a-0003	A.3	8.803750	9.223750		clearly	clearly
sw2835A-ms98-a-0003	A.3	9.223750	9.693750		remember	remember
sw2835A-ms98-a-0003	A.3	9.693750	10.033750		ten	ten
sw2835A-ms98-a-0003	A.3	10.033750	10.313750		years	years
sw2835A-ms98-a-0003	A.3	10.313750	10.693750		ago	ago
sw2835A-ms98-a-0003	A.3	10.693750	10.823750		I	i
sw2835A-ms98-a-0003	A.3	10.823750	10.983750		was	was
sw2835A-ms98-a-0003	A.3	10.983750	11.279000		just	just
sw2835A-ms98-a-0003	A.3	11.279000	11.459750		[silence]	[silence]
sw2835A-ms98-a-0003	A.3	11.459750	11.943750		beginning	beginning
sw2835A-ms98-a-0003	A.3	11.943750	12.143750		to	to
sw2835A-ms98-a-0003	A.3	12.143750	12.823750		explore	explore
sw2835A-ms98-a-0003	A.3	12.823750	13.763750		computerizing	computerizing
sw2835A-ms98-a-0003	A.3	13.763750	14.003750		my	my
sw2835A-ms98-a-0003	A.3	14.003750	14.493750		office	office
sw2835A-ms98-a-0003	A.3	14.493750	14.989750		[silence]	[silence]
sw2835A-ms98-a-0004	A.3	14.989750	15.009750		[silence]	[silence]
sw2835A-ms98-a-0004	A.3	15.009750	15.599750		and	and
sw2835A-ms98-a-0004	A.3	15.599750	15.912500		and	and
sw2835A-ms98-a-0004	A.3	15.912500	16.029250		[silence]	[silence]
sw2835A-ms98-a-0004	A.3	16.029250	16.309750	<DEL>	---	ex[ploring]-
sw2835A-ms98-a-0004	A.3	16.309750	16.649750		[silence]	[silence]
sw2835A-ms98-a-0004	A.3	16.649750	16.909750		trying	trying
sw2835A-ms98-a-0004	A.3	16.909750	16.969750		to	to
sw2835A-ms98-a-0004	A.3	16.969750	17.309750		find	find
sw2835A-ms98-a-0004	A.3	17.309750	17.519750		out	out
sw2835A-ms98-a-0004	A.3	17.519750	17.749750		what	what
sw2835A-ms98-a-0004	A.3	17.749750	18.219750		kinds	kinds
sw2835A-ms98-a-0004	A.3	18.219750	18.359750		of	of
sw2835A-ms98-a-0004	A.3	18.359750	19.049750		computers	computers
sw2835A-ms98-a-0004	A.3	19.049750	19.329750		might	might
sw2835A-ms98-a-0004	A.3	19.329750	19.519750		be	be
sw2835A-ms98-a-0004	A.3	19.519750	20.109750		useful	useful
sw2835A-ms98-a-0004	A.3	20.109750	20.239750		and	and
sw2835A-ms98-a-0004	A.3	20.239750	20.349750		we	we
sw2835A-ms98-a-0004	A.3	20.349750	20.569750		did	did
sw2835A-ms98-a-0004	A.3	20.569750	20.819750		end	end
sw2835A-ms98-a-0004	A.3	20.819750	21.009750		up	up
sw2835A-ms98-a-0004	A.3	21.009750	21.183625		with	with
sw2835A-ms98-a-0004	A.3	21.183625	21.353125		[silence]	[silence]
sw2835A-ms98-a-0004	A.3	21.353125	21.738000		uh	uh
sw2835A-ms98-a-0004	A.3	21.738000	22.231500		[silence]	[silence]
sw2835A-ms98-a-0004	A.3	22.231500	22.729750	<CONT>	I	IBM
sw2835A-ms98-a-0004	A.3	22.729750	22.729750	<CONT>	B	+++
sw2835A-ms98-a-0004	A.3	22.729750	22.729750	<CONT>	M	+++
sw2835A-ms98-a-0004	A.3	22.729750	23.409750	<CONT>	P	PCs
sw2835A-ms98-a-0004	A.3	23.409750	23.409750	<CONT>	C	+++
sw2835A-ms98-a-0004	A.3	23.409750	23.409750	<CONT>	-s	+++
sw2835A-ms98-a-0004	A.3	23.409750	23.609750		which	which
sw2835A-ms98-a-0004	A.3	23.609750	23.845125		I	i
sw2835A-ms98-a-0004	A.3	23.845125	24.018375		[silence]	[silence]
sw2835A-ms98-a-0004	A.3	24.018375	24.239750		now	now
sw2835A-ms98-a-0004	A.3	24.239750	24.499750		would	would
sw2835A-ms98-a-0004	A.3	24.499750	24.999750		not	[laughter-not]
sw2835A-ms98-a-0004	A.3	24.999750	25.329750		have	[laughter-have]
sw2835A-ms98-a-0004	A.3	25.329750	25.809750		chosen	[laughter-chosen]
sw2835A-ms98-a-0004	A.5	25.809750	26.017500		But	but
sw2835A-ms98-a-0004	A.5	26.017500	26.258625		[silence]	[silence]
sw2835A-ms98-a-0004	A.5	26.258625	26.419750		that	that
sw2835A-ms98-a-0004	A.5	26.419750	26.909750		was	was
sw2835A-ms98-a-0004	A.5	26.909750	27.359750		before	before
sw2835A-ms98-a-0004	A.5	27.359750	27.429750		the	the
sw2835A-ms98-a-0004	A.5	27.429750	28.242875		Macintosh	Macintosh
sw2835A-ms98-a-0004	A.7	28.242875	28.573125		[silence]	[silence]
sw2835A-ms98-a-0005	A.7	28.573125	29.353125		[silence]	[silence]
sw2835A-ms98-a-0005	A.7	29.353125	29.993125		And	and
sw2835A-ms98-a-0005	A.7	29.993125	30.103125		[silence]	[silence]
sw2835A-ms98-a-0005	A.7	30.103125	30.453125		twenty	twenty
sw2835A-ms98-a-0005	A.7	30.453125	30.693125		years	years
sw2835A-ms98-a-0005	A.7	30.693125	31.053125		ago	ago
sw2835A-ms98-a-0005	A.7	31.053125	31.213125		I	i
sw2835A-ms98-a-0005	A.7	31.213125	31.443125		was	was
sw2835A-ms98-a-0005	A.7	31.443125	31.603125		[silence]	[silence]
sw2835A-ms98-a-0005	A.7	31.603125	32.033125		uh	uh
sw2835A-ms98-a-0005	A.7	32.033125	32.244000		in	in
sw2835A-ms98-a-0005	A.7	32.244000	32.797750		graduate	graduate
sw2835A-ms98-a-0005	A.7	32.797750	33.376000		school	school
sw2835A-ms98-a-0005	A.7	33.376000	33.560500		[silence]	[silence]
sw2835A-ms98-a-0005	A.7	33.560500	34.023125		pecking	pecking
sw2835A-ms98-a-0005	A.7	34.023125	34.203125		out	out
sw2835A-ms98-a-0005	A.7	34.203125	34.253125		a	a
sw2835A-ms98-a-0005	A.7	34.253125	35.343125		dissertation	dissertation
sw2835A-ms98-a-0005	A.7	35.343125	35.603125	<DEL>	---	o[n]-
sw2835A-ms98-a-0005	A.7	35.603125	35.903125		on	on
sw2835A-ms98-a-0005	A.7	35.903125	35.973125		a	a
sw2835A-ms98-a-0005	A.7	35.973125	36.483125		manual	manual
sw2835A-ms98-a-0005	A.7	36.483125	37.485000		typewriter	[laughter-typewriter]
sw2835A-ms98-a-0005	A.9	37.485000	37.777500		[silence]	[silence]
sw2835A-ms98-a-0006	A.9	37.777500	38.733125		[silence]	[silence]
sw2835A-ms98-a-0006	A.9	38.733125	39.277500		[laughter]	[laughter]
sw2835A-ms98-a-0006	A.9	39.277500	39.533375		[silence]	[silence]
sw2835A-ms98-a-0007	A.9	39.533375	40.203375		[silence]	[silence]
sw2835A-ms98-a-0007	A.9	40.203375	40.383375		So	so
sw2835A-ms98-a-0007	A.9	40.383375	40.563375		I	i
sw2835A-ms98-a-0007	A.9	40.563375	40.703375		would	would
sw2835A-ms98-a-0007	A.9	40.703375	40.893375		say	say
sw2835A-ms98-a-0007	A.9	40.893375	41.153375		that's	that's
sw2835A-ms98-a-0007	A.9	41.153375	41.373375		one	one
sw2835A-ms98-a-0007	A.9	41.373375	41.490125		of	of
sw2835A-ms98-a-0007	A.9	41.490125	41.701125		the	the
sw2835A-ms98-a-0007	A.9	41.701125	42.284875		largest	largest
sw2835A-ms98-a-0007	A.9	42.284875	42.390375		[silence]	[silence]
sw2835A-ms98-a-0007	A.9	42.390375	42.903375		changes	changes
sw2835A-ms98-a-0007	A.9	42.903375	43.170375		[silence]	[silence]
sw2835A-ms98-a-0007	A.9	43.170375	43.629875	<SUB>	in	i[n]-
sw2835A-ms98-a-0007	A.9	43.629875	43.863375		at	at
sw2835A-ms98-a-0007	A.9	43.863375	44.213375		least	least
sw2835A-ms98-a-0007	A.9	44.213375	44.523375		in	in
sw2835A-ms98-a-0007	A.9	44.523375	44.673375		[silence]	[silence]
sw2835A-ms98-a-0007	A.9	44.673375	44.973375		my	my
sw2835A-ms98-a-0007	A.9	44.973375	45.353375		life	life
sw2835A-ms98-a-0007	A.11	45.353375	45.741375		[silence]	[silence]
sw2835A-ms98-a-0008	A.11	45.741375	57.279625		[silence]	[silence]
sw2835A-ms98-a-0009	A.11	57.279625	57.815875		[silence]	[silence]
sw2835A-ms98-a-0009	A.11	57.815875	58.251875		Uh-huh	uh-huh
sw2835A-ms98-a-0009	A.13	58.251875	58.827500		[silence]	[silence]
sw2835A-ms98-a-0010	A.13	58.827500	70.438625		[silence]	[silence]
sw2835A-ms98-a-0011	A.13	70.438625	70.998625		[silence]	[silence]
sw2835A-ms98-a-0011	A.13	70.998625	71.441000	<SUB>	Uh-huh	um-hum
sw2835A-ms98-a-0011	A.15	71.441000	71.891625		[silence]	[silence]
sw2835A-ms98-a-0012	A.15	71.891625	73.242875		[silence]	[silence]
sw2835A-ms98-a-0013	A.15	73.242875	73.670000		[silence]	[silence]
sw2835A-ms98-a-0013	A.15	73.670000	74.131000		Right	right
sw2835A-ms98-a-0013	A.17	74.131000	74.953375		[silence]	[silence]
sw2835A-ms98-a-0014	A.17	74.953375	75.673375		[silence]	[silence]
sw2835A-ms98-a-0014	A.17	75.673375	75.783375		Yeah	yeah
sw2835A-ms98-a-0014	A.17	75.783375	76.183375		thirty	thirty
sw2835A-ms98-a-0014	A.17	76.183375	76.443375		years	years
sw2835A-ms98-a-0014	A.17	76.443375	77.009625		ago	ago
sw2835A-ms98-a-0014	A.17	77.009625	77.367375		I	i
sw2835A-ms98-a-0014	A.17	77.367375	77.546875		I	i
sw2835A-ms98-a-0014	A.17	77.546875	77.855750		had	had
sw2835A-ms98-a-0014	A.17	77.855750	77.980125		a	a
sw2835A-ms98-a-0014	A.17	77.980125	78.085625		[silence]	[silence]
sw2835A-ms98-a-0014	A.17	78.085625	78.699000		college	college
sw2835A-ms98-a-0014	A.17	78.699000	79.282750		job	job
sw2835A-ms98-a-0014	A.17	79.282750	79.719625		uh	uh
sw2835A-ms98-a-0014	A.17	79.719625	80.036000		[silence]	[silence]
sw2835A-ms98-a-0014	A.17	80.036000	80.383375		working	working
sw2835A-ms98-a-0014	A.17	80.383375	80.573375		as	as
sw2835A-ms98-a-0014	A.17	80.573375	80.623375		a	a
sw2835A-ms98-a-0014	A.17	80.623375	81.373375		programmer	programmer
sw2835A-ms98-a-0014	A.17	81.373375	81.757125		[silence]	[silence]
sw2835A-ms98-a-0015	A.17	81.757125	81.827125		[silence]	[silence]
sw2835A-ms98-a-0015	A.17	81.827125	82.367125		and	and
sw2835A-ms98-a-0015	A.17	82.367125	82.547125		we	we
sw2835A-ms98-a-0015	A.17	82.547125	82.747125		had	had
sw2835A-ms98-a-0015	A.17	82.747125	82.887125		to	to
sw2835A-ms98-a-0015	A.17	82.887125	83.172625		write	write
sw2835A-ms98-a-0015	A.17	83.172625	83.278000		[silence]	[silence]
sw2835A-ms98-a-0015	A.17	83.278000	83.777125		code	code
sw2835A-ms98-a-0015	A.17	83.777125	84.207125		in	in
sw2835A-ms98-a-0015	A.17	84.207125	85.022500		binary	binary
sw2835A-ms98-a-0015	A.17	85.022500	85.176875		[silence]	[silence]
sw2835A-ms98-a-0015	A.17	85.176875	85.944000		and	and
sw2835A-ms98-a-0015	A.17	85.944000	86.446000		uh	uh
sw2835A-ms98-a-0015	A.17	86.446000	87.052375		[vocalized-noise]	[vocalized-noise]
sw2835A-ms98-a-0015	A.17	87.052375	87.307125		have	have
sw2835A-ms98-a-0015	A.17	87.307125	87.437125		it	it
sw2835A-ms98-a-0015	A.17	87.437125	87.827125		punched	punched
sw2835A-ms98-a-0015	A.17	87.827125	88.097125		in	in
sw2835A-ms98-a-0015	A.17	88.097125	88.317125		on	on
sw2835A-ms98-a-0015	A.17	88.317125	88.547125		those	those
sw2835A-ms98-a-0015	A.17	88.547125	88.787125		little	little
sw2835A-ms98-a-0015	A.17	88.787125	89.502500		cardboard	cardboard
sw2835A-ms98-a-0015	A.17	89.502500	89.668125		[silence]	[silence]
sw2835A-ms98-a-0015	A.17	89.668125	90.262000		cards	[laughter-cards]
sw2835A-ms98-a-0015	A.17	90.262000	90.850125		[silence]	[silence]
sw2835A-ms98-a-0015	A.17	90.850125	91.132625		which	[laughter-which]
sw2835A-ms98-a-0015	A.19	91.132625	91.295000		I	[laughter-i]
sw2835A-ms98-a-0015	A.19	91.295000	91.507125		don't	[laughter-don't]
sw2835A-ms98-a-0015	A.19	91.507125	91.697125		think	think
sw2835A-ms98-a-0015	A.19	91.697125	92.227125	<SUB>	exists	exist
sw2835A-ms98-a-0015	A.19	92.227125	92.668125		anymore	anymore
sw2835A-ms98-a-0015	A.21	92.668125	93.082375		[silence]	[silence]
sw2835A-ms98-a-0015	A.21	93.082375	93.197125		You	you
sw2835A-ms98-a-0015	A.21	93.197125	93.547125		never	never
sw2835A-ms98-a-0015	A.21	93.547125	93.787125		see	see
sw2835A-ms98-a-0015	A.21	93.787125	93.957125		one	one
sw2835A-ms98-a-0015	A.21	93.957125	94.027125		of	of
sw2835A-ms98-a-0015	A.21	94.027125	94.217125		those	those
sw2835A-ms98-a-0015	A.21	94.217125	94.577125		punch	punch
sw2835A-ms98-a-0015	A.21	94.577125	94.877125		cards	cards
sw2835A-ms98-a-0015	A.21	94.877125	95.337125		anymore	anymore
sw2835A-ms98-a-0015	A.23	95.337125	95.668750		[silence]	[silence]
sw2835A-ms98-a-0016	A.23	95.668750	102.635750		[silence]	[silence]
sw2835A-ms98-a-0017	A.23	102.635750	102.935750		[silence]	[silence]
sw2835A-ms98-a-0017	A.23	102.935750	103.390375		Well	well
sw2835A-ms98-a-0017	A.23	103.390375	103.665750		very	very
sw2835A-ms98-a-0017	A.23	103.665750	104.345750		possibly	possibly
sw2835A-ms98-a-0017	A.23	104.345750	105.005750		Uh	uh
sw2835A-ms98-a-0017	A.23	105.005750	105.225750		I'm	i'm
sw2835A-ms98-a-0017	A.23	105.225750	105.461375		not	not
sw2835A-ms98-a-0017	A.23	105.461375	105.992375		sure	sure
sw2835A-ms98-a-0017	A.23	105.992375	106.225750		in	in
sw2835A-ms98-a-0017	A.23	106.225750	106.345750		the	the
sw2835A-ms98-a-0017	A.23	106.345750	106.725750		last	last
sw2835A-ms98-a-0017	A.23	106.725750	106.985750		ten	ten
sw2835A-ms98-a-0017	A.23	106.985750	107.335750		years	years
sw2835A-ms98-a-0017	A.23	107.335750	107.605750		it's	it's
sw2835A-ms98-a-0017	A.23	107.605750	107.865750		been	been
sw2835A-ms98-a-0017	A.23	107.865750	108.195750		very	very
sw2835A-ms98-a-0017	A.23	108.195750	108.665750		different	different
sw2835A-ms98-a-0017	A.23	108.665750	109.175750		from	from
sw2835A-ms98-a-0017	A.23	109.175750	110.005750		before	before
sw2835A-ms98-a-0017	A.23	110.005750	110.371875		Uh	uh
sw2835A-ms98-a-0017	A.23	110.371875	110.615500		[silence]	[silence]
sw2835A-ms98-a-0018	A.23	110.615500	110.765500		[silence]	[silence]
sw2835A-ms98-a-0018	A.23	110.765500	111.305500		certainly	certainly
sw2835A-ms98-a-0018	A.23	111.305500	111.435500		in	in
sw2835A-ms98-a-0018	A.23	111.435500	111.546375		the	the
sw2835A-ms98-a-0018	A.23	111.546375	111.938000		last	last
sw2835A-ms98-a-0018	A.23	111.938000	112.405500		thirty	thirty
sw2835A-ms98-a-0018	A.23	112.405500	112.505500		I	i
sw2835A-ms98-a-0018	A.23	112.505500	112.675500		would	would
sw2835A-ms98-a-0018	A.23	112.675500	112.925500		say	say
sw2835A-ms98-a-0018	A.23	112.925500	113.035500		there	there
sw2835A-ms98-a-0018	A.23	113.035500	113.165500		have	have
sw2835A-ms98-a-0018	A.23	113.165500	113.425500		been	been
sw2835A-ms98-a-0018	A.23	113.425500	114.165500		significant	significant
sw2835A-ms98-a-0018	A.23	114.165500	114.635500		changes	changes
sw2835A-ms98-a-0018	A.23	114.635500	115.098125		Even	even
sw2835A-ms98-a-0018	A.23	115.098125	115.326250		[silence]	[silence]
sw2835A-ms98-a-0018	A.23	115.326250	115.714125		even	even
sw2835A-ms98-a-0018	A.23	115.714125	115.885500		the	the
sw2835A-ms98-a-0018	A.23	115.885500	116.075500		change	change
sw2835A-ms98-a-0018	A.23	116.075500	116.345500		from	from
sw2835A-ms98-a-0018	A.23	116.345500	116.615500		black	black
sw2835A-ms98-a-0018	A.23	116.615500	116.724000		and	and
sw2835A-ms98-a-0018	A.23	116.724000	117.013125		white	white
sw2835A-ms98-a-0018	A.23	117.013125	117.099750		to	to
sw2835A-ms98-a-0018	A.23	117.099750	117.385500		color	color
sw2835A-ms98-a-0018	A.23	117.385500	118.095625		television	television
sw2835A-ms98-a-0018	A.25	118.095625	118.536250		[silence]	[silence]
sw2835A-ms98-a-0018	A.25	118.536250	118.825500		Thirty	thirty
sw2835A-ms98-a-0018	A.25	118.825500	119.085500		years	years
sw2835A-ms98-a-0018	A.25	119.085500	119.558000		ago	ago
sw2835A-ms98-a-0018	A.25	119.558000	119.893250		[silence]	[silence]
sw2835A-ms98-a-0018	A.25	119.893250	119.955500		I	i
sw2835A-ms98-a-0018	A.25	119.955500	120.205500		guess	guess
sw2835A-ms98-a-0018	A.25	120.205500	120.365500		there	there
sw2835A-ms98-a-0018	A.25	120.365500	120.625500		were	were
sw2835A-ms98-a-0018	A.25	120.625500	121.015500		color	color
sw2835A-ms98-a-0018	A.25	121.015500	121.535500	<CONT>	T	TVs
sw2835A-ms98-a-0018	A.25	121.535500	121.535500	<CONT>	V	+++
sw2835A-ms98-a-0018	A.25	121.535500	121.535500	<CONT>	-s	+++
sw2835A-ms98-a-0018	A.25	121.535500	121.785500		but	but
sw2835A-ms98-a-0018	A.25	121.785500	121.975500		I	i
sw2835A-ms98-a-0018	A.25	121.975500	122.165500		sure	sure
sw2835A-ms98-a-0018	A.25	122.165500	122.405500		didn't	didn't
sw2835A-ms98-a-0018	A.25	122.405500	122.665500		have	have
sw2835A-ms98-a-0018	A.25	122.665500	123.165500		access	access
sw2835A-ms98-a-0018	A.25	123.165500	123.345500		to	to
sw2835A-ms98-a-0018	A.25	123.345500	123.695500		one	one
sw2835A-ms98-a-0018	A.27	123.695500	123.937875		[silence]	[silence]
sw2835A-ms98-a-0019	A.27	123.937875	125.019000		[silence]	[silence]
sw2835A-ms98-a-0020	A.27	125.019000	125.339000		[silence]	[silence]
sw2835A-ms98-a-0020	A.27	125.339000	125.849000		And	and
sw2835A-ms98-a-0020	A.27	125.849000	126.196750		uh	uh
sw2835A-ms98-a-0020	A.27	126.196750	126.550875	<DEL>	---	uh
sw2835A-ms98-a-0020	A.27	126.550875	126.669000	<SUB>	but	by
sw2835A-ms98-a-0020	A.27	126.669000	127.049000		twenty	twenty
sw2835A-ms98-a-0020	A.27	127.049000	127.289000		years	years
sw2835A-ms98-a-0020	A.27	127.289000	127.759000		ago	ago
sw2835A-ms98-a-0020	A.27	127.759000	128.239000		practically	practically
sw2835A-ms98-a-0020	A.27	128.239000	128.739000		everybody	everybody
sw2835A-ms98-a-0020	A.27	128.739000	128.889000		had	had
sw2835A-ms98-a-0020	A.27	128.889000	128.929000		a	a
sw2835A-ms98-a-0020	A.27	128.929000	129.229000		color	color
sw2835A-ms98-a-0020	A.27	129.229000	129.639000	<CONT>	T	TV
sw2835A-ms98-a-0020	A.27	129.639000	129.639000	<CONT>	V	+++
sw2835A-ms98-a-0020	A.27	129.639000	129.749000		and	and
sw2835A-ms98-a-0020	A.27	129.749000	129.939000		now	now
sw2835A-ms98-a-0020	A.27	129.939000	130.039000		I	i
sw2835A-ms98-a-0020	A.27	130.039000	130.329000		think	think
sw2835A-ms98-a-0020	A.27	130.329000	130.719000		they're	they're
sw2835A-ms98-a-0020	A.27	130.719000	131.020375		as	as
sw2835A-ms98-a-0020	A.27	131.020375	131.314125		[silence]	[silence]
sw2835A-ms98-a-0020	A.27	131.314125	131.799000		almost	almost
sw2835A-ms98-a-0020	A.27	131.799000	131.949000		as	as
sw2835A-ms98-a-0020	A.27	131.949000	132.395250		many	many
sw2835A-ms98-a-0020	A.27	132.395250	132.756750		[silence]	[silence]
sw2835A-ms98-a-0020	A.27	132.756750	132.879000		well	well
sw2835A-ms98-a-0020	A.27	132.879000	132.979000		there	there
sw2835A-ms98-a-0020	A.27	132.979000	133.039000		are	are
sw2835A-ms98-a-0020	A.27	133.039000	133.149000		more	more
sw2835A-ms98-a-0020	A.27	133.149000	133.679000	<CONT>	T	TVs
sw2835A-ms98-a-0020	A.27	133.679000	133.679000	<CONT>	V	+++
sw2835A-ms98-a-0020	A.27	133.679000	133.679000	<CONT>	-s	+++
sw2835A-ms98-a-0020	A.27	133.679000	133.859000		than	than
sw2835A-ms98-a-0020	A.27	133.859000	134.578000		households	households
sw2835A-ms98-a-0020	A.27	134.578000	134.741625		[silence]	[silence]
sw2835A-ms98-a-0020	A.27	134.741625	135.109000		so	so
sw2835A-ms98-a-0020	A.29	135.109000	135.338875		[silence]	[silence]
sw2835A-ms98-a-0021	A.29	135.338875	135.635125		[silence]	[silence]
sw2835A-ms98-a-0021	A.29	135.635125	135.898875		it's	it's
sw2835A-ms98-a-0021	A.29	135.898875	136.328875		close	close
sw2835A-ms98-a-0021	A.29	136.328875	136.478875		to	to
sw2835A-ms98-a-0021	A.29	136.478875	137.088875		getting	getting
sw2835A-ms98-a-0021	A.29	137.088875	137.458875		uh	uh
sw2835A-ms98-a-0021	A.29	137.458875	137.698875		one	one
sw2835A-ms98-a-0021	A.29	137.698875	138.078875	<CONT>	T	TV
sw2835A-ms98-a-0021	A.29	138.078875	138.078875	<CONT>	V	+++
sw2835A-ms98-a-0021	A.29	138.078875	138.288875		per	per
sw2835A-ms98-a-0021	A.29	138.288875	138.928875		person	person
sw2835A-ms98-a-0021	A.29	138.928875	139.048875		they	they
sw2835A-ms98-a-0021	A.29	139.048875	139.818500		say	[laughter-say]
sw2835A-ms98-a-0021	A.31	139.818500	140.140000		[silence]	[silence]
sw2835A-ms98-a-0022	A.31	140.140000	144.909250		[silence]	[silence]
sw2835A-ms98-a-0023	A.31	144.909250	145.319250		[silence]	[silence]
sw2835A-ms98-a-0023	A.31	145.319250	145.864500	<SUB>	Uh-huh	um-hum
sw2835A-ms98-a-0023	A.33	145.864500	146.515000		[silence]	[silence]
sw2835A-ms98-a-0024	A.33	146.515000	147.195000		[silence]	[silence]
sw2835A-ms98-a-0024	A.33	147.195000	147.565000		Yeah	yeah
sw2835A-ms98-a-0024	A.33	147.565000	148.015000		Certainly	certainly
sw2835A-ms98-a-0024	A.33	148.015000	148.305000		ten	ten
sw2835A-ms98-a-0024	A.33	148.305000	148.615000		years	years
sw2835A-ms98-a-0024	A.33	148.615000	149.125000		ago	ago
sw2835A-ms98-a-0024	A.33	149.125000	149.415000		uh	uh
sw2835A-ms98-a-0024	A.33	149.415000	150.135000	<CONT>	V	VCRs
sw2835A-ms98-a-0024	A.33	150.135000	150.135000	<CONT>	C	+++
sw2835A-ms98-a-0024	A.33	150.135000	150.135000	<CONT>	R	+++
sw2835A-ms98-a-0024	A.33	150.135000	150.135000	<CONT>	-s	+++
sw2835A-ms98-a-0024	A.33	150.135000	150.235000		were	were
sw2835A-ms98-a-0024	A.33	150.235000	150.545000		just	just
sw2835A-ms98-a-0024	A.33	150.545000	150.935000		coming	coming
sw2835A-ms98-a-0024	A.33	150.935000	151.075000		on	on
sw2835A-ms98-a-0024	A.33	151.075000	151.135000		the	the
sw2835A-ms98-a-0024	A.33	151.135000	151.645000		market	market
sw2835A-ms98-a-0024	A.33	151.645000	152.145000		so	so
sw2835A-ms98-a-0024	A.33	152.145000	152.485000		that's	that's
sw2835A-ms98-a-0024	A.33	152.485000	152.755000		made	made
sw2835A-ms98-a-0024	A.33	152.755000	152.805000		a	a
sw2835A-ms98-a-0024	A.33	152.805000	153.515000		significant	significant
sw2835A-ms98-a-0024	A.33	153.515000	153.905000		difference	difference
sw2835A-ms98-a-0024	A.33	153.905000	154.005000		in	in
sw2835A-ms98-a-0024	A.33	154.005000	154.125000		the	the
sw2835A-ms98-a-0024	A.33	154.125000	154.415000		way	way
sw2835A-ms98-a-0024	A.33	154.415000	154.535000		I	i
sw2835A-ms98-a-0024	A.33	154.535000	154.855000		watch	watch
sw2835A-ms98-a-0024	A.33	154.855000	155.415000		television	television
sw2835A-ms98-a-0024	A.33	155.415000	155.605000		for	for
sw2835A-ms98-a-0024	A.33	155.605000	156.085000		instance	instance
sw2835A-ms98-a-0024	A.33	156.085000	156.563750		because	because
sw2835A-ms98-a-0024	A.33	156.563750	157.042125		[silence]	[silence]
sw2835A-ms98-a-0024	A.33	157.042125	157.435000		uh	uh
sw2835A-ms98-a-0024	A.33	157.435000	157.955000		now	now
sw2835A-ms98-a-0024	A.33	157.955000	158.103500		[silence]	[silence]
sw2835A-ms98-a-0025	A.33	158.103500	158.278375		[silence]	[silence]
sw2835A-ms98-a-0025	A.33	158.278375	158.673500		I	i
sw2835A-ms98-a-0025	A.33	158.673500	159.103500		almost	almost
sw2835A-ms98-a-0025	A.33	159.103500	159.403500		never	never
sw2835A-ms98-a-0025	A.33	159.403500	159.733500		watch	watch
sw2835A-ms98-a-0025	A.33	159.733500	159.783500		a	a
sw2835A-ms98-a-0025	A.33	159.783500	160.133500	<CONT>	T	TV
sw2835A-ms98-a-0025	A.33	160.133500	160.133500	<CONT>	V	+++
sw2835A-ms98-a-0025	A.33	160.133500	160.743500		program	program
sw2835A-ms98-a-0025	A.33	160.743500	160.963500		when	when
sw2835A-ms98-a-0025	A.33	160.963500	161.153500		it's	it's
sw2835A-ms98-a-0025	A.33	161.153500	161.528875		on	on
sw2835A-ms98-a-0025	A.35	161.528875	161.937125		[silence]	[silence]
sw2835A-ms98-a-0026	A.35	161.937125	162.388500		[silence]	[silence]
sw2835A-ms98-a-0026	A.35	162.388500	162.622500		I	i
sw2835A-ms98-a-0026	A.35	162.622500	162.719875		[silence]	[silence]
sw2835A-ms98-a-0026	A.35	162.719875	163.017125		tape	tape
sw2835A-ms98-a-0026	A.35	163.017125	163.267125		it	it
sw2835A-ms98-a-0026	A.35	163.267125	163.417125		and	and
sw2835A-ms98-a-0026	A.35	163.417125	163.617125		then	then
sw2835A-ms98-a-0026	A.35	163.617125	163.907125		watch	watch
sw2835A-ms98-a-0026	A.35	163.907125	164.097125		it	it
sw2835A-ms98-a-0026	A.35	164.097125	164.257125		when	when
sw2835A-ms98-a-0026	A.35	164.257125	164.407125		it's	it's
sw2835A-ms98-a-0026	A.35	164.407125	165.157125		convenient	convenient
sw2835A-ms98-a-0026	A.35	165.157125	165.417125		[silence]	[silence]
sw2835A-ms98-a-0026	A.35	165.417125	165.997125		and	and
sw2835A-ms98-a-0026	A.35	165.997125	166.227125		that	that
sw2835A-ms98-a-0026	A.35	166.227125	166.607125		way	way
sw2835A-ms98-a-0026	A.35	166.607125	166.737125		I	i
sw2835A-ms98-a-0026	A.35	166.737125	166.967125		don't	don't
sw2835A-ms98-a-0026	A.35	166.967125	167.067125		have	have
sw2835A-ms98-a-0026	A.35	167.067125	167.207125		to	to
sw2835A-ms98-a-0026	A.35	167.207125	167.477125		worry	worry
sw2835A-ms98-a-0026	A.35	167.477125	167.797125		about	about
sw2835A-ms98-a-0026	A.35	167.797125	168.085000		being	being
sw2835A-ms98-a-0026	A.35	168.085000	168.736625		interrupted	interrupted
sw2835A-ms98-a-0026	A.35	168.736625	168.889750		I	i
sw2835A-ms98-a-0026	A.35	168.889750	169.081750		can	can
sw2835A-ms98-a-0026	A.35	169.081750	169.327125		just	just
sw2835A-ms98-a-0026	A.35	169.327125	169.517125		put	[laughter-put]
sw2835A-ms98-a-0026	A.35	169.517125	169.660875		it	[laughter-it]
sw2835A-ms98-a-0026	A.35	169.660875	169.890625		on	[laughter-on]
sw2835A-ms98-a-0026	A.35	169.890625	170.610750		pause	[laughter-pause]
sw2835A-ms98-a-0026	A.37	170.610750	170.802000		[silence]	[silence]
sw2835A-ms98-a-0027	A.37	170.802000	174.396375		[silence]	[silence]
sw2835A-ms98-a-0028	A.37	174.396375	174.896375		[silence]	[silence]
sw2835A-ms98-a-0028	A.37	174.896375	175.494625		Right	right
sw2835A-ms98-a-0028	A.39	175.494625	175.996500		[silence]	[silence]
sw2835A-ms98-a-0028	A.39	175.996500	176.293875	<DEL>	---	yeah
sw2835A-ms98-a-0028	A.39	176.293875	176.661250		[silence]	[silence]
sw2835A-ms98-a-0029	A.39	176.661250	177.670125		[silence]	[silence]
sw2835A-ms98-a-0030	A.39	177.670125	177.960125		[silence]	[silence]
sw2835A-ms98-a-0030	A.39	177.960125	178.498750	<SUB>	Uh-huh	um-hum
sw2835A-ms98-a-0030	A.39	178.498750	178.906000		[silence]	[silence]
sw2835A-ms98-a-0031	A.39	178.906000	179.260750		[silence]	[silence]
sw2835A-ms98-a-0031	A.39	179.260750	179.516000		Yes	yes
sw2835A-ms98-a-0031	A.39	179.516000	179.626000		you	you
sw2835A-ms98-a-0031	A.39	179.626000	179.806000		can	can
sw2835A-ms98-a-0031	A.39	179.806000	180.086000		watch	watch
sw2835A-ms98-a-0031	A.39	180.086000	180.176000		a	a
sw2835A-ms98-a-0031	A.39	180.176000	180.686000		program	program
sw2835A-ms98-a-0031	A.39	180.686000	180.786000		in	in
sw2835A-ms98-a-0031	A.39	180.786000	181.076000	<CONT>	forty-five	forty
sw2835A-ms98-a-0031	A.39	181.076000	181.346000	<CONT>	+++	five
sw2835A-ms98-a-0031	A.39	181.346000	181.706000		minutes	minutes
sw2835A-ms98-a-0031	A.39	181.706000	182.086000		instead	[laughter-instead]
sw2835A-ms98-a-0031	A.39	182.086000	182.236000		of	[laughter-of]
sw2835A-ms98-a-0031	A.39	182.236000	182.356000		an	[laughter-an]
sw2835A-ms98-a-0031	A.39	182.356000	182.824875		hour	[laughter-hour]
sw2835A-ms98-a-0031	A.39	182.824875	183.547250		[silence]	[silence]
sw2835A-ms98-a-0032	A.39	183.547250	184.283500		[silence]	[silence]
sw2835A-ms98-a-0032	A.39	184.283500	184.437250		You	you
sw2835A-ms98-a-0032	A.39	184.437250	184.717250		skip	skip
sw2835A-ms98-a-0032	A.39	184.717250	184.787250		the	the
sw2835A-ms98-a-0032	A.39	184.787250	185.329125		commercials	commercials
sw2835A-ms98-a-0032	A.41	185.329125	185.516125		[silence]	[silence]
sw2835A-ms98-a-0033	A.41	185.516125	191.017500		[silence]	[silence]
sw2835A-ms98-a-0034	A.41	191.017500	191.396250		[silence]	[silence]
sw2835A-ms98-a-0034	A.41	191.396250	191.755125		Wasn't	wasn't
sw2835A-ms98-a-0034	A.41	191.755125	191.886625		the	the
sw2835A-ms98-a-0034	A.41	191.886625	192.364750		decline	decline
sw2835A-ms98-a-0034	A.41	192.364750	192.498125		so	so
sw2835A-ms98-a-0034	A.41	192.498125	192.773750		much	much
sw2835A-ms98-a-0034	A.41	192.773750	192.924375		I	i
sw2835A-ms98-a-0034	A.41	192.924375	193.157500		think	think
sw2835A-ms98-a-0034	A.41	193.157500	193.297500		they	they
sw2835A-ms98-a-0034	A.41	193.297500	193.547500		just	just
sw2835A-ms98-a-0034	A.41	193.547500	193.847500		said	said
sw2835A-ms98-a-0034	A.41	193.847500	194.067500		the	the
sw2835A-ms98-a-0034	A.41	194.067500	194.167500		[silence]	[silence]
sw2835A-ms98-a-0034	A.41	194.167500	194.866875		changes	changes
sw2835A-ms98-a-0034	A.41	194.866875	195.371625		in	in
sw2835A-ms98-a-0034	A.41	195.371625	195.749000		uh	uh
sw2835A-ms98-a-0034	A.41	195.749000	196.127375		[silence]	[silence]
sw2835A-ms98-a-0034	A.41	196.127375	196.847500		social	social
sw2835A-ms98-a-0034	A.41	196.847500	197.297500		social	social
sw2835A-ms98-a-0034	A.41	197.297500	197.827500		changes	changes
sw2835A-ms98-a-0034	A.41	197.827500	197.917500		in	in
sw2835A-ms98-a-0034	A.41	197.917500	197.977500		the	the
sw2835A-ms98-a-0034	A.41	197.977500	198.427500		United	United
sw2835A-ms98-a-0034	A.41	198.427500	199.007625		States	States
sw2835A-ms98-a-0034	A.43	199.007625	199.270125		[silence]	[silence]
sw2835A-ms98-a-0035	A.43	199.270125	199.479500		[silence]	[silence]
sw2835A-ms98-a-0035	A.43	199.479500	199.740125		How	how
sw2835A-ms98-a-0035	A.43	199.740125	199.940125		was	was
sw2835A-ms98-a-0035	A.43	199.940125	200.270125		life	life
sw2835A-ms98-a-0035	A.43	200.270125	200.674250		different	different
sw2835A-ms98-a-0035	A.43	200.674250	200.803625		[silence]	[silence]
sw2835A-ms98-a-0035	A.43	200.803625	201.101125		ten	ten
sw2835A-ms98-a-0035	A.43	201.101125	201.510125		twenty	twenty
sw2835A-ms98-a-0035	A.43	201.510125	201.570125		or	or
sw2835A-ms98-a-0035	A.43	201.570125	201.920125		thirty	thirty
sw2835A-ms98-a-0035	A.43	201.920125	202.240125		years	years
sw2835A-ms98-a-0035	A.43	202.240125	202.488500		ago	ago
sw2835A-ms98-a-0035	A.43	202.488500	203.204250		[silence]	[silence]
sw2835A-ms98-a-0036	A.43	203.204250	203.826125		[silence]	[silence]
sw2835A-ms98-a-0036	A.43	203.826125	204.283875		So	so
sw2835A-ms98-a-0036	A.45	204.283875	204.635000		[silence]	[silence]
sw2835A-ms98-a-0037	A.45	204.635000	205.257875		[silence]	[silence]
sw2835A-ms98-a-0037	A.45	205.257875	205.371125	<DEL>	---	i[t]-
sw2835A-ms98-a-0037	A.45	205.371125	205.887875		[silence]	[silence]
sw2835A-ms98-a-0038	A.45	205.887875	222.798375		[silence]	[silence]
sw2835A-ms98-a-0039	A.45	222.798375	223.318625		[silence]	[silence]
sw2835A-ms98-a-0039	A.45	223.318625	223.954000		Yes	yes
sw2835A-ms98-a-0039	A.47	223.954000	224.227375		[silence]	[silence]
sw2835A-ms98-a-0040	A.47	224.227375	226.523750		[silence]	[silence]
sw2835A-ms98-a-0041	A.47	226.523750	227.051500		[silence]	[silence]
sw2835A-ms98-a-0041	A.47	227.051500	228.158375		[laughter]	[laughter]
sw2835A-ms98-a-0041	A.47	228.158375	229.003750		Yes	[laughter-yes]
sw2835A-ms98-a-0041	A.47	229.003750	229.423250		That's	[laughter-that's]
sw2835A-ms98-a-0041	A.47	229.423250	229.686875		[silence]	[silence]
sw2835A-ms98-a-0041	A.47	229.686875	230.243750		certainly	certainly
sw2835A-ms98-a-0041	A.49	230.243750	230.313750		a	a
sw2835A-ms98-a-0041	A.49	230.313750	230.913750		difference	difference
sw2835A-ms98-a-0041	A.51	230.913750	231.341625		[silence]	[silence]
sw2835A-ms98-a-0042	A.51	231.341625	233.293875		[silence]	[silence]
sw2835A-ms98-a-0043	A.51	233.293875	233.628000		[silence]	[silence]
sw2835A-ms98-a-0043	A.51	233.628000	233.873500		Yeah	yeah
sw2835A-ms98-a-0043	A.51	233.873500	234.215000		that's	that's
sw2835A-ms98-a-0043	A.51	234.215000	234.538125		another	another
sw2835A-ms98-a-0043	A.51	234.538125	234.712750		one	one
sw2835A-ms98-a-0043	A.51	234.712750	234.922750		yeah	yeah
sw2835A-ms98-a-0043	A.51	234.922750	235.163750		car	car
sw2835A-ms98-a-0043	A.51	235.163750	235.563875		phones	phones
sw2835A-ms98-a-0043	A.51	235.563875	235.743875		is	is
sw2835A-ms98-a-0043	A.51	235.743875	235.823875		a	a
sw2835A-ms98-a-0043	A.51	235.823875	236.043625		good	good
sw2835A-ms98-a-0043	A.51	236.043625	236.151000		[silence]	[silence]
sw2835A-ms98-a-0043	A.51	236.151000	236.493875		point	point
sw2835A-ms98-a-0043	A.51	236.493875	236.842875		and	and
sw2835A-ms98-a-0043	A.51	236.842875	236.963375		[silence]	[silence]
sw2835A-ms98-a-0043	A.51	236.963375	237.453875		uh	uh
sw2835A-ms98-a-0043	A.51	237.453875	238.003875		cellular	cellular
sw2835A-ms98-a-0043	A.51	238.003875	238.373875		phones	phones
sw2835A-ms98-a-0043	A.51	238.373875	238.503875		of	of
sw2835A-ms98-a-0043	A.51	238.503875	238.703875		all	all
sw2835A-ms98-a-0043	A.51	238.703875	239.193875		types	types
sw2835A-ms98-a-0043	A.51	239.193875	239.373875		and	and
sw2835A-ms98-a-0043	A.51	239.373875	239.914750		beepers	beepers
sw2835A-ms98-a-0043	A.51	239.914750	240.355500		[silence]	[silence]
sw2835A-ms98-a-0043	A.51	240.355500	240.888000		Uh	uh
sw2835A-ms98-a-0043	A.53	240.888000	241.046250		[silence]	[silence]
sw2835A-ms98-a-0043	A.53	241.046250	241.283875		ten	ten
sw2835A-ms98-a-0043	A.53	241.283875	241.543875		years	years
sw2835A-ms98-a-0043	A.53	241.543875	241.903875		ago	ago
sw2835A-ms98-a-0043	A.53	241.903875	242.063875		I	i
sw2835A-ms98-a-0043	A.53	242.063875	242.273875		was	was
sw2835A-ms98-a-0043	A.53	242.273875	242.743875		working	working
sw2835A-ms98-a-0043	A.53	242.743875	243.106625		in	in
sw2835A-ms98-a-0043	A.53	243.106625	243.249750		a	a
sw2835A-ms98-a-0043	A.53	243.249750	243.593875		job	job
sw2835A-ms98-a-0043	A.53	243.593875	243.693875		at	at
sw2835A-ms98-a-0043	A.53	243.693875	243.723875		a	a
sw2835A-ms98-a-0043	A.53	243.723875	244.123875		medical	medical
sw2835A-ms98-a-0043	A.53	244.123875	244.503875		center	center
sw2835A-ms98-a-0043	A.53	244.503875	244.663875		and	and
sw2835A-ms98-a-0043	A.53	244.663875	244.753875		I	i
sw2835A-ms98-a-0043	A.53	244.753875	244.953875		had	had
sw2835A-ms98-a-0043	A.53	244.953875	245.043875		to	to
sw2835A-ms98-a-0043	A.53	245.043875	245.373875		carry	carry
sw2835A-ms98-a-0043	A.53	245.373875	245.483875		a	a
sw2835A-ms98-a-0043	A.53	245.483875	245.973875		beeper	beeper
sw2835A-ms98-a-0043	A.53	245.973875	246.423875		around	around
sw2835A-ms98-a-0043	A.53	246.423875	246.523875		and	and
sw2835A-ms98-a-0043	A.53	246.523875	246.713875		they	they
sw2835A-ms98-a-0043	A.53	246.713875	246.873875		were	were
sw2835A-ms98-a-0043	A.53	246.873875	247.171625		[silence]	[silence]
sw2835A-ms98-a-0044	A.53	247.171625	247.330125		[silence]	[silence]
sw2835A-ms98-a-0044	A.53	247.330125	247.551625		kind	kind
sw2835A-ms98-a-0044	A.53	247.551625	247.687000		of	of
sw2835A-ms98-a-0044	A.53	247.687000	247.895000		[silence]	[silence]
sw2835A-ms98-a-0044	A.53	247.895000	248.491625		bulky	bulky
sw2835A-ms98-a-0044	A.53	248.491625	248.799375		and	and
sw2835A-ms98-a-0044	A.53	248.799375	248.950125		[silence]	[silence]
sw2835A-ms98-a-0044	A.53	248.950125	249.191625		all	all
sw2835A-ms98-a-0044	A.53	249.191625	249.371625		they	they
sw2835A-ms98-a-0044	A.53	249.371625	249.711625		did	did
sw2835A-ms98-a-0044	A.53	249.711625	250.064875		was	was
sw2835A-ms98-a-0044	A.53	250.064875	250.580875		[silence]	[silence]
sw2835A-ms98-a-0044	A.53	250.580875	250.971625		just	just
sw2835A-ms98-a-0044	A.53	250.971625	251.201625		uh	uh
sw2835A-ms98-a-0044	A.53	251.201625	251.511625		make	make
sw2835A-ms98-a-0044	A.53	251.511625	251.601625		a	a
sw2835A-ms98-a-0044	A.53	251.601625	251.901625		beep	beep
sw2835A-ms98-a-0044	A.53	251.901625	252.431625		noise	noise
sw2835A-ms98-a-0044	A.53	252.431625	252.621625		and	and
sw2835A-ms98-a-0044	A.53	252.621625	252.791625		then	then
sw2835A-ms98-a-0044	A.53	252.791625	253.011625		you	you
sw2835A-ms98-a-0044	A.53	253.011625	253.221625		had	had
sw2835A-ms98-a-0044	A.53	253.221625	253.301625		to	to
sw2835A-ms98-a-0044	A.53	253.301625	253.471625		go	go
sw2835A-ms98-a-0044	A.53	253.471625	253.851625		find	find
sw2835A-ms98-a-0044	A.53	253.851625	253.891625		a	a
sw2835A-ms98-a-0044	A.53	253.891625	254.531625		telephone	telephone
sw2835A-ms98-a-0044	A.53	254.531625	254.731625		and	and
sw2835A-ms98-a-0044	A.53	254.731625	255.111625		call	call
sw2835A-ms98-a-0044	A.53	255.111625	255.361625		in	in
sw2835A-ms98-a-0044	A.53	255.361625	255.441625		to	to
sw2835A-ms98-a-0044	A.53	255.441625	255.811625		find	find
sw2835A-ms98-a-0044	A.53	255.811625	255.971625		out	out
sw2835A-ms98-a-0044	A.53	255.971625	256.341625		[silence]	[silence]
sw2835A-ms98-a-0044	A.53	256.341625	256.551625		what	what
sw2835A-ms98-a-0044	A.53	256.551625	256.661625		they	they
sw2835A-ms98-a-0044	A.53	256.661625	257.011625		wanted	wanted
sw2835A-ms98-a-0044	A.53	257.011625	257.141625		you	you
sw2835A-ms98-a-0044	A.53	257.141625	257.431625		for	for
sw2835A-ms98-a-0044	A.53	257.431625	257.592875		and	and
sw2835A-ms98-a-0044	A.53	257.592875	257.822625		[silence]	[silence]
sw2835A-ms98-a-0044	A.53	257.822625	257.931625		who	who
sw2835A-ms98-a-0044	A.53	257.931625	258.101625		you	you
sw2835A-ms98-a-0044	A.53	258.101625	258.181625		were	were
sw2835A-ms98-a-0044	A.53	258.181625	258.501625		supposed	supposed
sw2835A-ms98-a-0044	A.53	258.501625	258.561625		to	to
sw2835A-ms98-a-0044	A.53	258.561625	258.971625		call	call
sw2835A-ms98-a-0044	A.55	258.971625	259.347000		[silence]	[silence]
sw2835A-ms98-a-0045	A.55	259.347000	259.867000		[silence]	[silence]
sw2835A-ms98-a-0045	A.55	259.867000	260.127000		These	these
sw2835A-ms98-a-0045	A.55	260.127000	260.397000		days	days
sw2835A-ms98-a-0045	A.55	260.397000	260.537000		they	they
sw2835A-ms98-a-0045	A.55	260.537000	260.717000		have	have
sw2835A-ms98-a-0045	A.55	260.717000	260.887000		these	these
sw2835A-ms98-a-0045	A.55	260.887000	261.307000		tiny	tiny
sw2835A-ms98-a-0045	A.55	261.307000	261.517000		little	little
sw2835A-ms98-a-0045	A.55	261.517000	261.847000		things	things
sw2835A-ms98-a-0045	A.55	261.847000	262.007000		that	that
sw2835A-ms98-a-0045	A.55	262.007000	262.144000		are	are
sw2835A-ms98-a-0045	A.55	262.144000	262.622375		[silence]	[silence]
sw2835A-ms98-a-0045	A.55	262.622375	263.114375		only	only
sw2835A-ms98-a-0045	A.55	263.114375	263.442125		[silence]	[silence]
sw2835A-ms98-a-0045	A.55	263.442125	263.847000		about	about
sw2835A-ms98-a-0045	A.55	263.847000	263.927000		the	the
sw2835A-ms98-a-0045	A.55	263.927000	264.292250		size	size
sw2835A-ms98-a-0045	A.55	264.292250	264.446625		of	of
sw2835A-ms98-a-0045	A.55	264.446625	264.547000		two	two
sw2835A-ms98-a-0045	A.55	264.547000	264.637000		or	or
sw2835A-ms98-a-0045	A.55	264.637000	264.897000		three	three
sw2835A-ms98-a-0045	A.55	264.897000	265.531875		pencils	pencils
sw2835A-ms98-a-0045	A.55	265.531875	265.699125		[silence]	[silence]
sw2835A-ms98-a-0046	A.55	265.699125	265.999125		[silence]	[silence]
sw2835A-ms98-a-0046	A.55	265.999125	266.309125		and	and
sw2835A-ms98-a-0046	A.55	266.309125	266.419125		they	they
sw2835A-ms98-a-0046	A.55	266.419125	266.659125		fit	fit
sw2835A-ms98-a-0046	A.55	266.659125	266.719125		in	in
sw2835A-ms98-a-0046	A.55	266.719125	266.839125		your	your
sw2835A-ms98-a-0046	A.55	266.839125	267.139125		shirt	shirt
sw2835A-ms98-a-0046	A.55	267.139125	267.579125		pocket	pocket
sw2835A-ms98-a-0046	A.55	267.579125	267.749125		and	and
sw2835A-ms98-a-0046	A.55	267.749125	267.829125		they	they
sw2835A-ms98-a-0046	A.55	267.829125	268.039125		have	have
sw2835A-ms98-a-0046	A.55	268.039125	268.099125		a	a
sw2835A-ms98-a-0046	A.55	268.099125	268.548250		little	little
sw2835A-ms98-a-0046	A.55	268.548250	268.747875		[silence]	[silence]
sw2835A-ms98-a-0046	A.55	268.747875	269.199125		display	display
sw2835A-ms98-a-0046	A.55	269.199125	269.629125		screen	screen
sw2835A-ms98-a-0046	A.55	269.629125	269.789125		that	that
sw2835A-ms98-a-0046	A.55	269.789125	270.199125		shows	shows
sw2835A-ms98-a-0046	A.55	270.199125	270.518125		you	you
sw2835A-ms98-a-0046	A.55	270.518125	270.687625		[silence]	[silence]
sw2835A-ms98-a-0046	A.55	270.687625	270.769125		a	a
sw2835A-ms98-a-0046	A.55	270.769125	271.419125		message	message
sw2835A-ms98-a-0046	A.55	271.419125	271.689125		and	and
sw2835A-ms98-a-0046	A.55	271.689125	271.819125		either	either
sw2835A-ms98-a-0046	A.55	271.819125	272.169125		tells	tells
sw2835A-ms98-a-0046	A.55	272.169125	272.319125		you	you
sw2835A-ms98-a-0046	A.55	272.319125	272.389125		a	a
sw2835A-ms98-a-0046	A.55	272.389125	272.959125		person	person
sw2835A-ms98-a-0046	A.55	272.959125	273.119125		or	or
sw2835A-ms98-a-0046	A.55	273.119125	273.315125		a	a
sw2835A-ms98-a-0046	A.55	273.315125	273.578750		[silence]	[silence]
sw2835A-ms98-a-0046	A.55	273.578750	273.863625		a	a
sw2835A-ms98-a-0046	A.55	273.863625	274.179125		phone	phone
sw2835A-ms98-a-0046	A.55	274.179125	274.479125		number	number
sw2835A-ms98-a-0046	A.55	274.479125	274.699125		to	to
sw2835A-ms98-a-0046	A.55	274.699125	275.319125		respond	respond
sw2835A-ms98-a-0046	A.55	275.319125	275.648500		to	to
sw2835A-ms98-a-0046	A.55	275.648500	275.850875		and	and
sw2835A-ms98-a-0046	A.57	275.850875	276.295500		[silence]	[silence]
sw2835A-ms98-a-0047	A.57	276.295500	276.895500		[silence]	[silence]
sw2835A-ms98-a-0047	A.57	276.895500	277.175500		Yeah	yeah
sw2835A-ms98-a-0047	A.57	277.175500	277.345500		those	those
sw2835A-ms98-a-0047	A.57	277.345500	277.425500		are	are
sw2835A-ms98-a-0047	A.57	277.425500	277.685500		pretty	pretty
sw2835A-ms98-a-0047	A.57	277.685500	278.160375		neat	neat
sw2835A-ms98-a-0047	A.57	278.160375	278.559625		[silence]	[silence]
sw2835A-ms98-a-0047	A.57	278.559625	278.725500		And	and
sw2835A-ms98-a-0047	A.57	278.725500	278.835500		they	they
sw2835A-ms98-a-0047	A.57	278.835500	279.035500		have	have
sw2835A-ms98-a-0047	A.57	279.035500	279.105500		the	the
sw2835A-ms98-a-0047	A.57	279.105500	279.495500		kind	kind
sw2835A-ms98-a-0047	A.57	279.495500	279.675500		that	that
sw2835A-ms98-a-0047	A.57	279.675500	279.925500		just	just
sw2835A-ms98-a-0047	A.57	279.925500	280.515500		vibrates	vibrates
sw2835A-ms98-a-0047	A.57	280.515500	280.635500		so	so
sw2835A-ms98-a-0047	A.57	280.635500	280.805500		you	you
sw2835A-ms98-a-0047	A.57	280.805500	281.045500		can	can
sw2835A-ms98-a-0047	A.57	281.045500	281.342000		shut	shut
sw2835A-ms98-a-0047	A.57	281.342000	281.507750		them	them
sw2835A-ms98-a-0047	A.57	281.507750	281.875500		off	off
sw2835A-ms98-a-0047	A.59	281.875500	282.145500		in	in
sw2835A-ms98-a-0047	A.59	282.145500	282.297125		a	a
sw2835A-ms98-a-0047	A.59	282.297125	282.455250		[silence]	[silence]
sw2835A-ms98-a-0047	A.59	282.455250	282.945500		theatre	theatre
sw2835A-ms98-a-0047	A.59	282.945500	283.055500		or	or
sw2835A-ms98-a-0047	A.59	283.055500	283.485500		something	something
sw2835A-ms98-a-0047	A.59	283.485500	283.615500		and	and
sw2835A-ms98-a-0047	A.59	283.615500	283.715500		you	you
sw2835A-ms98-a-0047	A.59	283.715500	283.865500		can	can
sw2835A-ms98-a-0047	A.59	283.865500	284.135500		still	still
sw2835A-ms98-a-0047	A.59	284.135500	284.345500		get	get
sw2835A-ms98-a-0047	A.59	284.345500	284.445500		your	your
sw2835A-ms98-a-0047	A.59	284.445500	285.222750		messages	[laughter-messages]
sw2835A-ms98-a-0047	A.61	285.222750	285.681375		[silence]	[silence]
sw2835A-ms98-a-0048	A.61	285.681375	286.266625		[silence]	[silence]
sw2835A-ms98-a-0048	A.61	286.266625	287.071375		[laughter]	[laughter]
sw2835A-ms98-a-0048	A.61	287.071375	287.191375		But	but
sw2835A-ms98-a-0048	A.61	287.191375	287.381375		let's	let's
sw2835A-ms98-a-0048	A.61	287.381375	287.541375		see	see
sw2835A-ms98-a-0048	A.61	287.541375	288.021375		social	social
sw2835A-ms98-a-0048	A.61	288.021375	288.584000		changes	changes
sw2835A-ms98-a-0048	A.61	288.584000	289.316375		uh	uh
sw2835A-ms98-a-0048	A.61	289.316375	289.316375	<INS>	uh	---
sw2835A-ms98-a-0048	A.63	289.316375	289.598625		[silence]	[silence]
sw2835A-ms98-a-0049	A.63	289.598625	292.530500		[silence]	[silence]
sw2835A-ms98-a-0050	A.63	292.530500	292.860500		[silence]	[silence]
sw2835A-ms98-a-0050	A.63	292.860500	293.010500		I	i
sw2835A-ms98-a-0050	A.63	293.010500	293.370500		haven't	haven't
sw2835A-ms98-a-0050	A.63	293.370500	293.460500		the	the
sw2835A-ms98-a-0050	A.63	293.460500	294.010500		slightest	slightest
sw2835A-ms98-a-0050	A.63	294.010500	294.380500		idea	idea
sw2835A-ms98-a-0050	A.63	294.380500	294.490500		I	i
sw2835A-ms98-a-0050	A.63	294.490500	294.710500		was	was
sw2835A-ms98-a-0050	A.63	294.710500	294.870500		just	just
sw2835A-ms98-a-0050	A.63	294.870500	295.260500		thinking	thinking
sw2835A-ms98-a-0050	A.63	295.260500	295.490500		though	though
sw2835A-ms98-a-0050	A.63	295.490500	295.800500		about	about
sw2835A-ms98-a-0050	A.63	295.800500	296.076625		a	a
sw2835A-ms98-a-0050	A.63	296.076625	296.359125		a	a
sw2835A-ms98-a-0050	A.63	296.359125	296.604125	<DEL>	---	a
sw2835A-ms98-a-0050	A.63	296.604125	297.000500		huge	huge
sw2835A-ms98-a-0050	A.63	297.000500	297.490500		social	social
sw2835A-ms98-a-0050	A.63	297.490500	298.096500		change	change
sw2835A-ms98-a-0050	A.63	298.096500	298.495750		[silence]	[silence]
sw2835A-ms98-a-0050	A.63	298.495750	298.850500		in	in
sw2835A-ms98-a-0050	A.63	298.850500	298.980500		the	the
sw2835A-ms98-a-0050	A.63	298.980500	299.420500		last	last
sw2835A-ms98-a-0050	A.63	299.420500	299.730500		ten	ten
sw2835A-ms98-a-0050	A.63	299.730500	300.200500		years	years
sw2835A-ms98-a-0050	A.63	300.200500	300.635125		is	is
sw2835A-ms98-a-0050	A.63	300.635125	301.299750		AIDS	AIDS
sw2835A-ms98-a-0050	A.65	301.299750	301.419875		[silence]	[silence]
sw2835A-ms98-a-0051	A.65	301.419875	302.441000		[silence]	[silence]
sw2835A-ms98-a-0052	A.65	302.441000	302.722375		[silence]	[silence]
sw2835A-ms98-a-0052	A.65	302.722375	302.881000		It	it
sw2835A-ms98-a-0052	A.65	302.881000	303.113500		was	was
sw2835A-ms98-a-0052	A.65	303.113500	303.243375		[silence]	[silence]
sw2835A-ms98-a-0052	A.65	303.243375	303.761000		just	just
sw2835A-ms98-a-0052	A.65	303.761000	304.211000		beginning	beginning
sw2835A-ms98-a-0052	A.65	304.211000	304.351000		to	to
sw2835A-ms98-a-0052	A.65	304.351000	304.701000		be	be
sw2835A-ms98-a-0052	A.65	304.701000	305.601000		recognized	recognized
sw2835A-ms98-a-0052	A.65	305.601000	305.821000		and	and
sw2835A-ms98-a-0052	A.65	305.821000	306.451000		noticed	noticed
sw2835A-ms98-a-0052	A.65	306.451000	306.711000		ten	ten
sw2835A-ms98-a-0052	A.65	306.711000	306.961000		years	years
sw2835A-ms98-a-0052	A.65	306.961000	307.231000		ago	ago
sw2835A-ms98-a-0052	A.65	307.231000	307.521000		I	i
sw2835A-ms98-a-0052	A.65	307.521000	307.651000		I	i
sw2835A-ms98-a-0052	A.65	307.651000	307.911000		know	know
sw2835A-ms98-a-0052	A.65	307.911000	308.161000		that	that
sw2835A-ms98-a-0052	A.65	308.161000	308.541000		because	because
sw2835A-ms98-a-0052	A.65	308.541000	308.681000		I	i
sw2835A-ms98-a-0052	A.65	308.681000	308.911000		was	was
sw2835A-ms98-a-0052	A.65	308.911000	309.341000		writing	writing
sw2835A-ms98-a-0052	A.65	309.341000	309.505875		a	a
sw2835A-ms98-a-0052	A.65	309.505875	309.875000		[silence]	[silence]
sw2835A-ms98-a-0052	A.65	309.875000	309.971000	<DEL>	---	a
sw2835A-ms98-a-0052	A.65	309.971000	310.471000		paper	paper
sw2835A-ms98-a-0052	A.65	310.471000	310.931000		about	about
sw2835A-ms98-a-0052	A.65	310.931000	311.074500		it	it
sw2835A-ms98-a-0052	A.67	311.074500	311.273000		[silence]	[silence]
sw2835A-ms98-a-0053	A.67	311.273000	311.589250		[silence]	[silence]
sw2835A-ms98-a-0053	A.67	311.589250	311.643000		I	i
sw2835A-ms98-a-0053	A.67	311.643000	311.803000		was	was
sw2835A-ms98-a-0053	A.67	311.803000	312.243000		writing	writing
sw2835A-ms98-a-0053	A.67	312.243000	312.469000		a	a
sw2835A-ms98-a-0053	A.67	312.469000	312.924750		[silence]	[silence]
sw2835A-ms98-a-0053	A.67	312.924750	313.073000		a	a
sw2835A-ms98-a-0053	A.67	313.073000	313.483000		journal	journal
sw2835A-ms98-a-0053	A.67	313.483000	314.003000		article	article
sw2835A-ms98-a-0053	A.67	314.003000	314.574625		[silence]	[silence]
sw2835A-ms98-a-0054	A.67	314.574625	314.886000		[silence]	[silence]
sw2835A-ms98-a-0054	A.67	314.886000	315.271625		Uh	uh
sw2835A-ms98-a-0054	A.67	315.271625	315.674625		[silence]	[silence]
sw2835A-ms98-a-0054	A.67	315.674625	315.814625		and	and
sw2835A-ms98-a-0054	A.67	315.814625	315.914625		they	they
sw2835A-ms98-a-0054	A.67	315.914625	316.174625		still	still
sw2835A-ms98-a-0054	A.67	316.174625	316.344625		didn't	didn't
sw2835A-ms98-a-0054	A.67	316.344625	316.494625		even	even
sw2835A-ms98-a-0054	A.67	316.494625	316.654625		know	know
sw2835A-ms98-a-0054	A.67	316.654625	316.844625		what	what
sw2835A-ms98-a-0054	A.67	316.844625	317.304625		caused	caused
sw2835A-ms98-a-0054	A.67	317.304625	317.474625		it	it
sw2835A-ms98-a-0054	A.67	317.474625	317.616000		or	or
sw2835A-ms98-a-0054	A.67	317.616000	318.290250		anything	anything
sw2835A-ms98-a-0054	A.67	318.290250	318.290250	<INS>	And	---
sw2835A-ms98-a-0054	A.67	318.290250	318.767500		uh	uh
sw2835A-ms98-a-0054	A.67	318.767500	319.072625		[silence]	[silence]
sw2835A-ms98-a-0054	A.67	319.072625	319.244625		there	there
sw2835A-ms98-a-0054	A.67	319.244625	319.424625		was	was
sw2835A-ms98-a-0054	A.67	319.424625	319.554625		a	a
sw2835A-ms98-a-0054	A.67	319.554625	320.434625		suspicion	suspicion
sw2835A-ms98-a-0054	A.69	320.434625	320.584625		that	that
sw2835A-ms98-a-0054	A.69	320.584625	320.704625		it	it
sw2835A-ms98-a-0054	A.69	320.704625	320.854625		was	was
sw2835A-ms98-a-0054	A.69	320.854625	320.974625		a	a
sw2835A-ms98-a-0054	A.69	320.974625	321.454625		virus	virus
sw2835A-ms98-a-0054	A.69	321.454625	321.694625		but	but
sw2835A-ms98-a-0054	A.69	321.694625	322.234625		nobody	nobody
sw2835A-ms98-a-0054	A.69	322.234625	322.424625		had	had
sw2835A-ms98-a-0054	A.69	322.424625	323.154625		identified	identified
sw2835A-ms98-a-0054	A.69	323.154625	323.304625		it	it
sw2835A-ms98-a-0054	A.69	323.304625	323.564250		and	and
sw2835A-ms98-a-0054	A.69	323.564250	324.027500		[silence]	[silence]
sw2835A-ms98-a-0054	A.69	324.027500	324.214625		they	they
sw2835A-ms98-a-0054	A.69	324.214625	324.364625		were	were
sw2835A-ms98-a-0054	A.69	324.364625	324.734625		really	really
sw2835A-ms98-a-0054	A.69	324.734625	324.954625		just	just
sw2835A-ms98-a-0054	A.69	324.954625	325.304625		going	going
sw2835A-ms98-a-0054	A.69	325.304625	325.464625		on	on
sw2835A-ms98-a-0054	A.69	325.464625	326.763750		epidemiological	epidemiological
sw2835A-ms98-a-0054	A.69	326.763750	327.066500		[silence]	[silence]
sw2835A-ms98-a-0054	A.69	327.066500	327.462125		uh	uh
sw2835A-ms98-a-0054	A.71	327.462125	328.058000		[silence]	[silence]
sw2835A-ms98-a-0055	A.71	328.058000	328.488000		[silence]	[silence]
sw2835A-ms98-a-0055	A.71	328.488000	328.720875		uh	uh
sw2835A-ms98-a-0055	A.71	328.720875	328.827625		[silence]	[silence]
sw2835A-ms98-a-0055	A.71	328.827625	329.584250		guesswork	guesswork
sw2835A-ms98-a-0055	A.71	329.584250	329.821625		[silence]	[silence]
sw2835A-ms98-a-0055	A.71	329.821625	330.364125		uh	uh
sw2835A-ms98-a-0055	A.71	330.364125	330.959250		[silence]	[silence]
sw2835A-ms98-a-0055	A.71	330.959250	331.438000		because	because
sw2835A-ms98-a-0055	A.71	331.438000	331.518000		the	the
sw2835A-ms98-a-0055	A.71	331.518000	331.728000		way	way
sw2835A-ms98-a-0055	A.71	331.728000	331.818000		it	it
sw2835A-ms98-a-0055	A.71	331.818000	331.948000		was	was
sw2835A-ms98-a-0055	A.71	331.948000	332.868000		transmitted	transmitted
sw2835A-ms98-a-0055	A.71	332.868000	333.088000		made	made
sw2835A-ms98-a-0055	A.71	333.088000	333.258000		it	it
sw2835A-ms98-a-0055	A.71	333.258000	333.738000		look	look
sw2835A-ms98-a-0055	A.71	333.738000	333.918000		an	an
sw2835A-ms98-a-0055	A.71	333.918000	334.338000		awful	awful
sw2835A-ms98-a-0055	A.71	334.338000	334.668000		lot	lot
sw2835A-ms98-a-0055	A.71	334.668000	335.104000		like	like
sw2835A-ms98-a-0055	A.71	335.104000	335.559750		[silence]	[silence]
sw2835A-ms98-a-0055	A.71	335.559750	335.898000		uh	uh
sw2835A-ms98-a-0055	A.71	335.898000	336.828000		hepatitis	hepatitis
sw2835A-ms98-a-0055	A.71	336.828000	336.988000		and	and
sw2835A-ms98-a-0055	A.71	336.988000	337.265000		then	then
sw2835A-ms98-a-0055	A.73	337.265000	337.506375		[silence]	[silence]
sw2835A-ms98-a-0056	A.73	337.506375	337.612000		[silence]	[silence]
sw2835A-ms98-a-0056	A.73	337.612000	337.986375		from	from
sw2835A-ms98-a-0056	A.73	337.986375	338.296375		[silence]	[silence]
sw2835A-ms98-a-0056	A.73	338.296375	338.466375		from	from
sw2835A-ms98-a-0056	A.73	338.466375	338.616375		the	the
sw2835A-ms98-a-0056	A.73	338.616375	338.868750		[silence]	[silence]
sw2835A-ms98-a-0056	A.73	338.868750	339.476375		spread	spread
sw2835A-ms98-a-0056	A.73	339.476375	340.066375		pattern	pattern
sw2835A-ms98-a-0056	A.73	340.066375	340.146375		of	of
sw2835A-ms98-a-0056	A.73	340.146375	340.976375		hepatitis	hepatitis
sw2835A-ms98-a-0056	A.73	340.976375	341.196375		they	they
sw2835A-ms98-a-0056	A.73	341.196375	341.386375		could	could
sw2835A-ms98-a-0056	A.73	341.386375	341.676375		work	work
sw2835A-ms98-a-0056	A.73	341.676375	342.376375		backwards	backwards
sw2835A-ms98-a-0056	A.73	342.376375	342.466375		to	to
sw2835A-ms98-a-0056	A.73	342.466375	342.546375		the	the
sw2835A-ms98-a-0056	A.73	342.546375	343.426375		transmission	transmission
sw2835A-ms98-a-0056	A.73	343.426375	343.824000		by	by
sw2835A-ms98-a-0056	A.73	343.824000	344.095125		[silence]	[silence]
sw2835A-ms98-a-0056	A.73	344.095125	344.470125		uh	uh
sw2835A-ms98-a-0056	A.73	344.470125	344.843000		[silence]	[silence]
sw2835A-ms98-a-0056	A.73	344.843000	345.126375		blood	blood
sw2835A-ms98-a-0056	A.73	345.126375	345.286375		and	and
sw2835A-ms98-a-0056	A.73	345.286375	345.817000		semen	semen
sw2835A-ms98-a-0056	A.73	345.817000	346.479875		[silence]	[silence]
sw2835A-ms98-a-0056	A.73	346.479875	346.666375		And	and
sw2835A-ms98-a-0056	A.73	346.666375	346.906375		then	then
sw2835A-ms98-a-0056	A.73	346.906375	347.025750		I	i
sw2835A-ms98-a-0056	A.75	347.025750	347.384875		[silence]	[silence]
sw2835A-ms98-a-0057	A.75	347.384875	349.091875		[silence]	[silence]
sw2835A-ms98-a-0058	A.75	349.091875	349.468625		[silence]	[silence]
sw2835A-ms98-a-0058	A.75	349.468625	349.741875		Well	well
sw2835A-ms98-a-0058	A.75	349.741875	349.851875		I	i
sw2835A-ms98-a-0058	A.75	349.851875	350.091875	<DEL>	---	was
sw2835A-ms98-a-0058	A.75	350.091875	350.241875		I	i
sw2835A-ms98-a-0058	A.75	350.241875	350.581875		was	was
sw2835A-ms98-a-0058	A.75	350.581875	350.751875		in	in
sw2835A-ms98-a-0058	A.75	350.751875	351.201875		English	English
sw2835A-ms98-a-0058	A.75	351.201875	351.371875		as	as
sw2835A-ms98-a-0058	A.75	351.371875	351.401875		a	a
sw2835A-ms98-a-0058	A.75	351.401875	351.671875		matter	matter
sw2835A-ms98-a-0058	A.75	351.671875	351.751875		of	of
sw2835A-ms98-a-0058	A.75	351.751875	352.211875		fact	fact
sw2835A-ms98-a-0058	A.75	352.211875	352.551875		and	and
sw2835A-ms98-a-0058	A.77	352.551875	353.031875		medieval	medieval
sw2835A-ms98-a-0058	A.77	353.031875	353.583125		studies	studies
sw2835A-ms98-a-0058	A.79	353.583125	353.982250		[silence]	[silence]
sw2835A-ms98-a-0059	A.79	353.982250	354.302250		[silence]	[silence]
sw2835A-ms98-a-0059	A.79	354.302250	354.725750		uh	uh
sw2835A-ms98-a-0059	A.79	354.725750	355.038125		but	but
sw2835A-ms98-a-0059	A.79	355.038125	355.478250		I	i
sw2835A-ms98-a-0059	A.79	355.478250	355.783375		[silence]	[silence]
sw2835A-ms98-a-0059	A.79	355.783375	355.972250		went	went
sw2835A-ms98-a-0059	A.79	355.972250	356.042250		to	to
sw2835A-ms98-a-0059	A.79	356.042250	356.272250		work	work
sw2835A-ms98-a-0059	A.79	356.272250	356.452250		as	as
sw2835A-ms98-a-0059	A.79	356.452250	356.592250		an	an
sw2835A-ms98-a-0059	A.79	356.592250	357.135000		editor	editor
sw2835A-ms98-a-0059	A.79	357.135000	357.312000		[silence]	[silence]
sw2835A-ms98-a-0059	A.79	357.312000	357.689750		and	and
sw2835A-ms98-a-0059	A.79	357.689750	357.920750		[silence]	[silence]
sw2835A-ms98-a-0059	A.79	357.920750	358.312250		writer	writer
sw2835A-ms98-a-0059	A.79	358.312250	358.661500		[silence]	[silence]
sw2835A-ms98-a-0060	A.79	358.661500	359.135625		[silence]	[silence]
sw2835A-ms98-a-0060	A.79	359.135625	359.826000		so	so
sw2835A-ms98-a-0060	A.79	359.826000	360.077375		uh	uh
sw2835A-ms98-a-0060	A.79	360.077375	360.273250		uh	uh
sw2835A-ms98-a-0060	A.79	360.273250	360.481875	<SUB>	the	uh
sw2835A-ms98-a-0060	A.79	360.481875	360.714875	<DEL>	---	uh
sw2835A-ms98-a-0060	A.79	360.714875	360.961500		ten	ten
sw2835A-ms98-a-0060	A.79	360.961500	361.251500		years	years
sw2835A-ms98-a-0060	A.79	361.251500	361.551500		ago	ago
sw2835A-ms98-a-0060	A.79	361.551500	361.751500		I	i
sw2835A-ms98-a-0060	A.79	361.751500	361.971500		was	was
sw2835A-ms98-a-0060	A.79	361.971500	362.361500		working	working
sw2835A-ms98-a-0060	A.79	362.361500	362.571500		in	in
sw2835A-ms98-a-0060	A.79	362.571500	362.631500		the	the
sw2835A-ms98-a-0060	A.79	362.631500	363.041500		medical	medical
sw2835A-ms98-a-0060	A.79	363.041500	363.567875		center	center
sw2835A-ms98-a-0060	A.79	363.567875	363.820250		[silence]	[silence]
sw2835A-ms98-a-0060	A.79	363.820250	364.157625		uh	uh
sw2835A-ms98-a-0060	A.79	364.157625	364.598250		[silence]	[silence]
sw2835A-ms98-a-0060	A.79	364.598250	365.171500		publishing	publishing
sw2835A-ms98-a-0060	A.79	365.171500	365.221500		a	a
sw2835A-ms98-a-0060	A.79	365.221500	365.647125		journal	journal
sw2835A-ms98-a-0060	A.79	365.647125	366.193500		[silence]	[silence]
sw2835A-ms98-a-0061	A.79	366.193500	366.923500		[silence]	[silence]
sw2835A-ms98-a-0061	A.79	366.923500	367.083500		and	and
sw2835A-ms98-a-0061	A.79	367.083500	367.483500		writing	writing
sw2835A-ms98-a-0061	A.79	367.483500	367.893500		about	about
sw2835A-ms98-a-0061	A.79	367.893500	368.273500		medical	medical
sw2835A-ms98-a-0061	A.79	368.273500	368.783500		topics	topics
sw2835A-ms98-a-0061	A.81	368.783500	369.073250		[laughter]	[laughter]
sw2835A-ms98-a-0061	A.81	369.073250	369.309250		[silence]	[silence]
sw2835A-ms98-a-0062	A.81	369.309250	369.743625		[silence]	[silence]
sw2835A-ms98-a-0062	A.81	369.743625	370.184375		[laughter]	[laughter]
sw2835A-ms98-a-0062	A.81	370.184375	370.439875		[silence]	[silence]
sw2835A-ms98-a-0063	A.81	370.439875	371.069875		[silence]	[silence]
sw2835A-ms98-a-0063	A.81	371.069875	371.269875		And	and
sw2835A-ms98-a-0063	A.81	371.269875	371.468625		let's	let's
sw2835A-ms98-a-0063	A.81	371.468625	371.732250		see	see
sw2835A-ms98-a-0063	A.81	371.732250	372.169875		twenty	twenty
sw2835A-ms98-a-0063	A.81	372.169875	372.449875		years	years
sw2835A-ms98-a-0063	A.81	372.449875	372.969875		ago	ago
sw2835A-ms98-a-0063	A.81	372.969875	373.119875		I	i
sw2835A-ms98-a-0063	A.81	373.119875	373.339875		guess	guess
sw2835A-ms98-a-0063	A.81	373.339875	373.462500	<CONT>	we	we're
sw2835A-ms98-a-0063	A.81	373.462500	373.462500	<CONT>	're	+++
sw2835A-ms98-a-0063	A.81	373.462500	373.624500		were	were
sw2835A-ms98-a-0063	A.81	373.624500	374.074000		just	just
sw2835A-ms98-a-0063	A.81	374.074000	374.228375		[silence]	[silence]
sw2835A-ms98-a-0063	A.81	374.228375	374.859875		beginning	beginning
sw2835A-ms98-a-0063	A.81	374.859875	374.989875		to	to
sw2835A-ms98-a-0063	A.81	374.989875	375.219875		get	get
sw2835A-ms98-a-0063	A.81	375.219875	375.509875		into	into
sw2835A-ms98-a-0063	A.81	375.509875	375.729875		what	what
sw2835A-ms98-a-0063	A.81	375.729875	375.899875		they	they
sw2835A-ms98-a-0063	A.81	375.899875	376.029875		were	were
sw2835A-ms98-a-0063	A.81	376.029875	376.749875		calling	calling
sw2835A-ms98-a-0063	A.81	376.749875	377.098750		the	the
sw2835A-ms98-a-0063	A.81	377.098750	377.534125		[silence]	[silence]
sw2835A-ms98-a-0063	A.81	377.534125	377.866500		uh	uh
sw2835A-ms98-a-0063	A.81	377.866500	378.184000		[silence]	[silence]
sw2835A-ms98-a-0064	A.81	378.184000	378.576000		[silence]	[silence]
sw2835A-ms98-a-0064	A.81	378.576000	378.904000		the	the
sw2835A-ms98-a-0064	A.81	378.904000	379.344000		sex	sex
sw2835A-ms98-a-0064	A.81	379.344000	380.216500		revolution	revolution
sw2835A-ms98-a-0064	A.81	380.216500	380.679250		where	where
sw2835A-ms98-a-0064	A.81	380.679250	381.159750		uh	uh
sw2835A-ms98-a-0064	A.83	381.159750	381.815125		[silence]	[silence]
sw2835A-ms98-a-0064	A.83	381.815125	382.254000		after	after
sw2835A-ms98-a-0064	A.83	382.254000	382.364125		the	the
sw2835A-ms98-a-0064	A.83	382.364125	383.023250		pill	pill
sw2835A-ms98-a-0064	A.83	383.023250	383.514000		and	and
sw2835A-ms98-a-0064	A.83	383.514000	383.724750		uh	uh
sw2835A-ms98-a-0064	A.83	383.724750	384.434375		[silence]	[silence]
sw2835A-ms98-a-0064	A.83	384.434375	384.801125		uh	uh
sw2835A-ms98-a-0064	A.83	384.801125	385.362250		[silence]	[silence]
sw2835A-ms98-a-0065	A.83	385.362250	386.102250		[silence]	[silence]
sw2835A-ms98-a-0065	A.83	386.102250	386.402250		freed	freed
sw2835A-ms98-a-0065	A.83	386.402250	386.822250		people	people
sw2835A-ms98-a-0065	A.83	386.822250	386.960125		up	up
sw2835A-ms98-a-0065	A.83	386.960125	387.080750		[silence]	[silence]
sw2835A-ms98-a-0065	A.83	387.080750	387.392250		from	from
sw2835A-ms98-a-0065	A.83	387.392250	387.742250		worries	worries
sw2835A-ms98-a-0065	A.83	387.742250	388.089625		about	about
sw2835A-ms98-a-0065	A.83	388.089625	388.391000		[silence]	[silence]
sw2835A-ms98-a-0065	A.83	388.391000	388.905625		uh	uh
sw2835A-ms98-a-0065	A.83	388.905625	389.384000		[silence]	[silence]
sw2835A-ms98-a-0065	A.83	389.384000	390.002250		illegitimate	illegitimate
sw2835A-ms98-a-0065	A.83	390.002250	390.842250		pregnancy	pregnancy
sw2835A-ms98-a-0065	A.83	390.842250	391.082875		and	and
sw2835A-ms98-a-0065	A.83	391.082875	391.432375		[silence]	[silence]
sw2835A-ms98-a-0066	A.83	391.432375	391.782375		[silence]	[silence]
sw2835A-ms98-a-0066	A.83	391.782375	391.882375		I	i
sw2835A-ms98-a-0066	A.83	391.882375	392.172375		guess	guess
sw2835A-ms98-a-0066	A.83	392.172375	392.322375		in	in
sw2835A-ms98-a-0066	A.83	392.322375	392.392375		the	the
sw2835A-ms98-a-0066	A.83	392.392375	393.042375		seventies	seventies
sw2835A-ms98-a-0066	A.83	393.042375	393.243875		is	is
sw2835A-ms98-a-0066	A.83	393.243875	393.387000		[silence]	[silence]
sw2835A-ms98-a-0066	A.83	393.387000	393.728625		the	the
sw2835A-ms98-a-0066	A.83	393.728625	393.969750		the	the
sw2835A-ms98-a-0066	A.83	393.969750	394.442375		time	time
sw2835A-ms98-a-0066	A.83	394.442375	394.760375		when	when
sw2835A-ms98-a-0066	A.83	394.760375	395.453500		[silence]	[silence]
sw2835A-ms98-a-0066	A.83	395.453500	395.782375		that	that
sw2835A-ms98-a-0066	A.83	395.782375	395.902375		was	was
sw2835A-ms98-a-0066	A.83	395.902375	396.312375		supposed	supposed
sw2835A-ms98-a-0066	A.83	396.312375	396.442375		to	to
sw2835A-ms98-a-0066	A.83	396.442375	396.612375		have	have
sw2835A-ms98-a-0066	A.83	396.612375	397.312375		exploded	exploded
sw2835A-ms98-a-0066	A.83	397.312375	397.622375		Thirty	thirty
sw2835A-ms98-a-0066	A.83	397.622375	397.842375		years	years
sw2835A-ms98-a-0066	A.83	397.842375	398.112375		ago	ago
sw2835A-ms98-a-0066	A.83	398.112375	398.212375		there	there
sw2835A-ms98-a-0066	A.83	398.212375	398.342375		was	was
sw2835A-ms98-a-0066	A.83	398.342375	398.482375		no	no
sw2835A-ms98-a-0066	A.83	398.482375	398.881250		pill	pill
sw2835A-ms98-a-0066	A.85	398.881250	399.200000		[silence]	[silence]
sw2835A-ms98-a-0067	A.85	399.200000	403.656125		[silence]	[silence]
sw2835A-ms98-a-0068	A.85	403.656125	404.273375		[silence]	[silence]
sw2835A-ms98-a-0068	A.85	404.273375	404.453625	<SUB>	Yes	yep
sw2835A-ms98-a-0068	A.87	404.453625	404.756000		[silence]	[silence]
sw2835A-ms98-a-0069	A.87	404.756000	406.520875		[silence]	[silence]
sw2835A-ms98-a-0070	A.87	406.520875	406.990875		[silence]	[silence]
sw2835A-ms98-a-0070	A.87	406.990875	407.260875		I	i
sw2835A-ms98-a-0070	A.87	407.260875	407.609875		do	do
sw2835A-ms98-a-0070	A.87	407.609875	407.809500		[silence]	[silence]
sw2835A-ms98-a-0070	A.87	407.809500	407.890875		I	i
sw2835A-ms98-a-0070	A.87	407.890875	408.230875		really	really
sw2835A-ms98-a-0070	A.87	408.230875	408.510875		do	do
sw2835A-ms98-a-0070	A.87	408.510875	408.730875		I	i
sw2835A-ms98-a-0070	A.87	408.730875	409.026750		have	have
sw2835A-ms98-a-0070	A.87	409.026750	409.176625		[silence]	[silence]
sw2835A-ms98-a-0070	A.87	409.176625	409.554625		uh	uh
sw2835A-ms98-a-0070	A.89	409.554625	409.918875		[silence]	[silence]
sw2835A-ms98-a-0071	A.89	409.918875	410.197625		[silence]	[silence]
sw2835A-ms98-a-0071	A.89	410.197625	410.428875		four	four
sw2835A-ms98-a-0071	A.89	410.428875	410.708875		kids	kids
sw2835A-ms98-a-0071	A.89	410.708875	410.868875		in	in
sw2835A-ms98-a-0071	A.89	410.868875	411.338875		college	college
sw2835A-ms98-a-0071	A.89	411.338875	411.558875		right	right
sw2835A-ms98-a-0071	A.89	411.558875	411.962875		now	now
sw2835A-ms98-a-0071	A.89	411.962875	412.234125		[silence]	[silence]
sw2835A-ms98-a-0071	A.89	412.234125	412.578875		children	children
sw2835A-ms98-a-0071	A.89	412.578875	412.728875		and	and
sw2835A-ms98-a-0071	A.89	412.728875	413.412375		stepchildren	stepchildren
sw2835A-ms98-a-0071	A.89	413.412375	413.961500		[silence]	[silence]
sw2835A-ms98-a-0072	A.89	413.961500	414.508750		[silence]	[silence]
sw2835A-ms98-a-0072	A.89	414.508750	415.088375		and	and
sw2835A-ms98-a-0072	A.89	415.088375	415.586875		[silence]	[silence]
sw2835A-ms98-a-0072	A.89	415.586875	415.741500		I	i
sw2835A-ms98-a-0072	A.89	415.741500	416.439375		know	know
sw2835A-ms98-a-0072	A.89	416.439375	416.635250		[silence]	[silence]
sw2835A-ms98-a-0072	A.89	416.635250	416.949375		that	that
sw2835A-ms98-a-0072	A.89	416.949375	417.085000		[silence]	[silence]
sw2835A-ms98-a-0072	A.89	417.085000	417.228125		the	the
sw2835A-ms98-a-0072	A.89	417.228125	417.333125		[silence]	[silence]
sw2835A-ms98-a-0072	A.89	417.333125	418.391500		expectation	expectation
sw2835A-ms98-a-0072	A.89	418.391500	418.701500		[silence]	[silence]
sw2835A-ms98-a-0072	A.89	418.701500	418.911500		for	for
sw2835A-ms98-a-0072	A.89	418.911500	419.331500		them	them
sw2835A-ms98-a-0072	A.89	419.331500	419.776625		[silence]	[silence]
sw2835A-ms98-a-0072	A.89	419.776625	420.443250		was	was
sw2835A-ms98-a-0072	A.89	420.443250	420.963875		uh	uh
sw2835A-ms98-a-0072	A.89	420.963875	421.295375		[silence]	[silence]
sw2835A-ms98-a-0072	A.89	421.295375	421.889875		to	to
sw2835A-ms98-a-0072	A.89	421.889875	422.181500		have	have
sw2835A-ms98-a-0072	A.89	422.181500	422.816750		sex	sex
sw2835A-ms98-a-0072	A.89	422.816750	423.099125		[silence]	[silence]
sw2835A-ms98-a-0072	A.89	423.099125	423.648375		and	and
sw2835A-ms98-a-0072	A.89	423.648375	424.205750		[silence]	[silence]
sw2835A-ms98-a-0072	A.89	424.205750	424.381500	<DEL>	---	uh
sw2835A-ms98-a-0072	A.89	424.381500	424.641500		much	much
sw2835A-ms98-a-0072	A.89	424.641500	425.161500		earlier	earlier
sw2835A-ms98-a-0072	A.91	425.161500	425.504250		[silence]	[silence]
sw2835A-ms98-a-0072	A.91	425.504250	425.951500		than	than
sw2835A-ms98-a-0072	A.91	425.951500	426.261500		[silence]	[silence]
sw2835A-ms98-a-0072	A.91	426.261500	426.401500		the	the
sw2835A-ms98-a-0072	A.91	426.401500	427.441500		expectation	expectation
sw2835A-ms98-a-0072	A.91	427.441500	427.651500		when	when
sw2835A-ms98-a-0072	A.91	427.651500	427.791500		I	i
sw2835A-ms98-a-0072	A.91	427.791500	428.001500		was	was
sw2835A-ms98-a-0072	A.91	428.001500	428.161500		in	in
sw2835A-ms98-a-0072	A.91	428.161500	428.661500		college	college
sw2835A-ms98-a-0072	A.93	428.661500	428.937000		[silence]	[silence]
sw2835A-ms98-a-0073	A.93	428.937000	429.457000		[silence]	[silence]
sw2835A-ms98-a-0073	A.93	429.457000	429.647000		In	in
sw2835A-ms98-a-0073	A.93	429.647000	429.867000		my	my
sw2835A-ms98-a-0073	A.93	429.867000	430.408875		day	day
sw2835A-ms98-a-0073	A.93	430.408875	430.977625		[silence]	[silence]
sw2835A-ms98-a-0073	A.93	430.977625	431.307000		we	we
sw2835A-ms98-a-0073	A.93	431.307000	431.743750		talked	talked
sw2835A-ms98-a-0073	A.93	431.743750	431.849250		[silence]	[silence]
sw2835A-ms98-a-0073	A.93	431.849250	432.317000		quietly	quietly
sw2835A-ms98-a-0073	A.93	432.317000	432.846000		behind	behind
sw2835A-ms98-a-0073	A.93	432.846000	432.992875		our	our
sw2835A-ms98-a-0073	A.93	432.992875	433.537000		hands	hands
sw2835A-ms98-a-0073	A.93	433.537000	433.857000		about	about
sw2835A-ms98-a-0073	A.93	433.857000	434.287000		people	people
sw2835A-ms98-a-0073	A.93	434.287000	434.487000		that	that
sw2835A-ms98-a-0073	A.93	434.487000	434.627000		we	we
sw2835A-ms98-a-0073	A.93	434.627000	435.493500		suspected	suspected
sw2835A-ms98-a-0073	A.93	435.493500	435.659250		[silence]	[silence]
sw2835A-ms98-a-0073	A.93	435.659250	436.013500		might	might
sw2835A-ms98-a-0073	A.93	436.013500	436.205625		[silence]	[silence]
sw2835A-ms98-a-0073	A.93	436.205625	436.315125		be	be
sw2835A-ms98-a-0073	A.95	436.315125	436.785875		sleeping	sleeping
sw2835A-ms98-a-0073	A.95	436.785875	437.157000		with	[laughter-with]
sw2835A-ms98-a-0073	A.95	437.157000	437.287000		their	[laughter-their]
sw2835A-ms98-a-0073	A.95	437.287000	438.324125		boyfriends	[laughter-boyfriends]
sw2835A-ms98-a-0073	A.97	438.324125	438.384125		[silence]	[silence]
sw2835A-ms98-a-0074	A.97	438.384125	439.113000		[silence]	[silence]
sw2835A-ms98-a-0074	A.97	439.113000	439.742125		But	[laughter-but]
sw2835A-ms98-a-0074	A.97	439.742125	439.941750		they	they
sw2835A-ms98-a-0074	A.97	439.941750	440.364125		certainly	certainly
sw2835A-ms98-a-0074	A.97	440.364125	440.752375		didn't	didn't
sw2835A-ms98-a-0074	A.97	440.752375	441.181750		[silence]	[silence]
sw2835A-ms98-a-0074	A.97	441.181750	441.804125		expect	expect
sw2835A-ms98-a-0074	A.97	441.804125	442.473875		everybody	everybody
sw2835A-ms98-a-0074	A.97	442.473875	442.854375		to	to
sw2835A-ms98-a-0074	A.97	442.854375	443.394125		and	and
sw2835A-ms98-a-0074	A.97	443.394125	443.634125		it	it
sw2835A-ms98-a-0074	A.97	443.634125	443.874125		was	was
sw2835A-ms98-a-0074	A.97	443.874125	444.314125		really	really
sw2835A-ms98-a-0074	A.97	444.314125	444.925750		only	only
sw2835A-ms98-a-0074	A.97	444.925750	445.027500		[silence]	[silence]
sw2835A-ms98-a-0074	A.97	445.027500	445.484125		uh	uh
sw2835A-ms98-a-0074	A.97	445.484125	446.344125		acceptable	acceptable
sw2835A-ms98-a-0074	A.97	446.344125	446.534125		if	if
sw2835A-ms98-a-0074	A.97	446.534125	446.644125		you	you
sw2835A-ms98-a-0074	A.97	446.644125	446.794125		were	were
sw2835A-ms98-a-0074	A.97	446.794125	447.514125		engaged	engaged
sw2835A-ms98-a-0074	A.97	447.514125	447.624125		and	and
sw2835A-ms98-a-0074	A.97	447.624125	448.064125		planning	planning
sw2835A-ms98-a-0074	A.97	448.064125	448.164125		to	to
sw2835A-ms98-a-0074	A.97	448.164125	448.374125		get	get
sw2835A-ms98-a-0074	A.97	448.374125	448.757875		married	married
sw2835A-ms98-a-0074	A.97	448.757875	448.976250		[silence]	[silence]
sw2835A-ms98-a-0074	A.97	448.976250	449.354125		in	in
sw2835A-ms98-a-0074	A.97	449.354125	449.544125		in	in
sw2835A-ms98-a-0074	A.97	449.544125	449.684125		the	the
sw2835A-ms98-a-0074	A.97	449.684125	450.414125		relatively	relatively
sw2835A-ms98-a-0074	A.97	450.414125	450.664125		near	near
sw2835A-ms98-a-0074	A.97	450.664125	451.144125		future	future
sw2835A-ms98-a-0074	A.99	451.144125	451.490375		[silence]	[silence]
sw2835A-ms98-a-0075	A.99	451.490375	452.060375		[silence]	[silence]
sw2835A-ms98-a-0075	A.99	452.060375	452.560375		And	and
sw2835A-ms98-a-0075	A.99	452.560375	452.730375		I	i
sw2835A-ms98-a-0075	A.99	452.730375	453.140375		certainly	certainly
sw2835A-ms98-a-0075	A.99	453.140375	453.310375		know	know
sw2835A-ms98-a-0075	A.99	453.310375	453.460375		from	from
sw2835A-ms98-a-0075	A.99	453.460375	453.810375		talking	talking
sw2835A-ms98-a-0075	A.99	453.810375	453.950375		to	to
sw2835A-ms98-a-0075	A.99	453.950375	454.120375		my	my
sw2835A-ms98-a-0075	A.99	454.120375	454.818375		stepdaughter	stepdaughter
sw2835A-ms98-a-0075	A.99	454.818375	454.923875		[silence]	[silence]
sw2835A-ms98-a-0075	A.99	454.923875	455.052000		that	that
sw2835A-ms98-a-0075	A.99	455.052000	455.168875		[silence]	[silence]
sw2835A-ms98-a-0075	A.99	455.168875	455.420375		girls	girls
sw2835A-ms98-a-0075	A.99	455.420375	455.560375		in	in
sw2835A-ms98-a-0075	A.99	455.560375	455.820375		high	high
sw2835A-ms98-a-0075	A.99	455.820375	456.140375		school	school
sw2835A-ms98-a-0075	A.99	456.140375	456.240375		were	were
sw2835A-ms98-a-0075	A.99	456.240375	456.480375		under	under
sw2835A-ms98-a-0075	A.99	456.480375	456.520375		a	a
sw2835A-ms98-a-0075	A.99	456.520375	456.670375		whole	whole
sw2835A-ms98-a-0075	A.99	456.670375	456.890375		lot	lot
sw2835A-ms98-a-0075	A.99	456.890375	457.050375		more	more
sw2835A-ms98-a-0075	A.99	457.050375	457.540375		pressure	pressure
sw2835A-ms98-a-0075	A.99	457.540375	458.038750		[silence]	[silence]
sw2835A-ms98-a-0076	A.99	458.038750	458.479875		[silence]	[silence]
sw2835A-ms98-a-0076	A.99	458.479875	459.228750		nowadays	nowadays
sw2835A-ms98-a-0076	A.101	459.228750	459.405250		[silence]	[silence]
sw2835A-ms98-a-0077	A.101	459.405250	474.463375		[silence]	[silence]
sw2835A-ms98-a-0078	A.101	474.463375	474.823375		[silence]	[silence]
sw2835A-ms98-a-0078	A.101	474.823375	474.973375		And	and
sw2835A-ms98-a-0078	A.101	474.973375	475.053375		I	i
sw2835A-ms98-a-0078	A.101	475.053375	475.283375		guess	guess
sw2835A-ms98-a-0078	A.101	475.283375	475.363375		the	the
sw2835A-ms98-a-0078	A.101	475.363375	475.733375		answer	answer
sw2835A-ms98-a-0078	A.103	475.733375	475.969625		is	is
sw2835A-ms98-a-0078	A.103	475.969625	476.289750		[silence]	[silence]
sw2835A-ms98-a-0078	A.103	476.289750	476.453375		is	is
sw2835A-ms98-a-0078	A.103	476.453375	476.783375		stay	stay
sw2835A-ms98-a-0078	A.103	476.783375	477.433375		flexible	flexible
sw2835A-ms98-a-0078	A.103	477.433375	477.763375		because	because
sw2835A-ms98-a-0078	A.103	477.763375	478.123375		nobody	nobody
sw2835A-ms98-a-0078	A.103	478.123375	478.323375		can	can
sw2835A-ms98-a-0078	A.103	478.323375	478.783375		predict	predict
sw2835A-ms98-a-0078	A.103	478.783375	478.993375		what's	what's
sw2835A-ms98-a-0078	A.103	478.993375	479.143375		going	going
sw2835A-ms98-a-0078	A.103	479.143375	479.283375		to	to
sw2835A-ms98-a-0078	A.103	479.283375	479.663000		happen	[laughter-happen]
sw2835A-ms98-a-0078	A.103	479.663000	479.818500		in	[laughter-in]
sw2835A-ms98-a-0078	A.103	479.818500	480.153375		twenty	[laughter-twenty]
sw2835A-ms98-a-0078	A.103	480.153375	480.716250		years	[laughter-years]
sw2835A-ms98-a-0078	A.105	480.716250	480.743875		[silence]	[silence]
sw2835A-ms98-a-0079	A.105	480.743875	481.253875		[silence]	[silence]
sw2835A-ms98-a-0079	A.105	481.253875	481.393875		I	i
sw2835A-ms98-a-0079	A.105	481.393875	481.783875		certainly	certainly
sw2835A-ms98-a-0079	A.105	481.783875	482.053875		wouldn't	wouldn't
sw2835A-ms98-a-0079	A.105	482.053875	482.223875		have	have
sw2835A-ms98-a-0079	A.105	482.223875	482.373875		been	been
sw2835A-ms98-a-0079	A.105	482.373875	482.643875		able	able
sw2835A-ms98-a-0079	A.105	482.643875	482.933500		to	to
sw2835A-ms98-a-0079	A.105	482.933500	483.430750		[silence]	[silence]
sw2835A-ms98-a-0079	A.105	483.430750	483.733875		twenty	twenty
sw2835A-ms98-a-0079	A.105	483.733875	483.963875		years	years
sw2835A-ms98-a-0079	A.105	483.963875	484.381625		ago	ago
sw2835A-ms98-a-0079	A.105	484.381625	484.618875		[silence]	[silence]
sw2835A-ms98-a-0079	A.105	484.618875	484.833875		tell	tell
sw2835A-ms98-a-0079	A.105	484.833875	485.103875		you	you
sw2835A-ms98-a-0079	A.105	485.103875	485.293875		[silence]	[silence]
sw2835A-ms98-a-0079	A.105	485.293875	485.504125		what	what
sw2835A-ms98-a-0079	A.105	485.504125	485.654750		[silence]	[silence]
sw2835A-ms98-a-0079	A.105	485.654750	486.012375		uh	uh
sw2835A-ms98-a-0079	A.105	486.012375	486.479375		[silence]	[silence]
sw2835A-ms98-a-0079	A.105	486.479375	486.633875		my	my
sw2835A-ms98-a-0079	A.105	486.633875	487.093875		kids	kids
sw2835A-ms98-a-0079	A.105	487.093875	487.338875		were	were
sw2835A-ms98-a-0079	A.105	487.338875	487.681625		[silence]	[silence]
sw2835A-ms98-a-0079	A.105	487.681625	488.093875		likely	likely
sw2835A-ms98-a-0079	A.105	488.093875	488.243875		to	to
sw2835A-ms98-a-0079	A.105	488.243875	488.393875		be	be
sw2835A-ms98-a-0079	A.105	488.393875	488.653875		like	like
sw2835A-ms98-a-0079	A.105	488.653875	488.923875		Course	course
sw2835A-ms98-a-0079	A.105	488.923875	489.123875		one	one
sw2835A-ms98-a-0079	A.105	489.123875	489.233875		of	of
sw2835A-ms98-a-0079	A.105	489.233875	489.413875		them	them_1
sw2835A-ms98-a-0079	A.105	489.413875	489.653875		was	was
sw2835A-ms98-a-0079	A.105	489.653875	489.893875		just	just
sw2835A-ms98-a-0079	A.105	489.893875	490.070500		a	a
sw2835A-ms98-a-0079	A.105	490.070500	490.402875		a	a
sw2835A-ms98-a-0079	A.105	490.402875	490.543250	<DEL>	---	an
sw2835A-ms98-a-0079	A.105	490.543250	490.801000		[silence]	[silence]
sw2835A-ms98-a-0080	A.105	490.801000	490.901000		[silence]	[silence]
sw2835A-ms98-a-0080	A.105	490.901000	490.981000		a	a
sw2835A-ms98-a-0080	A.105	490.981000	491.341000		brand	brand
sw2835A-ms98-a-0080	A.105	491.341000	491.471000		new	new
sw2835A-ms98-a-0080	A.105	491.471000	492.061000		baby	baby
sw2835A-ms98-a-0080	A.105	492.061000	492.301000		twenty	twenty
sw2835A-ms98-a-0080	A.105	492.301000	492.661000		years	years
sw2835A-ms98-a-0080	A.105	492.661000	493.067125		ago	[laughter-ago]
sw2835A-ms98-a-0080	A.105	493.067125	493.918375		so	[laughter-so]
sw2835A-ms98-a-0080	A.107	493.918375	494.062750		I	i
sw2835A-ms98-a-0080	A.107	494.062750	494.421000		sure	sure
sw2835A-ms98-a-0080	A.107	494.421000	494.571000		wouldn't	wouldn't
sw2835A-ms98-a-0080	A.107	494.571000	494.661000		have	have
sw2835A-ms98-a-0080	A.107	494.661000	494.761000		been	been
sw2835A-ms98-a-0080	A.107	494.761000	494.981000		able	able
sw2835A-ms98-a-0080	A.107	494.981000	495.111000		to	to
sw2835A-ms98-a-0080	A.107	495.111000	495.571625		predict	predict
sw2835A-ms98-a-0080	A.107	495.571625	496.040500		[silence]	[silence]
sw2835A-ms98-a-0081	A.107	496.040500	496.443500		[silence]	[silence]
sw2835A-ms98-a-0081	A.107	496.443500	496.602125		for	for
sw2835A-ms98-a-0081	A.107	496.602125	496.962375		him	him
sw2835A-ms98-a-0081	A.109	496.962375	497.178875		[silence]	[silence]
sw2835A-ms98-a-0082	A.109	497.178875	498.216750		[silence]	[silence]
sw2835A-ms98-a-0083	A.109	498.216750	498.586750		[silence]	[silence]
sw2835A-ms98-a-0083	A.109	498.586750	498.736750		And	and
sw2835A-ms98-a-0083	A.109	498.736750	498.886750		some	some
sw2835A-ms98-a-0083	A.109	498.886750	498.946750		of	of
sw2835A-ms98-a-0083	A.109	498.946750	499.066750		the	the
sw2835A-ms98-a-0083	A.109	499.066750	499.226750		other	other
sw2835A-ms98-a-0083	A.109	499.226750	499.386750		ones	ones
sw2835A-ms98-a-0083	A.109	499.386750	499.616750		weren't	weren't
sw2835A-ms98-a-0083	A.109	499.616750	499.887125		born	born
sw2835A-ms98-a-0083	A.111	499.887125	500.027375		[silence]	[silence]
sw2835A-ms98-a-0083	A.111	500.027375	500.282125		[laughter]	[laughter]
sw2835A-ms98-a-0083	A.111	500.282125	500.644000		[silence]	[silence]
sw2835A-ms98-a-0084	A.111	500.644000	512.790750		[silence]	[silence]
sw2835A-ms98-a-0085	A.111	512.790750	513.260750		[silence]	[silence]
sw2835A-ms98-a-0085	A.111	513.260750	513.669000		Yeah	yeah
sw2835A-ms98-a-0085	A.113	513.669000	514.134125		[silence]	[silence]
sw2835A-ms98-a-0086	A.113	514.134125	516.597375		[silence]	[silence]
sw2835A-ms98-a-0087	A.113	516.597375	516.967375		[silence]	[silence]
sw2835A-ms98-a-0087	A.113	516.967375	517.607375		Electronic	electronic
sw2835A-ms98-a-0087	A.113	517.607375	518.047375		mail	mail
sw2835A-ms98-a-0087	A.115	518.047375	518.435125		[silence]	[silence]
sw2835A-ms98-a-0088	A.115	518.435125	519.085125		[silence]	[silence]
sw2835A-ms98-a-0088	A.115	519.085125	519.215125		I	i
sw2835A-ms98-a-0088	A.115	519.215125	519.515125		just	just
sw2835A-ms98-a-0088	A.115	519.515125	519.735125		got	got
sw2835A-ms98-a-0088	A.115	519.735125	519.955125		on	on
sw2835A-ms98-a-0088	A.115	519.955125	520.270375		that	that
sw2835A-ms98-a-0088	A.115	520.270375	520.428625		[silence]	[silence]
sw2835A-ms98-a-0088	A.115	520.428625	520.733625		this	this
sw2835A-ms98-a-0088	A.115	520.733625	521.120375		past	past
sw2835A-ms98-a-0088	A.115	521.120375	521.357625		[silence]	[silence]
sw2835A-ms98-a-0088	A.115	521.357625	521.535125		about	about
sw2835A-ms98-a-0088	A.115	521.535125	521.575125		a	a
sw2835A-ms98-a-0088	A.115	521.575125	521.815125		year	year
sw2835A-ms98-a-0088	A.115	521.815125	522.235125		ago	ago
sw2835A-ms98-a-0088	A.115	522.235125	522.735125		and	and
sw2835A-ms98-a-0088	A.115	522.735125	523.165125		[silence]	[silence]
sw2835A-ms98-a-0088	A.115	523.165125	523.455125		that's	that's
sw2835A-ms98-a-0088	A.115	523.455125	523.735125		made	made
sw2835A-ms98-a-0088	A.115	523.735125	523.945500		a	a
sw2835A-ms98-a-0088	A.115	523.945500	524.081125		[silence]	[silence]
sw2835A-ms98-a-0088	A.115	524.081125	524.465125		difference	difference
sw2835A-ms98-a-0088	A.115	524.465125	524.575125		in	in
sw2835A-ms98-a-0088	A.115	524.575125	524.675125		the	the
sw2835A-ms98-a-0088	A.115	524.675125	524.915125		way	way
sw2835A-ms98-a-0088	A.115	524.915125	525.055125		I	i
sw2835A-ms98-a-0088	A.115	525.055125	525.275125		do	do
sw2835A-ms98-a-0088	A.115	525.275125	525.485125		my	my
sw2835A-ms98-a-0088	A.115	525.485125	525.935125		job	job
sw2835A-ms98-a-0088	A.115	525.935125	526.185125		because	because_1
sw2835A-ms98-a-0088	A.115	526.185125	526.385125		it's	it's
sw2835A-ms98-a-0088	A.115	526.385125	526.565125		so	so
sw2835A-ms98-a-0088	A.115	526.565125	526.895125		much	much
sw2835A-ms98-a-0088	A.115	526.895125	527.375125		easier	easier
sw2835A-ms98-a-0088	A.115	527.375125	527.665625		to	to
sw2835A-ms98-a-0088	A.115	527.665625	527.823750		[silence]	[silence]
sw2835A-ms98-a-0088	A.115	527.823750	527.965125		get	get
sw2835A-ms98-a-0088	A.115	527.965125	528.215125		hold	hold
sw2835A-ms98-a-0088	A.115	528.215125	528.335125		of	of
sw2835A-ms98-a-0088	A.115	528.335125	528.755125		people	people
sw2835A-ms98-a-0088	A.115	528.755125	528.935125		and	and
sw2835A-ms98-a-0088	A.115	528.935125	529.237750		get	get
sw2835A-ms98-a-0088	A.115	529.237750	529.531500		[silence]	[silence]
sw2835A-ms98-a-0088	A.115	529.531500	529.765125		quick	quick
sw2835A-ms98-a-0088	A.115	529.765125	530.265125		answers	answers
sw2835A-ms98-a-0088	A.115	530.265125	530.385125		to	to
sw2835A-ms98-a-0088	A.115	530.385125	530.826125		things	things
sw2835A-ms98-a-0088	A.117	530.826125	531.333625		[silence]	[silence]
sw2835A-ms98-a-0089	A.117	531.333625	531.983625		[silence]	[silence]
sw2835A-ms98-a-0089	A.117	531.983625	532.253625		Even	even
sw2835A-ms98-a-0089	A.117	532.253625	532.473625		when	when
sw2835A-ms98-a-0089	A.117	532.473625	532.803625		they're	they're
sw2835A-ms98-a-0089	A.117	532.803625	533.243625	<DEL>	---	a[nother]-
sw2835A-ms98-a-0089	A.117	533.243625	533.413625		on	on
sw2835A-ms98-a-0089	A.117	533.413625	533.683625		another	another
sw2835A-ms98-a-0089	A.117	533.683625	534.317750		continent	continent
sw2835A-ms98-a-0089	A.119	534.317750	534.552750		[silence]	[silence]
sw2835A-ms98-a-0090	A.119	534.552750	537.414625		[silence]	[silence]
sw2835A-ms98-a-0091	A.119	537.414625	537.804625		[silence]	[silence]
sw2835A-ms98-a-0091	A.119	537.804625	538.058125		Yeah	yeah
sw2835A-ms98-a-0091	A.119	538.058125	538.473375		[silence]	[silence]
sw2835A-ms98-a-0091	A.119	538.473375	538.610125	<DEL>	---	and
sw2835A-ms98-a-0091	A.119	538.610125	538.958000		Even	even
sw2835A-ms98-a-0091	A.119	538.958000	539.309250		[silence]	[silence]
sw2835A-ms98-a-0091	A.119	539.309250	539.465875		you	you
sw2835A-ms98-a-0091	A.119	539.465875	539.606125		know	know
sw2835A-ms98-a-0091	A.119	539.606125	539.768125		that	that
sw2835A-ms98-a-0091	A.119	539.768125	540.184625		reminds	reminds
sw2835A-ms98-a-0091	A.119	540.184625	540.354625		me	me
sw2835A-ms98-a-0091	A.119	540.354625	540.804625		Federal	Federal
sw2835A-ms98-a-0091	A.119	540.804625	541.484625		Express	Express
sw2835A-ms98-a-0091	A.119	541.484625	541.754625		was	was
sw2835A-ms98-a-0091	A.119	541.754625	542.644625		around	around
sw2835A-ms98-a-0091	A.119	542.644625	542.904625		ten	ten
sw2835A-ms98-a-0091	A.119	542.904625	543.154625		years	years
sw2835A-ms98-a-0091	A.119	543.154625	543.514625		ago	ago
sw2835A-ms98-a-0091	A.119	543.514625	543.754625		but	but
sw2835A-ms98-a-0091	A.119	543.754625	543.874625		it	it
sw2835A-ms98-a-0091	A.119	543.874625	544.114625		was	was
sw2835A-ms98-a-0091	A.119	544.114625	544.582125		used	used
sw2835A-ms98-a-0091	A.119	544.582125	545.045375		[silence]	[silence]
sw2835A-ms98-a-0091	A.119	545.045375	545.419875		as	as
sw2835A-ms98-a-0091	A.119	545.419875	545.702375		[silence]	[silence]
sw2835A-ms98-a-0091	A.119	545.702375	545.894625		kind	kind
sw2835A-ms98-a-0091	A.119	545.894625	545.974625		of	of
sw2835A-ms98-a-0091	A.119	545.974625	546.084625		an	an
sw2835A-ms98-a-0091	A.119	546.084625	546.694625		extreme	extreme
sw2835A-ms98-a-0091	A.119	546.694625	547.474625		emergency	emergency
sw2835A-ms98-a-0091	A.121	547.474625	547.705000		[silence]	[silence]
sw2835A-ms98-a-0092	A.121	547.705000	548.055000		[silence]	[silence]
sw2835A-ms98-a-0092	A.121	548.055000	548.215000		and	and
sw2835A-ms98-a-0092	A.121	548.215000	548.625000		nowadays	nowadays
sw2835A-ms98-a-0092	A.121	548.625000	548.975000		people	people
sw2835A-ms98-a-0092	A.121	548.975000	549.295000		use	use
sw2835A-ms98-a-0092	A.121	549.295000	549.615000		Fed	Fed
sw2835A-ms98-a-0092	A.121	549.615000	550.075000		Ex	Ex
sw2835A-ms98-a-0092	A.121	550.075000	550.245000		[silence]	[silence]
sw2835A-ms98-a-0092	A.121	550.245000	550.510875		all	all
sw2835A-ms98-a-0092	A.121	550.510875	550.558375		the	the
sw2835A-ms98-a-0092	A.121	550.558375	550.818000		time	time
sw2835A-ms98-a-0092	A.123	550.818000	551.126375		[silence]	[silence]
sw2835A-ms98-a-0093	A.123	551.126375	555.212250		[silence]	[silence]
sw2835A-ms98-a-0094	A.123	555.212250	555.503750		[silence]	[silence]
sw2835A-ms98-a-0094	A.123	555.503750	555.772250		People	people
sw2835A-ms98-a-0094	A.123	555.772250	555.992250		do	do
sw2835A-ms98-a-0094	A.123	555.992250	556.272250		seem	seem
sw2835A-ms98-a-0094	A.123	556.272250	556.392250		to	to
sw2835A-ms98-a-0094	A.123	556.392250	556.902250		travel	travel
sw2835A-ms98-a-0094	A.123	556.902250	557.267375		more	more
sw2835A-ms98-a-0094	A.123	557.267375	557.493375		[silence]	[silence]
sw2835A-ms98-a-0094	A.123	557.493375	557.712250		It's	it's
sw2835A-ms98-a-0094	A.123	557.712250	558.032250		much	much
sw2835A-ms98-a-0094	A.123	558.032250	558.212250		more	more
sw2835A-ms98-a-0094	A.123	558.212250	558.882250		common	common
sw2835A-ms98-a-0094	A.123	558.882250	559.269375		for	for
sw2835A-ms98-a-0094	A.123	559.269375	559.845625		[silence]	[silence]
sw2835A-ms98-a-0094	A.123	559.845625	560.342250		people	people
sw2835A-ms98-a-0094	A.123	560.342250	560.892250		even	even
sw2835A-ms98-a-0094	A.123	560.892250	561.257625		[silence]	[silence]
sw2835A-ms98-a-0094	A.123	561.257625	562.042250		teenagers	teenagers
sw2835A-ms98-a-0094	A.123	562.042250	562.202250		to	to
sw2835A-ms98-a-0094	A.123	562.202250	562.532250		be	be
sw2835A-ms98-a-0094	A.123	562.532250	562.912250		going	going
sw2835A-ms98-a-0094	A.123	562.912250	563.002250		to	to
sw2835A-ms98-a-0094	A.123	563.002250	563.482250		Europe	Europe
sw2835A-ms98-a-0094	A.123	563.482250	563.672250		and	and
sw2835A-ms98-a-0094	A.123	563.672250	563.952250		South	South
sw2835A-ms98-a-0094	A.123	563.952250	564.462250		America	America
sw2835A-ms98-a-0094	A.123	564.462250	564.708000		and	and
sw2835A-ms98-a-0094	A.125	564.708000	565.133375		[silence]	[silence]
sw2835A-ms98-a-0094	A.125	565.133375	565.728875		Asia	Asia
sw2835A-ms98-a-0094	A.125	565.728875	566.397875		[silence]	[silence]
sw2835A-ms98-a-0094	A.125	566.397875	566.885500		Uh	uh
sw2835A-ms98-a-0094	A.125	566.885500	567.299250		[silence]	[silence]
sw2835A-ms98-a-0095	A.125	567.299250	568.021250		[silence]	[silence]
sw2835A-ms98-a-0095	A.125	568.021250	568.259250		I	i
sw2835A-ms98-a-0095	A.125	568.259250	568.709250		was	was
sw2835A-ms98-a-0095	A.125	568.709250	568.951250		[silence]	[silence]
sw2835A-ms98-a-0096	A.125	568.951250	569.420375		[silence]	[silence]
sw2835A-ms98-a-0096	A.125	569.420375	569.851250		almost	almost
sw2835A-ms98-a-0096	A.125	569.851250	570.181250		thirty	thirty
sw2835A-ms98-a-0096	A.125	570.181250	570.591250		before	before
sw2835A-ms98-a-0096	A.125	570.591250	570.711250		I	i
sw2835A-ms98-a-0096	A.125	570.711250	570.971250		got	got
sw2835A-ms98-a-0096	A.125	570.971250	571.251250		off	off
sw2835A-ms98-a-0096	A.125	571.251250	571.441250		this	this
sw2835A-ms98-a-0096	A.125	571.441250	572.199875		continent	continent
sw2835A-ms98-a-0096	A.127	572.199875	572.749125		[silence]	[silence]
sw2835A-ms98-a-0097	A.127	572.749125	573.389125		[silence]	[silence]
sw2835A-ms98-a-0097	A.127	573.389125	574.001750		And	and
sw2835A-ms98-a-0097	A.127	574.001750	574.223875		[silence]	[silence]
sw2835A-ms98-a-0097	A.127	574.223875	574.559125		uh	uh
sw2835A-ms98-a-0097	A.127	574.559125	574.909125		both	both
sw2835A-ms98-a-0097	A.127	574.909125	575.069125		my	my
sw2835A-ms98-a-0097	A.127	575.069125	575.449125		kids	kids
sw2835A-ms98-a-0097	A.127	575.449125	575.575750		had	had
sw2835A-ms98-a-0097	A.127	575.575750	575.673750		[silence]	[silence]
sw2835A-ms98-a-0097	A.127	575.673750	575.839125		been	been
sw2835A-ms98-a-0097	A.127	575.839125	576.419125		abroad	abroad
sw2835A-ms98-a-0097	A.127	576.419125	576.579125		when	when
sw2835A-ms98-a-0097	A.127	576.579125	576.729125		they	they
sw2835A-ms98-a-0097	A.127	576.729125	576.879125		were	were
sw2835A-ms98-a-0097	A.127	576.879125	577.159125		still	still
sw2835A-ms98-a-0097	A.127	577.159125	577.239125		in	in
sw2835A-ms98-a-0097	A.127	577.239125	577.459125		high	high
sw2835A-ms98-a-0097	A.127	577.459125	577.909125		school	[laughter-school]
sw2835A-ms98-a-0097	A.129	577.909125	578.240000		[silence]	[silence]
sw2835A-ms98-a-0098	A.129	578.240000	579.179125		[silence]	[silence]
sw2835A-ms98-a-0098	A.129	579.179125	579.592125		[laughter]	[laughter]
sw2835A-ms98-a-0098	A.129	579.592125	580.114625		[silence]	[silence]
sw2835A-ms98-a-0099	A.129	580.114625	592.677000		[silence]	[silence]
sw2835A-ms98-a-0100	A.129	592.677000	593.037000		[silence]	[silence]
sw2835A-ms98-a-0100	A.129	593.037000	593.505750	<SUB>	Uh-huh	um-hum
sw2835A-ms98-a-0100	A.131	593.505750	593.889250		[silence]	[silence]
sw2835A-ms98-a-0101	A.131	593.889250	597.280875		[silence]	[silence]
sw2835A-ms98-a-0102	A.131	597.280875	597.660875		[silence]	[silence]
sw2835A-ms98-a-0102	A.131	597.660875	598.109750		Yeah	yeah
sw2835A-ms98-a-0102	A.131	598.109750	598.448250		[silence]	[silence]
sw2835A-ms98-a-0103	A.131	598.448250	600.439000		[silence]	[silence]
