sw2827B-ms98-a-0001	B.2	0.000000	0.621000		[silence]	[silence]
sw2827B-ms98-a-0001	B.2	0.621000	1.317125		[noise]	[noise]
sw2827B-ms98-a-0001	B.2	1.317125	2.100375		[silence]	[silence]
sw2827B-ms98-a-0002	B.2	2.100375	2.589125		[silence]	[silence]
sw2827B-ms98-a-0002	B.2	2.589125	2.680375		Well	well
sw2827B-ms98-a-0002	B.2	2.680375	2.770375		I	i
sw2827B-ms98-a-0002	B.2	2.770375	2.920375		love	love
sw2827B-ms98-a-0002	B.2	2.920375	2.980375		to	to
sw2827B-ms98-a-0002	B.2	2.980375	3.070375		cook	cook
sw2827B-ms98-a-0002	B.2	3.070375	3.130375		as	as
sw2827B-ms98-a-0002	B.2	3.130375	3.160375		a	a
sw2827B-ms98-a-0002	B.2	3.160375	3.290375		matter	matter
sw2827B-ms98-a-0002	B.2	3.290375	3.350375		of	of
sw2827B-ms98-a-0002	B.2	3.350375	3.530375		fact	fact
sw2827B-ms98-a-0002	B.2	3.530375	3.600375		I'm	i'm
sw2827B-ms98-a-0002	B.2	3.600375	3.810375		making	making
sw2827B-ms98-a-0002	B.2	3.810375	4.000375		dinner	dinner
sw2827B-ms98-a-0002	B.2	4.000375	4.160375		right	right
sw2827B-ms98-a-0002	B.2	4.160375	4.390375		now	now
sw2827B-ms98-a-0002	B.4	4.390375	4.564000		[laughter]	[laughter]
sw2827B-ms98-a-0002	B.4	4.564000	4.709625		[silence]	[silence]
sw2827B-ms98-a-0003	B.4	4.709625	4.718375		[silence]	[silence]
sw2827B-ms98-a-0003	B.4	4.718375	5.098250		[noise]	[noise]
sw2827B-ms98-a-0003	B.4	5.098250	5.226750		[silence]	[silence]
sw2827B-ms98-a-0004	B.4	5.226750	5.506750		[silence]	[silence]
sw2827B-ms98-a-0004	B.4	5.506750	5.770125		Um	um
sw2827B-ms98-a-0004	B.4	5.770125	5.981875		I	i
sw2827B-ms98-a-0004	B.4	5.981875	6.389875		um	um
sw2827B-ms98-a-0004	B.4	6.389875	6.566750		I'm	i'm
sw2827B-ms98-a-0004	B.4	6.566750	6.916750		making	making
sw2827B-ms98-a-0004	B.4	6.916750	7.266750		some	some
sw2827B-ms98-a-0004	B.4	7.266750	7.570375		uh	uh
sw2827B-ms98-a-0004	B.4	7.570375	7.974500		[silence]	[silence]
sw2827B-ms98-a-0004	B.4	7.974500	8.079875		I	i
sw2827B-ms98-a-0004	B.4	8.079875	8.303625		have	have
sw2827B-ms98-a-0004	B.4	8.303625	8.701875		[silence]	[silence]
sw2827B-ms98-a-0004	B.4	8.701875	8.867625		a	a
sw2827B-ms98-a-0004	B.4	8.867625	9.096750		little	little
sw2827B-ms98-a-0004	B.4	9.096750	9.476750		turkey	turkey
sw2827B-ms98-a-0004	B.4	9.476750	9.746750		left	left
sw2827B-ms98-a-0004	B.4	9.746750	9.976750		from	from
sw2827B-ms98-a-0004	B.4	9.976750	10.196750		a	a
sw2827B-ms98-a-0004	B.4	10.196750	10.726750		passover	passover
sw2827B-ms98-a-0004	B.4	10.726750	10.873750		whi-	whi[ch]-
sw2827B-ms98-a-0004	B.4	10.873750	11.046125		whi-	whi[ch]-
sw2827B-ms98-a-0004	B.4	11.046125	11.416750		which	which
sw2827B-ms98-a-0004	B.4	11.416750	11.596750		was	was
sw2827B-ms98-a-0004	B.4	11.596750	11.716750		in	in
sw2827B-ms98-a-0004	B.4	11.716750	12.111000		April	April
sw2827B-ms98-a-0004	B.6	12.111000	12.296000		[silence]	[silence]
sw2827B-ms98-a-0005	B.6	12.296000	12.652125		[silence]	[silence]
sw2827B-ms98-a-0005	B.6	12.652125	12.706000		And	and
sw2827B-ms98-a-0005	B.6	12.706000	12.736000		I	i
sw2827B-ms98-a-0005	B.6	12.736000	12.836000		had	had
sw2827B-ms98-a-0005	B.6	12.836000	13.286000		frozen	frozen
sw2827B-ms98-a-0005	B.6	13.286000	13.453000		it	it
sw2827B-ms98-a-0005	B.6	13.453000	13.626000		and	and
sw2827B-ms98-a-0005	B.6	13.626000	13.898375		I'm	i'm
sw2827B-ms98-a-0005	B.6	13.898375	14.365375		[silence]	[silence]
sw2827B-ms98-a-0005	B.6	14.365375	14.856000		defrosting	defrosting
sw2827B-ms98-a-0005	B.6	14.856000	14.976000		that	that
sw2827B-ms98-a-0005	B.6	14.976000	15.146000		and	and
sw2827B-ms98-a-0005	B.6	15.146000	15.416000		making	making
sw2827B-ms98-a-0005	B.6	15.416000	15.773625		some	some
sw2827B-ms98-a-0005	B.6	15.773625	16.594625		[silence]	[silence]
sw2827B-ms98-a-0005	B.6	16.594625	16.966000	<SUB>	dressing	defrosting
sw2827B-ms98-a-0005	B.6	16.966000	17.086000	<SUB>	and	some
sw2827B-ms98-a-0005	B.6	17.086000	17.366000		gravy	gravy
sw2827B-ms98-a-0005	B.6	17.366000	17.476000		and	and
sw2827B-ms98-a-0005	B.6	17.476000	17.716000		making	making
sw2827B-ms98-a-0005	B.6	17.716000	18.448125		corn	corn
sw2827B-ms98-a-0005	B.6	18.448125	18.816000		and	and
sw2827B-ms98-a-0005	B.6	18.816000	18.970375	<DEL>	---	this
sw2827B-ms98-a-0005	B.6	18.970375	19.216000		wheat	wheat
sw2827B-ms98-a-0005	B.6	19.216000	19.816000	<DEL>	---	pilaf
sw2827B-ms98-a-0005	B.6	19.816000	20.246000		stuff	stuff
sw2827B-ms98-a-0005	B.6	20.246000	20.396000		that	that
sw2827B-ms98-a-0005	B.6	20.396000	20.486000		you	you
sw2827B-ms98-a-0005	B.6	20.486000	20.676000		can	can
sw2827B-ms98-a-0005	B.6	20.676000	20.776000		buy	buy
sw2827B-ms98-a-0005	B.6	20.776000	20.896000		at	at
sw2827B-ms98-a-0005	B.6	20.896000	20.976000		a	a
sw2827B-ms98-a-0005	B.6	20.976000	21.206000		store	store
sw2827B-ms98-a-0005	B.6	21.206000	21.386000		which	which
sw2827B-ms98-a-0005	B.6	21.386000	21.586000		is	is
sw2827B-ms98-a-0005	B.6	21.586000	21.786000		like	like
sw2827B-ms98-a-0005	B.6	21.786000	21.906000		uh	uh
sw2827B-ms98-a-0005	B.6	21.906000	22.136000		rice	rice
sw2827B-ms98-a-0005	B.6	22.136000	22.586000		pilaf	pilaf
sw2827B-ms98-a-0005	B.8	22.586000	22.737500		but	but
sw2827B-ms98-a-0005	B.8	22.737500	23.007000		we	we
sw2827B-ms98-a-0005	B.8	23.007000	23.182250		with	with
sw2827B-ms98-a-0005	B.8	23.182250	23.611625		[silence]	[silence]
sw2827B-ms98-a-0005	B.8	23.611625	23.802000		with	with
sw2827B-ms98-a-0005	B.8	23.802000	24.026000		with	with
sw2827B-ms98-a-0005	B.8	24.026000	24.176000		wheat	wheat
sw2827B-ms98-a-0005	B.8	24.176000	24.497000		kernel	kernel
sw2827B-ms98-a-0005	B.8	24.497000	24.695500		[silence]	[silence]
sw2827B-ms98-a-0005	B.8	24.695500	24.958375		that	that
sw2827B-ms98-a-0005	B.10	24.958375	25.394000		[silence]	[silence]
sw2827B-ms98-a-0006	B.10	25.394000	27.557875		[silence]	[silence]
sw2827B-ms98-a-0007	B.10	27.557875	28.034625		[silence]	[silence]
sw2827B-ms98-a-0007	B.10	28.034625	28.427875		No	no
sw2827B-ms98-a-0007	B.10	28.427875	28.917875		um	um
sw2827B-ms98-a-0007	B.10	28.917875	29.077875		I'm	i'm
sw2827B-ms98-a-0007	B.10	29.077875	29.587500		married	married
sw2827B-ms98-a-0007	B.10	29.587500	30.092250		[silence]	[silence]
sw2827B-ms98-a-0007	B.10	30.092250	30.613875		and	and
sw2827B-ms98-a-0007	B.10	30.613875	30.847375		[silence]	[silence]
sw2827B-ms98-a-0007	B.10	30.847375	31.137875		actually	actually
sw2827B-ms98-a-0007	B.10	31.137875	31.227875		the	the
sw2827B-ms98-a-0007	B.10	31.227875	31.507875		my	my
sw2827B-ms98-a-0007	B.10	31.507875	31.687875		wife	wife
sw2827B-ms98-a-0007	B.10	31.687875	31.747875		is	is
sw2827B-ms98-a-0007	B.10	31.747875	31.777875		a	a
sw2827B-ms98-a-0007	B.10	31.777875	32.413375		vegetarian	vegetarian
sw2827B-ms98-a-0007	B.12	32.413375	32.795000		[silence]	[silence]
sw2827B-ms98-a-0008	B.12	32.795000	33.018625		[silence]	[silence]
sw2827B-ms98-a-0008	B.12	33.018625	33.115000		so	so
sw2827B-ms98-a-0008	B.12	33.115000	33.275000		this	this
sw2827B-ms98-a-0008	B.12	33.275000	33.505000		isn't	isn't
sw2827B-ms98-a-0008	B.12	33.505000	33.625000		for	for
sw2827B-ms98-a-0008	B.12	33.625000	33.765000		her	her
sw2827B-ms98-a-0008	B.12	33.765000	33.915000		this	this
sw2827B-ms98-a-0008	B.12	33.915000	34.035000		is	is
sw2827B-ms98-a-0008	B.12	34.035000	34.195000		for	for
sw2827B-ms98-a-0008	B.12	34.195000	34.265000		our	our
sw2827B-ms98-a-0008	B.12	34.265000	34.555000		friends	friends
sw2827B-ms98-a-0008	B.12	34.555000	34.645000		that	that
sw2827B-ms98-a-0008	B.12	34.645000	34.735000		came	came
sw2827B-ms98-a-0008	B.12	34.735000	34.855000		over	over
sw2827B-ms98-a-0008	B.12	34.855000	34.945000		and	and
sw2827B-ms98-a-0008	B.12	34.945000	35.237875		helped	helped
sw2827B-ms98-a-0008	B.14	35.237875	35.690000		[silence]	[silence]
sw2827B-ms98-a-0008	B.14	35.690000	35.829375		helped	helped
sw2827B-ms98-a-0008	B.14	35.829375	35.895000		me	me
sw2827B-ms98-a-0008	B.14	35.895000	36.005000		do	do
sw2827B-ms98-a-0008	B.14	36.005000	36.155000		some	some
sw2827B-ms98-a-0008	B.14	36.155000	36.335000		stuff	stuff
sw2827B-ms98-a-0008	B.14	36.335000	36.395000		so	so
sw2827B-ms98-a-0008	B.16	36.395000	36.515000		stuff	stuff
sw2827B-ms98-a-0008	B.16	36.515000	36.575000		so	so
sw2827B-ms98-a-0008	B.18	36.575000	36.725000		he	he
sw2827B-ms98-a-0008	B.18	36.725000	36.885000		and	and
sw2827B-ms98-a-0008	B.18	36.885000	37.150000		I	i
sw2827B-ms98-a-0008	B.18	37.150000	37.500250		[silence]	[silence]
sw2827B-ms98-a-0008	B.18	37.500250	37.725000		and	and
sw2827B-ms98-a-0008	B.18	37.725000	37.835000		and	and
sw2827B-ms98-a-0008	B.18	37.835000	38.005000		she's	she's
sw2827B-ms98-a-0008	B.18	38.005000	38.232375		having	having
sw2827B-ms98-a-0008	B.18	38.232375	38.447000		I	i
sw2827B-ms98-a-0008	B.18	38.447000	38.663625		I	i
sw2827B-ms98-a-0008	B.18	38.663625	38.765000		do	do
sw2827B-ms98-a-0008	B.18	38.765000	39.052875		cook	cook
sw2827B-ms98-a-0008	B.18	39.052875	39.177125		[silence]	[silence]
sw2827B-ms98-a-0008	B.18	39.177125	39.385000		um	um
sw2827B-ms98-a-0008	B.18	39.385000	39.921000		virtually	virtually
sw2827B-ms98-a-0008	B.18	39.921000	40.305125		[silence]	[silence]
sw2827B-ms98-a-0008	B.18	40.305125	40.465000		I	i
sw2827B-ms98-a-0008	B.18	40.465000	40.765000		cook	cook
sw2827B-ms98-a-0008	B.18	40.765000	40.985000		most	most
sw2827B-ms98-a-0008	B.18	40.985000	41.045000		of	of
sw2827B-ms98-a-0008	B.18	41.045000	41.105000		the	the
sw2827B-ms98-a-0008	B.18	41.105000	41.413500		time	time
sw2827B-ms98-a-0008	B.18	41.413500	41.899375		[silence]	[silence]
sw2827B-ms98-a-0008	B.18	41.899375	42.135000		because	because
sw2827B-ms98-a-0008	B.18	42.135000	42.355000		I	i
sw2827B-ms98-a-0008	B.20	42.355000	42.968500		[silence]	[silence]
sw2827B-ms98-a-0009	B.20	42.968500	47.239750		[silence]	[silence]
sw2827B-ms98-a-0010	B.20	47.239750	47.741500		[silence]	[silence]
sw2827B-ms98-a-0010	B.20	47.741500	48.142375		Yeah	yeah
sw2827B-ms98-a-0010	B.20	48.142375	48.489750		we	we
sw2827B-ms98-a-0010	B.20	48.489750	48.733000		we	we
sw2827B-ms98-a-0010	B.20	48.733000	48.905250	<DEL>	---	we
sw2827B-ms98-a-0010	B.20	48.905250	49.509750		consistently	consistently
sw2827B-ms98-a-0010	B.20	49.509750	49.769750		if	if
sw2827B-ms98-a-0010	B.20	49.769750	49.901750		we	we
sw2827B-ms98-a-0010	B.20	49.901750	50.299000		cook	cook
sw2827B-ms98-a-0010	B.20	50.299000	50.359250		[silence]	[silence]
sw2827B-ms98-a-0010	B.20	50.359250	50.649750		if	if
sw2827B-ms98-a-0010	B.20	50.649750	50.779750		if	if
sw2827B-ms98-a-0010	B.20	50.779750	50.839750		we	we
sw2827B-ms98-a-0010	B.20	50.839750	50.929750		have	have
sw2827B-ms98-a-0010	B.20	50.929750	51.019750		a	a
sw2827B-ms98-a-0010	B.20	51.019750	51.259750		dinner	dinner
sw2827B-ms98-a-0010	B.20	51.259750	51.569750		party	party
sw2827B-ms98-a-0010	B.20	51.569750	51.639750		we	we
sw2827B-ms98-a-0010	B.20	51.639750	51.899750		usually	usually
sw2827B-ms98-a-0010	B.20	51.899750	52.059750		make	make
sw2827B-ms98-a-0010	B.20	52.059750	52.159750		it	it
sw2827B-ms98-a-0010	B.20	52.159750	52.759750		vegetarian	vegetarian
sw2827B-ms98-a-0010	B.20	52.759750	52.929750		just	just
sw2827B-ms98-a-0010	B.20	52.929750	52.999750		to	to
sw2827B-ms98-a-0010	B.20	52.999750	53.159750		make	make
sw2827B-ms98-a-0010	B.20	53.159750	53.379750		life	life
sw2827B-ms98-a-0010	B.20	53.379750	53.709750		easier	easier
sw2827B-ms98-a-0010	B.22	53.709750	53.916375		[silence]	[silence]
sw2827B-ms98-a-0011	B.22	53.916375	54.136000		[silence]	[silence]
sw2827B-ms98-a-0011	B.22	54.136000	54.246375		So	so
sw2827B-ms98-a-0011	B.22	54.246375	54.416375		we'll	we'll
sw2827B-ms98-a-0011	B.22	54.416375	54.606375		make	make
sw2827B-ms98-a-0011	B.22	54.606375	55.076375		something	something
sw2827B-ms98-a-0011	B.22	55.076375	55.156375		you	you
sw2827B-ms98-a-0011	B.22	55.156375	55.401250		know	know
sw2827B-ms98-a-0011	B.22	55.401250	55.683250		uh	uh
sw2827B-ms98-a-0011	B.22	55.683250	56.086250		[silence]	[silence]
sw2827B-ms98-a-0011	B.22	56.086250	56.286375		some	some
sw2827B-ms98-a-0011	B.22	56.286375	56.456375		sort	sort
sw2827B-ms98-a-0011	B.22	56.456375	56.526375		of	of
sw2827B-ms98-a-0011	B.22	56.526375	56.946375		pasta	pasta
sw2827B-ms98-a-0011	B.22	56.946375	57.086375		or	or
sw2827B-ms98-a-0011	B.22	57.086375	57.676375		something	something
sw2827B-ms98-a-0011	B.24	57.676375	57.736375		you	you
sw2827B-ms98-a-0011	B.24	57.736375	57.836375		know	know
sw2827B-ms98-a-0011	B.24	57.836375	58.137000		homemade	homemade
sw2827B-ms98-a-0011	B.24	58.137000	58.556375		pasta	pasta
sw2827B-ms98-a-0011	B.24	58.556375	58.938375		or	or
sw2827B-ms98-a-0011	B.24	58.938375	59.556375		lasagna	lasagna
sw2827B-ms98-a-0011	B.24	59.556375	59.667125		or	or
sw2827B-ms98-a-0011	B.24	59.667125	60.096500		something	something
sw2827B-ms98-a-0011	B.26	60.096500	60.572625		[silence]	[silence]
sw2827B-ms98-a-0012	B.26	60.572625	64.559625		[silence]	[silence]
sw2827B-ms98-a-0013	B.26	64.559625	65.061375		[silence]	[silence]
sw2827B-ms98-a-0013	B.26	65.061375	65.419750		Oh	oh
sw2827B-ms98-a-0013	B.26	65.419750	65.648125		[silence]	[silence]
sw2827B-ms98-a-0013	B.26	65.648125	65.749625		good	good
sw2827B-ms98-a-0013	B.26	65.749625	66.145375		idea	idea
sw2827B-ms98-a-0013	B.28	66.145375	66.400625		[silence]	[silence]
sw2827B-ms98-a-0013	B.28	66.400625	66.640375		What	what
sw2827B-ms98-a-0013	B.30	66.640375	67.195250		[silence]	[silence]
sw2827B-ms98-a-0014	B.30	67.195250	69.231250		[silence]	[silence]
sw2827B-ms98-a-0015	B.30	69.231250	69.717000		[silence]	[silence]
sw2827B-ms98-a-0015	B.30	69.717000	70.220125		Um	um
sw2827B-ms98-a-0015	B.32	70.220125	70.725625		[silence]	[silence]
sw2827B-ms98-a-0016	B.32	70.725625	72.838250		[silence]	[silence]
sw2827B-ms98-a-0017	B.32	72.838250	73.337625		[silence]	[silence]
sw2827B-ms98-a-0017	B.32	73.337625	73.838250		Electric	electric
sw2827B-ms98-a-0017	B.32	73.838250	74.038250		or	or
sw2827B-ms98-a-0017	B.32	74.038250	74.345250		uh	uh
sw2827B-ms98-a-0017	B.34	74.345250	74.930500		[silence]	[silence]
sw2827B-ms98-a-0018	B.34	74.930500	75.512250		[silence]	[silence]
sw2827B-ms98-a-0018	B.34	75.512250	75.739375		[vocalized-noise]	[vocalized-noise]
sw2827B-ms98-a-0018	B.34	75.739375	75.941875		[silence]	[silence]
sw2827B-ms98-a-0018	B.34	75.941875	76.160375	<DEL>	---	be[st]-
sw2827B-ms98-a-0018	B.34	76.160375	76.443125		[silence]	[silence]
sw2827B-ms98-a-0018	B.34	76.443125	76.620500		Best	best
sw2827B-ms98-a-0018	B.36	76.620500	76.950500		kind	kind
sw2827B-ms98-a-0018	B.36	76.950500	77.210500		That	that
sw2827B-ms98-a-0018	B.36	77.210500	77.420500		that	that
sw2827B-ms98-a-0018	B.36	77.420500	77.570500		that	that
sw2827B-ms98-a-0018	B.36	77.570500	77.760500		that's	that's
sw2827B-ms98-a-0018	B.36	77.760500	77.950500		we	we
sw2827B-ms98-a-0018	B.36	77.950500	78.130500		we	we
sw2827B-ms98-a-0018	B.36	78.130500	78.320500		bought	bought
sw2827B-ms98-a-0018	B.36	78.320500	78.420500		one	one
sw2827B-ms98-a-0018	B.36	78.420500	78.500500		in	in
sw2827B-ms98-a-0018	B.36	78.500500	78.836750		Italy	Italy
sw2827B-ms98-a-0018	B.38	78.836750	79.458250		[silence]	[silence]
sw2827B-ms98-a-0018	B.38	79.458250	79.677625		That's	that's
sw2827B-ms98-a-0018	B.38	79.677625	79.749250		the	the
sw2827B-ms98-a-0018	B.38	79.749250	79.940500		best	best
sw2827B-ms98-a-0018	B.38	79.940500	80.150500		kind	kind
sw2827B-ms98-a-0018	B.38	80.150500	80.220500		to	to
sw2827B-ms98-a-0018	B.38	80.220500	80.545125		have	have
sw2827B-ms98-a-0018	B.40	80.545125	81.006625		[silence]	[silence]
sw2827B-ms98-a-0019	B.40	81.006625	84.238625		[silence]	[silence]
sw2827B-ms98-a-0020	B.40	84.238625	84.728625		[silence]	[silence]
sw2827B-ms98-a-0020	B.40	84.728625	85.120125		Uh-huh	uh-huh
sw2827B-ms98-a-0020	B.42	85.120125	85.338625		that's	that's
sw2827B-ms98-a-0020	B.42	85.338625	85.468625		real	real
sw2827B-ms98-a-0020	B.42	85.468625	85.778625		good	good
sw2827B-ms98-a-0020	B.44	85.778625	86.279750		[silence]	[silence]
sw2827B-ms98-a-0021	B.44	86.279750	87.630000		[silence]	[silence]
sw2827B-ms98-a-0022	B.44	87.630000	88.129000		[silence]	[silence]
sw2827B-ms98-a-0022	B.44	88.129000	88.371500		Um	um
sw2827B-ms98-a-0022	B.46	88.371500	88.868125		[silence]	[silence]
sw2827B-ms98-a-0023	B.46	88.868125	95.033625		[silence]	[silence]
sw2827B-ms98-a-0024	B.46	95.033625	95.531375		[silence]	[silence]
sw2827B-ms98-a-0024	B.46	95.531375	95.603625		That	that
sw2827B-ms98-a-0024	B.46	95.603625	95.763625		would	would
sw2827B-ms98-a-0024	B.46	95.763625	95.823625		be	be
sw2827B-ms98-a-0024	B.46	95.823625	96.043625		great	great
sw2827B-ms98-a-0024	B.46	96.043625	96.243625		Have	have
sw2827B-ms98-a-0024	B.46	96.243625	96.323625		you	you
sw2827B-ms98-a-0024	B.46	96.323625	96.523625		made	made
sw2827B-ms98-a-0024	B.46	96.523625	96.813625		pasta	pasta
sw2827B-ms98-a-0024	B.46	96.813625	97.220125		before	before
sw2827B-ms98-a-0024	B.48	97.220125	97.665375		[silence]	[silence]
sw2827B-ms98-a-0025	B.48	97.665375	98.190375		[silence]	[silence]
sw2827B-ms98-a-0025	B.48	98.190375	98.461250		Um	um
sw2827B-ms98-a-0025	B.48	98.461250	98.715375		[silence]	[silence]
sw2827B-ms98-a-0025	B.48	98.715375	98.945375		so	so
sw2827B-ms98-a-0025	B.48	98.945375	99.015375		you	you
sw2827B-ms98-a-0025	B.48	99.015375	99.258875		know	know
sw2827B-ms98-a-0025	B.48	99.258875	99.699500		[silence]	[silence]
sw2827B-ms98-a-0025	B.48	99.699500	99.815375		so	so
sw2827B-ms98-a-0025	B.48	99.815375	99.905375		you	you
sw2827B-ms98-a-0025	B.48	99.905375	100.085375		know	know
sw2827B-ms98-a-0025	B.48	100.085375	100.215375		that	that
sw2827B-ms98-a-0025	B.48	100.215375	100.385375		it's	it's
sw2827B-ms98-a-0025	B.48	100.385375	100.795750		a	a
sw2827B-ms98-a-0025	B.48	100.795750	100.946375		a	a
sw2827B-ms98-a-0025	B.48	100.946375	101.095375		lot	lot
sw2827B-ms98-a-0025	B.48	101.095375	101.155375		of	of
sw2827B-ms98-a-0025	B.48	101.155375	101.355375		fun	fun
sw2827B-ms98-a-0025	B.48	101.355375	101.756625		actually	actually
sw2827B-ms98-a-0025	B.50	101.756625	102.590125		[silence]	[silence]
sw2827B-ms98-a-0026	B.50	102.590125	103.465750		[silence]	[silence]
sw2827B-ms98-a-0026	B.50	103.465750	103.602375		I	i
sw2827B-ms98-a-0026	B.52	103.602375	104.097375		[silence]	[silence]
sw2827B-ms98-a-0027	B.52	104.097375	107.896125		[silence]	[silence]
sw2827B-ms98-a-0028	B.52	107.896125	108.405750		[silence]	[silence]
sw2827B-ms98-a-0028	B.52	108.405750	108.496125		It	it
sw2827B-ms98-a-0028	B.52	108.496125	108.906125		actually	actually
sw2827B-ms98-a-0028	B.52	108.906125	109.076125		is	is
sw2827B-ms98-a-0028	B.52	109.076125	109.276125		if	if
sw2827B-ms98-a-0028	B.52	109.276125	109.490125		if	if
sw2827B-ms98-a-0028	B.52	109.490125	109.704875		[silence]	[silence]
sw2827B-ms98-a-0028	B.52	109.704875	109.856125		if	if
sw2827B-ms98-a-0028	B.52	109.856125	109.956125		you	you
sw2827B-ms98-a-0028	B.52	109.956125	110.076125		have	have
sw2827B-ms98-a-0028	B.52	110.076125	110.106125		a	a
sw2827B-ms98-a-0028	B.52	110.106125	110.326125		food	food
sw2827B-ms98-a-0028	B.52	110.326125	110.616125		processor	processor
sw2827B-ms98-a-0028	B.52	110.616125	110.646125		I	i
sw2827B-ms98-a-0028	B.52	110.646125	110.796125		don't	don't
sw2827B-ms98-a-0028	B.52	110.796125	110.856125		know	know
sw2827B-ms98-a-0028	B.52	110.856125	110.916125		if	if
sw2827B-ms98-a-0028	B.52	110.916125	110.976125		you	you
sw2827B-ms98-a-0028	B.52	110.976125	111.066125		have	have
sw2827B-ms98-a-0028	B.52	111.066125	111.096125		a	a
sw2827B-ms98-a-0028	B.52	111.096125	111.216125		food	food
sw2827B-ms98-a-0028	B.52	111.216125	111.586125		processor	processor
sw2827B-ms98-a-0028	B.52	111.586125	111.656125		or	or
sw2827B-ms98-a-0028	B.52	111.656125	111.871500		not	not
sw2827B-ms98-a-0028	B.52	111.871500	112.033375		[silence]	[silence]
sw2827B-ms98-a-0028	B.52	112.033375	112.321375		Actually	actually
sw2827B-ms98-a-0028	B.54	112.321375	112.401750		it	it
sw2827B-ms98-a-0028	B.54	112.401750	112.801000		[silence]	[silence]
sw2827B-ms98-a-0028	B.54	112.801000	112.926125		it	it
sw2827B-ms98-a-0028	B.54	112.926125	113.156125		turns	turns
sw2827B-ms98-a-0028	B.54	113.156125	113.356125		out	out
sw2827B-ms98-a-0028	B.54	113.356125	113.516125		that	that
sw2827B-ms98-a-0028	B.54	113.516125	113.696125		i-	i[f]-
sw2827B-ms98-a-0028	B.54	113.696125	113.746125		i-	i[f]-
sw2827B-ms98-a-0028	B.54	113.746125	113.946125		if	if
sw2827B-ms98-a-0028	B.54	113.946125	114.086125		if	if
sw2827B-ms98-a-0028	B.54	114.086125	114.146125		you	you
sw2827B-ms98-a-0028	B.54	114.146125	114.316125		really	really
sw2827B-ms98-a-0028	B.54	114.316125	114.446125		want	want
sw2827B-ms98-a-0028	B.54	114.446125	114.506125		to	to
sw2827B-ms98-a-0028	B.54	114.506125	114.596125		be	be
sw2827B-ms98-a-0028	B.54	114.596125	114.816125		nice	nice
sw2827B-ms98-a-0028	B.54	114.816125	114.916125		and	and
sw2827B-ms98-a-0028	B.54	114.916125	115.126125		easy	easy
sw2827B-ms98-a-0028	B.54	115.126125	115.366125		about	about
sw2827B-ms98-a-0028	B.54	115.366125	115.471125		it	it
sw2827B-ms98-a-0028	B.54	115.471125	115.757375		[silence]	[silence]
sw2827B-ms98-a-0028	B.54	115.757375	115.796125		you	you
sw2827B-ms98-a-0028	B.54	115.796125	115.976125		can	can
sw2827B-ms98-a-0028	B.54	115.976125	116.196125		make	make
sw2827B-ms98-a-0028	B.54	116.196125	116.266125		the	the
sw2827B-ms98-a-0028	B.54	116.266125	116.486125		dough	dough
sw2827B-ms98-a-0028	B.54	116.486125	116.546125		in	in
sw2827B-ms98-a-0028	B.54	116.546125	116.646125		the	the
sw2827B-ms98-a-0028	B.54	116.646125	116.786125		food	food
sw2827B-ms98-a-0028	B.54	116.786125	117.206125		processor	processor
sw2827B-ms98-a-0028	B.54	117.206125	117.466000		really	really
sw2827B-ms98-a-0028	B.54	117.466000	117.904750		simply	simply
sw2827B-ms98-a-0028	B.56	117.904750	118.283250		[silence]	[silence]
sw2827B-ms98-a-0029	B.56	118.283250	118.664875		[silence]	[silence]
sw2827B-ms98-a-0029	B.56	118.664875	118.863250		And	and
sw2827B-ms98-a-0029	B.56	118.863250	119.268875		then	then
sw2827B-ms98-a-0029	B.56	119.268875	119.733625		um	um
sw2827B-ms98-a-0029	B.56	119.733625	119.865500		[silence]	[silence]
sw2827B-ms98-a-0029	B.56	119.865500	120.013250		and	and
sw2827B-ms98-a-0029	B.56	120.013250	120.163250		with	with
sw2827B-ms98-a-0029	B.56	120.163250	120.478500		that	that
sw2827B-ms98-a-0029	B.56	120.478500	120.583875		it	it
sw2827B-ms98-a-0029	B.56	120.583875	120.824625	<DEL>	---	it
sw2827B-ms98-a-0029	B.56	120.824625	121.143250		becomes	becomes
sw2827B-ms98-a-0029	B.56	121.143250	121.393250		really	really
sw2827B-ms98-a-0029	B.56	121.393250	121.563250		easy	easy
sw2827B-ms98-a-0029	B.56	121.563250	121.643250		to	to
sw2827B-ms98-a-0029	B.56	121.643250	121.873750		make	make
sw2827B-ms98-a-0029	B.56	121.873750	122.009250		[silence]	[silence]
sw2827B-ms98-a-0029	B.56	122.009250	122.403250		colorful	colorful
sw2827B-ms98-a-0029	B.56	122.403250	122.809250		pasta	pasta
sw2827B-ms98-a-0029	B.58	122.809250	123.432625		[silence]	[silence]
sw2827B-ms98-a-0029	B.58	123.432625	123.603250		By	by
sw2827B-ms98-a-0029	B.58	123.603250	123.883250		throwing	throwing
sw2827B-ms98-a-0029	B.58	123.883250	123.983250		in	in
sw2827B-ms98-a-0029	B.58	123.983250	124.103250		some	some
sw2827B-ms98-a-0029	B.58	124.103250	124.543250		spinach	spinach
sw2827B-ms98-a-0029	B.58	124.543250	124.603250		or	or
sw2827B-ms98-a-0029	B.58	124.603250	124.773250		some	some
sw2827B-ms98-a-0029	B.58	124.773250	125.103250		tomato	tomato
sw2827B-ms98-a-0029	B.58	125.103250	125.233250		or	or
sw2827B-ms98-a-0029	B.58	125.233250	125.523250		something	something
sw2827B-ms98-a-0029	B.58	125.523250	125.633250		and	and
sw2827B-ms98-a-0029	B.58	125.633250	125.923250		mixing	mixing
sw2827B-ms98-a-0029	B.58	125.923250	126.043250		it	it
sw2827B-ms98-a-0029	B.58	126.043250	126.336500		up	up
sw2827B-ms98-a-0029	B.58	126.336500	126.465875		it	it
sw2827B-ms98-a-0029	B.58	126.465875	126.691875		[silence]	[silence]
sw2827B-ms98-a-0029	B.58	126.691875	126.787000	<DEL>	---	it
sw2827B-ms98-a-0029	B.58	126.787000	127.141625		[silence]	[silence]
sw2827B-ms98-a-0029	B.58	127.141625	127.322500	<DEL>	---	it
sw2827B-ms98-a-0029	B.58	127.322500	127.453250		it's	it's
sw2827B-ms98-a-0029	B.60	127.453250	127.653250	<DEL>	---	just
sw2827B-ms98-a-0029	B.60	127.653250	127.683250		a	a
sw2827B-ms98-a-0029	B.60	127.683250	128.143250		snap	snap
sw2827B-ms98-a-0029	B.60	128.143250	128.303250		from	from
sw2827B-ms98-a-0029	B.60	128.303250	128.463250		there	there
sw2827B-ms98-a-0029	B.60	128.463250	128.593250		And	and
sw2827B-ms98-a-0029	B.60	128.593250	128.802000		then	then
sw2827B-ms98-a-0029	B.62	128.802000	129.127125		[silence]	[silence]
sw2827B-ms98-a-0029	B.62	129.127125	129.168625	<DEL>	---	you
sw2827B-ms98-a-0029	B.62	129.168625	129.273250	<DEL>	---	get
sw2827B-ms98-a-0029	B.62	129.273250	129.383250	<DEL>	---	to
sw2827B-ms98-a-0029	B.62	129.383250	129.483250	<DEL>	---	roll
sw2827B-ms98-a-0029	B.62	129.483250	129.563250	<DEL>	---	it
sw2827B-ms98-a-0029	B.62	129.563250	129.673250	<DEL>	---	out
sw2827B-ms98-a-0029	B.62	129.673250	130.143250	<DEL>	---	yourself
sw2827B-ms98-a-0029	B.62	130.143250	130.342125		[silence]	[silence]
sw2827B-ms98-a-0030	B.62	130.342125	130.606875		[silence]	[silence]
sw2827B-ms98-a-0030	B.62	130.606875	130.697625		I	i
sw2827B-ms98-a-0030	B.62	130.697625	130.983000		made	made
sw2827B-ms98-a-0030	B.62	130.983000	131.102125		[silence]	[silence]
sw2827B-ms98-a-0030	B.62	131.102125	131.485625	<DEL>	---	y[ucky]-
sw2827B-ms98-a-0030	B.62	131.485625	131.587375		I	i
sw2827B-ms98-a-0030	B.62	131.587375	131.812125		making	making
sw2827B-ms98-a-0030	B.62	131.812125	132.195500		yucky	yucky
sw2827B-ms98-a-0030	B.64	132.195500	132.392125	<DEL>	---	every
sw2827B-ms98-a-0030	B.64	132.392125	132.492125	<DEL>	---	now
sw2827B-ms98-a-0030	B.64	132.492125	132.592125	<DEL>	---	and
sw2827B-ms98-a-0030	B.64	132.592125	132.682125	<DEL>	---	then
sw2827B-ms98-a-0030	B.64	132.682125	132.882125	<DEL>	---	as
sw2827B-ms98-a-0030	B.64	132.882125	133.002125	<DEL>	---	well
sw2827B-ms98-a-0030	B.64	133.002125	133.358625		[silence]	[silence]
sw2827B-ms98-a-0031	B.64	133.358625	133.688625		[silence]	[silence]
sw2827B-ms98-a-0031	B.64	133.688625	133.828625		It's	it's
sw2827B-ms98-a-0031	B.64	133.828625	134.088625		also	also
sw2827B-ms98-a-0031	B.64	134.088625	134.348625		people	people
sw2827B-ms98-a-0031	B.64	134.348625	134.488625		think	think
sw2827B-ms98-a-0031	B.64	134.488625	134.618625		it's	it's
sw2827B-ms98-a-0031	B.64	134.618625	134.738625		real	real
sw2827B-ms98-a-0031	B.64	134.738625	134.948625		hard	hard
sw2827B-ms98-a-0031	B.64	134.948625	135.058625		it	it
sw2827B-ms98-a-0031	B.64	135.058625	135.286625		just	just
sw2827B-ms98-a-0031	B.64	135.286625	135.564500		[silence]	[silence]
sw2827B-ms98-a-0031	B.64	135.564500	135.903000		[vocalized-noise]	[vocalized-noise]
sw2827B-ms98-a-0031	B.64	135.903000	136.012250	<DEL>	---	it
sw2827B-ms98-a-0031	B.64	136.012250	136.228625	<DEL>	---	just
sw2827B-ms98-a-0031	B.64	136.228625	136.478625		time	time
sw2827B-ms98-a-0031	B.64	136.478625	136.788625		consuming	consuming
sw2827B-ms98-a-0031	B.64	136.788625	136.848625		to	to
sw2827B-ms98-a-0031	B.64	136.848625	136.938625		get	get
sw2827B-ms98-a-0031	B.64	136.938625	136.998625		all	all
sw2827B-ms98-a-0031	B.64	136.998625	137.068625		of	of
sw2827B-ms98-a-0031	B.64	137.068625	137.128625		the	the
sw2827B-ms98-a-0031	B.64	137.128625	137.368625		little	little
sw2827B-ms98-a-0031	B.64	137.368625	137.638625		things	things
sw2827B-ms98-a-0031	B.64	137.638625	137.966875		right	right
sw2827B-ms98-a-0031	B.66	137.966875	138.524250		[silence]	[silence]
sw2827B-ms98-a-0031	B.66	138.524250	138.788625		Otherwise	otherwise
sw2827B-ms98-a-0031	B.66	138.788625	138.908625		it's	it's
sw2827B-ms98-a-0031	B.66	138.908625	139.008625		real	real
sw2827B-ms98-a-0031	B.68	139.008625	139.331250	<DEL>	---	simple
sw2827B-ms98-a-0031	B.68	139.331250	139.689000		[silence]	[silence]
sw2827B-ms98-a-0031	B.68	139.689000	139.884375		it's	it's
sw2827B-ms98-a-0031	B.68	139.884375	139.968625		good	good
sw2827B-ms98-a-0031	B.68	139.968625	140.368625		stuff	stuff
sw2827B-ms98-a-0031	B.68	140.368625	141.101625		[silence]	[silence]
sw2827B-ms98-a-0032	B.68	141.101625	141.886500		[silence]	[silence]
sw2827B-ms98-a-0032	B.68	141.886500	141.981625		What	what
sw2827B-ms98-a-0032	B.68	141.981625	142.091625		other	other
sw2827B-ms98-a-0032	B.68	142.091625	142.321625		kinds	kinds
sw2827B-ms98-a-0032	B.68	142.321625	142.511625		of	of
sw2827B-ms98-a-0032	B.68	142.511625	142.731625		uh	uh
sw2827B-ms98-a-0032	B.68	142.731625	143.001625		dinner	dinner
sw2827B-ms98-a-0032	B.68	143.001625	143.323750		parties	parties
sw2827B-ms98-a-0032	B.68	143.323750	143.530875		[laughter]	[laughter]
sw2827B-ms98-a-0032	B.68	143.530875	143.591625		do	do
sw2827B-ms98-a-0032	B.68	143.591625	143.681625		you	you
sw2827B-ms98-a-0032	B.68	143.681625	144.032375		serve	serve
sw2827B-ms98-a-0032	B.72	144.032375	144.533125		[silence]	[silence]
sw2827B-ms98-a-0033	B.72	144.533125	150.467125		[silence]	[silence]
sw2827B-ms98-a-0034	B.72	150.467125	150.973375		[silence]	[silence]
sw2827B-ms98-a-0034	B.72	150.973375	151.587875		[laughter]	[laughter]
sw2827B-ms98-a-0034	B.72	151.587875	152.063375		[silence]	[silence]
sw2827B-ms98-a-0035	B.72	152.063375	156.059125		[silence]	[silence]
sw2827B-ms98-a-0036	B.72	156.059125	156.560875		[silence]	[silence]
sw2827B-ms98-a-0036	B.72	156.560875	156.941875		Uh-huh	uh-huh
sw2827B-ms98-a-0036	B.74	156.941875	157.462500		[silence]	[silence]
sw2827B-ms98-a-0037	B.74	157.462500	159.464125		[silence]	[silence]
sw2827B-ms98-a-0038	B.74	159.464125	159.954125		[silence]	[silence]
sw2827B-ms98-a-0038	B.74	159.954125	160.314125		Right	right
sw2827B-ms98-a-0038	B.74	160.314125	160.374125		you	you
sw2827B-ms98-a-0038	B.74	160.374125	160.534125		didn't	didn't
sw2827B-ms98-a-0038	B.74	160.534125	160.684125		want	want
sw2827B-ms98-a-0038	B.74	160.684125	160.720875		to	to
sw2827B-ms98-a-0038	B.74	160.720875	160.890000		[silence]	[silence]
sw2827B-ms98-a-0038	B.74	160.890000	161.004125		cook	cook
sw2827B-ms98-a-0038	B.76	161.004125	161.511250		[silence]	[silence]
sw2827B-ms98-a-0039	B.76	161.511250	166.640875		[silence]	[silence]
sw2827B-ms98-a-0040	B.76	166.640875	167.123375		[silence]	[silence]
sw2827B-ms98-a-0040	B.76	167.123375	167.300875		That's	that's
sw2827B-ms98-a-0040	B.76	167.300875	167.756625		great	great
sw2827B-ms98-a-0040	B.78	167.756625	168.233625		[silence]	[silence]
sw2827B-ms98-a-0041	B.78	168.233625	178.410375		[silence]	[silence]
sw2827B-ms98-a-0042	B.78	178.410375	178.880375		[silence]	[silence]
sw2827B-ms98-a-0042	B.78	178.880375	179.150125	<SUB>	Uh	huh
sw2827B-ms98-a-0042	B.82	179.150125	179.638000		[silence]	[silence]
sw2827B-ms98-a-0043	B.82	179.638000	180.795125		[silence]	[silence]
sw2827B-ms98-a-0044	B.82	180.795125	181.291000		[silence]	[silence]
sw2827B-ms98-a-0044	B.82	181.291000	181.946375		[laughter]	[laughter]
sw2827B-ms98-a-0044	B.82	181.946375	182.507875		[silence]	[silence]
sw2827B-ms98-a-0045	B.82	182.507875	184.625250		[silence]	[silence]
sw2827B-ms98-a-0046	B.82	184.625250	185.122625		[silence]	[silence]
sw2827B-ms98-a-0046	B.82	185.122625	185.223375	<DEL>	---	well
sw2827B-ms98-a-0046	B.82	185.223375	185.333500	<DEL>	---	that
sw2827B-ms98-a-0046	B.82	185.333500	185.431875		[silence]	[silence]
sw2827B-ms98-a-0046	B.82	185.431875	185.585250		Yeah	yeah
sw2827B-ms98-a-0046	B.82	185.585250	185.805250		that's	that's
sw2827B-ms98-a-0046	B.82	185.805250	185.865250	<SUB>	how	the
sw2827B-ms98-a-0046	B.82	185.865250	185.935250	<DEL>	---	way
sw2827B-ms98-a-0046	B.82	185.935250	186.123500		these	these
sw2827B-ms98-a-0046	B.82	186.123500	186.295250		things	things
sw2827B-ms98-a-0046	B.82	186.295250	186.445250		sort	sort
sw2827B-ms98-a-0046	B.82	186.445250	186.505250		of	of
sw2827B-ms98-a-0046	B.82	186.505250	186.765250		make	make
sw2827B-ms98-a-0046	B.82	186.765250	186.965250		it	it
sw2827B-ms98-a-0046	B.82	186.965250	187.075250	<DEL>	---	is
sw2827B-ms98-a-0046	B.82	187.075250	187.135250	<DEL>	---	you
sw2827B-ms98-a-0046	B.82	187.135250	187.305250	<DEL>	---	make
sw2827B-ms98-a-0046	B.82	187.305250	187.405250	<DEL>	---	it
sw2827B-ms98-a-0046	B.82	187.405250	187.515250		for	for
sw2827B-ms98-a-0046	B.82	187.515250	187.665250		one	one
sw2827B-ms98-a-0046	B.82	187.665250	188.171000		person	person
sw2827B-ms98-a-0046	B.82	188.171000	188.345250		as	as
sw2827B-ms98-a-0046	B.82	188.345250	188.415250		an	an
sw2827B-ms98-a-0046	B.82	188.415250	189.119750		experiment	experiment
sw2827B-ms98-a-0046	B.82	189.119750	189.288250		and	and
sw2827B-ms98-a-0046	B.84	189.288250	189.504750		[silence]	[silence]
sw2827B-ms98-a-0047	B.84	189.504750	189.726625		[silence]	[silence]
sw2827B-ms98-a-0047	B.84	189.726625	189.820000		I	i
sw2827B-ms98-a-0047	B.84	189.820000	190.064750		usually	usually
sw2827B-ms98-a-0047	B.84	190.064750	190.334750		find	find
sw2827B-ms98-a-0047	B.84	190.334750	190.484750		it	it
sw2827B-ms98-a-0047	B.84	190.484750	190.594750		when	when
sw2827B-ms98-a-0047	B.84	190.594750	190.674750		I	i
sw2827B-ms98-a-0047	B.84	190.674750	190.844750		make	make
sw2827B-ms98-a-0047	B.84	190.844750	190.904750		up	up
sw2827B-ms98-a-0047	B.84	190.904750	191.163500		for	for
sw2827B-ms98-a-0047	B.84	191.163500	191.287750		the	the
sw2827B-ms98-a-0047	B.84	191.287750	191.574750		first	first
sw2827B-ms98-a-0047	B.84	191.574750	191.694750		time	time
sw2827B-ms98-a-0047	B.84	191.694750	191.744750		I	i
sw2827B-ms98-a-0047	B.84	191.744750	192.014750		usually	usually
sw2827B-ms98-a-0047	B.84	192.014750	192.394750		doctor	doctor
sw2827B-ms98-a-0047	B.84	192.394750	192.454750		it	it
sw2827B-ms98-a-0047	B.84	192.454750	192.664750		just	just
sw2827B-ms98-a-0047	B.84	192.664750	192.714750		a	a
sw2827B-ms98-a-0047	B.86	192.714750	192.964750		little	little
sw2827B-ms98-a-0047	B.86	192.964750	193.248875		bit	bit
sw2827B-ms98-a-0047	B.86	193.248875	193.407000		[silence]	[silence]
sw2827B-ms98-a-0047	B.86	193.407000	193.444750	<SUB>	and	you
sw2827B-ms98-a-0047	B.86	193.444750	193.524750	<SUB>	little	know
sw2827B-ms98-a-0047	B.86	193.524750	193.644750	<DEL>	---	my
sw2827B-ms98-a-0047	B.86	193.644750	193.894750	<DEL>	---	own
sw2827B-ms98-a-0047	B.86	193.894750	194.034750	<DEL>	---	way
sw2827B-ms98-a-0047	B.86	194.034750	194.334750		here	here
sw2827B-ms98-a-0047	B.86	194.334750	194.529250		and	and
sw2827B-ms98-a-0047	B.86	194.529250	194.654750		there	there
sw2827B-ms98-a-0047	B.86	194.654750	194.804750		and	and
sw2827B-ms98-a-0047	B.88	194.804750	194.924750		it	it
sw2827B-ms98-a-0047	B.88	194.924750	195.184750		works	works
sw2827B-ms98-a-0047	B.88	195.184750	195.294750		real	real
sw2827B-ms98-a-0047	B.88	195.294750	195.532250		well	well
sw2827B-ms98-a-0047	B.90	195.532250	196.008000		[silence]	[silence]
sw2827B-ms98-a-0048	B.90	196.008000	205.139250		[silence]	[silence]
sw2827B-ms98-a-0049	B.90	205.139250	205.607750		[silence]	[silence]
sw2827B-ms98-a-0049	B.90	205.607750	205.755375		That	that
sw2827B-ms98-a-0049	B.90	205.755375	205.851625	<DEL>	---	just
sw2827B-ms98-a-0049	B.90	205.851625	206.009250		means	means
sw2827B-ms98-a-0049	B.90	206.009250	206.119250		you're	you're
sw2827B-ms98-a-0049	B.90	206.119250	206.149250		a	a
sw2827B-ms98-a-0049	B.90	206.149250	206.299250		real	real
sw2827B-ms98-a-0049	B.90	206.299250	206.704625		cook	cook
sw2827B-ms98-a-0049	B.92	206.704625	207.048625		[silence]	[silence]
sw2827B-ms98-a-0050	B.92	207.048625	207.440750		[silence]	[silence]
sw2827B-ms98-a-0050	B.92	207.440750	207.548625		If	if
sw2827B-ms98-a-0050	B.92	207.548625	207.638625		you've	you've
sw2827B-ms98-a-0050	B.92	207.638625	207.768625		ever	ever
sw2827B-ms98-a-0050	B.92	207.768625	208.098625		watched	watched
sw2827B-ms98-a-0050	B.92	208.098625	208.168625		the	the
sw2827B-ms98-a-0050	B.92	208.168625	208.408625		ones	ones
sw2827B-ms98-a-0050	B.92	208.408625	208.518625		on	on
sw2827B-ms98-a-0050	B.92	208.518625	208.988625		television	television
sw2827B-ms98-a-0050	B.92	208.988625	209.198625		like	like
sw2827B-ms98-a-0050	B.92	209.198625	209.278625		uh	uh
sw2827B-ms98-a-0050	B.92	209.278625	209.568625		Jeff	Jeff
sw2827B-ms98-a-0050	B.92	209.568625	209.905375	<SUB>	Schmidt	Smith
sw2827B-ms98-a-0050	B.92	209.905375	210.029625		[silence]	[silence]
sw2827B-ms98-a-0050	B.92	210.029625	210.088625		the	the
sw2827B-ms98-a-0050	B.92	210.088625	210.318625	<SUB>	super	Frugal
sw2827B-ms98-a-0050	B.92	210.318625	210.755500		gourmet	Gourmet
sw2827B-ms98-a-0050	B.94	210.755500	211.380750		[silence]	[silence]
sw2827B-ms98-a-0050	B.94	211.380750	211.645750		He	he
sw2827B-ms98-a-0050	B.94	211.645750	211.798625		he	he
sw2827B-ms98-a-0050	B.94	211.798625	211.998625		just	just
sw2827B-ms98-a-0050	B.94	211.998625	212.118625	<SUB>	thro-	throw[s]-
sw2827B-ms98-a-0050	B.94	212.118625	212.388625		takes	takes
sw2827B-ms98-a-0050	B.94	212.388625	212.598625		stuff	stuff
sw2827B-ms98-a-0050	B.94	212.598625	212.658625		he	he
sw2827B-ms98-a-0050	B.94	212.658625	212.818625	<SUB>	says	goes
sw2827B-ms98-a-0050	B.94	212.818625	213.168625		yeah	yeah
sw2827B-ms98-a-0050	B.94	213.168625	213.418625		about	about
sw2827B-ms98-a-0050	B.94	213.418625	213.558625		an	an
sw2827B-ms98-a-0050	B.94	213.558625	213.768625		ounce	ounce
sw2827B-ms98-a-0050	B.94	213.768625	213.828625		of	of
sw2827B-ms98-a-0050	B.94	213.828625	214.090375		this	this
sw2827B-ms98-a-0050	B.94	214.090375	214.484625		[noise]	[noise]
sw2827B-ms98-a-0050	B.94	214.484625	214.586875	<SUB>	or	just
sw2827B-ms98-a-0050	B.94	214.586875	214.851625	<SUB>	something	throws
sw2827B-ms98-a-0050	B.94	214.851625	214.968500	<DEL>	---	it
sw2827B-ms98-a-0050	B.94	214.968500	215.112625	<DEL>	---	in
sw2827B-ms98-a-0050	B.96	215.112625	215.352625		[silence]	[silence]
sw2827B-ms98-a-0051	B.96	215.352625	215.632625		[silence]	[silence]
sw2827B-ms98-a-0051	B.96	215.632625	215.812625		It's	it's
sw2827B-ms98-a-0051	B.96	215.812625	215.922625		real	real
sw2827B-ms98-a-0051	B.96	215.922625	216.199500		good	good
sw2827B-ms98-a-0051	B.98	216.199500	216.779625		[silence]	[silence]
sw2827B-ms98-a-0051	B.98	216.779625	217.120250		Yeah	yeah
sw2827B-ms98-a-0051	B.98	217.120250	217.387750		[silence]	[silence]
sw2827B-ms98-a-0051	B.98	217.387750	217.482625		we	we
sw2827B-ms98-a-0051	B.98	217.482625	217.642625		have	have
sw2827B-ms98-a-0051	B.98	217.642625	217.876000		a	a
sw2827B-ms98-a-0051	B.98	217.876000	218.362375		[silence]	[silence]
sw2827B-ms98-a-0052	B.98	218.362375	218.839875		[silence]	[silence]
sw2827B-ms98-a-0052	B.98	218.839875	218.988000		we	we
sw2827B-ms98-a-0052	B.98	218.988000	219.172375		do	do
sw2827B-ms98-a-0052	B.98	219.172375	219.528625		uh	uh
sw2827B-ms98-a-0052	B.98	219.528625	220.133875		[silence]	[silence]
sw2827B-ms98-a-0053	B.98	220.133875	220.699625		[silence]	[silence]
sw2827B-ms98-a-0053	B.98	220.699625	220.883875		uh	uh
sw2827B-ms98-a-0053	B.98	220.883875	221.193875		middle	middle
sw2827B-ms98-a-0053	B.98	221.193875	221.493875		eastern	eastern
sw2827B-ms98-a-0053	B.98	221.493875	221.838500		dinner	dinner
sw2827B-ms98-a-0053	B.98	221.838500	222.023875		quite	quite
sw2827B-ms98-a-0053	B.98	222.023875	222.073875		a	a
sw2827B-ms98-a-0053	B.98	222.073875	222.253875		bit	bit
sw2827B-ms98-a-0053	B.98	222.253875	222.715000		actually	actually
sw2827B-ms98-a-0053	B.100	222.715000	223.027625		[silence]	[silence]
sw2827B-ms98-a-0053	B.100	223.027625	223.414500		or	or
sw2827B-ms98-a-0053	B.100	223.414500	223.486000		[silence]	[silence]
sw2827B-ms98-a-0053	B.100	223.486000	223.623875		uh	uh
sw2827B-ms98-a-0053	B.100	223.623875	223.703875		we	we
sw2827B-ms98-a-0053	B.100	223.703875	223.793875		have	have
sw2827B-ms98-a-0053	B.100	223.793875	224.063875		people	people
sw2827B-ms98-a-0053	B.100	224.063875	224.153875		other	other
sw2827B-ms98-a-0053	B.100	224.153875	224.243875		that	that
sw2827B-ms98-a-0053	B.100	224.243875	224.403875		have	have
sw2827B-ms98-a-0053	B.100	224.403875	224.726125		never	never
sw2827B-ms98-a-0053	B.100	224.726125	225.238250		[silence]	[silence]
sw2827B-ms98-a-0053	B.100	225.238250	225.833875		experienced	experienced
sw2827B-ms98-a-0053	B.100	225.833875	225.903875		it	it
sw2827B-ms98-a-0053	B.100	225.903875	226.334250		before	before
sw2827B-ms98-a-0053	B.100	226.334250	226.481125		[silence]	[silence]
sw2827B-ms98-a-0053	B.100	226.481125	226.633875		and	and
sw2827B-ms98-a-0053	B.100	226.633875	226.973875		haven't	haven't
sw2827B-ms98-a-0053	B.100	226.973875	227.143875		had	had
sw2827B-ms98-a-0053	B.100	227.143875	227.336750		much	much
sw2827B-ms98-a-0053	B.100	227.336750	227.516125	<DEL>	---	much
sw2827B-ms98-a-0053	B.100	227.516125	227.733875		middle	middle
sw2827B-ms98-a-0053	B.100	227.733875	227.963875		eastern	eastern
sw2827B-ms98-a-0053	B.100	227.963875	228.275250		food	food
sw2827B-ms98-a-0053	B.102	228.275250	228.815500		[silence]	[silence]
sw2827B-ms98-a-0054	B.102	228.815500	229.385500		[silence]	[silence]
sw2827B-ms98-a-0054	B.102	229.385500	229.495500		We	we
sw2827B-ms98-a-0054	B.102	229.495500	229.765500		make	make
sw2827B-ms98-a-0054	B.102	229.765500	230.133250		uh	uh
sw2827B-ms98-a-0054	B.102	230.133250	230.568750		[silence]	[silence]
sw2827B-ms98-a-0055	B.102	230.568750	231.042250		[silence]	[silence]
sw2827B-ms98-a-0055	B.102	231.042250	231.248750		cause	because_1
sw2827B-ms98-a-0055	B.102	231.248750	231.550000		we're	we're
sw2827B-ms98-a-0055	B.102	231.550000	231.892750		[silence]	[silence]
sw2827B-ms98-a-0055	B.102	231.892750	231.978750		my	my
sw2827B-ms98-a-0055	B.102	231.978750	232.188750		wife	wife
sw2827B-ms98-a-0055	B.102	232.188750	232.248750		is	is
sw2827B-ms98-a-0055	B.102	232.248750	232.684375		Syrian	Syrian
sw2827B-ms98-a-0055	B.104	232.684375	233.002125		[silence]	[silence]
sw2827B-ms98-a-0055	B.104	233.002125	233.253125	<DEL>	---	yeah
sw2827B-ms98-a-0055	B.104	233.253125	233.488750		And	and
sw2827B-ms98-a-0055	B.104	233.488750	233.766000		um	um
sw2827B-ms98-a-0055	B.104	233.766000	234.195375		[silence]	[silence]
sw2827B-ms98-a-0055	B.104	234.195375	234.328750		her	her
sw2827B-ms98-a-0055	B.104	234.328750	234.678750	<SUB>	families	family's
sw2827B-ms98-a-0055	B.104	234.678750	234.848750		always	always
sw2827B-ms98-a-0055	B.104	234.848750	234.968750	<SUB>	have	had
sw2827B-ms98-a-0055	B.104	234.968750	235.098750		this	this
sw2827B-ms98-a-0055	B.104	235.098750	235.505000		food	food
sw2827B-ms98-a-0055	B.104	235.505000	235.941875		[silence]	[silence]
sw2827B-ms98-a-0055	B.104	235.941875	236.048750		she	she
sw2827B-ms98-a-0055	B.104	236.048750	236.198750		grew	grew
sw2827B-ms98-a-0055	B.104	236.198750	236.338750		up	up
sw2827B-ms98-a-0055	B.104	236.338750	236.528750		in	in
sw2827B-ms98-a-0055	B.104	236.528750	236.738750		and	and
sw2827B-ms98-a-0055	B.104	236.738750	236.965625		I've	i've
sw2827B-ms98-a-0055	B.104	236.965625	237.198750		made	made
sw2827B-ms98-a-0055	B.104	237.198750	237.308750		some	some
sw2827B-ms98-a-0055	B.104	237.308750	237.378750		of	of
sw2827B-ms98-a-0055	B.104	237.378750	237.448750		it	it
sw2827B-ms98-a-0055	B.104	237.448750	237.688750		before	before
sw2827B-ms98-a-0055	B.104	237.688750	237.788750		as	as
sw2827B-ms98-a-0055	B.104	237.788750	238.008750		well	well
sw2827B-ms98-a-0055	B.106	238.008750	238.148750		so	so
sw2827B-ms98-a-0055	B.106	238.148750	238.268750		we	we
sw2827B-ms98-a-0055	B.106	238.268750	238.498750		make	make
sw2827B-ms98-a-0055	B.106	238.498750	238.666875		uh	uh
sw2827B-ms98-a-0055	B.106	238.666875	239.088750		[silence]	[silence]
sw2827B-ms98-a-0055	B.106	239.088750	239.338750		four	four
sw2827B-ms98-a-0055	B.106	239.338750	239.408750		or	or
sw2827B-ms98-a-0055	B.106	239.408750	239.758750		five	five
sw2827B-ms98-a-0055	B.106	239.758750	240.008750		middle	middle
sw2827B-ms98-a-0055	B.106	240.008750	240.268750		eastern	eastern
sw2827B-ms98-a-0055	B.106	240.268750	240.568750		dishes	dishes
sw2827B-ms98-a-0055	B.106	240.568750	240.668750		that	that
sw2827B-ms98-a-0055	B.106	240.668750	240.728750		are	are
sw2827B-ms98-a-0055	B.106	240.728750	240.978750		just	just
sw2827B-ms98-a-0055	B.106	240.978750	241.158750		all	all
sw2827B-ms98-a-0055	B.106	241.158750	241.278750		real	real
sw2827B-ms98-a-0055	B.106	241.278750	241.740625		simple	simple
sw2827B-ms98-a-0055	B.108	241.740625	242.267000		[silence]	[silence]
sw2827B-ms98-a-0056	B.108	242.267000	242.870375		[silence]	[silence]
sw2827B-ms98-a-0056	B.108	242.870375	242.999500		We	we
sw2827B-ms98-a-0056	B.108	242.999500	243.089875		put	put
sw2827B-ms98-a-0056	B.108	243.089875	243.207000		them	them
sw2827B-ms98-a-0056	B.108	243.207000	243.357000		out	out
sw2827B-ms98-a-0056	B.108	243.357000	243.457000		for	for
sw2827B-ms98-a-0056	B.108	243.457000	243.767000		people	people
sw2827B-ms98-a-0056	B.108	243.767000	243.927000	<SUB>	an-	and
sw2827B-ms98-a-0056	B.108	243.927000	244.017000		and	and
sw2827B-ms98-a-0056	B.108	244.017000	244.157000		that's	that's
sw2827B-ms98-a-0056	B.108	244.157000	244.327000		always	always
sw2827B-ms98-a-0056	B.108	244.327000	244.367000		a	a
sw2827B-ms98-a-0056	B.108	244.367000	244.507000		real	real
sw2827B-ms98-a-0056	B.108	244.507000	244.667000		big	big
sw2827B-ms98-a-0056	B.108	244.667000	245.055375		kick	kick
sw2827B-ms98-a-0056	B.108	245.055375	245.590250		[silence]	[silence]
sw2827B-ms98-a-0056	B.108	245.590250	245.667000		for	for
sw2827B-ms98-a-0056	B.108	245.667000	245.937000		people	people
sw2827B-ms98-a-0056	B.108	245.937000	246.017000		who	who
sw2827B-ms98-a-0056	B.108	246.017000	246.237000		want	want
sw2827B-ms98-a-0056	B.108	246.237000	246.307000		you	you
sw2827B-ms98-a-0056	B.108	246.307000	246.468375		know	know
sw2827B-ms98-a-0056	B.108	246.468375	246.728250		[silence]	[silence]
sw2827B-ms98-a-0056	B.108	246.728250	246.867000		who've	who've
sw2827B-ms98-a-0056	B.108	246.867000	247.067000		never	never
sw2827B-ms98-a-0056	B.108	247.067000	247.287000		tried	tried
sw2827B-ms98-a-0056	B.108	247.287000	247.377000		it	it
sw2827B-ms98-a-0056	B.108	247.377000	247.826000		before	before
sw2827B-ms98-a-0056	B.110	247.826000	248.338500		[silence]	[silence]
sw2827B-ms98-a-0057	B.110	248.338500	248.854625		[silence]	[silence]
sw2827B-ms98-a-0057	B.110	248.854625	249.058750		That's	that's
sw2827B-ms98-a-0057	B.110	249.058750	249.138500		[vocalized-noise]	[vocalized-noise]
sw2827B-ms98-a-0057	B.110	249.138500	249.379375		that's	that's
sw2827B-ms98-a-0057	B.110	249.379375	249.498500		[vocalized-noise]	[vocalized-noise]
sw2827B-ms98-a-0057	B.110	249.498500	249.744250	<SUB>	that's	that
sw2827B-ms98-a-0057	B.110	249.744250	249.916875	<DEL>	---	tha[t]-
sw2827B-ms98-a-0057	B.110	249.916875	250.127750		that's	that's
sw2827B-ms98-a-0057	B.110	250.127750	250.200625		a	a
sw2827B-ms98-a-0057	B.110	250.200625	250.438500		fun	fun
sw2827B-ms98-a-0057	B.110	250.438500	250.928500		idea	idea
sw2827B-ms98-a-0057	B.110	250.928500	250.988500		I	i
sw2827B-ms98-a-0057	B.110	250.988500	251.188500		mean	mean
sw2827B-ms98-a-0057	B.110	251.188500	251.318500		if	if
sw2827B-ms98-a-0057	B.110	251.318500	251.378500		you	you
sw2827B-ms98-a-0057	B.110	251.378500	251.598500		ever	ever
sw2827B-ms98-a-0057	B.110	251.598500	251.845000		uh	uh
sw2827B-ms98-a-0057	B.110	251.845000	252.360375		[silence]	[silence]
sw2827B-ms98-a-0057	B.110	252.360375	252.546250		want	want
sw2827B-ms98-a-0057	B.110	252.546250	252.844250		something	something
sw2827B-ms98-a-0057	B.110	252.844250	252.949250	<SUB>	different	di[fferent]-
sw2827B-ms98-a-0057	B.110	252.949250	252.949250	<INS>	to	---
sw2827B-ms98-a-0057	B.110	252.949250	253.240750		[silence]	[silence]
sw2827B-ms98-a-0057	B.110	253.240750	253.672750		try	try
sw2827B-ms98-a-0057	B.112	253.672750	254.009625		[silence]	[silence]
sw2827B-ms98-a-0058	B.112	254.009625	254.428750		[silence]	[silence]
sw2827B-ms98-a-0058	B.112	254.428750	254.524000		I	i
sw2827B-ms98-a-0058	B.112	254.524000	254.609625		would	would
sw2827B-ms98-a-0058	B.112	254.609625	254.839000		try	try
sw2827B-ms98-a-0058	B.112	254.839000	255.149125		that	that
sw2827B-ms98-a-0058	B.114	255.149125	255.640625		[silence]	[silence]
sw2827B-ms98-a-0059	B.114	255.640625	260.600250		[silence]	[silence]
sw2827B-ms98-a-0060	B.114	260.600250	261.106375		[silence]	[silence]
sw2827B-ms98-a-0060	B.114	261.106375	261.270250		Oh	oh
sw2827B-ms98-a-0060	B.114	261.270250	261.340250		do	do
sw2827B-ms98-a-0060	B.114	261.340250	261.400250		you	you
sw2827B-ms98-a-0060	B.114	261.400250	261.520250		have	have
sw2827B-ms98-a-0060	B.114	261.520250	261.614125		a	a
sw2827B-ms98-a-0060	B.114	261.614125	261.881375		wok	wok
sw2827B-ms98-a-0060	B.114	261.881375	262.175250		though	though
sw2827B-ms98-a-0060	B.116	262.175250	262.731750		[silence]	[silence]
sw2827B-ms98-a-0060	B.116	262.731750	263.108375		Yeah	yeah
sw2827B-ms98-a-0060	B.118	263.108375	263.303625	<DEL>	---	those
sw2827B-ms98-a-0060	B.118	263.303625	263.590375		[silence]	[silence]
sw2827B-ms98-a-0061	B.118	263.590375	268.786750		[silence]	[silence]
sw2827B-ms98-a-0061	B.118	268.786750	269.091125	<DEL>	---	oh
sw2827B-ms98-a-0061	B.118	269.091125	269.164625		[silence]	[silence]
sw2827B-ms98-a-0062	B.118	269.164625	269.738625		[silence]	[silence]
sw2827B-ms98-a-0062	B.118	269.738625	269.834625		I	i
sw2827B-ms98-a-0062	B.118	269.834625	269.974625		think	think
sw2827B-ms98-a-0062	B.118	269.974625	270.104625		it's	it's
sw2827B-ms98-a-0062	B.118	270.104625	270.394625		God's	God's
sw2827B-ms98-a-0062	B.118	270.394625	270.624625		gift	gift
sw2827B-ms98-a-0062	B.118	270.624625	270.735875		to	to
sw2827B-ms98-a-0062	B.118	270.735875	271.067750		cooking	cooking
sw2827B-ms98-a-0062	B.120	271.067750	271.549750		[silence]	[silence]
sw2827B-ms98-a-0063	B.120	271.549750	272.640250		[silence]	[silence]
sw2827B-ms98-a-0064	B.120	272.640250	273.136000		[silence]	[silence]
sw2827B-ms98-a-0064	B.120	273.136000	273.448625		Cause	because_1
sw2827B-ms98-a-0064	B.120	273.448625	273.640250		it's	it's
sw2827B-ms98-a-0064	B.120	273.640250	273.790250		just	just
sw2827B-ms98-a-0064	B.120	273.790250	274.293750		quick	quick
sw2827B-ms98-a-0064	B.122	274.293750	274.357750		[silence]	[silence]
sw2827B-ms98-a-0064	B.122	274.357750	274.540250		it's	it's
sw2827B-ms98-a-0064	B.122	274.540250	275.075000		easy	easy
sw2827B-ms98-a-0064	B.122	275.075000	275.560875		[silence]	[silence]
sw2827B-ms98-a-0064	B.122	275.560875	276.183625		um	um
sw2827B-ms98-a-0064	B.122	276.183625	276.669500		[silence]	[silence]
sw2827B-ms98-a-0064	B.122	276.669500	276.940250		and	and
sw2827B-ms98-a-0064	B.122	276.940250	277.000250		the	the
sw2827B-ms98-a-0064	B.122	277.000250	277.330250		food	food
sw2827B-ms98-a-0064	B.122	277.330250	277.520250		just	just
sw2827B-ms98-a-0064	B.122	277.520250	277.730250		comes	comes
sw2827B-ms98-a-0064	B.122	277.730250	277.940250		out	out
sw2827B-ms98-a-0064	B.122	277.940250	278.040250		you	you
sw2827B-ms98-a-0064	B.122	278.040250	278.237625		know	know
sw2827B-ms98-a-0064	B.122	278.237625	278.418375		if	if
sw2827B-ms98-a-0064	B.122	278.418375	278.520250		you	you
sw2827B-ms98-a-0064	B.122	278.520250	278.620250		do	do
sw2827B-ms98-a-0064	B.122	278.620250	278.821125		it	it
sw2827B-ms98-a-0064	B.122	278.821125	279.139500		right	right
sw2827B-ms98-a-0064	B.122	279.139500	279.220250		I	i
sw2827B-ms98-a-0064	B.122	279.220250	279.470250		think	think
sw2827B-ms98-a-0064	B.122	279.470250	279.570250		it	it
sw2827B-ms98-a-0064	B.122	279.570250	279.800250		comes	comes
sw2827B-ms98-a-0064	B.122	279.800250	280.008875		out	out
sw2827B-ms98-a-0064	B.122	280.008875	280.381625		[silence]	[silence]
sw2827B-ms98-a-0065	B.122	280.381625	280.741625		[silence]	[silence]
sw2827B-ms98-a-0065	B.122	280.741625	280.821625		the	the
sw2827B-ms98-a-0065	B.122	280.821625	280.911625		food	food
sw2827B-ms98-a-0065	B.122	280.911625	281.131625		comes	comes
sw2827B-ms98-a-0065	B.122	281.131625	281.291625		out	out
sw2827B-ms98-a-0065	B.122	281.291625	281.471625		very	very
sw2827B-ms98-a-0065	B.122	281.471625	281.971625		tasty	tasty
sw2827B-ms98-a-0065	B.122	281.971625	282.251625		not	not
sw2827B-ms98-a-0065	B.122	282.251625	282.491625		very	very
sw2827B-ms98-a-0065	B.122	282.491625	282.821625		mushy	mushy
sw2827B-ms98-a-0065	B.124	282.821625	283.261625		you	you
sw2827B-ms98-a-0065	B.124	283.261625	283.551625		know	know
sw2827B-ms98-a-0065	B.124	283.551625	283.753375		and	and
sw2827B-ms98-a-0065	B.124	283.753375	284.307125		[silence]	[silence]
sw2827B-ms98-a-0065	B.124	284.307125	284.631625		and	and
sw2827B-ms98-a-0065	B.124	284.631625	284.701625		it	it
sw2827B-ms98-a-0065	B.124	284.701625	285.011625		doesn't	doesn't
sw2827B-ms98-a-0065	B.124	285.011625	285.261625		taste	taste
sw2827B-ms98-a-0065	B.124	285.261625	285.431625		like	like
sw2827B-ms98-a-0065	B.124	285.431625	285.471625		a	a
sw2827B-ms98-a-0065	B.124	285.471625	285.801625		million	million
sw2827B-ms98-a-0065	B.124	285.801625	286.261625		calories	calories
sw2827B-ms98-a-0065	B.124	286.261625	286.555500		of	of
sw2827B-ms98-a-0065	B.124	286.555500	286.736250		[silence]	[silence]
sw2827B-ms98-a-0065	B.124	286.736250	287.161625		oil	oil
sw2827B-ms98-a-0065	B.124	287.161625	287.478875		so	so
sw2827B-ms98-a-0065	B.126	287.478875	287.946875		[silence]	[silence]
sw2827B-ms98-a-0066	B.126	287.946875	288.432375		[silence]	[silence]
sw2827B-ms98-a-0066	B.126	288.432375	288.544875		We	we
sw2827B-ms98-a-0066	B.126	288.544875	288.629375		li-	li[ve]-
sw2827B-ms98-a-0066	B.126	288.629375	288.840375	<DEL>	---	w[e]-
sw2827B-ms98-a-0066	B.126	288.840375	288.960375	<DEL>	---	we
sw2827B-ms98-a-0066	B.126	288.960375	289.126875		live	live
sw2827B-ms98-a-0066	B.126	289.126875	289.227250		in	in
sw2827B-ms98-a-0066	B.126	289.227250	289.346875		our	our
sw2827B-ms98-a-0066	B.126	289.346875	289.695500		wok	wok
sw2827B-ms98-a-0066	B.128	289.695500	290.491000		[silence]	[silence]
sw2827B-ms98-a-0067	B.128	290.491000	291.325750		[silence]	[silence]
sw2827B-ms98-a-0067	B.128	291.325750	291.661250		Yeah	yeah
sw2827B-ms98-a-0067	B.128	291.661250	291.885000		we	we
sw2827B-ms98-a-0067	B.128	291.885000	292.128875		we	we
sw2827B-ms98-a-0067	B.128	292.128875	292.561000		[silence]	[silence]
sw2827B-ms98-a-0067	B.128	292.561000	292.800125		we	we
sw2827B-ms98-a-0067	B.128	292.800125	292.905500	<DEL>	---	we
sw2827B-ms98-a-0067	B.128	292.905500	293.051000		like	like
sw2827B-ms98-a-0067	B.128	293.051000	293.151000		to	to
sw2827B-ms98-a-0067	B.128	293.151000	293.403250		eat	eat
sw2827B-ms98-a-0067	B.128	293.403250	293.574125	<DEL>	---	w[hen]-
sw2827B-ms98-a-0067	B.128	293.574125	293.791250	<DEL>	---	whe[n]-
sw2827B-ms98-a-0067	B.128	293.791250	293.991000		even	even
sw2827B-ms98-a-0067	B.128	293.991000	294.221000		when	when
sw2827B-ms98-a-0067	B.128	294.221000	294.381000		we	we
sw2827B-ms98-a-0067	B.128	294.381000	294.511000		eat	eat
sw2827B-ms98-a-0067	B.128	294.511000	294.651000		out	out
sw2827B-ms98-a-0067	B.128	294.651000	294.761000		and	and
sw2827B-ms98-a-0067	B.128	294.761000	295.051000		stuff	stuff
sw2827B-ms98-a-0067	B.128	295.051000	295.151000		we	we
sw2827B-ms98-a-0067	B.128	295.151000	295.261500		eat	eat
sw2827B-ms98-a-0067	B.128	295.261500	295.900750		[silence]	[silence]
sw2827B-ms98-a-0067	B.128	295.900750	295.934625		a	a
sw2827B-ms98-a-0067	B.128	295.934625	296.001000		lot	lot
sw2827B-ms98-a-0067	B.128	296.001000	296.091000		of	of
sw2827B-ms98-a-0067	B.128	296.091000	296.451000		Chinese	Chinese
sw2827B-ms98-a-0067	B.128	296.451000	296.788625		food	food
sw2827B-ms98-a-0067	B.130	296.788625	297.041000		[silence]	[silence]
sw2827B-ms98-a-0067	B.130	297.041000	297.292750		or	or
sw2827B-ms98-a-0067	B.130	297.292750	297.375625		[silence]	[silence]
sw2827B-ms98-a-0067	B.130	297.375625	297.841000		Japanese	Japanese
sw2827B-ms98-a-0067	B.130	297.841000	298.161000		food	food
sw2827B-ms98-a-0067	B.130	298.161000	298.281000		or	or
sw2827B-ms98-a-0067	B.130	298.281000	298.391000		you	you
sw2827B-ms98-a-0067	B.130	298.391000	298.533625		know	know
sw2827B-ms98-a-0067	B.132	298.533625	298.823625		[silence]	[silence]
sw2827B-ms98-a-0067	B.132	298.823625	299.301000		Korean	Korean
sw2827B-ms98-a-0067	B.134	299.301000	299.391000	<DEL>	---	or
sw2827B-ms98-a-0067	B.134	299.391000	299.541000	<DEL>	---	s[omething]-
sw2827B-ms98-a-0067	B.134	299.541000	299.601000	<DEL>	---	or
sw2827B-ms98-a-0067	B.134	299.601000	299.941000	<DEL>	---	Vietnamese
sw2827B-ms98-a-0067	B.134	299.941000	300.001000	<DEL>	---	or
sw2827B-ms98-a-0067	B.134	300.001000	300.379375	<DEL>	---	something
sw2827B-ms98-a-0067	B.134	300.379375	300.678750		[silence]	[silence]
sw2827B-ms98-a-0068	B.134	300.678750	301.024625		[silence]	[silence]
sw2827B-ms98-a-0068	B.134	301.024625	301.148750		and	and
sw2827B-ms98-a-0068	B.134	301.148750	301.258750		that	that
sw2827B-ms98-a-0068	B.134	301.258750	301.518750		seems	seems
sw2827B-ms98-a-0068	B.134	301.518750	301.688750		to	to
sw2827B-ms98-a-0068	B.134	301.688750	302.098750		so	so
sw2827B-ms98-a-0068	B.134	302.098750	302.408750		wok	wok
sw2827B-ms98-a-0068	B.134	302.408750	302.628750		food	food
sw2827B-ms98-a-0068	B.134	302.628750	302.798750		seems	seems
sw2827B-ms98-a-0068	B.134	302.798750	302.888750		to	to
sw2827B-ms98-a-0068	B.134	302.888750	302.983625		be	be
sw2827B-ms98-a-0068	B.134	302.983625	303.156125		our	our
sw2827B-ms98-a-0068	B.134	303.156125	303.459000		[silence]	[silence]
sw2827B-ms98-a-0068	B.134	303.459000	303.572000	<DEL>	---	our
sw2827B-ms98-a-0068	B.134	303.572000	303.984375		thing	thing
sw2827B-ms98-a-0068	B.136	303.984375	304.435125		[silence]	[silence]
sw2827B-ms98-a-0069	B.136	304.435125	306.399000		[silence]	[silence]
sw2827B-ms98-a-0070	B.136	306.399000	306.859000		[silence]	[silence]
sw2827B-ms98-a-0070	B.136	306.859000	307.204500		So	so
sw2827B-ms98-a-0070	B.136	307.204500	307.629000		anything	anything
sw2827B-ms98-a-0070	B.136	307.629000	307.799000		else	else
sw2827B-ms98-a-0070	B.136	307.799000	307.859000		you	you
sw2827B-ms98-a-0070	B.136	307.859000	308.103125		cook	cook
sw2827B-ms98-a-0070	B.138	308.103125	308.461875		[laughter]	[laughter]
sw2827B-ms98-a-0070	B.138	308.461875	308.729750		[silence]	[silence]
sw2827B-ms98-a-0071	B.138	308.729750	317.230375		[silence]	[silence]
sw2827B-ms98-a-0072	B.138	317.230375	317.514250		[silence]	[silence]
sw2827B-ms98-a-0072	B.138	317.514250	317.590375		Well	well
sw2827B-ms98-a-0072	B.138	317.590375	317.770375		that's	that's
sw2827B-ms98-a-0072	B.138	317.770375	318.056625		good	good
sw2827B-ms98-a-0072	B.138	318.056625	318.350375		[silence]	[silence]
sw2827B-ms98-a-0072	B.138	318.350375	318.540375		that's	that's
sw2827B-ms98-a-0072	B.138	318.540375	318.750375		always	always
sw2827B-ms98-a-0072	B.138	318.750375	318.830375		the	the
sw2827B-ms98-a-0072	B.138	318.830375	318.900375		way	way
sw2827B-ms98-a-0072	B.138	318.900375	318.980375		to	to
sw2827B-ms98-a-0072	B.138	318.980375	319.100375		do	do
sw2827B-ms98-a-0072	B.138	319.100375	319.220750		it	it
sw2827B-ms98-a-0072	B.138	319.220750	319.348875		I	i
sw2827B-ms98-a-0072	B.138	319.348875	319.560375		think	think
sw2827B-ms98-a-0072	B.138	319.560375	319.692000		it's	it's
sw2827B-ms98-a-0072	B.138	319.692000	319.895375	<SUB>	uh	the
sw2827B-ms98-a-0072	B.140	319.895375	320.324000		[silence]	[silence]
sw2827B-ms98-a-0073	B.140	320.324000	323.610750		[silence]	[silence]
sw2827B-ms98-a-0074	B.140	323.610750	324.103500		[silence]	[silence]
sw2827B-ms98-a-0074	B.140	324.103500	324.280750		Oh	oh
sw2827B-ms98-a-0074	B.140	324.280750	324.360750		the	the
sw2827B-ms98-a-0074	B.140	324.360750	324.670750		Wilson	Wilson
sw2827B-ms98-a-0074	B.140	324.670750	325.070750		course	course
sw2827B-ms98-a-0074	B.142	325.070750	325.664625		[silence]	[silence]
sw2827B-ms98-a-0075	B.142	325.664625	326.233750		[silence]	[silence]
sw2827B-ms98-a-0075	B.142	326.233750	326.370375		I	i
sw2827B-ms98-a-0075	B.142	326.370375	326.544625		like	like
sw2827B-ms98-a-0075	B.142	326.544625	326.610500		it	it
sw2827B-ms98-a-0075	B.144	326.610500	327.352750		[silence]	[silence]
sw2827B-ms98-a-0076	B.144	327.352750	328.059625		[silence]	[silence]
sw2827B-ms98-a-0076	B.144	328.059625	328.262750		That's	that's
sw2827B-ms98-a-0076	B.144	328.262750	328.672750		great	great
sw2827B-ms98-a-0076	B.144	328.672750	328.743875		I	i
sw2827B-ms98-a-0076	B.144	328.743875	329.057625		haven't	haven't
sw2827B-ms98-a-0076	B.144	329.057625	329.257250		the	the
sw2827B-ms98-a-0076	B.144	329.257250	329.433750	<DEL>	---	the
sw2827B-ms98-a-0076	B.144	329.433750	329.560875	<DEL>	---	the
sw2827B-ms98-a-0076	B.144	329.560875	329.777625	<DEL>	---	the
sw2827B-ms98-a-0076	B.144	329.777625	329.902125	<DEL>	---	thing
sw2827B-ms98-a-0076	B.144	329.902125	329.963375	<DEL>	---	i
sw2827B-ms98-a-0076	B.144	329.963375	330.068875	<DEL>	---	really
sw2827B-ms98-a-0076	B.144	330.068875	330.222750	<DEL>	---	want
sw2827B-ms98-a-0076	B.144	330.222750	330.292750	<DEL>	---	to
sw2827B-ms98-a-0076	B.144	330.292750	330.452750	<DEL>	---	do
sw2827B-ms98-a-0076	B.144	330.452750	330.562750	<DEL>	---	i
sw2827B-ms98-a-0076	B.144	330.562750	330.692750	<DEL>	---	keep
sw2827B-ms98-a-0076	B.144	330.692750	330.842750	<DEL>	---	seeing
sw2827B-ms98-a-0076	B.144	330.842750	330.902750	<DEL>	---	the
sw2827B-ms98-a-0076	B.144	330.902750	331.142750	<DEL>	---	signs
sw2827B-ms98-a-0076	B.144	331.142750	331.232750	<DEL>	---	for
sw2827B-ms98-a-0076	B.144	331.232750	331.292750	<DEL>	---	the
sw2827B-ms98-a-0076	B.144	331.292750	331.352750	<DEL>	---	the
sw2827B-ms98-a-0076	B.144	331.352750	331.572750		Wilson	Wilson
sw2827B-ms98-a-0076	B.144	331.572750	331.925375		class	class
sw2827B-ms98-a-0076	B.148	331.925375	332.382500		[silence]	[silence]
sw2827B-ms98-a-0077	B.148	332.382500	337.457500		[silence]	[silence]
sw2827B-ms98-a-0078	B.148	337.457500	337.949750		[silence]	[silence]
sw2827B-ms98-a-0078	B.148	337.949750	338.671750		[laughter]	[laughter]
sw2827B-ms98-a-0078	B.148	338.671750	339.151625		[silence]	[silence]
sw2827B-ms98-a-0079	B.148	339.151625	345.661875		[silence]	[silence]
sw2827B-ms98-a-0080	B.148	345.661875	346.158375		[silence]	[silence]
sw2827B-ms98-a-0080	B.148	346.158375	346.414875		Right	right
sw2827B-ms98-a-0080	B.150	346.414875	346.899750		[silence]	[silence]
sw2827B-ms98-a-0081	B.150	346.899750	349.601750		[silence]	[silence]
sw2827B-ms98-a-0082	B.150	349.601750	350.096500		[silence]	[silence]
sw2827B-ms98-a-0082	B.150	350.096500	350.511125		Uh-huh	uh-huh
sw2827B-ms98-a-0082	B.152	350.511125	350.985500		[silence]	[silence]
sw2827B-ms98-a-0083	B.152	350.985500	353.949125		[silence]	[silence]
sw2827B-ms98-a-0084	B.152	353.949125	354.441875		[silence]	[silence]
sw2827B-ms98-a-0084	B.152	354.441875	354.619125		Yeah	yeah
sw2827B-ms98-a-0084	B.152	354.619125	354.889125		oh	oh
sw2827B-ms98-a-0084	B.152	354.889125	355.336250		yeah	yeah
sw2827B-ms98-a-0084	B.152	355.336250	355.489125		we	we
sw2827B-ms98-a-0084	B.152	355.489125	355.823500		have	have
sw2827B-ms98-a-0084	B.152	355.823500	356.074625		um	um
sw2827B-ms98-a-0084	B.152	356.074625	356.150000		[silence]	[silence]
sw2827B-ms98-a-0084	B.152	356.150000	356.269125		my	my
sw2827B-ms98-a-0084	B.152	356.269125	356.559125		brother	brother
sw2827B-ms98-a-0084	B.152	356.559125	356.739125		can	can
sw2827B-ms98-a-0084	B.152	356.739125	356.879125		do	do
sw2827B-ms98-a-0084	B.152	356.879125	356.999125		it	it
sw2827B-ms98-a-0084	B.154	356.999125	357.326250		he's	he's
sw2827B-ms98-a-0084	B.154	357.326250	357.499125		he's	he's
sw2827B-ms98-a-0084	B.154	357.499125	357.726750		uh	uh
sw2827B-ms98-a-0084	B.154	357.726750	358.069500		[silence]	[silence]
sw2827B-ms98-a-0084	B.154	358.069500	358.169125		got	got
sw2827B-ms98-a-0084	B.154	358.169125	358.209125		a	a
sw2827B-ms98-a-0084	B.154	358.209125	358.459125		degree	degree
sw2827B-ms98-a-0084	B.154	358.459125	358.530375		in	in
sw2827B-ms98-a-0084	B.154	358.530375	358.828000		[silence]	[silence]
sw2827B-ms98-a-0084	B.154	358.828000	359.109125		business	business
sw2827B-ms98-a-0084	B.154	359.109125	359.658500		management	management
sw2827B-ms98-a-0084	B.154	359.658500	359.779125		so	so
sw2827B-ms98-a-0084	B.154	359.779125	359.879125		he	he
sw2827B-ms98-a-0084	B.154	359.879125	360.139125		learned	learned
sw2827B-ms98-a-0084	B.154	360.139125	360.241375		to	to
sw2827B-ms98-a-0084	B.154	360.241375	360.371375		uh	uh
sw2827B-ms98-a-0084	B.154	360.371375	360.789500		[silence]	[silence]
sw2827B-ms98-a-0084	B.154	360.789500	360.909125		how	how
sw2827B-ms98-a-0084	B.154	360.909125	360.969125		to	to
sw2827B-ms98-a-0084	B.154	360.969125	361.175250		do	do
sw2827B-ms98-a-0084	B.154	361.175250	361.566500		this	this
sw2827B-ms98-a-0084	B.156	361.566500	361.877250	<DEL>	---	really
sw2827B-ms98-a-0084	B.156	361.877250	362.083375	<DEL>	---	well
sw2827B-ms98-a-0084	B.156	362.083375	362.378250		[silence]	[silence]
sw2827B-ms98-a-0085	B.156	362.378250	362.743125		[silence]	[silence]
sw2827B-ms98-a-0085	B.156	362.743125	362.808250		Can	can
sw2827B-ms98-a-0085	B.156	362.808250	362.868250		you	you
sw2827B-ms98-a-0085	B.156	362.868250	363.038250		hold	hold
sw2827B-ms98-a-0085	B.156	363.038250	363.148250		on	on
sw2827B-ms98-a-0085	B.156	363.148250	363.248250		one	one
sw2827B-ms98-a-0085	B.156	363.248250	363.572125		second	second
sw2827B-ms98-a-0085	B.158	363.572125	364.091625		[silence]	[silence]
sw2827B-ms98-a-0085	B.158	364.091625	364.248250		Thank	thank
sw2827B-ms98-a-0085	B.158	364.248250	364.381875		you	you
sw2827B-ms98-a-0085	B.158	364.381875	364.733750		[silence]	[silence]
sw2827B-ms98-a-0086	B.158	364.733750	364.746125		[silence]	[silence]
sw2827B-ms98-a-0086	B.158	364.746125	365.051500		[noise]	[noise]
sw2827B-ms98-a-0086	B.158	365.051500	365.556750		[silence]	[silence]
sw2827B-ms98-a-0087	B.158	365.556750	374.056375		[silence]	[silence]
sw2827B-ms98-a-0088	B.158	374.056375	374.540125		[silence]	[silence]
sw2827B-ms98-a-0088	B.158	374.540125	374.726375		Sorry	sorry
sw2827B-ms98-a-0088	B.158	374.726375	374.896375		about	about
sw2827B-ms98-a-0088	B.158	374.896375	375.114875		that	that
sw2827B-ms98-a-0088	B.160	375.114875	375.541000		[silence]	[silence]
sw2827B-ms98-a-0089	B.160	375.541000	375.940375		[silence]	[silence]
sw2827B-ms98-a-0089	B.160	375.940375	376.021000		Some	some
sw2827B-ms98-a-0089	B.160	376.021000	376.183750		one	one
sw2827B-ms98-a-0089	B.160	376.183750	376.385625		kept	kept
sw2827B-ms98-a-0089	B.160	376.385625	376.532500		[silence]	[silence]
sw2827B-ms98-a-0089	B.160	376.532500	376.781000		beeping	beeping
sw2827B-ms98-a-0089	B.160	376.781000	376.871000		in	in
sw2827B-ms98-a-0089	B.160	376.871000	376.951000		our	our
sw2827B-ms98-a-0089	B.160	376.951000	377.181000		calling	calling
sw2827B-ms98-a-0089	B.160	377.181000	377.401000		waiting	waiting
sw2827B-ms98-a-0089	B.162	377.401000	377.491000	<DEL>	---	over
sw2827B-ms98-a-0089	B.162	377.491000	377.671500	<DEL>	---	and
sw2827B-ms98-a-0089	B.162	377.671500	377.809000		[silence]	[silence]
sw2827B-ms98-a-0089	B.162	377.809000	377.884375	<DEL>	---	over
sw2827B-ms98-a-0089	B.162	377.884375	378.067500	<DEL>	---	again
sw2827B-ms98-a-0089	B.162	378.067500	378.549500		[silence]	[silence]
sw2827B-ms98-a-0089	B.162	378.549500	378.901250		so	so
sw2827B-ms98-a-0089	B.164	378.901250	379.362125		[silence]	[silence]
sw2827B-ms98-a-0090	B.164	379.362125	379.857250		[silence]	[silence]
sw2827B-ms98-a-0090	B.164	379.857250	380.195250		Yeah	yeah
sw2827B-ms98-a-0090	B.164	380.195250	380.371625		he	he
sw2827B-ms98-a-0090	B.164	380.371625	380.548125		he	he
sw2827B-ms98-a-0090	B.164	380.548125	380.656375	<SUB>	do-	d[oes]-
sw2827B-ms98-a-0090	B.164	380.656375	380.756625	<DEL>	---	he
sw2827B-ms98-a-0090	B.164	380.756625	380.854125		does	does
sw2827B-ms98-a-0090	B.164	380.854125	381.044125		that	that
sw2827B-ms98-a-0090	B.164	381.044125	381.167250	<DEL>	---	th[at]-
sw2827B-ms98-a-0090	B.164	381.167250	381.313875	<DEL>	---	that
sw2827B-ms98-a-0090	B.164	381.313875	381.400500		a	a
sw2827B-ms98-a-0090	B.164	381.400500	381.693875		lot	lot
sw2827B-ms98-a-0090	B.166	381.693875	382.209875		[noise]	[noise]
sw2827B-ms98-a-0090	B.166	382.209875	382.317750		so	so
sw2827B-ms98-a-0090	B.166	382.317750	382.426875		you	you
sw2827B-ms98-a-0090	B.166	382.426875	382.572125		know	know
sw2827B-ms98-a-0090	B.166	382.572125	382.812125		he	he
sw2827B-ms98-a-0090	B.166	382.812125	383.062125		cooks	cooks
sw2827B-ms98-a-0090	B.166	383.062125	383.130250		a	a
sw2827B-ms98-a-0090	B.166	383.130250	383.375750		lot	lot
sw2827B-ms98-a-0090	B.166	383.375750	383.572375	<DEL>	---	and
sw2827B-ms98-a-0090	B.166	383.572375	383.774375		[silence]	[silence]
sw2827B-ms98-a-0091	B.166	383.774375	384.046500		[silence]	[silence]
sw2827B-ms98-a-0091	B.166	384.046500	384.244375		but	but
sw2827B-ms98-a-0091	B.168	384.244375	384.354375		you	you
sw2827B-ms98-a-0091	B.168	384.354375	384.548875		know	know
sw2827B-ms98-a-0091	B.168	384.548875	384.754375		he	he
sw2827B-ms98-a-0091	B.168	384.754375	385.104375		bakes	bakes
sw2827B-ms98-a-0091	B.168	385.104375	385.206500		a	a
sw2827B-ms98-a-0091	B.168	385.206500	385.518625		lot	lot
sw2827B-ms98-a-0091	B.168	385.518625	385.881250		whenever	whenever
sw2827B-ms98-a-0091	B.168	385.881250	386.071125		he	he
sw2827B-ms98-a-0091	B.168	386.071125	386.681375		[silence]	[silence]
sw2827B-ms98-a-0091	B.168	386.681375	386.836500	<SUB>	whe-	when
sw2827B-ms98-a-0091	B.168	386.836500	386.944375	<DEL>	---	m[y]-
sw2827B-ms98-a-0091	B.168	386.944375	387.162625		when	when
sw2827B-ms98-a-0091	B.168	387.162625	387.349625		my	my
sw2827B-ms98-a-0091	B.168	387.349625	387.457000	<DEL>	---	my
sw2827B-ms98-a-0091	B.168	387.457000	387.584375		wife	wife
sw2827B-ms98-a-0091	B.168	387.584375	387.674375		and	and
sw2827B-ms98-a-0091	B.168	387.674375	387.714375		I	i
sw2827B-ms98-a-0091	B.168	387.714375	387.904375		got	got
sw2827B-ms98-a-0091	B.168	387.904375	388.174375		married	married
sw2827B-ms98-a-0091	B.168	388.174375	388.234375		the	the
sw2827B-ms98-a-0091	B.168	388.234375	388.384375		night	night
sw2827B-ms98-a-0091	B.168	388.384375	388.704375		before	before
sw2827B-ms98-a-0091	B.168	388.704375	388.784375		we	we
sw2827B-ms98-a-0091	B.168	388.784375	388.924375		had	had
sw2827B-ms98-a-0091	B.168	388.924375	388.964375		a	a
sw2827B-ms98-a-0091	B.168	388.964375	389.415000		party	party
sw2827B-ms98-a-0091	B.170	389.415000	390.017625		[silence]	[silence]
sw2827B-ms98-a-0091	B.170	390.017625	390.123000		Or	or
sw2827B-ms98-a-0091	B.170	390.123000	390.194375		two	two
sw2827B-ms98-a-0091	B.170	390.194375	390.334375		nights	nights
sw2827B-ms98-a-0091	B.170	390.334375	390.654375		before	before
sw2827B-ms98-a-0091	B.170	390.654375	390.744375		and	and
sw2827B-ms98-a-0091	B.170	390.744375	390.884375		he	he
sw2827B-ms98-a-0091	B.170	390.884375	391.174375		baked	baked
sw2827B-ms98-a-0091	B.170	391.174375	391.478875		us	us
sw2827B-ms98-a-0091	B.170	391.478875	391.784750		he	he
sw2827B-ms98-a-0091	B.170	391.784750	391.920250		[silence]	[silence]
sw2827B-ms98-a-0091	B.170	391.920250	392.120000		made	made
sw2827B-ms98-a-0091	B.170	392.120000	392.214375		a	a
sw2827B-ms98-a-0091	B.170	392.214375	392.374375		real	real
sw2827B-ms98-a-0091	B.170	392.374375	392.524375		big	big
sw2827B-ms98-a-0091	B.170	392.524375	392.744375		cake	cake
sw2827B-ms98-a-0091	B.170	392.744375	393.264375		himself	himself
sw2827B-ms98-a-0091	B.172	393.264375	393.851875		[silence]	[silence]
sw2827B-ms98-a-0092	B.172	393.851875	394.075625		[silence]	[silence]
sw2827B-ms98-a-0092	B.172	394.075625	394.161875	<SUB>	so	did
sw2827B-ms98-a-0092	B.172	394.161875	394.251875	<DEL>	---	it
sw2827B-ms98-a-0092	B.172	394.251875	394.471875	<DEL>	---	up
sw2827B-ms98-a-0092	B.172	394.471875	394.581875	<DEL>	---	and
sw2827B-ms98-a-0092	B.172	394.581875	394.641875	<DEL>	---	we
sw2827B-ms98-a-0092	B.172	394.641875	394.706625	<DEL>	---	have
sw2827B-ms98-a-0092	B.172	394.706625	394.775125	<DEL>	---	a
sw2827B-ms98-a-0092	B.172	394.775125	395.131875	<DEL>	---	friend
sw2827B-ms98-a-0092	B.172	395.131875	395.201875	<DEL>	---	who
sw2827B-ms98-a-0092	B.172	395.201875	395.371875	<DEL>	---	can
sw2827B-ms98-a-0092	B.172	395.371875	395.640500	<DEL>	---	do
sw2827B-ms98-a-0092	B.172	395.640500	396.024625		[silence]	[silence]
sw2827B-ms98-a-0092	B.172	396.024625	396.151875	<DEL>	---	for
sw2827B-ms98-a-0092	B.172	396.151875	396.301875		New	New
sw2827B-ms98-a-0092	B.172	396.301875	396.521875		Years	Years
sw2827B-ms98-a-0092	B.172	396.521875	396.621875		our	our
sw2827B-ms98-a-0092	B.172	396.621875	396.881875		friend	friend
sw2827B-ms98-a-0092	B.172	396.881875	397.021875		made	made
sw2827B-ms98-a-0092	B.172	397.021875	397.061875		a	a
sw2827B-ms98-a-0092	B.172	397.061875	397.491875		baby	baby
sw2827B-ms98-a-0092	B.174	397.491875	397.874375		[silence]	[silence]
sw2827B-ms98-a-0093	B.174	397.874375	398.356500		[silence]	[silence]
sw2827B-ms98-a-0093	B.174	398.356500	398.854250		Cake	cake
sw2827B-ms98-a-0093	B.174	398.854250	399.044375		like	like
sw2827B-ms98-a-0093	B.174	399.044375	399.104375		a	a
sw2827B-ms98-a-0093	B.174	399.104375	399.354375		baby	baby
sw2827B-ms98-a-0093	B.174	399.354375	399.555375		New	New
sw2827B-ms98-a-0093	B.174	399.555375	399.714875		York	York
sw2827B-ms98-a-0093	B.176	399.714875	400.175750		[silence]	[silence]
sw2827B-ms98-a-0094	B.176	400.175750	400.706500		[silence]	[silence]
sw2827B-ms98-a-0094	B.176	400.706500	400.779000		It	it
sw2827B-ms98-a-0094	B.176	400.779000	400.875750		was	was
sw2827B-ms98-a-0094	B.176	400.875750	401.425000		amazing	amazing
sw2827B-ms98-a-0094	B.176	401.425000	401.922375		[silence]	[silence]
sw2827B-ms98-a-0095	B.176	401.922375	402.390250		[silence]	[silence]
sw2827B-ms98-a-0095	B.176	402.390250	402.573250		I	i
sw2827B-ms98-a-0095	B.176	402.573250	402.806875		never	never
sw2827B-ms98-a-0095	B.178	402.806875	402.963125	<SUB>	could	ha[ve]-
sw2827B-ms98-a-0095	B.178	402.963125	403.152375	<DEL>	---	can't
sw2827B-ms98-a-0095	B.178	403.152375	403.252375		do	do
sw2827B-ms98-a-0095	B.178	403.252375	403.522375		anything	anything
sw2827B-ms98-a-0095	B.178	403.522375	403.622375		with	with
sw2827B-ms98-a-0095	B.178	403.622375	403.912375		cakes	cakes
sw2827B-ms98-a-0095	B.178	403.912375	404.043750		so	so
sw2827B-ms98-a-0095	B.180	404.043750	404.688875		[silence]	[silence]
sw2827B-ms98-a-0096	B.180	404.688875	405.307875		[silence]	[silence]
sw2827B-ms98-a-0096	B.180	405.307875	405.438875		I	i
sw2827B-ms98-a-0096	B.180	405.438875	405.608875		get	get
sw2827B-ms98-a-0096	B.180	405.608875	405.668875		the	the
sw2827B-ms98-a-0096	B.180	405.668875	406.038875		mold	mold
sw2827B-ms98-a-0096	B.180	406.038875	406.078875		I	i
sw2827B-ms98-a-0096	B.180	406.078875	406.308875		put	put
sw2827B-ms98-a-0096	B.180	406.308875	406.408875		I	i
sw2827B-ms98-a-0096	B.180	406.408875	406.638875		put	put
sw2827B-ms98-a-0096	B.180	406.638875	406.738875		it	it
sw2827B-ms98-a-0096	B.180	406.738875	406.958875		on	on
sw2827B-ms98-a-0096	B.180	406.958875	407.038875		you	you
sw2827B-ms98-a-0096	B.180	407.038875	407.219250		know	know
sw2827B-ms98-a-0096	B.180	407.219250	407.424125	<DEL>	---	th[e]-
sw2827B-ms98-a-0096	B.180	407.424125	407.580875	<DEL>	---	th[e]-
sw2827B-ms98-a-0096	B.180	407.580875	407.663750		the	the
sw2827B-ms98-a-0096	B.180	407.663750	407.991375		frosting	frosting
sw2827B-ms98-a-0096	B.180	407.991375	408.162500	<SUB>	always	starts
sw2827B-ms98-a-0096	B.180	408.162500	408.248500	<DEL>	---	to
sw2827B-ms98-a-0096	B.180	408.248500	408.632625	<SUB>	melts	melt
sw2827B-ms98-a-0096	B.180	408.632625	408.772375		and	and
sw2827B-ms98-a-0096	B.180	408.772375	409.227750		[silence]	[silence]
sw2827B-ms98-a-0096	B.180	409.227750	409.310250	<SUB>	it's	it
sw2827B-ms98-a-0096	B.180	409.310250	409.516750	<DEL>	---	ju[st]-
sw2827B-ms98-a-0096	B.182	409.516750	409.667500	<SUB>	it's	it
sw2827B-ms98-a-0096	B.182	409.667500	409.901500		just	just
sw2827B-ms98-a-0096	B.182	409.901500	410.075125	<DEL>	---	looks
sw2827B-ms98-a-0096	B.182	410.075125	410.569750		horrible	horrible
sw2827B-ms98-a-0096	B.184	410.569750	410.881625		[vocalized-noise]	[vocalized-noise]
sw2827B-ms98-a-0096	B.184	410.881625	411.036250		[silence]	[silence]
sw2827B-ms98-a-0097	B.184	411.036250	414.180125		[silence]	[silence]
sw2827B-ms98-a-0098	B.184	414.180125	414.666250		[silence]	[silence]
sw2827B-ms98-a-0098	B.184	414.666250	415.007625		Yeah	yeah
sw2827B-ms98-a-0098	B.184	415.007625	415.283125		I'm	i'm
sw2827B-ms98-a-0098	B.186	415.283125	415.783750		[silence]	[silence]
sw2827B-ms98-a-0099	B.186	415.783750	423.632875		[silence]	[silence]
sw2827B-ms98-a-0100	B.186	423.632875	424.103625		[silence]	[silence]
sw2827B-ms98-a-0100	B.186	424.103625	424.422875		Oh	oh
sw2827B-ms98-a-0100	B.186	424.422875	424.581750		that	that
sw2827B-ms98-a-0100	B.186	424.581750	424.679625		[silence]	[silence]
sw2827B-ms98-a-0100	B.186	424.679625	424.926375		that	that
sw2827B-ms98-a-0100	B.186	424.926375	425.013875		[silence]	[silence]
sw2827B-ms98-a-0100	B.186	425.013875	425.123125		you	you
sw2827B-ms98-a-0100	B.186	425.123125	425.299875		mean	mean
sw2827B-ms98-a-0100	B.186	425.299875	425.424125	<DEL>	---	you
sw2827B-ms98-a-0100	B.186	425.424125	425.480000	<DEL>	---	me[an]-
sw2827B-ms98-a-0100	B.186	425.480000	425.602875		[vocalized-noise]	[vocalized-noise]
sw2827B-ms98-a-0100	B.186	425.602875	425.782875		about	about
sw2827B-ms98-a-0100	B.186	425.782875	425.852875		the	the
sw2827B-ms98-a-0100	B.188	425.852875	426.102875		mix	mix
sw2827B-ms98-a-0100	B.188	426.102875	426.524375		itself	itself
sw2827B-ms98-a-0100	B.190	426.524375	426.838500	<DEL>	---	even
sw2827B-ms98-a-0100	B.190	426.838500	427.445375		[silence]	[silence]
sw2827B-ms98-a-0100	B.190	427.445375	427.524500		Well	well
sw2827B-ms98-a-0100	B.190	427.524500	427.671250		that	that
sw2827B-ms98-a-0100	B.190	427.671250	428.044000		helps	helps
sw2827B-ms98-a-0100	B.192	428.044000	428.508750		[silence]	[silence]
sw2827B-ms98-a-0101	B.192	428.508750	437.677750		[silence]	[silence]
sw2827B-ms98-a-0102	B.192	437.677750	438.175125		[silence]	[silence]
sw2827B-ms98-a-0102	B.192	438.175125	438.499125		Yeah	yeah
sw2827B-ms98-a-0102	B.194	438.499125	439.081250		[silence]	[silence]
sw2827B-ms98-a-0103	B.194	439.081250	439.717750		[silence]	[silence]
sw2827B-ms98-a-0103	B.194	439.717750	439.841250		Well	well
sw2827B-ms98-a-0103	B.194	439.841250	440.091250		most	most
sw2827B-ms98-a-0103	B.194	440.091250	440.431250		frostings	frostings
sw2827B-ms98-a-0103	B.194	440.431250	440.491250		are	are
sw2827B-ms98-a-0103	B.194	440.491250	440.661250		sort	sort
sw2827B-ms98-a-0103	B.194	440.661250	440.751250		of	of
sw2827B-ms98-a-0103	B.194	440.751250	440.941250		butter	butter
sw2827B-ms98-a-0103	B.194	440.941250	441.161250		cream	cream
sw2827B-ms98-a-0103	B.194	441.161250	441.221250		to	to
sw2827B-ms98-a-0103	B.194	441.221250	441.381250		aren't	aren't
sw2827B-ms98-a-0103	B.194	441.381250	441.578875		they	they
sw2827B-ms98-a-0103	B.196	441.578875	442.158750		[silence]	[silence]
sw2827B-ms98-a-0104	B.196	442.158750	442.776875		[silence]	[silence]
sw2827B-ms98-a-0104	B.196	442.776875	442.951625		Those	those
sw2827B-ms98-a-0104	B.196	442.951625	443.107250		are	are
sw2827B-ms98-a-0104	B.196	443.107250	443.211375		[silence]	[silence]
sw2827B-ms98-a-0104	B.196	443.211375	443.348750		those	those
sw2827B-ms98-a-0104	B.196	443.348750	443.588750		kill	kill
sw2827B-ms98-a-0104	B.196	443.588750	443.815375		me	me
sw2827B-ms98-a-0104	B.196	443.815375	443.932250		[silence]	[silence]
sw2827B-ms98-a-0104	B.196	443.932250	444.178750		it's	it's
sw2827B-ms98-a-0104	B.196	444.178750	444.298750		like	like
sw2827B-ms98-a-0104	B.196	444.298750	444.468750		it's	it's
sw2827B-ms98-a-0104	B.196	444.468750	444.628750		like	like
sw2827B-ms98-a-0104	B.196	444.628750	444.688750		I'm	i'm
sw2827B-ms98-a-0104	B.196	444.688750	444.978750		eating	eating
sw2827B-ms98-a-0104	B.196	444.978750	445.321875		sugar	sugar
sw2827B-ms98-a-0104	B.196	445.321875	445.984875		[silence]	[silence]
sw2827B-ms98-a-0104	B.196	445.984875	446.068750		but	but
sw2827B-ms98-a-0104	B.196	446.068750	446.158750		they're	they're
sw2827B-ms98-a-0104	B.196	446.158750	446.398750		good	good
sw2827B-ms98-a-0104	B.196	446.398750	446.748500		sugar	sugar
sw2827B-ms98-a-0104	B.198	446.748500	447.496500		[silence]	[silence]
sw2827B-ms98-a-0105	B.198	447.496500	448.498875		[silence]	[silence]
sw2827B-ms98-a-0106	B.198	448.498875	448.908500		[silence]	[silence]
sw2827B-ms98-a-0106	B.198	448.908500	449.017750		I	i
sw2827B-ms98-a-0106	B.198	449.017750	449.298875	<SUB>	think	suspect
sw2827B-ms98-a-0106	B.198	449.298875	449.438875		that's	that's
sw2827B-ms98-a-0106	B.198	449.438875	449.598875		part	part
sw2827B-ms98-a-0106	B.198	449.598875	449.698875		of	of
sw2827B-ms98-a-0106	B.198	449.698875	449.778875		the	the
sw2827B-ms98-a-0106	B.198	449.778875	450.208875		problem	problem
sw2827B-ms98-a-0106	B.198	450.208875	450.398875	<SUB>	yeah	but
sw2827B-ms98-a-0106	B.200	450.398875	450.516875	<DEL>	---	you
sw2827B-ms98-a-0106	B.200	450.516875	450.768125	<DEL>	---	know
sw2827B-ms98-a-0106	B.200	450.768125	451.163625		[silence]	[silence]
sw2827B-ms98-a-0107	B.200	451.163625	453.173625		[silence]	[silence]
sw2827B-ms98-a-0108	B.200	453.173625	453.671000		[silence]	[silence]
sw2827B-ms98-a-0108	B.200	453.671000	453.783250		Yeah	yeah
sw2827B-ms98-a-0108	B.200	453.783250	453.866375		I	i
sw2827B-ms98-a-0108	B.200	453.866375	454.043625		guess	guess
sw2827B-ms98-a-0108	B.200	454.043625	454.350375		so	so
sw2827B-ms98-a-0108	B.202	454.350375	454.587125		[silence]	[silence]
sw2827B-ms98-a-0108	B.202	454.587125	454.636000		It	it
sw2827B-ms98-a-0108	B.202	454.636000	454.760250		was	was
sw2827B-ms98-a-0108	B.202	454.760250	454.908125		it	it
sw2827B-ms98-a-0108	B.202	454.908125	455.130875		was	was
sw2827B-ms98-a-0108	B.202	455.130875	455.610750		[silence]	[silence]
sw2827B-ms98-a-0108	B.202	455.610750	455.682250		a	a
sw2827B-ms98-a-0108	B.202	455.682250	455.913625		pleasure	pleasure
sw2827B-ms98-a-0108	B.202	455.913625	456.195250		chatting	chatting
sw2827B-ms98-a-0108	B.202	456.195250	456.308250		with	with
sw2827B-ms98-a-0108	B.202	456.308250	456.502500		you	you
sw2827B-ms98-a-0108	B.204	456.502500	456.977125		[silence]	[silence]
sw2827B-ms98-a-0108	B.204	456.977125	457.263625		Yes	yes
sw2827B-ms98-a-0108	B.204	457.263625	457.555250		well	well
sw2827B-ms98-a-0108	B.204	457.555250	457.630625		[silence]	[silence]
sw2827B-ms98-a-0108	B.204	457.630625	457.883625		have	have
sw2827B-ms98-a-0108	B.204	457.883625	458.113625		a	a
sw2827B-ms98-a-0108	B.204	458.113625	458.273625		good	good
sw2827B-ms98-a-0108	B.204	458.273625	458.453625		time	time
sw2827B-ms98-a-0108	B.204	458.453625	458.683625		cooking	cooking
sw2827B-ms98-a-0108	B.204	458.683625	458.743625		for	for
sw2827B-ms98-a-0108	B.204	458.743625	458.843625		your	your
sw2827B-ms98-a-0108	B.204	458.843625	459.033625		dinner	dinner
sw2827B-ms98-a-0108	B.204	459.033625	459.213625		party	party
sw2827B-ms98-a-0108	B.204	459.213625	459.383625		next	next
sw2827B-ms98-a-0108	B.204	459.383625	459.680375		week	week
sw2827B-ms98-a-0108	B.206	459.680375	459.987125		[silence]	[silence]
sw2827B-ms98-a-0109	B.206	459.987125	460.287125		[silence]	[silence]
sw2827B-ms98-a-0109	B.206	460.287125	460.428750	<DEL>	---	all
sw2827B-ms98-a-0109	B.206	460.428750	460.693125	<DEL>	---	righty
sw2827B-ms98-a-0109	B.206	460.693125	461.088500		[silence]	[silence]
sw2827B-ms98-a-0109	B.206	461.088500	461.447875		Bye-bye	bye-bye
sw2827B-ms98-a-0109	B.206	461.447875	462.543000		[noise]	[noise]
sw2827B-ms98-a-0109	B.206	462.543000	462.617500		[silence]	[silence]
sw2827B-ms98-a-0110	B.206	462.617500	463.216000		[silence]	[silence]
