sw2983B-ms98-a-0001	A.1	0.000000	0.006000		[silence]	[silence]
sw2983B-ms98-a-0001	A.1	0.006000	0.045875		[noise]	[noise]
sw2983B-ms98-a-0001	A.1	0.045875	0.530000		[silence]	[silence]
sw2983B-ms98-a-0002	A.1	0.530000	0.552625		[silence]	[silence]
sw2983B-ms98-a-0002	A.1	0.552625	1.130000		Okay	okay
sw2983B-ms98-a-0002	A.1	1.130000	1.343500		is	is
sw2983B-ms98-a-0002	A.1	1.343500	1.610000		uh	uh
sw2983B-ms98-a-0002	A.1	1.610000	1.800000		that	that
sw2983B-ms98-a-0002	A.1	1.800000	1.830000		a	a
sw2983B-ms98-a-0002	A.1	1.830000	2.160000		sport	sport
sw2983B-ms98-a-0002	A.1	2.160000	2.250000		you	you
sw2983B-ms98-a-0002	A.1	2.250000	2.380000		like	like
sw2983B-ms98-a-0002	A.1	2.380000	2.480000		to	to
sw2983B-ms98-a-0002	A.1	2.480000	3.158500		participate	participate
sw2983B-ms98-a-0002	A.1	3.158500	3.701250		in	in
sw2983B-ms98-a-0002	A.3	3.701250	4.796000		[laughter]	[laughter]
sw2983B-ms98-a-0002	A.3	4.796000	5.828250		[silence]	[silence]
sw2983B-ms98-a-0003	A.3	5.828250	12.701625		[silence]	[silence]
sw2983B-ms98-a-0004	A.3	12.701625	12.866125		[silence]	[silence]
sw2983B-ms98-a-0004	A.3	12.866125	13.450250		Uh-huh	uh-huh
sw2983B-ms98-a-0004	A.3	13.450250	14.409375		[silence]	[silence]
sw2983B-ms98-a-0004	A.3	14.409375	14.581625		My	my
sw2983B-ms98-a-0004	A.3	14.581625	15.211625		husband	husband
sw2983B-ms98-a-0004	A.3	15.211625	15.491625		likes	likes
sw2983B-ms98-a-0004	A.3	15.491625	15.771625		golf	golf
sw2983B-ms98-a-0004	A.3	15.771625	16.091625		also	also
sw2983B-ms98-a-0004	A.3	16.091625	16.451625		he's	he's
sw2983B-ms98-a-0004	A.3	16.451625	16.813250		uh	uh
sw2983B-ms98-a-0004	A.3	16.813250	17.498750		[silence]	[silence]
sw2983B-ms98-a-0004	A.3	17.498750	17.601625		I	i
sw2983B-ms98-a-0004	A.3	17.601625	17.771625		guess	guess
sw2983B-ms98-a-0004	A.3	17.771625	17.911625		he'd	he'd
sw2983B-ms98-a-0004	A.3	17.911625	18.041625		be	be
sw2983B-ms98-a-0004	A.3	18.041625	18.091625		a	a
sw2983B-ms98-a-0004	A.3	18.091625	18.541625		fanatic	fanatic
sw2983B-ms98-a-0004	A.3	18.541625	18.641625		if	if
sw2983B-ms98-a-0004	A.3	18.641625	18.721625		he	he
sw2983B-ms98-a-0004	A.3	18.721625	18.891625		thought	thought
sw2983B-ms98-a-0004	A.3	18.891625	18.951625		he	he
sw2983B-ms98-a-0004	A.3	18.951625	19.101625		could	could
sw2983B-ms98-a-0004	A.3	19.101625	19.221625		get	get
sw2983B-ms98-a-0004	A.3	19.221625	19.481625		away	away
sw2983B-ms98-a-0004	A.3	19.481625	19.731625		with	with
sw2983B-ms98-a-0004	A.3	19.731625	19.894625		it	it
sw2983B-ms98-a-0004	A.5	19.894625	21.636500		[laughter]	[laughter]
sw2983B-ms98-a-0004	A.5	21.636500	21.782875		But	but
sw2983B-ms98-a-0004	A.5	21.782875	22.008875		he	he
sw2983B-ms98-a-0004	A.5	22.008875	22.191625		he	he
sw2983B-ms98-a-0004	A.5	22.191625	22.491625		limits	limits
sw2983B-ms98-a-0004	A.5	22.491625	22.601625		it	it
sw2983B-ms98-a-0004	A.5	22.601625	22.821625		pretty	pretty
sw2983B-ms98-a-0004	A.5	22.821625	23.115500		good	good
sw2983B-ms98-a-0004	A.5	23.115500	23.454875		I	i
sw2983B-ms98-a-0004	A.5	23.454875	23.881875		um	um
sw2983B-ms98-a-0004	A.5	23.881875	24.158625		[silence]	[silence]
sw2983B-ms98-a-0005	A.5	24.158625	24.578500		[silence]	[silence]
sw2983B-ms98-a-0005	A.5	24.578500	24.728625		have	have
sw2983B-ms98-a-0005	A.5	24.728625	25.188625		tried	tried
sw2983B-ms98-a-0005	A.5	25.188625	25.278625		to	to
sw2983B-ms98-a-0005	A.5	25.278625	25.448625		go	go
sw2983B-ms98-a-0005	A.5	25.448625	25.638625		out	out
sw2983B-ms98-a-0005	A.5	25.638625	25.728625		and	and
sw2983B-ms98-a-0005	A.5	25.728625	25.928625		play	play
sw2983B-ms98-a-0005	A.5	25.928625	26.258625		golf	golf
sw2983B-ms98-a-0005	A.5	26.258625	26.368625		He	he
sw2983B-ms98-a-0005	A.5	26.368625	26.478625		would	would
sw2983B-ms98-a-0005	A.5	26.478625	26.688625		love	love
sw2983B-ms98-a-0005	A.5	26.688625	26.758625		it	it
sw2983B-ms98-a-0005	A.5	26.758625	26.898625		if	if
sw2983B-ms98-a-0005	A.5	26.898625	26.978625		I	i
sw2983B-ms98-a-0005	A.5	26.978625	27.108625		would	would
sw2983B-ms98-a-0005	A.5	27.108625	27.268625		go	go
sw2983B-ms98-a-0005	A.5	27.268625	27.438625		out	out
sw2983B-ms98-a-0005	A.5	27.438625	27.548625		and	and
sw2983B-ms98-a-0005	A.5	27.548625	27.748625		play	play
sw2983B-ms98-a-0005	A.5	27.748625	27.918625		with	with
sw2983B-ms98-a-0005	A.5	27.918625	28.118625		him	him
sw2983B-ms98-a-0005	A.5	28.118625	28.370625		but	but
sw2983B-ms98-a-0005	A.7	28.370625	28.849000		[silence]	[silence]
sw2983B-ms98-a-0005	A.7	28.849000	28.908625		I	i
sw2983B-ms98-a-0005	A.7	28.908625	29.238625		stand	stand
sw2983B-ms98-a-0005	A.7	29.238625	29.348625		there	there
sw2983B-ms98-a-0005	A.7	29.348625	29.478625		and	and
sw2983B-ms98-a-0005	A.7	29.478625	29.778625		swing	swing
sw2983B-ms98-a-0005	A.7	29.778625	29.908625		and	and
sw2983B-ms98-a-0005	A.7	29.908625	30.178625		swing	swing
sw2983B-ms98-a-0005	A.7	30.178625	30.278625		and	and
sw2983B-ms98-a-0005	A.7	30.278625	30.328625		I	i
sw2983B-ms98-a-0005	A.7	30.328625	30.578625		can't	can't
sw2983B-ms98-a-0005	A.7	30.578625	30.788625		even	even
sw2983B-ms98-a-0005	A.7	30.788625	30.938625		hit	hit
sw2983B-ms98-a-0005	A.7	30.938625	31.008625		the	the
sw2983B-ms98-a-0005	A.7	31.008625	31.611750		ball	ball
sw2983B-ms98-a-0005	A.9	31.611750	32.252125		[laughter]	[laughter]
sw2983B-ms98-a-0005	A.9	32.252125	33.803250		[silence]	[silence]
sw2983B-ms98-a-0005	A.9	33.803250	34.148625		Yeah	yeah
sw2983B-ms98-a-0005	A.9	34.148625	34.308625		I	i
sw2983B-ms98-a-0005	A.9	34.308625	34.658625		don't	don't
sw2983B-ms98-a-0005	A.9	34.658625	35.068625		either	either
sw2983B-ms98-a-0005	A.11	35.068625	35.999875		[laughter]	[laughter]
sw2983B-ms98-a-0005	A.11	35.999875	36.135125		[silence]	[silence]
sw2983B-ms98-a-0006	A.11	36.135125	40.733750		[silence]	[silence]
sw2983B-ms98-a-0007	A.11	40.733750	40.946125		[silence]	[silence]
sw2983B-ms98-a-0007	A.11	40.946125	41.573750		Right	right
sw2983B-ms98-a-0007	A.13	41.573750	41.950250	<DEL>	---	um-hum
sw2983B-ms98-a-0007	A.13	41.950250	42.706750		[silence]	[silence]
sw2983B-ms98-a-0008	A.13	42.706750	53.410125		[silence]	[silence]
sw2983B-ms98-a-0009	A.13	53.410125	53.755375		[silence]	[silence]
sw2983B-ms98-a-0009	A.13	53.755375	54.130125		Oh	oh
sw2983B-ms98-a-0009	A.13	54.130125	54.290125		so	so
sw2983B-ms98-a-0009	A.13	54.290125	54.460125		he's	he's
sw2983B-ms98-a-0009	A.13	54.460125	54.820125		really	really
sw2983B-ms98-a-0009	A.13	54.820125	55.215250		into	into
sw2983B-ms98-a-0009	A.13	55.215250	55.365500		it	it
sw2983B-ms98-a-0009	A.15	55.365500	55.775500		[laughter]	[laughter]
sw2983B-ms98-a-0009	A.15	55.775500	57.072750		[silence]	[silence]
sw2983B-ms98-a-0009	A.15	57.072750	57.596625		Wow	wow
sw2983B-ms98-a-0009	A.17	57.596625	57.697750		[silence]	[silence]
sw2983B-ms98-a-0010	A.17	57.697750	61.916125		[silence]	[silence]
sw2983B-ms98-a-0011	A.17	61.916125	62.119750		[silence]	[silence]
sw2983B-ms98-a-0011	A.17	62.119750	62.600500		Oh	oh
sw2983B-ms98-a-0011	A.19	62.600500	62.997625		[silence]	[silence]
sw2983B-ms98-a-0012	A.19	62.997625	72.880000		[silence]	[silence]
sw2983B-ms98-a-0013	A.19	72.880000	73.333125		[silence]	[silence]
sw2983B-ms98-a-0013	A.19	73.333125	73.738000		Yeah	yeah
sw2983B-ms98-a-0013	A.21	73.738000	74.048125		[silence]	[silence]
sw2983B-ms98-a-0014	A.21	74.048125	83.702750		[silence]	[silence]
sw2983B-ms98-a-0015	A.21	83.702750	83.783875		[silence]	[silence]
sw2983B-ms98-a-0015	A.21	83.783875	84.282750		Right	right
sw2983B-ms98-a-0015	A.21	84.282750	84.432750		more	more
sw2983B-ms98-a-0015	A.21	84.432750	84.692750		because	because
sw2983B-ms98-a-0015	A.21	84.692750	84.762750		of	of
sw2983B-ms98-a-0015	A.21	84.762750	84.872750		their	their
sw2983B-ms98-a-0015	A.21	84.872750	85.772750		personalities	personalities
sw2983B-ms98-a-0015	A.23	85.772750	85.962750		than	than
sw2983B-ms98-a-0015	A.23	85.962750	86.309625		their	their
sw2983B-ms98-a-0015	A.23	86.309625	86.863750		sportsman	sportsman
sw2983B-ms98-a-0015	A.27	86.863750	87.634375		[laughter]	[laughter]
sw2983B-ms98-a-0015	A.27	87.634375	87.689625		[silence]	[silence]
sw2983B-ms98-a-0016	A.27	87.689625	95.135750		[silence]	[silence]
sw2983B-ms98-a-0017	A.27	95.135750	95.635500		[silence]	[silence]
sw2983B-ms98-a-0017	A.27	95.635500	96.689750		[laughter]	[laughter]
sw2983B-ms98-a-0017	A.27	96.689750	98.371625		[silence]	[silence]
sw2983B-ms98-a-0018	A.27	98.371625	99.942625		[silence]	[silence]
sw2983B-ms98-a-0019	A.27	99.942625	100.031875		[silence]	[silence]
sw2983B-ms98-a-0019	A.27	100.031875	100.588750		Right	right
sw2983B-ms98-a-0019	A.29	100.588750	101.048500		[laughter]	[laughter]
sw2983B-ms98-a-0019	A.29	101.048500	101.514000		[silence]	[silence]
sw2983B-ms98-a-0020	A.29	101.514000	105.137625		[silence]	[silence]
sw2983B-ms98-a-0021	A.29	105.137625	105.256875		[silence]	[silence]
sw2983B-ms98-a-0021	A.29	105.256875	105.686250		Oh	oh
sw2983B-ms98-a-0021	A.31	105.686250	106.473875		[silence]	[silence]
sw2983B-ms98-a-0022	A.31	106.473875	115.361250		[silence]	[silence]
sw2983B-ms98-a-0023	A.31	115.361250	115.879250		[silence]	[silence]
sw2983B-ms98-a-0023	A.31	115.879250	116.322875		Uh-huh	uh-huh
sw2983B-ms98-a-0023	A.35	116.322875	116.628875		[silence]	[silence]
sw2983B-ms98-a-0024	A.35	116.628875	122.590000		[silence]	[silence]
sw2983B-ms98-a-0025	A.35	122.590000	122.890500		[silence]	[silence]
sw2983B-ms98-a-0025	A.35	122.890500	123.424125		[laughter]	[laughter]
sw2983B-ms98-a-0025	A.35	123.424125	124.218500		[silence]	[silence]
sw2983B-ms98-a-0026	A.35	124.218500	124.409375		[silence]	[silence]
sw2983B-ms98-a-0026	A.35	124.409375	124.922125		Uh-huh	uh-huh
sw2983B-ms98-a-0026	A.37	124.922125	125.468250		[laughter]	[laughter]
sw2983B-ms98-a-0026	A.37	125.468250	125.708250		[silence]	[silence]
sw2983B-ms98-a-0027	A.37	125.708250	127.585625		[silence]	[silence]
sw2983B-ms98-a-0028	A.37	127.585625	127.891000		[silence]	[silence]
sw2983B-ms98-a-0028	A.37	127.891000	128.035625		Oh	oh
sw2983B-ms98-a-0028	A.37	128.035625	128.265625		he's	he's
sw2983B-ms98-a-0028	A.37	128.265625	128.971250		interesting	interesting
sw2983B-ms98-a-0028	A.39	128.971250	129.115625		I	i
sw2983B-ms98-a-0028	A.39	129.115625	129.295625		like	like
sw2983B-ms98-a-0028	A.39	129.295625	129.355625		to	to
sw2983B-ms98-a-0028	A.39	129.355625	129.625625		watch	watch
sw2983B-ms98-a-0028	A.39	129.625625	130.010750		him	him
sw2983B-ms98-a-0028	A.41	130.010750	130.601625		[silence]	[silence]
sw2983B-ms98-a-0028	A.41	130.601625	131.151125		Yeah	yeah
sw2983B-ms98-a-0028	A.43	131.151125	131.184625		[silence]	[silence]
sw2983B-ms98-a-0029	A.43	131.184625	132.678000		[silence]	[silence]
sw2983B-ms98-a-0030	A.43	132.678000	132.896250		[silence]	[silence]
sw2983B-ms98-a-0030	A.43	132.896250	133.378000		Yeah	yeah
sw2983B-ms98-a-0030	A.45	133.378000	133.660375		[silence]	[silence]
sw2983B-ms98-a-0031	A.45	133.660375	142.598500		[silence]	[silence]
sw2983B-ms98-a-0032	A.45	142.598500	142.726000		[silence]	[silence]
sw2983B-ms98-a-0032	A.45	142.726000	143.453000	<SUB>	Yeah	yes
sw2983B-ms98-a-0032	A.45	143.453000	143.678500		yeah	yeah
sw2983B-ms98-a-0032	A.45	143.678500	143.728500		I	i
sw2983B-ms98-a-0032	A.45	143.728500	143.948500		think	think
sw2983B-ms98-a-0032	A.45	143.948500	144.076250		you're	you're
sw2983B-ms98-a-0032	A.45	144.076250	144.317375		right	right
sw2983B-ms98-a-0032	A.47	144.317375	144.524875		[silence]	[silence]
sw2983B-ms98-a-0033	A.47	144.524875	147.789000		[silence]	[silence]
sw2983B-ms98-a-0034	A.47	147.789000	147.977375		[silence]	[silence]
sw2983B-ms98-a-0034	A.47	147.977375	148.458500		Yeah	yeah
sw2983B-ms98-a-0034	A.49	148.458500	148.558500		[silence]	[silence]
sw2983B-ms98-a-0035	A.49	148.558500	149.733875		[silence]	[silence]
sw2983B-ms98-a-0035	A.49	149.733875	150.433625	<DEL>	---	yeah
sw2983B-ms98-a-0035	A.49	150.433625	150.606500		[silence]	[silence]
sw2983B-ms98-a-0035	A.49	150.606500	150.841250	<DEL>	---	yeah
sw2983B-ms98-a-0035	A.49	150.841250	151.054875		[silence]	[silence]
sw2983B-ms98-a-0036	A.49	151.054875	151.127500		[silence]	[silence]
sw2983B-ms98-a-0036	A.49	151.127500	151.184875		I	i
sw2983B-ms98-a-0036	A.49	151.184875	151.364875		like	like
sw2983B-ms98-a-0036	A.49	151.364875	151.464875		to	to
sw2983B-ms98-a-0036	A.49	151.464875	151.764875		watch	watch
sw2983B-ms98-a-0036	A.49	151.764875	152.064875		those	those
sw2983B-ms98-a-0036	A.49	152.064875	152.504875		skins	skins
sw2983B-ms98-a-0036	A.49	152.504875	153.226875		games	games
sw2983B-ms98-a-0036	A.51	153.226875	153.454875		Do	do
sw2983B-ms98-a-0036	A.51	153.454875	153.514875		you	you
sw2983B-ms98-a-0036	A.51	153.514875	153.674875		ever	ever
sw2983B-ms98-a-0036	A.51	153.674875	153.984875		watch	watch
sw2983B-ms98-a-0036	A.51	153.984875	154.344875		those	those
sw2983B-ms98-a-0036	A.51	154.344875	154.464875		where	where
sw2983B-ms98-a-0036	A.51	154.464875	154.604875		they	they
sw2983B-ms98-a-0036	A.51	154.604875	154.834875		just	just
sw2983B-ms98-a-0036	A.51	154.834875	155.204875		play	play
sw2983B-ms98-a-0036	A.51	155.204875	155.334875		for	for
sw2983B-ms98-a-0036	A.51	155.334875	155.444875		a	a
sw2983B-ms98-a-0036	A.51	155.444875	155.684875		certain	certain
sw2983B-ms98-a-0036	A.51	155.684875	156.054875		amou-	amou[nt]-
sw2983B-ms98-a-0036	A.51	156.054875	156.124875		you	you
sw2983B-ms98-a-0036	A.51	156.124875	156.244875		know	know
sw2983B-ms98-a-0036	A.51	156.244875	156.344875		for	for
sw2983B-ms98-a-0036	A.51	156.344875	156.544875		each	each
sw2983B-ms98-a-0036	A.51	156.544875	156.704875		hole	hole
sw2983B-ms98-a-0036	A.51	156.704875	156.844875		they	they
sw2983B-ms98-a-0036	A.51	156.844875	157.094875		win	win
sw2983B-ms98-a-0036	A.51	157.094875	157.214875		they	they
sw2983B-ms98-a-0036	A.51	157.214875	157.384875		get	get
sw2983B-ms98-a-0036	A.51	157.384875	157.464875		the	the
sw2983B-ms98-a-0036	A.51	157.464875	157.917000		money	money
sw2983B-ms98-a-0036	A.53	157.917000	158.397250		[silence]	[silence]
sw2983B-ms98-a-0036	A.53	158.397250	158.672125		for	for
sw2983B-ms98-a-0036	A.53	158.672125	158.704875		it	it
sw2983B-ms98-a-0036	A.53	158.704875	158.774875		I	i
sw2983B-ms98-a-0036	A.53	158.774875	159.004875		think	think
sw2983B-ms98-a-0036	A.53	159.004875	159.164875		those	those
sw2983B-ms98-a-0036	A.53	159.164875	159.234875		are	are
sw2983B-ms98-a-0036	A.53	159.234875	159.414875		pretty	pretty
sw2983B-ms98-a-0036	A.53	159.414875	159.983125		exciting	exciting
sw2983B-ms98-a-0036	A.57	159.983125	160.411375		[silence]	[silence]
sw2983B-ms98-a-0037	A.57	160.411375	165.155375		[silence]	[silence]
sw2983B-ms98-a-0038	A.57	165.155375	165.864500		[silence]	[silence]
sw2983B-ms98-a-0038	A.57	165.864500	166.509625		[laughter]	[laughter]
sw2983B-ms98-a-0038	A.57	166.509625	166.571000		[silence]	[silence]
sw2983B-ms98-a-0039	A.57	166.571000	169.443625		[silence]	[silence]
sw2983B-ms98-a-0040	A.57	169.443625	169.780500		[silence]	[silence]
sw2983B-ms98-a-0040	A.57	169.780500	170.362500		Uh-huh	uh-huh
sw2983B-ms98-a-0040	A.57	170.362500	170.575750		[silence]	[silence]
sw2983B-ms98-a-0041	A.57	170.575750	171.239500		[silence]	[silence]
sw2983B-ms98-a-0041	A.57	171.239500	171.794375		yeah	yeah
sw2983B-ms98-a-0041	A.61	171.794375	172.506375		[silence]	[silence]
sw2983B-ms98-a-0042	A.61	172.506375	174.082875		[silence]	[silence]
sw2983B-ms98-a-0043	A.61	174.082875	174.407500		[silence]	[silence]
sw2983B-ms98-a-0043	A.61	174.407500	174.982000		[laughter]	[laughter]
sw2983B-ms98-a-0043	A.61	174.982000	175.247375		[silence]	[silence]
sw2983B-ms98-a-0044	A.61	175.247375	176.704500		[silence]	[silence]
sw2983B-ms98-a-0045	A.61	176.704500	176.775625		[silence]	[silence]
sw2983B-ms98-a-0045	A.61	176.775625	176.964500		Oh	oh
sw2983B-ms98-a-0045	A.61	176.964500	177.564500		really	really
sw2983B-ms98-a-0045	A.63	177.564500	177.829250		[laughter]	[laughter]
sw2983B-ms98-a-0045	A.63	177.829250	178.209625		[silence]	[silence]
sw2983B-ms98-a-0045	A.63	178.209625	178.364500		I	i
sw2983B-ms98-a-0045	A.63	178.364500	178.744500		sometimes	sometimes
sw2983B-ms98-a-0045	A.63	178.744500	179.014500		wonder	wonder
sw2983B-ms98-a-0045	A.63	179.014500	179.184500		why	why
sw2983B-ms98-a-0045	A.63	179.184500	179.404500		men	men
sw2983B-ms98-a-0045	A.63	179.404500	179.644500		like	like
sw2983B-ms98-a-0045	A.63	179.644500	179.774500		it	it
sw2983B-ms98-a-0045	A.63	179.774500	179.874500		so	so
sw2983B-ms98-a-0045	A.63	179.874500	180.094500		much	much
sw2983B-ms98-a-0045	A.63	180.094500	180.364500		because	because
sw2983B-ms98-a-0045	A.63	180.364500	180.454500		they	they
sw2983B-ms98-a-0045	A.63	180.454500	180.634500		get	get
sw2983B-ms98-a-0045	A.63	180.634500	180.774500		so	so
sw2983B-ms98-a-0045	A.63	180.774500	181.394500		frustrated	frustrated
sw2983B-ms98-a-0045	A.65	181.394500	181.514500		and	and
sw2983B-ms98-a-0045	A.65	181.514500	181.794500		mad	mad
sw2983B-ms98-a-0045	A.65	181.794500	181.894500		at	at
sw2983B-ms98-a-0045	A.65	181.894500	182.604500		themselves	themselves
sw2983B-ms98-a-0045	A.67	182.604500	182.905875		[laughter]	[laughter]
sw2983B-ms98-a-0045	A.67	182.905875	183.034500		when	when
sw2983B-ms98-a-0045	A.67	183.034500	183.134500		they	they
sw2983B-ms98-a-0045	A.67	183.134500	183.374500		don't	don't
sw2983B-ms98-a-0045	A.67	183.374500	183.504500		do	do
sw2983B-ms98-a-0045	A.67	183.504500	183.857500		well	well
sw2983B-ms98-a-0045	A.67	183.857500	184.334250		[silence]	[silence]
sw2983B-ms98-a-0046	A.67	184.334250	184.657750		[silence]	[silence]
sw2983B-ms98-a-0046	A.67	184.657750	184.804250		My	my
sw2983B-ms98-a-0046	A.67	184.804250	185.154250		husband	husband
sw2983B-ms98-a-0046	A.67	185.154250	185.284250		and	and
sw2983B-ms98-a-0046	A.67	185.284250	185.484250		his	his
sw2983B-ms98-a-0046	A.67	185.484250	185.964250		buddies	buddies
sw2983B-ms98-a-0046	A.67	185.964250	186.034250		are	are
sw2983B-ms98-a-0046	A.67	186.034250	186.577375		not	not
sw2983B-ms98-a-0046	A.67	186.577375	186.705375		[silence]	[silence]
sw2983B-ms98-a-0046	A.67	186.705375	186.954250		very	very
sw2983B-ms98-a-0046	A.67	186.954250	187.264250		good	good
sw2983B-ms98-a-0046	A.67	187.264250	187.404250		They	they
sw2983B-ms98-a-0046	A.67	187.404250	187.734250		play	play
sw2983B-ms98-a-0046	A.67	187.734250	187.924250		like	like
sw2983B-ms98-a-0046	A.67	187.924250	188.254250		maybe	maybe
sw2983B-ms98-a-0046	A.67	188.254250	188.574250		once	once
sw2983B-ms98-a-0046	A.67	188.574250	188.634250		a	a
sw2983B-ms98-a-0046	A.67	188.634250	188.964750		month	month
sw2983B-ms98-a-0046	A.67	188.964750	189.194250		or	or
sw2983B-ms98-a-0046	A.67	189.194250	189.726375		less	less
sw2983B-ms98-a-0046	A.69	189.726375	190.144250		and	and
sw2983B-ms98-a-0046	A.69	190.144250	190.370750	<DEL>	---	uh
sw2983B-ms98-a-0046	A.69	190.370750	190.555250		[silence]	[silence]
sw2983B-ms98-a-0046	A.69	190.555250	190.724250		so	so
sw2983B-ms98-a-0046	A.69	190.724250	190.894250		they	they
sw2983B-ms98-a-0046	A.69	190.894250	191.014250		all	all
sw2983B-ms98-a-0046	A.69	191.014250	191.194250		hit	hit
sw2983B-ms98-a-0046	A.69	191.194250	191.394250		like	like
sw2983B-ms98-a-0046	A.69	191.394250	191.494250		in	in
sw2983B-ms98-a-0046	A.69	191.494250	191.604250		the	the
sw2983B-ms98-a-0046	A.69	191.604250	191.774250		low	low
sw2983B-ms98-a-0046	A.69	191.774250	192.184250		nineties	nineties
sw2983B-ms98-a-0046	A.69	192.184250	192.314250		and	and
sw2983B-ms98-a-0046	A.69	192.314250	192.404250		they	they
sw2983B-ms98-a-0046	A.69	192.404250	192.634250		think	think
sw2983B-ms98-a-0046	A.69	192.634250	192.744250		they're	they're
sw2983B-ms98-a-0046	A.69	192.744250	193.004250		having	having
sw2983B-ms98-a-0046	A.69	193.004250	193.074250		a	a
sw2983B-ms98-a-0046	A.69	193.074250	193.324250		really	really
sw2983B-ms98-a-0046	A.69	193.324250	193.524250		good	good
sw2983B-ms98-a-0046	A.69	193.524250	194.014250		game	game
sw2983B-ms98-a-0046	A.71	194.014250	194.824250		[laughter]	[laughter]
sw2983B-ms98-a-0046	A.71	194.824250	195.271000		So	so
sw2983B-ms98-a-0046	A.73	195.271000	195.831000		[silence]	[silence]
sw2983B-ms98-a-0047	A.73	195.831000	197.505375		[silence]	[silence]
sw2983B-ms98-a-0048	A.73	197.505375	197.844750		[silence]	[silence]
sw2983B-ms98-a-0048	A.73	197.844750	198.549375		Wow	wow
sw2983B-ms98-a-0048	A.75	198.549375	199.085000		[silence]	[silence]
sw2983B-ms98-a-0048	A.75	199.085000	199.318500		Yeah	yeah
sw2983B-ms98-a-0048	A.75	199.318500	199.465375		that	that
sw2983B-ms98-a-0048	A.75	199.465375	199.635375		is	is
sw2983B-ms98-a-0048	A.75	199.635375	199.995750		good	good
sw2983B-ms98-a-0048	A.77	199.995750	200.290000		[silence]	[silence]
sw2983B-ms98-a-0049	A.77	200.290000	213.333000		[silence]	[silence]
sw2983B-ms98-a-0050	A.77	213.333000	213.459500		[silence]	[silence]
sw2983B-ms98-a-0050	A.77	213.459500	213.965250		Right	right
sw2983B-ms98-a-0050	A.79	213.965250	214.502750		[silence]	[silence]
sw2983B-ms98-a-0051	A.79	214.502750	221.516250		[silence]	[silence]
sw2983B-ms98-a-0052	A.79	221.516250	221.704500		[silence]	[silence]
sw2983B-ms98-a-0052	A.79	221.704500	222.185375		Yeah	yeah
sw2983B-ms98-a-0052	A.81	222.185375	222.525625		[silence]	[silence]
sw2983B-ms98-a-0053	A.81	222.525625	228.843750		[silence]	[silence]
sw2983B-ms98-a-0054	A.81	228.843750	229.054250		[silence]	[silence]
sw2983B-ms98-a-0054	A.81	229.054250	229.556750		Uh-huh	uh-huh
sw2983B-ms98-a-0054	A.83	229.556750	229.813750		Something	something
sw2983B-ms98-a-0054	A.83	229.813750	229.883750		to	to
sw2983B-ms98-a-0054	A.83	229.883750	230.093750		stay	stay
sw2983B-ms98-a-0054	A.83	230.093750	230.493750		active	active
sw2983B-ms98-a-0054	A.83	230.493750	230.817375		at	at
sw2983B-ms98-a-0054	A.85	230.817375	231.007125	<DEL>	---	an[d]-
sw2983B-ms98-a-0054	A.85	231.007125	231.365000		[silence]	[silence]
sw2983B-ms98-a-0054	A.85	231.365000	231.403750		for	for
sw2983B-ms98-a-0054	A.85	231.403750	231.453750		a	a
sw2983B-ms98-a-0054	A.85	231.453750	231.693750		long	long
sw2983B-ms98-a-0054	A.85	231.693750	232.129750		time	time
sw2983B-ms98-a-0054	A.87	232.129750	232.336375		[silence]	[silence]
sw2983B-ms98-a-0055	A.87	232.336375	232.910250		[silence]	[silence]
sw2983B-ms98-a-0055	A.87	232.910250	233.402250		Yeah	yeah
sw2983B-ms98-a-0055	A.87	233.402250	233.524875		[silence]	[silence]
sw2983B-ms98-a-0055	A.87	233.524875	233.886125		yeah	yeah
sw2983B-ms98-a-0055	A.89	233.886125	234.380375		[silence]	[silence]
sw2983B-ms98-a-0056	A.89	234.380375	240.456625		[silence]	[silence]
sw2983B-ms98-a-0057	A.89	240.456625	240.633625		[silence]	[silence]
sw2983B-ms98-a-0057	A.89	240.633625	241.102500		Yeah	yeah
sw2983B-ms98-a-0057	A.89	241.102500	241.286625		and	and
sw2983B-ms98-a-0057	A.89	241.286625	241.396625		they	they
sw2983B-ms98-a-0057	A.89	241.396625	241.536625		can	can
sw2983B-ms98-a-0057	A.89	241.536625	241.726625		still	still
sw2983B-ms98-a-0057	A.89	241.726625	241.916625		get	get
sw2983B-ms98-a-0057	A.89	241.916625	242.076625		good	good
sw2983B-ms98-a-0057	A.89	242.076625	242.260500		at	at
sw2983B-ms98-a-0057	A.89	242.260500	242.437125		it	it
sw2983B-ms98-a-0057	A.91	242.437125	243.441500		[silence]	[silence]
sw2983B-ms98-a-0058	A.91	243.441500	244.199625		[silence]	[silence]
sw2983B-ms98-a-0058	A.91	244.199625	244.601500	<DEL>	---	yeah
sw2983B-ms98-a-0058	A.91	244.601500	244.841500		Well	well
sw2983B-ms98-a-0058	A.91	244.841500	245.091500		maybe	maybe
sw2983B-ms98-a-0058	A.91	245.091500	245.301500		that's	that's
sw2983B-ms98-a-0058	A.91	245.301500	245.421500		what	what
sw2983B-ms98-a-0058	A.91	245.421500	245.551500		I'll	i'll
sw2983B-ms98-a-0058	A.91	245.551500	245.741500		do	do
sw2983B-ms98-a-0058	A.91	245.741500	245.861500		when	[laughter-when]
sw2983B-ms98-a-0058	A.91	245.861500	245.961500		I	[laughter-i]
sw2983B-ms98-a-0058	A.91	245.961500	246.141500		have	[laughter-have]
sw2983B-ms98-a-0058	A.91	246.141500	246.675750		time	[laughter-time]
sw2983B-ms98-a-0058	A.91	246.675750	246.921500		later	later
sw2983B-ms98-a-0058	A.91	246.921500	247.137375		on	on
sw2983B-ms98-a-0058	A.93	247.137375	247.342750		[silence]	[silence]
sw2983B-ms98-a-0059	A.93	247.342750	247.748125		[silence]	[silence]
sw2983B-ms98-a-0059	A.93	247.748125	248.443000		[laughter]	[laughter]
sw2983B-ms98-a-0059	A.93	248.443000	248.679625		[silence]	[silence]
sw2983B-ms98-a-0060	A.93	248.679625	248.751000		[silence]	[silence]
sw2983B-ms98-a-0060	A.93	248.751000	249.255875		Yeah	yeah
sw2983B-ms98-a-0060	A.95	249.255875	249.978625		[laughter]	[laughter]
sw2983B-ms98-a-0060	A.95	249.978625	250.021625		[silence]	[silence]
sw2983B-ms98-a-0061	A.95	250.021625	256.491125		[silence]	[silence]
sw2983B-ms98-a-0062	A.95	256.491125	256.920375		[silence]	[silence]
sw2983B-ms98-a-0062	A.95	256.920375	257.454750	<SUB>	Uh-huh	um-hum
sw2983B-ms98-a-0062	A.97	257.454750	257.597500		[silence]	[silence]
sw2983B-ms98-a-0063	A.97	257.597500	261.760250		[silence]	[silence]
sw2983B-ms98-a-0064	A.97	261.760250	262.306625		[silence]	[silence]
sw2983B-ms98-a-0064	A.97	262.306625	262.654875		True	true
sw2983B-ms98-a-0064	A.99	262.654875	262.911500		[silence]	[silence]
sw2983B-ms98-a-0065	A.99	262.911500	269.622750		[silence]	[silence]
sw2983B-ms98-a-0066	A.99	269.622750	270.637000		[silence]	[silence]
sw2983B-ms98-a-0066	A.99	270.637000	271.190875		Right	right
sw2983B-ms98-a-0066	A.99	271.190875	271.442750		yeah	yeah
sw2983B-ms98-a-0066	A.99	271.442750	271.542750		Or	or
sw2983B-ms98-a-0066	A.99	271.542750	271.722750		my	my
sw2983B-ms98-a-0066	A.99	271.722750	272.102750		favorite	favorite
sw2983B-ms98-a-0066	A.99	272.102750	272.282750		just	just
sw2983B-ms98-a-0066	A.99	272.282750	272.482750		ride	ride
sw2983B-ms98-a-0066	A.99	272.482750	272.762750		around	around
sw2983B-ms98-a-0066	A.99	272.762750	272.842750		in	in
sw2983B-ms98-a-0066	A.99	272.842750	272.902750		the	the
sw2983B-ms98-a-0066	A.99	272.902750	273.212750		cart	cart
sw2983B-ms98-a-0066	A.99	273.212750	273.422750		with	with
sw2983B-ms98-a-0066	A.99	273.422750	273.688250		him	him
sw2983B-ms98-a-0066	A.101	273.688250	274.311125		[laughter]	[laughter]
sw2983B-ms98-a-0066	A.101	274.311125	274.768750		[silence]	[silence]
sw2983B-ms98-a-0067	A.101	274.768750	274.987000		[silence]	[silence]
sw2983B-ms98-a-0067	A.101	274.987000	276.702500		[laughter]	[laughter]
sw2983B-ms98-a-0067	A.101	276.702500	276.908750		Go	go
sw2983B-ms98-a-0067	A.101	276.908750	277.198750		somewhere	somewhere
sw2983B-ms98-a-0067	A.101	277.198750	277.428750		really	really
sw2983B-ms98-a-0067	A.101	277.428750	277.868750		nice	nice
sw2983B-ms98-a-0067	A.101	277.868750	278.088750		like	like
sw2983B-ms98-a-0067	A.101	278.088750	278.648750		Hawaii	Hawaii
sw2983B-ms98-a-0067	A.101	278.648750	278.798750		and	and
sw2983B-ms98-a-0067	A.101	278.798750	278.924000		just	just
sw2983B-ms98-a-0067	A.103	278.924000	280.200875		[laughter]	[laughter]
sw2983B-ms98-a-0067	A.103	280.200875	280.341125		look	look
sw2983B-ms98-a-0067	A.103	280.341125	280.469250		at	at
sw2983B-ms98-a-0067	A.103	280.469250	280.543125		the	the
sw2983B-ms98-a-0067	A.103	280.543125	280.758750		golf	golf
sw2983B-ms98-a-0067	A.103	280.758750	281.082250		course	course
sw2983B-ms98-a-0067	A.105	281.082250	281.288250		[laughter]	[laughter]
sw2983B-ms98-a-0067	A.105	281.288250	281.531125		[silence]	[silence]
sw2983B-ms98-a-0068	A.105	281.531125	284.257875		[silence]	[silence]
sw2983B-ms98-a-0069	A.105	284.257875	284.811000		[silence]	[silence]
sw2983B-ms98-a-0069	A.105	284.811000	285.736375		[laughter]	[laughter]
sw2983B-ms98-a-0069	A.105	285.736375	285.835875		[silence]	[silence]
sw2983B-ms98-a-0070	A.105	285.835875	286.755875		[silence]	[silence]
sw2983B-ms98-a-0070	A.105	286.755875	287.105875		Oh	oh
sw2983B-ms98-a-0070	A.105	287.105875	287.685875		yeah	yeah
sw2983B-ms98-a-0070	A.105	287.685875	287.875875	<SUB>	But	no
sw2983B-ms98-a-0070	A.105	287.875875	288.035875		my	my
sw2983B-ms98-a-0070	A.105	288.035875	288.385875		husband's	husband's
sw2983B-ms98-a-0070	A.105	288.385875	288.765875		pretty	pretty
sw2983B-ms98-a-0070	A.105	288.765875	289.295875		tolerant	tolerant
sw2983B-ms98-a-0070	A.105	289.295875	289.485875		so	so
sw2983B-ms98-a-0070	A.105	289.485875	289.695875		he's	he's
sw2983B-ms98-a-0070	A.105	289.695875	289.935875		not	not
sw2983B-ms98-a-0070	A.105	289.935875	290.055875		too	too
sw2983B-ms98-a-0070	A.105	290.055875	290.285875		bad	bad
sw2983B-ms98-a-0070	A.107	290.285875	290.405875		to	to
sw2983B-ms98-a-0070	A.107	290.405875	290.932000		watch	watch
sw2983B-ms98-a-0070	A.109	290.932000	290.956875		[silence]	[silence]
sw2983B-ms98-a-0071	A.109	290.956875	291.073875		[silence]	[silence]
sw2983B-ms98-a-0071	A.109	291.073875	291.871500		[laughter]	[laughter]
sw2983B-ms98-a-0071	A.109	291.871500	291.883750		[silence]	[silence]
sw2983B-ms98-a-0072	A.109	291.883750	295.633750		[silence]	[silence]
sw2983B-ms98-a-0073	A.109	295.633750	296.114500		[silence]	[silence]
sw2983B-ms98-a-0073	A.109	296.114500	296.552500		Oh	oh
sw2983B-ms98-a-0073	A.109	296.552500	297.074500		no	no
sw2983B-ms98-a-0073	A.109	297.074500	297.474625		yeah	yeah
sw2983B-ms98-a-0073	A.111	297.474625	297.698500		[silence]	[silence]
sw2983B-ms98-a-0074	A.111	297.698500	304.264000		[silence]	[silence]
sw2983B-ms98-a-0075	A.111	304.264000	304.416625		[silence]	[silence]
sw2983B-ms98-a-0075	A.111	304.416625	304.944000		Gosh	gosh
sw2983B-ms98-a-0075	A.111	304.944000	305.094000		Now	now
sw2983B-ms98-a-0075	A.111	305.094000	305.214000		my	my
sw2983B-ms98-a-0075	A.111	305.214000	305.554000		husband	husband
sw2983B-ms98-a-0075	A.111	305.554000	305.654000		has	has
sw2983B-ms98-a-0075	A.111	305.654000	305.724000		a	a
sw2983B-ms98-a-0075	A.111	305.724000	306.014000		temper	temper
sw2983B-ms98-a-0075	A.111	306.014000	306.164000		but	but
sw2983B-ms98-a-0075	A.111	306.164000	306.234000		he	he
sw2983B-ms98-a-0075	A.111	306.234000	306.474000		doesn't	doesn't
sw2983B-ms98-a-0075	A.111	306.474000	306.644000		seem	seem
sw2983B-ms98-a-0075	A.111	306.644000	306.764000		to	to
sw2983B-ms98-a-0075	A.111	306.764000	306.904000		show	show
sw2983B-ms98-a-0075	A.111	306.904000	306.984000		it	it
sw2983B-ms98-a-0075	A.111	306.984000	307.104000		on	on
sw2983B-ms98-a-0075	A.111	307.104000	307.184000		the	the
sw2983B-ms98-a-0075	A.111	307.184000	307.504000		golf	golf
sw2983B-ms98-a-0075	A.111	307.504000	307.764000		course	course
sw2983B-ms98-a-0075	A.111	307.764000	308.081000		He's	he's
sw2983B-ms98-a-0075	A.111	308.081000	308.354000		because	because_1
sw2983B-ms98-a-0075	A.111	308.354000	308.514000		he'll	he'll
sw2983B-ms98-a-0075	A.111	308.514000	308.764000		talk	talk
sw2983B-ms98-a-0075	A.111	308.764000	309.014000		about	about
sw2983B-ms98-a-0075	A.111	309.014000	309.114000		the	the
sw2983B-ms98-a-0075	A.111	309.114000	309.244000		other	other
sw2983B-ms98-a-0075	A.111	309.244000	309.484000		guys	guys
sw2983B-ms98-a-0075	A.111	309.484000	309.564000		he	he
sw2983B-ms98-a-0075	A.111	309.564000	309.904000		plays	plays
sw2983B-ms98-a-0075	A.111	309.904000	310.114000		with	with
sw2983B-ms98-a-0075	A.111	310.114000	310.394000		doing	doing
sw2983B-ms98-a-0075	A.111	310.394000	310.694000		that	that
sw2983B-ms98-a-0075	A.113	310.694000	310.794000		and	and
sw2983B-ms98-a-0075	A.113	310.794000	311.017750		how	how
sw2983B-ms98-a-0075	A.113	311.017750	311.213625	<DEL>	---	imm[ature]-
sw2983B-ms98-a-0075	A.113	311.213625	311.594000		immature	immature
sw2983B-ms98-a-0075	A.113	311.594000	311.694000		he	he
sw2983B-ms98-a-0075	A.113	311.694000	311.904000		thought	thought
sw2983B-ms98-a-0075	A.113	311.904000	311.994000		it	it
sw2983B-ms98-a-0075	A.113	311.994000	312.244000		was	was
sw2983B-ms98-a-0075	A.113	312.244000	312.394000		and	and
sw2983B-ms98-a-0075	A.113	312.394000	312.764000		stuff	stuff
sw2983B-ms98-a-0075	A.115	312.764000	312.904000		So	so
sw2983B-ms98-a-0075	A.115	312.904000	312.974000		I	i
sw2983B-ms98-a-0075	A.115	312.974000	313.238250		guess	guess
sw2983B-ms98-a-0075	A.115	313.238250	313.588625		[silence]	[silence]
sw2983B-ms98-a-0075	A.115	313.588625	313.764000		he's	he's
sw2983B-ms98-a-0075	A.115	313.764000	313.964000		real	real
sw2983B-ms98-a-0075	A.115	313.964000	314.204000		laid	laid
sw2983B-ms98-a-0075	A.115	314.204000	314.484000		back	back
sw2983B-ms98-a-0075	A.115	314.484000	314.844000		about	about
sw2983B-ms98-a-0075	A.115	314.844000	315.108250		it	it
sw2983B-ms98-a-0075	A.117	315.108250	315.459000		[silence]	[silence]
sw2983B-ms98-a-0076	A.117	315.459000	315.507625		[silence]	[silence]
sw2983B-ms98-a-0076	A.117	315.507625	315.733625		He	he
sw2983B-ms98-a-0076	A.117	315.733625	315.929000		he'll	he'll
sw2983B-ms98-a-0076	A.117	315.929000	316.159000		come	come
sw2983B-ms98-a-0076	A.117	316.159000	316.389000		home	home
sw2983B-ms98-a-0076	A.117	316.389000	316.539000		though	though
sw2983B-ms98-a-0076	A.117	316.539000	316.749000		and	and
sw2983B-ms98-a-0076	A.117	316.749000	316.779000	<DEL>	---	i
sw2983B-ms98-a-0076	A.117	316.779000	316.949000	<DEL>	---	mean
sw2983B-ms98-a-0076	A.117	316.949000	317.049000		he'll	he'll
sw2983B-ms98-a-0076	A.117	317.049000	317.289000		shoot	shoot
sw2983B-ms98-a-0076	A.117	317.289000	317.389000		when	when
sw2983B-ms98-a-0076	A.117	317.389000	317.459000		he	he
sw2983B-ms98-a-0076	A.117	317.459000	317.609000		was	was
sw2983B-ms98-a-0076	A.117	317.609000	317.809000		shooting	shooting
sw2983B-ms98-a-0076	A.117	317.809000	317.879000		in	in
sw2983B-ms98-a-0076	A.117	317.879000	317.969000		the	the
sw2983B-ms98-a-0076	A.117	317.969000	318.389000		hundreds	hundreds
sw2983B-ms98-a-0076	A.117	318.389000	318.499000		and	and
sw2983B-ms98-a-0076	A.117	318.499000	318.629000	<SUB>	he'll	he'd
sw2983B-ms98-a-0076	A.117	318.629000	318.819000		tell	tell
sw2983B-ms98-a-0076	A.117	318.819000	318.939000		me	me
sw2983B-ms98-a-0076	A.117	318.939000	319.079000		what	what
sw2983B-ms98-a-0076	A.117	319.079000	319.129000		a	a
sw2983B-ms98-a-0076	A.117	319.129000	319.469000		great	great
sw2983B-ms98-a-0076	A.117	319.469000	319.659000		day	day
sw2983B-ms98-a-0076	A.117	319.659000	319.739000		he	he
sw2983B-ms98-a-0076	A.117	319.739000	320.039000		had	had
sw2983B-ms98-a-0076	A.117	320.039000	320.169000		and	and
sw2983B-ms98-a-0076	A.117	320.169000	320.429000		about	about
sw2983B-ms98-a-0076	A.117	320.429000	320.619000		this	this
sw2983B-ms98-a-0076	A.117	320.619000	320.909000		great	great
sw2983B-ms98-a-0076	A.117	320.909000	321.159000		shot	shot
sw2983B-ms98-a-0076	A.117	321.159000	321.249000		he	he
sw2983B-ms98-a-0076	A.117	321.249000	321.399000		made	made
sw2983B-ms98-a-0076	A.117	321.399000	321.559000		and	and
sw2983B-ms98-a-0076	A.117	321.559000	322.732250		everything	[laughter-everything]
sw2983B-ms98-a-0076	A.119	322.732250	322.927000	<DEL>	---	i
sw2983B-ms98-a-0076	A.119	322.927000	323.040375	<DEL>	---	try
sw2983B-ms98-a-0076	A.119	323.040375	323.115875	<DEL>	---	not
sw2983B-ms98-a-0076	A.119	323.115875	323.188750	<DEL>	---	to
sw2983B-ms98-a-0076	A.119	323.188750	323.525375	<DEL>	---	laugh
sw2983B-ms98-a-0076	A.119	323.525375	324.220750		[silence]	[silence]
sw2983B-ms98-a-0076	A.119	324.220750	324.632375		Yeah	yeah
sw2983B-ms98-a-0076	A.119	324.632375	324.858375		this	this
sw2983B-ms98-a-0076	A.119	324.858375	325.028000		one	one
sw2983B-ms98-a-0076	A.119	325.028000	325.254500		on	on
sw2983B-ms98-a-0076	A.119	325.254500	325.412625		this	this
sw2983B-ms98-a-0076	A.119	325.412625	325.689000		one	one
sw2983B-ms98-a-0076	A.119	325.689000	326.159875		hole	hole
sw2983B-ms98-a-0076	A.121	326.159875	326.725000		[laughter]	[laughter]
sw2983B-ms98-a-0076	A.121	326.725000	327.255750		[silence]	[silence]
sw2983B-ms98-a-0077	A.121	327.255750	327.434500		[silence]	[silence]
sw2983B-ms98-a-0077	A.121	327.434500	328.093875		[laughter]	[laughter]
sw2983B-ms98-a-0077	A.121	328.093875	328.245750		Did	did
sw2983B-ms98-a-0077	A.121	328.245750	328.335750		you	you
sw2983B-ms98-a-0077	A.121	328.335750	328.495750		have	have
sw2983B-ms98-a-0077	A.121	328.495750	328.575750		to	to
sw2983B-ms98-a-0077	A.121	328.575750	328.765750		listen	listen
sw2983B-ms98-a-0077	A.121	328.765750	328.835750		to	to
sw2983B-ms98-a-0077	A.121	328.835750	329.085750		long	long
sw2983B-ms98-a-0077	A.121	329.085750	329.475750		stories	stories
sw2983B-ms98-a-0077	A.121	329.475750	329.785750		about	about
sw2983B-ms98-a-0077	A.121	329.785750	329.945750	<SUB>	now	how
sw2983B-ms98-a-0077	A.121	329.945750	330.035750		on	on
sw2983B-ms98-a-0077	A.121	330.035750	330.105750		the	the
sw2983B-ms98-a-0077	A.121	330.105750	330.645750		seventeenth	seventeenth
sw2983B-ms98-a-0077	A.121	330.645750	330.915750		hole	hole
sw2983B-ms98-a-0077	A.121	330.915750	330.995750		I	i
sw2983B-ms98-a-0077	A.121	330.995750	331.155750		hit	hit
sw2983B-ms98-a-0077	A.121	331.155750	331.285750		it	it
sw2983B-ms98-a-0077	A.121	331.285750	331.415750		and	and
sw2983B-ms98-a-0077	A.121	331.415750	331.615750		went	went
sw2983B-ms98-a-0077	A.121	331.615750	331.835750		this	this
sw2983B-ms98-a-0077	A.121	331.835750	332.309875		way	way
sw2983B-ms98-a-0077	A.123	332.309875	332.984125		[laughter]	[laughter]
sw2983B-ms98-a-0077	A.123	332.984125	333.235750		those	those
sw2983B-ms98-a-0077	A.123	333.235750	333.555750		are	are
sw2983B-ms98-a-0077	A.123	333.555750	333.735750		it's	it's
sw2983B-ms98-a-0077	A.123	333.735750	333.955750		hard	hard
sw2983B-ms98-a-0077	A.123	333.955750	334.035750		for	for
sw2983B-ms98-a-0077	A.123	334.035750	334.195750		me	me
sw2983B-ms98-a-0077	A.123	334.195750	334.311750		to	to
sw2983B-ms98-a-0077	A.125	334.311750	335.302375		[laughter]	[laughter]
sw2983B-ms98-a-0077	A.125	335.302375	335.475750		act	act
sw2983B-ms98-a-0077	A.125	335.475750	335.805750		nice	nice
sw2983B-ms98-a-0077	A.125	335.805750	336.055750		about	about
sw2983B-ms98-a-0077	A.125	336.055750	336.205750		that	that
sw2983B-ms98-a-0077	A.125	336.205750	336.295750		when	when
sw2983B-ms98-a-0077	A.125	336.295750	336.355750	<SUB>	it	he
sw2983B-ms98-a-0077	A.125	336.355750	336.605750		goes	goes
sw2983B-ms98-a-0077	A.125	336.605750	336.795750		on	on
sw2983B-ms98-a-0077	A.125	336.795750	336.895750		and	and
sw2983B-ms98-a-0077	A.125	336.895750	336.975000		on	on
sw2983B-ms98-a-0077	A.127	336.975000	338.079000		[laughter]	[laughter]
sw2983B-ms98-a-0077	A.127	338.079000	340.134375		[silence]	[silence]
sw2983B-ms98-a-0078	A.127	340.134375	341.962125		[silence]	[silence]
sw2983B-ms98-a-0079	A.127	341.962125	342.162750		[silence]	[silence]
sw2983B-ms98-a-0079	A.127	342.162750	342.682125		Yes	yes
sw2983B-ms98-a-0079	A.129	342.682125	343.027375		[silence]	[silence]
sw2983B-ms98-a-0080	A.129	343.027375	351.585375		[silence]	[silence]
sw2983B-ms98-a-0081	A.129	351.585375	351.778375		[silence]	[silence]
sw2983B-ms98-a-0081	A.129	351.778375	352.105375		Right	right
sw2983B-ms98-a-0081	A.129	352.105375	352.205375		and	and
sw2983B-ms98-a-0081	A.129	352.205375	352.305375		then	then
sw2983B-ms98-a-0081	A.129	352.305375	352.415375		they	they
sw2983B-ms98-a-0081	A.129	352.415375	352.595375		want	want
sw2983B-ms98-a-0081	A.129	352.595375	352.655375		to	to
sw2983B-ms98-a-0081	A.129	352.655375	352.895375		play	play
sw2983B-ms98-a-0081	A.129	352.895375	353.205375		another	another
sw2983B-ms98-a-0081	A.129	353.205375	353.605375		course	course
sw2983B-ms98-a-0081	A.129	353.605375	353.785375		that's	that's
sw2983B-ms98-a-0081	A.129	353.785375	354.085375		not	not
sw2983B-ms98-a-0081	A.129	354.085375	354.205375		they're	they're
sw2983B-ms98-a-0081	A.129	354.205375	354.375375		not	not
sw2983B-ms98-a-0081	A.129	354.375375	354.405375		a	a
sw2983B-ms98-a-0081	A.129	354.405375	354.755375		member	member
sw2983B-ms98-a-0081	A.129	354.755375	355.101375		of	of
sw2983B-ms98-a-0081	A.131	355.101375	355.289750		and	and
sw2983B-ms98-a-0081	A.131	355.289750	355.834375		[silence]	[silence]
sw2983B-ms98-a-0081	A.131	355.834375	356.075375		other	other
sw2983B-ms98-a-0081	A.131	356.075375	356.696875		fees	fees
sw2983B-ms98-a-0081	A.133	356.696875	357.232250		[silence]	[silence]
sw2983B-ms98-a-0081	A.133	357.232250	357.367875		It	it
sw2983B-ms98-a-0081	A.133	357.367875	357.715375		really	really
sw2983B-ms98-a-0081	A.133	357.715375	357.944500		is	is
sw2983B-ms98-a-0081	A.133	357.944500	358.313375		high	high
sw2983B-ms98-a-0081	A.135	358.313375	358.584000		[silence]	[silence]
sw2983B-ms98-a-0082	A.135	358.584000	359.614750		[silence]	[silence]
sw2983B-ms98-a-0083	A.135	359.614750	359.827750		[silence]	[silence]
sw2983B-ms98-a-0083	A.135	359.827750	360.253625	<DEL>	---	yeah
sw2983B-ms98-a-0083	A.135	360.253625	360.671625		[silence]	[silence]
sw2983B-ms98-a-0084	A.135	360.671625	365.266125		[silence]	[silence]
sw2983B-ms98-a-0085	A.135	365.266125	365.564500		[silence]	[silence]
sw2983B-ms98-a-0085	A.135	365.564500	365.891750		Oh	oh
sw2983B-ms98-a-0085	A.135	365.891750	366.401250		yeah	yeah
sw2983B-ms98-a-0085	A.137	366.401250	366.878875		[silence]	[silence]
sw2983B-ms98-a-0086	A.137	366.878875	367.241875		[silence]	[silence]
sw2983B-ms98-a-0086	A.137	367.241875	367.830125		Yeah	yeah
sw2983B-ms98-a-0086	A.141	367.830125	368.026250		[silence]	[silence]
sw2983B-ms98-a-0087	A.141	368.026250	370.040250		[silence]	[silence]
sw2983B-ms98-a-0088	A.141	370.040250	370.065500		[silence]	[silence]
sw2983B-ms98-a-0088	A.141	370.065500	370.446875		[laughter]	[laughter]
sw2983B-ms98-a-0088	A.141	370.446875	370.598125		[silence]	[silence]
sw2983B-ms98-a-0089	A.141	370.598125	373.409875		[silence]	[silence]
sw2983B-ms98-a-0090	A.141	373.409875	373.679875		[silence]	[silence]
sw2983B-ms98-a-0090	A.141	373.679875	374.218750		Right	right
sw2983B-ms98-a-0090	A.143	374.218750	374.873375		[silence]	[silence]
sw2983B-ms98-a-0091	A.143	374.873375	381.676875		[silence]	[silence]
sw2983B-ms98-a-0092	A.143	381.676875	381.831500		[silence]	[silence]
sw2983B-ms98-a-0092	A.143	381.831500	382.220875		Uh-huh	uh-huh
sw2983B-ms98-a-0092	A.145	382.220875	382.451250		[silence]	[silence]
sw2983B-ms98-a-0093	A.145	382.451250	386.993375		[silence]	[silence]
sw2983B-ms98-a-0094	A.145	386.993375	387.172250		[silence]	[silence]
sw2983B-ms98-a-0094	A.145	387.172250	387.445250		Uh-huh	uh-huh
sw2983B-ms98-a-0094	A.147	387.445250	387.798500		[silence]	[silence]
sw2983B-ms98-a-0095	A.147	387.798500	392.797750		[silence]	[silence]
sw2983B-ms98-a-0096	A.147	392.797750	392.959000		[silence]	[silence]
sw2983B-ms98-a-0096	A.147	392.959000	393.281625		Uh-huh	uh-huh
sw2983B-ms98-a-0096	A.151	393.281625	393.645625		[silence]	[silence]
sw2983B-ms98-a-0097	A.151	393.645625	397.133500		[silence]	[silence]
sw2983B-ms98-a-0098	A.151	397.133500	397.703250		[silence]	[silence]
sw2983B-ms98-a-0098	A.151	397.703250	398.658250		[laughter]	[laughter]
sw2983B-ms98-a-0098	A.151	398.658250	398.852500		[silence]	[silence]
sw2983B-ms98-a-0099	A.151	398.852500	404.235500		[silence]	[silence]
sw2983B-ms98-a-0100	A.151	404.235500	404.412875		[silence]	[silence]
sw2983B-ms98-a-0100	A.151	404.412875	404.874250		Uh-huh	uh-huh
sw2983B-ms98-a-0100	A.153	404.874250	405.132750		[silence]	[silence]
sw2983B-ms98-a-0101	A.153	405.132750	409.361125		[silence]	[silence]
sw2983B-ms98-a-0102	A.153	409.361125	409.482375		[silence]	[silence]
sw2983B-ms98-a-0102	A.153	409.482375	409.731000		Me	me
sw2983B-ms98-a-0102	A.153	409.731000	410.270500		either	either
sw2983B-ms98-a-0102	A.159	410.270500	410.596500		[silence]	[silence]
sw2983B-ms98-a-0103	A.159	410.596500	411.923750		[silence]	[silence]
sw2983B-ms98-a-0104	A.159	411.923750	411.944500		[silence]	[silence]
sw2983B-ms98-a-0104	A.159	411.944500	412.919375		[laughter]	[laughter]
sw2983B-ms98-a-0104	A.159	412.919375	413.022875		[silence]	[silence]
sw2983B-ms98-a-0105	A.159	413.022875	416.586500		[silence]	[silence]
sw2983B-ms98-a-0106	A.159	416.586500	416.925125		[silence]	[silence]
sw2983B-ms98-a-0106	A.159	416.925125	417.705375		[laughter]	[laughter]
sw2983B-ms98-a-0106	A.159	417.705375	417.761875		[silence]	[silence]
sw2983B-ms98-a-0107	A.159	417.761875	421.556375		[silence]	[silence]
sw2983B-ms98-a-0108	A.159	421.556375	422.525875		[silence]	[silence]
sw2983B-ms98-a-0108	A.159	422.525875	423.144875		Yeah	yeah
sw2983B-ms98-a-0108	A.159	423.144875	423.256375		at	at
sw2983B-ms98-a-0108	A.159	423.256375	423.459875		least	least
sw2983B-ms98-a-0108	A.159	423.459875	423.604000		you're	you're
sw2983B-ms98-a-0108	A.159	423.604000	423.743625		just	just
sw2983B-ms98-a-0108	A.159	423.743625	423.937125		com-	com[peting]-
sw2983B-ms98-a-0108	A.161	423.937125	424.283625		[silence]	[silence]
sw2983B-ms98-a-0108	A.161	424.283625	424.536375		you're	you're
sw2983B-ms98-a-0108	A.161	424.536375	424.906375		competing	competing
sw2983B-ms98-a-0108	A.161	424.906375	425.256375		against	against
sw2983B-ms98-a-0108	A.161	425.256375	425.736375		yourself	yourself
sw2983B-ms98-a-0108	A.161	425.736375	425.836375		I	i
sw2983B-ms98-a-0108	A.161	425.836375	426.116375		guess	guess
sw2983B-ms98-a-0108	A.161	426.116375	426.426375		more	more
sw2983B-ms98-a-0108	A.161	426.426375	426.800625		than	than
sw2983B-ms98-a-0108	A.161	426.800625	427.508625		[silence]	[silence]
sw2983B-ms98-a-0108	A.161	427.508625	427.926375		everybody	everybody
sw2983B-ms98-a-0108	A.161	427.926375	428.116375		else	else
sw2983B-ms98-a-0108	A.161	428.116375	428.356375		out	out
sw2983B-ms98-a-0108	A.161	428.356375	428.844250		there	there
sw2983B-ms98-a-0108	A.163	428.844250	429.764125		[silence]	[silence]
sw2983B-ms98-a-0108	A.163	429.764125	430.088000		Yeah	yeah
sw2983B-ms98-a-0108	A.163	430.088000	430.156125		[silence]	[silence]
sw2983B-ms98-a-0109	A.163	430.156125	436.910000		[silence]	[silence]
sw2983B-ms98-a-0110	A.163	436.910000	436.940375		[silence]	[silence]
sw2983B-ms98-a-0110	A.163	436.940375	437.285500	<DEL>	---	yeah
sw2983B-ms98-a-0110	A.163	437.285500	437.530000		that's	that's
sw2983B-ms98-a-0110	A.165	437.530000	437.710000		kind	kind
sw2983B-ms98-a-0110	A.165	437.710000	437.780000		of	of
sw2983B-ms98-a-0110	A.165	437.780000	437.840000		the	the
sw2983B-ms98-a-0110	A.165	437.840000	437.900000		way	way
sw2983B-ms98-a-0110	A.165	437.900000	437.986750		I	i
sw2983B-ms98-a-0110	A.165	437.986750	438.306875		feel	feel
sw2983B-ms98-a-0110	A.167	438.306875	438.528375		[silence]	[silence]
sw2983B-ms98-a-0111	A.167	438.528375	443.168500		[silence]	[silence]
sw2983B-ms98-a-0112	A.167	443.168500	443.381375		[silence]	[silence]
sw2983B-ms98-a-0112	A.167	443.381375	443.958500		Oh	oh
sw2983B-ms98-a-0112	A.169	443.958500	444.255250		[silence]	[silence]
sw2983B-ms98-a-0113	A.169	444.255250	448.681250		[silence]	[silence]
sw2983B-ms98-a-0114	A.169	448.681250	448.835000		[silence]	[silence]
sw2983B-ms98-a-0114	A.169	448.835000	449.463875		Right	right
sw2983B-ms98-a-0114	A.169	449.463875	450.009375		[silence]	[silence]
