sw2994B-ms98-a-0001	A.1	0.000000	0.000625		[silence]	[silence]
sw2994B-ms98-a-0001	A.1	0.000625	0.052625		[noise]	[noise]
sw2994B-ms98-a-0001	A.1	0.052625	0.182500		[silence]	[silence]
sw2994B-ms98-a-0002	A.1	0.182500	0.763250		[silence]	[silence]
sw2994B-ms98-a-0002	A.1	0.763250	1.022500		Okay	okay
sw2994B-ms98-a-0002	A.1	1.022500	1.182500		have	have
sw2994B-ms98-a-0002	A.1	1.182500	1.272500		you	you
sw2994B-ms98-a-0002	A.1	1.272500	2.032500		participated	participated
sw2994B-ms98-a-0002	A.1	2.032500	2.282500		in	in
sw2994B-ms98-a-0002	A.1	2.282500	2.892500		anything	anything
sw2994B-ms98-a-0002	A.1	2.892500	3.092500		like	like
sw2994B-ms98-a-0002	A.1	3.092500	3.532750		that	that
sw2994B-ms98-a-0002	A.3	3.532750	4.053500		[silence]	[silence]
sw2994B-ms98-a-0003	A.3	4.053500	10.603375		[silence]	[silence]
sw2994B-ms98-a-0004	A.3	10.603375	11.091125		[silence]	[silence]
sw2994B-ms98-a-0004	A.3	11.091125	11.463125	<SUB>	Uh-huh	um-hum
sw2994B-ms98-a-0004	A.3	11.463125	12.242875		[silence]	[silence]
sw2994B-ms98-a-0004	A.3	12.242875	12.401000		uh	uh
sw2994B-ms98-a-0004	A.3	12.401000	12.654750		we	we
sw2994B-ms98-a-0004	A.3	12.654750	13.099875		[silence]	[silence]
sw2994B-ms98-a-0004	A.3	13.099875	13.229000		we	we
sw2994B-ms98-a-0004	A.3	13.229000	13.343375		have	have
sw2994B-ms98-a-0004	A.3	13.343375	13.383375		a	a
sw2994B-ms98-a-0004	A.3	13.383375	13.613375		pretty	pretty
sw2994B-ms98-a-0004	A.3	13.613375	13.893375		nice	nice
sw2994B-ms98-a-0004	A.3	13.893375	14.503375		recycling	recycling
sw2994B-ms98-a-0004	A.3	14.503375	15.073375		center	center
sw2994B-ms98-a-0004	A.3	15.073375	15.183375		uh	uh
sw2994B-ms98-a-0004	A.3	15.183375	15.263375		in	in
sw2994B-ms98-a-0004	A.3	15.263375	15.383375		our	our
sw2994B-ms98-a-0004	A.3	15.383375	15.663375		city	city
sw2994B-ms98-a-0004	A.3	15.663375	16.083375		now	now
sw2994B-ms98-a-0004	A.3	16.083375	16.223375		and	and
sw2994B-ms98-a-0004	A.3	16.223375	16.313375		we	we
sw2994B-ms98-a-0004	A.3	16.313375	16.795875		take	take
sw2994B-ms98-a-0004	A.3	16.795875	17.527500		[silence]	[silence]
sw2994B-ms98-a-0004	A.3	17.527500	17.593375		the	the
sw2994B-ms98-a-0004	A.3	17.593375	18.693375		newspapers	newspapers
sw2994B-ms98-a-0004	A.3	18.693375	18.943375		[silence]	[silence]
sw2994B-ms98-a-0004	A.3	18.943375	19.509750		and	and
sw2994B-ms98-a-0004	A.3	19.509750	19.709375		[silence]	[silence]
sw2994B-ms98-a-0004	A.3	19.709375	20.213375		plastic	plastic
sw2994B-ms98-a-0004	A.3	20.213375	20.363375		and	and
sw2994B-ms98-a-0004	A.3	20.363375	20.827750		glass	glass
sw2994B-ms98-a-0004	A.3	20.827750	21.297000		[silence]	[silence]
sw2994B-ms98-a-0005	A.3	21.297000	21.773125		[silence]	[silence]
sw2994B-ms98-a-0005	A.3	21.773125	21.925750		up	up
sw2994B-ms98-a-0005	A.3	21.925750	22.486500		there	there
sw2994B-ms98-a-0005	A.3	22.486500	23.230375		[silence]	[silence]
sw2994B-ms98-a-0005	A.3	23.230375	23.508125		They're	they're
sw2994B-ms98-a-0005	A.3	23.508125	23.837000		open	open
sw2994B-ms98-a-0005	A.3	23.837000	24.037000		like	like
sw2994B-ms98-a-0005	A.3	24.037000	24.187000		two	two
sw2994B-ms98-a-0005	A.3	24.187000	24.457000		days	days
sw2994B-ms98-a-0005	A.3	24.457000	24.547000		a	a
sw2994B-ms98-a-0005	A.3	24.547000	24.887000		week	week
sw2994B-ms98-a-0005	A.3	24.887000	25.027000		and	and
sw2994B-ms98-a-0005	A.3	25.027000	25.087000		you	you
sw2994B-ms98-a-0005	A.3	25.087000	25.187000		can	can
sw2994B-ms98-a-0005	A.3	25.187000	25.377000		just	just
sw2994B-ms98-a-0005	A.3	25.377000	25.557000		take	take
sw2994B-ms98-a-0005	A.3	25.557000	25.657000		it	it
sw2994B-ms98-a-0005	A.3	25.657000	25.807000		up	up
sw2994B-ms98-a-0005	A.3	25.807000	25.917000		there	there
sw2994B-ms98-a-0005	A.3	25.917000	26.027000		and	and
sw2994B-ms98-a-0005	A.3	26.027000	26.277000		drop	drop
sw2994B-ms98-a-0005	A.3	26.277000	26.387000		it	it
sw2994B-ms98-a-0005	A.3	26.387000	26.692250		off	off
sw2994B-ms98-a-0005	A.5	26.692250	27.370250		[silence]	[silence]
sw2994B-ms98-a-0005	A.5	27.370250	27.537000		It's	it's
sw2994B-ms98-a-0005	A.5	27.537000	27.747000		kind	kind
sw2994B-ms98-a-0005	A.5	27.747000	27.807000		of	of
sw2994B-ms98-a-0005	A.5	27.807000	28.077000		fun	fun
sw2994B-ms98-a-0005	A.5	28.077000	28.187000		And	and
sw2994B-ms98-a-0005	A.5	28.187000	28.567000		everybody	everybody
sw2994B-ms98-a-0005	A.5	28.567000	28.677000		up	up
sw2994B-ms98-a-0005	A.5	28.677000	28.807000		there	there
sw2994B-ms98-a-0005	A.5	28.807000	29.037000		looks	looks
sw2994B-ms98-a-0005	A.5	29.037000	29.367000		pleased	pleased
sw2994B-ms98-a-0005	A.5	29.367000	29.496375		with	with
sw2994B-ms98-a-0005	A.5	29.496375	29.977000		themselves	[laughter-themselves]
sw2994B-ms98-a-0005	A.5	29.977000	30.107000		when	when
sw2994B-ms98-a-0005	A.5	30.107000	30.237000		they're	they're
sw2994B-ms98-a-0005	A.5	30.237000	30.537000		taking	taking
sw2994B-ms98-a-0005	A.5	30.537000	30.676375		their	their
sw2994B-ms98-a-0005	A.5	30.676375	30.778125		[silence]	[silence]
sw2994B-ms98-a-0005	A.5	30.778125	30.967000		stuff	stuff
sw2994B-ms98-a-0005	A.5	30.967000	31.117000		in	in
sw2994B-ms98-a-0005	A.5	31.117000	31.297000		like	like
sw2994B-ms98-a-0005	A.5	31.297000	31.407000		they're	they're
sw2994B-ms98-a-0005	A.5	31.407000	31.667000		doing	doing
sw2994B-ms98-a-0005	A.5	31.667000	31.987000		something	something
sw2994B-ms98-a-0005	A.5	31.987000	32.247000		good	good
sw2994B-ms98-a-0005	A.5	32.247000	32.357625		to	to
sw2994B-ms98-a-0005	A.7	32.357625	32.737375		[silence]	[silence]
sw2994B-ms98-a-0006	A.7	32.737375	33.157875		[silence]	[silence]
sw2994B-ms98-a-0006	A.7	33.157875	33.307375		help	help
sw2994B-ms98-a-0006	A.7	33.307375	33.507375		the	the
sw2994B-ms98-a-0006	A.7	33.507375	33.707375		earth	earth
sw2994B-ms98-a-0006	A.7	33.707375	33.862875		I	i
sw2994B-ms98-a-0006	A.7	33.862875	34.124750		guess	guess
sw2994B-ms98-a-0006	A.9	34.124750	34.851250		[silence]	[silence]
sw2994B-ms98-a-0007	A.9	34.851250	37.022500		[silence]	[silence]
sw2994B-ms98-a-0008	A.9	37.022500	37.575250		[silence]	[silence]
sw2994B-ms98-a-0008	A.9	37.575250	38.105375		Yeah	yeah
sw2994B-ms98-a-0008	A.9	38.105375	38.584000		[silence]	[silence]
sw2994B-ms98-a-0009	A.9	38.584000	39.131750		[silence]	[silence]
sw2994B-ms98-a-0009	A.9	39.131750	39.244000		Yeah	yeah
sw2994B-ms98-a-0009	A.9	39.244000	39.364000		my	my
sw2994B-ms98-a-0009	A.9	39.364000	39.654000		husband	husband
sw2994B-ms98-a-0009	A.9	39.654000	39.764000		was	was
sw2994B-ms98-a-0009	A.9	39.764000	40.114000		complaining	complaining
sw2994B-ms98-a-0009	A.9	40.114000	40.174000		the	the
sw2994B-ms98-a-0009	A.9	40.174000	40.274000		other	other
sw2994B-ms98-a-0009	A.9	40.274000	40.494000		day	day
sw2994B-ms98-a-0009	A.9	40.494000	40.654000		because	because_1
sw2994B-ms98-a-0009	A.9	40.654000	40.754000		he	he
sw2994B-ms98-a-0009	A.9	40.754000	40.894000	<SUB>	said	says
sw2994B-ms98-a-0009	A.9	40.894000	41.044000		every	every
sw2994B-ms98-a-0009	A.9	41.044000	41.224000		time	time
sw2994B-ms98-a-0009	A.9	41.224000	41.264000		I	i
sw2994B-ms98-a-0009	A.9	41.264000	41.474000		turn	turn
sw2994B-ms98-a-0009	A.9	41.474000	41.744000		around	around
sw2994B-ms98-a-0009	A.9	41.744000	41.834000		you're	you're
sw2994B-ms98-a-0009	A.9	41.834000	42.054000		telling	telling
sw2994B-ms98-a-0009	A.9	42.054000	42.144000		me	me
sw2994B-ms98-a-0009	A.9	42.144000	42.344000		some	some
sw2994B-ms98-a-0009	A.9	42.344000	42.514000		new	new
sw2994B-ms98-a-0009	A.9	42.514000	42.724000		rule	rule
sw2994B-ms98-a-0009	A.9	42.724000	42.994000		about	about
sw2994B-ms98-a-0009	A.9	42.994000	43.604000		recycling	recycling
sw2994B-ms98-a-0009	A.9	43.604000	43.814000		like	like
sw2994B-ms98-a-0009	A.9	43.814000	44.244000		yesterday	yesterday
sw2994B-ms98-a-0009	A.9	44.244000	44.274000		I	i
sw2994B-ms98-a-0009	A.9	44.274000	44.370875		was	was
sw2994B-ms98-a-0009	A.9	44.370875	44.438625		[silence]	[silence]
sw2994B-ms98-a-0009	A.9	44.438625	44.637500	<SUB>	tell	telling
sw2994B-ms98-a-0009	A.9	44.637500	44.754250		him	him
sw2994B-ms98-a-0009	A.9	44.754250	44.924000		you	you
sw2994B-ms98-a-0009	A.9	44.924000	45.044000		have	have
sw2994B-ms98-a-0009	A.9	45.044000	45.236375		to	to
sw2994B-ms98-a-0009	A.9	45.236375	45.620625		[silence]	[silence]
sw2994B-ms98-a-0009	A.9	45.620625	45.724000		you're	you're
sw2994B-ms98-a-0009	A.9	45.724000	45.954000		supposed	supposed
sw2994B-ms98-a-0009	A.9	45.954000	46.044000		to	to
sw2994B-ms98-a-0009	A.9	46.044000	46.324000	<SUB>	squeeze	squish
sw2994B-ms98-a-0009	A.9	46.324000	46.444000		the	the
sw2994B-ms98-a-0009	A.9	46.444000	46.894000		plastic	plastic
sw2994B-ms98-a-0009	A.9	46.894000	47.224000		jugs	[laughter-jugs]
sw2994B-ms98-a-0009	A.9	47.224000	47.554000		before	[laughter-before]
sw2994B-ms98-a-0009	A.9	47.554000	47.655375		you	you
sw2994B-ms98-a-0009	A.9	47.655375	47.881375		take	take
sw2994B-ms98-a-0009	A.9	47.881375	48.044000		them	them_1
sw2994B-ms98-a-0009	A.9	48.044000	48.264000		up	up
sw2994B-ms98-a-0009	A.9	48.264000	48.564000		there	there
sw2994B-ms98-a-0009	A.11	48.564000	48.884750		[silence]	[silence]
sw2994B-ms98-a-0010	A.11	48.884750	49.538500		[silence]	[silence]
sw2994B-ms98-a-0010	A.11	49.538500	49.714750		Every	every
sw2994B-ms98-a-0010	A.11	49.714750	49.934750		time	time
sw2994B-ms98-a-0010	A.11	49.934750	49.994750		he	he
sw2994B-ms98-a-0010	A.11	49.994750	50.244750		turns	turns
sw2994B-ms98-a-0010	A.11	50.244750	50.514750		around	around
sw2994B-ms98-a-0010	A.11	50.514750	50.644750		I'm	i'm
sw2994B-ms98-a-0010	A.11	50.644750	50.844750		giving	giving
sw2994B-ms98-a-0010	A.11	50.844750	50.964750		him	him
sw2994B-ms98-a-0010	A.11	50.964750	51.174750		some	some
sw2994B-ms98-a-0010	A.11	51.174750	51.374750		new	new
sw2994B-ms98-a-0010	A.11	51.374750	52.012375		rule	rule
sw2994B-ms98-a-0010	A.13	52.012375	52.166750		[silence]	[silence]
sw2994B-ms98-a-0010	A.13	52.166750	52.374750	<SUB>	where	that
sw2994B-ms98-a-0010	A.13	52.374750	52.514750	<DEL>	---	we're
sw2994B-ms98-a-0010	A.13	52.514750	52.814750		[silence]	[silence]
sw2994B-ms98-a-0010	A.13	52.814750	52.964750		you're	you're
sw2994B-ms98-a-0010	A.13	52.964750	53.264750		supposed	supposed
sw2994B-ms98-a-0010	A.13	53.264750	53.414750		to	to
sw2994B-ms98-a-0010	A.13	53.414750	53.784750		squish	squish
sw2994B-ms98-a-0010	A.13	53.784750	54.044750		up	up
sw2994B-ms98-a-0010	A.13	54.044750	54.310875		the	the
sw2994B-ms98-a-0010	A.13	54.310875	54.706375		[silence]	[silence]
sw2994B-ms98-a-0010	A.13	54.706375	54.774750		you	you
sw2994B-ms98-a-0010	A.13	54.774750	54.914750		know	know
sw2994B-ms98-a-0010	A.13	54.914750	55.097750		like	like
sw2994B-ms98-a-0010	A.13	55.097750	55.191875		[silence]	[silence]
sw2994B-ms98-a-0010	A.13	55.191875	55.664750		collapse	collapse
sw2994B-ms98-a-0010	A.13	55.664750	55.734750		the	the
sw2994B-ms98-a-0010	A.13	55.734750	56.304750		plastic	plastic
sw2994B-ms98-a-0010	A.13	56.304750	56.849000		jugs	jugs
sw2994B-ms98-a-0010	A.15	56.849000	57.289750		[silence]	[silence]
sw2994B-ms98-a-0010	A.15	57.289750	57.404750		Instead	instead
sw2994B-ms98-a-0010	A.15	57.404750	57.464750		of	of
sw2994B-ms98-a-0010	A.15	57.464750	57.784750		taking	taking
sw2994B-ms98-a-0010	A.15	57.784750	57.884750		them	them_1
sw2994B-ms98-a-0010	A.15	57.884750	58.044750		up	up
sw2994B-ms98-a-0010	A.15	58.044750	58.272000		there	there
sw2994B-ms98-a-0010	A.15	58.272000	58.652375		[silence]	[silence]
sw2994B-ms98-a-0010	A.15	58.652375	59.117750		solid	solid
sw2994B-ms98-a-0010	A.15	59.117750	59.754125		[silence]	[silence]
sw2994B-ms98-a-0011	A.15	59.754125	60.419375		[silence]	[silence]
sw2994B-ms98-a-0011	A.15	60.419375	60.767125		And	and
sw2994B-ms98-a-0011	A.15	60.767125	60.947875		[silence]	[silence]
sw2994B-ms98-a-0011	A.15	60.947875	61.044125		I	i
sw2994B-ms98-a-0011	A.15	61.044125	61.244625		wish	wish
sw2994B-ms98-a-0011	A.15	61.244625	61.319875		[silence]	[silence]
sw2994B-ms98-a-0011	A.15	61.319875	61.434125		that	that
sw2994B-ms98-a-0011	A.15	61.434125	61.614125		our	our
sw2994B-ms98-a-0011	A.15	61.614125	62.164125		recycling	recycling
sw2994B-ms98-a-0011	A.15	62.164125	62.228125		[silence]	[silence]
sw2994B-ms98-a-0011	A.15	62.228125	62.394125		center	center
sw2994B-ms98-a-0011	A.15	62.394125	62.644125		took	took
sw2994B-ms98-a-0011	A.15	62.644125	62.994125		paper	paper
sw2994B-ms98-a-0011	A.15	62.994125	63.545250		bags	bags
sw2994B-ms98-a-0011	A.15	63.545250	63.601750		[silence]	[silence]
sw2994B-ms98-a-0011	A.15	63.601750	63.704125		They	they
sw2994B-ms98-a-0011	A.15	63.704125	63.954125		won't	won't
sw2994B-ms98-a-0011	A.15	63.954125	64.264125		take	take
sw2994B-ms98-a-0011	A.15	64.264125	64.643250		those	those
sw2994B-ms98-a-0011	A.15	64.643250	65.029125		[silence]	[silence]
sw2994B-ms98-a-0012	A.15	65.029125	65.469500		[silence]	[silence]
sw2994B-ms98-a-0012	A.15	65.469500	65.577500		We	we
sw2994B-ms98-a-0012	A.15	65.577500	65.707250		like	like
sw2994B-ms98-a-0012	A.15	65.707250	65.779125		to	to
sw2994B-ms98-a-0012	A.15	65.779125	65.939125		put	put
sw2994B-ms98-a-0012	A.15	65.939125	66.082125		our	our
sw2994B-ms98-a-0012	A.15	66.082125	66.131125		[silence]	[silence]
sw2994B-ms98-a-0012	A.15	66.131125	66.319125		just	just
sw2994B-ms98-a-0012	A.15	66.319125	66.459125		put	put
sw2994B-ms98-a-0012	A.15	66.459125	66.529125		our	our
sw2994B-ms98-a-0012	A.15	66.529125	67.099125		newspapers	newspapers
sw2994B-ms98-a-0012	A.15	67.099125	67.199125		in	in
sw2994B-ms98-a-0012	A.15	67.199125	67.259125		a	a
sw2994B-ms98-a-0012	A.15	67.259125	67.579125		paper	paper
sw2994B-ms98-a-0012	A.15	67.579125	67.939125		bag	bag
sw2994B-ms98-a-0012	A.15	67.939125	68.009125		you	you
sw2994B-ms98-a-0012	A.15	68.009125	68.239125		know	know
sw2994B-ms98-a-0012	A.15	68.239125	68.329125		and	and
sw2994B-ms98-a-0012	A.15	68.329125	68.519125		then	then
sw2994B-ms98-a-0012	A.15	68.519125	68.719125		carry	carry
sw2994B-ms98-a-0012	A.15	68.719125	68.859125		them	them_1
sw2994B-ms98-a-0012	A.15	68.859125	69.019125		up	up
sw2994B-ms98-a-0012	A.15	69.019125	69.159125		there	there
sw2994B-ms98-a-0012	A.15	69.159125	69.409125		that	that
sw2994B-ms98-a-0012	A.15	69.409125	69.639125		way	way
sw2994B-ms98-a-0012	A.17	69.639125	69.799125		And	and
sw2994B-ms98-a-0012	A.17	69.799125	69.899125		we	we
sw2994B-ms98-a-0012	A.17	69.899125	70.049125		have	have
sw2994B-ms98-a-0012	A.17	70.049125	70.149125		to	to
sw2994B-ms98-a-0012	A.17	70.149125	70.299125		bring	bring
sw2994B-ms98-a-0012	A.17	70.299125	70.359125		the	the
sw2994B-ms98-a-0012	A.17	70.359125	70.709125		paper	paper
sw2994B-ms98-a-0012	A.17	70.709125	71.089125		bags	bags
sw2994B-ms98-a-0012	A.17	71.089125	71.389125		back	back
sw2994B-ms98-a-0012	A.17	71.389125	71.599125		every	every
sw2994B-ms98-a-0012	A.17	71.599125	72.001375		time	time
sw2994B-ms98-a-0012	A.19	72.001375	72.568000		[silence]	[silence]
sw2994B-ms98-a-0013	A.19	72.568000	73.198000		[silence]	[silence]
sw2994B-ms98-a-0013	A.19	73.198000	73.318000	<SUB>	Because	but
sw2994B-ms98-a-0013	A.19	73.318000	73.378000		they	they
sw2994B-ms98-a-0013	A.19	73.378000	73.588000		won't	won't
sw2994B-ms98-a-0013	A.19	73.588000	73.638000		[silence]	[silence]
sw2994B-ms98-a-0013	A.19	73.638000	73.938000		take	take
sw2994B-ms98-a-0013	A.19	73.938000	74.202625		them	them
sw2994B-ms98-a-0013	A.19	74.202625	74.752500		[silence]	[silence]
sw2994B-ms98-a-0013	A.19	74.752500	74.818000		Do	do
sw2994B-ms98-a-0013	A.19	74.818000	75.099875		you	you
sw2994B-ms98-a-0013	A.19	75.099875	75.137500		[silence]	[silence]
sw2994B-ms98-a-0013	A.19	75.137500	75.378000	<SUB>	uh	um
sw2994B-ms98-a-0013	A.19	75.378000	75.648000		take	take
sw2994B-ms98-a-0013	A.19	75.648000	75.738000		your	your
sw2994B-ms98-a-0013	A.19	75.738000	76.077375		papers	papers
sw2994B-ms98-a-0013	A.19	76.077375	76.175250		[silence]	[silence]
sw2994B-ms98-a-0013	A.19	76.175250	76.498000		somewhere	somewhere
sw2994B-ms98-a-0013	A.19	76.498000	76.558000		or	or
sw2994B-ms98-a-0013	A.19	76.558000	76.698000		does	does
sw2994B-ms98-a-0013	A.19	76.698000	76.938000		someone	someone
sw2994B-ms98-a-0013	A.19	76.938000	77.158000		pick	pick
sw2994B-ms98-a-0013	A.19	77.158000	77.298000		them	them
sw2994B-ms98-a-0013	A.19	77.298000	77.568000		up	up
sw2994B-ms98-a-0013	A.21	77.568000	78.206000		[silence]	[silence]
sw2994B-ms98-a-0014	A.21	78.206000	80.874125		[silence]	[silence]
sw2994B-ms98-a-0015	A.21	80.874125	81.494125		[silence]	[silence]
sw2994B-ms98-a-0015	A.21	81.494125	81.864125		Uh-huh	uh-huh
sw2994B-ms98-a-0015	A.21	81.864125	82.408125		[silence]	[silence]
sw2994B-ms98-a-0016	A.21	82.408125	83.430500		[silence]	[silence]
sw2994B-ms98-a-0017	A.21	83.430500	83.903750		[silence]	[silence]
sw2994B-ms98-a-0017	A.21	83.903750	84.133875		We	we
sw2994B-ms98-a-0017	A.21	84.133875	84.390875		um	um
sw2994B-ms98-a-0017	A.21	84.390875	84.485000		[silence]	[silence]
sw2994B-ms98-a-0017	A.21	84.485000	84.550500		we	we
sw2994B-ms98-a-0017	A.21	84.550500	84.810500		don't	don't
sw2994B-ms98-a-0017	A.21	84.810500	85.040500		take	take
sw2994B-ms98-a-0017	A.21	85.040500	85.100500		our	our
sw2994B-ms98-a-0017	A.21	85.100500	85.490500		cans	cans
sw2994B-ms98-a-0017	A.21	85.490500	85.630500		up	up
sw2994B-ms98-a-0017	A.21	85.630500	85.750500		to	to
sw2994B-ms98-a-0017	A.21	85.750500	85.950500		that	that
sw2994B-ms98-a-0017	A.21	85.950500	86.260500		center	center
sw2994B-ms98-a-0017	A.21	86.260500	86.430500		though	though
sw2994B-ms98-a-0017	A.21	86.430500	86.570500		our	our
sw2994B-ms98-a-0017	A.21	86.570500	86.990500		aluminum	aluminum
sw2994B-ms98-a-0017	A.21	86.990500	87.400500		cans	cans
sw2994B-ms98-a-0017	A.21	87.400500	87.530500		we	we
sw2994B-ms98-a-0017	A.21	87.530500	87.680500		like	like
sw2994B-ms98-a-0017	A.21	87.680500	87.746125		to	to
sw2994B-ms98-a-0017	A.21	87.746125	87.798875		[silence]	[silence]
sw2994B-ms98-a-0017	A.21	87.798875	88.010500		take	take
sw2994B-ms98-a-0017	A.21	88.010500	88.240500		them	them
sw2994B-ms98-a-0017	A.21	88.240500	88.400500		to	to
sw2994B-ms98-a-0017	A.21	88.400500	88.510500		one	one
sw2994B-ms98-a-0017	A.21	88.510500	88.600500		of	of
sw2994B-ms98-a-0017	A.21	88.600500	88.660500		the	the
sw2994B-ms98-a-0017	A.21	88.660500	88.922250		places	places
sw2994B-ms98-a-0017	A.21	88.922250	88.982500		[silence]	[silence]
sw2994B-ms98-a-0017	A.21	88.982500	89.100500		where	where
sw2994B-ms98-a-0017	A.21	89.100500	89.200500		they	they
sw2994B-ms98-a-0017	A.21	89.200500	89.430500		pay	pay
sw2994B-ms98-a-0017	A.21	89.430500	89.550500		you	you
sw2994B-ms98-a-0017	A.21	89.550500	89.790500		for	for
sw2994B-ms98-a-0017	A.21	89.790500	90.179125		them	them_1
sw2994B-ms98-a-0017	A.23	90.179125	90.703125		[silence]	[silence]
sw2994B-ms98-a-0018	A.23	90.703125	93.044875		[silence]	[silence]
sw2994B-ms98-a-0019	A.23	93.044875	93.507250		[silence]	[silence]
sw2994B-ms98-a-0019	A.23	93.507250	93.924125		Uh-huh	uh-huh
sw2994B-ms98-a-0019	A.25	93.924125	94.455500		[silence]	[silence]
sw2994B-ms98-a-0020	A.25	94.455500	96.332000		[silence]	[silence]
sw2994B-ms98-a-0021	A.25	96.332000	96.963500		[silence]	[silence]
sw2994B-ms98-a-0021	A.25	96.963500	97.262000		Yeah	yeah
sw2994B-ms98-a-0021	A.25	97.262000	97.382000		it	it
sw2994B-ms98-a-0021	A.25	97.382000	97.622000		takes	takes
sw2994B-ms98-a-0021	A.25	97.622000	97.732000		us	us
sw2994B-ms98-a-0021	A.25	97.732000	98.022000		about	about
sw2994B-ms98-a-0021	A.25	98.022000	98.052000		a	a
sw2994B-ms98-a-0021	A.25	98.052000	98.242000		year	year
sw2994B-ms98-a-0021	A.25	98.242000	98.312000		to	to
sw2994B-ms98-a-0021	A.25	98.312000	98.562000		save	save
sw2994B-ms98-a-0021	A.25	98.562000	98.712000		up	up
sw2994B-ms98-a-0021	A.25	98.712000	98.972000		enough	enough
sw2994B-ms98-a-0021	A.25	98.972000	99.082000		to	to
sw2994B-ms98-a-0021	A.25	99.082000	99.222000		be	be
sw2994B-ms98-a-0021	A.25	99.222000	99.483625		worth	worth
sw2994B-ms98-a-0021	A.25	99.483625	99.913250		[silence]	[silence]
sw2994B-ms98-a-0022	A.25	99.913250	100.508500		[silence]	[silence]
sw2994B-ms98-a-0022	A.25	100.508500	100.819750	<SUB>	you	yeah
sw2994B-ms98-a-0022	A.25	100.819750	100.819750	<INS>	know	---
sw2994B-ms98-a-0022	A.25	100.819750	100.880875		[silence]	[silence]
sw2994B-ms98-a-0022	A.25	100.880875	101.056250		worth	worth
sw2994B-ms98-a-0022	A.25	101.056250	101.124000		[silence]	[silence]
sw2994B-ms98-a-0022	A.25	101.124000	101.423250		bothering	bothering
sw2994B-ms98-a-0022	A.25	101.423250	101.483250		to	to
sw2994B-ms98-a-0022	A.25	101.483250	101.653250		go	go
sw2994B-ms98-a-0022	A.25	101.653250	101.803250		in	in
sw2994B-ms98-a-0022	A.25	101.803250	101.953250		and	and
sw2994B-ms98-a-0022	A.25	101.953250	102.378875		do	do
sw2994B-ms98-a-0022	A.25	102.378875	102.378875	<INS>	but	---
sw2994B-ms98-a-0022	A.25	102.378875	103.139500		[silence]	[silence]
sw2994B-ms98-a-0023	A.25	103.139500	103.851125		[silence]	[silence]
sw2994B-ms98-a-0023	A.25	103.851125	103.919500		Do	do
sw2994B-ms98-a-0023	A.25	103.919500	104.029500		you	you
sw2994B-ms98-a-0023	A.25	104.029500	104.229500		um	um
sw2994B-ms98-a-0023	A.25	104.229500	104.399500		have	have
sw2994B-ms98-a-0023	A.25	104.399500	104.559500		any	any
sw2994B-ms98-a-0023	A.25	104.559500	104.889500		ideas	ideas
sw2994B-ms98-a-0023	A.25	104.889500	105.029500		on	on
sw2994B-ms98-a-0023	A.25	105.029500	105.559500		anything	anything
sw2994B-ms98-a-0023	A.25	105.559500	105.689500		that	that
sw2994B-ms98-a-0023	A.25	105.689500	105.859500		would	would
sw2994B-ms98-a-0023	A.25	105.859500	106.166250		make	make
sw2994B-ms98-a-0023	A.27	106.166250	106.597000		[silence]	[silence]
sw2994B-ms98-a-0024	A.27	106.597000	112.767000		[silence]	[silence]
sw2994B-ms98-a-0025	A.27	112.767000	113.273500		[silence]	[silence]
sw2994B-ms98-a-0025	A.27	113.273500	113.660500		Uh-huh	uh-huh
sw2994B-ms98-a-0025	A.29	113.660500	114.287250		[silence]	[silence]
sw2994B-ms98-a-0026	A.29	114.287250	131.783125		[silence]	[silence]
sw2994B-ms98-a-0027	A.29	131.783125	132.344250		[silence]	[silence]
sw2994B-ms98-a-0027	A.29	132.344250	132.803625		Right	right
sw2994B-ms98-a-0027	A.31	132.803625	133.532125		[silence]	[silence]
sw2994B-ms98-a-0028	A.31	133.532125	139.817625		[silence]	[silence]
sw2994B-ms98-a-0029	A.31	139.817625	140.266125		[silence]	[silence]
sw2994B-ms98-a-0029	A.31	140.266125	140.557625		Yeah	yeah
sw2994B-ms98-a-0029	A.31	140.557625	140.767625	<CONT>	that	that'd
sw2994B-ms98-a-0029	A.31	140.767625	140.767625	<CONT>	would	+++
sw2994B-ms98-a-0029	A.31	140.767625	140.867625		be	be
sw2994B-ms98-a-0029	A.31	140.867625	140.907625		a	a
sw2994B-ms98-a-0029	A.31	140.907625	141.037625		good	good
sw2994B-ms98-a-0029	A.31	141.037625	141.654250		idea	idea
sw2994B-ms98-a-0029	A.33	141.654250	142.027125		[silence]	[silence]
sw2994B-ms98-a-0030	A.33	142.027125	142.474125		[silence]	[silence]
sw2994B-ms98-a-0030	A.33	142.474125	142.787625		Yeah	yeah
sw2994B-ms98-a-0030	A.35	142.787625	143.368250		[silence]	[silence]
sw2994B-ms98-a-0031	A.35	143.368250	146.590125		[silence]	[silence]
sw2994B-ms98-a-0032	A.35	146.590125	147.091875		[silence]	[silence]
sw2994B-ms98-a-0032	A.35	147.091875	147.570125		Right	right
sw2994B-ms98-a-0032	A.35	147.570125	148.088750		[silence]	[silence]
sw2994B-ms98-a-0033	A.35	148.088750	148.494375		[silence]	[silence]
sw2994B-ms98-a-0033	A.35	148.494375	148.648750		Yeah	yeah
sw2994B-ms98-a-0033	A.35	148.648750	148.788750		that	that
sw2994B-ms98-a-0033	A.35	148.788750	148.918750		would	would
sw2994B-ms98-a-0033	A.35	148.918750	149.038750		be	be
sw2994B-ms98-a-0033	A.35	149.038750	149.078750		a	a
sw2994B-ms98-a-0033	A.35	149.078750	149.311625		real	real
sw2994B-ms98-a-0033	A.35	149.311625	149.387000		[silence]	[silence]
sw2994B-ms98-a-0033	A.35	149.387000	149.568750		good	good
sw2994B-ms98-a-0033	A.35	149.568750	150.258750		motivation	motivation
sw2994B-ms98-a-0033	A.35	150.258750	150.433250		for	for
sw2994B-ms98-a-0033	A.35	150.433250	150.486000		[silence]	[silence]
sw2994B-ms98-a-0033	A.35	150.486000	150.918750		people	people
sw2994B-ms98-a-0033	A.37	150.918750	152.290375		[silence]	[silence]
sw2994B-ms98-a-0034	A.37	152.290375	162.778375		[silence]	[silence]
sw2994B-ms98-a-0035	A.37	162.778375	163.448375		[silence]	[silence]
sw2994B-ms98-a-0035	A.37	163.448375	163.979500		Right	right
sw2994B-ms98-a-0035	A.37	163.979500	164.546375		[silence]	[silence]
sw2994B-ms98-a-0036	A.37	164.546375	164.962250		[silence]	[silence]
sw2994B-ms98-a-0036	A.37	164.962250	165.066375		Yeah	yeah
sw2994B-ms98-a-0036	A.37	165.066375	165.206375		my	my
sw2994B-ms98-a-0036	A.37	165.206375	165.436375		father	father
sw2994B-ms98-a-0036	A.37	165.436375	165.566375		was	was
sw2994B-ms98-a-0036	A.37	165.566375	165.816375		telling	telling
sw2994B-ms98-a-0036	A.37	165.816375	165.936375		me	me
sw2994B-ms98-a-0036	A.37	165.936375	166.216375		about	about
sw2994B-ms98-a-0036	A.37	166.216375	166.366375		some	some
sw2994B-ms98-a-0036	A.37	166.366375	166.736375		program	program
sw2994B-ms98-a-0036	A.37	166.736375	166.896375		he	he
sw2994B-ms98-a-0036	A.37	166.896375	167.086375		read	read
sw2994B-ms98-a-0036	A.37	167.086375	167.386375		about	about
sw2994B-ms98-a-0036	A.37	167.386375	167.506375		where	where
sw2994B-ms98-a-0036	A.37	167.506375	167.676375		you	you
sw2994B-ms98-a-0036	A.37	167.676375	168.016375		buy	buy
sw2994B-ms98-a-0036	A.37	168.016375	168.216375		your	your
sw2994B-ms98-a-0036	A.37	168.216375	168.701500		bags	bags
sw2994B-ms98-a-0036	A.37	168.701500	168.912375		[silence]	[silence]
sw2994B-ms98-a-0037	A.37	168.912375	169.071375		[silence]	[silence]
sw2994B-ms98-a-0037	A.37	169.071375	169.356500		[noise]	[noise]
sw2994B-ms98-a-0037	A.37	169.356500	169.522375		like	like
sw2994B-ms98-a-0037	A.37	169.522375	169.592375		you	you
sw2994B-ms98-a-0037	A.37	169.592375	169.722375		buy	buy
sw2994B-ms98-a-0037	A.37	169.722375	169.852375		your	your
sw2994B-ms98-a-0037	A.37	169.852375	170.272375		garbage	garbage
sw2994B-ms98-a-0037	A.37	170.272375	170.522375		bag	bag
sw2994B-ms98-a-0037	A.37	170.522375	170.692375		from	from
sw2994B-ms98-a-0037	A.37	170.692375	170.772375		the	the
sw2994B-ms98-a-0037	A.37	170.772375	171.241125		city	city
sw2994B-ms98-a-0037	A.39	171.241125	171.572500		[silence]	[silence]
sw2994B-ms98-a-0037	A.39	171.572500	171.732375		and	and
sw2994B-ms98-a-0037	A.39	171.732375	171.802375		you	you
sw2994B-ms98-a-0037	A.39	171.802375	172.032375		pay	pay
sw2994B-ms98-a-0037	A.39	172.032375	172.292375		more	more
sw2994B-ms98-a-0037	A.39	172.292375	172.422375		than	than
sw2994B-ms98-a-0037	A.39	172.422375	172.652375		just	just
sw2994B-ms98-a-0037	A.39	172.652375	172.762375		what	what
sw2994B-ms98-a-0037	A.39	172.762375	172.852375		you	you
sw2994B-ms98-a-0037	A.39	172.852375	172.962375		would	would
sw2994B-ms98-a-0037	A.39	172.962375	173.162375		pay	pay
sw2994B-ms98-a-0037	A.39	173.162375	173.292375		for	for
sw2994B-ms98-a-0037	A.39	173.292375	173.372375		an	an
sw2994B-ms98-a-0037	A.39	173.372375	173.592375		empty	empty
sw2994B-ms98-a-0037	A.39	173.592375	173.980500		garbage	garbage
sw2994B-ms98-a-0037	A.39	173.980500	174.067125		[silence]	[silence]
sw2994B-ms98-a-0037	A.39	174.067125	174.342375		bag	bag
sw2994B-ms98-a-0037	A.39	174.342375	174.532375		but	but
sw2994B-ms98-a-0037	A.39	174.532375	174.652375		then	then
sw2994B-ms98-a-0037	A.39	174.652375	174.732375		you	you
sw2994B-ms98-a-0037	A.39	174.732375	174.922375		don't	don't
sw2994B-ms98-a-0037	A.39	174.922375	175.092375		pay	pay
sw2994B-ms98-a-0037	A.39	175.092375	175.292375		any	any
sw2994B-ms98-a-0037	A.39	175.292375	175.672375		monthly	monthly
sw2994B-ms98-a-0037	A.39	175.672375	175.912375		fee	fee
sw2994B-ms98-a-0037	A.39	175.912375	175.972375		or	or
sw2994B-ms98-a-0037	A.39	175.972375	176.532375		anything	anything
sw2994B-ms98-a-0037	A.39	176.532375	176.552375		[silence]	[silence]
sw2994B-ms98-a-0037	A.39	176.552375	176.672375		so	so
sw2994B-ms98-a-0037	A.39	176.672375	176.982375	<CONT>	how	however
sw2994B-ms98-a-0037	A.39	176.982375	176.982375	<CONT>	ever	+++
sw2994B-ms98-a-0037	A.39	176.982375	177.172375		many	many
sw2994B-ms98-a-0037	A.39	177.172375	177.562375		bags	bags
sw2994B-ms98-a-0037	A.39	177.562375	177.682125		of	of
sw2994B-ms98-a-0037	A.39	177.682125	178.134125		[silence]	[silence]
sw2994B-ms98-a-0037	A.39	178.134125	178.422375		garbage	garbage
sw2994B-ms98-a-0037	A.39	178.422375	178.512375		you	you
sw2994B-ms98-a-0037	A.39	178.512375	178.722375		throw	throw
sw2994B-ms98-a-0037	A.39	178.722375	178.952375		away	away
sw2994B-ms98-a-0037	A.39	178.952375	179.152375		that's	that's
sw2994B-ms98-a-0037	A.39	179.152375	179.272375		how	how
sw2994B-ms98-a-0037	A.39	179.272375	179.472375		many	many
sw2994B-ms98-a-0037	A.39	179.472375	179.612375		you	you
sw2994B-ms98-a-0037	A.39	179.612375	179.792375		have	have
sw2994B-ms98-a-0037	A.39	179.792375	179.902375		to	to
sw2994B-ms98-a-0037	A.39	179.902375	180.162375		pay	pay
sw2994B-ms98-a-0037	A.39	180.162375	180.594625		for	for
sw2994B-ms98-a-0037	A.41	180.594625	181.100500		[silence]	[silence]
sw2994B-ms98-a-0038	A.41	181.100500	182.326250		[silence]	[silence]
sw2994B-ms98-a-0039	A.41	182.326250	182.857125		[silence]	[silence]
sw2994B-ms98-a-0039	A.41	182.857125	183.330625		Yeah	yeah
sw2994B-ms98-a-0039	A.41	183.330625	184.074250		[silence]	[silence]
sw2994B-ms98-a-0040	A.41	184.074250	184.824875		[silence]	[silence]
sw2994B-ms98-a-0040	A.41	184.824875	184.974250		Yeah	yeah
sw2994B-ms98-a-0040	A.41	184.974250	185.104250		that	that
sw2994B-ms98-a-0040	A.41	185.104250	185.224250		would	would
sw2994B-ms98-a-0040	A.41	185.224250	185.374250		be	be
sw2994B-ms98-a-0040	A.41	185.374250	185.424250		a	a
sw2994B-ms98-a-0040	A.41	185.424250	185.574250		real	real
sw2994B-ms98-a-0040	A.41	185.574250	185.744250		good	good
sw2994B-ms98-a-0040	A.41	185.744250	186.257000		idea	idea
sw2994B-ms98-a-0040	A.41	186.257000	186.781625		[silence]	[silence]
sw2994B-ms98-a-0041	A.41	186.781625	188.109875		[silence]	[silence]
sw2994B-ms98-a-0042	A.41	188.109875	188.549875		[silence]	[silence]
sw2994B-ms98-a-0042	A.41	188.549875	188.619875		I'm	i'm
sw2994B-ms98-a-0042	A.41	188.619875	188.789875		trying	trying
sw2994B-ms98-a-0042	A.41	188.789875	189.009875		to	to
sw2994B-ms98-a-0042	A.41	189.009875	189.209875		think	think
sw2994B-ms98-a-0042	A.41	189.209875	189.299875		if	if
sw2994B-ms98-a-0042	A.41	189.299875	189.509875		there's	there's
sw2994B-ms98-a-0042	A.41	189.509875	189.899875		anything	anything
sw2994B-ms98-a-0042	A.41	189.899875	190.117250		else	else
sw2994B-ms98-a-0042	A.41	190.117250	190.203875		I	i
sw2994B-ms98-a-0042	A.41	190.203875	190.300375		could	could
sw2994B-ms98-a-0042	A.41	190.300375	190.349375		[silence]	[silence]
sw2994B-ms98-a-0042	A.41	190.349375	190.549875		think	think
sw2994B-ms98-a-0042	A.41	190.549875	190.689375		of	of
sw2994B-ms98-a-0042	A.41	190.689375	190.819875	<CONT>	They	they're
sw2994B-ms98-a-0042	A.41	190.819875	190.819875	<CONT>	are	+++
sw2994B-ms98-a-0042	A.41	190.819875	191.189875		talking	talking
sw2994B-ms98-a-0042	A.41	191.189875	191.489875		about	about
sw2994B-ms98-a-0042	A.41	191.489875	191.699875		going	going
sw2994B-ms98-a-0042	A.41	191.699875	191.759875		to	to
sw2994B-ms98-a-0042	A.41	191.759875	192.459125		curbside	curbside
sw2994B-ms98-a-0042	A.41	192.459125	192.545750		[silence]	[silence]
sw2994B-ms98-a-0042	A.41	192.545750	192.859875		pickup	pickup
sw2994B-ms98-a-0042	A.41	192.859875	192.989875		in	in
sw2994B-ms98-a-0042	A.41	192.989875	193.227250		our	our
sw2994B-ms98-a-0042	A.41	193.227250	193.502125		[silence]	[silence]
sw2994B-ms98-a-0042	A.41	193.502125	193.639875		in	in
sw2994B-ms98-a-0042	A.41	193.639875	193.799875		our	our
sw2994B-ms98-a-0042	A.41	193.799875	194.062250		city	city
sw2994B-ms98-a-0042	A.43	194.062250	194.909750		[vocalized-noise]	[vocalized-noise]
sw2994B-ms98-a-0042	A.43	194.909750	195.269875		Rowlett	Rowlett
sw2994B-ms98-a-0042	A.43	195.269875	195.789875		Texas	Texas
sw2994B-ms98-a-0042	A.45	195.789875	195.849875		Do	do
sw2994B-ms98-a-0042	A.45	195.849875	195.909875		you	you
sw2994B-ms98-a-0042	A.45	195.909875	196.089875		know	know
sw2994B-ms98-a-0042	A.45	196.089875	196.408875		[silence]	[silence]
sw2994B-ms98-a-0042	A.45	196.408875	196.565000	<DEL>	---	do
sw2994B-ms98-a-0042	A.45	196.565000	196.651625	<DEL>	---	you
sw2994B-ms98-a-0042	A.45	196.651625	196.751250		where	where
sw2994B-ms98-a-0042	A.45	196.751250	196.909875		that	that
sw2994B-ms98-a-0042	A.45	196.909875	197.076875		is	is
sw2994B-ms98-a-0042	A.47	197.076875	197.721000		[silence]	[silence]
sw2994B-ms98-a-0043	A.47	197.721000	198.740375		[silence]	[silence]
sw2994B-ms98-a-0044	A.47	198.740375	199.180125		[silence]	[silence]
sw2994B-ms98-a-0044	A.47	199.180125	199.546500		And	and
sw2994B-ms98-a-0044	A.47	199.546500	199.622875		[silence]	[silence]
sw2994B-ms98-a-0044	A.47	199.622875	199.710375		I	i
sw2994B-ms98-a-0044	A.47	199.710375	199.860375		don't	don't
sw2994B-ms98-a-0044	A.47	199.860375	200.000375		know	know
sw2994B-ms98-a-0044	A.47	200.000375	200.130375		if	if
sw2994B-ms98-a-0044	A.47	200.130375	200.260375		they	they
sw2994B-ms98-a-0044	A.47	200.260375	200.700375		decided	decided
sw2994B-ms98-a-0044	A.47	200.700375	200.800375		to	to
sw2994B-ms98-a-0044	A.47	200.800375	200.890375		do	do
sw2994B-ms98-a-0044	A.47	200.890375	200.960375		or	or
sw2994B-ms98-a-0044	A.47	200.960375	201.090375		not	not
sw2994B-ms98-a-0044	A.47	201.090375	201.190375		but	but
sw2994B-ms98-a-0044	A.47	201.190375	201.220375		I	i
sw2994B-ms98-a-0044	A.47	201.220375	201.430375		think	think
sw2994B-ms98-a-0044	A.47	201.430375	201.520375		they	they
sw2994B-ms98-a-0044	A.47	201.520375	201.660375		said	said
sw2994B-ms98-a-0044	A.47	201.660375	201.720375		it	it
sw2994B-ms98-a-0044	A.47	201.720375	201.840375		was	was
sw2994B-ms98-a-0044	A.47	201.840375	202.010375	<SUB>	going	gonna
sw2994B-ms98-a-0044	A.47	202.010375	202.010375	<INS>	to	---
sw2994B-ms98-a-0044	A.47	202.010375	202.220375		add	add
sw2994B-ms98-a-0044	A.47	202.220375	202.622750		like	like
sw2994B-ms98-a-0044	A.47	202.622750	203.492750		[silence]	[silence]
sw2994B-ms98-a-0044	A.47	203.492750	203.700375		either	either
sw2994B-ms98-a-0044	A.47	203.700375	203.750375		a	a
sw2994B-ms98-a-0044	A.47	203.750375	204.160375		dollar	dollar
sw2994B-ms98-a-0044	A.47	204.160375	204.260375		or	or
sw2994B-ms98-a-0044	A.47	204.260375	204.480375		three	three
sw2994B-ms98-a-0044	A.47	204.480375	204.850375		dollars	dollars
sw2994B-ms98-a-0044	A.47	204.850375	204.900375		a	a
sw2994B-ms98-a-0044	A.47	204.900375	205.227125		month	month
sw2994B-ms98-a-0044	A.47	205.227125	205.294875		[silence]	[silence]
sw2994B-ms98-a-0044	A.47	205.294875	205.390375		to	to
sw2994B-ms98-a-0044	A.47	205.390375	205.550375		your	your
sw2994B-ms98-a-0044	A.47	205.550375	206.050375		bill	bill
sw2994B-ms98-a-0044	A.47	206.050375	206.518250		[silence]	[silence]
sw2994B-ms98-a-0045	A.47	206.518250	206.969375		[silence]	[silence]
sw2994B-ms98-a-0045	A.47	206.969375	207.031250		to	to
sw2994B-ms98-a-0045	A.47	207.031250	207.189750		have	have
sw2994B-ms98-a-0045	A.47	207.189750	207.250250		[silence]	[silence]
sw2994B-ms98-a-0045	A.47	207.250250	207.348250		them	them
sw2994B-ms98-a-0045	A.47	207.348250	207.508250		do	do
sw2994B-ms98-a-0045	A.47	207.508250	207.778250		that	that
sw2994B-ms98-a-0045	A.47	207.778250	207.978250		Although	although
sw2994B-ms98-a-0045	A.47	207.978250	208.038250		I	i
sw2994B-ms98-a-0045	A.47	208.038250	208.308250		think	think
sw2994B-ms98-a-0045	A.47	208.308250	208.338250		a	a
sw2994B-ms98-a-0045	A.47	208.338250	208.508250		lot	lot
sw2994B-ms98-a-0045	A.47	208.508250	208.578750		of	of
sw2994B-ms98-a-0045	A.47	208.578750	208.635250		[silence]	[silence]
sw2994B-ms98-a-0045	A.47	208.635250	208.788250		those	those
sw2994B-ms98-a-0045	A.47	208.788250	209.278250		programs	programs
sw2994B-ms98-a-0045	A.47	209.278250	209.478250		can	can
sw2994B-ms98-a-0045	A.47	209.478250	209.938250		operate	operate
sw2994B-ms98-a-0045	A.47	209.938250	210.078250		at	at
sw2994B-ms98-a-0045	A.47	210.078250	210.338250		about	about
sw2994B-ms98-a-0045	A.47	210.338250	210.388250		a	a
sw2994B-ms98-a-0045	A.47	210.388250	210.648250		break	break
sw2994B-ms98-a-0045	A.47	210.648250	211.006875		even	even
sw2994B-ms98-a-0045	A.47	211.006875	211.811500		[silence]	[silence]
sw2994B-ms98-a-0046	A.47	211.811500	212.598500		[silence]	[silence]
sw2994B-ms98-a-0046	A.47	212.598500	212.771500		break	break
sw2994B-ms98-a-0046	A.47	212.771500	213.011500		even	even
sw2994B-ms98-a-0046	A.47	213.011500	213.441500		point	point
sw2994B-ms98-a-0046	A.49	213.441500	213.713125		without	without
sw2994B-ms98-a-0046	A.49	213.713125	213.788500		[silence]	[silence]
sw2994B-ms98-a-0046	A.49	213.788500	214.181500		charging	charging
sw2994B-ms98-a-0046	A.49	214.181500	214.824375		people	people
sw2994B-ms98-a-0046	A.49	214.824375	215.595000		[silence]	[silence]
sw2994B-ms98-a-0046	A.49	215.595000	215.975875		Yeah	yeah
sw2994B-ms98-a-0046	A.49	215.975875	216.483500		[silence]	[silence]
sw2994B-ms98-a-0047	A.49	216.483500	218.374250		[silence]	[silence]
sw2994B-ms98-a-0048	A.49	218.374250	218.914250		[silence]	[silence]
sw2994B-ms98-a-0048	A.49	218.914250	219.032000		I	i
sw2994B-ms98-a-0048	A.49	219.032000	219.244250		don't	don't
sw2994B-ms98-a-0048	A.49	219.244250	219.734250		know	know
sw2994B-ms98-a-0048	A.49	219.734250	220.063125	<SUB>	uh	um
sw2994B-ms98-a-0048	A.49	220.063125	220.532125		[silence]	[silence]
sw2994B-ms98-a-0049	A.49	220.532125	221.002375		[silence]	[silence]
sw2994B-ms98-a-0049	A.49	221.002375	221.082125		I	i
sw2994B-ms98-a-0049	A.49	221.082125	221.242125		guess	guess
sw2994B-ms98-a-0049	A.49	221.242125	221.302125		it	it
sw2994B-ms98-a-0049	A.49	221.302125	221.422125		just	just
sw2994B-ms98-a-0049	A.49	221.422125	221.722125		depends	depends
sw2994B-ms98-a-0049	A.49	221.722125	221.842125		on	on
sw2994B-ms98-a-0049	A.49	221.842125	221.982125		how	how
sw2994B-ms98-a-0049	A.49	221.982125	222.092125		they	they
sw2994B-ms98-a-0049	A.49	222.092125	222.522125		manage	[laughter-manage]
sw2994B-ms98-a-0049	A.49	222.522125	222.678000		it	[laughter-it]
sw2994B-ms98-a-0049	A.51	222.678000	223.614000		[silence]	[silence]
sw2994B-ms98-a-0049	A.51	223.614000	223.702500		I	i
sw2994B-ms98-a-0049	A.51	223.702500	223.776000		don't	don't
sw2994B-ms98-a-0049	A.51	223.776000	223.847500		know	know
sw2994B-ms98-a-0049	A.51	223.847500	223.942125		how	how
sw2994B-ms98-a-0049	A.51	223.942125	224.158875		much	much
sw2994B-ms98-a-0049	A.51	224.158875	224.226625		[silence]	[silence]
sw2994B-ms98-a-0049	A.51	224.226625	224.332125		they	they
sw2994B-ms98-a-0049	A.51	224.332125	224.532125		get	get
sw2994B-ms98-a-0049	A.51	224.532125	224.682125		when	when
sw2994B-ms98-a-0049	A.51	224.682125	224.812125		they	they
sw2994B-ms98-a-0049	A.51	224.812125	225.142125		sell	sell
sw2994B-ms98-a-0049	A.51	225.142125	225.272125		all	all
sw2994B-ms98-a-0049	A.51	225.272125	225.502125		that	that
sw2994B-ms98-a-0049	A.51	225.502125	225.932125		stuff	stuff
sw2994B-ms98-a-0049	A.53	225.932125	226.048875		The	the
sw2994B-ms98-a-0049	A.53	226.048875	226.105375		[silence]	[silence]
sw2994B-ms98-a-0049	A.53	226.105375	226.412125		center	center
sw2994B-ms98-a-0049	A.53	226.412125	226.572125		that	that
sw2994B-ms98-a-0049	A.53	226.572125	226.712125	<SUB>	they've	their
sw2994B-ms98-a-0049	A.53	226.712125	226.942125		got	got
sw2994B-ms98-a-0049	A.53	226.942125	227.192125		now	now
sw2994B-ms98-a-0049	A.53	227.192125	227.302125		where	where
sw2994B-ms98-a-0049	A.53	227.302125	227.452125		you	you
sw2994B-ms98-a-0049	A.53	227.452125	227.712125		take	take
sw2994B-ms98-a-0049	A.53	227.712125	227.802125		your	your
sw2994B-ms98-a-0049	A.53	227.802125	228.162125		stuff	stuff
sw2994B-ms98-a-0049	A.53	228.162125	228.372125		in	in
sw2994B-ms98-a-0049	A.53	228.372125	228.542125		I	i
sw2994B-ms98-a-0049	A.53	228.542125	228.602125	<DEL>	---	th[ink]-
sw2994B-ms98-a-0049	A.53	228.602125	228.672125		I	i
sw2994B-ms98-a-0049	A.53	228.672125	228.892125		think	think
sw2994B-ms98-a-0049	A.53	228.892125	229.092125		that	that
sw2994B-ms98-a-0049	A.53	229.092125	229.252125		should	should
sw2994B-ms98-a-0049	A.53	229.252125	229.332125		be	be
sw2994B-ms98-a-0049	A.53	229.332125	229.672125		making	making
sw2994B-ms98-a-0049	A.53	229.672125	229.862125		some	some
sw2994B-ms98-a-0049	A.53	229.862125	230.272500		money	money
sw2994B-ms98-a-0049	A.55	230.272500	230.727375		[silence]	[silence]
sw2994B-ms98-a-0050	A.55	230.727375	231.137875		[silence]	[silence]
sw2994B-ms98-a-0050	A.55	231.137875	231.317375		Since	since
sw2994B-ms98-a-0050	A.55	231.317375	231.427375		they	they
sw2994B-ms98-a-0050	A.55	231.427375	231.567375		just	just
sw2994B-ms98-a-0050	A.55	231.567375	231.747375		have	have
sw2994B-ms98-a-0050	A.55	231.747375	231.837375		to	to
sw2994B-ms98-a-0050	A.55	231.837375	232.037375		hire	hire
sw2994B-ms98-a-0050	A.55	232.037375	232.327375		someone	someone
sw2994B-ms98-a-0050	A.55	232.327375	232.387375		to	to
sw2994B-ms98-a-0050	A.55	232.387375	232.627375		man	man
sw2994B-ms98-a-0050	A.55	232.627375	232.727375		it	it
sw2994B-ms98-a-0050	A.55	232.727375	232.757375		a	a
sw2994B-ms98-a-0050	A.55	232.757375	232.997375		few	few
sw2994B-ms98-a-0050	A.55	232.997375	233.317375		hours	hours
sw2994B-ms98-a-0050	A.55	233.317375	233.397375		a	a
sw2994B-ms98-a-0050	A.55	233.397375	233.908000		week	week
sw2994B-ms98-a-0050	A.55	233.908000	234.452500		[silence]	[silence]
sw2994B-ms98-a-0051	A.55	234.452500	235.964625		[silence]	[silence]
sw2994B-ms98-a-0052	A.55	235.964625	236.514750		[silence]	[silence]
sw2994B-ms98-a-0052	A.55	236.514750	236.664625		And	and
sw2994B-ms98-a-0052	A.55	236.664625	236.764625		they	they
sw2994B-ms98-a-0052	A.55	236.764625	237.244625		sell	sell
sw2994B-ms98-a-0052	A.55	237.244625	237.324625		I	i
sw2994B-ms98-a-0052	A.55	237.324625	237.534625		guess	guess
sw2994B-ms98-a-0052	A.55	237.534625	237.654625		they	they
sw2994B-ms98-a-0052	A.55	237.654625	237.914625		sell	sell
sw2994B-ms98-a-0052	A.55	237.914625	238.424625		everything	everything
sw2994B-ms98-a-0052	A.55	238.424625	238.494625		to	to
sw2994B-ms98-a-0052	A.55	238.494625	238.714625		some	some
sw2994B-ms98-a-0052	A.55	238.714625	238.964625		waste	waste
sw2994B-ms98-a-0052	A.55	238.964625	239.034625		[silence]	[silence]
sw2994B-ms98-a-0052	A.55	239.034625	239.354625		company	company
sw2994B-ms98-a-0052	A.55	239.354625	239.484625		that	that
sw2994B-ms98-a-0052	A.55	239.484625	239.704625		comes	comes
sw2994B-ms98-a-0052	A.55	239.704625	239.824625		and	and
sw2994B-ms98-a-0052	A.55	239.824625	240.114625		gets	gets
sw2994B-ms98-a-0052	A.55	240.114625	240.287125		it	it
sw2994B-ms98-a-0052	A.57	240.287125	240.708000		[silence]	[silence]
sw2994B-ms98-a-0053	A.57	240.708000	242.506125		[silence]	[silence]
sw2994B-ms98-a-0054	A.57	242.506125	243.179875		[silence]	[silence]
sw2994B-ms98-a-0054	A.57	243.179875	243.462875		But	but
sw2994B-ms98-a-0054	A.57	243.462875	243.630625		I	i
sw2994B-ms98-a-0054	A.57	243.630625	243.846125		wish	wish
sw2994B-ms98-a-0054	A.57	243.846125	244.256125		that	that
sw2994B-ms98-a-0054	A.57	244.256125	244.505500		uh	uh
sw2994B-ms98-a-0054	A.57	244.505500	245.154250		[silence]	[silence]
sw2994B-ms98-a-0055	A.57	245.154250	245.713250		[silence]	[silence]
sw2994B-ms98-a-0055	A.57	245.713250	245.754250	<DEL>	---	uh
sw2994B-ms98-a-0055	A.57	245.754250	245.964250		more	more
sw2994B-ms98-a-0055	A.57	245.964250	246.074250		of	of
sw2994B-ms98-a-0055	A.57	246.074250	246.154250		the	the
sw2994B-ms98-a-0055	A.57	246.154250	246.654250		cans	cans
sw2994B-ms98-a-0055	A.57	246.654250	246.744250		you	you
sw2994B-ms98-a-0055	A.57	246.744250	246.824250		know	know
sw2994B-ms98-a-0055	A.57	246.824250	246.984250		like	like
sw2994B-ms98-a-0055	A.57	246.984250	247.044250		the	the
sw2994B-ms98-a-0055	A.57	247.044250	247.304250		cans	cans
sw2994B-ms98-a-0055	A.57	247.304250	247.364250		you	you
sw2994B-ms98-a-0055	A.57	247.364250	247.534250		buy	buy
sw2994B-ms98-a-0055	A.57	247.534250	248.224250		vegetables	vegetables
sw2994B-ms98-a-0055	A.57	248.224250	248.354250		and	and
sw2994B-ms98-a-0055	A.57	248.354250	248.594250		fruit	fruit
sw2994B-ms98-a-0055	A.57	248.594250	248.684250		and	and
sw2994B-ms98-a-0055	A.57	248.684250	248.934250		stuff	stuff
sw2994B-ms98-a-0055	A.57	248.934250	249.144250		like	like
sw2994B-ms98-a-0055	A.57	249.144250	249.364250		that	that
sw2994B-ms98-a-0055	A.57	249.364250	249.504250		in	in
sw2994B-ms98-a-0055	A.57	249.504250	249.654250		were	were
sw2994B-ms98-a-0055	A.57	249.654250	250.344250		recyclable	recyclable
sw2994B-ms98-a-0055	A.57	250.344250	250.478375		I	i
sw2994B-ms98-a-0055	A.57	250.478375	250.621500		don't	don't
sw2994B-ms98-a-0055	A.57	250.621500	251.049000		[silence]	[silence]
sw2994B-ms98-a-0055	A.57	251.049000	251.109250		a	a
sw2994B-ms98-a-0055	A.57	251.109250	251.169500		lot	lot
sw2994B-ms98-a-0055	A.57	251.169500	251.254250		of	of
sw2994B-ms98-a-0055	A.57	251.254250	251.594250		that's	that's
sw2994B-ms98-a-0055	A.57	251.594250	251.774250		that	that
sw2994B-ms98-a-0055	A.57	251.774250	252.374250		recyclable	recyclable
sw2994B-ms98-a-0055	A.57	252.374250	252.764250		steel	steel
sw2994B-ms98-a-0055	A.57	252.764250	252.884250		and	and
sw2994B-ms98-a-0055	A.57	252.884250	252.924250		I	i
sw2994B-ms98-a-0055	A.57	252.924250	253.064250		don't	don't
sw2994B-ms98-a-0055	A.57	253.064250	253.174250		know	know
sw2994B-ms98-a-0055	A.57	253.174250	253.494250		anybody	anybody
sw2994B-ms98-a-0055	A.57	253.494250	253.634250		that	that
sw2994B-ms98-a-0055	A.57	253.634250	253.939750		takes	takes
sw2994B-ms98-a-0055	A.57	253.939750	254.022625		[silence]	[silence]
sw2994B-ms98-a-0055	A.57	254.022625	254.302750		that	that
sw2994B-ms98-a-0055	A.59	254.302750	255.135125		[silence]	[silence]
sw2994B-ms98-a-0056	A.59	255.135125	255.965125		[silence]	[silence]
sw2994B-ms98-a-0056	A.59	255.965125	256.093000		Th-	th[e]-
sw2994B-ms98-a-0056	A.59	256.093000	256.232375		[silence]	[silence]
sw2994B-ms98-a-0056	A.59	256.232375	256.375125		my	my
sw2994B-ms98-a-0056	A.59	256.375125	256.715125		husband	husband
sw2994B-ms98-a-0056	A.59	256.715125	256.955125		likes	likes
sw2994B-ms98-a-0056	A.59	256.955125	257.445125		Pepsi	Pepsi
sw2994B-ms98-a-0056	A.59	257.445125	257.595125		and	and
sw2994B-ms98-a-0056	A.59	257.595125	257.795125		those	those
sw2994B-ms98-a-0056	A.59	257.795125	258.175125		cans	cans
sw2994B-ms98-a-0056	A.59	258.175125	258.468250		are	are
sw2994B-ms98-a-0056	A.59	258.468250	258.652750		[silence]	[silence]
sw2994B-ms98-a-0056	A.59	258.652750	258.895125		steel	steel
sw2994B-ms98-a-0056	A.59	258.895125	259.205125		instead	instead
sw2994B-ms98-a-0056	A.59	259.205125	259.305125		of	of
sw2994B-ms98-a-0056	A.59	259.305125	259.905125		aluminum	aluminum
sw2994B-ms98-a-0056	A.59	259.905125	260.105125		so	so
sw2994B-ms98-a-0056	A.59	260.105125	260.205125		we	we
sw2994B-ms98-a-0056	A.59	260.205125	260.681000		can't	can't
sw2994B-ms98-a-0056	A.59	260.681000	261.397875		[silence]	[silence]
sw2994B-ms98-a-0056	A.59	261.397875	261.590000		can't	can't
sw2994B-ms98-a-0056	A.59	261.590000	261.775125		ever	ever
sw2994B-ms98-a-0056	A.59	261.775125	262.345125		recycle	recycle
sw2994B-ms98-a-0056	A.59	262.345125	262.803625	<SUB>	them	those
sw2994B-ms98-a-0056	A.59	262.803625	263.115125		[silence]	[silence]
sw2994B-ms98-a-0056	A.59	263.115125	263.185125		I	i
sw2994B-ms98-a-0056	A.59	263.185125	263.365125		think	think
sw2994B-ms98-a-0056	A.59	263.365125	263.475125		it's	it's
sw2994B-ms98-a-0056	A.59	263.475125	263.535125		a	a
sw2994B-ms98-a-0056	A.59	263.535125	263.685125		good	good
sw2994B-ms98-a-0056	A.59	263.685125	263.945125		reason	reason
sw2994B-ms98-a-0056	A.59	263.945125	264.005125		to	to
sw2994B-ms98-a-0056	A.59	264.005125	264.215125		quit	quit
sw2994B-ms98-a-0056	A.59	264.215125	264.594250		buying	buying
sw2994B-ms98-a-0056	A.59	264.594250	264.712250		it	it
sw2994B-ms98-a-0056	A.61	264.712250	265.544375		[silence]	[silence]
sw2994B-ms98-a-0057	A.61	265.544375	269.728500		[silence]	[silence]
sw2994B-ms98-a-0058	A.61	269.728500	270.246375		[silence]	[silence]
sw2994B-ms98-a-0058	A.61	270.246375	270.687000		Yeah	yeah
sw2994B-ms98-a-0058	A.61	270.687000	270.745750		[silence]	[silence]
sw2994B-ms98-a-0058	A.61	270.745750	270.958500		that's	that's
sw2994B-ms98-a-0058	A.61	270.958500	271.088500		what	what
sw2994B-ms98-a-0058	A.61	271.088500	271.198500		we	we
sw2994B-ms98-a-0058	A.61	271.198500	271.368500		buy	buy
sw2994B-ms98-a-0058	A.61	271.368500	271.438500		the	the
sw2994B-ms98-a-0058	A.61	271.438500	271.778500		most	most
sw2994B-ms98-a-0058	A.61	271.778500	271.838500		of	of
sw2994B-ms98-a-0058	A.61	271.838500	272.148500		unless	unless
sw2994B-ms98-a-0058	A.61	272.148500	272.238500		we're	we're
sw2994B-ms98-a-0058	A.61	272.238500	272.458500		going	going
sw2994B-ms98-a-0058	A.61	272.458500	272.568500		on	on
sw2994B-ms98-a-0058	A.61	272.568500	272.628500		a	a
sw2994B-ms98-a-0058	A.61	272.628500	272.847750		trip	trip
sw2994B-ms98-a-0058	A.61	272.847750	272.881625		[silence]	[silence]
sw2994B-ms98-a-0058	A.61	272.881625	272.978500		or	or
sw2994B-ms98-a-0058	A.61	272.978500	273.308500		something	something
sw2994B-ms98-a-0058	A.61	273.308500	273.438500		where	where
sw2994B-ms98-a-0058	A.61	273.438500	273.538500		we	we
sw2994B-ms98-a-0058	A.61	273.538500	273.778500		want	want
sw2994B-ms98-a-0058	A.61	273.778500	273.887000		to	to
sw2994B-ms98-a-0058	@@A.63	273.887000	274.372875		[silence]	[silence]
sw2994B-ms98-a-0058	@@A.63	274.372875	274.458500		put	put
sw2994B-ms98-a-0058	@@A.63	274.458500	274.528500		the	the
sw2994B-ms98-a-0058	@@A.63	274.528500	274.888500		cans	cans
sw2994B-ms98-a-0058	@@A.63	274.888500	274.998500		in	in
sw2994B-ms98-a-0058	@@A.63	274.998500	275.058500		a	a
sw2994B-ms98-a-0058	@@A.63	275.058500	275.595250		cooler	cooler
sw2994B-ms98-a-0058	@@A.63	275.595250	276.267000		[silence]	[silence]
sw2994B-ms98-a-0059	@@A.63	276.267000	277.224125		[silence]	[silence]
sw2994B-ms98-a-0059	@@A.63	277.224125	277.448625		But	but
sw2994B-ms98-a-0059	@@A.63	277.448625	277.851500		[noise]	[noise]
sw2994B-ms98-a-0059	@@A.63	277.851500	278.050250		[silence]	[silence]
sw2994B-ms98-a-0060	@@A.63	278.050250	278.346000		[silence]	[silence]
sw2994B-ms98-a-0060	@@A.63	278.346000	278.627000		well	well
sw2994B-ms98-a-0060	@@A.63	278.627000	278.702125		[silence]	[silence]
sw2994B-ms98-a-0060	@@A.63	278.702125	278.890250		that's	that's
sw2994B-ms98-a-0060	@@A.63	278.890250	279.020250		all	all
sw2994B-ms98-a-0060	@@A.63	279.020250	279.100250		I	i
sw2994B-ms98-a-0060	@@A.63	279.100250	279.260250		can	can
sw2994B-ms98-a-0060	@@A.63	279.260250	279.420250		really	really
sw2994B-ms98-a-0060	@@A.63	279.420250	279.640250		think	think
sw2994B-ms98-a-0060	@@A.63	279.640250	279.965750		about	about
sw2994B-ms98-a-0060	@@A.63	279.965750	280.349875		[laughter]	[laughter]
sw2994B-ms98-a-0060	@@A.63	280.349875	280.660250		for	for
sw2994B-ms98-a-0060	@@A.63	280.660250	281.100250		recycling	recycling
sw2994B-ms98-a-0060	A.65	281.100250	281.160250		It	it
sw2994B-ms98-a-0060	A.65	281.160250	281.300250		was	was
sw2994B-ms98-a-0060	A.65	281.300250	281.450250		good	good
sw2994B-ms98-a-0060	A.65	281.450250	281.810250		talking	talking
sw2994B-ms98-a-0060	A.65	281.810250	282.025250		to	to
sw2994B-ms98-a-0060	A.65	282.025250	282.283125		you	you
sw2994B-ms98-a-0060	A.67	282.283125	282.671125		[silence]	[silence]
sw2994B-ms98-a-0060	A.67	282.671125	282.870625	<SUB>	Uh	um
sw2994B-ms98-a-0060	A.67	282.870625	283.041875		bye	bye
sw2994B-ms98-a-0060	A.67	283.041875	283.503375		[silence]	[silence]
sw2994B-ms98-a-0061	A.67	283.503375	285.089375		[silence]	[silence]
sw2994B-ms98-a-0061	A.67	285.089375	289.160625		[noise]	[noise]
sw2994B-ms98-a-0061	A.67	289.160625	290.134750		[silence]	[silence]
