sw2995A-ms98-a-0001	A.1	0.000000	0.002500		[silence]	[silence]
sw2995A-ms98-a-0001	A.1	0.002500	0.021000		[noise]	[noise]
sw2995A-ms98-a-0001	A.1	0.021000	0.272125		[silence]	[silence]
sw2995A-ms98-a-0002	A.1	0.272125	0.537375		[silence]	[silence]
sw2995A-ms98-a-0002	A.1	0.537375	0.732125		There	there
sw2995A-ms98-a-0002	A.1	0.732125	0.792125		you	you
sw2995A-ms98-a-0002	A.1	0.792125	0.921250		go	go
sw2995A-ms98-a-0002	A.3	0.921250	1.477250		[silence]	[silence]
sw2995A-ms98-a-0003	A.3	1.477250	1.903000		[silence]	[silence]
sw2995A-ms98-a-0003	A.3	1.903000	2.414000		[noise]	[noise]
sw2995A-ms98-a-0003	A.3	2.414000	4.491875		[silence]	[silence]
sw2995A-ms98-a-0004	A.3	4.491875	4.614250		[silence]	[silence]
sw2995A-ms98-a-0004	A.3	4.614250	5.107375		Oh	oh
sw2995A-ms98-a-0004	A.3	5.107375	5.720250		[silence]	[silence]
sw2995A-ms98-a-0004	A.3	5.720250	6.241875		well	well
sw2995A-ms98-a-0004	A.3	6.241875	6.671875		people	people
sw2995A-ms98-a-0004	A.3	6.671875	6.821875		that	that
sw2995A-ms98-a-0004	A.3	6.821875	7.121875		call	call
sw2995A-ms98-a-0004	A.3	7.121875	7.221875		on	on
sw2995A-ms98-a-0004	A.3	7.221875	7.291875		the	the
sw2995A-ms98-a-0004	A.3	7.291875	7.681875		phone	phone
sw2995A-ms98-a-0004	A.3	7.681875	7.851875		all	all
sw2995A-ms98-a-0004	A.3	7.851875	7.931875		the	the
sw2995A-ms98-a-0004	A.3	7.931875	8.271875		time	time
sw2995A-ms98-a-0004	A.3	8.271875	8.371875		to	to
sw2995A-ms98-a-0004	A.3	8.371875	8.531875		try	try
sw2995A-ms98-a-0004	A.3	8.531875	8.651875		to	to
sw2995A-ms98-a-0004	A.3	8.651875	8.891875		sell	sell
sw2995A-ms98-a-0004	A.3	8.891875	9.071875		you	you
sw2995A-ms98-a-0004	A.3	9.071875	9.763500		something	something
sw2995A-ms98-a-0004	A.3	9.763500	10.570750		[silence]	[silence]
sw2995A-ms98-a-0005	A.3	10.570750	11.180750		[silence]	[silence]
sw2995A-ms98-a-0005	A.3	11.180750	11.340750		You	you
sw2995A-ms98-a-0005	A.3	11.340750	11.520750		know	know
sw2995A-ms98-a-0005	A.3	11.520750	11.762625		that	that
sw2995A-ms98-a-0005	A.3	11.762625	12.030750		that	that
sw2995A-ms98-a-0005	A.3	12.030750	12.170750		try	try
sw2995A-ms98-a-0005	A.3	12.170750	12.280750		to	to
sw2995A-ms98-a-0005	A.3	12.280750	12.460750		sell	sell
sw2995A-ms98-a-0005	A.3	12.460750	12.560750		you	you
sw2995A-ms98-a-0005	A.3	12.560750	12.844000		the	the
sw2995A-ms98-a-0005	A.3	12.844000	12.844000	<INS>	s-	---
sw2995A-ms98-a-0005	A.3	12.844000	13.216875		[silence]	[silence]
sw2995A-ms98-a-0005	A.3	13.216875	14.250750		newspaper	newspaper
sw2995A-ms98-a-0005	A.3	14.250750	14.690750		and	and
sw2995A-ms98-a-0005	A.3	14.690750	14.920625		uh	uh
sw2995A-ms98-a-0005	A.3	14.920625	15.297375		[silence]	[silence]
sw2995A-ms98-a-0005	A.3	15.297375	15.520750	<SUB>	wha-	what
sw2995A-ms98-a-0005	A.3	15.520750	15.960750		carpet	carpet
sw2995A-ms98-a-0005	A.3	15.960750	16.870750		cleaning	cleaning
sw2995A-ms98-a-0005	A.3	16.870750	17.480750		and	and
sw2995A-ms98-a-0005	A.3	17.480750	17.822250		uh	uh
sw2995A-ms98-a-0005	A.3	17.822250	18.168500		[silence]	[silence]
sw2995A-ms98-a-0006	A.3	18.168500	19.400375		[silence]	[silence]
sw2995A-ms98-a-0007	A.3	19.400375	19.918500		[silence]	[silence]
sw2995A-ms98-a-0007	A.3	19.918500	20.120375		what	what
sw2995A-ms98-a-0007	A.3	20.120375	20.473375		else	else
sw2995A-ms98-a-0007	A.3	20.473375	20.820375		roof	roof
sw2995A-ms98-a-0007	A.3	20.820375	21.688250		repair	repair
sw2995A-ms98-a-0007	A.3	21.688250	22.204250		[silence]	[silence]
sw2995A-ms98-a-0008	A.3	22.204250	23.317125		[silence]	[silence]
sw2995A-ms98-a-0008	A.3	23.317125	23.648250	<DEL>	---	uh
sw2995A-ms98-a-0008	A.3	23.648250	24.084250		[silence]	[silence]
sw2995A-ms98-a-0009	A.3	24.084250	24.844250		[silence]	[silence]
sw2995A-ms98-a-0009	A.3	24.844250	25.019500		And	and
sw2995A-ms98-a-0009	A.3	25.019500	25.324250		enough	enough
sw2995A-ms98-a-0009	A.3	25.324250	25.574250		well	well
sw2995A-ms98-a-0009	A.3	25.574250	25.674250		I	i
sw2995A-ms98-a-0009	A.3	25.674250	25.894250		think	think
sw2995A-ms98-a-0009	A.3	25.894250	26.043375		it's	it's
sw2995A-ms98-a-0009	A.3	26.043375	26.294250		a	a
sw2995A-ms98-a-0009	A.3	26.294250	26.624250		waste	waste
sw2995A-ms98-a-0009	A.3	26.624250	26.704250		of	of
sw2995A-ms98-a-0009	A.3	26.704250	27.267375		paper	paper
sw2995A-ms98-a-0009	A.3	27.267375	27.504875		the	the
sw2995A-ms98-a-0009	A.3	27.504875	27.884250		people	people
sw2995A-ms98-a-0009	A.3	27.884250	28.154500		that	that
sw2995A-ms98-a-0009	A.3	28.154500	28.724250		always	always
sw2995A-ms98-a-0009	A.3	28.724250	29.084250		leave	leave
sw2995A-ms98-a-0009	A.3	29.084250	29.341750		uh	uh
sw2995A-ms98-a-0009	A.3	29.341750	29.829750		[silence]	[silence]
sw2995A-ms98-a-0010	A.3	29.829750	30.247375		[silence]	[silence]
sw2995A-ms98-a-0010	A.3	30.247375	30.639750		junk	junk
sw2995A-ms98-a-0010	A.3	30.639750	31.099750		mail	mail
sw2995A-ms98-a-0010	A.3	31.099750	31.300125		and	and
sw2995A-ms98-a-0010	A.3	31.300125	31.721500		[silence]	[silence]
sw2995A-ms98-a-0011	A.3	31.721500	32.816250		[silence]	[silence]
sw2995A-ms98-a-0012	A.3	32.816250	33.126250		[silence]	[silence]
sw2995A-ms98-a-0012	A.3	33.126250	33.536250		because	because
sw2995A-ms98-a-0012	A.3	33.536250	33.947625		um	um
sw2995A-ms98-a-0012	A.3	33.947625	34.218750		[silence]	[silence]
sw2995A-ms98-a-0012	A.3	34.218750	34.436250		you	you
sw2995A-ms98-a-0012	A.3	34.436250	34.666250		just	just
sw2995A-ms98-a-0012	A.3	34.666250	34.826250		end	end
sw2995A-ms98-a-0012	A.3	34.826250	34.996250		up	up
sw2995A-ms98-a-0012	A.3	34.996250	35.216250		throwing	throwing
sw2995A-ms98-a-0012	A.3	35.216250	35.286250		it	it
sw2995A-ms98-a-0012	A.3	35.286250	35.576250		away	away
sw2995A-ms98-a-0012	A.3	35.576250	35.986250		most	most
sw2995A-ms98-a-0012	A.3	35.986250	36.066250		of	of
sw2995A-ms98-a-0012	A.3	36.066250	36.146250		the	the
sw2995A-ms98-a-0012	A.3	36.146250	36.419375		time	time
sw2995A-ms98-a-0012	A.3	36.419375	36.606500		[silence]	[silence]
sw2995A-ms98-a-0013	A.3	36.606500	36.811750		[silence]	[silence]
sw2995A-ms98-a-0013	A.3	36.811750	37.076500		Probably	probably
sw2995A-ms98-a-0013	A.3	37.076500	37.306500		eighty	eighty
sw2995A-ms98-a-0013	A.3	37.306500	37.746500		percent	percent
sw2995A-ms98-a-0013	A.3	37.746500	37.846500		of	of
sw2995A-ms98-a-0013	A.3	37.846500	38.014375		the	the
sw2995A-ms98-a-0013	A.3	38.014375	38.191375		[silence]	[silence]
sw2995A-ms98-a-0013	A.3	38.191375	38.416000		the	the
sw2995A-ms98-a-0013	A.3	38.416000	38.726500		junk	junk
sw2995A-ms98-a-0013	A.3	38.726500	38.926500		mail	mail
sw2995A-ms98-a-0013	A.3	38.926500	39.106500		that	that
sw2995A-ms98-a-0013	A.3	39.106500	39.206500		you	you
sw2995A-ms98-a-0013	A.3	39.206500	39.406500		get	get
sw2995A-ms98-a-0013	A.3	39.406500	39.681250		is	is
sw2995A-ms98-a-0013	A.3	39.681250	40.189750		[silence]	[silence]
sw2995A-ms98-a-0013	A.3	40.189750	40.536500		is	is
sw2995A-ms98-a-0013	A.3	40.536500	40.837250		um	um
sw2995A-ms98-a-0013	A.3	40.837250	41.189500		[silence]	[silence]
sw2995A-ms98-a-0014	A.3	41.189500	41.581625		[silence]	[silence]
sw2995A-ms98-a-0014	A.3	41.581625	42.009500		something	something
sw2995A-ms98-a-0014	A.3	42.009500	42.199500		that	that
sw2995A-ms98-a-0014	A.3	42.199500	42.279500		you	you
sw2995A-ms98-a-0014	A.3	42.279500	42.509500		don't	don't
sw2995A-ms98-a-0014	A.3	42.509500	42.874375		need	need
sw2995A-ms98-a-0014	A.3	42.874375	43.388875		[silence]	[silence]
sw2995A-ms98-a-0015	A.3	43.388875	43.852125		[silence]	[silence]
sw2995A-ms98-a-0015	A.3	43.852125	43.948875		And	and
sw2995A-ms98-a-0015	A.3	43.948875	44.028875		the	the
sw2995A-ms98-a-0015	A.3	44.028875	44.328875		same	same
sw2995A-ms98-a-0015	A.3	44.328875	44.468875		way	way
sw2995A-ms98-a-0015	A.3	44.468875	44.638875		with	with
sw2995A-ms98-a-0015	A.3	44.638875	44.861000		those	those
sw2995A-ms98-a-0015	A.3	44.861000	45.486250		calls	calls
sw2995A-ms98-a-0015	A.3	45.486250	45.761000		[silence]	[silence]
sw2995A-ms98-a-0016	A.3	45.761000	47.018750		[silence]	[silence]
sw2995A-ms98-a-0017	A.3	47.018750	47.411500		[silence]	[silence]
sw2995A-ms98-a-0017	A.3	47.411500	47.498750		What	what
sw2995A-ms98-a-0017	A.3	47.498750	47.578750		is	is
sw2995A-ms98-a-0017	A.3	47.578750	47.738750		it	it
sw2995A-ms98-a-0017	A.3	47.738750	47.908750		oh	oh
sw2995A-ms98-a-0017	A.3	47.908750	48.663250	<CONT>	M	MCI
sw2995A-ms98-a-0017	A.3	48.663250	48.663250	<CONT>	C	+++
sw2995A-ms98-a-0017	A.3	48.663250	48.663250	<CONT>	I	+++
sw2995A-ms98-a-0017	A.3	48.663250	49.520125	<CONT>	M	MCI
sw2995A-ms98-a-0017	A.3	49.520125	49.520125	<CONT>	C	+++
sw2995A-ms98-a-0017	A.3	49.520125	49.520125	<CONT>	I	+++
sw2995A-ms98-a-0017	A.3	49.520125	49.810125		[silence]	[silence]
sw2995A-ms98-a-0017	A.3	49.810125	50.168750		really	really
sw2995A-ms98-a-0017	A.3	50.168750	50.718000		does	does
sw2995A-ms98-a-0017	A.3	50.718000	50.879875		[silence]	[silence]
sw2995A-ms98-a-0017	A.3	50.879875	51.218750		Even	even
sw2995A-ms98-a-0017	A.3	51.218750	51.388750		when	when
sw2995A-ms98-a-0017	A.3	51.388750	51.458750		you	you
sw2995A-ms98-a-0017	A.3	51.458750	51.678750		tell	tell
sw2995A-ms98-a-0017	A.3	51.678750	51.778750		them	them
sw2995A-ms98-a-0017	A.3	51.778750	52.255125		no	no
sw2995A-ms98-a-0017	A.3	52.255125	52.481125		[silence]	[silence]
sw2995A-ms98-a-0017	A.3	52.481125	52.718750		they	they
sw2995A-ms98-a-0017	A.3	52.718750	52.988750		keep	keep
sw2995A-ms98-a-0017	A.3	52.988750	53.378750		calling	calling
sw2995A-ms98-a-0017	A.3	53.378750	53.847500		back	back
sw2995A-ms98-a-0017	A.5	53.847500	54.161375		[silence]	[silence]
sw2995A-ms98-a-0018	A.5	54.161375	55.252375		[silence]	[silence]
sw2995A-ms98-a-0019	A.5	55.252375	55.562875		[silence]	[silence]
sw2995A-ms98-a-0019	A.5	55.562875	56.072375	<CONT>	M	MCI
sw2995A-ms98-a-0019	A.5	56.072375	56.072375	<CONT>	C	+++
sw2995A-ms98-a-0019	A.5	56.072375	56.072375	<CONT>	I	+++
sw2995A-ms98-a-0019	A.5	56.072375	56.222375		it's	it's
sw2995A-ms98-a-0019	A.5	56.222375	56.332375		the	the
sw2995A-ms98-a-0019	A.5	56.332375	56.632375		long	long
sw2995A-ms98-a-0019	A.5	56.632375	57.112375		distance	distance
sw2995A-ms98-a-0019	A.5	57.112375	57.567250		telephone	telephone
sw2995A-ms98-a-0019	A.5	57.567250	58.064250		company	company
sw2995A-ms98-a-0019	A.7	58.064250	58.613125		[silence]	[silence]
sw2995A-ms98-a-0020	A.7	58.613125	64.333750		[silence]	[silence]
sw2995A-ms98-a-0021	A.7	64.333750	64.823750		[silence]	[silence]
sw2995A-ms98-a-0021	A.7	64.823750	65.193125	<SUB>	Uh-huh	um-hum
sw2995A-ms98-a-0021	A.7	65.193125	65.818375		[silence]	[silence]
sw2995A-ms98-a-0021	A.7	65.818375	66.053750		well	well
sw2995A-ms98-a-0021	A.7	66.053750	66.213750		they	they
sw2995A-ms98-a-0021	A.7	66.213750	66.418250		wo-	wo[n't]-
sw2995A-ms98-a-0021	A.7	66.418250	66.573750		they	they
sw2995A-ms98-a-0021	A.7	66.573750	66.823750		won't	won't
sw2995A-ms98-a-0021	A.7	66.823750	67.013750		take	take
sw2995A-ms98-a-0021	A.7	67.013750	67.232125		a	a
sw2995A-ms98-a-0021	A.7	67.232125	67.503750		no	no
sw2995A-ms98-a-0021	A.7	67.503750	67.643750		for	for
sw2995A-ms98-a-0021	A.7	67.643750	67.733750		an	an
sw2995A-ms98-a-0021	A.7	67.733750	68.113750		answer	answer
sw2995A-ms98-a-0021	A.7	68.113750	68.443750		here	here
sw2995A-ms98-a-0021	A.7	68.443750	68.603750		for	for
sw2995A-ms98-a-0021	A.7	68.603750	68.823750		some	some
sw2995A-ms98-a-0021	A.7	68.823750	69.195500		reason	reason
sw2995A-ms98-a-0021	A.7	69.195500	69.926500		[silence]	[silence]
sw2995A-ms98-a-0022	A.7	69.926500	70.426250		[silence]	[silence]
sw2995A-ms98-a-0022	A.7	70.426250	70.536500		They	they
sw2995A-ms98-a-0022	A.7	70.536500	70.736500		just	just
sw2995A-ms98-a-0022	A.7	70.736500	70.996500		keep	keep
sw2995A-ms98-a-0022	A.7	70.996500	71.276500		calling	calling
sw2995A-ms98-a-0022	A.7	71.276500	71.629375		back	back
sw2995A-ms98-a-0022	A.9	71.629375	71.779125		[silence]	[silence]
sw2995A-ms98-a-0023	A.9	71.779125	73.586875		[silence]	[silence]
sw2995A-ms98-a-0024	A.9	73.586875	73.965875		[silence]	[silence]
sw2995A-ms98-a-0024	A.9	73.965875	74.515250	<SUB>	Uh-huh	um-hum
sw2995A-ms98-a-0024	A.11	74.515250	74.792125		[silence]	[silence]
sw2995A-ms98-a-0025	A.11	74.792125	78.113750		[silence]	[silence]
sw2995A-ms98-a-0026	A.11	78.113750	78.875625		[silence]	[silence]
sw2995A-ms98-a-0026	A.11	78.875625	79.198750		Uh-huh	uh-huh
sw2995A-ms98-a-0026	A.13	79.198750	79.847125		[silence]	[silence]
sw2995A-ms98-a-0027	A.13	79.847125	84.612125		[silence]	[silence]
sw2995A-ms98-a-0028	A.13	84.612125	85.059375		[silence]	[silence]
sw2995A-ms98-a-0028	A.13	85.059375	85.342250		Uh	uh
sw2995A-ms98-a-0028	A.15	85.342250	85.677250		[silence]	[silence]
sw2995A-ms98-a-0029	A.15	85.677250	86.333500		[silence]	[silence]
sw2995A-ms98-a-0030	A.15	86.333500	86.726250		[silence]	[silence]
sw2995A-ms98-a-0030	A.15	86.726250	87.055750		Yeah	yeah
sw2995A-ms98-a-0030	A.17	87.055750	88.670500		[silence]	[silence]
sw2995A-ms98-a-0031	A.17	88.670500	99.668875		[silence]	[silence]
sw2995A-ms98-a-0032	A.17	99.668875	100.172375		[silence]	[silence]
sw2995A-ms98-a-0032	A.17	100.172375	100.498875	<SUB>	Uh-huh	um-hum
sw2995A-ms98-a-0032	A.19	100.498875	100.878500		[silence]	[silence]
sw2995A-ms98-a-0033	A.19	100.878500	102.485875		[silence]	[silence]
sw2995A-ms98-a-0034	A.19	102.485875	102.890000		[silence]	[silence]
sw2995A-ms98-a-0034	A.19	102.890000	103.174250		Oh	oh
sw2995A-ms98-a-0034	A.19	103.174250	103.615750		yeah	yeah
sw2995A-ms98-a-0034	A.21	103.615750	104.598375		[silence]	[silence]
sw2995A-ms98-a-0034	A.21	104.598375	104.963000	<SUB>	Uh-huh	um-hum
sw2995A-ms98-a-0034	A.23	104.963000	105.431250		[silence]	[silence]
sw2995A-ms98-a-0035	A.23	105.431250	108.620750		[silence]	[silence]
sw2995A-ms98-a-0036	A.23	108.620750	109.387250		[silence]	[silence]
sw2995A-ms98-a-0036	A.23	109.387250	109.935250		Right	right
sw2995A-ms98-a-0036	A.25	109.935250	110.529250		[silence]	[silence]
sw2995A-ms98-a-0037	A.25	110.529250	117.025625		[silence]	[silence]
sw2995A-ms98-a-0038	A.25	117.025625	118.013875		[silence]	[silence]
sw2995A-ms98-a-0038	A.25	118.013875	118.502625	<SUB>	Uh-huh	um-hum
sw2995A-ms98-a-0038	A.27	118.502625	118.895500		[silence]	[silence]
sw2995A-ms98-a-0039	A.27	118.895500	134.711375		[silence]	[silence]
sw2995A-ms98-a-0040	A.27	134.711375	135.176625		[silence]	[silence]
sw2995A-ms98-a-0040	A.27	135.176625	135.505125	<SUB>	Uh-huh	um-hum
sw2995A-ms98-a-0040	A.29	135.505125	135.936625		[silence]	[silence]
sw2995A-ms98-a-0041	A.29	135.936625	145.191875		[silence]	[silence]
sw2995A-ms98-a-0042	A.29	145.191875	145.600250		[silence]	[silence]
sw2995A-ms98-a-0042	A.29	145.600250	145.917375	<SUB>	Uh-huh	um-hum
sw2995A-ms98-a-0042	A.31	145.917375	146.816375		[silence]	[silence]
sw2995A-ms98-a-0043	A.31	146.816375	154.424750		[silence]	[silence]
sw2995A-ms98-a-0044	A.31	154.424750	155.784750		[silence]	[silence]
sw2995A-ms98-a-0044	A.31	155.784750	156.034875		[noise]	[noise]
sw2995A-ms98-a-0044	A.31	156.034875	156.152000		[silence]	[silence]
sw2995A-ms98-a-0045	A.31	156.152000	156.426250		[silence]	[silence]
sw2995A-ms98-a-0045	A.31	156.426250	156.542000		You	you
sw2995A-ms98-a-0045	A.31	156.542000	156.842000		can't	can't
sw2995A-ms98-a-0045	A.31	156.842000	157.192000		force	force
sw2995A-ms98-a-0045	A.31	157.192000	157.362000		them	them
sw2995A-ms98-a-0045	A.31	157.362000	157.452000		to	to
sw2995A-ms98-a-0045	A.31	157.452000	157.694625		be	be
sw2995A-ms98-a-0045	A.33	157.694625	158.063750		[silence]	[silence]
sw2995A-ms98-a-0046	A.33	158.063750	158.713750		[silence]	[silence]
sw2995A-ms98-a-0046	A.33	158.713750	159.008500		No	no
sw2995A-ms98-a-0046	A.35	159.008500	159.400500		[silence]	[silence]
sw2995A-ms98-a-0047	A.35	159.400500	164.353375		[silence]	[silence]
sw2995A-ms98-a-0048	A.35	164.353375	164.553375		[silence]	[silence]
sw2995A-ms98-a-0048	A.35	164.553375	164.929000		Uh-huh	uh-huh
sw2995A-ms98-a-0048	A.37	164.929000	165.875750		[silence]	[silence]
sw2995A-ms98-a-0049	A.37	165.875750	181.923375		[silence]	[silence]
sw2995A-ms98-a-0050	A.37	181.923375	183.183375		[silence]	[silence]
sw2995A-ms98-a-0050	A.37	183.183375	183.401250		Oh	oh
sw2995A-ms98-a-0050	A.37	183.401250	183.710500		yeah	yeah
sw2995A-ms98-a-0050	A.39	183.710500	183.922250		[silence]	[silence]
sw2995A-ms98-a-0051	A.39	183.922250	184.996125		[silence]	[silence]
sw2995A-ms98-a-0052	A.39	184.996125	185.214750		[silence]	[silence]
sw2995A-ms98-a-0052	A.39	185.214750	185.516125		because	because
sw2995A-ms98-a-0052	A.39	185.516125	185.666125		they	they
sw2995A-ms98-a-0052	A.39	185.666125	185.946125		follow	follow
sw2995A-ms98-a-0052	A.39	185.946125	186.046125		them	them_1
sw2995A-ms98-a-0052	A.39	186.046125	186.416125		around	around
sw2995A-ms98-a-0052	A.39	186.416125	186.656125	<CONT>	twenty-four	twenty
sw2995A-ms98-a-0052	A.39	186.656125	186.866125	<CONT>	+++	four
sw2995A-ms98-a-0052	A.39	186.866125	187.126125		hours	hours
sw2995A-ms98-a-0052	A.39	187.126125	187.186125		a	a
sw2995A-ms98-a-0052	A.39	187.186125	187.568625		day	day
sw2995A-ms98-a-0052	A.41	187.568625	188.254000		[silence]	[silence]
sw2995A-ms98-a-0053	A.41	188.254000	188.884000		[silence]	[silence]
sw2995A-ms98-a-0053	A.41	188.884000	189.064000		And	and
sw2995A-ms98-a-0053	A.41	189.064000	189.134000		you	you
sw2995A-ms98-a-0053	A.41	189.134000	189.354000		know	know
sw2995A-ms98-a-0053	A.41	189.354000	189.484000		they	they
sw2995A-ms98-a-0053	A.41	189.484000	189.654000		do	do
sw2995A-ms98-a-0053	A.41	189.654000	189.974000		Ted	Ted
sw2995A-ms98-a-0053	A.41	189.974000	190.503000		Kennedy	Kennedy
sw2995A-ms98-a-0053	A.43	190.503000	190.839000		[silence]	[silence]
sw2995A-ms98-a-0054	A.43	190.839000	191.074000		[silence]	[silence]
sw2995A-ms98-a-0054	A.43	191.074000	191.219000		Of	of
sw2995A-ms98-a-0054	A.43	191.219000	191.484500		course	course
sw2995A-ms98-a-0054	A.43	191.484500	191.615625		[silence]	[silence]
sw2995A-ms98-a-0054	A.43	191.615625	191.989000		he's	he's
sw2995A-ms98-a-0054	A.43	191.989000	192.329000		breaking	breaking
sw2995A-ms98-a-0054	A.43	192.329000	192.399000		the	the
sw2995A-ms98-a-0054	A.43	192.399000	192.569000		law	law
sw2995A-ms98-a-0054	A.43	192.569000	192.819000		all	all
sw2995A-ms98-a-0054	A.43	192.819000	192.939000		the	the
sw2995A-ms98-a-0054	A.43	192.939000	193.269000		time	time
sw2995A-ms98-a-0054	A.43	193.269000	193.519000		so	so
sw2995A-ms98-a-0054	A.43	193.519000	193.679000		it's	it's
sw2995A-ms98-a-0054	A.43	193.679000	193.739000		a	a
sw2995A-ms98-a-0054	A.43	193.739000	194.179000		different	different
sw2995A-ms98-a-0054	A.43	194.179000	194.622500		story	story
sw2995A-ms98-a-0054	A.43	194.622500	194.966250		then	then
sw2995A-ms98-a-0054	A.43	194.966250	195.603625		[silence]	[silence]
sw2995A-ms98-a-0055	A.43	195.603625	195.823625		[silence]	[silence]
sw2995A-ms98-a-0055	A.43	195.823625	195.943625		You	you
sw2995A-ms98-a-0055	A.43	195.943625	196.143625		know	know
sw2995A-ms98-a-0055	A.43	196.143625	196.421875		but	but
sw2995A-ms98-a-0055	A.43	196.421875	196.919125		[silence]	[silence]
sw2995A-ms98-a-0055	A.43	196.919125	197.093625		but	but
sw2995A-ms98-a-0055	A.43	197.093625	197.303625		Ed	Ed
sw2995A-ms98-a-0055	A.43	197.303625	197.873625		McMahon	McMahon
sw2995A-ms98-a-0055	A.43	197.873625	198.032000		I	i
sw2995A-ms98-a-0055	A.43	198.032000	198.465125		mean	mean
sw2995A-ms98-a-0055	A.43	198.465125	198.653625		you	you
sw2995A-ms98-a-0055	A.43	198.653625	198.969125		know	know
sw2995A-ms98-a-0055	A.43	198.969125	199.119750		[silence]	[silence]
sw2995A-ms98-a-0055	A.43	199.119750	199.283625		who	who
sw2995A-ms98-a-0055	A.43	199.283625	199.663625		cares	cares
sw2995A-ms98-a-0055	A.43	199.663625	199.933625		about	about
sw2995A-ms98-a-0055	A.43	199.933625	200.073625		Ed	Ed
sw2995A-ms98-a-0055	A.43	200.073625	200.716500		McMahon	McMahon
sw2995A-ms98-a-0055	A.43	200.716500	201.063125		[silence]	[silence]
sw2995A-ms98-a-0056	A.43	201.063125	201.492000		[silence]	[silence]
sw2995A-ms98-a-0056	A.43	201.492000	201.800000		He's	he's
sw2995A-ms98-a-0056	A.43	201.800000	202.043125		probably	probably
sw2995A-ms98-a-0056	A.43	202.043125	202.313125		hasn't	hasn't
sw2995A-ms98-a-0056	A.43	202.313125	202.463125		done	done
sw2995A-ms98-a-0056	A.43	202.463125	202.822375		anything	anything
sw2995A-ms98-a-0056	A.43	202.822375	203.523125		interesting	interesting
sw2995A-ms98-a-0056	A.43	203.523125	203.623125		in	in
sw2995A-ms98-a-0056	A.43	203.623125	203.703125		the	the
sw2995A-ms98-a-0056	A.43	203.703125	204.033125		last	last
sw2995A-ms98-a-0056	A.43	204.033125	204.253125		thirty	thirty
sw2995A-ms98-a-0056	A.43	204.253125	204.763125		years	years
sw2995A-ms98-a-0056	A.43	204.763125	204.873125		that	that
sw2995A-ms98-a-0056	A.43	204.873125	205.053125		they've	they've
sw2995A-ms98-a-0056	A.43	205.053125	205.203125		been	been
sw2995A-ms98-a-0056	A.43	205.203125	205.343125		on	on
sw2995A-ms98-a-0056	A.43	205.343125	205.413125		the	the
sw2995A-ms98-a-0056	A.43	205.413125	205.915750		air	air
sw2995A-ms98-a-0056	A.45	205.915750	206.488750		[silence]	[silence]
sw2995A-ms98-a-0057	A.45	206.488750	207.018375		[silence]	[silence]
sw2995A-ms98-a-0057	A.45	207.018375	207.118750		you	you
sw2995A-ms98-a-0057	A.45	207.118750	207.444500		know	know
sw2995A-ms98-a-0057	A.45	207.444500	207.990625		[silence]	[silence]
sw2995A-ms98-a-0057	A.45	207.990625	208.178750		And	and
sw2995A-ms98-a-0057	A.45	208.178750	208.308750		he	he
sw2995A-ms98-a-0057	A.45	208.308750	208.598750		has	has
sw2995A-ms98-a-0057	A.45	208.598750	208.688750		a	a
sw2995A-ms98-a-0057	A.45	208.688750	209.048750		chauffeur	chauffeur
sw2995A-ms98-a-0057	A.45	209.048750	209.388750		Maybe	maybe
sw2995A-ms98-a-0057	A.45	209.388750	209.512125		he	he
sw2995A-ms98-a-0057	A.45	209.512125	210.019625		drinks	drinks
sw2995A-ms98-a-0057	A.45	210.019625	210.505500		[silence]	[silence]
sw2995A-ms98-a-0057	A.45	210.505500	210.702500		but	but
sw2995A-ms98-a-0057	A.45	210.702500	210.932250		[silence]	[silence]
sw2995A-ms98-a-0057	A.45	210.932250	211.118750		he	he
sw2995A-ms98-a-0057	A.45	211.118750	211.388750		never	never
sw2995A-ms98-a-0057	A.45	211.388750	211.688750		drives	drives
sw2995A-ms98-a-0057	A.45	211.688750	211.738750		a	a
sw2995A-ms98-a-0057	A.45	211.738750	212.139000		car	car
sw2995A-ms98-a-0057	A.45	212.139000	212.524750		either	either
sw2995A-ms98-a-0057	A.45	212.524750	212.731875		[silence]	[silence]
sw2995A-ms98-a-0057	A.45	212.731875	212.842500		you	you
sw2995A-ms98-a-0057	A.45	212.842500	212.988750		know	know
sw2995A-ms98-a-0057	A.45	212.988750	213.138750		it's	it's
sw2995A-ms98-a-0057	A.45	213.138750	213.348750		not	not
sw2995A-ms98-a-0057	A.45	213.348750	213.418750		the	the
sw2995A-ms98-a-0057	A.45	213.418750	213.708750		same	same
sw2995A-ms98-a-0057	A.45	213.708750	213.858750		with	with
sw2995A-ms98-a-0057	A.45	213.858750	214.135875		Johnny	Johnny
sw2995A-ms98-a-0057	A.45	214.135875	214.653500		Carson	Carson
sw2995A-ms98-a-0057	A.47	214.653500	214.899250		[silence]	[silence]
sw2995A-ms98-a-0058	A.47	214.899250	223.833250		[silence]	[silence]
sw2995A-ms98-a-0059	A.47	223.833250	224.123250		[silence]	[silence]
sw2995A-ms98-a-0059	A.47	224.123250	224.475250	<SUB>	Uh-huh	um-hum
sw2995A-ms98-a-0059	A.49	224.475250	224.940000		[silence]	[silence]
sw2995A-ms98-a-0060	A.49	224.940000	228.564625		[silence]	[silence]
sw2995A-ms98-a-0061	A.49	228.564625	229.164625		[silence]	[silence]
sw2995A-ms98-a-0061	A.49	229.164625	229.544625		Without	without
sw2995A-ms98-a-0061	A.49	229.544625	229.850250		your	your
sw2995A-ms98-a-0061	A.49	229.850250	230.127625		[vocalized-noise]	[vocalized-noise]
sw2995A-ms98-a-0061	A.49	230.127625	230.424625		and	and
sw2995A-ms98-a-0061	A.49	230.424625	230.794625		without	without
sw2995A-ms98-a-0061	A.49	230.794625	230.904625		your	your
sw2995A-ms98-a-0061	A.49	230.904625	231.535250		permission	permission
sw2995A-ms98-a-0061	A.51	231.535250	232.228500		[silence]	[silence]
sw2995A-ms98-a-0061	A.51	232.228500	232.632625	<SUB>	Uh-huh	um-hum
sw2995A-ms98-a-0061	A.53	232.632625	232.802000		[silence]	[silence]
sw2995A-ms98-a-0062	A.53	232.802000	234.220125		[silence]	[silence]
sw2995A-ms98-a-0063	A.53	234.220125	234.860125		[silence]	[silence]
sw2995A-ms98-a-0063	A.53	234.860125	235.147750		Right	right
sw2995A-ms98-a-0063	A.55	235.147750	236.224000		[silence]	[silence]
sw2995A-ms98-a-0064	A.55	236.224000	251.531000		[silence]	[silence]
sw2995A-ms98-a-0065	A.55	251.531000	252.494250		[silence]	[silence]
sw2995A-ms98-a-0065	A.55	252.494250	252.830000		Oh	oh
sw2995A-ms98-a-0065	A.55	252.830000	253.214875		good	good
sw2995A-ms98-a-0065	A.57	253.214875	253.979250		[silence]	[silence]
sw2995A-ms98-a-0066	A.57	253.979250	261.857000		[silence]	[silence]
sw2995A-ms98-a-0067	A.57	261.857000	262.027000		[silence]	[silence]
sw2995A-ms98-a-0067	A.57	262.027000	262.339250	<SUB>	Uh-huh	um-hum
sw2995A-ms98-a-0067	A.59	262.339250	262.784875		[silence]	[silence]
sw2995A-ms98-a-0068	A.59	262.784875	278.376500		[silence]	[silence]
sw2995A-ms98-a-0069	A.59	278.376500	278.816500		[silence]	[silence]
sw2995A-ms98-a-0069	A.59	278.816500	279.228875	<SUB>	Uh-huh	um-hum
sw2995A-ms98-a-0069	A.63	279.228875	279.695750		[silence]	[silence]
sw2995A-ms98-a-0070	A.63	279.695750	285.851000		[silence]	[silence]
sw2995A-ms98-a-0071	A.63	285.851000	286.782625		[silence]	[silence]
sw2995A-ms98-a-0071	A.63	286.782625	286.981000		That's	that's
sw2995A-ms98-a-0071	A.63	286.981000	287.402250		right	right
sw2995A-ms98-a-0071	A.65	287.402250	288.103625		[silence]	[silence]
sw2995A-ms98-a-0072	A.65	288.103625	300.527375		[silence]	[silence]
sw2995A-ms98-a-0073	A.65	300.527375	300.869750		[silence]	[silence]
sw2995A-ms98-a-0073	A.65	300.869750	301.206375	<SUB>	Uh-huh	um-hum
sw2995A-ms98-a-0073	A.67	301.206375	301.563375		[silence]	[silence]
sw2995A-ms98-a-0074	A.67	301.563375	302.400875		[silence]	[silence]
sw2995A-ms98-a-0075	A.67	302.400875	303.001000		[silence]	[silence]
sw2995A-ms98-a-0075	A.67	303.001000	303.110875		Well	well
sw2995A-ms98-a-0075	A.67	303.110875	303.210875		you	you
sw2995A-ms98-a-0075	A.67	303.210875	303.447875		have	have
sw2995A-ms98-a-0075	A.67	303.447875	303.530875		to	to
sw2995A-ms98-a-0075	A.67	303.530875	303.660875		have	have
sw2995A-ms98-a-0075	A.67	303.660875	303.720875		the	the
sw2995A-ms98-a-0075	A.67	303.720875	304.410875		telephone	telephone
sw2995A-ms98-a-0075	A.67	304.410875	304.538375		but	but
sw2995A-ms98-a-0075	A.67	304.538375	304.931250		[silence]	[silence]
sw2995A-ms98-a-0076	A.67	304.931250	305.622375		[silence]	[silence]
sw2995A-ms98-a-0076	A.67	305.622375	305.721250		you	you
sw2995A-ms98-a-0076	A.67	305.721250	306.111250		can't	can't
sw2995A-ms98-a-0076	A.67	306.111250	306.241250		you	you
sw2995A-ms98-a-0076	A.67	306.241250	306.411250		know	know
sw2995A-ms98-a-0076	A.67	306.411250	306.691250		and	and
sw2995A-ms98-a-0076	A.67	306.691250	306.861250		and	and
sw2995A-ms98-a-0076	A.67	306.861250	307.256000		it's	it's
sw2995A-ms98-a-0076	A.67	307.256000	307.651250		sometimes	sometimes
sw2995A-ms98-a-0076	A.67	307.651250	307.801250		it's	it's
sw2995A-ms98-a-0076	A.67	307.801250	307.991250		hard	hard
sw2995A-ms98-a-0076	A.67	307.991250	308.091250		to	to
sw2995A-ms98-a-0076	A.67	308.091250	308.471250		screen	screen
sw2995A-ms98-a-0076	A.67	308.471250	308.779000		out	out
sw2995A-ms98-a-0076	A.67	308.779000	308.986125		[silence]	[silence]
sw2995A-ms98-a-0076	A.67	308.986125	309.181250		all	all
sw2995A-ms98-a-0076	A.67	309.181250	309.251250		the	the
sw2995A-ms98-a-0076	A.67	309.251250	309.671250		calls	calls
sw2995A-ms98-a-0076	A.67	309.671250	309.871250		that	that
sw2995A-ms98-a-0076	A.67	309.871250	310.001250		you	you
sw2995A-ms98-a-0076	A.67	310.001250	310.211250		don't	don't
sw2995A-ms98-a-0076	A.67	310.211250	310.503375		want	want
sw2995A-ms98-a-0076	A.69	310.503375	311.061000		[silence]	[silence]
sw2995A-ms98-a-0077	A.69	311.061000	313.320000		[silence]	[silence]
sw2995A-ms98-a-0078	A.69	313.320000	313.546625		[silence]	[silence]
sw2995A-ms98-a-0078	A.69	313.546625	313.873875	<SUB>	Uh-huh	um-hum
sw2995A-ms98-a-0078	A.71	313.873875	314.062625		[silence]	[silence]
sw2995A-ms98-a-0079	A.71	314.062625	326.490750		[silence]	[silence]
sw2995A-ms98-a-0080	A.71	326.490750	327.064625		[silence]	[silence]
sw2995A-ms98-a-0080	A.71	327.064625	327.304750		Um	um
sw2995A-ms98-a-0080	A.73	327.304750	327.765625		[silence]	[silence]
sw2995A-ms98-a-0081	A.73	327.765625	336.872000		[silence]	[silence]
sw2995A-ms98-a-0082	A.73	336.872000	337.936000		[silence]	[silence]
sw2995A-ms98-a-0082	A.73	337.936000	338.259875	<SUB>	Ye-	um-hum
sw2995A-ms98-a-0082	A.73	338.259875	338.961750		[silence]	[silence]
sw2995A-ms98-a-0083	A.73	338.961750	351.459125		[silence]	[silence]
sw2995A-ms98-a-0084	A.73	351.459125	351.935750		[silence]	[silence]
sw2995A-ms98-a-0084	A.73	351.935750	352.156125	<SUB>	uh-huh	hm
sw2995A-ms98-a-0084	A.75	352.156125	352.842875		[silence]	[silence]
sw2995A-ms98-a-0084	A.75	352.842875	353.152375	<SUB>	Uh-huh	uh-hum
sw2995A-ms98-a-0084	A.79	353.152375	353.586750		[silence]	[silence]
sw2995A-ms98-a-0085	A.79	353.586750	369.506500		[silence]	[silence]
sw2995A-ms98-a-0086	A.79	369.506500	369.829250		[silence]	[silence]
sw2995A-ms98-a-0086	A.79	369.829250	370.279625		Right	right
sw2995A-ms98-a-0086	A.79	370.279625	370.596250		[silence]	[silence]
sw2995A-ms98-a-0086	A.79	370.596250	370.977875	<SUB>	uh-huh	um-hum
sw2995A-ms98-a-0086	A.81	370.977875	374.649625		[silence]	[silence]
sw2995A-ms98-a-0087	A.81	374.649625	374.780875		[silence]	[silence]
sw2995A-ms98-a-0087	A.81	374.780875	375.659625		Sometimes	sometimes
sw2995A-ms98-a-0087	A.81	375.659625	375.939625		yeah	yeah
sw2995A-ms98-a-0087	A.81	375.939625	376.199625		some	some
sw2995A-ms98-a-0087	A.81	376.199625	376.549625		days	days
sw2995A-ms98-a-0087	A.81	376.549625	376.679625		it	it
sw2995A-ms98-a-0087	A.81	376.679625	376.899625		just	just
sw2995A-ms98-a-0087	A.81	376.899625	377.149625		rings	rings
sw2995A-ms98-a-0087	A.81	377.149625	377.329625		off	off
sw2995A-ms98-a-0087	A.81	377.329625	377.389625		the	the
sw2995A-ms98-a-0087	A.81	377.389625	377.748125		wall	wall
sw2995A-ms98-a-0087	A.83	377.748125	378.309250		[silence]	[silence]
sw2995A-ms98-a-0088	A.83	378.309250	379.884750		[silence]	[silence]
sw2995A-ms98-a-0089	A.83	379.884750	381.760250		[silence]	[silence]
sw2995A-ms98-a-0089	A.83	381.760250	382.150500		No	no
sw2995A-ms98-a-0089	A.83	382.150500	382.414000		[silence]	[silence]
sw2995A-ms98-a-0089	A.83	382.414000	382.642000		no	no
sw2995A-ms98-a-0089	A.85	382.642000	386.424250		[silence]	[silence]
sw2995A-ms98-a-0089	A.85	386.424250	386.767875		Uh-huh	uh-huh
sw2995A-ms98-a-0089	A.87	386.767875	387.147375		[silence]	[silence]
sw2995A-ms98-a-0090	A.87	387.147375	406.718875		[silence]	[silence]
sw2995A-ms98-a-0091	A.87	406.718875	407.221750		[silence]	[silence]
sw2995A-ms98-a-0091	A.87	407.221750	407.620500	<SUB>	Uh-huh	um-hum
sw2995A-ms98-a-0091	A.89	407.620500	408.587125		[silence]	[silence]
sw2995A-ms98-a-0092	A.89	408.587125	420.189250		[silence]	[silence]
sw2995A-ms98-a-0093	A.89	420.189250	421.210125		[silence]	[silence]
sw2995A-ms98-a-0093	A.89	421.210125	421.764500		Right	right
sw2995A-ms98-a-0093	A.89	421.764500	422.525375		[silence]	[silence]
sw2995A-ms98-a-0094	A.89	422.525375	423.223750		[silence]	[silence]
sw2995A-ms98-a-0094	A.89	423.223750	423.530250		Yeah	yeah
sw2995A-ms98-a-0094	A.89	423.530250	423.831250		[silence]	[silence]
sw2995A-ms98-a-0095	A.89	423.831250	423.984125		[silence]	[silence]
sw2995A-ms98-a-0095	A.89	423.984125	424.280500		[noise]	[noise]
sw2995A-ms98-a-0095	A.89	424.280500	424.287375		[silence]	[silence]
sw2995A-ms98-a-0096	A.89	424.287375	424.410500		[silence]	[silence]
sw2995A-ms98-a-0096	A.89	424.410500	424.647375		even	even
sw2995A-ms98-a-0096	A.89	424.647375	424.833250		if	if
sw2995A-ms98-a-0096	A.89	424.833250	424.997375		I	i
sw2995A-ms98-a-0096	A.89	424.997375	425.287375		guess	guess
sw2995A-ms98-a-0096	A.89	425.287375	425.447375		it's	it's
sw2995A-ms98-a-0096	A.89	425.447375	425.577375		for	for
sw2995A-ms98-a-0096	A.89	425.577375	426.247375		coupons	coupons
sw2995A-ms98-a-0096	A.89	426.247375	426.514250		they	they
sw2995A-ms98-a-0096	A.89	426.514250	426.687375		they	they
sw2995A-ms98-a-0096	A.89	426.687375	426.847375		have	have
sw2995A-ms98-a-0096	A.89	426.847375	426.947375		a	a
sw2995A-ms98-a-0096	A.89	426.947375	427.497375		survey	survey
sw2995A-ms98-a-0096	A.89	427.497375	427.716000		they	they
sw2995A-ms98-a-0096	A.89	427.716000	428.121625		run	run
sw2995A-ms98-a-0096	A.89	428.121625	428.347500		[silence]	[silence]
sw2995A-ms98-a-0097	A.89	428.347500	429.023750		[silence]	[silence]
sw2995A-ms98-a-0097	A.89	429.023750	429.257500		and	and
sw2995A-ms98-a-0097	A.89	429.257500	429.433000		it	it
sw2995A-ms98-a-0097	A.89	429.433000	429.671500		I	i
sw2995A-ms98-a-0097	A.89	429.671500	429.878750		guess	guess
sw2995A-ms98-a-0097	A.89	429.878750	430.161250		[silence]	[silence]
sw2995A-ms98-a-0097	A.89	430.161250	430.371250		it	it
sw2995A-ms98-a-0097	A.89	430.371250	430.634875		[silence]	[silence]
sw2995A-ms98-a-0097	A.89	430.634875	430.847500		one	one
sw2995A-ms98-a-0097	A.89	430.847500	430.947500		of	of
sw2995A-ms98-a-0097	A.89	430.947500	431.127500		them	them
sw2995A-ms98-a-0097	A.89	431.127500	431.237500		is	is
sw2995A-ms98-a-0097	A.89	431.237500	431.507500		supposed	supposed
sw2995A-ms98-a-0097	A.89	431.507500	431.587500		to	to
sw2995A-ms98-a-0097	A.89	431.587500	431.707500		be	be
sw2995A-ms98-a-0097	A.89	431.707500	431.777500		a	a
sw2995A-ms98-a-0097	A.89	431.777500	432.287500		smokers	smokers
sw2995A-ms98-a-0097	A.89	432.287500	432.747500		survey	survey
sw2995A-ms98-a-0097	A.89	432.747500	433.027500		but	but
sw2995A-ms98-a-0097	A.89	433.027500	433.137500		the	the
sw2995A-ms98-a-0097	A.89	433.137500	433.747500		questions	questions
sw2995A-ms98-a-0097	A.89	433.747500	434.067500		go	go
sw2995A-ms98-a-0097	A.89	434.067500	434.097500		a	a
sw2995A-ms98-a-0097	A.89	434.097500	434.447500		lot	lot
sw2995A-ms98-a-0097	A.89	434.447500	434.867500		farther	farther
sw2995A-ms98-a-0097	A.89	434.867500	435.203875		than	than
sw2995A-ms98-a-0097	A.89	435.203875	435.501375		[silence]	[silence]
sw2995A-ms98-a-0097	A.89	435.501375	435.837500		having	having
sw2995A-ms98-a-0097	A.89	435.837500	435.917500		to	to
sw2995A-ms98-a-0097	A.89	435.917500	436.047500		do	do
sw2995A-ms98-a-0097	A.89	436.047500	436.447500		anything	anything
sw2995A-ms98-a-0097	A.89	436.447500	436.587500		with	with
sw2995A-ms98-a-0097	A.89	436.587500	437.188875		smoking	smoking
sw2995A-ms98-a-0097	A.91	437.188875	437.874500		[silence]	[silence]
sw2995A-ms98-a-0098	A.91	437.874500	438.444500		[silence]	[silence]
sw2995A-ms98-a-0098	A.91	438.444500	438.604500		And	and
sw2995A-ms98-a-0098	A.91	438.604500	438.793125		they	they
sw2995A-ms98-a-0098	A.91	438.793125	439.038000		ask	ask
sw2995A-ms98-a-0098	A.91	439.038000	439.364500	<SUB>	tha-	that
sw2995A-ms98-a-0098	A.91	439.364500	439.514500		you	you
sw2995A-ms98-a-0098	A.91	439.514500	439.714500		know	know
sw2995A-ms98-a-0098	A.91	439.714500	439.834500		they	they
sw2995A-ms98-a-0098	A.91	439.834500	440.134500		start	start
sw2995A-ms98-a-0098	A.91	440.134500	440.394500		out	out
sw2995A-ms98-a-0098	A.91	440.394500	440.534500		and	and
sw2995A-ms98-a-0098	A.91	440.534500	440.764500		they	they
sw2995A-ms98-a-0098	A.91	440.764500	440.904500		ask	ask
sw2995A-ms98-a-0098	A.91	440.904500	441.034500		you	you
sw2995A-ms98-a-0098	A.91	441.034500	441.425375		even	even
sw2995A-ms98-a-0098	A.91	441.425375	441.794500		[silence]	[silence]
sw2995A-ms98-a-0098	A.91	441.794500	442.174500		even	even
sw2995A-ms98-a-0098	A.91	442.174500	442.264500		to	to
sw2995A-ms98-a-0098	A.91	442.264500	442.574500		your	your
sw2995A-ms98-a-0098	A.91	442.574500	443.084500		income	income
sw2995A-ms98-a-0098	A.91	443.084500	443.494500		level	level
sw2995A-ms98-a-0098	A.91	443.494500	443.584500		I	i
sw2995A-ms98-a-0098	A.91	443.584500	443.854500		think	think
sw2995A-ms98-a-0098	A.91	443.854500	444.272375		that's	that's
sw2995A-ms98-a-0098	A.91	444.272375	444.438125		[silence]	[silence]
sw2995A-ms98-a-0098	A.91	444.438125	444.617750		you	you
sw2995A-ms98-a-0098	A.91	444.617750	444.884625		know	know
sw2995A-ms98-a-0098	A.91	444.884625	445.559250		[silence]	[silence]
sw2995A-ms98-a-0099	A.91	445.559250	446.271125		[silence]	[silence]
sw2995A-ms98-a-0099	A.91	446.271125	446.619250		whether	whether
sw2995A-ms98-a-0099	A.91	446.619250	446.739250		you	you
sw2995A-ms98-a-0099	A.91	446.739250	447.273625		buy	buy
sw2995A-ms98-a-0099	A.91	447.273625	447.420500		a	a
sw2995A-ms98-a-0099	A.91	447.420500	447.769250	<CONT>	T	TV
sw2995A-ms98-a-0099	A.91	447.769250	447.769250	<CONT>	V	+++
sw2995A-ms98-a-0099	A.91	447.769250	448.139250		dinner	dinner
sw2995A-ms98-a-0099	A.91	448.139250	448.239250		or	or
sw2995A-ms98-a-0099	A.91	448.239250	448.651375		not	not
sw2995A-ms98-a-0099	A.91	448.651375	448.762125		[silence]	[silence]
sw2995A-ms98-a-0099	A.91	448.762125	448.920250		I	i
sw2995A-ms98-a-0099	A.91	448.920250	449.149250		don't	don't
sw2995A-ms98-a-0099	A.91	449.149250	449.409250		think	think
sw2995A-ms98-a-0099	A.91	449.409250	449.499250		it	it
sw2995A-ms98-a-0099	A.91	449.499250	449.709250		has	has
sw2995A-ms98-a-0099	A.91	449.709250	450.049250		anything	anything
sw2995A-ms98-a-0099	A.91	450.049250	450.119250		to	to
sw2995A-ms98-a-0099	A.91	450.119250	450.259250		do	do
sw2995A-ms98-a-0099	A.91	450.259250	450.488000		with	with
sw2995A-ms98-a-0099	A.91	450.488000	450.630750	<DEL>	---	wh[at]-
sw2995A-ms98-a-0099	A.91	450.630750	450.634625		[silence]	[silence]
