sw2944A-ms98-a-0001	@A.2	0.000000	0.050000		[silence]	[silence]
sw2944A-ms98-a-0001	@A.2	0.050000	0.110000		[noise]	[noise]
sw2944A-ms98-a-0001	@A.2	0.110000	0.305125		[silence]	[silence]
sw2944A-ms98-a-0002	@A.2	0.305125	0.785125		[silence]	[silence]
sw2944A-ms98-a-0002	@A.2	0.785125	1.129500		Uh	uh
sw2944A-ms98-a-0002	@A.2	1.129500	1.293625		[silence]	[silence]
sw2944A-ms98-a-0002	@A.2	1.293625	1.425125		well	well
sw2944A-ms98-a-0002	@A.2	1.425125	1.485125		I	i
sw2944A-ms98-a-0002	@A.2	1.485125	1.635125		mean	mean
sw2944A-ms98-a-0002	@A.2	1.635125	1.805125		I've	i've
sw2944A-ms98-a-0002	@A.2	1.805125	2.005125		had	had
sw2944A-ms98-a-0002	@A.2	2.005125	2.215125		time	time
sw2944A-ms98-a-0002	@A.2	2.215125	2.285125		to	to
sw2944A-ms98-a-0002	@A.2	2.285125	2.535125		think	think
sw2944A-ms98-a-0002	@A.2	2.535125	2.865125		about	about
sw2944A-ms98-a-0002	@A.2	2.865125	2.995125		it	it
sw2944A-ms98-a-0002	@A.2	2.995125	3.595125		because	because
sw2944A-ms98-a-0002	@A.2	3.595125	3.775125		uh	uh
sw2944A-ms98-a-0002	@A.2	3.775125	3.975125		we've	we've
sw2944A-ms98-a-0002	@A.2	3.975125	4.385125		had	had
sw2944A-ms98-a-0002	@A.2	4.385125	4.425125		uh	uh
sw2944A-ms98-a-0002	@A.2	4.425125	4.536750		i-	i-
sw2944A-ms98-a-0002	@A.2	4.536750	4.664750		[silence]	[silence]
sw2944A-ms98-a-0002	@A.2	4.664750	5.380500		i-	i-
sw2944A-ms98-a-0002	@A.2	5.380500	5.591500		there's	there's
sw2944A-ms98-a-0002	@A.2	5.591500	5.715125		been	been
sw2944A-ms98-a-0002	@A.2	5.715125	5.765125		a	a
sw2944A-ms98-a-0002	@A.2	5.765125	6.045125		great	great
sw2944A-ms98-a-0002	@A.2	6.045125	6.195125		deal	deal
sw2944A-ms98-a-0002	@A.2	6.195125	6.285125		of	of
sw2944A-ms98-a-0002	@A.2	6.285125	6.815125		difficulty	difficulty
sw2944A-ms98-a-0002	@A.2	6.815125	6.885125		in	in
sw2944A-ms98-a-0002	@A.2	6.885125	7.185125		finding	finding
sw2944A-ms98-a-0002	@A.2	7.185125	7.465125		someone	someone
sw2944A-ms98-a-0002	@A.2	7.465125	7.605125		to	to
sw2944A-ms98-a-0002	@A.2	7.605125	7.895125		talk	talk
sw2944A-ms98-a-0002	@A.2	7.895125	8.115125		to	to
sw2944A-ms98-a-0002	@A.2	8.115125	8.440125		so	so
sw2944A-ms98-a-0002	A.4	8.440125	8.917500		[silence]	[silence]
sw2944A-ms98-a-0003	A.4	8.917500	9.297500		[silence]	[silence]
sw2944A-ms98-a-0003	A.4	9.297500	9.567500		So	so
sw2944A-ms98-a-0003	A.4	9.567500	9.817500		um	um
sw2944A-ms98-a-0003	A.4	9.817500	9.857500		I	i
sw2944A-ms98-a-0003	A.4	9.857500	10.167500		I	i
sw2944A-ms98-a-0003	A.4	10.167500	10.347500		was	was
sw2944A-ms98-a-0003	A.4	10.347500	10.717500		thinking	thinking
sw2944A-ms98-a-0003	A.4	10.717500	11.007500		about	about
sw2944A-ms98-a-0003	A.4	11.007500	11.057500		a	a
sw2944A-ms98-a-0003	A.4	11.057500	11.327500		couple	couple
sw2944A-ms98-a-0003	A.4	11.327500	11.747500		things	things
sw2944A-ms98-a-0003	A.4	11.747500	12.312500		uh	uh
sw2944A-ms98-a-0003	A.6	12.312500	12.662750		[silence]	[silence]
sw2944A-ms98-a-0003	A.6	12.662750	12.967500		and	and
sw2944A-ms98-a-0003	A.6	12.967500	13.227500		whether	whether
sw2944A-ms98-a-0003	A.6	13.227500	13.427500		they	they
sw2944A-ms98-a-0003	A.6	13.427500	13.677500		are	are
sw2944A-ms98-a-0003	A.6	13.677500	14.307500		serious	serious
sw2944A-ms98-a-0003	A.6	14.307500	14.507500		Some	some
sw2944A-ms98-a-0003	A.6	14.507500	14.887500		things	things
sw2944A-ms98-a-0003	A.6	14.887500	15.097500		are	are
sw2944A-ms98-a-0003	A.6	15.097500	15.567500		serious	serious
sw2944A-ms98-a-0003	A.6	15.567500	15.747500		and	and
sw2944A-ms98-a-0003	A.6	15.747500	16.017500		some	some
sw2944A-ms98-a-0003	A.6	16.017500	16.327500		aren't	aren't
sw2944A-ms98-a-0003	A.6	16.327500	16.407500		I	i
sw2944A-ms98-a-0003	A.6	16.407500	16.647500		guess	guess
sw2944A-ms98-a-0003	A.6	16.647500	16.757500		the	the
sw2944A-ms98-a-0003	A.6	16.757500	17.177500		biggest	biggest
sw2944A-ms98-a-0003	A.6	17.177500	17.357500		thing	thing
sw2944A-ms98-a-0003	A.6	17.357500	17.547500		that	that
sw2944A-ms98-a-0003	A.6	17.547500	17.947500		bothers	bothers
sw2944A-ms98-a-0003	A.6	17.947500	18.137500		me	me
sw2944A-ms98-a-0003	A.6	18.137500	18.508000		is	is
sw2944A-ms98-a-0003	A.6	18.508000	19.006875		[silence]	[silence]
sw2944A-ms98-a-0004	A.6	19.006875	19.256875		[silence]	[silence]
sw2944A-ms98-a-0004	A.6	19.256875	19.706875		is	is
sw2944A-ms98-a-0004	A.6	19.706875	20.058750		uh	uh
sw2944A-ms98-a-0004	A.8	20.058750	20.631250		[silence]	[silence]
sw2944A-ms98-a-0004	A.8	20.631250	20.866875		not	not
sw2944A-ms98-a-0004	A.8	20.866875	20.926875		the	the
sw2944A-ms98-a-0004	A.8	20.926875	21.206875		biggest	biggest
sw2944A-ms98-a-0004	A.8	21.206875	21.346875		thing	thing
sw2944A-ms98-a-0004	A.8	21.346875	21.466875		but	but
sw2944A-ms98-a-0004	A.8	21.466875	21.586875		one	one
sw2944A-ms98-a-0004	A.8	21.586875	21.646875		of	of
sw2944A-ms98-a-0004	A.8	21.646875	21.706875		the	the
sw2944A-ms98-a-0004	A.8	21.706875	21.906875		things	things
sw2944A-ms98-a-0004	A.8	21.906875	22.026875		that	that
sw2944A-ms98-a-0004	A.8	22.026875	22.366875		bothers	bothers
sw2944A-ms98-a-0004	A.8	22.366875	22.576875		me	me
sw2944A-ms98-a-0004	A.8	22.576875	22.726875		is	is
sw2944A-ms98-a-0004	A.8	22.726875	22.826875		the	the
sw2944A-ms98-a-0004	A.8	22.826875	23.316875		credit	credit
sw2944A-ms98-a-0004	A.8	23.316875	24.196875		information	information
sw2944A-ms98-a-0004	A.8	24.196875	24.417500		[silence]	[silence]
sw2944A-ms98-a-0005	A.8	24.417500	24.667500		[silence]	[silence]
sw2944A-ms98-a-0005	A.8	24.667500	24.747500		uh	uh
sw2944A-ms98-a-0005	A.8	24.747500	25.477500		situation	situation
sw2944A-ms98-a-0005	A.10	25.477500	25.637500		that	that
sw2944A-ms98-a-0005	A.10	25.637500	25.977500		you	you
sw2944A-ms98-a-0005	A.10	25.977500	26.142125		uh	uh
sw2944A-ms98-a-0005	A.10	26.142125	26.695750		[silence]	[silence]
sw2944A-ms98-a-0005	A.10	26.695750	26.797500		that	that
sw2944A-ms98-a-0005	A.10	26.797500	26.897500		you	you
sw2944A-ms98-a-0005	A.10	26.897500	27.187500		find	find
sw2944A-ms98-a-0005	A.10	27.187500	27.567500		yourself	yourself
sw2944A-ms98-a-0005	A.10	27.567500	27.857500		almost	almost
sw2944A-ms98-a-0005	A.10	27.857500	28.607500		compromised	compromised
sw2944A-ms98-a-0005	A.10	28.607500	28.847500		into	into
sw2944A-ms98-a-0005	A.10	28.847500	29.137500		giving	giving
sw2944A-ms98-a-0005	A.10	29.137500	29.307500		if	if
sw2944A-ms98-a-0005	A.10	29.307500	29.417500		you	you
sw2944A-ms98-a-0005	A.10	29.417500	29.787500		want	want
sw2944A-ms98-a-0005	A.10	29.787500	30.037500		any	any
sw2944A-ms98-a-0005	A.10	30.037500	30.427500		s-	s[ort]-
sw2944A-ms98-a-0005	A.10	30.427500	30.807500		sort	sort
sw2944A-ms98-a-0005	A.10	30.807500	30.917500		of	of
sw2944A-ms98-a-0005	A.10	30.917500	31.336500		credit	credit
sw2944A-ms98-a-0005	A.12	31.336500	31.470875		[silence]	[silence]
sw2944A-ms98-a-0005	A.12	31.470875	31.925750		e-	e[xtensive]-
sw2944A-ms98-a-0005	A.12	31.925750	32.877500		extensive	extensive
sw2944A-ms98-a-0005	A.12	32.877500	33.447500		checks	checks
sw2944A-ms98-a-0005	A.12	33.447500	33.787500		and	and
sw2944A-ms98-a-0005	A.12	33.787500	34.070375		[silence]	[silence]
sw2944A-ms98-a-0006	A.12	34.070375	34.290375		[silence]	[silence]
sw2944A-ms98-a-0006	A.12	34.290375	34.440375		and	and
sw2944A-ms98-a-0006	A.12	34.440375	34.690375		things	things
sw2944A-ms98-a-0006	A.12	34.690375	34.790375		of	of
sw2944A-ms98-a-0006	A.12	34.790375	35.020375		that	that
sw2944A-ms98-a-0006	A.12	35.020375	35.500375		nature	nature
sw2944A-ms98-a-0006	A.14	35.500375	35.950375		When	when
sw2944A-ms98-a-0006	A.14	35.950375	36.265125		um	um
sw2944A-ms98-a-0006	A.14	36.265125	36.513750		[silence]	[silence]
sw2944A-ms98-a-0006	A.14	36.513750	36.792125		I	i
sw2944A-ms98-a-0006	A.14	36.792125	36.980375		I	i
sw2944A-ms98-a-0006	A.14	36.980375	37.070375		I	i
sw2944A-ms98-a-0006	A.14	37.070375	37.260375		mean	mean
sw2944A-ms98-a-0006	A.14	37.260375	37.380375		I	i
sw2944A-ms98-a-0006	A.14	37.380375	37.570375		I	i
sw2944A-ms98-a-0006	A.14	37.570375	37.760375		don't	don't
sw2944A-ms98-a-0006	A.14	37.760375	37.910375		know	know
sw2944A-ms98-a-0006	A.14	37.910375	38.020375		if	if
sw2944A-ms98-a-0006	A.14	38.020375	38.240375		that's	that's
sw2944A-ms98-a-0006	A.14	38.240375	38.300375		an	an
sw2944A-ms98-a-0006	A.14	38.300375	38.710375		invasion	invasion
sw2944A-ms98-a-0006	A.14	38.710375	38.780375		of	of
sw2944A-ms98-a-0006	A.14	38.780375	39.322375		privacy	privacy
sw2944A-ms98-a-0006	A.14	39.322375	39.755625		simply	simply
sw2944A-ms98-a-0006	A.14	39.755625	39.939625		I	i
sw2944A-ms98-a-0006	A.14	39.939625	40.125375		I	i
sw2944A-ms98-a-0006	A.14	40.125375	40.374000		do	do
sw2944A-ms98-a-0006	A.14	40.374000	40.465750	<SUB>	t-	to
sw2944A-ms98-a-0006	A.14	40.465750	40.635125		I	i
sw2944A-ms98-a-0006	A.14	40.635125	40.840375		do	do
sw2944A-ms98-a-0006	A.14	40.840375	41.130375		feel	feel
sw2944A-ms98-a-0006	A.14	41.130375	41.260375		it	it
sw2944A-ms98-a-0006	A.14	41.260375	41.470375		is	is
sw2944A-ms98-a-0006	A.14	41.470375	41.690375		but	but
sw2944A-ms98-a-0006	A.14	41.690375	41.800375		I	i
sw2944A-ms98-a-0006	A.14	41.800375	42.020375		don't	don't
sw2944A-ms98-a-0006	A.14	42.020375	42.200375		know	know
sw2944A-ms98-a-0006	A.14	42.200375	42.509625		whether	whether
sw2944A-ms98-a-0006	A.16	42.509625	42.822250		[silence]	[silence]
sw2944A-ms98-a-0006	A.16	42.822250	43.060375		some	some
sw2944A-ms98-a-0006	A.16	43.060375	43.160375		of	of
sw2944A-ms98-a-0006	A.16	43.160375	43.220375		the	the
sw2944A-ms98-a-0006	A.16	43.220375	43.640375		questions	questions
sw2944A-ms98-a-0006	A.16	43.640375	43.830375		they	they
sw2944A-ms98-a-0006	A.16	43.830375	44.170375		ask	ask
sw2944A-ms98-a-0006	A.16	44.170375	44.380375		are	are
sw2944A-ms98-a-0006	A.16	44.380375	45.120375		legitimate	legitimate
sw2944A-ms98-a-0006	A.18	45.120375	45.618000		[silence]	[silence]
sw2944A-ms98-a-0007	A.18	45.618000	45.938000		[silence]	[silence]
sw2944A-ms98-a-0007	A.18	45.938000	46.058000		uh	uh
sw2944A-ms98-a-0007	A.18	46.058000	46.408000		because	because
sw2944A-ms98-a-0007	A.18	46.408000	46.498000		they	they
sw2944A-ms98-a-0007	A.18	46.498000	46.568000		are	are
sw2944A-ms98-a-0007	A.18	46.568000	46.638000		the	the
sw2944A-ms98-a-0007	A.18	46.638000	46.848000		ones	ones
sw2944A-ms98-a-0007	A.18	46.848000	46.918000		who	who
sw2944A-ms98-a-0007	A.18	46.918000	47.008000		are	are
sw2944A-ms98-a-0007	A.18	47.008000	47.248000		making	making
sw2944A-ms98-a-0007	A.18	47.248000	47.308000		the	the
sw2944A-ms98-a-0007	A.18	47.308000	47.788000		profit	profit
sw2944A-ms98-a-0007	A.18	47.788000	47.908000		out	out
sw2944A-ms98-a-0007	A.18	47.908000	48.018000		of	of
sw2944A-ms98-a-0007	A.18	48.018000	48.188000		your	your
sw2944A-ms98-a-0007	A.20	48.188000	48.594250		[laughter]	[laughter]
sw2944A-ms98-a-0007	A.20	48.594250	48.946875		[silence]	[silence]
sw2944A-ms98-a-0008	A.20	48.946875	56.069500		[silence]	[silence]
sw2944A-ms98-a-0009	A.20	56.069500	56.559500		[silence]	[silence]
sw2944A-ms98-a-0009	A.20	56.559500	56.969500		Uh-huh	uh-huh
sw2944A-ms98-a-0009	A.22	56.969500	57.433375		[silence]	[silence]
sw2944A-ms98-a-0010	A.22	57.433375	87.424750		[silence]	[silence]
sw2944A-ms98-a-0011	A.22	87.424750	87.894750		[silence]	[silence]
sw2944A-ms98-a-0011	A.22	87.894750	88.084750		Well	well
sw2944A-ms98-a-0011	A.22	88.084750	88.183375		I	i
sw2944A-ms98-a-0011	A.22	88.183375	88.494750		guess	guess
sw2944A-ms98-a-0011	A.22	88.494750	88.633625		I	i
sw2944A-ms98-a-0011	A.22	88.633625	88.884750		guess	guess
sw2944A-ms98-a-0011	A.22	88.884750	89.074750		then	then
sw2944A-ms98-a-0011	A.22	89.074750	89.324750		it's	it's
sw2944A-ms98-a-0011	A.22	89.324750	89.534750		just	just
sw2944A-ms98-a-0011	A.22	89.534750	89.744750		the	the
sw2944A-ms98-a-0011	A.22	89.744750	89.974750		big	big
sw2944A-ms98-a-0011	A.22	89.974750	90.254750		brother	brother
sw2944A-ms98-a-0011	A.22	90.254750	90.914750		concept	concept
sw2944A-ms98-a-0011	A.22	90.914750	91.064750		of	of
sw2944A-ms98-a-0011	A.22	91.064750	91.514750		[silence]	[silence]
sw2944A-ms98-a-0011	A.22	91.514750	91.624750		the	the
sw2944A-ms98-a-0011	A.22	91.624750	91.944750		fact	fact
sw2944A-ms98-a-0011	A.24	91.944750	92.074750		that	that
sw2944A-ms98-a-0011	A.24	92.074750	92.324750		once	once
sw2944A-ms98-a-0011	A.24	92.324750	92.414750		you	you
sw2944A-ms98-a-0011	A.24	92.414750	92.584750		give	give
sw2944A-ms98-a-0011	A.24	92.584750	92.684750		your	your
sw2944A-ms98-a-0011	A.24	92.684750	93.004750		social	social
sw2944A-ms98-a-0011	A.24	93.004750	93.444750		security	security
sw2944A-ms98-a-0011	A.24	93.444750	93.714750		number	number
sw2944A-ms98-a-0011	A.24	93.714750	93.914750		there	there
sw2944A-ms98-a-0011	A.24	93.914750	94.044750		are	are
sw2944A-ms98-a-0011	A.24	94.044750	94.484750		people	people
sw2944A-ms98-a-0011	A.24	94.484750	94.554750		I	i
sw2944A-ms98-a-0011	A.24	94.554750	94.874750		guess	guess
sw2944A-ms98-a-0011	A.24	94.874750	95.044750		who	who
sw2944A-ms98-a-0011	A.24	95.044750	95.275625		are	are
sw2944A-ms98-a-0011	A.24	95.275625	95.821750		[silence]	[silence]
sw2944A-ms98-a-0011	A.24	95.821750	95.914750		who	who
sw2944A-ms98-a-0011	A.24	95.914750	96.084750		are	are
sw2944A-ms98-a-0011	A.24	96.084750	96.610625		[silence]	[silence]
sw2944A-ms98-a-0012	A.24	96.610625	97.059000		[silence]	[silence]
sw2944A-ms98-a-0012	A.24	97.059000	97.436750		uh	uh
sw2944A-ms98-a-0012	A.24	97.436750	97.691625		[silence]	[silence]
sw2944A-ms98-a-0012	A.24	97.691625	98.660625		actually	actually
sw2944A-ms98-a-0012	A.24	98.660625	99.000625		[silence]	[silence]
sw2944A-ms98-a-0012	A.24	99.000625	99.550625		collecting	collecting
sw2944A-ms98-a-0012	A.24	99.550625	99.740625		all	all
sw2944A-ms98-a-0012	A.24	99.740625	99.980625		this	this
sw2944A-ms98-a-0012	A.24	99.980625	100.120625		all	all
sw2944A-ms98-a-0012	A.24	100.120625	100.220625		the	the
sw2944A-ms98-a-0012	A.24	100.220625	100.700625		time	time
sw2944A-ms98-a-0012	A.24	100.700625	101.080625		and	and
sw2944A-ms98-a-0012	A.26	101.080625	101.320625		and	and
sw2944A-ms98-a-0012	A.26	101.320625	101.800625		profiles	profiles
sw2944A-ms98-a-0012	A.26	101.800625	101.860625		are	are
sw2944A-ms98-a-0012	A.26	101.860625	102.100625		given	given
sw2944A-ms98-a-0012	A.26	102.100625	102.170625		I	i
sw2944A-ms98-a-0012	A.26	102.170625	102.770625		understand	understand
sw2944A-ms98-a-0012	A.26	102.770625	102.910625		uh	uh
sw2944A-ms98-a-0012	A.26	102.910625	103.040625		I	i
sw2944A-ms98-a-0012	A.26	103.040625	103.280625		read	read
sw2944A-ms98-a-0012	A.26	103.280625	103.420625		the	the
sw2944A-ms98-a-0012	A.26	103.420625	103.550625		other	other
sw2944A-ms98-a-0012	A.26	103.550625	103.820625		day	day
sw2944A-ms98-a-0012	A.26	103.820625	104.124875		that	that
sw2944A-ms98-a-0012	A.26	104.124875	104.690625		[silence]	[silence]
sw2944A-ms98-a-0012	A.26	104.690625	104.900625		uh	uh
sw2944A-ms98-a-0012	A.26	104.900625	105.160625		these	these
sw2944A-ms98-a-0012	A.26	105.160625	106.450625		telemarketeers	telemarketeers
sw2944A-ms98-a-0012	A.26	106.450625	106.580625		when	when
sw2944A-ms98-a-0012	A.26	106.580625	106.910625		someone	someone
sw2944A-ms98-a-0012	A.26	106.910625	107.080625		[silence]	[silence]
sw2944A-ms98-a-0012	A.26	107.080625	107.410625		talks	talks
sw2944A-ms98-a-0012	A.26	107.410625	107.530625		to	to
sw2944A-ms98-a-0012	A.26	107.530625	107.680625		you	you
sw2944A-ms98-a-0012	A.26	107.680625	107.860625		on	on
sw2944A-ms98-a-0012	A.26	107.860625	107.920625		the	the
sw2944A-ms98-a-0012	A.26	107.920625	108.420625		phone	phone
sw2944A-ms98-a-0012	A.28	108.420625	108.734000		[silence]	[silence]
sw2944A-ms98-a-0013	A.28	108.734000	109.034000		[silence]	[silence]
sw2944A-ms98-a-0013	A.28	109.034000	109.448000		uh	uh
sw2944A-ms98-a-0013	A.28	109.448000	109.563625		[silence]	[silence]
sw2944A-ms98-a-0013	A.28	109.563625	109.932625		all	all
sw2944A-ms98-a-0013	A.28	109.932625	110.124000		all	all
sw2944A-ms98-a-0013	A.28	110.124000	110.264000		they	they
sw2944A-ms98-a-0013	A.28	110.264000	110.514000		need	need
sw2944A-ms98-a-0013	A.28	110.514000	110.974000		now	now
sw2944A-ms98-a-0013	A.28	110.974000	111.164000		is	is
sw2944A-ms98-a-0013	A.28	111.164000	111.284000		your	your
sw2944A-ms98-a-0013	A.28	111.284000	111.904000		telephone	telephone
sw2944A-ms98-a-0013	A.28	111.904000	112.204000		number	number
sw2944A-ms98-a-0013	A.28	112.204000	112.434000		which	which
sw2944A-ms98-a-0013	A.28	112.434000	112.514000		I	i
sw2944A-ms98-a-0013	A.28	112.514000	112.735250		guess	guess
sw2944A-ms98-a-0013	A.28	112.735250	112.998875		is	is
sw2944A-ms98-a-0013	A.28	112.998875	113.424000		involved	involved
sw2944A-ms98-a-0013	A.28	113.424000	113.484000		in	in
sw2944A-ms98-a-0013	A.28	113.484000	113.644000		this	this
sw2944A-ms98-a-0013	A.28	113.644000	114.364000		controversy	controversy
sw2944A-ms98-a-0013	A.28	114.364000	114.484000		of	of
sw2944A-ms98-a-0013	A.28	114.484000	114.814000		whether	whether
sw2944A-ms98-a-0013	A.28	114.814000	114.964000		they	they
sw2944A-ms98-a-0013	A.28	114.964000	115.194000		can	can
sw2944A-ms98-a-0013	A.28	115.194000	115.614000		reveal	reveal
sw2944A-ms98-a-0013	A.28	115.614000	115.764000		your	your
sw2944A-ms98-a-0013	A.28	115.764000	116.344000		telephone	telephone
sw2944A-ms98-a-0013	A.28	116.344000	116.664000		number	number
sw2944A-ms98-a-0013	A.28	116.664000	116.764000		or	or
sw2944A-ms98-a-0013	A.28	116.764000	117.064000		not	not
sw2944A-ms98-a-0013	A.30	117.064000	117.284000		[silence]	[silence]
sw2944A-ms98-a-0013	A.30	117.284000	117.446875		I	i
sw2944A-ms98-a-0013	A.30	117.446875	117.567375		[silence]	[silence]
sw2944A-ms98-a-0013	A.30	117.567375	117.734000		I	i
sw2944A-ms98-a-0013	A.30	117.734000	117.854000		I	i
sw2944A-ms98-a-0013	A.30	117.854000	118.084000		feel	feel
sw2944A-ms98-a-0013	A.30	118.084000	118.284000		that	that
sw2944A-ms98-a-0013	A.30	118.284000	118.404000		is	is
sw2944A-ms98-a-0013	A.30	118.404000	118.494000		an	an
sw2944A-ms98-a-0013	A.30	118.494000	118.884000		invasion	invasion
sw2944A-ms98-a-0013	A.30	118.884000	118.954000		of	of
sw2944A-ms98-a-0013	A.30	118.954000	119.424000		privacy	privacy
sw2944A-ms98-a-0013	A.30	119.424000	119.584000		but	but
sw2944A-ms98-a-0013	A.30	119.584000	119.714000		it	it
sw2944A-ms98-a-0013	A.32	119.714000	120.375250		[silence]	[silence]
sw2944A-ms98-a-0014	A.32	120.375250	126.260125		[silence]	[silence]
sw2944A-ms98-a-0015	A.32	126.260125	126.730875		[silence]	[silence]
sw2944A-ms98-a-0015	A.32	126.730875	127.100000		Yeah	yeah
sw2944A-ms98-a-0015	A.34	127.100000	127.579750		[silence]	[silence]
sw2944A-ms98-a-0016	A.34	127.579750	150.671625		[silence]	[silence]
sw2944A-ms98-a-0017	A.34	150.671625	151.161625		[silence]	[silence]
sw2944A-ms98-a-0017	A.34	151.161625	151.488125		Yeah	yeah
sw2944A-ms98-a-0017	A.34	151.488125	151.682375		[silence]	[silence]
sw2944A-ms98-a-0017	A.34	151.682375	152.401625		exactly	exactly
sw2944A-ms98-a-0017	A.36	152.401625	152.869875		[silence]	[silence]
sw2944A-ms98-a-0018	A.36	152.869875	156.447250		[silence]	[silence]
sw2944A-ms98-a-0019	A.36	156.447250	156.947250		[silence]	[silence]
sw2944A-ms98-a-0019	A.36	156.947250	157.303375		Yeah	yeah
sw2944A-ms98-a-0019	A.38	157.303375	157.755625		[silence]	[silence]
sw2944A-ms98-a-0020	A.38	157.755625	161.699875		[silence]	[silence]
sw2944A-ms98-a-0021	A.38	161.699875	162.169875		[silence]	[silence]
sw2944A-ms98-a-0021	A.38	162.169875	162.397500		My	my
sw2944A-ms98-a-0021	A.38	162.397500	162.905500		God	God
sw2944A-ms98-a-0021	A.40	162.905500	163.399000		[silence]	[silence]
sw2944A-ms98-a-0022	A.40	163.399000	166.548125		[silence]	[silence]
sw2944A-ms98-a-0023	A.40	166.548125	167.028125		[silence]	[silence]
sw2944A-ms98-a-0023	A.40	167.028125	167.355000		Yeah	yeah
sw2944A-ms98-a-0023	A.42	167.355000	167.845125		[silence]	[silence]
sw2944A-ms98-a-0024	A.42	167.845125	172.512250		[silence]	[silence]
sw2944A-ms98-a-0025	A.42	172.512250	172.982250		[silence]	[silence]
sw2944A-ms98-a-0025	A.42	172.982250	173.373375		Yeah	yeah
sw2944A-ms98-a-0025	A.42	173.373375	173.670500		I	i
sw2944A-ms98-a-0025	A.42	173.670500	173.870125		[silence]	[silence]
sw2944A-ms98-a-0025	A.42	173.870125	174.027125		I	i
sw2944A-ms98-a-0025	A.42	174.027125	174.192250		have	have
sw2944A-ms98-a-0025	A.42	174.192250	174.302250		a	a
sw2944A-ms98-a-0025	A.42	174.302250	175.231375		particular	particular
sw2944A-ms98-a-0025	A.42	175.231375	175.647375		[silence]	[silence]
sw2944A-ms98-a-0025	A.42	175.647375	176.212250		subject	subject
sw2944A-ms98-a-0025	A.42	176.212250	176.422250		that	that
sw2944A-ms98-a-0025	A.42	176.422250	176.632250		not	not
sw2944A-ms98-a-0025	A.42	176.632250	177.062250		everyone	everyone
sw2944A-ms98-a-0025	A.42	177.062250	177.412250		agrees	agrees
sw2944A-ms98-a-0025	A.42	177.412250	177.558125		with	with
sw2944A-ms98-a-0025	A.42	177.558125	177.881375		me	me
sw2944A-ms98-a-0025	A.42	177.881375	178.329750		uh	uh
sw2944A-ms98-a-0025	A.44	178.329750	178.708000		[silence]	[silence]
sw2944A-ms98-a-0026	A.44	178.708000	179.088000		[silence]	[silence]
sw2944A-ms98-a-0026	A.44	179.088000	179.338000		uh	uh
sw2944A-ms98-a-0026	A.44	179.338000	179.738000		well	well
sw2944A-ms98-a-0026	A.44	179.738000	180.054375		by	by
sw2944A-ms98-a-0026	A.44	180.054375	180.318125		[silence]	[silence]
sw2944A-ms98-a-0026	A.44	180.318125	180.448000	<SUB>	b-	by
sw2944A-ms98-a-0026	A.44	180.448000	180.518000		uh	uh
sw2944A-ms98-a-0026	A.44	180.518000	180.808000		I	i
sw2944A-ms98-a-0026	A.44	180.808000	181.048000		make	make
sw2944A-ms98-a-0026	A.44	181.048000	181.168000		my	my
sw2944A-ms98-a-0026	A.44	181.168000	181.488000		living	living
sw2944A-ms98-a-0026	A.44	181.488000	181.818000		by	by
sw2944A-ms98-a-0026	A.44	181.818000	181.918000		uh	uh
sw2944A-ms98-a-0026	A.44	181.918000	182.368000		flying	flying
sw2944A-ms98-a-0026	A.44	182.368000	182.878000		airplanes	airplanes
sw2944A-ms98-a-0026	A.44	182.878000	183.419625		for	for
sw2944A-ms98-a-0026	A.46	183.419625	183.551500		[silence]	[silence]
sw2944A-ms98-a-0026	A.46	183.551500	183.768000		for	for
sw2944A-ms98-a-0026	A.46	183.768000	183.828000		a	a
sw2944A-ms98-a-0026	A.46	183.828000	184.299875		company	company
sw2944A-ms98-a-0026	A.48	184.299875	184.868625		[silence]	[silence]
sw2944A-ms98-a-0026	A.48	184.868625	185.288000		And	and
sw2944A-ms98-a-0026	A.48	185.288000	185.449375		uh	uh
sw2944A-ms98-a-0026	A.48	185.449375	185.660375		[silence]	[silence]
sw2944A-ms98-a-0026	A.48	185.660375	186.088000		as	as
sw2944A-ms98-a-0026	A.48	186.088000	186.418000		a	a
sw2944A-ms98-a-0026	A.48	186.418000	186.658000		as	as
sw2944A-ms98-a-0026	A.48	186.658000	186.923500		a	a
sw2944A-ms98-a-0026	A.48	186.923500	187.149500		uh	uh
sw2944A-ms98-a-0026	A.48	187.149500	187.353625		an	an
sw2944A-ms98-a-0026	A.48	187.353625	187.718000		airline	airline
sw2944A-ms98-a-0026	A.48	187.718000	188.108000		pilot	pilot
sw2944A-ms98-a-0026	A.48	188.108000	188.278000		I	i
sw2944A-ms98-a-0026	A.48	188.278000	188.428000		have	have
sw2944A-ms98-a-0026	A.48	188.428000	188.558000		to	to
sw2944A-ms98-a-0026	A.48	188.558000	188.818000		take	take
sw2944A-ms98-a-0026	A.48	188.818000	189.188000		random	random
sw2944A-ms98-a-0026	A.48	189.188000	189.488000		drug	drug
sw2944A-ms98-a-0026	A.48	189.488000	189.988000		testing	testing
sw2944A-ms98-a-0026	A.50	189.988000	190.305000		[silence]	[silence]
sw2944A-ms98-a-0027	A.50	190.305000	190.635000		[silence]	[silence]
sw2944A-ms98-a-0027	A.50	190.635000	190.764125		I	i
sw2944A-ms98-a-0027	A.50	190.764125	190.885000		mean	mean
sw2944A-ms98-a-0027	A.50	190.885000	190.975000		it	it
sw2944A-ms98-a-0027	A.50	190.975000	191.345000		seems	seems
sw2944A-ms98-a-0027	A.50	191.345000	191.465000		to	to
sw2944A-ms98-a-0027	A.50	191.465000	191.605000		me	me
sw2944A-ms98-a-0027	A.50	191.605000	191.685000		the	the
sw2944A-ms98-a-0027	A.50	191.685000	192.105000		public	public
sw2944A-ms98-a-0027	A.50	192.105000	192.855375		outcry	outcry
sw2944A-ms98-a-0027	A.50	192.855375	193.040000		[silence]	[silence]
sw2944A-ms98-a-0027	A.50	193.040000	193.305000		was	was
sw2944A-ms98-a-0027	A.50	193.305000	193.605000		for	for
sw2944A-ms98-a-0027	A.50	193.605000	193.825000		that	that
sw2944A-ms98-a-0027	A.50	193.825000	193.945000		at	at
sw2944A-ms98-a-0027	A.50	193.945000	194.035000		the	the
sw2944A-ms98-a-0027	A.50	194.035000	194.489750		time	time
sw2944A-ms98-a-0027	A.50	194.489750	194.885250		[silence]	[silence]
sw2944A-ms98-a-0027	A.50	194.885250	195.125000		so	so
sw2944A-ms98-a-0027	A.50	195.125000	195.461500		I	i
sw2944A-ms98-a-0027	A.50	195.461500	195.634750		when	when
sw2944A-ms98-a-0027	A.50	195.634750	195.998375		I	i
sw2944A-ms98-a-0027	A.50	195.998375	196.395000		finish	finish
sw2944A-ms98-a-0027	A.50	196.395000	196.725750		a	a
sw2944A-ms98-a-0027	A.50	196.725750	196.944250		a	a
sw2944A-ms98-a-0027	A.50	196.944250	197.215000		certain	certain
sw2944A-ms98-a-0027	A.50	197.215000	197.515000		flight	flight
sw2944A-ms98-a-0027	A.50	197.515000	197.665000		on	on
sw2944A-ms98-a-0027	A.50	197.665000	197.755000		a	a
sw2944A-ms98-a-0027	A.50	197.755000	198.265000		random	random
sw2944A-ms98-a-0027	A.50	198.265000	198.785000		basis	basis
sw2944A-ms98-a-0027	A.50	198.785000	198.945000		I	i
sw2944A-ms98-a-0027	A.50	198.945000	199.275000		have	have
sw2944A-ms98-a-0027	A.50	199.275000	199.793250		to	to
sw2944A-ms98-a-0027	A.52	199.793250	200.076000		[silence]	[silence]
sw2944A-ms98-a-0028	A.52	200.076000	200.302250		[silence]	[silence]
sw2944A-ms98-a-0028	A.52	200.302250	200.663125		uh	uh
sw2944A-ms98-a-0028	A.52	200.663125	200.976000		have	have
sw2944A-ms98-a-0028	A.52	200.976000	201.076000		a	a
sw2944A-ms98-a-0028	A.52	201.076000	201.296000		wri-	wri[tten]-
sw2944A-ms98-a-0028	A.52	201.296000	201.486000		a	a
sw2944A-ms98-a-0028	A.52	201.486000	201.746000		drug	drug
sw2944A-ms98-a-0028	A.52	201.746000	202.126000		test	test
sw2944A-ms98-a-0028	A.52	202.126000	202.436000		and	and
sw2944A-ms98-a-0028	A.52	202.436000	202.806000		and	and
sw2944A-ms98-a-0028	A.52	202.806000	202.996000		and	and
sw2944A-ms98-a-0028	A.52	202.996000	203.236000		that's	that's
sw2944A-ms98-a-0028	A.52	203.236000	203.556125		without	without
sw2944A-ms98-a-0028	A.52	203.556125	203.714875		[silence]	[silence]
sw2944A-ms98-a-0028	A.52	203.714875	204.004875	<SUB>	i-	i
sw2944A-ms98-a-0028	A.52	204.004875	204.236000		uh	uh
sw2944A-ms98-a-0028	A.52	204.236000	204.736000		probably	probably
sw2944A-ms98-a-0028	A.52	204.736000	205.390625		cause	cause
sw2944A-ms98-a-0028	A.54	205.390625	205.671625		[silence]	[silence]
sw2944A-ms98-a-0029	A.54	205.671625	205.861625		[silence]	[silence]
sw2944A-ms98-a-0029	A.54	205.861625	206.301625		and	and
sw2944A-ms98-a-0029	A.54	206.301625	206.649875		uh	uh
sw2944A-ms98-a-0029	A.54	206.649875	206.971000		[silence]	[silence]
sw2944A-ms98-a-0029	A.54	206.971000	207.220500	<SUB>	a-	a
sw2944A-ms98-a-0029	A.54	207.220500	207.371125		and	and
sw2944A-ms98-a-0029	A.56	207.371125	207.621625		in	in
sw2944A-ms98-a-0029	A.56	207.621625	207.681625		the	the
sw2944A-ms98-a-0029	A.56	207.681625	208.001625		end	end
sw2944A-ms98-a-0029	A.56	208.001625	208.331625		now	now
sw2944A-ms98-a-0029	A.56	208.331625	208.451625		I	i
sw2944A-ms98-a-0029	A.56	208.451625	208.591625		mean	mean
sw2944A-ms98-a-0029	A.56	208.591625	208.791625		they've	they've
sw2944A-ms98-a-0029	A.56	208.791625	209.371625		tested	tested
sw2944A-ms98-a-0029	A.56	209.371625	209.551625		they've	they've
sw2944A-ms98-a-0029	A.56	209.551625	209.861625		spent	spent
sw2944A-ms98-a-0029	A.56	209.861625	210.161625		forty	forty
sw2944A-ms98-a-0029	A.56	210.161625	210.411625		million	million
sw2944A-ms98-a-0029	A.56	210.411625	210.931625		dollars	dollars
sw2944A-ms98-a-0029	A.56	210.931625	211.111625		and	and
sw2944A-ms98-a-0029	A.56	211.111625	211.281625		they've	they've
sw2944A-ms98-a-0029	A.56	211.281625	211.861625		found	found
sw2944A-ms98-a-0029	A.56	211.861625	212.103000		uh	uh
sw2944A-ms98-a-0029	A.56	212.103000	212.633375		[silence]	[silence]
sw2944A-ms98-a-0029	A.56	212.633375	212.806625		I	i
sw2944A-ms98-a-0029	A.56	212.806625	213.201625		think	think
sw2944A-ms98-a-0029	A.56	213.201625	213.511625		uh	uh
sw2944A-ms98-a-0029	A.56	213.511625	213.741625		in	in
sw2944A-ms98-a-0029	A.56	213.741625	214.191625		pilots	pilots
sw2944A-ms98-a-0029	A.56	214.191625	214.671625		anyway	anyway
sw2944A-ms98-a-0029	A.56	214.671625	215.241625		of	of
sw2944A-ms98-a-0029	A.56	215.241625	215.591625		something	something
sw2944A-ms98-a-0029	A.56	215.591625	215.931625		like	like
sw2944A-ms98-a-0029	A.56	215.931625	216.166125		uh	uh
sw2944A-ms98-a-0029	A.56	216.166125	216.465000		[silence]	[silence]
sw2944A-ms98-a-0030	A.56	216.465000	216.755000		[silence]	[silence]
sw2944A-ms98-a-0030	A.56	216.755000	217.278000		uh	uh
sw2944A-ms98-a-0030	A.56	217.278000	217.385750		[silence]	[silence]
sw2944A-ms98-a-0030	A.56	217.385750	217.695000	<CONT>	eighty-six	eighty
sw2944A-ms98-a-0030	A.56	217.695000	218.055000	<CONT>	+++	six
sw2944A-ms98-a-0030	A.56	218.055000	218.555000		thousand	thousand
sw2944A-ms98-a-0030	A.56	218.555000	218.885000		tests	tests
sw2944A-ms98-a-0030	A.56	218.885000	219.045000		there's	there's
sw2944A-ms98-a-0030	A.56	219.045000	219.265000		only	only
sw2944A-ms98-a-0030	A.56	219.265000	219.435000		been	been
sw2944A-ms98-a-0030	A.56	219.435000	219.645000		two	two
sw2944A-ms98-a-0030	A.56	219.645000	219.955000		guys	guys
sw2944A-ms98-a-0030	A.56	219.955000	220.095000		have	have
sw2944A-ms98-a-0030	A.56	220.095000	220.385000		come	come
sw2944A-ms98-a-0030	A.56	220.385000	220.510500		up	up
sw2944A-ms98-a-0030	A.56	220.510500	220.845750		[silence]	[silence]
sw2944A-ms98-a-0030	A.56	220.845750	220.995000		uh	uh
sw2944A-ms98-a-0030	A.56	220.995000	221.225000		three	three
sw2944A-ms98-a-0030	A.56	221.225000	221.465000		guys	guys
sw2944A-ms98-a-0030	A.56	221.465000	221.565000		have	have
sw2944A-ms98-a-0030	A.56	221.565000	221.765000		come	come
sw2944A-ms98-a-0030	A.56	221.765000	221.925000		up	up
sw2944A-ms98-a-0030	A.56	221.925000	222.675000		positive	positive
sw2944A-ms98-a-0030	A.56	222.675000	222.895000		and	and
sw2944A-ms98-a-0030	A.56	222.895000	223.035000		one	one
sw2944A-ms98-a-0030	A.56	223.035000	223.115000		of	of
sw2944A-ms98-a-0030	A.56	223.115000	223.325000		them	them
sw2944A-ms98-a-0030	A.56	223.325000	223.525000		was	was
sw2944A-ms98-a-0030	A.56	223.525000	223.595000		a	a
sw2944A-ms98-a-0030	A.56	223.595000	223.855000		bad	bad
sw2944A-ms98-a-0030	A.56	223.855000	224.255000		test	test
sw2944A-ms98-a-0030	A.56	224.255000	224.430750		so	so
sw2944A-ms98-a-0030	A.58	224.430750	224.991375		[silence]	[silence]
sw2944A-ms98-a-0031	A.58	224.991375	227.605875		[silence]	[silence]
sw2944A-ms98-a-0032	A.58	227.605875	228.085875		[silence]	[silence]
sw2944A-ms98-a-0032	A.58	228.085875	228.388125		Yeah	yeah
sw2944A-ms98-a-0032	A.60	228.388125	228.877750		[silence]	[silence]
sw2944A-ms98-a-0033	A.60	228.877750	230.419750		[silence]	[silence]
sw2944A-ms98-a-0034	A.60	230.419750	230.909750		[silence]	[silence]
sw2944A-ms98-a-0034	A.60	230.909750	231.240625		Yeah	yeah
sw2944A-ms98-a-0034	A.62	231.240625	231.732375		[silence]	[silence]
sw2944A-ms98-a-0035	A.62	231.732375	234.658875		[silence]	[silence]
sw2944A-ms98-a-0036	A.62	234.658875	235.098875		[silence]	[silence]
sw2944A-ms98-a-0036	A.62	235.098875	235.378875		Drug	drug
sw2944A-ms98-a-0036	A.62	235.378875	235.778875		test	test
sw2944A-ms98-a-0036	A.62	235.778875	235.970875	<SUB>	righ-	right
sw2944A-ms98-a-0036	A.64	235.970875	236.439875		[silence]	[silence]
sw2944A-ms98-a-0037	A.64	236.439875	242.946500		[silence]	[silence]
sw2944A-ms98-a-0038	A.64	242.946500	243.416500		[silence]	[silence]
sw2944A-ms98-a-0038	A.64	243.416500	243.694000		Yeah	yeah
sw2944A-ms98-a-0038	A.66	243.694000	244.179250		[silence]	[silence]
sw2944A-ms98-a-0039	A.66	244.179250	250.781625		[silence]	[silence]
sw2944A-ms98-a-0040	A.66	250.781625	251.271625		[silence]	[silence]
sw2944A-ms98-a-0040	A.66	251.271625	251.481625		Yeah	yeah
sw2944A-ms98-a-0040	A.66	251.481625	251.794500		right	right
sw2944A-ms98-a-0040	A.68	251.794500	252.258000		[silence]	[silence]
sw2944A-ms98-a-0041	A.68	252.258000	255.474250		[silence]	[silence]
sw2944A-ms98-a-0042	A.68	255.474250	255.974250		[silence]	[silence]
sw2944A-ms98-a-0042	A.68	255.974250	256.264250		Yes	yes
sw2944A-ms98-a-0042	A.68	256.264250	256.334250		I	i
sw2944A-ms98-a-0042	A.68	256.334250	256.704250		am	am
sw2944A-ms98-a-0042	A.70	256.704250	257.115375		[silence]	[silence]
sw2944A-ms98-a-0043	A.70	257.115375	265.880875		[silence]	[silence]
sw2944A-ms98-a-0044	A.70	265.880875	266.380875		[silence]	[silence]
sw2944A-ms98-a-0044	A.70	266.380875	266.789625		Yeah	yeah
sw2944A-ms98-a-0044	A.72	266.789625	267.248125		[silence]	[silence]
sw2944A-ms98-a-0045	A.72	267.248125	289.904625		[silence]	[silence]
sw2944A-ms98-a-0046	A.72	289.904625	290.384625		[silence]	[silence]
sw2944A-ms98-a-0046	A.72	290.384625	290.634625		Yeah	yeah
sw2944A-ms98-a-0046	A.72	290.634625	290.864625		I	i
sw2944A-ms98-a-0046	A.72	290.864625	290.974625		I	i
sw2944A-ms98-a-0046	A.72	290.974625	291.184625		can	can
sw2944A-ms98-a-0046	A.72	291.184625	291.604625		understand	understand
sw2944A-ms98-a-0046	A.72	291.604625	291.664625		the	the
sw2944A-ms98-a-0046	A.72	291.664625	292.104625		public's	public's
sw2944A-ms98-a-0046	A.72	292.104625	292.504625		alarm	alarm
sw2944A-ms98-a-0046	A.72	292.504625	292.644625		to	to
sw2944A-ms98-a-0046	A.72	292.644625	292.864625		it	it
sw2944A-ms98-a-0046	A.74	292.864625	293.054625		but	but
sw2944A-ms98-a-0046	A.74	293.054625	293.154625		I	i
sw2944A-ms98-a-0046	A.74	293.154625	293.524625		guess	guess
sw2944A-ms98-a-0046	A.74	293.524625	293.904625		[silence]	[silence]
sw2944A-ms98-a-0046	A.74	293.904625	294.264625		having	having
sw2944A-ms98-a-0046	A.74	294.264625	294.474625		done	done
sw2944A-ms98-a-0046	A.74	294.474625	294.694625		this	this
sw2944A-ms98-a-0046	A.74	294.694625	294.844625		all	all
sw2944A-ms98-a-0046	A.74	294.844625	295.024625		my	my
sw2944A-ms98-a-0046	A.74	295.024625	295.344625		life	life
sw2944A-ms98-a-0046	A.74	295.344625	295.544625		I	i
sw2944A-ms98-a-0046	A.74	295.544625	295.764625		knew	knew
sw2944A-ms98-a-0046	A.74	295.764625	295.904625		that	that
sw2944A-ms98-a-0046	A.74	295.904625	296.074625		there	there
sw2944A-ms98-a-0046	A.74	296.074625	296.404625		wasn't	wasn't
sw2944A-ms98-a-0046	A.74	296.404625	296.454625		a	a
sw2944A-ms98-a-0046	A.74	296.454625	296.984625		problem	problem
sw2944A-ms98-a-0046	A.74	296.984625	297.354625		and	and
sw2944A-ms98-a-0046	A.74	297.354625	297.514625		and	and
sw2944A-ms98-a-0046	A.74	297.514625	297.704625		it	it
sw2944A-ms98-a-0046	A.74	297.704625	298.124625		indeed	indeed
sw2944A-ms98-a-0046	A.74	298.124625	298.224625		it	it
sw2944A-ms98-a-0046	A.74	298.224625	298.594625		has	has
sw2944A-ms98-a-0046	A.74	298.594625	299.294625		proved	proved
sw2944A-ms98-a-0046	A.74	299.294625	299.504625		out	out
sw2944A-ms98-a-0046	A.74	299.504625	299.664625		that	that
sw2944A-ms98-a-0046	A.74	299.664625	299.774625		way	way
sw2944A-ms98-a-0046	A.74	299.774625	299.954625		but	but
sw2944A-ms98-a-0046	A.74	299.954625	300.214625		now	now
sw2944A-ms98-a-0046	A.74	300.214625	300.524625		try	try
sw2944A-ms98-a-0046	A.74	300.524625	300.624625		to	to
sw2944A-ms98-a-0046	A.74	300.624625	300.814625		get	get
sw2944A-ms98-a-0046	A.74	300.814625	300.894625		the	the
sw2944A-ms98-a-0046	A.74	300.894625	301.154625		damn	damn
sw2944A-ms98-a-0046	A.74	301.154625	301.474625		thing	thing
sw2944A-ms98-a-0046	A.74	301.474625	302.024625		repealed	repealed
sw2944A-ms98-a-0046	A.74	302.024625	302.114625		[silence]	[silence]
sw2944A-ms98-a-0046	A.74	302.114625	302.194625		you	you
sw2944A-ms98-a-0046	A.74	302.194625	302.364625		know	know
sw2944A-ms98-a-0046	A.76	302.364625	303.269375		[silence]	[silence]
sw2944A-ms98-a-0047	A.76	303.269375	303.629375		[silence]	[silence]
sw2944A-ms98-a-0047	A.76	303.629375	303.759375		I	i
sw2944A-ms98-a-0047	A.76	303.759375	303.989375		guess	guess
sw2944A-ms98-a-0047	A.76	303.989375	304.079375		I	i
sw2944A-ms98-a-0047	A.76	304.079375	304.379375		feel	feel
sw2944A-ms98-a-0047	A.76	304.379375	304.699375		bad	bad
sw2944A-ms98-a-0047	A.76	304.699375	305.290875		because	because
sw2944A-ms98-a-0047	A.76	305.290875	305.452875		[silence]	[silence]
sw2944A-ms98-a-0047	A.76	305.452875	305.874750		uh	uh
sw2944A-ms98-a-0047	A.76	305.874750	306.066750		[silence]	[silence]
sw2944A-ms98-a-0047	A.76	306.066750	306.249375		not	not
sw2944A-ms98-a-0047	A.76	306.249375	306.469375		only	only
sw2944A-ms98-a-0047	A.76	306.469375	306.759375		that	that
sw2944A-ms98-a-0047	A.76	306.759375	306.909375		but	but
sw2944A-ms98-a-0047	A.76	306.909375	307.029375		in	in
sw2944A-ms98-a-0047	A.76	307.029375	307.229375		some	some
sw2944A-ms98-a-0047	A.76	307.229375	307.299375		of	of
sw2944A-ms98-a-0047	A.76	307.299375	307.359375		the	the
sw2944A-ms98-a-0047	A.76	307.359375	307.939375		instances	instances
sw2944A-ms98-a-0047	A.76	307.939375	308.149375		like	like
sw2944A-ms98-a-0047	A.76	308.149375	308.239375		you	you
sw2944A-ms98-a-0047	A.76	308.239375	308.469375		just	just
sw2944A-ms98-a-0047	A.76	308.469375	308.849375		cited	cited
sw2944A-ms98-a-0047	A.76	308.849375	308.969375		where	where
sw2944A-ms98-a-0047	A.76	308.969375	309.089375		you	you
sw2944A-ms98-a-0047	A.76	309.089375	309.269375		have	have
sw2944A-ms98-a-0047	A.76	309.269375	309.389375		to	to
sw2944A-ms98-a-0047	A.76	309.389375	309.559375		give	give
sw2944A-ms98-a-0047	A.76	309.559375	309.689375		your	your
sw2944A-ms98-a-0047	A.76	309.689375	310.289375		fingerprints	fingerprints
sw2944A-ms98-a-0047	A.76	310.289375	310.329375		I	i
sw2944A-ms98-a-0047	A.76	310.329375	310.479375		mean	mean
sw2944A-ms98-a-0047	A.76	310.479375	310.899375		[silence]	[silence]
sw2944A-ms98-a-0047	A.76	310.899375	311.059375	<SUB>	wha-	what
sw2944A-ms98-a-0047	A.76	311.059375	311.289375		what	what
sw2944A-ms98-a-0047	A.76	311.289375	311.439375		what	what
sw2944A-ms98-a-0047	A.76	311.439375	311.829375		happens	happens
sw2944A-ms98-a-0047	A.76	311.829375	311.929375		if	if
sw2944A-ms98-a-0047	A.76	311.929375	312.019375		you	you
sw2944A-ms98-a-0047	A.76	312.019375	312.269375		say	say
sw2944A-ms98-a-0047	A.76	312.269375	312.519375		no	no
sw2944A-ms98-a-0047	A.76	312.519375	312.679375		If	If
sw2944A-ms98-a-0047	A.76	312.679375	312.769375		you	you
sw2944A-ms98-a-0047	A.76	312.769375	313.039375		say	say
sw2944A-ms98-a-0047	A.76	313.039375	313.399375		no	no
sw2944A-ms98-a-0047	A.76	313.399375	313.619375		then	then
sw2944A-ms98-a-0047	A.76	313.619375	313.909375		you're	you're
sw2944A-ms98-a-0047	A.76	313.909375	314.479375		excluded	excluded
sw2944A-ms98-a-0047	A.76	314.479375	314.649375		and	and
sw2944A-ms98-a-0047	A.76	314.649375	314.769375		I	i
sw2944A-ms98-a-0047	A.76	314.769375	315.199375		doesn't	doesn't
sw2944A-ms98-a-0047	A.76	315.199375	315.499375		seem	seem
sw2944A-ms98-a-0047	A.76	315.499375	315.559375		the	the
sw2944A-ms98-a-0047	A.76	315.559375	316.426375		courts	courts
sw2944A-ms98-a-0047	A.78	316.426375	317.191875		[silence]	[silence]
sw2944A-ms98-a-0048	A.78	317.191875	317.961875		[silence]	[silence]
sw2944A-ms98-a-0048	A.78	317.961875	318.283375		Yeah	yeah
sw2944A-ms98-a-0048	A.80	318.283375	318.778750		[silence]	[silence]
sw2944A-ms98-a-0049	A.80	318.778750	322.836375		[silence]	[silence]
sw2944A-ms98-a-0050	A.80	322.836375	323.306375		[silence]	[silence]
sw2944A-ms98-a-0050	A.80	323.306375	323.596375		That's	that's
sw2944A-ms98-a-0050	A.80	323.596375	323.904250		right	right
sw2944A-ms98-a-0050	A.82	323.904250	324.375125		[silence]	[silence]
sw2944A-ms98-a-0051	A.82	324.375125	325.562750		[silence]	[silence]
sw2944A-ms98-a-0052	A.82	325.562750	326.042750		[silence]	[silence]
sw2944A-ms98-a-0052	A.82	326.042750	326.272750		It's	it's
sw2944A-ms98-a-0052	A.82	326.272750	326.442750		my	my
sw2944A-ms98-a-0052	A.82	326.442750	326.812750		feeling	feeling
sw2944A-ms98-a-0052	A.82	326.812750	327.202750		also	also
sw2944A-ms98-a-0052	A.82	327.202750	327.652750		that	that
sw2944A-ms98-a-0052	A.82	327.652750	327.852750		that	that
sw2944A-ms98-a-0052	A.82	327.852750	328.302750		[silence]	[silence]
sw2944A-ms98-a-0052	A.82	328.302750	328.650375		that	that
sw2944A-ms98-a-0052	A.82	328.650375	328.831250		[silence]	[silence]
sw2944A-ms98-a-0052	A.82	328.831250	329.392750		although	although
sw2944A-ms98-a-0052	A.82	329.392750	329.502750		I	i
sw2944A-ms98-a-0052	A.82	329.502750	329.832750		I	i
sw2944A-ms98-a-0052	A.82	329.832750	330.022750		don't	don't
sw2944A-ms98-a-0052	A.82	330.022750	330.322750		know	know
sw2944A-ms98-a-0052	A.82	330.322750	330.502750		if	if
sw2944A-ms98-a-0052	A.82	330.502750	330.702750		it's	it's
sw2944A-ms98-a-0052	A.82	330.702750	330.892750		that	that
sw2944A-ms98-a-0052	A.82	330.892750	331.472750		serious	serious
sw2944A-ms98-a-0052	A.82	331.472750	331.642750		i-	i-
sw2944A-ms98-a-0052	A.82	331.642750	331.822750		but	but
sw2944A-ms98-a-0052	A.82	331.822750	331.972750		that	that
sw2944A-ms98-a-0052	A.82	331.972750	332.112750		was	was
sw2944A-ms98-a-0052	A.82	332.112750	332.322750		part	part
sw2944A-ms98-a-0052	A.82	332.322750	332.377125		of	of
sw2944A-ms98-a-0052	A.82	332.377125	332.483500		the	the
sw2944A-ms98-a-0052	A.82	332.483500	333.012750		question	question
sw2944A-ms98-a-0052	A.84	333.012750	333.306625		[silence]	[silence]
sw2944A-ms98-a-0053	A.84	333.306625	333.426625		[silence]	[silence]
sw2944A-ms98-a-0053	A.84	333.426625	333.577625		I	i
sw2944A-ms98-a-0053	A.84	333.577625	333.776625		do	do
sw2944A-ms98-a-0053	A.84	333.776625	333.976625		feel	feel
sw2944A-ms98-a-0053	A.84	333.976625	334.056625		the	the
sw2944A-ms98-a-0053	A.84	334.056625	334.476625		courts	courts
sw2944A-ms98-a-0053	A.84	334.476625	334.776625		have	have
sw2944A-ms98-a-0053	A.84	334.776625	334.896625		[silence]	[silence]
sw2944A-ms98-a-0053	A.84	334.896625	335.106625		have	have
sw2944A-ms98-a-0053	A.84	335.106625	335.436625		held	held
sw2944A-ms98-a-0053	A.84	335.436625	335.626625		up	up
sw2944A-ms98-a-0053	A.84	335.626625	335.686625		a	a
sw2944A-ms98-a-0053	A.84	335.686625	336.056625		great	great
sw2944A-ms98-a-0053	A.84	336.056625	336.326625		deal	deal
sw2944A-ms98-a-0053	A.84	336.326625	336.453500		of	of
sw2944A-ms98-a-0053	A.84	336.453500	337.007125		[silence]	[silence]
sw2944A-ms98-a-0053	A.84	337.007125	337.176625		of	of
sw2944A-ms98-a-0053	A.84	337.176625	337.346625		our	our
sw2944A-ms98-a-0053	A.84	337.346625	338.226625		privacy	privacy
sw2944A-ms98-a-0053	A.84	338.226625	338.276625		I	i
sw2944A-ms98-a-0053	A.84	338.276625	338.446625		mean	mean
sw2944A-ms98-a-0053	A.84	338.446625	338.946625		particularly	particularly
sw2944A-ms98-a-0053	A.84	338.946625	339.066625		look	look
sw2944A-ms98-a-0053	A.84	339.066625	339.256625		in	in
sw2944A-ms98-a-0053	A.84	339.256625	339.416625		in	in
sw2944A-ms98-a-0053	A.84	339.416625	339.666625		some	some
sw2944A-ms98-a-0053	A.84	339.666625	339.746625		of	of
sw2944A-ms98-a-0053	A.84	339.746625	340.088750		the	the
sw2944A-ms98-a-0053	A.84	340.088750	340.239375		in	in
sw2944A-ms98-a-0053	A.84	340.239375	340.566625		some	some
sw2944A-ms98-a-0053	A.84	340.566625	340.736625		of	of
sw2944A-ms98-a-0053	A.84	340.736625	341.056625		the	the
sw2944A-ms98-a-0053	A.86	341.056625	341.300125		[silence]	[silence]
sw2944A-ms98-a-0054	A.86	341.300125	341.570125		[silence]	[silence]
sw2944A-ms98-a-0054	A.86	341.570125	342.030125		uh	uh
sw2944A-ms98-a-0054	A.86	342.030125	342.160125		I	i
sw2944A-ms98-a-0054	A.86	342.160125	342.430125		notice	notice
sw2944A-ms98-a-0054	A.86	342.430125	342.500125		in	in
sw2944A-ms98-a-0054	A.86	342.500125	342.660125		some	some
sw2944A-ms98-a-0054	A.86	342.660125	342.720125		of	of
sw2944A-ms98-a-0054	A.86	342.720125	342.780125		the	the
sw2944A-ms98-a-0054	A.86	342.780125	343.310125		sexual	sexual
sw2944A-ms98-a-0054	A.86	343.310125	343.860125		cases	cases
sw2944A-ms98-a-0054	A.86	343.860125	344.040125		they've	they've
sw2944A-ms98-a-0054	A.86	344.040125	344.260125		held	held
sw2944A-ms98-a-0054	A.86	344.260125	344.330125		up	up
sw2944A-ms98-a-0054	A.86	344.330125	344.390125		a	a
sw2944A-ms98-a-0054	A.86	344.390125	344.690125		great	great
sw2944A-ms98-a-0054	A.86	344.690125	344.850125		deal	deal
sw2944A-ms98-a-0054	A.86	344.850125	344.910125		of	of
sw2944A-ms98-a-0054	A.86	344.910125	345.410125		privacy	privacy
sw2944A-ms98-a-0054	A.88	345.410125	345.610125		which	which
sw2944A-ms98-a-0054	A.88	345.610125	345.780125		I	i
sw2944A-ms98-a-0054	A.88	345.780125	346.310125		support	support
sw2944A-ms98-a-0054	A.88	346.310125	346.370125		of	of
sw2944A-ms98-a-0054	A.88	346.370125	346.704500		course	course
sw2944A-ms98-a-0054	A.88	346.704500	347.084875		[silence]	[silence]
sw2944A-ms98-a-0054	A.88	347.084875	347.270125		but	but
sw2944A-ms98-a-0054	A.88	347.270125	347.470125		it	it
sw2944A-ms98-a-0054	A.88	347.470125	347.590125		I	i
sw2944A-ms98-a-0054	A.88	347.590125	347.870125		guess	guess
sw2944A-ms98-a-0054	A.88	347.870125	348.070125		with	with
sw2944A-ms98-a-0054	A.88	348.070125	348.200125		our	our
sw2944A-ms98-a-0054	A.88	348.200125	348.520125		fear	fear
sw2944A-ms98-a-0054	A.88	348.520125	348.680125		with	with
sw2944A-ms98-a-0054	A.88	348.680125	349.210125		crime	crime
sw2944A-ms98-a-0054	A.88	349.210125	349.336125		and	and
sw2944A-ms98-a-0054	A.88	349.336125	349.678875		maybe	maybe
sw2944A-ms98-a-0054	A.88	349.678875	350.030125		airline	airline
sw2944A-ms98-a-0054	A.88	350.030125	350.520125		crashes	crashes
sw2944A-ms98-a-0054	A.88	350.520125	350.630125		and	and
sw2944A-ms98-a-0054	A.88	350.630125	350.890125		things	things
sw2944A-ms98-a-0054	A.88	350.890125	351.090125		like	like
sw2944A-ms98-a-0054	A.88	351.090125	351.300125		that	that
sw2944A-ms98-a-0054	A.88	351.300125	351.390125		it	it
sw2944A-ms98-a-0054	A.88	351.390125	351.470125		[silence]	[silence]
sw2944A-ms98-a-0054	A.88	351.470125	351.670125		does	does
sw2944A-ms98-a-0054	A.88	351.670125	351.960125		seem	seem
sw2944A-ms98-a-0054	A.88	351.960125	352.120125		that	that
sw2944A-ms98-a-0054	A.88	352.120125	352.360000		we've	we've
sw2944A-ms98-a-0054	A.88	352.360000	352.689375		[silence]	[silence]
sw2944A-ms98-a-0055	A.88	352.689375	352.949375		[silence]	[silence]
sw2944A-ms98-a-0055	A.88	352.949375	353.099375		we've	we've
sw2944A-ms98-a-0055	A.88	353.099375	353.539375		slipped	slipped
sw2944A-ms98-a-0055	A.88	353.539375	353.629375		and	and
sw2944A-ms98-a-0055	A.88	353.629375	353.899375		that's	that's
sw2944A-ms98-a-0055	A.88	353.899375	354.545750		eroded	eroded
sw2944A-ms98-a-0055	A.88	354.545750	354.715250		[silence]	[silence]
sw2944A-ms98-a-0055	A.88	354.715250	354.989375		or	or
sw2944A-ms98-a-0055	A.88	354.989375	355.129375		at	at
sw2944A-ms98-a-0055	A.88	355.129375	355.349375		least	least
sw2944A-ms98-a-0055	A.88	355.349375	355.609375		those	those
sw2944A-ms98-a-0055	A.88	355.609375	355.689375		in	in
sw2944A-ms98-a-0055	A.88	355.689375	355.749375		the	the
sw2944A-ms98-a-0055	A.88	355.749375	356.149375		market	market
sw2944A-ms98-a-0055	A.88	356.149375	356.439375		place	place
sw2944A-ms98-a-0055	A.88	356.439375	356.549375		their	their
sw2944A-ms98-a-0055	A.88	356.549375	356.988750		everyday	everyday
sw2944A-ms98-a-0055	A.88	356.988750	357.463250		life	life
sw2944A-ms98-a-0055	A.88	357.463250	357.809375		seemed	seemed
sw2944A-ms98-a-0055	A.88	357.809375	357.929375		to	to
sw2944A-ms98-a-0055	A.88	357.929375	358.209375		take	take
sw2944A-ms98-a-0055	A.88	358.209375	358.349375		that	that
sw2944A-ms98-a-0055	A.88	358.349375	358.499375		as	as
sw2944A-ms98-a-0055	A.88	358.499375	358.559375		a	a
sw2944A-ms98-a-0055	A.88	358.559375	358.999375		signal	signal
sw2944A-ms98-a-0055	A.88	358.999375	359.179375		that	that
sw2944A-ms98-a-0055	A.88	359.179375	359.319375		[silence]	[silence]
sw2944A-ms98-a-0055	A.88	359.319375	359.409375		you	you
sw2944A-ms98-a-0055	A.88	359.409375	359.539375		know	know
sw2944A-ms98-a-0055	A.88	359.539375	359.699375		it's	it's
sw2944A-ms98-a-0055	A.88	359.699375	359.919375		fair	fair
sw2944A-ms98-a-0055	A.88	359.919375	360.259375		game	game
sw2944A-ms98-a-0055	A.88	360.259375	360.339375	<SUB>	t-	to
sw2944A-ms98-a-0055	A.88	360.339375	360.599375		you	you
sw2944A-ms98-a-0055	A.88	360.599375	360.739375		you	you
sw2944A-ms98-a-0055	A.88	360.739375	360.929375		have	have
sw2944A-ms98-a-0055	A.88	360.929375	361.029375		to	to
sw2944A-ms98-a-0055	A.88	361.029375	361.309375		answer	answer
sw2944A-ms98-a-0055	A.88	361.309375	361.509375		these	these
sw2944A-ms98-a-0055	A.88	361.509375	361.909375		questions	questions
sw2944A-ms98-a-0055	A.88	361.909375	361.969375		of	of
sw2944A-ms98-a-0055	A.88	361.969375	362.264750		course	course
sw2944A-ms98-a-0055	A.90	362.264750	362.656500		[silence]	[silence]
sw2944A-ms98-a-0056	A.90	362.656500	363.016500		[silence]	[silence]
sw2944A-ms98-a-0056	A.90	363.016500	363.296500		Uh	uh
sw2944A-ms98-a-0056	A.90	363.296500	363.416500		I	i
sw2944A-ms98-a-0056	A.90	363.416500	363.536500		don't	don't
sw2944A-ms98-a-0056	A.90	363.536500	363.676875		know	know
sw2944A-ms98-a-0056	A.90	363.676875	364.027375		I	i
sw2944A-ms98-a-0056	A.90	364.027375	364.212000		I	i
sw2944A-ms98-a-0056	A.90	364.212000	364.436500		feel	feel
sw2944A-ms98-a-0056	A.90	364.436500	364.576500		there	there
sw2944A-ms98-a-0056	A.90	364.576500	364.856500		has	has
sw2944A-ms98-a-0056	A.90	364.856500	365.036500		been	been
sw2944A-ms98-a-0056	A.90	365.036500	365.106500		an	an
sw2944A-ms98-a-0056	A.90	365.106500	365.616500		erosion	erosion
sw2944A-ms98-a-0056	A.90	365.616500	365.926500		and	and
sw2944A-ms98-a-0056	A.90	365.926500	365.986500		I	i
sw2944A-ms98-a-0056	A.90	365.986500	366.236500		don't	don't
sw2944A-ms98-a-0056	A.90	366.236500	366.586500		[silence]	[silence]
sw2944A-ms98-a-0056	A.90	366.586500	366.856500		really	really
sw2944A-ms98-a-0056	A.90	366.856500	367.066500		know	know
sw2944A-ms98-a-0056	A.90	367.066500	367.356500		how	how
sw2944A-ms98-a-0056	A.90	367.356500	367.856500		serious	serious
sw2944A-ms98-a-0056	A.90	367.856500	367.976500		it	it
sw2944A-ms98-a-0056	A.90	367.976500	368.206500		is	is
sw2944A-ms98-a-0056	A.90	368.206500	368.626500		except	except
sw2944A-ms98-a-0056	A.90	368.626500	368.666500		I	i
sw2944A-ms98-a-0056	A.90	368.666500	368.896500		don't	don't
sw2944A-ms98-a-0056	A.90	368.896500	369.126500		like	like
sw2944A-ms98-a-0056	A.90	369.126500	369.276500		it	it
sw2944A-ms98-a-0056	A.92	369.276500	369.636500		[laughter]	[laughter]
sw2944A-ms98-a-0056	A.92	369.636500	369.965125		[silence]	[silence]
sw2944A-ms98-a-0057	A.92	369.965125	377.470875		[silence]	[silence]
sw2944A-ms98-a-0058	A.92	377.470875	377.960875		[silence]	[silence]
sw2944A-ms98-a-0058	A.92	377.960875	378.355625		Um	um
sw2944A-ms98-a-0058	A.94	378.355625	378.783375		[silence]	[silence]
sw2944A-ms98-a-0059	A.94	378.783375	380.494625		[silence]	[silence]
sw2944A-ms98-a-0060	A.94	380.494625	380.954625		[silence]	[silence]
sw2944A-ms98-a-0060	A.94	380.954625	381.342500		Um	um
sw2944A-ms98-a-0060	A.96	381.342500	381.790000		[silence]	[silence]
sw2944A-ms98-a-0061	A.96	381.790000	393.550375		[silence]	[silence]
sw2944A-ms98-a-0062	A.96	393.550375	394.040375		[silence]	[silence]
sw2944A-ms98-a-0062	A.96	394.040375	394.440375		Uh-huh	uh-huh
sw2944A-ms98-a-0062	A.98	394.440375	394.926875		[silence]	[silence]
sw2944A-ms98-a-0063	A.98	394.926875	399.487750		[silence]	[silence]
sw2944A-ms98-a-0064	A.98	399.487750	399.987750		[silence]	[silence]
sw2944A-ms98-a-0064	A.98	399.987750	400.317750		Yeah	yeah
sw2944A-ms98-a-0064	A.100	400.317750	400.810000		[silence]	[silence]
sw2944A-ms98-a-0065	A.100	400.810000	411.429875		[silence]	[silence]
sw2944A-ms98-a-0066	A.100	411.429875	411.889875		[silence]	[silence]
sw2944A-ms98-a-0066	A.100	411.889875	412.049875		What	What
sw2944A-ms98-a-0066	A.100	412.049875	412.219875		was	was
sw2944A-ms98-a-0066	A.100	412.219875	412.509875		that	that
sw2944A-ms98-a-0066	A.102	412.509875	412.954250		[silence]	[silence]
sw2944A-ms98-a-0067	A.102	412.954250	415.366750		[silence]	[silence]
sw2944A-ms98-a-0068	A.102	415.366750	415.856750		[silence]	[silence]
sw2944A-ms98-a-0068	A.102	415.856750	416.097625		Oh	oh
sw2944A-ms98-a-0068	A.102	416.097625	416.413750		yeah	yeah
sw2944A-ms98-a-0068	A.102	416.413750	416.686750		yeah	yeah
sw2944A-ms98-a-0068	A.102	416.686750	416.996750		yeah	yeah
sw2944A-ms98-a-0068	A.104	416.996750	417.501250		[silence]	[silence]
sw2944A-ms98-a-0069	A.104	417.501250	417.951250		[silence]	[silence]
sw2944A-ms98-a-0069	A.104	417.951250	418.208500		Right	right
sw2944A-ms98-a-0069	A.106	418.208500	418.704875		[silence]	[silence]
sw2944A-ms98-a-0070	A.106	418.704875	423.975250		[silence]	[silence]
sw2944A-ms98-a-0071	A.106	423.975250	424.425250		[silence]	[silence]
sw2944A-ms98-a-0071	A.106	424.425250	424.605250		Well	well
sw2944A-ms98-a-0071	A.106	424.605250	424.665250		I	i
sw2944A-ms98-a-0071	A.106	424.665250	424.865250		mean	mean
sw2944A-ms98-a-0071	A.106	424.865250	425.055250		it	it
sw2944A-ms98-a-0071	A.106	425.055250	425.235250		it	it
sw2944A-ms98-a-0071	A.106	425.235250	425.395250		[silence]	[silence]
sw2944A-ms98-a-0071	A.106	425.395250	425.635250		just	just
sw2944A-ms98-a-0071	A.106	425.635250	425.885250		take	take
sw2944A-ms98-a-0071	A.106	425.885250	426.195250		that	that
sw2944A-ms98-a-0071	A.106	426.195250	426.255250		[silence]	[silence]
sw2944A-ms98-a-0071	A.106	426.255250	426.505250		that	that
sw2944A-ms98-a-0071	A.106	426.505250	426.925250		step	step
sw2944A-ms98-a-0071	A.106	426.925250	427.105250		now	now
sw2944A-ms98-a-0071	A.106	427.105250	427.515250		where	where
sw2944A-ms98-a-0071	A.106	427.515250	427.755250		where	where
sw2944A-ms98-a-0071	A.106	427.755250	428.035250		now	now
sw2944A-ms98-a-0071	A.106	428.035250	428.225250		we	we
sw2944A-ms98-a-0071	A.106	428.225250	428.685250		feel	feel
sw2944A-ms98-a-0071	A.106	428.685250	428.905250		there's	there's
sw2944A-ms98-a-0071	A.106	428.905250	428.985250		a	a
sw2944A-ms98-a-0071	A.106	428.985250	429.315250		need	need
sw2944A-ms98-a-0071	A.106	429.315250	429.425250		to	to
sw2944A-ms98-a-0071	A.106	429.425250	429.635250		do	do
sw2944A-ms98-a-0071	A.106	429.635250	429.955250		that	that
sw2944A-ms98-a-0071	A.106	429.955250	430.045250		and	and
sw2944A-ms98-a-0071	A.106	430.045250	430.125250		the	the
sw2944A-ms98-a-0071	A.106	430.125250	430.385250		next	next
sw2944A-ms98-a-0071	A.106	430.385250	430.525250		thing	thing
sw2944A-ms98-a-0071	A.106	430.525250	430.625250		you	you
sw2944A-ms98-a-0071	A.106	430.625250	430.845250		know	know
sw2944A-ms98-a-0071	A.106	430.845250	431.125250		then	then
sw2944A-ms98-a-0071	A.108	431.125250	431.478625		[silence]	[silence]
sw2944A-ms98-a-0072	A.108	431.478625	431.738625		[silence]	[silence]
sw2944A-ms98-a-0072	A.108	431.738625	432.028625		uh	uh
sw2944A-ms98-a-0072	A.108	432.028625	432.278625		there's	there's
sw2944A-ms98-a-0072	A.108	432.278625	432.608625		always	always
sw2944A-ms98-a-0072	A.108	432.608625	432.718625		the	the
sw2944A-ms98-a-0072	A.108	432.718625	433.008625		need	need
sw2944A-ms98-a-0072	A.108	433.008625	433.498625		to	to
sw2944A-ms98-a-0072	A.108	433.498625	433.788625		to	to
sw2944A-ms98-a-0072	A.108	433.788625	434.068625		go	go
sw2944A-ms98-a-0072	A.108	434.068625	434.158625		and	and
sw2944A-ms98-a-0072	A.108	434.158625	434.628625		inspect	inspect
sw2944A-ms98-a-0072	A.108	434.628625	435.088625		lockers	lockers
sw2944A-ms98-a-0072	A.108	435.088625	435.178625		of	of
sw2944A-ms98-a-0072	A.108	435.178625	435.348625		high	high
sw2944A-ms98-a-0072	A.108	435.348625	435.728625		school	school
sw2944A-ms98-a-0072	A.108	435.728625	436.499375		students	students
sw2944A-ms98-a-0072	A.108	436.499375	436.842125		[silence]	[silence]
sw2944A-ms98-a-0072	A.108	436.842125	437.061875	<SUB>	tha-	that
sw2944A-ms98-a-0072	A.110	437.061875	437.501500		[silence]	[silence]
sw2944A-ms98-a-0073	A.110	437.501500	440.628375		[silence]	[silence]
sw2944A-ms98-a-0074	A.110	440.628375	441.283000		[silence]	[silence]
sw2944A-ms98-a-0074	A.110	441.283000	441.768125		[vocalized-noise]	[vocalized-noise]
sw2944A-ms98-a-0074	A.110	441.768125	442.449000		[silence]	[silence]
sw2944A-ms98-a-0074	A.110	442.449000	442.598375		Yeah	yeah
sw2944A-ms98-a-0074	A.110	442.598375	442.698375		I	i
sw2944A-ms98-a-0074	A.110	442.698375	442.978375		guess	guess
sw2944A-ms98-a-0074	A.110	442.978375	443.288375		so	so
sw2944A-ms98-a-0074	A.110	443.288375	443.398375		I	i
sw2944A-ms98-a-0074	A.110	443.398375	443.588375		mean	mean
sw2944A-ms98-a-0074	A.110	443.588375	443.855000		well	well
sw2944A-ms98-a-0074	A.110	443.855000	444.112500		uh	uh
sw2944A-ms98-a-0074	A.110	444.112500	444.476500	<DEL>	---	uh
sw2944A-ms98-a-0074	A.110	444.476500	444.640750		good	good
sw2944A-ms98-a-0074	A.110	444.640750	444.838375		luck	luck
sw2944A-ms98-a-0074	A.110	444.838375	444.928375		to	to
sw2944A-ms98-a-0074	A.110	444.928375	445.038375		you	you
sw2944A-ms98-a-0074	A.110	445.038375	445.108375		you	you
sw2944A-ms98-a-0074	A.110	445.108375	445.328375		just	just
sw2944A-ms98-a-0074	A.110	445.328375	445.488375		moved	moved
sw2944A-ms98-a-0074	A.110	445.488375	445.548375		to	to
sw2944A-ms98-a-0074	A.110	445.548375	446.028375		Texas	Texas
sw2944A-ms98-a-0074	A.112	446.028375	447.618375		[laughter]	[laughter]
sw2944A-ms98-a-0074	A.112	447.618375	447.828375		from	from
sw2944A-ms98-a-0074	A.112	447.828375	448.658375		Minneapolis	Minneapolis
sw2944A-ms98-a-0074	A.112	448.658375	448.696000		[silence]	[silence]
sw2944A-ms98-a-0075	A.112	448.696000	449.116000		[silence]	[silence]
sw2944A-ms98-a-0075	A.112	449.116000	449.269125	<SUB>	Uh	i
sw2944A-ms98-a-0075	A.112	449.269125	449.411500		I	i
sw2944A-ms98-a-0075	A.112	449.411500	449.609500		don't	don't
sw2944A-ms98-a-0075	A.114	449.609500	449.758125		I	i
sw2944A-ms98-a-0075	A.114	449.758125	449.886000		don't	don't
sw2944A-ms98-a-0075	A.114	449.886000	450.076000		hold	hold
sw2944A-ms98-a-0075	A.114	450.076000	450.216000		out	out
sw2944A-ms98-a-0075	A.114	450.216000	450.446000		much	much
sw2944A-ms98-a-0075	A.114	450.446000	450.706000		hope	hope
sw2944A-ms98-a-0075	A.114	450.706000	450.766000		for	for
sw2944A-ms98-a-0075	A.114	450.766000	450.976000		you	you
sw2944A-ms98-a-0075	A.114	450.976000	451.136000		I	i
sw2944A-ms98-a-0075	A.114	451.136000	451.346000		think	think
sw2944A-ms98-a-0075	A.114	451.346000	451.496000		they'll	they'll
sw2944A-ms98-a-0075	A.114	451.496000	451.656000		be	be
sw2944A-ms98-a-0075	A.114	451.656000	451.706000		a	a
sw2944A-ms98-a-0075	A.114	451.706000	452.186000		cultural	cultural
sw2944A-ms98-a-0075	A.114	452.186000	452.726000		shock	shock
sw2944A-ms98-a-0075	A.114	452.726000	452.866000		I	i
sw2944A-ms98-a-0075	A.114	452.866000	453.036000		mean	mean
sw2944A-ms98-a-0075	A.114	453.036000	453.066000		I	i
sw2944A-ms98-a-0075	A.114	453.066000	453.206000		was	was
sw2944A-ms98-a-0075	A.114	453.206000	453.566000		based	based
sw2944A-ms98-a-0075	A.114	453.566000	453.696000		there	there
sw2944A-ms98-a-0075	A.114	453.696000	453.736000		a	a
sw2944A-ms98-a-0075	A.114	453.736000	453.900000		lot	lot
sw2944A-ms98-a-0075	A.114	453.900000	454.050625		[silence]	[silence]
sw2944A-ms98-a-0075	A.114	454.050625	454.206000		uh	uh
sw2944A-ms98-a-0075	A.114	454.206000	454.506000		several	several
sw2944A-ms98-a-0075	A.114	454.506000	454.816000		times	times
sw2944A-ms98-a-0075	A.114	454.816000	454.886000		in	in
sw2944A-ms98-a-0075	A.114	454.886000	454.956000		the	the
sw2944A-ms98-a-0075	A.114	454.956000	455.356000		service	service
sw2944A-ms98-a-0075	A.114	455.356000	455.446000		and	and
sw2944A-ms98-a-0075	A.114	455.446000	455.506000		I	i
sw2944A-ms98-a-0075	A.114	455.506000	455.776000		was	was
sw2944A-ms98-a-0075	A.114	455.776000	456.266000		absolutely	absolutely
sw2944A-ms98-a-0075	A.114	456.266000	457.036000		flabbergasted	flabbergasted
sw2944A-ms98-a-0075	A.114	457.036000	457.206000		at	at
sw2944A-ms98-a-0075	A.114	457.206000	457.389375		the	the
sw2944A-ms98-a-0075	A.114	457.389375	457.800000		[silence]	[silence]
sw2944A-ms98-a-0075	A.114	457.800000	457.996000		in	in
sw2944A-ms98-a-0075	A.114	457.996000	458.146000		in	in
sw2944A-ms98-a-0075	A.114	458.146000	458.376000		at	at
sw2944A-ms98-a-0075	A.114	458.376000	458.616000		least	least
sw2944A-ms98-a-0075	A.114	458.616000	458.716000		in	in
sw2944A-ms98-a-0075	A.114	458.716000	459.096000		criminal	criminal
sw2944A-ms98-a-0075	A.114	459.096000	459.336000		law	law
sw2944A-ms98-a-0075	A.114	459.336000	459.486000		[silence]	[silence]
sw2944A-ms98-a-0075	A.114	459.486000	459.716000		some	some
sw2944A-ms98-a-0075	A.114	459.716000	459.806000		of	of
sw2944A-ms98-a-0075	A.114	459.806000	459.956000		the	the
sw2944A-ms98-a-0075	A.114	459.956000	460.326000		[silence]	[silence]
sw2944A-ms98-a-0075	A.114	460.326000	460.646000		some	some
sw2944A-ms98-a-0075	A.114	460.646000	460.806000		of	of
sw2944A-ms98-a-0075	A.114	460.806000	461.366000		the	the
sw2944A-ms98-a-0075	A.116	461.366000	461.876000		latitudes	latitudes
sw2944A-ms98-a-0075	A.116	461.876000	462.036000		that	that
sw2944A-ms98-a-0075	A.116	462.036000	462.096000		the	the
sw2944A-ms98-a-0075	A.116	462.096000	462.486000		police	police
sw2944A-ms98-a-0075	A.116	462.486000	462.746000		had	had
sw2944A-ms98-a-0075	A.116	462.746000	463.002125		but	but
sw2944A-ms98-a-0075	A.118	463.002125	463.483125		[silence]	[silence]
sw2944A-ms98-a-0076	A.118	463.483125	467.854125		[silence]	[silence]
sw2944A-ms98-a-0077	A.118	467.854125	468.353625		[silence]	[silence]
sw2944A-ms98-a-0077	A.118	468.353625	468.553375		Oh	oh
sw2944A-ms98-a-0077	A.118	468.553375	468.815375		yeah	yeah
sw2944A-ms98-a-0077	A.120	468.815375	469.287750		[silence]	[silence]
sw2944A-ms98-a-0078	A.120	469.287750	476.843875		[silence]	[silence]
sw2944A-ms98-a-0079	A.120	476.843875	477.323875		[silence]	[silence]
sw2944A-ms98-a-0079	A.120	477.323875	477.623625		Yeah	yeah
sw2944A-ms98-a-0079	A.124	477.623625	478.110000		[silence]	[silence]
sw2944A-ms98-a-0080	A.124	478.110000	479.207375		[silence]	[silence]
sw2944A-ms98-a-0081	A.124	479.207375	479.585250		[silence]	[silence]
sw2944A-ms98-a-0081	A.124	479.585250	480.694000		[laughter]	[laughter]
sw2944A-ms98-a-0081	A.124	480.694000	481.060750		[silence]	[silence]
sw2944A-ms98-a-0082	A.124	481.060750	489.336625		[silence]	[silence]
sw2944A-ms98-a-0083	A.124	489.336625	489.826625		[silence]	[silence]
sw2944A-ms98-a-0083	A.124	489.826625	490.086625		Um	um
sw2944A-ms98-a-0083	A.126	490.086625	490.619375		[silence]	[silence]
sw2944A-ms98-a-0084	A.126	490.619375	506.264250		[silence]	[silence]
sw2944A-ms98-a-0085	A.126	506.264250	506.764250		[silence]	[silence]
sw2944A-ms98-a-0085	A.126	506.764250	507.074250		Um	um
sw2944A-ms98-a-0085	A.128	507.074250	507.552125		[silence]	[silence]
sw2944A-ms98-a-0086	A.128	507.552125	509.706750		[silence]	[silence]
sw2944A-ms98-a-0087	A.128	509.706750	510.176750		[silence]	[silence]
sw2944A-ms98-a-0087	A.128	510.176750	510.521750		Yeah	yeah
sw2944A-ms98-a-0087	A.130	510.521750	510.981625		[silence]	[silence]
sw2944A-ms98-a-0088	A.130	510.981625	519.778500		[silence]	[silence]
sw2944A-ms98-a-0089	A.130	519.778500	520.288500		[silence]	[silence]
sw2944A-ms98-a-0089	A.130	520.288500	520.518500		Well	well
sw2944A-ms98-a-0089	A.130	520.518500	520.698500		[silence]	[silence]
sw2944A-ms98-a-0089	A.130	520.698500	520.944000		I	i
sw2944A-ms98-a-0089	A.130	520.944000	521.048500		mean	mean
sw2944A-ms98-a-0089	A.130	521.048500	521.078500		I	i
sw2944A-ms98-a-0089	A.130	521.078500	521.198500		don't	don't
sw2944A-ms98-a-0089	A.130	521.198500	521.708500		understand	understand
sw2944A-ms98-a-0089	A.132	521.708500	521.798500		if	if
sw2944A-ms98-a-0089	A.132	521.798500	522.048500		you	you
sw2944A-ms98-a-0089	A.132	522.048500	522.198500		if	if
sw2944A-ms98-a-0089	A.132	522.198500	522.328500		you	you
sw2944A-ms98-a-0089	A.132	522.328500	522.628500		don't	don't
sw2944A-ms98-a-0089	A.132	522.628500	522.748500		if	if
sw2944A-ms98-a-0089	A.132	522.748500	522.828500		they	they
sw2944A-ms98-a-0089	A.132	522.828500	522.998500		don't	don't
sw2944A-ms98-a-0089	A.132	522.998500	523.158500		make	make
sw2944A-ms98-a-0089	A.132	523.158500	523.228500		a	a
sw2944A-ms98-a-0089	A.132	523.228500	523.568500		criminal	criminal
sw2944A-ms98-a-0089	A.132	523.568500	523.878500		check	check
sw2944A-ms98-a-0089	A.132	523.878500	524.058500		why	why
sw2944A-ms98-a-0089	A.132	524.058500	524.118500		do	do
sw2944A-ms98-a-0089	A.132	524.118500	524.188500		you	you
sw2944A-ms98-a-0089	A.132	524.188500	524.348500		have	have
sw2944A-ms98-a-0089	A.132	524.348500	524.448500		to	to
sw2944A-ms98-a-0089	A.132	524.448500	524.568500		be	be
sw2944A-ms98-a-0089	A.132	524.568500	525.268500		fingerprinted	fingerprinted
sw2944A-ms98-a-0089	A.134	525.268500	525.736375		[silence]	[silence]
sw2944A-ms98-a-0090	A.134	525.736375	528.969875		[silence]	[silence]
sw2944A-ms98-a-0091	A.134	528.969875	529.459875		[silence]	[silence]
sw2944A-ms98-a-0091	A.134	529.459875	529.599875		Oh	oh
sw2944A-ms98-a-0091	A.134	529.599875	529.699875		I	i
sw2944A-ms98-a-0091	A.134	529.699875	530.089875		see	see
sw2944A-ms98-a-0091	A.134	530.089875	530.387375		[silence]	[silence]
sw2944A-ms98-a-0091	A.134	530.387375	530.619875		oh	oh
sw2944A-ms98-a-0091	A.134	530.619875	530.709875		the	the
sw2944A-ms98-a-0091	A.134	530.709875	531.149875		state	state
sw2944A-ms98-a-0091	A.134	531.149875	531.439875		doesn't	doesn't
sw2944A-ms98-a-0091	A.134	531.439875	531.959875		require	require
sw2944A-ms98-a-0091	A.134	531.959875	532.069875		it	it
sw2944A-ms98-a-0091	A.134	532.069875	532.469500		[silence]	[silence]
sw2944A-ms98-a-0092	A.134	532.469500	533.475250		[silence]	[silence]
sw2944A-ms98-a-0093	A.134	533.475250	533.885250		[silence]	[silence]
sw2944A-ms98-a-0093	A.134	533.885250	534.025250		Well	well
sw2944A-ms98-a-0093	A.134	534.025250	534.225250		that's	that's
sw2944A-ms98-a-0093	A.134	534.225250	534.495250		kind	kind
sw2944A-ms98-a-0093	A.134	534.495250	534.635250		of	of
sw2944A-ms98-a-0093	A.134	534.635250	534.895250		that's	that's
sw2944A-ms98-a-0093	A.134	534.895250	535.345250		rather	rather
sw2944A-ms98-a-0093	A.134	535.345250	535.625250		that's	that's
sw2944A-ms98-a-0093	A.134	535.625250	535.845250		rather	rather
sw2944A-ms98-a-0093	A.134	535.845250	536.321000		unusual	unusual
sw2944A-ms98-a-0093	A.134	536.321000	536.483250		isn't	isn't
sw2944A-ms98-a-0093	A.134	536.483250	536.635250		it	it
sw2944A-ms98-a-0093	A.136	536.635250	537.107375		[silence]	[silence]
sw2944A-ms98-a-0094	A.136	537.107375	550.431750		[silence]	[silence]
sw2944A-ms98-a-0095	A.136	550.431750	550.891750		[silence]	[silence]
sw2944A-ms98-a-0095	A.136	550.891750	551.041750		Well	well
sw2944A-ms98-a-0095	A.136	551.041750	551.111750		I	i
sw2944A-ms98-a-0095	A.136	551.111750	551.391750		guess	guess
sw2944A-ms98-a-0095	A.136	551.391750	551.501750		I	i
sw2944A-ms98-a-0095	A.136	551.501750	551.741750		guess	guess
sw2944A-ms98-a-0095	A.136	551.741750	551.821750		the	the
sw2944A-ms98-a-0095	A.136	551.821750	552.351750		extension	extension
sw2944A-ms98-a-0095	A.136	552.351750	552.431750		of	of
sw2944A-ms98-a-0095	A.136	552.431750	552.661750		that	that
sw2944A-ms98-a-0095	A.136	552.661750	552.940875		is	is
sw2944A-ms98-a-0095	A.136	552.940875	553.129250		[silence]	[silence]
sw2944A-ms98-a-0095	A.136	553.129250	553.341750		why	why
sw2944A-ms98-a-0095	A.136	553.341750	553.601750		why	why
sw2944A-ms98-a-0095	A.136	553.601750	553.821750		not	not
sw2944A-ms98-a-0095	A.136	553.821750	554.401750		[vocalized-noise]	[vocalized-noise]
sw2944A-ms98-a-0095	A.136	554.401750	554.501750		the	the
sw2944A-ms98-a-0095	A.136	554.501750	554.731750		next	next
sw2944A-ms98-a-0095	A.136	554.731750	554.841750		thing	thing
sw2944A-ms98-a-0095	A.136	554.841750	554.911750		you	you
sw2944A-ms98-a-0095	A.136	554.911750	555.081750		know	know
sw2944A-ms98-a-0095	A.136	555.081750	555.181750		we'll	we'll
sw2944A-ms98-a-0095	A.136	555.181750	555.371750		just	just
sw2944A-ms98-a-0095	A.136	555.371750	555.671750		stop	stop
sw2944A-ms98-a-0095	A.136	555.671750	555.751750		a	a
sw2944A-ms98-a-0095	A.136	555.751750	556.061750		random	random
sw2944A-ms98-a-0095	A.136	556.061750	556.381750		amount	amount
sw2944A-ms98-a-0095	A.136	556.381750	556.491750		of	of
sw2944A-ms98-a-0095	A.136	556.491750	557.571750		motorists	motorists
sw2944A-ms98-a-0095	A.136	557.571750	557.771750		and	and
sw2944A-ms98-a-0095	A.136	557.771750	558.091750		then	then
sw2944A-ms98-a-0095	A.136	558.091750	558.271750		if	if
sw2944A-ms98-a-0095	A.136	558.271750	558.411750		we	we
sw2944A-ms98-a-0095	A.136	558.411750	558.671750		really	really
sw2944A-ms98-a-0095	A.136	558.671750	558.911750		think	think
sw2944A-ms98-a-0095	A.136	558.911750	559.031750		that	that
sw2944A-ms98-a-0095	A.136	559.031750	559.331750		drugs	drugs
sw2944A-ms98-a-0095	A.136	559.331750	559.401750		are	are
sw2944A-ms98-a-0095	A.136	559.401750	559.461750		a	a
sw2944A-ms98-a-0095	A.136	559.461750	559.791750		problem	problem
sw2944A-ms98-a-0095	A.136	559.791750	559.901750		we	we
sw2944A-ms98-a-0095	A.136	559.901750	560.133375		can	can
sw2944A-ms98-a-0095	A.136	560.133375	560.261750		[silence]	[silence]
sw2944A-ms98-a-0095	A.136	560.261750	560.651750		randomly	randomly
sw2944A-ms98-a-0095	A.136	560.651750	560.981750		stop	stop
sw2944A-ms98-a-0095	A.136	560.981750	561.401750		anybody	anybody
sw2944A-ms98-a-0095	A.136	561.401750	561.471750		on	on
sw2944A-ms98-a-0095	A.136	561.471750	561.531750		the	the
sw2944A-ms98-a-0095	A.136	561.531750	562.255250		street	street
sw2944A-ms98-a-0095	A.138	562.255250	562.882000		[silence]	[silence]
sw2944A-ms98-a-0096	A.138	562.882000	563.482000		[silence]	[silence]
sw2944A-ms98-a-0096	A.138	563.482000	563.603000		Oh	oh
sw2944A-ms98-a-0096	A.138	563.603000	563.729625		they	they
sw2944A-ms98-a-0096	A.138	563.729625	564.141375		do	do
sw2944A-ms98-a-0096	A.140	564.141375	564.606500		[silence]	[silence]
sw2944A-ms98-a-0097	A.140	564.606500	568.259750		[silence]	[silence]
sw2944A-ms98-a-0098	A.140	568.259750	568.749750		[silence]	[silence]
sw2944A-ms98-a-0098	A.140	568.749750	569.061500		Yeah	yeah
sw2944A-ms98-a-0098	A.142	569.061500	569.749750		[silence]	[silence]
sw2944A-ms98-a-0098	A.142	569.749750	569.919750		Well	well
sw2944A-ms98-a-0098	A.142	569.919750	570.139750		there's	there's
sw2944A-ms98-a-0098	A.142	570.139750	570.329750		[silence]	[silence]
sw2944A-ms98-a-0098	A.142	570.329750	570.539750		there's	there's
sw2944A-ms98-a-0098	A.142	570.539750	570.799750		all	all
sw2944A-ms98-a-0098	A.142	570.799750	571.149750		sorts	sorts
sw2944A-ms98-a-0098	A.142	571.149750	571.229750		of	of
sw2944A-ms98-a-0098	A.142	571.229750	571.609750		scare	scare
sw2944A-ms98-a-0098	A.142	571.609750	572.179750		tactics	tactics
sw2944A-ms98-a-0098	A.142	572.179750	572.299750		I	i
sw2944A-ms98-a-0098	A.142	572.299750	572.579750		guess	guess
sw2944A-ms98-a-0098	A.142	572.579750	572.859750		to	to
sw2944A-ms98-a-0098	A.142	572.859750	573.119750		to	to
sw2944A-ms98-a-0098	A.142	573.119750	573.469750		invade	invade
sw2944A-ms98-a-0098	A.142	573.469750	573.579750		our	our
sw2944A-ms98-a-0098	A.142	573.579750	574.199750		privacy	privacy
sw2944A-ms98-a-0098	A.142	574.199750	574.510875		and	and
sw2944A-ms98-a-0098	A.144	574.510875	575.100000		[silence]	[silence]
sw2944A-ms98-a-0099	A.144	575.100000	578.452625		[silence]	[silence]
sw2944A-ms98-a-0100	A.144	578.452625	579.372625		[silence]	[silence]
sw2944A-ms98-a-0100	A.144	579.372625	579.732625		Yeah	yeah
sw2944A-ms98-a-0100	A.146	579.732625	580.252625		[silence]	[silence]
sw2944A-ms98-a-0101	A.146	580.252625	582.960625		[silence]	[silence]
sw2944A-ms98-a-0102	A.146	582.960625	583.460375		[silence]	[silence]
sw2944A-ms98-a-0102	A.146	583.460375	583.555125		I	i
sw2944A-ms98-a-0102	A.146	583.555125	583.740625		just	just
sw2944A-ms98-a-0102	A.146	583.740625	583.880625		going	going
sw2944A-ms98-a-0102	A.146	583.880625	583.990625		to	to
sw2944A-ms98-a-0102	A.146	583.990625	584.310625		say	say
sw2944A-ms98-a-0102	A.146	584.310625	584.730625		NINETEEN	nineteen
sw2944A-ms98-a-0102	A.146	584.730625	585.039875	<CONT>	EIGHTY-FOUR	eighty
sw2944A-ms98-a-0102	A.148	585.039875	585.657500	<CONT>	+++	four
sw2944A-ms98-a-0102	A.148	585.657500	585.840625		is	is
sw2944A-ms98-a-0102	A.148	585.840625	586.100625		come	come
sw2944A-ms98-a-0102	A.148	586.100625	586.400625	<SUB>	an-	and
sw2944A-ms98-a-0102	A.148	586.400625	586.610625		is	is
sw2944A-ms98-a-0102	A.148	586.610625	586.840625		come	come
sw2944A-ms98-a-0102	A.148	586.840625	586.980625		and	and
sw2944A-ms98-a-0102	A.148	586.980625	587.280625		gone	gone
sw2944A-ms98-a-0102	A.148	587.280625	587.400625		but	but
sw2944A-ms98-a-0102	A.148	587.400625	587.560625		it's	it's
sw2944A-ms98-a-0102	A.148	587.560625	588.062750		here	here
sw2944A-ms98-a-0102	A.150	588.062750	588.642000		[silence]	[silence]
sw2944A-ms98-a-0103	A.150	588.642000	589.252000		[silence]	[silence]
sw2944A-ms98-a-0103	A.150	589.252000	589.392000		And	and
sw2944A-ms98-a-0103	A.150	589.392000	589.452000		the	the
sw2944A-ms98-a-0103	A.150	589.452000	590.192000		computers	computers
sw2944A-ms98-a-0103	A.150	590.192000	590.422000		of	of
sw2944A-ms98-a-0103	A.150	590.422000	590.772000		course	course
sw2944A-ms98-a-0103	A.150	590.772000	591.092000		helps	helps
sw2944A-ms98-a-0103	A.150	591.092000	591.352000		that	that
sw2944A-ms98-a-0103	A.150	591.352000	591.452000		The	The
sw2944A-ms98-a-0103	A.150	591.452000	591.982000		computer	computer
sw2944A-ms98-a-0103	A.150	591.982000	592.502000		abilities	abilities
sw2944A-ms98-a-0103	A.150	592.502000	592.932000		store	store
sw2944A-ms98-a-0103	A.150	592.932000	593.102000		that	that
sw2944A-ms98-a-0103	A.150	593.102000	593.702000		information	information
sw2944A-ms98-a-0103	A.150	593.702000	594.124500		[silence]	[silence]
sw2944A-ms98-a-0104	A.150	594.124500	598.726750		[silence]	[silence]
