sw2962A-ms98-a-0001	A.1	0.000000	0.000000		[silence]	[silence]
sw2962A-ms98-a-0001	A.1	0.000000	0.917000		[noise]	[noise]
sw2962A-ms98-a-0001	A.1	0.917000	0.999875		[silence]	[silence]
sw2962A-ms98-a-0002	A.1	0.999875	1.244375		[silence]	[silence]
sw2962A-ms98-a-0002	A.1	1.244375	1.432125		Well	well
sw2962A-ms98-a-0002	A.1	1.432125	1.595250		[silence]	[silence]
sw2962A-ms98-a-0002	A.1	1.595250	1.991750		uh	uh
sw2962A-ms98-a-0002	A.1	1.991750	2.601875		[silence]	[silence]
sw2962A-ms98-a-0002	A.1	2.601875	2.714125		it	it
sw2962A-ms98-a-0002	A.1	2.714125	3.099875		seems	seems
sw2962A-ms98-a-0002	A.1	3.099875	3.199875		to	to
sw2962A-ms98-a-0002	A.1	3.199875	3.429875		me	me
sw2962A-ms98-a-0002	A.1	3.429875	3.809875		that	that
sw2962A-ms98-a-0002	A.1	3.809875	4.019375		uh	uh
sw2962A-ms98-a-0002	A.1	4.019375	4.205125		that	that
sw2962A-ms98-a-0002	A.1	4.205125	4.378375		[silence]	[silence]
sw2962A-ms98-a-0002	A.1	4.378375	4.579875		I	i
sw2962A-ms98-a-0002	A.1	4.579875	4.779875	<CONT>	do	don't
sw2962A-ms98-a-0002	A.1	4.779875	4.779875	<CONT>	not	+++
sw2962A-ms98-a-0002	A.1	4.779875	4.909875		know	know
sw2962A-ms98-a-0002	A.1	4.909875	5.249875		whether	whether
sw2962A-ms98-a-0002	A.1	5.249875	5.419875		the	the
sw2962A-ms98-a-0002	A.1	5.419875	5.719875		jury	jury
sw2962A-ms98-a-0002	A.1	5.719875	6.139875		system	system
sw2962A-ms98-a-0002	A.1	6.139875	6.461375		uh	uh
sw2962A-ms98-a-0002	A.1	6.461375	6.668625		[silence]	[silence]
sw2962A-ms98-a-0002	A.1	6.668625	6.789875		I	i
sw2962A-ms98-a-0002	A.1	6.789875	6.879875		I	i
sw2962A-ms98-a-0002	A.1	6.879875	7.109875	<CONT>	should	shouldn't
sw2962A-ms98-a-0002	A.1	7.109875	7.109875	<CONT>	not	+++
sw2962A-ms98-a-0002	A.1	7.109875	7.219875		say	say
sw2962A-ms98-a-0002	A.1	7.219875	7.269875		I	i
sw2962A-ms98-a-0002	A.1	7.269875	7.519875	<CONT>	do	don't
sw2962A-ms98-a-0002	A.1	7.519875	7.519875	<CONT>	not	+++
sw2962A-ms98-a-0002	A.1	7.519875	7.629875		know	know
sw2962A-ms98-a-0002	A.1	7.629875	7.699875		I	i
sw2962A-ms98-a-0002	A.1	7.699875	7.899875	<CONT>	do	don't
sw2962A-ms98-a-0002	A.1	7.899875	7.899875	<CONT>	not	+++
sw2962A-ms98-a-0002	A.1	7.899875	8.358125		feel	feel
sw2962A-ms98-a-0002	A.1	8.358125	8.710875		very	very
sw2962A-ms98-a-0002	A.1	8.710875	8.970750		[silence]	[silence]
sw2962A-ms98-a-0003	A.1	8.970750	9.195875		[silence]	[silence]
sw2962A-ms98-a-0003	A.1	9.195875	9.292000		uh	uh
sw2962A-ms98-a-0003	A.1	9.292000	9.710750		stronger	stronger
sw2962A-ms98-a-0003	A.1	9.710750	9.890750		that	that
sw2962A-ms98-a-0003	A.1	9.890750	9.970750		the	the
sw2962A-ms98-a-0003	A.1	9.970750	10.280750		jury	jury
sw2962A-ms98-a-0003	A.1	10.280750	10.660750		system	system
sw2962A-ms98-a-0003	A.1	10.660750	10.850750		should	should
sw2962A-ms98-a-0003	A.1	10.850750	10.960750		be	be
sw2962A-ms98-a-0003	A.1	10.960750	11.360750		changed	changed
sw2962A-ms98-a-0003	A.1	11.360750	11.420750		It	it
sw2962A-ms98-a-0003	A.1	11.420750	11.700750		seems	seems
sw2962A-ms98-a-0003	A.1	11.700750	11.780750		to	to
sw2962A-ms98-a-0003	A.1	11.780750	11.980750		have	have
sw2962A-ms98-a-0003	A.1	11.980750	12.330750		worked	worked
sw2962A-ms98-a-0003	A.1	12.330750	12.488625		uh	uh
sw2962A-ms98-a-0003	A.1	12.488625	12.613500		[silence]	[silence]
sw2962A-ms98-a-0003	A.1	12.613500	12.756625	<DEL>	---	uh
sw2962A-ms98-a-0003	A.1	12.756625	13.060750		time	time
sw2962A-ms98-a-0003	A.1	13.060750	13.760625		immemorial	immemorial
sw2962A-ms98-a-0003	A.1	13.760625	14.234500		[silence]	[silence]
sw2962A-ms98-a-0003	A.1	14.234500	14.479375		And	and
sw2962A-ms98-a-0003	A.1	14.479375	14.840750		when	when
sw2962A-ms98-a-0003	A.1	14.840750	15.032625		uh	uh
sw2962A-ms98-a-0003	A.1	15.032625	15.115375		[silence]	[silence]
sw2962A-ms98-a-0003	A.1	15.115375	15.570750		difficult	difficult
sw2962A-ms98-a-0003	A.1	15.570750	16.320750		decisions	decisions
sw2962A-ms98-a-0003	A.1	16.320750	16.657750		uh	uh
sw2962A-ms98-a-0003	A.1	16.657750	16.990750		are	are
sw2962A-ms98-a-0003	A.1	16.990750	17.388125		made	made
sw2962A-ms98-a-0003	A.1	17.388125	17.889125		uh	uh
sw2962A-ms98-a-0003	A.1	17.889125	18.245875		uh	uh
sw2962A-ms98-a-0003	A.1	18.245875	18.613375		uh	uh
sw2962A-ms98-a-0003	A.1	18.613375	18.882875		they	they
sw2962A-ms98-a-0003	A.1	18.882875	19.250750		generally	generally
sw2962A-ms98-a-0003	A.1	19.250750	19.680750		prove	prove
sw2962A-ms98-a-0003	A.1	19.680750	19.920750		out	out
sw2962A-ms98-a-0003	A.1	19.920750	20.010750		to	to
sw2962A-ms98-a-0003	A.1	20.010750	20.110750		be	be
sw2962A-ms98-a-0003	A.1	20.110750	20.374875		right	right
sw2962A-ms98-a-0003	A.1	20.374875	20.510500		[silence]	[silence]
sw2962A-ms98-a-0003	A.1	20.510500	20.831500		by	by
sw2962A-ms98-a-0003	A.1	20.831500	21.130750		things	things
sw2962A-ms98-a-0003	A.1	21.130750	21.310750		that	that
sw2962A-ms98-a-0003	A.1	21.310750	21.680750		occur	occur
sw2962A-ms98-a-0003	A.1	21.680750	21.990750		later	later
sw2962A-ms98-a-0003	A.1	21.990750	22.238750		on	on
sw2962A-ms98-a-0003	A.3	22.238750	22.415125		[silence]	[silence]
sw2962A-ms98-a-0004	A.3	22.415125	23.336000		[silence]	[silence]
sw2962A-ms98-a-0004	A.3	23.336000	23.765375		Uh	uh
sw2962A-ms98-a-0004	A.3	23.765375	24.228750		[silence]	[silence]
sw2962A-ms98-a-0004	A.3	24.228750	24.375125		I	i
sw2962A-ms98-a-0004	A.3	24.375125	24.575125		know	know
sw2962A-ms98-a-0004	A.3	24.575125	24.665125		in	in
sw2962A-ms98-a-0004	A.3	24.665125	24.885125		some	some
sw2962A-ms98-a-0004	A.3	24.885125	25.375125		cases	cases
sw2962A-ms98-a-0004	A.3	25.375125	25.575125		now	now
sw2962A-ms98-a-0004	A.3	25.575125	25.635125		in	in
sw2962A-ms98-a-0004	A.3	25.635125	25.855125		some	some
sw2962A-ms98-a-0004	A.3	25.855125	26.175125		states	states
sw2962A-ms98-a-0004	A.3	26.175125	26.555125		depending	depending
sw2962A-ms98-a-0004	A.3	26.555125	26.625125		on	on
sw2962A-ms98-a-0004	A.3	26.625125	26.685125		the	the
sw2962A-ms98-a-0004	A.3	26.685125	27.099625		criminal	criminal
sw2962A-ms98-a-0004	A.3	27.099625	27.551625		code	code
sw2962A-ms98-a-0004	A.3	27.551625	27.587875		[silence]	[silence]
sw2962A-ms98-a-0005	A.3	27.587875	28.167875		[silence]	[silence]
sw2962A-ms98-a-0005	A.3	28.167875	28.267875	<DEL>	---	and
sw2962A-ms98-a-0005	A.3	28.267875	28.437875		uh	uh
sw2962A-ms98-a-0005	A.3	28.437875	28.537875		a	a
sw2962A-ms98-a-0005	A.3	28.537875	29.127875		unanimous	unanimous
sw2962A-ms98-a-0005	A.3	29.127875	29.608625		verdict	verdict
sw2962A-ms98-a-0005	A.3	29.608625	29.937875	<CONT>	is	isn't
sw2962A-ms98-a-0005	A.3	29.937875	29.937875	<CONT>	not	+++
sw2962A-ms98-a-0005	A.3	29.937875	30.610250		required	required
sw2962A-ms98-a-0005	A.3	30.610250	30.919000		[silence]	[silence]
sw2962A-ms98-a-0005	A.3	30.919000	31.167875		And	and
sw2962A-ms98-a-0005	A.3	31.167875	31.517875		indeed	indeed
sw2962A-ms98-a-0005	A.3	31.517875	31.869250		some	some
sw2962A-ms98-a-0005	A.3	31.869250	32.087750		[silence]	[silence]
sw2962A-ms98-a-0005	A.3	32.087750	32.477875		juries	juries
sw2962A-ms98-a-0005	A.3	32.477875	32.607875		are	are
sw2962A-ms98-a-0005	A.3	32.607875	32.747875		no	no
sw2962A-ms98-a-0005	A.3	32.747875	33.057875		longer	longer
sw2962A-ms98-a-0005	A.3	33.057875	33.407875		twelve	twelve
sw2962A-ms98-a-0005	A.3	33.407875	33.797875		people	people
sw2962A-ms98-a-0005	A.3	33.797875	33.967875	<CONT>	they	they're
sw2962A-ms98-a-0005	A.3	33.967875	33.967875	<CONT>	are	+++
sw2962A-ms98-a-0005	A.3	33.967875	34.339875		down	down
sw2962A-ms98-a-0005	A.3	34.339875	34.527875		to	to
sw2962A-ms98-a-0005	A.3	34.527875	34.697875		as	as
sw2962A-ms98-a-0005	A.3	34.697875	34.947875		little	little
sw2962A-ms98-a-0005	A.3	34.947875	34.947875	<INS>	as	---
sw2962A-ms98-a-0005	A.3	34.947875	35.267875		small	small
sw2962A-ms98-a-0005	A.3	35.267875	35.357875		as	as
sw2962A-ms98-a-0005	A.3	35.357875	35.667875		six	six
sw2962A-ms98-a-0005	A.3	35.667875	35.997500		people	people
sw2962A-ms98-a-0005	A.3	35.997500	36.136500		in	in
sw2962A-ms98-a-0005	A.3	36.136500	36.663750		[silence]	[silence]
sw2962A-ms98-a-0005	A.3	36.663750	36.810750		I	i
sw2962A-ms98-a-0005	A.3	36.810750	37.047875		think	think
sw2962A-ms98-a-0005	A.3	37.047875	37.177875		in	in
sw2962A-ms98-a-0005	A.3	37.177875	37.656125		petty	petty
sw2962A-ms98-a-0005	A.3	37.656125	37.867875		in	in
sw2962A-ms98-a-0005	A.3	37.867875	38.157875		in	in
sw2962A-ms98-a-0005	A.3	38.157875	38.377500		uh	uh
sw2962A-ms98-a-0005	A.3	38.377500	38.677875		in	in
sw2962A-ms98-a-0005	A.3	38.677875	38.787875		uh	uh
sw2962A-ms98-a-0005	A.3	38.787875	38.787875	<INS>	in	---
sw2962A-ms98-a-0005	A.3	38.787875	39.137875		minor	minor
sw2962A-ms98-a-0005	A.3	39.137875	39.858750		felonies	felonies
sw2962A-ms98-a-0005	A.3	39.858750	39.961750		[silence]	[silence]
sw2962A-ms98-a-0006	A.3	39.961750	40.801750		[silence]	[silence]
sw2962A-ms98-a-0006	A.3	40.801750	41.221750		and	and
sw2962A-ms98-a-0006	A.3	41.221750	41.562000		uh	uh
sw2962A-ms98-a-0006	A.3	41.562000	41.893375		[silence]	[silence]
sw2962A-ms98-a-0006	A.3	41.893375	42.211750		and	and
sw2962A-ms98-a-0006	A.3	42.211750	42.878875		misdemeanor	misdemeanor
sw2962A-ms98-a-0006	A.3	42.878875	43.450500		trials	trials
sw2962A-ms98-a-0006	A.5	43.450500	43.929875		[silence]	[silence]
sw2962A-ms98-a-0007	A.5	43.929875	45.088125		[silence]	[silence]
sw2962A-ms98-a-0007	A.5	45.088125	45.623750	<SUB>	Uh	um
sw2962A-ms98-a-0007	A.5	45.623750	45.966750		[silence]	[silence]
sw2962A-ms98-a-0008	A.5	45.966750	46.313375		[silence]	[silence]
sw2962A-ms98-a-0008	A.5	46.313375	46.490625		I	i
sw2962A-ms98-a-0008	A.5	46.490625	46.716750		think	think
sw2962A-ms98-a-0008	A.5	46.716750	47.106750		that	that
sw2962A-ms98-a-0008	A.5	47.106750	47.241125		the	the
sw2962A-ms98-a-0008	A.5	47.241125	47.646750		judges	judges
sw2962A-ms98-a-0008	A.5	47.646750	47.866750		should	should
sw2962A-ms98-a-0008	A.5	47.866750	47.976750		be	be
sw2962A-ms98-a-0008	A.5	47.976750	48.316750		left	left
sw2962A-ms98-a-0008	A.5	48.316750	48.406750		to	to
sw2962A-ms98-a-0008	A.5	48.406750	48.556750		do	do
sw2962A-ms98-a-0008	A.5	48.556750	48.926750		most	most
sw2962A-ms98-a-0008	A.5	48.926750	48.996750		of	of
sw2962A-ms98-a-0008	A.5	48.996750	49.056750		the	the
sw2962A-ms98-a-0008	A.5	49.056750	49.636750		sentencing	sentencing
sw2962A-ms98-a-0008	A.5	49.636750	49.966750		simply	simply
sw2962A-ms98-a-0008	A.5	49.966750	50.503875		because	because
sw2962A-ms98-a-0008	A.5	50.503875	50.853500		[silence]	[silence]
sw2962A-ms98-a-0009	A.5	50.853500	51.123500		[silence]	[silence]
sw2962A-ms98-a-0009	A.5	51.123500	51.439625		uh	uh
sw2962A-ms98-a-0009	A.5	51.439625	52.205125		[silence]	[silence]
sw2962A-ms98-a-0009	A.5	52.205125	52.406500	<CONT>	there	there's
sw2962A-ms98-a-0009	A.5	52.406500	52.406500	<CONT>	is	+++
sw2962A-ms98-a-0009	A.5	52.406500	52.861500		always	always
sw2962A-ms98-a-0009	A.5	52.861500	53.137875		uh	uh
sw2962A-ms98-a-0009	A.5	53.137875	53.254625		[silence]	[silence]
sw2962A-ms98-a-0009	A.5	53.254625	53.527750	<CONT>	there	there's
sw2962A-ms98-a-0009	A.5	53.527750	53.527750	<CONT>	is	+++
sw2962A-ms98-a-0009	A.7	53.527750	53.659625		[silence]	[silence]
sw2962A-ms98-a-0009	A.7	53.659625	53.833500	<CONT>	there	there's
sw2962A-ms98-a-0009	A.7	53.833500	53.833500	<CONT>	is	+++
sw2962A-ms98-a-0009	A.7	53.833500	54.103500		always	always
sw2962A-ms98-a-0009	A.7	54.103500	54.233500		a	a
sw2962A-ms98-a-0009	A.7	54.233500	54.513500		jury	jury
sw2962A-ms98-a-0009	A.7	54.513500	54.713500		that	that
sw2962A-ms98-a-0009	A.7	54.713500	54.963500		might	might
sw2962A-ms98-a-0009	A.7	54.963500	55.063500		be	be
sw2962A-ms98-a-0009	A.7	55.063500	55.666875		swayed	[laughter-swayed]
sw2962A-ms98-a-0009	A.7	55.666875	56.185250		[silence]	[silence]
sw2962A-ms98-a-0009	A.7	56.185250	56.452750		uh	uh
sw2962A-ms98-a-0009	A.7	56.452750	56.663500		by	by
sw2962A-ms98-a-0009	A.7	56.663500	56.813500		the	the
sw2962A-ms98-a-0009	A.7	56.813500	57.547875		moment	moment
sw2962A-ms98-a-0009	A.7	57.547875	57.913500		uh	uh
sw2962A-ms98-a-0009	A.7	57.913500	58.023500		to	to
sw2962A-ms98-a-0009	A.7	58.023500	58.419500		either	either
sw2962A-ms98-a-0009	A.7	58.419500	58.419500	<INS>	to	---
sw2962A-ms98-a-0009	A.7	58.419500	58.596500		be	be
sw2962A-ms98-a-0009	A.7	58.596500	58.793500		too	too
sw2962A-ms98-a-0009	A.7	58.793500	59.273500		lenient	lenient
sw2962A-ms98-a-0009	A.7	59.273500	59.604375		or	or
sw2962A-ms98-a-0009	A.7	59.604375	60.011125		[silence]	[silence]
sw2962A-ms98-a-0009	A.7	60.011125	60.433500		too	too
sw2962A-ms98-a-0009	A.7	60.433500	61.113500		vengeful	vengeful
sw2962A-ms98-a-0009	A.7	61.113500	61.254875		I	i
sw2962A-ms98-a-0009	A.7	61.254875	61.646625		guess	guess
sw2962A-ms98-a-0009	A.9	61.646625	62.101500		[silence]	[silence]
sw2962A-ms98-a-0010	A.9	62.101500	72.107000		[silence]	[silence]
sw2962A-ms98-a-0011	A.9	72.107000	72.601000		[silence]	[silence]
sw2962A-ms98-a-0011	A.9	72.601000	72.953125		Yeah	yeah
sw2962A-ms98-a-0011	A.11	72.953125	73.365500		[silence]	[silence]
sw2962A-ms98-a-0012	A.11	73.365500	74.917125		[silence]	[silence]
sw2962A-ms98-a-0013	A.11	74.917125	75.379750		[silence]	[silence]
sw2962A-ms98-a-0013	A.11	75.379750	75.477125		But	but
sw2962A-ms98-a-0013	A.11	75.477125	75.507125		I	i
sw2962A-ms98-a-0013	A.11	75.507125	75.657125		mean	mean
sw2962A-ms98-a-0013	A.11	75.657125	75.877125	<CONT>	is	isn't
sw2962A-ms98-a-0013	A.11	75.877125	75.877125	<CONT>	not	+++
sw2962A-ms98-a-0013	A.11	75.877125	76.064625		that	that
sw2962A-ms98-a-0013	A.13	76.064625	76.279250		[silence]	[silence]
sw2962A-ms98-a-0013	A.13	76.279250	76.677125		uh	uh
sw2962A-ms98-a-0013	A.13	76.677125	76.897125		is	is
sw2962A-ms98-a-0013	A.13	76.897125	77.097125		that	that
sw2962A-ms98-a-0013	A.13	77.097125	77.137125		a	a
sw2962A-ms98-a-0013	A.13	77.137125	77.747125		reflection	reflection
sw2962A-ms98-a-0013	A.13	77.747125	77.937125		then	then
sw2962A-ms98-a-0013	A.13	77.937125	78.137125		of	of
sw2962A-ms98-a-0013	A.13	78.137125	78.397125	<CONT>	what	what's
sw2962A-ms98-a-0013	A.13	78.397125	78.397125	<CONT>	is	+++
sw2962A-ms98-a-0013	A.13	78.397125	78.597125		really	really
sw2962A-ms98-a-0013	A.13	78.597125	79.017125		happening	happening
sw2962A-ms98-a-0013	A.13	79.017125	79.117125		in	in
sw2962A-ms98-a-0013	A.13	79.117125	79.207125		the	the
sw2962A-ms98-a-0013	A.13	79.207125	79.417125		real	real
sw2962A-ms98-a-0013	A.13	79.417125	79.697125		world	world
sw2962A-ms98-a-0013	A.13	79.697125	79.887625		If	if
sw2962A-ms98-a-0013	A.13	79.887625	80.000625		[silence]	[silence]
sw2962A-ms98-a-0013	A.13	80.000625	80.172750		if	if
sw2962A-ms98-a-0013	A.13	80.172750	80.287125		if	if
sw2962A-ms98-a-0013	A.13	80.287125	80.367125		they	they
sw2962A-ms98-a-0013	A.13	80.367125	80.597125		keep	keep
sw2962A-ms98-a-0013	A.13	80.597125	80.837125		giving	giving
sw2962A-ms98-a-0013	A.13	80.837125	81.457125		everybody	everybody
sw2962A-ms98-a-0013	A.13	81.457125	81.806250		[silence]	[silence]
sw2962A-ms98-a-0014	A.13	81.806250	82.136250		[silence]	[silence]
sw2962A-ms98-a-0014	A.13	82.136250	82.496250		hundred	hundred
sw2962A-ms98-a-0014	A.13	82.496250	82.676250		year	year
sw2962A-ms98-a-0014	A.13	82.676250	83.466750		sentences	sentences
sw2962A-ms98-a-0014	A.13	83.466750	83.636250		[silence]	[silence]
sw2962A-ms98-a-0014	A.13	83.636250	84.126250		and	and
sw2962A-ms98-a-0014	A.13	84.126250	84.455500		the	the
sw2962A-ms98-a-0014	A.13	84.455500	84.666500		[silence]	[silence]
sw2962A-ms98-a-0014	A.13	84.666500	85.164250		people	people
sw2962A-ms98-a-0014	A.13	85.164250	85.546250		in	in
sw2962A-ms98-a-0014	A.13	85.546250	85.896250		various	various
sw2962A-ms98-a-0014	A.13	85.896250	86.550750		states	states
sw2962A-ms98-a-0014	A.13	86.550750	86.691750		it	it
sw2962A-ms98-a-0014	A.13	86.691750	86.778375		[silence]	[silence]
sw2962A-ms98-a-0014	A.13	86.778375	87.066250	<CONT>	does	doesn't
sw2962A-ms98-a-0014	A.13	87.066250	87.066250	<CONT>	not	+++
sw2962A-ms98-a-0014	A.13	87.066250	87.346250		seem	seem
sw2962A-ms98-a-0014	A.13	87.346250	87.536250		that	that
sw2962A-ms98-a-0014	A.13	87.536250	87.776250		people	people
sw2962A-ms98-a-0014	A.13	87.776250	87.996250		want	want
sw2962A-ms98-a-0014	A.13	87.996250	88.066250		to	to
sw2962A-ms98-a-0014	A.13	88.066250	88.156250		be	be
sw2962A-ms98-a-0014	A.13	88.156250	88.596250		taxed	taxed
sw2962A-ms98-a-0014	A.13	88.596250	88.694125		to	to
sw2962A-ms98-a-0014	A.13	88.694125	88.867375		[silence]	[silence]
sw2962A-ms98-a-0014	A.13	88.867375	89.146250		build	build
sw2962A-ms98-a-0014	A.13	89.146250	89.356250		more	more
sw2962A-ms98-a-0014	A.13	89.356250	90.033875		prisons	prisons
sw2962A-ms98-a-0014	A.13	90.033875	90.418000		[silence]	[silence]
sw2962A-ms98-a-0014	A.13	90.418000	90.596250		Or	or
sw2962A-ms98-a-0014	A.13	90.596250	90.806250		even	even
sw2962A-ms98-a-0014	A.13	90.806250	90.966250		in	in
sw2962A-ms98-a-0014	A.13	90.966250	91.126250		for	for
sw2962A-ms98-a-0014	A.13	91.126250	91.376250		that	that
sw2962A-ms98-a-0014	A.13	91.376250	91.780625		matter	matter
sw2962A-ms98-a-0014	A.13	91.780625	92.007500		[silence]	[silence]
sw2962A-ms98-a-0015	A.13	92.007500	92.247500		[silence]	[silence]
sw2962A-ms98-a-0015	A.13	92.247500	92.867500		uh	uh
sw2962A-ms98-a-0015	A.13	92.867500	93.397500		repair	repair
sw2962A-ms98-a-0015	A.13	93.397500	93.683500		the	the
sw2962A-ms98-a-0015	A.13	93.683500	94.105375		uh	uh
sw2962A-ms98-a-0015	A.13	94.105375	94.197500		the	the
sw2962A-ms98-a-0015	A.13	94.197500	94.477500		lack	lack
sw2962A-ms98-a-0015	A.13	94.477500	94.637500		of	of
sw2962A-ms98-a-0015	A.13	94.637500	95.117500		judges	judges
sw2962A-ms98-a-0015	A.13	95.117500	95.507500		and	and
sw2962A-ms98-a-0015	A.13	95.507500	95.941875		and	and
sw2962A-ms98-a-0015	A.13	95.941875	96.347500		and	and
sw2962A-ms98-a-0015	A.13	96.347500	96.717750		other	other
sw2962A-ms98-a-0015	A.13	96.717750	96.993750		uh	uh
sw2962A-ms98-a-0015	A.17	96.993750	97.409250		[silence]	[silence]
sw2962A-ms98-a-0016	A.17	97.409250	104.779750		[silence]	[silence]
sw2962A-ms98-a-0017	A.17	104.779750	104.986000		[silence]	[silence]
sw2962A-ms98-a-0017	A.17	104.986000	106.280750		[laughter]	[laughter]
sw2962A-ms98-a-0017	A.17	106.280750	106.668375		[silence]	[silence]
sw2962A-ms98-a-0018	A.17	106.668375	107.309750		[silence]	[silence]
sw2962A-ms98-a-0018	A.17	107.309750	107.468375		Yeah	yeah
sw2962A-ms98-a-0018	A.19	107.468375	107.468375	<INS>	yeah	---
sw2962A-ms98-a-0018	A.19	107.468375	107.608375		you	you
sw2962A-ms98-a-0018	A.19	107.608375	107.748375		know	know
sw2962A-ms98-a-0018	A.19	107.748375	107.928375		that	that
sw2962A-ms98-a-0018	A.19	107.928375	108.156500		might	might
sw2962A-ms98-a-0018	A.19	108.156500	108.358375		be	be
sw2962A-ms98-a-0018	A.19	108.358375	108.548375		it	it
sw2962A-ms98-a-0018	A.19	108.548375	108.628375		I	i
sw2962A-ms98-a-0018	A.19	108.628375	108.788375		mean	mean
sw2962A-ms98-a-0018	A.19	108.788375	109.016875		they	they
sw2962A-ms98-a-0018	A.21	109.016875	109.589500		[silence]	[silence]
sw2962A-ms98-a-0018	A.21	109.589500	109.678375		they	they
sw2962A-ms98-a-0018	A.21	109.678375	110.191750		certainly	certainly
sw2962A-ms98-a-0018	A.23	110.191750	110.751875		[silence]	[silence]
sw2962A-ms98-a-0019	A.23	110.751875	111.377875		[silence]	[silence]
sw2962A-ms98-a-0019	A.23	111.377875	111.676875		I	i
sw2962A-ms98-a-0019	A.23	111.676875	112.001875	<CONT>	do	don't
sw2962A-ms98-a-0019	A.23	112.001875	112.001875	<CONT>	not	+++
sw2962A-ms98-a-0019	A.25	112.001875	112.071875		I	i
sw2962A-ms98-a-0019	A.25	112.071875	112.201875		don't	don't
sw2962A-ms98-a-0019	A.25	112.201875	112.291875		know	know
sw2962A-ms98-a-0019	A.25	112.291875	112.471875		how	how
sw2962A-ms98-a-0019	A.27	112.471875	112.551875		it	it
sw2962A-ms98-a-0019	A.27	112.551875	112.691875		is	is
sw2962A-ms98-a-0019	A.27	112.691875	112.761875		in	in
sw2962A-ms98-a-0019	A.27	112.761875	113.271875		Virginia	Virginia
sw2962A-ms98-a-0019	A.27	113.271875	113.441875		but	but
sw2962A-ms98-a-0019	A.27	113.441875	113.541875		in	in
sw2962A-ms98-a-0019	A.27	113.541875	114.021875		Florida	Florida
sw2962A-ms98-a-0019	A.27	114.021875	114.512625		now	now
sw2962A-ms98-a-0019	A.27	114.512625	114.990875		uh	uh
sw2962A-ms98-a-0019	A.27	114.990875	115.310875		uh	uh
sw2962A-ms98-a-0019	A.27	115.310875	115.484125		uh	uh
sw2962A-ms98-a-0019	A.27	115.484125	115.641875		at	at
sw2962A-ms98-a-0019	A.27	115.641875	116.071875		eighteen	eighteen
sw2962A-ms98-a-0019	A.27	116.071875	116.381875		years	years
sw2962A-ms98-a-0019	A.27	116.381875	116.661875		someone	someone
sw2962A-ms98-a-0019	A.27	116.661875	116.781875		was	was
sw2962A-ms98-a-0019	A.27	116.781875	117.011875		just	just
sw2962A-ms98-a-0019	A.27	117.011875	117.321875		sentenced	sentenced
sw2962A-ms98-a-0019	A.27	117.321875	117.381875		to	to
sw2962A-ms98-a-0019	A.27	117.381875	117.771875		eighteen	eighteen
sw2962A-ms98-a-0019	A.27	117.771875	118.031875		years	years
sw2962A-ms98-a-0019	A.27	118.031875	118.101875		I	i
sw2962A-ms98-a-0019	A.27	118.101875	118.291875		heard	heard
sw2962A-ms98-a-0019	A.27	118.291875	118.291875	<INS>	it	---
sw2962A-ms98-a-0019	A.27	118.291875	118.496250		on	on
sw2962A-ms98-a-0019	A.27	118.496250	118.635625		[silence]	[silence]
sw2962A-ms98-a-0019	A.27	118.635625	119.159625		TODAY	Today
sw2962A-ms98-a-0019	A.27	119.159625	119.522875		[silence]	[silence]
sw2962A-ms98-a-0020	A.27	119.522875	119.822875		[silence]	[silence]
sw2962A-ms98-a-0020	A.27	119.822875	120.112875		uh	uh
sw2962A-ms98-a-0020	A.27	120.112875	120.533250		without	without
sw2962A-ms98-a-0020	A.27	120.533250	120.631125		[silence]	[silence]
sw2962A-ms98-a-0020	A.27	120.631125	120.892875		any	any
sw2962A-ms98-a-0020	A.27	120.892875	121.432875		specific	specific
sw2962A-ms98-a-0020	A.27	121.432875	122.342250		recommendation	recommendation
sw2962A-ms98-a-0020	A.27	122.342250	123.037875		for	for
sw2962A-ms98-a-0020	A.27	123.037875	123.411875		uh	uh
sw2962A-ms98-a-0020	A.27	123.411875	123.961250		[silence]	[silence]
sw2962A-ms98-a-0020	A.27	123.961250	124.224250		uh	uh
sw2962A-ms98-a-0020	A.27	124.224250	124.417000		uh	uh
sw2962A-ms98-a-0020	A.27	124.417000	124.643000		uh	uh
sw2962A-ms98-a-0020	A.27	124.643000	124.964125		uh	uh
sw2962A-ms98-a-0020	A.27	124.964125	125.543250		uh	uh
sw2962A-ms98-a-0020	A.27	125.543250	125.589750		[silence]	[silence]
sw2962A-ms98-a-0021	A.27	125.589750	125.973125		[silence]	[silence]
sw2962A-ms98-a-0021	A.27	125.973125	126.192250	<DEL>	---	uh
sw2962A-ms98-a-0021	A.27	126.192250	126.659750		waving	waving
sw2962A-ms98-a-0021	A.27	126.659750	126.819750		the	the
sw2962A-ms98-a-0021	A.27	126.819750	127.379750		normal	normal
sw2962A-ms98-a-0021	A.27	127.379750	127.499750		uh	uh
sw2962A-ms98-a-0021	A.27	127.499750	128.139750		procedures	procedures
sw2962A-ms98-a-0021	A.27	128.139750	128.369750		And	and
sw2962A-ms98-a-0021	A.27	128.369750	128.429750		the	the
sw2962A-ms98-a-0021	A.27	128.429750	129.009750		eighteen	eighteen
sw2962A-ms98-a-0021	A.27	129.009750	129.529750		years	years
sw2962A-ms98-a-0021	A.27	129.529750	129.949750		will	will
sw2962A-ms98-a-0021	A.27	129.949750	130.285625		uh	uh
sw2962A-ms98-a-0021	A.27	130.285625	131.069750		translate	translate
sw2962A-ms98-a-0021	A.27	131.069750	131.309750		into	into
sw2962A-ms98-a-0021	A.27	131.309750	131.739750		something	something
sw2962A-ms98-a-0021	A.27	131.739750	132.119750		like	like
sw2962A-ms98-a-0021	A.27	132.119750	132.309750		uh	uh
sw2962A-ms98-a-0021	A.27	132.309750	132.589750		four	four
sw2962A-ms98-a-0021	A.27	132.589750	132.909750		point	point
sw2962A-ms98-a-0021	A.27	132.909750	133.447875		seven	seven
sw2962A-ms98-a-0021	A.27	133.447875	133.629750		if	if
sw2962A-ms98-a-0021	A.27	133.629750	133.959750		every	every
sw2962A-ms98-a-0021	A.27	133.959750	134.119750		if	if
sw2962A-ms98-a-0021	A.27	134.119750	134.400250		the	the
sw2962A-ms98-a-0021	A.27	134.400250	134.601000		if	if
sw2962A-ms98-a-0021	A.27	134.601000	134.698875		the	the
sw2962A-ms98-a-0021	A.27	134.698875	135.169750		prisoner	prisoner
sw2962A-ms98-a-0021	A.27	135.169750	135.289750		is	is
sw2962A-ms98-a-0021	A.27	135.289750	135.349750		a	a
sw2962A-ms98-a-0021	A.27	135.349750	135.639750		model	model
sw2962A-ms98-a-0021	A.27	135.639750	136.123125		prisoner	prisoner
sw2962A-ms98-a-0021	A.29	136.123125	136.609000		[silence]	[silence]
sw2962A-ms98-a-0021	A.29	136.609000	136.779750		and	and
sw2962A-ms98-a-0021	A.29	136.779750	137.129750		indeed	indeed
sw2962A-ms98-a-0021	A.29	137.129750	137.189750		the	the
sw2962A-ms98-a-0021	A.29	137.189750	137.599750		present	present
sw2962A-ms98-a-0021	A.29	137.599750	138.119750		overcrowding	overcrowding
sw2962A-ms98-a-0021	A.29	138.119750	138.759750		conditions	conditions
sw2962A-ms98-a-0021	A.29	138.759750	138.914250		uh	uh
sw2962A-ms98-a-0021	A.29	138.914250	139.288500		[silence]	[silence]
sw2962A-ms98-a-0022	A.29	139.288500	139.525625		[silence]	[silence]
sw2962A-ms98-a-0022	A.29	139.525625	140.078500		prevail	prevail
sw2962A-ms98-a-0022	A.31	140.078500	140.478500		Plus	plus
sw2962A-ms98-a-0022	A.31	140.478500	140.548500		I	i
sw2962A-ms98-a-0022	A.31	140.548500	140.758500		guess	guess
sw2962A-ms98-a-0022	A.31	140.758500	140.858500		there	there
sw2962A-ms98-a-0022	A.31	140.858500	140.978500		was	was
sw2962A-ms98-a-0022	A.31	140.978500	141.128500		some	some
sw2962A-ms98-a-0022	A.31	141.128500	141.438500		credit	credit
sw2962A-ms98-a-0022	A.31	141.438500	141.568500		for	for
sw2962A-ms98-a-0022	A.31	141.568500	141.898500		time	time
sw2962A-ms98-a-0022	A.31	141.898500	142.068500		this	this
sw2962A-ms98-a-0022	A.31	142.068500	142.238500		guy	guy
sw2962A-ms98-a-0022	A.31	142.238500	142.368500		had	had
sw2962A-ms98-a-0022	A.31	142.368500	142.578500		already	already
sw2962A-ms98-a-0022	A.31	142.578500	142.978500		spent	spent
sw2962A-ms98-a-0022	A.31	142.978500	143.058500		in	in
sw2962A-ms98-a-0022	A.31	143.058500	143.348500		jail	jail
sw2962A-ms98-a-0022	A.31	143.348500	143.568500		waiting	waiting
sw2962A-ms98-a-0022	A.31	143.568500	143.732750		for	for
sw2962A-ms98-a-0022	A.31	143.732750	144.144125		trial	trial
sw2962A-ms98-a-0022	A.33	144.144125	144.905000		[silence]	[silence]
sw2962A-ms98-a-0023	A.33	144.905000	145.441500		[silence]	[silence]
sw2962A-ms98-a-0023	A.33	145.441500	145.765000		So	so
sw2962A-ms98-a-0023	A.33	145.765000	145.946500		uh	uh
sw2962A-ms98-a-0023	A.33	145.946500	146.123625		[silence]	[silence]
sw2962A-ms98-a-0023	A.33	146.123625	146.335000		yeah	yeah
sw2962A-ms98-a-0023	A.33	146.335000	146.475000		you	you
sw2962A-ms98-a-0023	A.33	146.475000	146.665000		might	might
sw2962A-ms98-a-0023	A.33	146.665000	146.795000		be	be
sw2962A-ms98-a-0023	A.33	146.795000	147.035000		right	right
sw2962A-ms98-a-0023	A.33	147.035000	147.305000		about	about
sw2962A-ms98-a-0023	A.33	147.305000	147.625000		that	that
sw2962A-ms98-a-0023	A.33	147.625000	147.795000		I	i
sw2962A-ms98-a-0023	A.33	147.795000	148.025000		I	i
sw2962A-ms98-a-0023	A.33	148.025000	148.175000		I	i
sw2962A-ms98-a-0023	A.33	148.175000	148.245000		do	do
sw2962A-ms98-a-0023	A.33	148.245000	148.399250		not	not
sw2962A-ms98-a-0023	A.33	148.399250	148.645000		know	know
sw2962A-ms98-a-0023	A.33	148.645000	148.775000		it	it
sw2962A-ms98-a-0023	A.33	148.775000	148.995000		just	just
sw2962A-ms98-a-0023	A.33	148.995000	149.165000		seems	seems
sw2962A-ms98-a-0023	A.33	149.165000	149.245000		to	to
sw2962A-ms98-a-0023	A.33	149.245000	149.395000		me	me
sw2962A-ms98-a-0023	A.33	149.395000	149.525000		that	that
sw2962A-ms98-a-0023	A.33	149.525000	149.745000		only	only
sw2962A-ms98-a-0023	A.33	149.745000	150.119250		about	about
sw2962A-ms98-a-0023	A.33	150.119250	150.465000		uh	uh
sw2962A-ms98-a-0023	A.33	150.465000	150.725000		from	from
sw2962A-ms98-a-0023	A.33	150.725000	150.865000		what	what
sw2962A-ms98-a-0023	A.33	150.865000	151.005000		I	i
sw2962A-ms98-a-0023	A.33	151.005000	151.215000		read	read
sw2962A-ms98-a-0023	A.33	151.215000	151.395000		only	only
sw2962A-ms98-a-0023	A.33	151.395000	151.665000		about	about
sw2962A-ms98-a-0023	A.33	151.665000	151.945000		ninety	ninety
sw2962A-ms98-a-0023	A.33	151.945000	152.295000		percent	percent
sw2962A-ms98-a-0023	A.33	152.295000	152.355000		of	of
sw2962A-ms98-a-0023	A.33	152.355000	152.415000		the	the
sw2962A-ms98-a-0023	A.33	152.415000	152.748125		ca-	ca[ses]-
sw2962A-ms98-a-0023	A.33	152.748125	153.045000		only	only
sw2962A-ms98-a-0023	A.33	153.045000	153.305000		about	about
sw2962A-ms98-a-0023	A.33	153.305000	153.475000		ten	ten
sw2962A-ms98-a-0023	A.33	153.475000	153.815000		percent	percent
sw2962A-ms98-a-0023	A.33	153.815000	153.908125		of	of
sw2962A-ms98-a-0023	A.33	153.908125	153.981250		the	the
sw2962A-ms98-a-0023	A.33	153.981250	153.981250	<INS>	pa-	---
sw2962A-ms98-a-0023	A.33	153.981250	154.147000		[vocalized-noise]	[vocalized-noise]
sw2962A-ms98-a-0023	A.33	154.147000	154.505000		cases	cases
sw2962A-ms98-a-0023	A.33	154.505000	154.725000		come	come
sw2962A-ms98-a-0023	A.33	154.725000	154.855000		for	for
sw2962A-ms98-a-0023	A.33	154.855000	155.265000		trial	trial
sw2962A-ms98-a-0023	A.33	155.265000	155.767250		anyway	anyway
sw2962A-ms98-a-0023	A.35	155.767250	156.110250		[silence]	[silence]
sw2962A-ms98-a-0024	A.35	156.110250	156.416500		[silence]	[silence]
sw2962A-ms98-a-0024	A.35	156.416500	156.840250		And	and
sw2962A-ms98-a-0024	A.35	156.840250	157.110250		uh	uh
sw2962A-ms98-a-0024	A.35	157.110250	157.530250		only	only
sw2962A-ms98-a-0024	A.35	157.530250	158.123625		about	about
sw2962A-ms98-a-0024	A.35	158.123625	158.700250		uh	uh
sw2962A-ms98-a-0024	A.35	158.700250	158.750250		f-	f[our]-
sw2962A-ms98-a-0024	A.35	158.750250	158.840250	<DEL>	---	f[our]-
sw2962A-ms98-a-0024	A.35	158.840250	159.890250		four	four
sw2962A-ms98-a-0024	A.35	159.890250	159.960250		or	or
sw2962A-ms98-a-0024	A.35	159.960250	160.300250		five	five
sw2962A-ms98-a-0024	A.35	160.300250	160.629625		percent	percent
sw2962A-ms98-a-0024	A.35	160.629625	160.882000		of	of
sw2962A-ms98-a-0024	A.35	160.882000	161.081625		[silence]	[silence]
sw2962A-ms98-a-0024	A.35	161.081625	161.715000		uh	uh
sw2962A-ms98-a-0024	A.35	161.715000	161.956750		[silence]	[silence]
sw2962A-ms98-a-0024	A.35	161.956750	162.210250		in	in
sw2962A-ms98-a-0024	A.35	162.210250	162.300250		the	the
sw2962A-ms98-a-0024	A.35	162.300250	162.600250		in	in
sw2962A-ms98-a-0024	A.35	162.600250	162.670250		the	the
sw2962A-ms98-a-0024	A.35	162.670250	162.970250		very	very
sw2962A-ms98-a-0024	A.35	162.970250	163.190250		end	end
sw2962A-ms98-a-0024	A.35	163.190250	163.420250		or	or
sw2962A-ms98-a-0024	A.35	163.420250	163.750250		less	less
sw2962A-ms98-a-0024	A.35	163.750250	163.972000		than	than
sw2962A-ms98-a-0024	A.35	163.972000	164.292875		[silence]	[silence]
sw2962A-ms98-a-0025	A.35	164.292875	164.521625		[silence]	[silence]
sw2962A-ms98-a-0025	A.35	164.521625	164.862875		less	less
sw2962A-ms98-a-0025	A.35	164.862875	165.002875		than	than
sw2962A-ms98-a-0025	A.35	165.002875	165.372875		half	half
sw2962A-ms98-a-0025	A.35	165.372875	165.432875		the	the
sw2962A-ms98-a-0025	A.35	165.432875	165.932875		trials	trials
sw2962A-ms98-a-0025	A.35	165.932875	166.102875		that	that
sw2962A-ms98-a-0025	A.35	166.102875	166.661125		go	go
sw2962A-ms98-a-0025	A.35	166.661125	166.826875		to	to
sw2962A-ms98-a-0025	A.35	166.826875	167.019750		uh	uh
sw2962A-ms98-a-0025	A.35	167.019750	167.122875	<DEL>	---	uh
sw2962A-ms98-a-0025	A.35	167.122875	167.292875		less	less
sw2962A-ms98-a-0025	A.35	167.292875	167.422875		than	than
sw2962A-ms98-a-0025	A.35	167.422875	167.782875		half	half
sw2962A-ms98-a-0025	A.35	167.782875	167.862875		the	the
sw2962A-ms98-a-0025	A.35	167.862875	168.222875		cases	cases
sw2962A-ms98-a-0025	A.35	168.222875	168.352875		that	that
sw2962A-ms98-a-0025	A.35	168.352875	168.542875		go	go
sw2962A-ms98-a-0025	A.35	168.542875	168.662875		to	to
sw2962A-ms98-a-0025	A.35	168.662875	169.295125		trial	trial
sw2962A-ms98-a-0025	A.35	169.295125	169.715875		[silence]	[silence]
sw2962A-ms98-a-0025	A.35	169.715875	169.866500		uh	uh
sw2962A-ms98-a-0025	A.35	169.866500	170.092875		end	end
sw2962A-ms98-a-0025	A.35	170.092875	170.372875		up	up
sw2962A-ms98-a-0025	A.35	170.372875	170.793125		w-	w[ith]-
sw2962A-ms98-a-0025	A.35	170.793125	171.207500		with	with
sw2962A-ms98-a-0025	A.37	171.207500	171.682000		uh	uh
sw2962A-ms98-a-0025	A.37	171.682000	171.927000		with	with
sw2962A-ms98-a-0025	A.37	171.927000	172.032750		the	the
sw2962A-ms98-a-0025	A.37	172.032750	172.272875		jury	jury
sw2962A-ms98-a-0025	A.37	172.272875	172.622875		actually	actually
sw2962A-ms98-a-0025	A.37	172.622875	172.912875		making	making
sw2962A-ms98-a-0025	A.37	172.912875	172.982875		the	the
sw2962A-ms98-a-0025	A.37	172.982875	173.460375		verdict	verdict
sw2962A-ms98-a-0025	A.39	173.460375	174.211125		[silence]	[silence]
sw2962A-ms98-a-0026	A.39	174.211125	174.959375		[silence]	[silence]
sw2962A-ms98-a-0026	A.39	174.959375	175.172750		That	that
sw2962A-ms98-a-0026	A.39	175.172750	175.285750		[silence]	[silence]
sw2962A-ms98-a-0026	A.39	175.285750	175.551125		most	most
sw2962A-ms98-a-0026	A.39	175.551125	175.621125		of	of
sw2962A-ms98-a-0026	A.39	175.621125	175.821125	<CONT>	it	it's
sw2962A-ms98-a-0026	A.39	175.821125	175.821125	<CONT>	is	+++
sw2962A-ms98-a-0026	A.39	175.821125	176.071125		plea	plea
sw2962A-ms98-a-0026	A.39	176.071125	176.711125		bargained	bargained
sw2962A-ms98-a-0026	A.39	176.711125	176.921125		uh	uh
sw2962A-ms98-a-0026	A.39	176.921125	177.231125		half	half
sw2962A-ms98-a-0026	A.39	177.231125	177.461125		way	way
sw2962A-ms98-a-0026	A.39	177.461125	177.741125		through	through
sw2962A-ms98-a-0026	A.39	177.741125	178.161125		or	or
sw2962A-ms98-a-0026	A.39	178.161125	178.438125		or	or
sw2962A-ms98-a-0026	A.39	178.438125	178.573625	<DEL>	---	uh
sw2962A-ms98-a-0026	A.39	178.573625	178.811125		most	most
sw2962A-ms98-a-0026	A.39	178.811125	178.871125		of	of
sw2962A-ms98-a-0026	A.39	178.871125	178.931125		the	the
sw2962A-ms98-a-0026	A.39	178.931125	179.231125		cases	cases
sw2962A-ms98-a-0026	A.39	179.231125	179.291125		are	are
sw2962A-ms98-a-0026	A.39	179.291125	179.531125		plea	plea
sw2962A-ms98-a-0026	A.39	179.531125	179.891125		bargained	bargained
sw2962A-ms98-a-0026	A.39	179.891125	180.274625		anyway	anyway
sw2962A-ms98-a-0026	A.41	180.274625	180.808625		[silence]	[silence]
sw2962A-ms98-a-0027	A.41	180.808625	181.352375		[silence]	[silence]
sw2962A-ms98-a-0027	A.41	181.352375	181.578625		But	but
sw2962A-ms98-a-0027	A.41	181.578625	181.837125		uh	uh
sw2962A-ms98-a-0027	A.41	181.837125	182.349375		[silence]	[silence]
sw2962A-ms98-a-0027	A.41	182.349375	182.608625		uh	uh
sw2962A-ms98-a-0027	A.41	182.608625	182.708625		how	how
sw2962A-ms98-a-0027	A.41	182.708625	182.768625		do	do
sw2962A-ms98-a-0027	A.41	182.768625	182.848625		you	you
sw2962A-ms98-a-0027	A.41	182.848625	183.078625		feel	feel
sw2962A-ms98-a-0027	A.41	183.078625	183.344125		about	about
sw2962A-ms98-a-0027	A.41	183.344125	183.476375		the	the
sw2962A-ms98-a-0027	A.41	183.476375	183.476375	<INS>	uh	---
sw2962A-ms98-a-0027	A.41	183.476375	183.773875		[silence]	[silence]
sw2962A-ms98-a-0027	A.41	183.773875	184.438625		about	about
sw2962A-ms98-a-0027	A.41	184.438625	184.752500		the	the
sw2962A-ms98-a-0027	A.41	184.752500	185.023625		[silence]	[silence]
sw2962A-ms98-a-0027	A.41	185.023625	185.398625		jury	jury
sw2962A-ms98-a-0027	A.41	185.398625	186.114875		system	system
sw2962A-ms98-a-0027	A.41	186.114875	186.465250		[silence]	[silence]
sw2962A-ms98-a-0027	A.41	186.465250	186.988625		itself	itself
sw2962A-ms98-a-0027	A.41	186.988625	187.068625		Do	do
sw2962A-ms98-a-0027	A.41	187.068625	187.228625		you	you
sw2962A-ms98-a-0027	A.41	187.228625	187.228625	<INS>	do	---
sw2962A-ms98-a-0027	A.41	187.228625	187.378625		you	you
sw2962A-ms98-a-0027	A.41	187.378625	187.588625		think	think
sw2962A-ms98-a-0027	A.41	187.588625	187.748625		that	that
sw2962A-ms98-a-0027	A.41	187.748625	187.918625		should	should
sw2962A-ms98-a-0027	A.41	187.918625	188.018625		be	be
sw2962A-ms98-a-0027	A.41	188.018625	188.528625		changed	changed
sw2962A-ms98-a-0027	A.41	188.528625	188.721375		Or	or
sw2962A-ms98-a-0027	A.41	188.721375	188.981250		[silence]	[silence]
sw2962A-ms98-a-0027	A.41	188.981250	189.168625		do	do
sw2962A-ms98-a-0027	A.41	189.168625	189.168625	<INS>	you	---
sw2962A-ms98-a-0027	A.41	189.168625	189.278625		do	do
sw2962A-ms98-a-0027	A.41	189.278625	189.368625		you	you
sw2962A-ms98-a-0027	A.41	189.368625	189.558625		know	know
sw2962A-ms98-a-0027	A.41	189.558625	189.628625		in	in
sw2962A-ms98-a-0027	A.41	189.628625	190.028625		Virginia	Virginia
sw2962A-ms98-a-0027	A.41	190.028625	190.268625		whether	whether
sw2962A-ms98-a-0027	A.41	190.268625	190.438625	<CONT>	it	it's
sw2962A-ms98-a-0027	A.41	190.438625	190.438625	<CONT>	is	+++
sw2962A-ms98-a-0027	A.41	190.438625	190.708625		if	if
sw2962A-ms98-a-0027	A.41	190.708625	190.838625		they	they
sw2962A-ms98-a-0027	A.41	190.838625	191.018625		have	have
sw2962A-ms98-a-0027	A.41	191.018625	191.358625		smaller	smaller
sw2962A-ms98-a-0027	A.41	191.358625	191.768625		juries	juries
sw2962A-ms98-a-0027	A.41	191.768625	192.002750		or	or
sw2962A-ms98-a-0027	A.43	192.002750	192.507125		[silence]	[silence]
sw2962A-ms98-a-0028	A.43	192.507125	198.477000		[silence]	[silence]
sw2962A-ms98-a-0029	A.43	198.477000	198.992500		[silence]	[silence]
sw2962A-ms98-a-0029	A.43	198.992500	199.337500		Yeah	yeah
sw2962A-ms98-a-0029	A.45	199.337500	199.822125		[silence]	[silence]
sw2962A-ms98-a-0030	A.45	199.822125	214.512250		[silence]	[silence]
sw2962A-ms98-a-0031	A.45	214.512250	215.034250		[silence]	[silence]
sw2962A-ms98-a-0031	A.45	215.034250	215.247625		Yeah	yeah
sw2962A-ms98-a-0031	A.45	215.247625	215.412250		Well	well
sw2962A-ms98-a-0031	A.45	215.412250	215.482250		I	i
sw2962A-ms98-a-0031	A.45	215.482250	215.732250		guess	guess
sw2962A-ms98-a-0031	A.45	215.732250	215.880375		we	we
sw2962A-ms98-a-0031	A.47	215.880375	215.978375	<DEL>	---	do
sw2962A-ms98-a-0031	A.47	215.978375	216.331625		[silence]	[silence]
sw2962A-ms98-a-0032	A.47	216.331625	217.606125		[silence]	[silence]
sw2962A-ms98-a-0033	A.47	217.606125	217.737750		[silence]	[silence]
sw2962A-ms98-a-0033	A.47	217.737750	217.956125		Yeah	yeah
sw2962A-ms98-a-0033	A.47	217.956125	218.116125		I	i
sw2962A-ms98-a-0033	A.47	218.116125	218.286125		guess	guess
sw2962A-ms98-a-0033	A.47	218.286125	218.376125		we	we
sw2962A-ms98-a-0033	A.47	218.376125	218.586125		always	always
sw2962A-ms98-a-0033	A.47	218.586125	218.956125		focus	focus
sw2962A-ms98-a-0033	A.47	218.956125	219.076125		on	on
sw2962A-ms98-a-0033	A.47	219.076125	219.386125		criminal	criminal
sw2962A-ms98-a-0033	A.47	219.386125	219.856125		trials	trials
sw2962A-ms98-a-0033	A.47	219.856125	220.006125		with	with
sw2962A-ms98-a-0033	A.47	220.006125	220.006125	<INS>	th-	---
sw2962A-ms98-a-0033	A.47	220.006125	220.146125		with	with
sw2962A-ms98-a-0033	A.47	220.146125	220.206125		the	the
sw2962A-ms98-a-0033	A.47	220.206125	220.539875		jury	jury
sw2962A-ms98-a-0033	A.47	220.539875	220.712500		But	but
sw2962A-ms98-a-0033	A.47	220.712500	220.985750		[silence]	[silence]
sw2962A-ms98-a-0034	A.47	220.985750	221.275750		[silence]	[silence]
sw2962A-ms98-a-0034	A.47	221.275750	221.399000		I	i
sw2962A-ms98-a-0034	A.47	221.399000	221.495750		know	know
sw2962A-ms98-a-0034	A.47	221.495750	221.615750		you	you
sw2962A-ms98-a-0034	A.47	221.615750	221.785750		have	have
sw2962A-ms98-a-0034	A.47	221.785750	221.895750		a	a
sw2962A-ms98-a-0034	A.47	221.895750	222.165750		right	right
sw2962A-ms98-a-0034	A.47	222.165750	222.414750		to	to
sw2962A-ms98-a-0034	A.47	222.414750	222.621875		[silence]	[silence]
sw2962A-ms98-a-0034	A.47	222.621875	222.825750		ask	ask
sw2962A-ms98-a-0034	A.47	222.825750	222.945750		for	for
sw2962A-ms98-a-0034	A.47	222.945750	222.995750		a	a
sw2962A-ms98-a-0034	A.47	222.995750	223.365750		jury	jury
sw2962A-ms98-a-0034	A.47	223.365750	223.561250		in	in
sw2962A-ms98-a-0034	A.49	223.561250	223.785750		in	in
sw2962A-ms98-a-0034	A.49	223.785750	223.945750		any	any
sw2962A-ms98-a-0034	A.49	223.945750	224.205750		sort	sort
sw2962A-ms98-a-0034	A.49	224.205750	224.265750		of	of
sw2962A-ms98-a-0034	A.49	224.265750	224.345750		a	a
sw2962A-ms98-a-0034	A.49	224.345750	224.665750		case	case
sw2962A-ms98-a-0034	A.49	224.665750	224.905750		that	that
sw2962A-ms98-a-0034	A.49	224.905750	225.145750		even	even
sw2962A-ms98-a-0034	A.49	225.145750	225.275750		where	where
sw2962A-ms98-a-0034	A.49	225.275750	225.905750		damages	damages
sw2962A-ms98-a-0034	A.49	225.905750	226.110375		are	are
sw2962A-ms98-a-0034	A.49	226.110375	226.374500		[silence]	[silence]
sw2962A-ms98-a-0035	A.49	226.374500	226.724000		[silence]	[silence]
sw2962A-ms98-a-0035	A.49	226.724000	227.174500		are	are
sw2962A-ms98-a-0035	A.49	227.174500	227.544500		are	are
sw2962A-ms98-a-0035	A.49	227.544500	227.678500		uh	uh
sw2962A-ms98-a-0035	A.49	227.678500	227.844125		[silence]	[silence]
sw2962A-ms98-a-0035	A.49	227.844125	228.033750	<DEL>	---	a[re]-
sw2962A-ms98-a-0035	A.49	228.033750	228.195750		are	are
sw2962A-ms98-a-0035	A.49	228.195750	228.284500		the	the
sw2962A-ms98-a-0035	A.49	228.284500	228.724500	<SUB>	result	results
sw2962A-ms98-a-0035	A.49	228.724500	228.804500		of	of
sw2962A-ms98-a-0035	A.49	228.804500	229.024500		some	some
sw2962A-ms98-a-0035	A.49	229.024500	229.234500		sort	sort
sw2962A-ms98-a-0035	A.49	229.234500	229.314500		of	of
sw2962A-ms98-a-0035	A.49	229.314500	229.492125		a	a
sw2962A-ms98-a-0035	A.49	229.492125	229.971000		[silence]	[silence]
sw2962A-ms98-a-0035	A.49	229.971000	230.306250		uh	uh
sw2962A-ms98-a-0035	A.49	230.306250	230.494500		an	an
sw2962A-ms98-a-0035	A.49	230.494500	230.874500		action	action
sw2962A-ms98-a-0035	A.49	230.874500	231.014500		that	that
sw2962A-ms98-a-0035	A.49	231.014500	231.144500	<CONT>	you	you're
sw2962A-ms98-a-0035	A.49	231.144500	231.144500	<CONT>	are	+++
sw2962A-ms98-a-0035	A.49	231.144500	231.394500		bringing	bringing
sw2962A-ms98-a-0035	A.49	231.394500	231.704500		against	against
sw2962A-ms98-a-0035	A.49	231.704500	232.004500		someone	someone
sw2962A-ms98-a-0035	A.49	232.004500	232.194500		else	else
sw2962A-ms98-a-0035	A.49	232.194500	232.264500		You	you
sw2962A-ms98-a-0035	A.49	232.264500	232.394500		can	can
sw2962A-ms98-a-0035	A.49	232.394500	232.753750		ask	ask
sw2962A-ms98-a-0035	A.51	232.753750	232.934500		for	for
sw2962A-ms98-a-0035	A.51	232.934500	233.124500		that	that
sw2962A-ms98-a-0035	A.51	233.124500	233.184500		to	to
sw2962A-ms98-a-0035	A.51	233.184500	233.304500		be	be
sw2962A-ms98-a-0035	A.51	233.304500	233.544500		heard	heard
sw2962A-ms98-a-0035	A.51	233.544500	233.894500		before	before
sw2962A-ms98-a-0035	A.51	233.894500	233.944500		a	a
sw2962A-ms98-a-0035	A.51	233.944500	234.245750		jury	jury
sw2962A-ms98-a-0035	A.51	234.245750	234.588500		[silence]	[silence]
sw2962A-ms98-a-0035	A.51	234.588500	234.854500		Takes	takes
sw2962A-ms98-a-0035	A.51	234.854500	234.914500		a	a
sw2962A-ms98-a-0035	A.51	234.914500	235.104500		heck	heck
sw2962A-ms98-a-0035	A.51	235.104500	235.164500		of	of
sw2962A-ms98-a-0035	A.51	235.164500	235.254500		a	a
sw2962A-ms98-a-0035	A.51	235.254500	235.444500		long	long
sw2962A-ms98-a-0035	A.51	235.444500	235.754500		time	time
sw2962A-ms98-a-0035	A.51	235.754500	235.834500		I	i
sw2962A-ms98-a-0035	A.51	235.834500	236.054500		guess	guess
sw2962A-ms98-a-0035	A.51	236.054500	236.154500		to	to
sw2962A-ms98-a-0035	A.51	236.154500	236.374500		get	get
sw2962A-ms98-a-0035	A.51	236.374500	236.682000		there	there
sw2962A-ms98-a-0035	A.53	236.682000	237.345375		[silence]	[silence]
sw2962A-ms98-a-0036	A.53	237.345375	237.758375		[silence]	[silence]
sw2962A-ms98-a-0036	A.53	237.758375	237.812125		in	in
sw2962A-ms98-a-0036	A.53	237.812125	237.912125		[silence]	[silence]
sw2962A-ms98-a-0036	A.53	237.912125	238.115375		some	some
sw2962A-ms98-a-0036	A.53	238.115375	238.605375		states	states
sw2962A-ms98-a-0036	A.53	238.605375	238.765375		I	i
sw2962A-ms98-a-0036	A.53	238.765375	238.915375		I	i
sw2962A-ms98-a-0036	A.53	238.915375	238.985375		I	i
sw2962A-ms98-a-0036	A.53	238.985375	239.565375	<CONT>	do	don't
sw2962A-ms98-a-0036	A.53	239.565375	239.565375	<CONT>	not	+++
sw2962A-ms98-a-0036	A.53	239.565375	239.645375		know	know
sw2962A-ms98-a-0036	A.53	239.645375	239.769875		uh	uh
sw2962A-ms98-a-0036	A.53	239.769875	240.881000		[silence]	[silence]
sw2962A-ms98-a-0036	A.53	240.881000	241.005375		I	i
sw2962A-ms98-a-0036	A.53	241.005375	241.165375		should	should
sw2962A-ms98-a-0036	A.53	241.165375	241.595375		imagine	imagine
sw2962A-ms98-a-0036	A.53	241.595375	242.005375		Virginia	Virginia
sw2962A-ms98-a-0036	A.53	242.005375	242.205375		from	from
sw2962A-ms98-a-0036	A.53	242.205375	242.345375		what	what
sw2962A-ms98-a-0036	A.53	242.345375	242.521500		I	i
sw2962A-ms98-a-0036	A.53	242.521500	242.732500		read	read
sw2962A-ms98-a-0036	A.53	242.732500	242.959250		uh	uh
sw2962A-ms98-a-0036	A.53	242.959250	243.403625		uh	uh
sw2962A-ms98-a-0036	A.53	243.403625	243.738875		[silence]	[silence]
sw2962A-ms98-a-0036	A.53	243.738875	243.995375		is	is
sw2962A-ms98-a-0036	A.53	243.995375	244.205375		like	like
sw2962A-ms98-a-0036	A.53	244.205375	244.395375		every	every
sw2962A-ms98-a-0036	A.53	244.395375	244.575375		other	other
sw2962A-ms98-a-0036	A.53	244.575375	244.985375		state	state
sw2962A-ms98-a-0036	A.53	244.985375	245.215375		It	it
sw2962A-ms98-a-0036	A.53	245.215375	245.435375	<CONT>	it	it's
sw2962A-ms98-a-0036	A.53	245.435375	245.435375	<CONT>	is	+++
sw2962A-ms98-a-0036	A.53	245.435375	245.825375		faced	faced
sw2962A-ms98-a-0036	A.53	245.825375	246.050750		with	with
sw2962A-ms98-a-0036	A.53	246.050750	246.277000		uh	uh
sw2962A-ms98-a-0036	A.53	246.277000	247.000875		[silence]	[silence]
sw2962A-ms98-a-0037	A.53	247.000875	247.459000		[silence]	[silence]
sw2962A-ms98-a-0037	A.53	247.459000	247.750125		uh	uh
sw2962A-ms98-a-0037	A.53	247.750125	248.183250		[silence]	[silence]
sw2962A-ms98-a-0037	A.53	248.183250	248.736500		enormous	enormous
sw2962A-ms98-a-0037	A.53	248.736500	249.159875		costs	costs
sw2962A-ms98-a-0037	A.53	249.159875	249.261500		[silence]	[silence]
sw2962A-ms98-a-0037	A.53	249.261500	249.620875		to	to
sw2962A-ms98-a-0037	A.53	249.620875	250.227500		maintain	maintain
sw2962A-ms98-a-0037	A.53	250.227500	250.363125		the	the
sw2962A-ms98-a-0037	A.53	250.363125	250.660875		jury	jury
sw2962A-ms98-a-0037	A.53	250.660875	251.100875		system	system
sw2962A-ms98-a-0037	A.53	251.100875	251.290875		and	and
sw2962A-ms98-a-0037	A.53	251.290875	251.350875		the	the
sw2962A-ms98-a-0037	A.53	251.350875	251.740875		prison	prison
sw2962A-ms98-a-0037	A.53	251.740875	252.130875		system	system
sw2962A-ms98-a-0037	A.53	252.130875	252.330875		and	and
sw2962A-ms98-a-0037	A.53	252.330875	252.430875		the	the
sw2962A-ms98-a-0037	A.53	252.430875	252.910875		entire	entire
sw2962A-ms98-a-0037	A.53	252.910875	253.260875		trial	trial
sw2962A-ms98-a-0037	A.53	253.260875	253.660875		system	system
sw2962A-ms98-a-0037	A.53	253.660875	254.030875		Because	because
sw2962A-ms98-a-0037	A.53	254.030875	254.130875		I	i
sw2962A-ms98-a-0037	A.53	254.130875	254.437000		guess	guess
sw2962A-ms98-a-0037	A.55	254.437000	254.843875		[silence]	[silence]
sw2962A-ms98-a-0037	A.55	254.843875	255.400875		everywhere	everywhere
sw2962A-ms98-a-0037	A.55	255.400875	255.480875		I	i
sw2962A-ms98-a-0037	A.55	255.480875	255.730875		read	read
sw2962A-ms98-a-0037	A.55	255.730875	255.970875		that	that
sw2962A-ms98-a-0037	A.55	255.970875	256.210875	<CONT>	there	there's
sw2962A-ms98-a-0037	A.55	256.210875	256.210875	<CONT>	is	+++
sw2962A-ms98-a-0037	A.55	256.210875	256.250875		a	a
sw2962A-ms98-a-0037	A.55	256.250875	256.690875		shortage	shortage
sw2962A-ms98-a-0037	A.55	256.690875	256.780875		of	of
sw2962A-ms98-a-0037	A.55	256.780875	257.470250		judges	judges
sw2962A-ms98-a-0037	A.57	257.470250	257.969375		[silence]	[silence]
sw2962A-ms98-a-0038	A.57	257.969375	258.389375		[silence]	[silence]
sw2962A-ms98-a-0038	A.57	258.389375	258.549375		Not	not
sw2962A-ms98-a-0038	A.57	258.549375	258.669375		that	that
sw2962A-ms98-a-0038	A.57	258.669375	258.779375		they	they
sw2962A-ms98-a-0038	A.57	258.779375	258.989375		won't	won't
sw2962A-ms98-a-0038	A.57	258.989375	259.349375		appoint	appoint
sw2962A-ms98-a-0038	A.57	259.349375	259.419375		them	them_1
sw2962A-ms98-a-0038	A.57	259.419375	259.629375		but	but
sw2962A-ms98-a-0038	A.57	259.629375	259.899375	<CONT>	there	there's
sw2962A-ms98-a-0038	A.57	259.899375	259.899375	<CONT>	is	+++
sw2962A-ms98-a-0038	A.57	259.899375	260.093500		no	no
sw2962A-ms98-a-0038	A.57	260.093500	260.274250		[silence]	[silence]
sw2962A-ms98-a-0038	A.57	260.274250	260.579375		budget	budget
sw2962A-ms98-a-0038	A.57	260.579375	260.819375		for	for
sw2962A-ms98-a-0038	A.57	260.819375	260.989375		them	them
sw2962A-ms98-a-0038	A.57	260.989375	261.039375		I	i
sw2962A-ms98-a-0038	A.57	261.039375	261.359375		guess	guess
sw2962A-ms98-a-0038	A.57	261.359375	261.579375		Or	or
sw2962A-ms98-a-0038	A.59	261.579375	261.904000		[silence]	[silence]
sw2962A-ms98-a-0039	A.59	261.904000	262.124625		[silence]	[silence]
sw2962A-ms98-a-0039	A.59	262.124625	262.284000		and	and
sw2962A-ms98-a-0039	A.59	262.284000	262.344000		the	the
sw2962A-ms98-a-0039	A.59	262.344000	262.954000		courthouse	courthouse
sw2962A-ms98-a-0039	A.59	262.954000	263.064000		that	that
sw2962A-ms98-a-0039	A.59	263.064000	263.334000		goes	goes
sw2962A-ms98-a-0039	A.59	263.334000	263.494000		with	with
sw2962A-ms98-a-0039	A.59	263.494000	263.584000		them	them
sw2962A-ms98-a-0039	A.59	263.584000	263.694000		and	and
sw2962A-ms98-a-0039	A.59	263.694000	263.754000		the	the
sw2962A-ms98-a-0039	A.59	263.754000	264.284000		bailiffs	bailiffs
sw2962A-ms98-a-0039	A.59	264.284000	264.434000		and	and
sw2962A-ms98-a-0039	A.59	264.434000	264.662750		the	the
sw2962A-ms98-a-0039	A.59	264.662750	264.997875		[silence]	[silence]
sw2962A-ms98-a-0039	A.59	264.997875	265.248125		clerk	clerk
sw2962A-ms98-a-0039	A.59	265.248125	265.673750		[silence]	[silence]
sw2962A-ms98-a-0039	A.59	265.673750	266.066875		uh	uh
sw2962A-ms98-a-0039	A.61	266.066875	266.225125		[silence]	[silence]
sw2962A-ms98-a-0039	A.61	266.225125	266.446000	<SUB>	court	or
sw2962A-ms98-a-0039	A.61	266.446000	266.875125		clerks	clerks
sw2962A-ms98-a-0039	A.61	266.875125	267.561250		[silence]	[silence]
sw2962A-ms98-a-0040	A.61	267.561250	268.057125		[silence]	[silence]
sw2962A-ms98-a-0040	A.61	268.057125	268.261250		So	so
sw2962A-ms98-a-0040	A.61	268.261250	268.391250		it	it
sw2962A-ms98-a-0040	A.61	268.391250	268.801250		seems	seems
sw2962A-ms98-a-0040	A.61	268.801250	269.069500		uh	uh
sw2962A-ms98-a-0040	A.61	269.069500	269.535125		[silence]	[silence]
sw2962A-ms98-a-0040	A.61	269.535125	269.715875		no	no
sw2962A-ms98-a-0040	A.61	269.715875	269.756625		I	i
sw2962A-ms98-a-0040	A.61	269.756625	269.899750		I	i
sw2962A-ms98-a-0040	A.61	269.899750	270.022625		I	i
sw2962A-ms98-a-0040	A.61	270.022625	270.148500	<CONT>	do	don't
sw2962A-ms98-a-0040	A.61	270.148500	270.148500	<CONT>	not	+++
sw2962A-ms98-a-0040	A.61	270.148500	270.281250		think	think
sw2962A-ms98-a-0040	A.61	270.281250	270.421250	<CONT>	I	i'd
sw2962A-ms98-a-0040	A.61	270.421250	270.421250	<CONT>	would	+++
sw2962A-ms98-a-0040	A.61	270.421250	270.701250		change	change
sw2962A-ms98-a-0040	A.61	270.701250	270.821250		it	it
sw2962A-ms98-a-0040	A.61	270.821250	270.901250		The	the
sw2962A-ms98-a-0040	A.61	270.901250	271.131250		more	more
sw2962A-ms98-a-0040	A.61	271.131250	271.181250		I	i
sw2962A-ms98-a-0040	A.61	271.181250	271.761250		verbalize	verbalize
sw2962A-ms98-a-0040	A.61	271.761250	271.881250		it	it
sw2962A-ms98-a-0040	A.61	271.881250	272.001250		I	i
sw2962A-ms98-a-0040	A.61	272.001250	272.171250		I	i
sw2962A-ms98-a-0040	A.61	272.171250	272.371250	<CONT>	do	don't
sw2962A-ms98-a-0040	A.61	272.371250	272.371250	<CONT>	not	+++
sw2962A-ms98-a-0040	A.61	272.371250	272.521250		think	think
sw2962A-ms98-a-0040	A.61	272.521250	272.651250	<CONT>	I	i'd
sw2962A-ms98-a-0040	A.61	272.651250	272.651250	<CONT>	would	+++
sw2962A-ms98-a-0040	A.61	272.651250	272.811250		want	want
sw2962A-ms98-a-0040	A.61	272.811250	272.871250		to	to
sw2962A-ms98-a-0040	A.61	272.871250	273.231250		change	change
sw2962A-ms98-a-0040	A.61	273.231250	273.337875		the	the
sw2962A-ms98-a-0040	A.61	273.337875	273.754000		system	system
sw2962A-ms98-a-0040	A.63	273.754000	273.933625		[silence]	[silence]
sw2962A-ms98-a-0041	A.63	273.933625	274.557875		[silence]	[silence]
sw2962A-ms98-a-0041	A.63	274.557875	274.633625		I	i
sw2962A-ms98-a-0041	A.63	274.633625	274.773625	<CONT>	do	don't
sw2962A-ms98-a-0041	A.63	274.773625	274.773625	<CONT>	not	+++
sw2962A-ms98-a-0041	A.65	274.773625	274.883625		know	know
sw2962A-ms98-a-0041	A.65	274.883625	275.003625		what	what
sw2962A-ms98-a-0041	A.65	275.003625	275.163625	<CONT>	we	we'd
sw2962A-ms98-a-0041	A.65	275.163625	275.163625	<CONT>	would	+++
sw2962A-ms98-a-0041	A.65	275.163625	275.643625		replace	replace
sw2962A-ms98-a-0041	A.65	275.643625	275.763625		it	it
sw2962A-ms98-a-0041	A.65	275.763625	275.942375		with	with
sw2962A-ms98-a-0041	A.67	275.942375	276.364625		[laughter]	[laughter]
sw2962A-ms98-a-0041	A.67	276.364625	276.457000		[silence]	[silence]
sw2962A-ms98-a-0042	A.67	276.457000	287.847875		[silence]	[silence]
sw2962A-ms98-a-0043	A.67	287.847875	288.826125		[silence]	[silence]
sw2962A-ms98-a-0043	A.67	288.826125	289.168500		Yes	yes
sw2962A-ms98-a-0043	A.69	289.168500	290.109250		[silence]	[silence]
sw2962A-ms98-a-0044	A.69	290.109250	298.778000		[silence]	[silence]
sw2962A-ms98-a-0045	A.69	298.778000	299.298875		[silence]	[silence]
sw2962A-ms98-a-0045	A.69	299.298875	299.598125		Uh	uh
sw2962A-ms98-a-0045	A.69	299.598125	299.846625		[silence]	[silence]
sw2962A-ms98-a-0045	A.69	299.846625	299.988000		and	and
sw2962A-ms98-a-0045	A.69	299.988000	300.168000		yet	yet
sw2962A-ms98-a-0045	A.71	300.168000	300.308000		there	there
sw2962A-ms98-a-0045	A.71	300.308000	300.428000		are	are
sw2962A-ms98-a-0045	A.71	300.428000	300.648000		there	there
sw2962A-ms98-a-0045	A.71	300.648000	300.768000		are	are
sw2962A-ms98-a-0045	A.71	300.768000	301.016000		so	so
sw2962A-ms98-a-0045	A.71	301.016000	301.324750		many	many
sw2962A-ms98-a-0045	A.71	301.324750	301.441500		[silence]	[silence]
sw2962A-ms98-a-0045	A.71	301.441500	301.548000		there	there
sw2962A-ms98-a-0045	A.71	301.548000	301.668000		are	are
sw2962A-ms98-a-0045	A.71	301.668000	301.808000		so	so
sw2962A-ms98-a-0045	A.71	301.808000	301.988000		many	many
sw2962A-ms98-a-0045	A.71	301.988000	302.338000		people	people
sw2962A-ms98-a-0045	A.71	302.338000	302.568000		in	in
sw2962A-ms98-a-0045	A.71	302.568000	303.018000		prison	prison
sw2962A-ms98-a-0045	A.71	303.018000	303.058000		I	i
sw2962A-ms98-a-0045	A.71	303.058000	303.208000		mean	mean
sw2962A-ms98-a-0045	A.71	303.208000	303.278000		the	the
sw2962A-ms98-a-0045	A.71	303.278000	303.638000		prison	prison
sw2962A-ms98-a-0045	A.71	303.638000	304.480625		population	population
sw2962A-ms98-a-0045	A.71	304.480625	304.642625		[silence]	[silence]
sw2962A-ms98-a-0045	A.71	304.642625	304.876000		uh	uh
sw2962A-ms98-a-0045	A.71	304.876000	305.117125		as	as
sw2962A-ms98-a-0045	A.71	305.117125	305.348000		far	far
sw2962A-ms98-a-0045	A.71	305.348000	305.468000		as	as
sw2962A-ms98-a-0045	A.71	305.468000	305.588000		I	i
sw2962A-ms98-a-0045	A.71	305.588000	305.778000		I	i
sw2962A-ms98-a-0045	A.71	305.778000	305.898000		uh	uh
sw2962A-ms98-a-0045	A.71	305.898000	306.149500		you	you
sw2962A-ms98-a-0045	A.71	306.149500	306.255000		[silence]	[silence]
sw2962A-ms98-a-0045	A.71	306.255000	306.478000		know	know
sw2962A-ms98-a-0045	A.71	306.478000	306.648000		my	my
sw2962A-ms98-a-0045	A.71	306.648000	307.148000		impression	impression
sw2962A-ms98-a-0045	A.71	307.148000	307.278000		of	of
sw2962A-ms98-a-0045	A.71	307.278000	307.378000		it	it
sw2962A-ms98-a-0045	A.71	307.378000	307.558000		is	is
sw2962A-ms98-a-0045	A.71	307.558000	307.778000		that	that
sw2962A-ms98-a-0045	A.71	307.778000	308.418000	<CONT>	it	it's
sw2962A-ms98-a-0045	A.71	308.418000	308.418000	<CONT>	has	+++
sw2962A-ms98-a-0045	A.71	308.418000	308.578000		that	that
sw2962A-ms98-a-0045	A.71	308.578000	308.748000	<CONT>	it	it's
sw2962A-ms98-a-0045	A.71	308.748000	308.748000	<CONT>	has	+++
sw2962A-ms98-a-0045	A.71	308.748000	309.088000		doubled	doubled
sw2962A-ms98-a-0045	A.71	309.088000	309.158000		in	in
sw2962A-ms98-a-0045	A.71	309.158000	309.238000		the	the
sw2962A-ms98-a-0045	A.71	309.238000	309.598000		last	last
sw2962A-ms98-a-0045	A.71	309.598000	309.788000		ten	ten
sw2962A-ms98-a-0045	A.71	309.788000	310.068000		years	years
sw2962A-ms98-a-0045	A.71	310.068000	310.208000		and	and
sw2962A-ms98-a-0045	A.71	310.208000	310.568000		tripled	tripled
sw2962A-ms98-a-0045	A.71	310.568000	310.678000		in	in
sw2962A-ms98-a-0045	A.71	310.678000	310.748000		the	the
sw2962A-ms98-a-0045	A.71	310.748000	311.038000		last	last
sw2962A-ms98-a-0045	A.71	311.038000	311.414750		twenty	twenty
sw2962A-ms98-a-0045	A.73	311.414750	311.815875		[silence]	[silence]
sw2962A-ms98-a-0046	A.73	311.815875	312.215625		[silence]	[silence]
sw2962A-ms98-a-0046	A.73	312.215625	312.298250		I	i
sw2962A-ms98-a-0046	A.73	312.298250	312.385875		mean	mean
sw2962A-ms98-a-0046	A.73	312.385875	312.545875		it	it
sw2962A-ms98-a-0046	A.73	312.545875	312.765875		so	so
sw2962A-ms98-a-0046	A.73	312.765875	313.105875	<CONT>	has	so
sw2962A-ms98-a-0046	A.73	313.105875	313.105875	<CONT>	our	+++
sw2962A-ms98-a-0046	A.73	313.105875	313.225875		I	i
sw2962A-ms98-a-0046	A.73	313.225875	313.435875		guess	guess
sw2962A-ms98-a-0046	A.73	313.435875	313.525875		our	our
sw2962A-ms98-a-0046	A.73	313.525875	314.095875		population	population
sw2962A-ms98-a-0046	A.73	314.095875	314.245375		has	has
sw2962A-ms98-a-0046	A.73	314.245375	314.475875		grown	grown
sw2962A-ms98-a-0046	A.73	314.475875	314.805875		some	some
sw2962A-ms98-a-0046	A.73	314.805875	315.079750		too	too
sw2962A-ms98-a-0046	A.73	315.079750	315.247875		But	but
sw2962A-ms98-a-0046	A.73	315.247875	315.733750		[silence]	[silence]
sw2962A-ms98-a-0046	A.73	315.733750	315.938000		there	there
sw2962A-ms98-a-0046	A.73	315.938000	316.104000		there	there
sw2962A-ms98-a-0046	A.73	316.104000	316.198125		[silence]	[silence]
sw2962A-ms98-a-0046	A.73	316.198125	316.675875		definitely	definitely
sw2962A-ms98-a-0046	A.73	316.675875	316.905875		is	is
sw2962A-ms98-a-0046	A.73	316.905875	316.955875		uh	uh
sw2962A-ms98-a-0046	A.73	316.955875	317.075875		uh	uh
sw2962A-ms98-a-0046	A.73	317.075875	317.345875		you	you
sw2962A-ms98-a-0046	A.73	317.345875	317.522750		know	know
sw2962A-ms98-a-0046	A.73	317.522750	317.645875		to	to
sw2962A-ms98-a-0046	A.73	317.645875	318.075875		me	me
sw2962A-ms98-a-0046	A.73	318.075875	318.435875		the	the
sw2962A-ms98-a-0046	A.73	318.435875	318.555875		one	one
sw2962A-ms98-a-0046	A.73	318.555875	318.615875		of	of
sw2962A-ms98-a-0046	A.73	318.615875	318.675875		the	the
sw2962A-ms98-a-0046	A.73	318.675875	318.885875		worst	worst
sw2962A-ms98-a-0046	A.73	318.885875	319.045875		things	things
sw2962A-ms98-a-0046	A.73	319.045875	319.135875		that	that
sw2962A-ms98-a-0046	A.73	319.135875	319.245875		could	could
sw2962A-ms98-a-0046	A.73	319.245875	319.405875		ever	ever
sw2962A-ms98-a-0046	A.73	319.405875	319.874000		happen	happen
sw2962A-ms98-a-0046	A.73	319.874000	320.110250		uh	uh
sw2962A-ms98-a-0046	A.73	320.110250	320.305875		from	from
sw2962A-ms98-a-0046	A.73	320.305875	320.475875		what	what
sw2962A-ms98-a-0046	A.73	320.475875	320.698000		I	i
sw2962A-ms98-a-0046	A.73	320.698000	321.005875		read	read
sw2962A-ms98-a-0046	A.73	321.005875	321.135875		and	and
sw2962A-ms98-a-0046	A.73	321.135875	321.575875		see	see
sw2962A-ms98-a-0046	A.73	321.575875	321.805875		and	and
sw2962A-ms98-a-0046	A.73	321.805875	322.472500		understand	understand
sw2962A-ms98-a-0046	A.73	322.472500	322.875625		[silence]	[silence]
sw2962A-ms98-a-0046	A.73	322.875625	322.954750		I	i
sw2962A-ms98-a-0046	A.73	322.954750	323.085875		mean	mean
sw2962A-ms98-a-0046	A.73	323.085875	323.165875		I	i
sw2962A-ms98-a-0046	A.73	323.165875	323.325875	<CONT>	do	don't
sw2962A-ms98-a-0046	A.73	323.325875	323.325875	<CONT>	no	+++
sw2962A-ms98-a-0046	A.73	323.325875	323.505875		think	think
sw2962A-ms98-a-0046	A.73	323.505875	323.600000		I	i
sw2962A-ms98-a-0046	A.73	323.600000	323.735875		could	could
sw2962A-ms98-a-0046	A.73	323.735875	324.110625		handle	handle
sw2962A-ms98-a-0046	A.73	324.110625	324.471625		prison	prison
sw2962A-ms98-a-0046	A.75	324.471625	325.014875		[silence]	[silence]
sw2962A-ms98-a-0047	A.75	325.014875	325.526500		[silence]	[silence]
sw2962A-ms98-a-0047	A.75	325.526500	325.595875		I	i
sw2962A-ms98-a-0047	A.75	325.595875	325.694875		mean	mean
sw2962A-ms98-a-0047	A.75	325.694875	325.754875		it	it
sw2962A-ms98-a-0047	A.75	325.754875	325.864875	<SUB>	would	was
sw2962A-ms98-a-0047	A.75	325.864875	325.864875	<INS>	be	---
sw2962A-ms98-a-0047	A.77	325.864875	326.202000		very	very
sw2962A-ms98-a-0047	A.77	326.202000	326.735625		difficult	difficult
sw2962A-ms98-a-0047	A.79	326.735625	327.204125		[silence]	[silence]
sw2962A-ms98-a-0048	A.79	327.204125	330.238875		[silence]	[silence]
sw2962A-ms98-a-0049	A.79	330.238875	330.688250		[silence]	[silence]
sw2962A-ms98-a-0049	A.79	330.688250	330.858875		Well	well
sw2962A-ms98-a-0049	A.79	330.858875	330.988875		there	there
sw2962A-ms98-a-0049	A.79	330.988875	331.228875		must	must
sw2962A-ms98-a-0049	A.79	331.228875	331.390375		be	be
sw2962A-ms98-a-0049	A.79	331.390375	331.607125		a	a
sw2962A-ms98-a-0049	A.81	331.607125	331.757750	<SUB>	ca-	a
sw2962A-ms98-a-0049	A.81	331.757750	331.850125		[vocalized-noise]	[vocalized-noise]
sw2962A-ms98-a-0049	A.81	331.850125	332.090000		a	a
sw2962A-ms98-a-0049	A.81	332.090000	332.307500		a	a
sw2962A-ms98-a-0049	A.81	332.307500	332.484125		a	a
sw2962A-ms98-a-0049	A.81	332.484125	332.792750		very	very
sw2962A-ms98-a-0049	A.81	332.792750	332.978875		great	great
sw2962A-ms98-a-0049	A.81	332.978875	333.358875		degree	degree
sw2962A-ms98-a-0049	A.81	333.358875	333.478875		of	of
sw2962A-ms98-a-0049	A.81	333.478875	333.728875		that	that
sw2962A-ms98-a-0049	A.83	333.728875	333.961875		But	but
sw2962A-ms98-a-0049	A.83	333.961875	334.478375		[silence]	[silence]
sw2962A-ms98-a-0050	A.83	334.478375	334.614875		[silence]	[silence]
sw2962A-ms98-a-0050	A.83	334.614875	334.778375		but	but
sw2962A-ms98-a-0050	A.83	334.778375	334.948375		there	there
sw2962A-ms98-a-0050	A.83	334.948375	335.258375		again	again
sw2962A-ms98-a-0050	A.83	335.258375	335.482500		I	i
sw2962A-ms98-a-0050	A.83	335.482500	335.663250		[silence]	[silence]
sw2962A-ms98-a-0050	A.83	335.663250	335.768375		I	i
sw2962A-ms98-a-0050	A.83	335.768375	335.908375	<CONT>	do	don't
sw2962A-ms98-a-0050	A.83	335.908375	335.908375	<CONT>	not	+++
sw2962A-ms98-a-0050	A.83	335.908375	335.988375		know	know
sw2962A-ms98-a-0050	A.83	335.988375	336.064750		if	if
sw2962A-ms98-a-0050	A.83	336.064750	336.215000		the	the
sw2962A-ms98-a-0050	A.83	336.215000	336.489875		[silence]	[silence]
sw2962A-ms98-a-0050	A.83	336.489875	336.678375		the	the
sw2962A-ms98-a-0050	A.83	336.678375	337.078375		jury	jury
sw2962A-ms98-a-0050	A.83	337.078375	337.538375		system	system
sw2962A-ms98-a-0050	A.83	337.538375	338.228375		itself	itself
sw2962A-ms98-a-0050	A.83	338.228375	338.388375		uh	uh
sw2962A-ms98-a-0050	A.83	338.388375	338.708375		comes	comes
sw2962A-ms98-a-0050	A.83	338.708375	338.818375		in	in
sw2962A-ms98-a-0050	A.83	338.818375	338.928375		to	to
sw2962A-ms98-a-0050	A.83	338.928375	339.198375		play	play
sw2962A-ms98-a-0050	A.83	339.198375	339.328375		there	there
sw2962A-ms98-a-0050	A.83	339.328375	339.458375		I	i
sw2962A-ms98-a-0050	A.83	339.458375	339.658375		would	would
sw2962A-ms98-a-0050	A.83	339.658375	339.928375		think	think
sw2962A-ms98-a-0050	A.83	339.928375	340.175750		that	that
sw2962A-ms98-a-0050	A.83	340.175750	340.522250		[silence]	[silence]
sw2962A-ms98-a-0050	A.83	340.522250	340.718375		one	one
sw2962A-ms98-a-0050	A.83	340.718375	340.778375		of	of
sw2962A-ms98-a-0050	A.83	340.778375	340.838375		the	the
sw2962A-ms98-a-0050	A.83	340.838375	341.128375		things	things
sw2962A-ms98-a-0050	A.83	341.128375	341.332625		that	that
sw2962A-ms98-a-0050	A.83	341.332625	341.598375		sort	sort
sw2962A-ms98-a-0050	A.83	341.598375	341.688375		of	of
sw2962A-ms98-a-0050	A.83	341.688375	342.088375		bothers	bothers
sw2962A-ms98-a-0050	A.83	342.088375	342.248375		me	me
sw2962A-ms98-a-0050	A.83	342.248375	342.416500		is	is
sw2962A-ms98-a-0050	A.83	342.416500	342.518375		the	the
sw2962A-ms98-a-0050	A.83	342.518375	342.996500		ability	ability
sw2962A-ms98-a-0050	A.83	342.996500	343.569000		[silence]	[silence]
sw2962A-ms98-a-0050	A.83	343.569000	343.738375		of	of
sw2962A-ms98-a-0050	A.83	343.738375	344.038375		course	course
sw2962A-ms98-a-0050	A.83	344.038375	344.218375	<SUB>	th-	that
sw2962A-ms98-a-0050	A.83	344.218375	344.458375	<CONT>	it	it's
sw2962A-ms98-a-0050	A.83	344.458375	344.458375	<CONT>	is	+++
sw2962A-ms98-a-0050	A.83	344.458375	344.508375		a	a
sw2962A-ms98-a-0050	A.83	344.508375	345.388375		constitutional	constitutional
sw2962A-ms98-a-0050	A.83	345.388375	345.718375		right	right
sw2962A-ms98-a-0050	A.83	345.718375	345.908375		that	that
sw2962A-ms98-a-0050	A.83	345.908375	346.052000		the	the
sw2962A-ms98-a-0050	A.83	346.052000	346.620250		press	press
sw2962A-ms98-a-0050	A.83	346.620250	346.731750		[silence]	[silence]
sw2962A-ms98-a-0051	A.83	346.731750	346.951750		[silence]	[silence]
sw2962A-ms98-a-0051	A.83	346.951750	347.281750		must	must
sw2962A-ms98-a-0051	A.83	347.281750	347.541750		have	have
sw2962A-ms98-a-0051	A.83	347.541750	347.867750		here	here
sw2962A-ms98-a-0051	A.83	347.867750	348.274500		[silence]	[silence]
sw2962A-ms98-a-0051	A.83	348.274500	348.551750		is	is
sw2962A-ms98-a-0051	A.83	348.551750	348.831000	<SUB>	th-	the
sw2962A-ms98-a-0051	A.83	348.831000	349.021750		the	the
sw2962A-ms98-a-0051	A.83	349.021750	349.672250		interviewing	interviewing
sw2962A-ms98-a-0051	A.83	349.672250	349.881750		of	of
sw2962A-ms98-a-0051	A.83	349.881750	350.311750		jurors	jurors
sw2962A-ms98-a-0051	A.83	350.311750	350.611750		after	after
sw2962A-ms98-a-0051	A.83	350.611750	350.691750		the	the
sw2962A-ms98-a-0051	A.83	350.691750	351.211750		trial	trial
sw2962A-ms98-a-0051	A.83	351.211750	351.271750		I	i
sw2962A-ms98-a-0051	A.83	351.271750	351.391750		mean	mean
sw2962A-ms98-a-0051	A.83	351.391750	351.531750		that	that
sw2962A-ms98-a-0051	A.83	351.531750	351.661750		it	it
sw2962A-ms98-a-0051	A.83	351.661750	352.021750		seems	seems
sw2962A-ms98-a-0051	A.83	352.021750	352.101750		to	to
sw2962A-ms98-a-0051	A.83	352.101750	352.281750		me	me
sw2962A-ms98-a-0051	A.83	352.281750	352.474250		that	that
sw2962A-ms98-a-0051	A.83	352.474250	352.969125		[silence]	[silence]
sw2962A-ms98-a-0052	A.83	352.969125	353.211625		[silence]	[silence]
sw2962A-ms98-a-0052	A.83	353.211625	353.366375		that	that
sw2962A-ms98-a-0052	A.83	353.366375	353.487750		[silence]	[silence]
sw2962A-ms98-a-0052	A.83	353.487750	353.698125		that	that
sw2962A-ms98-a-0052	A.83	353.698125	354.001000		[silence]	[silence]
sw2962A-ms98-a-0052	A.83	354.001000	354.199125		when	when
sw2962A-ms98-a-0052	A.83	354.199125	354.299125		a	a
sw2962A-ms98-a-0052	A.83	354.299125	354.699125		jury	jury
sw2962A-ms98-a-0052	A.83	354.699125	354.979125		makes	makes
sw2962A-ms98-a-0052	A.83	354.979125	355.039125		a	a
sw2962A-ms98-a-0052	A.83	355.039125	355.752375		decision	decision
sw2962A-ms98-a-0052	A.83	355.752375	356.324875		[silence]	[silence]
sw2962A-ms98-a-0052	A.83	356.324875	356.439125		they	they
sw2962A-ms98-a-0052	A.83	356.439125	356.779125	<CONT>	should	shouldn't
sw2962A-ms98-a-0052	A.83	356.779125	356.779125	<CONT>	not	+++
sw2962A-ms98-a-0052	A.83	356.779125	356.999125		be	be
sw2962A-ms98-a-0052	A.83	356.999125	357.609125		asked	asked
sw2962A-ms98-a-0052	A.83	357.609125	357.839125		uh	uh
sw2962A-ms98-a-0052	A.83	357.839125	358.259125		before	before
sw2962A-ms98-a-0052	A.83	358.259125	358.769125		television	television
sw2962A-ms98-a-0052	A.83	358.769125	359.229125		cameras	cameras
sw2962A-ms98-a-0052	A.83	359.229125	359.339125		and	and
sw2962A-ms98-a-0052	A.83	359.339125	359.769125		newspaper	newspaper
sw2962A-ms98-a-0052	A.83	359.769125	360.239125		reporters	reporters
sw2962A-ms98-a-0052	A.83	360.239125	360.399125		how	how
sw2962A-ms98-a-0052	A.83	360.399125	360.509125		they	they
sw2962A-ms98-a-0052	A.83	360.509125	360.819125		reached	reached
sw2962A-ms98-a-0052	A.83	360.819125	360.979125		that	that
sw2962A-ms98-a-0052	A.83	360.979125	361.429125		decision	decision
sw2962A-ms98-a-0052	A.83	361.429125	361.469125		I	i
sw2962A-ms98-a-0052	A.83	361.469125	361.629125		mean	mean
sw2962A-ms98-a-0052	A.83	361.629125	361.699125		I	i
sw2962A-ms98-a-0052	A.83	361.699125	361.853750	<CONT>	do	don't
sw2962A-ms98-a-0052	A.83	361.853750	361.853750	<CONT>	not	+++
sw2962A-ms98-a-0052	A.85	361.853750	362.275250		[silence]	[silence]
sw2962A-ms98-a-0053	A.85	362.275250	362.605125		[silence]	[silence]
sw2962A-ms98-a-0053	A.85	362.605125	362.715250		I	i
sw2962A-ms98-a-0053	A.85	362.715250	363.105250		imagine	imagine
sw2962A-ms98-a-0053	A.85	363.105250	363.305250	<CONT>	there	there's
sw2962A-ms98-a-0053	A.85	363.305250	363.305250	<CONT>	is	+++
sw2962A-ms98-a-0053	A.85	363.305250	363.385250		a	a
sw2962A-ms98-a-0053	A.85	363.385250	363.911750		certain	certain
sw2962A-ms98-a-0053	A.85	363.911750	364.058625		[silence]	[silence]
sw2962A-ms98-a-0053	A.85	364.058625	364.515250		certain	certain
sw2962A-ms98-a-0053	A.85	364.515250	364.765250		right	right
sw2962A-ms98-a-0053	A.85	364.765250	364.865250		of	of
sw2962A-ms98-a-0053	A.85	364.865250	364.945250		the	the
sw2962A-ms98-a-0053	A.85	364.945250	365.375250		press	press
sw2962A-ms98-a-0053	A.85	365.375250	365.565250		to	to
sw2962A-ms98-a-0053	A.85	365.565250	365.955125		have	have
sw2962A-ms98-a-0053	A.85	365.955125	366.237125		[silence]	[silence]
sw2962A-ms98-a-0054	A.85	366.237125	366.674875		[silence]	[silence]
sw2962A-ms98-a-0054	A.85	366.674875	366.826375		the	the
sw2962A-ms98-a-0054	A.85	366.826375	367.137125		ability	ability
sw2962A-ms98-a-0054	A.85	367.137125	367.347125		to	to
sw2962A-ms98-a-0054	A.85	367.347125	367.657125		ask	ask
sw2962A-ms98-a-0054	A.85	367.657125	367.877125		that	that
sw2962A-ms98-a-0054	A.85	367.877125	368.057125		But	but
sw2962A-ms98-a-0054	A.85	368.057125	368.244375		I	i
sw2962A-ms98-a-0054	A.85	368.244375	368.696250		[silence]	[silence]
sw2962A-ms98-a-0054	A.85	368.696250	368.886375		I	i
sw2962A-ms98-a-0054	A.85	368.886375	369.017125		would	would
sw2962A-ms98-a-0054	A.85	369.017125	369.217125		think	think
sw2962A-ms98-a-0054	A.85	369.217125	369.422875		I	i
sw2962A-ms98-a-0054	A.85	369.422875	369.617125		if	if
sw2962A-ms98-a-0054	A.85	369.617125	369.697125		I	i
sw2962A-ms98-a-0054	A.85	369.697125	369.907125		did	did
sw2962A-ms98-a-0054	A.85	369.907125	370.297125		anything	anything
sw2962A-ms98-a-0054	A.85	370.297125	370.457125	<CONT>	I	i'd
sw2962A-ms98-a-0054	A.85	370.457125	370.457125	<CONT>	would	+++
sw2962A-ms98-a-0054	A.85	370.457125	370.977125		protect	protect
sw2962A-ms98-a-0054	A.85	370.977125	371.067125		the	the
sw2962A-ms98-a-0054	A.85	371.067125	371.461875		juror	juror
sw2962A-ms98-a-0054	A.85	371.461875	371.842000		from	from
sw2962A-ms98-a-0054	A.85	371.842000	372.128875		[silence]	[silence]
sw2962A-ms98-a-0055	A.85	372.128875	372.528250		[silence]	[silence]
sw2962A-ms98-a-0055	A.85	372.528250	372.698875		from	from
sw2962A-ms98-a-0055	A.85	372.698875	372.868875		any	any
sw2962A-ms98-a-0055	A.85	372.868875	373.098875		sort	sort
sw2962A-ms98-a-0055	A.85	373.098875	373.158875		of	of
sw2962A-ms98-a-0055	A.85	373.158875	373.248875		an	an
sw2962A-ms98-a-0055	A.85	373.248875	374.098875		inquisition	inquisition
sw2962A-ms98-a-0055	A.85	374.098875	374.760500		after	after
sw2962A-ms98-a-0055	A.87	374.760500	375.114875		[silence]	[silence]
sw2962A-ms98-a-0056	A.87	375.114875	378.988500		[silence]	[silence]
sw2962A-ms98-a-0057	A.87	378.988500	379.472250		[silence]	[silence]
sw2962A-ms98-a-0057	A.87	379.472250	379.882625		Yeah	yeah
sw2962A-ms98-a-0057	A.89	379.882625	380.315250		[silence]	[silence]
sw2962A-ms98-a-0057	A.89	380.315250	380.633875		Yeah	yeah
sw2962A-ms98-a-0057	A.91	380.633875	381.208375		[silence]	[silence]
sw2962A-ms98-a-0058	A.91	381.208375	381.813125		[silence]	[silence]
sw2962A-ms98-a-0058	A.91	381.813125	381.998375		Oh	oh
sw2962A-ms98-a-0058	A.91	381.998375	382.298375		yeah	yeah
sw2962A-ms98-a-0058	A.91	382.298375	382.458375	<DEL>	---	yeah
sw2962A-ms98-a-0058	A.91	382.458375	382.578375		Well	well
sw2962A-ms98-a-0058	A.93	382.578375	382.700375		I	i
sw2962A-ms98-a-0058	A.93	382.700375	382.788375		do	do
sw2962A-ms98-a-0058	A.93	382.788375	382.848375		a	a
sw2962A-ms98-a-0058	A.93	382.848375	382.978375		lot	lot
sw2962A-ms98-a-0058	A.93	382.978375	383.058375		of	of
sw2962A-ms98-a-0058	A.93	383.058375	383.388375		business	business
sw2962A-ms98-a-0058	A.93	383.388375	383.518375		up	up
sw2962A-ms98-a-0058	A.93	383.518375	383.638375		in	in
sw2962A-ms98-a-0058	A.93	383.638375	383.978375		Washington	Washington
sw2962A-ms98-a-0058	A.93	383.978375	384.018375		I	i
sw2962A-ms98-a-0058	A.93	384.018375	384.188375		was	was
sw2962A-ms98-a-0058	A.93	384.188375	384.378375		there	there
sw2962A-ms98-a-0058	A.93	384.378375	384.648375		during	during
sw2962A-ms98-a-0058	A.93	384.648375	384.826375		the	the
sw2962A-ms98-a-0058	A.93	384.826375	384.924375		[silence]	[silence]
sw2962A-ms98-a-0058	A.93	384.924375	385.128375		during	during
sw2962A-ms98-a-0058	A.93	385.128375	385.188375		the	the
sw2962A-ms98-a-0058	A.93	385.188375	385.558375		trial	trial
sw2962A-ms98-a-0058	A.93	385.558375	385.978375		actually	actually
sw2962A-ms98-a-0058	A.93	385.978375	386.132250		yeah	yeah
sw2962A-ms98-a-0058	A.95	386.132250	386.609125		[silence]	[silence]
sw2962A-ms98-a-0059	A.95	386.609125	393.903625		[silence]	[silence]
sw2962A-ms98-a-0060	A.95	393.903625	394.360875		[silence]	[silence]
sw2962A-ms98-a-0060	A.95	394.360875	394.681250		Yeah	yeah
sw2962A-ms98-a-0060	A.97	394.681250	394.844000		[silence]	[silence]
sw2962A-ms98-a-0060	A.97	394.844000	395.134375		yeah	yeah
sw2962A-ms98-a-0060	A.97	395.134375	395.138750		yeah	yeah
sw2962A-ms98-a-0060	A.99	395.138750	395.739375		[silence]	[silence]
sw2962A-ms98-a-0061	A.99	395.739375	411.142750		[silence]	[silence]
sw2962A-ms98-a-0062	A.99	411.142750	411.747625		[silence]	[silence]
sw2962A-ms98-a-0062	A.99	411.747625	411.892750		Oh	oh
sw2962A-ms98-a-0062	A.99	411.892750	412.032750		I	i
sw2962A-ms98-a-0062	A.99	412.032750	412.282750		felt	felt
sw2962A-ms98-a-0062	A.99	412.282750	412.462750		that	that
sw2962A-ms98-a-0062	A.99	412.462750	412.694000		way	way
sw2962A-ms98-a-0062	A.101	412.694000	413.033000		[silence]	[silence]
sw2962A-ms98-a-0062	A.101	413.033000	413.195000		I	i
sw2962A-ms98-a-0062	A.101	413.195000	413.457875		felt	felt
sw2962A-ms98-a-0062	A.103	413.457875	413.665000		[silence]	[silence]
sw2962A-ms98-a-0062	A.103	413.665000	413.838625		I	i
sw2962A-ms98-a-0062	A.103	413.838625	414.116750		felt	felt
sw2962A-ms98-a-0062	A.105	414.116750	414.651375		[silence]	[silence]
sw2962A-ms98-a-0063	A.105	414.651375	415.386875		[silence]	[silence]
sw2962A-ms98-a-0063	A.105	415.386875	415.689625		no	no
sw2962A-ms98-a-0063	A.105	415.689625	415.887875		but	but
sw2962A-ms98-a-0063	A.107	415.887875	416.207875		[silence]	[silence]
sw2962A-ms98-a-0064	A.107	416.207875	416.514125		[silence]	[silence]
sw2962A-ms98-a-0064	A.107	416.514125	416.738500		Yeah	yeah
sw2962A-ms98-a-0064	A.107	416.738500	416.890000		[silence]	[silence]
sw2962A-ms98-a-0064	A.107	416.890000	417.077875		I	i
sw2962A-ms98-a-0064	A.107	417.077875	417.310000		always	always
sw2962A-ms98-a-0064	A.107	417.310000	417.717875		balanced	balanced
sw2962A-ms98-a-0064	A.107	417.717875	417.817875		in	in
sw2962A-ms98-a-0064	A.107	417.817875	417.907875		the	the
sw2962A-ms98-a-0064	A.107	417.907875	418.067875		in	in
sw2962A-ms98-a-0064	A.107	418.067875	418.127875		the	the
sw2962A-ms98-a-0064	A.107	418.127875	418.857875		situation	situation
sw2962A-ms98-a-0064	A.107	418.857875	418.987875		I	i
sw2962A-ms98-a-0064	A.107	418.987875	419.317875		remember	remember
sw2962A-ms98-a-0064	A.107	419.317875	419.467875		the	the
sw2962A-ms98-a-0064	A.107	419.467875	419.897875		jurors	jurors
sw2962A-ms98-a-0064	A.107	419.897875	420.068125		uh	uh
sw2962A-ms98-a-0064	A.107	420.068125	420.524125		[silence]	[silence]
sw2962A-ms98-a-0065	A.107	420.524125	420.689375		[silence]	[silence]
sw2962A-ms98-a-0065	A.107	420.689375	420.822625		I	i
sw2962A-ms98-a-0065	A.107	420.822625	420.984125		thought	thought
sw2962A-ms98-a-0065	A.107	420.984125	421.044125		to	to
sw2962A-ms98-a-0065	A.107	421.044125	421.374125		myself	myself
sw2962A-ms98-a-0065	A.107	421.374125	421.544125		how	how
sw2962A-ms98-a-0065	A.107	421.544125	421.814125		did	did
sw2962A-ms98-a-0065	A.107	421.814125	421.954125		how	how
sw2962A-ms98-a-0065	A.107	421.954125	422.064125		did	did
sw2962A-ms98-a-0065	A.107	422.064125	422.194125		they	they
sw2962A-ms98-a-0065	A.107	422.194125	422.497250		only	only
sw2962A-ms98-a-0065	A.107	422.497250	422.946125		[silence]	[silence]
sw2962A-ms98-a-0065	A.107	422.946125	423.062875		I	i
sw2962A-ms98-a-0065	A.107	423.062875	423.204125		think	think
sw2962A-ms98-a-0065	A.107	423.204125	423.324125		they	they
sw2962A-ms98-a-0065	A.107	423.324125	423.593625		only	only
sw2962A-ms98-a-0065	A.107	423.593625	423.706125	<DEL>	---	f[ound]-
sw2962A-ms98-a-0065	A.107	423.706125	423.811625		[silence]	[silence]
sw2962A-ms98-a-0065	A.107	423.811625	424.437875		uh	uh
sw2962A-ms98-a-0065	A.107	424.437875	424.764125		found	found
sw2962A-ms98-a-0065	A.107	424.764125	424.854125		him	him
sw2962A-ms98-a-0065	A.109	424.854125	425.164125		guilty	guilty
sw2962A-ms98-a-0065	A.109	425.164125	425.304125		on	on
sw2962A-ms98-a-0065	A.109	425.304125	425.504125		one	one
sw2962A-ms98-a-0065	A.109	425.504125	425.940375		count	count
sw2962A-ms98-a-0065	A.109	425.940375	426.260500		[silence]	[silence]
sw2962A-ms98-a-0065	A.109	426.260500	426.474125		Which	which
sw2962A-ms98-a-0065	A.109	426.474125	426.705750		was	was
sw2962A-ms98-a-0065	A.109	426.705750	426.918750		uh	uh
sw2962A-ms98-a-0065	A.109	426.918750	427.124125		not	not
sw2962A-ms98-a-0065	A.109	427.124125	427.364125		even	even
sw2962A-ms98-a-0065	A.109	427.364125	427.554125		which	which
sw2962A-ms98-a-0065	A.109	427.554125	427.674125		was	was
sw2962A-ms98-a-0065	A.109	427.674125	427.734125		a	a
sw2962A-ms98-a-0065	A.109	427.734125	428.114125		class	class
sw2962A-ms98-a-0065	A.109	428.114125	428.604125		something	something
sw2962A-ms98-a-0065	A.109	428.604125	429.034125		felony	felony
sw2962A-ms98-a-0065	A.109	429.034125	429.304125		Which	which
sw2962A-ms98-a-0065	A.109	429.304125	429.584125		was	was
sw2962A-ms98-a-0065	A.109	429.584125	429.774125		not	not
sw2962A-ms98-a-0065	A.109	429.774125	429.984125		even	even
sw2962A-ms98-a-0065	A.109	429.984125	430.661500		punishable	punishable
sw2962A-ms98-a-0065	A.111	430.661500	431.241875		[silence]	[silence]
sw2962A-ms98-a-0066	A.111	431.241875	431.821875		[silence]	[silence]
sw2962A-ms98-a-0066	A.111	431.821875	432.239000		uh	uh
sw2962A-ms98-a-0066	A.111	432.239000	432.378875		[silence]	[silence]
sw2962A-ms98-a-0066	A.111	432.378875	432.882750		uh	uh
sw2962A-ms98-a-0066	A.111	432.882750	433.033375		to	to
sw2962A-ms98-a-0066	A.111	433.033375	433.142625		the	the
sw2962A-ms98-a-0066	A.111	433.142625	433.451875		degree	degree
sw2962A-ms98-a-0066	A.111	433.451875	433.581875		that	that
sw2962A-ms98-a-0066	A.111	433.581875	433.691875		they	they
sw2962A-ms98-a-0066	A.111	433.691875	433.901875		thought	thought
sw2962A-ms98-a-0066	A.111	433.901875	433.969500		it	it
sw2962A-ms98-a-0066	A.111	433.969500	434.237000		[silence]	[silence]
sw2962A-ms98-a-0066	A.111	434.237000	434.341875		But	but
sw2962A-ms98-a-0066	A.111	434.341875	434.451875		I	i
sw2962A-ms98-a-0066	A.111	434.451875	434.651875	<CONT>	do	don't
sw2962A-ms98-a-0066	A.111	434.651875	434.651875	<CONT>	not	+++
sw2962A-ms98-a-0066	A.111	434.651875	434.872750		know	know
sw2962A-ms98-a-0066	A.111	434.872750	435.101875		maybe	maybe
sw2962A-ms98-a-0066	A.111	435.101875	435.251875		when	when
sw2962A-ms98-a-0066	A.111	435.251875	435.401875	<CONT>	you	you're
sw2962A-ms98-a-0066	A.111	435.401875	435.401875	<CONT>	are	+++
sw2962A-ms98-a-0066	A.111	435.401875	435.691875		there	there
sw2962A-ms98-a-0066	A.111	435.691875	435.771875		in	in
sw2962A-ms98-a-0066	A.111	435.771875	435.900750		the	the
sw2962A-ms98-a-0066	A.111	435.900750	436.066500		r-	r[oom]-
sw2962A-ms98-a-0066	A.111	436.066500	436.241875		in	in
sw2962A-ms98-a-0066	A.111	436.241875	436.301875		the	the
sw2962A-ms98-a-0066	A.111	436.301875	436.831875		courtroom	courtroom
sw2962A-ms98-a-0066	A.111	436.831875	437.562625		yourself	yourself
sw2962A-ms98-a-0066	A.111	437.562625	437.701875		and	and
sw2962A-ms98-a-0066	A.111	437.701875	437.861875	<CONT>	you	you're
sw2962A-ms98-a-0066	A.111	437.861875	437.861875	<CONT>	are	+++
sw2962A-ms98-a-0066	A.111	437.861875	438.221875		sitting	sitting
sw2962A-ms98-a-0066	A.111	438.221875	438.401875		there	there
sw2962A-ms98-a-0066	A.111	438.401875	438.501875		and	and
sw2962A-ms98-a-0066	A.111	438.501875	438.601875	<CONT>	you	you've
sw2962A-ms98-a-0066	A.111	438.601875	438.601875	<CONT>	have	+++
sw2962A-ms98-a-0066	A.111	438.601875	438.721875		got	got
sw2962A-ms98-a-0066	A.111	438.721875	438.781875		to	to
sw2962A-ms98-a-0066	A.111	438.781875	438.951875		make	make
sw2962A-ms98-a-0066	A.111	438.951875	439.011875		a	a
sw2962A-ms98-a-0066	A.111	439.011875	439.501875		judgment	judgment
sw2962A-ms98-a-0066	A.111	439.501875	439.651875		on	on
sw2962A-ms98-a-0066	A.111	439.651875	440.221875		somebody	somebody
sw2962A-ms98-a-0066	A.111	440.221875	440.518000		[silence]	[silence]
sw2962A-ms98-a-0067	A.111	440.518000	440.628000		[silence]	[silence]
sw2962A-ms98-a-0067	A.111	440.628000	440.798000		And	and
sw2962A-ms98-a-0067	A.111	440.798000	440.858000		the	the
sw2962A-ms98-a-0067	A.111	440.858000	441.608000		prosecutors	prosecutors
sw2962A-ms98-a-0067	A.111	441.608000	441.708000		do	do
sw2962A-ms98-a-0067	A.111	441.708000	441.848000		a	a
sw2962A-ms98-a-0067	A.111	441.848000	442.327250		lousy	lousy
sw2962A-ms98-a-0067	A.111	442.327250	442.678000		job	job
sw2962A-ms98-a-0067	A.111	442.678000	442.818000		or	or
sw2962A-ms98-a-0067	A.111	442.818000	443.099625		maybe	maybe
sw2962A-ms98-a-0067	A.111	443.099625	443.258000		the	the
sw2962A-ms98-a-0067	A.111	443.258000	443.648000		evidence	evidence
sw2962A-ms98-a-0067	A.111	443.648000	443.896125		was	was
sw2962A-ms98-a-0067	A.111	443.896125	443.896125	<INS>	not	---
sw2962A-ms98-a-0067	A.111	443.896125	444.068000		as	as
sw2962A-ms98-a-0067	A.111	444.068000	444.658000		sensational	sensational
sw2962A-ms98-a-0067	A.111	444.658000	444.828000		as	as
sw2962A-ms98-a-0067	A.111	444.828000	444.948000		the	the
sw2962A-ms98-a-0067	A.111	444.948000	445.278000		media	media
sw2962A-ms98-a-0067	A.111	445.278000	445.848000		presented	presented
sw2962A-ms98-a-0067	A.111	445.848000	445.988625		it	it
sw2962A-ms98-a-0067	A.111	445.988625	446.195125		I	i
sw2962A-ms98-a-0067	A.111	446.195125	446.328000		mean	mean
sw2962A-ms98-a-0067	A.111	446.328000	446.448000		I	i
sw2962A-ms98-a-0067	A.113	446.448000	446.608000	<CONT>	I	i'm
sw2962A-ms98-a-0067	A.113	446.608000	446.608000	<CONT>	am	+++
sw2962A-ms98-a-0067	A.113	446.608000	446.728000		not	not
sw2962A-ms98-a-0067	A.113	446.728000	446.948000		making	making
sw2962A-ms98-a-0067	A.113	446.948000	447.378000		excuses	excuses
sw2962A-ms98-a-0067	A.113	447.378000	447.492125		for	for
sw2962A-ms98-a-0067	A.113	447.492125	447.732750		[noise]	[noise]
sw2962A-ms98-a-0067	A.113	447.732750	447.919375		[silence]	[silence]
sw2962A-ms98-a-0068	A.113	447.919375	448.185875		[silence]	[silence]
sw2962A-ms98-a-0068	A.113	448.185875	448.268625		[noise]	[noise]
sw2962A-ms98-a-0068	A.113	448.268625	448.359375		That	that
sw2962A-ms98-a-0068	A.113	448.359375	448.569375		might	might
sw2962A-ms98-a-0068	A.113	448.569375	448.709375		be	be
sw2962A-ms98-a-0068	A.113	448.709375	448.907625		it	it
sw2962A-ms98-a-0068	A.115	448.907625	449.370500		[silence]	[silence]
sw2962A-ms98-a-0069	A.115	449.370500	449.710625		[silence]	[silence]
sw2962A-ms98-a-0069	A.115	449.710625	449.834000	<DEL>	---	but
sw2962A-ms98-a-0069	A.115	449.834000	450.414125		[silence]	[silence]
sw2962A-ms98-a-0069	A.115	450.414125	450.570875		I	i
sw2962A-ms98-a-0069	A.115	450.570875	450.730500		think	think
sw2962A-ms98-a-0069	A.115	450.730500	450.850500	<CONT>	I	i'm
sw2962A-ms98-a-0069	A.115	450.850500	450.850500	<CONT>	am	+++
sw2962A-ms98-a-0069	A.115	450.850500	451.060500		getting	getting
sw2962A-ms98-a-0069	A.115	451.060500	451.110500		a	a
sw2962A-ms98-a-0069	A.115	451.110500	451.400500		call	call
sw2962A-ms98-a-0069	A.115	451.400500	451.720500		coming	coming
sw2962A-ms98-a-0069	A.115	451.720500	451.964125		in	in
sw2962A-ms98-a-0069	A.117	451.964125	452.486875		[silence]	[silence]
sw2962A-ms98-a-0070	A.117	452.486875	452.973000		[silence]	[silence]
sw2962A-ms98-a-0070	A.117	452.973000	453.166875		All	all
sw2962A-ms98-a-0070	A.117	453.166875	453.446875		right	right
sw2962A-ms98-a-0070	A.117	453.446875	453.686875		nice	nice
sw2962A-ms98-a-0070	A.119	453.686875	453.996875		talking	talking
sw2962A-ms98-a-0070	A.119	453.996875	454.116875		with	with
sw2962A-ms98-a-0070	A.119	454.116875	454.397500		you	you
sw2962A-ms98-a-0070	A.121	454.397500	454.638625		[silence]	[silence]
sw2962A-ms98-a-0070	A.121	454.638625	454.857750		Thank	thank
sw2962A-ms98-a-0070	A.121	454.857750	455.054375		you	you
sw2962A-ms98-a-0070	A.121	455.054375	455.813875		[silence]	[silence]
sw2962A-ms98-a-0071	A.121	455.813875	456.406875		[silence]	[silence]
sw2962A-ms98-a-0071	A.121	456.406875	457.188125		[noise]	[noise]
sw2962A-ms98-a-0071	A.121	457.188125	457.666000		[silence]	[silence]
