sw2969B-ms98-a-0001	B.2	0.000000	0.480000		[silence]	[silence]
sw2969B-ms98-a-0001	B.2	0.480000	2.316500		[noise]	[noise]
sw2969B-ms98-a-0001	B.2	2.316500	2.347500		[silence]	[silence]
sw2969B-ms98-a-0002	B.2	2.347500	2.689375		[silence]	[silence]
sw2969B-ms98-a-0002	B.2	2.689375	3.419500		Yes	yes
sw2969B-ms98-a-0002	B.4	3.419500	3.518750		[silence]	[silence]
sw2969B-ms98-a-0003	B.4	3.518750	5.154500		[silence]	[silence]
sw2969B-ms98-a-0004	B.4	5.154500	5.420875		[silence]	[silence]
sw2969B-ms98-a-0004	B.4	5.420875	5.633250		Oh	oh
sw2969B-ms98-a-0004	B.4	5.633250	5.938500		well	well
sw2969B-ms98-a-0004	B.6	5.938500	6.459250		[laughter]	[laughter]
sw2969B-ms98-a-0004	B.6	6.459250	6.743500		[silence]	[silence]
sw2969B-ms98-a-0005	B.6	6.743500	8.544125		[silence]	[silence]
sw2969B-ms98-a-0006	B.6	8.544125	8.764125		[silence]	[silence]
sw2969B-ms98-a-0006	B.6	8.764125	8.824125	<SUB>	Well	i
sw2969B-ms98-a-0006	B.6	8.824125	9.054125	<DEL>	---	heard
sw2969B-ms98-a-0006	B.6	9.054125	9.194125	<DEL>	---	that
sw2969B-ms98-a-0006	B.6	9.194125	9.394125		the	the
sw2969B-ms98-a-0006	B.6	9.394125	9.704125		topic	topic
sw2969B-ms98-a-0006	B.6	9.704125	10.064125		today	today
sw2969B-ms98-a-0006	B.6	10.064125	10.335500		was	was
sw2969B-ms98-a-0006	B.6	10.335500	10.610375		[silence]	[silence]
sw2969B-ms98-a-0006	B.6	10.610375	11.336750		gardening	gardening
sw2969B-ms98-a-0006	B.8	11.336750	11.577750		[silence]	[silence]
sw2969B-ms98-a-0006	B.8	11.577750	11.764125		and	and
sw2969B-ms98-a-0006	B.8	11.764125	12.074125		lawn	lawn
sw2969B-ms98-a-0006	B.8	12.074125	12.654500		care	care
sw2969B-ms98-a-0006	B.8	12.654500	13.179000		[silence]	[silence]
sw2969B-ms98-a-0007	B.8	13.179000	13.960125		[silence]	[silence]
sw2969B-ms98-a-0007	B.8	13.960125	14.791625		Ooh	ooh
sw2969B-ms98-a-0007	B.10	14.791625	15.469000		[laughter]	[laughter]
sw2969B-ms98-a-0007	B.10	15.469000	15.733250		[silence]	[silence]
sw2969B-ms98-a-0008	B.10	15.733250	23.379000		[silence]	[silence]
sw2969B-ms98-a-0009	B.10	23.379000	23.699000		[silence]	[silence]
sw2969B-ms98-a-0009	B.10	23.699000	24.150375	<SUB>	Yeah	oh
sw2969B-ms98-a-0009	B.12	24.150375	24.501250		[silence]	[silence]
sw2969B-ms98-a-0010	B.12	24.501250	25.555000		[silence]	[silence]
sw2969B-ms98-a-0011	B.12	25.555000	26.015000		[silence]	[silence]
sw2969B-ms98-a-0011	B.12	26.015000	26.125000		You	you
sw2969B-ms98-a-0011	B.12	26.125000	26.255000		know	know
sw2969B-ms98-a-0011	B.12	26.255000	26.405000		what	what
sw2969B-ms98-a-0011	B.12	26.405000	26.485000		It	it
sw2969B-ms98-a-0011	B.12	26.485000	26.735000		seems	seems
sw2969B-ms98-a-0011	B.12	26.735000	26.885000		like	like
sw2969B-ms98-a-0011	B.12	26.885000	27.105000		we	we
sw2969B-ms98-a-0011	B.12	27.105000	27.235000		are	are
sw2969B-ms98-a-0011	B.12	27.235000	27.355000		doing	doing
sw2969B-ms98-a-0011	B.12	27.355000	27.445000		it	it
sw2969B-ms98-a-0011	B.12	27.445000	27.735000		here	here
sw2969B-ms98-a-0011	B.12	27.735000	28.327875		forever	forever
sw2969B-ms98-a-0011	B.12	28.327875	28.501125		[silence]	[silence]
sw2969B-ms98-a-0011	B.12	28.501125	28.625000		We	we
sw2969B-ms98-a-0011	B.12	28.625000	28.895000		bought	bought
sw2969B-ms98-a-0011	B.12	28.895000	28.945000		a	a
sw2969B-ms98-a-0011	B.12	28.945000	29.106625		a	a
sw2969B-ms98-a-0011	B.12	29.106625	29.818500		[silence]	[silence]
sw2969B-ms98-a-0011	B.12	29.818500	30.275000		large	large
sw2969B-ms98-a-0011	B.12	30.275000	30.585000		house	house
sw2969B-ms98-a-0011	B.12	30.585000	30.685000		that	that
sw2969B-ms98-a-0011	B.12	30.685000	30.825000		was	was
sw2969B-ms98-a-0011	B.12	30.825000	31.305000		completely	completely
sw2969B-ms98-a-0011	B.12	31.305000	32.165000		unlandscaped	unlandscaped
sw2969B-ms98-a-0011	B.12	32.165000	32.215000		I	i
sw2969B-ms98-a-0011	B.12	32.215000	32.515000		mean	mean
sw2969B-ms98-a-0011	B.14	32.515000	32.595000		it	it
sw2969B-ms98-a-0011	B.14	32.595000	32.705000		it	it
sw2969B-ms98-a-0011	B.14	32.705000	33.095000		was	was
sw2969B-ms98-a-0011	B.14	33.095000	33.375000		pro-	pro[bably]-
sw2969B-ms98-a-0011	B.14	33.375000	33.745000		probably	probably
sw2969B-ms98-a-0011	B.14	33.745000	33.955000		was	was
sw2969B-ms98-a-0011	B.14	33.955000	34.491375		[silence]	[silence]
sw2969B-ms98-a-0012	B.14	34.491375	34.861375		[silence]	[silence]
sw2969B-ms98-a-0012	B.14	34.861375	35.001375		up	up
sw2969B-ms98-a-0012	B.14	35.001375	35.101375		to	to
sw2969B-ms98-a-0012	B.14	35.101375	35.271375		your	your
sw2969B-ms98-a-0012	B.14	35.271375	35.771375		shoulder	shoulder
sw2969B-ms98-a-0012	B.14	35.771375	36.011375		in	in
sw2969B-ms98-a-0012	B.14	36.011375	36.151375		in	in
sw2969B-ms98-a-0012	B.14	36.151375	36.821375		thistles	thistles
sw2969B-ms98-a-0012	B.14	36.821375	36.951375		That	that
sw2969B-ms98-a-0012	B.14	36.951375	37.081375		was	was
sw2969B-ms98-a-0012	B.14	37.081375	37.291375		all	all
sw2969B-ms98-a-0012	B.14	37.291375	37.431375		that	that
sw2969B-ms98-a-0012	B.14	37.431375	37.601375		was	was
sw2969B-ms98-a-0012	B.14	37.601375	37.961375		there	there
sw2969B-ms98-a-0012	B.16	37.961375	38.201375		And	and
sw2969B-ms98-a-0012	B.16	38.201375	38.321375		we	we
sw2969B-ms98-a-0012	B.16	38.321375	38.611375		hired	hired
sw2969B-ms98-a-0012	B.16	38.611375	38.641375		a	a
sw2969B-ms98-a-0012	B.16	38.641375	39.161375		professional	professional
sw2969B-ms98-a-0012	B.16	39.161375	39.711375		landscaper	landscaper
sw2969B-ms98-a-0012	B.16	39.711375	39.831375		to	to
sw2969B-ms98-a-0012	B.16	39.831375	40.061375		do	do
sw2969B-ms98-a-0012	B.16	40.061375	40.320625		it	it
sw2969B-ms98-a-0012	B.16	40.320625	40.931625		[silence]	[silence]
sw2969B-ms98-a-0013	B.16	40.931625	41.361625		[silence]	[silence]
sw2969B-ms98-a-0013	B.16	41.361625	41.481625		And	and
sw2969B-ms98-a-0013	B.16	41.481625	41.551625		I	i
sw2969B-ms98-a-0013	B.16	41.551625	41.731625		have	have
sw2969B-ms98-a-0013	B.16	41.731625	42.021625		since	since
sw2969B-ms98-a-0013	B.16	42.021625	42.151625		then	then
sw2969B-ms98-a-0013	B.16	42.151625	42.551625		probably	probably
sw2969B-ms98-a-0013	B.16	42.551625	42.821625		ripped	ripped
sw2969B-ms98-a-0013	B.16	42.821625	43.365250		out	out
sw2969B-ms98-a-0013	B.16	43.365250	43.625625		[silence]	[silence]
sw2969B-ms98-a-0014	B.16	43.625625	43.785625		[silence]	[silence]
sw2969B-ms98-a-0014	B.16	43.785625	44.265625		half	half
sw2969B-ms98-a-0014	B.16	44.265625	44.415625		of	of
sw2969B-ms98-a-0014	B.16	44.415625	44.565625		what	what
sw2969B-ms98-a-0014	B.16	44.565625	44.685625		he	he
sw2969B-ms98-a-0014	B.16	44.685625	44.795625		has	has
sw2969B-ms98-a-0014	B.16	44.795625	45.095625		done	done
sw2969B-ms98-a-0014	B.16	45.095625	45.295625		because	because
sw2969B-ms98-a-0014	B.16	45.295625	45.415625		it	it
sw2969B-ms98-a-0014	B.16	45.415625	45.565625		has	has
sw2969B-ms98-a-0014	B.16	45.565625	45.835625		always	always
sw2969B-ms98-a-0014	B.16	45.835625	46.045625		been	been
sw2969B-ms98-a-0014	B.16	46.045625	46.615625		incorrectly	incorrectly
sw2969B-ms98-a-0014	B.16	46.615625	47.065625		planted	planted
sw2969B-ms98-a-0014	B.16	47.065625	47.215625		or	or
sw2969B-ms98-a-0014	B.16	47.215625	47.325625		the	the
sw2969B-ms98-a-0014	B.16	47.325625	47.885625		plants	plants
sw2969B-ms98-a-0014	B.16	47.885625	47.975625		do	do
sw2969B-ms98-a-0014	B.16	47.975625	48.075625		not	not
sw2969B-ms98-a-0014	B.16	48.075625	48.315625		make	make
sw2969B-ms98-a-0014	B.16	48.315625	48.405625		the	the
sw2969B-ms98-a-0014	B.16	48.405625	48.725625		winter	winter
sw2969B-ms98-a-0014	B.16	48.725625	49.175625		time	time
sw2969B-ms98-a-0014	B.18	49.175625	49.265625		And	and
sw2969B-ms98-a-0014	B.18	49.265625	49.310375		[silence]	[silence]
sw2969B-ms98-a-0015	B.18	49.310375	50.347125		[silence]	[silence]
sw2969B-ms98-a-0016	B.18	50.347125	50.410500		[silence]	[silence]
sw2969B-ms98-a-0016	B.18	50.410500	50.487125		so	so
sw2969B-ms98-a-0016	B.18	50.487125	50.517125		I	i
sw2969B-ms98-a-0016	B.18	50.517125	50.597125		am	am
sw2969B-ms98-a-0016	B.18	50.597125	50.817125		kind	kind
sw2969B-ms98-a-0016	B.18	50.817125	50.877125		of	of
sw2969B-ms98-a-0016	B.18	50.877125	50.997125		at	at
sw2969B-ms98-a-0016	B.18	50.997125	51.187125		this	this
sw2969B-ms98-a-0016	B.18	51.187125	51.554625		point	point
sw2969B-ms98-a-0016	B.18	51.554625	52.356875		[laughter]	[laughter]
sw2969B-ms98-a-0016	B.18	52.356875	52.647125		getting	getting
sw2969B-ms98-a-0016	B.18	52.647125	52.687125		a	a
sw2969B-ms98-a-0016	B.18	52.687125	52.847125		little	little
sw2969B-ms98-a-0016	B.18	52.847125	52.987125		bit	bit
sw2969B-ms98-a-0016	B.18	52.987125	53.467125		broke	broke
sw2969B-ms98-a-0016	B.18	53.467125	53.577125		and	and
sw2969B-ms98-a-0016	B.18	53.577125	54.087125		deciding	deciding
sw2969B-ms98-a-0016	B.18	54.087125	54.237125		that	that
sw2969B-ms98-a-0016	B.18	54.237125	54.337125		what	what
sw2969B-ms98-a-0016	B.18	54.337125	54.397125		we	we
sw2969B-ms98-a-0016	B.18	54.397125	54.457125		are	are
sw2969B-ms98-a-0016	B.18	54.457125	54.627125		going	going
sw2969B-ms98-a-0016	B.18	54.627125	54.707125		to	to
sw2969B-ms98-a-0016	B.18	54.707125	54.957125		do	do
sw2969B-ms98-a-0016	B.18	54.957125	55.127125		is	is
sw2969B-ms98-a-0016	B.18	55.127125	55.187125		we	we
sw2969B-ms98-a-0016	B.18	55.187125	55.267125		are	are
sw2969B-ms98-a-0016	B.18	55.267125	55.497125		just	just
sw2969B-ms98-a-0016	B.18	55.497125	55.617125		going	going
sw2969B-ms98-a-0016	B.18	55.617125	55.677125		to	to
sw2969B-ms98-a-0016	B.18	55.677125	56.067125		struggle	struggle
sw2969B-ms98-a-0016	B.18	56.067125	56.257125		through	through
sw2969B-ms98-a-0016	B.18	56.257125	56.377125		the	the
sw2969B-ms98-a-0016	B.18	56.377125	56.677125		rest	rest
sw2969B-ms98-a-0016	B.18	56.677125	56.737125		of	of
sw2969B-ms98-a-0016	B.18	56.737125	56.985375		this	this
sw2969B-ms98-a-0016	B.18	56.985375	57.377125		year	year
sw2969B-ms98-a-0016	B.20	57.377125	57.564625		[silence]	[silence]
sw2969B-ms98-a-0017	B.20	57.564625	57.687750		[silence]	[silence]
sw2969B-ms98-a-0017	B.20	57.687750	58.128250		probably	probably
sw2969B-ms98-a-0017	B.20	58.128250	58.487750		[silence]	[silence]
sw2969B-ms98-a-0017	B.20	58.487750	58.654625		through	through
sw2969B-ms98-a-0017	B.20	58.654625	58.724625		the	the
sw2969B-ms98-a-0017	B.20	58.724625	59.084625		Fall	Fall
sw2969B-ms98-a-0017	B.20	59.084625	59.494625		too	too
sw2969B-ms98-a-0017	B.20	59.494625	59.937000		[silence]	[silence]
sw2969B-ms98-a-0018	B.20	59.937000	60.367000		[silence]	[silence]
sw2969B-ms98-a-0018	B.20	60.367000	60.817000		And	and
sw2969B-ms98-a-0018	B.20	60.817000	61.271500		uh	uh
sw2969B-ms98-a-0018	B.22	61.271500	61.761625		[silence]	[silence]
sw2969B-ms98-a-0019	B.22	61.761625	62.111625		[silence]	[silence]
sw2969B-ms98-a-0019	B.22	62.111625	62.411625		rip	rip
sw2969B-ms98-a-0019	B.22	62.411625	62.661625		up	up
sw2969B-ms98-a-0019	B.22	62.661625	62.841625		rip	rip
sw2969B-ms98-a-0019	B.22	62.841625	62.981625		out	out
sw2969B-ms98-a-0019	B.22	62.981625	63.121625		all	all
sw2969B-ms98-a-0019	B.22	63.121625	63.201625		the	the
sw2969B-ms98-a-0019	B.22	63.201625	63.451625		rest	rest
sw2969B-ms98-a-0019	B.22	63.451625	63.511625		of	of
sw2969B-ms98-a-0019	B.22	63.511625	63.801625		these	these
sw2969B-ms98-a-0019	B.22	63.801625	64.391625		junipers	[laughter-junipers]
sw2969B-ms98-a-0019	B.22	64.391625	64.551625		or	or
sw2969B-ms98-a-0019	B.22	64.551625	64.811625		anything	anything
sw2969B-ms98-a-0019	B.22	64.811625	64.951625		that	that
sw2969B-ms98-a-0019	B.22	64.951625	65.621625		requires	requires
sw2969B-ms98-a-0019	B.22	65.621625	65.911625		uh	uh
sw2969B-ms98-a-0019	B.22	65.911625	66.181625		more	more
sw2969B-ms98-a-0019	B.22	66.181625	66.531625		care	care
sw2969B-ms98-a-0019	B.22	66.531625	66.641625		than	than
sw2969B-ms98-a-0019	B.22	66.641625	66.681625		I	i
sw2969B-ms98-a-0019	B.22	66.681625	66.771625		am	am
sw2969B-ms98-a-0019	B.22	66.771625	67.001625		willing	willing
sw2969B-ms98-a-0019	B.22	67.001625	67.121625		to	to
sw2969B-ms98-a-0019	B.22	67.121625	67.291625		give	give
sw2969B-ms98-a-0019	B.22	67.291625	67.361625		the	the
sw2969B-ms98-a-0019	B.22	67.361625	67.861625		kids	kids
sw2969B-ms98-a-0019	B.22	67.861625	67.951625		and	and
sw2969B-ms98-a-0019	B.22	67.951625	68.361625		replace	replace
sw2969B-ms98-a-0019	B.22	68.361625	68.421625		it	it
sw2969B-ms98-a-0019	B.22	68.421625	68.611625		with	with
sw2969B-ms98-a-0019	B.22	68.611625	69.051625		hollies	hollies
sw2969B-ms98-a-0019	B.24	69.051625	69.438250		[silence]	[silence]
sw2969B-ms98-a-0020	B.24	69.438250	70.776375		[silence]	[silence]
sw2969B-ms98-a-0021	B.24	70.776375	70.966375		[silence]	[silence]
sw2969B-ms98-a-0021	B.24	70.966375	71.226375		Just	just
sw2969B-ms98-a-0021	B.24	71.226375	71.586375		two	two
sw2969B-ms98-a-0021	B.26	71.586375	71.980125		[silence]	[silence]
sw2969B-ms98-a-0022	B.26	71.980125	72.370125		[silence]	[silence]
sw2969B-ms98-a-0022	B.26	72.370125	72.490125		but	but
sw2969B-ms98-a-0022	B.26	72.490125	72.560125		they	they
sw2969B-ms98-a-0022	B.26	72.560125	72.620125		are	are
sw2969B-ms98-a-0022	B.26	72.620125	72.740125		just	just
sw2969B-ms98-a-0022	B.26	72.740125	72.910125		eighteen	eighteen
sw2969B-ms98-a-0022	B.26	72.910125	73.100125		months	months
sw2969B-ms98-a-0022	B.26	73.100125	73.560125		apart	apart
sw2969B-ms98-a-0022	B.26	73.560125	73.640125		so	so
sw2969B-ms98-a-0022	B.26	73.640125	73.780125		it	it
sw2969B-ms98-a-0022	B.26	73.780125	73.980125		seems	seems
sw2969B-ms98-a-0022	B.26	73.980125	74.160125		like	like
sw2969B-ms98-a-0022	B.26	74.160125	74.200125		a	a
sw2969B-ms98-a-0022	B.26	74.200125	74.470125		lot	lot
sw2969B-ms98-a-0022	B.26	74.470125	74.820125		more	more
sw2969B-ms98-a-0022	B.28	74.820125	75.109875		[silence]	[silence]
sw2969B-ms98-a-0023	B.28	75.109875	77.094375		[silence]	[silence]
sw2969B-ms98-a-0024	B.28	77.094375	77.494375		[silence]	[silence]
sw2969B-ms98-a-0024	B.28	77.494375	77.824375		Four	four
sw2969B-ms98-a-0024	B.28	77.824375	77.924375		and	and
sw2969B-ms98-a-0024	B.28	77.924375	78.803750		five	five
sw2969B-ms98-a-0024	B.30	78.803750	78.851750		[silence]	[silence]
sw2969B-ms98-a-0025	B.30	78.851750	80.176750		[silence]	[silence]
sw2969B-ms98-a-0026	B.30	80.176750	80.290625		[silence]	[silence]
sw2969B-ms98-a-0026	B.30	80.290625	81.616750	<SUB>	Uh-huh	um-hum
sw2969B-ms98-a-0026	B.32	81.616750	81.675000		[silence]	[silence]
sw2969B-ms98-a-0027	B.32	81.675000	87.058125		[silence]	[silence]
sw2969B-ms98-a-0028	B.32	87.058125	87.538125		[silence]	[silence]
sw2969B-ms98-a-0028	B.32	87.538125	87.821375		Oh	oh
sw2969B-ms98-a-0028	B.32	87.821375	88.186750		well	well
sw2969B-ms98-a-0028	B.32	88.186750	88.408125		I	i
sw2969B-ms98-a-0028	B.32	88.408125	88.568125		have	have
sw2969B-ms98-a-0028	B.32	88.568125	88.638125		a	a
sw2969B-ms98-a-0028	B.32	88.638125	88.928125		twenty	twenty
sw2969B-ms98-a-0028	B.32	88.928125	89.248125		six	six
sw2969B-ms98-a-0028	B.32	89.248125	89.388125		year	year
sw2969B-ms98-a-0028	B.32	89.388125	89.518125		old	old
sw2969B-ms98-a-0028	B.32	89.518125	90.238125		stepson	stepson
sw2969B-ms98-a-0028	B.34	90.238125	90.427125		[silence]	[silence]
sw2969B-ms98-a-0028	B.34	90.427125	90.497875		and	and
sw2969B-ms98-a-0028	B.34	90.497875	90.579500		I	i
sw2969B-ms98-a-0028	B.34	90.579500	90.648125	<CONT>	do	don't
sw2969B-ms98-a-0028	B.34	90.648125	90.648125	<CONT>	not	+++
sw2969B-ms98-a-0028	B.34	90.648125	90.758125		know	know
sw2969B-ms98-a-0028	B.34	90.758125	90.828125		if	if
sw2969B-ms98-a-0028	B.34	90.828125	91.038125		that	that
sw2969B-ms98-a-0028	B.34	91.038125	91.668250		counts	counts
sw2969B-ms98-a-0028	B.36	91.668250	92.309625		[silence]	[silence]
sw2969B-ms98-a-0029	B.36	92.309625	93.129625		[silence]	[silence]
sw2969B-ms98-a-0029	B.36	93.129625	93.339625		Well	well
sw2969B-ms98-a-0029	B.36	93.339625	93.419625		I	i
sw2969B-ms98-a-0029	B.36	93.419625	93.669625		did	did
sw2969B-ms98-a-0029	B.36	93.669625	93.759625		for	for
sw2969B-ms98-a-0029	B.36	93.759625	94.039625		many	many
sw2969B-ms98-a-0029	B.36	94.039625	94.429625		years	years
sw2969B-ms98-a-0029	B.36	94.429625	94.857125		So	so
sw2969B-ms98-a-0029	B.38	94.857125	95.207375		[silence]	[silence]
sw2969B-ms98-a-0029	B.38	95.207375	95.676875		Yeah	yeah
sw2969B-ms98-a-0029	B.40	95.676875	96.221000		[silence]	[silence]
sw2969B-ms98-a-0030	B.40	96.221000	96.711000		[silence]	[silence]
sw2969B-ms98-a-0030	B.40	96.711000	96.981000		Yeah	yeah
sw2969B-ms98-a-0030	B.40	96.981000	97.141000		It	it
sw2969B-ms98-a-0030	B.40	97.141000	97.291000		is	is
sw2969B-ms98-a-0030	B.40	97.291000	97.591000		over	over
sw2969B-ms98-a-0030	B.40	97.591000	97.921000		with	with
sw2969B-ms98-a-0030	B.42	97.921000	98.254625		[silence]	[silence]
sw2969B-ms98-a-0031	B.42	98.254625	98.377625		[silence]	[silence]
sw2969B-ms98-a-0031	B.42	98.377625	98.474625	<SUB>	Uh	but
sw2969B-ms98-a-0031	B.42	98.474625	98.704625		back	back
sw2969B-ms98-a-0031	B.42	98.704625	98.824625		to	to
sw2969B-ms98-a-0031	B.42	98.824625	99.371750		gardening	gardening
sw2969B-ms98-a-0031	B.42	99.371750	99.737125		[silence]	[silence]
sw2969B-ms98-a-0031	B.42	99.737125	99.964625		Are	are
sw2969B-ms98-a-0031	B.42	99.964625	100.154625		you	you
sw2969B-ms98-a-0031	B.42	100.154625	100.314625		one	one
sw2969B-ms98-a-0031	B.42	100.314625	100.374625		of	of
sw2969B-ms98-a-0031	B.42	100.374625	100.664625		these	these
sw2969B-ms98-a-0031	B.42	100.664625	101.084625		uh	uh
sw2969B-ms98-a-0031	B.42	101.084625	101.305125		[silence]	[silence]
sw2969B-ms98-a-0032	B.42	101.305125	101.575125		[silence]	[silence]
sw2969B-ms98-a-0032	B.42	101.575125	102.075125		Howard	Howard
sw2969B-ms98-a-0032	B.42	102.075125	102.495125		Garrett	Garrett
sw2969B-ms98-a-0032	B.42	102.495125	102.545125		[silence]	[silence]
sw2969B-ms98-a-0032	B.42	102.545125	103.075125		organic	organic
sw2969B-ms98-a-0032	B.42	103.075125	103.762000		enthusiasts	enthusiasts
sw2969B-ms98-a-0032	B.42	103.762000	104.006750		[silence]	[silence]
sw2969B-ms98-a-0032	B.42	104.006750	104.255125		or	or
sw2969B-ms98-a-0032	B.42	104.255125	104.335125		a	a
sw2969B-ms98-a-0032	B.44	104.335125	104.635125		Neil	Neil
sw2969B-ms98-a-0032	B.44	104.635125	105.345125		Sperry	Sperry
sw2969B-ms98-a-0032	B.44	105.345125	105.835875		[silence]	[silence]
sw2969B-ms98-a-0033	B.44	105.835875	106.225875		[silence]	[silence]
sw2969B-ms98-a-0033	B.44	106.225875	106.605875		nuke	nuke
sw2969B-ms98-a-0033	B.44	106.605875	106.695875		the	the
sw2969B-ms98-a-0033	B.44	106.695875	106.955875		lawn	lawn
sw2969B-ms98-a-0033	B.44	106.955875	107.165875		with	[laughter-with]
sw2969B-ms98-a-0033	B.44	107.165875	108.009375		chemicals	chemicals
sw2969B-ms98-a-0033	B.46	108.009375	108.346750		[silence]	[silence]
sw2969B-ms98-a-0034	B.46	108.346750	123.244500		[silence]	[silence]
sw2969B-ms98-a-0035	B.46	123.244500	123.624500		[silence]	[silence]
sw2969B-ms98-a-0035	B.46	123.624500	124.080375	<SUB>	Uh-huh	um-hum
sw2969B-ms98-a-0035	B.48	124.080375	124.480875		[silence]	[silence]
sw2969B-ms98-a-0036	B.48	124.480875	125.530000		[silence]	[silence]
sw2969B-ms98-a-0037	B.48	125.530000	125.740000		[silence]	[silence]
sw2969B-ms98-a-0037	B.48	125.740000	126.118125	<SUB>	Uh-huh	um-hum
sw2969B-ms98-a-0037	B.50	126.118125	126.465000		[silence]	[silence]
sw2969B-ms98-a-0038	B.50	126.465000	133.832500		[silence]	[silence]
sw2969B-ms98-a-0039	B.50	133.832500	134.196500		[silence]	[silence]
sw2969B-ms98-a-0039	B.50	134.196500	134.683125		[noise]	[noise]
sw2969B-ms98-a-0039	B.50	134.683125	135.129875		[silence]	[silence]
sw2969B-ms98-a-0040	B.50	135.129875	145.577750		[silence]	[silence]
sw2969B-ms98-a-0041	B.50	145.577750	145.837750		[silence]	[silence]
sw2969B-ms98-a-0041	B.50	145.837750	146.252750	<SUB>	Uh-huh	um-hum
sw2969B-ms98-a-0041	B.52	146.252750	146.708375		[silence]	[silence]
sw2969B-ms98-a-0042	B.52	146.708375	151.544750		[silence]	[silence]
sw2969B-ms98-a-0043	B.52	151.544750	151.574750		[silence]	[silence]
sw2969B-ms98-a-0043	B.52	151.574750	152.474750	<SUB>	Uh-huh	um-hum
sw2969B-ms98-a-0043	B.54	152.474750	152.521250		[silence]	[silence]
sw2969B-ms98-a-0044	B.54	152.521250	157.010125		[silence]	[silence]
sw2969B-ms98-a-0045	B.54	157.010125	157.430125		[silence]	[silence]
sw2969B-ms98-a-0045	B.54	157.430125	157.600125		Oh	oh
sw2969B-ms98-a-0045	B.54	157.600125	157.910125	<SUB>	yeah	yes
sw2969B-ms98-a-0045	B.56	157.910125	158.175500		[silence]	[silence]
sw2969B-ms98-a-0046	B.56	158.175500	158.246750		[silence]	[silence]
sw2969B-ms98-a-0046	B.56	158.246750	160.221375		[noise]	[noise]
sw2969B-ms98-a-0046	B.56	160.221375	160.739000	<DEL>	---	bu[t]-
sw2969B-ms98-a-0046	B.56	160.739000	161.640125		[silence]	[silence]
sw2969B-ms98-a-0047	B.56	161.640125	161.810000		[silence]	[silence]
sw2969B-ms98-a-0047	B.56	161.810000	162.170125		All	all
sw2969B-ms98-a-0047	B.56	162.170125	162.350125		right	right
sw2969B-ms98-a-0047	B.56	162.350125	162.440125		now	now
sw2969B-ms98-a-0047	B.56	162.440125	162.530125		are	are
sw2969B-ms98-a-0047	B.56	162.530125	162.670125		you	you
sw2969B-ms98-a-0047	B.56	162.670125	162.890125		sure	sure
sw2969B-ms98-a-0047	B.56	162.890125	162.950125		they	they
sw2969B-ms98-a-0047	B.56	162.950125	163.030125		are	are
sw2969B-ms98-a-0047	B.56	163.030125	163.650125		hyacinths	hyacinths
sw2969B-ms98-a-0047	B.56	163.650125	163.890125		Because	because
sw2969B-ms98-a-0047	B.56	163.890125	164.010125		that	that
sw2969B-ms98-a-0047	B.56	164.010125	164.090125		is	is
sw2969B-ms98-a-0047	B.56	164.090125	164.200125		a	a
sw2969B-ms98-a-0047	B.56	164.200125	164.621500		bulb	bulb
sw2969B-ms98-a-0047	B.58	164.621500	164.901250		[silence]	[silence]
sw2969B-ms98-a-0048	B.58	164.901250	166.053750		[silence]	[silence]
sw2969B-ms98-a-0049	B.58	166.053750	166.353750		[silence]	[silence]
sw2969B-ms98-a-0049	B.58	166.353750	166.503750		Well	well
sw2969B-ms98-a-0049	B.58	166.503750	166.623750		you	you
sw2969B-ms98-a-0049	B.58	166.623750	166.773750		should	should
sw2969B-ms98-a-0049	B.58	166.773750	166.833750		of	of
sw2969B-ms98-a-0049	B.58	166.833750	167.023750		just	just
sw2969B-ms98-a-0049	B.58	167.023750	167.203750		ripped	ripped
sw2969B-ms98-a-0049	B.58	167.203750	167.273750		the	the
sw2969B-ms98-a-0049	B.58	167.273750	167.463750		whole	whole
sw2969B-ms98-a-0049	B.58	167.463750	167.713750		thing	thing
sw2969B-ms98-a-0049	B.58	167.713750	167.940750		out	out
sw2969B-ms98-a-0049	B.60	167.940750	168.242125		[silence]	[silence]
sw2969B-ms98-a-0050	B.60	168.242125	180.557375		[silence]	[silence]
sw2969B-ms98-a-0051	B.60	180.557375	180.837375		[silence]	[silence]
sw2969B-ms98-a-0051	B.60	180.837375	180.977375		Have	have
sw2969B-ms98-a-0051	B.60	180.977375	181.077375		you	you
sw2969B-ms98-a-0051	B.60	181.077375	181.227375		had	had
sw2969B-ms98-a-0051	B.60	181.227375	181.317375		is	is
sw2969B-ms98-a-0051	B.60	181.317375	181.487375		this	this
sw2969B-ms98-a-0051	B.60	181.487375	181.547375		the	the
sw2969B-ms98-a-0051	B.60	181.547375	181.817375		first	first
sw2969B-ms98-a-0051	B.60	181.817375	181.967375		year	year
sw2969B-ms98-a-0051	B.60	181.967375	182.077375		they	they
sw2969B-ms98-a-0051	B.60	182.077375	182.167375		have	have
sw2969B-ms98-a-0051	B.60	182.167375	182.277375		been	been
sw2969B-ms98-a-0051	B.60	182.277375	182.507500		up	up
sw2969B-ms98-a-0051	B.62	182.507500	183.311000		[silence]	[silence]
sw2969B-ms98-a-0052	B.62	183.311000	183.921000		[silence]	[silence]
sw2969B-ms98-a-0052	B.62	183.921000	184.298625		Well	well
sw2969B-ms98-a-0052	B.62	184.298625	184.679125		[silence]	[silence]
sw2969B-ms98-a-0052	B.62	184.679125	184.861000		let	let
sw2969B-ms98-a-0052	B.62	184.861000	184.951000		me	me
sw2969B-ms98-a-0052	B.62	184.951000	185.181000		tell	tell
sw2969B-ms98-a-0052	B.62	185.181000	185.271000		you	you
sw2969B-ms98-a-0052	B.62	185.271000	185.371000		they	they
sw2969B-ms98-a-0052	B.62	185.371000	185.431000		do	do
sw2969B-ms98-a-0052	B.62	185.431000	185.551000		not	not
sw2969B-ms98-a-0052	B.62	185.551000	185.711000		come	come
sw2969B-ms98-a-0052	B.62	185.711000	185.961000		back	back
sw2969B-ms98-a-0052	B.62	185.961000	186.141000		very	very
sw2969B-ms98-a-0052	B.62	186.141000	186.351000		well	well
sw2969B-ms98-a-0052	B.62	186.351000	186.411000		at	at
sw2969B-ms98-a-0052	B.62	186.411000	186.551000		all	all
sw2969B-ms98-a-0052	B.62	186.551000	186.831000		Maybe	maybe
sw2969B-ms98-a-0052	B.62	186.831000	186.981000		they	they
sw2969B-ms98-a-0052	B.62	186.981000	187.241000		will	will
sw2969B-ms98-a-0052	B.62	187.241000	187.401000		if	if
sw2969B-ms98-a-0052	B.62	187.401000	187.541000		up	up
sw2969B-ms98-a-0052	B.62	187.541000	187.841000		further	further
sw2969B-ms98-a-0052	B.62	187.841000	188.171000		north	north
sw2969B-ms98-a-0052	B.62	188.171000	188.281000		But	but
sw2969B-ms98-a-0052	B.62	188.281000	188.624500		down	down
sw2969B-ms98-a-0052	B.62	188.624500	188.943375		[silence]	[silence]
sw2969B-ms98-a-0053	B.62	188.943375	189.356250		[silence]	[silence]
sw2969B-ms98-a-0053	B.62	189.356250	189.563375		and	and
sw2969B-ms98-a-0053	B.62	189.563375	189.623375		you	you
sw2969B-ms98-a-0053	B.62	189.623375	189.683375		are	are
sw2969B-ms98-a-0053	B.62	189.683375	189.833375		not	not
sw2969B-ms98-a-0053	B.62	189.833375	190.013375		that	that
sw2969B-ms98-a-0053	B.62	190.013375	190.203375		much	much
sw2969B-ms98-a-0053	B.62	190.203375	190.493375		further	further
sw2969B-ms98-a-0053	B.62	190.493375	191.243375		north	north
sw2969B-ms98-a-0053	B.62	191.243375	191.363375		I	i
sw2969B-ms98-a-0053	B.62	191.363375	191.513375		have	have
sw2969B-ms98-a-0053	B.62	191.513375	191.813375		probably	probably
sw2969B-ms98-a-0053	B.62	191.813375	192.418625		planted	planted
sw2969B-ms98-a-0053	B.62	192.418625	192.678500		[silence]	[silence]
sw2969B-ms98-a-0053	B.62	192.678500	192.913375		oh	oh
sw2969B-ms98-a-0053	B.62	192.913375	193.273375		around	around
sw2969B-ms98-a-0053	B.62	193.273375	193.693375		here	here
sw2969B-ms98-a-0053	B.62	193.693375	194.285625		[silence]	[silence]
sw2969B-ms98-a-0054	B.62	194.285625	194.756250		[silence]	[silence]
sw2969B-ms98-a-0054	B.62	194.756250	195.305625		um	um
sw2969B-ms98-a-0054	B.62	195.305625	195.565625		maybe	maybe
sw2969B-ms98-a-0054	B.62	195.565625	195.875625		six	six
sw2969B-ms98-a-0054	B.62	195.875625	196.205625		hundred	hundred
sw2969B-ms98-a-0054	B.62	196.205625	196.726375		bulbs	bulbs
sw2969B-ms98-a-0054	B.64	196.726375	196.946125		[silence]	[silence]
sw2969B-ms98-a-0055	B.64	196.946125	197.957500		[silence]	[silence]
sw2969B-ms98-a-0056	B.64	197.957500	198.227500		[silence]	[silence]
sw2969B-ms98-a-0056	B.64	198.227500	198.727500		No	no
sw2969B-ms98-a-0056	B.64	198.727500	198.787500		I	i
sw2969B-ms98-a-0056	B.64	198.787500	198.897500		have	have
sw2969B-ms98-a-0056	B.64	198.897500	199.237500		probably	probably
sw2969B-ms98-a-0056	B.66	199.237500	199.327500		have	have
sw2969B-ms98-a-0056	B.66	199.327500	199.547500		done	done
sw2969B-ms98-a-0056	B.66	199.547500	200.067500		hyacinths	hyacinths
sw2969B-ms98-a-0056	B.66	200.067500	200.287500		But	but
sw2969B-ms98-a-0056	B.66	200.287500	200.387500		I	i
sw2969B-ms98-a-0056	B.66	200.387500	200.507500		have	have
sw2969B-ms98-a-0056	B.66	200.507500	200.747500		just	just
sw2969B-ms98-a-0056	B.66	200.747500	201.017500		learned	learned
sw2969B-ms98-a-0056	B.66	201.017500	201.117500	<DEL>	---	wi[th]-
sw2969B-ms98-a-0056	B.66	201.117500	201.386000	<SUB>	from	with
sw2969B-ms98-a-0056	B.66	201.386000	201.617500		doing	doing
sw2969B-ms98-a-0056	B.66	201.617500	202.217500		hyacinths	hyacinths
sw2969B-ms98-a-0056	B.66	202.217500	202.307500		that	that
sw2969B-ms98-a-0056	B.66	202.307500	202.367500		if	if
sw2969B-ms98-a-0056	B.66	202.367500	202.497500		you	you
sw2969B-ms98-a-0056	B.66	202.497500	202.757500		really	really
sw2969B-ms98-a-0056	B.66	202.757500	203.047500		like	like
sw2969B-ms98-a-0056	B.66	203.047500	203.167500		them	them
sw2969B-ms98-a-0056	B.66	203.167500	203.327500		what	what
sw2969B-ms98-a-0056	B.66	203.327500	203.397500		you	you
sw2969B-ms98-a-0056	B.66	203.397500	203.657500		do	do
sw2969B-ms98-a-0056	B.66	203.657500	203.843250		is	is
sw2969B-ms98-a-0056	B.66	203.843250	204.110625		[silence]	[silence]
sw2969B-ms98-a-0056	B.66	204.110625	204.337500		you	you
sw2969B-ms98-a-0056	B.66	204.337500	204.547500		dig	dig
sw2969B-ms98-a-0056	B.66	204.547500	204.607500		the	the
sw2969B-ms98-a-0056	B.66	204.607500	204.957500		bulbs	bulbs
sw2969B-ms98-a-0056	B.66	204.957500	205.326625		up	up
sw2969B-ms98-a-0056	B.66	205.326625	205.533750		[silence]	[silence]
sw2969B-ms98-a-0056	B.66	205.533750	205.657500		and	and
sw2969B-ms98-a-0056	B.66	205.657500	205.767500		then	then
sw2969B-ms98-a-0056	B.66	205.767500	205.837500		you	you
sw2969B-ms98-a-0056	B.66	205.837500	206.147500		throw	throw
sw2969B-ms98-a-0056	B.66	206.147500	206.267500		them	them
sw2969B-ms98-a-0056	B.66	206.267500	206.597500		away	away
sw2969B-ms98-a-0056	B.66	206.597500	206.817500		after	after
sw2969B-ms98-a-0056	B.66	206.817500	207.007500		they	they
sw2969B-ms98-a-0056	B.66	207.007500	207.067500		are	are
sw2969B-ms98-a-0056	B.66	207.067500	207.207500		done	done
sw2969B-ms98-a-0056	B.66	207.207500	207.537500		blooming	blooming
sw2969B-ms98-a-0056	B.66	207.537500	207.774625		[silence]	[silence]
sw2969B-ms98-a-0057	B.66	207.774625	207.924625		[silence]	[silence]
sw2969B-ms98-a-0057	B.66	207.924625	208.094625		Because	because_1
sw2969B-ms98-a-0057	B.66	208.094625	208.214625		they	they
sw2969B-ms98-a-0057	B.66	208.214625	208.412375		do	do
sw2969B-ms98-a-0057	B.66	208.412375	208.847000		not	not
sw2969B-ms98-a-0057	B.66	208.847000	209.314625		take	take
sw2969B-ms98-a-0057	B.66	209.314625	209.394625		the	the
sw2969B-ms98-a-0057	B.66	209.394625	209.714625		heat	heat
sw2969B-ms98-a-0057	B.66	209.714625	210.091875		here	here
sw2969B-ms98-a-0057	B.66	210.091875	210.547625		[silence]	[silence]
sw2969B-ms98-a-0057	B.66	210.547625	210.684625		And	And
sw2969B-ms98-a-0057	B.66	210.684625	210.784625		if	if
sw2969B-ms98-a-0057	B.66	210.784625	210.904625		they	they
sw2969B-ms98-a-0057	B.66	210.904625	211.134625		do	do
sw2969B-ms98-a-0057	B.66	211.134625	211.354625		come	come
sw2969B-ms98-a-0057	B.66	211.354625	211.604625		back	back
sw2969B-ms98-a-0057	B.66	211.604625	211.864625		next	next
sw2969B-ms98-a-0057	B.66	211.864625	211.954625		year	year
sw2969B-ms98-a-0057	B.66	211.954625	212.014625		they	they
sw2969B-ms98-a-0057	B.66	212.014625	212.084625		are	are
sw2969B-ms98-a-0057	B.66	212.084625	212.204625		going	going
sw2969B-ms98-a-0057	B.66	212.204625	212.264625		to	to
sw2969B-ms98-a-0057	B.66	212.264625	212.394625		look	look
sw2969B-ms98-a-0057	B.66	212.394625	212.564625		real	real
sw2969B-ms98-a-0057	B.66	212.564625	213.054625		puny	puny
sw2969B-ms98-a-0057	B.68	213.054625	213.722500		[silence]	[silence]
sw2969B-ms98-a-0058	B.68	213.722500	214.347750		[silence]	[silence]
sw2969B-ms98-a-0058	B.68	214.347750	214.822500		Yep	yep
sw2969B-ms98-a-0058	B.70	214.822500	215.214250		[silence]	[silence]
sw2969B-ms98-a-0059	B.70	215.214250	215.774250		[silence]	[silence]
sw2969B-ms98-a-0059	B.70	215.774250	215.964250		About	about
sw2969B-ms98-a-0059	B.70	215.964250	216.044250		the	the
sw2969B-ms98-a-0059	B.70	216.044250	216.274250		only	only
sw2969B-ms98-a-0059	B.70	216.274250	216.724250		bloom	bloom
sw2969B-ms98-a-0059	B.70	216.724250	217.004250		bulb	bulb
sw2969B-ms98-a-0059	B.70	217.004250	217.114250		that	that
sw2969B-ms98-a-0059	B.70	217.114250	217.574250		repeats	repeats
sw2969B-ms98-a-0059	B.70	217.574250	218.044375		well	well
sw2969B-ms98-a-0059	B.70	218.044375	218.266625		[silence]	[silence]
sw2969B-ms98-a-0059	B.70	218.266625	218.454250		in	in
sw2969B-ms98-a-0059	B.70	218.454250	218.694250		my	my
sw2969B-ms98-a-0059	B.70	218.694250	219.215250		area	area
sw2969B-ms98-a-0059	B.70	219.215250	219.663375		[silence]	[silence]
sw2969B-ms98-a-0059	B.70	219.663375	220.124250		is	is
sw2969B-ms98-a-0059	B.70	220.124250	220.484250		the	the
sw2969B-ms98-a-0059	B.70	220.484250	220.665125		uh	uh
sw2969B-ms98-a-0059	B.70	220.665125	221.139750		[silence]	[silence]
sw2969B-ms98-a-0059	B.70	221.139750	221.462000		uh	uh
sw2969B-ms98-a-0059	B.70	221.462000	221.665375		[silence]	[silence]
sw2969B-ms98-a-0059	B.70	221.665375	222.384250		daffodil	daffodil
sw2969B-ms98-a-0059	B.70	222.384250	222.614250		and	and
sw2969B-ms98-a-0059	B.70	222.614250	222.744250		some	some
sw2969B-ms98-a-0059	B.70	222.744250	222.804250		of	of
sw2969B-ms98-a-0059	B.70	222.804250	222.864250		the	the
sw2969B-ms98-a-0059	B.70	222.864250	223.474250		narcissus	narcissus
sw2969B-ms98-a-0059	B.70	223.474250	223.799625		bulb	bulb
sw2969B-ms98-a-0059	B.72	223.799625	224.203125		[silence]	[silence]
sw2969B-ms98-a-0060	B.72	224.203125	233.501625		[silence]	[silence]
sw2969B-ms98-a-0061	B.72	233.501625	234.011625		[silence]	[silence]
sw2969B-ms98-a-0061	B.72	234.011625	234.111625		They	they
sw2969B-ms98-a-0061	B.72	234.111625	234.381625		call	call
sw2969B-ms98-a-0061	B.72	234.381625	234.471625		them	them_1
sw2969B-ms98-a-0061	B.72	234.471625	235.135125		flags	flags
sw2969B-ms98-a-0061	B.74	235.135125	235.618375		[silence]	[silence]
sw2969B-ms98-a-0062	B.74	235.618375	243.986625		[silence]	[silence]
sw2969B-ms98-a-0063	B.74	243.986625	244.356625		[silence]	[silence]
sw2969B-ms98-a-0063	B.74	244.356625	244.516625		When	when
sw2969B-ms98-a-0063	B.74	244.516625	244.666625		does	does
sw2969B-ms98-a-0063	B.74	244.666625	244.726625		it	it
sw2969B-ms98-a-0063	B.76	244.726625	244.918750	<DEL>	---	leaf
sw2969B-ms98-a-0063	B.76	244.918750	245.201250		[silence]	[silence]
sw2969B-ms98-a-0063	B.76	245.201250	245.366625		Wh-	wh[en]-
sw2969B-ms98-a-0063	B.76	245.366625	245.566625		when	when
sw2969B-ms98-a-0063	B.76	245.566625	245.696625		does	does
sw2969B-ms98-a-0063	B.76	245.696625	245.796625		it	it
sw2969B-ms98-a-0063	B.76	245.796625	246.197500		bloom	bloom
sw2969B-ms98-a-0063	B.78	246.197500	246.440375		[silence]	[silence]
sw2969B-ms98-a-0064	B.78	246.440375	250.703000		[silence]	[silence]
sw2969B-ms98-a-0065	B.78	250.703000	251.093000		[silence]	[silence]
sw2969B-ms98-a-0065	B.78	251.093000	251.203000		And	and
sw2969B-ms98-a-0065	B.78	251.203000	251.353000		what	what
sw2969B-ms98-a-0065	B.78	251.353000	251.773000		color	color
sw2969B-ms98-a-0065	B.80	251.773000	252.020500		[silence]	[silence]
sw2969B-ms98-a-0066	B.80	252.020500	259.838750		[silence]	[silence]
sw2969B-ms98-a-0067	B.80	259.838750	260.288750		[silence]	[silence]
sw2969B-ms98-a-0067	B.80	260.288750	260.408750		And	and
sw2969B-ms98-a-0067	B.80	260.408750	260.528750		you	you
sw2969B-ms98-a-0067	B.80	260.528750	260.768750		only	only
sw2969B-ms98-a-0067	B.80	260.768750	261.098750		get	get
sw2969B-ms98-a-0067	B.80	261.098750	261.358750		one	one
sw2969B-ms98-a-0067	B.80	261.358750	261.438750		of	of
sw2969B-ms98-a-0067	B.80	261.438750	261.708750		them	them
sw2969B-ms98-a-0067	B.82	261.708750	262.156625		[silence]	[silence]
sw2969B-ms98-a-0068	B.82	262.156625	276.010000		[silence]	[silence]
sw2969B-ms98-a-0069	B.82	276.010000	276.590000		[silence]	[silence]
sw2969B-ms98-a-0069	B.82	276.590000	276.690000		You	you
sw2969B-ms98-a-0069	B.82	276.690000	276.780000		know	know
sw2969B-ms98-a-0069	B.82	276.780000	276.880000		what	what
sw2969B-ms98-a-0069	B.82	276.880000	276.940000		I	i
sw2969B-ms98-a-0069	B.82	276.940000	277.130000		bet	bet
sw2969B-ms98-a-0069	B.82	277.130000	277.230000		you	you
sw2969B-ms98-a-0069	B.82	277.230000	277.420000		they	they
sw2969B-ms98-a-0069	B.82	277.420000	277.755000		are	are
sw2969B-ms98-a-0069	B.82	277.755000	278.358750		[silence]	[silence]
sw2969B-ms98-a-0070	B.82	278.358750	278.858750		[silence]	[silence]
sw2969B-ms98-a-0070	B.82	278.858750	279.008750		And	and
sw2969B-ms98-a-0070	B.82	279.008750	279.078750		I	i
sw2969B-ms98-a-0070	B.82	279.078750	279.148750		am	am
sw2969B-ms98-a-0070	B.82	279.148750	279.218750		a	a
sw2969B-ms98-a-0070	B.82	279.218750	279.708750		pretty	pretty
sw2969B-ms98-a-0070	B.82	279.708750	279.738750		I	i
sw2969B-ms98-a-0070	B.82	279.738750	279.798750		am	am
sw2969B-ms98-a-0070	B.82	279.798750	279.868750		a	a
sw2969B-ms98-a-0070	B.82	279.868750	280.118750		pretty	pretty
sw2969B-ms98-a-0070	B.82	280.118750	280.348750		good	[laughter-good]
sw2969B-ms98-a-0070	B.82	280.348750	280.738750		gardener	gardener
sw2969B-ms98-a-0070	B.82	280.738750	280.898750		because	because_1
sw2969B-ms98-a-0070	B.82	280.898750	280.948750		I	i
sw2969B-ms98-a-0070	B.82	280.948750	281.056500		have	have
sw2969B-ms98-a-0070	B.82	281.056500	281.263625		[silence]	[silence]
sw2969B-ms98-a-0070	B.82	281.263625	281.548750		killed	killed
sw2969B-ms98-a-0070	B.82	281.548750	281.588750		a	a
sw2969B-ms98-a-0070	B.82	281.588750	281.808750		lot	lot
sw2969B-ms98-a-0070	B.82	281.808750	281.888750		of	of
sw2969B-ms98-a-0070	B.82	281.888750	282.208750		things	things
sw2969B-ms98-a-0070	B.82	282.208750	282.508750		here	here
sw2969B-ms98-a-0070	B.82	282.508750	282.708750		and	and
sw2969B-ms98-a-0070	B.82	282.708750	282.978750		and	and
sw2969B-ms98-a-0070	B.82	282.978750	282.978750	<INS>	I	---
sw2969B-ms98-a-0070	B.82	282.978750	282.978750	<INS>	have	---
sw2969B-ms98-a-0070	B.82	282.978750	283.338750		planted	planted
sw2969B-ms98-a-0070	B.82	283.338750	283.398750		a	a
sw2969B-ms98-a-0070	B.82	283.398750	283.638750		lot	lot
sw2969B-ms98-a-0070	B.82	283.638750	283.718750		of	of
sw2969B-ms98-a-0070	B.82	283.718750	283.898750		them	them
sw2969B-ms98-a-0070	B.82	283.898750	284.008750		And	and
sw2969B-ms98-a-0070	B.82	284.008750	284.378750	<SUB>	and	i-
sw2969B-ms98-a-0070	B.82	284.378750	284.428750		I	i
sw2969B-ms98-a-0070	B.82	284.428750	284.658750		work	work
sw2969B-ms98-a-0070	B.82	284.658750	284.778750		on	on
sw2969B-ms98-a-0070	B.82	284.778750	284.908750		a	a
sw2969B-ms98-a-0070	B.82	284.908750	284.978750		uh	uh
sw2969B-ms98-a-0070	B.82	284.978750	285.508750		landscape	landscape
sw2969B-ms98-a-0070	B.82	285.508750	285.828750		committee	committee
sw2969B-ms98-a-0070	B.82	285.828750	285.968750		for	for
sw2969B-ms98-a-0070	B.82	285.968750	286.188750		our	our
sw2969B-ms98-a-0070	B.82	286.188750	286.808125		neighborhood	neighborhood
sw2969B-ms98-a-0070	B.84	286.808125	286.808125	<INS>	And	---
sw2969B-ms98-a-0070	B.84	286.808125	286.984000		[silence]	[silence]
sw2969B-ms98-a-0071	B.84	286.984000	287.274000		[silence]	[silence]
sw2969B-ms98-a-0071	B.84	287.274000	287.414000		our	our
sw2969B-ms98-a-0071	B.84	287.414000	287.764000		neighborhood	neighborhood
sw2969B-ms98-a-0071	B.84	287.764000	287.824000		is	is
sw2969B-ms98-a-0071	B.84	287.824000	287.874000		a	a
sw2969B-ms98-a-0071	B.84	287.874000	288.184000		planned	planned
sw2969B-ms98-a-0071	B.84	288.184000	288.634000		development	development
sw2969B-ms98-a-0071	B.84	288.634000	288.754000		with	with
sw2969B-ms98-a-0071	B.84	288.754000	289.206250		[silence]	[silence]
sw2969B-ms98-a-0072	B.84	289.206250	289.621875		[silence]	[silence]
sw2969B-ms98-a-0072	B.84	289.621875	289.742750		I	i
sw2969B-ms98-a-0072	B.84	289.742750	289.827625		think	think
sw2969B-ms98-a-0072	B.84	289.827625	290.001000	<CONT>	it	it's
sw2969B-ms98-a-0072	B.84	290.001000	290.001000	<CONT>	is	+++
sw2969B-ms98-a-0072	B.84	290.001000	290.152000		seven	seven
sw2969B-ms98-a-0072	B.84	290.152000	290.356250		hundred	hundred
sw2969B-ms98-a-0072	B.84	290.356250	290.356250	<INS>	and	---
sw2969B-ms98-a-0072	B.84	290.356250	290.566250	<CONT>	fifty-five	fifty
sw2969B-ms98-a-0072	B.84	290.566250	290.856250	<CONT>	+++	five
sw2969B-ms98-a-0072	B.84	290.856250	291.406250		families	families
sw2969B-ms98-a-0072	B.86	291.406250	291.714125		[silence]	[silence]
sw2969B-ms98-a-0073	B.86	291.714125	291.931625		[silence]	[silence]
sw2969B-ms98-a-0073	B.86	291.931625	292.044125		But	but
sw2969B-ms98-a-0073	B.86	292.044125	292.162375		we	we
sw2969B-ms98-a-0073	B.86	292.162375	292.791250		have	have
sw2969B-ms98-a-0073	B.86	292.791250	293.295875		about	about
sw2969B-ms98-a-0073	B.86	293.295875	293.480375		[silence]	[silence]
sw2969B-ms98-a-0073	B.86	293.480375	293.934125	<SUB>	sixty	sixteen
sw2969B-ms98-a-0073	B.86	293.934125	294.374000		acres	acres
sw2969B-ms98-a-0073	B.86	294.374000	294.765750		[silence]	[silence]
sw2969B-ms98-a-0073	B.86	294.765750	294.914125		that	that
sw2969B-ms98-a-0073	B.86	294.914125	294.974125		we	we
sw2969B-ms98-a-0073	B.86	294.974125	295.064125		have	have
sw2969B-ms98-a-0073	B.86	295.064125	295.124125		to	to
sw2969B-ms98-a-0073	B.86	295.124125	295.457125		plant	plant
sw2969B-ms98-a-0073	B.86	295.457125	295.956375		[silence]	[silence]
sw2969B-ms98-a-0074	B.86	295.956375	296.459750		[silence]	[silence]
sw2969B-ms98-a-0074	B.86	296.459750	296.636375		I	i
sw2969B-ms98-a-0074	B.86	296.636375	296.696375		am	am
sw2969B-ms98-a-0074	B.86	296.696375	296.816375		going	going
sw2969B-ms98-a-0074	B.86	296.816375	296.876375		to	to
sw2969B-ms98-a-0074	B.86	296.876375	297.076375		bet	bet
sw2969B-ms98-a-0074	B.86	297.076375	297.226375		you	you
sw2969B-ms98-a-0074	B.86	297.226375	297.426375		that	that
sw2969B-ms98-a-0074	B.86	297.426375	297.486375		is	is
sw2969B-ms98-a-0074	B.86	297.486375	297.536375		a	a
sw2969B-ms98-a-0074	B.86	297.536375	298.074875		lily	lily
sw2969B-ms98-a-0074	B.86	298.074875	298.621125		[silence]	[silence]
sw2969B-ms98-a-0074	B.86	298.621125	298.916375		Because	because
sw2969B-ms98-a-0074	B.86	298.916375	299.056375	<DEL>	---	if
sw2969B-ms98-a-0074	B.86	299.056375	299.176375		it	it
sw2969B-ms98-a-0074	B.86	299.176375	299.536500		is	is
sw2969B-ms98-a-0074	B.88	299.536500	300.214750		[silence]	[silence]
sw2969B-ms98-a-0075	B.88	300.214750	300.844750		[silence]	[silence]
sw2969B-ms98-a-0075	B.88	300.844750	301.044750		And	and
sw2969B-ms98-a-0075	B.88	301.044750	301.084750		I	i
sw2969B-ms98-a-0075	B.88	301.084750	301.184750		will	will
sw2969B-ms98-a-0075	B.88	301.184750	301.314750		get	get
sw2969B-ms98-a-0075	B.88	301.314750	301.464750		uh	uh
sw2969B-ms98-a-0075	B.88	301.464750	301.856250		[silence]	[silence]
sw2969B-ms98-a-0076	B.88	301.856250	302.179875		[silence]	[silence]
sw2969B-ms98-a-0076	B.88	302.179875	302.406250		is	is
sw2969B-ms98-a-0076	B.88	302.406250	302.608000		it	it
sw2969B-ms98-a-0076	B.88	302.608000	302.736250	<DEL>	---	uh
sw2969B-ms98-a-0076	B.88	302.736250	302.856250		what	what
sw2969B-ms98-a-0076	B.88	302.856250	303.136250		color	color
sw2969B-ms98-a-0076	B.88	303.136250	303.286250		is	is
sw2969B-ms98-a-0076	B.88	303.286250	303.496250		is	is
sw2969B-ms98-a-0076	B.88	303.496250	303.776250		yours	yours
sw2969B-ms98-a-0076	B.88	303.776250	304.236250		blooming	blooming
sw2969B-ms98-a-0076	B.90	304.236250	304.478875		[silence]	[silence]
sw2969B-ms98-a-0077	B.90	304.478875	324.881625		[silence]	[silence]
sw2969B-ms98-a-0078	B.90	324.881625	325.171625		[silence]	[silence]
sw2969B-ms98-a-0078	B.90	325.171625	325.311625		And	and
sw2969B-ms98-a-0078	B.90	325.311625	325.421625		what	what
sw2969B-ms98-a-0078	B.90	325.421625	325.521625		does	does
sw2969B-ms98-a-0078	B.90	325.521625	325.591625		the	the
sw2969B-ms98-a-0078	B.90	325.591625	326.061625		foliage	foliage
sw2969B-ms98-a-0078	B.90	326.061625	326.231625		look	look
sw2969B-ms98-a-0078	B.90	326.231625	326.462750		like	like
sw2969B-ms98-a-0078	B.90	326.462750	326.854375		[silence]	[silence]
sw2969B-ms98-a-0078	B.90	326.854375	326.991625		Does	does
sw2969B-ms98-a-0078	B.90	326.991625	327.085375		it	it
sw2969B-ms98-a-0078	B.90	327.085375	327.085375	<INS>	fit	---
sw2969B-ms98-a-0078	B.90	327.085375	327.085375	<INS>	that	---
sw2969B-ms98-a-0078	B.92	327.085375	327.216625		[silence]	[silence]
sw2969B-ms98-a-0078	B.92	327.216625	327.722000		[vocalized-noise]	[vocalized-noise]
sw2969B-ms98-a-0078	B.92	327.722000	327.984250		[silence]	[silence]
sw2969B-ms98-a-0079	B.92	327.984250	331.363625		[silence]	[silence]
sw2969B-ms98-a-0080	B.92	331.363625	331.617625		[silence]	[silence]
sw2969B-ms98-a-0080	B.92	331.617625	332.543625		Oh	oh
sw2969B-ms98-a-0080	B.94	332.543625	332.859000		oh	oh
sw2969B-ms98-a-0080	B.94	332.859000	333.028375		[silence]	[silence]
sw2969B-ms98-a-0080	B.94	333.028375	333.173625		oh	oh
sw2969B-ms98-a-0080	B.96	333.173625	333.233625		Oh	oh
sw2969B-ms98-a-0080	B.96	333.233625	333.433625		I	i
sw2969B-ms98-a-0080	B.96	333.433625	333.613625		bet	bet
sw2969B-ms98-a-0080	B.96	333.613625	333.783625		you	you
sw2969B-ms98-a-0080	B.96	333.783625	334.133625		those	those
sw2969B-ms98-a-0080	B.96	334.133625	334.203625		are	are
sw2969B-ms98-a-0080	B.96	334.203625	334.253625		I	i
sw2969B-ms98-a-0080	B.96	334.253625	334.453625		bet	bet
sw2969B-ms98-a-0080	B.96	334.453625	334.543625		you	you
sw2969B-ms98-a-0080	B.96	334.543625	334.713625		what	what
sw2969B-ms98-a-0080	B.96	334.713625	334.913625		those	those
sw2969B-ms98-a-0080	B.96	334.913625	335.303625		things	things
sw2969B-ms98-a-0080	B.96	335.303625	335.737000		are	are
sw2969B-ms98-a-0080	B.96	335.737000	336.181500		[silence]	[silence]
sw2969B-ms98-a-0080	B.96	336.181500	336.693625	<SUB>	uh	um
sw2969B-ms98-a-0080	B.96	336.693625	336.803625		is	is
sw2969B-ms98-a-0080	B.96	336.803625	336.853625		a	a
sw2969B-ms98-a-0080	B.96	336.853625	337.183625		Dutch	Dutch
sw2969B-ms98-a-0080	B.96	337.183625	337.630625		iris	iris
sw2969B-ms98-a-0080	B.98	337.630625	338.249000		[silence]	[silence]
sw2969B-ms98-a-0081	B.98	338.249000	338.739000		[silence]	[silence]
sw2969B-ms98-a-0081	B.98	338.739000	338.889000	<SUB>	I	i'll
sw2969B-ms98-a-0081	B.98	338.889000	339.069000		bet	bet
sw2969B-ms98-a-0081	B.98	339.069000	339.149000		you	you
sw2969B-ms98-a-0081	B.98	339.149000	339.249000		it	it
sw2969B-ms98-a-0081	B.98	339.249000	339.399000		is	is
sw2969B-ms98-a-0081	B.98	339.399000	339.429000		a	a
sw2969B-ms98-a-0081	B.98	339.429000	339.699000		Dutch	Dutch
sw2969B-ms98-a-0081	B.98	339.699000	340.179000		iris	iris
sw2969B-ms98-a-0081	B.100	340.179000	340.507375		[silence]	[silence]
sw2969B-ms98-a-0082	B.100	340.507375	340.807375		[silence]	[silence]
sw2969B-ms98-a-0082	B.100	340.807375	341.037375		Does	does
sw2969B-ms98-a-0082	B.100	341.037375	341.337375		it	it
sw2969B-ms98-a-0082	B.100	341.337375	341.477375		does	does
sw2969B-ms98-a-0082	B.100	341.477375	341.697375		it	it
sw2969B-ms98-a-0082	B.100	341.697375	341.807375		on	on
sw2969B-ms98-a-0082	B.100	341.807375	341.977375		its	its
sw2969B-ms98-a-0082	B.100	341.977375	342.417375		little	little
sw2969B-ms98-a-0082	B.100	342.417375	342.527375		on	on
sw2969B-ms98-a-0082	B.100	342.527375	342.727375		its	its
sw2969B-ms98-a-0082	B.100	342.727375	342.807375		on	on
sw2969B-ms98-a-0082	B.100	342.807375	342.867375		the	the
sw2969B-ms98-a-0082	B.100	342.867375	343.307375		flower	flower
sw2969B-ms98-a-0082	B.100	343.307375	343.427375		does	does
sw2969B-ms98-a-0082	B.100	343.427375	343.547375		it	it
sw2969B-ms98-a-0082	B.100	343.547375	343.727375		have	have
sw2969B-ms98-a-0082	B.100	343.727375	343.817375		a	a
sw2969B-ms98-a-0082	B.100	343.817375	344.177375		beard	beard
sw2969B-ms98-a-0082	B.100	344.177375	344.327375		on	on
sw2969B-ms98-a-0082	B.100	344.327375	344.437375		it	it
sw2969B-ms98-a-0082	B.100	344.437375	344.580625		at	at
sw2969B-ms98-a-0082	B.100	344.580625	345.028875		all	all
sw2969B-ms98-a-0082	B.100	345.028875	345.227375		Any	any
sw2969B-ms98-a-0082	B.100	345.227375	345.397375		kind	kind
sw2969B-ms98-a-0082	B.100	345.397375	345.467375		of	of
sw2969B-ms98-a-0082	B.100	345.467375	345.957375		fuzzies	fuzzies
sw2969B-ms98-a-0082	B.102	345.957375	346.249375		[silence]	[silence]
sw2969B-ms98-a-0083	B.102	346.249375	348.034875		[silence]	[silence]
sw2969B-ms98-a-0084	B.102	348.034875	348.434875		[silence]	[silence]
sw2969B-ms98-a-0084	B.102	348.434875	348.474875		I	i
sw2969B-ms98-a-0084	B.102	348.474875	348.534875		am	am
sw2969B-ms98-a-0084	B.102	348.534875	348.664875		going	going
sw2969B-ms98-a-0084	B.102	348.664875	348.724875		to	to
sw2969B-ms98-a-0084	B.102	348.724875	348.904875		bet	bet
sw2969B-ms98-a-0084	B.102	348.904875	349.014875		you	you
sw2969B-ms98-a-0084	B.102	349.014875	349.134875		that	that
sw2969B-ms98-a-0084	B.102	349.134875	349.434875		that	that
sw2969B-ms98-a-0084	B.102	349.434875	349.604875		has	has
sw2969B-ms98-a-0084	B.102	349.604875	349.814875		got	got
sw2969B-ms98-a-0084	B.102	349.814875	349.884875		to	to
sw2969B-ms98-a-0084	B.102	349.884875	350.194875		be	be
sw2969B-ms98-a-0084	B.102	350.194875	350.484875		blooming	blooming
sw2969B-ms98-a-0084	B.102	350.484875	350.654875		this	this
sw2969B-ms98-a-0084	B.102	350.654875	350.854875		time	time
sw2969B-ms98-a-0084	B.102	350.854875	350.934875		of	of
sw2969B-ms98-a-0084	B.102	350.934875	351.254875		year	year
sw2969B-ms98-a-0084	B.102	351.254875	351.386500	<CONT>	It	it's
sw2969B-ms98-a-0084	B.102	351.386500	351.386500	<CONT>	has	+++
sw2969B-ms98-a-0084	B.104	351.386500	351.784375		[silence]	[silence]
sw2969B-ms98-a-0085	B.104	351.784375	354.750000		[silence]	[silence]
sw2969B-ms98-a-0086	B.104	354.750000	355.210000		[silence]	[silence]
sw2969B-ms98-a-0086	B.104	355.210000	355.320000		Well	well
sw2969B-ms98-a-0086	B.104	355.320000	355.350000		I	i
sw2969B-ms98-a-0086	B.104	355.350000	355.470000		was	was
sw2969B-ms98-a-0086	B.106	355.470000	355.620000		just	just
sw2969B-ms98-a-0086	B.106	355.620000	355.740000		going	going
sw2969B-ms98-a-0086	B.106	355.740000	355.800000		to	to
sw2969B-ms98-a-0086	B.106	355.800000	356.140000		correct	correct
sw2969B-ms98-a-0086	B.106	356.140000	356.590000		myself	myself
sw2969B-ms98-a-0086	B.106	356.590000	356.820000		Because	because
sw2969B-ms98-a-0086	B.106	356.820000	356.940000		they	they
sw2969B-ms98-a-0086	B.106	356.940000	357.040000		would	would
sw2969B-ms98-a-0086	B.106	357.040000	357.170000		have	have
sw2969B-ms98-a-0086	B.106	357.170000	357.790000		bloomed	bloomed
sw2969B-ms98-a-0086	B.106	357.790000	358.120000		pretty	pretty
sw2969B-ms98-a-0086	B.106	358.120000	358.550000		early	early
sw2969B-ms98-a-0086	B.108	358.550000	358.757250		[silence]	[silence]
sw2969B-ms98-a-0087	B.108	358.757250	358.997250		[silence]	[silence]
sw2969B-ms98-a-0087	B.108	358.997250	359.157250		Well	well
sw2969B-ms98-a-0087	B.110	359.157250	359.666875		[silence]	[silence]
sw2969B-ms98-a-0088	B.110	359.666875	360.106875		[silence]	[silence]
sw2969B-ms98-a-0088	B.110	360.106875	360.196875		Yeah	yeah
sw2969B-ms98-a-0088	B.110	360.196875	360.416875		Right	right
sw2969B-ms98-a-0088	B.110	360.416875	360.629500		about	about
sw2969B-ms98-a-0088	B.110	360.629500	360.802750		[silence]	[silence]
sw2969B-ms98-a-0088	B.110	360.802750	361.116875		after	after
sw2969B-ms98-a-0088	B.110	361.116875	361.176875		the	the
sw2969B-ms98-a-0088	B.110	361.176875	361.753375		daffodils	daffodils
sw2969B-ms98-a-0088	B.112	361.753375	362.118500		[silence]	[silence]
sw2969B-ms98-a-0089	B.112	362.118500	364.277125		[silence]	[silence]
sw2969B-ms98-a-0090	B.112	364.277125	364.677125		[silence]	[silence]
sw2969B-ms98-a-0090	B.112	364.677125	365.127125		Okay	okay
sw2969B-ms98-a-0090	B.112	365.127125	365.217125		I	i
sw2969B-ms98-a-0090	B.112	365.217125	365.307125		will	will
sw2969B-ms98-a-0090	B.112	365.307125	365.457125		bet	bet
sw2969B-ms98-a-0090	B.112	365.457125	365.537125		you	you
sw2969B-ms98-a-0090	B.112	365.537125	365.727125		those	those
sw2969B-ms98-a-0090	B.112	365.727125	365.787125		are	are
sw2969B-ms98-a-0090	B.112	365.787125	366.117125		Dutch	Dutch
sw2969B-ms98-a-0090	B.112	366.117125	366.547125		iris	iris
sw2969B-ms98-a-0090	B.114	366.547125	366.948875		[silence]	[silence]
sw2969B-ms98-a-0091	B.114	366.948875	369.353875		[silence]	[silence]
sw2969B-ms98-a-0092	B.114	369.353875	369.653875		[silence]	[silence]
sw2969B-ms98-a-0092	B.114	369.653875	370.073875	<SUB>	Uh-huh	um-hum
sw2969B-ms98-a-0092	B.116	370.073875	370.409750		[silence]	[silence]
sw2969B-ms98-a-0093	B.116	370.409750	375.110500		[silence]	[silence]
sw2969B-ms98-a-0094	B.116	375.110500	375.580500		[silence]	[silence]
sw2969B-ms98-a-0094	B.116	375.580500	376.066250		Well	well
sw2969B-ms98-a-0094	B.118	376.066250	376.500500		[silence]	[silence]
sw2969B-ms98-a-0095	B.118	376.500500	385.052625		[silence]	[silence]
sw2969B-ms98-a-0096	B.118	385.052625	385.484500		[silence]	[silence]
sw2969B-ms98-a-0096	B.118	385.484500	385.782625		Yep	yep
sw2969B-ms98-a-0096	B.120	385.782625	386.199250		[silence]	[silence]
sw2969B-ms98-a-0097	B.120	386.199250	397.887250		[silence]	[silence]
sw2969B-ms98-a-0098	B.120	397.887250	398.107250		[silence]	[silence]
sw2969B-ms98-a-0098	B.120	398.107250	398.307250		Well	well
sw2969B-ms98-a-0098	B.122	398.307250	398.593500		[silence]	[silence]
sw2969B-ms98-a-0099	B.122	398.593500	400.543250		[silence]	[silence]
sw2969B-ms98-a-0100	B.122	400.543250	400.902500		[silence]	[silence]
sw2969B-ms98-a-0100	B.122	400.902500	401.273250		Ooh	ooh
sw2969B-ms98-a-0100	B.124	401.273250	401.842250		[silence]	[silence]
sw2969B-ms98-a-0101	B.124	401.842250	402.389500		[silence]	[silence]
sw2969B-ms98-a-0101	B.124	402.389500	402.572250		Well	well
sw2969B-ms98-a-0101	B.124	402.572250	402.732250		then	then
sw2969B-ms98-a-0101	B.124	402.732250	402.802250		it	it
sw2969B-ms98-a-0101	B.124	402.802250	402.862250		is	is
sw2969B-ms98-a-0101	B.124	402.862250	403.082250		not	not
sw2969B-ms98-a-0101	B.124	403.082250	403.192250		it	it
sw2969B-ms98-a-0101	B.124	403.192250	403.322250		is	is
sw2969B-ms98-a-0101	B.124	403.322250	403.522250		not	not
sw2969B-ms98-a-0101	B.124	403.522250	403.592250		a	a
sw2969B-ms98-a-0101	B.124	403.592250	403.892250		Dutch	Dutch
sw2969B-ms98-a-0101	B.124	403.892250	404.292250		iris	iris
sw2969B-ms98-a-0101	B.124	404.292250	404.528625		then	then
sw2969B-ms98-a-0101	B.124	404.528625	404.826125		[silence]	[silence]
sw2969B-ms98-a-0101	B.124	404.826125	405.372250		Oh	oh
sw2969B-ms98-a-0101	B.124	405.372250	405.809625		gosh	gosh
sw2969B-ms98-a-0101	B.126	405.809625	406.158000		[silence]	[silence]
sw2969B-ms98-a-0102	B.126	406.158000	411.342625		[silence]	[silence]
sw2969B-ms98-a-0103	B.126	411.342625	411.727000		[silence]	[silence]
sw2969B-ms98-a-0103	B.126	411.727000	412.082625		Huh	huh
sw2969B-ms98-a-0103	B.128	412.082625	412.470375		[silence]	[silence]
sw2969B-ms98-a-0104	B.128	412.470375	414.756625		[silence]	[silence]
sw2969B-ms98-a-0105	B.128	414.756625	415.126625		[silence]	[silence]
sw2969B-ms98-a-0105	B.128	415.126625	415.276625		Well	well
sw2969B-ms98-a-0105	B.128	415.276625	415.306625		I	i
sw2969B-ms98-a-0105	B.128	415.306625	415.366625		am	am
sw2969B-ms98-a-0105	B.128	415.366625	415.476625		not	not
sw2969B-ms98-a-0105	B.128	415.476625	415.596625		so	so
sw2969B-ms98-a-0105	B.128	415.596625	415.796625		sure	sure
sw2969B-ms98-a-0105	B.128	415.796625	415.956625		that	that
sw2969B-ms98-a-0105	B.128	415.956625	416.396625		Texans	Texans
sw2969B-ms98-a-0105	B.128	416.396625	416.596625	<DEL>	---	really
sw2969B-ms98-a-0105	B.128	416.596625	416.776625		know	know
sw2969B-ms98-a-0105	B.128	416.776625	416.936625		what	what
sw2969B-ms98-a-0105	B.128	416.936625	417.176625	<DEL>	---	they've
sw2969B-ms98-a-0105	B.128	417.176625	417.326625		what	what
sw2969B-ms98-a-0105	B.128	417.326625	417.396625		they	they
sw2969B-ms98-a-0105	B.128	417.396625	417.496625		have	have
sw2969B-ms98-a-0105	B.128	417.496625	417.831375		got	got
sw2969B-ms98-a-0105	B.132	417.831375	420.299625		[laughter]	[laughter]
sw2969B-ms98-a-0105	B.132	420.299625	420.509625		[silence]	[silence]
sw2969B-ms98-a-0106	B.132	420.509625	423.010000		[silence]	[silence]
sw2969B-ms98-a-0107	B.132	423.010000	423.510000		[silence]	[silence]
sw2969B-ms98-a-0107	B.132	423.510000	423.650000		Did	did
sw2969B-ms98-a-0107	B.132	423.650000	423.740000		you	you
sw2969B-ms98-a-0107	B.132	423.740000	423.950000		just	just
sw2969B-ms98-a-0107	B.132	423.950000	423.970000		[noise]	[noise]
sw2969B-ms98-a-0107	B.132	423.970000	424.170000		move	move
sw2969B-ms98-a-0107	B.132	424.170000	424.420000		down	down
sw2969B-ms98-a-0107	B.132	424.420000	424.630000		here	here
sw2969B-ms98-a-0107	B.134	424.630000	425.001000		[silence]	[silence]
sw2969B-ms98-a-0108	B.134	425.001000	434.297125		[silence]	[silence]
sw2969B-ms98-a-0109	B.134	434.297125	434.727125		[silence]	[silence]
sw2969B-ms98-a-0109	B.134	434.727125	435.169875	<SUB>	Um	ooh
sw2969B-ms98-a-0109	B.134	435.169875	435.397125		[silence]	[silence]
sw2969B-ms98-a-0109	B.134	435.397125	435.507125		Who	who
sw2969B-ms98-a-0109	B.134	435.507125	435.704875		who	who
sw2969B-ms98-a-0109	B.134	435.704875	435.919500		[silence]	[silence]
sw2969B-ms98-a-0109	B.134	435.919500	436.097625		who	who
sw2969B-ms98-a-0109	B.134	436.097625	436.097625	<INS>	who	---
sw2969B-ms98-a-0109	B.134	436.097625	436.567125		[silence]	[silence]
sw2969B-ms98-a-0109	B.134	436.567125	436.747125		Because	because_1
sw2969B-ms98-a-0109	B.134	436.747125	436.847125		I	i
sw2969B-ms98-a-0109	B.134	436.847125	436.957125		have	have
sw2969B-ms98-a-0109	B.134	436.957125	437.197125		got	got
sw2969B-ms98-a-0109	B.134	437.197125	437.227125		a	a
sw2969B-ms98-a-0109	B.134	437.227125	437.517125		flower	flower
sw2969B-ms98-a-0109	B.134	437.517125	437.547125		I	i
sw2969B-ms98-a-0109	B.134	437.547125	437.637125		have	have
sw2969B-ms98-a-0109	B.134	437.637125	437.727125		got	got
sw2969B-ms98-a-0109	B.134	437.727125	437.757125		I	i
sw2969B-ms98-a-0109	B.134	437.757125	437.957125		have	have
sw2969B-ms98-a-0109	B.134	437.957125	438.247125		probably	probably
sw2969B-ms98-a-0109	B.134	438.247125	438.437625		got	got
sw2969B-ms98-a-0109	B.134	438.437625	438.847250		[silence]	[silence]
sw2969B-ms98-a-0109	B.134	438.847250	439.047125		do	do
sw2969B-ms98-a-0109	B.134	439.047125	439.157125		do	do
sw2969B-ms98-a-0109	B.134	439.157125	439.337125		do	do
sw2969B-ms98-a-0109	B.134	439.337125	439.397125		do	do
sw2969B-ms98-a-0109	B.134	439.397125	439.693000		[silence]	[silence]
sw2969B-ms98-a-0110	B.134	439.693000	440.212000		[silence]	[silence]
sw2969B-ms98-a-0110	B.134	440.212000	440.385000		[vocalized-noise]	[vocalized-noise]
sw2969B-ms98-a-0110	B.134	440.385000	440.647500	<DEL>	---	h[e]-
sw2969B-ms98-a-0110	B.134	440.647500	440.828375	<DEL>	---	h[e]-
sw2969B-ms98-a-0110	B.134	440.828375	441.037875		[silence]	[silence]
sw2969B-ms98-a-0110	B.134	441.037875	441.173500		I	i
sw2969B-ms98-a-0110	B.134	441.173500	441.273000	<CONT>	do	don't
sw2969B-ms98-a-0110	B.134	441.273000	441.273000	<CONT>	not	+++
sw2969B-ms98-a-0110	B.134	441.273000	441.383000		know	know
sw2969B-ms98-a-0110	B.134	441.383000	441.493000		how	how
sw2969B-ms98-a-0110	B.134	441.493000	441.613000		many	many
sw2969B-ms98-a-0110	B.134	441.613000	441.943000		square	square
sw2969B-ms98-a-0110	B.134	441.943000	442.093000		feet	feet
sw2969B-ms98-a-0110	B.134	442.093000	442.233000		it	it
sw2969B-ms98-a-0110	B.134	442.233000	442.503000		is	is
sw2969B-ms98-a-0110	B.134	442.503000	442.553000		a	a
sw2969B-ms98-a-0110	B.134	442.553000	442.703000		big	big
sw2969B-ms98-a-0110	B.134	442.703000	443.153000		circular	circular
sw2969B-ms98-a-0110	B.134	443.153000	443.721500		driveway	driveway
sw2969B-ms98-a-0110	B.134	443.721500	444.132000		[silence]	[silence]
sw2969B-ms98-a-0110	B.134	444.132000	444.313000		The	the
sw2969B-ms98-a-0110	B.134	444.313000	445.074250		whole	whole
sw2969B-ms98-a-0110	B.134	445.074250	445.337875		[silence]	[silence]
sw2969B-ms98-a-0110	B.134	445.337875	445.803000		uh	uh
sw2969B-ms98-a-0110	B.134	445.803000	446.353000		perimeter	perimeter
sw2969B-ms98-a-0110	B.134	446.353000	446.833000		bordering	bordering
sw2969B-ms98-a-0110	B.134	446.833000	446.923000		the	the
sw2969B-ms98-a-0110	B.134	446.923000	447.363000		house	house
sw2969B-ms98-a-0110	B.134	447.363000	447.513000		is	is
sw2969B-ms98-a-0110	B.134	447.513000	448.063000		all	all
sw2969B-ms98-a-0110	B.134	448.063000	448.341250		in	in
sw2969B-ms98-a-0110	B.134	448.341250	448.876125		[silence]	[silence]
sw2969B-ms98-a-0110	B.134	448.876125	449.403000		Texas	Texas
sw2969B-ms98-a-0110	B.134	449.403000	450.103000		wildflower	wildflower
sw2969B-ms98-a-0110	B.134	450.103000	450.375125		beds	beds
sw2969B-ms98-a-0110	B.134	450.375125	450.605250		[silence]	[silence]
sw2969B-ms98-a-0110	B.134	450.605250	451.063000		And	and
sw2969B-ms98-a-0110	B.136	451.063000	451.278875		[silence]	[silence]
sw2969B-ms98-a-0111	B.136	451.278875	451.581625		[silence]	[silence]
sw2969B-ms98-a-0111	B.136	451.581625	451.738875		I	i
sw2969B-ms98-a-0111	B.136	451.738875	451.818875		am	am
sw2969B-ms98-a-0111	B.136	451.818875	452.158875		into	into
sw2969B-ms98-a-0111	B.136	452.158875	452.538875		that	that
sw2969B-ms98-a-0111	B.136	452.538875	452.768875		And	and
sw2969B-ms98-a-0111	B.136	452.768875	453.098875		it	it
sw2969B-ms98-a-0111	B.136	453.098875	453.208875		and	and
sw2969B-ms98-a-0111	B.136	453.208875	453.348875		it	it
sw2969B-ms98-a-0111	B.136	453.348875	453.598875		looks	looks
sw2969B-ms98-a-0111	B.136	453.598875	453.999625		quite	quite
sw2969B-ms98-a-0111	B.136	453.999625	454.478000		formal	formal
sw2969B-ms98-a-0111	B.136	454.478000	454.628875		I	i
sw2969B-ms98-a-0111	B.136	454.628875	454.758875		mean	mean
sw2969B-ms98-a-0111	B.136	454.758875	454.888875		it	it
sw2969B-ms98-a-0111	B.136	454.888875	455.198875		really	really
sw2969B-ms98-a-0111	B.136	455.198875	455.568875		does	does
sw2969B-ms98-a-0111	B.136	455.568875	455.628875		it	it
sw2969B-ms98-a-0111	B.136	455.628875	455.938875		looks	looks
sw2969B-ms98-a-0111	B.138	455.938875	456.208875		quite	quite
sw2969B-ms98-a-0111	B.138	456.208875	456.678500		formal	formal
sw2969B-ms98-a-0111	B.138	456.678500	457.205750		[silence]	[silence]
sw2969B-ms98-a-0111	B.138	457.205750	457.328875		But	but
sw2969B-ms98-a-0111	B.138	457.328875	457.428875		it	it
sw2969B-ms98-a-0111	B.138	457.428875	457.518875		has	has
sw2969B-ms98-a-0111	B.138	457.518875	457.818875		been	been
sw2969B-ms98-a-0111	B.138	457.818875	458.148875		about	about
sw2969B-ms98-a-0111	B.138	458.148875	458.308875		three	three
sw2969B-ms98-a-0111	B.138	458.308875	458.388875		or	or
sw2969B-ms98-a-0111	B.138	458.388875	458.668875		four	four
sw2969B-ms98-a-0111	B.138	458.668875	458.958875		years	years
sw2969B-ms98-a-0111	B.138	458.958875	459.088875		of	of
sw2969B-ms98-a-0111	B.138	459.088875	459.138875		uh	uh
sw2969B-ms98-a-0111	B.138	459.138875	459.248000		uh	uh
sw2969B-ms98-a-0111	B.138	459.248000	459.526750		[silence]	[silence]
sw2969B-ms98-a-0111	B.138	459.526750	459.858875		playing	playing
sw2969B-ms98-a-0111	B.138	459.858875	460.308875		around	around
sw2969B-ms98-a-0111	B.138	460.308875	460.418875		with	with
sw2969B-ms98-a-0111	B.138	460.418875	460.918875		flowers	flowers
sw2969B-ms98-a-0111	B.138	460.918875	461.058875		to	to
sw2969B-ms98-a-0111	B.138	461.058875	461.058875	<INS>	de-	---
sw2969B-ms98-a-0111	B.138	461.058875	461.468875		decide	decide
sw2969B-ms98-a-0111	B.138	461.468875	461.668875		which	which
sw2969B-ms98-a-0111	B.138	461.668875	461.878875		ones	ones
sw2969B-ms98-a-0111	B.138	461.878875	462.248875		actually	actually
sw2969B-ms98-a-0111	B.138	462.248875	462.498875		grow	grow
sw2969B-ms98-a-0111	B.138	462.498875	462.768875		here	here
sw2969B-ms98-a-0111	B.140	462.768875	463.179750		[silence]	[silence]
sw2969B-ms98-a-0112	B.140	463.179750	464.449000		[silence]	[silence]
sw2969B-ms98-a-0113	B.140	464.449000	464.759000		[silence]	[silence]
sw2969B-ms98-a-0113	B.140	464.759000	464.909000		You	you
sw2969B-ms98-a-0113	B.140	464.909000	465.099000		want	want
sw2969B-ms98-a-0113	B.140	465.099000	465.600875		blue	blue
sw2969B-ms98-a-0113	B.142	465.600875	465.860000		[silence]	[silence]
sw2969B-ms98-a-0114	B.142	465.860000	473.045125		[silence]	[silence]
sw2969B-ms98-a-0115	B.142	473.045125	473.315125		[silence]	[silence]
sw2969B-ms98-a-0115	B.142	473.315125	473.755125	<SUB>	Uh-huh	um-hum
sw2969B-ms98-a-0115	B.144	473.755125	474.383625		[silence]	[silence]
sw2969B-ms98-a-0116	B.144	474.383625	475.013625		[silence]	[silence]
sw2969B-ms98-a-0116	B.144	475.013625	475.253625		Ooh	ooh
sw2969B-ms98-a-0116	B.144	475.253625	475.473625		blue	blue
sw2969B-ms98-a-0116	B.144	475.473625	475.614000		is	is
sw2969B-ms98-a-0116	B.144	475.614000	476.227875		hard	hard
sw2969B-ms98-a-0116	B.144	476.227875	476.453625		you	you
sw2969B-ms98-a-0116	B.144	476.453625	476.673625		know	know
sw2969B-ms98-a-0116	B.144	476.673625	476.773625	<DEL>	---	if
sw2969B-ms98-a-0116	B.144	476.773625	476.904625	<DEL>	---	you
sw2969B-ms98-a-0116	B.144	476.904625	477.074500	<DEL>	---	want
sw2969B-ms98-a-0116	B.144	477.074500	477.174750		[silence]	[silence]
sw2969B-ms98-a-0116	B.144	477.174750	477.222875		Do	do
sw2969B-ms98-a-0116	B.144	477.222875	477.315125		you	you
sw2969B-ms98-a-0116	B.144	477.315125	477.426750		want	want
sw2969B-ms98-a-0116	B.144	477.426750	477.483625		a	a
sw2969B-ms98-a-0116	B.144	477.483625	477.993625		perennial	perennial
sw2969B-ms98-a-0116	B.144	477.993625	478.453625		flower	flower
sw2969B-ms98-a-0116	B.144	478.453625	478.593625		that	that
sw2969B-ms98-a-0116	B.144	478.593625	478.683625		will	will
sw2969B-ms98-a-0116	B.144	478.683625	479.023625		bloom	bloom
sw2969B-ms98-a-0116	B.144	479.023625	479.243625		all	all
sw2969B-ms98-a-0116	B.144	479.243625	479.644375		Summer	Summer
sw2969B-ms98-a-0116	B.146	479.644375	480.066500		[silence]	[silence]
sw2969B-ms98-a-0117	B.146	480.066500	484.266250		[silence]	[silence]
sw2969B-ms98-a-0118	B.146	484.266250	484.716250		[silence]	[silence]
sw2969B-ms98-a-0118	B.146	484.716250	485.278625		Okay	okay
sw2969B-ms98-a-0118	B.146	485.278625	485.700375		[silence]	[silence]
sw2969B-ms98-a-0118	B.146	485.700375	485.928875		Put	put
sw2969B-ms98-a-0118	B.146	485.928875	486.441000		in	in
sw2969B-ms98-a-0118	B.146	486.441000	486.766250		a	a
sw2969B-ms98-a-0118	B.146	486.766250	487.459125		perennial	perennial
sw2969B-ms98-a-0118	B.146	487.459125	487.711500		[silence]	[silence]
sw2969B-ms98-a-0118	B.146	487.711500	488.205125		blue	blue
sw2969B-ms98-a-0118	B.146	488.205125	488.660875		[silence]	[silence]
sw2969B-ms98-a-0118	B.146	488.660875	489.266250		salvia	salvia
sw2969B-ms98-a-0118	B.146	489.266250	489.752750		[silence]	[silence]
sw2969B-ms98-a-0119	B.146	489.752750	490.282750		[silence]	[silence]
sw2969B-ms98-a-0119	B.146	490.282750	490.482750		Now	now
sw2969B-ms98-a-0119	B.146	490.482750	490.642750	<CONT>	it	it's
sw2969B-ms98-a-0119	B.146	490.642750	490.642750	<CONT>	is	+++
sw2969B-ms98-a-0119	B.146	490.642750	490.762750		going	going
sw2969B-ms98-a-0119	B.146	490.762750	490.842750		to	to
sw2969B-ms98-a-0119	B.146	490.842750	491.172750		grow	grow
sw2969B-ms98-a-0119	B.146	491.172750	491.589750		about	about
sw2969B-ms98-a-0119	B.146	491.589750	492.554000		um	um
sw2969B-ms98-a-0119	B.146	492.554000	492.682750		the	the
sw2969B-ms98-a-0119	B.146	492.682750	493.082750		plant	plant
sw2969B-ms98-a-0119	B.146	493.082750	493.552750		itself	itself
sw2969B-ms98-a-0119	B.146	493.552750	493.672750		will	will
sw2969B-ms98-a-0119	B.146	493.672750	493.892750		grow	grow
sw2969B-ms98-a-0119	B.146	493.892750	494.372750		about	about
sw2969B-ms98-a-0119	B.146	494.372750	494.709375		[silence]	[silence]
sw2969B-ms98-a-0120	B.146	494.709375	495.149375		[silence]	[silence]
sw2969B-ms98-a-0120	B.146	495.149375	495.489375		eighteen	eighteen
sw2969B-ms98-a-0120	B.146	495.489375	495.729375		inches	inches
sw2969B-ms98-a-0120	B.146	495.729375	496.173375		tall	tall
sw2969B-ms98-a-0120	B.148	496.173375	496.859375		[silence]	[silence]
sw2969B-ms98-a-0120	B.148	496.859375	496.913500		And	and
sw2969B-ms98-a-0120	B.148	496.913500	497.059375	<CONT>	it	it'll
sw2969B-ms98-a-0120	B.148	497.059375	497.059375	<CONT>	will	+++
sw2969B-ms98-a-0120	B.148	497.059375	497.379375		send	send
sw2969B-ms98-a-0120	B.148	497.379375	497.479375		out	out
sw2969B-ms98-a-0120	B.148	497.479375	497.519375		a	a
sw2969B-ms98-a-0120	B.148	497.519375	497.919375		flower	flower
sw2969B-ms98-a-0120	B.148	497.919375	498.319375		spike	spike
sw2969B-ms98-a-0120	B.148	498.319375	498.379375		You	you
sw2969B-ms98-a-0120	B.148	498.379375	498.469375		will	will
sw2969B-ms98-a-0120	B.148	498.469375	498.639375		see	see
sw2969B-ms98-a-0120	B.148	498.639375	498.779375		them	them
sw2969B-ms98-a-0120	B.148	498.779375	499.089375		blooming	blooming
sw2969B-ms98-a-0120	B.148	499.089375	499.279375		now	now
sw2969B-ms98-a-0120	B.148	499.279375	499.359375		It	it
sw2969B-ms98-a-0120	B.148	499.359375	499.419375		is	is
sw2969B-ms98-a-0120	B.148	499.419375	499.479375		a	a
sw2969B-ms98-a-0120	B.148	499.479375	500.199375		wildflower	wildflower
sw2969B-ms98-a-0120	B.148	500.199375	500.439375		here	here
sw2969B-ms98-a-0120	B.148	500.439375	500.599375		but	but
sw2969B-ms98-a-0120	B.148	500.599375	500.679375		you	you
sw2969B-ms98-a-0120	B.148	500.679375	500.789375		can	can
sw2969B-ms98-a-0120	B.148	500.789375	500.949375		get	get
sw2969B-ms98-a-0120	B.148	500.949375	501.059375		them	them
sw2969B-ms98-a-0120	B.148	501.059375	501.179375		in	in
sw2969B-ms98-a-0120	B.148	501.179375	501.239375		the	the
sw2969B-ms98-a-0120	B.148	501.239375	502.117875		nursery	nursery
sw2969B-ms98-a-0120	B.150	502.117875	502.425625		[silence]	[silence]
sw2969B-ms98-a-0121	B.150	502.425625	514.289500		[silence]	[silence]
sw2969B-ms98-a-0122	B.150	514.289500	514.769500		[silence]	[silence]
sw2969B-ms98-a-0122	B.150	514.769500	515.079500		Yep	yep
sw2969B-ms98-a-0122	B.150	515.079500	515.519500		[silence]	[silence]
sw2969B-ms98-a-0122	B.150	515.519500	515.699500		Well	well
sw2969B-ms98-a-0122	B.150	515.699500	515.799500		the	the
sw2969B-ms98-a-0122	B.150	515.799500	515.949500		you	you
sw2969B-ms98-a-0122	B.150	515.949500	516.129500		know	know
sw2969B-ms98-a-0122	B.150	516.129500	516.129500	<INS>	e-	---
sw2969B-ms98-a-0122	B.150	516.129500	516.299500		[vocalized-noise]	[vocalized-noise]
sw2969B-ms98-a-0122	B.150	516.299500	516.719500		nursery	nursery
sw2969B-ms98-a-0122	B.150	516.719500	516.889500		men	men
sw2969B-ms98-a-0122	B.150	516.889500	516.999500		will	will
sw2969B-ms98-a-0122	B.150	516.999500	517.229500		se-	se[ll]-
sw2969B-ms98-a-0122	B.150	517.229500	517.359500		will	will
sw2969B-ms98-a-0122	B.150	517.359500	517.649500		sell	sell
sw2969B-ms98-a-0122	B.150	517.649500	517.769500		you	you
sw2969B-ms98-a-0122	B.150	517.769500	518.109500		things	things
sw2969B-ms98-a-0122	B.150	518.109500	518.413000		here	here
sw2969B-ms98-a-0122	B.150	518.413000	518.801000		[silence]	[silence]
sw2969B-ms98-a-0122	B.150	518.801000	518.949500		And	and
sw2969B-ms98-a-0122	B.150	518.949500	519.009500		they	they
sw2969B-ms98-a-0122	B.150	519.009500	519.069500		are	are
sw2969B-ms98-a-0122	B.150	519.069500	519.159500		they	they
sw2969B-ms98-a-0122	B.150	519.159500	519.229500		are	are
sw2969B-ms98-a-0122	B.150	519.229500	519.499500		kind	kind
sw2969B-ms98-a-0122	B.150	519.499500	519.579500		of	of
sw2969B-ms98-a-0122	B.150	519.579500	519.639500		in	in
sw2969B-ms98-a-0122	B.150	519.639500	519.669500		a	a
sw2969B-ms98-a-0122	B.150	519.669500	519.949500		labor	labor
sw2969B-ms98-a-0122	B.150	519.949500	520.079500		of	of
sw2969B-ms98-a-0122	B.150	520.079500	520.259500		love	love
sw2969B-ms98-a-0122	B.150	520.259500	520.359500		The	the
sw2969B-ms98-a-0122	B.150	520.359500	520.489500		other	other
sw2969B-ms98-a-0122	B.150	520.489500	520.669500		thing	thing
sw2969B-ms98-a-0122	B.150	520.669500	520.739500		to	to
sw2969B-ms98-a-0122	B.150	520.739500	520.849500		do	do
sw2969B-ms98-a-0122	B.150	520.849500	520.979500		if	if
sw2969B-ms98-a-0122	B.150	520.979500	521.089500		you	you
sw2969B-ms98-a-0122	B.150	521.089500	521.419500		re-	re[ally]-
sw2969B-ms98-a-0122	B.150	521.419500	521.679500		really	really
sw2969B-ms98-a-0122	B.150	521.679500	521.899500		like	like
sw2969B-ms98-a-0122	B.150	521.899500	521.999500		the	the
sw2969B-ms98-a-0122	B.150	521.999500	522.529500		hyacinths	hyacinths
sw2969B-ms98-a-0122	B.150	522.529500	522.659500		and	and
sw2969B-ms98-a-0122	B.150	522.659500	522.749500		I	i
sw2969B-ms98-a-0122	B.150	522.749500	523.079500		do	do
sw2969B-ms98-a-0122	B.150	523.079500	523.799500		is	is
sw2969B-ms98-a-0122	B.150	523.799500	523.929500		that	that
sw2969B-ms98-a-0122	B.150	523.929500	524.239500		before	before
sw2969B-ms98-a-0122	B.150	524.239500	524.309500		you	you
sw2969B-ms98-a-0122	B.150	524.309500	524.609500		plant	plant
sw2969B-ms98-a-0122	B.150	524.609500	524.769500		those	those
sw2969B-ms98-a-0122	B.150	524.769500	525.069500		bulbs	bulbs
sw2969B-ms98-a-0122	B.150	525.069500	525.299500		stick	stick
sw2969B-ms98-a-0122	B.150	525.299500	525.389500		them	them
sw2969B-ms98-a-0122	B.150	525.389500	525.449500		in	in
sw2969B-ms98-a-0122	B.150	525.449500	525.509500		the	the
sw2969B-ms98-a-0122	B.150	525.509500	525.999500		refrigerator	refrigerator
sw2969B-ms98-a-0122	B.150	525.999500	526.129500		for	for
sw2969B-ms98-a-0122	B.150	526.129500	526.589500		five	five
sw2969B-ms98-a-0122	B.150	526.589500	526.949500		weeks	weeks
sw2969B-ms98-a-0122	B.150	526.949500	527.009500		or	or
sw2969B-ms98-a-0122	B.150	527.009500	527.469500		so	so
sw2969B-ms98-a-0122	B.150	527.469500	527.559500		to	to
sw2969B-ms98-a-0122	B.150	527.559500	527.879500		cool	cool
sw2969B-ms98-a-0122	B.150	527.879500	528.073875		them	them
sw2969B-ms98-a-0122	B.152	528.073875	528.328250		[silence]	[silence]
sw2969B-ms98-a-0123	B.152	528.328250	531.430000		[silence]	[silence]
sw2969B-ms98-a-0124	B.152	531.430000	531.730000		[silence]	[silence]
sw2969B-ms98-a-0124	B.152	531.730000	532.056000		Yep	yep
sw2969B-ms98-a-0124	B.154	532.056000	532.495375		[silence]	[silence]
sw2969B-ms98-a-0125	B.154	532.495375	535.176500		[silence]	[silence]
sw2969B-ms98-a-0126	B.154	535.176500	535.526500		[silence]	[silence]
sw2969B-ms98-a-0126	B.154	535.526500	535.846500		Huh-uh	huh-uh
sw2969B-ms98-a-0126	B.156	535.846500	536.190375		[silence]	[silence]
sw2969B-ms98-a-0127	B.156	536.190375	537.218375		[silence]	[silence]
sw2969B-ms98-a-0128	B.156	537.218375	537.418750		[silence]	[silence]
sw2969B-ms98-a-0128	B.156	537.418750	537.728375	<SUB>	Uh-huh	um-hum
sw2969B-ms98-a-0128	B.158	537.728375	538.374750		[silence]	[silence]
sw2969B-ms98-a-0129	B.158	538.374750	538.984750		[silence]	[silence]
sw2969B-ms98-a-0129	B.158	538.984750	539.634750		Salvia	salvia
sw2969B-ms98-a-0129	B.160	539.634750	540.095000		[silence]	[silence]
sw2969B-ms98-a-0130	B.160	540.095000	540.545000		[silence]	[silence]
sw2969B-ms98-a-0130	B.160	540.545000	540.875000		Uh-huh	uh-huh
sw2969B-ms98-a-0130	B.160	540.875000	541.174000		[silence]	[silence]
sw2969B-ms98-a-0131	B.160	541.174000	541.384000		[silence]	[silence]
sw2969B-ms98-a-0131	B.160	541.384000	541.494000		And	and
sw2969B-ms98-a-0131	B.160	541.494000	541.624000		now	now
sw2969B-ms98-a-0131	B.160	541.624000	541.864000		that	that
sw2969B-ms98-a-0131	B.160	541.864000	542.034000		will	will
sw2969B-ms98-a-0131	B.160	542.034000	542.544000		bloom	bloom
sw2969B-ms98-a-0131	B.160	542.544000	542.784000		all	all
sw2969B-ms98-a-0131	B.160	542.784000	543.114000		Summer	Summer
sw2969B-ms98-a-0131	B.160	543.114000	543.434000		long	long
sw2969B-ms98-a-0131	B.160	543.434000	543.964000		[silence]	[silence]
sw2969B-ms98-a-0131	B.160	543.964000	544.054000		and	and
sw2969B-ms98-a-0131	B.160	544.054000	544.144000		it	it
sw2969B-ms98-a-0131	B.160	544.144000	544.264000		will	will
sw2969B-ms98-a-0131	B.160	544.264000	544.416500		it	it
sw2969B-ms98-a-0131	B.160	544.416500	544.740500		[silence]	[silence]
sw2969B-ms98-a-0131	B.160	544.740500	544.914000		but	but
sw2969B-ms98-a-0131	B.160	544.914000	544.994000		it	it
sw2969B-ms98-a-0131	B.160	544.994000	545.614000		insists	insists
sw2969B-ms98-a-0131	B.160	545.614000	545.824000		on	on
sw2969B-ms98-a-0131	B.160	545.824000	546.257375		full	full
sw2969B-ms98-a-0131	B.160	546.257375	546.439125		[silence]	[silence]
sw2969B-ms98-a-0131	B.160	546.439125	546.754000		sun	sun
sw2969B-ms98-a-0131	B.162	546.754000	547.099625		[silence]	[silence]
sw2969B-ms98-a-0132	B.162	547.099625	556.175250		[silence]	[silence]
sw2969B-ms98-a-0133	B.162	556.175250	556.565250		[silence]	[silence]
sw2969B-ms98-a-0133	B.162	556.565250	556.993625		Uh-huh	uh-huh
sw2969B-ms98-a-0133	B.164	556.993625	557.499000		[silence]	[silence]
sw2969B-ms98-a-0134	B.164	557.499000	557.969000		[silence]	[silence]
sw2969B-ms98-a-0134	B.164	557.969000	558.334375		Uh-huh	uh-huh
sw2969B-ms98-a-0134	B.166	558.334375	558.708500		[silence]	[silence]
sw2969B-ms98-a-0135	B.166	558.708500	559.841250		[silence]	[silence]
sw2969B-ms98-a-0136	B.166	559.841250	560.231250		[silence]	[silence]
sw2969B-ms98-a-0136	B.166	560.231250	560.281250		I	i
sw2969B-ms98-a-0136	B.166	560.281250	560.371250		will	will
sw2969B-ms98-a-0136	B.166	560.371250	560.511250		tell	tell
sw2969B-ms98-a-0136	B.166	560.511250	560.581250		you	you
sw2969B-ms98-a-0136	B.166	560.581250	560.831250		another	another
sw2969B-ms98-a-0136	B.166	560.831250	561.171250		plant	plant
sw2969B-ms98-a-0136	B.166	561.171250	561.301250		that	that
sw2969B-ms98-a-0136	B.166	561.301250	561.381250		is	is
sw2969B-ms98-a-0136	B.166	561.381250	562.021250		purply	purply
sw2969B-ms98-a-0136	B.168	562.021250	562.083875		I-	i[t]-
sw2969B-ms98-a-0136	B.168	562.083875	562.324875		[silence]	[silence]
sw2969B-ms98-a-0136	B.168	562.324875	562.551250		i-	i[t]-
sw2969B-ms98-a-0136	B.168	562.551250	562.551250	<INS>	it	---
sw2969B-ms98-a-0136	B.168	562.551250	562.716500		it	it
sw2969B-ms98-a-0136	B.168	562.716500	562.859625		[silence]	[silence]
sw2969B-ms98-a-0136	B.168	562.859625	563.051250		is	is
sw2969B-ms98-a-0136	B.168	563.051250	563.563500		dark	dark
sw2969B-ms98-a-0136	B.168	563.563500	564.259750		purply	purply
sw2969B-ms98-a-0136	B.168	564.259750	564.674125		[silence]	[silence]
sw2969B-ms98-a-0136	B.168	564.674125	564.921250		kind	kind
sw2969B-ms98-a-0136	B.168	564.921250	565.011250		of	of
sw2969B-ms98-a-0136	B.168	565.011250	565.051250		a	a
sw2969B-ms98-a-0136	B.168	565.051250	565.661250		purply	purply
sw2969B-ms98-a-0136	B.168	565.661250	566.041250		blue	blue
sw2969B-ms98-a-0136	B.168	566.041250	566.401250		red	red
sw2969B-ms98-a-0136	B.170	566.401250	566.591250		It	it
sw2969B-ms98-a-0136	B.170	566.591250	566.781250		is	is
sw2969B-ms98-a-0136	B.170	566.781250	567.161250		really	really
sw2969B-ms98-a-0136	B.170	567.161250	567.271250		a	a
sw2969B-ms98-a-0136	B.170	567.271250	567.551250		pretty	pretty
sw2969B-ms98-a-0136	B.170	567.551250	568.016125		plant	plant
sw2969B-ms98-a-0136	B.170	568.016125	568.275875		[silence]	[silence]
sw2969B-ms98-a-0137	B.170	568.275875	568.575875		[silence]	[silence]
sw2969B-ms98-a-0137	B.170	568.575875	568.725875		It	it
sw2969B-ms98-a-0137	B.170	568.725875	568.785875		is	is
sw2969B-ms98-a-0137	B.170	568.785875	569.165875		sold	sold
sw2969B-ms98-a-0137	B.170	569.165875	569.415875		down	down
sw2969B-ms98-a-0137	B.170	569.415875	569.725875		here	here
sw2969B-ms98-a-0137	B.170	569.725875	569.945875		as	as
sw2969B-ms98-a-0137	B.170	569.945875	570.365875		Purple	Purple
sw2969B-ms98-a-0137	B.170	570.365875	570.876500		Buddy	Buddy
sw2969B-ms98-a-0137	B.172	570.876500	571.471625		[silence]	[silence]
sw2969B-ms98-a-0137	B.172	571.471625	571.585875		Now	now
sw2969B-ms98-a-0137	B.172	571.585875	571.815875		it's	it's
sw2969B-ms98-a-0137	B.172	571.815875	572.077250		not	not
sw2969B-ms98-a-0137	B.172	572.077250	572.265500		[silence]	[silence]
sw2969B-ms98-a-0137	B.172	572.265500	572.445875		yeah	yeah
sw2969B-ms98-a-0137	B.172	572.445875	572.535875		it	it
sw2969B-ms98-a-0137	B.172	572.535875	572.695875		is	is
sw2969B-ms98-a-0137	B.172	572.695875	572.935875		not	not
sw2969B-ms98-a-0137	B.172	572.935875	572.965875		a	a
sw2969B-ms98-a-0137	B.172	572.965875	573.495875		perennial	perennial
sw2969B-ms98-a-0137	B.172	573.495875	573.645875		it	it
sw2969B-ms98-a-0137	B.172	573.645875	573.745875		is	is
sw2969B-ms98-a-0137	B.172	573.745875	573.845875		an	an
sw2969B-ms98-a-0137	B.172	573.845875	574.328125		annual	annual
sw2969B-ms98-a-0137	B.172	574.328125	574.806375		[silence]	[silence]
sw2969B-ms98-a-0137	B.172	574.806375	574.925875		But	but
sw2969B-ms98-a-0137	B.172	574.925875	575.025875		it	it
sw2969B-ms98-a-0137	B.172	575.025875	575.115875		will	will
sw2969B-ms98-a-0137	B.172	575.115875	575.415875		take	take
sw2969B-ms98-a-0137	B.172	575.415875	575.495875		the	the
sw2969B-ms98-a-0137	B.172	575.495875	575.755875		heat	heat
sw2969B-ms98-a-0137	B.172	575.755875	576.025875		down	down
sw2969B-ms98-a-0137	B.172	576.025875	576.345875		here	here
sw2969B-ms98-a-0137	B.174	576.345875	577.181750		[silence]	[silence]
sw2969B-ms98-a-0138	B.174	577.181750	577.811750		[silence]	[silence]
sw2969B-ms98-a-0138	B.174	577.811750	578.121750		Purple	Purple
sw2969B-ms98-a-0138	B.174	578.121750	578.471750		Buddy	Buddy
sw2969B-ms98-a-0138	B.174	578.471750	578.631750	<SUB>	Its	it's
sw2969B-ms98-a-0138	B.174	578.631750	578.631750	<INS>	p-	---
sw2969B-ms98-a-0138	B.174	578.631750	578.631750	<INS>	p-	---
sw2969B-ms98-a-0138	B.174	578.631750	579.301750		proper	proper
sw2969B-ms98-a-0138	B.174	579.301750	579.521750		name	name
sw2969B-ms98-a-0138	B.174	579.521750	579.671750		is	is
sw2969B-ms98-a-0138	B.174	579.671750	580.571750		Gomphrena	gomphrena
sw2969B-ms98-a-0138	B.176	580.571750	581.305375		[silence]	[silence]
sw2969B-ms98-a-0139	B.176	581.305375	581.865375		[silence]	[silence]
sw2969B-ms98-a-0139	B.176	581.865375	582.085375		G	G
sw2969B-ms98-a-0139	B.176	582.085375	582.215375		o	O
sw2969B-ms98-a-0139	B.176	582.215375	582.425375		m	M
sw2969B-ms98-a-0139	B.176	582.425375	582.785375		p	P
sw2969B-ms98-a-0139	B.176	582.785375	583.095375		h	H
sw2969B-ms98-a-0139	B.176	583.095375	583.335375		r	R
sw2969B-ms98-a-0139	B.176	583.335375	583.445375		e	E
sw2969B-ms98-a-0139	B.176	583.445375	583.905375		n	N
sw2969B-ms98-a-0139	B.176	583.905375	584.168125		a	A
sw2969B-ms98-a-0139	B.176	584.168125	584.379000		[silence]	[silence]
sw2969B-ms98-a-0139	B.176	584.379000	585.038750		Gomphrena	gomphrena
sw2969B-ms98-a-0139	B.176	585.038750	585.350750		[silence]	[silence]
sw2969B-ms98-a-0140	B.176	585.350750	586.364000		[silence]	[silence]
sw2969B-ms98-a-0141	B.176	586.364000	586.664000		[silence]	[silence]
sw2969B-ms98-a-0141	B.176	586.664000	587.094000		And	and
sw2969B-ms98-a-0141	B.178	587.094000	587.094000	<INS>	is	---
sw2969B-ms98-a-0141	B.178	587.094000	587.501875		[silence]	[silence]
sw2969B-ms98-a-0141	B.178	587.501875	587.754000		sold	sold
sw2969B-ms98-a-0141	B.178	587.754000	587.852000		as	as
sw2969B-ms98-a-0141	B.178	587.852000	588.006375		[silence]	[silence]
sw2969B-ms98-a-0141	B.178	588.006375	588.244000		Purple	Purple
sw2969B-ms98-a-0141	B.178	588.244000	588.677875		Buddy	Buddy
sw2969B-ms98-a-0141	B.178	588.677875	588.828500		[silence]	[silence]
sw2969B-ms98-a-0141	B.178	588.828500	589.194000		or	or
sw2969B-ms98-a-0141	B.178	589.194000	589.734000		sometimes	sometimes
sw2969B-ms98-a-0141	B.178	589.734000	590.004000		sold	sold
sw2969B-ms98-a-0141	B.178	590.004000	590.084000		as	as
sw2969B-ms98-a-0141	B.178	590.084000	590.474000		straw	straw
sw2969B-ms98-a-0141	B.178	590.474000	590.952250		flower	flower
sw2969B-ms98-a-0141	B.178	590.952250	591.434375		[silence]	[silence]
sw2969B-ms98-a-0141	B.178	591.434375	591.574000		And	and
sw2969B-ms98-a-0141	B.178	591.574000	591.946875		they	they
sw2969B-ms98-a-0141	B.178	591.946875	592.191750		[silence]	[silence]
sw2969B-ms98-a-0141	B.178	592.191750	592.404000		make	make
sw2969B-ms98-a-0141	B.178	592.404000	592.954000		uh	uh
sw2969B-ms98-a-0141	B.178	592.954000	593.344000		oh	oh
sw2969B-ms98-a-0141	B.178	593.344000	593.584000		about	about
sw2969B-ms98-a-0141	B.178	593.584000	593.614000		a	a
sw2969B-ms98-a-0141	B.178	593.614000	593.854000		foot	foot
sw2969B-ms98-a-0141	B.178	593.854000	594.044000		high	high
sw2969B-ms98-a-0141	B.178	594.044000	594.984000		plant	plant
sw2969B-ms98-a-0141	B.178	594.984000	595.114000		And	and
sw2969B-ms98-a-0141	B.178	595.114000	595.264000		they	they
sw2969B-ms98-a-0141	B.178	595.264000	595.524000		send	send
sw2969B-ms98-a-0141	B.178	595.524000	595.734000		out	out
sw2969B-ms98-a-0141	B.178	595.734000	596.094000		this	this
sw2969B-ms98-a-0141	B.178	596.094000	596.264000		this	this
sw2969B-ms98-a-0141	B.178	596.264000	596.684000		spike	spike
sw2969B-ms98-a-0141	B.178	596.684000	596.834000		that	that
sw2969B-ms98-a-0141	B.178	596.834000	597.074000		has	has
sw2969B-ms98-a-0141	B.178	597.074000	597.224500		this	this
sw2969B-ms98-a-0141	B.178	597.224500	597.420250		[silence]	[silence]
sw2969B-ms98-a-0141	B.178	597.420250	597.704000		purple	purple
sw2969B-ms98-a-0141	B.178	597.704000	598.044000		ball	ball
sw2969B-ms98-a-0141	B.178	598.044000	598.124000		on	on
sw2969B-ms98-a-0141	B.178	598.124000	598.184000		the	the
sw2969B-ms98-a-0141	B.178	598.184000	598.484000		top	top
sw2969B-ms98-a-0141	B.178	598.484000	598.584000		of	of
sw2969B-ms98-a-0141	B.178	598.584000	598.767625		it	it
sw2969B-ms98-a-0141	B.178	598.767625	599.193250		[silence]	[silence]
sw2969B-ms98-a-0141	B.178	599.193250	599.294000		But	but
sw2969B-ms98-a-0141	B.178	599.294000	599.454000		that	that
sw2969B-ms98-a-0141	B.178	599.454000	599.754000		purple	purple
sw2969B-ms98-a-0141	B.178	599.754000	599.914000		ball	ball
sw2969B-ms98-a-0141	B.178	599.914000	599.968125		[silence]	[silence]
