sw2998B-ms98-a-0001	@B.2	0.000000	0.000000		[silence]	[silence]
sw2998B-ms98-a-0001	@B.2	0.000000	0.013625		[noise]	[noise]
sw2998B-ms98-a-0001	@B.2	0.013625	1.033375		[silence]	[silence]
sw2998B-ms98-a-0002	@B.2	1.033375	6.000875		[silence]	[silence]
sw2998B-ms98-a-0003	@B.2	6.000875	6.503750		[silence]	[silence]
sw2998B-ms98-a-0003	@B.2	6.503750	6.660875		Well	well
sw2998B-ms98-a-0003	@B.2	6.660875	6.864875		the	the
sw2998B-ms98-a-0003	@B.2	6.864875	7.230875		the	the
sw2998B-ms98-a-0003	@B.2	7.230875	7.380875		the	the
sw2998B-ms98-a-0003	@B.2	7.380875	7.720875	<DEL>	---	m[ajor]-
sw2998B-ms98-a-0003	@B.2	7.720875	7.750875	<DEL>	---	m[ajor]-
sw2998B-ms98-a-0003	@B.2	7.750875	8.180875		major	major
sw2998B-ms98-a-0003	@B.2	8.180875	8.640875		cause	cause
sw2998B-ms98-a-0003	@B.2	8.640875	8.760875		it	it
sw2998B-ms98-a-0003	@B.2	8.760875	9.130875		seems	seems
sw2998B-ms98-a-0003	@B.2	9.130875	9.350875		up	up
sw2998B-ms98-a-0003	@B.2	9.350875	9.690875		here	here
sw2998B-ms98-a-0003	@B.2	9.690875	10.070875		is	is
sw2998B-ms98-a-0003	@B.2	10.070875	10.343375	<SUB>	exc-	simp[ly]-
sw2998B-ms98-a-0003	@B.2	10.343375	10.569375		[silence]	[silence]
sw2998B-ms98-a-0003	@B.2	10.569375	10.760875		I	i
sw2998B-ms98-a-0003	@B.2	10.760875	10.960875		live	live
sw2998B-ms98-a-0003	@B.2	10.960875	11.306625		right	right
sw2998B-ms98-a-0003	@B.2	11.306625	11.521125		on	on
sw2998B-ms98-a-0003	@B.2	11.521125	11.690875		the	the
sw2998B-ms98-a-0003	@B.2	11.690875	11.980875		ocean	ocean
sw2998B-ms98-a-0003	@B.2	11.980875	12.226750		so	so
sw2998B-ms98-a-0003	@B.2	12.226750	12.567750		[silence]	[silence]
sw2998B-ms98-a-0004	@B.2	12.567750	12.622875		[silence]	[silence]
sw2998B-ms98-a-0004	@B.2	12.622875	12.787750		it's	it's
sw2998B-ms98-a-0004	@B.2	12.787750	13.037750		kind	kind
sw2998B-ms98-a-0004	@B.2	13.037750	13.097750		of	of
sw2998B-ms98-a-0004	@B.2	13.097750	13.287750		hard	hard
sw2998B-ms98-a-0004	@B.2	13.287750	13.367750		for	for
sw2998B-ms98-a-0004	@B.2	13.367750	13.507750		me	me
sw2998B-ms98-a-0004	@B.2	13.507750	13.597750		to	to
sw2998B-ms98-a-0004	@B.2	13.597750	14.087125		tell	tell
sw2998B-ms98-a-0004	@B.2	14.087125	14.347750		what	what
sw2998B-ms98-a-0004	@B.2	14.347750	14.477750		would	would
sw2998B-ms98-a-0004	@B.2	14.477750	14.887750		happen	happen
sw2998B-ms98-a-0004	@B.2	14.887750	15.047750		if	if
sw2998B-ms98-a-0004	@B.2	15.047750	15.187750		I	i
sw2998B-ms98-a-0004	@B.2	15.187750	15.567750		lived	lived
sw2998B-ms98-a-0004	@B.2	15.567750	15.757750		in	in
sw2998B-ms98-a-0004	@B.2	15.757750	15.937750		some	some
sw2998B-ms98-a-0004	@B.2	15.937750	15.997750		of	of
sw2998B-ms98-a-0004	@B.2	15.997750	16.057750		the	the
sw2998B-ms98-a-0004	@B.2	16.057750	16.507750		valleys	valleys
sw2998B-ms98-a-0004	@B.2	16.507750	16.907750		inland	inland
sw2998B-ms98-a-0004	B.4	16.907750	17.087750		but	but
sw2998B-ms98-a-0004	B.4	17.087750	17.157750		the	the
sw2998B-ms98-a-0004	B.4	17.157750	17.517750		major	major
sw2998B-ms98-a-0004	B.4	17.517750	17.897750		cause	cause
sw2998B-ms98-a-0004	B.4	17.897750	18.187750		here	here
sw2998B-ms98-a-0004	B.4	18.187750	18.337750		and	and
sw2998B-ms98-a-0004	B.4	18.337750	18.487750		we	we
sw2998B-ms98-a-0004	B.4	18.487750	18.747750		always	always
sw2998B-ms98-a-0004	B.4	18.747750	19.047750		seem	seem
sw2998B-ms98-a-0004	B.4	19.047750	19.422125		to	to
sw2998B-ms98-a-0004	B.4	19.422125	19.677750		and	and
sw2998B-ms98-a-0004	B.4	19.677750	19.777750		it	it
sw2998B-ms98-a-0004	B.4	19.777750	19.987750		seems	seems
sw2998B-ms98-a-0004	B.4	19.987750	20.047750		to	to
sw2998B-ms98-a-0004	B.4	20.047750	20.127750		be	be
sw2998B-ms98-a-0004	B.4	20.127750	20.787750		validated	validated
sw2998B-ms98-a-0004	B.4	20.787750	20.967750		by	by
sw2998B-ms98-a-0004	B.4	20.967750	21.057750		the	the
sw2998B-ms98-a-0004	B.4	21.057750	21.557750		press	press
sw2998B-ms98-a-0004	B.4	21.557750	21.737750		is	is
sw2998B-ms98-a-0004	B.4	21.737750	21.857750		the	the
sw2998B-ms98-a-0004	B.4	21.857750	22.227750		car	car
sw2998B-ms98-a-0004	B.4	22.227750	22.818625		pollution	pollution
sw2998B-ms98-a-0004	B.4	22.818625	23.281875		[silence]	[silence]
sw2998B-ms98-a-0004	B.4	23.281875	23.347750		We	we
sw2998B-ms98-a-0004	B.4	23.347750	23.527750		don't	don't
sw2998B-ms98-a-0004	B.4	23.527750	23.717750		have	have
sw2998B-ms98-a-0004	B.4	23.717750	23.837750		too	too
sw2998B-ms98-a-0004	B.4	23.837750	24.087750		much	much
sw2998B-ms98-a-0004	B.4	24.087750	24.707750		industrial	industrial
sw2998B-ms98-a-0004	B.4	24.707750	25.289250		pollution	pollution
sw2998B-ms98-a-0004	B.6	25.289250	25.661125		[silence]	[silence]
sw2998B-ms98-a-0005	B.6	25.661125	25.856125		[silence]	[silence]
sw2998B-ms98-a-0005	B.6	25.856125	26.091125		Uh	uh
sw2998B-ms98-a-0005	B.6	26.091125	26.481125		car	car
sw2998B-ms98-a-0005	B.6	26.481125	27.011125		pollution	pollution
sw2998B-ms98-a-0005	B.6	27.011125	27.331125		seems	seems
sw2998B-ms98-a-0005	B.6	27.331125	27.491125		to	to
sw2998B-ms98-a-0005	B.6	27.491125	27.950875		be	be
sw2998B-ms98-a-0005	B.6	27.950875	28.485750		[silence]	[silence]
sw2998B-ms98-a-0005	B.6	28.485750	28.781125		the	the
sw2998B-ms98-a-0005	B.6	28.781125	29.011125		one	one
sw2998B-ms98-a-0005	B.6	29.011125	29.131125		and	and
sw2998B-ms98-a-0005	B.6	29.131125	29.541125		only	only
sw2998B-ms98-a-0005	B.6	29.541125	29.821125		thing	thing
sw2998B-ms98-a-0005	B.6	29.821125	30.071125		that	that
sw2998B-ms98-a-0005	B.6	30.071125	30.241125		that	that
sw2998B-ms98-a-0005	B.6	30.241125	30.331125		I	i
sw2998B-ms98-a-0005	B.6	30.331125	30.531125		can	can
sw2998B-ms98-a-0005	B.6	30.531125	30.741125		really	really
sw2998B-ms98-a-0005	B.6	30.741125	30.931125		put	put
sw2998B-ms98-a-0005	B.6	30.931125	31.061125		my	my
sw2998B-ms98-a-0005	B.6	31.061125	31.431125		finger	finger
sw2998B-ms98-a-0005	B.6	31.431125	31.611125		on	on
sw2998B-ms98-a-0005	B.6	31.611125	31.857250		here	here
sw2998B-ms98-a-0005	B.8	31.857250	32.374500		[silence]	[silence]
sw2998B-ms98-a-0006	B.8	32.374500	63.853125		[silence]	[silence]
sw2998B-ms98-a-0007	B.8	63.853125	64.301000		[silence]	[silence]
sw2998B-ms98-a-0007	B.8	64.301000	64.503125		Is	is
sw2998B-ms98-a-0007	B.8	64.503125	64.733125		that	that
sw2998B-ms98-a-0007	B.8	64.733125	65.123125		so	so
sw2998B-ms98-a-0007	B.10	65.123125	65.243125		I	i
sw2998B-ms98-a-0007	B.10	65.243125	65.503125		didn't	didn't
sw2998B-ms98-a-0007	B.10	65.503125	65.713125		know	know
sw2998B-ms98-a-0007	B.10	65.713125	66.013750		that	that
sw2998B-ms98-a-0007	B.12	66.013750	66.506375		[silence]	[silence]
sw2998B-ms98-a-0008	B.12	66.506375	68.219875		[silence]	[silence]
sw2998B-ms98-a-0009	B.12	68.219875	68.719875		[silence]	[silence]
sw2998B-ms98-a-0009	B.12	68.719875	68.789875		Well	well
sw2998B-ms98-a-0009	B.12	68.789875	69.059875		most	most
sw2998B-ms98-a-0009	B.12	69.059875	69.329875		people	people
sw2998B-ms98-a-0009	B.12	69.329875	69.599875		talk	talk
sw2998B-ms98-a-0009	B.12	69.599875	69.859875		about	about
sw2998B-ms98-a-0009	B.12	69.859875	69.929875		the	the
sw2998B-ms98-a-0009	B.12	69.929875	70.329875		noise	noise
sw2998B-ms98-a-0009	B.12	70.329875	70.829875		pollution	pollution
sw2998B-ms98-a-0009	B.12	70.829875	71.049875		from	from
sw2998B-ms98-a-0009	B.12	71.049875	71.539875		airplanes	airplanes
sw2998B-ms98-a-0009	B.12	71.539875	71.789875		rather	rather
sw2998B-ms98-a-0009	B.12	71.789875	71.999875		than	than
sw2998B-ms98-a-0009	B.12	71.999875	72.059875		the	the
sw2998B-ms98-a-0009	B.12	72.059875	72.400875		air	air
sw2998B-ms98-a-0009	B.12	72.400875	73.149125		pollution	pollution
sw2998B-ms98-a-0009	B.14	73.149125	73.646875		[silence]	[silence]
sw2998B-ms98-a-0010	B.14	73.646875	77.128500		[silence]	[silence]
sw2998B-ms98-a-0011	B.14	77.128500	77.632625		[silence]	[silence]
sw2998B-ms98-a-0011	B.14	77.632625	78.007125		Yeah	yeah
sw2998B-ms98-a-0011	B.16	78.007125	78.474375		[silence]	[silence]
sw2998B-ms98-a-0012	B.16	78.474375	79.502625		[silence]	[silence]
sw2998B-ms98-a-0013	B.16	79.502625	79.972625		[silence]	[silence]
sw2998B-ms98-a-0013	B.16	79.972625	80.152625		I	i
sw2998B-ms98-a-0013	B.16	80.152625	80.322625		would	would
sw2998B-ms98-a-0013	B.16	80.322625	80.562625		think	think
sw2998B-ms98-a-0013	B.16	80.562625	80.822625		so	so
sw2998B-ms98-a-0013	B.16	80.822625	80.952625		You	you
sw2998B-ms98-a-0013	B.16	80.952625	81.232625		know	know
sw2998B-ms98-a-0013	B.16	81.232625	81.567875		uh	uh
sw2998B-ms98-a-0013	B.16	81.567875	82.336250		[silence]	[silence]
sw2998B-ms98-a-0013	B.16	82.336250	82.452625		i-	i-
sw2998B-ms98-a-0013	B.16	82.452625	82.512625		I	i
sw2998B-ms98-a-0013	B.16	82.512625	82.772625		guess	guess
sw2998B-ms98-a-0013	B.16	82.772625	82.922625		it	it
sw2998B-ms98-a-0013	B.16	82.922625	83.302625		talked	talked
sw2998B-ms98-a-0013	B.16	83.302625	83.632625		about	about
sw2998B-ms98-a-0013	B.16	83.632625	83.912625		all	all
sw2998B-ms98-a-0013	B.16	83.912625	84.432625		types	types
sw2998B-ms98-a-0013	B.16	84.432625	84.542625		of	of
sw2998B-ms98-a-0013	B.16	84.542625	85.072625		pollution	pollution
sw2998B-ms98-a-0013	B.16	85.072625	85.212625		I	i
sw2998B-ms98-a-0013	B.16	85.212625	85.552625		happen	happen
sw2998B-ms98-a-0013	B.16	85.552625	85.702625		to	to
sw2998B-ms98-a-0013	B.16	85.702625	85.832625		r-	r[ead]-
sw2998B-ms98-a-0013	B.16	85.832625	86.132625		just	just
sw2998B-ms98-a-0013	B.16	86.132625	86.322625		read	read
sw2998B-ms98-a-0013	B.16	86.322625	86.812625		something	something
sw2998B-ms98-a-0013	B.16	86.812625	86.872625		the	the
sw2998B-ms98-a-0013	B.16	86.872625	87.029125		other	other
sw2998B-ms98-a-0013	B.16	87.029125	87.397750		day	day
sw2998B-ms98-a-0013	B.16	87.397750	87.749000		[silence]	[silence]
sw2998B-ms98-a-0014	B.16	87.749000	87.805000		[silence]	[silence]
sw2998B-ms98-a-0014	B.16	87.805000	87.909000		at	at
sw2998B-ms98-a-0014	B.16	87.909000	88.139000		least	least
sw2998B-ms98-a-0014	B.16	88.139000	88.219000		in	in
sw2998B-ms98-a-0014	B.16	88.219000	88.289000		the	the
sw2998B-ms98-a-0014	B.16	88.289000	88.749000		Boston	Boston
sw2998B-ms98-a-0014	B.16	88.749000	89.049000		paper	paper
sw2998B-ms98-a-0014	B.16	89.049000	89.179000		there	there
sw2998B-ms98-a-0014	B.16	89.179000	89.279000		were	were
sw2998B-ms98-a-0014	B.16	89.279000	89.589000		three	three
sw2998B-ms98-a-0014	B.16	89.589000	89.959000		things	things
sw2998B-ms98-a-0014	B.16	89.959000	90.166875		that	that
sw2998B-ms98-a-0014	B.16	90.166875	90.310000		[silence]	[silence]
sw2998B-ms98-a-0014	B.16	90.310000	90.489000		that	that
sw2998B-ms98-a-0014	B.16	90.489000	90.689000		come	come
sw2998B-ms98-a-0014	B.16	90.689000	90.849000		to	to
sw2998B-ms98-a-0014	B.16	90.849000	91.119000		note	note
sw2998B-ms98-a-0014	B.16	91.119000	91.379000		One	one
sw2998B-ms98-a-0014	B.16	91.379000	91.559000		is	is
sw2998B-ms98-a-0014	B.16	91.559000	91.859000		that	that
sw2998B-ms98-a-0014	B.16	91.859000	91.919000		the	the
sw2998B-ms98-a-0014	B.16	91.919000	92.369000		carbon	carbon
sw2998B-ms98-a-0014	B.16	92.369000	93.029000		fluorides	fluorides
sw2998B-ms98-a-0014	B.16	93.029000	93.199000		that	that
sw2998B-ms98-a-0014	B.16	93.199000	93.357250		are	are
sw2998B-ms98-a-0014	B.16	93.357250	93.984500		[silence]	[silence]
sw2998B-ms98-a-0015	B.16	93.984500	94.090750		[silence]	[silence]
sw2998B-ms98-a-0015	B.16	94.090750	94.389500		uh	uh
sw2998B-ms98-a-0015	B.16	94.389500	94.498750		[silence]	[silence]
sw2998B-ms98-a-0015	B.16	94.498750	94.744500		being	being
sw2998B-ms98-a-0015	B.16	94.744500	95.144500		released	released
sw2998B-ms98-a-0015	B.16	95.144500	95.364500		into	into
sw2998B-ms98-a-0015	B.16	95.364500	95.444500		the	the
sw2998B-ms98-a-0015	B.16	95.444500	96.294500		atmosphere	atmosphere
sw2998B-ms98-a-0015	B.16	96.294500	96.574500		are	are
sw2998B-ms98-a-0015	B.16	96.574500	97.074500		causing	causing
sw2998B-ms98-a-0015	B.16	97.074500	97.334500		even	even
sw2998B-ms98-a-0015	B.16	97.334500	97.444500		a	a
sw2998B-ms98-a-0015	B.16	97.444500	97.924500		larger	larger
sw2998B-ms98-a-0015	B.16	97.924500	98.334500		hole	hole
sw2998B-ms98-a-0015	B.16	98.334500	98.464500		in	in
sw2998B-ms98-a-0015	B.16	98.464500	98.554500		the	the
sw2998B-ms98-a-0015	B.16	98.554500	98.894500		southern	southern
sw2998B-ms98-a-0015	B.16	98.894500	99.404500		hemisphere	hemisphere
sw2998B-ms98-a-0015	B.16	99.404500	99.518750		in	in
sw2998B-ms98-a-0015	B.16	99.518750	99.654500		the	the
sw2998B-ms98-a-0015	B.16	99.654500	100.074500		ozone	ozone
sw2998B-ms98-a-0015	B.16	100.074500	100.354500		layer	layer
sw2998B-ms98-a-0015	B.16	100.354500	100.792875		and	and
sw2998B-ms98-a-0015	B.16	100.792875	101.395125		again	again
sw2998B-ms98-a-0015	B.16	101.395125	101.694500		and	and
sw2998B-ms98-a-0015	B.16	101.694500	102.094500		now	now
sw2998B-ms98-a-0015	B.16	102.094500	102.424500		they've	they've
sw2998B-ms98-a-0015	B.16	102.424500	102.954500		located	located
sw2998B-ms98-a-0015	B.16	102.954500	103.334500		another	another
sw2998B-ms98-a-0015	B.16	103.334500	103.634500		one	one
sw2998B-ms98-a-0015	B.16	103.634500	103.922500		or	or
sw2998B-ms98-a-0015	B.16	103.922500	103.922500	<INS>	la-	---
sw2998B-ms98-a-0015	B.16	103.922500	104.244500		[vocalized-noise]	[vocalized-noise]
sw2998B-ms98-a-0015	B.16	104.244500	104.564500		rather	rather
sw2998B-ms98-a-0015	B.16	104.564500	104.624500		an	an
sw2998B-ms98-a-0015	B.16	104.624500	105.154500		expanding	expanding
sw2998B-ms98-a-0015	B.16	105.154500	105.384500		one	one
sw2998B-ms98-a-0015	B.16	105.384500	105.564500		in	in
sw2998B-ms98-a-0015	B.16	105.564500	105.644500		the	the
sw2998B-ms98-a-0015	B.16	105.644500	106.064500		northern	northern
sw2998B-ms98-a-0015	B.16	106.064500	106.584500		hemisphere	hemisphere
sw2998B-ms98-a-0015	B.16	106.584500	106.804500		So	so
sw2998B-ms98-a-0015	B.16	106.804500	107.286000		car-	car
sw2998B-ms98-a-0015	B.16	107.286000	107.678625		[silence]	[silence]
sw2998B-ms98-a-0016	B.16	107.678625	107.712875		[silence]	[silence]
sw2998B-ms98-a-0016	B.16	107.712875	107.868625		so	so
sw2998B-ms98-a-0016	B.16	107.868625	108.126625		I'm	i'm
sw2998B-ms98-a-0016	B.16	108.126625	108.403375		[silence]	[silence]
sw2998B-ms98-a-0016	B.16	108.403375	108.708625		quite	quite
sw2998B-ms98-a-0016	B.16	108.708625	109.298625		concerned	concerned
sw2998B-ms98-a-0016	B.16	109.298625	109.388625		I	i
sw2998B-ms98-a-0016	B.16	109.388625	109.558625		don't	don't
sw2998B-ms98-a-0016	B.16	109.558625	109.768625		think	think
sw2998B-ms98-a-0016	B.16	109.768625	110.088625		it's	it's
sw2998B-ms98-a-0016	B.16	110.088625	110.628625		involved	involved
sw2998B-ms98-a-0016	B.16	110.628625	110.848625		any	any
sw2998B-ms98-a-0016	B.16	110.848625	111.328625		longer	longer
sw2998B-ms98-a-0016	B.16	111.328625	111.651250		with	with
sw2998B-ms98-a-0016	B.16	111.651250	112.230250		[silence]	[silence]
sw2998B-ms98-a-0017	B.16	112.230250	112.342375		[silence]	[silence]
sw2998B-ms98-a-0017	B.16	112.342375	112.812125		with	with
sw2998B-ms98-a-0017	B.16	112.812125	113.530250		uh	uh
sw2998B-ms98-a-0017	B.16	113.530250	113.790250		hair	hair
sw2998B-ms98-a-0017	B.16	113.790250	114.520250		sprays	sprays
sw2998B-ms98-a-0017	B.16	114.520250	114.750250		or	or
sw2998B-ms98-a-0017	B.16	114.750250	115.120250		those	those
sw2998B-ms98-a-0017	B.16	115.120250	115.280250		th-	th[ose]-
sw2998B-ms98-a-0017	B.18	115.280250	115.638000		[silence]	[silence]
sw2998B-ms98-a-0017	B.18	115.638000	115.860250		No	no
sw2998B-ms98-a-0017	B.18	115.860250	115.950250		I	i
sw2998B-ms98-a-0017	B.18	115.950250	116.190250		think	think
sw2998B-ms98-a-0017	B.18	116.190250	116.410250		it's	it's
sw2998B-ms98-a-0017	B.18	116.410250	116.870250		now	now
sw2998B-ms98-a-0017	B.18	116.870250	117.040250		is	is
sw2998B-ms98-a-0017	B.18	117.040250	117.180250		what	what
sw2998B-ms98-a-0017	B.18	117.180250	117.320250		uh	uh
sw2998B-ms98-a-0017	B.18	117.320250	117.540250		from	from
sw2998B-ms98-a-0017	B.18	117.540250	117.670250		what	what
sw2998B-ms98-a-0017	B.18	117.670250	117.740250		I	i
sw2998B-ms98-a-0017	B.18	117.740250	118.150250		understand	understand
sw2998B-ms98-a-0017	B.18	118.150250	118.340250		it's	it's
sw2998B-ms98-a-0017	B.18	118.340250	118.530250		air	air
sw2998B-ms98-a-0017	B.18	118.530250	119.020250		conditioning	conditioning
sw2998B-ms98-a-0017	B.18	119.020250	119.410250		units	units
sw2998B-ms98-a-0017	B.18	119.410250	119.720250		and	and
sw2998B-ms98-a-0017	B.18	119.720250	119.850250		and	and
sw2998B-ms98-a-0017	B.20	119.850250	119.960250		we	we
sw2998B-ms98-a-0017	B.20	119.960250	120.290250		certainly	certainly
sw2998B-ms98-a-0017	B.20	120.290250	120.570250		turned	turned
sw2998B-ms98-a-0017	B.20	120.570250	120.810250		into	into
sw2998B-ms98-a-0017	B.20	120.810250	120.890250		an	an
sw2998B-ms98-a-0017	B.20	120.890250	121.050250		air	air
sw2998B-ms98-a-0017	B.20	121.050250	121.811250		conditioned	conditioned
sw2998B-ms98-a-0017	B.22	121.811250	122.165250		[silence]	[silence]
sw2998B-ms98-a-0017	B.22	122.165250	123.152750		society	[laughter-society]
sw2998B-ms98-a-0017	B.24	123.152750	123.773750		[silence]	[silence]
sw2998B-ms98-a-0018	B.24	123.773750	124.086375		[silence]	[silence]
sw2998B-ms98-a-0018	B.24	124.086375	124.413750		Yeah	yeah
sw2998B-ms98-a-0018	B.24	124.413750	124.543750		I	i
sw2998B-ms98-a-0018	B.24	124.543750	124.846875		know	know
sw2998B-ms98-a-0018	B.24	124.846875	125.113750		in	in
sw2998B-ms98-a-0018	B.24	125.113750	125.603750		Florida	Florida
sw2998B-ms98-a-0018	B.24	125.603750	125.823750		there's	there's
sw2998B-ms98-a-0018	B.24	125.823750	126.013750		no	no
sw2998B-ms98-a-0018	B.24	126.013750	126.393750		place	place
sw2998B-ms98-a-0018	B.24	126.393750	126.503750		you	you
sw2998B-ms98-a-0018	B.24	126.503750	126.783750		go	go
sw2998B-ms98-a-0018	B.24	126.783750	126.983750		that	that
sw2998B-ms98-a-0018	B.24	126.983750	127.253750		isn't	isn't
sw2998B-ms98-a-0018	B.24	127.253750	127.443750		air	air
sw2998B-ms98-a-0018	B.24	127.443750	127.923750		conditioned	conditioned
sw2998B-ms98-a-0018	B.24	127.923750	128.133750		and	and
sw2998B-ms98-a-0018	B.24	128.133750	128.243750		I	i
sw2998B-ms98-a-0018	B.24	128.243750	128.503750		do	do
sw2998B-ms98-a-0018	B.24	128.503750	128.763750		quite	quite
sw2998B-ms98-a-0018	B.24	128.763750	128.793750		a	a
sw2998B-ms98-a-0018	B.24	128.793750	128.923750		bit	bit
sw2998B-ms98-a-0018	B.24	128.923750	129.013750		of	of
sw2998B-ms98-a-0018	B.24	129.013750	129.393750		business	business
sw2998B-ms98-a-0018	B.24	129.393750	129.533750		in	in
sw2998B-ms98-a-0018	B.24	129.533750	130.207125		Washington	Washington
sw2998B-ms98-a-0018	B.24	130.207125	130.705875		[noise]	[noise]
sw2998B-ms98-a-0018	B.24	130.705875	130.933500		And	and
sw2998B-ms98-a-0018	B.26	130.933500	131.332000		[silence]	[silence]
sw2998B-ms98-a-0019	B.26	131.332000	131.745500		[silence]	[silence]
sw2998B-ms98-a-0019	B.26	131.745500	131.882000		Oh	oh
sw2998B-ms98-a-0019	B.26	131.882000	132.122000		yeah	yeah
sw2998B-ms98-a-0019	B.26	132.122000	132.432000		it's	it's
sw2998B-ms98-a-0019	B.26	132.432000	132.962000		quite	quite
sw2998B-ms98-a-0019	B.26	132.962000	133.202000		is	is
sw2998B-ms98-a-0019	B.26	133.202000	133.382000		is	is
sw2998B-ms98-a-0019	B.26	133.382000	133.604625		the	the
sw2998B-ms98-a-0019	B.26	133.604625	133.604625	<INS>	un-	---
sw2998B-ms98-a-0019	B.26	133.604625	133.996250		[vocalized-noise]	[vocalized-noise]
sw2998B-ms98-a-0019	B.26	133.996250	134.192000		it's	it's
sw2998B-ms98-a-0019	B.26	134.192000	134.803250		really	really
sw2998B-ms98-a-0019	B.26	134.803250	135.274000		[silence]	[silence]
sw2998B-ms98-a-0019	B.26	135.274000	135.422000		out	out
sw2998B-ms98-a-0019	B.26	135.422000	135.512000		of	of
sw2998B-ms98-a-0019	B.26	135.512000	135.582000		the	the
sw2998B-ms98-a-0019	B.26	135.582000	135.982000		norm	norm
sw2998B-ms98-a-0019	B.26	135.982000	136.192000		not	not
sw2998B-ms98-a-0019	B.26	136.192000	136.272000		to	to
sw2998B-ms98-a-0019	B.26	136.272000	136.582000		find	find
sw2998B-ms98-a-0019	B.26	136.582000	136.902000		something	something
sw2998B-ms98-a-0019	B.26	136.902000	137.092000		that	that
sw2998B-ms98-a-0019	B.26	137.092000	137.342000		isn't	isn't
sw2998B-ms98-a-0019	B.26	137.342000	137.492000		air	air
sw2998B-ms98-a-0019	B.26	137.492000	137.961750		conditioned	conditioned
sw2998B-ms98-a-0019	B.26	137.961750	138.454375		[silence]	[silence]
sw2998B-ms98-a-0020	B.26	138.454375	138.726125		[silence]	[silence]
sw2998B-ms98-a-0020	B.26	138.726125	138.949125		And	and
sw2998B-ms98-a-0020	B.28	138.949125	139.499000		[silence]	[silence]
sw2998B-ms98-a-0020	B.28	139.499000	139.734375		and	and
sw2998B-ms98-a-0020	B.28	139.734375	139.814375		I	i
sw2998B-ms98-a-0020	B.28	139.814375	140.074375		guess	guess
sw2998B-ms98-a-0020	B.28	140.074375	140.914375		refrigerators	refrigerators
sw2998B-ms98-a-0020	B.30	140.914375	140.974375		are	are
sw2998B-ms98-a-0020	B.30	140.974375	141.084375		the	the
sw2998B-ms98-a-0020	B.30	141.084375	141.524375		same	same
sw2998B-ms98-a-0020	B.30	141.524375	141.734375		way	way
sw2998B-ms98-a-0020	B.30	141.734375	141.864375		They	they
sw2998B-ms98-a-0020	B.30	141.864375	142.384375		release	release
sw2998B-ms98-a-0020	B.30	142.384375	142.803250		that	that
sw2998B-ms98-a-0020	B.32	142.803250	143.196500		[silence]	[silence]
sw2998B-ms98-a-0021	B.32	143.196500	145.460625		[silence]	[silence]
sw2998B-ms98-a-0022	B.32	145.460625	145.959375		[silence]	[silence]
sw2998B-ms98-a-0022	B.32	145.959375	146.276500		Yeah	yeah
sw2998B-ms98-a-0022	B.34	146.276500	146.721375		[silence]	[silence]
sw2998B-ms98-a-0023	B.34	146.721375	147.201250		[silence]	[silence]
sw2998B-ms98-a-0023	B.34	147.201250	147.596250		Well	well
sw2998B-ms98-a-0023	B.36	147.596250	148.021750		[silence]	[silence]
sw2998B-ms98-a-0024	B.36	148.021750	157.028625		[silence]	[silence]
sw2998B-ms98-a-0025	B.36	157.028625	157.515875		[silence]	[silence]
sw2998B-ms98-a-0025	B.36	157.515875	157.912125		Yeah	yeah
sw2998B-ms98-a-0025	B.38	157.912125	158.363125		[silence]	[silence]
sw2998B-ms98-a-0026	B.38	158.363125	185.689500		[silence]	[silence]
sw2998B-ms98-a-0027	B.38	185.689500	186.191875		[silence]	[silence]
sw2998B-ms98-a-0027	B.38	186.191875	186.399500		Well	well
sw2998B-ms98-a-0027	B.38	186.399500	186.559500	<SUB>	I	i-
sw2998B-ms98-a-0027	B.38	186.559500	186.839625		I	i
sw2998B-ms98-a-0027	B.38	186.839625	187.046875		th-	th[ink]-
sw2998B-ms98-a-0027	B.40	187.046875	187.445875		[silence]	[silence]
sw2998B-ms98-a-0027	B.40	187.445875	187.845250		Yeah	yeah
sw2998B-ms98-a-0027	B.42	187.845250	188.217625		[silence]	[silence]
sw2998B-ms98-a-0028	B.42	188.217625	188.577625		[silence]	[silence]
sw2998B-ms98-a-0028	B.42	188.577625	188.897625		No	no
sw2998B-ms98-a-0028	B.42	188.897625	189.017625		I	i
sw2998B-ms98-a-0028	B.42	189.017625	189.297625		think	think
sw2998B-ms98-a-0028	B.42	189.297625	189.467625		that	that
sw2998B-ms98-a-0028	B.42	189.467625	189.587625		it	it
sw2998B-ms98-a-0028	B.42	189.587625	189.917625		can	can
sw2998B-ms98-a-0028	B.42	189.917625	190.037625		be	be
sw2998B-ms98-a-0028	B.42	190.037625	190.404500		done	done
sw2998B-ms98-a-0028	B.42	190.404500	190.803750		[silence]	[silence]
sw2998B-ms98-a-0028	B.42	190.803750	191.277625		simply	simply
sw2998B-ms98-a-0028	B.42	191.277625	192.185375		because	because
sw2998B-ms98-a-0028	B.42	192.185375	192.396250		[silence]	[silence]
sw2998B-ms98-a-0028	B.42	192.396250	193.324500		uh	uh
sw2998B-ms98-a-0028	B.42	193.324500	193.785125		uh	uh
sw2998B-ms98-a-0028	B.42	193.785125	194.094000		we've	we've
sw2998B-ms98-a-0028	B.42	194.094000	194.431750		we've	we've
sw2998B-ms98-a-0028	B.42	194.431750	194.902625		[silence]	[silence]
sw2998B-ms98-a-0028	B.42	194.902625	195.177625		every	every
sw2998B-ms98-a-0028	B.42	195.177625	195.557625		car	car
sw2998B-ms98-a-0028	B.42	195.557625	195.907625		now	now
sw2998B-ms98-a-0028	B.42	195.907625	196.067625		in	in
sw2998B-ms98-a-0028	B.42	196.067625	196.497625		America	America
sw2998B-ms98-a-0028	B.42	196.497625	196.697625		that's	that's
sw2998B-ms98-a-0028	B.42	196.697625	196.867625		been	been
sw2998B-ms98-a-0028	B.42	196.867625	197.257625		produced	produced
sw2998B-ms98-a-0028	B.42	197.257625	197.337625		for	for
sw2998B-ms98-a-0028	B.42	197.337625	197.417625		the	the
sw2998B-ms98-a-0028	B.42	197.417625	197.717625		past	past
sw2998B-ms98-a-0028	B.42	197.717625	198.137625		fifteen	fifteen
sw2998B-ms98-a-0028	B.42	198.137625	198.357625		years	years
sw2998B-ms98-a-0028	B.42	198.357625	198.547625		has	has
sw2998B-ms98-a-0028	B.42	198.547625	198.717625		what	what
sw2998B-ms98-a-0028	B.42	198.717625	198.797625		they	they
sw2998B-ms98-a-0028	B.42	198.797625	199.077625		call	call
sw2998B-ms98-a-0028	B.42	199.077625	199.137625		a	a
sw2998B-ms98-a-0028	B.42	199.137625	199.757625		catalytic	catalytic
sw2998B-ms98-a-0028	B.42	199.757625	200.440375		converter	converter
sw2998B-ms98-a-0028	B.44	200.440375	200.678000		[silence]	[silence]
sw2998B-ms98-a-0029	B.44	200.678000	200.987750		[silence]	[silence]
sw2998B-ms98-a-0029	B.44	200.987750	201.218000		And	and
sw2998B-ms98-a-0029	B.44	201.218000	201.458000		no	no
sw2998B-ms98-a-0029	B.44	201.458000	201.748000		lead	lead
sw2998B-ms98-a-0029	B.44	201.748000	202.208000		gas	gas
sw2998B-ms98-a-0029	B.44	202.208000	202.518000		was	was
sw2998B-ms98-a-0029	B.44	202.518000	202.908000		came	came
sw2998B-ms98-a-0029	B.44	202.908000	203.038000		to	to
sw2998B-ms98-a-0029	B.44	203.038000	203.108000		the	the
sw2998B-ms98-a-0029	B.44	203.108000	203.653375		pumps	pumps
sw2998B-ms98-a-0029	B.44	203.653375	203.766375		[silence]	[silence]
sw2998B-ms98-a-0029	B.44	203.766375	204.188000		And	and
sw2998B-ms98-a-0029	B.44	204.188000	204.418000		and	and
sw2998B-ms98-a-0029	B.44	204.418000	204.678000		that's	that's
sw2998B-ms98-a-0029	B.44	204.678000	204.848000		been	been
sw2998B-ms98-a-0029	B.44	204.848000	205.108000		done	done
sw2998B-ms98-a-0029	B.44	205.108000	205.438000		There's	there's
sw2998B-ms98-a-0029	B.44	205.438000	205.588000		the	the
sw2998B-ms98-a-0029	B.44	205.588000	205.808000		lead	lead
sw2998B-ms98-a-0029	B.44	205.808000	206.418000		pollution	pollution
sw2998B-ms98-a-0029	B.44	206.418000	206.821500		has	has
sw2998B-ms98-a-0029	B.44	206.821500	207.055125		[silence]	[silence]
sw2998B-ms98-a-0029	B.44	207.055125	207.308000		that	that
sw2998B-ms98-a-0029	B.44	207.308000	207.880625		problem	problem
sw2998B-ms98-a-0029	B.44	207.880625	208.401750		[silence]	[silence]
sw2998B-ms98-a-0029	B.44	208.401750	208.820000		essentially	essentially
sw2998B-ms98-a-0029	B.44	208.820000	208.978000		I	i
sw2998B-ms98-a-0029	B.44	208.978000	209.208000		guess	guess
sw2998B-ms98-a-0029	B.44	209.208000	209.528000		because	because
sw2998B-ms98-a-0029	B.44	209.528000	209.588000		it	it
sw2998B-ms98-a-0029	B.44	209.588000	209.726125		was	was
sw2998B-ms98-a-0029	B.44	209.726125	209.886875		at	at
sw2998B-ms98-a-0029	B.44	209.886875	210.392875		crisis	crisis
sw2998B-ms98-a-0029	B.44	210.392875	211.278000		proportions	proportions
sw2998B-ms98-a-0029	B.44	211.278000	211.559625		was	was
sw2998B-ms98-a-0029	B.46	211.559625	211.706500		[silence]	[silence]
sw2998B-ms98-a-0029	B.46	211.706500	211.928000		was	was
sw2998B-ms98-a-0029	B.46	211.928000	212.351250		licked	licked
sw2998B-ms98-a-0029	B.46	212.351250	212.680500		[silence]	[silence]
sw2998B-ms98-a-0030	B.46	212.680500	212.748000		[silence]	[silence]
sw2998B-ms98-a-0030	B.46	212.748000	212.920500		And	and
sw2998B-ms98-a-0030	B.46	212.920500	213.020500		I	i
sw2998B-ms98-a-0030	B.46	213.020500	213.300500		think	think
sw2998B-ms98-a-0030	B.46	213.300500	213.470500		that	that
sw2998B-ms98-a-0030	B.46	213.470500	213.660500		there	there
sw2998B-ms98-a-0030	B.46	213.660500	213.950500		are	are
sw2998B-ms98-a-0030	B.46	213.950500	214.220250		th-	th[ere]-
sw2998B-ms98-a-0030	B.46	214.220250	214.440500		there	there
sw2998B-ms98-a-0030	B.46	214.440500	214.640500		are	are
sw2998B-ms98-a-0030	B.46	214.640500	215.439375		solutions	solutions
sw2998B-ms98-a-0030	B.48	215.439375	215.733125		[silence]	[silence]
sw2998B-ms98-a-0030	B.48	215.733125	216.050500		certainly	certainly
sw2998B-ms98-a-0030	B.48	216.050500	216.160500		we	we
sw2998B-ms98-a-0030	B.48	216.160500	216.330500		don't	don't
sw2998B-ms98-a-0030	B.48	216.330500	216.480500		even	even
sw2998B-ms98-a-0030	B.48	216.480500	216.690500		need	need
sw2998B-ms98-a-0030	B.48	216.690500	216.882125		a	a
sw2998B-ms98-a-0030	B.48	216.882125	216.995125		[silence]	[silence]
sw2998B-ms98-a-0030	B.48	216.995125	217.180500		need	need
sw2998B-ms98-a-0030	B.48	217.180500	217.240500		a	a
sw2998B-ms98-a-0030	B.48	217.240500	217.710500		research	research
sw2998B-ms98-a-0030	B.48	217.710500	218.160500		anymore	anymore
sw2998B-ms98-a-0030	B.48	218.160500	218.390500		It's	it's
sw2998B-ms98-a-0030	B.48	218.390500	218.640500		just	just
sw2998B-ms98-a-0030	B.48	218.640500	218.690500		a	a
sw2998B-ms98-a-0030	B.48	218.690500	219.000500		matter	matter
sw2998B-ms98-a-0030	B.48	219.000500	219.080500		of	of
sw2998B-ms98-a-0030	B.48	219.080500	219.570500		passing	passing
sw2998B-ms98-a-0030	B.48	219.570500	219.670500		the	the
sw2998B-ms98-a-0030	B.48	219.670500	220.107875		law	law
sw2998B-ms98-a-0030	B.48	220.107875	220.435625		[silence]	[silence]
sw2998B-ms98-a-0030	B.48	220.435625	220.610500		and	and
sw2998B-ms98-a-0030	B.48	220.610500	221.060500		passing	passing
sw2998B-ms98-a-0030	B.48	221.060500	221.160500		the	the
sw2998B-ms98-a-0030	B.48	221.160500	221.400500		law	law
sw2998B-ms98-a-0030	B.48	221.400500	221.890500		depends	depends
sw2998B-ms98-a-0030	B.48	221.890500	222.070500		on	on
sw2998B-ms98-a-0030	B.48	222.070500	222.410500		how	how
sw2998B-ms98-a-0030	B.48	222.410500	222.690500		heavy	heavy
sw2998B-ms98-a-0030	B.48	222.690500	222.770500		the	the
sw2998B-ms98-a-0030	B.48	222.770500	223.330875		car	car
sw2998B-ms98-a-0030	B.48	223.330875	223.504125		[silence]	[silence]
sw2998B-ms98-a-0030	B.48	223.504125	224.200500		industry	industry
sw2998B-ms98-a-0030	B.48	224.200500	224.260500		the	the
sw2998B-ms98-a-0030	B.48	224.260500	224.849500		automobile	automobile
sw2998B-ms98-a-0030	B.48	224.849500	225.000125		[silence]	[silence]
sw2998B-ms98-a-0030	B.48	225.000125	225.520500		lobby	lobby
sw2998B-ms98-a-0030	B.48	225.520500	225.897000		is	is
sw2998B-ms98-a-0030	B.50	225.897000	226.379000		[silence]	[silence]
sw2998B-ms98-a-0031	B.50	226.379000	227.436875		[silence]	[silence]
sw2998B-ms98-a-0032	B.50	227.436875	227.932000		[silence]	[silence]
sw2998B-ms98-a-0032	B.50	227.932000	228.136875		That's	that's
sw2998B-ms98-a-0032	B.50	228.136875	228.388500		right	right
sw2998B-ms98-a-0032	B.50	228.388500	228.580625		[silence]	[silence]
sw2998B-ms98-a-0032	B.50	228.580625	228.776875		That's	that's
sw2998B-ms98-a-0032	B.50	228.776875	228.990375		right	right
sw2998B-ms98-a-0032	B.52	228.990375	229.475125		[silence]	[silence]
sw2998B-ms98-a-0033	B.52	229.475125	232.941625		[silence]	[silence]
sw2998B-ms98-a-0034	B.52	232.941625	233.411625		[silence]	[silence]
sw2998B-ms98-a-0034	B.52	233.411625	233.631625		Oh	oh
sw2998B-ms98-a-0034	B.52	233.631625	233.811625		yeah	yeah
sw2998B-ms98-a-0034	B.52	233.811625	234.148375		well	well
sw2998B-ms98-a-0034	B.54	234.148375	234.621875		[silence]	[silence]
sw2998B-ms98-a-0034	B.54	234.621875	234.851625		[noise]	[noise]
sw2998B-ms98-a-0034	B.54	234.851625	235.148250		That	that
sw2998B-ms98-a-0034	B.54	235.148250	235.317500		that	that
sw2998B-ms98-a-0034	B.54	235.317500	235.532125		[silence]	[silence]
sw2998B-ms98-a-0034	B.54	235.532125	235.651625		the	the
sw2998B-ms98-a-0034	B.54	235.651625	235.851625		the	the
sw2998B-ms98-a-0034	B.54	235.851625	236.341625		smell	smell
sw2998B-ms98-a-0034	B.54	236.341625	236.531625		is	is
sw2998B-ms98-a-0034	B.54	236.531625	237.071625		awful	awful
sw2998B-ms98-a-0034	B.54	237.071625	237.341625		and	and
sw2998B-ms98-a-0034	B.54	237.341625	237.531625		but	but
sw2998B-ms98-a-0034	B.54	237.531625	237.611625		you	you
sw2998B-ms98-a-0034	B.54	237.611625	237.731625		know	know
sw2998B-ms98-a-0034	B.54	237.731625	237.771625		I	i
sw2998B-ms98-a-0034	B.54	237.771625	237.891625		was	was
sw2998B-ms98-a-0034	B.54	237.891625	238.166000		reading	reading
sw2998B-ms98-a-0034	B.54	238.166000	238.271625		the	the
sw2998B-ms98-a-0034	B.54	238.271625	238.381625		other	other
sw2998B-ms98-a-0034	B.54	238.381625	238.711625		day	day
sw2998B-ms98-a-0034	B.54	238.711625	238.951625		not	not
sw2998B-ms98-a-0034	B.54	238.951625	239.061625		to	to
sw2998B-ms98-a-0034	B.54	239.061625	239.131625		go	go
sw2998B-ms98-a-0034	B.54	239.131625	239.401625		on	on
sw2998B-ms98-a-0034	B.54	239.401625	239.531625		with	with
sw2998B-ms98-a-0034	B.54	239.531625	239.761625		this	this
sw2998B-ms98-a-0034	B.54	239.761625	239.991625		but	but
sw2998B-ms98-a-0034	B.54	239.991625	240.241625		that	that
sw2998B-ms98-a-0034	B.56	240.241625	240.691625		diesel	diesel
sw2998B-ms98-a-0034	B.56	240.691625	241.111625		fumes	fumes
sw2998B-ms98-a-0034	B.56	241.111625	241.541625		actually	actually
sw2998B-ms98-a-0034	B.56	241.541625	241.711625		have	have
sw2998B-ms98-a-0034	B.56	241.711625	241.961625		less	less
sw2998B-ms98-a-0034	B.56	241.961625	242.481625		pollutants	pollutants
sw2998B-ms98-a-0034	B.56	242.481625	242.601625		in	in
sw2998B-ms98-a-0034	B.56	242.601625	242.771625		them	them
sw2998B-ms98-a-0034	B.56	242.771625	243.089375		than	than
sw2998B-ms98-a-0034	B.56	243.089375	243.289000		[silence]	[silence]
sw2998B-ms98-a-0034	B.56	243.289000	243.791625		gasoline	gasoline
sw2998B-ms98-a-0034	B.56	243.791625	244.252125		fumes	fumes
sw2998B-ms98-a-0034	B.58	244.252125	244.358250		[silence]	[silence]
sw2998B-ms98-a-0035	B.58	244.358250	244.767250		[silence]	[silence]
sw2998B-ms98-a-0035	B.58	244.767250	245.108250		So	so
sw2998B-ms98-a-0035	B.58	245.108250	245.218250		I	i
sw2998B-ms98-a-0035	B.58	245.218250	245.548250		guess	guess
sw2998B-ms98-a-0035	B.58	245.548250	245.728250		you're	you're
sw2998B-ms98-a-0035	B.58	245.728250	246.048250		better	better
sw2998B-ms98-a-0035	B.58	246.048250	246.230125		off	off
sw2998B-ms98-a-0035	B.58	246.230125	246.685875		sitting	[laughter-sitting]
sw2998B-ms98-a-0035	B.58	246.685875	247.038250		behind	[laughter-behind]
sw2998B-ms98-a-0035	B.58	247.038250	247.158250		a	[laughter-a]
sw2998B-ms98-a-0035	B.58	247.158250	247.528250		bus	[laughter-bus]
sw2998B-ms98-a-0035	B.58	247.528250	247.658250		than	than
sw2998B-ms98-a-0035	B.58	247.658250	247.808250		a	a
sw2998B-ms98-a-0035	B.58	247.808250	248.248250		car	car
sw2998B-ms98-a-0035	B.58	248.248250	248.528250		although	although
sw2998B-ms98-a-0035	B.58	248.528250	248.598250		I	i
sw2998B-ms98-a-0035	B.58	248.598250	248.808250		can	can
sw2998B-ms98-a-0035	B.58	248.808250	249.229375		never	never
sw2998B-ms98-a-0035	B.58	249.229375	249.617375		[silence]	[silence]
sw2998B-ms98-a-0035	B.58	249.617375	249.718250		I	i
sw2998B-ms98-a-0035	B.58	249.718250	249.968250		could	could
sw2998B-ms98-a-0035	B.58	249.968250	250.470375		never	never
sw2998B-ms98-a-0035	B.58	250.470375	250.997625		[silence]	[silence]
sw2998B-ms98-a-0035	B.58	250.997625	251.418250		uh	uh
sw2998B-ms98-a-0035	B.58	251.418250	251.818250		really	really
sw2998B-ms98-a-0035	B.58	251.818250	251.928500	<SUB>	a-	a
sw2998B-ms98-a-0035	B.58	251.928500	252.067750		[silence]	[silence]
sw2998B-ms98-a-0035	B.58	252.067750	252.188250	<SUB>	a-	a
sw2998B-ms98-a-0035	B.58	252.188250	252.868250		rationalize	rationalize
sw2998B-ms98-a-0035	B.58	252.868250	253.048250		that	that
sw2998B-ms98-a-0035	B.58	253.048250	253.188250		while	while
sw2998B-ms98-a-0035	B.58	253.188250	253.248250		I	i
sw2998B-ms98-a-0035	B.58	253.248250	253.428250		was	was
sw2998B-ms98-a-0035	B.58	253.428250	253.778250		sitting	sitting
sw2998B-ms98-a-0035	B.58	253.778250	253.961250		there	there
sw2998B-ms98-a-0035	B.60	253.961250	254.245500		[laughter]	[laughter]
sw2998B-ms98-a-0035	B.60	254.245500	254.731625		[silence]	[silence]
sw2998B-ms98-a-0036	B.60	254.731625	257.328500		[silence]	[silence]
sw2998B-ms98-a-0037	B.60	257.328500	257.835000		[silence]	[silence]
sw2998B-ms98-a-0037	B.60	257.835000	258.133125		Yeah	yeah
sw2998B-ms98-a-0037	B.62	258.133125	258.629625		[silence]	[silence]
sw2998B-ms98-a-0038	B.62	258.629625	262.237750		[silence]	[silence]
sw2998B-ms98-a-0039	B.62	262.237750	262.743875		[silence]	[silence]
sw2998B-ms98-a-0039	B.62	262.743875	263.007750		Well	well
sw2998B-ms98-a-0039	B.62	263.007750	263.203500		we	we
sw2998B-ms98-a-0039	B.62	263.203500	263.387750		you	you
sw2998B-ms98-a-0039	B.62	263.387750	263.768750		know	know
sw2998B-ms98-a-0039	B.64	263.768750	264.122875		[silence]	[silence]
sw2998B-ms98-a-0039	B.64	264.122875	264.327750		up	up
sw2998B-ms98-a-0039	B.64	264.327750	264.527750		here	here
sw2998B-ms98-a-0039	B.64	264.527750	264.607750		in	in
sw2998B-ms98-a-0039	B.64	264.607750	264.757750		New	New
sw2998B-ms98-a-0039	B.64	264.757750	265.167750		England	England
sw2998B-ms98-a-0039	B.64	265.167750	265.377750		uh	uh
sw2998B-ms98-a-0039	B.64	265.377750	265.567750		where	where
sw2998B-ms98-a-0039	B.64	265.567750	266.021375		I've	i've
sw2998B-ms98-a-0039	B.64	266.021375	266.277750		right	right
sw2998B-ms98-a-0039	B.64	266.277750	266.497750		close	close
sw2998B-ms98-a-0039	B.64	266.497750	266.617750		to	to
sw2998B-ms98-a-0039	B.64	266.617750	266.737750		where	where
sw2998B-ms98-a-0039	B.64	266.737750	266.797750		I	i
sw2998B-ms98-a-0039	B.64	266.797750	266.987750		live	live
sw2998B-ms98-a-0039	B.64	266.987750	267.177750		is	is
sw2998B-ms98-a-0039	B.64	267.177750	267.267750		the	the
sw2998B-ms98-a-0039	B.64	267.267750	267.817750		Seabrook	Seabrook
sw2998B-ms98-a-0039	B.64	267.817750	268.267750		Nucleus	Nucleus
sw2998B-ms98-a-0039	B.64	268.267750	268.487750		site	site
sw2998B-ms98-a-0039	B.64	268.487750	268.697750		which	which
sw2998B-ms98-a-0039	B.64	268.697750	268.937750		is	is
sw2998B-ms98-a-0039	B.66	268.937750	269.597750		practically	practically
sw2998B-ms98-a-0039	B.66	269.597750	269.675375		a	a
sw2998B-ms98-a-0039	B.66	269.675375	269.916500		[silence]	[silence]
sw2998B-ms98-a-0039	B.66	269.916500	269.987750		you	you
sw2998B-ms98-a-0039	B.66	269.987750	270.107750		know	know
sw2998B-ms98-a-0039	B.66	270.107750	270.537750		guerilla	guerrilla
sw2998B-ms98-a-0039	B.66	270.537750	271.007750		war	war
sw2998B-ms98-a-0039	B.66	271.007750	271.177750		up	up
sw2998B-ms98-a-0039	B.66	271.177750	271.397750		here	here
sw2998B-ms98-a-0039	B.68	271.397750	271.567750		went	went
sw2998B-ms98-a-0039	B.68	271.567750	271.757750		on	on
sw2998B-ms98-a-0039	B.68	271.757750	271.937750		for	for
sw2998B-ms98-a-0039	B.68	271.937750	272.375625		years	years
sw2998B-ms98-a-0039	B.68	272.375625	272.949000		[silence]	[silence]
sw2998B-ms98-a-0040	B.68	272.949000	273.049375		[silence]	[silence]
sw2998B-ms98-a-0040	B.68	273.049375	273.342125		Uh	uh
sw2998B-ms98-a-0040	B.68	273.342125	273.671250	<DEL>	---	m[y]-
sw2998B-ms98-a-0040	B.68	273.671250	273.979000		my	my
sw2998B-ms98-a-0040	B.68	273.979000	274.459000		daughters	daughters
sw2998B-ms98-a-0040	B.68	274.459000	274.989000		marched	marched
sw2998B-ms98-a-0040	B.68	274.989000	275.089000		in	in
sw2998B-ms98-a-0040	B.68	275.089000	275.349000		the	the
sw2998B-ms98-a-0040	B.68	275.349000	275.479000		uh	uh
sw2998B-ms98-a-0040	B.68	275.479000	275.749000		uh	uh
sw2998B-ms98-a-0040	B.68	275.749000	276.159000		against	against
sw2998B-ms98-a-0040	B.68	276.159000	276.229000		the	the
sw2998B-ms98-a-0040	B.68	276.229000	276.859000		Seabrook	Seabrook
sw2998B-ms98-a-0040	B.68	276.859000	277.159000		and	and
sw2998B-ms98-a-0040	B.68	277.159000	277.319000		I	i
sw2998B-ms98-a-0040	B.68	277.319000	277.679000		kind	kind
sw2998B-ms98-a-0040	B.68	277.679000	277.913500		of	of
sw2998B-ms98-a-0040	B.68	277.913500	278.129000		uh	uh
sw2998B-ms98-a-0040	B.70	278.129000	278.389000		my	my
sw2998B-ms98-a-0040	B.70	278.389000	278.849000		feelings	feelings
sw2998B-ms98-a-0040	B.70	278.849000	279.089000		were	were
sw2998B-ms98-a-0040	B.70	279.089000	279.429000		that	that
sw2998B-ms98-a-0040	B.70	279.429000	279.569000		we	we
sw2998B-ms98-a-0040	B.70	279.569000	280.079000		needed	needed
sw2998B-ms98-a-0040	B.70	280.079000	280.289000		this	this
sw2998B-ms98-a-0040	B.70	280.289000	280.739000		bridge	bridge
sw2998B-ms98-a-0040	B.70	280.739000	281.159000		to	to
sw2998B-ms98-a-0040	B.72	281.159000	281.875125		[silence]	[silence]
sw2998B-ms98-a-0040	B.72	281.875125	282.313375		to	to
sw2998B-ms98-a-0040	B.72	282.313375	283.035750		uh	uh
sw2998B-ms98-a-0040	B.72	283.035750	283.358000		to	to
sw2998B-ms98-a-0040	B.72	283.358000	283.358000	<INS>	m-	---
sw2998B-ms98-a-0040	B.72	283.358000	283.358000	<INS>	m-	---
sw2998B-ms98-a-0040	B.72	283.358000	283.496375		[vocalized-noise]	[vocalized-noise]
sw2998B-ms98-a-0040	B.72	283.496375	283.511500		[silence]	[silence]
sw2998B-ms98-a-0041	B.72	283.511500	283.547750		[silence]	[silence]
sw2998B-ms98-a-0041	B.72	283.547750	284.283250		[vocalized-noise]	[vocalized-noise]
sw2998B-ms98-a-0041	B.72	284.283250	284.611500		jump	jump
sw2998B-ms98-a-0041	B.72	284.611500	284.920375		[silence]	[silence]
sw2998B-ms98-a-0041	B.72	284.920375	285.251500		from	from
sw2998B-ms98-a-0041	B.72	285.251500	285.641500		whatever	whatever
sw2998B-ms98-a-0041	B.72	285.641500	285.751500		it	it
sw2998B-ms98-a-0041	B.72	285.751500	285.941500		was	was
sw2998B-ms98-a-0041	B.72	285.941500	286.111500		going	going
sw2998B-ms98-a-0041	B.72	286.111500	286.191500		to	to
sw2998B-ms98-a-0041	B.72	286.191500	286.451500		be	be
sw2998B-ms98-a-0041	B.72	286.451500	286.681500		from	from
sw2998B-ms98-a-0041	B.72	286.681500	287.081500		fossil	fossil
sw2998B-ms98-a-0041	B.72	287.081500	287.301500		fuel	fuel
sw2998B-ms98-a-0041	B.72	287.301500	287.411500		to	to
sw2998B-ms98-a-0041	B.72	287.411500	287.751500		whatever	whatever
sw2998B-ms98-a-0041	B.72	287.751500	287.821500		it	it
sw2998B-ms98-a-0041	B.72	287.821500	288.001500		was	was
sw2998B-ms98-a-0041	B.72	288.001500	288.171500		going	going
sw2998B-ms98-a-0041	B.72	288.171500	288.251500		to	to
sw2998B-ms98-a-0041	B.72	288.251500	288.558500		be	be
sw2998B-ms98-a-0041	B.74	288.558500	289.175625		[silence]	[silence]
sw2998B-ms98-a-0042	B.74	289.175625	290.009375		[silence]	[silence]
sw2998B-ms98-a-0042	B.74	290.009375	290.457250		Yeah	yeah
sw2998B-ms98-a-0042	B.76	290.457250	290.607875		[silence]	[silence]
sw2998B-ms98-a-0042	B.76	290.607875	290.888625		Un-	un[fortunately]-
sw2998B-ms98-a-0042	B.76	290.888625	291.005375		[silence]	[silence]
sw2998B-ms98-a-0042	B.76	291.005375	291.525625	<DEL>	---	u[nfortunately]-
sw2998B-ms98-a-0042	B.76	291.525625	292.125625		unfortunately	unfortunately
sw2998B-ms98-a-0042	B.76	292.125625	292.215625		though	though
sw2998B-ms98-a-0042	B.76	292.215625	292.343250		I	i
sw2998B-ms98-a-0042	B.76	292.343250	292.516500		think	think
sw2998B-ms98-a-0042	B.76	292.516500	292.675625		the	the
sw2998B-ms98-a-0042	B.76	292.675625	292.785625		oil	oil
sw2998B-ms98-a-0042	B.76	292.785625	293.175625		companies	companies
sw2998B-ms98-a-0042	B.76	293.175625	293.345625		have	have
sw2998B-ms98-a-0042	B.76	293.345625	293.605625		lied	lied
sw2998B-ms98-a-0042	B.76	293.605625	293.735625		to	to
sw2998B-ms98-a-0042	B.76	293.735625	293.895625		us	us
sw2998B-ms98-a-0042	B.76	293.895625	294.044375		for	for
sw2998B-ms98-a-0042	B.76	294.044375	294.710000		years	[laughter-years]
sw2998B-ms98-a-0042	B.78	294.710000	294.798750		[silence]	[silence]
sw2998B-ms98-a-0043	B.78	294.798750	295.133750		[silence]	[silence]
sw2998B-ms98-a-0043	B.78	295.133750	295.248750		So	so
sw2998B-ms98-a-0043	B.78	295.248750	295.398750		we	we
sw2998B-ms98-a-0043	B.78	295.398750	295.648750		really	really
sw2998B-ms98-a-0043	B.78	295.648750	295.908750		don't	don't
sw2998B-ms98-a-0043	B.78	295.908750	296.158750		know	know
sw2998B-ms98-a-0043	B.78	296.158750	296.388750		whether	whether
sw2998B-ms98-a-0043	B.78	296.388750	296.568750		there's	there's
sw2998B-ms98-a-0043	B.78	296.568750	296.818750		enough	enough
sw2998B-ms98-a-0043	B.78	296.818750	297.218750		fossil	fossil
sw2998B-ms98-a-0043	B.78	297.218750	297.598750		fuel	fuel
sw2998B-ms98-a-0043	B.78	297.598750	297.968750		left	left
sw2998B-ms98-a-0043	B.78	297.968750	298.138750		or	or
sw2998B-ms98-a-0043	B.78	298.138750	298.378750		there	there
sw2998B-ms98-a-0043	B.78	298.378750	298.728750		isn't	isn't
sw2998B-ms98-a-0043	B.78	298.728750	299.128750		and	and
sw2998B-ms98-a-0043	B.78	299.128750	299.337625		uh	uh
sw2998B-ms98-a-0043	B.78	299.337625	300.140000		[silence]	[silence]
sw2998B-ms98-a-0043	B.78	300.140000	300.518750		and	and
sw2998B-ms98-a-0043	B.78	300.518750	300.648750		uh	uh
sw2998B-ms98-a-0043	B.80	300.648750	301.031750	<DEL>	---	i
sw2998B-ms98-a-0043	B.80	301.031750	301.513625		[silence]	[silence]
sw2998B-ms98-a-0044	B.80	301.513625	304.187625		[silence]	[silence]
sw2998B-ms98-a-0045	B.80	304.187625	304.694125		[silence]	[silence]
sw2998B-ms98-a-0045	B.80	304.694125	305.001250		No	no
sw2998B-ms98-a-0045	B.82	305.001250	305.466750		[silence]	[silence]
sw2998B-ms98-a-0046	B.82	305.466750	307.005375		[silence]	[silence]
sw2998B-ms98-a-0047	B.82	307.005375	307.490750		[silence]	[silence]
sw2998B-ms98-a-0047	B.82	307.490750	307.906375		Yeah	yeah
sw2998B-ms98-a-0047	B.84	307.906375	308.363375		[silence]	[silence]
sw2998B-ms98-a-0048	B.84	308.363375	316.018125		[silence]	[silence]
sw2998B-ms98-a-0049	B.84	316.018125	316.513750		[silence]	[silence]
sw2998B-ms98-a-0049	B.84	316.513750	316.766250		Yeah	yeah
sw2998B-ms98-a-0049	B.86	316.766250	317.236625		[silence]	[silence]
sw2998B-ms98-a-0050	B.86	317.236625	323.054500		[silence]	[silence]
sw2998B-ms98-a-0051	B.86	323.054500	323.556250		[silence]	[silence]
sw2998B-ms98-a-0051	B.86	323.556250	323.899500		Yes	yes
sw2998B-ms98-a-0051	B.88	323.899500	324.407500		[silence]	[silence]
sw2998B-ms98-a-0052	B.88	324.407500	327.323000		[silence]	[silence]
sw2998B-ms98-a-0053	B.88	327.323000	327.832125		[silence]	[silence]
sw2998B-ms98-a-0053	B.88	327.832125	328.083000		That's	that's
sw2998B-ms98-a-0053	B.88	328.083000	328.507000		right	right
sw2998B-ms98-a-0053	B.90	328.507000	328.977250		[silence]	[silence]
sw2998B-ms98-a-0054	B.90	328.977250	330.225750		[silence]	[silence]
sw2998B-ms98-a-0055	B.90	330.225750	330.982375		[silence]	[silence]
sw2998B-ms98-a-0055	B.90	330.982375	331.212125		Yeah	yeah
sw2998B-ms98-a-0055	B.92	331.212125	332.090000		[silence]	[silence]
sw2998B-ms98-a-0056	B.92	332.090000	338.093000		[silence]	[silence]
sw2998B-ms98-a-0057	B.92	338.093000	338.583750		[silence]	[silence]
sw2998B-ms98-a-0057	B.92	338.583750	338.843000		Well	well
sw2998B-ms98-a-0057	B.92	338.843000	339.363750		since	since
sw2998B-ms98-a-0057	B.92	339.363750	339.683000		since	since
sw2998B-ms98-a-0057	B.92	339.683000	340.163000		Texas	Texas
sw2998B-ms98-a-0057	B.92	340.163000	340.273000		and	and
sw2998B-ms98-a-0057	B.92	340.273000	341.263000		Louisiana	Louisiana
sw2998B-ms98-a-0057	B.92	341.263000	341.763000		and	and
sw2998B-ms98-a-0057	B.92	341.763000	341.843000		uh	uh
sw2998B-ms98-a-0057	B.92	341.843000	342.733000		California	California
sw2998B-ms98-a-0057	B.92	342.733000	342.973000		that	that
sw2998B-ms98-a-0057	B.92	342.973000	343.113000		in	in
sw2998B-ms98-a-0057	B.92	343.113000	343.353000		that	that
sw2998B-ms98-a-0057	B.92	343.353000	343.783000		ranking	ranking
sw2998B-ms98-a-0057	B.92	343.783000	344.023000		order	order
sw2998B-ms98-a-0057	B.92	344.023000	344.133000		the	the
sw2998B-ms98-a-0057	B.92	344.133000	344.463000		worst	worst
sw2998B-ms98-a-0057	B.92	344.463000	344.883000		pollutants	pollutants
sw2998B-ms98-a-0057	B.92	344.883000	345.083000		in	in
sw2998B-ms98-a-0057	B.92	345.083000	345.716375		America	America
sw2998B-ms98-a-0057	B.94	345.716375	345.924750		[silence]	[silence]
sw2998B-ms98-a-0058	B.94	345.924750	346.153625		[silence]	[silence]
sw2998B-ms98-a-0058	B.94	346.153625	346.234750		I	i
sw2998B-ms98-a-0058	B.94	346.234750	346.404750		mean	mean
sw2998B-ms98-a-0058	B.94	346.404750	346.514750		I	i
sw2998B-ms98-a-0058	B.94	346.514750	346.724750		read	read
sw2998B-ms98-a-0058	B.94	346.724750	346.942875		that	that
sw2998B-ms98-a-0058	B.94	346.942875	347.054750		the	the
sw2998B-ms98-a-0058	B.94	347.054750	347.154750		other	other
sw2998B-ms98-a-0058	B.94	347.154750	347.374750		day	day
sw2998B-ms98-a-0058	B.94	347.374750	347.434750		I	i
sw2998B-ms98-a-0058	B.94	347.434750	347.624750		mean	mean
sw2998B-ms98-a-0058	B.94	347.624750	348.544750		Louisi-	Louisi[ana]-
sw2998B-ms98-a-0058	B.94	348.544750	349.034750		Louisiana	Louisiana
sw2998B-ms98-a-0058	B.94	349.034750	349.194750		for	for
sw2998B-ms98-a-0058	B.94	349.194750	349.274750		a	a
sw2998B-ms98-a-0058	B.94	349.274750	349.634750		small	small
sw2998B-ms98-a-0058	B.94	349.634750	350.114750		state	state
sw2998B-ms98-a-0058	B.94	350.114750	350.154750		w-	w[as]-
sw2998B-ms98-a-0058	B.94	350.154750	350.394750		it	it
sw2998B-ms98-a-0058	B.94	350.394750	350.564750		was	was
sw2998B-ms98-a-0058	B.94	350.564750	351.094750		amazing	amazing
sw2998B-ms98-a-0058	B.94	351.094750	351.234750		but	but
sw2998B-ms98-a-0058	B.94	351.234750	351.424750		it's	it's
sw2998B-ms98-a-0058	B.94	351.424750	351.504750		the	the
sw2998B-ms98-a-0058	B.94	351.504750	352.224750		industrial	industrial
sw2998B-ms98-a-0058	B.94	352.224750	352.754750		pollution	pollution
sw2998B-ms98-a-0058	B.94	352.754750	352.824750		I	i
sw2998B-ms98-a-0058	B.94	352.824750	353.024750		should	should
sw2998B-ms98-a-0058	B.94	353.024750	353.474750		imagine	imagine
sw2998B-ms98-a-0058	B.96	353.474750	353.664750		And	and
sw2998B-ms98-a-0058	B.96	353.664750	354.294750		California	California
sw2998B-ms98-a-0058	B.96	354.294750	354.604750		seems	seems
sw2998B-ms98-a-0058	B.96	354.604750	354.684750		to	to
sw2998B-ms98-a-0058	B.96	354.684750	354.825875		be	be
sw2998B-ms98-a-0058	B.96	354.825875	355.228875		[silence]	[silence]
sw2998B-ms98-a-0058	B.96	355.228875	355.574750		taking	taking
sw2998B-ms98-a-0058	B.96	355.574750	356.054750		steps	steps
sw2998B-ms98-a-0058	B.96	356.054750	356.114750		I	i
sw2998B-ms98-a-0058	B.96	356.114750	356.338125		mean	mean
sw2998B-ms98-a-0058	B.96	356.338125	356.742875		[silence]	[silence]
sw2998B-ms98-a-0059	B.96	356.742875	356.841750		[silence]	[silence]
sw2998B-ms98-a-0059	B.96	356.841750	356.992875		you	you
sw2998B-ms98-a-0059	B.96	356.992875	357.182875		you	you
sw2998B-ms98-a-0059	B.96	357.182875	357.442875		read	read
sw2998B-ms98-a-0059	B.96	357.442875	357.851625		about	about
sw2998B-ms98-a-0059	B.96	357.851625	358.156750		[silence]	[silence]
sw2998B-ms98-a-0059	B.96	358.156750	358.976625		the	the
sw2998B-ms98-a-0059	B.96	358.976625	359.153625		[silence]	[silence]
sw2998B-ms98-a-0059	B.96	359.153625	359.387250		the	the
sw2998B-ms98-a-0059	B.96	359.387250	359.952875		fairly	fairly
sw2998B-ms98-a-0059	B.98	359.952875	360.448250		fairly	fairly
sw2998B-ms98-a-0059	B.98	360.448250	360.598875		[silence]	[silence]
sw2998B-ms98-a-0059	B.98	360.598875	361.112875		stiff	stiff
sw2998B-ms98-a-0059	B.98	361.112875	361.432875		laws	laws
sw2998B-ms98-a-0059	B.98	361.432875	361.532875		they	they
sw2998B-ms98-a-0059	B.98	361.532875	361.802875		put	put
sw2998B-ms98-a-0059	B.98	361.802875	361.932875		in	in
sw2998B-ms98-a-0059	B.98	361.932875	362.112875		on	on
sw2998B-ms98-a-0059	B.98	362.112875	362.692875		cars	cars
sw2998B-ms98-a-0059	B.98	362.692875	362.972875		now	now
sw2998B-ms98-a-0059	B.98	362.972875	363.312875		they're	they're
sw2998B-ms98-a-0059	B.98	363.312875	363.603625		they're	they're
sw2998B-ms98-a-0059	B.98	363.603625	364.309875		enforcing	enforcing
sw2998B-ms98-a-0059	B.100	364.309875	364.803375		[silence]	[silence]
sw2998B-ms98-a-0059	B.100	364.803375	365.092875		But	but
sw2998B-ms98-a-0059	B.100	365.092875	365.423625		uh	uh
sw2998B-ms98-a-0059	B.100	365.423625	366.102875		again	again
sw2998B-ms98-a-0059	B.100	366.102875	366.434500		uh	uh
sw2998B-ms98-a-0059	B.100	366.434500	366.664250		[silence]	[silence]
sw2998B-ms98-a-0059	B.100	366.664250	366.882875		that	that
sw2998B-ms98-a-0059	B.100	366.882875	367.142875		didn't	didn't
sw2998B-ms98-a-0059	B.100	367.142875	367.502875		occur	occur
sw2998B-ms98-a-0059	B.100	367.502875	367.812875		without	without
sw2998B-ms98-a-0059	B.100	367.812875	367.862875		a	a
sw2998B-ms98-a-0059	B.100	367.862875	368.412875		crisis	crisis
sw2998B-ms98-a-0059	B.100	368.412875	368.797000		Nothing	nothing
sw2998B-ms98-a-0059	B.100	368.797000	368.917500		[silence]	[silence]
sw2998B-ms98-a-0059	B.100	368.917500	369.132875		will	will
sw2998B-ms98-a-0059	B.100	369.132875	369.472875		occur	occur
sw2998B-ms98-a-0059	B.100	369.472875	369.522875		I	i
sw2998B-ms98-a-0059	B.100	369.522875	369.802875		guess	guess
sw2998B-ms98-a-0059	B.100	369.802875	370.032875		without	without
sw2998B-ms98-a-0059	B.100	370.032875	370.072875		a	a
sw2998B-ms98-a-0059	B.100	370.072875	370.436000		crisis	crisis
sw2998B-ms98-a-0059	B.102	370.436000	371.055875		[silence]	[silence]
sw2998B-ms98-a-0060	B.102	371.055875	371.682500		[silence]	[silence]
sw2998B-ms98-a-0060	B.102	371.682500	372.230625		Yeah	yeah
sw2998B-ms98-a-0060	B.102	372.230625	373.128000		exactly	exactly
sw2998B-ms98-a-0060	B.104	373.128000	373.649250		[silence]	[silence]
sw2998B-ms98-a-0060	B.104	373.649250	374.284500		Exactly	exactly
sw2998B-ms98-a-0060	B.106	374.284500	374.562500		[silence]	[silence]
sw2998B-ms98-a-0061	B.106	374.562500	374.843000		[silence]	[silence]
sw2998B-ms98-a-0061	B.106	374.843000	374.972500		Well	well
sw2998B-ms98-a-0061	B.106	374.972500	375.062500		the	the
sw2998B-ms98-a-0061	B.106	375.062500	375.492500		greatest	greatest
sw2998B-ms98-a-0061	B.106	375.492500	375.652500		thing	thing
sw2998B-ms98-a-0061	B.106	375.652500	375.802500		that	that
sw2998B-ms98-a-0061	B.106	375.802500	376.112500		happened	happened
sw2998B-ms98-a-0061	B.106	376.112500	376.182500		to	to
sw2998B-ms98-a-0061	B.106	376.182500	376.662500		pollution	pollution
sw2998B-ms98-a-0061	B.106	376.662500	376.732500		in	in
sw2998B-ms98-a-0061	B.106	376.732500	376.802500		the	the
sw2998B-ms98-a-0061	B.106	376.802500	377.162500		last	last
sw2998B-ms98-a-0061	B.106	377.162500	377.392500		couple	couple
sw2998B-ms98-a-0061	B.106	377.392500	377.462500		of	of
sw2998B-ms98-a-0061	B.106	377.462500	377.682500		years	years
sw2998B-ms98-a-0061	B.106	377.682500	377.782500		as	as
sw2998B-ms98-a-0061	B.106	377.782500	378.012500		far	far
sw2998B-ms98-a-0061	B.106	378.012500	378.132500		as	as
sw2998B-ms98-a-0061	B.106	378.132500	378.332500		I'm	i'm
sw2998B-ms98-a-0061	B.106	378.332500	378.937250		concerned	concerned
sw2998B-ms98-a-0061	B.106	378.937250	379.340250		[silence]	[silence]
sw2998B-ms98-a-0061	B.106	379.340250	379.502500		is	is
sw2998B-ms98-a-0061	B.106	379.502500	379.602500		the	the
sw2998B-ms98-a-0061	B.106	379.602500	379.852500		no	no
sw2998B-ms98-a-0061	B.106	379.852500	380.502500		smoking	smoking
sw2998B-ms98-a-0061	B.106	380.502500	380.962875		rules	rules
sw2998B-ms98-a-0061	B.108	380.962875	381.139875		[silence]	[silence]
sw2998B-ms98-a-0061	B.108	381.139875	381.402500		on	on
sw2998B-ms98-a-0061	B.108	381.402500	382.192500		airplanes	airplanes
sw2998B-ms98-a-0061	B.108	382.192500	382.352500		and	and
sw2998B-ms98-a-0061	B.108	382.352500	382.502500		in	in
sw2998B-ms98-a-0061	B.108	382.502500	383.242500		restaurants	restaurants
sw2998B-ms98-a-0061	B.108	383.242500	383.412500		And	and
sw2998B-ms98-a-0061	B.108	383.412500	383.622500		it	it
sw2998B-ms98-a-0061	B.108	383.622500	383.782500		it	it
sw2998B-ms98-a-0061	B.108	383.782500	384.072500		really	really
sw2998B-ms98-a-0061	B.108	384.072500	384.212500		is	is
sw2998B-ms98-a-0061	B.108	384.212500	384.272500		a	a
sw2998B-ms98-a-0061	B.108	384.272500	384.702500		pleasure	pleasure
sw2998B-ms98-a-0061	B.108	384.702500	384.842500		for	for
sw2998B-ms98-a-0061	B.108	384.842500	385.072500		me	me
sw2998B-ms98-a-0061	B.108	385.072500	385.302500		although	although
sw2998B-ms98-a-0061	B.108	385.302500	385.402500		I	i
sw2998B-ms98-a-0061	B.108	385.402500	385.592500		guess	guess
sw2998B-ms98-a-0061	B.108	385.592500	386.082500		smokers	smokers
sw2998B-ms98-a-0061	B.108	386.082500	386.342500		don't	don't
sw2998B-ms98-a-0061	B.108	386.342500	386.782500		think	[laughter-think]
sw2998B-ms98-a-0061	B.108	386.782500	386.908250		that	[laughter-that]
sw2998B-ms98-a-0061	B.108	386.908250	386.946750		[silence]	[silence]
sw2998B-ms98-a-0062	B.108	386.946750	387.250250		[silence]	[silence]
sw2998B-ms98-a-0062	B.108	387.250250	387.386750		But	but
sw2998B-ms98-a-0062	B.108	387.386750	387.686750		that	that
sw2998B-ms98-a-0062	B.110	387.686750	387.776750		to	to
sw2998B-ms98-a-0062	B.110	387.776750	387.996750		me	me
sw2998B-ms98-a-0062	B.110	387.996750	388.226750		was	was
sw2998B-ms98-a-0062	B.110	388.226750	388.686125		pollution	pollution
sw2998B-ms98-a-0062	B.112	388.686125	388.955500		[vocalized-noise]	[vocalized-noise]
sw2998B-ms98-a-0062	B.112	388.955500	389.428250		[silence]	[silence]
sw2998B-ms98-a-0063	B.112	389.428250	389.890000		[silence]	[silence]
sw2998B-ms98-a-0063	B.112	389.890000	390.048250		that	that
sw2998B-ms98-a-0063	B.112	390.048250	390.238250		was	was
sw2998B-ms98-a-0063	B.112	390.238250	390.428250		its	its
sw2998B-ms98-a-0063	B.112	390.428250	390.858250		most	most
sw2998B-ms98-a-0063	B.112	390.858250	391.608250		personal	personal
sw2998B-ms98-a-0063	B.114	391.608250	391.943500		[silence]	[silence]
sw2998B-ms98-a-0063	B.114	391.943500	392.478250		personal	personal
sw2998B-ms98-a-0063	B.114	392.478250	392.766625		uh	uh
sw2998B-ms98-a-0063	B.114	392.766625	393.228250		pollution	pollution
sw2998B-ms98-a-0063	B.114	393.228250	393.398250		that	that
sw2998B-ms98-a-0063	B.114	393.398250	393.498250		I	i
sw2998B-ms98-a-0063	B.114	393.498250	393.688250		can	can
sw2998B-ms98-a-0063	B.114	393.688250	394.018250		think	think
sw2998B-ms98-a-0063	B.114	394.018250	394.259875		of	of
sw2998B-ms98-a-0063	B.116	394.259875	394.687750		[silence]	[silence]
sw2998B-ms98-a-0064	B.116	394.687750	397.684250		[silence]	[silence]
sw2998B-ms98-a-0065	B.116	397.684250	398.199500		[silence]	[silence]
sw2998B-ms98-a-0065	B.116	398.199500	398.729250		Surely	surely
sw2998B-ms98-a-0065	B.118	398.729250	399.362375		[silence]	[silence]
sw2998B-ms98-a-0066	B.118	399.362375	400.013125		[silence]	[silence]
sw2998B-ms98-a-0066	B.118	400.013125	400.364000		[vocalized-noise]	[vocalized-noise]
sw2998B-ms98-a-0066	B.118	400.364000	400.719625		something	something
sw2998B-ms98-a-0066	B.118	400.719625	401.169875		happen	happen
sw2998B-ms98-a-0066	B.118	401.169875	401.591625		[silence]	[silence]
sw2998B-ms98-a-0066	B.118	401.591625	401.883625		Right	right
sw2998B-ms98-a-0066	B.118	401.883625	402.102000		on	on
sw2998B-ms98-a-0066	B.118	402.102000	402.352375		thank	thank
sw2998B-ms98-a-0066	B.118	402.352375	402.672375		you	you
sw2998B-ms98-a-0066	B.120	402.672375	403.235125		Bye-bye	bye-bye
sw2998B-ms98-a-0066	B.120	403.235125	403.750875		[silence]	[silence]
sw2998B-ms98-a-0067	B.120	403.750875	403.998625		[silence]	[silence]
sw2998B-ms98-a-0067	B.120	403.998625	404.659500		[noise]	[noise]
sw2998B-ms98-a-0067	B.120	404.659500	405.944000		[silence]	[silence]
