sw2965B-ms98-a-0001	B.2	0.000000	0.080000		[silence]	[silence]
sw2965B-ms98-a-0001	B.2	0.080000	0.700000		[noise]	[noise]
sw2965B-ms98-a-0001	B.2	0.700000	1.163250		[silence]	[silence]
sw2965B-ms98-a-0002	B.2	1.163250	17.023750		[silence]	[silence]
sw2965B-ms98-a-0003	B.2	17.023750	17.513750		[silence]	[silence]
sw2965B-ms98-a-0003	B.2	17.513750	17.998125		Uh-huh	uh-huh
sw2965B-ms98-a-0003	B.4	17.998125	18.233250		[silence]	[silence]
sw2965B-ms98-a-0004	B.4	18.233250	18.341000		[silence]	[silence]
sw2965B-ms98-a-0004	B.4	18.341000	20.331500		[noise]	[noise]
sw2965B-ms98-a-0004	B.4	20.331500	32.819875		[silence]	[silence]
sw2965B-ms98-a-0005	B.4	32.819875	33.319875		[silence]	[silence]
sw2965B-ms98-a-0005	B.4	33.319875	33.745250		Uh-huh	uh-huh
sw2965B-ms98-a-0005	B.6	33.745250	34.159375		[silence]	[silence]
sw2965B-ms98-a-0006	B.6	34.159375	59.054750		[silence]	[silence]
sw2965B-ms98-a-0007	B.6	59.054750	59.714750		[silence]	[silence]
sw2965B-ms98-a-0007	B.6	59.714750	60.042750		Oh	oh
sw2965B-ms98-a-0007	B.6	60.042750	60.744750		no	no
sw2965B-ms98-a-0007	B.8	60.744750	61.308625		[laughter]	[laughter]
sw2965B-ms98-a-0007	B.8	61.308625	61.799125		[silence]	[silence]
sw2965B-ms98-a-0008	B.8	61.799125	62.269125		[silence]	[silence]
sw2965B-ms98-a-0008	B.8	62.269125	62.379125		How	how
sw2965B-ms98-a-0008	B.8	62.379125	62.609125		much	much
sw2965B-ms98-a-0008	B.8	62.609125	62.749125		was	was
sw2965B-ms98-a-0008	B.8	62.749125	62.829125		the	the
sw2965B-ms98-a-0008	B.8	62.829125	63.419125		alternator	alternator
sw2965B-ms98-a-0008	B.10	63.419125	63.881750		[silence]	[silence]
sw2965B-ms98-a-0009	B.10	63.881750	70.463250		[silence]	[silence]
sw2965B-ms98-a-0010	B.10	70.463250	70.923250		[silence]	[silence]
sw2965B-ms98-a-0010	B.10	70.923250	71.093250		Did	did
sw2965B-ms98-a-0010	B.10	71.093250	71.223250		he	he
sw2965B-ms98-a-0010	B.10	71.223250	71.403250		did	did
sw2965B-ms98-a-0010	B.10	71.403250	71.503250		he	he
sw2965B-ms98-a-0010	B.10	71.503250	71.763250		hook	hook
sw2965B-ms98-a-0010	B.10	71.763250	71.923250		up	up
sw2965B-ms98-a-0010	B.10	71.923250	72.043250		the	the
sw2965B-ms98-a-0010	B.10	72.043250	72.383250	<SUB>	wir-	wire
sw2965B-ms98-a-0010	B.10	72.383250	72.483250		[silence]	[silence]
sw2965B-ms98-a-0010	B.10	72.483250	72.913250		wiring	wiring
sw2965B-ms98-a-0010	B.10	72.913250	73.293250		wrong	wrong
sw2965B-ms98-a-0010	B.12	73.293250	73.782000		[silence]	[silence]
sw2965B-ms98-a-0011	B.12	73.782000	109.823750		[silence]	[silence]
sw2965B-ms98-a-0012	B.12	109.823750	110.213750		[silence]	[silence]
sw2965B-ms98-a-0012	B.12	110.213750	110.573750		Uh-huh	uh-huh
sw2965B-ms98-a-0012	B.14	110.573750	111.039500		[silence]	[silence]
sw2965B-ms98-a-0013	B.14	111.039500	162.134250		[silence]	[silence]
sw2965B-ms98-a-0014	B.14	162.134250	162.614250		[silence]	[silence]
sw2965B-ms98-a-0014	B.14	162.614250	162.964250		Uh-huh	uh-huh
sw2965B-ms98-a-0014	B.14	162.964250	163.054250		they	they
sw2965B-ms98-a-0014	B.14	163.054250	163.334250		probably	probably
sw2965B-ms98-a-0014	B.14	163.334250	163.564250		built	built
sw2965B-ms98-a-0014	B.14	163.564250	163.744250		that	that
sw2965B-ms98-a-0014	B.14	163.744250	163.894250		in	in
sw2965B-ms98-a-0014	B.14	163.894250	164.064250		so	so
sw2965B-ms98-a-0014	B.14	164.064250	164.154250		they	they
sw2965B-ms98-a-0014	B.14	164.154250	164.314250		could	could
sw2965B-ms98-a-0014	B.14	164.314250	164.494250		make	make
sw2965B-ms98-a-0014	B.14	164.494250	164.824250		money	money
sw2965B-ms98-a-0014	B.16	164.824250	165.307500		[silence]	[silence]
sw2965B-ms98-a-0015	B.16	165.307500	170.662750		[silence]	[silence]
sw2965B-ms98-a-0016	B.16	170.662750	171.142750		[silence]	[silence]
sw2965B-ms98-a-0016	B.16	171.142750	171.242750		Well	well
sw2965B-ms98-a-0016	B.16	171.242750	171.282750		I	i
sw2965B-ms98-a-0016	B.16	171.282750	171.402750		had	had
sw2965B-ms98-a-0016	B.16	171.402750	171.542750		a	a
sw2965B-ms98-a-0016	B.16	171.542750	171.792750		weird	weird
sw2965B-ms98-a-0016	B.16	171.792750	172.102750		[silence]	[silence]
sw2965B-ms98-a-0016	B.16	172.102750	172.302750		there's	there's
sw2965B-ms98-a-0016	B.16	172.302750	172.362750		a	a
sw2965B-ms98-a-0016	B.16	172.362750	172.632750		little	little
sw2965B-ms98-a-0016	B.16	172.632750	173.202750		sensing	sensing
sw2965B-ms98-a-0016	B.16	173.202750	173.992750		device	device
sw2965B-ms98-a-0016	B.16	173.992750	174.392750		[silence]	[silence]
sw2965B-ms98-a-0016	B.16	174.392750	174.612750		uh	uh
sw2965B-ms98-a-0016	B.16	174.612750	174.682750		in	in
sw2965B-ms98-a-0016	B.16	174.682750	174.882750		front	front
sw2965B-ms98-a-0016	B.16	174.882750	174.942750		of	of
sw2965B-ms98-a-0016	B.16	174.942750	175.352750		my	my
sw2965B-ms98-a-0016	B.16	175.352750	175.942875		[silence]	[silence]
sw2965B-ms98-a-0017	B.16	175.942875	176.512875		[silence]	[silence]
sw2965B-ms98-a-0017	B.16	176.512875	177.022875	<SUB>	uh	um
sw2965B-ms98-a-0017	B.16	177.022875	177.528125		[silence]	[silence]
sw2965B-ms98-a-0018	B.16	177.528125	178.605250		[silence]	[silence]
sw2965B-ms98-a-0019	B.16	178.605250	179.139250		[silence]	[silence]
sw2965B-ms98-a-0019	B.16	179.139250	179.425250		um	um
sw2965B-ms98-a-0019	B.16	179.425250	179.515250		I'm	i'm
sw2965B-ms98-a-0019	B.16	179.515250	179.705250		not	not
sw2965B-ms98-a-0019	B.16	179.705250	179.985500		sure	sure
sw2965B-ms98-a-0019	B.16	179.985500	180.170000		[silence]	[silence]
sw2965B-ms98-a-0019	B.16	180.170000	180.295250		right	right
sw2965B-ms98-a-0019	B.16	180.295250	180.362875		in	in
sw2965B-ms98-a-0019	B.16	180.362875	180.559125		front	front
sw2965B-ms98-a-0019	B.16	180.559125	180.597125		of	of
sw2965B-ms98-a-0019	B.16	180.597125	180.683375		the	the
sw2965B-ms98-a-0019	B.16	180.683375	180.919125		f-	f[an]-
sw2965B-ms98-a-0019	B.16	180.919125	181.182750		[silence]	[silence]
sw2965B-ms98-a-0019	B.16	181.182750	181.625250		fan	fan
sw2965B-ms98-a-0019	B.16	181.625250	181.935250		it's	it's
sw2965B-ms98-a-0019	B.16	181.935250	182.108000		a	a
sw2965B-ms98-a-0019	B.16	182.108000	182.330250		it's	it's
sw2965B-ms98-a-0019	B.16	182.330250	182.585250		an	an
sw2965B-ms98-a-0019	B.16	182.585250	182.705250		air	air
sw2965B-ms98-a-0019	B.16	182.705250	183.295250		conditioner	conditioner
sw2965B-ms98-a-0019	B.16	183.295250	183.715250		sensing	sensing
sw2965B-ms98-a-0019	B.16	183.715250	184.045250		device	device
sw2965B-ms98-a-0019	B.16	184.045250	184.095250		I	i
sw2965B-ms98-a-0019	B.16	184.095250	184.255250		don't	don't
sw2965B-ms98-a-0019	B.16	184.255250	184.345250		know	know
sw2965B-ms98-a-0019	B.16	184.345250	184.715250		why	why
sw2965B-ms98-a-0019	B.16	184.715250	185.565125		[silence]	[silence]
sw2965B-ms98-a-0020	B.16	185.565125	185.675125		[silence]	[silence]
sw2965B-ms98-a-0020	B.16	185.675125	185.755125		it	it
sw2965B-ms98-a-0020	B.16	185.755125	186.230500		actually	actually
sw2965B-ms98-a-0020	B.16	186.230500	186.899625		[silence]	[silence]
sw2965B-ms98-a-0020	B.16	186.899625	187.075125		there's	there's
sw2965B-ms98-a-0020	B.16	187.075125	187.125125		a	a
sw2965B-ms98-a-0020	B.16	187.125125	187.375125		metal	metal
sw2965B-ms98-a-0020	B.16	187.375125	187.655125		piece	piece
sw2965B-ms98-a-0020	B.16	187.655125	187.805125		that	that
sw2965B-ms98-a-0020	B.16	187.805125	188.145125		fits	fits
sw2965B-ms98-a-0020	B.16	188.145125	188.823375		through	through
sw2965B-ms98-a-0020	B.16	188.823375	189.328125		[silence]	[silence]
sw2965B-ms98-a-0020	B.16	189.328125	189.475125		the	the
sw2965B-ms98-a-0020	B.16	189.475125	190.139625		belts	belts
sw2965B-ms98-a-0020	B.16	190.139625	190.789500		[silence]	[silence]
sw2965B-ms98-a-0020	B.16	190.789500	191.275000		uh	uh
sw2965B-ms98-a-0020	B.16	191.275000	191.558500		[silence]	[silence]
sw2965B-ms98-a-0021	B.16	191.558500	192.178500		[silence]	[silence]
sw2965B-ms98-a-0021	B.16	192.178500	192.338500		and	and
sw2965B-ms98-a-0021	B.16	192.338500	192.638500		somehow	somehow
sw2965B-ms98-a-0021	B.16	192.638500	192.814750		that	that
sw2965B-ms98-a-0021	B.16	192.814750	193.082250		broke	broke
sw2965B-ms98-a-0021	B.16	193.082250	193.558500		off	off
sw2965B-ms98-a-0021	B.16	193.558500	194.399125		[silence]	[silence]
sw2965B-ms98-a-0022	B.16	194.399125	195.229125		[silence]	[silence]
sw2965B-ms98-a-0022	B.16	195.229125	195.729125		and	and
sw2965B-ms98-a-0022	B.16	195.729125	196.079500		uh	uh
sw2965B-ms98-a-0022	B.16	196.079500	196.772625		[silence]	[silence]
sw2965B-ms98-a-0022	B.16	196.772625	197.009125		I	i
sw2965B-ms98-a-0022	B.16	197.009125	197.049125		I	i
sw2965B-ms98-a-0022	B.16	197.049125	197.419125		still	still
sw2965B-ms98-a-0022	B.16	197.419125	197.659125		can't	can't
sw2965B-ms98-a-0022	B.16	197.659125	197.809125		figure	figure
sw2965B-ms98-a-0022	B.16	197.809125	197.959125		out	out
sw2965B-ms98-a-0022	B.16	197.959125	198.139125		how	how
sw2965B-ms98-a-0022	B.16	198.139125	198.209125		it	it
sw2965B-ms98-a-0022	B.16	198.209125	198.725750		broke	broke
sw2965B-ms98-a-0022	B.16	198.725750	199.373625		[silence]	[silence]
sw2965B-ms98-a-0022	B.16	199.373625	199.799125		and	and
sw2965B-ms98-a-0022	B.16	199.799125	199.999125		uh	uh
sw2965B-ms98-a-0022	B.16	199.999125	201.063250		[silence]	[silence]
sw2965B-ms98-a-0023	B.16	201.063250	201.553250		[silence]	[silence]
sw2965B-ms98-a-0023	B.16	201.553250	202.082750		anyway	anyway
sw2965B-ms98-a-0023	B.16	202.082750	202.384000		so	so
sw2965B-ms98-a-0023	B.16	202.384000	202.451125	<SUB>	a-	a
sw2965B-ms98-a-0023	B.16	202.451125	202.635625		[silence]	[silence]
sw2965B-ms98-a-0023	B.16	202.635625	202.913250		this	this
sw2965B-ms98-a-0023	B.16	202.913250	203.363250		piece	piece
sw2965B-ms98-a-0023	B.16	203.363250	204.072875		obviously	obviously
sw2965B-ms98-a-0023	B.16	204.072875	204.475875		um	um
sw2965B-ms98-a-0023	B.16	204.475875	204.553250		I	i
sw2965B-ms98-a-0023	B.16	204.553250	204.723250		have	have
sw2965B-ms98-a-0023	B.16	204.723250	204.783250		a	a
sw2965B-ms98-a-0023	B.16	204.783250	205.333250		Subaru	Subaru
sw2965B-ms98-a-0023	B.16	205.333250	205.643250		and	and
sw2965B-ms98-a-0023	B.16	205.643250	205.935750		uh	uh
sw2965B-ms98-a-0023	B.16	205.935750	206.490625		[silence]	[silence]
sw2965B-ms98-a-0024	B.16	206.490625	207.000625		[silence]	[silence]
sw2965B-ms98-a-0024	B.16	207.000625	207.193750		I	i
sw2965B-ms98-a-0024	B.16	207.193750	207.500625		think	think
sw2965B-ms98-a-0024	B.16	207.500625	207.600625		you	you
sw2965B-ms98-a-0024	B.16	207.600625	207.750625		can	can
sw2965B-ms98-a-0024	B.16	207.750625	207.970625		only	only
sw2965B-ms98-a-0024	B.16	207.970625	208.070625		get	get
sw2965B-ms98-a-0024	B.16	208.070625	208.190625		it	it
sw2965B-ms98-a-0024	B.16	208.190625	208.350625		through	through
sw2965B-ms98-a-0024	B.16	208.350625	208.730625		Subaru	Subaru
sw2965B-ms98-a-0024	B.16	208.730625	209.100625		dealer	dealer
sw2965B-ms98-a-0024	B.16	209.100625	209.580625		etcetera	etcetera
sw2965B-ms98-a-0024	B.16	209.580625	209.890625		so	so
sw2965B-ms98-a-0024	B.18	209.890625	210.810625		[silence]	[silence]
sw2965B-ms98-a-0025	B.18	210.810625	211.670625		[silence]	[silence]
sw2965B-ms98-a-0025	B.18	211.670625	212.159750		Uh	uh
sw2965B-ms98-a-0025	B.18	212.159750	212.291625		[silence]	[silence]
sw2965B-ms98-a-0025	B.18	212.291625	212.490625		this	this
sw2965B-ms98-a-0025	B.18	212.490625	212.650625		little	little
sw2965B-ms98-a-0025	B.18	212.650625	213.070625		sensing	sensing
sw2965B-ms98-a-0025	B.18	213.070625	213.410625		device	device
sw2965B-ms98-a-0025	B.18	213.410625	213.810625		costed	costed
sw2965B-ms98-a-0025	B.18	213.810625	214.080625		like	like
sw2965B-ms98-a-0025	B.18	214.080625	214.420625		sixty	sixty
sw2965B-ms98-a-0025	B.18	214.420625	215.482750		bucks	bucks
sw2965B-ms98-a-0025	B.20	215.482750	215.680625		[laughter]	[laughter]
sw2965B-ms98-a-0025	B.20	215.680625	215.842750		[silence]	[silence]
sw2965B-ms98-a-0026	B.20	215.842750	217.601375		[silence]	[silence]
sw2965B-ms98-a-0027	B.20	217.601375	218.121375		[silence]	[silence]
sw2965B-ms98-a-0027	B.20	218.121375	218.441375		And	and
sw2965B-ms98-a-0027	B.20	218.441375	218.721375		[silence]	[silence]
sw2965B-ms98-a-0027	B.20	218.721375	218.871375		and	and
sw2965B-ms98-a-0027	B.20	218.871375	218.911375		I	i
sw2965B-ms98-a-0027	B.20	218.911375	219.151375		haven't	haven't
sw2965B-ms98-a-0027	B.20	219.151375	219.301375		had	had
sw2965B-ms98-a-0027	B.20	219.301375	219.411375		too	too
sw2965B-ms98-a-0027	B.20	219.411375	219.531375		many	many
sw2965B-ms98-a-0027	B.20	219.531375	219.841375		problems	problems
sw2965B-ms98-a-0027	B.20	219.841375	219.951375		with	with
sw2965B-ms98-a-0027	B.20	219.951375	220.111375		my	my
sw2965B-ms98-a-0027	B.20	220.111375	220.391375		car	car
sw2965B-ms98-a-0027	B.20	220.391375	220.421375		I	i
sw2965B-ms98-a-0027	B.20	220.421375	220.561375		got	got
sw2965B-ms98-a-0027	B.20	220.561375	220.651375		a	a
sw2965B-ms98-a-0027	B.20	220.651375	221.041375	<CONT>	eighty-eight	eighty
sw2965B-ms98-a-0027	B.20	221.041375	221.191375	<CONT>	+++	eight
sw2965B-ms98-a-0027	B.20	221.191375	221.783875		Subaru	Subaru
sw2965B-ms98-a-0027	B.20	221.783875	222.073875		[silence]	[silence]
sw2965B-ms98-a-0027	B.20	222.073875	222.431375	<CONT>	G	GL
sw2965B-ms98-a-0027	B.20	222.431375	222.431375	<CONT>	L	+++
sw2965B-ms98-a-0027	B.20	222.431375	222.951375	<CONT>	X	XT
sw2965B-ms98-a-0027	B.20	222.951375	222.951375	<CONT>	T	+++
sw2965B-ms98-a-0027	B.20	222.951375	223.231375		and	and
sw2965B-ms98-a-0027	B.20	223.231375	223.461375		it	it
sw2965B-ms98-a-0027	B.22	223.461375	223.837125		uh	uh
sw2965B-ms98-a-0027	B.22	223.837125	224.646875		[silence]	[silence]
sw2965B-ms98-a-0028	B.22	224.646875	225.379750		[silence]	[silence]
sw2965B-ms98-a-0028	B.22	225.379750	225.446875	<DEL>	---	uh
sw2965B-ms98-a-0028	B.22	225.446875	225.536875		and	and
sw2965B-ms98-a-0028	B.22	225.536875	225.796875		then	then
sw2965B-ms98-a-0028	B.22	225.796875	225.896875		[silence]	[silence]
sw2965B-ms98-a-0028	B.22	225.896875	225.966875		you	you
sw2965B-ms98-a-0028	B.22	225.966875	226.126875		know	know
sw2965B-ms98-a-0028	B.22	226.126875	226.356875		just	just
sw2965B-ms98-a-0028	B.22	226.356875	226.686875		basic	basic
sw2965B-ms98-a-0028	B.22	226.686875	227.276875		maintenance	maintenance
sw2965B-ms98-a-0028	B.22	227.276875	227.806875		and	and
sw2965B-ms98-a-0028	B.22	227.806875	227.996875		oil	oil
sw2965B-ms98-a-0028	B.22	227.996875	228.466875		changes	changes
sw2965B-ms98-a-0028	B.22	228.466875	228.566875		an	an
sw2965B-ms98-a-0028	B.22	228.566875	228.788375		I	i
sw2965B-ms98-a-0028	B.22	228.788375	228.950375		[silence]	[silence]
sw2965B-ms98-a-0028	B.22	228.950375	229.076875		and	and
sw2965B-ms98-a-0028	B.22	229.076875	229.126875		I	i
sw2965B-ms98-a-0028	B.22	229.126875	229.346875		do	do
sw2965B-ms98-a-0028	B.22	229.346875	229.866375		not	not
sw2965B-ms98-a-0028	B.22	229.866375	230.589625		[silence]	[silence]
sw2965B-ms98-a-0028	B.22	230.589625	230.696875		do	do
sw2965B-ms98-a-0028	B.22	230.696875	230.896875		my	my
sw2965B-ms98-a-0028	B.22	230.896875	231.216875		oil	oil
sw2965B-ms98-a-0028	B.22	231.216875	231.726875		changes	changes
sw2965B-ms98-a-0028	B.22	231.726875	231.876875		and	and
sw2965B-ms98-a-0028	B.22	231.876875	231.946875		I	i
sw2965B-ms98-a-0028	B.22	231.946875	232.156875		will	will
sw2965B-ms98-a-0028	B.22	232.156875	232.366875		not	not
sw2965B-ms98-a-0028	B.22	232.366875	232.486875		do	do
sw2965B-ms98-a-0028	B.22	232.486875	232.656875		my	my
sw2965B-ms98-a-0028	B.22	232.656875	232.906875		oil	oil
sw2965B-ms98-a-0028	B.22	232.906875	233.406875		changes	changes
sw2965B-ms98-a-0028	B.22	233.406875	233.763500		I've	i've
sw2965B-ms98-a-0028	B.22	233.763500	234.587500		[silence]	[silence]
sw2965B-ms98-a-0029	B.22	234.587500	234.937500		[silence]	[silence]
sw2965B-ms98-a-0029	B.22	234.937500	235.008750		I	i
sw2965B-ms98-a-0029	B.22	235.008750	235.151000		think	think
sw2965B-ms98-a-0029	B.22	235.151000	235.207500		the	the
sw2965B-ms98-a-0029	B.22	235.207500	235.527500		first	first
sw2965B-ms98-a-0029	B.22	235.527500	235.737500		time	time
sw2965B-ms98-a-0029	B.22	235.737500	235.817500		I	i
sw2965B-ms98-a-0029	B.22	235.817500	236.097500		tried	tried
sw2965B-ms98-a-0029	B.22	236.097500	236.157500		to	to
sw2965B-ms98-a-0029	B.22	236.157500	236.357500		do	do
sw2965B-ms98-a-0029	B.22	236.357500	237.017500		one	one
sw2965B-ms98-a-0029	B.22	237.017500	237.017500	<INS>	and	---
sw2965B-ms98-a-0029	B.22	237.017500	237.663000		[silence]	[silence]
sw2965B-ms98-a-0030	B.22	237.663000	238.283000		[silence]	[silence]
sw2965B-ms98-a-0030	B.22	238.283000	238.563000		ended	ended
sw2965B-ms98-a-0030	B.22	238.563000	238.813000		up	up
sw2965B-ms98-a-0030	B.22	238.813000	239.223250		[silence]	[silence]
sw2965B-ms98-a-0031	B.22	239.223250	240.224375		[silence]	[silence]
sw2965B-ms98-a-0032	B.22	240.224375	240.634625		[silence]	[silence]
sw2965B-ms98-a-0032	B.22	240.634625	241.074375		um	um
sw2965B-ms98-a-0032	B.22	241.074375	241.304375		[silence]	[silence]
sw2965B-ms98-a-0032	B.22	241.304375	241.634375		trying	trying
sw2965B-ms98-a-0032	B.22	241.634375	241.734375		to	to
sw2965B-ms98-a-0032	B.22	241.734375	241.864375		ge-	ge[t]-
sw2965B-ms98-a-0032	B.22	241.864375	242.034375		uh	uh
sw2965B-ms98-a-0032	B.22	242.034375	242.264375	<SUB>	yo-	you
sw2965B-ms98-a-0032	B.22	242.264375	242.594375		borrowed	borrowed
sw2965B-ms98-a-0032	B.22	242.594375	242.824375		somebody	somebody
sw2965B-ms98-a-0032	B.22	242.824375	243.204375		else's	else's
sw2965B-ms98-a-0032	B.22	243.204375	243.694375		jack	jack
sw2965B-ms98-a-0032	B.22	243.694375	243.814375		and	and
sw2965B-ms98-a-0032	B.22	243.814375	243.874375		I	i
sw2965B-ms98-a-0032	B.22	243.874375	244.134375		did	did
sw2965B-ms98-a-0032	B.22	244.134375	244.484375		this	this
sw2965B-ms98-a-0032	B.22	244.484375	244.614375		and	and
sw2965B-ms98-a-0032	B.22	244.614375	244.822625		I	i
sw2965B-ms98-a-0032	B.22	244.822625	245.406375		[silence]	[silence]
sw2965B-ms98-a-0032	B.22	245.406375	245.644375		went	went
sw2965B-ms98-a-0032	B.22	245.644375	245.734375		and	and
sw2965B-ms98-a-0032	B.22	245.734375	245.984375		bought	bought
sw2965B-ms98-a-0032	B.22	245.984375	246.484375		everything	everything
sw2965B-ms98-a-0032	B.24	246.484375	246.837000		so	so
sw2965B-ms98-a-0032	B.24	246.837000	247.108125		[silence]	[silence]
sw2965B-ms98-a-0032	B.24	247.108125	247.384375		after	after
sw2965B-ms98-a-0032	B.24	247.384375	247.674375		buying	buying
sw2965B-ms98-a-0032	B.24	247.674375	247.744375		the	the
sw2965B-ms98-a-0032	B.24	247.744375	248.244375		filter	filter
sw2965B-ms98-a-0032	B.24	248.244375	248.404375		and	and
sw2965B-ms98-a-0032	B.24	248.404375	248.534375		all	all
sw2965B-ms98-a-0032	B.24	248.534375	248.614375		the	the
sw2965B-ms98-a-0032	B.24	248.614375	248.974375		oil	oil
sw2965B-ms98-a-0032	B.24	248.974375	249.114375		you're	you're
sw2965B-ms98-a-0032	B.24	249.114375	249.314375		looking	looking
sw2965B-ms98-a-0032	B.24	249.314375	249.474375		at	at
sw2965B-ms98-a-0032	B.24	249.474375	249.844375		[silence]	[silence]
sw2965B-ms98-a-0032	B.24	249.844375	250.094375		ten	ten
sw2965B-ms98-a-0032	B.24	250.094375	250.620875		bucks	bucks
sw2965B-ms98-a-0032	B.24	250.620875	250.767875		[silence]	[silence]
sw2965B-ms98-a-0032	B.24	250.767875	250.914375		at	at
sw2965B-ms98-a-0032	B.24	250.914375	251.344375		least	least
sw2965B-ms98-a-0032	B.26	251.344375	251.474375		or	or
sw2965B-ms98-a-0032	B.26	251.474375	251.804375		somewhere	somewhere
sw2965B-ms98-a-0032	B.26	251.804375	251.874375		in	in
sw2965B-ms98-a-0032	B.26	251.874375	252.164375		there	there
sw2965B-ms98-a-0032	B.26	252.164375	252.385750		an	an
sw2965B-ms98-a-0032	B.26	252.385750	253.095625		[silence]	[silence]
sw2965B-ms98-a-0033	B.26	253.095625	253.385625		[silence]	[silence]
sw2965B-ms98-a-0033	B.26	253.385625	253.804125		and	and
sw2965B-ms98-a-0033	B.26	253.804125	254.244125		uh	uh
sw2965B-ms98-a-0033	B.26	254.244125	254.435625		and	and
sw2965B-ms98-a-0033	B.26	254.435625	254.565625		then	then
sw2965B-ms98-a-0033	B.26	254.565625	254.635625		to	to
sw2965B-ms98-a-0033	B.26	254.635625	254.735625		go	go
sw2965B-ms98-a-0033	B.26	254.735625	254.835625		to	to
sw2965B-ms98-a-0033	B.26	254.835625	254.925625		the	the
sw2965B-ms98-a-0033	B.26	254.925625	255.535625		trouble	trouble
sw2965B-ms98-a-0033	B.26	255.535625	256.053750		[silence]	[silence]
sw2965B-ms98-a-0034	B.26	256.053750	256.493750		[silence]	[silence]
sw2965B-ms98-a-0034	B.26	256.493750	256.833750		that	that
sw2965B-ms98-a-0034	B.26	256.833750	256.921000		I	i
sw2965B-ms98-a-0034	B.26	256.921000	257.324500		figured	figured
sw2965B-ms98-a-0034	B.26	257.324500	257.680000		[silence]	[silence]
sw2965B-ms98-a-0035	B.26	257.680000	257.830000		[silence]	[silence]
sw2965B-ms98-a-0035	B.26	257.830000	258.140000		it's	it's
sw2965B-ms98-a-0035	B.26	258.140000	258.410000		[laughter]	[laughter]
sw2965B-ms98-a-0035	B.26	258.410000	258.730000		easier	easier
sw2965B-ms98-a-0035	B.26	258.730000	259.060000		spending	spending
sw2965B-ms98-a-0035	B.26	259.060000	259.390000		eighteen	eighteen
sw2965B-ms98-a-0035	B.26	259.390000	259.620000		bucks	bucks
sw2965B-ms98-a-0035	B.26	259.620000	259.700000		at	at
sw2965B-ms98-a-0035	B.26	259.700000	259.980000		Jiffy	Jiffy
sw2965B-ms98-a-0035	B.26	259.980000	260.270000		Lube	Lube
sw2965B-ms98-a-0035	B.28	260.270000	261.107750		[silence]	[silence]
sw2965B-ms98-a-0036	B.28	261.107750	261.457750		[silence]	[silence]
sw2965B-ms98-a-0036	B.28	261.457750	261.837750		So	so
sw2965B-ms98-a-0036	B.28	261.837750	262.097750		that	that
sw2965B-ms98-a-0036	B.28	262.097750	262.417750		that's	that's
sw2965B-ms98-a-0036	B.28	262.417750	262.817750		um	um
sw2965B-ms98-a-0036	B.28	262.817750	263.709500		[silence]	[silence]
sw2965B-ms98-a-0037	B.28	263.709500	263.999500		[silence]	[silence]
sw2965B-ms98-a-0037	B.28	263.999500	264.089500		you	you
sw2965B-ms98-a-0037	B.28	264.089500	264.359500		know	know
sw2965B-ms98-a-0037	B.28	264.359500	264.648000		[silence]	[silence]
sw2965B-ms98-a-0037	B.28	264.648000	264.903875		[noise]	[noise]
sw2965B-ms98-a-0037	B.28	264.903875	265.051875		as	as
sw2965B-ms98-a-0037	B.28	265.051875	265.159500		far	far
sw2965B-ms98-a-0037	B.28	265.159500	265.249500		as	as
sw2965B-ms98-a-0037	B.28	265.249500	265.574875		any	any
sw2965B-ms98-a-0037	B.28	265.574875	265.725500		[silence]	[silence]
sw2965B-ms98-a-0037	B.28	265.725500	266.169500		maintenance	maintenance
sw2965B-ms98-a-0037	B.28	266.169500	266.239500		on	on
sw2965B-ms98-a-0037	B.28	266.239500	266.399500		my	my
sw2965B-ms98-a-0037	B.28	266.399500	266.729500		car	car
sw2965B-ms98-a-0037	B.28	266.729500	266.949500	<SUB>	I	that
sw2965B-ms98-a-0037	B.28	266.949500	266.989500		I	i
sw2965B-ms98-a-0037	B.28	266.989500	267.319500		shy	shy
sw2965B-ms98-a-0037	B.28	267.319500	267.559500		away	away
sw2965B-ms98-a-0037	B.28	267.559500	267.886500		from	from
sw2965B-ms98-a-0037	B.28	267.886500	268.380000		[silence]	[silence]
sw2965B-ms98-a-0037	B.28	268.380000	268.509500		the	the
sw2965B-ms98-a-0037	B.28	268.509500	268.749500		oil	oil
sw2965B-ms98-a-0037	B.28	268.749500	269.149500		changes	changes
sw2965B-ms98-a-0037	B.28	269.149500	269.339500		that's	that's
sw2965B-ms98-a-0037	B.28	269.339500	269.429500		for	for
sw2965B-ms98-a-0037	B.28	269.429500	269.789500		sure	sure
sw2965B-ms98-a-0037	B.30	269.789500	270.260375		[silence]	[silence]
sw2965B-ms98-a-0038	B.30	270.260375	291.306000		[silence]	[silence]
sw2965B-ms98-a-0039	B.30	291.306000	291.916000		[silence]	[silence]
sw2965B-ms98-a-0039	B.30	291.916000	291.976000		How	how
sw2965B-ms98-a-0039	B.30	291.976000	292.106000		did	did
sw2965B-ms98-a-0039	B.30	292.106000	292.176000		you	you
sw2965B-ms98-a-0039	B.30	292.176000	292.356000		put	put
sw2965B-ms98-a-0039	B.30	292.356000	292.466000		that	that
sw2965B-ms98-a-0039	B.30	292.466000	292.586000		many	many
sw2965B-ms98-a-0039	B.30	292.586000	292.946000		miles	miles
sw2965B-ms98-a-0039	B.30	292.946000	293.126000		on	on
sw2965B-ms98-a-0039	B.30	293.126000	293.246000		it	it
sw2965B-ms98-a-0039	B.30	293.246000	293.576000		in	in
sw2965B-ms98-a-0039	B.32	293.576000	294.117500		[silence]	[silence]
sw2965B-ms98-a-0040	B.32	294.117500	294.678625		[silence]	[silence]
sw2965B-ms98-a-0040	B.32	294.678625	294.867500		four	four
sw2965B-ms98-a-0040	B.32	294.867500	294.947500		or	or
sw2965B-ms98-a-0040	B.32	294.947500	295.217500		five	five
sw2965B-ms98-a-0040	B.32	295.217500	295.657500		years	years
sw2965B-ms98-a-0040	B.34	295.657500	296.147750		[silence]	[silence]
sw2965B-ms98-a-0041	B.34	296.147750	303.248625		[silence]	[silence]
sw2965B-ms98-a-0042	B.34	303.248625	303.728625		[silence]	[silence]
sw2965B-ms98-a-0042	B.34	303.728625	303.898625		Oh	oh
sw2965B-ms98-a-0042	B.34	303.898625	303.928625		a	a
sw2965B-ms98-a-0042	B.34	303.928625	304.208625		hundred	hundred
sw2965B-ms98-a-0042	B.34	304.208625	304.298625		and	and
sw2965B-ms98-a-0042	B.34	304.298625	304.468625		forty	forty
sw2965B-ms98-a-0042	B.34	304.468625	304.708625		mile	mile
sw2965B-ms98-a-0042	B.34	304.708625	304.998625		trip	trip
sw2965B-ms98-a-0042	B.36	304.998625	305.429875		[silence]	[silence]
sw2965B-ms98-a-0043	B.36	305.429875	305.859875		[silence]	[silence]
sw2965B-ms98-a-0043	B.36	305.859875	306.126750		Oh	oh
sw2965B-ms98-a-0043	B.36	306.126750	306.371500		[silence]	[silence]
sw2965B-ms98-a-0043	B.36	306.371500	306.599875	<CONT>	thirty-five	thirty
sw2965B-ms98-a-0043	B.36	306.599875	306.819875	<CONT>	+++	five
sw2965B-ms98-a-0043	B.36	306.819875	307.079875		miles	miles
sw2965B-ms98-a-0043	B.36	307.079875	307.279875		each	each
sw2965B-ms98-a-0043	B.36	307.279875	307.534375		way	way
sw2965B-ms98-a-0043	B.38	307.534375	308.125750		[silence]	[silence]
sw2965B-ms98-a-0043	B.38	308.125750	308.313250		Yeah	yeah
sw2965B-ms98-a-0043	B.40	308.313250	308.789250		[silence]	[silence]
sw2965B-ms98-a-0044	B.40	308.789250	345.527125		[silence]	[silence]
sw2965B-ms98-a-0045	B.40	345.527125	346.337125		[silence]	[silence]
sw2965B-ms98-a-0045	B.40	346.337125	346.649625		Yeah	yeah
sw2965B-ms98-a-0045	B.42	346.649625	347.714000		[silence]	[silence]
sw2965B-ms98-a-0046	B.42	347.714000	359.216250		[silence]	[silence]
sw2965B-ms98-a-0047	B.42	359.216250	359.695625		[silence]	[silence]
sw2965B-ms98-a-0047	B.42	359.695625	360.115250		Uh-huh	uh-huh
sw2965B-ms98-a-0047	B.42	360.115250	360.405125		[silence]	[silence]
sw2965B-ms98-a-0047	B.42	360.405125	360.472875		Do	do
sw2965B-ms98-a-0047	B.42	360.472875	360.516250		you	you
sw2965B-ms98-a-0047	B.42	360.516250	360.676250		work	work
sw2965B-ms98-a-0047	B.42	360.676250	360.786250		for	for
sw2965B-ms98-a-0047	B.42	360.786250	361.230500	<CONT>	T	TI
sw2965B-ms98-a-0047	B.42	361.230500	361.230500	<CONT>	I	+++
sw2965B-ms98-a-0047	B.44	361.230500	361.902875		[silence]	[silence]
sw2965B-ms98-a-0048	B.44	361.902875	362.552875		[silence]	[silence]
sw2965B-ms98-a-0048	B.44	362.552875	363.072875		Okay	okay
sw2965B-ms98-a-0048	B.46	363.072875	363.930875		[silence]	[silence]
sw2965B-ms98-a-0049	B.46	363.930875	364.680875		[silence]	[silence]
sw2965B-ms98-a-0049	B.46	364.680875	364.810500		I	i
sw2965B-ms98-a-0049	B.46	364.810500	364.960875		was	was
sw2965B-ms98-a-0049	B.46	364.960875	365.090875		going	going
sw2965B-ms98-a-0049	B.46	365.090875	365.290875		to	to
sw2965B-ms98-a-0049	B.46	365.290875	365.510875		ask	ask
sw2965B-ms98-a-0049	B.46	365.510875	365.686250		you	you
sw2965B-ms98-a-0049	B.46	365.686250	366.394375		[silence]	[silence]
sw2965B-ms98-a-0049	B.46	366.394375	366.540875		you	you
sw2965B-ms98-a-0049	B.46	366.540875	366.640875		know	know
sw2965B-ms98-a-0049	B.46	366.640875	367.160875		as	as
sw2965B-ms98-a-0049	B.46	367.160875	367.310875		far	far
sw2965B-ms98-a-0049	B.46	367.310875	367.470875		as	as
sw2965B-ms98-a-0049	B.46	367.470875	367.610875		how	how
sw2965B-ms98-a-0049	B.46	367.610875	367.750875		we're	we're
sw2965B-ms98-a-0049	B.46	367.750875	368.210875		getting	getting
sw2965B-ms98-a-0049	B.46	368.210875	368.550875		[silence]	[silence]
sw2965B-ms98-a-0049	B.46	368.550875	369.250875		compensated	compensated
sw2965B-ms98-a-0049	B.46	369.250875	369.530875		for	for
sw2965B-ms98-a-0049	B.46	369.530875	369.670875		what	what
sw2965B-ms98-a-0049	B.46	369.670875	369.790875		we're	we're
sw2965B-ms98-a-0049	B.46	369.790875	370.030875		doing	doing
sw2965B-ms98-a-0049	B.46	370.030875	370.190875		right	right
sw2965B-ms98-a-0049	B.46	370.190875	370.500875		now	now
sw2965B-ms98-a-0049	B.46	370.500875	370.995875		[silence]	[silence]
sw2965B-ms98-a-0050	B.46	370.995875	371.455875		[silence]	[silence]
sw2965B-ms98-a-0050	B.46	371.455875	371.805875		um	um
sw2965B-ms98-a-0050	B.46	371.805875	371.935875		I	i
sw2965B-ms98-a-0050	B.46	371.935875	372.085875		don't	don't
sw2965B-ms98-a-0050	B.46	372.085875	372.235875		work	work
sw2965B-ms98-a-0050	B.46	372.235875	372.355875		for	for
sw2965B-ms98-a-0050	B.46	372.355875	372.945875	<CONT>	T	TI
sw2965B-ms98-a-0050	B.46	372.945875	372.945875	<CONT>	I	+++
sw2965B-ms98-a-0050	B.46	372.945875	373.243500		[silence]	[silence]
sw2965B-ms98-a-0050	B.46	373.243500	373.545875		and	and
sw2965B-ms98-a-0050	B.46	373.545875	373.688250		I'm	i'm
sw2965B-ms98-a-0050	B.46	373.688250	373.989625		just	just
sw2965B-ms98-a-0050	B.46	373.989625	374.145875		I	i
sw2965B-ms98-a-0050	B.46	374.145875	374.375875		get	get
sw2965B-ms98-a-0050	B.46	374.375875	374.806750		these	these
sw2965B-ms98-a-0050	B.46	374.806750	375.315125		[silence]	[silence]
sw2965B-ms98-a-0050	B.46	375.315125	375.985875		green	green
sw2965B-ms98-a-0050	B.46	375.985875	376.633375		[silence]	[silence]
sw2965B-ms98-a-0051	B.46	376.633375	377.163375		[silence]	[silence]
sw2965B-ms98-a-0051	B.46	377.163375	377.306375		I	i
sw2965B-ms98-a-0051	B.46	377.306375	377.413375		don't	don't
sw2965B-ms98-a-0051	B.46	377.413375	377.493375		know	know
sw2965B-ms98-a-0051	B.46	377.493375	377.643375		what	what
sw2965B-ms98-a-0051	B.46	377.643375	377.703375		you	you
sw2965B-ms98-a-0051	B.46	377.703375	377.823375		want	want
sw2965B-ms98-a-0051	B.46	377.823375	377.883375		to	to
sw2965B-ms98-a-0051	B.46	377.883375	378.163375		call	call
sw2965B-ms98-a-0051	B.46	378.163375	378.323375		them	them
sw2965B-ms98-a-0051	B.46	378.323375	378.523375		[silence]	[silence]
sw2965B-ms98-a-0051	B.46	378.523375	378.823375		fake	fake
sw2965B-ms98-a-0051	B.48	378.823375	379.276250		[silence]	[silence]
sw2965B-ms98-a-0052	B.48	379.276250	380.387375		[silence]	[silence]
sw2965B-ms98-a-0053	B.48	380.387375	380.787375		[silence]	[silence]
sw2965B-ms98-a-0053	B.48	380.787375	381.217375		point	point
sw2965B-ms98-a-0053	B.48	381.217375	381.862000		things	things
sw2965B-ms98-a-0053	B.50	381.862000	382.475125		[silence]	[silence]
sw2965B-ms98-a-0054	B.50	382.475125	382.795125		[silence]	[silence]
sw2965B-ms98-a-0054	B.50	382.795125	383.165125		and	and
sw2965B-ms98-a-0054	B.50	383.165125	383.335125		uh	uh
sw2965B-ms98-a-0054	B.50	383.335125	383.405125		I	i
sw2965B-ms98-a-0054	B.50	383.405125	383.585125		just	just
sw2965B-ms98-a-0054	B.50	383.585125	384.075125		wondering	wondering
sw2965B-ms98-a-0054	B.50	384.075125	384.705125		[silence]	[silence]
sw2965B-ms98-a-0054	B.50	384.705125	384.955125		how	how
sw2965B-ms98-a-0054	B.50	384.955125	385.035125		I	i
sw2965B-ms98-a-0054	B.50	385.035125	385.195125		go	go
sw2965B-ms98-a-0054	B.50	385.195125	385.555125		about	about
sw2965B-ms98-a-0054	B.50	385.555125	385.859875		[silence]	[silence]
sw2965B-ms98-a-0055	B.50	385.859875	386.179875		[silence]	[silence]
sw2965B-ms98-a-0055	B.50	386.179875	386.459875		getting	getting
sw2965B-ms98-a-0055	B.50	386.459875	386.539875	<SUB>	the	my
sw2965B-ms98-a-0055	B.50	386.539875	387.099875		cash	cash
sw2965B-ms98-a-0055	B.52	387.099875	388.373250		[laughter]	[laughter]
sw2965B-ms98-a-0055	B.52	388.373250	388.838125		[silence]	[silence]
sw2965B-ms98-a-0056	B.52	388.838125	392.625500		[silence]	[silence]
sw2965B-ms98-a-0057	B.52	392.625500	393.115500		[silence]	[silence]
sw2965B-ms98-a-0057	B.52	393.115500	393.295500		Oh	oh
sw2965B-ms98-a-0057	B.52	393.295500	393.695500		okay	okay
sw2965B-ms98-a-0057	B.54	393.695500	394.188875		[silence]	[silence]
sw2965B-ms98-a-0058	B.54	394.188875	403.243500		[silence]	[silence]
sw2965B-ms98-a-0059	B.54	403.243500	403.703500		[silence]	[silence]
sw2965B-ms98-a-0059	B.54	403.703500	404.223500		Okay	okay
sw2965B-ms98-a-0059	B.56	404.223500	404.645750		[silence]	[silence]
sw2965B-ms98-a-0060	B.56	404.645750	407.100875		[silence]	[silence]
sw2965B-ms98-a-0061	B.56	407.100875	407.580875		[silence]	[silence]
sw2965B-ms98-a-0061	B.56	407.580875	408.152625		Okay	okay
sw2965B-ms98-a-0061	B.56	408.152625	408.736375		[silence]	[silence]
sw2965B-ms98-a-0062	B.56	408.736375	409.476375		[silence]	[silence]
sw2965B-ms98-a-0062	B.56	409.476375	409.536375		all	all
sw2965B-ms98-a-0062	B.56	409.536375	409.846375		right	right
sw2965B-ms98-a-0062	B.56	409.846375	410.016375		[silence]	[silence]
sw2965B-ms98-a-0062	B.56	410.016375	410.166375		well	well
sw2965B-ms98-a-0062	B.56	410.166375	410.366375		that's	that's
sw2965B-ms98-a-0062	B.56	410.366375	410.546375		good	good
sw2965B-ms98-a-0062	B.56	410.546375	410.726375		to	to
sw2965B-ms98-a-0062	B.56	410.726375	410.898000		know	know
sw2965B-ms98-a-0062	B.56	410.898000	411.026125		[silence]	[silence]
sw2965B-ms98-a-0062	B.56	411.026125	411.116375		I	i
sw2965B-ms98-a-0062	B.56	411.116375	411.316375		haven't	haven't
sw2965B-ms98-a-0062	B.56	411.316375	411.476375		been	been
sw2965B-ms98-a-0062	B.56	411.476375	411.716375		doing	doing
sw2965B-ms98-a-0062	B.56	411.716375	411.746375		th-	th[is]-
sw2965B-ms98-a-0062	B.56	411.746375	411.876375		this	this
sw2965B-ms98-a-0062	B.56	411.876375	411.936375		is	is
sw2965B-ms98-a-0062	B.56	411.936375	411.996375		the	the
sw2965B-ms98-a-0062	B.56	411.996375	412.256375		first	first
sw2965B-ms98-a-0062	B.56	412.256375	412.376375		time	time
sw2965B-ms98-a-0062	B.56	412.376375	412.526375		I've	i've
sw2965B-ms98-a-0062	B.56	412.526375	412.686375		been	been
sw2965B-ms98-a-0062	B.56	412.686375	413.046375		called	called
sw2965B-ms98-a-0062	B.56	413.046375	413.146375		in	in
sw2965B-ms98-a-0062	B.56	413.146375	413.176375		a	a
sw2965B-ms98-a-0062	B.56	413.176375	413.446375		long	long
sw2965B-ms98-a-0062	B.56	413.446375	413.716375		time	time
sw2965B-ms98-a-0062	B.56	413.716375	413.826375		and	and
sw2965B-ms98-a-0062	B.56	413.826375	413.866375		I	i
sw2965B-ms98-a-0062	B.56	413.866375	414.146375		haven't	haven't
sw2965B-ms98-a-0062	B.56	414.146375	414.296375		been	been
sw2965B-ms98-a-0062	B.56	414.296375	414.536375		doing	doing
sw2965B-ms98-a-0062	B.56	414.536375	414.687500		it	it
sw2965B-ms98-a-0062	B.56	414.687500	414.966250		[silence]	[silence]
sw2965B-ms98-a-0062	B.56	414.966250	415.340625		so	so
sw2965B-ms98-a-0062	B.58	415.340625	416.255000		[silence]	[silence]
sw2965B-ms98-a-0063	B.58	416.255000	416.645000		[silence]	[silence]
sw2965B-ms98-a-0063	B.58	416.645000	416.985000		And	and
sw2965B-ms98-a-0063	B.58	416.985000	417.172250		uh	uh
sw2965B-ms98-a-0063	B.58	417.172250	417.563875		[silence]	[silence]
sw2965B-ms98-a-0063	B.58	417.563875	417.785000		I've	i've
sw2965B-ms98-a-0063	B.58	417.785000	417.965000		done	done
sw2965B-ms98-a-0063	B.58	417.965000	418.025000		it	it
sw2965B-ms98-a-0063	B.58	418.025000	418.381875		maybe	maybe
sw2965B-ms98-a-0063	B.58	418.381875	418.705000		twelve	twelve
sw2965B-ms98-a-0063	B.58	418.705000	419.352125		times	times
sw2965B-ms98-a-0063	B.60	419.352125	419.352125	<INS>	Well	---
sw2965B-ms98-a-0063	B.60	419.352125	419.352125	<INS>	I	---
sw2965B-ms98-a-0063	B.60	419.352125	419.352125	<INS>	don't	---
sw2965B-ms98-a-0063	B.60	419.352125	419.352125	<INS>	know	---
sw2965B-ms98-a-0063	B.60	419.352125	419.352125	<INS>	if	---
sw2965B-ms98-a-0063	B.60	419.352125	419.352125	<INS>	I've	---
sw2965B-ms98-a-0063	B.60	419.352125	419.352125	<INS>	done	---
sw2965B-ms98-a-0063	B.60	419.352125	419.352125	<INS>	it	---
sw2965B-ms98-a-0063	B.60	419.352125	419.352125	<INS>	quite	---
sw2965B-ms98-a-0063	B.60	419.352125	419.352125	<INS>	that	---
sw2965B-ms98-a-0063	B.60	419.352125	419.352125	<INS>	much	---
sw2965B-ms98-a-0063	B.60	419.352125	419.352125	<INS>	but	---
sw2965B-ms98-a-0063	B.60	419.352125	419.352125	<INS>	uh	---
sw2965B-ms98-a-0063	B.60	419.352125	419.352125	<INS>	mine	---
sw2965B-ms98-a-0063	B.60	419.352125	419.352125	<INS>	is	---
sw2965B-ms98-a-0063	B.60	419.352125	419.352125	<INS>	mixed	---
sw2965B-ms98-a-0063	B.60	419.352125	419.352125	<INS>	up	---
sw2965B-ms98-a-0063	B.60	419.352125	419.352125	<INS>	too	---
sw2965B-ms98-a-0063	B.60	419.352125	419.352125	<INS>	I	---
sw2965B-ms98-a-0063	B.60	419.352125	419.352125	<INS>	have	---
sw2965B-ms98-a-0063	B.60	419.352125	419.352125	<INS>	to	---
sw2965B-ms98-a-0063	B.60	419.352125	419.352125	<INS>	call	---
sw2965B-ms98-a-0063	B.60	419.352125	419.352125	<INS>	and	---
sw2965B-ms98-a-0063	B.60	419.352125	419.352125	<INS>	get	---
sw2965B-ms98-a-0063	B.60	419.352125	419.352125	<INS>	it	---
sw2965B-ms98-a-0063	B.60	419.352125	419.352125	<INS>	fixed	---
sw2965B-ms98-a-0063	B.62	419.352125	419.792500		[silence]	[silence]
sw2965B-ms98-a-0064	B.62	419.792500	437.793500		[silence]	[silence]
sw2965B-ms98-a-0065	B.62	437.793500	438.293500		[silence]	[silence]
sw2965B-ms98-a-0065	B.62	438.293500	438.703500		Uh-huh	uh-huh
sw2965B-ms98-a-0065	B.64	438.703500	439.206125		[silence]	[silence]
sw2965B-ms98-a-0066	B.64	439.206125	483.015375		[silence]	[silence]
sw2965B-ms98-a-0067	B.64	483.015375	483.499500		[silence]	[silence]
sw2965B-ms98-a-0067	B.64	483.499500	483.904125		Huh	huh
sw2965B-ms98-a-0067	B.64	483.904125	484.714500		[silence]	[silence]
sw2965B-ms98-a-0068	B.64	484.714500	485.519875		[silence]	[silence]
sw2965B-ms98-a-0068	B.64	485.519875	485.764500		oh	oh
sw2965B-ms98-a-0068	B.64	485.764500	486.174500		well	well
sw2965B-ms98-a-0068	B.66	486.174500	486.296000		[silence]	[silence]
sw2965B-ms98-a-0069	B.66	486.296000	487.016000		[silence]	[silence]
sw2965B-ms98-a-0069	B.66	487.016000	487.206000		I	i
sw2965B-ms98-a-0069	B.66	487.206000	487.406000		was	was
sw2965B-ms98-a-0069	B.66	487.406000	487.826000		driving	driving
sw2965B-ms98-a-0069	B.66	487.826000	488.076000		a	a
sw2965B-ms98-a-0069	B.66	488.076000	488.586000	<CONT>	sixty-six	sixty
sw2965B-ms98-a-0069	B.66	488.586000	488.976000	<CONT>	+++	six
sw2965B-ms98-a-0069	B.66	488.976000	489.486000		Plymouth	Plymouth
sw2965B-ms98-a-0069	B.66	489.486000	490.126000		Fury	Fury
sw2965B-ms98-a-0069	B.68	490.126000	490.620000		[silence]	[silence]
sw2965B-ms98-a-0070	B.68	490.620000	492.346375		[silence]	[silence]
sw2965B-ms98-a-0071	B.68	492.346375	492.886375		[silence]	[silence]
sw2965B-ms98-a-0071	B.68	492.886375	493.126375		Yeah	yeah
sw2965B-ms98-a-0071	B.68	493.126375	493.939625		[silence]	[silence]
sw2965B-ms98-a-0072	B.68	493.939625	494.637500		[silence]	[silence]
sw2965B-ms98-a-0072	B.68	494.637500	494.959375	<SUB>	yeah	yep
sw2965B-ms98-a-0072	B.68	494.959375	495.449625		and	and
sw2965B-ms98-a-0072	B.70	495.449625	495.738625		[silence]	[silence]
sw2965B-ms98-a-0073	B.70	495.738625	500.524125		[silence]	[silence]
sw2965B-ms98-a-0074	B.70	500.524125	501.084125		[silence]	[silence]
sw2965B-ms98-a-0074	B.70	501.084125	501.284125		Oh	oh
sw2965B-ms98-a-0074	B.70	501.284125	501.534125		tha-	tha[t]-
sw2965B-ms98-a-0074	B.70	501.534125	501.874125		that's	that's
sw2965B-ms98-a-0074	B.70	501.874125	502.014125		when	when
sw2965B-ms98-a-0074	B.70	502.014125	502.104125		they	they
sw2965B-ms98-a-0074	B.70	502.104125	502.324125		made	made
sw2965B-ms98-a-0074	B.70	502.324125	502.664125		cars	cars
sw2965B-ms98-a-0074	B.70	502.664125	502.754125		though	though
sw2965B-ms98-a-0074	B.70	502.754125	502.944125		this	this
sw2965B-ms98-a-0074	B.70	502.944125	503.144125		things	things
sw2965B-ms98-a-0074	B.70	503.144125	503.591750		was	was
sw2965B-ms98-a-0074	B.70	503.591750	503.881750		[silence]	[silence]
sw2965B-ms98-a-0074	B.70	503.881750	503.964125		the	the
sw2965B-ms98-a-0074	B.70	503.964125	504.374125		body	body
sw2965B-ms98-a-0074	B.70	504.374125	504.614125		was	was
sw2965B-ms98-a-0074	B.70	504.614125	504.864125		in	in
sw2965B-ms98-a-0074	B.70	504.864125	505.174125		good	good
sw2965B-ms98-a-0074	B.70	505.174125	505.754125		condition	condition
sw2965B-ms98-a-0074	B.70	505.754125	505.999250		and	and
sw2965B-ms98-a-0074	B.70	505.999250	506.692625		[silence]	[silence]
sw2965B-ms98-a-0074	B.70	506.692625	507.144125		[vocalized-noise]	[vocalized-noise]
sw2965B-ms98-a-0074	B.70	507.144125	507.344125		you	you
sw2965B-ms98-a-0074	B.70	507.344125	507.514125		know	know
sw2965B-ms98-a-0074	B.70	507.514125	507.854125		it	it
sw2965B-ms98-a-0074	B.70	507.854125	508.124125		ran	ran
sw2965B-ms98-a-0074	B.70	508.124125	508.444125		fine	fine
sw2965B-ms98-a-0074	B.70	508.444125	508.724125		It	it
sw2965B-ms98-a-0074	B.70	508.724125	508.934125		was	was
sw2965B-ms98-a-0074	B.70	508.934125	509.214125		starting	starting
sw2965B-ms98-a-0074	B.70	509.214125	509.274125		to	to
sw2965B-ms98-a-0074	B.70	509.274125	509.524125		burn	burn
sw2965B-ms98-a-0074	B.70	509.524125	509.694125		some	some
sw2965B-ms98-a-0074	B.70	509.694125	510.187625		oil	oil
sw2965B-ms98-a-0074	B.72	510.187625	510.496375		[silence]	[silence]
sw2965B-ms98-a-0075	B.72	510.496375	512.091375		[silence]	[silence]
sw2965B-ms98-a-0076	B.72	512.091375	512.521375		[silence]	[silence]
sw2965B-ms98-a-0076	B.72	512.521375	513.001375		And	and
sw2965B-ms98-a-0076	B.72	513.001375	513.251375		um	um
sw2965B-ms98-a-0076	B.72	513.251375	513.990875		[silence]	[silence]
sw2965B-ms98-a-0077	B.72	513.990875	514.610875		[silence]	[silence]
sw2965B-ms98-a-0077	B.72	514.610875	514.890875		but	but
sw2965B-ms98-a-0077	B.72	514.890875	515.000875		[silence]	[silence]
sw2965B-ms98-a-0077	B.72	515.000875	515.090875		I	i
sw2965B-ms98-a-0077	B.72	515.090875	515.330875		had	had
sw2965B-ms98-a-0077	B.72	515.330875	515.628500		to	to
sw2965B-ms98-a-0077	B.72	515.628500	516.115250		[silence]	[silence]
sw2965B-ms98-a-0078	B.72	516.115250	517.153125		[silence]	[silence]
sw2965B-ms98-a-0079	B.72	517.153125	517.513000		[silence]	[silence]
sw2965B-ms98-a-0079	B.72	517.513000	517.747000		you	you
sw2965B-ms98-a-0079	B.72	517.747000	518.051000		know	know
sw2965B-ms98-a-0079	B.72	518.051000	518.508500		[silence]	[silence]
sw2965B-ms98-a-0079	B.72	518.508500	518.836250		ge-	ge[t]-
sw2965B-ms98-a-0079	B.72	518.836250	518.973125		you	you
sw2965B-ms98-a-0079	B.72	518.973125	519.113125		know	know
sw2965B-ms98-a-0079	B.72	519.113125	519.333125		I	i
sw2965B-ms98-a-0079	B.72	519.333125	519.764625		[silence]	[silence]
sw2965B-ms98-a-0080	B.72	519.764625	521.042875		[silence]	[silence]
sw2965B-ms98-a-0081	B.72	521.042875	521.372875		[silence]	[silence]
sw2965B-ms98-a-0081	B.72	521.372875	521.812875		after	after
sw2965B-ms98-a-0081	B.72	521.812875	522.062875		about	about
sw2965B-ms98-a-0081	B.72	522.062875	522.292875		thr-	thr[ee]-
sw2965B-ms98-a-0081	B.72	522.292875	522.522875		[silence]	[silence]
sw2965B-ms98-a-0081	B.72	522.522875	522.732875		couple	couple
sw2965B-ms98-a-0081	B.72	522.732875	522.792875		of	of
sw2965B-ms98-a-0081	B.72	522.792875	523.022875		months	months
sw2965B-ms98-a-0081	B.72	523.022875	523.222875		after	after
sw2965B-ms98-a-0081	B.72	523.222875	523.252875		I	i
sw2965B-ms98-a-0081	B.72	523.252875	523.372875		was	was
sw2965B-ms98-a-0081	B.72	523.372875	523.472875		out	out
sw2965B-ms98-a-0081	B.72	523.472875	523.542875		of	of
sw2965B-ms98-a-0081	B.72	523.542875	523.972875		college	college
sw2965B-ms98-a-0081	B.72	523.972875	524.022875		I	i
sw2965B-ms98-a-0081	B.72	524.022875	524.472875		finally	finally
sw2965B-ms98-a-0081	B.72	524.472875	525.572875		splurged	splurged
sw2965B-ms98-a-0081	B.72	525.572875	525.662875		and	and
sw2965B-ms98-a-0081	B.72	525.662875	525.832875		bought	bought
sw2965B-ms98-a-0081	B.72	525.832875	525.962875		my	my
sw2965B-ms98-a-0081	B.72	525.962875	526.372875		car	car
sw2965B-ms98-a-0081	B.72	526.372875	526.674625		so	so
sw2965B-ms98-a-0081	B.74	526.674625	527.034000		[silence]	[silence]
sw2965B-ms98-a-0082	B.74	527.034000	536.386250		[silence]	[silence]
sw2965B-ms98-a-0083	B.74	536.386250	536.876250		[silence]	[silence]
sw2965B-ms98-a-0083	B.74	536.876250	537.215375		Yeah	yeah
sw2965B-ms98-a-0083	B.74	537.215375	537.852375		[silence]	[silence]
sw2965B-ms98-a-0084	B.74	537.852375	538.552375		[silence]	[silence]
sw2965B-ms98-a-0084	B.74	538.552375	538.802375		well	well
sw2965B-ms98-a-0084	B.74	538.802375	538.922375		you	you
sw2965B-ms98-a-0084	B.74	538.922375	539.072375		know	know
sw2965B-ms98-a-0084	B.74	539.072375	539.482500		these	these
sw2965B-ms98-a-0084	B.74	539.482500	539.482500	<INS>	these	---
sw2965B-ms98-a-0084	B.74	539.482500	540.188375		[silence]	[silence]
sw2965B-ms98-a-0085	B.74	540.188375	540.908375		[silence]	[silence]
sw2965B-ms98-a-0085	B.74	540.908375	541.248375		cars	cars
sw2965B-ms98-a-0085	B.74	541.248375	541.488375		made	made
sw2965B-ms98-a-0085	B.74	541.488375	541.548375		in	in
sw2965B-ms98-a-0085	B.74	541.548375	541.608375		the	the
sw2965B-ms98-a-0085	B.74	541.608375	542.128375		sixties	sixties
sw2965B-ms98-a-0085	B.74	542.128375	542.259250		and	and
sw2965B-ms98-a-0085	B.74	542.259250	542.700000		stuff	stuff
sw2965B-ms98-a-0085	B.74	542.700000	542.819875		I	i
sw2965B-ms98-a-0085	B.74	542.819875	543.038375		mean	mean
sw2965B-ms98-a-0085	B.74	543.038375	543.598375		[silence]	[silence]
sw2965B-ms98-a-0085	B.74	543.598375	543.731375		the	the
sw2965B-ms98-a-0085	B.74	543.731375	544.428375		steel	steel
sw2965B-ms98-a-0085	B.74	544.428375	544.514875		I	i
sw2965B-ms98-a-0085	B.74	544.514875	544.738375		mean	mean
sw2965B-ms98-a-0085	B.74	544.738375	544.808375		the	the
sw2965B-ms98-a-0085	B.74	544.808375	545.488375		thickness	thickness
sw2965B-ms98-a-0085	B.74	545.488375	545.558375		I	i
sw2965B-ms98-a-0085	B.74	545.558375	546.018375		mean	mean
sw2965B-ms98-a-0085	B.74	546.018375	546.148375	<SUB>	i-	it
sw2965B-ms98-a-0085	B.74	546.148375	546.388375		those	those
sw2965B-ms98-a-0085	B.74	546.388375	546.758375	<SUB>	thin-	thing
sw2965B-ms98-a-0085	B.74	546.758375	546.918375		they're	they're
sw2965B-ms98-a-0085	B.74	546.918375	547.388375		just	just
sw2965B-ms98-a-0085	B.74	547.388375	547.656000		[silence]	[silence]
sw2965B-ms98-a-0086	B.74	547.656000	548.432625		[silence]	[silence]
sw2965B-ms98-a-0086	B.74	548.432625	548.786750		th-	th[e]-
sw2965B-ms98-a-0086	B.74	548.786750	549.193500		[silence]	[silence]
sw2965B-ms98-a-0086	B.74	549.193500	549.346000		you	you
sw2965B-ms98-a-0086	B.74	549.346000	549.506000		just	just
sw2965B-ms98-a-0086	B.74	549.506000	549.716000		don't	don't
sw2965B-ms98-a-0086	B.74	549.716000	549.876000		see	see
sw2965B-ms98-a-0086	B.74	549.876000	550.256000		cars	cars
sw2965B-ms98-a-0086	B.74	550.256000	550.456000		like	like
sw2965B-ms98-a-0086	B.74	550.456000	550.726000		that	that
sw2965B-ms98-a-0086	B.76	550.726000	551.266000		[silence]	[silence]
sw2965B-ms98-a-0086	B.76	551.266000	551.716000		And	and
sw2965B-ms98-a-0086	B.76	551.716000	551.856000		they	they
sw2965B-ms98-a-0086	B.76	551.856000	552.246000		last	last
sw2965B-ms98-a-0086	B.76	552.246000	552.296000		a	a
sw2965B-ms98-a-0086	B.76	552.296000	552.546000		long	long
sw2965B-ms98-a-0086	B.76	552.546000	553.017000		time	time
sw2965B-ms98-a-0086	B.76	553.017000	553.431375		[silence]	[silence]
sw2965B-ms98-a-0086	B.76	553.431375	553.556000		And	and
sw2965B-ms98-a-0086	B.76	553.556000	553.616000		they	they
sw2965B-ms98-a-0086	B.76	553.616000	553.726000		were	were
sw2965B-ms98-a-0086	B.76	553.726000	554.176000		simple	simple
sw2965B-ms98-a-0086	B.76	554.176000	554.446000		too	too
sw2965B-ms98-a-0086	B.76	554.446000	554.536000		the	the
sw2965B-ms98-a-0086	B.76	554.536000	554.976000		engines	engines
sw2965B-ms98-a-0086	B.76	554.976000	555.423000		were	were
sw2965B-ms98-a-0086	B.76	555.423000	555.909000		[silence]	[silence]
sw2965B-ms98-a-0086	B.76	555.909000	556.506000		simple	simple
sw2965B-ms98-a-0086	B.76	556.506000	556.899250		and	and
sw2965B-ms98-a-0086	B.76	556.899250	557.351250		[silence]	[silence]
sw2965B-ms98-a-0086	B.76	557.351250	558.086000		durable	durable
sw2965B-ms98-a-0086	B.76	558.086000	558.296000		and	and
sw2965B-ms98-a-0086	B.78	558.296000	559.323625		[silence]	[silence]
sw2965B-ms98-a-0087	B.78	559.323625	559.903625		[silence]	[silence]
sw2965B-ms98-a-0087	B.78	559.903625	560.113625		some	some
sw2965B-ms98-a-0087	B.78	560.113625	560.363625		people	people
sw2965B-ms98-a-0087	B.78	560.363625	560.453625		will	will
sw2965B-ms98-a-0087	B.78	560.453625	560.623625		still	still
sw2965B-ms98-a-0087	B.78	560.623625	560.843750		buy	buy
sw2965B-ms98-a-0087	B.78	560.843750	561.017000		them	them
sw2965B-ms98-a-0087	B.78	561.017000	561.183625		you	you
sw2965B-ms98-a-0087	B.78	561.183625	561.472250		know	know
sw2965B-ms98-a-0087	B.78	561.472250	561.973625		they'll	they'll
sw2965B-ms98-a-0087	B.80	561.973625	562.471500		[silence]	[silence]
sw2965B-ms98-a-0088	B.80	562.471500	583.432750		[silence]	[silence]
sw2965B-ms98-a-0089	B.80	583.432750	583.654250		[silence]	[silence]
sw2965B-ms98-a-0089	B.80	583.654250	584.154250		[noise]	[noise]
sw2965B-ms98-a-0089	B.80	584.154250	584.277875		It	it
sw2965B-ms98-a-0089	B.80	584.277875	584.612750	<SUB>	almost	always
sw2965B-ms98-a-0089	B.80	584.612750	584.952750		costs	costs
sw2965B-ms98-a-0089	B.80	584.952750	585.062750		so	so
sw2965B-ms98-a-0089	B.80	585.062750	585.312750		much	much
sw2965B-ms98-a-0089	B.80	585.312750	585.462750		to	to
sw2965B-ms98-a-0089	B.80	585.462750	585.842750		fix	fix
sw2965B-ms98-a-0089	B.80	585.842750	586.252750		anything	anything
sw2965B-ms98-a-0089	B.80	586.252750	586.312750		or	or
sw2965B-ms98-a-0089	B.80	586.312750	586.512750		do	do
sw2965B-ms98-a-0089	B.80	586.512750	586.872750		anything	anything
sw2965B-ms98-a-0089	B.80	586.872750	587.102750		with	with
sw2965B-ms98-a-0089	B.80	587.102750	587.292750		it	it
sw2965B-ms98-a-0089	B.80	587.292750	587.422750		you're	you're
sw2965B-ms98-a-0089	B.80	587.422750	587.612750		just	just
sw2965B-ms98-a-0089	B.80	587.612750	587.752750		better	better
sw2965B-ms98-a-0089	B.80	587.752750	588.022750		off	off
sw2965B-ms98-a-0089	B.80	588.022750	588.202750		buying	buying
sw2965B-ms98-a-0089	B.80	588.202750	588.522750		another	another
sw2965B-ms98-a-0089	B.80	588.522750	589.129625		car	car
sw2965B-ms98-a-0089	B.80	589.129625	589.615500		[silence]	[silence]
sw2965B-ms98-a-0090	B.80	589.615500	599.054375		[silence]	[silence]
