swda_filename,ptb_basename,conversation_no,transcript_index,act_tag,caller,utterance_index,subutterance_index,text,pos,trees,ptb_treenumbers
sw01utt/sw_0111_2018.utt,2/sw2018,2018,0,fp,B,1,1,Hello. /,Hello/UH ./.,(INTJ (UH Hello) (. .) (-DFL- E_S)),1
sw01utt/sw_0111_2018.utt,2/sw2018,2018,1,fp,A,2,1,"Hello, /","Hello/UH ,/,","(INTJ (UH Hello) (, ,) (-DFL- E_S))",3
sw01utt/sw_0111_2018.utt,2/sw2018,2018,2,fp,B,3,1,Hi. /,[ Hi/UH ] ./.,(INTJ (UH Hi) (. .) (-DFL- E_S)),5
sw01utt/sw_0111_2018.utt,2/sw2018,2018,3,fp,A,4,1,Hello  /,Hello/UH,(INTJ (UH Hello) (-DFL- E_S)),7
sw01utt/sw_0111_2018.utt,2/sw2018,2018,4,fp,A,4,2,this is Lois. /,[ this/DT ] is/VBZ  [ Lois/NNS ] ./.,(S (NP-SBJ (DT this)) (VP (VBZ is) (NP-PRD (NNS Lois))) (. .) (-DFL- E_S)),8
sw01utt/sw_0111_2018.utt,2/sw2018,2018,5,fp,B,5,1,"Hi,  /","Hi/UH ,/,","(INTJ (UH Hi) (, ,) (-DFL- E_S))",10
sw01utt/sw_0111_2018.utt,2/sw2018,2018,6,fp,B,5,2,"hi,  /","hi/UH ,/,","(INTJ (UH hi) (, ,) (-DFL- E_S))",11
sw01utt/sw_0111_2018.utt,2/sw2018,2018,7,fp,B,5,3,this is Lisa. /,[ this/DT ] is/VBZ  [ Lisa/NNP ] ./.,(S (NP-SBJ (DT this)) (VP (VBZ is) (NP-PRD (NNP Lisa))) (. .) (-DFL- E_S)),12
sw01utt/sw_0111_2018.utt,2/sw2018,2018,8,sd^t,A,6,1,"{C And, } {F uh, } I called {D you know, } from [ [ that, + the, ] + the ] T I Data Base Calling Instructions. /","And/CC ,/,  [ uh/UH ] ,/,  [ I/PRP ] called/VBD  [ you/PRP ] know/VBP ,/, from/IN  [ that/DT ] ,/,  [ the/DT ] ,/,  [ the/DT T/NNP I/NNP Data/NNP Base/NNP ] Calling/NNP  [ Instructions/NNPS ] ./.","(S (CC And) (, ,) (INTJ (UH uh)) (, ,) (NP-SBJ (PRP I)) (VP (VBD called) (PRN (S (NP-SBJ (PRP you)) (VP (VBP know))) (, ,)) (PP (IN from) (EDITED (RM (-DFL- \[)) (EDITED (RM (-DFL- \[)) (NP-UNF (DT that)) (, ,) (IP (-DFL- \+))) (NP-UNF (DT the)) (, ,) (RS (-DFL- \])) (IP (-DFL- \+))) (NP (DT the) (RS (-DFL- \])) (NNP T) (NNP I) (NNP Data) (NNP Base) (NNP Calling) (NNPS Instructions)))) (. .) (-DFL- E_S))",14
sw01utt/sw_0111_2018.utt,2/sw2018,2018,9,b,B,7,1,Uh-huh.  /,[ Uh-huh/UH ] ./.,(INTJ (UH Uh-huh) (. .) (-DFL- E_S)),16
sw01utt/sw_0111_2018.utt,2/sw2018,2018,10,b,B,7,2,"Yeah,  /","[ Yeah/UH ] ,/,","(INTJ (UH Yeah) (, ,) (-DFL- E_S))",17
sw01utt/sw_0111_2018.utt,2/sw2018,2018,11,sd^t,B,7,3,I got a call yesterday too.  /,[ I/PRP ] got/VBD  [ a/DT call/NN yesterday/NN ] too/RB ./.,(S (NP-SBJ (PRP I)) (VP (VBD got) (NP (DT a) (NN call)) (ADVP-TMP (NN yesterday)) (ADVP (RB too))) (. .) (-DFL- E_S)),18
sw01utt/sw_0111_2018.utt,2/sw2018,2018,12,sd^t,B,7,4,This is a different subject though. /,[ This/DT ] is/VBZ  [ a/DT different/JJ subject/NN ] though/RB ./.,(S (NP-SBJ (DT This)) (VP (VBZ is) (NP-PRD (DT a) (JJ different) (NN subject)) (ADVP (RB though))) (. .) (-DFL- E_S)),19
sw01utt/sw_0111_2018.utt,2/sw2018,2018,13,b,A,8,1,"Yeah,  /","Yeah/UH ,/,","(INTJ (UH Yeah) (, ,) (-DFL- E_S))",17
sw01utt/sw_0111_2018.utt,2/sw2018,2018,14,sd^t,A,8,2,"this is about changes in the women in the, -/","[ this/DT ] is/VBZ about/IN  [ changes/NNS ] in/IN  [ the/DT women/NNS ] in/IN  [ the/DT ] ,/,","(S (NP-SBJ (DT this)) (VP (VBZ is) (PP-PRD (IN about) (NP (NP (NNS changes)) (PP (IN in) (NP (DT the) (NNS women))) (PP (IN in) (NP-UNF (DT the)))))) (, ,) (-DFL- N_S))",22
sw01utt/sw_0111_2018.utt,2/sw2018,2018,15,b,B,9,1,Uh-huh. /,[ Uh-huh/UH ] ./.,(INTJ (UH Uh-huh) (. .) (-DFL- E_S)),16
sw01utt/sw_0111_2018.utt,2/sw2018,2018,16,qy^g,A,10,1,"{F Uh, } there's really a lot, isn't there. /","[ Uh/UH ] ,/,  [ there/EX ] 's/BES really/RB  [ a/DT lot/NN ] ,/, is/VBZ n't/RB there/RB ./.","(SQ (S (INTJ (UH Uh)) (, ,) (NP-SBJ (EX there)) (VP (BES 's) (ADVP (RB really)) (NP-PRD (DT a) (NN lot)))) (, ,) (SQ (VBZ is) (RB n't) (NP-SBJ (RB there)) (NP-PRD (-NONE- *?*))) (. .) (-DFL- E_S))",26
sw01utt/sw_0111_2018.utt,2/sw2018,2018,17,ny,B,11,1,Yeah <laughter>. /,Yeah/UH ./.,(INTJ (UH Yeah) (. .) (-DFL- E_S)),28
sw01utt/sw_0111_2018.utt,2/sw2018,2018,18,sv,A,12,1,I think there really is. /,[ I/PRP ] think/VBP  [ there/EX ] really/RB is/VBZ ./.,(S (NP-SBJ (PRP I)) (VP (VBP think) (SBAR (-NONE- 0) (S (NP-SBJ (EX there)) (ADVP (RB really)) (VP (VBZ is) (NP-PRD (-NONE- *?*)))))) (. .) (-DFL- E_S)),30
sw01utt/sw_0111_2018.utt,2/sw2018,2018,19,sv,B,13,1,It's kind of an easy thing to talk about. /,[ It/PRP ] [ 's/BES kind/RB ] of/RB  [ an/DT easy/JJ thing/NN ] to/TO talk/VB about/IN ./.,(S (NP-SBJ (PRP It)) (VP (BES 's) (ADVP (RB kind) (RB of)) (NP-PRD (NP (DT an) (JJ easy) (NN thing)) (SBAR (WHNP-1 (-NONE- 0)) (S (NP-SBJ (-NONE- *)) (VP (TO to) (VP (VB talk) (PP (IN about) (NP (-NONE- *T*-1))))))))) (. .) (-DFL- E_S)),32
sw01utt/sw_0111_2018.utt,2/sw2018,2018,20,qy^g,A,14,1,"{F Oh, } I guess the work force would be the main, wouldn't it. /","Oh/UH ,/,  [ I/PRP ] guess/VBP  [ the/DT work/NN force/NN ] would/MD be/VB  [ the/DT main/JJ ] ,/, would/MD n't/RB  [ it/PRP ] ./.","(SQ (S (INTJ (UH Oh)) (, ,) (NP-SBJ (PRP I)) (VP (VBP guess) (SBAR (-NONE- 0) (S (NP-SBJ (DT the) (NN work) (NN force)) (VP (MD would) (VP (VB be) (NP-UNF-PRD (DT the) (JJ main)))))))) (, ,) (SQ (MD would) (RB n't) (NP-SBJ (PRP it)) (VP (-NONE- *?*))) (. .) (-DFL- E_S))",34
sw01utt/sw_0111_2018.utt,2/sw2018,2018,21,ny,B,15,1,"Yeah, {F uh, }  /","Yeah/UH ,/,  [ uh/UH ] ,/,","(INTJ (INTJ (UH Yeah)) (, ,) (INTJ (UH uh)) (, ,) (-DFL- E_S))",36
sw01utt/sw_0111_2018.utt,2/sw2018,2018,22,ad^t,B,15,2,I think you have to push one  /,[ I/PRP ] think/VBP  [ you/PRP ] have/VBP to/TO push/VB  [ one/CD ],(S (NP-SBJ (PRP I)) (VP (VBP think) (SBAR (-NONE- 0) (S (NP-SBJ-1 (PRP you)) (VP (VBP have) (S (NP-SBJ (-NONE- *-1)) (VP (TO to) (VP (VB push) (NP (CD one))))))))) (-DFL- E_S)),37
sw01utt/sw_0111_2018.utt,2/sw2018,2018,23,ad^t,B,15,3,{C and then } we can start recording it. /,and/CC then/RB  [ we/PRP ] can/MD start/VB recording/VBG  [ it/PRP ] ./.,(S (CC and) (ADVP-TMP (RB then)) (NP-SBJ-1 (PRP we)) (VP (MD can) (VP (VB start) (S (NP-SBJ (-NONE- *-1)) (VP (VBG recording) (NP (PRP it)))))) (. .) (-DFL- E_S)),38
sw01utt/sw_0111_2018.utt,2/sw2018,2018,24,aa,A,16,1,Okay <tone>.  /,Okay/UH ./.,(INTJ (UH Okay) (. .) (-DFL- E_S)),40
sw01utt/sw_0111_2018.utt,2/sw2018,2018,25,aa,A,16,2,All right. /,[ All/RB right/JJ ] ./.,(INTJ (RB All) (JJ right) (. .) (-DFL- E_S)),41
sw01utt/sw_0111_2018.utt,2/sw2018,2018,26,b,B,17,1,Okay. /,Okay/UH ./.,(INTJ (UH Okay) (. .) (-DFL- E_S)),40
sw01utt/sw_0111_2018.utt,2/sw2018,2018,27,qy^t,A,18,1,Are you ready now? /,[ Are/VBP you/PRP ] ready/JJ now/RB ?/.,(SQ (VBP Are) (NP-SBJ (PRP you)) (ADJP-PRD (JJ ready)) (ADVP-TMP (RB now)) (. ?) (-DFL- E_S)),45
sw01utt/sw_0111_2018.utt,2/sw2018,2018,28,ny,B,19,1,Yes. /,Yes/UH ./.,(INTJ (UH Yes) (. .) (-DFL- E_S)),47
sw01utt/sw_0111_2018.utt,2/sw2018,2018,29,b,A,20,1,"Okay,  /","[ Okay/UH ] ,/,","(INTJ (UH Okay) (, ,) (-DFL- E_S))",49
sw01utt/sw_0111_2018.utt,2/sw2018,2018,30,sv,A,20,2,"like I said I guess it would be the work force, {D you know, } as far as changes in the generations. /","like/IN  [ I/PRP ] said/VBD  [ I/PRP ] guess/VBP  [ it/PRP ] would/MD be/VB  [ the/DT work/NN force/NN ] ,/,  [ you/PRP ] know/VBP ,/, as/RB far/RB as/IN  [ changes/NNS ] in/IN  [ the/DT generations/NNS ] ./.","(S (SBAR-ADV (IN like) (S (NP-SBJ (PRP I)) (VP (VBD said)))) (NP-SBJ (PRP I)) (VP (VBP guess) (SBAR (-NONE- 0) (S (NP-SBJ (PRP it)) (VP (MD would) (VP (VB be) (NP-PRD (DT the) (NN work) (NN force)) (PRN (, ,) (S (NP-SBJ (PRP you)) (VP (VBP know))) (, ,)) (ADVP (ADVP (RB as) (RB far)) (PP (IN as) (NP (NP (NNS changes)) (PP (IN in) (NP (DT the) (NNS generations))))))))))) (. .) (-DFL- E_S))",50
sw01utt/sw_0111_2018.utt,2/sw2018,2018,31,aa,B,21,1,"Yes,  /","Yes/UH ,/,","(INTJ (UH Yes) (, ,) (-DFL- E_S))",52
sw01utt/sw_0111_2018.utt,2/sw2018,2018,32,sd,B,21,2,"I know because, I know when my mother was [ a, + ] {D you know, } going into the work force there wasn't very many opportunities for her, I guess,  /","[ I/PRP ] know/VBP because/IN ,/,  [ I/PRP ] know/VBP when/WRB  [ my/PRP$ mother/NN ] was/VBD  [ a/DT ] ,/,  [ you/PRP ] know/VBP ,/, going/VBG into/IN  [ the/DT work/NN force/NN ] there/RB was/VBD n't/RB  [ very/RB many/JJ opportunities/NNS ] for/IN  [ her/PRP ] ,/,  [ I/PRP ] guess/VBP ,/,","(S (NP-SBJ (PRP I)) (VP (VBP know) (SBAR-PRP (IN because) (, ,) (S (NP-SBJ (PRP I)) (VP (VBP know) (SBAR (-NONE- 0) (S (SBAR-TMP (WHADVP-1 (WRB when)) (S (NP-SBJ (PRP$ my) (NN mother)) (VP (VBD was) (EDITED (RM (-DFL- \[)) (NP-PRD-UNF (DT a)) (, ,) (IP (-DFL- \+))) (RS (-DFL- \])) (PRN (S (NP-SBJ (PRP you)) (VP (VBP know))) (, ,)) (VP (VBG going) (PP-DIR (IN into) (NP (DT the) (NN work) (NN force))) (ADVP-TMP (-NONE- *T*-1)))))) (NP-SBJ (RB there)) (VP (VBD was) (RB n't) (NP-PRD (RB very) (JJ many) (NNS opportunities)) (PP (IN for) (NP (PRP her))) (PRN (, ,) (S (NP-SBJ (PRP I)) (VP (VBP guess))))))))))) (, ,) (-DFL- E_S))",53
sw01utt/sw_0111_2018.utt,2/sw2018,2018,33,sd,B,21,3,she's in her late forties.  /,[ she/PRP ] 's/BES in/IN  [ her/PRP$ late/JJ forties/NNS ] ./.,(S (NP-SBJ (PRP she)) (VP (BES 's) (PP-PRD (IN in) (NP (PRP$ her) (JJ late) (NNS forties)))) (. .) (-DFL- E_S)),54
sw01utt/sw_0111_2018.utt,2/sw2018,2018,34,sd,B,21,4,You were expected to stay home and take care of the kids  /,[ You/PRP ] were/VBD expected/JJ to/TO stay/VB  [ home/RB ] and/CC take/VB care/NN of/IN  [ the/DT kids/NNS ],(S (NP-SBJ-1 (PRP You)) (VP (VBD were) (VP (JJ expected) (S (NP-SBJ (-NONE- *-1)) (VP (TO to) (VP (VP (VB stay) (ADVP-LOC (RB home))) (CC and) (VP (VB take) (NP (NN care)) (PP (IN of) (NP (DT the) (NNS kids))))))))) (-DFL- E_S)),55
sw01utt/sw_0111_2018.utt,2/sw2018,2018,35,sd,B,21,5,{C and } I've never faced that at all. /,and/CC  [ I/PRP ] 've/VBP never/RB faced/VBN that/DT at/IN  [ all/DT ] ./.,(S (CC and) (NP-SBJ (PRP I)) (VP (VBP 've) (ADVP-TMP (RB never)) (VP (VBN faced) (NP (DT that)) (ADVP (IN at) (DT all)))) (. .) (-DFL- E_S)),56
sw01utt/sw_0111_2018.utt,2/sw2018,2018,36,aa,A,22,1,"{F Uh, } no,  /","[ Uh/UH ] ,/, no/UH ,/,","(INTJ (INTJ (UH Uh)) (, ,) (INTJ (UH no)) (, ,) (-DFL- E_S))",58
sw01utt/sw_0111_2018.utt,2/sw2018,2018,37,sv,A,22,2,"I think [ no-, + now, ]  you go to work when they're six weeks old,","[ I/PRP ] think/VBP  [ no-/RB ] ,/, now/RB ,/,  [ you/PRP ] go/VBP to/IN work/NN when/WRB  [ they/PRP ] 're/VBP  [ six/CD weeks/NNS ] old/JJ ,/,","(S (NP-SBJ (PRP I)) (VP (VBP think) (SBAR (-NONE- 0) (S (EDITED (RM (-DFL- \[)) (ADVP-TMP-UNF (RB no-)) (, ,) (IP (-DFL- \+))) (ADVP-TMP (RB now)) (, ,) (RS (-DFL- \])) (NP-SBJ (PRP you)) (VP (VBP go) (PP-DIR (IN to) (NP (NN work))) (SBAR-TMP (WHADVP-1 (WRB when)) (S (NP-SBJ (PRP they)) (VP (VBP 're) (ADJP-PRD (NP-ADV (CD six) (NNS weeks)) (JJ old)) (PRN (, ,) (S (NP-SBJ (PRP you)) (VP (VBP know)))) (ADVP-TMP (-NONE- *T*-1))))))))) (, ,) (-DFL- E_S))",59
sw01utt/sw_0111_2018.utt,2/sw2018,2018,38,b,B,23,1,Uh-huh. /,[ Uh-huh/UH ] ./.,(INTJ (UH Uh-huh) (. .) (-DFL- E_S)),61
sw01utt/sw_0111_2018.utt,2/sw2018,2018,39,+,A,24,1,"{D you know, }  /","[ you/PRP ] know/VBP ,/,","(S (NP-SBJ (PRP I)) (VP (VBP think) (SBAR (-NONE- 0) (S (EDITED (RM (-DFL- \[)) (ADVP-TMP-UNF (RB no-)) (, ,) (IP (-DFL- \+))) (ADVP-TMP (RB now)) (, ,) (RS (-DFL- \])) (NP-SBJ (PRP you)) (VP (VBP go) (PP-DIR (IN to) (NP (NN work))) (SBAR-TMP (WHADVP-1 (WRB when)) (S (NP-SBJ (PRP they)) (VP (VBP 're) (ADJP-PRD (NP-ADV (CD six) (NNS weeks)) (JJ old)) (PRN (, ,) (S (NP-SBJ (PRP you)) (VP (VBP know)))) (ADVP-TMP (-NONE- *T*-1))))))))) (, ,) (-DFL- E_S))",59
sw01utt/sw_0111_2018.utt,2/sw2018,2018,40,sv,A,24,2,{C and } you stay there.  /,and/CC  [ you/PRP ] stay/VBP there/RB ./.,(S (CC and) (NP-SBJ (PRP you)) (VP (VBP stay) (ADVP-LOC (RB there))) (. .) (-DFL- E_S)),63
sw01utt/sw_0111_2018.utt,2/sw2018,2018,41,sv,A,24,3,"{C And } I feel like the next generation, you'll probably just work right along with your husband, {D you know. } /","And/CC  [ I/PRP ] feel/VBP like/IN  [ the/DT next/JJ generation/NN ] ,/,  [ you/PRP ] 'll/MD probably/RB just/RB work/VB right/RB along/IN with/IN  [ your/PRP$ husband/NN ] ,/,  [ you/PRP ] know/VBP ./.","(S (CC And) (NP-SBJ (PRP I)) (VP (VBP feel) (SBAR (IN like) (S (NP-TMP (DT the) (JJ next) (NN generation)) (, ,) (NP-SBJ (PRP you)) (VP (MD 'll) (ADVP (RB probably)) (ADVP (RB just)) (VP (VB work) (PP (ADVP (RB right)) (IN along) (PP (IN with) (NP (PRP$ your) (NN husband)))) (PRN (, ,) (S (NP-SBJ (PRP you)) (VP (VBP know))))))))) (. .) (-DFL- E_S))",64
sw01utt/sw_0111_2018.utt,2/sw2018,2018,42,aa,B,25,1,"Yeah,  /","Yeah/UH ,/,","(INTJ (UH Yeah) (, ,) (-DFL- E_S))",66
sw01utt/sw_0111_2018.utt,2/sw2018,2018,43,aa,B,25,2,"uh-huh,  /","uh-huh/UH ,/,","(INTJ (UH uh-huh) (, ,) (-DFL- E_S))",67
sw01utt/sw_0111_2018.utt,2/sw2018,2018,44,sv,B,25,3,I think it's definitely gotten better. /,[ I/PRP ] think/VBP  [ it/PRP ] 's/HVS definitely/RB gotten/VBN better/JJR ./.,(S (NP-SBJ (PRP I)) (VP (VBP think) (SBAR (-NONE- 0) (S (NP-SBJ (PRP it)) (VP (HVS 's) (ADVP (RB definitely)) (VP (VBN gotten) (ADJP-PRD (JJR better))))))) (. .) (-DFL- E_S)),68
sw01utt/sw_0111_2018.utt,2/sw2018,2018,45,aa,A,26,1,"{F Oh, } I do to, much.  /","Oh/UH ,/,  [ I/PRP ] do/VBP to/^RB ,/, much/JJ ./.","(S (INTJ (UH Oh)) (, ,) (NP-SBJ (PRP I)) (VP (VBP do) (ADVP (TYPO (^RB to)))) (, ,))|||(ADJP (JJ much) (. .) (-DFL- E_S))",70|||71
sw01utt/sw_0111_2018.utt,2/sw2018,2018,46,sv,A,26,2,{C And } it's just going to get better. /,And/CC  [ it/PRP ] 's/BES just/RB going/VBG to/TO get/VB better/JJR ./.,(S (CC And) (NP-SBJ-1 (PRP it)) (VP (BES 's) (ADVP (RB just)) (VP (VBG going) (S (NP-SBJ (-NONE- *-1)) (VP (TO to) (VP (VB get) (ADJP-PRD (JJR better))))))) (. .) (-DFL- E_S)),72
sw01utt/sw_0111_2018.utt,2/sw2018,2018,47,b,B,27,1,Uh-huh. /,[ Uh-huh/UH ] ./.,(INTJ (UH Uh-huh) (. .) (-DFL- E_S)),61
sw01utt/sw_0111_2018.utt,2/sw2018,2018,48,sv,A,28,1,It really is. /,[ It/PRP ] really/RB is/VBZ ./.,(S (NP-SBJ (PRP It)) (ADVP (RB really)) (VP (VBZ is) (VP (-NONE- *?*))) (. .) (-DFL- E_S)),76
sw01utt/sw_0111_2018.utt,2/sw2018,2018,49,sd,B,29,1,"{C Because } women are in every field now,  /","Because/IN  [ women/NNS ] are/VBP in/IN  [ every/DT field/NN ] now/RB ,/,","(SBAR-PRP (IN Because) (S (NP-SBJ (NNS women)) (VP (VBP are) (PP-PRD (IN in) (NP (DT every) (NN field))) (ADVP-TMP (RB now)))) (, ,) (-DFL- E_S))",78
sw01utt/sw_0111_2018.utt,2/sw2018,2018,50,sd,B,29,2,{E I mean } I can't think of a field that they're not involved in. /,[ I/PRP ] mean/VBP  [ I/PRP ] ca/MD n't/RB think/VB of/IN  [ a/DT field/NN ] that/WDT  [ they/PRP ] 're/VBP not/RB involved/JJ in/IN ./.,(S (PRN (S (NP-SBJ (PRP I)) (VP (VBP mean)))) (NP-SBJ (PRP I)) (VP (MD ca) (RB n't) (VP (VB think) (PP (IN of) (NP (NP (DT a) (NN field)) (SBAR (WHNP-2 (WDT that)) (S (NP-SBJ (PRP they)) (VP (VBP 're) (RB not) (ADJP-PRD (JJ involved) (PP (IN in) (NP (-NONE- *T*-2))))))))))) (. .) (-DFL- E_S)),79
sw01utt/sw_0111_2018.utt,2/sw2018,2018,51,sd,A,30,1,"{F Oh, } I can't either, not a one. /","Oh/UH ,/,  [ I/PRP ] ca/MD n't/RB either/RB ,/, not/RB  [ a/DT one/CD ] ./.","(S (INTJ (UH Oh)) (, ,) (NP-SBJ (PRP I)) (VP (MD ca) (RB n't) (ADVP (RB either))) (, ,))|||(NP (RB not) (DT a) (CD one) (. .) (-DFL- E_S))",81|||82
sw01utt/sw_0111_2018.utt,2/sw2018,2018,52,sd,B,31,1,"{C And } I know at least in the medical field, it seems like they've come out with a lot further advances as far as female medications and things since women have gotten into the doctor field. /","And/CC  [ I/PRP ] know/VBP at/IN  [ least/JJS ] in/IN  [ the/DT medical/JJ field/NN ] ,/,  [ it/PRP ] seems/VBZ like/IN  [ they/PRP ] 've/VBP come/VBN out/RP with/IN  [ a/DT lot/NN ] further/JJR advances/NNS as/RB far/RB as/IN  [ female/JJ medications/NNS ] and/CC  [ things/NNS ] since/IN  [ women/NNS ] have/VBP gotten/VBN into/IN  [ the/DT doctor/NN field/NN ] ./.","(S (CC And) (NP-SBJ (PRP I)) (VP (VBP know) (SBAR (-NONE- 0) (S (ADVP (IN at) (JJS least)) (PP (IN in) (NP (DT the) (JJ medical) (NN field))) (, ,) (NP-SBJ (PRP it)) (VP (VBZ seems) (SBAR (IN like) (S (NP-SBJ (PRP they)) (VP (VBP 've) (VP (VBN come) (PRT (RP out)) (PP (IN with) (NP (NP (DT a) (NN lot) (JJR further) (NNS advances)) (ADVP (ADVP (RB as) (RB far)) (PP (IN as) (NP (NP (JJ female) (NNS medications)) (CC and) (NP (NNS things))))))) (SBAR-TMP (IN since) (S (NP-SBJ (NNS women)) (VP (VBP have) (VP (VBN gotten) (PP (IN into) (NP (DT the) (NN doctor) (NN field))))))))))))))) (. .) (-DFL- E_S))",84
sw01utt/sw_0111_2018.utt,2/sw2018,2018,53,b,A,32,1,Uh-huh. /,[ Uh-huh/UH ] ./.,(INTJ (UH Uh-huh) (. .) (-DFL- E_S)),61
sw01utt/sw_0111_2018.utt,2/sw2018,2018,54,sv,B,33,1,I don't think that men really took the  time to work on that sort of thing. /,[ I/PRP ] do/VBP n't/RB think/VB that/IN  [ men/NNS ] really/RB took/VBD  [ the/DT time/NN ] to/TO work/VB on/IN  [ that/DT sort/NN ] of/IN  [ thing/NN ] ./.,(S (NP-SBJ (PRP I)) (VP (VBP do) (RB n't) (VP (VB think) (SBAR (IN that) (S (NP-SBJ (NNS men)) (ADVP (RB really)) (VP (VBD took) (NP (NP (DT the) (NN time)) (SBAR (WHADVP-1 (-NONE- 0)) (S (NP-SBJ (-NONE- *)) (VP (TO to) (VP (VB work) (PP (IN on) (NP (NP (DT that) (NN sort)) (PP (IN of) (NP (NN thing))))) (ADVP (-NONE- *T*-1)))))))))))) (. .) (-DFL- E_S)),88
sw01utt/sw_0111_2018.utt,2/sw2018,2018,55,b,A,34,1,"Yeah,  /","Yeah/UH ,/,","(INTJ (UH Yeah) (, ,) (-DFL- E_S))",66
sw01utt/sw_0111_2018.utt,2/sw2018,2018,56,sv,A,34,2,"even in Washington, {D you know, }","even/RB in/IN  [ Washington/NNP ] ,/,  [ you/PRP ] know/VBP ,/,","(S (ADVP (RB even)) (PP-LOC (IN in) (NP (NNP Washington))) (PRN (, ,) (S (NP-SBJ (PRP you)) (VP (VBP know))) (, ,)) (NP-SBJ-1 (EX there)) (VP (VBZ seems) (S (NP-SBJ (-NONE- *-1)) (VP (TO to) (VP (VB be) (NP-PRD (NP (ADJP (NP-ADV (DT a) (RB lot)) (JJR more)) (NNS women)) (ADJP (JJ involved))))))) (. .) (-DFL- E_S))",91
sw01utt/sw_0111_2018.utt,2/sw2018,2018,57,b,B,35,1,Yeah. /,Yeah/UH ./.,(INTJ (UH Yeah) (. .) (-DFL- E_S)),93
sw01utt/sw_0111_2018.utt,2/sw2018,2018,58,+,A,36,1,there seems to be a lot more women involved. /,[ there/EX ] seems/VBZ to/TO be/VB  [ a/DT lot/RB more/JJR women/NNS ] involved/JJ ./.,"(S (ADVP (RB even)) (PP-LOC (IN in) (NP (NNP Washington))) (PRN (, ,) (S (NP-SBJ (PRP you)) (VP (VBP know))) (, ,)) (NP-SBJ-1 (EX there)) (VP (VBZ seems) (S (NP-SBJ (-NONE- *-1)) (VP (TO to) (VP (VB be) (NP-PRD (NP (ADJP (NP-ADV (DT a) (RB lot)) (JJR more)) (NNS women)) (ADJP (JJ involved))))))) (. .) (-DFL- E_S))",91
sw01utt/sw_0111_2018.utt,2/sw2018,2018,59,sv,B,37,1,"Hopefully, the next generation, it won't even be an issue,  /","Hopefully/RB ,/,  [ the/DT next/JJ generation/NN ] ,/,  [ it/PRP ] wo/MD n't/RB even/RB be/VB  [ an/DT issue/NN ] ,/,","(S (ADVP (RB Hopefully)) (, ,) (NP-TMP (DT the) (JJ next) (NN generation)) (, ,) (NP-SBJ (PRP it)) (VP (MD wo) (RB n't) (ADVP (RB even)) (VP (VB be) (NP-PRD (DT an) (NN issue)))) (, ,) (-DFL- E_S))",96
sw01utt/sw_0111_2018.utt,2/sw2018,2018,60,sv,B,37,2,"{E I mean } people will just look at you as a person and not as a man or a woman, /","[ I/PRP ] mean/VBP  [ people/NNS ] will/MD just/RB look/VB at/IN  [ you/PRP ] as/IN  [ a/DT person/NN ] and/CC not/RB as/IN  [ a/DT man/NN ] or/CC  [ a/DT woman/NN ] ,/,","(S (PRN (S (NP-SBJ (PRP I)) (VP (VBP mean)))) (NP-SBJ (NNS people)) (VP (MD will) (ADVP (RB just)) (VP (VB look) (PP (IN at) (NP (PRP you))) (PP (PP (IN as) (NP (DT a) (NN person))) (CC and) (RB not) (PP (IN as) (NP (NP (DT a) (NN man)) (CC or) (NP (DT a) (NN woman))))))) (, ,) (-DFL- E_S))",97
sw01utt/sw_0111_2018.utt,2/sw2018,2018,61,b,A,38,1,"Yeah,  /","Yeah/UH ,/,","(INTJ (UH Yeah) (, ,) (-DFL- E_S))",90
sw01utt/sw_0111_2018.utt,2/sw2018,2018,62,b^r,A,38,2,yeah. /,yeah/UH ./.,(INTJ (UH yeah) (. .) (-DFL- E_S)),100
sw01utt/sw_0111_2018.utt,2/sw2018,2018,63,sv,B,39,1,I think that would be the best goal. /,[ I/PRP ] think/VBP  [ that/DT ] would/MD be/VB  [ the/DT best/JJS goal/NN ] ./.,(S (NP-SBJ (PRP I)) (VP (VBP think) (SBAR (-NONE- 0) (S (NP-SBJ (DT that)) (VP (MD would) (VP (VB be) (NP-PRD (DT the) (JJS best) (NN goal))))))) (. .) (-DFL- E_S)),102
sw01utt/sw_0111_2018.utt,2/sw2018,2018,64,aa,A,40,1,"{F Oh, } I do too,  /","Oh/UH ,/,  [ I/PRP ] do/VBP too/RB ,/,","(S (INTJ (UH Oh)) (, ,) (NP-SBJ (PRP I)) (VP (VBP do) (ADVP (RB too))) (, ,) (-DFL- E_S))",104
sw01utt/sw_0111_2018.utt,2/sw2018,2018,65,bf,A,40,2,just your qualifications   /,[ just/RB your/PRP$ qualifications/NNS ],(NP (ADVP (RB just)) (PRP$ your) (NNS qualifications) (-DFL- E_S)),105
sw01utt/sw_0111_2018.utt,2/sw2018,2018,66,bf,A,40,3,{C and } that would be it. /,and/CC  [ that/DT ] would/MD be/VB  [ it/PRP ] ./.,(S (CC and) (NP-SBJ (DT that)) (VP (MD would) (VP (VB be) (NP-PRD (PRP it)))) (. .) (-DFL- E_S)),106
sw01utt/sw_0111_2018.utt,2/sw2018,2018,67,aa,B,41,1,"Uh-huh,  /","[ Uh-huh/UH ] ,/,","(INTJ (UH Uh-huh) (, ,) (-DFL- E_S))",108
sw01utt/sw_0111_2018.utt,2/sw2018,2018,68,aa,B,41,2,"exactly,  /","exactly/UH ,/,","(ADVP (UH exactly) (, ,) (-DFL- E_S))",109
sw01utt/sw_0111_2018.utt,2/sw2018,2018,69,sv,B,41,3,"not what color you are,  how old you are, what you're male or  female.  /","not/RB  [ what/WDT color/NN ] [ you/PRP ] are/VBP ,/, how/WRB  [ old/JJ you/PRP ] are/VBP ,/,  [ what/WP ] [ you/PRP 're/VBP male/JJ ] or/CC  [ female/JJ ] ./.","(FRAG (RB not) (SBAR (WHNP-1 (WDT what) (NN color)) (S (NP-SBJ (PRP you)) (VP (VBP are) (NP-PRD (-NONE- *T*-1))))) (, ,) (SBAR (WHADJP-2 (WRB how) (JJ old)) (S (NP-SBJ (PRP you)) (VP (VBP are) (ADJP-PRD (-NONE- *T*-2))))) (, ,) (SBAR (TYPO (WP what)) (S (NP-SBJ (PRP you)) (VP (VBP 're) (ADJP-PRD (JJ male) (CC or) (JJ female))))) (. .) (-DFL- E_S))",110
sw01utt/sw_0111_2018.utt,2/sw2018,2018,70,sv,B,41,4,"That would be wonderful,  /","[ That/DT ] would/MD be/VB wonderful/JJ ,/,","(S (NP-SBJ (DT That)) (VP (MD would) (VP (VB be) (ADJP-PRD (JJ wonderful)))) (, ,) (-DFL- E_S))",111
sw01utt/sw_0111_2018.utt,2/sw2018,2018,71,sv,B,41,5,"(( I guess ))   it's kind of an ideal world though, {F huh } <laughter>. /","[ I/PRP ] guess/VBP  [ it/PRP ] 's/BES  [ kind/RB ] of/RB  [ an/DT ideal/JJ world/NN ] though/RB ,/, huh/UH ./.","(S (NP-SBJ (PRP I)) (VP (VBP guess) (SBAR (-NONE- 0) (S (NP-SBJ (PRP it)) (VP (BES 's) (ADVP (RB kind) (RB of)) (NP-PRD (DT an) (JJ ideal) (NN world)) (ADVP (RB though))))) (, ,) (INTJ (UH huh))) (. .) (-DFL- E_S))",112
sw01utt/sw_0111_2018.utt,2/sw2018,2018,72,aa,A,42,1,"Yeah,  /","[ Yeah/UH ] ,/,","(INTJ (UH Yeah) (, ,) (-DFL- E_S))",90
sw01utt/sw_0111_2018.utt,2/sw2018,2018,73,sv,A,42,2,"I kind of think, maybe in time, that,  {D you know, } you'll go by social security numbers, {D you know, } /","[ I/PRP ] [ kind/RB ] of/RB think/VBP ,/, maybe/RB in/IN  [ time/NN ] ,/, that/IN ,/,  [ you/PRP ] know/VBP ,/,  [ you/PRP ] 'll/MD go/VB by/IN  [ social/JJ security/NN numbers/NNS ] ,/,  [ you/PRP ] know/VBP ,/,","(S (NP-SBJ (PRP I)) (ADVP (RB kind) (RB of)) (VP (VBP think) (, ,) (SBAR (ADVP (RB maybe)) (PP-TMP (IN in) (NP (NN time))) (, ,) (IN that) (PRN (, ,) (S (NP-SBJ (PRP you)) (VP (VBP know))) (, ,)) (S (NP-SBJ (PRP you)) (VP (MD 'll) (VP (VB go) (PP (IN by) (NP (JJ social) (NN security) (NNS numbers))))))) (PRN (, ,) (S (NP-SBJ (PRP you)) (VP (VBP know))))) (, ,) (-DFL- E_S))",115
sw01utt/sw_0111_2018.utt,2/sw2018,2018,74,b,B,43,1,Yeah. /,Yeah/UH ./.,(INTJ (UH Yeah) (. .) (-DFL- E_S)),93
sw01utt/sw_0111_2018.utt,2/sw2018,2018,75,sv,A,44,1,"{C and } that way they can't say {D well } they  picked a male over a female, female over a male, {D you know, } /","and/CC  [ that/DT way/NN ] [ they/PRP ] ca/MD n't/RB say/VB well/UH  [ they/PRP ] picked/VBD  [ a/DT male/NN ] over/IN  [ a/DT female/NN ] ,/,  [ female/JJ ] over/IN  [ a/DT male/NN ] ,/,  [ you/PRP ] know/VBP ,/,","(S (CC and) (NP-MNR (DT that) (NN way)) (NP-SBJ (PRP they)) (VP (MD ca) (RB n't) (VP (VB say) (S-SEZ (INTJ (UH well)) (NP-SBJ (PRP they)) (VP (VP (VBD picked) (NP-1 (DT a) (NN male)) (PP-2 (IN over) (NP (DT a) (NN female)))) (, ,) (VP (NP=1 (JJ female)) (PP=2 (IN over) (NP (DT a) (NN male)))))) (PRN (, ,) (S (NP-SBJ (PRP you)) (VP (VBP know)))))) (, ,) (-DFL- E_S))",119
sw01utt/sw_0111_2018.utt,2/sw2018,2018,76,aa,B,45,1,"Exactly,  /","Exactly/UH ,/,","(INTJ (UH Exactly) (, ,) (-DFL- E_S))",121
sw01utt/sw_0111_2018.utt,2/sw2018,2018,77,sv,B,45,2,"or the way you look,  /","or/CC  [ the/DT way/NN ] [ you/PRP ] look/VBP ,/,","(FRAG (CC or) (NP (NP (DT the) (NN way)) (SBAR (WHADVP-1 (-NONE- 0)) (S (NP-SBJ (PRP you)) (VP (VBP look) (ADVP-MNR (-NONE- *T*-1)))))) (, ,) (-DFL- E_S))",122
sw01utt/sw_0111_2018.utt,2/sw2018,2018,78,sv,B,45,3,"or the way you, {D you know, } -/","or/CC  [ the/DT way/NN ] [ you/PRP ] ,/,  [ you/PRP ] know/VBP ,/,","(FRAG (CC or) (NP (NP (DT the) (NN way)) (SBAR (WHADVP (-NONE- 0)) (S-UNF (NP-SBJ (PRP you)) (PRN (, ,) (S (NP-SBJ (PRP you)) (VP (VBP know))))))) (, ,) (-DFL- N_S))",123
sw01utt/sw_0111_2018.utt,2/sw2018,2018,79,b,A,46,1,"Yeah,  /","Yeah/UH ,/,","(INTJ (UH Yeah) (, ,) (-DFL- E_S))",90
sw01utt/sw_0111_2018.utt,2/sw2018,2018,80,b^r,A,46,2,yeah. /,yeah/UH ./.,(INTJ (UH yeah) (. .) (-DFL- E_S)),100
sw01utt/sw_0111_2018.utt,2/sw2018,2018,81,sv,B,47,1,your age or anything.  /,[ your/PRP$ age/NN ] or/CC  [ anything/NN ] ./.,(NP (NP (PRP$ your) (NN age)) (CC or) (NP (NN anything)) (. .) (-DFL- E_S)),128
sw01utt/sw_0111_2018.utt,2/sw2018,2018,82,sv,B,47,2,I think that would  be a wonderful way to do it. /,[ I/PRP ] think/VBP  [ that/DT ] would/MD be/VB  [ a/DT wonderful/JJ way/NN ] to/TO do/VB  [ it/PRP ] ./.,(S (NP-SBJ (PRP I)) (VP (VBP think) (SBAR (-NONE- 0) (S (NP-SBJ (DT that)) (VP (MD would) (VP (VB be) (NP-PRD (NP (DT a) (JJ wonderful) (NN way)) (SBAR (WHADVP-1 (-NONE- 0)) (S (NP-SBJ (-NONE- *)) (VP (TO to) (VP (VB do) (NP (PRP it)) (ADVP-MNR (-NONE- *T*-1)))))))))))) (. .) (-DFL- E_S)),129
sw01utt/sw_0111_2018.utt,2/sw2018,2018,83,aa,A,48,1,I do to  /,[ I/PRP ] do/VBP to/TO,(S (NP-SBJ (PRP I)) (VP (VBP do) (ADVP (TYPO (TO to)))) (-DFL- E_S)),131
sw01utt/sw_0111_2018.utt,2/sw2018,2018,84,sv,A,48,2,"just go by your social security number  and then look at you qualifications [ that, + {D you know, } that ] you have. /","just/RB go/VB by/IN  [ your/PRP$ social/JJ security/NN number/NN ] and/CC then/RB look/VB at/IN  [ you/PRP qualifications/NNS ] that/WDT ,/,  [ you/PRP ] know/VBP ,/, that/WDT  [ you/PRP ] have/VBP ./.","(S (ADVP (RB just)) (NP-SBJ (-NONE- *)) (VP (VP (VB go) (PP (IN by) (NP (PRP$ your) (JJ social) (NN security) (NN number)))) (CONJP (CC and) (RB then)) (VP (VB look) (PP (IN at) (NP (NP (TYPO (PRP you)) (NNS qualifications)) (EDITED (RM (-DFL- \[)) (SBAR-UNF (WHNP (WDT that))) (, ,) (IP (-DFL- \+))) (PRN (S (NP-SBJ (PRP you)) (VP (VBP know))) (, ,)) (SBAR (WHNP-1 (WDT that)) (RS (-DFL- \])) (S (NP-SBJ (PRP you)) (VP (VBP have) (NP (-NONE- *T*-1))))))))) (. .) (-DFL- E_S))",132
sw01utt/sw_0111_2018.utt,2/sw2018,2018,85,aa,B,49,1,"Uh-huh,  /","[ Uh-huh/UH ] ,/,","(INTJ (UH Uh-huh) (, ,) (-DFL- E_S))",108
sw01utt/sw_0111_2018.utt,2/sw2018,2018,86,%,B,49,2,"{C and then, } -/","and/CC then/RB ,/,","(S-UNF (CONJP (CC and) (RB then)) (, ,) (-DFL- N_S))",135
sw01utt/sw_0111_2018.utt,2/sw2018,2018,87,sv,A,50,1,"{C And then } if you get it, {D you know } then, -/","And/CC then/RB if/IN  [ you/PRP ] get/VBP  [ it/PRP ] ,/,  [ you/PRP ] know/VBP then/RB ,/,","(S-UNF (CONJP (CC And) (RB then)) (SBAR-ADV (IN if) (S (NP-SBJ (PRP you)) (VP (VBP get) (NP (PRP it))))) (PRN (, ,) (S (NP-SBJ (PRP you)) (VP (VBP know)))) (ADVP-TMP (RB then)) (, ,) (-DFL- N_S))",137
sw01utt/sw_0111_2018.utt,2/sw2018,2018,88,aa,B,51,1,"Uh-huh,  /","[ Uh-huh/UH ] ,/,","(INTJ (UH Uh-huh) (, ,) (-DFL- E_S))",108
sw01utt/sw_0111_2018.utt,2/sw2018,2018,89,sd,B,51,2,"also, with, {F uh, } women in the work  force they've gotten a lot more options as far as, {D you know, } what's it called, job sharing. /","also/RB ,/, with/IN ,/,  [ uh/UH ] ,/,  [ women/NNS ] in/IN  [ the/DT work/NN force/NN ] [ they/PRP ] 've/VBP gotten/VBN  [ a/DT lot/NN more/JJR options/NNS ] as/RB far/RB as/IN ,/,  [ you/PRP ] know/VBP ,/,  [ what/WP ] 's/BES  [ it/PRP ] called/VBN ,/,  [ job/NN sharing/NN ] ./.","(S (RB also) (, ,) (SBAR-ADV (IN with) (, ,) (INTJ (UH uh)) (, ,) (S (NP-SBJ (NNS women)) (PP-PRD (IN in) (NP (DT the) (NN work) (NN force))))) (NP-SBJ (PRP they)) (VP (VBP 've) (VP (VBN gotten) (NP (ADJP (NP-ADV (DT a) (NN lot)) (JJR more)) (NNS options)) (ADVP (ADVP (RB as) (RB far)) (PP (IN as) (PRN (, ,) (S (NP-SBJ (PRP you)) (VP (VBP know))) (, ,)) (PRN (SBARQ (WHNP-1 (WP what)) (SQ (BES 's) (NP-SBJ-2 (PRP it)) (VP (VBN called) (S (NP-SBJ (-NONE- *-2)) (NP-PRD (-NONE- *T*-1)))))) (, ,)) (NP (NN job) (NN sharing)))))) (. .) (-DFL- E_S))",140
sw01utt/sw_0111_2018.utt,2/sw2018,2018,90,b,A,52,1,Uh-huh. /,[ Uh-huh/UH ] ./.,(INTJ (UH Uh-huh) (. .) (-DFL- E_S)),142
sw01utt/sw_0111_2018.utt,2/sw2018,2018,91,sd,B,53,1,"{D Like } if you and another lady were to share the same full time job,","Like/IN if/IN  [ you/PRP ] and/CC  [ another/DT lady/NN ] were/VBD to/TO share/VB  [ the/DT same/JJ full/JJ time/NN job/NN ] ,/,","(SBAR-ADV (INTJ (UH Like)) (IN if) (S (NP-SBJ-1 (NP (PRP you)) (CC and) (NP (DT another) (NN lady))) (VP (VBD were) (S (NP-SBJ (-NONE- *-1)) (VP (TO to) (VP-UNF (VP (VB share) (NP (DT the) (JJ same) (JJ full) (NN time) (NN job))) (, ,) (CC or)))))) (, ,) (-DFL- N_S))",144
sw01utt/sw_0111_2018.utt,2/sw2018,2018,92,b,A,54,1,"{F Oh, } yeah. /","Oh/UH ,/, yeah/UH ./.","(INTJ (INTJ (UH Oh)) (, ,) (INTJ (UH yeah)) (. .) (-DFL- E_S))",146
sw01utt/sw_0111_2018.utt,2/sw2018,2018,93,+,B,55,1,"or, -/","or/CC ,/,","(SBAR-ADV (INTJ (UH Like)) (IN if) (S (NP-SBJ-1 (NP (PRP you)) (CC and) (NP (DT another) (NN lady))) (VP (VBD were) (S (NP-SBJ (-NONE- *-1)) (VP (TO to) (VP-UNF (VP (VB share) (NP (DT the) (JJ same) (JJ full) (NN time) (NN job))) (, ,) (CC or)))))) (, ,) (-DFL- N_S))",144
sw01utt/sw_0111_2018.utt,2/sw2018,2018,94,sd,A,56,1,"As a matter of fact, that's what I'm doing. /","As/IN  [ a/DT matter/NN ] of/IN  [ fact/NN ] ,/,  [ that/DT ] 's/BES  [ what/WP ] [ I/PRP ] 'm/VBP doing/VBG ./.","(S (PP (IN As) (NP (NP (DT a) (NN matter)) (PP (IN of) (NP (NN fact))))) (, ,) (NP-SBJ (DT that)) (VP (BES 's) (SBAR-NOM-PRD (WHNP-1 (WP what)) (S (NP-SBJ (PRP I)) (VP (VBP 'm) (VP (VBG doing) (NP (-NONE- *T*-1))))))) (. .) (-DFL- E_S))",149
sw01utt/sw_0111_2018.utt,2/sw2018,2018,95,bh,B,57,1,Is it. /,Is/VBZ  [ it/PRP ] ./.,(SQ (VBZ Is) (NP-SBJ (PRP it)) (NP-PRD (-NONE- *?*)) (. .) (-DFL- E_S)),151
sw01utt/sw_0111_2018.utt,2/sw2018,2018,96,ny,A,58,1,"Uh-huh,  /","Uh-huh/UH ,/,","(INTJ (UH Uh-huh) (, ,) (-DFL- E_S))",134
sw01utt/sw_0111_2018.utt,2/sw2018,2018,97,sd^e,A,58,2,it sure is. /,[ it/PRP ] sure/RB is/VBZ ./.,(S (NP-SBJ (PRP it)) (ADVP (RB sure)) (VP (VBZ is) (NP-PRD (-NONE- *?*))) (. .) (-DFL- E_S)),154
sw01utt/sw_0111_2018.utt,2/sw2018,2018,98,sv,B,59,1,That would be great. /,[ That/DT ] would/MD be/VB great/JJ ./.,(S (NP-SBJ (DT That)) (VP (MD would) (VP (VB be) (ADJP-PRD (JJ great)))) (. .) (-DFL- E_S)),156
sw01utt/sw_0111_2018.utt,2/sw2018,2018,99,aa,A,60,1,It sure is. /,[ It/PRP ] sure/RB is/VBZ ./.,(S (NP-SBJ (PRP It)) (ADVP (RB sure)) (VP (VBZ is) (ADJP-PRD (-NONE- *?*))) (. .) (-DFL- E_S)),158
sw01utt/sw_0111_2018.utt,2/sw2018,2018,100,sd,B,61,1,"{C Or, } a lot of women I know now and [ my, + {F uh, } one of my ] supervisors, when she went on L O A to have her baby, we hooked up, {F uh, } {F uh, } a terminal at her house  /","Or/CC ,/,  [ a/DT lot/NN ] of/IN  [ women/NNS I/PRP ] know/VBP now/RB and/CC  [ my/PRP$ ] ,/,  [ uh/UH ] ,/,  [ one/CD ] of/IN  [ my/PRP$ supervisors/NNS ] ,/, when/WRB  [ she/PRP ] went/VBD on/IN  [ L/NNP O/NNP ] [ A/NNP ] to/TO have/VB  [ her/PRP$ baby/NN ] ,/,  [ we/PRP ] hooked/VBD up/RP ,/,  [ uh/UH ] ,/,  [ uh/UH ] ,/,  [ a/DT terminal/NN ] at/IN  [ her/PRP$ house/NN ]","(S (CC Or) (, ,) (NP-TPC (NP (NP (DT a) (NN lot)) (PP (IN of) (NP (NNS women))) (SBAR (WHNP-1 (-NONE- 0)) (S (NP-SBJ (PRP I)) (VP (VBP know) (ADVP-TMP (RB now)) (NP (-NONE- *T*-1)))))) (CC and) (EDITED (RM (-DFL- \[)) (NP-UNF (PRP$ my)) (, ,) (IP (-DFL- \+))) (INTJ (UH uh)) (, ,) (NP (NP (CD one)) (PP (IN of) (NP (PRP$ my) (RS (-DFL- \])) (NNS supervisors))))) (, ,) (SBAR-TMP (WHADVP-3 (WRB when)) (S (NP-SBJ-2 (PRP she)) (VP (VBD went) (PP (IN on) (NP (NNP L) (NNP O) (NNP A))) (S-PRP (NP-SBJ (-NONE- *-2)) (VP (TO to) (VP (VB have) (NP (PRP$ her) (NN baby))))) (ADVP-TMP (-NONE- *T*-3))))) (, ,) (NP-SBJ (PRP we)) (VP (VBD hooked) (PRT (RP up)) (, ,) (INTJ (UH uh)) (, ,) (INTJ (UH uh)) (, ,) (NP (DT a) (NN terminal)) (PP-LOC (IN at) (NP (PRP$ her) (NN house)))) (-DFL- E_S))",160
sw01utt/sw_0111_2018.utt,2/sw2018,2018,101,sd,B,61,2,"and [ she, + {D you know, } we ] could send her messages,  /","and/CC  [ she/PRP ] ,/,  [ you/PRP ] know/VBP ,/,  [ we/PRP ] could/MD send/VB  [ her/PRP$ messages/NNS ] ,/,","(S (CC and) (EDITED (RM (-DFL- \[)) (NP-SBJ (PRP she)) (, ,) (IP (-DFL- \+))) (PRN (S (NP-SBJ (PRP you)) (VP (VBP know))) (, ,)) (NP-SBJ (PRP we)) (RS (-DFL- \])) (VP (MD could) (VP (VB send) (NP (PRP$ her)) (NP (NNS messages)))) (, ,) (-DFL- E_S))",161
sw01utt/sw_0111_2018.utt,2/sw2018,2018,102,sd,B,61,3,"[ {C and, } + {C and } ] she kept in touch like that,","and/CC ,/, and/CC  [ she/PRP ] kept/VBD in/IN  [ touch/NN ] like/IN  [ that/DT ] ,/,","(S (EDITED (RM (-DFL- \[)) (CC and) (, ,) (IP (-DFL- \+))) (CC and) (RS (-DFL- \])) (NP-SBJ (PRP she)) (VP (VP (VBD kept) (PP (IN in) (NP (NN touch))) (PP (IN like) (NP (DT that)))) (, ,) (CC and) (VP (ADVP (RB basically)) (, ,) (ADVP (RB just)) (VBD worked) (PP-MNR (IN out) (PP (IN of) (NP (PRP$ her) (NN house)))))) (. .) (-DFL- E_S))",162
sw01utt/sw_0111_2018.utt,2/sw2018,2018,103,b,A,62,1,Oh. /,Oh/UH ./.,(INTJ (UH Oh) (. .) (-DFL- E_S)),164
sw01utt/sw_0111_2018.utt,2/sw2018,2018,104,+,B,63,1,"and basically, just worked out of her house.  /","and/CC basically/RB ,/, just/RB worked/VBD out/IN of/IN  [ her/PRP$ house/NN ] ./.","(S (EDITED (RM (-DFL- \[)) (CC and) (, ,) (IP (-DFL- \+))) (CC and) (RS (-DFL- \])) (NP-SBJ (PRP she)) (VP (VP (VBD kept) (PP (IN in) (NP (NN touch))) (PP (IN like) (NP (DT that)))) (, ,) (CC and) (VP (ADVP (RB basically)) (, ,) (ADVP (RB just)) (VBD worked) (PP-MNR (IN out) (PP (IN of) (NP (PRP$ her) (NN house)))))) (. .) (-DFL- E_S))",162
sw01utt/sw_0111_2018.utt,2/sw2018,2018,105,sd,B,63,2,"I would just take her the actual paperwork once, {F uh, } every week or two,  /","[ I/PRP ] would/MD just/RB take/VB  [ her/PRP ] [ the/DT actual/JJ paperwork/NN ] once/RB ,/,  [ uh/UH ] ,/,  [ every/DT week/NN ] or/CC  [ two/CD ] ,/,","(S (NP-SBJ (PRP I)) (VP (MD would) (ADVP (RB just)) (VP (VB take) (NP (PRP her)) (NP (DT the) (JJ actual) (NN paperwork)) (ADVP-TMP (RB once) (, ,) (INTJ (UH uh)) (, ,) (NP (DT every) (NN week) (QP (CC or) (CD two)))))) (, ,) (-DFL- E_S))",166
sw01utt/sw_0111_2018.utt,2/sw2018,2018,106,sd,B,63,3,{C and } that worked out great too. /,and/CC that/DT worked/VBD out/RP  [ great/RB ] too/RB ./.,(S (CC and) (NP-SBJ (DT that)) (VP (VBD worked) (PRT (RP out)) (ADVP-MNR (RB great)) (ADVP (RB too))) (. .) (-DFL- E_S)),167
sw01utt/sw_0111_2018.utt,2/sw2018,2018,107,aa,A,64,1,"Yeah,  /","Yeah/UH ,/,","(INTJ (UH Yeah) (, ,) (-DFL- E_S))",169
sw01utt/sw_0111_2018.utt,2/sw2018,2018,108,aa^r,A,64,2,yeah  /,yeah/UH,(INTJ (UH yeah) (-DFL- E_S)),170
sw01utt/sw_0111_2018.utt,2/sw2018,2018,109,sv,A,64,3,that is. /,that/DT is/VBZ ./.,(S (NP-SBJ (DT that)) (VP-UNF (VBZ is)) (. .) (-DFL- E_S)),171
sw01utt/sw_0111_2018.utt,2/sw2018,2018,110,sv,B,65,1,"{C And } that's a real attractive option, if you have  [ the, + the ] technology for it. /","And/CC  [ that/DT ] 's/BES  [ a/DT real/RB attractive/JJ option/NN ] ,/, if/IN  [ you/PRP ] have/VBP  [ the/DT ] ,/,  [ the/DT technology/NN ] for/IN  [ it/PRP ] ./.","(S (CC And) (NP-SBJ (DT that)) (VP (BES 's) (NP-PRD (DT a) (ADJP (RB real) (JJ attractive)) (NN option)) (, ,) (SBAR-ADV (IN if) (S (NP-SBJ (PRP you)) (VP (VBP have) (EDITED (RM (-DFL- \[)) (NP-UNF (DT the)) (, ,) (IP (-DFL- \+))) (NP (NP (DT the) (RS (-DFL- \])) (NN technology)) (PP (IN for) (NP (PRP it)))))))) (. .) (-DFL- E_S))",173
sw01utt/sw_0111_2018.utt,2/sw2018,2018,111,b,A,66,1,Uh-huh. /,[ Uh-huh/UH ] ./.,(INTJ (UH Uh-huh) (. .) (-DFL- E_S)),175
sw01utt/sw_0111_2018.utt,2/sw2018,2018,112,sd,B,67,1,"All it [ was, + was, ] {D you know, } - /","[ All/DT it/PRP ] was/VBD ,/, was/VBD ,/,  [ you/PRP ] know/VBP ,/,","(S (NP-SBJ (NP (DT All)) (SBAR (WHNP-1 (-NONE- 0)) (S (NP-SBJ (PRP it)) (RM (-DFL- \[)) (VP (VBD was) (NP-PRD (-NONE- *T*-1)))))) (, ,) (IP (-DFL- \+)) (VP-UNF (VBD was) (, ,) (RS (-DFL- \])) (PRN (S (NP-SBJ (PRP you)) (VP (VBP know))))) (, ,) (-DFL- N_S))",177
sw01utt/sw_0111_2018.utt,2/sw2018,2018,113,sd,B,67,2,"{E I mean, } she just used a phone modem  /","[ I/PRP ] mean/VBP ,/,  [ she/PRP ] just/RB used/VBD  [ a/DT phone/NN modem/NN ]","(S (PRN (S (NP-SBJ (PRP I)) (VP (VBP mean))) (, ,)) (NP-SBJ (PRP she)) (ADVP (RB just)) (VP (VBD used) (NP (DT a) (NN phone) (NN modem))) (-DFL- E_S))",178
sw01utt/sw_0111_2018.utt,2/sw2018,2018,114,sd,B,67,3,"{C and } [ she was + {D like } she was ] sitting in the office,  /","and/CC  [ she/PRP ] was/VBD like/IN  [ she/PRP ] was/VBD sitting/VBG in/IN  [ the/DT office/NN ] ,/,","(S (CC and) (RM (-DFL- \[)) (NP-SBJ (PRP she)) (VP (VBD was) (IP (-DFL- \+)) (SBAR-PRD (UH like) (S (NP-SBJ (PRP she)) (VP (VBD was) (RS (-DFL- \])) (VP (VBG sitting) (PP-LOC (IN in) (NP (DT the) (NN office)))))))) (, ,) (-DFL- E_S))",179
sw01utt/sw_0111_2018.utt,2/sw2018,2018,115,sv,B,67,4,"{C so } I think that's real nice too, to come up with different options.  /","so/RB  [ I/PRP ] think/VBP  [ that/DT ] 's/BES real/RB nice/JJ too/RB ,/, to/TO come/VB up/RP with/IN  [ different/JJ options/NNS ] ./.","(S (RB so) (NP-SBJ (PRP I)) (VP (VBP think) (SBAR (-NONE- 0) (S (NP-SBJ (DT that)) (VP (BES 's) (ADJP-PRD (RB real) (JJ nice)) (ADVP (RB too)) (, ,) (S-TPC (NP-SBJ (-NONE- *)) (VP (TO to) (VP (VB come) (PRT (RP up)) (PP (IN with) (NP (JJ different) (NNS options)))))))))) (. .) (-DFL- E_S))",180
sw01utt/sw_0111_2018.utt,2/sw2018,2018,116,qy,B,67,5,Do you like the job sharing? /,Do/VBP  [ you/PRP ] like/VB  [ the/DT job/NN ] sharing/NN ?/.,(SQ (VBP Do) (NP-SBJ (PRP you)) (VP (VB like) (NP (DT the) (NN job) (NN sharing))) (. ?) (-DFL- E_S)),181
sw01utt/sw_0111_2018.utt,2/sw2018,2018,117,na,A,68,1,"{F Oh, } I do, /","Oh/UH ,/,  [ I/PRP ] do/VBP ,/,","(S (INTJ (UH Oh)) (, ,) (NP-SBJ (PRP I)) (VP (VBP do)) (, ,) (-DFL- E_S))",183
sw01utt/sw_0111_2018.utt,2/sw2018,2018,118,bh,B,69,1,Do you? /,Do/VBP  [ you/PRP ] ?/.,(SQ (VBP Do) (NP-SBJ (PRP you)) (. ?) (-DFL- E_S)),185
sw01utt/sw_0111_2018.utt,2/sw2018,2018,119,sd,A,70,1,"I really do,  /","[ I/PRP ] really/RB do/VBP ,/,","(S (NP-SBJ (PRP I)) (ADVP (RB really)) (VP (VBP do)) (, ,) (-DFL- E_S))",187
sw01utt/sw_0111_2018.utt,2/sw2018,2018,120,sd,A,70,2,I think it's great. /,[ I/PRP ] think/VBP  [ it/PRP ] 's/BES great/JJ ./.,(S (NP-SBJ (PRP I)) (VP (VBP think) (SBAR (-NONE- 0) (S (NP-SBJ (PRP it)) (VP (BES 's) (ADJP-PRD (JJ great)))))) (. .) (-DFL- E_S)),188
sw01utt/sw_0111_2018.utt,2/sw2018,2018,121,qr,B,71,1,"Do you work like half days, or half weeks or, -/","Do/VBP  [ you/PRP ] work/VB like/IN  [ half/JJ days/NNS ] ,/, or/CC  [ half/JJ weeks/NNS ] or/CC ,/,","(SQ (VBP Do) (NP-SBJ (PRP you)) (VP (VB work) (INTJ (IN like)) (NP-UNF (NP (JJ half) (NNS days)) (, ,) (CC or) (NP (JJ half) (NNS weeks)) (CC or))) (, ,) (-DFL- N_S))",190
sw01utt/sw_0111_2018.utt,2/sw2018,2018,122,sd,A,72,1,"{F Uh, } {D well } {D like, } one week she'll work  three days and I'll work two  /","[ Uh/UH ] ,/, well/UH like/IN ,/,  [ one/CD week/NN ] [ she/PRP ] 'll/MD work/VB  [ three/CD days/NNS ] and/CC  [ I/PRP ] 'll/MD work/VB  [ two/CD ]","(S (INTJ (UH Uh)) (, ,) (INTJ (UH well)) (INTJ (UH like)) (, ,) (NP-TMP (CD one) (NN week)) (S (NP-SBJ (PRP she)) (VP (MD 'll) (VP (VB work) (NP (CD three) (NNS days))))) (CC and) (S (NP-SBJ (PRP I)) (VP (MD 'll) (VP (VB work) (NP (CD two))))) (-DFL- E_S))",192
sw01utt/sw_0111_2018.utt,2/sw2018,2018,123,sd@,A,72,2,"{C and } the next week, {D you know, } I'll work three  /  *[[Why are utterances 2 & 3 split up when they are parallel in structure to the single utterance 1? ]]","and/CC  [ the/DT next/JJ week/NN ] ,/,  [ you/PRP ] know/VBP ,/,  [ I/PRP ] 'll/MD work/VB  [ three/CD ]","(S (CC and) (NP-TMP (DT the) (JJ next) (NN week)) (PRN (, ,) (S (NP-SBJ (PRP you)) (VP (VBP know))) (, ,)) (S (NP-SBJ (PRP I)) (VP (MD 'll) (VP (VB work) (NP (CD three))))) (-DFL- E_S) (CC and) (S (NP-SBJ (PRP she)) (VP (MD 'll) (VP (VB work) (NP (CD two))))) (, ,) (-DFL- E_S))",193
sw01utt/sw_0111_2018.utt,2/sw2018,2018,124,sd,A,72,3,"{C and } she'll work two, /","and/CC  [ she/PRP ] 'll/MD work/VB  [ two/CD ] ,/,","(S (CC and) (NP-TMP (DT the) (JJ next) (NN week)) (PRN (, ,) (S (NP-SBJ (PRP you)) (VP (VBP know))) (, ,)) (S (NP-SBJ (PRP I)) (VP (MD 'll) (VP (VB work) (NP (CD three))))) (-DFL- E_S) (CC and) (S (NP-SBJ (PRP she)) (VP (MD 'll) (VP (VB work) (NP (CD two))))) (, ,) (-DFL- E_S))",193
sw01utt/sw_0111_2018.utt,2/sw2018,2018,125,ba,B,73,1,"{F Oh, } {F oh } that's great, /","Oh/UH ,/, oh/UH  [ that/DT ] 's/BES great/JJ ,/,","(S (INTJ (UH Oh)) (, ,) (INTJ (UH oh)) (NP-SBJ (DT that)) (VP (BES 's) (ADJP-PRD (JJ great))) (, ,) (-DFL- E_S))",195
sw01utt/sw_0111_2018.utt,2/sw2018,2018,126,sd,A,74,1,{C and } we just share off like that. /,and/CC  [ we/PRP ] just/RB share/VBP off/RP like/IN  [ that/DT ] ./.,(S (CC and) (NP-SBJ (PRP we)) (ADVP (RB just)) (VP (VBP share) (PRT (RP off)) (PP (IN like) (NP (DT that)))) (. .) (-DFL- E_S)),197
sw01utt/sw_0111_2018.utt,2/sw2018,2018,127,b,B,75,1,Uh-huh.  /,[ Uh-huh/UH ] ./.,(INTJ (UH Uh-huh) (. .) (-DFL- E_S)),175
sw01utt/sw_0111_2018.utt,2/sw2018,2018,128,qy,B,75,2,Do you get the full benefits? /,Do/VBP  [ you/PRP ] get/VB  [ the/DT full/JJ benefits/NNS ] ?/.,(SQ (VBP Do) (NP-SBJ (PRP you)) (VP (VB get) (NP (DT the) (JJ full) (NNS benefits))) (. ?) (-DFL- E_S)),200
sw01utt/sw_0111_2018.utt,2/sw2018,2018,129,ny,A,76,1,"Uh-huh,  /","[ Uh-huh/UH ] ,/,","(INTJ (UH Uh-huh) (, ,) (-DFL- E_S))",202
sw01utt/sw_0111_2018.utt,2/sw2018,2018,130,ny,A,76,2,yeah  /,yeah/UH,(INTJ (UH yeah) (-DFL- E_S)),170
sw01utt/sw_0111_2018.utt,2/sw2018,2018,131,sd^e,A,76,3,we get the full benefits. /,[ we/PRP ] get/VBP  [ the/DT full/JJ benefits/NNS ] ./.,(S (NP-SBJ (PRP we)) (VP (VBP get) (NP (DT the) (JJ full) (NNS benefits))) (. .) (-DFL- E_S)),204
sw01utt/sw_0111_2018.utt,2/sw2018,2018,132,ba,B,77,1,"{F Oh, } that's wonderful. /","Oh/UH ,/,  [ that/DT ] 's/BES wonderful/JJ ./.","(S (INTJ (UH Oh)) (, ,) (NP-SBJ (DT that)) (VP (BES 's) (ADJP-PRD (JJ wonderful))) (. .) (-DFL- E_S))",206
sw01utt/sw_0111_2018.utt,2/sw2018,2018,133,sd,A,78,1,{C But } we've just really got a wonderful  system that we're working under. /,But/CC  [ we/PRP ] 've/VBP just/RB really/RB got/VBN  [ a/DT wonderful/JJ system/NN ] that/WDT  [ we/PRP ] 're/VBP working/VBG under/IN ./.,(S (CC But) (NP-SBJ (PRP we)) (VP (VBP 've) (ADVP (RB just)) (ADVP (RB really)) (VP (VBN got) (NP (NP (DT a) (JJ wonderful) (NN system)) (SBAR (WHNP-1 (WDT that)) (S (NP-SBJ (PRP we)) (VP (VBP 're) (VP (VBG working) (PP (IN under) (NP (-NONE- *T*-1)))))))))) (. .) (-DFL- E_S)),208
sw01utt/sw_0111_2018.utt,2/sw2018,2018,134,aa,B,79,1,"Yeah,  /","Yeah/UH ,/,","(INTJ (UH Yeah) (, ,) (-DFL- E_S))",210
sw01utt/sw_0111_2018.utt,2/sw2018,2018,135,sv,B,79,2,"especially with children,  and so  many  things going on,","especially/RB with/IN  [ children/NNS ] ,/, and/CC  [ so/RB many/JJ things/NNS ] going/VBG on/RP ,/,","(S (ADVP (RB especially)) (PP (IN with) (NP (NP (NNS children)) (, ,) (CC and) (NP (NP (ADJP (RB so) (JJ many)) (NNS things)) (VP (VBG going) (PRT (RP on)))))) (, ,) (NP-SBJ (DT that)) (VP (MD would) (VP (VB be) (ADJP-PRD (JJ great)))) (. .) (-DFL- E_S))",211
sw01utt/sw_0111_2018.utt,2/sw2018,2018,136,b,A,80,1,Yeah. /,Yeah/UH ./.,(INTJ (UH Yeah) (. .) (-DFL- E_S)),213
sw01utt/sw_0111_2018.utt,2/sw2018,2018,137,+,B,81,1,that would be great. /,[ that/DT ] would/MD be/VB great/JJ ./.,"(S (ADVP (RB especially)) (PP (IN with) (NP (NP (NNS children)) (, ,) (CC and) (NP (NP (ADJP (RB so) (JJ many)) (NNS things)) (VP (VBG going) (PRT (RP on)))))) (, ,) (NP-SBJ (DT that)) (VP (MD would) (VP (VB be) (ADJP-PRD (JJ great)))) (. .) (-DFL- E_S))",211
sw01utt/sw_0111_2018.utt,2/sw2018,2018,138,sd,A,82,1,"It really is,  /","[ It/PRP ] really/RB is/VBZ ,/,","(S (NP-SBJ (PRP It)) (ADVP (RB really)) (VP (VBZ is) (ADJP-PRD (-NONE- *?*))) (, ,) (-DFL- E_S))",216
sw01utt/sw_0111_2018.utt,2/sw2018,2018,139,sd,A,82,2,"{C and } that way we're not really  missing any thing out, {D you know, }","and/CC  [ that/DT way/NN ] [ we/PRP ] 're/VBP not/RB really/RB missing/VBG  [ any/GW thing/^NN ] out/RP ,/,  [ you/PRP ] know/VBP ,/,","(S (CC and) (NP-MNR (DT that) (NN way)) (NP-SBJ (PRP we)) (VP (VBP 're) (RB not) (ADVP (RB really)) (VP (VBG missing) (NP (TYPO (GW any) (^NN thing))) (PP-PRP (RP out) (PRN (, ,) (S (NP-SBJ (PRP you)) (VP (VBP know))) (, ,)) (PP (IN of) (X (XX MUMBLEx)) (NP (NNS children)))))) (, ,) (-DFL- E_S))",217
sw01utt/sw_0111_2018.utt,2/sw2018,2018,140,^2,B,83,1,"Either way, -/","Either/DT  [ way/NN ] ,/,","(NP-UNF (DT Either) (NN way) (, ,) (-DFL- N_S))",219
sw01utt/sw_0111_2018.utt,2/sw2018,2018,141,+,A,84,1,"of  ((   ))  children,  /","of/IN  [ MUMBLEx/XX children/NNS ] ,/,","(S (CC and) (NP-MNR (DT that) (NN way)) (NP-SBJ (PRP we)) (VP (VBP 're) (RB not) (ADVP (RB really)) (VP (VBG missing) (NP (TYPO (GW any) (^NN thing))) (PP-PRP (RP out) (PRN (, ,) (S (NP-SBJ (PRP you)) (VP (VBP know))) (, ,)) (PP (IN of) (X (XX MUMBLEx)) (NP (NNS children)))))) (, ,) (-DFL- E_S))",217
sw01utt/sw_0111_2018.utt,2/sw2018,2018,142,%,A,84,2,uh-huh. /,[ uh-huh/UH ] ./.,(INTJ (UH uh-huh) (. .) (-DFL- E_S)),221
sw01utt/sw_0111_2018.utt,2/sw2018,2018,143,aa,B,85,1,"yeah,  /","yeah/UH ,/,","(INTJ (UH yeah) (, ,) (-DFL- E_S))",223
sw01utt/sw_0111_2018.utt,2/sw2018,2018,144,bf,B,85,2,"you have your career and your home life,  /","[ you/PRP ] have/VBP  [ your/PRP$ career/NN ] and/CC  [ your/PRP$ home/NN life/NN ] ,/,","(S (NP-SBJ (PRP you)) (VP (VBP have) (NP (NP (PRP$ your) (NN career)) (CC and) (NP (PRP$ your) (NN home) (NN life)))) (, ,) (-DFL- E_S))",224
sw01utt/sw_0111_2018.utt,2/sw2018,2018,145,sv,B,85,3,"{C and } that would be a nice way, especially if you have young children. /","and/CC  [ that/DT ] would/MD be/VB  [ a/DT nice/JJ way/NN ] ,/, especially/RB if/IN  [ you/PRP ] have/VBP  [ young/JJ children/NNS ] ./.","(S (CC and) (NP-SBJ (DT that)) (VP (MD would) (VP (VB be) (NP-PRD (DT a) (JJ nice) (NN way)) (, ,) (SBAR-ADV (ADVP (RB especially)) (IN if) (S (NP-SBJ (PRP you)) (VP (VBP have) (NP (JJ young) (NNS children))))))) (. .) (-DFL- E_S))",225
sw01utt/sw_0111_2018.utt,2/sw2018,2018,146,sd,A,86,1,"{F Oh, } it is,  /","Oh/UH ,/,  [ it/PRP ] is/VBZ ,/,","(S (INTJ (UH Oh)) (, ,) (NP-SBJ (PRP it)) (VP (VBZ is) (NP-PRD (-NONE- *?*))) (, ,) (-DFL- E_S))",227
sw01utt/sw_0111_2018.utt,2/sw2018,2018,147,sd^r,A,86,2,"it is,  /","[ it/PRP ] is/VBZ ,/,","(S (NP-SBJ (PRP it)) (VP (VBZ is) (NP-PRD (-NONE- *?*))) (, ,) (-DFL- E_S))",228
sw01utt/sw_0111_2018.utt,2/sw2018,2018,148,sd,A,86,3,"{D well } both of ours  is school age,  /","well/UH  [ both/DT ] of/IN  [ ours/PRP ] is/VBZ  [ school/NN age/NN ] ,/,","(S (INTJ (UH well)) (NP-SBJ (NP (DT both)) (PP (IN of) (NP (PRP ours)))) (VP (VBZ is) (NP-PRD (NN school) (NN age))) (, ,) (-DFL- E_S))",229
sw01utt/sw_0111_2018.utt,2/sw2018,2018,149,sd,A,86,4,"{C but } we don't want to miss any of those  P T A -s and, {D you know, } all of that. /","but/CC  [ we/PRP ] do/VBP n't/RB want/VB to/TO miss/VB  [ any/DT ] of/IN  [ those/DT P/NNP T/NNP ] [ A/NNP -s/NNPS ] and/CC ,/,  [ you/PRP ] know/VBP ,/,  [ all/DT ] of/IN  [ that/DT ] ./.","(S (CC but) (NP-SBJ-1 (PRP we)) (VP (VBP do) (RB n't) (VP (VB want) (S (NP-SBJ (-NONE- *-1)) (VP (TO to) (VP (VB miss) (NP (NP (NP (DT any)) (PP (IN of) (NP (DT those) (NNP P) (NNP T) (NNP A) (NNPS -s)))) (CC and) (PRN (, ,) (S (NP-SBJ (PRP you)) (VP (VBP know))) (, ,)) (NP (NP (DT all)) (PP (IN of) (NP (DT that)))))))))) (. .) (-DFL- E_S))",230
sw01utt/sw_0111_2018.utt,2/sw2018,2018,150,aa,B,87,1,"Uh-huh,  /","[ Uh-huh/UH ] ,/,","(INTJ (UH Uh-huh) (, ,) (-DFL- E_S))",202
sw01utt/sw_0111_2018.utt,2/sw2018,2018,151,aa,B,87,2,"{F oh, } no,  /","oh/UH ,/, no/UH ,/,","(INTJ (INTJ (UH oh)) (, ,) (INTJ (UH no)) (, ,) (-DFL- E_S))",233
sw01utt/sw_0111_2018.utt,2/sw2018,2018,152,%,B,87,3,"I think, - /","[ I/PRP ] think/VBP ,/,","(S (NP-SBJ (PRP I)) (VP-UNF (VBP think)) (, ,) (-DFL- N_S))",234
sw01utt/sw_0111_2018.utt,2/sw2018,2018,153,%,B,87,4,yeah.  /,yeah/UH ./.,(INTJ (UH yeah) (. .) (-DFL- E_S)),235
sw01utt/sw_0111_2018.utt,2/sw2018,2018,154,sd,B,87,5,My son's just in day-care  /,[ My/PRP$ son/NN ] 's/BES just/RB in/IN  [ day-care/NN ],(S (NP-SBJ (PRP$ My) (NN son)) (VP (BES 's) (ADVP (RB just)) (PP-PRD (IN in) (NP (NN day-care)))) (-DFL- E_S)),236
sw01utt/sw_0111_2018.utt,2/sw2018,2018,155,sd,B,87,6,{C but } even that they have extracurricular activities  /,but/CC even/RB that/IN  [ they/PRP ] have/VBP  [ extracurricular/JJ activities/NNS ],(S (CC but) (NP-LOC (RB even) (IN that)) (NP-SBJ (PRP they)) (VP (VBP have) (NP (JJ extracurricular) (NNS activities))) (-DFL- E_S)),237
sw01utt/sw_0111_2018.utt,2/sw2018,2018,156,sd,B,87,7,{C and } the older they get the more that you're involved in that. /,and/CC  [ the/DT older/JJR they/PRP ] get/VBP  [ the/DT more/JJR ] that/WDT  [ you/PRP ] 're/VBP involved/JJ in/IN  [ that/DT ] ./.,(FRAG (CC and) (S-ADV (NP-SBJ (-NONE- *)) (ADJP-PRD (ADJP (DT the) (JJR older)) (SBAR (WHADJP-1 (-NONE- 0)) (S (NP-SBJ (PRP they)) (VP (VBP get) (ADJP-PRD (-NONE- *T*-1))))))) (ADVP (ADVP (DT the) (JJR more)) (SBAR (WDT that) (S (NP-SBJ (PRP you)) (VP (VBP 're) (ADJP-PRD (JJ involved) (PP (IN in) (NP (DT that)))))))) (. .) (-DFL- E_S)),238
sw01utt/sw_0111_2018.utt,2/sw2018,2018,157,b,A,88,1,Uh-huh.  /,[ Uh-huh/UH ] ./.,(INTJ (UH Uh-huh) (. .) (-DFL- E_S)),240
sw01utt/sw_0111_2018.utt,2/sw2018,2018,158,sv,A,88,2,"I think it's great,  /","[ I/PRP ] think/VBP  [ it/PRP ] 's/BES great/JJ ,/,","(S (NP-SBJ (PRP I)) (VP (VBP think) (SBAR (-NONE- 0) (S (NP-SBJ (PRP it)) (VP (BES 's) (ADJP-PRD (JJ great)))))) (, ,) (-DFL- E_S))",241
sw01utt/sw_0111_2018.utt,2/sw2018,2018,159,%,A,88,3,"I really, -/","[ I/PRP ] really/RB ,/,","(S-UNF (NP-SBJ (PRP I)) (ADVP (RB really)) (, ,) (-DFL- N_S))",242
sw01utt/sw_0111_2018.utt,2/sw2018,2018,160,b,B,89,1,"Yeah, /","Yeah/UH ,/,","(INTJ (UH Yeah) (, ,) (-DFL- E_S))",210
sw01utt/sw_0111_2018.utt,2/sw2018,2018,161,sd,A,90,1,{C and } I look for more of that in the next generation. /,and/CC  [ I/PRP ] look/VBP for/IN more/JJR of/IN  [ that/DT ] in/IN  [ the/DT next/JJ generation/NN ] ./.,(S (CC and) (NP-SBJ (PRP I)) (VP (VBP look) (PP (IN for) (NP (NP (JJR more)) (PP (IN of) (NP (DT that))))) (PP-TMP (IN in) (NP (DT the) (JJ next) (NN generation)))) (. .) (-DFL- E_S)),246
sw01utt/sw_0111_2018.utt,2/sw2018,2018,162,sd,B,91,1,"I do too, especially as women get up in management  [ and, + and ] can be in on those decision making, - /","[ I/PRP ] do/VBP too/RB ,/, especially/RB as/IN  [ women/NNS ] get/VBP up/RP in/IN  [ management/NN ] and/CC ,/, and/CC can/MD be/VB in/RP on/IN  [ those/DT decision/NN ] making/NN ,/,","(S (NP-SBJ (PRP I)) (VP (VBP do) (ADVP (RB too)) (, ,) (ADVP (RB especially)) (SBAR-TMP (IN as) (S (NP-SBJ (NNS women)) (VP (VP (VBP get) (PP (RP up) (PP (IN in) (NP (NN management))))) (EDITED (RM (-DFL- \[)) (CC and) (, ,) (IP (-DFL- \+))) (CC and) (RS (-DFL- \])) (VP (MD can) (VP (VB be) (PP-PRD (RP in) (PP (IN on) (NP-UNF (DT those) (NN decision) (NN making)))))))))) (, ,) (-DFL- N_S))",248
sw01utt/sw_0111_2018.utt,2/sw2018,2018,163,sd(^q),B,91,2,"{D you know, }  when that subject  comes up they can say yes,  /","[ you/PRP ] know/VBP ,/, when/WRB  [ that/DT subject/NN ] comes/VBZ up/RP  [ they/PRP ] can/MD say/VB yes/UH ,/,","(S (PRN (S (NP-SBJ (PRP you)) (VP (VBP know))) (, ,)) (SBAR-TMP (WHADVP-1 (WRB when)) (S (NP-SBJ (DT that) (NN subject)) (VP (VBZ comes) (PRT (RP up)) (ADVP-TMP (-NONE- *T*-1))))) (NP-SBJ (PRP they)) (VP (MD can) (VP (VB say) (INTJ-SEZ (UH yes)))) (, ,) (-DFL- E_S))",249
sw01utt/sw_0111_2018.utt,2/sw2018,2018,164,sv,B,91,3,that would be wonderful. /,that/DT would/MD be/VB wonderful/JJ ./.,(S (NP-SBJ (DT that)) (VP (MD would) (VP (VB be) (ADJP-PRD (JJ wonderful)))) (. .) (-DFL- E_S)),250
sw01utt/sw_0111_2018.utt,2/sw2018,2018,165,aa,A,92,1,"Yes,  /","Yes/UH ,/,","(INTJ (UH Yes) (, ,) (-DFL- E_S))",252
sw01utt/sw_0111_2018.utt,2/sw2018,2018,166,sd,A,92,2,"{F oh, } I do too. /","oh/UH ,/,  [ I/PRP ] do/VBP too/RB ./.","(S (INTJ (UH oh)) (, ,) (NP-SBJ (PRP I)) (VP (VBP do) (ADVP (RB too))) (. .) (-DFL- E_S))",253
sw01utt/sw_0111_2018.utt,2/sw2018,2018,167,sv,B,93,1,"Plus, I bet it [ cuts, + cuts ] down on your  absenteeism because you've got two days off that you can do everything,  /","[ Plus/CC ] ,/,  [ I/PRP ] bet/VBP  [ it/PRP ] cuts/VBZ ,/, cuts/VBZ down/RP on/IN  [ your/PRP$ absenteeism/NN ] because/IN  [ you/PRP ] 've/VBP got/VBN  [ two/CD days/NNS ] off/RP that/WDT  [ you/PRP ] can/MD do/VB  [ everything/NN ] ,/,","(S (CC Plus) (, ,) (NP-SBJ (PRP I)) (VP (VBP bet) (SBAR (-NONE- 0) (S (NP-SBJ (PRP it)) (EDITED (RM (-DFL- \[)) (VP-UNF (VBZ cuts)) (, ,) (IP (-DFL- \+))) (VP (VBZ cuts) (RS (-DFL- \])) (PRT (RP down)) (PP (IN on) (NP (PRP$ your) (NN absenteeism))) (SBAR-PRP (IN because) (S (NP-SBJ (PRP you)) (VP (VBP 've) (VP (VBN got) (NP (NP (CD two) (NNS days) (RP off)) (SBAR (WHADVP-1 (WDT that)) (S (NP-SBJ (PRP you)) (VP (MD can) (VP (VB do) (NP (NN everything)) (ADVP-TMP (-NONE- *T*-1))))))))))))))) (, ,) (-DFL- E_S))",255
sw01utt/sw_0111_2018.utt,2/sw2018,2018,168,sv,B,93,2,"{C so } you don't have to,  {D you know, } unless you're just really sick,  or the child's sick. /","so/IN  [ you/PRP ] do/VBP n't/RB have/VB to/TO ,/,  [ you/PRP ] know/VBP ,/, unless/IN  [ you/PRP ] 're/VBP just/RB really/RB  [ sick/JJ ] ,/, or/CC  [ the/DT child/NN ] 's/BES sick/JJ ./.","(S (RB so) (NP-SBJ-1 (PRP you)) (VP (VBP do) (RB n't) (VP (VB have) (S (NP-SBJ (-NONE- *-1)) (VP (TO to) (VP (-NONE- *?*) (PRN (, ,) (S (NP-SBJ (PRP you)) (VP (VBP know))) (, ,)) (SBAR-ADV (IN unless) (S (S (NP-SBJ (PRP you)) (VP (VBP 're) (ADVP (RB just)) (ADJP-PRD (RB really) (JJ sick)))) (, ,) (CC or) (S (NP-SBJ (DT the) (NN child)) (VP (BES 's) (ADJP-PRD (JJ sick))))))))))) (. .) (-DFL- E_S))",256
sw01utt/sw_0111_2018.utt,2/sw2018,2018,169,sd,A,94,1,"Most of the time now, {D you know, }    it's just the weekend,  /","Most/JJS of/IN  [ the/DT time/NN ] now/RB ,/,  [ you/PRP ] know/VBP ,/,  [ it/PRP ] 's/BES just/RB  [ the/DT weekend/NN ] ,/,","(S (NP-TMP (NP (JJS Most)) (PP (IN of) (NP (DT the) (NN time)))) (ADVP-TMP (RB now)) (PRN (, ,) (S (NP-SBJ (PRP you)) (VP (VBP know))) (, ,)) (NP-SBJ (PRP it)) (VP (BES 's) (ADVP (RB just)) (NP-PRD (DT the) (NN weekend))) (, ,) (-DFL- E_S))",258
sw01utt/sw_0111_2018.utt,2/sw2018,2018,170,sd,A,94,2,{C or } just forget it. /,or/CC just/RB forget/VB  [ it/PRP ] ./.,(S-IMP (CC or) (NP-SBJ (-NONE- *)) (ADVP (RB just)) (VP (VB forget) (NP (PRP it))) (. .) (-DFL- E_S)),259
sw01utt/sw_0111_2018.utt,2/sw2018,2018,171,b,B,95,1,"Uh-huh,  /","[ Uh-huh/UH ] ,/,","(INTJ (UH Uh-huh) (, ,) (-DFL- E_S))",232
sw01utt/sw_0111_2018.utt,2/sw2018,2018,172,b,B,95,2,"{F oh } yeah,  /","oh/UH yeah/UH ,/,","(INTJ (INTJ (UH oh)) (INTJ (UH yeah)) (, ,) (-DFL- E_S))",262
sw01utt/sw_0111_2018.utt,2/sw2018,2018,173,sd,B,95,3,"I have to plan way  in advance, because, - /","[ I/PRP ] have/VBP to/TO plan/VB  [ way/NN ] in/IN  [ advance/NN ] ,/, because/IN ,/,","(S (NP-SBJ-1 (PRP I)) (VP (VBP have) (S (NP-SBJ (-NONE- *-1)) (VP (TO to) (VP (VB plan) (PP (NP-ADV (NN way)) (IN in) (NP (NN advance))) (, ,) (SBAR-PRP-UNF (IN because)))))) (, ,) (-DFL- N_S))",263
sw01utt/sw_0111_2018.utt,2/sw2018,2018,174,sd,B,95,4,"{C or, }  what I've done is found {D like } doctors' and dentists' office with extended hours. /","or/CC ,/,  [ what/WP ] [ I/PRP ] 've/VBP done/VBN is/VBZ found/VBN like/UH  [ doctors/NNS '/POS ] and/CC  [ dentists/NNS '/POS office/NN ] with/IN  [ extended/JJ hours/NNS ] ./.","(S (CC or) (, ,) (SBAR-NOM-SBJ (WHNP-1 (WP what)) (S (NP-SBJ (PRP I)) (VP (VBP 've) (VP (VBN done) (NP (-NONE- *T*-1)))))) (VP (VBZ is) (S-PRD (NP-SBJ (-NONE- *)) (VP (VBN found) (INTJ (UH like)) (NP (NP (NP (NP (NNS doctors) (POS ')) (CC and) (NP (NNS dentists) (POS '))) (NN office)) (PP (IN with) (NP (JJ extended) (NNS hours))))))) (. .) (-DFL- E_S))",264
sw01utt/sw_0111_2018.utt,2/sw2018,2018,175,b,A,96,1,Uh-huh. /,[ Uh-huh/UH ] ./.,(INTJ (UH Uh-huh) (. .) (-DFL- E_S)),240
sw01utt/sw_0111_2018.utt,2/sw2018,2018,176,sd,B,97,1,"That's been real helpful too,  /","[ That/DT ] 's/HVS been/VBN real/RB helpful/JJ too/RB ,/,","(S (NP-SBJ (DT That)) (VP (HVS 's) (VP (VBN been) (ADJP-PRD (RB real) (JJ helpful)) (ADVP (RB too)))) (, ,) (-DFL- E_S))",268
sw01utt/sw_0111_2018.utt,2/sw2018,2018,177,sd,B,97,2,{D like } my doctor stays open til nine in the evening.  /,like/IN  [ my/PRP$ doctor/NN stays/NNS ] open/JJ til/IN  [ nine/CD ] in/IN  [ the/DT evening/NN ] ./.,(S (INTJ (UH like)) (NP-SBJ (PRP$ my) (NN doctor)) (VP (NNS stays) (ADJP-PRD (JJ open)) (PP-TMP (IN til) (NP (NP (CD nine)) (PP-TMP (IN in) (NP (DT the) (NN evening)))))) (. .) (-DFL- E_S)),269
sw01utt/sw_0111_2018.utt,2/sw2018,2018,178,sd,B,97,3,"{C So } that's real helpful,  /","So/RB  [ that/DT ] 's/BES real/RB helpful/JJ ,/,","(S (RB So) (NP-SBJ (DT that)) (VP (BES 's) (ADJP-PRD (RB real) (JJ helpful))) (, ,) (-DFL- E_S))",270
sw01utt/sw_0111_2018.utt,2/sw2018,2018,179,sd,B,97,4,"{C so } you don't, {D you know, } have to do it during office hours, run out on your lunch hour. /","so/RB  [ you/PRP ] do/VBP n't/RB ,/,  [ you/PRP ] know/VBP ,/, have/VB to/TO do/VB  [ it/PRP ] during/IN  [ office/NN hours/NNS ] ,/, run/VB out/RB on/IN  [ your/PRP$ lunch/NN hour/NN ] ./.","(S (RB so) (NP-SBJ-1 (PRP you)) (VP (VBP do) (RB n't) (PRN (, ,) (S (NP-SBJ (PRP you)) (VP (VBP know))) (, ,)) (VP (VB have) (S (NP-SBJ (-NONE- *-1)) (VP (TO to) (VP (VP (VB do) (NP (PRP it)) (PP-TMP (IN during) (NP (NN office) (NNS hours)))) (, ,) (VP (VB run) (PRT (RB out)) (PP-TMP (IN on) (NP (PRP$ your) (NN lunch) (NN hour))))))))) (. .) (-DFL- E_S))",271
sw01utt/sw_0111_2018.utt,2/sw2018,2018,180,sd,B,97,5,"I don't know how many times I've done that to do something,","[ I/PRP ] do/VBP n't/RB know/VB how/WRB  [ many/JJ times/NNS I/PRP ] 've/VBP done/VBN that/DT to/TO do/VB  [ something/NN ] ,/,","(S (NP-SBJ (PRP I)) (VP (VBP do) (RB n't) (VP (VB know) (SBAR (WHNP-1 (WRB how) (JJ many) (NNS times)) (S (NP-SBJ-2 (PRP I)) (VP (VBP 've) (VP (VBN done) (NP (DT that)) (NP-TMP (-NONE- *T*-1)) (S-PRP (NP-SBJ (-NONE- *-2)) (VP (TO to) (VP (VB do) (NP (NP (NN something)) (, ,) (NP (NP (NN post) (NN office)) (CC or) (NP (DT the) (NN bank)) (CC or) (NP (NP (DT any) (NN kind)) (PP (IN of) (NP (NN errand))))))))))))))) (, ,) (-DFL- E_S))",272
sw01utt/sw_0111_2018.utt,2/sw2018,2018,181,b^m,A,98,1,"To do,  /","To/TO do/VB ,/,","(S (NP-SBJ (-NONE- *)) (VP (TO To) (VP-UNF (VB do))) (, ,) (-DFL- E_S))",274
sw01utt/sw_0111_2018.utt,2/sw2018,2018,182,b,A,98,2,yeah. /,yeah/UH ./.,(INTJ (UH yeah) (. .) (-DFL- E_S)),235
sw01utt/sw_0111_2018.utt,2/sw2018,2018,183,+,B,99,1,"post office or the bank or any kind of errand,  /","[ post/NN office/NN ] or/CC  [ the/DT bank/NN ] or/CC  [ any/DT kind/NN ] of/IN  [ errand/NN ] ,/,","(S (NP-SBJ (PRP I)) (VP (VBP do) (RB n't) (VP (VB know) (SBAR (WHNP-1 (WRB how) (JJ many) (NNS times)) (S (NP-SBJ-2 (PRP I)) (VP (VBP 've) (VP (VBN done) (NP (DT that)) (NP-TMP (-NONE- *T*-1)) (S-PRP (NP-SBJ (-NONE- *-2)) (VP (TO to) (VP (VB do) (NP (NP (NN something)) (, ,) (NP (NP (NN post) (NN office)) (CC or) (NP (DT the) (NN bank)) (CC or) (NP (NP (DT any) (NN kind)) (PP (IN of) (NP (NN errand))))))))))))))) (, ,) (-DFL- E_S))",272
sw01utt/sw_0111_2018.utt,2/sw2018,2018,184,%,B,99,2,{C so. } -/,so/RB ./.,(S-UNF (RB so) (. .) (-DFL- N_S)),277
sw01utt/sw_0111_2018.utt,2/sw2018,2018,185,aa,A,100,1,Uh-huh.  /,[ Uh-huh/UH ] ./.,(INTJ (UH Uh-huh) (. .) (-DFL- E_S)),240
sw01utt/sw_0111_2018.utt,2/sw2018,2018,186,sv,A,100,2,"{D Well } I think we've really come  a long way in that because, -/","Well/UH  [ I/PRP ] think/VBP  [ we/PRP ] 've/VBP really/RB come/VBN  [ a/DT long/JJ way/NN ] in/IN  [ that/DT ] because/IN ,/,","(S (INTJ (UH Well)) (NP-SBJ (PRP I)) (VP (VBP think) (SBAR (-NONE- 0) (S (NP-SBJ (PRP we)) (VP (VBP 've) (ADVP (RB really)) (VP (VBN come) (NP (DT a) (JJ long) (NN way)) (PP (IN in) (NP (DT that))))))) (SBAR-PRP-UNF (IN because))) (, ,) (-DFL- N_S))",280
sw01utt/sw_0111_2018.utt,2/sw2018,2018,187,aa,B,101,1,"Uh-huh,  /","[ Uh-huh/UH ] ,/,","(INTJ (UH Uh-huh) (, ,) (-DFL- E_S))",261
sw01utt/sw_0111_2018.utt,2/sw2018,2018,188,sd,B,101,2,"I guess I take it for granted, kind of, because,  I just, - /","[ I/PRP ] guess/VBP  [ I/PRP ] take/VBP  [ it/PRP ] for/IN granted/JJ ,/,  [ kind/RB ] of/RB ,/, because/IN ,/,  [ I/PRP ] just/RB ,/,","(S (NP-SBJ (PRP I)) (VP (VBP guess) (SBAR (-NONE- 0) (S (NP-SBJ (PRP I)) (VP (VBP take) (NP (PRP it)) (PP (IN for) (ADJP (JJ granted))) (, ,) (ADVP (RB kind) (RB of)) (, ,) (SBAR-PRP (IN because) (, ,) (S-UNF (NP-SBJ (PRP I)) (ADVP (RB just)))))))) (, ,) (-DFL- N_S))",283
sw01utt/sw_0111_2018.utt,2/sw2018,2018,189,sd,B,101,3,it's always been that way. /,[ it/PRP ] 's/HVS always/RB been/VBN  [ that/DT way/NN ] ./.,(S (NP-SBJ (PRP it)) (VP (HVS 's) (ADVP-TMP (RB always)) (VP (VBN been) (NP-MNR-PRD (DT that) (NN way)))) (. .) (-DFL- E_S)),284
sw01utt/sw_0111_2018.utt,2/sw2018,2018,190,b,A,102,1,Uh-huh. /,[ Uh-huh/UH ] ./.,(INTJ (UH Uh-huh) (. .) (-DFL- E_S)),266
sw01utt/sw_0111_2018.utt,2/sw2018,2018,191,%,B,103,1,"{C But } I know, -/","But/CC  [ I/PRP ] know/VBP ,/,","(S (CC But) (NP-SBJ (PRP I)) (VP-UNF (VBP know)) (, ,) (-DFL- N_S))",288
sw01utt/sw_0111_2018.utt,2/sw2018,2018,192,b,A,104,1,"Yeah,  /","Yeah/UH ,/,","(INTJ (UH Yeah) (, ,) (-DFL- E_S))",290
sw01utt/sw_0111_2018.utt,2/sw2018,2018,193,sd,A,104,2,"{C but } I can [ rem-, + remember ]  back growing up, my mother, - /","but/CC  [ I/PRP ] can/MD rem/VB ,/, remember/VB back/RB growing/VBG up/RP ,/,  [ my/PRP$ mother/NN ] ,/,","(S (CC but) (NP-SBJ (PRP I)) (VP (MD can) (EDITED (RM (-DFL- \[)) (VP-UNF (VB rem-)) (, ,) (IP (-DFL- \+))) (VP (VB remember) (RS (-DFL- \])) (SBAR (-NONE- 0) (S-UNF (ADVP-TMP (RB back)) (S-ADV (NP-SBJ (-NONE- *)) (VP (VBG growing) (PRT (RP up)))) (, ,) (NP-SBJ (PRP$ my) (NN mother)))))) (, ,) (-DFL- N_S))",291
sw01utt/sw_0111_2018.utt,2/sw2018,2018,194,%,A,104,3,{E I mean } it was - /,[ I/PRP ] mean/VBP  [ it/PRP ] was/VBD,(S (PRN (S (NP-SBJ (PRP I)) (VP (VBP mean)))) (NP-SBJ (PRP it)) (VP-UNF (VBD was)) (-DFL- N_S)),292
sw01utt/sw_0111_2018.utt,2/sw2018,2018,195,sd,A,104,4,"she  always worked,  /","[ she/PRP ] always/RB worked/VBD ,/,","(S (NP-SBJ (PRP she)) (ADVP-TMP (RB always)) (VP (VBD worked)) (, ,) (-DFL- E_S))",293
sw01utt/sw_0111_2018.utt,2/sw2018,2018,196,sd,A,104,5,{C but } it wasn't that easy  for her to just take off. /,but/CC  [ it/PRP ] [ was/VBD n't/RB ] that/RB easy/JJ for/IN  [ her/PRP ] to/TO just/RB take/VB off/RP ./.,(S (CC but) (NP-SBJ (NP (PRP it)) (SBAR (-NONE- *EXP*-1))) (VP (VBD was) (RB n't) (ADJP-PRD (RB that) (JJ easy)) (SBAR-1 (IN for) (S (NP-SBJ (PRP her)) (VP (TO to) (ADVP (RB just)) (VP (VB take) (PRT (RP off))))))) (. .) (-DFL- E_S)),294
sw01utt/sw_0111_2018.utt,2/sw2018,2018,197,aa,B,105,1,"{F Oh } no,  /","Oh/UH no/UH ,/,","(INTJ (INTJ (UH Oh)) (INTJ (UH no)) (, ,) (-DFL- E_S))",296
sw01utt/sw_0111_2018.utt,2/sw2018,2018,198,sd,B,105,2,"I can remember my mother  getting in trouble if, {D you know, } one of was sick,  /","[ I/PRP ] can/MD remember/VB  [ my/PRP$ mother/NN ] getting/VBG in/IN  [ trouble/NN ] if/IN ,/,  [ you/PRP ] know/VBP ,/,  [ one/CD ] of/IN was/VBD sick/JJ ,/,","(S (NP-SBJ (PRP I)) (VP (MD can) (VP (VB remember) (S (NP-SBJ (PRP$ my) (NN mother)) (VP (VBG getting) (PP (IN in) (NP (NN trouble))) (SBAR-ADV (IN if) (PRN (, ,) (S (NP-SBJ (PRP you)) (VP (VBP know))) (, ,)) (S (NP-SBJ (NP (CD one)) (PP-UNF (IN of))) (VP (VBD was) (ADJP-PRD (JJ sick))))))))) (, ,) (-DFL- E_S))",297
sw01utt/sw_0111_2018.utt,2/sw2018,2018,199,sd,B,105,3,"{C and } I know she probably didn't   make hardly anything, {D you know, } compared to the work that she did. /","and/CC  [ I/PRP ] know/VBP  [ she/PRP ] probably/RB did/VBD n't/RB make/VB hardly/RB  [ anything/NN ] ,/,  [ you/PRP ] know/VBP ,/, compared/JJ to/IN  [ the/DT work/NN ] that/WDT  [ she/PRP ] did/VBD ./.","(S (CC and) (NP-SBJ (PRP I)) (VP (VBP know) (SBAR (-NONE- 0) (S (NP-SBJ (PRP she)) (ADVP (RB probably)) (VP (VBD did) (RB n't) (VP (VB make) (NP (RB hardly) (NN anything)) (PRN (, ,) (S (NP-SBJ (PRP you)) (VP (VBP know))) (, ,)) (PP (JJ compared) (PP (IN to) (NP (NP (DT the) (NN work)) (SBAR (WHNP-1 (WDT that)) (S (NP-SBJ (PRP she)) (VP (VBD did) (NP (-NONE- *T*-1))))))))))))) (. .) (-DFL- E_S))",298
sw01utt/sw_0111_2018.utt,2/sw2018,2018,200,aa,A,106,1,{F Oh } yeah. /,Oh/UH yeah/UH ./.,(INTJ (INTJ (UH Oh)) (INTJ (UH yeah)) (. .) (-DFL- E_S)),300
sw01utt/sw_0111_2018.utt,2/sw2018,2018,201,sd,B,107,1,"I think there is still some discrimination  there where [ as, + ] {D you know, } men and women work in the same job,  /","[ I/PRP ] think/VBP  [ there/EX ] is/VBZ still/RB  [ some/DT discrimination/NN ] [ there/EX ] where/WRB as/IN ,/,  [ you/PRP ] know/VBP ,/,  [ men/NNS ] and/CC  [ women/NNS ] work/VBP in/IN  [ the/DT same/JJ job/NN ] ,/,","(S (NP-SBJ (PRP I)) (VP (VBP think) (SBAR (-NONE- 0) (S (NP-SBJ (EX there)) (VP (VBZ is) (ADVP-TMP (RB still)) (NP-PRD (NP (DT some) (NN discrimination)) (ADVP (EX there)) (SBAR (WHADVP-1 (WRB where)) (EDITED (RM (-DFL- \[)) (IN as) (, ,) (IP (-DFL- \+))) (RS (-DFL- \])) (PRN (S (NP-SBJ (PRP you)) (VP (VBP know))) (, ,)) (S (NP-SBJ (NNS men) (CC and) (NNS women)) (VP (VBP work) (PP (IN in) (NP (DT the) (JJ same) (NN job))) (ADVP (-NONE- *T*-1)))))))))) (, ,) (-DFL- E_S))",302
sw01utt/sw_0111_2018.utt,2/sw2018,2018,202,sd,B,107,2,"I think men get paid more, /","[ I/PRP ] think/VBP  [ men/NNS ] get/VBP paid/VBN  [ more/JJR ] ,/,","(S (NP-SBJ (PRP I)) (VP (VBP think) (SBAR (-NONE- 0) (S (NP-SBJ-1 (NNS men)) (VP (VBP get) (VP (VBN paid) (NP (-NONE- *-1)) (NP (JJR more))))))) (, ,) (-DFL- E_S))",303
sw01utt/sw_0111_2018.utt,2/sw2018,2018,203,aa,A,108,1,"{F Oh, } I do too. /","Oh/UH ,/,  [ I/PRP ] do/VBP too/RB ./.","(S (INTJ (UH Oh)) (, ,) (NP-SBJ (PRP I)) (VP (VBP do) (ADVP (RB too))) (. .) (-DFL- E_S))",305
sw01utt/sw_0111_2018.utt,2/sw2018,2018,204,sv,B,109,1,{C but } I think that's improving.  /,but/CC  [ I/PRP ] think/VBP  [ that/DT ] 's/BES improving/VBG ./.,(S (CC but) (NP-SBJ (PRP I)) (VP (VBP think) (SBAR (-NONE- 0) (S (NP-SBJ (DT that)) (VP (BES 's) (VP (VBG improving)))))) (. .) (-DFL- E_S)),307
sw01utt/sw_0111_2018.utt,2/sw2018,2018,205,sv,B,109,2,It's such a slow process  /,[ It/PRP ] 's/BES such/PDT  [ a/DT slow/JJ process/NN ],(S (NP-SBJ (PRP It)) (VP (BES 's) (NP-PRD (PDT such) (DT a) (JJ slow) (NN process))) (-DFL- E_S)),308
sw01utt/sw_0111_2018.utt,2/sw2018,2018,206,sv,B,109,3,"it's frustrating,  /","[ it/PRP ] 's/BES frustrating/JJ ,/,","(S (NP-SBJ (PRP it)) (VP (BES 's) (ADJP-PRD (JJ frustrating))) (, ,) (-DFL- E_S))",309
sw01utt/sw_0111_2018.utt,2/sw2018,2018,207,sv,B,109,4,"{C but, }","but/CC ,/,","(S (CC but) (, ,) (NP-SBJ (PRP you)) (VP (MD can) (VP (VB see) (SBAR (IN that) (S (NP-SBJ (PRP it)) (VP (BES 's) (ADJP-PRD (JJ wrong))))))) (-DFL- E_S))",310
sw01utt/sw_0111_2018.utt,2/sw2018,2018,208,b,A,110,1,"Yes,  /","Yes/UH ,/,","(INTJ (UH Yes) (, ,) (-DFL- E_S))",312
sw01utt/sw_0111_2018.utt,2/sw2018,2018,209,b^r,A,110,2,yes. /,yes/UH ./.,(INTJ (UH yes) (. .) (-DFL- E_S)),313
sw01utt/sw_0111_2018.utt,2/sw2018,2018,210,+,B,111,1,you can see that it's wrong  /,[ you/PRP ] can/MD see/VB that/IN  [ it/PRP ] 's/BES wrong/JJ,"(S (CC but) (, ,) (NP-SBJ (PRP you)) (VP (MD can) (VP (VB see) (SBAR (IN that) (S (NP-SBJ (PRP it)) (VP (BES 's) (ADJP-PRD (JJ wrong))))))) (-DFL- E_S))",310
sw01utt/sw_0111_2018.utt,2/sw2018,2018,211,sv,B,111,2,"{C and } you just want to make it right,  /","and/CC  [ you/PRP ] just/RB want/VBP to/TO make/VB  [ it/PRP ] right/JJ ,/,","(S (CC and) (NP-SBJ-1 (PRP you)) (ADVP (RB just)) (VP (VBP want) (S (NP-SBJ (-NONE- *-1)) (VP (TO to) (VP (VB make) (S (NP-SBJ (PRP it)) (ADJP-PRD (JJ right))))))) (, ,) (-DFL- E_S))",315
sw01utt/sw_0111_2018.utt,2/sw2018,2018,212,sv,B,111,3,{C but } at least the wheels are moving forward. /,but/CC at/IN  [ least/JJS the/DT wheels/NNS ] are/VBP moving/VBG forward/RB ./.,(S (CC but) (ADVP (IN at) (JJS least)) (NP-SBJ (DT the) (NNS wheels)) (VP (VBP are) (VP (VBG moving) (ADVP-DIR (RB forward)))) (. .) (-DFL- E_S)),316
sw01utt/sw_0111_2018.utt,2/sw2018,2018,213,aa,A,112,1,They really are. /,[ They/PRP ] really/RB are/VBP ./.,(S (NP-SBJ (PRP They)) (ADVP (RB really)) (VP (VBP are) (VP (-NONE- *?*))) (. .) (-DFL- E_S)),318
sw01utt/sw_0111_2018.utt,2/sw2018,2018,214,aa,B,113,1,"Yeah,  /","[ Yeah/UH ] ,/,","(INTJ (UH Yeah) (, ,) (-DFL- E_S))",290
sw01utt/sw_0111_2018.utt,2/sw2018,2018,215,sv,B,113,2,"I think it's getting better, not worse.  /","[ I/PRP ] think/VBP  [ it/PRP ] 's/BES getting/VBG better/JJR ,/, not/RB worse/JJR ./.","(S (NP-SBJ (PRP I)) (VP (VBP think) (SBAR (-NONE- 0) (S (NP-SBJ (PRP it)) (VP (BES 's) (VP (VBG getting) (ADJP-PRD (JJR better) (, ,) (RB not) (JJR worse))))))) (. .) (-DFL- E_S))",321
sw01utt/sw_0111_2018.utt,2/sw2018,2018,216,fc,B,113,3,"{D Well, } I should probably get back to my job <laughter>. /","Well/UH ,/,  [ I/PRP ] should/MD probably/RB get/VB back/RB to/IN  [ my/PRP$ job/NN ] ./.","(S (INTJ (UH Well)) (, ,) (NP-SBJ (PRP I)) (VP (MD should) (ADVP (RB probably)) (VP (VB get) (ADVP (RB back)) (PP (IN to) (NP (PRP$ my) (NN job))))) (. .) (-DFL- E_S))",322
sw01utt/sw_0111_2018.utt,2/sw2018,2018,217,fc,A,114,1,"I know,  /","[ I/PRP ] know/VBP ,/,","(S (NP-SBJ (PRP I)) (VP (VBP know)) (, ,) (-DFL- E_S))",324
sw01utt/sw_0111_2018.utt,2/sw2018,2018,218,fc,A,114,2,<laughter> I know the feeling. /,[ I/PRP ] know/VBP  [ the/DT feeling/NN ] ./.,(S (NP-SBJ (PRP I)) (VP (VBP know) (NP (DT the) (NN feeling))) (. .) (-DFL- E_S)),325
sw01utt/sw_0111_2018.utt,2/sw2018,2018,219,fc,B,115,1,Call again. /,Call/VB again/RB ./.,(S-IMP (NP-SBJ (-NONE- *)) (VP (VB Call) (ADVP (RB again))) (. .) (-DFL- E_S)),327
sw01utt/sw_0111_2018.utt,2/sw2018,2018,220,fc,A,116,1,"Okay,  /","[ Okay/UH ] ,/,","(INTJ (UH Okay) (, ,) (-DFL- E_S))",329
sw01utt/sw_0111_2018.utt,2/sw2018,2018,221,fc,A,116,2,I sure will.  /,[ I/PRP ] sure/RB will/MD ./.,(S (NP-SBJ (PRP I)) (ADVP (RB sure)) (VP (MD will) (VP (-NONE- *?*))) (. .) (-DFL- E_S)),330
sw01utt/sw_0111_2018.utt,2/sw2018,2018,222,fc,A,116,3,Bye-bye. /,[ Bye-bye/UH ] ./.,(INTJ (UH Bye-bye) (. .) (-DFL- E_S)),331
sw01utt/sw_0111_2018.utt,2/sw2018,2018,223,fc,B,117,1,"Okay,  /","[ Okay/UH ] ,/,","(INTJ (UH Okay) (, ,) (-DFL- E_S))",329
sw01utt/sw_0111_2018.utt,2/sw2018,2018,224,fc,B,117,2,bye-bye. /,[ bye-bye/UH ] ./.,(INTJ (UH bye-bye) (. .) (-DFL- E_S)),334
