sw3092A-ms98-a-0001	A.1	0.000000	0.050000		[silence]	[silence]
sw3092A-ms98-a-0001	A.1	0.050000	0.100000		[noise]	[noise]
sw3092A-ms98-a-0001	A.1	0.100000	0.529250		[silence]	[silence]
sw3092A-ms98-a-0002	A.1	0.529250	1.040625		[silence]	[silence]
sw3092A-ms98-a-0002	A.1	1.040625	1.779250		Okay	okay
sw3092A-ms98-a-0002	A.1	1.779250	2.019250		uh	uh
sw3092A-ms98-a-0002	A.1	2.019250	2.249250		do	do
sw3092A-ms98-a-0002	A.1	2.249250	2.379250		you	you
sw3092A-ms98-a-0002	A.1	2.379250	2.659250		work	work
sw3092A-ms98-a-0002	A.1	2.659250	3.009250		outside	outside
sw3092A-ms98-a-0002	A.1	3.009250	3.089250		the	the
sw3092A-ms98-a-0002	A.1	3.089250	3.450250		home	home
sw3092A-ms98-a-0002	A.3	3.450250	3.983625		[silence]	[silence]
sw3092A-ms98-a-0003	A.3	3.983625	4.443625		[silence]	[silence]
sw3092A-ms98-a-0003	A.3	4.443625	5.053625		Okay	okay
sw3092A-ms98-a-0003	A.3	5.053625	5.662250		wow	wow
sw3092A-ms98-a-0003	A.5	5.662250	6.478500		[laughter]	[laughter]
sw3092A-ms98-a-0003	A.5	6.478500	6.740500		Have	have
sw3092A-ms98-a-0003	A.5	6.740500	7.087375		you	you
sw3092A-ms98-a-0003	A.7	7.087375	7.639500		[silence]	[silence]
sw3092A-ms98-a-0003	A.7	7.639500	7.949250	<DEL>	---	have
sw3092A-ms98-a-0003	A.7	7.949250	8.233500		[silence]	[silence]
sw3092A-ms98-a-0003	A.7	8.233500	8.683625		Yes	yes
sw3092A-ms98-a-0003	A.7	8.683625	9.062625		uh-huh	uh-huh
sw3092A-ms98-a-0003	A.9	9.062625	9.442000		[silence]	[silence]
sw3092A-ms98-a-0004	A.9	9.442000	11.799375		[silence]	[silence]
sw3092A-ms98-a-0005	A.9	11.799375	12.079375		[silence]	[silence]
sw3092A-ms98-a-0005	A.9	12.079375	12.539375		Okay	okay
sw3092A-ms98-a-0005	A.9	12.539375	12.729375		well	well
sw3092A-ms98-a-0005	A.9	12.729375	12.979375		yes	yes
sw3092A-ms98-a-0005	A.9	12.979375	13.133375		I	i
sw3092A-ms98-a-0005	A.9	13.133375	13.389375		do	do
sw3092A-ms98-a-0005	A.11	13.389375	13.529375		[silence]	[silence]
sw3092A-ms98-a-0005	A.11	13.529375	13.619375		In	in
sw3092A-ms98-a-0005	A.11	13.619375	13.929375		fact	fact
sw3092A-ms98-a-0005	A.11	13.929375	13.979375		I	i
sw3092A-ms98-a-0005	A.11	13.979375	14.069375		am	am
sw3092A-ms98-a-0005	A.11	14.069375	14.219375		at	at
sw3092A-ms98-a-0005	A.11	14.219375	14.429375		work	work
sw3092A-ms98-a-0005	A.11	14.429375	14.629375		right	right
sw3092A-ms98-a-0005	A.11	14.629375	14.945875		now	now
sw3092A-ms98-a-0005	A.11	14.945875	15.665250		[silence]	[silence]
sw3092A-ms98-a-0005	A.11	15.665250	16.154375		Uh	uh
sw3092A-ms98-a-0005	A.11	16.154375	16.512250		[silence]	[silence]
sw3092A-ms98-a-0005	A.11	16.512250	16.989375		and	and
sw3092A-ms98-a-0005	A.11	16.989375	17.109375		[silence]	[silence]
sw3092A-ms98-a-0005	A.11	17.109375	17.229375		so	so
sw3092A-ms98-a-0005	A.11	17.229375	17.349375		let	let
sw3092A-ms98-a-0005	A.11	17.349375	17.429375		me	me
sw3092A-ms98-a-0005	A.11	17.429375	17.649375		take	take
sw3092A-ms98-a-0005	A.11	17.649375	17.739375		the	the
sw3092A-ms98-a-0005	A.11	17.739375	18.215500		lead	lead
sw3092A-ms98-a-0005	A.11	18.215500	18.339375		uh	uh
sw3092A-ms98-a-0005	A.11	18.339375	18.922875		Angela	Angela
sw3092A-ms98-a-0005	A.11	18.922875	19.363500		[silence]	[silence]
sw3092A-ms98-a-0005	A.11	19.363500	19.589375		Uh	uh
sw3092A-ms98-a-0005	A.11	19.589375	19.747000		I	i
sw3092A-ms98-a-0005	A.11	19.747000	19.973000		think	think
sw3092A-ms98-a-0005	A.11	19.973000	20.449875		[silence]	[silence]
sw3092A-ms98-a-0006	A.11	20.449875	20.729875		[silence]	[silence]
sw3092A-ms98-a-0006	A.11	20.729875	20.939875		what	what
sw3092A-ms98-a-0006	A.11	20.939875	21.099875		is	is
sw3092A-ms98-a-0006	A.11	21.099875	21.339875		really	really
sw3092A-ms98-a-0006	A.11	21.339875	22.071500		important	important
sw3092A-ms98-a-0006	A.11	22.071500	22.195875		[silence]	[silence]
sw3092A-ms98-a-0006	A.11	22.195875	22.639875		uh	uh
sw3092A-ms98-a-0006	A.11	22.639875	24.169875		[noise]	[noise]
sw3092A-ms98-a-0006	A.11	24.169875	24.229875		of	of
sw3092A-ms98-a-0006	A.11	24.229875	24.499875		course	course
sw3092A-ms98-a-0006	A.11	24.499875	24.799875		salary	salary
sw3092A-ms98-a-0006	A.11	24.799875	24.929875		is	is
sw3092A-ms98-a-0006	A.11	24.929875	25.109875		very	very
sw3092A-ms98-a-0006	A.11	25.109875	25.579875		important	important
sw3092A-ms98-a-0006	A.11	25.579875	25.819875		because	because
sw3092A-ms98-a-0006	A.11	25.819875	26.059875		that's	that's
sw3092A-ms98-a-0006	A.11	26.059875	26.119875		why	why
sw3092A-ms98-a-0006	A.11	26.119875	26.229875		you	you
sw3092A-ms98-a-0006	A.11	26.229875	26.309500		are	are
sw3092A-ms98-a-0006	A.11	26.309500	26.617250		working	working
sw3092A-ms98-a-0006	A.11	26.617250	26.850750	<DEL>	---	is
sw3092A-ms98-a-0006	A.11	26.850750	26.929875		for	for
sw3092A-ms98-a-0006	A.11	26.929875	27.178625		your	your
sw3092A-ms98-a-0006	A.11	27.178625	27.304250		[silence]	[silence]
sw3092A-ms98-a-0006	A.11	27.304250	27.660375	<DEL>	---	it's
sw3092A-ms98-a-0006	A.11	27.660375	27.799875		for	for
sw3092A-ms98-a-0006	A.11	27.799875	27.869875		the	the
sw3092A-ms98-a-0006	A.11	27.869875	28.199875		money	money
sw3092A-ms98-a-0006	A.11	28.199875	28.446125		but	but
sw3092A-ms98-a-0006	A.11	28.446125	28.781375		[silence]	[silence]
sw3092A-ms98-a-0006	A.11	28.781375	29.061125		job	job
sw3092A-ms98-a-0006	A.11	29.061125	29.355000		[silence]	[silence]
sw3092A-ms98-a-0006	A.11	29.355000	30.139875		satisfaction	satisfaction
sw3092A-ms98-a-0006	A.11	30.139875	30.299875		to	to
sw3092A-ms98-a-0006	A.11	30.299875	30.579875		me	me
sw3092A-ms98-a-0006	A.11	30.579875	30.789875		is	is
sw3092A-ms98-a-0006	A.11	30.789875	31.319875		also	also
sw3092A-ms98-a-0006	A.11	31.319875	31.549875		uh	uh
sw3092A-ms98-a-0006	A.11	31.549875	31.899875		very	very
sw3092A-ms98-a-0006	A.11	31.899875	32.581625		important	important
sw3092A-ms98-a-0006	A.11	32.581625	33.233250		[silence]	[silence]
sw3092A-ms98-a-0006	A.11	33.233250	33.349875		in	in
sw3092A-ms98-a-0006	A.11	33.349875	33.759875		having	having
sw3092A-ms98-a-0006	A.11	33.759875	33.809875		a	a
sw3092A-ms98-a-0006	A.11	33.809875	34.355750		job	job
sw3092A-ms98-a-0006	A.11	34.355750	34.613875		[silence]	[silence]
sw3092A-ms98-a-0007	A.11	34.613875	35.023875		[silence]	[silence]
sw3092A-ms98-a-0007	A.11	35.023875	35.563875		And	and
sw3092A-ms98-a-0007	A.11	35.563875	35.960625		uh	uh
sw3092A-ms98-a-0007	A.11	35.960625	37.218625		[silence]	[silence]
sw3092A-ms98-a-0007	A.11	37.218625	37.483875		one	one
sw3092A-ms98-a-0007	A.11	37.483875	37.563875		of	of
sw3092A-ms98-a-0007	A.11	37.563875	37.633875		the	the
sw3092A-ms98-a-0007	A.11	37.633875	38.053875		things	things
sw3092A-ms98-a-0007	A.11	38.053875	38.493875		that	that
sw3092A-ms98-a-0007	A.11	38.493875	38.949875		uh	uh
sw3092A-ms98-a-0007	A.11	38.949875	39.383000		[silence]	[silence]
sw3092A-ms98-a-0007	A.11	39.383000	39.793875		she	she
sw3092A-ms98-a-0007	A.11	39.793875	40.243875	<DEL>	---	um
sw3092A-ms98-a-0007	A.11	40.243875	40.443875		asked	asked
sw3092A-ms98-a-0007	A.11	40.443875	40.669250		us	us
sw3092A-ms98-a-0007	A.11	40.669250	40.865125		to	to
sw3092A-ms98-a-0007	A.11	40.865125	41.443875		discuss	discuss
sw3092A-ms98-a-0007	A.11	41.443875	41.873875		was	was
sw3092A-ms98-a-0007	A.11	41.873875	42.591625		benefits	benefits
sw3092A-ms98-a-0007	A.11	42.591625	42.983375		[silence]	[silence]
sw3092A-ms98-a-0007	A.11	42.983375	43.481250		Uh	uh
sw3092A-ms98-a-0007	A.11	43.481250	44.056625		[silence]	[silence]
sw3092A-ms98-a-0007	A.11	44.056625	44.433250		I'm	i'm
sw3092A-ms98-a-0007	A.11	44.433250	44.943875		assuming	assuming
sw3092A-ms98-a-0007	A.11	44.943875	45.093875		that	that
sw3092A-ms98-a-0007	A.11	45.093875	45.233875		you	you
sw3092A-ms98-a-0007	A.11	45.233875	45.363875		are	are
sw3092A-ms98-a-0007	A.11	45.363875	45.793875		married	married
sw3092A-ms98-a-0007	A.11	45.793875	45.933875		and	and
sw3092A-ms98-a-0007	A.11	45.933875	46.123875		have	have
sw3092A-ms98-a-0007	A.11	46.123875	46.273875		a	a
sw3092A-ms98-a-0007	A.11	46.273875	46.723875		husband	husband
sw3092A-ms98-a-0007	A.11	46.723875	46.863875		that	that
sw3092A-ms98-a-0007	A.11	46.863875	47.423875		supports	supports
sw3092A-ms98-a-0007	A.11	47.423875	47.663875		you	you
sw3092A-ms98-a-0007	A.13	47.663875	48.256250		[silence]	[silence]
sw3092A-ms98-a-0008	A.13	48.256250	48.408625		[silence]	[silence]
sw3092A-ms98-a-0008	A.13	48.408625	48.969250		Okay	okay
sw3092A-ms98-a-0008	A.13	48.969250	49.299375		[silence]	[silence]
sw3092A-ms98-a-0008	A.13	49.299375	49.516250		And	and
sw3092A-ms98-a-0008	A.13	49.516250	49.776250		so	so
sw3092A-ms98-a-0008	A.13	49.776250	49.946250		we	we
sw3092A-ms98-a-0008	A.13	49.946250	50.128750		could	could
sw3092A-ms98-a-0008	A.13	50.128750	50.377250		[silence]	[silence]
sw3092A-ms98-a-0008	A.13	50.377250	50.486250		we	we
sw3092A-ms98-a-0008	A.13	50.486250	50.656250		could	could
sw3092A-ms98-a-0008	A.13	50.656250	50.956250		talk	talk
sw3092A-ms98-a-0008	A.13	50.956250	51.366250		about	about
sw3092A-ms98-a-0008	A.13	51.366250	51.586250		[silence]	[silence]
sw3092A-ms98-a-0008	A.13	51.586250	52.070375		uh	uh
sw3092A-ms98-a-0008	A.13	52.070375	52.300125		[silence]	[silence]
sw3092A-ms98-a-0008	A.13	52.300125	52.666250		that	that
sw3092A-ms98-a-0008	A.13	52.666250	53.215500		path	path
sw3092A-ms98-a-0008	A.13	53.215500	53.328500		[silence]	[silence]
sw3092A-ms98-a-0008	A.13	53.328500	53.466250		you	you
sw3092A-ms98-a-0008	A.13	53.466250	53.766250		know	know
sw3092A-ms98-a-0008	A.13	53.766250	54.136250		[silence]	[silence]
sw3092A-ms98-a-0008	A.13	54.136250	54.366250		how	how
sw3092A-ms98-a-0008	A.13	54.366250	54.926250		important	important
sw3092A-ms98-a-0008	A.13	54.926250	55.086250		you	you
sw3092A-ms98-a-0008	A.13	55.086250	55.366250		think	think
sw3092A-ms98-a-0008	A.13	55.366250	55.536250		his	his
sw3092A-ms98-a-0008	A.13	55.536250	56.076250		benefits	benefits
sw3092A-ms98-a-0008	A.13	56.076250	56.336250		are	are
sw3092A-ms98-a-0008	A.13	56.336250	56.526250		And	and
sw3092A-ms98-a-0008	A.13	56.526250	56.976250		[silence]	[silence]
sw3092A-ms98-a-0008	A.13	56.976250	57.305500		and	and
sw3092A-ms98-a-0008	A.13	57.305500	57.900500		and	and
sw3092A-ms98-a-0008	A.13	57.900500	58.176250		uh	uh
sw3092A-ms98-a-0008	A.13	58.176250	58.396250		how	how
sw3092A-ms98-a-0008	A.13	58.396250	58.886250		important	important
sw3092A-ms98-a-0008	A.13	58.886250	58.996250		you	you
sw3092A-ms98-a-0008	A.13	58.996250	59.236250		think	think
sw3092A-ms98-a-0008	A.13	59.236250	59.446250		they	they
sw3092A-ms98-a-0008	A.13	59.446250	59.666250		are	are
sw3092A-ms98-a-0008	A.13	59.666250	59.776250		and	and
sw3092A-ms98-a-0008	A.13	59.776250	59.866250		if	if
sw3092A-ms98-a-0008	A.13	59.866250	60.076250		[silence]	[silence]
sw3092A-ms98-a-0008	A.13	60.076250	60.196250		what	what
sw3092A-ms98-a-0008	A.13	60.196250	60.346250		would	would
sw3092A-ms98-a-0008	A.13	60.346250	60.446250		you	you
sw3092A-ms98-a-0008	A.13	60.446250	60.616250		like	like
sw3092A-ms98-a-0008	A.13	60.616250	60.726250		to	to
sw3092A-ms98-a-0008	A.13	60.726250	60.916250		see	see
sw3092A-ms98-a-0008	A.13	60.916250	61.626250		increased	increased
sw3092A-ms98-a-0008	A.15	61.626250	62.058625		[silence]	[silence]
sw3092A-ms98-a-0009	A.15	62.058625	63.198625		[silence]	[silence]
sw3092A-ms98-a-0009	A.15	63.198625	63.358625		in	in
sw3092A-ms98-a-0009	A.15	63.358625	63.508625		his	his
sw3092A-ms98-a-0009	A.15	63.508625	64.138625		benefits	benefits
sw3092A-ms98-a-0009	A.15	64.138625	64.508625		Like	like
sw3092A-ms98-a-0009	A.15	64.508625	64.733875		uh	uh
sw3092A-ms98-a-0009	A.15	64.733875	65.543625		[silence]	[silence]
sw3092A-ms98-a-0009	A.15	65.543625	66.078625		perhaps	perhaps
sw3092A-ms98-a-0009	A.15	66.078625	66.228625		uh	uh
sw3092A-ms98-a-0009	A.15	66.228625	66.478625		he	he
sw3092A-ms98-a-0009	A.15	66.478625	66.868625		has	has
sw3092A-ms98-a-0009	A.15	66.868625	67.128625		uh	uh
sw3092A-ms98-a-0009	A.17	67.128625	67.657125		[silence]	[silence]
sw3092A-ms98-a-0010	A.17	67.657125	67.923750		[silence]	[silence]
sw3092A-ms98-a-0010	A.17	67.923750	67.987125		the	the
sw3092A-ms98-a-0010	A.17	67.987125	68.457125		benefit	benefit
sw3092A-ms98-a-0010	A.17	68.457125	68.537125		of	of
sw3092A-ms98-a-0010	A.17	68.537125	68.887125		having	having
sw3092A-ms98-a-0010	A.17	68.887125	69.457125		eyeglasses	eyeglasses
sw3092A-ms98-a-0010	A.17	69.457125	69.607125		for	for
sw3092A-ms98-a-0010	A.17	69.607125	69.697125		the	the
sw3092A-ms98-a-0010	A.17	69.697125	70.391625		family	family
sw3092A-ms98-a-0010	A.17	70.391625	71.029750		[silence]	[silence]
sw3092A-ms98-a-0010	A.17	71.029750	71.553750		uh	uh
sw3092A-ms98-a-0010	A.17	71.553750	72.170500		[silence]	[silence]
sw3092A-ms98-a-0010	A.17	72.170500	72.733625		uh	uh
sw3092A-ms98-a-0010	A.17	72.733625	73.007125		and	and
sw3092A-ms98-a-0010	A.17	73.007125	73.117125		how	how
sw3092A-ms98-a-0010	A.17	73.117125	73.407750		much	much
sw3092A-ms98-a-0010	A.17	73.407750	73.984000		coverage	coverage
sw3092A-ms98-a-0010	A.17	73.984000	74.297125		uh	uh
sw3092A-ms98-a-0010	A.17	74.297125	74.577125		it	it
sw3092A-ms98-a-0010	A.17	74.577125	75.441500		provides	provides
sw3092A-ms98-a-0010	A.17	75.441500	75.848250		[silence]	[silence]
sw3092A-ms98-a-0010	A.17	75.848250	76.037125		and	and
sw3092A-ms98-a-0010	A.17	76.037125	76.587125		also	also
sw3092A-ms98-a-0010	A.17	76.587125	76.797125		your	your
sw3092A-ms98-a-0010	A.17	76.797125	77.267125		hospital	hospital
sw3092A-ms98-a-0010	A.17	77.267125	77.987125		coverage	coverage
sw3092A-ms98-a-0010	A.17	77.987125	78.427125		and	and
sw3092A-ms98-a-0010	A.17	78.427125	78.757875		uh	uh
sw3092A-ms98-a-0010	A.17	78.757875	79.084375		[silence]	[silence]
sw3092A-ms98-a-0011	A.17	79.084375	79.754375		[silence]	[silence]
sw3092A-ms98-a-0011	A.17	79.754375	80.167375		um	um
sw3092A-ms98-a-0011	A.17	80.167375	80.340625		[silence]	[silence]
sw3092A-ms98-a-0011	A.17	80.340625	80.814375		probably	probably
sw3092A-ms98-a-0011	A.17	80.814375	81.311625		dental	dental
sw3092A-ms98-a-0011	A.17	81.311625	81.733500		[silence]	[silence]
sw3092A-ms98-a-0011	A.17	81.733500	81.874375		How	how
sw3092A-ms98-a-0011	A.17	81.874375	82.304375		important	important
sw3092A-ms98-a-0011	A.17	82.304375	82.404375		you	you
sw3092A-ms98-a-0011	A.17	82.404375	82.634375		think	think
sw3092A-ms98-a-0011	A.17	82.634375	82.814375		that	that
sw3092A-ms98-a-0011	A.17	82.814375	82.974375		would	would
sw3092A-ms98-a-0011	A.17	82.974375	83.331250		be	be
sw3092A-ms98-a-0011	A.19	83.331250	84.363000		[silence]	[silence]
sw3092A-ms98-a-0012	A.19	84.363000	91.219000		[silence]	[silence]
sw3092A-ms98-a-0013	A.19	91.219000	91.669000		[silence]	[silence]
sw3092A-ms98-a-0013	A.19	91.669000	92.029000		Because	because
sw3092A-ms98-a-0013	A.19	92.029000	92.329000		they	they
sw3092A-ms98-a-0013	A.19	92.329000	92.503875	<SUB>	of	and
sw3092A-ms98-a-0013	A.19	92.503875	92.865500		[silence]	[silence]
sw3092A-ms98-a-0013	A.19	92.865500	93.129000		course	course
sw3092A-ms98-a-0013	A.19	93.129000	93.309000		if	if
sw3092A-ms98-a-0013	A.19	93.309000	93.389000		you	you
sw3092A-ms98-a-0013	A.19	93.389000	93.509000		did	did
sw3092A-ms98-a-0013	A.19	93.509000	93.599000		not	not
sw3092A-ms98-a-0013	A.19	93.599000	93.839000		have	have
sw3092A-ms98-a-0013	A.19	93.839000	93.959000		them	them
sw3092A-ms98-a-0013	A.19	93.959000	94.039000		you	you
sw3092A-ms98-a-0013	A.19	94.039000	94.139000		would	would
sw3092A-ms98-a-0013	A.19	94.139000	94.239000		be	be
sw3092A-ms98-a-0013	A.19	94.239000	94.579000		pulling	pulling
sw3092A-ms98-a-0013	A.19	94.579000	94.779000		from	from
sw3092A-ms98-a-0013	A.19	94.779000	94.869000		your	your
sw3092A-ms98-a-0013	A.19	94.869000	95.309000		salary	salary
sw3092A-ms98-a-0013	A.19	95.309000	95.429000		of	of
sw3092A-ms98-a-0013	A.19	95.429000	95.875375		course	course
sw3092A-ms98-a-0013	A.21	95.875375	96.184250		[silence]	[silence]
sw3092A-ms98-a-0013	A.21	96.184250	96.639625		Right	right
sw3092A-ms98-a-0013	A.23	96.639625	96.859375		[silence]	[silence]
sw3092A-ms98-a-0013	A.23	96.859375	97.153250		right	right
sw3092A-ms98-a-0013	A.25	97.153250	97.576750		[silence]	[silence]
sw3092A-ms98-a-0014	A.25	97.576750	100.819500		[silence]	[silence]
sw3092A-ms98-a-0015	A.25	100.819500	101.099500		[silence]	[silence]
sw3092A-ms98-a-0015	A.25	101.099500	101.249500		And	and
sw3092A-ms98-a-0015	A.25	101.249500	101.389500		they	they
sw3092A-ms98-a-0015	A.25	101.389500	101.669500		always	always
sw3092A-ms98-a-0015	A.25	101.669500	101.859500		have	have
sw3092A-ms98-a-0015	A.25	101.859500	102.479500		surprises	surprises
sw3092A-ms98-a-0015	A.25	102.479500	102.629500		for	for
sw3092A-ms98-a-0015	A.25	102.629500	102.850750		you	you
sw3092A-ms98-a-0015	A.27	102.850750	103.163375		[silence]	[silence]
sw3092A-ms98-a-0015	A.27	103.163375	103.299500		With	with
sw3092A-ms98-a-0015	A.27	103.299500	103.808375		children	children
sw3092A-ms98-a-0015	A.29	103.808375	104.113375		[silence]	[silence]
sw3092A-ms98-a-0015	A.29	104.113375	104.229500		You	you
sw3092A-ms98-a-0015	A.29	104.229500	104.449500		know	know
sw3092A-ms98-a-0015	A.29	104.449500	104.629500		and	and
sw3092A-ms98-a-0015	A.29	104.629500	104.970625		so	so
sw3092A-ms98-a-0015	A.29	104.970625	105.539375		[silence]	[silence]
sw3092A-ms98-a-0015	A.29	105.539375	105.831375		it's	it's
sw3092A-ms98-a-0015	A.29	105.831375	106.181625		[silence]	[silence]
sw3092A-ms98-a-0015	A.29	106.181625	106.278125		it	it
sw3092A-ms98-a-0015	A.29	106.278125	106.555125		is	is
sw3092A-ms98-a-0015	A.29	106.555125	106.870125		[silence]	[silence]
sw3092A-ms98-a-0015	A.29	106.870125	107.354500		uh	uh
sw3092A-ms98-a-0015	A.29	107.354500	107.527375		[silence]	[silence]
sw3092A-ms98-a-0016	A.29	107.527375	107.785625		[silence]	[silence]
sw3092A-ms98-a-0016	A.29	107.785625	107.937375		we	we
sw3092A-ms98-a-0016	A.29	107.937375	108.157375		could	could
sw3092A-ms98-a-0016	A.29	108.157375	108.307375		not	not
sw3092A-ms98-a-0016	A.29	108.307375	108.417375		do	do
sw3092A-ms98-a-0016	A.29	108.417375	108.787375		without	without
sw3092A-ms98-a-0016	A.29	108.787375	108.857375		the	the
sw3092A-ms98-a-0016	A.29	108.857375	109.257375		benefit	benefit
sw3092A-ms98-a-0016	A.29	109.257375	109.747375		package	package
sw3092A-ms98-a-0016	A.29	109.747375	110.095500		from	from
sw3092A-ms98-a-0016	A.29	110.095500	110.619000		[silence]	[silence]
sw3092A-ms98-a-0016	A.29	110.619000	110.935000		from	from
sw3092A-ms98-a-0016	A.29	110.935000	111.157250		[silence]	[silence]
sw3092A-ms98-a-0016	A.29	111.157250	111.337375		any	any
sw3092A-ms98-a-0016	A.29	111.337375	111.837375		company	company
sw3092A-ms98-a-0016	A.29	111.837375	112.017375		that	that
sw3092A-ms98-a-0016	A.29	112.017375	112.142375		we	we
sw3092A-ms98-a-0016	A.29	112.142375	112.417375		worked	worked
sw3092A-ms98-a-0016	A.29	112.417375	112.676375		for	for
sw3092A-ms98-a-0016	A.29	112.676375	112.838375		[silence]	[silence]
sw3092A-ms98-a-0016	A.29	112.838375	113.187375		whether	whether
sw3092A-ms98-a-0016	A.29	113.187375	113.373375		they	they
sw3092A-ms98-a-0016	A.29	113.373375	113.738625		be	be
sw3092A-ms98-a-0016	A.29	113.738625	113.917250		a	a
sw3092A-ms98-a-0016	A.29	113.917250	114.275125		[silence]	[silence]
sw3092A-ms98-a-0016	A.29	114.275125	115.007375		conglomerate	conglomerate
sw3092A-ms98-a-0016	A.29	115.007375	115.187375		or	or
sw3092A-ms98-a-0016	A.29	115.187375	115.407375		just	just
sw3092A-ms98-a-0016	A.29	115.407375	115.477375		a	a
sw3092A-ms98-a-0016	A.29	115.477375	115.963250		small	small
sw3092A-ms98-a-0016	A.29	115.963250	116.479250		[silence]	[silence]
sw3092A-ms98-a-0016	A.29	116.479250	116.899500		uh	uh
sw3092A-ms98-a-0016	A.29	116.899500	117.347750		[silence]	[silence]
sw3092A-ms98-a-0016	A.29	117.347750	117.541000		uh	uh
sw3092A-ms98-a-0016	A.29	117.541000	117.962875		[silence]	[silence]
sw3092A-ms98-a-0016	A.29	117.962875	118.487375		business	business
sw3092A-ms98-a-0016	A.31	118.487375	118.719250		[silence]	[silence]
sw3092A-ms98-a-0017	A.31	118.719250	125.779000		[silence]	[silence]
sw3092A-ms98-a-0018	A.31	125.779000	126.202125		[silence]	[silence]
sw3092A-ms98-a-0018	A.31	126.202125	126.309000		You	you
sw3092A-ms98-a-0018	A.31	126.309000	126.439000		would	would
sw3092A-ms98-a-0018	A.31	126.439000	126.679000		still	still
sw3092A-ms98-a-0018	A.31	126.679000	126.829000		have	have
sw3092A-ms98-a-0018	A.31	126.829000	127.309000		something	something
sw3092A-ms98-a-0018	A.33	127.309000	127.759500		[silence]	[silence]
sw3092A-ms98-a-0019	A.33	127.759500	130.654875		[silence]	[silence]
sw3092A-ms98-a-0020	A.33	130.654875	130.934875		[silence]	[silence]
sw3092A-ms98-a-0020	A.33	130.934875	131.394875		Right	right
sw3092A-ms98-a-0020	A.35	131.394875	131.676375		[silence]	[silence]
sw3092A-ms98-a-0021	A.35	131.676375	135.538125		[silence]	[silence]
sw3092A-ms98-a-0022	A.35	135.538125	135.833875		[silence]	[silence]
sw3092A-ms98-a-0022	A.35	135.833875	136.268125		Yes	yes
sw3092A-ms98-a-0022	A.37	136.268125	136.360375		[silence]	[silence]
sw3092A-ms98-a-0023	A.37	136.360375	141.832875		[silence]	[silence]
sw3092A-ms98-a-0024	A.37	141.832875	142.302375		[silence]	[silence]
sw3092A-ms98-a-0024	A.37	142.302375	142.482875		Uh-huh	uh-huh
sw3092A-ms98-a-0024	A.39	142.482875	142.814500		[silence]	[silence]
sw3092A-ms98-a-0025	A.39	142.814500	143.508375		[silence]	[silence]
sw3092A-ms98-a-0025	A.39	143.508375	143.554500		They	they
sw3092A-ms98-a-0025	A.39	143.554500	143.614500		are	are
sw3092A-ms98-a-0025	A.39	143.614500	143.904500		getting	getting
sw3092A-ms98-a-0025	A.39	143.904500	143.974500		a	a
sw3092A-ms98-a-0025	A.39	143.974500	144.274500		handle	handle
sw3092A-ms98-a-0025	A.39	144.274500	144.414500		on	on
sw3092A-ms98-a-0025	A.39	144.414500	144.654500		that	that
sw3092A-ms98-a-0025	A.39	144.654500	144.754500		[silence]	[silence]
sw3092A-ms98-a-0025	A.39	144.754500	144.884500		in	in
sw3092A-ms98-a-0025	A.39	144.884500	145.254500		fact	fact
sw3092A-ms98-a-0025	A.39	145.254500	145.571875		uh	uh
sw3092A-ms98-a-0025	A.39	145.571875	145.997500		[silence]	[silence]
sw3092A-ms98-a-0025	A.39	145.997500	146.144500		my	my
sw3092A-ms98-a-0025	A.39	146.144500	146.514500		oldest	oldest
sw3092A-ms98-a-0025	A.39	146.514500	146.884500		daughter	daughter
sw3092A-ms98-a-0025	A.39	146.884500	147.224500		is	is
sw3092A-ms98-a-0025	A.39	147.224500	147.714750		uh	uh
sw3092A-ms98-a-0025	A.39	147.714750	148.027250		[silence]	[silence]
sw3092A-ms98-a-0025	A.39	148.027250	148.274500		is	is
sw3092A-ms98-a-0025	A.39	148.274500	148.571250		uh	uh
sw3092A-ms98-a-0025	A.39	148.571250	148.718125		a	a
sw3092A-ms98-a-0025	A.39	148.718125	149.324500		nurse	nurse
sw3092A-ms98-a-0025	A.39	149.324500	149.391250		[silence]	[silence]
sw3092A-ms98-a-0026	A.39	149.391250	149.711250		[silence]	[silence]
sw3092A-ms98-a-0026	A.39	149.711250	149.881250		and	and
sw3092A-ms98-a-0026	A.39	149.881250	150.041250		she	she
sw3092A-ms98-a-0026	A.39	150.041250	150.281250		just	just
sw3092A-ms98-a-0026	A.39	150.281250	150.681250		received	received
sw3092A-ms98-a-0026	A.39	150.681250	150.771250		her	her
sw3092A-ms98-a-0026	A.39	150.771250	151.211250		masters	masters
sw3092A-ms98-a-0026	A.39	151.211250	151.651250		degree	degree
sw3092A-ms98-a-0026	A.39	151.651250	151.801250		and	and
sw3092A-ms98-a-0026	A.39	151.801250	152.051250		she	she
sw3092A-ms98-a-0026	A.39	152.051250	152.271250		is	is
sw3092A-ms98-a-0026	A.39	152.271250	152.851250		now	now
sw3092A-ms98-a-0026	A.39	152.851250	153.224125		[silence]	[silence]
sw3092A-ms98-a-0026	A.39	153.224125	153.471250		into	into
sw3092A-ms98-a-0026	A.39	153.471250	154.311250		consulting	consulting
sw3092A-ms98-a-0026	A.39	154.311250	154.491250		and	and
sw3092A-ms98-a-0026	A.39	154.491250	154.741250		that's	that's
sw3092A-ms98-a-0026	A.39	154.741250	154.861250		one	one
sw3092A-ms98-a-0026	A.39	154.861250	154.941250		of	of
sw3092A-ms98-a-0026	A.39	154.941250	155.001250		the	the
sw3092A-ms98-a-0026	A.39	155.001250	155.431250		areas	areas
sw3092A-ms98-a-0026	A.39	155.431250	155.541250		that	that
sw3092A-ms98-a-0026	A.39	155.541250	155.701250		she	she
sw3092A-ms98-a-0026	A.39	155.701250	155.861250		is	is
sw3092A-ms98-a-0026	A.39	155.861250	156.211250		working	working
sw3092A-ms98-a-0026	A.39	156.211250	156.581250		on	on
sw3092A-ms98-a-0026	A.39	156.581250	157.098750		[silence]	[silence]
sw3092A-ms98-a-0026	A.39	157.098750	157.231250		To	to
sw3092A-ms98-a-0026	A.39	157.231250	157.791250		have	have
sw3092A-ms98-a-0026	A.39	157.791250	158.123375		uh	uh
sw3092A-ms98-a-0026	A.39	158.123375	158.534000		[silence]	[silence]
sw3092A-ms98-a-0027	A.39	158.534000	159.022000		[silence]	[silence]
sw3092A-ms98-a-0027	A.39	159.022000	159.532625		uh	uh
sw3092A-ms98-a-0027	A.39	159.532625	159.890500		[silence]	[silence]
sw3092A-ms98-a-0027	A.39	159.890500	160.004000		a	a
sw3092A-ms98-a-0027	A.39	160.004000	160.154000		day	day
sw3092A-ms98-a-0027	A.39	160.154000	160.414000		care	care
sw3092A-ms98-a-0027	A.39	160.414000	160.970375		center	center
sw3092A-ms98-a-0027	A.39	160.970375	161.094750		[silence]	[silence]
sw3092A-ms98-a-0027	A.39	161.094750	161.414000		for	for
sw3092A-ms98-a-0027	A.39	161.414000	161.542500		the	the
sw3092A-ms98-a-0027	A.39	161.542500	161.945625		[silence]	[silence]
sw3092A-ms98-a-0027	A.39	161.945625	162.214000		indiv-	indiv[idual]-
sw3092A-ms98-a-0027	A.39	162.214000	162.474000		[silence]	[silence]
sw3092A-ms98-a-0027	A.39	162.474000	162.544000		the	the
sw3092A-ms98-a-0027	A.39	162.544000	162.974000		children	children
sw3092A-ms98-a-0027	A.39	162.974000	163.124000		of	of
sw3092A-ms98-a-0027	A.39	163.124000	163.375000		the	the
sw3092A-ms98-a-0027	A.39	163.375000	163.524000		of	of
sw3092A-ms98-a-0027	A.39	163.524000	163.594000		the	the
sw3092A-ms98-a-0027	A.39	163.594000	164.034000		nurses	nurses
sw3092A-ms98-a-0027	A.39	164.034000	164.214000		that	that
sw3092A-ms98-a-0027	A.39	164.214000	164.403250		are	are
sw3092A-ms98-a-0027	A.39	164.403250	164.727250		[silence]	[silence]
sw3092A-ms98-a-0027	A.39	164.727250	165.394000		staffing	staffing
sw3092A-ms98-a-0027	A.39	165.394000	165.514000		the	the
sw3092A-ms98-a-0027	A.39	165.514000	166.237625		facility	facility
sw3092A-ms98-a-0027	A.41	166.237625	166.618375		[silence]	[silence]
sw3092A-ms98-a-0028	A.41	166.618375	167.168375		[silence]	[silence]
sw3092A-ms98-a-0028	A.41	167.168375	167.508375		And	and
sw3092A-ms98-a-0028	A.41	167.508375	167.758375		that	that
sw3092A-ms98-a-0028	A.41	167.758375	167.958375		is	is
sw3092A-ms98-a-0028	A.41	167.958375	168.308375		true	true
sw3092A-ms98-a-0028	A.41	168.308375	168.438375		in	in
sw3092A-ms98-a-0028	A.41	168.438375	168.678375		many	many
sw3092A-ms98-a-0028	A.41	168.678375	168.968375		many	many
sw3092A-ms98-a-0028	A.41	168.968375	169.478375		areas	areas
sw3092A-ms98-a-0028	A.41	169.478375	169.919250		of	of
sw3092A-ms98-a-0028	A.41	169.919250	170.062375		[silence]	[silence]
sw3092A-ms98-a-0028	A.41	170.062375	170.198375		you	you
sw3092A-ms98-a-0028	A.41	170.198375	170.558375		know	know
sw3092A-ms98-a-0028	A.41	170.558375	170.778375		uh	uh
sw3092A-ms98-a-0028	A.41	170.778375	171.120000		[silence]	[silence]
sw3092A-ms98-a-0028	A.41	171.120000	171.318375		job	job
sw3092A-ms98-a-0028	A.41	171.318375	171.738375		titles	titles
sw3092A-ms98-a-0028	A.43	171.738375	171.842750		[silence]	[silence]
sw3092A-ms98-a-0029	A.43	171.842750	172.212750		[silence]	[silence]
sw3092A-ms98-a-0029	A.43	172.212750	172.392750		and	and
sw3092A-ms98-a-0029	A.43	172.392750	173.152750		professions	professions
sw3092A-ms98-a-0029	A.45	173.152750	173.236500		[silence]	[silence]
sw3092A-ms98-a-0030	A.45	173.236500	175.732875		[silence]	[silence]
sw3092A-ms98-a-0031	A.45	175.732875	176.042875		[silence]	[silence]
sw3092A-ms98-a-0031	A.45	176.042875	176.462875		Uh-huh	uh-huh
sw3092A-ms98-a-0031	A.47	176.462875	176.790875		[silence]	[silence]
sw3092A-ms98-a-0032	A.47	176.790875	178.781500		[silence]	[silence]
sw3092A-ms98-a-0033	A.47	178.781500	179.029625		[silence]	[silence]
sw3092A-ms98-a-0033	A.47	179.029625	179.391500		Sure	sure
sw3092A-ms98-a-0033	A.49	179.391500	179.551875		[silence]	[silence]
sw3092A-ms98-a-0034	A.49	179.551875	184.048875		[silence]	[silence]
sw3092A-ms98-a-0035	A.49	184.048875	184.354500		[silence]	[silence]
sw3092A-ms98-a-0035	A.49	184.354500	184.582250		Would	would
sw3092A-ms98-a-0035	A.49	184.582250	184.860375		[silence]	[silence]
sw3092A-ms98-a-0036	A.49	184.860375	185.159750		[silence]	[silence]
sw3092A-ms98-a-0036	A.49	185.159750	185.260375		it	it
sw3092A-ms98-a-0036	A.49	185.260375	185.407875		would	would
sw3092A-ms98-a-0036	A.51	185.407875	185.906125		[silence]	[silence]
sw3092A-ms98-a-0037	A.51	185.906125	186.431375		[silence]	[silence]
sw3092A-ms98-a-0037	A.51	186.431375	186.516125		It	it
sw3092A-ms98-a-0037	A.51	186.516125	186.626125		would	would
sw3092A-ms98-a-0037	A.51	186.626125	186.726125		be	be
sw3092A-ms98-a-0037	A.51	186.726125	186.906125		just	just
sw3092A-ms98-a-0037	A.51	186.906125	187.286375		futile	futile
sw3092A-ms98-a-0037	A.53	187.286375	187.575250		[silence]	[silence]
sw3092A-ms98-a-0038	A.53	187.575250	188.762000		[silence]	[silence]
sw3092A-ms98-a-0039	A.53	188.762000	189.002000		[silence]	[silence]
sw3092A-ms98-a-0039	A.53	189.002000	189.172000		And	and
sw3092A-ms98-a-0039	A.53	189.172000	189.262000		they	they
sw3092A-ms98-a-0039	A.53	189.262000	189.432000		would	would
sw3092A-ms98-a-0039	A.53	189.432000	189.522000		not	not
sw3092A-ms98-a-0039	A.53	189.522000	189.632000		have	have
sw3092A-ms98-a-0039	A.53	189.632000	189.758000		the	the
sw3092A-ms98-a-0039	A.53	189.758000	190.212000		quality	quality
sw3092A-ms98-a-0039	A.55	190.212000	190.388125		[silence]	[silence]
sw3092A-ms98-a-0040	A.55	190.388125	192.192250		[silence]	[silence]
sw3092A-ms98-a-0041	A.55	192.192250	192.406750		[silence]	[silence]
sw3092A-ms98-a-0041	A.55	192.406750	192.532250		And	and
sw3092A-ms98-a-0041	A.55	192.532250	192.622250		they	they
sw3092A-ms98-a-0041	A.57	192.622250	192.772250		would	would
sw3092A-ms98-a-0041	A.57	192.772250	192.872250		be	be
sw3092A-ms98-a-0041	A.57	192.872250	193.432250		deprived	deprived
sw3092A-ms98-a-0041	A.57	193.432250	193.512250		of	of
sw3092A-ms98-a-0041	A.57	193.512250	193.642250		their	their
sw3092A-ms98-a-0041	A.57	193.642250	193.982250		mother	mother
sw3092A-ms98-a-0041	A.59	193.982250	194.661625		[silence]	[silence]
sw3092A-ms98-a-0042	A.59	194.661625	194.856625		[silence]	[silence]
sw3092A-ms98-a-0042	A.59	194.856625	195.181500		Yeah	yeah
sw3092A-ms98-a-0042	A.59	195.181500	195.312875		[silence]	[silence]
sw3092A-ms98-a-0042	A.59	195.312875	195.461625		No	no
sw3092A-ms98-a-0042	A.59	195.461625	195.571625		I	i
sw3092A-ms98-a-0042	A.59	195.571625	196.091625		understand	understand
sw3092A-ms98-a-0042	A.59	196.091625	196.291625		that	that
sw3092A-ms98-a-0042	A.59	196.291625	196.766500		totally	totally
sw3092A-ms98-a-0042	A.61	196.766500	197.155375		[silence]	[silence]
sw3092A-ms98-a-0043	A.61	197.155375	202.827125		[silence]	[silence]
sw3092A-ms98-a-0044	A.61	202.827125	203.317125		[silence]	[silence]
sw3092A-ms98-a-0044	A.61	203.317125	203.457125		Oh	oh
sw3092A-ms98-a-0044	A.61	203.457125	203.597125		I	i
sw3092A-ms98-a-0044	A.61	203.597125	203.827125		hear	hear
sw3092A-ms98-a-0044	A.63	203.827125	204.065250		[silence]	[silence]
sw3092A-ms98-a-0045	A.63	204.065250	206.145500		[silence]	[silence]
sw3092A-ms98-a-0046	A.63	206.145500	206.545500		[silence]	[silence]
sw3092A-ms98-a-0046	A.63	206.545500	206.925500		Yes	yes
sw3092A-ms98-a-0046	A.63	206.925500	207.165500		that's	that's
sw3092A-ms98-a-0046	A.63	207.165500	207.452500		true	true
sw3092A-ms98-a-0046	A.65	207.452500	207.838125		[silence]	[silence]
sw3092A-ms98-a-0047	A.65	207.838125	213.676875		[silence]	[silence]
sw3092A-ms98-a-0048	A.65	213.676875	213.990000		[silence]	[silence]
sw3092A-ms98-a-0048	A.65	213.990000	214.345500		Right	right
sw3092A-ms98-a-0048	A.67	214.345500	214.542875		[silence]	[silence]
sw3092A-ms98-a-0049	A.67	214.542875	216.370000		[silence]	[silence]
sw3092A-ms98-a-0050	A.67	216.370000	216.730000		[silence]	[silence]
sw3092A-ms98-a-0050	A.67	216.730000	217.040375		Uh-huh	uh-huh
sw3092A-ms98-a-0050	A.69	217.040375	217.229875		[silence]	[silence]
sw3092A-ms98-a-0051	A.69	217.229875	221.676625		[silence]	[silence]
sw3092A-ms98-a-0052	A.69	221.676625	221.876625		[silence]	[silence]
sw3092A-ms98-a-0052	A.69	221.876625	222.288000		Yes	yes
sw3092A-ms98-a-0052	A.69	222.288000	222.635875		[silence]	[silence]
sw3092A-ms98-a-0052	A.69	222.635875	222.743625		Do	do
sw3092A-ms98-a-0052	A.69	222.743625	222.839000		you	you
sw3092A-ms98-a-0052	A.71	222.839000	223.291750		[silence]	[silence]
sw3092A-ms98-a-0053	A.71	223.291750	224.362750		[silence]	[silence]
sw3092A-ms98-a-0054	A.71	224.362750	224.751625		[silence]	[silence]
sw3092A-ms98-a-0054	A.71	224.751625	224.832750		Do	do
sw3092A-ms98-a-0054	A.71	224.832750	225.002750		you	you
sw3092A-ms98-a-0054	A.71	225.002750	225.342750		think	think
sw3092A-ms98-a-0054	A.71	225.342750	225.482750		that	that
sw3092A-ms98-a-0054	A.71	225.482750	225.612750		you	you
sw3092A-ms98-a-0054	A.71	225.612750	225.862750		should	should
sw3092A-ms98-a-0054	A.71	225.862750	226.282750		fund	fund
sw3092A-ms98-a-0054	A.71	226.282750	226.586625		that	that
sw3092A-ms98-a-0054	A.71	226.586625	226.816375		[silence]	[silence]
sw3092A-ms98-a-0054	A.71	226.816375	226.992750		if	if
sw3092A-ms98-a-0054	A.71	226.992750	227.162750		they	they
sw3092A-ms98-a-0054	A.71	227.162750	227.462750		have	have
sw3092A-ms98-a-0054	A.71	227.462750	227.822750		that	that
sw3092A-ms98-a-0054	A.71	227.822750	228.112750		as	as
sw3092A-ms98-a-0054	A.71	228.112750	228.232750		a	a
sw3092A-ms98-a-0054	A.71	228.232750	228.902625		benefit	benefit
sw3092A-ms98-a-0054	A.71	228.902625	229.203875		[silence]	[silence]
sw3092A-ms98-a-0054	A.71	229.203875	229.402125		if	if
sw3092A-ms98-a-0054	A.71	229.402125	229.472750		you	you
sw3092A-ms98-a-0054	A.71	229.472750	229.632750		would	would
sw3092A-ms98-a-0054	A.71	229.632750	229.892750		fund	fund
sw3092A-ms98-a-0054	A.71	229.892750	230.042750		that	that
sw3092A-ms98-a-0054	A.71	230.042750	230.652750		somewhat	somewhat
sw3092A-ms98-a-0054	A.71	230.652750	231.209625		[silence]	[silence]
sw3092A-ms98-a-0055	A.71	231.209625	231.744000		[silence]	[silence]
sw3092A-ms98-a-0055	A.71	231.744000	231.939625		from	from
sw3092A-ms98-a-0055	A.71	231.939625	232.069625		your	your
sw3092A-ms98-a-0055	A.71	232.069625	232.489625		salary	salary
sw3092A-ms98-a-0055	A.71	232.489625	232.659625		that	that
sw3092A-ms98-a-0055	A.71	232.659625	232.719625		you	you
sw3092A-ms98-a-0055	A.71	232.719625	232.779625		are	are
sw3092A-ms98-a-0055	A.71	232.779625	233.116875		getting	getting
sw3092A-ms98-a-0055	A.73	233.116875	233.462250		[silence]	[silence]
sw3092A-ms98-a-0056	A.73	233.462250	233.866125		[silence]	[silence]
sw3092A-ms98-a-0056	A.73	233.866125	233.902250		Do	do
sw3092A-ms98-a-0056	A.73	233.902250	233.962250		you	you
sw3092A-ms98-a-0056	A.73	233.962250	234.182250		think	think
sw3092A-ms98-a-0056	A.73	234.182250	234.372250		that	that
sw3092A-ms98-a-0056	A.73	234.372250	234.552250		would	would
sw3092A-ms98-a-0056	A.73	234.552250	234.919375		be	be
sw3092A-ms98-a-0056	A.75	234.919375	235.265750		[silence]	[silence]
sw3092A-ms98-a-0057	A.75	235.265750	235.407875		[silence]	[silence]
sw3092A-ms98-a-0057	A.75	235.407875	236.307625		acceptable	acceptable
sw3092A-ms98-a-0057	A.77	236.307625	236.750000		[silence]	[silence]
sw3092A-ms98-a-0058	A.77	236.750000	236.881875		[silence]	[silence]
sw3092A-ms98-a-0058	A.77	236.881875	237.081500		I	i
sw3092A-ms98-a-0058	A.77	237.081500	237.230000		do	do
sw3092A-ms98-a-0058	A.77	237.230000	237.695125		too	too
sw3092A-ms98-a-0058	A.79	237.695125	237.843375		[silence]	[silence]
sw3092A-ms98-a-0059	A.79	237.843375	240.178000		[silence]	[silence]
sw3092A-ms98-a-0060	A.79	240.178000	240.504250		[silence]	[silence]
sw3092A-ms98-a-0060	A.79	240.504250	240.778000		Right	right
sw3092A-ms98-a-0060	A.79	240.778000	240.973000		that	that
sw3092A-ms98-a-0060	A.79	240.973000	241.179250		you	you
sw3092A-ms98-a-0060	A.81	241.179250	241.497250		[silence]	[silence]
sw3092A-ms98-a-0061	A.81	241.497250	242.786250		[silence]	[silence]
sw3092A-ms98-a-0062	A.81	242.786250	243.026625		[silence]	[silence]
sw3092A-ms98-a-0062	A.81	243.026625	243.340500		Right	right
sw3092A-ms98-a-0062	A.83	243.340500	243.523875		[silence]	[silence]
sw3092A-ms98-a-0063	A.83	243.523875	245.157625		[silence]	[silence]
sw3092A-ms98-a-0064	A.83	245.157625	245.364875		[silence]	[silence]
sw3092A-ms98-a-0064	A.83	245.364875	245.567625		That's	that's
sw3092A-ms98-a-0064	A.83	245.567625	245.774000		right	right
sw3092A-ms98-a-0064	A.85	245.774000	245.877000		[silence]	[silence]
sw3092A-ms98-a-0065	A.85	245.877000	247.645000		[silence]	[silence]
sw3092A-ms98-a-0066	A.85	247.645000	248.015000		[silence]	[silence]
sw3092A-ms98-a-0066	A.85	248.015000	248.165000		With	with
sw3092A-ms98-a-0066	A.85	248.165000	248.225000		the	the
sw3092A-ms98-a-0066	A.85	248.225000	248.715000		company	company
sw3092A-ms98-a-0066	A.85	248.715000	249.054000		than	than
sw3092A-ms98-a-0066	A.87	249.054000	249.310125		[silence]	[silence]
sw3092A-ms98-a-0066	A.87	249.310125	249.455000		than	than
sw3092A-ms98-a-0066	A.87	249.455000	249.745000		having	having
sw3092A-ms98-a-0066	A.87	249.745000	249.895000		to	to
sw3092A-ms98-a-0066	A.87	249.895000	249.996125		go	go
sw3092A-ms98-a-0066	A.89	249.996125	250.238000		[silence]	[silence]
sw3092A-ms98-a-0067	A.89	250.238000	251.754500		[silence]	[silence]
sw3092A-ms98-a-0068	A.89	251.754500	252.002125		[silence]	[silence]
sw3092A-ms98-a-0068	A.89	252.002125	252.224500		That's	that's
sw3092A-ms98-a-0068	A.89	252.224500	252.360625	<DEL>	---	c[orrect]-
sw3092A-ms98-a-0068	A.89	252.360625	252.522375		[silence]	[silence]
sw3092A-ms98-a-0068	A.89	252.522375	252.764500		that's	that's
sw3092A-ms98-a-0068	A.89	252.764500	252.995625		right	right
sw3092A-ms98-a-0068	A.89	252.995625	253.484000		[silence]	[silence]
sw3092A-ms98-a-0069	A.89	253.484000	253.672250		[silence]	[silence]
sw3092A-ms98-a-0069	A.89	253.672250	254.054000		Yes	yes
sw3092A-ms98-a-0069	A.89	254.054000	254.090000		[silence]	[silence]
sw3092A-ms98-a-0070	A.89	254.090000	254.390000		[silence]	[silence]
sw3092A-ms98-a-0070	A.89	254.390000	254.490000		I	i
sw3092A-ms98-a-0070	A.91	254.490000	254.710000		agree	agree
sw3092A-ms98-a-0070	A.91	254.710000	254.890000		with	with
sw3092A-ms98-a-0070	A.91	254.890000	255.230000		that	that
sw3092A-ms98-a-0070	A.93	255.230000	255.443500		[silence]	[silence]
sw3092A-ms98-a-0071	A.93	255.443500	255.780625		[silence]	[silence]
sw3092A-ms98-a-0071	A.93	255.780625	255.913500		That	that
sw3092A-ms98-a-0071	A.93	255.913500	256.043500		would	would
sw3092A-ms98-a-0071	A.93	256.043500	256.233500		be	be
sw3092A-ms98-a-0071	A.93	256.233500	256.715125		fair	fair
sw3092A-ms98-a-0071	A.95	256.715125	256.916625		[silence]	[silence]
sw3092A-ms98-a-0072	A.95	256.916625	257.314125		[silence]	[silence]
sw3092A-ms98-a-0072	A.95	257.314125	257.655125		Yeah	yeah
sw3092A-ms98-a-0072	A.97	257.655125	257.917000		[silence]	[silence]
sw3092A-ms98-a-0073	A.97	257.917000	259.537875		[silence]	[silence]
sw3092A-ms98-a-0074	A.97	259.537875	259.697875		[silence]	[silence]
sw3092A-ms98-a-0074	A.97	259.697875	260.070125		Uh	uh
sw3092A-ms98-a-0074	A.97	260.070125	260.289125		[silence]	[silence]
sw3092A-ms98-a-0074	A.97	260.289125	260.477875		and	and
sw3092A-ms98-a-0074	A.97	260.477875	260.817875		how	how
sw3092A-ms98-a-0074	A.97	260.817875	260.977875		how	how
sw3092A-ms98-a-0074	A.97	260.977875	261.047875		do	do
sw3092A-ms98-a-0074	A.97	261.047875	261.137875		you	you
sw3092A-ms98-a-0074	A.97	261.137875	261.397875		feel	feel
sw3092A-ms98-a-0074	A.97	261.397875	261.708625		about	about
sw3092A-ms98-a-0074	A.97	261.708625	262.049750		[silence]	[silence]
sw3092A-ms98-a-0074	A.97	262.049750	262.437875		uh	uh
sw3092A-ms98-a-0074	A.97	262.437875	262.660875		[silence]	[silence]
sw3092A-ms98-a-0075	A.97	262.660875	263.131125		[silence]	[silence]
sw3092A-ms98-a-0075	A.97	263.131125	263.380875		let's	let's
sw3092A-ms98-a-0075	A.97	263.380875	263.770875		see	see
sw3092A-ms98-a-0075	A.97	263.770875	263.943500		eye	eye
sw3092A-ms98-a-0075	A.97	263.943500	264.280250		care	care
sw3092A-ms98-a-0075	A.99	264.280250	264.496750		[silence]	[silence]
sw3092A-ms98-a-0076	A.99	264.496750	270.272000		[silence]	[silence]
sw3092A-ms98-a-0077	A.99	270.272000	270.652000		[silence]	[silence]
sw3092A-ms98-a-0077	A.99	270.652000	271.132000		Okay	okay
sw3092A-ms98-a-0077	A.101	271.132000	271.466250		[silence]	[silence]
sw3092A-ms98-a-0078	A.101	271.466250	272.438375		[silence]	[silence]
sw3092A-ms98-a-0079	A.101	272.438375	272.558375		[silence]	[silence]
sw3092A-ms98-a-0079	A.101	272.558375	272.918375		Vision	vision
sw3092A-ms98-a-0079	A.101	272.918375	272.998375		I	i
sw3092A-ms98-a-0079	A.101	272.998375	273.228375		guess	guess
sw3092A-ms98-a-0079	A.101	273.228375	273.388375		it's	it's
sw3092A-ms98-a-0079	A.101	273.388375	273.918375		called	called
sw3092A-ms98-a-0079	A.103	273.918375	274.248375		vision	vision
sw3092A-ms98-a-0079	A.103	274.248375	274.604625		care	care
sw3092A-ms98-a-0079	A.105	274.604625	274.768375		[silence]	[silence]
sw3092A-ms98-a-0080	A.105	274.768375	281.168125		[silence]	[silence]
sw3092A-ms98-a-0081	A.105	281.168125	281.563125		[silence]	[silence]
sw3092A-ms98-a-0081	A.105	281.563125	281.648125		It	it
sw3092A-ms98-a-0081	A.105	281.648125	282.118125		depends	depends
sw3092A-ms98-a-0081	A.105	282.118125	282.270625		on	on
sw3092A-ms98-a-0081	A.105	282.270625	282.534250		who	who
sw3092A-ms98-a-0081	A.105	282.534250	282.718125		ha-	ha[s]-
sw3092A-ms98-a-0081	A.105	282.718125	283.228125		examines	examines
sw3092A-ms98-a-0081	A.105	283.228125	283.388125		your	your
sw3092A-ms98-a-0081	A.105	283.388125	283.838125		eyes	eyes
sw3092A-ms98-a-0081	A.107	283.838125	284.278875		[silence]	[silence]
sw3092A-ms98-a-0082	A.107	284.278875	284.646875		[silence]	[silence]
sw3092A-ms98-a-0082	A.107	284.646875	284.808875		If	if
sw3092A-ms98-a-0082	A.107	284.808875	284.938875		you	you
sw3092A-ms98-a-0082	A.107	284.938875	285.108875		have	have
sw3092A-ms98-a-0082	A.107	285.108875	285.301250		an	an
sw3092A-ms98-a-0082	A.107	285.301250	285.301250	<INS>	an	---
sw3092A-ms98-a-0082	A.107	285.301250	285.618375		[silence]	[silence]
sw3092A-ms98-a-0082	A.107	285.618375	286.237500	<DEL>	---	ah
sw3092A-ms98-a-0082	A.107	286.237500	287.418875		optometrist	optometrist
sw3092A-ms98-a-0082	A.107	287.418875	287.568875		or	or
sw3092A-ms98-a-0082	A.107	287.568875	287.668875		an	an
sw3092A-ms98-a-0082	A.107	287.668875	288.617875		ophthalmologist	ophthalmologist
sw3092A-ms98-a-0082	A.109	288.617875	289.079625		[silence]	[silence]
sw3092A-ms98-a-0082	A.109	289.079625	289.301750		there's	there's
sw3092A-ms98-a-0082	A.109	289.301750	289.392125		a	a
sw3092A-ms98-a-0082	A.109	289.392125	289.668875		vast	vast
sw3092A-ms98-a-0082	A.109	289.668875	290.128875		difference	difference
sw3092A-ms98-a-0082	A.109	290.128875	290.268875		in	in
sw3092A-ms98-a-0082	A.109	290.268875	290.468875		those	those
sw3092A-ms98-a-0082	A.109	290.468875	290.818875		two	two
sw3092A-ms98-a-0082	A.109	290.818875	291.119375		uh	uh
sw3092A-ms98-a-0082	A.111	291.119375	291.651875		[silence]	[silence]
sw3092A-ms98-a-0082	A.111	291.651875	292.390250	<SUB>	professionals	professions
sw3092A-ms98-a-0082	A.113	292.390250	292.722875		[silence]	[silence]
sw3092A-ms98-a-0083	A.113	292.722875	295.691750		[silence]	[silence]
sw3092A-ms98-a-0084	A.113	295.691750	295.983625		[silence]	[silence]
sw3092A-ms98-a-0084	A.113	295.983625	296.524875		Glaucoma	glaucoma
sw3092A-ms98-a-0084	A.115	296.524875	296.631000		[silence]	[silence]
sw3092A-ms98-a-0085	A.115	296.631000	297.754375		[silence]	[silence]
sw3092A-ms98-a-0086	A.115	297.754375	297.879875		[silence]	[silence]
sw3092A-ms98-a-0086	A.115	297.879875	298.070750		Oh	oh
sw3092A-ms98-a-0086	A.117	298.070750	298.198750		[silence]	[silence]
sw3092A-ms98-a-0087	A.117	298.198750	299.169000		[silence]	[silence]
sw3092A-ms98-a-0088	A.117	299.169000	299.299000		[silence]	[silence]
sw3092A-ms98-a-0088	A.117	299.299000	299.484250		Oh	oh
sw3092A-ms98-a-0088	A.117	299.484250	299.831375		okay	okay
sw3092A-ms98-a-0088	A.117	299.831375	300.029375		so	so
sw3092A-ms98-a-0088	A.119	300.029375	300.466750		[silence]	[silence]
sw3092A-ms98-a-0089	A.119	300.466750	300.877000		[silence]	[silence]
sw3092A-ms98-a-0089	A.119	300.877000	301.369375		Yes	yes
sw3092A-ms98-a-0089	A.121	301.369375	301.480000		[silence]	[silence]
sw3092A-ms98-a-0090	A.121	301.480000	302.820250		[silence]	[silence]
sw3092A-ms98-a-0091	A.121	302.820250	303.040250		[silence]	[silence]
sw3092A-ms98-a-0091	A.121	303.040250	303.480250		Uh-huh	uh-huh
sw3092A-ms98-a-0091	A.123	303.480250	303.640000		[silence]	[silence]
sw3092A-ms98-a-0092	A.123	303.640000	304.986125		[silence]	[silence]
sw3092A-ms98-a-0093	A.123	304.986125	305.225000		[silence]	[silence]
sw3092A-ms98-a-0093	A.123	305.225000	305.506125		Yes	yes
sw3092A-ms98-a-0093	A.123	305.506125	305.686125		they	they
sw3092A-ms98-a-0093	A.123	305.686125	305.926125		are	are
sw3092A-ms98-a-0093	A.125	305.926125	305.969250		[silence]	[silence]
sw3092A-ms98-a-0094	A.125	305.969250	307.820000		[silence]	[silence]
sw3092A-ms98-a-0095	A.125	307.820000	308.260000		[silence]	[silence]
sw3092A-ms98-a-0095	A.125	308.260000	308.710000		Uh-huh	uh-huh
sw3092A-ms98-a-0095	A.127	308.710000	308.919375		[silence]	[silence]
sw3092A-ms98-a-0096	A.127	308.919375	309.317125		[silence]	[silence]
sw3092A-ms98-a-0096	A.127	309.317125	309.547000	<DEL>	---	uh
sw3092A-ms98-a-0096	A.127	309.547000	310.019375		[silence]	[silence]
sw3092A-ms98-a-0097	A.127	310.019375	315.164875		[silence]	[silence]
sw3092A-ms98-a-0098	A.127	315.164875	315.514875		[silence]	[silence]
sw3092A-ms98-a-0098	A.127	315.514875	315.754875		Right	right
sw3092A-ms98-a-0098	A.127	315.754875	315.964875		that's	that's
sw3092A-ms98-a-0098	A.127	315.964875	316.394875		critical	critical
sw3092A-ms98-a-0098	A.127	316.394875	316.704875		because	because
sw3092A-ms98-a-0098	A.127	316.704875	317.074875		she's	she's
sw3092A-ms98-a-0098	A.127	317.074875	317.164875		in	in
sw3092A-ms98-a-0098	A.127	317.164875	317.354875		need	need
sw3092A-ms98-a-0098	A.127	317.354875	317.434875		of	of
sw3092A-ms98-a-0098	A.127	317.434875	317.564875		it	it
sw3092A-ms98-a-0098	A.127	317.564875	317.804875		so	so
sw3092A-ms98-a-0098	A.127	317.804875	318.144875		often	often
sw3092A-ms98-a-0098	A.129	318.144875	318.584875		[silence]	[silence]
sw3092A-ms98-a-0098	A.129	318.584875	319.094875		Yes	yes
sw3092A-ms98-a-0098	A.129	319.094875	319.450875		[silence]	[silence]
sw3092A-ms98-a-0099	A.129	319.450875	320.100875		[silence]	[silence]
sw3092A-ms98-a-0099	A.129	320.100875	320.370875		and	and
sw3092A-ms98-a-0099	A.129	320.370875	320.530875		[silence]	[silence]
sw3092A-ms98-a-0099	A.129	320.530875	320.680875		you	you
sw3092A-ms98-a-0099	A.129	320.680875	320.860875		know	know
sw3092A-ms98-a-0099	A.129	320.860875	321.060875		we	we
sw3092A-ms98-a-0099	A.129	321.060875	321.493750		have	have
sw3092A-ms98-a-0099	A.129	321.493750	321.633125		[silence]	[silence]
sw3092A-ms98-a-0099	A.129	321.633125	322.041875		uh	uh
sw3092A-ms98-a-0099	A.129	322.041875	322.497625		[silence]	[silence]
sw3092A-ms98-a-0099	A.129	322.497625	323.100875		needs	needs
sw3092A-ms98-a-0099	A.129	323.100875	323.333125		[silence]	[silence]
sw3092A-ms98-a-0100	A.129	323.333125	323.632375		[silence]	[silence]
sw3092A-ms98-a-0100	A.129	323.632375	323.753125		in	in
sw3092A-ms98-a-0100	A.129	323.753125	323.953125		our	our
sw3092A-ms98-a-0100	A.129	323.953125	324.323125		life	life
sw3092A-ms98-a-0100	A.129	324.323125	324.473125		that	that
sw3092A-ms98-a-0100	A.129	324.473125	324.653125		are	are
sw3092A-ms98-a-0100	A.129	324.653125	325.073125		unique	unique
sw3092A-ms98-a-0100	A.129	325.073125	325.283125		to	to
sw3092A-ms98-a-0100	A.129	325.283125	325.653125		us	us
sw3092A-ms98-a-0100	A.129	325.653125	325.983125		and	and
sw3092A-ms98-a-0100	A.129	325.983125	325.983125	<INS>	uh	---
sw3092A-ms98-a-0100	A.129	325.983125	326.513125		[silence]	[silence]
sw3092A-ms98-a-0100	A.129	326.513125	326.653125		you	you
sw3092A-ms98-a-0100	A.129	326.653125	326.753125		know	know
sw3092A-ms98-a-0100	A.129	326.753125	327.327000		people	people
sw3092A-ms98-a-0100	A.129	327.327000	327.598125		[silence]	[silence]
sw3092A-ms98-a-0100	A.129	327.598125	327.809125		have	have
sw3092A-ms98-a-0100	A.129	327.809125	328.174500		[silence]	[silence]
sw3092A-ms98-a-0100	A.129	328.174500	328.463125		needs	needs
sw3092A-ms98-a-0100	A.129	328.463125	328.573125		in	in
sw3092A-ms98-a-0100	A.129	328.573125	328.733125		their	their
sw3092A-ms98-a-0100	A.129	328.733125	329.133125		life	life
sw3092A-ms98-a-0100	A.129	329.133125	329.266125		that	that
sw3092A-ms98-a-0100	A.129	329.266125	329.503125	<DEL>	---	are
sw3092A-ms98-a-0100	A.129	329.503125	329.833125		unique	unique
sw3092A-ms98-a-0100	A.129	329.833125	329.913125		to	to
sw3092A-ms98-a-0100	A.129	329.913125	330.174625		us	us
sw3092A-ms98-a-0100	A.129	330.174625	330.381750		[silence]	[silence]
sw3092A-ms98-a-0100	A.129	330.381750	330.493125		to	to
sw3092A-ms98-a-0100	A.129	330.493125	330.896875		them	them
sw3092A-ms98-a-0100	A.131	330.896875	331.360000		[silence]	[silence]
sw3092A-ms98-a-0101	A.131	331.360000	331.490000		[silence]	[silence]
sw3092A-ms98-a-0101	A.131	331.490000	331.660000		I	i
sw3092A-ms98-a-0101	A.131	331.660000	331.840000		mean	mean
sw3092A-ms98-a-0101	A.131	331.840000	331.900000		we	we
sw3092A-ms98-a-0101	A.131	331.900000	331.990000		are	are
sw3092A-ms98-a-0101	A.131	331.990000	332.190000		all	all
sw3092A-ms98-a-0101	A.131	332.190000	332.710000		different	different
sw3092A-ms98-a-0101	A.131	332.710000	333.140000		so	so
sw3092A-ms98-a-0101	A.133	333.140000	333.610625		[silence]	[silence]
sw3092A-ms98-a-0102	A.133	333.610625	339.012625		[silence]	[silence]
sw3092A-ms98-a-0103	A.133	339.012625	339.285625		[silence]	[silence]
sw3092A-ms98-a-0103	A.133	339.285625	339.477125	<DEL>	---	ye[ah]-
sw3092A-ms98-a-0103	A.133	339.477125	339.782625		Well	well
sw3092A-ms98-a-0103	A.133	339.782625	339.972625		no	no
sw3092A-ms98-a-0103	A.133	339.972625	340.222625		that's	that's
sw3092A-ms98-a-0103	A.133	340.222625	340.322625		my	my
sw3092A-ms98-a-0103	A.133	340.322625	340.502625		other	other
sw3092A-ms98-a-0103	A.133	340.502625	340.884000		phone	phone
sw3092A-ms98-a-0103	A.135	340.884000	341.265000		[silence]	[silence]
sw3092A-ms98-a-0104	A.135	341.265000	341.705000		[silence]	[silence]
sw3092A-ms98-a-0104	A.135	341.705000	341.785000		So	so
sw3092A-ms98-a-0104	A.135	341.785000	342.055000		that's	that's
sw3092A-ms98-a-0104	A.135	342.055000	342.275000		it	it
sw3092A-ms98-a-0104	A.135	342.275000	342.485000		that's	that's
sw3092A-ms98-a-0104	A.135	342.485000	342.725000		okay	okay
sw3092A-ms98-a-0104	A.135	342.725000	343.036625		my	my
sw3092A-ms98-a-0104	A.135	343.036625	343.296500		[silence]	[silence]
sw3092A-ms98-a-0104	A.135	343.296500	343.445000		that	that
sw3092A-ms98-a-0104	A.135	343.445000	343.595000		[silence]	[silence]
sw3092A-ms98-a-0104	A.135	343.595000	343.835000		phone	phone
sw3092A-ms98-a-0104	A.135	343.835000	344.085000		is	is
sw3092A-ms98-a-0104	A.135	344.085000	344.525000		ringing	ringing
sw3092A-ms98-a-0104	A.135	344.525000	344.665000		to	to
sw3092A-ms98-a-0104	A.135	344.665000	344.755000		an	an
sw3092A-ms98-a-0104	A.135	344.755000	344.965000		empty	empty
sw3092A-ms98-a-0104	A.135	344.965000	345.325000		desk	desk
sw3092A-ms98-a-0104	A.135	345.325000	345.465000		and	and
sw3092A-ms98-a-0104	A.135	345.465000	345.665000		she's	she's
sw3092A-ms98-a-0104	A.135	345.665000	345.795000		on	on
sw3092A-ms98-a-0104	A.135	345.795000	346.527375		vacation	vacation
sw3092A-ms98-a-0104	A.137	346.527375	347.752250		[laughter]	[laughter]
sw3092A-ms98-a-0104	A.137	347.752250	347.905000		so	so
sw3092A-ms98-a-0104	A.137	347.905000	348.055000		it's	it's
sw3092A-ms98-a-0104	A.137	348.055000	348.385000		okay	okay
sw3092A-ms98-a-0104	A.139	348.385000	349.079250		[silence]	[silence]
sw3092A-ms98-a-0105	A.139	349.079250	349.939250		[silence]	[silence]
sw3092A-ms98-a-0105	A.139	349.939250	350.259250		Uh-huh	uh-huh
sw3092A-ms98-a-0105	A.141	350.259250	350.692125		[silence]	[silence]
sw3092A-ms98-a-0106	A.141	350.692125	354.665250		[silence]	[silence]
sw3092A-ms98-a-0107	A.141	354.665250	354.990875		[silence]	[silence]
sw3092A-ms98-a-0107	A.141	354.990875	355.215250		That's	that's
sw3092A-ms98-a-0107	A.141	355.215250	355.495250		very	very
sw3092A-ms98-a-0107	A.141	355.495250	356.160500		expensive	expensive
sw3092A-ms98-a-0107	A.143	356.160500	356.430500		[silence]	[silence]
sw3092A-ms98-a-0108	A.143	356.430500	361.451500		[silence]	[silence]
sw3092A-ms98-a-0109	A.143	361.451500	361.915625		[silence]	[silence]
sw3092A-ms98-a-0109	A.143	361.915625	362.191500		Yes	yes
sw3092A-ms98-a-0109	A.143	362.191500	362.431500		that's	that's
sw3092A-ms98-a-0109	A.143	362.431500	362.731625		true	true
sw3092A-ms98-a-0109	A.143	362.731625	363.322500		[silence]	[silence]
sw3092A-ms98-a-0110	A.143	363.322500	364.200500		[silence]	[silence]
sw3092A-ms98-a-0110	A.143	364.200500	364.802500		Orthodontic	orthodontic
sw3092A-ms98-a-0110	A.143	364.802500	365.012500		work	work
sw3092A-ms98-a-0110	A.143	365.012500	365.247750		is	is
sw3092A-ms98-a-0110	A.143	365.247750	365.545250		[silence]	[silence]
sw3092A-ms98-a-0110	A.143	365.545250	365.982500		terribly	terribly
sw3092A-ms98-a-0110	A.143	365.982500	366.700875		expensive	expensive
sw3092A-ms98-a-0110	A.145	366.700875	367.066250		[silence]	[silence]
sw3092A-ms98-a-0110	A.145	367.066250	367.502500		Especially	especially
sw3092A-ms98-a-0110	A.145	367.502500	367.722500		when	when
sw3092A-ms98-a-0110	A.145	367.722500	367.954625		you	you
sw3092A-ms98-a-0110	A.145	367.954625	368.478125		[silence]	[silence]
sw3092A-ms98-a-0110	A.145	368.478125	368.652500		have	have
sw3092A-ms98-a-0110	A.145	368.652500	368.712500		a	a
sw3092A-ms98-a-0110	A.145	368.712500	368.962500		lot	lot
sw3092A-ms98-a-0110	A.145	368.962500	369.224125		of	of
sw3092A-ms98-a-0110	A.145	369.224125	369.446375	<DEL>	---	uh
sw3092A-ms98-a-0110	A.145	369.446375	369.962500		problems	problems
sw3092A-ms98-a-0110	A.145	369.962500	370.232375		with	with
sw3092A-ms98-a-0110	A.145	370.232375	370.628500		the	the
sw3092A-ms98-a-0110	A.145	370.628500	371.118125		children	children
sw3092A-ms98-a-0110	A.145	371.118125	371.522500		teeth	teeth
sw3092A-ms98-a-0110	A.147	371.522500	371.730625		and	and
sw3092A-ms98-a-0110	A.147	371.730625	371.994500		[silence]	[silence]
sw3092A-ms98-a-0111	A.147	371.994500	372.284500		[silence]	[silence]
sw3092A-ms98-a-0111	A.147	372.284500	372.464500		and	and
sw3092A-ms98-a-0111	A.147	372.464500	372.544500		you	you
sw3092A-ms98-a-0111	A.147	372.544500	372.754500		have	have
sw3092A-ms98-a-0111	A.147	372.754500	373.204500		to	to
sw3092A-ms98-a-0111	A.147	373.204500	373.676125		really	really
sw3092A-ms98-a-0111	A.147	373.676125	373.796750		[silence]	[silence]
sw3092A-ms98-a-0111	A.147	373.796750	373.974500		get	get
sw3092A-ms98-a-0111	A.147	373.974500	374.124500		them	them
sw3092A-ms98-a-0111	A.147	374.124500	374.254500		when	when
sw3092A-ms98-a-0111	A.147	374.254500	374.314500		they	they
sw3092A-ms98-a-0111	A.147	374.314500	374.374500		are	are
sw3092A-ms98-a-0111	A.147	374.374500	374.824500		young	young
sw3092A-ms98-a-0111	A.147	374.824500	374.924500		in	in
sw3092A-ms98-a-0111	A.147	374.924500	375.174500		order	order
sw3092A-ms98-a-0111	A.147	375.174500	375.384500		to	to
sw3092A-ms98-a-0111	A.147	375.384500	375.724500		have	have
sw3092A-ms98-a-0111	A.147	375.724500	376.014500		uh	uh
sw3092A-ms98-a-0111	A.147	376.014500	376.234500		not	not
sw3092A-ms98-a-0111	A.147	376.234500	376.484500		[silence]	[silence]
sw3092A-ms98-a-0111	A.147	376.484500	376.905500		uh	uh
sw3092A-ms98-a-0111	A.147	376.905500	377.365000		[silence]	[silence]
sw3092A-ms98-a-0111	A.147	377.365000	377.529250		a	a
sw3092A-ms98-a-0111	A.147	377.529250	378.152125		decent	decent
sw3092A-ms98-a-0111	A.147	378.152125	378.444500	<DEL>	---	uh
sw3092A-ms98-a-0111	A.147	378.444500	378.854500		smile	smile
sw3092A-ms98-a-0111	A.147	378.854500	379.044500		when	when
sw3092A-ms98-a-0111	A.147	379.044500	379.403250	<CONT>	they	they're
sw3092A-ms98-a-0111	A.147	379.403250	379.403250	<CONT>	are	+++
sw3092A-ms98-a-0111	A.147	379.403250	379.783625	<DEL>	---	uh
sw3092A-ms98-a-0111	A.147	379.783625	380.104500		fifteen	fifteen
sw3092A-ms98-a-0111	A.147	380.104500	380.484500		sixteen	sixteen
sw3092A-ms98-a-0111	A.147	380.484500	380.674500		years	years
sw3092A-ms98-a-0111	A.147	380.674500	381.044500		old	old
sw3092A-ms98-a-0111	A.149	381.044500	381.511625		[silence]	[silence]
sw3092A-ms98-a-0112	A.149	381.511625	381.911625		[silence]	[silence]
sw3092A-ms98-a-0112	A.149	381.911625	382.067500		I	i
sw3092A-ms98-a-0112	A.149	382.067500	382.436125		know	know
sw3092A-ms98-a-0112	A.149	382.436125	382.561625		two	two
sw3092A-ms98-a-0112	A.149	382.561625	382.651625		of	of
sw3092A-ms98-a-0112	A.149	382.651625	382.801625		my	my
sw3092A-ms98-a-0112	A.149	382.801625	383.151625		daughters	daughters
sw3092A-ms98-a-0112	A.149	383.151625	383.311625		had	had
sw3092A-ms98-a-0112	A.149	383.311625	383.391625		to	to
sw3092A-ms98-a-0112	A.149	383.391625	383.621625		have	have
sw3092A-ms98-a-0112	A.149	383.621625	383.851625		that	that
sw3092A-ms98-a-0112	A.149	383.851625	383.951625		and	and
sw3092A-ms98-a-0112	A.149	383.951625	384.071625		they	they
sw3092A-ms98-a-0112	A.149	384.071625	384.521625		started	started
sw3092A-ms98-a-0112	A.149	384.521625	384.791625		having	having
sw3092A-ms98-a-0112	A.149	384.791625	385.471625		extractions	extractions
sw3092A-ms98-a-0112	A.149	385.471625	385.631625		at	at
sw3092A-ms98-a-0112	A.149	385.631625	385.881625		age	age
sw3092A-ms98-a-0112	A.149	385.881625	386.299500		eight	eight
sw3092A-ms98-a-0112	A.149	386.299500	386.550625		[silence]	[silence]
sw3092A-ms98-a-0113	A.149	386.550625	387.021625		[silence]	[silence]
sw3092A-ms98-a-0113	A.149	387.021625	387.120625		uh	uh
sw3092A-ms98-a-0113	A.149	387.120625	387.470625		because	because
sw3092A-ms98-a-0113	A.149	387.470625	387.600625		they	they
sw3092A-ms98-a-0113	A.149	387.600625	387.850625		just	just
sw3092A-ms98-a-0113	A.149	387.850625	388.000625		had	had
sw3092A-ms98-a-0113	A.149	388.000625	388.140625		too	too
sw3092A-ms98-a-0113	A.149	388.140625	388.360625		many	many
sw3092A-ms98-a-0113	A.149	388.360625	388.700625		teeth	teeth
sw3092A-ms98-a-0113	A.149	388.700625	388.790625		for	for
sw3092A-ms98-a-0113	A.149	388.790625	388.940625		their	their
sw3092A-ms98-a-0113	A.149	388.940625	389.390625		size	size
sw3092A-ms98-a-0113	A.149	389.390625	389.960000		mouth	mouth
sw3092A-ms98-a-0113	A.151	389.960000	390.314000		[silence]	[silence]
sw3092A-ms98-a-0114	A.151	390.314000	390.674000		[silence]	[silence]
sw3092A-ms98-a-0114	A.151	390.674000	390.874000		And	and
sw3092A-ms98-a-0114	A.151	390.874000	391.004000		we	we
sw3092A-ms98-a-0114	A.151	391.004000	391.364000		footed	footed
sw3092A-ms98-a-0114	A.151	391.364000	391.424000		the	the
sw3092A-ms98-a-0114	A.151	391.424000	391.734000		bill	bill
sw3092A-ms98-a-0114	A.151	391.734000	392.074000		because	because
sw3092A-ms98-a-0114	A.151	392.074000	392.207875		there	there
sw3092A-ms98-a-0114	A.151	392.207875	392.664000	<CONT>	was	wasn't
sw3092A-ms98-a-0114	A.151	392.664000	392.664000	<CONT>	not	+++
sw3092A-ms98-a-0114	A.151	392.664000	392.854000		any	any
sw3092A-ms98-a-0114	A.151	392.854000	393.214000		such	such
sw3092A-ms98-a-0114	A.151	393.214000	393.484000		thing	thing
sw3092A-ms98-a-0114	A.151	393.484000	393.747750		and	and
sw3092A-ms98-a-0114	A.151	393.747750	393.981250		[silence]	[silence]
sw3092A-ms98-a-0114	A.151	393.981250	394.184000		when	when
sw3092A-ms98-a-0114	A.151	394.184000	394.294000		they	they
sw3092A-ms98-a-0114	A.151	394.294000	394.804000		were	were
sw3092A-ms98-a-0114	A.151	394.804000	395.154000		young	young
sw3092A-ms98-a-0114	A.153	395.154000	395.555125		[silence]	[silence]
sw3092A-ms98-a-0115	A.153	395.555125	402.962250		[silence]	[silence]
sw3092A-ms98-a-0116	A.153	402.962250	403.422250		[silence]	[silence]
sw3092A-ms98-a-0116	A.153	403.422250	403.572250		Oh	oh
sw3092A-ms98-a-0116	A.153	403.572250	403.982250		uh-huh	uh-huh
sw3092A-ms98-a-0116	A.155	403.982250	404.231750		[silence]	[silence]
sw3092A-ms98-a-0117	A.155	404.231750	406.487625		[silence]	[silence]
sw3092A-ms98-a-0118	A.155	406.487625	406.604250		[silence]	[silence]
sw3092A-ms98-a-0118	A.155	406.604250	407.137625		Uh-huh	uh-huh
sw3092A-ms98-a-0118	A.155	407.137625	407.537625		major	major
sw3092A-ms98-a-0118	A.157	407.537625	407.904000		[silence]	[silence]
sw3092A-ms98-a-0119	A.157	407.904000	408.324000		[silence]	[silence]
sw3092A-ms98-a-0119	A.157	408.324000	408.798375		Uh-huh	uh-huh
sw3092A-ms98-a-0119	A.159	408.798375	409.251125		[silence]	[silence]
sw3092A-ms98-a-0120	A.159	409.251125	415.443375		[silence]	[silence]
sw3092A-ms98-a-0121	A.159	415.443375	415.780500		[silence]	[silence]
sw3092A-ms98-a-0121	A.159	415.780500	415.982750		Well	well
sw3092A-ms98-a-0121	A.159	415.982750	416.080000		I	i
sw3092A-ms98-a-0121	A.159	416.080000	416.293375		tell	tell
sw3092A-ms98-a-0121	A.159	416.293375	416.503375		you	you
sw3092A-ms98-a-0121	A.159	416.503375	416.681625		I	i
sw3092A-ms98-a-0121	A.159	416.681625	416.939125		[silence]	[silence]
sw3092A-ms98-a-0121	A.159	416.939125	417.220250		[noise]	[noise]
sw3092A-ms98-a-0121	A.159	417.220250	417.422250		I	i
sw3092A-ms98-a-0121	A.159	417.422250	417.693375		just	just
sw3092A-ms98-a-0121	A.159	417.693375	417.813375		read	read
sw3092A-ms98-a-0121	A.159	417.813375	417.943375		an	an
sw3092A-ms98-a-0121	A.159	417.943375	418.353375		article	article
sw3092A-ms98-a-0121	A.159	418.353375	418.453375		in	in
sw3092A-ms98-a-0121	A.159	418.453375	418.513375		the	the
sw3092A-ms98-a-0121	A.159	418.513375	419.070250		paper	paper
sw3092A-ms98-a-0121	A.159	419.070250	419.627750		[silence]	[silence]
sw3092A-ms98-a-0121	A.159	419.627750	419.993375		about	about
sw3092A-ms98-a-0121	A.159	419.993375	420.173375		what	what
sw3092A-ms98-a-0121	A.159	420.173375	420.253375		they	they
sw3092A-ms98-a-0121	A.159	420.253375	420.313375		are	are
sw3092A-ms98-a-0121	A.159	420.313375	420.840625		doing	doing
sw3092A-ms98-a-0121	A.159	420.840625	421.322625		[silence]	[silence]
sw3092A-ms98-a-0121	A.159	421.322625	421.403375		I	i
sw3092A-ms98-a-0121	A.159	421.403375	421.623375		think	think
sw3092A-ms98-a-0121	A.159	421.623375	421.733375		it	it
sw3092A-ms98-a-0121	A.159	421.733375	421.873375		was	was
sw3092A-ms98-a-0121	A.159	421.873375	422.013375		an	an
sw3092A-ms98-a-0121	A.159	422.013375	422.233375		ad	ad
sw3092A-ms98-a-0121	A.159	422.233375	422.473375		in	in
sw3092A-ms98-a-0121	A.159	422.473375	423.063375		[silence]	[silence]
sw3092A-ms98-a-0121	A.159	423.063375	423.213375		in	in
sw3092A-ms98-a-0121	A.159	423.213375	423.373375		our	our
sw3092A-ms98-a-0121	A.159	423.373375	424.243375		publication	publication
sw3092A-ms98-a-0121	A.159	424.243375	424.443375		at	at
sw3092A-ms98-a-0121	A.159	424.443375	424.773375		Texas	Texas
sw3092A-ms98-a-0121	A.159	424.773375	425.373375		Instruments	Instruments
sw3092A-ms98-a-0121	A.159	425.373375	425.533375		where	where
sw3092A-ms98-a-0121	A.159	425.533375	425.703375		they	they
sw3092A-ms98-a-0121	A.159	425.703375	425.783375		are	are
sw3092A-ms98-a-0121	A.159	425.783375	426.283375		breaking	breaking
sw3092A-ms98-a-0121	A.159	426.283375	426.353375		the	the
sw3092A-ms98-a-0121	A.159	426.353375	426.963375		jaw	jaw
sw3092A-ms98-a-0121	A.159	426.963375	426.963375	<INS>	and	---
sw3092A-ms98-a-0121	A.161	426.963375	427.307250		[silence]	[silence]
sw3092A-ms98-a-0122	A.161	427.307250	427.990500		[silence]	[silence]
sw3092A-ms98-a-0122	A.161	427.990500	428.174000		and	and
sw3092A-ms98-a-0122	A.161	428.174000	428.577250		lining	lining
sw3092A-ms98-a-0122	A.161	428.577250	428.667250		the	the
sw3092A-ms98-a-0122	A.161	428.667250	429.057250		jaw	jaw
sw3092A-ms98-a-0122	A.161	429.057250	429.367250		up	up
sw3092A-ms98-a-0122	A.161	429.367250	429.557250		with	with
sw3092A-ms98-a-0122	A.161	429.557250	429.627250		the	the
sw3092A-ms98-a-0122	A.161	429.627250	430.184375		teeth	teeth
sw3092A-ms98-a-0122	A.161	430.184375	430.647625		[silence]	[silence]
sw3092A-ms98-a-0122	A.161	430.647625	430.947250		It's	it's
sw3092A-ms98-a-0122	A.161	430.947250	431.117250		[silence]	[silence]
sw3092A-ms98-a-0122	A.161	431.117250	431.367250		it's	it's
sw3092A-ms98-a-0122	A.161	431.367250	431.657250		less	less
sw3092A-ms98-a-0122	A.161	431.657250	432.067250		painful	painful
sw3092A-ms98-a-0122	A.161	432.067250	432.157250		and	and
sw3092A-ms98-a-0122	A.161	432.157250	432.337250		less	less
sw3092A-ms98-a-0122	A.161	432.337250	432.875250		expensive	expensive
sw3092A-ms98-a-0122	A.163	432.875250	433.323000		[silence]	[silence]
sw3092A-ms98-a-0123	A.163	433.323000	433.743000		[silence]	[silence]
sw3092A-ms98-a-0123	A.163	433.743000	434.573000		Yeah	yeah
sw3092A-ms98-a-0123	A.165	434.573000	435.105000		[silence]	[silence]
sw3092A-ms98-a-0124	A.165	435.105000	435.625000		[silence]	[silence]
sw3092A-ms98-a-0124	A.165	435.625000	435.922000		I	i
sw3092A-ms98-a-0124	A.165	435.922000	436.062875		[silence]	[silence]
sw3092A-ms98-a-0124	A.165	436.062875	436.278750		I	i
sw3092A-ms98-a-0124	A.165	436.278750	436.665000		know	know
sw3092A-ms98-a-0124	A.165	436.665000	437.025000		but	but
sw3092A-ms98-a-0124	A.165	437.025000	437.525000	<SUB>	it	it's
sw3092A-ms98-a-0124	A.165	437.525000	437.935000		it's	it's
sw3092A-ms98-a-0124	A.165	437.935000	438.335000		it's	it's
sw3092A-ms98-a-0124	A.165	438.335000	438.625000		uh	uh
sw3092A-ms98-a-0124	A.165	438.625000	439.245000		easier	easier
sw3092A-ms98-a-0124	A.165	439.245000	439.955000		[silence]	[silence]
sw3092A-ms98-a-0124	A.165	439.955000	440.105000		on	on
sw3092A-ms98-a-0124	A.165	440.105000	440.165000		the	the
sw3092A-ms98-a-0124	A.165	440.165000	440.665000		patient	patient
sw3092A-ms98-a-0124	A.165	440.665000	440.745000		in	in
sw3092A-ms98-a-0124	A.165	440.745000	440.805000		the	the
sw3092A-ms98-a-0124	A.165	440.805000	441.105000		long	long
sw3092A-ms98-a-0124	A.165	441.105000	441.340625		run	run
sw3092A-ms98-a-0124	A.167	441.340625	441.905750		[silence]	[silence]
sw3092A-ms98-a-0125	A.167	441.905750	442.585750		[silence]	[silence]
sw3092A-ms98-a-0125	A.167	442.585750	442.755750		which	which
sw3092A-ms98-a-0125	A.167	442.755750	443.135750		amazed	amazed
sw3092A-ms98-a-0125	A.167	443.135750	443.335750		me	me
sw3092A-ms98-a-0125	A.167	443.335750	443.766125		[silence]	[silence]
sw3092A-ms98-a-0126	A.167	443.766125	445.110125		[silence]	[silence]
sw3092A-ms98-a-0127	A.167	445.110125	445.349625		[silence]	[silence]
sw3092A-ms98-a-0127	A.167	445.349625	445.806500		[laughter]	[laughter]
sw3092A-ms98-a-0127	A.167	445.806500	446.088375		[silence]	[silence]
sw3092A-ms98-a-0128	A.167	446.088375	448.371250		[silence]	[silence]
sw3092A-ms98-a-0129	A.167	448.371250	448.506750		[silence]	[silence]
sw3092A-ms98-a-0129	A.167	448.506750	448.754375		[laughter]	[laughter]
sw3092A-ms98-a-0129	A.167	448.754375	448.829500		[silence]	[silence]
sw3092A-ms98-a-0130	A.167	448.829500	450.556250		[silence]	[silence]
