sw3002B-ms98-a-0001	@B.2	0.000000	10.724000		[silence]	[silence]
sw3002B-ms98-a-0002	@B.2	10.724000	11.136125		[silence]	[silence]
sw3002B-ms98-a-0002	@B.2	11.136125	11.674000		[noise]	[noise]
sw3002B-ms98-a-0002	@B.2	11.674000	11.804000		Do	do
sw3002B-ms98-a-0002	@B.2	11.804000	11.954000		you	you
sw3002B-ms98-a-0002	@B.2	11.954000	12.094000		get	get
sw3002B-ms98-a-0002	@B.2	12.094000	12.144000		a	a
sw3002B-ms98-a-0002	@B.2	12.144000	12.434000		chance	chance
sw3002B-ms98-a-0002	@B.2	12.434000	12.594000		to	to
sw3002B-ms98-a-0002	@B.2	12.594000	12.774000		do	do
sw3002B-ms98-a-0002	@B.2	12.774000	13.044000		it	it
sw3002B-ms98-a-0002	@B.2	13.044000	13.164000		at	at
sw3002B-ms98-a-0002	@B.2	13.164000	13.554000		home	home
sw3002B-ms98-a-0002	@B.2	13.554000	13.694000		or	or
sw3002B-ms98-a-0002	@B.2	13.694000	13.854000		do	do
sw3002B-ms98-a-0002	@B.2	13.854000	14.144000		you	you
sw3002B-ms98-a-0002	@B.2	14.144000	14.951500		mostly	mostly
sw3002B-ms98-a-0002	@B.2	14.951500	15.041875		[silence]	[silence]
sw3002B-ms98-a-0002	@B.2	15.041875	15.304000		like	like
sw3002B-ms98-a-0002	@B.2	15.304000	15.614000		catch	catch
sw3002B-ms98-a-0002	@B.2	15.614000	15.936750		up	up
sw3002B-ms98-a-0002	@B.2	15.936750	16.134000		while	while
sw3002B-ms98-a-0002	@B.2	16.134000	16.294000		you're	you're
sw3002B-ms98-a-0002	@B.2	16.294000	16.374000		at	at
sw3002B-ms98-a-0002	@B.2	16.374000	16.674000		work	work
sw3002B-ms98-a-0002	@B.2	16.674000	16.744000		Do	do
sw3002B-ms98-a-0002	@B.2	16.744000	16.804000		you	you
sw3002B-ms98-a-0002	@B.2	16.804000	16.894000		have	have
sw3002B-ms98-a-0002	@B.2	16.894000	16.964000		a	a
sw3002B-ms98-a-0002	@B.2	16.964000	17.284000		chance	chance
sw3002B-ms98-a-0002	@B.2	17.284000	17.354000		to	to
sw3002B-ms98-a-0002	@B.2	17.354000	17.504000		look	look
sw3002B-ms98-a-0002	@B.2	17.504000	17.634000		through	through
sw3002B-ms98-a-0002	@B.2	17.634000	17.724000		the	the
sw3002B-ms98-a-0002	@B.2	17.724000	17.934000		WALL	Wall
sw3002B-ms98-a-0002	@B.2	17.934000	18.214000		STREET	Street
sw3002B-ms98-a-0002	@B.2	18.214000	18.544000		JOURNAL	Journal
sw3002B-ms98-a-0002	@B.2	18.544000	18.634000		I'm	i'm
sw3002B-ms98-a-0002	@B.2	18.634000	18.804000		not	not
sw3002B-ms98-a-0002	@B.2	18.804000	19.004000		sure	sure
sw3002B-ms98-a-0002	@B.2	19.004000	19.174000		what	what
sw3002B-ms98-a-0002	@B.2	19.174000	19.284000		you	you
sw3002B-ms98-a-0002	@B.2	19.284000	20.090500		do	do
sw3002B-ms98-a-0002	B.4	20.090500	20.497250		[silence]	[silence]
sw3002B-ms98-a-0003	B.4	20.497250	25.245125		[silence]	[silence]
sw3002B-ms98-a-0004	B.4	25.245125	25.926375		[silence]	[silence]
sw3002B-ms98-a-0004	B.4	25.926375	26.693000		Um	um
sw3002B-ms98-a-0004	B.6	26.693000	26.973250		[silence]	[silence]
sw3002B-ms98-a-0005	B.6	26.973250	29.674250		[silence]	[silence]
sw3002B-ms98-a-0006	B.6	29.674250	30.188375		[silence]	[silence]
sw3002B-ms98-a-0006	B.6	30.188375	30.384250		[noise]	[noise]
sw3002B-ms98-a-0006	B.6	30.384250	30.574250		Well	well
sw3002B-ms98-a-0006	B.6	30.574250	30.738000		the-	the
sw3002B-ms98-a-0006	B.8	30.738000	31.239750		[silence]	[silence]
sw3002B-ms98-a-0007	B.8	31.239750	35.876250		[silence]	[silence]
sw3002B-ms98-a-0008	B.8	35.876250	36.271750		[silence]	[silence]
sw3002B-ms98-a-0008	B.8	36.271750	36.546250		I	i
sw3002B-ms98-a-0008	B.8	36.546250	37.146250		understand	understand
sw3002B-ms98-a-0008	B.8	37.146250	37.487375		that	that
sw3002B-ms98-a-0008	B.8	37.487375	37.788625		[silence]	[silence]
sw3002B-ms98-a-0008	B.8	37.788625	37.986250		Well	well
sw3002B-ms98-a-0008	B.8	37.986250	38.126250		and	and
sw3002B-ms98-a-0008	B.8	38.126250	38.226250		you	you
sw3002B-ms98-a-0008	B.8	38.226250	38.366250		have	have
sw3002B-ms98-a-0008	B.8	38.366250	38.426250		a	a
sw3002B-ms98-a-0008	B.8	38.426250	38.696250		little	little
sw3002B-ms98-a-0008	B.8	38.696250	38.886250		bit	bit
sw3002B-ms98-a-0008	B.8	38.886250	39.106250		better	better
sw3002B-ms98-a-0008	B.8	39.106250	39.656250		newspaper	newspaper
sw3002B-ms98-a-0008	B.8	39.656250	39.746250		The	The
sw3002B-ms98-a-0008	B.8	39.746250	40.156250		DALLAS	Dallas
sw3002B-ms98-a-0008	B.8	40.156250	40.396250		MORNING	Morning
sw3002B-ms98-a-0008	B.8	40.396250	40.656250		NEWS	News
sw3002B-ms98-a-0008	B.8	40.656250	40.776250		is	is
sw3002B-ms98-a-0008	B.8	40.776250	40.856250		a	a
sw3002B-ms98-a-0008	B.8	40.856250	41.036250		good	good
sw3002B-ms98-a-0008	B.8	41.036250	41.531625		paper	paper
sw3002B-ms98-a-0008	B.8	41.531625	41.861125		[silence]	[silence]
sw3002B-ms98-a-0008	B.8	41.861125	42.186250		Lubbock	Lubbock
sw3002B-ms98-a-0008	B.8	42.186250	42.326250		is	is
sw3002B-ms98-a-0008	B.8	42.326250	42.536250		kind	kind
sw3002B-ms98-a-0008	B.8	42.536250	42.646250		of	of
sw3002B-ms98-a-0008	B.8	42.646250	43.106250		small	small
sw3002B-ms98-a-0008	B.8	43.106250	43.196250		and	and
sw3002B-ms98-a-0008	B.8	43.196250	43.266250		the	the
sw3002B-ms98-a-0008	B.8	43.266250	44.189750	<CONT>	A	AJs
sw3002B-ms98-a-0008	B.8	44.189750	44.189750	<CONT>	J	+++
sw3002B-ms98-a-0008	B.8	44.189750	44.189750	<CONT>	-s	+++
sw3002B-ms98-a-0008	B.8	44.189750	44.572375		uh	uh
sw3002B-ms98-a-0008	B.8	44.572375	44.651500		[silence]	[silence]
sw3002B-ms98-a-0009	B.8	44.651500	44.781375		[silence]	[silence]
sw3002B-ms98-a-0009	B.8	44.781375	44.961500		kind	kind
sw3002B-ms98-a-0009	B.8	44.961500	45.061500		of	of
sw3002B-ms98-a-0009	B.8	45.061500	45.471500		dominant	dominant
sw3002B-ms98-a-0009	B.8	45.471500	45.631500		There's	there's
sw3002B-ms98-a-0009	B.8	45.631500	45.771500		no	no
sw3002B-ms98-a-0009	B.8	45.771500	46.541500		competition	competition
sw3002B-ms98-a-0009	B.8	46.541500	46.821500		so	so
sw3002B-ms98-a-0009	B.8	46.821500	47.141500		what	what
sw3002B-ms98-a-0009	B.8	47.141500	47.231500		you	you
sw3002B-ms98-a-0009	B.8	47.231500	47.421500		get	get
sw3002B-ms98-a-0009	B.8	47.421500	47.561500		is	is
sw3002B-ms98-a-0009	B.8	47.561500	47.801500		what	what
sw3002B-ms98-a-0009	B.8	47.801500	47.921500		you	you
sw3002B-ms98-a-0009	B.8	47.921500	48.364875		get	get
sw3002B-ms98-a-0009	B.8	48.364875	48.786750		[silence]	[silence]
sw3002B-ms98-a-0009	B.8	48.786750	48.961500		We	we
sw3002B-ms98-a-0009	B.8	48.961500	49.131500		used	used
sw3002B-ms98-a-0009	B.8	49.131500	49.231500		to	to
sw3002B-ms98-a-0009	B.8	49.231500	49.501500		take	take
sw3002B-ms98-a-0009	B.8	49.501500	49.571500		the	the
sw3002B-ms98-a-0009	B.8	49.571500	49.951500		paper	paper
sw3002B-ms98-a-0009	B.8	49.951500	50.161500		every	every
sw3002B-ms98-a-0009	B.8	50.161500	50.561500		day	day
sw3002B-ms98-a-0009	B.8	50.561500	50.801500		and	and
sw3002B-ms98-a-0009	B.8	50.801500	50.901500		I	i
sw3002B-ms98-a-0009	B.8	50.901500	51.251500		finally	finally
sw3002B-ms98-a-0009	B.8	51.251500	51.461500		quit	quit
sw3002B-ms98-a-0009	B.8	51.461500	51.731500		taking	taking
sw3002B-ms98-a-0009	B.8	51.731500	51.821500		it	it
sw3002B-ms98-a-0009	B.8	51.821500	52.111500		because	because
sw3002B-ms98-a-0009	B.8	52.111500	52.201500		it	it
sw3002B-ms98-a-0009	B.8	52.201500	52.611500		stacked	stacked
sw3002B-ms98-a-0009	B.8	52.611500	52.861500		up	up
sw3002B-ms98-a-0009	B.8	52.861500	52.931500		I	i
sw3002B-ms98-a-0009	B.8	52.931500	53.171500		never	never
sw3002B-ms98-a-0009	B.8	53.171500	53.331500		got	got
sw3002B-ms98-a-0009	B.8	53.331500	53.601500		around	around
sw3002B-ms98-a-0009	B.8	53.601500	53.681500		to	to
sw3002B-ms98-a-0009	B.8	53.681500	53.981500		reading	reading
sw3002B-ms98-a-0009	B.8	53.981500	54.311500		it	it
sw3002B-ms98-a-0009	B.8	54.311500	54.591500		and	and
sw3002B-ms98-a-0009	B.8	54.591500	54.741500		so	so
sw3002B-ms98-a-0009	B.8	54.741500	54.841500		I	i
sw3002B-ms98-a-0009	B.8	54.841500	55.111500		try	try
sw3002B-ms98-a-0009	B.8	55.111500	55.171500		to	to
sw3002B-ms98-a-0009	B.8	55.171500	55.471500		take	take
sw3002B-ms98-a-0009	B.8	55.471500	55.541500		you	you
sw3002B-ms98-a-0009	B.8	55.541500	55.651500		know	know
sw3002B-ms98-a-0009	B.8	55.651500	56.151500		weekend	weekend
sw3002B-ms98-a-0009	B.8	56.151500	56.800750		papers	papers
sw3002B-ms98-a-0009	B.10	56.800750	57.011750		[silence]	[silence]
sw3002B-ms98-a-0010	B.10	57.011750	57.321750		[silence]	[silence]
sw3002B-ms98-a-0010	B.10	57.321750	57.461750		and	and
sw3002B-ms98-a-0010	B.10	57.461750	57.601750		then	then
sw3002B-ms98-a-0010	B.10	57.601750	57.841750		during	during
sw3002B-ms98-a-0010	B.10	57.841750	57.921750		the	the
sw3002B-ms98-a-0010	B.10	57.921750	58.241750		week	week
sw3002B-ms98-a-0010	B.10	58.241750	58.361750		I	i
sw3002B-ms98-a-0010	B.10	58.361750	58.721750		catch	catch
sw3002B-ms98-a-0010	B.10	58.721750	58.951750		up	up
sw3002B-ms98-a-0010	B.10	58.951750	59.051750		you	you
sw3002B-ms98-a-0010	B.10	59.051750	59.201750		know	know
sw3002B-ms98-a-0010	B.10	59.201750	59.311750		on	on
sw3002B-ms98-a-0010	B.10	59.311750	59.411750		the	the
sw3002B-ms98-a-0010	B.10	59.411750	59.771750		radio	radio
sw3002B-ms98-a-0010	B.10	59.771750	59.891750		on	on
sw3002B-ms98-a-0010	B.10	59.891750	59.971750		the	the
sw3002B-ms98-a-0010	B.10	59.971750	60.121750		way	way
sw3002B-ms98-a-0010	B.10	60.121750	60.211750		to	to
sw3002B-ms98-a-0010	B.10	60.211750	60.681750		work	work
sw3002B-ms98-a-0010	B.10	60.681750	60.821750		or	or
sw3002B-ms98-a-0010	B.10	60.821750	61.335250		if	if
sw3002B-ms98-a-0010	B.10	61.335250	61.581750		I'm	i'm
sw3002B-ms98-a-0010	B.10	61.581750	61.951750		traveling	traveling
sw3002B-ms98-a-0010	B.10	61.951750	62.181750		around	around
sw3002B-ms98-a-0010	B.10	62.181750	62.251750		at	at
sw3002B-ms98-a-0010	B.10	62.251750	62.571750		lunch	lunch
sw3002B-ms98-a-0010	B.10	62.571750	62.641750		or	or
sw3002B-ms98-a-0010	B.10	62.641750	62.761750		on	on
sw3002B-ms98-a-0010	B.10	62.761750	62.841750		the	the
sw3002B-ms98-a-0010	B.10	62.841750	63.001750		way	way
sw3002B-ms98-a-0010	B.10	63.001750	63.471750		home	home
sw3002B-ms98-a-0010	B.10	63.471750	64.041750		[noise]	[noise]
sw3002B-ms98-a-0010	B.10	64.041750	64.211750		and	and
sw3002B-ms98-a-0010	B.10	64.211750	64.714375		hopefully	hopefully
sw3002B-ms98-a-0010	B.10	64.714375	64.991750		I'm	i'm
sw3002B-ms98-a-0010	B.10	64.991750	65.221750		sitting	sitting
sw3002B-ms98-a-0010	B.10	65.221750	65.461750		down	down
sw3002B-ms98-a-0010	B.10	65.461750	65.591750		by	by
sw3002B-ms98-a-0010	B.10	65.591750	65.671750		the	the
sw3002B-ms98-a-0010	B.10	65.671750	65.871750		ten	ten
sw3002B-ms98-a-0010	B.10	65.871750	66.201750		o'clock	o'clock
sw3002B-ms98-a-0010	B.10	66.201750	66.451750		news	news
sw3002B-ms98-a-0010	B.10	66.451750	66.551750		to	to
sw3002B-ms98-a-0010	B.10	66.551750	66.661750		where	where
sw3002B-ms98-a-0010	B.10	66.661750	66.741750		I	i
sw3002B-ms98-a-0010	B.10	66.741750	66.831750		can	can
sw3002B-ms98-a-0010	B.10	66.831750	67.041750		kind	kind
sw3002B-ms98-a-0010	B.10	67.041750	67.121750		of	of
sw3002B-ms98-a-0010	B.10	67.121750	67.221750		get	get
sw3002B-ms98-a-0010	B.10	67.221750	67.321750		a	a
sw3002B-ms98-a-0010	B.10	67.321750	67.841750		recap	recap
sw3002B-ms98-a-0010	B.10	67.841750	67.981750		on	on
sw3002B-ms98-a-0010	B.10	67.981750	68.441750	<CONT>	T	TV
sw3002B-ms98-a-0010	B.10	68.441750	68.441750	<CONT>	V	+++
sw3002B-ms98-a-0010	B.10	68.441750	69.863000		uh	uh
sw3002B-ms98-a-0010	B.12	69.863000	70.044625		[silence]	[silence]
sw3002B-ms98-a-0011	B.12	70.044625	74.273625		[silence]	[silence]
sw3002B-ms98-a-0012	B.12	74.273625	74.922625		[silence]	[silence]
sw3002B-ms98-a-0012	B.12	74.922625	75.703625		No	no
sw3002B-ms98-a-0012	B.14	75.703625	76.422375		[laughter]	[laughter]
sw3002B-ms98-a-0012	B.14	76.422375	76.719875		[silence]	[silence]
sw3002B-ms98-a-0013	B.14	76.719875	77.391000		[silence]	[silence]
sw3002B-ms98-a-0013	B.14	77.391000	78.022500		Yeah	yeah
sw3002B-ms98-a-0013	B.16	78.022500	78.370625		[silence]	[silence]
sw3002B-ms98-a-0014	B.16	78.370625	85.229000		[silence]	[silence]
sw3002B-ms98-a-0015	B.16	85.229000	85.733125		[silence]	[silence]
sw3002B-ms98-a-0015	B.16	85.733125	85.859000		It	it
sw3002B-ms98-a-0015	B.16	85.859000	86.540000		is	is
sw3002B-ms98-a-0015	B.18	86.540000	86.975500		[silence]	[silence]
sw3002B-ms98-a-0016	B.18	86.975500	92.085125		[silence]	[silence]
sw3002B-ms98-a-0017	B.18	92.085125	92.501500		[silence]	[silence]
sw3002B-ms98-a-0017	B.18	92.501500	93.189875		Uh-huh	uh-huh
sw3002B-ms98-a-0017	B.20	93.189875	93.652000		[silence]	[silence]
sw3002B-ms98-a-0018	B.20	93.652000	96.951875		[silence]	[silence]
sw3002B-ms98-a-0019	B.20	96.951875	97.343375		[silence]	[silence]
sw3002B-ms98-a-0019	B.20	97.343375	97.421875		[noise]	[noise]
sw3002B-ms98-a-0019	B.20	97.421875	97.861875		Oh	oh
sw3002B-ms98-a-0019	B.20	97.861875	98.071875		I	i
sw3002B-ms98-a-0019	B.20	98.071875	98.552125		see	see
sw3002B-ms98-a-0019	B.22	98.552125	98.861250		[silence]	[silence]
sw3002B-ms98-a-0020	B.22	98.861250	99.377250		[silence]	[silence]
sw3002B-ms98-a-0020	B.22	99.377250	99.508750	<SUB>	We-	w[ell]-
sw3002B-ms98-a-0020	B.22	99.508750	99.947125		[silence]	[silence]
sw3002B-ms98-a-0020	B.22	99.947125	100.132750		uh	uh
sw3002B-ms98-a-0020	B.22	100.132750	100.371250		it's	it's
sw3002B-ms98-a-0020	B.22	100.371250	100.981250		frustrating	frustrating
sw3002B-ms98-a-0020	B.22	100.981250	101.141250		to	to
sw3002B-ms98-a-0020	B.22	101.141250	101.271250		me	me
sw3002B-ms98-a-0020	B.22	101.271250	101.611250		because	because
sw3002B-ms98-a-0020	B.22	101.611250	101.731250		I	i
sw3002B-ms98-a-0020	B.22	101.731250	101.991250		really	really
sw3002B-ms98-a-0020	B.22	101.991250	102.251250		wish	wish
sw3002B-ms98-a-0020	B.22	102.251250	102.431250		that	that
sw3002B-ms98-a-0020	B.22	102.431250	102.625750		I	i
sw3002B-ms98-a-0020	B.22	102.625750	102.904500		did	did
sw3002B-ms98-a-0020	B.22	102.904500	103.345125		[silence]	[silence]
sw3002B-ms98-a-0020	B.22	103.345125	103.861250		have	have
sw3002B-ms98-a-0020	B.22	103.861250	104.401875		more	more
sw3002B-ms98-a-0020	B.22	104.401875	105.121875		[silence]	[silence]
sw3002B-ms98-a-0021	B.22	105.121875	105.974500		[silence]	[silence]
sw3002B-ms98-a-0021	B.22	105.974500	106.191875		I	i
sw3002B-ms98-a-0021	B.22	106.191875	106.331875		don't	don't
sw3002B-ms98-a-0021	B.22	106.331875	106.671875		know	know
sw3002B-ms98-a-0021	B.22	106.671875	107.080750		uh	uh
sw3002B-ms98-a-0021	B.22	107.080750	107.371875		[silence]	[silence]
sw3002B-ms98-a-0021	B.22	107.371875	107.461875		what	what
sw3002B-ms98-a-0021	B.22	107.461875	107.521875		do	do
sw3002B-ms98-a-0021	B.22	107.521875	107.591875		I	i
sw3002B-ms98-a-0021	B.22	107.591875	107.761875		want	want
sw3002B-ms98-a-0021	B.22	107.761875	107.821875		to	to
sw3002B-ms98-a-0021	B.22	107.821875	108.121875		say	say
sw3002B-ms98-a-0021	B.22	108.121875	108.171875		I	i
sw3002B-ms98-a-0021	B.22	108.171875	108.331875		wish	wish
sw3002B-ms98-a-0021	B.22	108.331875	108.481875		that	that
sw3002B-ms98-a-0021	B.22	108.481875	108.571875		I	i
sw3002B-ms98-a-0021	B.22	108.571875	108.721875		was	was
sw3002B-ms98-a-0021	B.22	108.721875	109.051875		around	around
sw3002B-ms98-a-0021	B.22	109.051875	109.211875		more	more
sw3002B-ms98-a-0021	B.22	109.211875	109.431875		news	news
sw3002B-ms98-a-0021	B.22	109.431875	109.591875		It's	it's
sw3002B-ms98-a-0021	B.22	109.591875	110.011875		frustrating	frustrating
sw3002B-ms98-a-0021	B.22	110.011875	110.131875		when	when
sw3002B-ms98-a-0021	B.22	110.131875	110.221875		I	i
sw3002B-ms98-a-0021	B.22	110.221875	110.491875		don't	don't
sw3002B-ms98-a-0021	B.22	110.491875	110.591875		know	know
sw3002B-ms98-a-0021	B.22	110.591875	110.821875		what's	what's
sw3002B-ms98-a-0021	B.22	110.821875	111.021875		going	going
sw3002B-ms98-a-0021	B.22	111.021875	111.151875		on	on
sw3002B-ms98-a-0021	B.22	111.151875	111.211875		I	i
sw3002B-ms98-a-0021	B.22	111.211875	111.401875		feel	feel
sw3002B-ms98-a-0021	B.22	111.401875	111.581875		like	like
sw3002B-ms98-a-0021	B.22	111.581875	111.781875		it's	it's
sw3002B-ms98-a-0021	B.22	111.781875	111.961875		hit	hit
sw3002B-ms98-a-0021	B.22	111.961875	112.091875		and	and
sw3002B-ms98-a-0021	B.22	112.091875	112.436000		miss	miss
sw3002B-ms98-a-0021	B.22	112.436000	112.710250		and	and
sw3002B-ms98-a-0021	B.22	112.710250	113.150375		[silence]	[silence]
sw3002B-ms98-a-0022	B.22	113.150375	113.320375		[silence]	[silence]
sw3002B-ms98-a-0022	B.22	113.320375	113.420375		I	i
sw3002B-ms98-a-0022	B.22	113.420375	113.770375		haven't	haven't
sw3002B-ms98-a-0022	B.22	113.770375	114.050375		found	found
sw3002B-ms98-a-0022	B.22	114.050375	114.510375		anything	anything
sw3002B-ms98-a-0022	B.22	114.510375	114.760375		yet	yet
sw3002B-ms98-a-0022	B.22	114.760375	114.950375		that	that
sw3002B-ms98-a-0022	B.22	114.950375	115.300375		keeps	keeps
sw3002B-ms98-a-0022	B.22	115.300375	115.460375		me	me
sw3002B-ms98-a-0022	B.22	115.460375	115.876375		there	there
sw3002B-ms98-a-0022	B.22	115.876375	116.362250		[silence]	[silence]
sw3002B-ms98-a-0022	B.22	116.362250	116.520375		on	on
sw3002B-ms98-a-0022	B.22	116.520375	116.570375		a	a
sw3002B-ms98-a-0022	B.22	116.570375	117.070375		constant	constant
sw3002B-ms98-a-0022	B.22	117.070375	117.470375		basis	basis
sw3002B-ms98-a-0022	B.22	117.470375	117.700375		Somebody	somebody
sw3002B-ms98-a-0022	B.22	117.700375	117.810375		will	will
sw3002B-ms98-a-0022	B.22	117.810375	117.990375		say	say
sw3002B-ms98-a-0022	B.22	117.990375	118.090375		oh	oh
sw3002B-ms98-a-0022	B.22	118.090375	118.260375		did	did
sw3002B-ms98-a-0022	B.22	118.260375	118.390375		you	you
sw3002B-ms98-a-0022	B.22	118.390375	118.510375		hear	hear
sw3002B-ms98-a-0022	B.22	118.510375	118.750375		about	about
sw3002B-ms98-a-0022	B.22	118.750375	118.910375		this	this
sw3002B-ms98-a-0022	B.22	118.910375	119.080375		that	that
sw3002B-ms98-a-0022	B.22	119.080375	119.410375		happened	happened
sw3002B-ms98-a-0022	B.22	119.410375	119.690375		last	last
sw3002B-ms98-a-0022	B.22	119.690375	119.860375		week	week
sw3002B-ms98-a-0022	B.22	119.860375	119.950375		and	and
sw3002B-ms98-a-0022	B.22	119.950375	120.010375		it	it
sw3002B-ms98-a-0022	B.22	120.010375	120.240375		might	might
sw3002B-ms98-a-0022	B.22	120.240375	120.350375		be	be
sw3002B-ms98-a-0022	B.22	120.350375	120.720375		local	local
sw3002B-ms98-a-0022	B.22	120.720375	120.810375		and	and
sw3002B-ms98-a-0022	B.22	120.810375	120.870375		it	it
sw3002B-ms98-a-0022	B.22	120.870375	121.020375		might	might
sw3002B-ms98-a-0022	B.22	121.020375	121.120375		be	be
sw3002B-ms98-a-0022	B.22	121.120375	121.610375		national	national
sw3002B-ms98-a-0022	B.22	121.610375	121.710375		and	and
sw3002B-ms98-a-0022	B.22	121.710375	122.046125		I'm	i'm
sw3002B-ms98-a-0022	B.22	122.046125	122.196375		[silence]	[silence]
sw3002B-ms98-a-0023	B.22	122.196375	122.306375		[silence]	[silence]
sw3002B-ms98-a-0023	B.22	122.306375	122.616375		like	like
sw3002B-ms98-a-0023	B.22	122.616375	122.866375		no	no
sw3002B-ms98-a-0023	B.22	122.866375	122.946375		I	i
sw3002B-ms98-a-0023	B.22	122.946375	123.216375		missed	missed
sw3002B-ms98-a-0023	B.22	123.216375	123.406375		that	that
sw3002B-ms98-a-0023	B.22	123.406375	123.606375		one	one
sw3002B-ms98-a-0023	B.24	123.606375	124.116375		[laughter]	[laughter]
sw3002B-ms98-a-0023	B.24	124.116375	124.534875		[silence]	[silence]
sw3002B-ms98-a-0024	B.24	124.534875	129.416000		[silence]	[silence]
sw3002B-ms98-a-0025	B.24	129.416000	130.011625		[silence]	[silence]
sw3002B-ms98-a-0025	B.24	130.011625	130.768375		Yeah	yeah
sw3002B-ms98-a-0025	B.26	130.768375	131.606250		[silence]	[silence]
sw3002B-ms98-a-0026	B.26	131.606250	138.101750		[silence]	[silence]
sw3002B-ms98-a-0027	B.26	138.101750	138.571750		[silence]	[silence]
sw3002B-ms98-a-0027	B.26	138.571750	139.427750	<SUB>	Uh-huh	um-hum
sw3002B-ms98-a-0027	B.28	139.427750	139.627500		[silence]	[silence]
sw3002B-ms98-a-0028	B.28	139.627500	145.517000		[silence]	[silence]
sw3002B-ms98-a-0029	B.28	145.517000	146.007000		[silence]	[silence]
sw3002B-ms98-a-0029	B.28	146.007000	146.387000		Yeah	yeah
sw3002B-ms98-a-0029	B.28	146.387000	146.687000		that's	that's
sw3002B-ms98-a-0029	B.28	146.687000	147.259125		true	true
sw3002B-ms98-a-0029	B.30	147.259125	147.581625		[silence]	[silence]
sw3002B-ms98-a-0030	B.30	147.581625	148.636875		[silence]	[silence]
sw3002B-ms98-a-0031	B.30	148.636875	149.034125		[silence]	[silence]
sw3002B-ms98-a-0031	B.30	149.034125	149.416875		That's	that's
sw3002B-ms98-a-0031	B.30	149.416875	149.959125		true	true
sw3002B-ms98-a-0031	B.32	149.959125	150.454625		[silence]	[silence]
sw3002B-ms98-a-0032	B.32	150.454625	158.088375		[silence]	[silence]
sw3002B-ms98-a-0033	B.32	158.088375	158.531375		[silence]	[silence]
sw3002B-ms98-a-0033	B.32	158.531375	159.008500		[noise]	[noise]
sw3002B-ms98-a-0033	B.32	159.008500	159.615875		[silence]	[silence]
sw3002B-ms98-a-0034	B.32	159.615875	160.295250		[silence]	[silence]
sw3002B-ms98-a-0034	B.32	160.295250	161.006000		Uh	[laughter-uh]
sw3002B-ms98-a-0034	B.32	161.006000	161.186750		oh	oh
sw3002B-ms98-a-0034	B.32	161.186750	161.752125		no	no
sw3002B-ms98-a-0034	B.34	161.752125	162.210250		[silence]	[silence]
sw3002B-ms98-a-0035	B.34	162.210250	164.099000		[silence]	[silence]
sw3002B-ms98-a-0036	B.34	164.099000	164.569000		[silence]	[silence]
sw3002B-ms98-a-0036	B.34	164.569000	164.669000		A	a
sw3002B-ms98-a-0036	B.34	164.669000	164.909000		little	little
sw3002B-ms98-a-0036	B.34	164.909000	165.089000		bit	bit
sw3002B-ms98-a-0036	B.34	165.089000	165.339000		that	that
sw3002B-ms98-a-0036	B.34	165.339000	165.829000		worries	worries
sw3002B-ms98-a-0036	B.34	165.829000	166.049000		me	me
sw3002B-ms98-a-0036	B.34	166.049000	166.369000		because	because
sw3002B-ms98-a-0036	B.34	166.369000	166.529000		I	i
sw3002B-ms98-a-0036	B.34	166.529000	166.779000		feel	feel
sw3002B-ms98-a-0036	B.34	166.779000	167.160250		like	like
sw3002B-ms98-a-0036	B.34	167.160250	167.465375		[silence]	[silence]
sw3002B-ms98-a-0036	B.34	167.465375	167.599000		the	the
sw3002B-ms98-a-0036	B.34	167.599000	167.859000		news	news
sw3002B-ms98-a-0036	B.34	167.859000	167.989000		is	is
sw3002B-ms98-a-0036	B.34	167.989000	168.289000		so	so
sw3002B-ms98-a-0036	B.34	168.289000	169.024750		biased	biased
sw3002B-ms98-a-0036	B.36	169.024750	169.292125		[silence]	[silence]
sw3002B-ms98-a-0036	B.36	169.292125	169.837375		And	and
sw3002B-ms98-a-0036	B.36	169.837375	170.180125		[silence]	[silence]
sw3002B-ms98-a-0036	B.36	170.180125	170.609000		yes	yes
sw3002B-ms98-a-0036	B.36	170.609000	170.699000		they	they
sw3002B-ms98-a-0036	B.36	170.699000	171.139000		report	report
sw3002B-ms98-a-0036	B.36	171.139000	171.519000		facts	facts
sw3002B-ms98-a-0036	B.36	171.519000	171.679000		and	and
sw3002B-ms98-a-0036	B.36	171.679000	171.939000		yes	yes
sw3002B-ms98-a-0036	B.36	171.939000	172.009000		you	you
sw3002B-ms98-a-0036	B.36	172.009000	172.219000		can	can
sw3002B-ms98-a-0036	B.36	172.219000	172.349000		get	get
sw3002B-ms98-a-0036	B.36	172.349000	172.459000		an	an
sw3002B-ms98-a-0036	B.36	172.459000	172.789000		idea	idea
sw3002B-ms98-a-0036	B.36	172.789000	172.889000		of	of
sw3002B-ms98-a-0036	B.36	172.889000	173.139000		what's	what's
sw3002B-ms98-a-0036	B.36	173.139000	173.409000		going	going
sw3002B-ms98-a-0036	B.36	173.409000	173.639000		on	on
sw3002B-ms98-a-0036	B.36	173.639000	173.855875		but	but
sw3002B-ms98-a-0036	B.36	173.855875	174.186000		[silence]	[silence]
sw3002B-ms98-a-0037	B.36	174.186000	174.356000		[silence]	[silence]
sw3002B-ms98-a-0037	B.36	174.356000	174.526000		you	you
sw3002B-ms98-a-0037	B.36	174.526000	174.656000		know	know
sw3002B-ms98-a-0037	B.36	174.656000	175.066000		it's	it's
sw3002B-ms98-a-0037	B.36	175.066000	175.176000		an	an
sw3002B-ms98-a-0037	B.36	175.176000	175.376000		and	and
sw3002B-ms98-a-0037	B.36	175.376000	175.446000		I	i
sw3002B-ms98-a-0037	B.36	175.446000	175.656000		wish	wish
sw3002B-ms98-a-0037	B.36	175.656000	175.796000		they	they
sw3002B-ms98-a-0037	B.36	175.796000	175.946000		would	would
sw3002B-ms98-a-0037	B.36	175.946000	176.156000		just	just
sw3002B-ms98-a-0037	B.36	176.156000	176.596000		report	report
sw3002B-ms98-a-0037	B.36	176.596000	176.676000		the	the
sw3002B-ms98-a-0037	B.36	176.676000	177.186000		incident	incident
sw3002B-ms98-a-0037	B.36	177.186000	177.476000		and	and
sw3002B-ms98-a-0037	B.36	177.476000	177.666000		then	then
sw3002B-ms98-a-0037	B.36	177.666000	177.816000		leave	leave
sw3002B-ms98-a-0037	B.36	177.816000	177.906000		the	the
sw3002B-ms98-a-0037	B.36	177.906000	178.676000		commentaries	commentaries
sw3002B-ms98-a-0037	B.36	178.676000	178.856000		out	out
sw3002B-ms98-a-0037	B.36	178.856000	178.946000		But	but
sw3002B-ms98-a-0037	B.36	178.946000	179.106000		so	so
sw3002B-ms98-a-0037	B.36	179.106000	179.286000		many	many
sw3002B-ms98-a-0037	B.36	179.286000	179.596000		times	times
sw3002B-ms98-a-0037	B.36	179.596000	179.696000		you	you
sw3002B-ms98-a-0037	B.36	179.696000	179.876000		get	get
sw3002B-ms98-a-0037	B.36	179.876000	180.266000		well	well
sw3002B-ms98-a-0037	B.36	180.266000	180.668625		[silence]	[silence]
sw3002B-ms98-a-0038	B.36	180.668625	180.763375		[silence]	[silence]
sw3002B-ms98-a-0038	B.36	180.763375	180.968625		uh	uh
sw3002B-ms98-a-0038	B.36	180.968625	181.138625		this	this
sw3002B-ms98-a-0038	B.36	181.138625	181.268625		is	is
sw3002B-ms98-a-0038	B.36	181.268625	181.478625		my	my
sw3002B-ms98-a-0038	B.36	181.478625	181.838625		opinion	opinion
sw3002B-ms98-a-0038	B.36	181.838625	181.978625		of	of
sw3002B-ms98-a-0038	B.36	181.978625	182.128625		what	what
sw3002B-ms98-a-0038	B.36	182.128625	182.298625		he	he
sw3002B-ms98-a-0038	B.36	182.298625	182.538625		meant	meant
sw3002B-ms98-a-0038	B.36	182.538625	182.708625		by	by
sw3002B-ms98-a-0038	B.36	182.708625	182.988625		that	that
sw3002B-ms98-a-0038	B.38	182.988625	183.138625		and	and
sw3002B-ms98-a-0038	B.38	183.138625	183.278625		I'm	i'm
sw3002B-ms98-a-0038	B.38	183.278625	183.488625		like	like
sw3002B-ms98-a-0038	B.38	183.488625	183.618625		who	who
sw3002B-ms98-a-0038	B.38	183.618625	183.748625		are	are
sw3002B-ms98-a-0038	B.38	183.748625	183.978625		you	you
sw3002B-ms98-a-0038	B.38	183.978625	184.888625		to	to
sw3002B-ms98-a-0038	B.38	184.888625	185.375500		judge	[laughter-judge]
sw3002B-ms98-a-0038	B.38	185.375500	185.458625		[silence]	[silence]
sw3002B-ms98-a-0038	B.38	185.458625	185.558625		You	you
sw3002B-ms98-a-0038	B.38	185.558625	185.708625		know	know
sw3002B-ms98-a-0038	B.40	185.708625	185.918625		just	just
sw3002B-ms98-a-0038	B.40	185.918625	186.358625		report	report
sw3002B-ms98-a-0038	B.40	186.358625	186.418625		the	the
sw3002B-ms98-a-0038	B.40	186.418625	187.118125		facts	facts
sw3002B-ms98-a-0038	B.42	187.118125	187.404500		[silence]	[silence]
sw3002B-ms98-a-0039	B.42	187.404500	189.203000		[silence]	[silence]
sw3002B-ms98-a-0040	B.42	189.203000	189.733000		[silence]	[silence]
sw3002B-ms98-a-0040	B.42	189.733000	190.281250	<SUB>	Uh-huh	um-hum
sw3002B-ms98-a-0040	B.44	190.281250	190.770375		[silence]	[silence]
sw3002B-ms98-a-0041	B.44	190.770375	195.732375		[silence]	[silence]
sw3002B-ms98-a-0042	B.44	195.732375	196.236000		[silence]	[silence]
sw3002B-ms98-a-0042	B.44	196.236000	196.871625		Yes	yes
sw3002B-ms98-a-0042	B.46	196.871625	197.152875		[silence]	[silence]
sw3002B-ms98-a-0043	B.46	197.152875	201.240875		[silence]	[silence]
sw3002B-ms98-a-0044	B.46	201.240875	201.760875		[silence]	[silence]
sw3002B-ms98-a-0044	B.46	201.760875	202.476375	<SUB>	Uh-huh	um-hum
sw3002B-ms98-a-0044	B.48	202.476375	202.883125		[silence]	[silence]
sw3002B-ms98-a-0045	B.48	202.883125	205.448875		[silence]	[silence]
sw3002B-ms98-a-0046	B.48	205.448875	205.937750		[silence]	[silence]
sw3002B-ms98-a-0046	B.48	205.937750	206.278875		[noise]	[noise]
sw3002B-ms98-a-0046	B.48	206.278875	206.398875		And	and
sw3002B-ms98-a-0046	B.48	206.398875	206.448875		I	i
sw3002B-ms98-a-0046	B.48	206.448875	206.668875		feel	feel
sw3002B-ms98-a-0046	B.48	206.668875	206.868875		like	like
sw3002B-ms98-a-0046	B.48	206.868875	207.008875		they	they
sw3002B-ms98-a-0046	B.48	207.008875	208.118875		sensationalize	sensationalize
sw3002B-ms98-a-0046	B.48	208.118875	208.488875		things	things
sw3002B-ms98-a-0046	B.48	208.488875	208.618875		that	that
sw3002B-ms98-a-0046	B.48	208.618875	208.878875		shouldn't	shouldn't
sw3002B-ms98-a-0046	B.48	208.878875	208.998875		be	be
sw3002B-ms98-a-0046	B.48	208.998875	210.178875		sensationalized	sensationalized
sw3002B-ms98-a-0046	B.48	210.178875	210.228875		I	i
sw3002B-ms98-a-0046	B.48	210.228875	210.458875		feel	feel
sw3002B-ms98-a-0046	B.48	210.458875	210.698875		like	like
sw3002B-ms98-a-0046	B.48	210.698875	210.928875		they	they
sw3002B-ms98-a-0046	B.48	210.928875	211.998875		focus	focus
sw3002B-ms98-a-0046	B.48	211.998875	212.158875		too	too
sw3002B-ms98-a-0046	B.48	212.158875	212.428875		much	much
sw3002B-ms98-a-0046	B.48	212.428875	212.618875		on	on
sw3002B-ms98-a-0046	B.48	212.618875	212.998875		things	things
sw3002B-ms98-a-0046	B.48	212.998875	213.352125		that	that
sw3002B-ms98-a-0046	B.48	213.352125	213.722375		[silence]	[silence]
sw3002B-ms98-a-0047	B.48	213.722375	214.274875		[silence]	[silence]
sw3002B-ms98-a-0047	B.48	214.274875	214.402375		I	i
sw3002B-ms98-a-0047	B.48	214.402375	214.552375		don't	don't
sw3002B-ms98-a-0047	B.48	214.552375	214.712375		know	know
sw3002B-ms98-a-0047	B.48	214.712375	214.882375		you	you
sw3002B-ms98-a-0047	B.48	214.882375	215.002375		know	know
sw3002B-ms98-a-0047	B.48	215.002375	215.212375		so	so
sw3002B-ms98-a-0047	B.48	215.212375	215.472375		much	much
sw3002B-ms98-a-0047	B.48	215.472375	215.692375		during	during
sw3002B-ms98-a-0047	B.48	215.692375	215.782375		the	the
sw3002B-ms98-a-0047	B.48	215.782375	216.172375		Gulf	Gulf
sw3002B-ms98-a-0047	B.48	216.172375	216.392375		War	War
sw3002B-ms98-a-0047	B.48	216.392375	216.532375		they	they
sw3002B-ms98-a-0047	B.48	216.532375	216.652375		would	would
sw3002B-ms98-a-0047	B.48	216.652375	216.992375		ask	ask
sw3002B-ms98-a-0047	B.48	216.992375	217.682375		questions	questions
sw3002B-ms98-a-0047	B.48	217.682375	218.099125		that	that
sw3002B-ms98-a-0047	B.48	218.099125	218.562500		[silence]	[silence]
sw3002B-ms98-a-0047	B.48	218.562500	218.978875		uh	uh
sw3002B-ms98-a-0047	B.48	218.978875	219.156500		[silence]	[silence]
sw3002B-ms98-a-0048	B.48	219.156500	219.396500		[silence]	[silence]
sw3002B-ms98-a-0048	B.48	219.396500	219.576500		you	you
sw3002B-ms98-a-0048	B.48	219.576500	219.886500		wouldn't	wouldn't
sw3002B-ms98-a-0048	B.48	219.886500	220.126500		want	want
sw3002B-ms98-a-0048	B.48	220.126500	220.776500		broadcast	broadcast
sw3002B-ms98-a-0048	B.48	220.776500	220.906500		It's	it's
sw3002B-ms98-a-0048	B.48	220.906500	221.136500		like	like
sw3002B-ms98-a-0048	B.48	221.136500	221.256500		if	if
sw3002B-ms98-a-0048	B.48	221.256500	221.366500		you	you
sw3002B-ms98-a-0048	B.48	221.366500	221.606500		tell	tell
sw3002B-ms98-a-0048	B.48	221.606500	221.926500		us	us
sw3002B-ms98-a-0048	B.48	221.926500	221.986500		the	the
sw3002B-ms98-a-0048	B.48	221.986500	222.216500		answer	answer
sw3002B-ms98-a-0048	B.48	222.216500	222.326500		to	to
sw3002B-ms98-a-0048	B.48	222.326500	222.526500		that	that
sw3002B-ms98-a-0048	B.48	222.526500	222.636500		you're	you're
sw3002B-ms98-a-0048	B.48	222.636500	222.956500		telling	telling
sw3002B-ms98-a-0048	B.48	222.956500	223.076500		our	our
sw3002B-ms98-a-0048	B.48	223.076500	223.645250		enemy	enemy
sw3002B-ms98-a-0048	B.48	223.645250	223.792125		[silence]	[silence]
sw3002B-ms98-a-0048	B.48	223.792125	223.986500		what	what
sw3002B-ms98-a-0048	B.48	223.986500	224.116500		your	your
sw3002B-ms98-a-0048	B.48	224.116500	224.696500		strategy	strategy
sw3002B-ms98-a-0048	B.48	224.696500	224.836500		is	is
sw3002B-ms98-a-0048	B.50	224.836500	224.986500		But	but
sw3002B-ms98-a-0048	B.50	224.986500	225.096500		they	they
sw3002B-ms98-a-0048	B.50	225.096500	225.356500		keep	keep
sw3002B-ms98-a-0048	B.50	225.356500	225.676500		asking	asking
sw3002B-ms98-a-0048	B.50	225.676500	225.836500		these	these
sw3002B-ms98-a-0048	B.50	225.836500	226.296500		questions	questions
sw3002B-ms98-a-0048	B.50	226.296500	226.386500		and	and
sw3002B-ms98-a-0048	B.50	226.386500	226.476500		I	i
sw3002B-ms98-a-0048	B.50	226.476500	226.696500		thought	thought
sw3002B-ms98-a-0048	B.50	226.696500	226.766500		it	it
sw3002B-ms98-a-0048	B.50	226.766500	226.966500		was	was
sw3002B-ms98-a-0048	B.50	226.966500	227.299750		really	really
sw3002B-ms98-a-0048	B.50	227.299750	227.934750		[silence]	[silence]
sw3002B-ms98-a-0048	B.50	227.934750	228.106500		well	well
sw3002B-ms98-a-0048	B.50	228.106500	228.186500		I	i
sw3002B-ms98-a-0048	B.50	228.186500	228.306500		don't	don't
sw3002B-ms98-a-0048	B.50	228.306500	228.376500		know	know
sw3002B-ms98-a-0048	B.50	228.376500	228.916500		asinine	asinine
sw3002B-ms98-a-0048	B.50	228.916500	229.946500		actually	[laughter-actually]
sw3002B-ms98-a-0048	B.52	229.946500	230.993000		Stupid	stupid
sw3002B-ms98-a-0048	B.54	230.993000	231.507500		[silence]	[silence]
sw3002B-ms98-a-0049	B.54	231.507500	246.837125		[silence]	[silence]
sw3002B-ms98-a-0050	B.54	246.837125	247.377125		[silence]	[silence]
sw3002B-ms98-a-0050	B.54	247.377125	247.847125	<SUB>	Uh-huh	um
sw3002B-ms98-a-0050	B.54	247.847125	248.417125		yes	yes
sw3002B-ms98-a-0050	B.56	248.417125	248.821125		[silence]	[silence]
sw3002B-ms98-a-0051	B.56	248.821125	249.402125		[silence]	[silence]
sw3002B-ms98-a-0051	B.56	249.402125	249.561125		I	i
sw3002B-ms98-a-0051	B.56	249.561125	250.142875		agree	agree
sw3002B-ms98-a-0051	B.58	250.142875	250.486625		[silence]	[silence]
sw3002B-ms98-a-0052	B.58	250.486625	259.021125		[silence]	[silence]
sw3002B-ms98-a-0053	B.58	259.021125	259.481125		[silence]	[silence]
sw3002B-ms98-a-0053	B.58	259.481125	260.173125		Yeah	yeah
sw3002B-ms98-a-0053	B.60	260.173125	260.647375		[silence]	[silence]
sw3002B-ms98-a-0054	B.60	260.647375	264.066875		[silence]	[silence]
sw3002B-ms98-a-0055	B.60	264.066875	264.576875		[silence]	[silence]
sw3002B-ms98-a-0055	B.60	264.576875	265.127125		Yeah	yeah
sw3002B-ms98-a-0055	B.60	265.127125	265.402000		[silence]	[silence]
sw3002B-ms98-a-0055	B.60	265.402000	265.696875		that's	that's
sw3002B-ms98-a-0055	B.60	265.696875	266.118000		true	true
sw3002B-ms98-a-0055	B.60	266.118000	266.600125		[silence]	[silence]
sw3002B-ms98-a-0055	B.60	266.600125	266.946875		that's	that's
sw3002B-ms98-a-0055	B.60	266.946875	267.304250		true	true
sw3002B-ms98-a-0055	B.60	267.304250	267.820250		[silence]	[silence]
sw3002B-ms98-a-0055	B.60	267.820250	267.986875		and	and
sw3002B-ms98-a-0055	B.60	267.986875	268.176875		it's	it's
sw3002B-ms98-a-0055	B.60	268.176875	268.775750		frustrating	frustrating
sw3002B-ms98-a-0055	B.62	268.775750	268.950000		[silence]	[silence]
sw3002B-ms98-a-0056	B.62	268.950000	269.520000		[silence]	[silence]
sw3002B-ms98-a-0056	B.62	269.520000	269.680000		So	so
sw3002B-ms98-a-0056	B.62	269.680000	269.790000		I	i
sw3002B-ms98-a-0056	B.62	269.790000	270.180625		guess	guess
sw3002B-ms98-a-0056	B.62	270.180625	270.300000		I	i
sw3002B-ms98-a-0056	B.62	270.300000	270.600000		guess	guess
sw3002B-ms98-a-0056	B.62	270.600000	270.850000		when	when
sw3002B-ms98-a-0056	B.62	270.850000	270.970000		I	i
sw3002B-ms98-a-0056	B.62	270.970000	271.140000		get	get
sw3002B-ms98-a-0056	B.62	271.140000	271.270000		to	to
sw3002B-ms98-a-0056	B.62	271.270000	271.550000		listen	listen
sw3002B-ms98-a-0056	B.62	271.550000	271.650000		to	to
sw3002B-ms98-a-0056	B.62	271.650000	271.740000		the	the
sw3002B-ms98-a-0056	B.62	271.740000	272.060000		news	news
sw3002B-ms98-a-0056	B.62	272.060000	272.440000		it's	it's
sw3002B-ms98-a-0056	B.62	272.440000	272.660000		it's	it's
sw3002B-ms98-a-0056	B.62	272.660000	273.040000		probably	probably
sw3002B-ms98-a-0056	B.62	273.040000	273.610000		television	television
sw3002B-ms98-a-0056	B.62	273.610000	273.730000		or	or
sw3002B-ms98-a-0056	B.62	273.730000	274.080000		radio	radio
sw3002B-ms98-a-0056	B.62	274.080000	274.190000		I	i
sw3002B-ms98-a-0056	B.62	274.190000	274.370000		see	see
sw3002B-ms98-a-0056	B.62	274.370000	274.570000		very	very
sw3002B-ms98-a-0056	B.62	274.570000	274.780000		little	little
sw3002B-ms98-a-0056	B.62	274.780000	275.210000		paper	paper
sw3002B-ms98-a-0056	B.62	275.210000	275.423500		but	but
sw3002B-ms98-a-0056	B.62	275.423500	275.843750		[silence]	[silence]
sw3002B-ms98-a-0057	B.62	275.843750	275.915625		[silence]	[silence]
sw3002B-ms98-a-0057	B.62	275.915625	276.242625	<SUB>	I	i-
sw3002B-ms98-a-0057	B.62	276.242625	276.433750		I	i
sw3002B-ms98-a-0057	B.62	276.433750	276.613750		don't	don't
sw3002B-ms98-a-0057	B.62	276.613750	276.743750		get	get
sw3002B-ms98-a-0057	B.62	276.743750	276.853750		to	to
sw3002B-ms98-a-0057	B.62	276.853750	277.003750		see	see
sw3002B-ms98-a-0057	B.62	277.003750	277.183750		that	that
sw3002B-ms98-a-0057	B.62	277.183750	277.293750		as	as
sw3002B-ms98-a-0057	B.62	277.293750	277.523750		much	much
sw3002B-ms98-a-0057	B.62	277.523750	277.623750		as	as
sw3002B-ms98-a-0057	B.62	277.623750	277.723750		I	i
sw3002B-ms98-a-0057	B.62	277.723750	277.993750		want	want
sw3002B-ms98-a-0057	B.62	277.993750	278.083750		and	and
sw3002B-ms98-a-0057	B.62	278.083750	278.203750		when	when
sw3002B-ms98-a-0057	B.62	278.203750	278.303750		I	i
sw3002B-ms98-a-0057	B.62	278.303750	278.483750		do	do
sw3002B-ms98-a-0057	B.62	278.483750	278.653750		I'm	i'm
sw3002B-ms98-a-0057	B.62	278.653750	278.943750		wondering	wondering
sw3002B-ms98-a-0057	B.62	278.943750	279.093750		why	why
sw3002B-ms98-a-0057	B.62	279.093750	279.133750		I	i
sw3002B-ms98-a-0057	B.62	279.133750	279.423750		wanted	wanted
sw3002B-ms98-a-0057	B.62	279.423750	279.543750		to	to
sw3002B-ms98-a-0057	B.62	279.543750	279.643750		see	see
sw3002B-ms98-a-0057	B.62	279.643750	279.803750		it	it
sw3002B-ms98-a-0057	B.62	279.803750	279.963750		so	so
sw3002B-ms98-a-0057	B.62	279.963750	281.984375		bad	[laughter-bad]
sw3002B-ms98-a-0057	B.64	281.984375	282.393500	<DEL>	---	so
sw3002B-ms98-a-0057	B.64	282.393500	282.927625		[silence]	[silence]
sw3002B-ms98-a-0058	B.64	282.927625	290.829000		[silence]	[silence]
sw3002B-ms98-a-0059	B.64	290.829000	291.356375		[silence]	[silence]
sw3002B-ms98-a-0059	B.64	291.356375	292.009000		Yeah	yeah
sw3002B-ms98-a-0059	B.66	292.009000	292.516750		[silence]	[silence]
sw3002B-ms98-a-0060	B.66	292.516750	293.677500		[silence]	[silence]
sw3002B-ms98-a-0061	B.66	293.677500	294.116625		[silence]	[silence]
sw3002B-ms98-a-0061	B.66	294.116625	295.170250		Exactly	[laughter-exactly]
sw3002B-ms98-a-0061	B.66	295.170250	295.422125		[silence]	[silence]
sw3002B-ms98-a-0061	B.66	295.422125	296.287625		exactly	exactly
sw3002B-ms98-a-0061	B.68	296.287625	296.964375		[silence]	[silence]
sw3002B-ms98-a-0062	B.68	296.964375	297.156750		[silence]	[silence]
sw3002B-ms98-a-0062	B.68	297.156750	297.504375		Well	well
sw3002B-ms98-a-0062	B.68	297.504375	297.654375		I'm	i'm
sw3002B-ms98-a-0062	B.68	297.654375	297.864375		glad	glad
sw3002B-ms98-a-0062	B.68	297.864375	297.974375	<SUB>	tha-	that
sw3002B-ms98-a-0062	B.68	297.974375	298.094375		it	it
sw3002B-ms98-a-0062	B.68	298.094375	298.354375		makes	makes
sw3002B-ms98-a-0062	B.68	298.354375	298.454375		me	me
sw3002B-ms98-a-0062	B.68	298.454375	298.624375		feel	feel
sw3002B-ms98-a-0062	B.68	298.624375	298.814375		like	like
sw3002B-ms98-a-0062	B.68	298.814375	298.924375		I'm	i'm
sw3002B-ms98-a-0062	B.68	298.924375	299.104375		not	not
sw3002B-ms98-a-0062	B.68	299.104375	299.414375		alone	alone
sw3002B-ms98-a-0062	B.68	299.414375	299.544375		though	though
sw3002B-ms98-a-0062	B.68	299.544375	299.624375		in	in
sw3002B-ms98-a-0062	B.68	299.624375	299.684375		the	the
sw3002B-ms98-a-0062	B.68	299.684375	299.974375		world	world
sw3002B-ms98-a-0062	B.68	299.974375	300.054375	<SUB>	I	i-
sw3002B-ms98-a-0062	B.68	300.054375	300.194375		I	i
sw3002B-ms98-a-0062	B.68	300.194375	300.434375		used	used
sw3002B-ms98-a-0062	B.68	300.434375	300.524375		to	to
sw3002B-ms98-a-0062	B.68	300.524375	300.724375		think	think
sw3002B-ms98-a-0062	B.68	300.724375	300.814375		that	that
sw3002B-ms98-a-0062	B.68	300.814375	300.884375		I	i
sw3002B-ms98-a-0062	B.68	300.884375	301.004375		was	was
sw3002B-ms98-a-0062	B.68	301.004375	301.334375		probably	probably
sw3002B-ms98-a-0062	B.68	301.334375	301.444375		the	the
sw3002B-ms98-a-0062	B.68	301.444375	301.644375		only	only
sw3002B-ms98-a-0062	B.68	301.644375	301.884375		one	one
sw3002B-ms98-a-0062	B.68	301.884375	302.014375		that	that
sw3002B-ms98-a-0062	B.68	302.014375	302.304500		just	just
sw3002B-ms98-a-0062	B.68	302.304500	302.649625		[silence]	[silence]
sw3002B-ms98-a-0063	B.68	302.649625	303.409625		[silence]	[silence]
sw3002B-ms98-a-0063	B.68	303.409625	303.479625		I	i
sw3002B-ms98-a-0063	B.68	303.479625	303.599625		don't	don't
sw3002B-ms98-a-0063	B.68	303.599625	303.699625		know	know
sw3002B-ms98-a-0063	B.68	303.699625	303.859625		was	was
sw3002B-ms98-a-0063	B.68	303.859625	304.119625		running	running
sw3002B-ms98-a-0063	B.68	304.119625	304.439625		around	around
sw3002B-ms98-a-0063	B.68	304.439625	304.519625		so	so
sw3002B-ms98-a-0063	B.68	304.519625	304.719625		much	much
sw3002B-ms98-a-0063	B.68	304.719625	304.789625		I	i
sw3002B-ms98-a-0063	B.68	304.789625	304.979625		look	look
sw3002B-ms98-a-0063	B.68	304.979625	305.069625		at	at
sw3002B-ms98-a-0063	B.68	305.069625	305.395375		other	other
sw3002B-ms98-a-0063	B.68	305.395375	305.696625		[silence]	[silence]
sw3002B-ms98-a-0063	B.68	305.696625	305.979625		uh	uh
sw3002B-ms98-a-0063	B.68	305.979625	306.419625		women	women
sw3002B-ms98-a-0063	B.68	306.419625	306.979625		workers	workers
sw3002B-ms98-a-0063	B.68	306.979625	307.279625		or	or
sw3002B-ms98-a-0063	B.68	307.279625	307.479625		men	men
sw3002B-ms98-a-0063	B.68	307.479625	307.579625		at	at
sw3002B-ms98-a-0063	B.68	307.579625	307.909625		work	work
sw3002B-ms98-a-0063	B.70	307.909625	308.029625		that	that
sw3002B-ms98-a-0063	B.70	308.029625	308.179625		have	have
sw3002B-ms98-a-0063	B.70	308.179625	308.479625		kids	kids
sw3002B-ms98-a-0063	B.70	308.479625	308.609625		and	and
sw3002B-ms98-a-0063	B.70	308.609625	308.929625		families	families
sw3002B-ms98-a-0063	B.70	308.929625	309.019625		and	and
sw3002B-ms98-a-0063	B.70	309.019625	309.119625		I'm	i'm
sw3002B-ms98-a-0063	B.70	309.119625	309.348875		like	like
sw3002B-ms98-a-0063	B.70	309.348875	309.469375		[silence]	[silence]
sw3002B-ms98-a-0063	B.70	309.469375	309.649625		how	how
sw3002B-ms98-a-0063	B.70	309.649625	309.729625		do	do
sw3002B-ms98-a-0063	B.70	309.729625	309.849625		they	they
sw3002B-ms98-a-0063	B.70	309.849625	310.119625		seem	seem
sw3002B-ms98-a-0063	B.70	310.119625	310.299625		so	so
sw3002B-ms98-a-0063	B.70	310.299625	310.789625		together	together
sw3002B-ms98-a-0063	B.70	310.789625	310.899625		all	all
sw3002B-ms98-a-0063	B.70	310.899625	310.979625		the	the
sw3002B-ms98-a-0063	B.70	310.979625	311.309625		time	time
sw3002B-ms98-a-0063	B.70	311.309625	311.419625		I	i
sw3002B-ms98-a-0063	B.70	311.419625	311.669625		always	always
sw3002B-ms98-a-0063	B.70	311.669625	311.819625		feel	feel
sw3002B-ms98-a-0063	B.70	311.819625	312.009625		like	like
sw3002B-ms98-a-0063	B.70	312.009625	312.149625		I'm	i'm
sw3002B-ms98-a-0063	B.70	312.149625	312.409625		running	running
sw3002B-ms98-a-0063	B.70	312.409625	312.479625		a	a
sw3002B-ms98-a-0063	B.70	312.479625	312.769625		rat	rat
sw3002B-ms98-a-0063	B.70	312.769625	313.234125		race	[laughter-race]
sw3002B-ms98-a-0063	B.72	313.234125	313.598500		[silence]	[silence]
sw3002B-ms98-a-0064	B.72	313.598500	313.736250		[silence]	[silence]
sw3002B-ms98-a-0064	B.72	313.736250	313.928500		So	so
sw3002B-ms98-a-0064	B.72	313.928500	314.018500		I	i
sw3002B-ms98-a-0064	B.72	314.018500	314.278500		guess	guess
sw3002B-ms98-a-0064	B.72	314.278500	314.628500		news	news
sw3002B-ms98-a-0064	B.72	314.628500	314.768500		is	is
sw3002B-ms98-a-0064	B.72	314.768500	314.978500		just	just
sw3002B-ms98-a-0064	B.72	314.978500	315.188500		part	part
sw3002B-ms98-a-0064	B.72	315.188500	315.248500		of	of
sw3002B-ms98-a-0064	B.72	315.248500	315.458500		that	that
sw3002B-ms98-a-0064	B.72	315.458500	315.698500		rat	rat
sw3002B-ms98-a-0064	B.72	315.698500	315.988500		race	race
sw3002B-ms98-a-0064	B.72	315.988500	316.128500		for	for
sw3002B-ms98-a-0064	B.72	316.128500	316.737125		me	[laughter-me]
sw3002B-ms98-a-0064	B.74	316.737125	317.277750		[silence]	[silence]
sw3002B-ms98-a-0065	B.74	317.277750	320.040125		[silence]	[silence]
sw3002B-ms98-a-0066	B.74	320.040125	320.570125		[silence]	[silence]
sw3002B-ms98-a-0066	B.74	320.570125	320.970125		Yeah	yeah
sw3002B-ms98-a-0066	B.76	320.970125	321.488500		[silence]	[silence]
sw3002B-ms98-a-0067	B.76	321.488500	326.368750		[silence]	[silence]
sw3002B-ms98-a-0068	B.76	326.368750	326.908750		[silence]	[silence]
sw3002B-ms98-a-0068	B.76	326.908750	327.724125		Exactly	exactly
sw3002B-ms98-a-0068	B.78	327.724125	328.030000		[silence]	[silence]
sw3002B-ms98-a-0069	B.78	328.030000	329.655250		[silence]	[silence]
sw3002B-ms98-a-0070	B.78	329.655250	330.509375		[silence]	[silence]
sw3002B-ms98-a-0070	B.78	330.509375	330.943500		Well	well
sw3002B-ms98-a-0070	B.80	330.943500	331.357875		[silence]	[silence]
sw3002B-ms98-a-0071	B.80	331.357875	331.874000		[silence]	[silence]
sw3002B-ms98-a-0071	B.80	331.874000	332.278500		[laughter]	[laughter]
sw3002B-ms98-a-0071	B.80	332.278500	332.527375		[silence]	[silence]
sw3002B-ms98-a-0072	B.80	332.527375	333.998750		[silence]	[silence]
sw3002B-ms98-a-0073	B.80	333.998750	334.380375		[silence]	[silence]
sw3002B-ms98-a-0073	B.80	334.380375	335.118750		Yeah	yeah
sw3002B-ms98-a-0073	B.80	335.118750	335.565375		[silence]	[silence]
sw3002B-ms98-a-0074	B.80	335.565375	336.035375		[silence]	[silence]
sw3002B-ms98-a-0074	B.80	336.035375	336.275375		that's	that's
sw3002B-ms98-a-0074	B.80	336.275375	336.835375		incredible	incredible
sw3002B-ms98-a-0074	B.80	336.835375	337.174125		too	too
sw3002B-ms98-a-0074	B.82	337.174125	337.657000		[silence]	[silence]
sw3002B-ms98-a-0075	B.82	337.657000	338.007000		[silence]	[silence]
sw3002B-ms98-a-0075	B.82	338.007000	338.191125		[noise]	[noise]
sw3002B-ms98-a-0075	B.82	338.191125	338.321250		[silence]	[silence]
sw3002B-ms98-a-0076	B.82	338.321250	338.781125		[silence]	[silence]
sw3002B-ms98-a-0076	B.82	338.781125	338.911250		Well	well
sw3002B-ms98-a-0076	B.82	338.911250	338.991250		I	i
sw3002B-ms98-a-0076	B.82	338.991250	339.591250		appreciate	appreciate
sw3002B-ms98-a-0076	B.82	339.591250	340.031250		talking	talking
sw3002B-ms98-a-0076	B.82	340.031250	340.230375		to	to
sw3002B-ms98-a-0076	B.82	340.230375	340.549000		you	you
sw3002B-ms98-a-0076	B.84	340.549000	340.914125		[silence]	[silence]
sw3002B-ms98-a-0077	B.84	340.914125	341.119375		[silence]	[silence]
sw3002B-ms98-a-0077	B.84	341.119375	341.394125		Have	have
sw3002B-ms98-a-0077	B.84	341.394125	341.474125		a	a
sw3002B-ms98-a-0077	B.84	341.474125	341.654125		good	good
sw3002B-ms98-a-0077	B.84	341.654125	342.058750		evening	evening
sw3002B-ms98-a-0077	B.86	342.058750	342.297500		[silence]	[silence]
sw3002B-ms98-a-0078	B.86	342.297500	342.603750		[silence]	[silence]
sw3002B-ms98-a-0078	B.86	342.603750	343.124750		Bye-bye	bye-bye
sw3002B-ms98-a-0078	B.86	343.124750	343.521875		[silence]	[silence]
sw3002B-ms98-a-0079	B.86	343.521875	344.006250		[silence]	[silence]
sw3002B-ms98-a-0079	B.86	344.006250	345.231875		[noise]	[noise]
sw3002B-ms98-a-0079	B.86	345.231875	345.271375		[silence]	[silence]
