sw3068A-ms98-a-0001	A.1	0.000000	0.002875		[silence]	[silence]
sw3068A-ms98-a-0001	A.1	0.002875	0.002875		[noise]	[noise]
sw3068A-ms98-a-0001	A.1	0.002875	0.519375		[silence]	[silence]
sw3068A-ms98-a-0002	A.1	0.519375	0.592000		[silence]	[silence]
sw3068A-ms98-a-0002	A.1	0.592000	0.729375		Well	well
sw3068A-ms98-a-0002	A.1	0.729375	1.199375		Steve	Steve
sw3068A-ms98-a-0002	A.1	1.199375	1.369375		did	did
sw3068A-ms98-a-0002	A.1	1.369375	1.449375		you	you
sw3068A-ms98-a-0002	A.1	1.449375	1.579375		go	go
sw3068A-ms98-a-0002	A.1	1.579375	1.669375		to	to
sw3068A-ms98-a-0002	A.1	1.669375	2.200250		college	college
sw3068A-ms98-a-0002	A.3	2.200250	2.530000		[silence]	[silence]
sw3068A-ms98-a-0003	A.3	2.530000	3.775375		[silence]	[silence]
sw3068A-ms98-a-0004	A.3	3.775375	4.034750		[silence]	[silence]
sw3068A-ms98-a-0004	A.3	4.034750	4.335375		Oh	oh
sw3068A-ms98-a-0004	A.3	4.335375	4.515375		that's	that's
sw3068A-ms98-a-0004	A.3	4.515375	4.665375		good	good
sw3068A-ms98-a-0004	A.3	4.665375	4.755375		So	so
sw3068A-ms98-a-0004	A.3	4.755375	4.885375		you	you
sw3068A-ms98-a-0004	A.3	4.885375	5.125375		probably	probably
sw3068A-ms98-a-0004	A.3	5.125375	5.295375		could	could
sw3068A-ms98-a-0004	A.3	5.295375	5.425375		give	give
sw3068A-ms98-a-0004	A.3	5.425375	5.585375		some	some
sw3068A-ms98-a-0004	A.3	5.585375	5.825375		great	great
sw3068A-ms98-a-0004	A.3	5.825375	6.380250		advice	advice
sw3068A-ms98-a-0004	A.5	6.380250	6.764250		[silence]	[silence]
sw3068A-ms98-a-0005	A.5	6.764250	11.484375		[silence]	[silence]
sw3068A-ms98-a-0006	A.5	11.484375	11.994375		[silence]	[silence]
sw3068A-ms98-a-0006	A.5	11.994375	12.344750		Uh-huh	uh-huh
sw3068A-ms98-a-0006	A.7	12.344750	12.551875		[silence]	[silence]
sw3068A-ms98-a-0007	A.7	12.551875	12.883250		[silence]	[silence]
sw3068A-ms98-a-0007	A.7	12.883250	12.991875		Well	well
sw3068A-ms98-a-0007	A.7	12.991875	13.161875		what's	what's
sw3068A-ms98-a-0007	A.7	13.161875	13.414375		your	your
sw3068A-ms98-a-0007	A.7	13.414375	13.783500		[silence]	[silence]
sw3068A-ms98-a-0007	A.7	13.783500	14.011875		ca-	ca[reer]-
sw3068A-ms98-a-0007	A.7	14.011875	14.231875		what's	what's
sw3068A-ms98-a-0007	A.7	14.231875	14.341875		your	your
sw3068A-ms98-a-0007	A.7	14.341875	14.801875		interest	interest
sw3068A-ms98-a-0007	A.7	14.801875	14.971875		your	your
sw3068A-ms98-a-0007	A.7	14.971875	15.116000		uh	uh
sw3068A-ms98-a-0007	A.9	15.116000	15.613875		[silence]	[silence]
sw3068A-ms98-a-0008	A.9	15.613875	17.729375		[silence]	[silence]
sw3068A-ms98-a-0009	A.9	17.729375	18.117125		[silence]	[silence]
sw3068A-ms98-a-0009	A.9	18.117125	18.438750		Uh-huh	uh-huh
sw3068A-ms98-a-0009	A.11	18.438750	18.782500		[silence]	[silence]
sw3068A-ms98-a-0009	A.11	18.782500	18.945375		That	that
sw3068A-ms98-a-0009	A.11	18.945375	19.239375		that's	that's
sw3068A-ms98-a-0009	A.11	19.239375	19.589375		similar	similar
sw3068A-ms98-a-0009	A.11	19.589375	19.689375		to	to
sw3068A-ms98-a-0009	A.11	19.689375	19.899375		what	what
sw3068A-ms98-a-0009	A.11	19.899375	20.109375		I'm	i'm
sw3068A-ms98-a-0009	A.11	20.109375	20.209375		in	in
sw3068A-ms98-a-0009	A.11	20.209375	20.259375		a	a
sw3068A-ms98-a-0009	A.11	20.259375	20.689375	<CONT>	P	PhD
sw3068A-ms98-a-0009	A.11	20.689375	20.689375	<CONT>	H	+++
sw3068A-ms98-a-0009	A.11	20.689375	20.689375	<CONT>	D	+++
sw3068A-ms98-a-0009	A.11	20.689375	21.069375		program	program
sw3068A-ms98-a-0009	A.11	21.069375	21.229375		right	right
sw3068A-ms98-a-0009	A.11	21.229375	21.545875		now	now
sw3068A-ms98-a-0009	A.13	21.545875	21.715500		[silence]	[silence]
sw3068A-ms98-a-0010	A.13	21.715500	21.933000		[silence]	[silence]
sw3068A-ms98-a-0010	A.13	21.933000	22.195500		And	and
sw3068A-ms98-a-0010	A.13	22.195500	22.465500		uh	uh
sw3068A-ms98-a-0010	A.13	22.465500	23.019375		my	my
sw3068A-ms98-a-0010	A.13	23.019375	23.475125		[silence]	[silence]
sw3068A-ms98-a-0010	A.13	23.475125	23.903500		area	area
sw3068A-ms98-a-0010	A.13	23.903500	24.352250		of	of
sw3068A-ms98-a-0010	A.13	24.352250	24.555625		[silence]	[silence]
sw3068A-ms98-a-0010	A.13	24.555625	25.245500		expertise	expertise
sw3068A-ms98-a-0010	A.13	25.245500	25.415500		it's	it's
sw3068A-ms98-a-0010	A.13	25.415500	25.995500		information	information
sw3068A-ms98-a-0010	A.13	25.995500	26.495500		systems	systems
sw3068A-ms98-a-0010	A.13	26.495500	26.625500		which	which
sw3068A-ms98-a-0010	A.13	26.625500	26.685500		is	is
sw3068A-ms98-a-0010	A.13	26.685500	26.745500		a	a
sw3068A-ms98-a-0010	A.13	26.745500	26.955500		little	little
sw3068A-ms98-a-0010	A.13	26.955500	27.065500		bit	bit
sw3068A-ms98-a-0010	A.13	27.065500	27.285500		less	less
sw3068A-ms98-a-0010	A.13	27.285500	27.785500		technical	technical
sw3068A-ms98-a-0010	A.13	27.785500	27.845500		I	i
sw3068A-ms98-a-0010	A.13	27.845500	28.115500		think	think
sw3068A-ms98-a-0010	A.13	28.115500	28.365500		than	than
sw3068A-ms98-a-0010	A.13	28.365500	28.581500		uh	uh
sw3068A-ms98-a-0010	A.13	28.581500	29.123875		[silence]	[silence]
sw3068A-ms98-a-0010	A.13	29.123875	29.255500		than	than
sw3068A-ms98-a-0010	A.13	29.255500	29.605500		computer	computer
sw3068A-ms98-a-0010	A.13	29.605500	30.145500		science	science
sw3068A-ms98-a-0010	A.13	30.145500	30.285500		But	but
sw3068A-ms98-a-0010	A.13	30.285500	30.405500		my	my
sw3068A-ms98-a-0010	A.13	30.405500	30.755500		area	area
sw3068A-ms98-a-0010	A.13	30.755500	30.835500		of	of
sw3068A-ms98-a-0010	A.13	30.835500	31.445500		expertise	expertise
sw3068A-ms98-a-0010	A.13	31.445500	31.675500		is	is
sw3068A-ms98-a-0010	A.13	31.675500	32.002625		uh	uh
sw3068A-ms98-a-0010	A.13	32.002625	32.215500		uh	uh
sw3068A-ms98-a-0010	A.13	32.215500	32.525500		human	human
sw3068A-ms98-a-0010	A.13	32.525500	32.915500		computer	computer
sw3068A-ms98-a-0010	A.13	32.915500	33.583875		interaction	interaction
sw3068A-ms98-a-0010	A.15	33.583875	33.829000		[silence]	[silence]
sw3068A-ms98-a-0011	A.15	33.829000	34.149000		[silence]	[silence]
sw3068A-ms98-a-0011	A.15	34.149000	34.309000		And	and
sw3068A-ms98-a-0011	A.15	34.309000	34.389000		I	i
sw3068A-ms98-a-0011	A.15	34.389000	34.569000		think	think
sw3068A-ms98-a-0011	A.15	34.569000	34.729000		that's	that's
sw3068A-ms98-a-0011	A.15	34.729000	34.869000		one	one
sw3068A-ms98-a-0011	A.15	34.869000	35.099000		reason	reason
sw3068A-ms98-a-0011	A.15	35.099000	35.269000		why	why
sw3068A-ms98-a-0011	A.15	35.269000	35.359000		I'm	i'm
sw3068A-ms98-a-0011	A.15	35.359000	35.589000		part	part
sw3068A-ms98-a-0011	A.15	35.589000	35.649000		of	of
sw3068A-ms98-a-0011	A.15	35.649000	35.819000		this	this
sw3068A-ms98-a-0011	A.15	35.819000	36.363500		study	study
sw3068A-ms98-a-0011	A.15	36.363500	36.609000		uh	uh
sw3068A-ms98-a-0011	A.15	36.609000	36.869000		because	because
sw3068A-ms98-a-0011	A.15	36.869000	37.009000		it's	it's
sw3068A-ms98-a-0011	A.15	37.009000	37.189000		of	of
sw3068A-ms98-a-0011	A.15	37.189000	37.519000		I'm	i'm
sw3068A-ms98-a-0011	A.15	37.519000	37.769000		working	working
sw3068A-ms98-a-0011	A.15	37.769000	37.889000		with	with
sw3068A-ms98-a-0011	A.15	37.889000	38.209000		voice	voice
sw3068A-ms98-a-0011	A.15	38.209000	38.866875		systems	systems
sw3068A-ms98-a-0011	A.17	38.866875	39.021000		[silence]	[silence]
sw3068A-ms98-a-0012	A.17	39.021000	39.301375		[silence]	[silence]
sw3068A-ms98-a-0012	A.17	39.301375	39.683000		[noise]	[noise]
sw3068A-ms98-a-0012	A.17	39.683000	39.861000		Yeah	yeah
sw3068A-ms98-a-0012	A.17	39.861000	40.095375		So	so
sw3068A-ms98-a-0012	A.17	40.095375	40.377875		[silence]	[silence]
sw3068A-ms98-a-0012	A.17	40.377875	40.701000		so	so
sw3068A-ms98-a-0012	A.17	40.701000	40.941000		good	good
sw3068A-ms98-a-0012	A.17	40.941000	41.181000		luck	luck
sw3068A-ms98-a-0012	A.17	41.181000	41.271000		I	i
sw3068A-ms98-a-0012	A.17	41.271000	41.441000		guess	guess
sw3068A-ms98-a-0012	A.17	41.441000	41.521000		we	we
sw3068A-ms98-a-0012	A.17	41.521000	41.651000		should	should
sw3068A-ms98-a-0012	A.17	41.651000	41.781000		talk	talk
sw3068A-ms98-a-0012	A.17	41.781000	42.011000		about	about
sw3068A-ms98-a-0012	A.17	42.011000	42.221000		giving	giving
sw3068A-ms98-a-0012	A.17	42.221000	42.671000		advice	advice
sw3068A-ms98-a-0012	A.17	42.671000	42.948750		though	though
sw3068A-ms98-a-0012	A.17	42.948750	43.204875		[silence]	[silence]
sw3068A-ms98-a-0012	A.17	43.204875	43.341000		Wh-	wh[at]-
sw3068A-ms98-a-0012	A.17	43.341000	43.479375		what	what
sw3068A-ms98-a-0012	A.17	43.479375	43.607500	<DEL>	---	wh[at]-
sw3068A-ms98-a-0012	A.17	43.607500	43.731000		what	what
sw3068A-ms98-a-0012	A.17	43.731000	43.881000		type	type
sw3068A-ms98-a-0012	A.17	43.881000	43.941000		of	of
sw3068A-ms98-a-0012	A.17	43.941000	44.281000		advice	advice
sw3068A-ms98-a-0012	A.17	44.281000	44.361000		do	do
sw3068A-ms98-a-0012	A.17	44.361000	44.441000		you	you
sw3068A-ms98-a-0012	A.17	44.441000	44.671000		think	think
sw3068A-ms98-a-0012	A.17	44.671000	44.831000		you'd	you'd
sw3068A-ms98-a-0012	A.17	44.831000	45.011000		give	give
sw3068A-ms98-a-0012	A.17	45.011000	45.151000		to	to
sw3068A-ms98-a-0012	A.17	45.151000	45.421000		a	a
sw3068A-ms98-a-0012	A.17	45.421000	45.471000		a	a
sw3068A-ms98-a-0012	A.17	45.471000	46.081125		parent	parent
sw3068A-ms98-a-0012	A.19	46.081125	46.601875		[silence]	[silence]
sw3068A-ms98-a-0013	A.19	46.601875	47.114875		[silence]	[silence]
sw3068A-ms98-a-0013	A.19	47.114875	47.539625		Yeah	yeah
sw3068A-ms98-a-0013	A.21	47.539625	47.988625		[silence]	[silence]
sw3068A-ms98-a-0014	A.21	47.988625	50.379875		[silence]	[silence]
sw3068A-ms98-a-0015	A.21	50.379875	50.872625		[silence]	[silence]
sw3068A-ms98-a-0015	A.21	50.872625	51.183125	<SUB>	Uh-huh	um-hum
sw3068A-ms98-a-0015	A.23	51.183125	51.643750		[silence]	[silence]
sw3068A-ms98-a-0016	A.23	51.643750	56.904500		[silence]	[silence]
sw3068A-ms98-a-0017	A.23	56.904500	57.394500		[silence]	[silence]
sw3068A-ms98-a-0017	A.23	57.394500	57.676500		Yeah	yeah
sw3068A-ms98-a-0017	A.25	57.676500	58.256750		[silence]	[silence]
sw3068A-ms98-a-0018	A.25	58.256750	63.321625		[silence]	[silence]
sw3068A-ms98-a-0019	A.25	63.321625	63.785750		[silence]	[silence]
sw3068A-ms98-a-0019	A.25	63.785750	64.104875		Uh-huh	uh-huh
sw3068A-ms98-a-0019	A.27	64.104875	64.584875		[silence]	[silence]
sw3068A-ms98-a-0020	A.27	64.584875	71.454000		[silence]	[silence]
sw3068A-ms98-a-0021	A.27	71.454000	72.040125		[silence]	[silence]
sw3068A-ms98-a-0021	A.27	72.040125	72.431500		Yeah	yeah
sw3068A-ms98-a-0021	A.27	72.431500	72.698875		[silence]	[silence]
sw3068A-ms98-a-0021	A.27	72.698875	72.784000		I	i
sw3068A-ms98-a-0021	A.27	72.784000	72.964000		think	think
sw3068A-ms98-a-0021	A.27	72.964000	73.184000		that's	that's
sw3068A-ms98-a-0021	A.27	73.184000	73.354000		more	more
sw3068A-ms98-a-0021	A.27	73.354000	73.704000		important	important
sw3068A-ms98-a-0021	A.27	73.704000	74.104000		probably	probably
sw3068A-ms98-a-0021	A.27	74.104000	74.556000		than	than
sw3068A-ms98-a-0021	A.27	74.556000	74.884000		even	even
sw3068A-ms98-a-0021	A.27	74.884000	75.064000		the	the
sw3068A-ms98-a-0021	A.27	75.064000	75.404000		career	career
sw3068A-ms98-a-0021	A.27	75.404000	76.094375		vocation	vocation
sw3068A-ms98-a-0021	A.27	76.094375	76.297750		[silence]	[silence]
sw3068A-ms98-a-0021	A.27	76.297750	76.484000		because	because
sw3068A-ms98-a-0021	A.27	76.484000	76.694000		most	most
sw3068A-ms98-a-0021	A.27	76.694000	76.984000		people	people
sw3068A-ms98-a-0021	A.27	76.984000	77.592875		change	change
sw3068A-ms98-a-0021	A.29	77.592875	77.822625		[silence]	[silence]
sw3068A-ms98-a-0022	A.29	77.822625	78.114625		[silence]	[silence]
sw3068A-ms98-a-0022	A.29	78.114625	78.162625		I	i
sw3068A-ms98-a-0022	A.29	78.162625	78.295500		kn-	kn[ow]-
sw3068A-ms98-a-0022	A.29	78.295500	78.422625		I	i
sw3068A-ms98-a-0022	A.29	78.422625	78.592625		know	know
sw3068A-ms98-a-0022	A.29	78.592625	78.862625		very	very
sw3068A-ms98-a-0022	A.29	78.862625	79.062625		few	few
sw3068A-ms98-a-0022	A.29	79.062625	79.472625		people	people
sw3068A-ms98-a-0022	A.29	79.472625	79.742625		that	that
sw3068A-ms98-a-0022	A.29	79.742625	79.912625		uh	uh
sw3068A-ms98-a-0022	A.29	79.912625	80.342625		started	started
sw3068A-ms98-a-0022	A.29	80.342625	80.472625		in	in
sw3068A-ms98-a-0022	A.29	80.472625	80.662625		one	one
sw3068A-ms98-a-0022	A.29	80.662625	81.104875		field	field
sw3068A-ms98-a-0022	A.29	81.104875	81.541750		[silence]	[silence]
sw3068A-ms98-a-0022	A.29	81.541750	81.762625		and	and
sw3068A-ms98-a-0022	A.29	81.762625	82.042625		stayed	stayed
sw3068A-ms98-a-0022	A.29	82.042625	82.282625		with	with
sw3068A-ms98-a-0022	A.29	82.282625	82.390000		it	it
sw3068A-ms98-a-0022	A.29	82.390000	82.649000		[silence]	[silence]
sw3068A-ms98-a-0023	A.29	82.649000	82.946625		[silence]	[silence]
sw3068A-ms98-a-0023	A.29	82.946625	83.049000		You	you
sw3068A-ms98-a-0023	A.29	83.049000	83.169000		know	know
sw3068A-ms98-a-0023	A.29	83.169000	83.359000		they	they
sw3068A-ms98-a-0023	A.29	83.359000	83.479000		I	i
sw3068A-ms98-a-0023	A.29	83.479000	83.729000		think	think
sw3068A-ms98-a-0023	A.29	83.729000	84.009000		that's	that's
sw3068A-ms98-a-0023	A.29	84.009000	84.199000		what	what
sw3068A-ms98-a-0023	A.29	84.199000	84.349000		you	you
sw3068A-ms98-a-0023	A.29	84.349000	84.529000		just	just
sw3068A-ms98-a-0023	A.29	84.529000	84.759000		said	said
sw3068A-ms98-a-0023	A.29	84.759000	84.819000		you	you
sw3068A-ms98-a-0023	A.29	84.819000	85.019500		know	know
sw3068A-ms98-a-0023	A.29	85.019500	85.143750		[silence]	[silence]
sw3068A-ms98-a-0023	A.29	85.143750	85.399000		having	having
sw3068A-ms98-a-0023	A.29	85.399000	85.459000		to	to
sw3068A-ms98-a-0023	A.29	85.459000	85.609000		do	do
sw3068A-ms98-a-0023	A.29	85.609000	85.899000		more	more
sw3068A-ms98-a-0023	A.29	85.899000	86.150500		with	with
sw3068A-ms98-a-0023	A.29	86.150500	86.406625		[silence]	[silence]
sw3068A-ms98-a-0023	A.29	86.406625	86.459000		the	the
sw3068A-ms98-a-0023	A.29	86.459000	86.839000		size	size
sw3068A-ms98-a-0023	A.29	86.839000	86.909000		of	of
sw3068A-ms98-a-0023	A.29	86.909000	86.969000		the	the
sw3068A-ms98-a-0023	A.29	86.969000	87.576500		school	school
sw3068A-ms98-a-0023	A.29	87.576500	87.940375		[silence]	[silence]
sw3068A-ms98-a-0023	A.29	87.940375	88.079625		the	the
sw3068A-ms98-a-0023	A.29	88.079625	88.739000		environment	environment
sw3068A-ms98-a-0023	A.29	88.739000	88.819000		of	of
sw3068A-ms98-a-0023	A.29	88.819000	88.879000		the	the
sw3068A-ms98-a-0023	A.29	88.879000	89.515250		school	school
sw3068A-ms98-a-0023	A.29	89.515250	89.660750		[silence]	[silence]
sw3068A-ms98-a-0023	A.29	89.660750	90.117375		uh	uh
sw3068A-ms98-a-0023	A.29	90.117375	90.501500		[silence]	[silence]
sw3068A-ms98-a-0024	A.29	90.501500	90.983000		[silence]	[silence]
sw3068A-ms98-a-0024	A.29	90.983000	91.061500		I	i
sw3068A-ms98-a-0024	A.29	91.061500	91.241500		think	think
sw3068A-ms98-a-0024	A.29	91.241500	91.511500		that's	that's
sw3068A-ms98-a-0024	A.29	91.511500	91.861500		much	much
sw3068A-ms98-a-0024	A.29	91.861500	92.001500		more	more
sw3068A-ms98-a-0024	A.29	92.001500	92.391500		important	important
sw3068A-ms98-a-0024	A.29	92.391500	92.441500	<SUB>	I	i-
sw3068A-ms98-a-0024	A.29	92.441500	92.651500		I	i
sw3068A-ms98-a-0024	A.29	92.651500	92.851500		think	think
sw3068A-ms98-a-0024	A.29	92.851500	93.071500		I'd	i'd
sw3068A-ms98-a-0024	A.29	93.071500	93.201500		I'd	i'd
sw3068A-ms98-a-0024	A.29	93.201500	93.531500		advise	advise
sw3068A-ms98-a-0024	A.29	93.531500	93.581500		a	a
sw3068A-ms98-a-0024	A.29	93.581500	93.861500		parent	parent
sw3068A-ms98-a-0024	A.29	93.861500	93.951500		to	to
sw3068A-ms98-a-0024	A.29	93.951500	94.161500		send	send
sw3068A-ms98-a-0024	A.29	94.161500	94.211500		a	a
sw3068A-ms98-a-0024	A.29	94.211500	94.371500		kid	kid
sw3068A-ms98-a-0024	A.29	94.371500	94.431500		to	to
sw3068A-ms98-a-0024	A.29	94.431500	94.471500		a	a
sw3068A-ms98-a-0024	A.29	94.471500	94.741500		school	school
sw3068A-ms98-a-0024	A.29	94.741500	94.881500		though	though
sw3068A-ms98-a-0024	A.29	94.881500	94.991500		that	that
sw3068A-ms98-a-0024	A.29	94.991500	95.254000		has	has
sw3068A-ms98-a-0024	A.29	95.254000	95.544000		[silence]	[silence]
sw3068A-ms98-a-0024	A.29	95.544000	95.671500		a	a
sw3068A-ms98-a-0024	A.29	95.671500	95.991500		number	number
sw3068A-ms98-a-0024	A.29	95.991500	96.151500		of	of
sw3068A-ms98-a-0024	A.29	96.151500	96.521500		different	different
sw3068A-ms98-a-0024	A.29	96.521500	96.811500		types	types
sw3068A-ms98-a-0024	A.29	96.811500	96.891500		of	of
sw3068A-ms98-a-0024	A.29	96.891500	97.716375		programs	programs
sw3068A-ms98-a-0024	A.29	97.716375	98.100500		[silence]	[silence]
sw3068A-ms98-a-0024	A.29	98.100500	98.201500		you	you
sw3068A-ms98-a-0024	A.29	98.201500	98.281500		know	know
sw3068A-ms98-a-0024	A.29	98.281500	98.591500		that	that
sw3068A-ms98-a-0024	A.29	98.591500	98.842500		uh	uh
sw3068A-ms98-a-0024	A.29	98.842500	99.081625		[silence]	[silence]
sw3068A-ms98-a-0025	A.29	99.081625	99.323125		[silence]	[silence]
sw3068A-ms98-a-0025	A.29	99.323125	99.521625		some	some
sw3068A-ms98-a-0025	A.29	99.521625	99.591625		of	of
sw3068A-ms98-a-0025	A.29	99.591625	99.651625		the	the
sw3068A-ms98-a-0025	A.29	99.651625	100.201625		smaller	smaller
sw3068A-ms98-a-0025	A.29	100.201625	100.571625		schools	schools
sw3068A-ms98-a-0025	A.29	100.571625	100.771625		might	might
sw3068A-ms98-a-0025	A.29	100.771625	100.871625		be	be
sw3068A-ms98-a-0025	A.29	100.871625	101.111625		very	very
sw3068A-ms98-a-0025	A.29	101.111625	101.621625		limited	limited
sw3068A-ms98-a-0025	A.29	101.621625	101.771625		in	in
sw3068A-ms98-a-0025	A.29	101.771625	101.901625		what	what
sw3068A-ms98-a-0025	A.29	101.901625	102.051625		they	they
sw3068A-ms98-a-0025	A.29	102.051625	102.221625		can	can
sw3068A-ms98-a-0025	A.29	102.221625	102.656500		offer	offer
sw3068A-ms98-a-0025	A.29	102.656500	103.067125		[silence]	[silence]
sw3068A-ms98-a-0025	A.29	103.067125	103.221625		but	but
sw3068A-ms98-a-0025	A.29	103.221625	103.501625		some	some
sw3068A-ms98-a-0025	A.29	103.501625	103.611625		of	of
sw3068A-ms98-a-0025	A.29	103.611625	103.880375		the	the
sw3068A-ms98-a-0025	A.29	103.880375	104.160250		[silence]	[silence]
sw3068A-ms98-a-0026	A.29	104.160250	104.420125		[silence]	[silence]
sw3068A-ms98-a-0026	A.29	104.420125	104.624875		uh	uh
sw3068A-ms98-a-0026	A.29	104.624875	104.624875	<INS>	the	---
sw3068A-ms98-a-0026	A.29	104.624875	105.180250		small	small
sw3068A-ms98-a-0026	A.29	105.180250	105.340250		some	some
sw3068A-ms98-a-0026	A.29	105.340250	105.410250		of	of
sw3068A-ms98-a-0026	A.29	105.410250	105.470250		the	the
sw3068A-ms98-a-0026	A.29	105.470250	105.930250		larger	larger
sw3068A-ms98-a-0026	A.29	105.930250	106.270250		small	small
sw3068A-ms98-a-0026	A.29	106.270250	106.740250		schools	schools
sw3068A-ms98-a-0026	A.29	106.740250	106.800250		you	you
sw3068A-ms98-a-0026	A.29	106.800250	106.860250		know	know
sw3068A-ms98-a-0026	A.29	106.860250	106.930250		I	i
sw3068A-ms98-a-0026	A.29	106.930250	107.160250		guess	guess
sw3068A-ms98-a-0026	A.29	107.160250	107.420250		around	around
sw3068A-ms98-a-0026	A.29	107.420250	107.680250		three	three
sw3068A-ms98-a-0026	A.29	107.680250	107.750250		or	or
sw3068A-ms98-a-0026	A.29	107.750250	107.960250		four	four
sw3068A-ms98-a-0026	A.29	107.960250	108.400250		thousand	thousand
sw3068A-ms98-a-0026	A.29	108.400250	108.954500		students	students
sw3068A-ms98-a-0026	A.31	108.954500	109.406375		[silence]	[silence]
sw3068A-ms98-a-0026	A.31	109.406375	109.580250		have	have
sw3068A-ms98-a-0026	A.31	109.580250	109.750250		a	a
sw3068A-ms98-a-0026	A.31	109.750250	109.950250		can	can
sw3068A-ms98-a-0026	A.31	109.950250	110.270250		offer	offer
sw3068A-ms98-a-0026	A.31	110.270250	110.330250		a	a
sw3068A-ms98-a-0026	A.31	110.330250	110.760250		broader	broader
sw3068A-ms98-a-0026	A.31	110.760250	111.070250		range	range
sw3068A-ms98-a-0026	A.31	111.070250	111.160250		of	of
sw3068A-ms98-a-0026	A.31	111.160250	111.980250		curriculums	curriculums
sw3068A-ms98-a-0026	A.31	111.980250	112.160250		and	and
sw3068A-ms98-a-0026	A.31	112.160250	112.440250		things	things
sw3068A-ms98-a-0026	A.31	112.440250	112.560250		so	so
sw3068A-ms98-a-0026	A.31	112.560250	112.660250		if	if
sw3068A-ms98-a-0026	A.31	112.660250	112.720250		the	the
sw3068A-ms98-a-0026	A.31	112.720250	112.980250		kid	kid
sw3068A-ms98-a-0026	A.31	112.980250	113.210250		does	does
sw3068A-ms98-a-0026	A.31	113.210250	113.730250		change	change
sw3068A-ms98-a-0026	A.31	113.730250	114.046750		[silence]	[silence]
sw3068A-ms98-a-0026	A.31	114.046750	114.120250		they	they
sw3068A-ms98-a-0026	A.31	114.120250	114.310250		don't	don't
sw3068A-ms98-a-0026	A.31	114.310250	114.480250		have	have
sw3068A-ms98-a-0026	A.31	114.480250	114.600250		to	to
sw3068A-ms98-a-0026	A.31	114.600250	115.539750		transfer	transfer
sw3068A-ms98-a-0026	A.31	115.539750	115.710250		or	or
sw3068A-ms98-a-0026	A.31	115.710250	115.830250		they	they
sw3068A-ms98-a-0026	A.31	115.830250	116.050250		don't	don't
sw3068A-ms98-a-0026	A.31	116.050250	116.270250		have	have
sw3068A-ms98-a-0026	A.31	116.270250	116.580250		to	to
sw3068A-ms98-a-0026	A.31	116.580250	116.832875		uh	uh
sw3068A-ms98-a-0026	A.31	116.832875	117.365375		[silence]	[silence]
sw3068A-ms98-a-0027	A.31	117.365375	118.095375		[silence]	[silence]
sw3068A-ms98-a-0027	A.31	118.095375	118.295375		uh	uh
sw3068A-ms98-a-0027	A.31	118.295375	118.325375		I	i
sw3068A-ms98-a-0027	A.31	118.325375	118.495375		don't	don't
sw3068A-ms98-a-0027	A.31	118.495375	118.675375		know	know
sw3068A-ms98-a-0027	A.31	118.675375	118.755375		they	they
sw3068A-ms98-a-0027	A.31	118.755375	118.925375		don't	don't
sw3068A-ms98-a-0027	A.31	118.925375	119.055375		have	have
sw3068A-ms98-a-0027	A.31	119.055375	119.255375		to	to
sw3068A-ms98-a-0027	A.31	119.255375	119.485375		give	give
sw3068A-ms98-a-0027	A.31	119.485375	119.695375		up	up
sw3068A-ms98-a-0027	A.31	119.695375	120.105375		years	years
sw3068A-ms98-a-0027	A.31	120.105375	120.365375		of	of
sw3068A-ms98-a-0027	A.31	120.365375	120.475375		you	you
sw3068A-ms98-a-0027	A.31	120.475375	120.635375		know	know
sw3068A-ms98-a-0027	A.31	120.635375	120.725375		of	of
sw3068A-ms98-a-0027	A.31	120.725375	121.145375		credit	credit
sw3068A-ms98-a-0027	A.31	121.145375	121.595375		transfer	transfer
sw3068A-ms98-a-0027	A.31	121.595375	121.765375		and	and
sw3068A-ms98-a-0027	A.31	121.765375	122.095125		things	things
sw3068A-ms98-a-0027	A.33	122.095125	122.222125		[silence]	[silence]
sw3068A-ms98-a-0028	A.33	122.222125	123.483125		[silence]	[silence]
sw3068A-ms98-a-0029	A.33	123.483125	123.693125		[silence]	[silence]
sw3068A-ms98-a-0029	A.33	123.693125	124.019625		Yeah	yeah
sw3068A-ms98-a-0029	A.35	124.019625	124.255250		[silence]	[silence]
sw3068A-ms98-a-0029	A.35	124.255250	124.479375		[noise]	[noise]
sw3068A-ms98-a-0029	A.35	124.479375	124.500500		[silence]	[silence]
sw3068A-ms98-a-0030	A.35	124.500500	124.790125		[silence]	[silence]
sw3068A-ms98-a-0030	A.35	124.790125	124.983125	<DEL>	---	i-
sw3068A-ms98-a-0030	A.35	124.983125	125.115000		I	i
sw3068A-ms98-a-0030	A.35	125.115000	125.520500		normally	normally
sw3068A-ms98-a-0030	A.35	125.520500	125.720500		and	and
sw3068A-ms98-a-0030	A.35	125.720500	125.830500		and	and
sw3068A-ms98-a-0030	A.35	125.830500	126.130500		parents	parents
sw3068A-ms98-a-0030	A.35	126.130500	126.280500		hate	hate
sw3068A-ms98-a-0030	A.35	126.280500	126.340500		to	to
sw3068A-ms98-a-0030	A.35	126.340500	126.550500		hear	hear
sw3068A-ms98-a-0030	A.35	126.550500	126.850500		this	this
sw3068A-ms98-a-0030	A.35	126.850500	126.920500		you	you
sw3068A-ms98-a-0030	A.35	126.920500	126.990500		know	know
sw3068A-ms98-a-0030	A.35	126.990500	127.170500		because	because
sw3068A-ms98-a-0030	A.35	127.170500	127.330500	<SUB>	I	i-
sw3068A-ms98-a-0030	A.35	127.330500	127.450500		I	i
sw3068A-ms98-a-0030	A.35	127.450500	127.760500		actually	actually
sw3068A-ms98-a-0030	A.35	127.760500	128.060500		teach	teach
sw3068A-ms98-a-0030	A.35	128.060500	128.508750		college	college
sw3068A-ms98-a-0030	A.35	128.508750	128.960750		[silence]	[silence]
sw3068A-ms98-a-0030	A.35	128.960750	129.090500	<DEL>	---	i-
sw3068A-ms98-a-0030	A.35	129.090500	129.320500		I	i
sw3068A-ms98-a-0030	A.35	129.320500	129.620500		hate	hate
sw3068A-ms98-a-0030	A.35	129.620500	129.900500		to	to
sw3068A-ms98-a-0030	A.35	129.900500	130.138000		uh	uh
sw3068A-ms98-a-0030	A.35	130.138000	130.514625		[silence]	[silence]
sw3068A-ms98-a-0031	A.35	130.514625	130.943750		[silence]	[silence]
sw3068A-ms98-a-0031	A.35	130.943750	131.064625		I	i
sw3068A-ms98-a-0031	A.35	131.064625	131.214625		hate	hate
sw3068A-ms98-a-0031	A.35	131.214625	131.304625		to	to
sw3068A-ms98-a-0031	A.35	131.304625	131.524625		talk	talk
sw3068A-ms98-a-0031	A.35	131.524625	131.644625		to	to
sw3068A-ms98-a-0031	A.35	131.644625	131.724625		the	the
sw3068A-ms98-a-0031	A.35	131.724625	132.144625		parents	parents
sw3068A-ms98-a-0031	A.35	132.144625	132.738000		because	because
sw3068A-ms98-a-0031	A.35	132.738000	133.175000		[silence]	[silence]
sw3068A-ms98-a-0031	A.35	133.175000	133.632000		um	um
sw3068A-ms98-a-0031	A.35	133.632000	133.987125		[silence]	[silence]
sw3068A-ms98-a-0031	A.35	133.987125	134.044250		[noise]	[noise]
sw3068A-ms98-a-0031	A.35	134.044250	134.212875		[silence]	[silence]
sw3068A-ms98-a-0032	A.35	134.212875	134.622875		[silence]	[silence]
sw3068A-ms98-a-0032	A.35	134.622875	134.772875		one	one
sw3068A-ms98-a-0032	A.35	134.772875	134.832875		of	of
sw3068A-ms98-a-0032	A.35	134.832875	134.922875		the	the
sw3068A-ms98-a-0032	A.35	134.922875	135.242875		reasons	reasons
sw3068A-ms98-a-0032	A.35	135.242875	135.392875		is	is
sw3068A-ms98-a-0032	A.35	135.392875	135.812875		because	because
sw3068A-ms98-a-0032	A.35	135.812875	135.932875		you	you
sw3068A-ms98-a-0032	A.35	135.932875	136.002875		know	know
sw3068A-ms98-a-0032	A.35	136.002875	136.072875		the	the
sw3068A-ms98-a-0032	A.35	136.072875	136.432875		kid	kid
sw3068A-ms98-a-0032	A.35	136.432875	136.702875		doesn't	doesn't
sw3068A-ms98-a-0032	A.35	136.702875	136.792875		know	know
sw3068A-ms98-a-0032	A.35	136.792875	137.172875		exactly	exactly
sw3068A-ms98-a-0032	A.35	137.172875	137.312875		what	what
sw3068A-ms98-a-0032	A.35	137.312875	137.402875		they	they
sw3068A-ms98-a-0032	A.35	137.402875	137.895250		want	want
sw3068A-ms98-a-0032	A.35	137.895250	138.268125		[silence]	[silence]
sw3068A-ms98-a-0032	A.35	138.268125	138.432875		and	and
sw3068A-ms98-a-0032	A.35	138.432875	138.572875		I	i
sw3068A-ms98-a-0032	A.35	138.572875	138.852875		always	always
sw3068A-ms98-a-0032	A.35	138.852875	139.242875		say	say
sw3068A-ms98-a-0032	A.35	139.242875	139.452875		make	make
sw3068A-ms98-a-0032	A.35	139.452875	139.642875		sure	sure
sw3068A-ms98-a-0032	A.35	139.642875	139.772875		you	you
sw3068A-ms98-a-0032	A.35	139.772875	140.142875		major	major
sw3068A-ms98-a-0032	A.37	140.142875	140.252875		in	in
sw3068A-ms98-a-0032	A.37	140.252875	140.722875		something	something
sw3068A-ms98-a-0032	A.37	140.722875	140.942875		that	that
sw3068A-ms98-a-0032	A.37	140.942875	141.082625		you	you
sw3068A-ms98-a-0032	A.37	141.082625	141.519500		like	like
sw3068A-ms98-a-0032	A.37	141.519500	141.875625		[silence]	[silence]
sw3068A-ms98-a-0032	A.37	141.875625	142.122875		even	even
sw3068A-ms98-a-0032	A.37	142.122875	142.242875		if	if
sw3068A-ms98-a-0032	A.37	142.242875	142.392875		it's	it's
sw3068A-ms98-a-0032	A.37	142.392875	142.542875		not	not
sw3068A-ms98-a-0032	A.37	142.542875	142.672875		going	going
sw3068A-ms98-a-0032	A.37	142.672875	142.732875		to	to
sw3068A-ms98-a-0032	A.37	142.732875	142.802875		be	be
sw3068A-ms98-a-0032	A.37	142.802875	142.942875		your	your
sw3068A-ms98-a-0032	A.37	142.942875	143.312875		career	career
sw3068A-ms98-a-0032	A.37	143.312875	144.052750		vocation	vocation
sw3068A-ms98-a-0032	A.39	144.052750	144.427000		[silence]	[silence]
sw3068A-ms98-a-0033	A.39	144.427000	144.831500		[silence]	[silence]
sw3068A-ms98-a-0033	A.39	144.831500	145.087000		because	because
sw3068A-ms98-a-0033	A.39	145.087000	145.217000		you'll	you'll
sw3068A-ms98-a-0033	A.39	145.217000	145.407000		get	get
sw3068A-ms98-a-0033	A.39	145.407000	145.627000		better	better
sw3068A-ms98-a-0033	A.39	145.627000	146.177000		grades	grades
sw3068A-ms98-a-0033	A.39	146.177000	146.267000	<SUB>	I	i-
sw3068A-ms98-a-0033	A.39	146.267000	146.417000		I	i
sw3068A-ms98-a-0033	A.39	146.417000	146.607000		think	think
sw3068A-ms98-a-0033	A.39	146.607000	146.907000		most	most
sw3068A-ms98-a-0033	A.39	146.907000	147.367000		employers	employers
sw3068A-ms98-a-0033	A.39	147.367000	147.497000		would	would
sw3068A-ms98-a-0033	A.39	147.497000	147.993375		probably	probably
sw3068A-ms98-a-0033	A.39	147.993375	148.347500		[silence]	[silence]
sw3068A-ms98-a-0033	A.39	148.347500	148.727000		rather	rather
sw3068A-ms98-a-0033	A.39	148.727000	149.169250		hire	hire
sw3068A-ms98-a-0033	A.39	149.169250	149.598625		[silence]	[silence]
sw3068A-ms98-a-0033	A.39	149.598625	149.687000		you	you
sw3068A-ms98-a-0033	A.39	149.687000	149.920125		know	know
sw3068A-ms98-a-0033	A.39	149.920125	150.373875		a	a
sw3068A-ms98-a-0033	A.39	150.373875	150.497000		a	a
sw3068A-ms98-a-0033	A.39	150.497000	150.847000		three	three
sw3068A-ms98-a-0033	A.39	150.847000	151.467750		six	six
sw3068A-ms98-a-0033	A.39	151.467750	151.827000		in	in
sw3068A-ms98-a-0033	A.39	151.827000	152.110125		um	um
sw3068A-ms98-a-0033	A.39	152.110125	152.302375		[silence]	[silence]
sw3068A-ms98-a-0033	A.39	152.302375	152.416750		[noise]	[noise]
sw3068A-ms98-a-0033	A.39	152.416750	153.015625		[silence]	[silence]
sw3068A-ms98-a-0033	A.39	153.015625	153.217000		in	in
sw3068A-ms98-a-0033	A.39	153.217000	153.913125		history	history
sw3068A-ms98-a-0033	A.39	153.913125	154.357500		[silence]	[silence]
sw3068A-ms98-a-0033	A.39	154.357500	154.607000		uh	uh
sw3068A-ms98-a-0033	A.39	154.607000	154.747000		to	to
sw3068A-ms98-a-0033	A.39	154.747000	154.867000		be	be
sw3068A-ms98-a-0033	A.39	154.867000	154.987000		a	a
sw3068A-ms98-a-0033	A.39	154.987000	155.651125		salesman	salesman
sw3068A-ms98-a-0033	A.39	155.651125	155.892125		[silence]	[silence]
sw3068A-ms98-a-0033	A.39	155.892125	156.137000		than	than
sw3068A-ms98-a-0033	A.39	156.137000	156.497000		someone	someone
sw3068A-ms98-a-0033	A.39	156.497000	156.657000		with	with
sw3068A-ms98-a-0033	A.39	156.657000	156.707000		a	a
sw3068A-ms98-a-0033	A.39	156.707000	156.957000		two	two
sw3068A-ms98-a-0033	A.39	156.957000	157.177000		oh	oh
sw3068A-ms98-a-0033	A.39	157.177000	157.317000		in	in
sw3068A-ms98-a-0033	A.39	157.317000	157.687000		business	business
sw3068A-ms98-a-0033	A.39	157.687000	158.477000		administration	administration
sw3068A-ms98-a-0033	A.41	158.477000	158.477000	<INS>	Does	---
sw3068A-ms98-a-0033	A.41	158.477000	158.874750		[silence]	[silence]
sw3068A-ms98-a-0034	A.41	158.874750	159.202000		[silence]	[silence]
sw3068A-ms98-a-0034	A.41	159.202000	159.344750		that	that
sw3068A-ms98-a-0034	A.41	159.344750	159.524750		make	make
sw3068A-ms98-a-0034	A.41	159.524750	160.000000		sense	sense
sw3068A-ms98-a-0034	A.43	160.000000	160.405500		[silence]	[silence]
sw3068A-ms98-a-0035	A.43	160.405500	161.786500		[silence]	[silence]
sw3068A-ms98-a-0036	A.43	161.786500	162.023750		[silence]	[silence]
sw3068A-ms98-a-0036	A.43	162.023750	162.326500		Yeah	yeah
sw3068A-ms98-a-0036	A.43	162.326500	162.556500		I	i
sw3068A-ms98-a-0036	A.43	162.556500	162.869375		always	always
sw3068A-ms98-a-0036	A.43	162.869375	163.016250		[silence]	[silence]
sw3068A-ms98-a-0036	A.43	163.016250	163.086500		you	you
sw3068A-ms98-a-0036	A.43	163.086500	163.246500		know	know
sw3068A-ms98-a-0036	A.43	163.246500	163.476500		tell	tell
sw3068A-ms98-a-0036	A.43	163.476500	163.576500		them	them_1
sw3068A-ms98-a-0036	A.43	163.576500	163.726500		that	that
sw3068A-ms98-a-0036	A.43	163.726500	163.826500		you	you
sw3068A-ms98-a-0036	A.43	163.826500	163.946500		should	should
sw3068A-ms98-a-0036	A.43	163.946500	164.206500		major	major
sw3068A-ms98-a-0036	A.43	164.206500	164.316500		in	in
sw3068A-ms98-a-0036	A.43	164.316500	164.716500		something	something
sw3068A-ms98-a-0036	A.43	164.716500	164.925500		you	you
sw3068A-ms98-a-0036	A.43	164.925500	165.174000		[silence]	[silence]
sw3068A-ms98-a-0036	A.43	165.174000	165.306500		you're	you're
sw3068A-ms98-a-0036	A.43	165.306500	165.426500		going	going
sw3068A-ms98-a-0036	A.43	165.426500	165.486500		to	to
sw3068A-ms98-a-0036	A.43	165.486500	165.646500		get	get
sw3068A-ms98-a-0036	A.43	165.646500	165.836500		good	good
sw3068A-ms98-a-0036	A.43	165.836500	166.236500		grades	grades
sw3068A-ms98-a-0036	A.43	166.236500	166.587875		in	in
sw3068A-ms98-a-0036	A.45	166.587875	166.828875		[silence]	[silence]
sw3068A-ms98-a-0036	A.45	166.828875	167.604625		Because	because
sw3068A-ms98-a-0036	A.45	167.604625	167.876500		that	that
sw3068A-ms98-a-0036	A.45	167.876500	168.236500		that's	that's
sw3068A-ms98-a-0036	A.45	168.236500	168.586500		always	always
sw3068A-ms98-a-0036	A.45	168.586500	168.666500		I	i
sw3068A-ms98-a-0036	A.45	168.666500	168.926500		think	think
sw3068A-ms98-a-0036	A.45	168.926500	169.096500		more	more
sw3068A-ms98-a-0036	A.45	169.096500	169.756625		important	important
sw3068A-ms98-a-0036	A.45	169.756625	170.162750		[silence]	[silence]
sw3068A-ms98-a-0037	A.45	170.162750	170.624500		[silence]	[silence]
sw3068A-ms98-a-0037	A.45	170.624500	170.732750		you	you
sw3068A-ms98-a-0037	A.45	170.732750	170.892750		know	know
sw3068A-ms98-a-0037	A.45	170.892750	171.612875		overall	overall
sw3068A-ms98-a-0037	A.45	171.612875	171.958875		[silence]	[silence]
sw3068A-ms98-a-0038	A.45	171.958875	172.502000		[silence]	[silence]
sw3068A-ms98-a-0038	A.45	172.502000	172.588875		I	i
sw3068A-ms98-a-0038	A.45	172.588875	172.748875		don't	don't
sw3068A-ms98-a-0038	A.45	172.748875	172.961000		know	know
sw3068A-ms98-a-0038	A.47	172.961000	173.289625		[silence]	[silence]
sw3068A-ms98-a-0039	A.47	173.289625	174.428000		[silence]	[silence]
sw3068A-ms98-a-0040	A.47	174.428000	174.693375		[silence]	[silence]
sw3068A-ms98-a-0040	A.47	174.693375	175.048250		Yeah	yeah
sw3068A-ms98-a-0040	A.47	175.048250	175.207250		[silence]	[silence]
sw3068A-ms98-a-0040	A.47	175.207250	175.288000		Oh	oh
sw3068A-ms98-a-0040	A.47	175.288000	175.538000		you	you
sw3068A-ms98-a-0040	A.47	175.538000	175.630750		you're	you're
sw3068A-ms98-a-0040	A.47	175.630750	175.755000		at	at
sw3068A-ms98-a-0040	A.47	175.755000	175.858000		the	the
sw3068A-ms98-a-0040	A.47	175.858000	176.188000		office	office
sw3068A-ms98-a-0040	A.47	176.188000	176.425375		now	now
sw3068A-ms98-a-0040	A.49	176.425375	176.609500		[silence]	[silence]
sw3068A-ms98-a-0040	A.49	176.609500	176.794125	<DEL>	---	you
sw3068A-ms98-a-0040	A.49	176.794125	176.948000	<DEL>	---	are
sw3068A-ms98-a-0040	A.49	176.948000	177.008000		At	at
sw3068A-ms98-a-0040	A.49	177.008000	177.288000		work	work
sw3068A-ms98-a-0040	A.49	177.288000	177.532375		Yeah	yeah
sw3068A-ms98-a-0040	A.51	177.532375	178.002000		[silence]	[silence]
sw3068A-ms98-a-0041	A.51	178.002000	183.636375		[silence]	[silence]
sw3068A-ms98-a-0042	A.51	183.636375	184.024500		[silence]	[silence]
sw3068A-ms98-a-0042	A.51	184.024500	184.464125		[noise]	[noise]
sw3068A-ms98-a-0042	A.51	184.464125	184.566375		I	i
sw3068A-ms98-a-0042	A.51	184.566375	184.786375		would	would
sw3068A-ms98-a-0042	A.51	184.786375	184.916375		I	i
sw3068A-ms98-a-0042	A.51	184.916375	185.126375		would	would
sw3068A-ms98-a-0042	A.53	185.126375	185.216375		it	it
sw3068A-ms98-a-0042	A.53	185.216375	185.400625		would	would
sw3068A-ms98-a-0042	A.53	185.400625	185.774750	<SUB>	I	i-
sw3068A-ms98-a-0042	A.53	185.774750	185.906375		I	i
sw3068A-ms98-a-0042	A.53	185.906375	186.136375		tell	tell
sw3068A-ms98-a-0042	A.53	186.136375	186.374625		you	you
sw3068A-ms98-a-0042	A.53	186.374625	186.672375		I	i
sw3068A-ms98-a-0042	A.53	186.672375	186.808000		live	live
sw3068A-ms98-a-0042	A.53	186.808000	186.966375		in	in
sw3068A-ms98-a-0042	A.53	186.966375	187.678625		Maryland	Maryland
sw3068A-ms98-a-0042	A.53	187.678625	187.846000		[silence]	[silence]
sw3068A-ms98-a-0043	A.53	187.846000	188.060375		[silence]	[silence]
sw3068A-ms98-a-0043	A.53	188.060375	188.256000		and	and
sw3068A-ms98-a-0043	A.53	188.256000	188.326000		the	the
sw3068A-ms98-a-0043	A.53	188.326000	189.006000		public	public
sw3068A-ms98-a-0043	A.53	189.006000	189.426000		schools	schools
sw3068A-ms98-a-0043	A.53	189.426000	189.753625		here	here
sw3068A-ms98-a-0043	A.53	189.753625	190.055000		[silence]	[silence]
sw3068A-ms98-a-0043	A.53	190.055000	190.176000		are	are
sw3068A-ms98-a-0043	A.55	190.176000	190.456000		pretty	pretty
sw3068A-ms98-a-0043	A.55	190.456000	190.716000		good	good
sw3068A-ms98-a-0043	A.55	190.716000	190.816000		I	i
sw3068A-ms98-a-0043	A.55	190.816000	191.136000		teach	teach
sw3068A-ms98-a-0043	A.55	191.136000	191.226000		at	at
sw3068A-ms98-a-0043	A.55	191.226000	191.266000		a	a
sw3068A-ms98-a-0043	A.55	191.266000	191.556000		public	public
sw3068A-ms98-a-0043	A.55	191.556000	191.836000		school	school
sw3068A-ms98-a-0043	A.55	191.836000	192.278500		actually	actually
sw3068A-ms98-a-0043	A.55	192.278500	192.609875		[silence]	[silence]
sw3068A-ms98-a-0043	A.55	192.609875	192.796000		and	and
sw3068A-ms98-a-0043	A.55	192.796000	192.866000		I	i
sw3068A-ms98-a-0043	A.55	192.866000	193.026000		know	know
sw3068A-ms98-a-0043	A.55	193.026000	193.261375		that	that
sw3068A-ms98-a-0043	A.55	193.261375	193.426000		the	the
sw3068A-ms98-a-0043	A.55	193.426000	193.946000	<CONT>	S	SAT
sw3068A-ms98-a-0043	A.55	193.946000	193.946000	<CONT>	A	+++
sw3068A-ms98-a-0043	A.55	193.946000	193.946000	<CONT>	T	+++
sw3068A-ms98-a-0043	A.55	193.946000	194.376000		scores	scores
sw3068A-ms98-a-0043	A.55	194.376000	194.546000		for	for
sw3068A-ms98-a-0043	A.55	194.546000	194.656000		our	our
sw3068A-ms98-a-0043	A.55	194.656000	195.222875		admitting	admitting
sw3068A-ms98-a-0043	A.55	195.222875	195.429625		[silence]	[silence]
sw3068A-ms98-a-0044	A.55	195.429625	195.610625		[silence]	[silence]
sw3068A-ms98-a-0044	A.55	195.610625	196.189625		freshmen	freshmen
sw3068A-ms98-a-0044	A.55	196.189625	196.459625		are	are
sw3068A-ms98-a-0044	A.55	196.459625	196.889625		higher	higher
sw3068A-ms98-a-0044	A.55	196.889625	196.999625		than	than
sw3068A-ms98-a-0044	A.55	196.999625	197.059625		a	a
sw3068A-ms98-a-0044	A.55	197.059625	197.239625		lot	lot
sw3068A-ms98-a-0044	A.55	197.239625	197.299625		of	of
sw3068A-ms98-a-0044	A.55	197.299625	197.359625		the	the
sw3068A-ms98-a-0044	A.55	197.359625	197.679625		public	public
sw3068A-ms98-a-0044	A.55	197.679625	197.916500		sch-	sch[ool]-
sw3068A-ms98-a-0044	A.55	197.916500	198.049625		a	a
sw3068A-ms98-a-0044	A.55	198.049625	198.209625		lot	lot
sw3068A-ms98-a-0044	A.55	198.209625	198.269625		of	of
sw3068A-ms98-a-0044	A.55	198.269625	198.329625		the	the
sw3068A-ms98-a-0044	A.55	198.329625	198.669625		private	private
sw3068A-ms98-a-0044	A.55	198.669625	199.104375		schools	schools
sw3068A-ms98-a-0044	A.55	199.104375	199.530000		[silence]	[silence]
sw3068A-ms98-a-0044	A.55	199.530000	199.869625		And	and
sw3068A-ms98-a-0044	A.55	199.869625	200.229625		um	um
sw3068A-ms98-a-0044	A.55	200.229625	200.439625		I	i
sw3068A-ms98-a-0044	A.55	200.439625	200.749625		actually	actually
sw3068A-ms98-a-0044	A.55	200.749625	200.909625		I	i
sw3068A-ms98-a-0044	A.55	200.909625	201.139625		would	would
sw3068A-ms98-a-0044	A.55	201.139625	201.349625		full	full
sw3068A-ms98-a-0044	A.55	201.349625	201.629625		time	time
sw3068A-ms98-a-0044	A.55	201.629625	201.683125		at	at
sw3068A-ms98-a-0044	A.55	201.683125	201.805375		a	a
sw3068A-ms98-a-0044	A.55	201.805375	202.012500		[silence]	[silence]
sw3068A-ms98-a-0044	A.55	202.012500	202.156000		at	at
sw3068A-ms98-a-0044	A.55	202.156000	202.326875		a	a
sw3068A-ms98-a-0044	A.55	202.326875	202.673375		[silence]	[silence]
sw3068A-ms98-a-0044	A.55	202.673375	202.969625		public	public
sw3068A-ms98-a-0044	A.55	202.969625	203.439625		school	school
sw3068A-ms98-a-0044	A.55	203.439625	203.589625		and	and
sw3068A-ms98-a-0044	A.55	203.589625	203.729625		then	then
sw3068A-ms98-a-0044	A.55	203.729625	203.889625		right	right
sw3068A-ms98-a-0044	A.55	203.889625	203.999625		now	now
sw3068A-ms98-a-0044	A.55	203.999625	204.089625		I'm	i'm
sw3068A-ms98-a-0044	A.55	204.089625	204.419625		teaching	teaching
sw3068A-ms98-a-0044	A.55	204.419625	204.739625		part	part
sw3068A-ms98-a-0044	A.55	204.739625	204.959625		time	time
sw3068A-ms98-a-0044	A.55	204.959625	205.029625		at	at
sw3068A-ms98-a-0044	A.55	205.029625	205.069625		a	a
sw3068A-ms98-a-0044	A.55	205.069625	205.509625		private	private
sw3068A-ms98-a-0044	A.55	205.509625	206.061875		school	school
sw3068A-ms98-a-0044	A.55	206.061875	206.205000		at	at
sw3068A-ms98-a-0044	A.55	206.205000	206.442750		a	a
sw3068A-ms98-a-0044	A.55	206.442750	206.698875		[silence]	[silence]
sw3068A-ms98-a-0044	A.55	206.698875	207.079625		Catholic	Catholic
sw3068A-ms98-a-0044	A.55	207.079625	207.810875		institution	institution
sw3068A-ms98-a-0044	A.57	207.810875	208.021375		[silence]	[silence]
sw3068A-ms98-a-0045	A.57	208.021375	208.271500		[silence]	[silence]
sw3068A-ms98-a-0045	A.57	208.271500	208.521375		And	and
sw3068A-ms98-a-0045	A.57	208.521375	208.861000		um	um
sw3068A-ms98-a-0045	A.57	208.861000	209.377000		[noise]	[noise]
sw3068A-ms98-a-0045	A.57	209.377000	209.501375		and	and
sw3068A-ms98-a-0045	A.57	209.501375	209.581375		I	i
sw3068A-ms98-a-0045	A.57	209.581375	209.900000		really	really
sw3068A-ms98-a-0045	A.57	209.900000	210.268750		think	think
sw3068A-ms98-a-0045	A.57	210.268750	210.528625		I	i
sw3068A-ms98-a-0045	A.57	210.528625	210.930875		[silence]	[silence]
sw3068A-ms98-a-0045	A.57	210.930875	211.194500	<DEL>	---	i
sw3068A-ms98-a-0045	A.57	211.194500	211.521375		think	think
sw3068A-ms98-a-0045	A.57	211.521375	211.671375		I'm	i'm
sw3068A-ms98-a-0045	A.57	211.671375	211.941375		getting	getting
sw3068A-ms98-a-0045	A.57	211.941375	212.011375		a	a
sw3068A-ms98-a-0045	A.57	212.011375	212.251375		better	better
sw3068A-ms98-a-0045	A.57	212.251375	212.781375		caliber	caliber
sw3068A-ms98-a-0045	A.57	212.781375	212.851375		of	of
sw3068A-ms98-a-0045	A.57	212.851375	213.541375		student	student
sw3068A-ms98-a-0045	A.57	213.541375	213.671375		at	at
sw3068A-ms98-a-0045	A.57	213.671375	213.731375		the	the
sw3068A-ms98-a-0045	A.57	213.731375	214.141375		private	private
sw3068A-ms98-a-0045	A.57	214.141375	214.603625		school	school
sw3068A-ms98-a-0045	A.57	214.603625	214.911750		[silence]	[silence]
sw3068A-ms98-a-0046	A.57	214.911750	215.439250		[silence]	[silence]
sw3068A-ms98-a-0046	A.57	215.439250	215.721750		because	because
sw3068A-ms98-a-0046	A.57	215.721750	215.791750		I	i
sw3068A-ms98-a-0046	A.57	215.791750	216.001750		think	think
sw3068A-ms98-a-0046	A.57	216.001750	216.131750		their	their
sw3068A-ms98-a-0046	A.57	216.131750	216.621750		parents	parents
sw3068A-ms98-a-0046	A.57	216.621750	216.891750		pay	pay
sw3068A-ms98-a-0046	A.57	216.891750	217.378125		more	more
sw3068A-ms98-a-0046	A.57	217.378125	217.638000		[silence]	[silence]
sw3068A-ms98-a-0046	A.57	217.638000	217.751750		and	and
sw3068A-ms98-a-0046	A.57	217.751750	217.791750		I	i
sw3068A-ms98-a-0046	A.57	217.791750	218.021750		think	think
sw3068A-ms98-a-0046	A.57	218.021750	218.081750		the	the
sw3068A-ms98-a-0046	A.57	218.081750	218.391750		kids	kids
sw3068A-ms98-a-0046	A.57	218.391750	218.670875		are	are
sw3068A-ms98-a-0046	A.57	218.670875	218.802750		[silence]	[silence]
sw3068A-ms98-a-0046	A.57	218.802750	218.851750		a	a
sw3068A-ms98-a-0046	A.57	218.851750	219.091750		little	little
sw3068A-ms98-a-0046	A.57	219.091750	219.221750		bit	bit
sw3068A-ms98-a-0046	A.57	219.221750	219.421750		more	more
sw3068A-ms98-a-0046	A.57	219.421750	219.991750		challenged	challenged
sw3068A-ms98-a-0046	A.57	219.991750	220.381750		because	because
sw3068A-ms98-a-0046	A.57	220.381750	220.561750		their	their
sw3068A-ms98-a-0046	A.57	220.561750	221.101750		parents	parents
sw3068A-ms98-a-0046	A.57	221.101750	221.161750		are	are
sw3068A-ms98-a-0046	A.57	221.161750	221.471750		probably	probably
sw3068A-ms98-a-0046	A.57	221.471750	221.831750		college	college
sw3068A-ms98-a-0046	A.57	221.831750	222.461750		educated	educated
sw3068A-ms98-a-0046	A.57	222.461750	222.629750		[silence]	[silence]
sw3068A-ms98-a-0047	A.57	222.629750	222.959000		[silence]	[silence]
sw3068A-ms98-a-0047	A.57	222.959000	223.079750		where	where
sw3068A-ms98-a-0047	A.57	223.079750	223.209750		at	at
sw3068A-ms98-a-0047	A.57	223.209750	223.269750		the	the
sw3068A-ms98-a-0047	A.57	223.269750	223.619750		public	public
sw3068A-ms98-a-0047	A.57	223.619750	224.129750		school	school
sw3068A-ms98-a-0047	A.57	224.129750	224.219750		I	i
sw3068A-ms98-a-0047	A.57	224.219750	224.479750		don't	don't
sw3068A-ms98-a-0047	A.57	224.479750	224.719750		think	think
sw3068A-ms98-a-0047	A.57	224.719750	224.849750		as	as
sw3068A-ms98-a-0047	A.57	224.849750	225.227750		many	many
sw3068A-ms98-a-0047	A.57	225.227750	225.382125		[silence]	[silence]
sw3068A-ms98-a-0047	A.57	225.382125	225.779750		parents	parents
sw3068A-ms98-a-0047	A.57	225.779750	225.849750		are	are
sw3068A-ms98-a-0047	A.57	225.849750	226.324250		public	public
sw3068A-ms98-a-0047	A.57	226.324250	226.637750		are	are
sw3068A-ms98-a-0047	A.57	226.637750	226.989750		are	are
sw3068A-ms98-a-0047	A.57	226.989750	227.419750		college	college
sw3068A-ms98-a-0047	A.57	227.419750	228.009750		educated	educated
sw3068A-ms98-a-0047	A.57	228.009750	228.337375		[silence]	[silence]
sw3068A-ms98-a-0047	A.57	228.337375	228.499750		and	and
sw3068A-ms98-a-0047	A.57	228.499750	228.588250		I	i
sw3068A-ms98-a-0047	A.57	228.588250	228.801375		don't	don't
sw3068A-ms98-a-0047	A.57	228.801375	228.949750		I	i
sw3068A-ms98-a-0047	A.57	228.949750	229.169750		think	think
sw3068A-ms98-a-0047	A.57	229.169750	229.389750		because	because
sw3068A-ms98-a-0047	A.57	229.389750	229.489750		it	it
sw3068A-ms98-a-0047	A.57	229.489750	229.889750		costs	costs
sw3068A-ms98-a-0047	A.57	229.889750	230.129750		less	less
sw3068A-ms98-a-0047	A.57	230.129750	230.209750		the	the
sw3068A-ms98-a-0047	A.57	230.209750	230.439750		kid	kid
sw3068A-ms98-a-0047	A.57	230.439750	230.729750		doesn't	doesn't
sw3068A-ms98-a-0047	A.57	230.729750	230.889750		take	take
sw3068A-ms98-a-0047	A.57	230.889750	230.999750		it	it
sw3068A-ms98-a-0047	A.57	230.999750	231.309750		quite	quite
sw3068A-ms98-a-0047	A.57	231.309750	231.399750		as	as
sw3068A-ms98-a-0047	A.57	231.399750	232.010125		serious	serious
sw3068A-ms98-a-0047	A.57	232.010125	232.031250		[silence]	[silence]
sw3068A-ms98-a-0048	A.57	232.031250	232.393250		[silence]	[silence]
sw3068A-ms98-a-0048	A.57	232.393250	232.471250		you	you
sw3068A-ms98-a-0048	A.57	232.471250	232.591250		know	know
sw3068A-ms98-a-0048	A.57	232.591250	232.721250		they're	they're
sw3068A-ms98-a-0048	A.57	232.721250	233.026000		not	not
sw3068A-ms98-a-0048	A.57	233.026000	233.026000	<INS>	th-	---
sw3068A-ms98-a-0048	A.57	233.026000	233.690000		[vocalized-noise]	[vocalized-noise]
sw3068A-ms98-a-0048	A.57	233.690000	233.977250		it	it
sw3068A-ms98-a-0048	A.57	233.977250	234.494625		it's	it's
sw3068A-ms98-a-0048	A.57	234.494625	234.649125		[silence]	[silence]
sw3068A-ms98-a-0048	A.57	234.649125	234.741250		the	the
sw3068A-ms98-a-0048	A.57	234.741250	235.161250		minimal	minimal
sw3068A-ms98-a-0048	A.57	235.161250	235.551250		cost	cost
sw3068A-ms98-a-0048	A.57	235.551250	235.721250		But	but
sw3068A-ms98-a-0048	A.57	235.721250	235.811250		I	i
sw3068A-ms98-a-0048	A.57	235.811250	236.081250		think	think
sw3068A-ms98-a-0048	A.57	236.081250	236.181250		you	you
sw3068A-ms98-a-0048	A.57	236.181250	236.311250		can	can
sw3068A-ms98-a-0048	A.57	236.311250	236.511250		get	get
sw3068A-ms98-a-0048	A.57	236.511250	236.591250		a	a
sw3068A-ms98-a-0048	A.57	236.591250	237.086000		good	good
sw3068A-ms98-a-0048	A.57	237.086000	237.496625		[silence]	[silence]
sw3068A-ms98-a-0048	A.57	237.496625	238.101250		education	education
sw3068A-ms98-a-0048	A.57	238.101250	238.331250		at	at
sw3068A-ms98-a-0048	A.57	238.331250	238.691250		public	public
sw3068A-ms98-a-0048	A.57	238.691250	238.841250		or	or
sw3068A-ms98-a-0048	A.57	238.841250	239.379750		private	private
sw3068A-ms98-a-0048	A.57	239.379750	239.595750		[silence]	[silence]
sw3068A-ms98-a-0049	A.57	239.595750	239.871500		[silence]	[silence]
sw3068A-ms98-a-0049	A.57	239.871500	239.985750	<DEL>	---	uh
sw3068A-ms98-a-0049	A.57	239.985750	240.135750		but	but
sw3068A-ms98-a-0049	A.57	240.135750	240.256125		I	i
sw3068A-ms98-a-0049	A.57	240.256125	240.435875		think	think
sw3068A-ms98-a-0049	A.57	240.435875	240.485750		you	you
sw3068A-ms98-a-0049	A.57	240.485750	240.595750		can	can
sw3068A-ms98-a-0049	A.57	240.595750	240.785750		also	also
sw3068A-ms98-a-0049	A.57	240.785750	240.895750		get	get
sw3068A-ms98-a-0049	A.57	240.895750	240.945750		a	a
sw3068A-ms98-a-0049	A.57	240.945750	241.285750		bad	bad
sw3068A-ms98-a-0049	A.57	241.285750	241.865750		education	education
sw3068A-ms98-a-0049	A.57	241.865750	241.955750		at	at
sw3068A-ms98-a-0049	A.57	241.955750	242.295750		public	public
sw3068A-ms98-a-0049	A.57	242.295750	242.365750		or	or
sw3068A-ms98-a-0049	A.57	242.365750	242.951500		private	private
sw3068A-ms98-a-0049	A.57	242.951500	243.105750		you	you
sw3068A-ms98-a-0049	A.57	243.105750	243.255750		know	know
sw3068A-ms98-a-0049	A.57	243.255750	243.398125		I	i
sw3068A-ms98-a-0049	A.59	243.398125	243.756000		[silence]	[silence]
sw3068A-ms98-a-0049	A.59	243.756000	243.985750		you	you
sw3068A-ms98-a-0049	A.59	243.985750	244.125750		have	have
sw3068A-ms98-a-0049	A.59	244.125750	244.285750		to	to
sw3068A-ms98-a-0049	A.59	244.285750	244.525750		really	really
sw3068A-ms98-a-0049	A.59	244.525750	244.605750		you	you
sw3068A-ms98-a-0049	A.59	244.605750	244.695750		have	have
sw3068A-ms98-a-0049	A.59	244.695750	244.825750		to	to
sw3068A-ms98-a-0049	A.59	244.825750	245.035750		look	look
sw3068A-ms98-a-0049	A.59	245.035750	245.475750		around	around
sw3068A-ms98-a-0049	A.59	245.475750	245.675750		at	at
sw3068A-ms98-a-0049	A.59	245.675750	245.735750		the	the
sw3068A-ms98-a-0049	A.59	245.735750	246.288500		school	school
sw3068A-ms98-a-0049	A.59	246.288500	246.439125		[silence]	[silence]
sw3068A-ms98-a-0049	A.59	246.439125	246.565750	<SUB>	I	i-
sw3068A-ms98-a-0049	A.59	246.565750	246.755750		I	i
sw3068A-ms98-a-0049	A.59	246.755750	247.025750		think	think
sw3068A-ms98-a-0049	A.59	247.025750	247.095750		the	the
sw3068A-ms98-a-0049	A.59	247.095750	247.325750		bad	bad
sw3068A-ms98-a-0049	A.59	247.325750	247.545750		part	part
sw3068A-ms98-a-0049	A.59	247.545750	247.645750		is	is
sw3068A-ms98-a-0049	A.59	247.645750	247.775750		that	that
sw3068A-ms98-a-0049	A.59	247.775750	248.035750		most	most
sw3068A-ms98-a-0049	A.59	248.035750	248.425750		parents	parents
sw3068A-ms98-a-0049	A.59	248.425750	248.515750		or	or
sw3068A-ms98-a-0049	A.59	248.515750	248.930875		kids	kids
sw3068A-ms98-a-0049	A.59	248.930875	249.209625		[silence]	[silence]
sw3068A-ms98-a-0049	A.59	249.209625	249.395750		don't	don't
sw3068A-ms98-a-0049	A.59	249.395750	249.475750		know	know
sw3068A-ms98-a-0049	A.59	249.475750	249.605750		what	what
sw3068A-ms98-a-0049	A.59	249.605750	249.705750		to	to
sw3068A-ms98-a-0049	A.59	249.705750	249.875750		look	look
sw3068A-ms98-a-0049	A.59	249.875750	250.270000		for	for
sw3068A-ms98-a-0049	A.61	250.270000	250.709500		[silence]	[silence]
sw3068A-ms98-a-0050	A.61	250.709500	256.506500		[silence]	[silence]
sw3068A-ms98-a-0051	A.61	256.506500	257.006500		[silence]	[silence]
sw3068A-ms98-a-0051	A.61	257.006500	257.269125	<SUB>	Uh-huh	um-hum
sw3068A-ms98-a-0051	A.63	257.269125	257.722625		[silence]	[silence]
sw3068A-ms98-a-0052	A.63	257.722625	260.983125		[silence]	[silence]
sw3068A-ms98-a-0053	A.63	260.983125	261.383125		[silence]	[silence]
sw3068A-ms98-a-0053	A.63	261.383125	261.698375		Right	right
sw3068A-ms98-a-0053	A.65	261.698375	262.292875		[silence]	[silence]
sw3068A-ms98-a-0054	A.65	262.292875	262.843375		[silence]	[silence]
sw3068A-ms98-a-0054	A.65	262.843375	263.122750		Uh-huh	uh-huh
sw3068A-ms98-a-0054	A.67	263.122750	263.777375		[silence]	[silence]
sw3068A-ms98-a-0055	A.67	263.777375	268.067500		[silence]	[silence]
sw3068A-ms98-a-0056	A.67	268.067500	268.502250		[silence]	[silence]
sw3068A-ms98-a-0056	A.67	268.502250	268.748375	<SUB>	Uh-huh	um-hum
sw3068A-ms98-a-0056	A.69	268.748375	269.289000		[silence]	[silence]
sw3068A-ms98-a-0057	A.69	269.289000	270.646250		[silence]	[silence]
sw3068A-ms98-a-0058	A.69	270.646250	271.118750		[silence]	[silence]
sw3068A-ms98-a-0058	A.69	271.118750	271.349625		Right	right
sw3068A-ms98-a-0058	A.71	271.349625	271.802500		[silence]	[silence]
sw3068A-ms98-a-0059	A.71	271.802500	282.643000		[silence]	[silence]
sw3068A-ms98-a-0060	A.71	282.643000	283.323500		[silence]	[silence]
sw3068A-ms98-a-0060	A.71	283.323500	283.547250		Right	right
sw3068A-ms98-a-0060	A.73	283.547250	284.048125		[silence]	[silence]
sw3068A-ms98-a-0060	A.73	284.048125	284.153000		Yeah	yeah
sw3068A-ms98-a-0060	A.75	284.153000	284.313000		does	does
sw3068A-ms98-a-0060	A.75	284.313000	284.373000		it	it
sw3068A-ms98-a-0060	A.75	284.373000	284.533000		have	have
sw3068A-ms98-a-0060	A.75	284.533000	284.613000		a	a
sw3068A-ms98-a-0060	A.75	284.613000	284.843000		big	big
sw3068A-ms98-a-0060	A.75	284.843000	285.043000		ten	ten
sw3068A-ms98-a-0060	A.75	285.043000	285.383000		football	football
sw3068A-ms98-a-0060	A.75	285.383000	285.843000		team	team
sw3068A-ms98-a-0060	A.75	285.843000	286.155250		or	or
sw3068A-ms98-a-0060	A.77	286.155250	286.376875		[silence]	[silence]
sw3068A-ms98-a-0060	A.77	286.376875	286.507875	<DEL>	---	is
sw3068A-ms98-a-0060	A.77	286.507875	286.630500	<DEL>	---	it
sw3068A-ms98-a-0060	A.77	286.630500	286.790000		[silence]	[silence]
sw3068A-ms98-a-0061	A.77	286.790000	287.922625		[silence]	[silence]
sw3068A-ms98-a-0062	A.77	287.922625	288.206875		[silence]	[silence]
sw3068A-ms98-a-0062	A.77	288.206875	288.433125		Yeah	yeah
sw3068A-ms98-a-0062	A.77	288.433125	288.673375		[silence]	[silence]
sw3068A-ms98-a-0062	A.77	288.673375	288.846125		I	i
sw3068A-ms98-a-0062	A.77	288.846125	289.062625		mean	mean
sw3068A-ms98-a-0062	A.77	289.062625	289.302000		uh	uh
sw3068A-ms98-a-0062	A.77	289.302000	289.512625		yeah	yeah
sw3068A-ms98-a-0062	A.77	289.512625	289.615375		is	is
sw3068A-ms98-a-0062	A.77	289.615375	289.735875		it	it
sw3068A-ms98-a-0062	A.77	289.735875	289.872625		a	a
sw3068A-ms98-a-0062	A.77	289.872625	290.122625		PAC	PAC
sw3068A-ms98-a-0062	A.77	290.122625	290.302625		ten	ten
sw3068A-ms98-a-0062	A.77	290.302625	290.718250		school	school
sw3068A-ms98-a-0062	A.77	290.718250	290.882625		you	you
sw3068A-ms98-a-0062	A.77	290.882625	291.027625		know	know
sw3068A-ms98-a-0062	A.79	291.027625	291.408000		[silence]	[silence]
sw3068A-ms98-a-0062	A.79	291.408000	291.745500		But	but
sw3068A-ms98-a-0062	A.79	291.745500	292.174875		[silence]	[silence]
sw3068A-ms98-a-0062	A.79	292.174875	292.291125		I	i
sw3068A-ms98-a-0062	A.79	292.291125	292.512625		think	think
sw3068A-ms98-a-0062	A.79	292.512625	292.662625		yeah	yeah
sw3068A-ms98-a-0062	A.79	292.662625	292.872625		see	see
sw3068A-ms98-a-0062	A.79	292.872625	293.168000		I'm	i'm
sw3068A-ms98-a-0062	A.79	293.168000	293.333750		[silence]	[silence]
sw3068A-ms98-a-0062	A.79	293.333750	293.492625		I'm	i'm
sw3068A-ms98-a-0062	A.79	293.492625	293.562625		at	at
sw3068A-ms98-a-0062	A.79	293.562625	293.622625		the	the
sw3068A-ms98-a-0062	A.79	293.622625	294.012625		University	University
sw3068A-ms98-a-0062	A.79	294.012625	294.072625		of	of
sw3068A-ms98-a-0062	A.79	294.072625	294.502625		Maryland	Maryland
sw3068A-ms98-a-0062	A.79	294.502625	294.682625		so	so
sw3068A-ms98-a-0062	A.79	294.682625	294.772625		in	in
sw3068A-ms98-a-0062	A.79	294.772625	295.064750		this	this
sw3068A-ms98-a-0062	A.79	295.064750	295.332625		this	this
sw3068A-ms98-a-0062	A.79	295.332625	296.002000		region	region
sw3068A-ms98-a-0062	A.79	296.002000	296.223500		[silence]	[silence]
sw3068A-ms98-a-0063	A.79	296.223500	296.473500		[silence]	[silence]
sw3068A-ms98-a-0063	A.79	296.473500	296.853500		um	um
sw3068A-ms98-a-0063	A.79	296.853500	297.043500		though	though
sw3068A-ms98-a-0063	A.79	297.043500	297.123500		I	i
sw3068A-ms98-a-0063	A.79	297.123500	297.283500		go	go
sw3068A-ms98-a-0063	A.79	297.283500	297.413500		to	to
sw3068A-ms98-a-0063	A.79	297.413500	297.443500		a	a
sw3068A-ms98-a-0063	A.79	297.443500	298.003500		smaller	smaller
sw3068A-ms98-a-0063	A.79	298.003500	298.443500		branch	branch
sw3068A-ms98-a-0063	A.79	298.443500	298.533500		of	of
sw3068A-ms98-a-0063	A.79	298.533500	298.593500		the	the
sw3068A-ms98-a-0063	A.79	298.593500	298.983500		University	University
sw3068A-ms98-a-0063	A.79	298.983500	299.043500		of	of
sw3068A-ms98-a-0063	A.79	299.043500	299.403500		Maryland	Maryland
sw3068A-ms98-a-0063	A.79	299.403500	299.543500		my	my
sw3068A-ms98-a-0063	A.79	299.543500	299.933500		diploma	diploma
sw3068A-ms98-a-0063	A.79	299.933500	300.023500		will	will
sw3068A-ms98-a-0063	A.79	300.023500	300.223500		still	still
sw3068A-ms98-a-0063	A.79	300.223500	300.373500		say	say
sw3068A-ms98-a-0063	A.79	300.373500	300.783500		University	University
sw3068A-ms98-a-0063	A.79	300.783500	300.843500		of	of
sw3068A-ms98-a-0063	A.79	300.843500	301.328375		Maryland	Maryland
sw3068A-ms98-a-0063	A.81	301.328375	301.932750		[silence]	[silence]
sw3068A-ms98-a-0063	A.81	301.932750	302.240125		Um	um
sw3068A-ms98-a-0063	A.81	302.240125	302.327000		[silence]	[silence]
sw3068A-ms98-a-0064	A.81	302.327000	302.592750		[silence]	[silence]
sw3068A-ms98-a-0064	A.81	302.592750	302.858500		[noise]	[noise]
sw3068A-ms98-a-0064	A.81	302.858500	302.957000		you	you
sw3068A-ms98-a-0064	A.81	302.957000	303.037000		know	know
sw3068A-ms98-a-0064	A.81	303.037000	303.107000		it	it
sw3068A-ms98-a-0064	A.81	303.107000	303.447000		doesn't	doesn't
sw3068A-ms98-a-0064	A.81	303.447000	303.727000		doesn't	doesn't
sw3068A-ms98-a-0064	A.81	303.727000	304.327000		differentiate	differentiate
sw3068A-ms98-a-0064	A.81	304.327000	304.457000		on	on
sw3068A-ms98-a-0064	A.81	304.457000	304.547000		my	my
sw3068A-ms98-a-0064	A.81	304.547000	305.187000		diploma	diploma
sw3068A-ms98-a-0064	A.81	305.187000	305.377000		though	though
sw3068A-ms98-a-0064	A.81	305.377000	305.457000		I	i
sw3068A-ms98-a-0064	A.81	305.457000	305.617000		would	would
sw3068A-ms98-a-0064	A.81	305.617000	305.777000		put	put
sw3068A-ms98-a-0064	A.81	305.777000	305.837000		it	it
sw3068A-ms98-a-0064	A.81	305.837000	305.957000		on	on
sw3068A-ms98-a-0064	A.81	305.957000	306.067000		my	my
sw3068A-ms98-a-0064	A.81	306.067000	306.547000		resume	resume
sw3068A-ms98-a-0064	A.81	306.547000	306.747000		what	what
sw3068A-ms98-a-0064	A.81	306.747000	307.137000		program	program
sw3068A-ms98-a-0064	A.81	307.137000	307.207000		I	i
sw3068A-ms98-a-0064	A.81	307.207000	307.437000		went	went
sw3068A-ms98-a-0064	A.81	307.437000	307.678250		to	to
sw3068A-ms98-a-0064	A.81	307.678250	308.081250		[silence]	[silence]
sw3068A-ms98-a-0064	A.81	308.081250	308.217000		But	but
sw3068A-ms98-a-0064	A.81	308.217000	308.287000	<SUB>	I	i-
sw3068A-ms98-a-0064	A.81	308.287000	308.528375		I	i
sw3068A-ms98-a-0064	A.81	308.528375	308.937500		think	think
sw3068A-ms98-a-0064	A.81	308.937500	309.152125		[silence]	[silence]
sw3068A-ms98-a-0064	A.81	309.152125	309.277000		you	you
sw3068A-ms98-a-0064	A.81	309.277000	309.407000		know	know
sw3068A-ms98-a-0064	A.81	309.407000	309.547000		I'm	i'm
sw3068A-ms98-a-0064	A.81	309.547000	309.907000		actually	actually
sw3068A-ms98-a-0064	A.81	309.907000	310.077000		at	at
sw3068A-ms98-a-0064	A.81	310.077000	310.117000		a	a
sw3068A-ms98-a-0064	A.81	310.117000	310.587000		smaller	smaller
sw3068A-ms98-a-0064	A.81	310.587000	311.027000		program	program
sw3068A-ms98-a-0064	A.81	311.027000	311.137000		I'm	i'm
sw3068A-ms98-a-0064	A.81	311.137000	311.347000		not	not
sw3068A-ms98-a-0064	A.81	311.347000	311.697000		at	at
sw3068A-ms98-a-0064	A.81	311.697000	311.767000		the	the
sw3068A-ms98-a-0064	A.81	311.767000	312.137000		col-	coll[ege]-
sw3068A-ms98-a-0064	A.81	312.137000	312.237000		the	the
sw3068A-ms98-a-0064	A.81	312.237000	312.577000		big	big
sw3068A-ms98-a-0064	A.81	312.577000	313.027000		College	College
sw3068A-ms98-a-0064	A.81	313.027000	313.347000		Park	Park
sw3068A-ms98-a-0064	A.81	313.347000	313.977000		campus	campus
sw3068A-ms98-a-0064	A.81	313.977000	314.047000		you	you
sw3068A-ms98-a-0064	A.81	314.047000	314.187000		know	know
sw3068A-ms98-a-0064	A.81	314.187000	314.437000		that's	that's
sw3068A-ms98-a-0064	A.81	314.437000	314.527000		the	the
sw3068A-ms98-a-0064	A.81	314.527000	314.737000		big	big
sw3068A-ms98-a-0064	A.81	314.737000	314.877000		one	one
sw3068A-ms98-a-0064	A.81	314.877000	314.997000		with	with
sw3068A-ms98-a-0064	A.81	314.997000	315.057000		the	the
sw3068A-ms98-a-0064	A.81	315.057000	315.427000		football	football
sw3068A-ms98-a-0064	A.81	315.427000	315.789250		team	team
sw3068A-ms98-a-0064	A.83	315.789250	316.025125		[silence]	[silence]
sw3068A-ms98-a-0065	A.83	316.025125	316.306000		[silence]	[silence]
sw3068A-ms98-a-0065	A.83	316.306000	316.455125		So	so
sw3068A-ms98-a-0065	A.83	316.455125	316.625125	<SUB>	I	i-
sw3068A-ms98-a-0065	A.83	316.625125	316.785125		I	i
sw3068A-ms98-a-0065	A.83	316.785125	317.085125		think	think
sw3068A-ms98-a-0065	A.83	317.085125	317.362750		um	um
sw3068A-ms98-a-0065	A.83	317.362750	317.633875		[noise]	[noise]
sw3068A-ms98-a-0065	A.83	317.633875	317.695125		I	i
sw3068A-ms98-a-0065	A.83	317.695125	317.845125		think	think
sw3068A-ms98-a-0065	A.83	317.845125	317.965125		you're	you're
sw3068A-ms98-a-0065	A.83	317.965125	318.255125		right	right
sw3068A-ms98-a-0065	A.83	318.255125	318.405125		that	that
sw3068A-ms98-a-0065	A.83	318.405125	318.595125		there's	there's
sw3068A-ms98-a-0065	A.83	318.595125	318.645125		a	a
sw3068A-ms98-a-0065	A.83	318.645125	318.855125		lot	lot
sw3068A-ms98-a-0065	A.83	318.855125	319.160875		of	of
sw3068A-ms98-a-0065	A.83	319.160875	319.405125		there's	there's
sw3068A-ms98-a-0065	A.83	319.405125	319.845125		difficult	difficult
sw3068A-ms98-a-0065	A.83	319.845125	320.295125		decisions	decisions
sw3068A-ms98-a-0065	A.83	320.295125	320.455125		there	there
sw3068A-ms98-a-0065	A.83	320.455125	320.795125		based	based
sw3068A-ms98-a-0065	A.83	320.795125	320.975125		on	on
sw3068A-ms98-a-0065	A.83	320.975125	321.375125		name	name
sw3068A-ms98-a-0065	A.83	321.375125	322.062125		recognition	recognition
sw3068A-ms98-a-0065	A.83	322.062125	322.563000		[silence]	[silence]
sw3068A-ms98-a-0065	A.83	322.563000	322.909250		Um	um
sw3068A-ms98-a-0065	A.83	322.909250	323.198125		[silence]	[silence]
sw3068A-ms98-a-0066	A.83	323.198125	323.554625		[silence]	[silence]
sw3068A-ms98-a-0066	A.83	323.554625	323.998875		[noise]	[noise]
sw3068A-ms98-a-0066	A.83	323.998875	324.048125		you	you
sw3068A-ms98-a-0066	A.83	324.048125	324.148125		know	know
sw3068A-ms98-a-0066	A.83	324.148125	324.268125		when	when
sw3068A-ms98-a-0066	A.83	324.268125	324.358125		I	i
sw3068A-ms98-a-0066	A.83	324.358125	324.748125		first	first
sw3068A-ms98-a-0066	A.83	324.748125	324.888125		was	was
sw3068A-ms98-a-0066	A.83	324.888125	325.198125		applying	applying
sw3068A-ms98-a-0066	A.83	325.198125	325.258125		for	for
sw3068A-ms98-a-0066	A.83	325.258125	325.518125		graduate	graduate
sw3068A-ms98-a-0066	A.83	325.518125	325.738125		schools	schools
sw3068A-ms98-a-0066	A.83	325.738125	325.858125		I	i
sw3068A-ms98-a-0066	A.83	325.858125	326.228125		applied	applied
sw3068A-ms98-a-0066	A.83	326.228125	326.318125		to	to
sw3068A-ms98-a-0066	A.83	326.318125	326.508125		some	some
sw3068A-ms98-a-0066	A.83	326.508125	326.728125		big	big
sw3068A-ms98-a-0066	A.83	326.728125	327.548125		programs	programs
sw3068A-ms98-a-0066	A.83	327.548125	327.648125		you	you
sw3068A-ms98-a-0066	A.83	327.648125	327.748125		know	know
sw3068A-ms98-a-0066	A.83	327.748125	327.918125		in	in
sw3068A-ms98-a-0066	A.83	327.918125	328.118125		this	this
sw3068A-ms98-a-0066	A.83	328.118125	328.418125		area	area
sw3068A-ms98-a-0066	A.83	328.418125	328.718125		like	like
sw3068A-ms98-a-0066	A.83	328.718125	329.298125		Stevens	Stevens
sw3068A-ms98-a-0066	A.83	329.298125	329.898125		Institute	Institute
sw3068A-ms98-a-0066	A.83	329.898125	329.988125		of	of
sw3068A-ms98-a-0066	A.83	329.988125	330.761750		Technology	Technology
sw3068A-ms98-a-0066	A.83	330.761750	331.145875		[silence]	[silence]
sw3068A-ms98-a-0066	A.83	331.145875	331.378125		which	which
sw3068A-ms98-a-0066	A.83	331.378125	331.548125		is	is
sw3068A-ms98-a-0066	A.83	331.548125	332.278125		recognized	recognized
sw3068A-ms98-a-0066	A.83	332.278125	332.418125		in	in
sw3068A-ms98-a-0066	A.83	332.418125	332.488125		the	the
sw3068A-ms98-a-0066	A.83	332.488125	333.118125		Northeast	Northeast
sw3068A-ms98-a-0066	A.83	333.118125	333.342250		as	as
sw3068A-ms98-a-0066	A.83	333.342250	333.788750		as	as
sw3068A-ms98-a-0066	A.83	333.788750	333.802375		[silence]	[silence]
sw3068A-ms98-a-0067	A.83	333.802375	334.014750		[silence]	[silence]
sw3068A-ms98-a-0067	A.83	334.014750	334.112375		you	you
sw3068A-ms98-a-0067	A.83	334.112375	334.401500		know	know
sw3068A-ms98-a-0067	A.83	334.401500	334.529250		[silence]	[silence]
sw3068A-ms98-a-0067	A.83	334.529250	334.762375		one	one
sw3068A-ms98-a-0067	A.83	334.762375	335.042375		step	step
sw3068A-ms98-a-0067	A.83	335.042375	335.282375		below	below
sw3068A-ms98-a-0067	A.83	335.282375	336.075375	<CONT>	M	MIT
sw3068A-ms98-a-0067	A.83	336.075375	336.075375	<CONT>	I	+++
sw3068A-ms98-a-0067	A.83	336.075375	336.075375	<CONT>	T	+++
sw3068A-ms98-a-0067	A.83	336.075375	336.218500		[silence]	[silence]
sw3068A-ms98-a-0067	A.83	336.218500	336.332375		in	in
sw3068A-ms98-a-0067	A.83	336.332375	336.372375		a	a
sw3068A-ms98-a-0067	A.83	336.372375	336.642375	<SUB>	sense	since
sw3068A-ms98-a-0067	A.85	336.642375	336.702375		you	you
sw3068A-ms98-a-0067	A.85	336.702375	336.762375		know	know
sw3068A-ms98-a-0067	A.85	336.762375	336.882375		so	so
sw3068A-ms98-a-0067	A.85	336.882375	336.992375		it's	it's
sw3068A-ms98-a-0067	A.85	336.992375	337.212375		got	got
sw3068A-ms98-a-0067	A.85	337.212375	337.462375		big	big
sw3068A-ms98-a-0067	A.85	337.462375	337.712375		name	name
sw3068A-ms98-a-0067	A.85	337.712375	338.272375		recognition	recognition
sw3068A-ms98-a-0067	A.85	338.272375	338.382375		in	in
sw3068A-ms98-a-0067	A.85	338.382375	338.532375		this	this
sw3068A-ms98-a-0067	A.85	338.532375	338.748750		area	area
sw3068A-ms98-a-0067	A.85	338.748750	338.940875		[silence]	[silence]
sw3068A-ms98-a-0067	A.85	338.940875	339.022375		a	a
sw3068A-ms98-a-0067	A.85	339.022375	339.222375		big	big
sw3068A-ms98-a-0067	A.85	339.222375	339.792375		science	science
sw3068A-ms98-a-0067	A.85	339.792375	340.234250		school	school
sw3068A-ms98-a-0067	A.85	340.234250	340.452375		no	no
sw3068A-ms98-a-0067	A.85	340.452375	340.812375		football	football
sw3068A-ms98-a-0067	A.85	340.812375	341.154000		team	team
sw3068A-ms98-a-0067	A.85	341.154000	341.346125		[silence]	[silence]
sw3068A-ms98-a-0067	A.85	341.346125	341.432375		but	but
sw3068A-ms98-a-0067	A.85	341.432375	341.462375		a	a
sw3068A-ms98-a-0067	A.85	341.462375	341.622375		big	big
sw3068A-ms98-a-0067	A.85	341.622375	341.974500		science	science
sw3068A-ms98-a-0067	A.85	341.974500	342.288500		school	school
sw3068A-ms98-a-0067	A.87	342.288500	342.751750		[silence]	[silence]
sw3068A-ms98-a-0067	A.87	342.751750	343.052375		and	and
sw3068A-ms98-a-0067	A.87	343.052375	343.492375		technical	technical
sw3068A-ms98-a-0067	A.87	343.492375	343.812375		people	people
sw3068A-ms98-a-0067	A.87	343.812375	344.069250		know	know
sw3068A-ms98-a-0067	A.87	344.069250	344.372875		that	that
sw3068A-ms98-a-0067	A.87	344.372875	344.521250		[silence]	[silence]
sw3068A-ms98-a-0068	A.87	344.521250	344.762625		[silence]	[silence]
sw3068A-ms98-a-0068	A.87	344.762625	345.031250		But	but
sw3068A-ms98-a-0068	A.87	345.031250	345.101250		I	i
sw3068A-ms98-a-0068	A.87	345.101250	345.371250	<SUB>	don-	don't
sw3068A-ms98-a-0068	A.87	345.371250	345.511250		yeah	yeah
sw3068A-ms98-a-0068	A.87	345.511250	345.621250		I	i
sw3068A-ms98-a-0068	A.87	345.621250	345.871250		think	think
sw3068A-ms98-a-0068	A.87	345.871250	345.981250		you're	you're
sw3068A-ms98-a-0068	A.87	345.981250	346.181250		right	right
sw3068A-ms98-a-0068	A.87	346.181250	346.481250		you	you
sw3068A-ms98-a-0068	A.87	346.481250	346.651250		really	really
sw3068A-ms98-a-0068	A.87	346.651250	346.751250		have	have
sw3068A-ms98-a-0068	A.87	346.751250	346.861250		to	to
sw3068A-ms98-a-0068	A.87	346.861250	347.101250		think	think
sw3068A-ms98-a-0068	A.87	347.101250	347.371250		about	about
sw3068A-ms98-a-0068	A.87	347.371250	347.541250		that	that
sw3068A-ms98-a-0068	A.87	347.541250	347.801250		for	for
sw3068A-ms98-a-0068	A.87	347.801250	347.901250		the	the
sw3068A-ms98-a-0068	A.87	347.901250	348.223125		job	job
sw3068A-ms98-a-0068	A.87	348.223125	348.331250		I	i
sw3068A-ms98-a-0068	A.87	348.331250	348.521250		went	went
sw3068A-ms98-a-0068	A.87	348.521250	348.621250		to	to
sw3068A-ms98-a-0068	A.87	348.621250	348.671250		a	a
sw3068A-ms98-a-0068	A.87	348.671250	348.921250		very	very
sw3068A-ms98-a-0068	A.87	348.921250	349.311250		small	small
sw3068A-ms98-a-0068	A.87	349.311250	349.721250		state	state
sw3068A-ms98-a-0068	A.87	349.721250	350.161250		college	college
sw3068A-ms98-a-0068	A.87	350.161250	350.311250		when	when
sw3068A-ms98-a-0068	A.87	350.311250	350.371250		I	i
sw3068A-ms98-a-0068	A.87	350.371250	350.571250		got	got
sw3068A-ms98-a-0068	A.87	350.571250	350.741250		my	my
sw3068A-ms98-a-0068	A.87	350.741250	351.442500		bachelor's	bachelor's
sw3068A-ms98-a-0068	A.87	351.442500	351.750750		[silence]	[silence]
sw3068A-ms98-a-0069	A.87	351.750750	352.110750		[silence]	[silence]
sw3068A-ms98-a-0069	A.87	352.110750	352.500750		and	and
sw3068A-ms98-a-0069	A.87	352.500750	352.660750		when	when
sw3068A-ms98-a-0069	A.87	352.660750	353.106125		I	i
sw3068A-ms98-a-0069	A.87	353.106125	353.396125		[silence]	[silence]
sw3068A-ms98-a-0069	A.87	353.396125	353.530750		now	now
sw3068A-ms98-a-0069	A.87	353.530750	353.660750		I	i
sw3068A-ms98-a-0069	A.87	353.660750	353.830750		was	was
sw3068A-ms98-a-0069	A.87	353.830750	353.920750		in	in
sw3068A-ms98-a-0069	A.87	353.920750	354.580750		education	education
sw3068A-ms98-a-0069	A.87	354.580750	354.650750		at	at
sw3068A-ms98-a-0069	A.87	354.650750	355.030750		first	first
sw3068A-ms98-a-0069	A.87	355.030750	355.130750		when	when
sw3068A-ms98-a-0069	A.87	355.130750	355.160750		I	i
sw3068A-ms98-a-0069	A.87	355.160750	355.280750		was	was
sw3068A-ms98-a-0069	A.87	355.280750	355.470750		looking	looking
sw3068A-ms98-a-0069	A.87	355.470750	355.630750		for	for
sw3068A-ms98-a-0069	A.87	355.630750	356.071625		jobs	jobs
sw3068A-ms98-a-0069	A.87	356.071625	356.323875		[silence]	[silence]
sw3068A-ms98-a-0069	A.87	356.323875	356.410750		I	i
sw3068A-ms98-a-0069	A.87	356.410750	356.540750		was	was
sw3068A-ms98-a-0069	A.87	356.540750	356.710750		going	going
sw3068A-ms98-a-0069	A.87	356.710750	356.780750		to	to
sw3068A-ms98-a-0069	A.87	356.780750	356.880750		be	be
sw3068A-ms98-a-0069	A.87	356.880750	356.910750		a	a
sw3068A-ms98-a-0069	A.87	356.910750	357.340750		teacher	teacher
sw3068A-ms98-a-0069	A.87	357.340750	357.370750		I	i
sw3068A-ms98-a-0069	A.87	357.370750	357.520750		was	was
sw3068A-ms98-a-0069	A.87	357.520750	357.720750		just	just
sw3068A-ms98-a-0069	A.87	357.720750	357.750750		a	a
sw3068A-ms98-a-0069	A.87	357.750750	357.890750		high	high
sw3068A-ms98-a-0069	A.87	357.890750	358.120750		school	school
sw3068A-ms98-a-0069	A.87	358.120750	358.490750		teacher	teacher
sw3068A-ms98-a-0069	A.87	358.490750	358.817000		so	so
sw3068A-ms98-a-0069	A.87	358.817000	359.010500		[silence]	[silence]
sw3068A-ms98-a-0070	A.87	359.010500	359.252000		[silence]	[silence]
sw3068A-ms98-a-0070	A.87	359.252000	359.550500		most	most
sw3068A-ms98-a-0070	A.87	359.550500	359.870500		people	people
sw3068A-ms98-a-0070	A.87	359.870500	360.540500		recognized	recognized
sw3068A-ms98-a-0070	A.87	360.540500	360.710500		that	that
sw3068A-ms98-a-0070	A.87	360.710500	361.440500		institution	institution
sw3068A-ms98-a-0070	A.87	361.440500	361.870500		because	because
sw3068A-ms98-a-0070	A.87	361.870500	361.940500		it	it
sw3068A-ms98-a-0070	A.87	361.940500	362.050500		was	was
sw3068A-ms98-a-0070	A.87	362.050500	362.120500		a	a
sw3068A-ms98-a-0070	A.87	362.120500	362.630500		teaching	teaching
sw3068A-ms98-a-0070	A.87	362.630500	363.040500		school	school
sw3068A-ms98-a-0070	A.87	363.040500	363.320500		sort	sort
sw3068A-ms98-a-0070	A.87	363.320500	363.563750		of	of
sw3068A-ms98-a-0070	A.89	363.563750	363.654125		[silence]	[silence]
sw3068A-ms98-a-0070	A.89	363.654125	363.720500		you	you
sw3068A-ms98-a-0070	A.89	363.720500	363.911375		know	know
sw3068A-ms98-a-0070	A.89	363.911375	364.476250		[silence]	[silence]
sw3068A-ms98-a-0070	A.89	364.476250	364.600500		but	but
sw3068A-ms98-a-0070	A.89	364.600500	364.730500		then	then
sw3068A-ms98-a-0070	A.89	364.730500	364.840500		when	when
sw3068A-ms98-a-0070	A.89	364.840500	364.930500		I	i
sw3068A-ms98-a-0070	A.89	364.930500	365.258125		went	went
sw3068A-ms98-a-0070	A.89	365.258125	365.404375		[silence]	[silence]
sw3068A-ms98-a-0070	A.89	365.404375	365.736625		um	um
sw3068A-ms98-a-0070	A.89	365.736625	366.010625		[noise]	[noise]
sw3068A-ms98-a-0070	A.89	366.010625	366.024750		[silence]	[silence]
sw3068A-ms98-a-0071	A.89	366.024750	366.182625		[silence]	[silence]
sw3068A-ms98-a-0071	A.89	366.182625	366.364750		for	for
sw3068A-ms98-a-0071	A.89	366.364750	366.804750		graduate	graduate
sw3068A-ms98-a-0071	A.89	366.804750	367.298875		work	work
sw3068A-ms98-a-0071	A.89	367.298875	367.536250		[silence]	[silence]
sw3068A-ms98-a-0071	A.89	367.536250	367.634750		you	you
sw3068A-ms98-a-0071	A.89	367.634750	367.734750		know	know
sw3068A-ms98-a-0071	A.89	367.734750	367.874750		or	or
sw3068A-ms98-a-0071	A.89	367.874750	368.064750		for	for
sw3068A-ms98-a-0071	A.89	368.064750	368.114750		a	a
sw3068A-ms98-a-0071	A.89	368.114750	368.324750		new	new
sw3068A-ms98-a-0071	A.89	368.324750	368.804750		job	job
sw3068A-ms98-a-0071	A.89	368.804750	369.064750		people	people
sw3068A-ms98-a-0071	A.89	369.064750	369.254750		said	said
sw3068A-ms98-a-0071	A.89	369.254750	369.314750		to	to
sw3068A-ms98-a-0071	A.89	369.314750	369.509500		me	me
sw3068A-ms98-a-0071	A.89	369.509500	369.950250		[silence]	[silence]
sw3068A-ms98-a-0071	A.89	369.950250	370.044750		you	you
sw3068A-ms98-a-0071	A.89	370.044750	370.134750		know	know
sw3068A-ms98-a-0071	A.89	370.134750	371.054750		Shippensburg	Shippensburg
sw3068A-ms98-a-0071	A.89	371.054750	371.654750		State	State
sw3068A-ms98-a-0071	A.89	371.654750	371.894750		where	where
sw3068A-ms98-a-0071	A.89	371.894750	372.014750		is	is
sw3068A-ms98-a-0071	A.89	372.014750	372.562625		that	that
sw3068A-ms98-a-0071	A.89	372.562625	372.784875		[silence]	[silence]
sw3068A-ms98-a-0071	A.89	372.784875	372.854750		you	you
sw3068A-ms98-a-0071	A.89	372.854750	373.501375		know	[laughter-know]
sw3068A-ms98-a-0071	A.91	373.501375	373.794750		And	and
sw3068A-ms98-a-0071	A.91	373.794750	373.914750		you	you
sw3068A-ms98-a-0071	A.91	373.914750	373.974750		know	know
sw3068A-ms98-a-0071	A.91	373.974750	374.064750		when	when
sw3068A-ms98-a-0071	A.91	374.064750	374.104750		I	i
sw3068A-ms98-a-0071	A.91	374.104750	374.304750		went	went
sw3068A-ms98-a-0071	A.91	374.304750	374.464750		into	into
sw3068A-ms98-a-0071	A.91	374.464750	374.664750		higher	higher
sw3068A-ms98-a-0071	A.91	374.664750	375.234750		education	education
sw3068A-ms98-a-0071	A.91	375.234750	375.454750		even	even
sw3068A-ms98-a-0071	A.91	375.454750	375.514750		at	at
sw3068A-ms98-a-0071	A.91	375.514750	375.724750		other	other
sw3068A-ms98-a-0071	A.91	375.724750	376.464750		universities	universities
sw3068A-ms98-a-0071	A.91	376.464750	376.584750		they	they
sw3068A-ms98-a-0071	A.91	376.584750	376.794750		weren't	weren't
sw3068A-ms98-a-0071	A.91	376.794750	377.034750		aware	aware
sw3068A-ms98-a-0071	A.91	377.034750	377.154750		of	of
sw3068A-ms98-a-0071	A.91	377.154750	377.403125		it	it
sw3068A-ms98-a-0071	A.91	377.403125	377.836250		[silence]	[silence]
sw3068A-ms98-a-0071	A.91	377.836250	377.934750		you	you
sw3068A-ms98-a-0071	A.91	377.934750	378.138000		know	know
sw3068A-ms98-a-0071	A.93	378.138000	378.159625		[silence]	[silence]
sw3068A-ms98-a-0072	A.93	378.159625	378.467125		[silence]	[silence]
sw3068A-ms98-a-0072	A.93	378.467125	378.599625		So	so
sw3068A-ms98-a-0072	A.93	378.599625	378.669625		I	i
sw3068A-ms98-a-0072	A.93	378.669625	378.899625		think	think
sw3068A-ms98-a-0072	A.93	378.899625	379.109625		yeah	yeah
sw3068A-ms98-a-0072	A.93	379.109625	379.309625		that's	that's
sw3068A-ms98-a-0072	A.93	379.309625	379.881375		important	important
sw3068A-ms98-a-0072	A.93	379.881375	380.311500		um	um
sw3068A-ms98-a-0072	A.93	380.311500	380.884000		[noise]	[noise]
sw3068A-ms98-a-0072	A.93	380.884000	380.969625		I	i
sw3068A-ms98-a-0072	A.93	380.969625	381.089625		think	think
sw3068A-ms98-a-0072	A.93	381.089625	381.159625		it	it
sw3068A-ms98-a-0072	A.93	381.159625	381.429625		depends	depends
sw3068A-ms98-a-0072	A.93	381.429625	381.509625		on	on
sw3068A-ms98-a-0072	A.93	381.509625	381.649625		if	if
sw3068A-ms98-a-0072	A.93	381.649625	381.769625		you	you
sw3068A-ms98-a-0072	A.93	381.769625	381.979625		want	want
sw3068A-ms98-a-0072	A.93	381.979625	382.049625		to	to
sw3068A-ms98-a-0072	A.93	382.049625	382.269625		be	be
sw3068A-ms98-a-0072	A.93	382.269625	382.489625		a	a
sw3068A-ms98-a-0072	A.93	382.489625	382.609625		if	if
sw3068A-ms98-a-0072	A.93	382.609625	382.689625		you	you
sw3068A-ms98-a-0072	A.93	382.689625	382.859625		want	want
sw3068A-ms98-a-0072	A.93	382.859625	382.909625		a	a
sw3068A-ms98-a-0072	A.93	382.909625	383.389625		regional	regional
sw3068A-ms98-a-0072	A.93	383.389625	383.869625		job	job
sw3068A-ms98-a-0072	A.93	383.869625	383.989625		or	or
sw3068A-ms98-a-0072	A.93	383.989625	384.039625		a	a
sw3068A-ms98-a-0072	A.93	384.039625	384.549625		national	national
sw3068A-ms98-a-0072	A.93	384.549625	385.053250		job	job
sw3068A-ms98-a-0072	A.93	385.053250	385.509000		[silence]	[silence]
sw3068A-ms98-a-0072	A.93	385.509000	385.699625		you	you
sw3068A-ms98-a-0072	A.93	385.699625	385.789625		need	need
sw3068A-ms98-a-0072	A.93	385.789625	385.909625		that	that
sw3068A-ms98-a-0072	A.93	385.909625	386.288500		first	first
sw3068A-ms98-a-0072	A.95	386.288500	386.480625		[silence]	[silence]
sw3068A-ms98-a-0072	A.95	386.480625	386.789625		job	job
sw3068A-ms98-a-0072	A.95	386.789625	386.849625		or	or
sw3068A-ms98-a-0072	A.95	386.849625	387.119625		so	so
sw3068A-ms98-a-0072	A.95	387.119625	387.209625		out	out
sw3068A-ms98-a-0072	A.95	387.209625	387.279625		of	of
sw3068A-ms98-a-0072	A.95	387.279625	387.559625		school	school
sw3068A-ms98-a-0072	A.95	387.559625	387.926375		too	too
sw3068A-ms98-a-0072	A.97	387.926375	388.586750		[silence]	[silence]
sw3068A-ms98-a-0073	A.97	388.586750	410.406625		[silence]	[silence]
sw3068A-ms98-a-0074	A.97	410.406625	410.868125		[silence]	[silence]
sw3068A-ms98-a-0074	A.97	410.868125	411.254750	<SUB>	Uh-huh	um-hum
sw3068A-ms98-a-0074	A.97	411.254750	411.432750		[silence]	[silence]
sw3068A-ms98-a-0074	A.97	411.432750	411.723125		yeah	yeah
sw3068A-ms98-a-0074	A.99	411.723125	412.203875		[silence]	[silence]
sw3068A-ms98-a-0075	A.99	412.203875	419.430375		[silence]	[silence]
sw3068A-ms98-a-0076	A.99	419.430375	420.120375		[silence]	[silence]
sw3068A-ms98-a-0076	A.99	420.120375	420.414000		Right	right
sw3068A-ms98-a-0076	A.101	420.414000	420.869375		[silence]	[silence]
sw3068A-ms98-a-0077	A.101	420.869375	429.501625		[silence]	[silence]
sw3068A-ms98-a-0078	A.101	429.501625	429.866250		[silence]	[silence]
sw3068A-ms98-a-0078	A.101	429.866250	430.177250	<SUB>	Uh-huh	um-hum
sw3068A-ms98-a-0078	A.103	430.177250	430.792000		[silence]	[silence]
sw3068A-ms98-a-0079	A.103	430.792000	431.422375		[silence]	[silence]
sw3068A-ms98-a-0079	A.103	431.422375	431.642250		Right	right
sw3068A-ms98-a-0079	A.105	431.642250	432.055125		[silence]	[silence]
sw3068A-ms98-a-0080	A.105	432.055125	433.203375		[silence]	[silence]
sw3068A-ms98-a-0081	A.105	433.203375	433.403375		[silence]	[silence]
sw3068A-ms98-a-0081	A.105	433.403375	433.593375		Yeah	yeah
sw3068A-ms98-a-0081	A.105	433.593375	434.033375		depending	depending
sw3068A-ms98-a-0081	A.105	434.033375	434.163375		on	on
sw3068A-ms98-a-0081	A.105	434.163375	434.253375		your	your
sw3068A-ms98-a-0081	A.105	434.253375	434.763375		technical	technical
sw3068A-ms98-a-0081	A.105	434.763375	435.285625		areas	areas
sw3068A-ms98-a-0081	A.105	435.285625	435.553375		Yeah	yeah
sw3068A-ms98-a-0081	A.107	435.553375	435.653375		I	i
sw3068A-ms98-a-0081	A.107	435.653375	435.823375		could	could
sw3068A-ms98-a-0081	A.107	435.823375	436.033375		see	see
sw3068A-ms98-a-0081	A.107	436.033375	436.334750		that	that
sw3068A-ms98-a-0081	A.107	436.334750	436.639875		[silence]	[silence]
sw3068A-ms98-a-0081	A.107	436.639875	436.763375		But	but
sw3068A-ms98-a-0081	A.107	436.763375	436.823375		you	you
sw3068A-ms98-a-0081	A.107	436.823375	436.903375		know	know
sw3068A-ms98-a-0081	A.107	436.903375	437.013375		at	at
sw3068A-ms98-a-0081	A.107	437.013375	437.153375		some	some
sw3068A-ms98-a-0081	A.107	437.153375	437.213375		of	of
sw3068A-ms98-a-0081	A.107	437.213375	437.273375		the	the
sw3068A-ms98-a-0081	A.107	437.273375	437.643375		large	large
sw3068A-ms98-a-0081	A.107	437.643375	438.103375		schools	schools
sw3068A-ms98-a-0081	A.107	438.103375	438.213375		I	i
sw3068A-ms98-a-0081	A.107	438.213375	438.373375		know	know
sw3068A-ms98-a-0081	A.107	438.373375	438.513375		that	that
sw3068A-ms98-a-0081	A.107	438.513375	438.683375		at	at
sw3068A-ms98-a-0081	A.107	438.683375	438.893375		at	at
sw3068A-ms98-a-0081	A.107	438.893375	439.073375		at	at
sw3068A-ms98-a-0081	A.107	439.073375	439.453375		University	University
sw3068A-ms98-a-0081	A.107	439.453375	439.513375		of	of
sw3068A-ms98-a-0081	A.107	439.513375	439.783375		Maryland	Maryland
sw3068A-ms98-a-0081	A.107	439.783375	439.903375		where	where
sw3068A-ms98-a-0081	A.107	439.903375	439.993375		I	i
sw3068A-ms98-a-0081	A.107	439.993375	440.220875		am	am
sw3068A-ms98-a-0081	A.107	440.220875	440.552250		[silence]	[silence]
sw3068A-ms98-a-0081	A.107	440.552250	440.623375		you	you
sw3068A-ms98-a-0081	A.107	440.623375	440.868625		know	know
sw3068A-ms98-a-0081	A.107	440.868625	441.068250		[silence]	[silence]
sw3068A-ms98-a-0081	A.107	441.068250	441.183375		in	in
sw3068A-ms98-a-0081	A.107	441.183375	441.233375		a	a
sw3068A-ms98-a-0081	A.107	441.233375	441.673375	<CONT>	P	PhD
sw3068A-ms98-a-0081	A.107	441.673375	441.673375	<CONT>	H	+++
sw3068A-ms98-a-0081	A.107	441.673375	441.673375	<CONT>	D	+++
sw3068A-ms98-a-0081	A.107	441.673375	442.177500		program	program
sw3068A-ms98-a-0081	A.107	442.177500	442.588000		[silence]	[silence]
sw3068A-ms98-a-0081	A.107	442.588000	443.037625	<SUB>	I	i-
sw3068A-ms98-a-0081	A.107	443.037625	443.195875		I	i
sw3068A-ms98-a-0081	A.107	443.195875	443.483375		haven't	haven't
sw3068A-ms98-a-0081	A.107	443.483375	443.723375		even	even
sw3068A-ms98-a-0081	A.107	443.723375	444.196250		met	met
sw3068A-ms98-a-0081	A.107	444.196250	444.478750		[silence]	[silence]
sw3068A-ms98-a-0081	A.107	444.478750	444.713375		uh	uh
sw3068A-ms98-a-0081	A.107	444.713375	445.240250		someone	someone
sw3068A-ms98-a-0081	A.107	445.240250	445.983375		outside	outside
sw3068A-ms98-a-0081	A.107	445.983375	446.418000		of	of
sw3068A-ms98-a-0081	A.107	446.418000	446.644750		[silence]	[silence]
sw3068A-ms98-a-0082	A.107	446.644750	446.939750		[silence]	[silence]
sw3068A-ms98-a-0082	A.107	446.939750	447.543250		my	my
sw3068A-ms98-a-0082	A.107	447.543250	447.914750		area	area
sw3068A-ms98-a-0082	A.107	447.914750	448.014750		of	of
sw3068A-ms98-a-0082	A.107	448.014750	448.564750		information	information
sw3068A-ms98-a-0082	A.107	448.564750	449.221500		systems	systems
sw3068A-ms98-a-0082	A.107	449.221500	449.499125		[silence]	[silence]
sw3068A-ms98-a-0082	A.107	449.499125	449.894750		except	except
sw3068A-ms98-a-0082	A.107	449.894750	450.117875		for	for
sw3068A-ms98-a-0082	A.107	450.117875	450.132000		[silence]	[silence]
