sw3029A-ms98-a-0001	A.1	0.000000	0.370000		[silence]	[silence]
sw3029A-ms98-a-0001	A.1	0.370000	1.060000		Okay	okay
sw3029A-ms98-a-0001	A.1	1.060000	1.230000		well	well
sw3029A-ms98-a-0001	A.1	1.230000	1.400000		I'll	i'll
sw3029A-ms98-a-0001	A.1	1.400000	1.700000		start	start
sw3029A-ms98-a-0001	A.1	1.700000	2.050000		off	off
sw3029A-ms98-a-0001	A.1	2.050000	2.300000		being	being
sw3029A-ms98-a-0001	A.1	2.300000	3.210000		controversial	controversial
sw3029A-ms98-a-0001	A.1	3.210000	3.330000		I'm	i'm
sw3029A-ms98-a-0001	A.1	3.330000	3.450000		in	in
sw3029A-ms98-a-0001	A.1	3.450000	3.850000		favor	favor
sw3029A-ms98-a-0001	A.1	3.850000	3.950000		of	of
sw3029A-ms98-a-0001	A.1	3.950000	4.120000		it	it
sw3029A-ms98-a-0001	A.3	4.120000	4.432250		[silence]	[silence]
sw3029A-ms98-a-0002	A.3	4.432250	6.266250		[silence]	[silence]
sw3029A-ms98-a-0003	A.3	6.266250	6.743000		[silence]	[silence]
sw3029A-ms98-a-0003	A.3	6.743000	7.446250		[laughter]	[laughter]
sw3029A-ms98-a-0003	A.3	7.446250	7.699500		Well	well
sw3029A-ms98-a-0003	A.3	7.699500	8.155250		[silence]	[silence]
sw3029A-ms98-a-0003	A.3	8.155250	8.361000		it	it
sw3029A-ms98-a-0003	A.3	8.361000	8.641375		seems	seems
sw3029A-ms98-a-0003	A.3	8.641375	8.737000		to	to
sw3029A-ms98-a-0003	A.3	8.737000	8.810250		be	be
sw3029A-ms98-a-0003	A.3	8.810250	9.056250		in	in
sw3029A-ms98-a-0003	A.3	9.056250	9.150125		the	the
sw3029A-ms98-a-0003	A.3	9.150125	9.566250		current	current
sw3029A-ms98-a-0003	A.3	9.566250	10.526250		situations	situations
sw3029A-ms98-a-0003	A.3	10.526250	10.846250		but	but
sw3029A-ms98-a-0003	A.3	10.846250	11.078375		uh	uh
sw3029A-ms98-a-0003	A.3	11.078375	11.560500		[silence]	[silence]
sw3029A-ms98-a-0003	A.3	11.560500	11.786250		I	i
sw3029A-ms98-a-0003	A.3	11.786250	12.246250		still	still
sw3029A-ms98-a-0003	A.3	12.246250	12.546250		feel	feel
sw3029A-ms98-a-0003	A.3	12.546250	12.646250		that	that
sw3029A-ms98-a-0003	A.3	12.646250	12.776250		it	it
sw3029A-ms98-a-0003	A.3	12.776250	13.036250		could	could
sw3029A-ms98-a-0003	A.3	13.036250	13.226250		be	be
sw3029A-ms98-a-0003	A.3	13.226250	13.286250		a	a
sw3029A-ms98-a-0003	A.3	13.286250	14.071750		deterrent	deterrent
sw3029A-ms98-a-0003	A.3	14.071750	14.236250		[silence]	[silence]
sw3029A-ms98-a-0003	A.3	14.236250	14.306250		to	to
sw3029A-ms98-a-0003	A.3	14.306250	14.756250		crime	crime
sw3029A-ms98-a-0003	A.3	14.756250	15.336250		[silence]	[silence]
sw3029A-ms98-a-0003	A.3	15.336250	15.786250		Particularly	particularly
sw3029A-ms98-a-0003	A.3	15.786250	15.876250		with	with
sw3029A-ms98-a-0003	A.3	15.876250	15.946250		the	the
sw3029A-ms98-a-0003	A.3	15.946250	16.726250		increase	increase
sw3029A-ms98-a-0003	A.3	16.726250	16.806250		of	of
sw3029A-ms98-a-0003	A.3	16.806250	17.286250		serious	serious
sw3029A-ms98-a-0003	A.3	17.286250	17.676250		crime	crime
sw3029A-ms98-a-0003	A.3	17.676250	17.826250		that's	that's
sw3029A-ms98-a-0003	A.3	17.826250	18.146250		going	going
sw3029A-ms98-a-0003	A.3	18.146250	18.326250		on	on
sw3029A-ms98-a-0003	A.3	18.326250	18.666250		now	now
sw3029A-ms98-a-0003	A.5	18.666250	19.150250		[silence]	[silence]
sw3029A-ms98-a-0004	A.5	19.150250	29.595125		[silence]	[silence]
sw3029A-ms98-a-0005	A.5	29.595125	30.005125		[silence]	[silence]
sw3029A-ms98-a-0005	A.5	30.005125	30.325125		Okay	okay
sw3029A-ms98-a-0005	A.7	30.325125	30.775125		[silence]	[silence]
sw3029A-ms98-a-0006	A.7	30.775125	36.134625		[silence]	[silence]
sw3029A-ms98-a-0007	A.7	36.134625	36.760750		[silence]	[silence]
sw3029A-ms98-a-0007	A.7	36.760750	36.962000		Yeah	yeah
sw3029A-ms98-a-0007	A.7	36.962000	37.376250		[silence]	[silence]
sw3029A-ms98-a-0007	A.7	37.376250	37.558125		I	i
sw3029A-ms98-a-0007	A.7	37.558125	37.780375		think	think
sw3029A-ms98-a-0007	A.7	37.780375	38.074625	<SUB>	uh	that
sw3029A-ms98-a-0007	A.9	38.074625	38.913125		[silence]	[silence]
sw3029A-ms98-a-0008	A.9	38.913125	39.733125		[silence]	[silence]
sw3029A-ms98-a-0008	A.9	39.733125	39.913125		Oh	oh
sw3029A-ms98-a-0008	A.9	39.913125	40.613125		definitely	definitely
sw3029A-ms98-a-0008	A.9	40.613125	40.903125		Any	any
sw3029A-ms98-a-0008	A.9	40.903125	41.123125		any	any
sw3029A-ms98-a-0008	A.9	41.123125	41.593125		crimes	crimes
sw3029A-ms98-a-0008	A.9	41.593125	42.003125		against	against
sw3029A-ms98-a-0008	A.9	42.003125	42.563125		person	person
sw3029A-ms98-a-0008	A.11	42.563125	42.768250		[silence]	[silence]
sw3029A-ms98-a-0009	A.11	42.768250	43.131250		[silence]	[silence]
sw3029A-ms98-a-0009	A.11	43.131250	43.358250		uh	uh
sw3029A-ms98-a-0009	A.11	43.358250	43.611750		I	i
sw3029A-ms98-a-0009	A.11	43.611750	44.026000		feel	feel
sw3029A-ms98-a-0009	A.11	44.026000	44.462125		uh	uh
sw3029A-ms98-a-0009	A.11	44.462125	45.175375		[silence]	[silence]
sw3029A-ms98-a-0009	A.11	45.175375	45.412875		there	there
sw3029A-ms98-a-0009	A.11	45.412875	45.854125		should	should
sw3029A-ms98-a-0009	A.11	45.854125	46.373500		be	be
sw3029A-ms98-a-0009	A.11	46.373500	46.828250		[silence]	[silence]
sw3029A-ms98-a-0009	A.11	46.828250	47.168250		more	more
sw3029A-ms98-a-0009	A.11	47.168250	47.486000		than	than
sw3029A-ms98-a-0009	A.11	47.486000	47.561250		a	a
sw3029A-ms98-a-0009	A.11	47.561250	48.018250		slap	slap
sw3029A-ms98-a-0009	A.11	48.018250	48.168250		on	on
sw3029A-ms98-a-0009	A.11	48.168250	48.258250		the	the
sw3029A-ms98-a-0009	A.11	48.258250	48.858250		hand	hand
sw3029A-ms98-a-0009	A.13	48.858250	49.118250		and	and
sw3029A-ms98-a-0009	A.13	49.118250	49.328250		being	being
sw3029A-ms98-a-0009	A.13	49.328250	49.728250		sent	sent
sw3029A-ms98-a-0009	A.13	49.728250	49.808250		to	to
sw3029A-ms98-a-0009	A.13	49.808250	50.198250		prison	prison
sw3029A-ms98-a-0009	A.13	50.198250	50.358250		and	and
sw3029A-ms98-a-0009	A.13	50.358250	50.628250		being	being
sw3029A-ms98-a-0009	A.13	50.628250	51.188250		released	released
sw3029A-ms98-a-0009	A.13	51.188250	51.488250		in	in
sw3029A-ms98-a-0009	A.13	51.488250	51.778250		uh	uh
sw3029A-ms98-a-0009	A.13	51.778250	51.958250		two	two
sw3029A-ms98-a-0009	A.13	51.958250	52.048250		or	or
sw3029A-ms98-a-0009	A.13	52.048250	52.328250		three	three
sw3029A-ms98-a-0009	A.13	52.328250	52.868250		years	years
sw3029A-ms98-a-0009	A.15	52.868250	53.290125		[silence]	[silence]
sw3029A-ms98-a-0010	A.15	53.290125	62.820000		[silence]	[silence]
sw3029A-ms98-a-0011	A.15	62.820000	63.310000		[silence]	[silence]
sw3029A-ms98-a-0011	A.15	63.310000	63.730000	<SUB>	Oh	ooh
sw3029A-ms98-a-0011	A.15	63.730000	64.070000	<SUB>	yeah	yes
sw3029A-ms98-a-0011	A.15	64.070000	64.310000		That's	that's
sw3029A-ms98-a-0011	A.15	64.310000	64.441000	<SUB>	a	y[eah]-
sw3029A-ms98-a-0011	A.17	64.441000	64.922500		[silence]	[silence]
sw3029A-ms98-a-0012	A.17	64.922500	68.385500		[silence]	[silence]
sw3029A-ms98-a-0013	A.17	68.385500	68.902250		[silence]	[silence]
sw3029A-ms98-a-0013	A.17	68.902250	69.074500		I	i
sw3029A-ms98-a-0013	A.17	69.074500	69.255500		don't	don't
sw3029A-ms98-a-0013	A.17	69.255500	69.443875		see	see
sw3029A-ms98-a-0013	A.17	69.443875	69.535500		a	a
sw3029A-ms98-a-0013	A.17	69.535500	69.805500		thing	thing
sw3029A-ms98-a-0013	A.17	69.805500	70.021875		wrong	wrong
sw3029A-ms98-a-0013	A.17	70.021875	70.180125		with	with
sw3029A-ms98-a-0013	A.17	70.180125	70.375500		that	that
sw3029A-ms98-a-0013	A.19	70.375500	70.522750		I	i
sw3029A-ms98-a-0013	A.19	70.522750	70.925750		believe	believe
sw3029A-ms98-a-0013	A.19	70.925750	71.085500		that	that
sw3029A-ms98-a-0013	A.19	71.085500	71.375500		uh	uh
sw3029A-ms98-a-0013	A.21	71.375500	71.761500		[silence]	[silence]
sw3029A-ms98-a-0014	A.21	71.761500	72.231500		[silence]	[silence]
sw3029A-ms98-a-0014	A.21	72.231500	72.371500		Well	well
sw3029A-ms98-a-0014	A.21	72.371500	72.621500		it's	it's
sw3029A-ms98-a-0014	A.21	72.621500	72.871500		just	just
sw3029A-ms98-a-0014	A.21	72.871500	73.021500		an	an
sw3029A-ms98-a-0014	A.21	73.021500	73.141500		an	an
sw3029A-ms98-a-0014	A.21	73.141500	73.941500		example	example
sw3029A-ms98-a-0014	A.21	73.941500	74.031500		I	i
sw3029A-ms98-a-0014	A.21	74.031500	74.321500		think	think
sw3029A-ms98-a-0014	A.21	74.321500	74.621500		there's	there's
sw3029A-ms98-a-0014	A.21	74.621500	74.991500		uh	uh
sw3029A-ms98-a-0014	A.21	74.991500	75.351500		someone	someone
sw3029A-ms98-a-0014	A.21	75.351500	75.521500		that's	that's
sw3029A-ms98-a-0014	A.21	75.521500	75.711500		on	on
sw3029A-ms98-a-0014	A.21	75.711500	76.356750		trial	trial
sw3029A-ms98-a-0014	A.21	76.356750	76.641500		[silence]	[silence]
sw3029A-ms98-a-0014	A.21	76.641500	77.001500		right	right
sw3029A-ms98-a-0014	A.21	77.001500	77.501500		now	now
sw3029A-ms98-a-0014	A.23	77.501500	77.943500		[silence]	[silence]
sw3029A-ms98-a-0015	A.23	77.943500	78.223500		[silence]	[silence]
sw3029A-ms98-a-0015	A.23	78.223500	78.633500		here	here
sw3029A-ms98-a-0015	A.23	78.633500	78.913500		in	in
sw3029A-ms98-a-0015	A.23	78.913500	78.983500		the	the
sw3029A-ms98-a-0015	A.23	78.983500	79.514750		Dallas	Dallas
sw3029A-ms98-a-0015	A.23	79.514750	80.294375		area	area
sw3029A-ms98-a-0015	A.23	80.294375	80.523500		and	and
sw3029A-ms98-a-0015	A.23	80.523500	80.613500		they	they
sw3029A-ms98-a-0015	A.23	80.613500	80.763500		were	were
sw3029A-ms98-a-0015	A.23	80.763500	81.503500		interviewing	interviewing
sw3029A-ms98-a-0015	A.23	81.503500	81.613500		the	the
sw3029A-ms98-a-0015	A.23	81.613500	81.823500	<SUB>	the	it's
sw3029A-ms98-a-0015	A.23	81.823500	81.937000	<DEL>	---	a
sw3029A-ms98-a-0015	A.23	81.937000	82.253500		[silence]	[silence]
sw3029A-ms98-a-0015	A.23	82.253500	82.393500		a	a
sw3029A-ms98-a-0015	A.23	82.393500	82.743500		young	young
sw3029A-ms98-a-0015	A.23	82.743500	83.113500		lady	lady
sw3029A-ms98-a-0015	A.23	83.113500	83.350500		was	was
sw3029A-ms98-a-0015	A.23	83.350500	83.851500		killed	killed
sw3029A-ms98-a-0015	A.23	83.851500	84.402750		sometime	sometime
sw3029A-ms98-a-0015	A.23	84.402750	84.831750		back	back
sw3029A-ms98-a-0015	A.25	84.831750	84.982375		a	a
sw3029A-ms98-a-0015	A.25	84.982375	85.152500	<DEL>	---	a
sw3029A-ms98-a-0015	A.25	85.152500	85.333500		young	young
sw3029A-ms98-a-0015	A.25	85.333500	85.763500		girl	girl
sw3029A-ms98-a-0015	A.27	85.763500	86.033250		[silence]	[silence]
sw3029A-ms98-a-0016	A.27	86.033250	86.133250		[silence]	[silence]
sw3029A-ms98-a-0016	A.27	86.133250	86.253250	<DEL>	---	and
sw3029A-ms98-a-0016	A.27	86.253250	86.283250		A	a
sw3029A-ms98-a-0016	A.27	86.283250	86.623250		personal	personal
sw3029A-ms98-a-0016	A.27	86.623250	87.013250		trial	trial
sw3029A-ms98-a-0016	A.27	87.013250	87.193250		and	and
sw3029A-ms98-a-0016	A.27	87.193250	87.253250		the	the
sw3029A-ms98-a-0016	A.27	87.253250	87.720875		reporter	reporter
sw3029A-ms98-a-0016	A.27	87.720875	87.909250		was	was
sw3029A-ms98-a-0016	A.27	87.909250	88.383250		asking	asking
sw3029A-ms98-a-0016	A.27	88.383250	88.493250		a	a
sw3029A-ms98-a-0016	A.27	88.493250	88.659875	<SUB>	stup-	[sup/stupid]
sw3029A-ms98-a-0016	A.27	88.659875	88.742750		[silence]	[silence]
sw3029A-ms98-a-0016	A.27	88.742750	89.173250		stupid	stupid
sw3029A-ms98-a-0016	A.27	89.173250	89.800125		question	question
sw3029A-ms98-a-0016	A.27	89.800125	90.346375		[silence]	[silence]
sw3029A-ms98-a-0016	A.27	90.346375	90.513250		of	of
sw3029A-ms98-a-0016	A.27	90.513250	90.573250		the	the
sw3029A-ms98-a-0016	A.27	90.573250	90.963250		people	people
sw3029A-ms98-a-0016	A.27	90.963250	91.303250		outside	outside
sw3029A-ms98-a-0016	A.27	91.303250	91.413250		Well	well
sw3029A-ms98-a-0016	A.27	91.413250	91.543250		how	how
sw3029A-ms98-a-0016	A.27	91.543250	91.633250		do	do
sw3029A-ms98-a-0016	A.27	91.633250	91.733250		you	you
sw3029A-ms98-a-0016	A.27	91.733250	92.086250		feel	feel
sw3029A-ms98-a-0016	A.27	92.086250	92.485875		about	about
sw3029A-ms98-a-0016	A.27	92.485875	92.813250		this	this
sw3029A-ms98-a-0016	A.29	92.813250	93.151875		[silence]	[silence]
sw3029A-ms98-a-0017	A.29	93.151875	93.591875		[silence]	[silence]
sw3029A-ms98-a-0017	A.29	93.591875	93.831875		And	and
sw3029A-ms98-a-0017	A.29	93.831875	93.941875	<DEL>	---	they
sw3029A-ms98-a-0017	A.29	93.941875	94.051875		you	you
sw3029A-ms98-a-0017	A.29	94.051875	94.191875		know	[laughter-know]
sw3029A-ms98-a-0017	A.31	94.191875	94.297625	<DEL>	---	[laughter-i]
sw3029A-ms98-a-0017	A.31	94.297625	94.621875		[laughter]	[laughter]
sw3029A-ms98-a-0017	A.31	94.621875	94.871875	<DEL>	---	[laughter-thought]
sw3029A-ms98-a-0017	A.31	94.871875	95.195250	<DEL>	---	[laughter-that's]
sw3029A-ms98-a-0017	A.31	95.195250	95.281625		[silence]	[silence]
sw3029A-ms98-a-0018	A.31	95.281625	95.851625		[silence]	[silence]
sw3029A-ms98-a-0018	A.31	95.851625	95.971625		how	how
sw3029A-ms98-a-0018	A.31	95.971625	96.051625		do	do
sw3029A-ms98-a-0018	A.31	96.051625	96.181625		they	they
sw3029A-ms98-a-0018	A.31	96.181625	96.491625		feel	feel
sw3029A-ms98-a-0018	A.31	96.491625	96.711625		about	about
sw3029A-ms98-a-0018	A.31	96.711625	96.811625		it	it
sw3029A-ms98-a-0018	A.31	96.811625	96.971625		I'm	i'm
sw3029A-ms98-a-0018	A.31	96.971625	97.330125		sure	sure
sw3029A-ms98-a-0018	A.31	97.330125	97.623250		that	that
sw3029A-ms98-a-0018	A.31	97.623250	97.894000		uh	uh
sw3029A-ms98-a-0018	A.31	97.894000	98.165375		[silence]	[silence]
sw3029A-ms98-a-0019	A.31	98.165375	98.395375		[silence]	[silence]
sw3029A-ms98-a-0019	A.31	98.395375	98.505375		they	they
sw3029A-ms98-a-0019	A.31	98.505375	98.735375		want	want
sw3029A-ms98-a-0019	A.31	98.735375	98.805375		it	it
sw3029A-ms98-a-0019	A.31	98.805375	99.095375		over	over
sw3029A-ms98-a-0019	A.31	99.095375	99.395375		with	with
sw3029A-ms98-a-0019	A.31	99.395375	99.485375		and	and
sw3029A-ms98-a-0019	A.31	99.485375	99.545375		they	they
sw3029A-ms98-a-0019	A.31	99.545375	99.785375		want	want
sw3029A-ms98-a-0019	A.31	99.785375	99.845375		the	the
sw3029A-ms98-a-0019	A.31	99.845375	100.295375		person	person
sw3029A-ms98-a-0019	A.31	100.295375	100.785375		punished	punished
sw3029A-ms98-a-0019	A.31	100.785375	100.935375		and	and
sw3029A-ms98-a-0019	A.31	100.935375	101.335375		punished	punished
sw3029A-ms98-a-0019	A.33	101.335375	101.885375		properly	properly
sw3029A-ms98-a-0019	A.35	101.885375	102.368125		[silence]	[silence]
sw3029A-ms98-a-0020	A.35	102.368125	103.038125		[silence]	[silence]
sw3029A-ms98-a-0020	A.35	103.038125	103.214750	<DEL>	---	but
sw3029A-ms98-a-0020	A.35	103.214750	103.436000		[silence]	[silence]
sw3029A-ms98-a-0021	A.35	103.436000	114.234125		[silence]	[silence]
sw3029A-ms98-a-0022	A.35	114.234125	114.644125		[silence]	[silence]
sw3029A-ms98-a-0022	A.35	114.644125	115.088125		Yes	yes
sw3029A-ms98-a-0022	A.37	115.088125	115.473250		[silence]	[silence]
sw3029A-ms98-a-0023	A.37	115.473250	121.471250		[silence]	[silence]
sw3029A-ms98-a-0024	A.37	121.471250	121.972625		[silence]	[silence]
sw3029A-ms98-a-0024	A.37	121.972625	122.281000		Yeah	yeah
sw3029A-ms98-a-0024	A.37	122.281000	122.849750		[silence]	[silence]
sw3029A-ms98-a-0024	A.37	122.849750	123.111250		Well	well
sw3029A-ms98-a-0024	A.39	123.111250	123.151250		I	i
sw3029A-ms98-a-0024	A.39	123.151250	123.371250		feel	feel
sw3029A-ms98-a-0024	A.39	123.371250	123.511250		like	like
sw3029A-ms98-a-0024	A.39	123.511250	123.641250		the	the
sw3029A-ms98-a-0024	A.39	123.641250	123.866250		the	the
sw3029A-ms98-a-0024	A.39	123.866250	124.461250		cost	cost
sw3029A-ms98-a-0024	A.39	124.461250	124.861250		of	of
sw3029A-ms98-a-0024	A.39	124.861250	125.121250		s-	s[omeone]-
sw3029A-ms98-a-0024	A.39	125.121250	125.431250		someone	someone
sw3029A-ms98-a-0024	A.39	125.431250	125.551250	<SUB>	who's	was
sw3029A-ms98-a-0024	A.39	125.551250	126.001250		quoting	quoting
sw3029A-ms98-a-0024	A.39	126.001250	126.401250		figures	figures
sw3029A-ms98-a-0024	A.39	126.401250	126.571250		made	made
sw3029A-ms98-a-0024	A.39	126.571250	126.631250		the	the
sw3029A-ms98-a-0024	A.39	126.631250	127.061250		cost	cost
sw3029A-ms98-a-0024	A.41	127.061250	127.151250		at	at
sw3029A-ms98-a-0024	A.41	127.151250	127.381250		like	like
sw3029A-ms98-a-0024	A.41	127.381250	127.471250		[silence]	[silence]
sw3029A-ms98-a-0024	A.41	127.471250	127.741250		thirty	thirty
sw3029A-ms98-a-0024	A.41	127.741250	128.261250		thousand	thousand
sw3029A-ms98-a-0024	A.41	128.261250	128.651250		dollars	dollars
sw3029A-ms98-a-0024	A.43	128.651250	128.701250		a	a
sw3029A-ms98-a-0024	A.43	128.701250	129.271250		year	year
sw3029A-ms98-a-0024	A.45	129.271250	129.567750		[silence]	[silence]
sw3029A-ms98-a-0025	A.45	129.567750	129.907750		[silence]	[silence]
sw3029A-ms98-a-0025	A.45	129.907750	129.987750		to	to
sw3029A-ms98-a-0025	A.45	129.987750	130.197750		keep	keep
sw3029A-ms98-a-0025	A.45	130.197750	130.587750		someone	someone
sw3029A-ms98-a-0025	A.45	130.587750	130.717750		in	in
sw3029A-ms98-a-0025	A.45	130.717750	131.217750		prison	prison
sw3029A-ms98-a-0025	A.47	131.217750	132.010875		[silence]	[silence]
sw3029A-ms98-a-0026	A.47	132.010875	132.720875		[silence]	[silence]
sw3029A-ms98-a-0026	A.47	132.720875	133.068750		And	and
sw3029A-ms98-a-0026	A.47	133.068750	133.230875		[silence]	[silence]
sw3029A-ms98-a-0026	A.47	133.230875	133.472250		well	well
sw3029A-ms98-a-0026	A.47	133.472250	133.879000		[silence]	[silence]
sw3029A-ms98-a-0026	A.47	133.879000	134.211625		the	the
sw3029A-ms98-a-0026	A.47	134.211625	134.512875		[silence]	[silence]
sw3029A-ms98-a-0026	A.47	134.512875	135.110875		problem	problem
sw3029A-ms98-a-0026	A.47	135.110875	135.490875		there	there
sw3029A-ms98-a-0026	A.47	135.490875	136.020875		is	is
sw3029A-ms98-a-0026	A.47	136.020875	136.390875		[silence]	[silence]
sw3029A-ms98-a-0026	A.47	136.390875	136.490875		they're	they're
sw3029A-ms98-a-0026	A.47	136.490875	136.710875		not	not
sw3029A-ms98-a-0026	A.47	136.710875	137.020875		keeping	keeping
sw3029A-ms98-a-0026	A.47	137.020875	137.110875		the	the
sw3029A-ms98-a-0026	A.47	137.110875	137.380875		right	right
sw3029A-ms98-a-0026	A.47	137.380875	137.620875		ones	ones
sw3029A-ms98-a-0026	A.47	137.620875	137.750875		in	in
sw3029A-ms98-a-0026	A.47	137.750875	138.160875		prison	prison
sw3029A-ms98-a-0026	A.47	138.160875	138.310875		in	in
sw3029A-ms98-a-0026	A.47	138.310875	138.520875		many	many
sw3029A-ms98-a-0026	A.47	138.520875	139.050875		cases	cases
sw3029A-ms98-a-0026	A.49	139.050875	139.170875		There	there
sw3029A-ms98-a-0026	A.49	139.170875	139.240875		are	are
sw3029A-ms98-a-0026	A.49	139.240875	139.600875		more	more
sw3029A-ms98-a-0026	A.51	139.600875	139.690875		and	and
sw3029A-ms98-a-0026	A.51	139.690875	139.920875		more	more
sw3029A-ms98-a-0026	A.51	139.920875	140.780625		instances	instances
sw3029A-ms98-a-0026	A.51	140.780625	141.009250		[silence]	[silence]
sw3029A-ms98-a-0027	A.51	141.009250	141.260000		[silence]	[silence]
sw3029A-ms98-a-0027	A.51	141.260000	141.644375		being	being
sw3029A-ms98-a-0027	A.51	141.644375	141.849250		on	on
sw3029A-ms98-a-0027	A.51	141.849250	141.939250		the	the
sw3029A-ms98-a-0027	A.51	141.939250	142.571125		news	news
sw3029A-ms98-a-0027	A.53	142.571125	142.989250		[silence]	[silence]
sw3029A-ms98-a-0027	A.53	142.989250	143.369250	<SUB>	or	where
sw3029A-ms98-a-0027	A.53	143.369250	143.559250		[silence]	[silence]
sw3029A-ms98-a-0027	A.53	143.559250	143.779250		this	this
sw3029A-ms98-a-0027	A.53	143.779250	144.506625		individual	individual
sw3029A-ms98-a-0027	A.53	144.506625	144.815375		was	was
sw3029A-ms98-a-0027	A.53	144.815375	145.109250		out	out
sw3029A-ms98-a-0027	A.53	145.109250	145.349250		on	on
sw3029A-ms98-a-0027	A.53	145.349250	145.409250		the	the
sw3029A-ms98-a-0027	A.53	145.409250	146.109250		streets	streets
sw3029A-ms98-a-0027	A.55	146.109250	146.509250		[silence]	[silence]
sw3029A-ms98-a-0027	A.55	146.509250	146.769250		on	on
sw3029A-ms98-a-0027	A.55	146.769250	147.559250		probation	probation
sw3029A-ms98-a-0027	A.55	147.559250	147.729250		or	or
sw3029A-ms98-a-0027	A.55	147.729250	148.457500		parole	parole
sw3029A-ms98-a-0027	A.55	148.457500	148.920875		[silence]	[silence]
sw3029A-ms98-a-0027	A.55	148.920875	149.152750		and	and
sw3029A-ms98-a-0027	A.55	149.152750	149.491750		killed	killed
sw3029A-ms98-a-0027	A.55	149.491750	149.859250		someone	someone
sw3029A-ms98-a-0027	A.55	149.859250	150.294750		else	else
sw3029A-ms98-a-0027	A.57	150.294750	150.639875		[silence]	[silence]
sw3029A-ms98-a-0028	A.57	150.639875	151.159875		[silence]	[silence]
sw3029A-ms98-a-0028	A.57	151.159875	151.426125		Or	or
sw3029A-ms98-a-0028	A.59	151.426125	151.671250		[silence]	[silence]
sw3029A-ms98-a-0028	A.59	151.671250	152.409875		seriously	seriously
sw3029A-ms98-a-0028	A.59	152.409875	152.809875		injured	injured
sw3029A-ms98-a-0028	A.59	152.809875	153.409875		someone	someone
sw3029A-ms98-a-0028	A.61	153.409875	153.862750		[silence]	[silence]
sw3029A-ms98-a-0029	A.61	153.862750	175.860750		[silence]	[silence]
sw3029A-ms98-a-0030	A.61	175.860750	176.250750		[silence]	[silence]
sw3029A-ms98-a-0030	A.61	176.250750	176.660750		Yeah	yeah
sw3029A-ms98-a-0030	A.63	176.660750	177.109625		[silence]	[silence]
sw3029A-ms98-a-0031	A.63	177.109625	183.163625		[silence]	[silence]
sw3029A-ms98-a-0032	A.63	183.163625	183.607375		[silence]	[silence]
sw3029A-ms98-a-0032	A.63	183.607375	183.959875		Yes	yes
sw3029A-ms98-a-0032	A.65	183.959875	184.318750		[silence]	[silence]
sw3029A-ms98-a-0033	A.65	184.318750	187.140875		[silence]	[silence]
sw3029A-ms98-a-0034	A.65	187.140875	187.630875		[silence]	[silence]
sw3029A-ms98-a-0034	A.65	187.630875	187.900875		Yes	yes
sw3029A-ms98-a-0034	A.65	187.900875	188.473250		indeed	indeed
sw3029A-ms98-a-0034	A.67	188.473250	188.782875		[silence]	[silence]
sw3029A-ms98-a-0035	A.67	188.782875	190.490250		[silence]	[silence]
sw3029A-ms98-a-0036	A.67	190.490250	190.960250		[silence]	[silence]
sw3029A-ms98-a-0036	A.67	190.960250	191.114875		Yeah	yeah
sw3029A-ms98-a-0036	A.69	191.114875	191.577625		[silence]	[silence]
sw3029A-ms98-a-0037	A.69	191.577625	198.247625		[silence]	[silence]
sw3029A-ms98-a-0038	A.69	198.247625	198.737625		[silence]	[silence]
sw3029A-ms98-a-0038	A.69	198.737625	198.987625		Yeah	yeah
sw3029A-ms98-a-0038	A.71	198.987625	199.537875		[silence]	[silence]
sw3029A-ms98-a-0039	A.71	199.537875	204.626875		[silence]	[silence]
sw3029A-ms98-a-0040	A.71	204.626875	205.122500		[silence]	[silence]
sw3029A-ms98-a-0040	A.71	205.122500	205.340500	<SUB>	No	well
sw3029A-ms98-a-0040	A.73	205.340500	205.853875		[silence]	[silence]
sw3029A-ms98-a-0040	A.73	205.853875	206.046875		Here	here
sw3029A-ms98-a-0040	A.73	206.046875	206.346875		again	again
sw3029A-ms98-a-0040	A.73	206.346875	206.756875		anytime	anytime
sw3029A-ms98-a-0040	A.73	206.756875	207.136875		anyone	anyone
sw3029A-ms98-a-0040	A.73	207.136875	207.496875		goes	goes
sw3029A-ms98-a-0040	A.73	207.496875	207.786875		out	out
sw3029A-ms98-a-0040	A.73	207.786875	207.986875		[silence]	[silence]
sw3029A-ms98-a-0040	A.73	207.986875	208.156875		with	with
sw3029A-ms98-a-0040	A.73	208.156875	208.226875		a	a
sw3029A-ms98-a-0040	A.73	208.226875	208.526875		gun	gun
sw3029A-ms98-a-0040	A.73	208.526875	208.666875		in	in
sw3029A-ms98-a-0040	A.73	208.666875	208.866875		their	their
sw3029A-ms98-a-0040	A.73	208.866875	209.296875		hand	hand
sw3029A-ms98-a-0040	A.73	209.296875	209.426875		and	and
sw3029A-ms98-a-0040	A.73	209.426875	209.916875		crime	crime
sw3029A-ms98-a-0040	A.73	209.916875	210.036875		on	on
sw3029A-ms98-a-0040	A.73	210.036875	210.206875		their	their
sw3029A-ms98-a-0040	A.73	210.206875	210.996875		mind	mind
sw3029A-ms98-a-0040	A.75	210.996875	211.283125		[silence]	[silence]
sw3029A-ms98-a-0041	A.75	211.283125	211.495000		[silence]	[silence]
sw3029A-ms98-a-0041	A.75	211.495000	211.960125		uh	uh
sw3029A-ms98-a-0041	A.75	211.960125	212.163125		the	the
sw3029A-ms98-a-0041	A.75	212.163125	212.893125		opportunity	opportunity
sw3029A-ms98-a-0041	A.75	212.893125	213.353125		exists	exists
sw3029A-ms98-a-0041	A.75	213.353125	213.503125		for	for
sw3029A-ms98-a-0041	A.75	213.503125	213.893125		someone	someone
sw3029A-ms98-a-0041	A.75	213.893125	213.973125		to	to
sw3029A-ms98-a-0041	A.75	213.973125	214.223125		get	get
sw3029A-ms98-a-0041	A.75	214.223125	214.753125		killed	killed
sw3029A-ms98-a-0041	A.77	214.753125	214.864125		[silence]	[silence]
sw3029A-ms98-a-0042	A.77	214.864125	215.154125		[silence]	[silence]
sw3029A-ms98-a-0042	A.77	215.154125	215.304125		Now	now
sw3029A-ms98-a-0042	A.77	215.304125	215.384125		I'm	i'm
sw3029A-ms98-a-0042	A.77	215.384125	215.604125		not	not
sw3029A-ms98-a-0042	A.77	215.604125	215.724125		in	in
sw3029A-ms98-a-0042	A.77	215.724125	216.314125		favor	favor
sw3029A-ms98-a-0042	A.77	216.314125	216.494125		of	of
sw3029A-ms98-a-0042	A.77	216.494125	216.794125		gun	gun
sw3029A-ms98-a-0042	A.77	216.794125	217.564125		control	control
sw3029A-ms98-a-0042	A.77	217.564125	217.844625		[silence]	[silence]
sw3029A-ms98-a-0043	A.77	217.844625	218.094625		[silence]	[silence]
sw3029A-ms98-a-0043	A.77	218.094625	218.333750		to	to
sw3029A-ms98-a-0043	A.77	218.333750	218.454625		the	the
sw3029A-ms98-a-0043	A.77	218.454625	218.774625	<DEL>	---	{n-th}
sw3029A-ms98-a-0043	A.77	218.774625	219.204625		degree	degree
sw3029A-ms98-a-0043	A.77	219.204625	219.294625		or	or
sw3029A-ms98-a-0043	A.77	219.294625	219.844625		anything	anything
sw3029A-ms98-a-0043	A.77	219.844625	220.393750		[silence]	[silence]
sw3029A-ms98-a-0043	A.77	220.393750	220.973750		because	because
sw3029A-ms98-a-0043	A.77	220.973750	221.324625		uh	uh
sw3029A-ms98-a-0043	A.77	221.324625	221.798625		[silence]	[silence]
sw3029A-ms98-a-0044	A.77	221.798625	222.228625		[silence]	[silence]
sw3029A-ms98-a-0044	A.77	222.228625	222.448625		there	there
sw3029A-ms98-a-0044	A.77	222.448625	222.648625		are	are
sw3029A-ms98-a-0044	A.77	222.648625	223.178625		uses	uses
sw3029A-ms98-a-0044	A.77	223.178625	223.378625		for	for
sw3029A-ms98-a-0044	A.77	223.378625	223.798625		guns	guns
sw3029A-ms98-a-0044	A.77	223.798625	224.008625		which	which
sw3029A-ms98-a-0044	A.77	224.008625	224.088625		are	are
sw3029A-ms98-a-0044	A.77	224.088625	224.468625	<CONT>	noncriminal	non
sw3029A-ms98-a-0044	A.79	224.468625	225.108625	<CONT>	+++	criminal
sw3029A-ms98-a-0044	A.79	225.108625	225.549375		[silence]	[silence]
sw3029A-ms98-a-0045	A.79	225.549375	225.989375		[silence]	[silence]
sw3029A-ms98-a-0045	A.79	225.989375	226.334625		but	but
sw3029A-ms98-a-0045	A.79	226.334625	226.528250		[silence]	[silence]
sw3029A-ms98-a-0045	A.79	226.528250	226.660125		it	it
sw3029A-ms98-a-0045	A.79	226.660125	227.019375		seems	seems
sw3029A-ms98-a-0045	A.79	227.019375	227.199375		that	that
sw3029A-ms98-a-0045	A.79	227.199375	227.259375		the	the
sw3029A-ms98-a-0045	A.79	227.259375	227.799375		criminal	criminal
sw3029A-ms98-a-0045	A.79	227.799375	228.389875		element	element
sw3029A-ms98-a-0045	A.79	228.389875	228.491625		[silence]	[silence]
sw3029A-ms98-a-0045	A.79	228.491625	228.609375		are	are
sw3029A-ms98-a-0045	A.79	228.609375	228.699375		the	the
sw3029A-ms98-a-0045	A.79	228.699375	229.077250		ones	ones
sw3029A-ms98-a-0045	A.79	229.077250	229.163875		that	that
sw3029A-ms98-a-0045	A.79	229.163875	229.279375		are	are
sw3029A-ms98-a-0045	A.79	229.279375	229.889375		using	using
sw3029A-ms98-a-0045	A.79	229.889375	230.129375		them	them
sw3029A-ms98-a-0045	A.79	230.129375	230.549375		[silence]	[silence]
sw3029A-ms98-a-0045	A.79	230.549375	230.849375		Uh	uh
sw3029A-ms98-a-0045	A.79	230.849375	231.259375		aside	aside
sw3029A-ms98-a-0045	A.79	231.259375	231.449375		from	from
sw3029A-ms98-a-0045	A.79	231.449375	231.979375		domestic	domestic
sw3029A-ms98-a-0045	A.79	231.979375	232.549375		disputes	disputes
sw3029A-ms98-a-0045	A.79	232.549375	232.959375	<SUB>	husbands	husband
sw3029A-ms98-a-0045	A.79	232.959375	233.359375		shooting	shooting
sw3029A-ms98-a-0045	A.79	233.359375	233.809375		wives	wives
sw3029A-ms98-a-0045	A.79	233.809375	233.919375		or	or
sw3029A-ms98-a-0045	A.79	233.919375	234.299375		vice	vice
sw3029A-ms98-a-0045	A.79	234.299375	234.759375		versa	versa
sw3029A-ms98-a-0045	A.81	234.759375	235.026250		[silence]	[silence]
sw3029A-ms98-a-0046	A.81	235.026250	235.266250		[silence]	[silence]
sw3029A-ms98-a-0046	A.81	235.266250	235.386250		But	but
sw3029A-ms98-a-0046	A.81	235.386250	235.596250		these	these
sw3029A-ms98-a-0046	A.81	235.596250	236.296250		individuals	individuals
sw3029A-ms98-a-0046	A.81	236.296250	236.396250		if	if
sw3029A-ms98-a-0046	A.81	236.396250	236.556250		they	they
sw3029A-ms98-a-0046	A.81	236.556250	236.796250		have	have
sw3029A-ms98-a-0046	A.81	236.796250	236.866250		a	a
sw3029A-ms98-a-0046	A.81	236.866250	237.366250		gun	gun
sw3029A-ms98-a-0046	A.81	237.366250	237.616250		with	with
sw3029A-ms98-a-0046	A.81	237.616250	237.913250		them	them
sw3029A-ms98-a-0046	A.81	237.913250	238.455000		[silence]	[silence]
sw3029A-ms98-a-0046	A.81	238.455000	238.575500		I	i
sw3029A-ms98-a-0046	A.81	238.575500	238.946250		think	think
sw3029A-ms98-a-0046	A.81	238.946250	239.126250		that	that
sw3029A-ms98-a-0046	A.81	239.126250	239.376250		the	the
sw3029A-ms98-a-0046	A.81	239.376250	239.686250		the	the
sw3029A-ms98-a-0046	A.81	239.686250	240.116250		sentence	sentence
sw3029A-ms98-a-0046	A.81	240.116250	240.366250		should	should
sw3029A-ms98-a-0046	A.81	240.366250	240.761125		be	be
sw3029A-ms98-a-0046	A.81	240.761125	241.006250		even	even
sw3029A-ms98-a-0046	A.81	241.006250	241.816250		longer	longer
sw3029A-ms98-a-0046	A.81	241.816250	241.946250		than	than
sw3029A-ms98-a-0046	A.81	241.946250	242.086250		if	if
sw3029A-ms98-a-0046	A.81	242.086250	242.196250		they	they
sw3029A-ms98-a-0046	A.81	242.196250	242.585000		don't	don't
sw3029A-ms98-a-0046	A.83	242.585000	242.939625		[silence]	[silence]
sw3029A-ms98-a-0047	A.83	242.939625	244.788000		[silence]	[silence]
sw3029A-ms98-a-0048	A.83	244.788000	245.238000		[silence]	[silence]
sw3029A-ms98-a-0048	A.83	245.238000	245.528000		Well	well
sw3029A-ms98-a-0048	A.85	245.528000	246.022750		[silence]	[silence]
sw3029A-ms98-a-0049	A.85	246.022750	247.727500		[silence]	[silence]
sw3029A-ms98-a-0050	A.85	247.727500	248.223000		[silence]	[silence]
sw3029A-ms98-a-0050	A.85	248.223000	248.417125		Well	well
sw3029A-ms98-a-0050	A.85	248.417125	248.846500		[silence]	[silence]
sw3029A-ms98-a-0050	A.85	248.846500	248.987500		but	but
sw3029A-ms98-a-0050	A.85	248.987500	249.097500		here	here
sw3029A-ms98-a-0050	A.85	249.097500	249.437500		again	again
sw3029A-ms98-a-0050	A.85	249.437500	250.127500		uh	uh
sw3029A-ms98-a-0050	A.85	250.127500	250.317500		if	if
sw3029A-ms98-a-0050	A.85	250.317500	250.347500		a	a
sw3029A-ms98-a-0050	A.85	250.347500	250.507500		matter	matter
sw3029A-ms98-a-0050	A.85	250.507500	250.627500		of	of
sw3029A-ms98-a-0050	A.85	250.627500	251.307500		expediency	expediency
sw3029A-ms98-a-0050	A.87	251.307500	251.577500		part	part
sw3029A-ms98-a-0050	A.87	251.577500	251.657500		of	of
sw3029A-ms98-a-0050	A.87	251.657500	251.867500		these	these
sw3029A-ms98-a-0050	A.87	251.867500	252.347500		costs	costs
sw3029A-ms98-a-0050	A.87	252.347500	252.577500		like	like
sw3029A-ms98-a-0050	A.87	252.577500	252.657500		the	the
sw3029A-ms98-a-0050	A.87	252.657500	253.247500		people	people
sw3029A-ms98-a-0050	A.87	253.247500	253.667500		on	on
sw3029A-ms98-a-0050	A.87	253.667500	253.847500		[silence]	[silence]
sw3029A-ms98-a-0050	A.87	253.847500	254.137500		Death	Death
sw3029A-ms98-a-0050	A.87	254.137500	254.613500		Row	Row
sw3029A-ms98-a-0050	A.89	254.613500	255.016500		[silence]	[silence]
sw3029A-ms98-a-0050	A.89	255.016500	255.187500		is	is
sw3029A-ms98-a-0050	A.89	255.187500	255.327500		that	that
sw3029A-ms98-a-0050	A.89	255.327500	255.517500		their	their
sw3029A-ms98-a-0050	A.89	255.517500	256.127500		appeals	appeals
sw3029A-ms98-a-0050	A.89	256.127500	256.267500		can	can
sw3029A-ms98-a-0050	A.89	256.267500	256.647500		take	take
sw3029A-ms98-a-0050	A.89	256.647500	256.997500		[silence]	[silence]
sw3029A-ms98-a-0050	A.89	256.997500	257.567500		years	years
sw3029A-ms98-a-0050	A.89	257.567500	257.717500		and	and
sw3029A-ms98-a-0050	A.89	257.717500	258.379000		years	years
sw3029A-ms98-a-0050	A.91	258.379000	258.757500		[silence]	[silence]
sw3029A-ms98-a-0050	A.91	258.757500	258.877500		There	there
sw3029A-ms98-a-0050	A.91	258.877500	259.147500		should	should
sw3029A-ms98-a-0050	A.91	259.147500	259.297500		be	be
sw3029A-ms98-a-0050	A.91	259.297500	259.777500		some	some
sw3029A-ms98-a-0050	A.91	259.777500	259.917500		[silence]	[silence]
sw3029A-ms98-a-0050	A.91	259.917500	260.157500		uh	uh
sw3029A-ms98-a-0050	A.91	260.157500	260.247500		I	i
sw3029A-ms98-a-0050	A.91	260.247500	260.437500		know	know
sw3029A-ms98-a-0050	A.91	260.437500	260.637500		there's	there's
sw3029A-ms98-a-0050	A.91	260.637500	260.697500		a	a
sw3029A-ms98-a-0050	A.91	260.697500	260.947500		law	law
sw3029A-ms98-a-0050	A.91	260.947500	261.007500		I	i
sw3029A-ms98-a-0050	A.91	261.007500	261.307500		believe	believe
sw3029A-ms98-a-0050	A.91	261.307500	261.577500		that	that
sw3029A-ms98-a-0050	A.91	261.577500	261.690125		[silence]	[silence]
sw3029A-ms98-a-0051	A.91	261.690125	261.925750		[silence]	[silence]
sw3029A-ms98-a-0051	A.91	261.925750	262.156250		it's	it's
sw3029A-ms98-a-0051	A.91	262.156250	263.000125		automatic	automatic
sw3029A-ms98-a-0051	A.91	263.000125	263.220125		[silence]	[silence]
sw3029A-ms98-a-0051	A.91	263.220125	263.760125		appeal	appeal
sw3029A-ms98-a-0051	A.91	263.760125	263.880125		if	if
sw3029A-ms98-a-0051	A.91	263.880125	264.000125		it's	it's
sw3029A-ms98-a-0051	A.91	264.000125	264.071250		a	a
sw3029A-ms98-a-0051	A.91	264.071250	264.380125		death	death
sw3029A-ms98-a-0051	A.91	264.380125	264.971125		sentence	sentence
sw3029A-ms98-a-0051	A.93	264.971125	265.236125		[silence]	[silence]
sw3029A-ms98-a-0052	A.93	265.236125	265.816125		[silence]	[silence]
sw3029A-ms98-a-0052	A.93	265.816125	265.926125		Well	well
sw3029A-ms98-a-0052	A.93	265.926125	266.036125		I	i
sw3029A-ms98-a-0052	A.93	266.036125	266.236125		think	think
sw3029A-ms98-a-0052	A.93	266.236125	266.406125		that	that
sw3029A-ms98-a-0052	A.93	266.406125	267.016125		automatic	automatic
sw3029A-ms98-a-0052	A.93	267.016125	267.626125		appeal	appeal
sw3029A-ms98-a-0052	A.93	267.626125	267.796125		ought	ought
sw3029A-ms98-a-0052	A.93	267.796125	267.866125		to	to
sw3029A-ms98-a-0052	A.93	267.866125	268.256125		take	take
sw3029A-ms98-a-0052	A.93	268.256125	268.826125		place	place
sw3029A-ms98-a-0052	A.93	268.826125	269.092500		[silence]	[silence]
sw3029A-ms98-a-0053	A.93	269.092500	269.452500		[silence]	[silence]
sw3029A-ms98-a-0053	A.93	269.452500	269.692500		uh	uh
sw3029A-ms98-a-0053	A.93	269.692500	270.032500		within	within
sw3029A-ms98-a-0053	A.93	270.032500	270.132500		a	a
sw3029A-ms98-a-0053	A.93	270.132500	270.602500		reasonable	reasonable
sw3029A-ms98-a-0053	A.93	270.602500	270.812500		length	length
sw3029A-ms98-a-0053	A.93	270.812500	270.942500		of	of
sw3029A-ms98-a-0053	A.93	270.942500	271.264875		time	time
sw3029A-ms98-a-0053	A.93	271.264875	271.551125		say	say
sw3029A-ms98-a-0053	A.93	271.551125	271.942500		six	six
sw3029A-ms98-a-0053	A.93	271.942500	272.432500		months	months
sw3029A-ms98-a-0053	A.95	272.432500	272.587875		[silence]	[silence]
sw3029A-ms98-a-0054	A.95	272.587875	272.957875		[silence]	[silence]
sw3029A-ms98-a-0054	A.95	272.957875	273.107875		And	and
sw3029A-ms98-a-0054	A.95	273.107875	273.167875		a	a
sw3029A-ms98-a-0054	A.95	273.167875	273.687875		decision	decision
sw3029A-ms98-a-0054	A.95	273.687875	273.827875		be	be
sw3029A-ms98-a-0054	A.95	273.827875	274.167875		made	made
sw3029A-ms98-a-0054	A.95	274.167875	274.257875		and	and
sw3029A-ms98-a-0054	A.95	274.257875	274.537875		not	not
sw3029A-ms98-a-0054	A.95	274.537875	274.987875		drag	drag
sw3029A-ms98-a-0054	A.95	274.987875	275.395000		out	out
sw3029A-ms98-a-0054	A.95	275.395000	275.583125		[silence]	[silence]
sw3029A-ms98-a-0055	A.95	275.583125	275.863125		[silence]	[silence]
sw3029A-ms98-a-0055	A.95	275.863125	276.033125		in	in
sw3029A-ms98-a-0055	A.95	276.033125	276.137250		the	the
sw3029A-ms98-a-0055	A.95	276.137250	276.815375		courts	courts
sw3029A-ms98-a-0055	A.95	276.815375	276.926750		[silence]	[silence]
sw3029A-ms98-a-0056	A.95	276.926750	277.256750		[silence]	[silence]
sw3029A-ms98-a-0056	A.95	277.256750	277.476750		for	for
sw3029A-ms98-a-0056	A.95	277.476750	277.956750		years	years
sw3029A-ms98-a-0056	A.97	277.956750	278.476750		because	because
sw3029A-ms98-a-0056	A.97	278.476750	278.686750		of	of
sw3029A-ms98-a-0056	A.97	278.686750	279.416750		misplaced	misplaced
sw3029A-ms98-a-0056	A.97	279.416750	280.076750		commas	commas
sw3029A-ms98-a-0056	A.97	280.076750	280.326750		or	or
sw3029A-ms98-a-0056	A.97	280.326750	280.766750		whatever	whatever
sw3029A-ms98-a-0056	A.97	280.766750	281.816750		technicalities	technicalities
sw3029A-ms98-a-0056	A.99	281.816750	281.946750		there	there
sw3029A-ms98-a-0056	A.99	281.946750	282.216750		might	might
sw3029A-ms98-a-0056	A.99	282.216750	282.286750		[silence]	[silence]
sw3029A-ms98-a-0056	A.99	282.286750	282.506750		be	be
sw3029A-ms98-a-0056	A.101	282.506750	282.972375		[silence]	[silence]
sw3029A-ms98-a-0057	A.101	282.972375	285.465125		[silence]	[silence]
sw3029A-ms98-a-0058	A.101	285.465125	286.005125		[silence]	[silence]
sw3029A-ms98-a-0058	A.101	286.005125	286.275125		Right	right
sw3029A-ms98-a-0058	A.101	286.275125	286.305125	<DEL>	---	th[ere's]-
sw3029A-ms98-a-0058	A.101	286.305125	286.435125		there's	there's
sw3029A-ms98-a-0058	A.101	286.435125	286.615125		got	got
sw3029A-ms98-a-0058	A.101	286.615125	286.682750		to	to
sw3029A-ms98-a-0058	A.101	286.682750	286.825875		be	be
sw3029A-ms98-a-0058	A.101	286.825875	286.955125		a	a
sw3029A-ms98-a-0058	A.103	286.955125	287.135125		there's	there's
sw3029A-ms98-a-0058	A.103	287.135125	287.255125		got	got
sw3029A-ms98-a-0058	A.103	287.255125	287.325125		to	to
sw3029A-ms98-a-0058	A.103	287.325125	287.435125		be	be
sw3029A-ms98-a-0058	A.103	287.435125	287.525125		a	a
sw3029A-ms98-a-0058	A.103	287.525125	287.955125		time	time
sw3029A-ms98-a-0058	A.103	287.955125	288.439875		limit	limit
sw3029A-ms98-a-0058	A.105	288.439875	288.818750		[silence]	[silence]
sw3029A-ms98-a-0059	A.105	288.818750	299.671750		[silence]	[silence]
sw3029A-ms98-a-0060	A.105	299.671750	300.231750		[silence]	[silence]
sw3029A-ms98-a-0060	A.105	300.231750	300.331750		A	a
sw3029A-ms98-a-0060	A.105	300.331750	300.461750		[silence]	[silence]
sw3029A-ms98-a-0060	A.105	300.461750	300.511750		a	a
sw3029A-ms98-a-0060	A.105	300.511750	300.671750	<SUB>	legit	le[gitimate]-
sw3029A-ms98-a-0060	A.107	300.671750	300.831750		[silence]	[silence]
sw3029A-ms98-a-0060	A.107	300.831750	300.871750	<DEL>	---	a
sw3029A-ms98-a-0060	A.107	300.871750	301.531750		legitimate	legitimate
sw3029A-ms98-a-0060	A.107	301.531750	302.001750		appeal	appeal
sw3029A-ms98-a-0060	A.109	302.001750	302.197250		not	not
sw3029A-ms98-a-0060	A.109	302.197250	302.311500		a	a
sw3029A-ms98-a-0060	A.109	302.311500	303.331750		technicality	technicality
sw3029A-ms98-a-0060	A.111	303.331750	303.511750		of	of
sw3029A-ms98-a-0060	A.111	303.511750	303.704250		uh	uh
sw3029A-ms98-a-0060	A.113	303.704250	304.166000		[silence]	[silence]
sw3029A-ms98-a-0060	A.113	304.166000	304.443500		if	if
sw3029A-ms98-a-0060	A.113	304.443500	304.496125		[silence]	[silence]
sw3029A-ms98-a-0061	A.113	304.496125	304.626125		[silence]	[silence]
sw3029A-ms98-a-0061	A.113	304.626125	304.726125		and	and
sw3029A-ms98-a-0061	A.113	304.726125	304.836125		they're	they're
sw3029A-ms98-a-0061	A.113	304.836125	305.016125		not	not
sw3029A-ms98-a-0061	A.113	305.016125	305.686125		arguing	arguing
sw3029A-ms98-a-0061	A.113	305.686125	305.866125		that	that
sw3029A-ms98-a-0061	A.113	305.866125	305.975625		the	the
sw3029A-ms98-a-0061	A.113	305.975625	306.443750		guy	guy
sw3029A-ms98-a-0061	A.113	306.443750	306.773750		[silence]	[silence]
sw3029A-ms98-a-0062	A.113	306.773750	307.083750		[silence]	[silence]
sw3029A-ms98-a-0062	A.113	307.083750	307.333750		or	or
sw3029A-ms98-a-0062	A.113	307.333750	307.643750		woman	woman
sw3029A-ms98-a-0062	A.113	307.643750	308.123750		committed	committed
sw3029A-ms98-a-0062	A.113	308.123750	308.183750		the	the
sw3029A-ms98-a-0062	A.113	308.183750	308.913875		crime	crime
sw3029A-ms98-a-0062	A.113	308.913875	309.283750		[silence]	[silence]
sw3029A-ms98-a-0062	A.113	309.283750	309.493750		They're	they're
sw3029A-ms98-a-0062	A.113	309.493750	310.043750		arguing	arguing
sw3029A-ms98-a-0062	A.113	310.043750	310.313750		over	over
sw3029A-ms98-a-0062	A.113	310.313750	310.653750		well	well
sw3029A-ms98-a-0062	A.113	310.653750	310.823750		were	were
sw3029A-ms98-a-0062	A.113	310.823750	311.023750		his	his
sw3029A-ms98-a-0062	A.113	311.023750	311.393750		civil	civil
sw3029A-ms98-a-0062	A.113	311.393750	311.743750		rights	rights
sw3029A-ms98-a-0062	A.113	311.743750	312.423750		violated	violated
sw3029A-ms98-a-0062	A.113	312.423750	313.059250		because	because
sw3029A-ms98-a-0062	A.113	313.059250	313.498500		uh	uh
sw3029A-ms98-a-0062	A.115	313.498500	313.803875		[silence]	[silence]
sw3029A-ms98-a-0063	A.115	313.803875	313.973875		[silence]	[silence]
sw3029A-ms98-a-0063	A.115	313.973875	314.533875		someone	someone
sw3029A-ms98-a-0063	A.115	314.533875	314.940500		didn't	didn't
sw3029A-ms98-a-0063	A.115	314.940500	315.098750		[silence]	[silence]
sw3029A-ms98-a-0063	A.115	315.098750	315.493875		file	file
sw3029A-ms98-a-0063	A.115	315.493875	315.553875		the	the
sw3029A-ms98-a-0063	A.115	315.553875	316.013875		proper	proper
sw3029A-ms98-a-0063	A.115	316.013875	316.493875		paper	paper
sw3029A-ms98-a-0063	A.115	316.493875	316.593875		at	at
sw3029A-ms98-a-0063	A.115	316.593875	316.653875		the	the
sw3029A-ms98-a-0063	A.115	316.653875	317.073875		proper	proper
sw3029A-ms98-a-0063	A.115	317.073875	317.513875		time	time
sw3029A-ms98-a-0063	A.117	317.513875	318.003875		[silence]	[silence]
sw3029A-ms98-a-0063	A.117	318.003875	318.263875		Those	those
sw3029A-ms98-a-0063	A.117	318.263875	318.323875		are	are
sw3029A-ms98-a-0063	A.117	318.323875	318.503875		the	the
sw3029A-ms98-a-0063	A.117	318.503875	318.763875		things	things
sw3029A-ms98-a-0063	A.117	318.763875	318.883875		that	that
sw3029A-ms98-a-0063	A.117	318.883875	318.973875		have	have
sw3029A-ms98-a-0063	A.117	318.973875	319.243875		caused	caused
sw3029A-ms98-a-0063	A.117	319.243875	319.413875		them	them
sw3029A-ms98-a-0063	A.117	319.413875	319.483875		to	to
sw3029A-ms98-a-0063	A.117	319.483875	319.913875		drag	drag
sw3029A-ms98-a-0063	A.117	319.913875	320.153875		out	out
sw3029A-ms98-a-0063	A.117	320.153875	320.283875		I	i
sw3029A-ms98-a-0063	A.117	320.283875	320.613875		think	think
sw3029A-ms98-a-0063	A.119	320.613875	320.979750		[silence]	[silence]
sw3029A-ms98-a-0064	A.119	320.979750	332.585125		[silence]	[silence]
sw3029A-ms98-a-0065	A.119	332.585125	333.075125		[silence]	[silence]
sw3029A-ms98-a-0065	A.119	333.075125	333.325125		Yeah	yeah
sw3029A-ms98-a-0065	A.121	333.325125	333.796375		[silence]	[silence]
sw3029A-ms98-a-0066	A.121	333.796375	341.147875		[silence]	[silence]
sw3029A-ms98-a-0067	A.121	341.147875	341.378125		[silence]	[silence]
sw3029A-ms98-a-0067	A.121	341.378125	341.497875	<DEL>	---	yeah
sw3029A-ms98-a-0067	A.121	341.497875	341.696000		[silence]	[silence]
sw3029A-ms98-a-0068	A.121	341.696000	342.809875		[silence]	[silence]
sw3029A-ms98-a-0069	A.121	342.809875	343.038750		[silence]	[silence]
sw3029A-ms98-a-0069	A.121	343.038750	343.159875		He	he
sw3029A-ms98-a-0069	A.121	343.159875	343.409875		didn't	didn't
sw3029A-ms98-a-0069	A.121	343.409875	343.549875		see	see
sw3029A-ms98-a-0069	A.121	343.549875	343.719875		his	his
sw3029A-ms98-a-0069	A.123	343.719875	344.139875		lawyer	lawyer
sw3029A-ms98-a-0069	A.123	344.139875	344.219875		as	as
sw3029A-ms98-a-0069	A.123	344.219875	344.629875		quickly	quickly
sw3029A-ms98-a-0069	A.123	344.629875	344.699875		as	as
sw3029A-ms98-a-0069	A.123	344.699875	344.799875		he	he
sw3029A-ms98-a-0069	A.123	344.799875	345.209875		should	should
sw3029A-ms98-a-0069	A.123	345.209875	345.579875		have	have
sw3029A-ms98-a-0069	A.125	345.579875	345.769875		or	or
sw3029A-ms98-a-0069	A.125	345.769875	345.891250	<DEL>	---	or
sw3029A-ms98-a-0069	A.125	345.891250	346.231750		some	some
sw3029A-ms98-a-0069	A.127	346.231750	346.519875		some	some
sw3029A-ms98-a-0069	A.127	346.519875	346.916125		[silence]	[silence]
sw3029A-ms98-a-0070	A.127	346.916125	347.176125		[silence]	[silence]
sw3029A-ms98-a-0070	A.127	347.176125	347.486125		Mickey	Mickey
sw3029A-ms98-a-0070	A.127	347.486125	347.842750		Mouse	Mouse
sw3029A-ms98-a-0070	A.127	347.842750	348.134875		type	[laughter-type]
sw3029A-ms98-a-0070	A.127	348.134875	348.436000		thing	[laughter-thing]
sw3029A-ms98-a-0070	A.127	348.436000	348.686125		like	like
sw3029A-ms98-a-0070	A.127	348.686125	348.796125		that	that
sw3029A-ms98-a-0070	A.129	348.796125	348.850000		[silence]	[silence]
sw3029A-ms98-a-0071	A.129	348.850000	353.799125		[silence]	[silence]
sw3029A-ms98-a-0072	A.129	353.799125	354.315750		[silence]	[silence]
sw3029A-ms98-a-0072	A.129	354.315750	354.555000		Oh	oh
sw3029A-ms98-a-0072	A.129	354.555000	354.909125		yes	[laughter-yes]
sw3029A-ms98-a-0072	A.131	354.909125	356.151250		[laughter]	[laughter]
sw3029A-ms98-a-0072	A.131	356.151250	356.479500		[silence]	[silence]
sw3029A-ms98-a-0073	A.131	356.479500	365.677250		[silence]	[silence]
sw3029A-ms98-a-0074	A.131	365.677250	365.706000		[silence]	[silence]
sw3029A-ms98-a-0074	A.131	365.706000	366.206500		[laughter]	[laughter]
sw3029A-ms98-a-0074	A.131	366.206500	366.593750		Yes	[laughter-yes]
sw3029A-ms98-a-0074	A.133	366.593750	366.830250		[laughter]	[laughter]
sw3029A-ms98-a-0074	A.133	366.830250	367.272500		[silence]	[silence]
sw3029A-ms98-a-0075	A.133	367.272500	367.902500		[silence]	[silence]
sw3029A-ms98-a-0075	A.133	367.902500	368.232500		No	no
sw3029A-ms98-a-0075	A.133	368.232500	368.342500		I'm	i'm
sw3029A-ms98-a-0075	A.133	368.342500	368.472500		not	not
sw3029A-ms98-a-0075	A.133	368.472500	368.540750		a	a
sw3029A-ms98-a-0075	A.133	368.540750	369.101875		lawyer	lawyer
sw3029A-ms98-a-0075	A.135	369.101875	369.264500		I	i
sw3029A-ms98-a-0075	A.135	369.264500	369.577125		[silence]	[silence]
sw3029A-ms98-a-0075	A.135	369.577125	369.775000	<DEL>	---	i[t's]-
sw3029A-ms98-a-0075	A.135	369.775000	370.031125		[silence]	[silence]
sw3029A-ms98-a-0075	A.135	370.031125	370.102500	<DEL>	---	i
sw3029A-ms98-a-0075	A.135	370.102500	370.232500	<DEL>	---	i
sw3029A-ms98-a-0075	A.135	370.232500	370.632500		I'm	i'm
sw3029A-ms98-a-0075	A.135	370.632500	370.692500		an	an
sw3029A-ms98-a-0075	A.135	370.692500	371.252500		accountant	accountant
sw3029A-ms98-a-0075	A.135	371.252500	371.362500		and	and
sw3029A-ms98-a-0075	A.135	371.362500	371.512500		I	i
sw3029A-ms98-a-0075	A.135	371.512500	372.035250		agree	agree
sw3029A-ms98-a-0075	A.137	372.035250	372.282500		[silence]	[silence]
sw3029A-ms98-a-0075	A.137	372.282500	372.402500		We	we
sw3029A-ms98-a-0075	A.137	372.402500	372.862500		practice	practice
sw3029A-ms98-a-0075	A.137	372.862500	373.012500		law	law
sw3029A-ms98-a-0075	A.137	373.012500	373.502500		ourselves	ourselves
sw3029A-ms98-a-0075	A.137	373.502500	373.802500		because	because
sw3029A-ms98-a-0075	A.137	373.802500	373.952500		it's	it's
sw3029A-ms98-a-0075	A.137	373.952500	374.134500		too	too
sw3029A-ms98-a-0075	A.137	374.134500	374.682500		expensive	expensive
sw3029A-ms98-a-0075	A.137	374.682500	374.992500		to	to
sw3029A-ms98-a-0075	A.137	374.992500	375.225750		hire	hire
sw3029A-ms98-a-0075	A.137	375.225750	375.685250		lawyers	lawyers
sw3029A-ms98-a-0075	A.139	375.685250	376.222500		[laughter]	[laughter]
sw3029A-ms98-a-0075	A.139	376.222500	376.372500		to	to
sw3029A-ms98-a-0075	A.139	376.372500	376.432500		a	a
sw3029A-ms98-a-0075	A.139	376.432500	376.822500		degree	degree
sw3029A-ms98-a-0075	A.141	376.822500	377.844000		[silence]	[silence]
sw3029A-ms98-a-0076	A.141	377.844000	378.774000		[silence]	[silence]
sw3029A-ms98-a-0076	A.141	378.774000	379.034000		There	there
sw3029A-ms98-a-0076	A.141	379.034000	379.214000		you	you
sw3029A-ms98-a-0076	A.141	379.214000	379.354000		go	go
sw3029A-ms98-a-0076	A.143	379.354000	379.916625		[silence]	[silence]
sw3029A-ms98-a-0077	A.143	379.916625	387.698000		[silence]	[silence]
sw3029A-ms98-a-0078	A.143	387.698000	388.188000		[silence]	[silence]
sw3029A-ms98-a-0078	A.143	388.188000	388.398000		Well	well
sw3029A-ms98-a-0078	A.143	388.398000	388.508375		[silence]	[silence]
sw3029A-ms98-a-0078	A.143	388.508375	388.752250		it's	it's
sw3029A-ms98-a-0078	A.143	388.752250	388.937000		it's	it's
sw3029A-ms98-a-0078	A.143	388.937000	389.028000		a	a
sw3029A-ms98-a-0078	A.143	389.028000	389.428000		case	case
sw3029A-ms98-a-0078	A.143	389.428000	389.578000		that	that
sw3029A-ms98-a-0078	A.143	389.578000	389.828000		we	we
sw3029A-ms98-a-0078	A.143	389.828000	390.268000		have	have
sw3029A-ms98-a-0078	A.143	390.268000	390.582125		a	a
sw3029A-ms98-a-0078	A.143	390.582125	390.785625		a	a
sw3029A-ms98-a-0078	A.143	390.785625	391.199875		legal	legal
sw3029A-ms98-a-0078	A.143	391.199875	391.765250		system	system
sw3029A-ms98-a-0078	A.143	391.765250	392.218000		[silence]	[silence]
sw3029A-ms98-a-0078	A.143	392.218000	392.418000		which	which
sw3029A-ms98-a-0078	A.143	392.418000	392.488000		the	the
sw3029A-ms98-a-0078	A.143	392.488000	393.068000		criminals	criminals
sw3029A-ms98-a-0078	A.143	393.068000	393.238000		have	have
sw3029A-ms98-a-0078	A.143	393.238000	393.781625		found	found
sw3029A-ms98-a-0078	A.143	393.781625	394.128125		[silence]	[silence]
sw3029A-ms98-a-0078	A.143	394.128125	394.238000		a	a
sw3029A-ms98-a-0078	A.143	394.238000	394.619375		way	way
sw3029A-ms98-a-0078	A.143	394.619375	394.727000		[silence]	[silence]
sw3029A-ms98-a-0078	A.143	394.727000	395.004750		to	to
sw3029A-ms98-a-0078	A.143	395.004750	395.319000		[silence]	[silence]
sw3029A-ms98-a-0079	A.143	395.319000	395.559000		[silence]	[silence]
sw3029A-ms98-a-0079	A.143	395.559000	396.149000		use	use
sw3029A-ms98-a-0079	A.143	396.149000	396.319000		and	and
sw3029A-ms98-a-0079	A.143	396.319000	396.369000		a	a
sw3029A-ms98-a-0079	A.143	396.369000	396.679000		way	way
sw3029A-ms98-a-0079	A.143	396.679000	396.829000		to	to
sw3029A-ms98-a-0079	A.143	396.829000	397.429000		benefit	benefit
sw3029A-ms98-a-0079	A.143	397.429000	397.809000		them	them
sw3029A-ms98-a-0079	A.143	397.809000	398.119000		rather	rather
sw3029A-ms98-a-0079	A.143	398.119000	398.239000		than	than
sw3029A-ms98-a-0079	A.143	398.239000	398.299000		the	the
sw3029A-ms98-a-0079	A.143	398.299000	398.709000		public	public
sw3029A-ms98-a-0079	A.143	398.709000	399.309000		itself	itself
sw3029A-ms98-a-0079	A.145	399.309000	399.768875		[silence]	[silence]
sw3029A-ms98-a-0080	A.145	399.768875	400.478875		[silence]	[silence]
sw3029A-ms98-a-0080	A.145	400.478875	400.768875		So	so
sw3029A-ms98-a-0080	A.147	400.768875	401.310875		[silence]	[silence]
sw3029A-ms98-a-0081	A.147	401.310875	401.920875		[silence]	[silence]
sw3029A-ms98-a-0081	A.147	401.920875	402.150875		that's	that's
sw3029A-ms98-a-0081	A.147	402.150875	402.270875		how	how
sw3029A-ms98-a-0081	A.147	402.270875	402.420875		we	we
sw3029A-ms98-a-0081	A.147	402.420875	402.632125		get	get
sw3029A-ms98-a-0081	A.147	402.632125	402.880750		caught	caught
sw3029A-ms98-a-0081	A.147	402.880750	403.030875		in	in
sw3029A-ms98-a-0081	A.147	403.030875	403.470875		this	this
sw3029A-ms98-a-0081	A.147	403.470875	403.889875		uh	uh
sw3029A-ms98-a-0081	A.149	403.889875	404.070625		[silence]	[silence]
sw3029A-ms98-a-0081	A.149	404.070625	404.310875		sort	sort
sw3029A-ms98-a-0081	A.149	404.310875	404.370875		of	of
sw3029A-ms98-a-0081	A.149	404.370875	404.420875		a	a
sw3029A-ms98-a-0081	A.149	404.420875	404.760875		catch	catch
sw3029A-ms98-a-0081	A.149	404.760875	405.130875	<CONT>	twenty-two	twenty
sw3029A-ms98-a-0081	A.151	405.130875	405.600875	<CONT>	+++	two
sw3029A-ms98-a-0081	A.151	405.600875	405.985500		[silence]	[silence]
sw3029A-ms98-a-0082	A.151	405.985500	406.365500		[silence]	[silence]
sw3029A-ms98-a-0082	A.151	406.365500	406.565500		But	but
sw3029A-ms98-a-0082	A.151	406.565500	406.735500		you	you
sw3029A-ms98-a-0082	A.151	406.735500	406.935500		have	have
sw3029A-ms98-a-0082	A.151	406.935500	407.075500		to	to
sw3029A-ms98-a-0082	A.151	407.075500	408.035500		continue	continue
sw3029A-ms98-a-0082	A.151	408.035500	408.410250		uh	uh
sw3029A-ms98-a-0082	A.151	408.410250	408.774750		[silence]	[silence]
sw3029A-ms98-a-0083	A.151	408.774750	409.114750		[silence]	[silence]
sw3029A-ms98-a-0083	A.151	409.114750	409.204750		to	to
sw3029A-ms98-a-0083	A.151	409.204750	409.594750		protect	protect
sw3029A-ms98-a-0083	A.151	409.594750	409.739375		the	the
sw3029A-ms98-a-0083	A.151	409.739375	410.362500		innocent	innocent
sw3029A-ms98-a-0083	A.151	410.362500	410.464125		[silence]	[silence]
sw3029A-ms98-a-0083	A.151	410.464125	410.844750		you're	you're
sw3029A-ms98-a-0083	A.151	410.844750	411.164750		giving	giving
sw3029A-ms98-a-0083	A.151	411.164750	411.284750		an	an
sw3029A-ms98-a-0083	A.151	411.284750	411.704750		open	open
sw3029A-ms98-a-0083	A.151	411.704750	411.994750		door	door
sw3029A-ms98-a-0083	A.151	411.994750	412.114750		to	to
sw3029A-ms98-a-0083	A.151	412.114750	412.194750		the	the
sw3029A-ms98-a-0083	A.151	412.194750	412.644750		guilty	guilty
sw3029A-ms98-a-0083	A.153	412.644750	412.936125		[silence]	[silence]
sw3029A-ms98-a-0084	A.153	412.936125	422.842500		[silence]	[silence]
sw3029A-ms98-a-0085	A.153	422.842500	423.312500		[silence]	[silence]
sw3029A-ms98-a-0085	A.153	423.312500	423.562500		Yeah	yeah
sw3029A-ms98-a-0085	A.155	423.562500	423.994375		[silence]	[silence]
sw3029A-ms98-a-0086	A.155	423.994375	427.749875		[silence]	[silence]
sw3029A-ms98-a-0087	A.155	427.749875	428.247875		[silence]	[silence]
sw3029A-ms98-a-0087	A.155	428.247875	428.479875		Yes	[laughter-yes]
sw3029A-ms98-a-0087	A.157	428.479875	429.409875		[laughter]	[laughter]
sw3029A-ms98-a-0087	A.157	429.409875	429.589875		It	it
sw3029A-ms98-a-0087	A.157	429.589875	429.985375		does	does
sw3029A-ms98-a-0087	A.159	429.985375	430.113375		[silence]	[silence]
sw3029A-ms98-a-0087	A.159	430.113375	430.429875		most	most
sw3029A-ms98-a-0087	A.159	430.429875	430.829875		people	people
sw3029A-ms98-a-0087	A.161	430.829875	431.333375		[silence]	[silence]
sw3029A-ms98-a-0088	A.161	431.333375	437.523875		[silence]	[silence]
sw3029A-ms98-a-0089	A.161	437.523875	438.003875		[silence]	[silence]
sw3029A-ms98-a-0089	A.161	438.003875	438.163875	<DEL>	---	but
sw3029A-ms98-a-0089	A.161	438.163875	438.443875		Again	again
sw3029A-ms98-a-0089	A.161	438.443875	438.583875		one	one
sw3029A-ms98-a-0089	A.161	438.583875	438.673875		of	of
sw3029A-ms98-a-0089	A.161	438.673875	438.819875		our	our
sw3029A-ms98-a-0089	A.163	438.819875	439.261250		[silence]	[silence]
sw3029A-ms98-a-0090	A.163	439.261250	439.581250		[silence]	[silence]
sw3029A-ms98-a-0090	A.163	439.581250	439.801250		one	one
sw3029A-ms98-a-0090	A.163	439.801250	439.891250		of	of
sw3029A-ms98-a-0090	A.163	439.891250	440.011250		our	our
sw3029A-ms98-a-0090	A.163	440.011250	440.641250		problems	problems
sw3029A-ms98-a-0090	A.163	440.641250	441.151250		is	is
sw3029A-ms98-a-0090	A.163	441.151250	441.571250		that	that
sw3029A-ms98-a-0090	A.163	441.571250	441.671250		uh	uh
sw3029A-ms98-a-0090	A.163	441.671250	441.986000		our	our
sw3029A-ms98-a-0090	A.163	441.986000	442.150875		[silence]	[silence]
sw3029A-ms98-a-0090	A.163	442.150875	443.101250		legislature	legislature
sw3029A-ms98-a-0090	A.163	443.101250	443.301250		and	and
sw3029A-ms98-a-0090	A.163	443.301250	443.371250		the	the
sw3029A-ms98-a-0090	A.163	443.371250	443.881250		state	state
sw3029A-ms98-a-0090	A.163	443.881250	444.191250		and	and
sw3029A-ms98-a-0090	A.163	444.191250	444.351250		our	our
sw3029A-ms98-a-0090	A.163	444.351250	444.931250		national	national
sw3029A-ms98-a-0090	A.163	444.931250	445.678875		congress	congress
sw3029A-ms98-a-0090	A.163	445.678875	446.014125		[silence]	[silence]
sw3029A-ms98-a-0090	A.163	446.014125	446.121250		the	the
sw3029A-ms98-a-0090	A.163	446.121250	446.751250		majority	majority
sw3029A-ms98-a-0090	A.163	446.751250	446.811250		of	of
sw3029A-ms98-a-0090	A.163	446.811250	446.871250		the	the
sw3029A-ms98-a-0090	A.163	446.871250	447.361250		members	members
sw3029A-ms98-a-0090	A.163	447.361250	447.604125	<CONT>	thereof	there
sw3029A-ms98-a-0090	A.163	447.604125	447.901750	<CONT>	+++	of
sw3029A-ms98-a-0090	A.163	447.901750	448.404000		are	are
sw3029A-ms98-a-0090	A.163	448.404000	448.550875		[silence]	[silence]
sw3029A-ms98-a-0090	A.163	448.550875	449.130625		lawyers	lawyers
sw3029A-ms98-a-0090	A.163	449.130625	449.543500		[silence]	[silence]
