sw3086B-ms98-a-0001	B.2	0.000000	0.013250		[silence]	[silence]
sw3086B-ms98-a-0001	B.2	0.013250	0.051125		[noise]	[noise]
sw3086B-ms98-a-0001	B.2	0.051125	1.004625		[silence]	[silence]
sw3086B-ms98-a-0002	B.2	1.004625	2.246250		[silence]	[silence]
sw3086B-ms98-a-0003	B.2	2.246250	2.782500		[silence]	[silence]
sw3086B-ms98-a-0003	B.2	2.782500	2.906250		I	i
sw3086B-ms98-a-0003	B.2	2.906250	3.196250		have	have
sw3086B-ms98-a-0003	B.2	3.196250	3.316250		a	a
sw3086B-ms98-a-0003	B.2	3.316250	3.766250		personal	personal
sw3086B-ms98-a-0003	B.2	3.766250	4.216250		computer	computer
sw3086B-ms98-a-0003	B.2	4.216250	4.296250		at	at
sw3086B-ms98-a-0003	B.2	4.296250	4.791000		home	home
sw3086B-ms98-a-0003	B.2	4.791000	5.254375		[silence]	[silence]
sw3086B-ms98-a-0003	B.2	5.254375	5.452375		It's	it's
sw3086B-ms98-a-0003	B.2	5.452375	5.708500		an	an
sw3086B-ms98-a-0003	B.2	5.708500	6.352750	<CONT>	A	AT
sw3086B-ms98-a-0003	B.2	6.352750	6.352750	<CONT>	T	+++
sw3086B-ms98-a-0003	B.2	6.352750	6.450625		[silence]	[silence]
sw3086B-ms98-a-0003	B.2	6.450625	7.142250		compatible	compatible
sw3086B-ms98-a-0003	B.2	7.142250	7.369375		[silence]	[silence]
sw3086B-ms98-a-0004	B.2	7.369375	8.169375		[silence]	[silence]
sw3086B-ms98-a-0004	B.2	8.169375	8.259375		I	i
sw3086B-ms98-a-0004	B.2	8.259375	8.479375		don't	don't
sw3086B-ms98-a-0004	B.2	8.479375	8.679375		use	use
sw3086B-ms98-a-0004	B.2	8.679375	8.809375		it	it
sw3086B-ms98-a-0004	B.2	8.809375	9.039375		very	very
sw3086B-ms98-a-0004	B.2	9.039375	9.299375		much	much
sw3086B-ms98-a-0004	B.2	9.299375	9.459375		any	any
sw3086B-ms98-a-0004	B.2	9.459375	9.866500		more	more
sw3086B-ms98-a-0004	B.2	9.866500	10.390000		[silence]	[silence]
sw3086B-ms98-a-0004	B.2	10.390000	10.459375		I	i
sw3086B-ms98-a-0004	B.2	10.459375	10.659375		used	used
sw3086B-ms98-a-0004	B.2	10.659375	10.729375		to	to
sw3086B-ms98-a-0004	B.2	10.729375	10.919375		use	use
sw3086B-ms98-a-0004	B.2	10.919375	11.009375		it	it
sw3086B-ms98-a-0004	B.2	11.009375	11.249375		quite	quite
sw3086B-ms98-a-0004	B.2	11.249375	11.379000		a	a
sw3086B-ms98-a-0004	B.2	11.379000	11.699875		bit	bit
sw3086B-ms98-a-0004	B.4	11.699875	12.131375		[silence]	[silence]
sw3086B-ms98-a-0005	B.4	12.131375	12.721375		[silence]	[silence]
sw3086B-ms98-a-0005	B.4	12.721375	12.811375		I	i
sw3086B-ms98-a-0005	B.4	12.811375	13.201375		also	also
sw3086B-ms98-a-0005	B.4	13.201375	13.621375		have	have
sw3086B-ms98-a-0005	B.4	13.621375	13.711375		a	a
sw3086B-ms98-a-0005	B.4	13.711375	14.448750	<CONT>	P	PC
sw3086B-ms98-a-0005	B.4	14.448750	14.448750	<CONT>	C	+++
sw3086B-ms98-a-0005	B.4	14.448750	14.753875		[silence]	[silence]
sw3086B-ms98-a-0005	B.4	14.753875	14.931375		at	at
sw3086B-ms98-a-0005	B.4	14.931375	15.401375		work	work
sw3086B-ms98-a-0005	B.4	15.401375	15.521375		that	that
sw3086B-ms98-a-0005	B.4	15.521375	15.551375		I	i
sw3086B-ms98-a-0005	B.4	15.551375	15.831375		use	use
sw3086B-ms98-a-0005	B.4	15.831375	15.978125		as	as
sw3086B-ms98-a-0005	B.4	15.978125	16.049750		a	a
sw3086B-ms98-a-0005	B.4	16.049750	16.557125		terminal	terminal
sw3086B-ms98-a-0005	B.4	16.557125	17.651375		[silence]	[silence]
sw3086B-ms98-a-0005	B.4	17.651375	17.741375		I	i
sw3086B-ms98-a-0005	B.4	17.741375	17.981375		do	do
sw3086B-ms98-a-0005	B.4	17.981375	18.521375		some	some
sw3086B-ms98-a-0005	B.4	18.521375	18.890500		[silence]	[silence]
sw3086B-ms98-a-0005	B.4	18.890500	19.491375	<CONT>	P	PC
sw3086B-ms98-a-0005	B.4	19.491375	19.491375	<CONT>	C	+++
sw3086B-ms98-a-0005	B.4	19.491375	19.871375		stand	stand
sw3086B-ms98-a-0005	B.4	19.871375	20.121375		alone	alone
sw3086B-ms98-a-0005	B.4	20.121375	20.431375		work	work
sw3086B-ms98-a-0005	B.4	20.431375	20.591375		on	on
sw3086B-ms98-a-0005	B.4	20.591375	20.701375		it	it
sw3086B-ms98-a-0005	B.4	20.701375	21.601375		[silence]	[silence]
sw3086B-ms98-a-0005	B.4	21.601375	21.741375		and	and
sw3086B-ms98-a-0005	B.4	21.741375	21.841375		I	i
sw3086B-ms98-a-0005	B.4	21.841375	22.216500		can	can
sw3086B-ms98-a-0005	B.4	22.216500	22.476375		[silence]	[silence]
sw3086B-ms98-a-0005	B.4	22.476375	22.981375		transfer	transfer
sw3086B-ms98-a-0005	B.4	22.981375	23.241375		data	data
sw3086B-ms98-a-0005	B.4	23.241375	23.491375		back	back
sw3086B-ms98-a-0005	B.4	23.491375	23.611375		and	and
sw3086B-ms98-a-0005	B.4	23.611375	24.021375		forth	forth
sw3086B-ms98-a-0005	B.4	24.021375	24.401375		between	between
sw3086B-ms98-a-0005	B.4	24.401375	24.461375		the	the
sw3086B-ms98-a-0005	B.4	24.461375	25.107500	<CONT>	P	PC
sw3086B-ms98-a-0005	B.4	25.107500	25.107500	<CONT>	C	+++
sw3086B-ms98-a-0005	B.4	25.107500	25.476625		[silence]	[silence]
sw3086B-ms98-a-0005	B.4	25.476625	25.631375		and	and
sw3086B-ms98-a-0005	B.4	25.631375	25.691375		the	the
sw3086B-ms98-a-0005	B.4	25.691375	25.941375		main	main
sw3086B-ms98-a-0005	B.4	25.941375	26.249500		frame	frame
sw3086B-ms98-a-0005	B.6	26.249500	26.728250		[silence]	[silence]
sw3086B-ms98-a-0006	B.6	26.728250	27.898875		[silence]	[silence]
sw3086B-ms98-a-0007	B.6	27.898875	28.387625		[silence]	[silence]
sw3086B-ms98-a-0007	B.6	28.387625	28.468875		What	what
sw3086B-ms98-a-0007	B.6	28.468875	28.718875		about	about
sw3086B-ms98-a-0007	B.6	28.718875	28.968875		you	you
sw3086B-ms98-a-0007	B.6	28.968875	29.068875		Do	do
sw3086B-ms98-a-0007	B.6	29.068875	29.228875		you	you
sw3086B-ms98-a-0007	B.6	29.228875	29.348875		own	own
sw3086B-ms98-a-0007	B.6	29.348875	29.408875		a	a
sw3086B-ms98-a-0007	B.6	29.408875	29.818875		computer	computer
sw3086B-ms98-a-0007	B.8	29.818875	30.431500		[silence]	[silence]
sw3086B-ms98-a-0008	B.8	30.431500	35.914375		[silence]	[silence]
sw3086B-ms98-a-0009	B.8	35.914375	36.394375		[silence]	[silence]
sw3086B-ms98-a-0009	B.8	36.394375	36.524375		Are	are
sw3086B-ms98-a-0009	B.8	36.524375	36.654375		you	you
sw3086B-ms98-a-0009	B.8	36.654375	37.014375		leasing	leasing
sw3086B-ms98-a-0009	B.8	37.014375	37.225500		them	them
sw3086B-ms98-a-0009	B.10	37.225500	37.734625		[silence]	[silence]
sw3086B-ms98-a-0010	B.10	37.734625	39.870875		[silence]	[silence]
sw3086B-ms98-a-0011	B.10	39.870875	40.335750		[silence]	[silence]
sw3086B-ms98-a-0011	B.10	40.335750	40.532000	<DEL>	---	l[oners]-
sw3086B-ms98-a-0011	B.10	40.532000	40.762125		[silence]	[silence]
sw3086B-ms98-a-0011	B.10	40.762125	41.150875		Loaners	loaners
sw3086B-ms98-a-0011	B.10	41.150875	41.310875		from	from
sw3086B-ms98-a-0011	B.10	41.310875	41.666375		work	work
sw3086B-ms98-a-0011	B.12	41.666375	42.177500		[silence]	[silence]
sw3086B-ms98-a-0012	B.12	42.177500	43.761500		[silence]	[silence]
sw3086B-ms98-a-0013	B.12	43.761500	44.259750		[silence]	[silence]
sw3086B-ms98-a-0013	B.12	44.259750	44.311500		Do	do
sw3086B-ms98-a-0013	B.12	44.311500	44.401500		you	you
sw3086B-ms98-a-0013	B.12	44.401500	44.631500		work	work
sw3086B-ms98-a-0013	B.12	44.631500	44.781500		for	for
sw3086B-ms98-a-0013	B.12	44.781500	45.207125	<CONT>	T	TI
sw3086B-ms98-a-0013	B.12	45.207125	45.207125	<CONT>	I	+++
sw3086B-ms98-a-0013	B.14	45.207125	45.757500		[silence]	[silence]
sw3086B-ms98-a-0014	B.14	45.757500	58.196250		[silence]	[silence]
sw3086B-ms98-a-0015	B.14	58.196250	58.666250		[silence]	[silence]
sw3086B-ms98-a-0015	B.14	58.666250	58.806250		What	what
sw3086B-ms98-a-0015	B.14	58.806250	59.126250		brand	brand
sw3086B-ms98-a-0015	B.14	59.126250	59.276250		are	are
sw3086B-ms98-a-0015	B.14	59.276250	59.456250		they	they
sw3086B-ms98-a-0015	B.16	59.456250	59.901000		[silence]	[silence]
sw3086B-ms98-a-0016	B.16	59.901000	60.958750		[silence]	[silence]
sw3086B-ms98-a-0017	B.16	60.958750	61.452625		[silence]	[silence]
sw3086B-ms98-a-0017	B.16	61.452625	61.825250	<SUB>	Uh-huh	um-hum
sw3086B-ms98-a-0017	B.18	61.825250	62.150750		[silence]	[silence]
sw3086B-ms98-a-0018	B.18	62.150750	63.325125		[silence]	[silence]
sw3086B-ms98-a-0019	B.18	63.325125	63.795125		[silence]	[silence]
sw3086B-ms98-a-0019	B.18	63.795125	63.925125		I'm	i'm
sw3086B-ms98-a-0019	B.18	63.925125	64.412250		jealous	jealous
sw3086B-ms98-a-0019	B.20	64.412250	64.795000		[silence]	[silence]
sw3086B-ms98-a-0020	B.20	64.795000	88.923125		[silence]	[silence]
sw3086B-ms98-a-0021	B.20	88.923125	89.564500		[silence]	[silence]
sw3086B-ms98-a-0021	B.20	89.564500	89.713125		What	what
sw3086B-ms98-a-0021	B.20	89.713125	89.893125		kind	kind
sw3086B-ms98-a-0021	B.20	89.893125	89.953125		of	of
sw3086B-ms98-a-0021	B.20	89.953125	90.583125		consulting	consulting
sw3086B-ms98-a-0021	B.20	90.583125	90.663125		do	do
sw3086B-ms98-a-0021	B.20	90.663125	90.783125		you	you
sw3086B-ms98-a-0021	B.20	90.783125	91.013125		do	do
sw3086B-ms98-a-0021	B.22	91.013125	91.428250		[silence]	[silence]
sw3086B-ms98-a-0022	B.22	91.428250	98.397500		[silence]	[silence]
sw3086B-ms98-a-0023	B.22	98.397500	98.913000		[silence]	[silence]
sw3086B-ms98-a-0023	B.22	98.913000	99.277500		Uh-huh	uh-huh
sw3086B-ms98-a-0023	B.24	99.277500	99.987125		[silence]	[silence]
sw3086B-ms98-a-0024	B.24	99.987125	103.304250		[silence]	[silence]
sw3086B-ms98-a-0025	B.24	103.304250	103.784125		[silence]	[silence]
sw3086B-ms98-a-0025	B.24	103.784125	103.904250		What	what
sw3086B-ms98-a-0025	B.24	103.904250	104.064250		kind	kind
sw3086B-ms98-a-0025	B.24	104.064250	104.164250		of	of
sw3086B-ms98-a-0025	B.24	104.164250	104.394250		work	work
sw3086B-ms98-a-0025	B.24	104.394250	104.474250		do	do
sw3086B-ms98-a-0025	B.24	104.474250	104.554250		you	you
sw3086B-ms98-a-0025	B.24	104.554250	104.694250		do	do
sw3086B-ms98-a-0025	B.24	104.694250	104.874250		when	when
sw3086B-ms98-a-0025	B.24	104.874250	104.974250		you're	you're
sw3086B-ms98-a-0025	B.24	104.974250	105.557750		consulting	consulting
sw3086B-ms98-a-0025	B.26	105.557750	106.033500		[silence]	[silence]
sw3086B-ms98-a-0026	B.26	106.033500	110.071500		[silence]	[silence]
sw3086B-ms98-a-0027	B.26	110.071500	110.578875		[silence]	[silence]
sw3086B-ms98-a-0027	B.26	110.578875	110.721500		Is	is
sw3086B-ms98-a-0027	B.26	110.721500	110.871500		it	it
sw3086B-ms98-a-0027	B.26	110.871500	111.411500		programming	programming
sw3086B-ms98-a-0027	B.26	111.411500	111.907125		related	related
sw3086B-ms98-a-0027	B.28	111.907125	112.580500		[silence]	[silence]
sw3086B-ms98-a-0028	B.28	112.580500	120.884375		[silence]	[silence]
sw3086B-ms98-a-0029	B.28	120.884375	121.384375		[silence]	[silence]
sw3086B-ms98-a-0029	B.28	121.384375	121.914375		Uh-huh	uh-huh
sw3086B-ms98-a-0029	B.30	121.914375	122.436500		[silence]	[silence]
sw3086B-ms98-a-0030	B.30	122.436500	136.736125		[silence]	[silence]
sw3086B-ms98-a-0031	B.30	136.736125	137.249250		[silence]	[silence]
sw3086B-ms98-a-0031	B.30	137.249250	137.456125		Word	word
sw3086B-ms98-a-0031	B.30	137.456125	138.278250		processing	processing
sw3086B-ms98-a-0031	B.32	138.278250	138.887375		[silence]	[silence]
sw3086B-ms98-a-0032	B.32	138.887375	141.327875		[silence]	[silence]
sw3086B-ms98-a-0033	B.32	141.327875	141.827875		[silence]	[silence]
sw3086B-ms98-a-0033	B.32	141.827875	142.047875		No	no
sw3086B-ms98-a-0033	B.32	142.047875	142.127875		I'm	i'm
sw3086B-ms98-a-0033	B.34	142.127875	142.327875		not	not
sw3086B-ms98-a-0033	B.34	142.327875	142.597875		familiar	familiar
sw3086B-ms98-a-0033	B.34	142.597875	142.737875		with	with
sw3086B-ms98-a-0033	B.34	142.737875	142.903000	<SUB>	that	it
sw3086B-ms98-a-0033	B.36	142.903000	143.363500		[silence]	[silence]
sw3086B-ms98-a-0034	B.36	143.363500	149.993750		[silence]	[silence]
sw3086B-ms98-a-0035	B.36	149.993750	150.563750		[silence]	[silence]
sw3086B-ms98-a-0035	B.36	150.563750	151.060375	<SUB>	Uh-huh	um-hum
sw3086B-ms98-a-0035	B.38	151.060375	151.615000		[silence]	[silence]
sw3086B-ms98-a-0036	B.38	151.615000	183.150750		[silence]	[silence]
sw3086B-ms98-a-0037	B.38	183.150750	183.621000		[silence]	[silence]
sw3086B-ms98-a-0037	B.38	183.621000	183.850750		So	so
sw3086B-ms98-a-0037	B.38	183.850750	184.060750		you've	you've
sw3086B-ms98-a-0037	B.38	184.060750	184.307250		got	got
sw3086B-ms98-a-0037	B.38	184.307250	184.424125		[silence]	[silence]
sw3086B-ms98-a-0037	B.38	184.424125	184.570750		you've	you've
sw3086B-ms98-a-0037	B.38	184.570750	184.760750		got	got
sw3086B-ms98-a-0037	B.38	184.760750	184.810750		a	a
sw3086B-ms98-a-0037	B.38	184.810750	185.140750		modem	modem
sw3086B-ms98-a-0037	B.38	185.140750	185.250750		in	in
sw3086B-ms98-a-0037	B.38	185.250750	185.360750		it	it
sw3086B-ms98-a-0037	B.38	185.360750	185.552000		then	then
sw3086B-ms98-a-0037	B.40	185.552000	186.103250		[silence]	[silence]
sw3086B-ms98-a-0038	B.40	186.103250	189.561625		[silence]	[silence]
sw3086B-ms98-a-0039	B.40	189.561625	190.071625		[silence]	[silence]
sw3086B-ms98-a-0039	B.40	190.071625	190.131625		At	at
sw3086B-ms98-a-0039	B.40	190.131625	190.446625		home	home
sw3086B-ms98-a-0039	B.42	190.446625	190.744250		[silence]	[silence]
sw3086B-ms98-a-0039	B.42	190.744250	190.891625		you	you
sw3086B-ms98-a-0039	B.42	190.891625	191.091625		have	have
sw3086B-ms98-a-0039	B.42	191.091625	191.161625		a	a
sw3086B-ms98-a-0039	B.42	191.161625	191.471625		modem	modem
sw3086B-ms98-a-0039	B.42	191.471625	191.591625		that	that
sw3086B-ms98-a-0039	B.42	191.591625	191.701625		you	you
sw3086B-ms98-a-0039	B.42	191.701625	191.841625		can	can
sw3086B-ms98-a-0039	B.42	191.841625	192.151625		connect	connect
sw3086B-ms98-a-0039	B.42	192.151625	192.251625		to	to
sw3086B-ms98-a-0039	B.42	192.251625	192.421625		each	each
sw3086B-ms98-a-0039	B.42	192.421625	192.531625		of	of
sw3086B-ms98-a-0039	B.42	192.531625	192.806125		them	them
sw3086B-ms98-a-0039	B.44	192.806125	193.417875		[silence]	[silence]
sw3086B-ms98-a-0040	B.44	193.417875	193.977875		[silence]	[silence]
sw3086B-ms98-a-0040	B.44	193.977875	194.147875		Uh	uh
sw3086B-ms98-a-0040	B.44	194.147875	194.267875		and	and
sw3086B-ms98-a-0040	B.44	194.267875	194.417875		so	so
sw3086B-ms98-a-0040	B.44	194.417875	194.537875		it's	it's
sw3086B-ms98-a-0040	B.44	194.537875	194.647875		an	an
sw3086B-ms98-a-0040	B.44	194.647875	195.067875		external	external
sw3086B-ms98-a-0040	B.44	195.067875	195.887875		modem	modem
sw3086B-ms98-a-0040	B.46	195.887875	195.987875		I	i
sw3086B-ms98-a-0040	B.46	195.987875	196.177875		got	got
sw3086B-ms98-a-0040	B.46	196.177875	196.367875		when	when
sw3086B-ms98-a-0040	B.46	196.367875	196.417875		I	i
sw3086B-ms98-a-0040	B.46	196.417875	196.627875		got	got
sw3086B-ms98-a-0040	B.46	196.627875	196.827875		mine	mine
sw3086B-ms98-a-0040	B.46	196.827875	196.937875		I	i
sw3086B-ms98-a-0040	B.46	196.937875	197.067875		had	had
sw3086B-ms98-a-0040	B.46	197.067875	197.137875		an	an
sw3086B-ms98-a-0040	B.46	197.137875	197.497875		internal	internal
sw3086B-ms98-a-0040	B.46	197.497875	197.807875		modem	modem
sw3086B-ms98-a-0040	B.46	197.807875	197.917875		in	in
sw3086B-ms98-a-0040	B.46	197.917875	198.056750		it	it
sw3086B-ms98-a-0040	B.48	198.056750	198.795000		[silence]	[silence]
sw3086B-ms98-a-0040	B.48	198.795000	198.867875		I	i
sw3086B-ms98-a-0040	B.48	198.867875	199.177875		used	used
sw3086B-ms98-a-0040	B.48	199.177875	199.257875		it	it
sw3086B-ms98-a-0040	B.48	199.257875	199.287875		uh	uh
sw3086B-ms98-a-0040	B.48	199.287875	199.577875		quite	quite
sw3086B-ms98-a-0040	B.48	199.577875	199.637875		a	a
sw3086B-ms98-a-0040	B.48	199.637875	199.867875		bit	bit
sw3086B-ms98-a-0040	B.48	199.867875	200.057875		when	when
sw3086B-ms98-a-0040	B.48	200.057875	200.097875		I	i
sw3086B-ms98-a-0040	B.48	200.097875	200.447875		was	was
sw3086B-ms98-a-0040	B.48	200.447875	200.764625	<SUB>	uh	um
sw3086B-ms98-a-0040	B.48	200.764625	201.196500		[silence]	[silence]
sw3086B-ms98-a-0041	B.48	201.196500	201.543875		[silence]	[silence]
sw3086B-ms98-a-0041	B.48	201.543875	201.946375		uh	uh
sw3086B-ms98-a-0041	B.48	201.946375	202.115750		[silence]	[silence]
sw3086B-ms98-a-0041	B.48	202.115750	202.466500		looking	looking
sw3086B-ms98-a-0041	B.48	202.466500	202.786500		at	at
sw3086B-ms98-a-0041	B.48	202.786500	202.956500		uh	uh
sw3086B-ms98-a-0041	B.48	202.956500	203.765625		information	information
sw3086B-ms98-a-0041	B.48	203.765625	204.538000		[silence]	[silence]
sw3086B-ms98-a-0041	B.48	204.538000	204.806500		on	on
sw3086B-ms98-a-0041	B.48	204.806500	204.926500		[silence]	[silence]
sw3086B-ms98-a-0041	B.48	204.926500	205.285000		a	a
sw3086B-ms98-a-0041	B.48	205.285000	205.642750	<DEL>	---	uh
sw3086B-ms98-a-0041	B.48	205.642750	206.122250		[silence]	[silence]
sw3086B-ms98-a-0041	B.48	206.122250	206.501250		large	large
sw3086B-ms98-a-0041	B.48	206.501250	206.836500		bulletin	bulletin
sw3086B-ms98-a-0041	B.48	206.836500	207.076500		board	board
sw3086B-ms98-a-0041	B.48	207.076500	207.586500		sponsored	sponsored
sw3086B-ms98-a-0041	B.48	207.586500	208.096500		by	by
sw3086B-ms98-a-0041	B.48	208.096500	208.366500		a	a
sw3086B-ms98-a-0041	B.48	208.366500	209.006500		newspaper	newspaper
sw3086B-ms98-a-0041	B.48	209.006500	209.106500		in	in
sw3086B-ms98-a-0041	B.48	209.106500	209.154750		a	a
sw3086B-ms98-a-0041	B.48	209.154750	209.296500		[silence]	[silence]
sw3086B-ms98-a-0042	B.48	209.296500	209.424000		[silence]	[silence]
sw3086B-ms98-a-0042	B.48	209.424000	209.643375		in	in
sw3086B-ms98-a-0042	B.48	209.643375	209.726875		[silence]	[silence]
sw3086B-ms98-a-0042	B.48	209.726875	209.896500		Fort	Fort
sw3086B-ms98-a-0042	B.48	209.896500	210.318125		Worth	Worth
sw3086B-ms98-a-0042	B.50	210.318125	211.536500		[silence]	[silence]
sw3086B-ms98-a-0042	B.50	211.536500	211.886500		but	but
sw3086B-ms98-a-0042	B.50	211.886500	212.228125		uh	uh
sw3086B-ms98-a-0042	B.50	212.228125	212.962625		[silence]	[silence]
sw3086B-ms98-a-0042	B.50	212.962625	213.116500		went	went
sw3086B-ms98-a-0042	B.50	213.116500	213.226500		out	out
sw3086B-ms98-a-0042	B.50	213.226500	213.336500		of	of
sw3086B-ms98-a-0042	B.50	213.336500	213.616500		town	town
sw3086B-ms98-a-0042	B.50	213.616500	213.741875		for	for
sw3086B-ms98-a-0042	B.50	213.741875	213.805875		a	a
sw3086B-ms98-a-0042	B.50	213.805875	214.186500		while	while
sw3086B-ms98-a-0042	B.50	214.186500	214.426500		and	and
sw3086B-ms98-a-0042	B.50	214.426500	214.626500		and	and
sw3086B-ms98-a-0042	B.50	214.626500	214.856500		sort	sort
sw3086B-ms98-a-0042	B.50	214.856500	214.946500		of	of
sw3086B-ms98-a-0042	B.50	214.946500	215.151000		got	got
sw3086B-ms98-a-0042	B.50	215.151000	215.433375		off	off
sw3086B-ms98-a-0042	B.50	215.433375	215.715875		the	the
sw3086B-ms98-a-0042	B.50	215.715875	216.066500		uh	uh
sw3086B-ms98-a-0042	B.50	216.066500	216.316500		[silence]	[silence]
sw3086B-ms98-a-0042	B.50	216.316500	216.546500	<DEL>	---	uh
sw3086B-ms98-a-0042	B.50	216.546500	216.946500		bulletin	bulletin
sw3086B-ms98-a-0042	B.50	216.946500	217.256500		board	board
sw3086B-ms98-a-0042	B.50	217.256500	217.363875		and	and
sw3086B-ms98-a-0042	B.50	217.363875	217.587375		off	off
sw3086B-ms98-a-0042	B.50	217.587375	217.691500		of	of
sw3086B-ms98-a-0042	B.50	217.691500	217.826500		my	my
sw3086B-ms98-a-0042	B.50	217.826500	218.302875		micro	micro
sw3086B-ms98-a-0042	B.50	218.302875	218.862375		completely	completely
sw3086B-ms98-a-0042	B.52	218.862375	218.990625		[silence]	[silence]
sw3086B-ms98-a-0043	B.52	218.990625	219.998500		[silence]	[silence]
sw3086B-ms98-a-0043	B.52	219.998500	220.400625		and	and
sw3086B-ms98-a-0043	B.52	220.400625	220.650625		after	after
sw3086B-ms98-a-0043	B.52	220.650625	220.770625		a	a
sw3086B-ms98-a-0043	B.52	220.770625	221.070625		while	while
sw3086B-ms98-a-0043	B.52	221.070625	221.200625		the	the
sw3086B-ms98-a-0043	B.52	221.200625	221.540625		modem	modem
sw3086B-ms98-a-0043	B.52	221.540625	221.890625		started	started
sw3086B-ms98-a-0043	B.52	221.890625	222.210625		making	making
sw3086B-ms98-a-0043	B.52	222.210625	222.660625		noises	noises
sw3086B-ms98-a-0043	B.52	222.660625	222.810625		on	on
sw3086B-ms98-a-0043	B.52	222.810625	222.960625		its	its
sw3086B-ms98-a-0043	B.52	222.960625	223.460625		own	own
sw3086B-ms98-a-0043	B.52	223.460625	224.010625		without	without
sw3086B-ms98-a-0043	B.52	224.010625	224.350875		uh	uh
sw3086B-ms98-a-0043	B.52	224.350875	225.070250		[silence]	[silence]
sw3086B-ms98-a-0043	B.52	225.070250	225.350625		even	even
sw3086B-ms98-a-0043	B.52	225.350625	225.650625		without	without
sw3086B-ms98-a-0043	B.52	225.650625	225.990625		using	using
sw3086B-ms98-a-0043	B.52	225.990625	226.110625		it	it
sw3086B-ms98-a-0043	B.52	226.110625	226.180625		on	on
sw3086B-ms98-a-0043	B.52	226.180625	226.240625		the	the
sw3086B-ms98-a-0043	B.52	226.240625	226.844625		computer	computer
sw3086B-ms98-a-0043	B.52	226.844625	226.999125		[silence]	[silence]
sw3086B-ms98-a-0043	B.52	226.999125	227.080625		I	i
sw3086B-ms98-a-0043	B.52	227.080625	227.240625		could	could
sw3086B-ms98-a-0043	B.52	227.240625	227.430625		turn	turn
sw3086B-ms98-a-0043	B.52	227.430625	227.490625		a	a
sw3086B-ms98-a-0043	B.52	227.490625	227.900625		computer	computer
sw3086B-ms98-a-0043	B.52	227.900625	228.010625		on	on
sw3086B-ms98-a-0043	B.52	228.010625	228.130625		it'd	it'd
sw3086B-ms98-a-0043	B.52	228.130625	228.340625		start	start
sw3086B-ms98-a-0043	B.52	228.340625	228.760625		squawking	squawking
sw3086B-ms98-a-0043	B.52	228.760625	228.960625		So	so
sw3086B-ms98-a-0043	B.52	228.960625	229.010625		I	i
sw3086B-ms98-a-0043	B.52	229.010625	229.290625		finally	finally
sw3086B-ms98-a-0043	B.52	229.290625	229.560625		opened	opened
sw3086B-ms98-a-0043	B.52	229.560625	229.690625		up	up
sw3086B-ms98-a-0043	B.52	229.690625	229.750625		the	the
sw3086B-ms98-a-0043	B.52	229.750625	230.080625		box	box
sw3086B-ms98-a-0043	B.52	230.080625	230.170625		and	and
sw3086B-ms98-a-0043	B.52	230.170625	230.320625		took	took
sw3086B-ms98-a-0043	B.52	230.320625	230.420625		it	it
sw3086B-ms98-a-0043	B.52	230.420625	230.580375		out	out
sw3086B-ms98-a-0043	B.54	230.580375	231.080000		[silence]	[silence]
sw3086B-ms98-a-0044	B.54	231.080000	232.693500		[silence]	[silence]
sw3086B-ms98-a-0045	B.54	232.693500	233.269625		[silence]	[silence]
sw3086B-ms98-a-0045	B.54	233.269625	233.353500		I	i
sw3086B-ms98-a-0045	B.54	233.353500	233.563500		think	think
sw3086B-ms98-a-0045	B.54	233.563500	233.773500		that's	that's
sw3086B-ms98-a-0045	B.54	233.773500	233.833500		the	the
sw3086B-ms98-a-0045	B.54	233.833500	234.073500		thirty	thirty
sw3086B-ms98-a-0045	B.54	234.073500	234.403500		second	second
sw3086B-ms98-a-0045	B.54	234.403500	234.753500		warning	warning
sw3086B-ms98-a-0045	B.56	234.753500	235.195875		[silence]	[silence]
sw3086B-ms98-a-0046	B.56	235.195875	239.817125		[silence]	[silence]
sw3086B-ms98-a-0047	B.56	239.817125	240.317125		[silence]	[silence]
sw3086B-ms98-a-0047	B.56	240.317125	240.717125		Yes	yes
sw3086B-ms98-a-0047	B.58	240.717125	241.219000		[silence]	[silence]
sw3086B-ms98-a-0048	B.58	241.219000	244.378000		[silence]	[silence]
sw3086B-ms98-a-0049	B.58	244.378000	244.880125		[silence]	[silence]
sw3086B-ms98-a-0049	B.58	244.880125	245.367000		Okay	okay
sw3086B-ms98-a-0049	B.58	245.367000	245.562875		[silence]	[silence]
sw3086B-ms98-a-0049	B.58	245.562875	245.817500		Where	where
sw3086B-ms98-a-0049	B.60	245.817500	246.634875		[silence]	[silence]
sw3086B-ms98-a-0050	B.60	246.634875	247.504375		[silence]	[silence]
sw3086B-ms98-a-0050	B.60	247.504375	247.704875		Where	where
sw3086B-ms98-a-0050	B.60	247.704875	247.974875		are	are
sw3086B-ms98-a-0050	B.60	247.974875	248.274875		you	you
sw3086B-ms98-a-0050	B.60	248.274875	248.574875		and	and
sw3086B-ms98-a-0050	B.60	248.574875	248.904875		uh	uh
sw3086B-ms98-a-0050	B.62	248.904875	249.948000		[silence]	[silence]
sw3086B-ms98-a-0051	B.62	249.948000	250.995125		[silence]	[silence]
sw3086B-ms98-a-0051	B.62	250.995125	251.158000		Are	are
sw3086B-ms98-a-0051	B.62	251.158000	251.278000		you	you
sw3086B-ms98-a-0051	B.62	251.278000	251.338000		at	at
sw3086B-ms98-a-0051	B.62	251.338000	251.638000		home	home
sw3086B-ms98-a-0051	B.62	251.638000	251.945500		now	now
sw3086B-ms98-a-0051	B.64	251.945500	252.815500		[silence]	[silence]
sw3086B-ms98-a-0051	B.64	252.815500	253.008000		So	so
sw3086B-ms98-a-0051	B.64	253.008000	253.168000		you've	you've
sw3086B-ms98-a-0051	B.64	253.168000	253.328000		got	got
sw3086B-ms98-a-0051	B.64	253.328000	253.378000		a	a
sw3086B-ms98-a-0051	B.64	253.378000	253.558000		lot	lot
sw3086B-ms98-a-0051	B.64	253.558000	253.628000		of	of
sw3086B-ms98-a-0051	B.64	253.628000	254.008000		traffic	traffic
sw3086B-ms98-a-0051	B.64	254.008000	254.288000		noise	noise
sw3086B-ms98-a-0051	B.64	254.288000	254.398000		real	real
sw3086B-ms98-a-0051	B.64	254.398000	254.960875		close	close
sw3086B-ms98-a-0051	B.66	254.960875	255.445375		[silence]	[silence]
sw3086B-ms98-a-0052	B.66	255.445375	279.000625		[silence]	[silence]
sw3086B-ms98-a-0053	B.66	279.000625	279.510625		[silence]	[silence]
sw3086B-ms98-a-0053	B.66	279.510625	279.770625		What	what
sw3086B-ms98-a-0053	B.66	279.770625	280.070625		time	time
sw3086B-ms98-a-0053	B.66	280.070625	280.240625		is	is
sw3086B-ms98-a-0053	B.66	280.240625	280.380625		it	it
sw3086B-ms98-a-0053	B.66	280.380625	280.610625		now	now
sw3086B-ms98-a-0053	B.66	280.610625	280.770625		where	where
sw3086B-ms98-a-0053	B.66	280.770625	280.900625		you	you
sw3086B-ms98-a-0053	B.66	280.900625	281.250625		are	are
sw3086B-ms98-a-0053	B.68	281.250625	281.946125		[silence]	[silence]
sw3086B-ms98-a-0054	B.68	281.946125	283.320250		[silence]	[silence]
sw3086B-ms98-a-0055	B.68	283.320250	283.813375		[silence]	[silence]
sw3086B-ms98-a-0055	B.68	283.813375	283.960250		So	so
sw3086B-ms98-a-0055	B.68	283.960250	284.080250		you're	you're
sw3086B-ms98-a-0055	B.68	284.080250	284.170250		an	an
sw3086B-ms98-a-0055	B.68	284.170250	284.450250		hour	hour
sw3086B-ms98-a-0055	B.68	284.450250	284.700250		ahead	ahead
sw3086B-ms98-a-0055	B.68	284.700250	284.940250		of	of
sw3086B-ms98-a-0055	B.68	284.940250	285.090250		where	where
sw3086B-ms98-a-0055	B.68	285.090250	285.160250		I	i
sw3086B-ms98-a-0055	B.68	285.160250	285.400250		am	am
sw3086B-ms98-a-0055	B.68	285.400250	285.490250		I'm	i'm
sw3086B-ms98-a-0055	B.68	285.490250	285.560250		in	in
sw3086B-ms98-a-0055	B.68	285.560250	285.930250		Central	Central
sw3086B-ms98-a-0055	B.70	285.930250	286.290250		[silence]	[silence]
sw3086B-ms98-a-0055	B.70	286.290250	286.570250		Central	Central
sw3086B-ms98-a-0055	B.70	286.570250	286.790250		time	time
sw3086B-ms98-a-0055	B.70	286.790250	287.209625		zone	zone
sw3086B-ms98-a-0055	B.72	287.209625	287.572750		[silence]	[silence]
sw3086B-ms98-a-0056	B.72	287.572750	294.373875		[silence]	[silence]
sw3086B-ms98-a-0057	B.72	294.373875	294.990875		[silence]	[silence]
sw3086B-ms98-a-0057	B.72	294.990875	295.318625		No	no
sw3086B-ms98-a-0057	B.72	295.318625	295.717875		[silence]	[silence]
sw3086B-ms98-a-0057	B.72	295.717875	295.833875		I	i
sw3086B-ms98-a-0057	B.72	295.833875	296.153875		haven't	haven't
sw3086B-ms98-a-0057	B.72	296.153875	296.373875		done	done
sw3086B-ms98-a-0057	B.72	296.373875	296.633875		that	that
sw3086B-ms98-a-0057	B.72	296.633875	296.750750		[silence]	[silence]
sw3086B-ms98-a-0057	B.72	296.750750	297.097375		Uh	uh
sw3086B-ms98-a-0057	B.72	297.097375	297.233000		I	i
sw3086B-ms98-a-0057	B.72	297.233000	297.393875		know	know
sw3086B-ms98-a-0057	B.72	297.393875	297.733875		someone	someone
sw3086B-ms98-a-0057	B.72	297.733875	297.823875		who	who
sw3086B-ms98-a-0057	B.72	297.823875	298.133875		has	has
sw3086B-ms98-a-0057	B.72	298.133875	298.493875		and	and
sw3086B-ms98-a-0057	B.72	298.493875	298.623875		and	and
sw3086B-ms98-a-0057	B.72	298.623875	299.044750		she's	she's
sw3086B-ms98-a-0057	B.72	299.044750	299.383750		uh	uh
sw3086B-ms98-a-0057	B.72	299.383750	300.053875		very	very
sw3086B-ms98-a-0057	B.72	300.053875	300.163875		uh	uh
sw3086B-ms98-a-0057	B.72	300.163875	300.583875		pleased	pleased
sw3086B-ms98-a-0057	B.72	300.583875	300.733875		with	with
sw3086B-ms98-a-0057	B.72	300.733875	300.833875		it	it
sw3086B-ms98-a-0057	B.72	300.833875	300.983875		She	she
sw3086B-ms98-a-0057	B.72	300.983875	301.193875		told	told
sw3086B-ms98-a-0057	B.72	301.193875	301.293875		me	me
sw3086B-ms98-a-0057	B.72	301.293875	301.493875		some	some
sw3086B-ms98-a-0057	B.72	301.493875	301.583875		of	of
sw3086B-ms98-a-0057	B.72	301.583875	301.643875		the	the
sw3086B-ms98-a-0057	B.72	301.643875	301.903875		things	things
sw3086B-ms98-a-0057	B.72	301.903875	302.003875		you	you
sw3086B-ms98-a-0057	B.72	302.003875	302.123875		can	can
sw3086B-ms98-a-0057	B.72	302.123875	302.333875		do	do
sw3086B-ms98-a-0057	B.72	302.333875	302.443875		and	and
sw3086B-ms98-a-0057	B.72	302.443875	302.553875		it's	it's
sw3086B-ms98-a-0057	B.72	302.553875	302.773875		just	just
sw3086B-ms98-a-0057	B.72	302.773875	303.062625		a	a
sw3086B-ms98-a-0057	B.72	303.062625	303.232125		a	a
sw3086B-ms98-a-0057	B.72	303.232125	303.372000		[silence]	[silence]
sw3086B-ms98-a-0057	B.72	303.372000	303.843875		very	very
sw3086B-ms98-a-0057	B.72	303.843875	304.103875	<DEL>	---	uh
sw3086B-ms98-a-0057	B.72	304.103875	304.453875		handy	handy
sw3086B-ms98-a-0057	B.72	304.453875	304.733875		tool	tool
sw3086B-ms98-a-0057	B.72	304.733875	304.843875		to	to
sw3086B-ms98-a-0057	B.72	304.843875	305.133875		have	have
sw3086B-ms98-a-0057	B.74	305.133875	305.581250		[silence]	[silence]
sw3086B-ms98-a-0058	B.74	305.581250	306.011250		[silence]	[silence]
sw3086B-ms98-a-0058	B.74	306.011250	306.301250		Yeah	yeah
sw3086B-ms98-a-0058	B.74	306.301250	306.591250		and	and
sw3086B-ms98-a-0058	B.74	306.591250	306.771250	<DEL>	---	and
sw3086B-ms98-a-0058	B.74	306.771250	306.861250		you	you
sw3086B-ms98-a-0058	B.74	306.861250	306.991250		can	can
sw3086B-ms98-a-0058	B.74	306.991250	307.171250		do	do
sw3086B-ms98-a-0058	B.74	307.171250	307.247625		a	a
sw3086B-ms98-a-0058	B.74	307.247625	307.394625		l-	l[ot]-
sw3086B-ms98-a-0058	B.74	307.394625	307.631250	<DEL>	---	it
sw3086B-ms98-a-0058	B.74	307.631250	307.741250		it	it
sw3086B-ms98-a-0058	B.74	307.741250	307.981250		makes	makes
sw3086B-ms98-a-0058	B.74	307.981250	308.221250		things	things
sw3086B-ms98-a-0058	B.74	308.221250	308.531250		very	very
sw3086B-ms98-a-0058	B.74	308.531250	309.181250		convenient	convenient
sw3086B-ms98-a-0058	B.74	309.181250	309.261250		You	you
sw3086B-ms98-a-0058	B.74	309.261250	309.381250		can	can
sw3086B-ms98-a-0058	B.74	309.381250	309.621250		save	save
sw3086B-ms98-a-0058	B.74	309.621250	309.651250		a	a
sw3086B-ms98-a-0058	B.74	309.651250	309.821250		lot	lot
sw3086B-ms98-a-0058	B.74	309.821250	309.911250		of	of
sw3086B-ms98-a-0058	B.74	309.911250	310.141250		money	money
sw3086B-ms98-a-0058	B.74	310.141250	310.485125		too	too
sw3086B-ms98-a-0058	B.74	310.485125	310.760000		[silence]	[silence]
sw3086B-ms98-a-0058	B.74	310.760000	311.111250		Certainly	certainly
sw3086B-ms98-a-0058	B.74	311.111250	311.311250		cut	cut
sw3086B-ms98-a-0058	B.74	311.311250	311.541250		down	down
sw3086B-ms98-a-0058	B.74	311.541250	311.641250		on	on
sw3086B-ms98-a-0058	B.74	311.641250	311.861250		long	long
sw3086B-ms98-a-0058	B.74	311.861250	312.221250		distance	distance
sw3086B-ms98-a-0058	B.74	312.221250	312.661250		charges	charges
sw3086B-ms98-a-0058	B.74	312.661250	312.861250		if	if
sw3086B-ms98-a-0058	B.74	312.861250	312.971250		you	you
sw3086B-ms98-a-0058	B.74	312.971250	313.171250		if	if
sw3086B-ms98-a-0058	B.74	313.171250	313.361250		that's	that's
sw3086B-ms98-a-0058	B.74	313.361250	313.471250		what	what
sw3086B-ms98-a-0058	B.74	313.471250	313.561250		you	you
sw3086B-ms98-a-0058	B.74	313.561250	313.681250		have	have
sw3086B-ms98-a-0058	B.74	313.681250	313.771250		in	in
sw3086B-ms98-a-0058	B.74	313.771250	314.141250		mind	mind
sw3086B-ms98-a-0058	B.76	314.141250	314.655875		[silence]	[silence]
sw3086B-ms98-a-0059	B.76	314.655875	320.090250		[silence]	[silence]
sw3086B-ms98-a-0060	B.76	320.090250	320.605750		[silence]	[silence]
sw3086B-ms98-a-0060	B.76	320.605750	320.760250		I	i
sw3086B-ms98-a-0060	B.76	320.760250	321.200250		have	have
sw3086B-ms98-a-0060	B.76	321.200250	321.370250	<DEL>	---	uh
sw3086B-ms98-a-0060	B.76	321.370250	321.570250		I	i
sw3086B-ms98-a-0060	B.76	321.570250	321.850250		have	have
sw3086B-ms98-a-0060	B.76	321.850250	322.180250		used	used
sw3086B-ms98-a-0060	B.76	322.180250	322.670250		Lotus	Lotus
sw3086B-ms98-a-0060	B.76	322.670250	322.780250		I	i
sw3086B-ms98-a-0060	B.76	322.780250	322.960250		have	have
sw3086B-ms98-a-0060	B.76	322.960250	323.470250		used	used
sw3086B-ms98-a-0060	B.76	323.470250	323.650250		uh	uh
sw3086B-ms98-a-0060	B.76	323.650250	323.800250		[silence]	[silence]
sw3086B-ms98-a-0060	B.76	323.800250	324.010250		Word	Word
sw3086B-ms98-a-0060	B.76	324.010250	324.577000		Perfect	Perfect
sw3086B-ms98-a-0060	B.78	324.577000	325.274125		[silence]	[silence]
sw3086B-ms98-a-0060	B.78	325.274125	325.649375		uh	uh
sw3086B-ms98-a-0060	B.78	325.649375	325.826375		[silence]	[silence]
sw3086B-ms98-a-0060	B.78	325.826375	326.160250		I	i
sw3086B-ms98-a-0060	B.78	326.160250	326.410250		not	not
sw3086B-ms98-a-0060	B.78	326.410250	326.720250		heavy	heavy
sw3086B-ms98-a-0060	B.78	326.720250	327.020250		use	use
sw3086B-ms98-a-0060	B.78	327.020250	327.160250		I've	i've
sw3086B-ms98-a-0060	B.78	327.160250	327.540250		used	used
sw3086B-ms98-a-0060	B.78	327.540250	327.807000		uh	uh
sw3086B-ms98-a-0060	B.78	327.807000	328.503750		[silence]	[silence]
sw3086B-ms98-a-0060	B.78	328.503750	328.650250		D	D
sw3086B-ms98-a-0060	B.78	328.650250	329.208750		Base	Base
sw3086B-ms98-a-0060	B.78	329.208750	330.039875		[silence]	[silence]
sw3086B-ms98-a-0060	B.78	330.039875	330.580250		and	and
sw3086B-ms98-a-0060	B.78	330.580250	330.870250		uh	uh
sw3086B-ms98-a-0060	B.78	330.870250	331.040250		[silence]	[silence]
sw3086B-ms98-a-0060	B.78	331.040250	331.200250		I've	i've
sw3086B-ms98-a-0060	B.78	331.200250	331.570250		used	used
sw3086B-ms98-a-0060	B.78	331.570250	331.720250		a	a
sw3086B-ms98-a-0060	B.78	331.720250	332.460250		substantial	substantial
sw3086B-ms98-a-0060	B.78	332.460250	332.830250		amount	amount
sw3086B-ms98-a-0060	B.78	332.830250	332.970250		of	of
sw3086B-ms98-a-0060	B.78	332.970250	333.740250		shareware	shareware
sw3086B-ms98-a-0060	B.78	333.740250	334.264125		[silence]	[silence]
sw3086B-ms98-a-0061	B.78	334.264125	334.802000		[silence]	[silence]
sw3086B-ms98-a-0061	B.78	334.802000	335.132375		Um	um
sw3086B-ms98-a-0061	B.78	335.132375	335.411125		[silence]	[silence]
sw3086B-ms98-a-0061	B.78	335.411125	335.594125		I	i
sw3086B-ms98-a-0061	B.78	335.594125	335.914125		haven't	haven't
sw3086B-ms98-a-0061	B.78	335.914125	336.154125		done	done
sw3086B-ms98-a-0061	B.78	336.154125	336.454125		much	much
sw3086B-ms98-a-0061	B.78	336.454125	336.784125		Lotus	Lotus
sw3086B-ms98-a-0061	B.78	336.784125	337.190125		work	work
sw3086B-ms98-a-0061	B.78	337.190125	337.721250		[silence]	[silence]
sw3086B-ms98-a-0061	B.78	337.721250	338.234125		connected	connected
sw3086B-ms98-a-0061	B.78	338.234125	338.354125		with	with
sw3086B-ms98-a-0061	B.78	338.354125	338.494125		my	my
sw3086B-ms98-a-0061	B.78	338.494125	338.994125		job	job
sw3086B-ms98-a-0061	B.78	338.994125	339.143250		I've	i've
sw3086B-ms98-a-0061	B.78	339.143250	339.263750		[silence]	[silence]
sw3086B-ms98-a-0061	B.78	339.263750	339.404125		been	been
sw3086B-ms98-a-0061	B.78	339.404125	339.654125		through	through
sw3086B-ms98-a-0061	B.78	339.654125	339.904125		three	three
sw3086B-ms98-a-0061	B.78	339.904125	340.627000		classes	classes
sw3086B-ms98-a-0061	B.80	340.627000	341.361500		[silence]	[silence]
sw3086B-ms98-a-0061	B.80	341.361500	341.524125		and	and
sw3086B-ms98-a-0061	B.80	341.524125	341.694125		I	i
sw3086B-ms98-a-0061	B.80	341.694125	341.914125		have	have
sw3086B-ms98-a-0061	B.80	341.914125	341.994125		a	a
sw3086B-ms98-a-0061	B.80	341.994125	342.244125		great	great
sw3086B-ms98-a-0061	B.80	342.244125	342.424125		deal	deal
sw3086B-ms98-a-0061	B.80	342.424125	342.514125		of	of
sw3086B-ms98-a-0061	B.80	342.514125	342.934125		respect	respect
sw3086B-ms98-a-0061	B.80	342.934125	343.174125		for	for
sw3086B-ms98-a-0061	B.80	343.174125	343.254125		it	it
sw3086B-ms98-a-0061	B.82	343.254125	343.893250		[silence]	[silence]
sw3086B-ms98-a-0062	B.82	343.893250	344.353250		[silence]	[silence]
sw3086B-ms98-a-0062	B.82	344.353250	344.736875		Um	um
sw3086B-ms98-a-0062	B.82	344.736875	344.970375		[silence]	[silence]
sw3086B-ms98-a-0062	B.82	344.970375	345.103250		I	i
sw3086B-ms98-a-0062	B.82	345.103250	345.423250		haven't	haven't
sw3086B-ms98-a-0062	B.82	345.423250	345.623250		done	done
sw3086B-ms98-a-0062	B.82	345.623250	345.873250		much	much
sw3086B-ms98-a-0062	B.82	345.873250	346.133250		word	word
sw3086B-ms98-a-0062	B.82	346.133250	346.779250		processing	processing
sw3086B-ms98-a-0062	B.82	346.779250	347.163375		[silence]	[silence]
sw3086B-ms98-a-0062	B.82	347.163375	347.423250		work	work
sw3086B-ms98-a-0062	B.82	347.423250	347.633250		with	with
sw3086B-ms98-a-0062	B.82	347.633250	347.773250		my	my
sw3086B-ms98-a-0062	B.82	347.773250	348.177625		job	job
sw3086B-ms98-a-0062	B.82	348.177625	349.269875		[silence]	[silence]
sw3086B-ms98-a-0062	B.82	349.269875	349.403750		I	i
sw3086B-ms98-a-0062	B.82	349.403750	349.543125		do	do
sw3086B-ms98-a-0062	B.82	349.543125	349.946625		some	some
sw3086B-ms98-a-0062	B.84	349.946625	350.252250		[silence]	[silence]
sw3086B-ms98-a-0062	B.84	350.252250	350.427500		and	and
sw3086B-ms98-a-0062	B.84	350.427500	350.566875		I	i
sw3086B-ms98-a-0062	B.84	350.566875	350.783250		and	and
sw3086B-ms98-a-0062	B.84	350.783250	350.861125		the	the
sw3086B-ms98-a-0062	B.84	350.861125	350.970375		[silence]	[silence]
sw3086B-ms98-a-0062	B.84	350.970375	351.093250		D	D
sw3086B-ms98-a-0062	B.84	351.093250	351.383250		Base	Base
sw3086B-ms98-a-0062	B.84	351.383250	351.583250		work	work
sw3086B-ms98-a-0062	B.84	351.583250	351.723250		I've	i've
sw3086B-ms98-a-0062	B.84	351.723250	351.923250		done	done
sw3086B-ms98-a-0062	B.84	351.923250	352.043250		was	was
sw3086B-ms98-a-0062	B.84	352.043250	352.433250		strictly	strictly
sw3086B-ms98-a-0062	B.84	352.433250	352.783250		class	class
sw3086B-ms98-a-0062	B.84	352.783250	353.283250		related	related
sw3086B-ms98-a-0062	B.86	353.283250	353.841875		[silence]	[silence]
sw3086B-ms98-a-0063	B.86	353.841875	359.474125		[silence]	[silence]
sw3086B-ms98-a-0064	B.86	359.474125	359.979125		[silence]	[silence]
sw3086B-ms98-a-0064	B.86	359.979125	360.300250		Well	well
sw3086B-ms98-a-0064	B.86	360.300250	360.633000		[silence]	[silence]
sw3086B-ms98-a-0064	B.86	360.633000	360.898125		it's	it's
sw3086B-ms98-a-0064	B.86	360.898125	361.048750		[silence]	[silence]
sw3086B-ms98-a-0064	B.86	361.048750	361.504125		probably	probably
sw3086B-ms98-a-0064	B.86	361.504125	361.961375		the	the
sw3086B-ms98-a-0064	B.86	361.961375	362.377125		[silence]	[silence]
sw3086B-ms98-a-0065	B.86	362.377125	362.788750		[silence]	[silence]
sw3086B-ms98-a-0065	B.86	362.788750	363.407125		granddaddy	granddaddy
sw3086B-ms98-a-0065	B.86	363.407125	363.557125		of	of
sw3086B-ms98-a-0065	B.86	363.557125	364.017125		most	most
sw3086B-ms98-a-0065	B.86	364.017125	364.267125		uh	uh
sw3086B-ms98-a-0065	B.86	364.267125	364.627125		data	data
sw3086B-ms98-a-0065	B.86	364.627125	364.917125		base	base
sw3086B-ms98-a-0065	B.86	364.917125	365.337125		management	management
sw3086B-ms98-a-0065	B.86	365.337125	365.877125		systems	systems
sw3086B-ms98-a-0065	B.88	365.877125	366.112750	<DEL>	---	there
sw3086B-ms98-a-0065	B.88	366.112750	366.286000		It's	it's
sw3086B-ms98-a-0065	B.88	366.286000	366.457125		got	got
sw3086B-ms98-a-0065	B.88	366.457125	366.677125		some	some
sw3086B-ms98-a-0065	B.88	366.677125	367.117125		pretty	pretty
sw3086B-ms98-a-0065	B.88	367.117125	367.247125	<DEL>	---	uh
sw3086B-ms98-a-0065	B.88	367.247125	367.597125		strong	strong
sw3086B-ms98-a-0065	B.88	367.597125	368.197125		competitors	competitors
sw3086B-ms98-a-0065	B.88	368.197125	368.387125		Some	some
sw3086B-ms98-a-0065	B.88	368.387125	368.567125		of	of
sw3086B-ms98-a-0065	B.88	368.567125	368.677125		them	them
sw3086B-ms98-a-0065	B.88	368.677125	369.004250		have	have
sw3086B-ms98-a-0065	B.88	369.004250	369.531500		[silence]	[silence]
sw3086B-ms98-a-0065	B.88	369.531500	369.997125		reviews	reviews
sw3086B-ms98-a-0065	B.88	369.997125	370.147125		that	that
sw3086B-ms98-a-0065	B.88	370.147125	370.227125		are	are
sw3086B-ms98-a-0065	B.88	370.227125	370.517125		better	better
sw3086B-ms98-a-0065	B.88	370.517125	370.657125		than	than
sw3086B-ms98-a-0065	B.88	370.657125	370.807125		D	D
sw3086B-ms98-a-0065	B.88	370.807125	371.087125		Base	Base
sw3086B-ms98-a-0065	B.88	371.087125	371.267125		so	so
sw3086B-ms98-a-0065	B.88	371.267125	371.297125		I	i
sw3086B-ms98-a-0065	B.88	371.297125	371.554750	<DEL>	---	uh
sw3086B-ms98-a-0065	B.88	371.554750	371.822250		[silence]	[silence]
sw3086B-ms98-a-0065	B.88	371.822250	372.127125	<DEL>	---	i
sw3086B-ms98-a-0065	B.88	372.127125	372.204750	<DEL>	---	uh
sw3086B-ms98-a-0065	B.88	372.204750	372.419375		[silence]	[silence]
sw3086B-ms98-a-0065	B.88	372.419375	372.584500		I	i
sw3086B-ms98-a-0065	B.88	372.584500	372.870750		think	think
sw3086B-ms98-a-0065	B.88	372.870750	372.987125	<DEL>	---	uh
sw3086B-ms98-a-0065	B.88	372.987125	373.177125		by	by
sw3086B-ms98-a-0065	B.88	373.177125	373.427125		now	now
sw3086B-ms98-a-0065	B.88	373.427125	373.557125		it's	it's
sw3086B-ms98-a-0065	B.88	373.557125	373.597125		a	a
sw3086B-ms98-a-0065	B.88	373.597125	373.997125		matter	matter
sw3086B-ms98-a-0065	B.88	373.997125	374.217125		of	of
sw3086B-ms98-a-0065	B.88	374.217125	374.337125		uh	uh
sw3086B-ms98-a-0065	B.88	374.337125	374.841375		personal	personal
sw3086B-ms98-a-0065	B.88	374.841375	374.958125		[silence]	[silence]
sw3086B-ms98-a-0065	B.88	374.958125	375.361125		taste	taste
sw3086B-ms98-a-0065	B.90	375.361125	375.901750		[silence]	[silence]
sw3086B-ms98-a-0066	B.90	375.901750	378.312250		[silence]	[silence]
sw3086B-ms98-a-0067	B.90	378.312250	378.882250		[silence]	[silence]
sw3086B-ms98-a-0067	B.90	378.882250	379.022250		I	i
sw3086B-ms98-a-0067	B.90	379.022250	379.192250		can	can
sw3086B-ms98-a-0067	B.90	379.192250	379.632250		understand	understand
sw3086B-ms98-a-0067	B.90	379.632250	379.792250		that	that
sw3086B-ms98-a-0067	B.90	379.792250	380.082250		very	very
sw3086B-ms98-a-0067	B.90	380.082250	380.432250		easily	easily
sw3086B-ms98-a-0067	B.90	380.432250	380.629250		I've	i've
sw3086B-ms98-a-0067	B.90	380.629250	381.081250		used	used
sw3086B-ms98-a-0067	B.90	381.081250	381.172250	<DEL>	---	uh
sw3086B-ms98-a-0067	B.90	381.172250	381.452250		I've	i've
sw3086B-ms98-a-0067	B.90	381.452250	381.652250		had	had
sw3086B-ms98-a-0067	B.90	381.652250	381.722250		a	a
sw3086B-ms98-a-0067	B.90	381.722250	382.182250		class	class
sw3086B-ms98-a-0067	B.90	382.182250	382.393500		on	on
sw3086B-ms98-a-0067	B.90	382.393500	382.574375		[silence]	[silence]
sw3086B-ms98-a-0067	B.90	382.574375	382.936000		um	um
sw3086B-ms98-a-0067	B.90	382.936000	383.139375		[silence]	[silence]
sw3086B-ms98-a-0067	B.90	383.139375	383.292250		R	R
sw3086B-ms98-a-0067	B.90	383.292250	383.712250		Base	Base
sw3086B-ms98-a-0067	B.90	383.712250	383.882250		and	and
sw3086B-ms98-a-0067	B.90	383.882250	384.142250		also	also
sw3086B-ms98-a-0067	B.90	384.142250	384.232250		in	in
sw3086B-ms98-a-0067	B.90	384.232250	384.941875		Paradox	Paradox
sw3086B-ms98-a-0067	B.92	384.941875	385.510375		[silence]	[silence]
sw3086B-ms98-a-0067	B.92	385.510375	385.674500		and	and
sw3086B-ms98-a-0067	B.92	385.674500	385.842250		both	both
sw3086B-ms98-a-0067	B.92	385.842250	385.962250		of	of
sw3086B-ms98-a-0067	B.92	385.962250	386.152250		those	those
sw3086B-ms98-a-0067	B.92	386.152250	386.392250		seem	seem
sw3086B-ms98-a-0067	B.92	386.392250	386.762250		very	very
sw3086B-ms98-a-0067	B.92	386.762250	387.032250		easy	easy
sw3086B-ms98-a-0067	B.92	387.032250	387.102250		to	to
sw3086B-ms98-a-0067	B.92	387.102250	387.481250		use	use
sw3086B-ms98-a-0067	B.92	387.481250	387.703500		[silence]	[silence]
sw3086B-ms98-a-0067	B.92	387.703500	388.162250		compared	compared
sw3086B-ms98-a-0067	B.92	388.162250	388.262250		to	to
sw3086B-ms98-a-0067	B.92	388.262250	388.442250		D	D
sw3086B-ms98-a-0067	B.92	388.442250	388.917125		Base	Base
sw3086B-ms98-a-0067	B.94	388.917125	389.401125		[silence]	[silence]
sw3086B-ms98-a-0068	B.94	389.401125	394.879375		[silence]	[silence]
sw3086B-ms98-a-0069	B.94	394.879375	395.329375		[silence]	[silence]
sw3086B-ms98-a-0069	B.94	395.329375	395.699000		Um	um
sw3086B-ms98-a-0069	B.94	395.699000	396.407125		[noise]	[noise]
sw3086B-ms98-a-0069	B.94	396.407125	396.519375		I	i
sw3086B-ms98-a-0069	B.94	396.519375	396.779375		wouldn't	wouldn't
sw3086B-ms98-a-0069	B.94	396.779375	396.939375		say	say
sw3086B-ms98-a-0069	B.94	396.939375	397.779375		compatible	compatible
sw3086B-ms98-a-0069	B.94	397.779375	397.963375		but	but
sw3086B-ms98-a-0069	B.96	397.963375	398.148000		[silence]	[silence]
sw3086B-ms98-a-0069	B.96	398.148000	398.259375	<DEL>	---	there
sw3086B-ms98-a-0069	B.96	398.259375	398.589375		certainly	certainly
sw3086B-ms98-a-0069	B.96	398.589375	399.199375		comparable	comparable
sw3086B-ms98-a-0069	B.98	399.199375	399.700375		[silence]	[silence]
sw3086B-ms98-a-0070	B.98	399.700375	401.125000		[silence]	[silence]
sw3086B-ms98-a-0071	B.98	401.125000	401.985125		[silence]	[silence]
sw3086B-ms98-a-0071	B.98	401.985125	402.508500	<SUB>	Uh-huh	um
sw3086B-ms98-a-0071	B.100	402.508500	402.818750		[silence]	[silence]
sw3086B-ms98-a-0072	B.100	402.818750	406.878125		[silence]	[silence]
sw3086B-ms98-a-0073	B.100	406.878125	407.346000		[silence]	[silence]
sw3086B-ms98-a-0073	B.100	407.346000	407.608125		I'm	i'm
sw3086B-ms98-a-0073	B.100	407.608125	407.849750		a	a
sw3086B-ms98-a-0073	B.100	407.849750	408.000375		[silence]	[silence]
sw3086B-ms98-a-0073	B.100	408.000375	408.368125		computer	computer
sw3086B-ms98-a-0073	B.100	408.368125	409.086125		programmer	programmer
sw3086B-ms98-a-0073	B.102	409.086125	409.874125		[silence]	[silence]
sw3086B-ms98-a-0073	B.102	409.874125	410.122750		on	on
sw3086B-ms98-a-0073	B.102	410.122750	410.298125		the	the
sw3086B-ms98-a-0073	B.102	410.298125	410.728125	<CONT>	I	IBM
sw3086B-ms98-a-0073	B.102	410.728125	410.728125	<CONT>	B	+++
sw3086B-ms98-a-0073	B.102	410.728125	410.728125	<CONT>	M	+++
sw3086B-ms98-a-0073	B.102	410.728125	410.958125		main	main
sw3086B-ms98-a-0073	B.102	410.958125	411.548125		frames	frames
sw3086B-ms98-a-0073	B.104	411.548125	412.518125		[noise]	[noise]
sw3086B-ms98-a-0073	B.104	412.518125	412.628125		I	i
sw3086B-ms98-a-0073	B.104	412.628125	413.158125		do	do
sw3086B-ms98-a-0073	B.104	413.158125	413.752125		uh	uh
sw3086B-ms98-a-0073	B.104	413.752125	414.475250		[silence]	[silence]
sw3086B-ms98-a-0073	B.104	414.475250	414.832125		main-	main
sw3086B-ms98-a-0073	B.104	414.832125	415.054250		[silence]	[silence]
sw3086B-ms98-a-0073	B.104	415.054250	415.508125		mainly	mainly
sw3086B-ms98-a-0073	B.104	415.508125	416.018125		business	business
sw3086B-ms98-a-0073	B.104	416.018125	416.288125		data	data
sw3086B-ms98-a-0073	B.104	416.288125	417.065125		processing	processing
sw3086B-ms98-a-0073	B.106	417.065125	417.444000		[silence]	[silence]
sw3086B-ms98-a-0074	B.106	417.444000	417.904000		[silence]	[silence]
sw3086B-ms98-a-0074	B.106	417.904000	417.994000		I	i
sw3086B-ms98-a-0074	B.106	417.994000	418.394000		also	also
sw3086B-ms98-a-0074	B.106	418.394000	418.794000		handle	handle
sw3086B-ms98-a-0074	B.106	418.794000	419.334000		production	production
sw3086B-ms98-a-0074	B.106	419.334000	419.934000		support	support
sw3086B-ms98-a-0074	B.106	419.934000	420.064000		for	for
sw3086B-ms98-a-0074	B.106	420.064000	420.214000		the	the
sw3086B-ms98-a-0074	B.106	420.214000	420.714000		systems	systems
sw3086B-ms98-a-0074	B.106	420.714000	420.824000		in	in
sw3086B-ms98-a-0074	B.106	420.824000	421.004000		my	my
sw3086B-ms98-a-0074	B.106	421.004000	421.354000		area	area
sw3086B-ms98-a-0074	B.106	421.354000	421.424000		of	of
sw3086B-ms98-a-0074	B.106	421.424000	422.274000		responsibility	responsibility
sw3086B-ms98-a-0074	B.108	422.274000	422.492875		[silence]	[silence]
sw3086B-ms98-a-0075	B.108	422.492875	423.751250		[silence]	[silence]
sw3086B-ms98-a-0076	B.108	423.751250	424.281125		[silence]	[silence]
sw3086B-ms98-a-0076	B.108	424.281125	424.921250		Um	um
sw3086B-ms98-a-0076	B.108	424.921250	425.399375		[silence]	[silence]
sw3086B-ms98-a-0077	B.108	425.399375	426.129000		[silence]	[silence]
sw3086B-ms98-a-0077	B.108	426.129000	426.629375		sometimes	sometimes
sw3086B-ms98-a-0077	B.108	426.629375	426.709375		I	i
sw3086B-ms98-a-0077	B.108	426.709375	426.889375		get	get
sw3086B-ms98-a-0077	B.108	426.889375	427.289375		called	called
sw3086B-ms98-a-0077	B.108	427.289375	427.459375		late	late
sw3086B-ms98-a-0077	B.108	427.459375	427.579375		at	at
sw3086B-ms98-a-0077	B.108	427.579375	427.769375		night	night
sw3086B-ms98-a-0077	B.108	427.769375	427.849375		at	at
sw3086B-ms98-a-0077	B.108	427.849375	428.209375		home	home
sw3086B-ms98-a-0077	B.108	428.209375	428.589375		because	because
sw3086B-ms98-a-0077	B.108	428.589375	428.859375		there's	there's
sw3086B-ms98-a-0077	B.108	428.859375	428.949375		a	a
sw3086B-ms98-a-0077	B.108	428.949375	429.409375		production	production
sw3086B-ms98-a-0077	B.108	429.409375	429.909375		problem	problem
sw3086B-ms98-a-0077	B.108	429.909375	430.109375		and	and
sw3086B-ms98-a-0077	B.108	430.109375	430.279375		that	that
sw3086B-ms98-a-0077	B.108	430.279375	430.479375		gives	gives
sw3086B-ms98-a-0077	B.108	430.479375	430.599375		me	me
sw3086B-ms98-a-0077	B.108	430.599375	430.769375		the	the
sw3086B-ms98-a-0077	B.108	430.769375	431.449375		opportunity	opportunity
sw3086B-ms98-a-0077	B.108	431.449375	431.679875		to	to
sw3086B-ms98-a-0077	B.108	431.679875	431.679875	<INS>	uh	---
sw3086B-ms98-a-0077	B.108	431.679875	432.018250		[silence]	[silence]
sw3086B-ms98-a-0078	B.108	432.018250	432.353125		[silence]	[silence]
sw3086B-ms98-a-0078	B.108	432.353125	432.518250		come	come
sw3086B-ms98-a-0078	B.108	432.518250	432.658250		in	in
sw3086B-ms98-a-0078	B.108	432.658250	432.758250		to	to
sw3086B-ms98-a-0078	B.108	432.758250	433.048250		work	work
sw3086B-ms98-a-0078	B.108	433.048250	433.168250		and	and
sw3086B-ms98-a-0078	B.108	433.168250	433.448250		fix	fix
sw3086B-ms98-a-0078	B.108	433.448250	433.528250		it	it
sw3086B-ms98-a-0078	B.108	433.528250	433.648250		if	if
sw3086B-ms98-a-0078	B.108	433.648250	433.698250		I	i
sw3086B-ms98-a-0078	B.108	433.698250	433.978250		can't	can't
sw3086B-ms98-a-0078	B.108	433.978250	434.260875		think	think
sw3086B-ms98-a-0078	B.108	434.260875	434.407750		of	of
sw3086B-ms98-a-0078	B.110	434.407750	434.638250		some	some
sw3086B-ms98-a-0078	B.110	434.638250	434.798250		thing	thing
sw3086B-ms98-a-0078	B.110	434.798250	434.908250		to	to
sw3086B-ms98-a-0078	B.110	434.908250	435.098250		tell	tell
sw3086B-ms98-a-0078	B.110	435.098250	435.158250		the	the
sw3086B-ms98-a-0078	B.110	435.158250	435.418250		trouble	trouble
sw3086B-ms98-a-0078	B.110	435.418250	435.796250		shooter	shooter
sw3086B-ms98-a-0078	B.110	435.796250	435.905500		[silence]	[silence]
sw3086B-ms98-a-0078	B.110	435.905500	436.018250		while	while
sw3086B-ms98-a-0078	B.110	436.018250	436.158250		we're	we're
sw3086B-ms98-a-0078	B.110	436.158250	436.218250		on	on
sw3086B-ms98-a-0078	B.110	436.218250	436.278250		the	the
sw3086B-ms98-a-0078	B.110	436.278250	436.574375		phone	phone
sw3086B-ms98-a-0078	B.112	436.574375	437.347750		[silence]	[silence]
sw3086B-ms98-a-0079	B.112	437.347750	438.247750		[silence]	[silence]
sw3086B-ms98-a-0079	B.112	438.247750	438.856875		Um	um
sw3086B-ms98-a-0079	B.112	438.856875	439.612375		[silence]	[silence]
sw3086B-ms98-a-0080	B.112	439.612375	440.432375		[silence]	[silence]
sw3086B-ms98-a-0080	B.112	440.432375	440.522375		I	i
sw3086B-ms98-a-0080	B.112	440.522375	441.162375		also	also
sw3086B-ms98-a-0080	B.112	441.162375	441.442375		uh	uh
sw3086B-ms98-a-0080	B.112	441.442375	441.762375		handle	handle
sw3086B-ms98-a-0080	B.112	441.762375	442.071125		most	most
sw3086B-ms98-a-0080	B.112	442.071125	442.274500		of	of
sw3086B-ms98-a-0080	B.112	442.274500	442.562375		the	the
sw3086B-ms98-a-0080	B.112	442.562375	443.062375		calls	calls
sw3086B-ms98-a-0080	B.112	443.062375	443.252375		from	from
sw3086B-ms98-a-0080	B.112	443.252375	443.372375		our	our
sw3086B-ms98-a-0080	B.112	443.372375	443.992375		users	users
sw3086B-ms98-a-0080	B.112	443.992375	444.135000		and	and
sw3086B-ms98-a-0080	B.112	444.135000	444.823375		[silence]	[silence]
sw3086B-ms98-a-0081	B.112	444.823375	445.413375		[silence]	[silence]
sw3086B-ms98-a-0081	B.112	445.413375	445.593375		other	other
sw3086B-ms98-a-0081	B.112	445.593375	446.203375		programmers	programmers
sw3086B-ms98-a-0081	B.112	446.203375	446.293375		who	who
sw3086B-ms98-a-0081	B.112	446.293375	446.563375		need	need
sw3086B-ms98-a-0081	B.112	446.563375	446.803375		to	to
sw3086B-ms98-a-0081	B.112	446.803375	447.153375		find	find
sw3086B-ms98-a-0081	B.112	447.153375	447.353375		out	out
sw3086B-ms98-a-0081	B.112	447.353375	447.803375		something	something
sw3086B-ms98-a-0081	B.112	447.803375	447.883375	<DEL>	---	were
sw3086B-ms98-a-0081	B.112	447.883375	448.293375		connected	connected
sw3086B-ms98-a-0081	B.112	448.293375	448.712125		[silence]	[silence]
