sw3156A-ms98-a-0001	A.1	0.000000	0.040000		[silence]	[silence]
sw3156A-ms98-a-0001	A.1	0.040000	0.060000		[noise]	[noise]
sw3156A-ms98-a-0001	A.1	0.060000	0.080000		[vocalized-noise]	[vocalized-noise]
sw3156A-ms98-a-0001	A.1	0.080000	0.200000	<SUB>	-ing	it
sw3156A-ms98-a-0001	A.1	0.200000	0.480000		seems	seems
sw3156A-ms98-a-0001	A.1	0.480000	0.600000		to	to
sw3156A-ms98-a-0001	A.1	0.600000	0.810000		be	be
sw3156A-ms98-a-0001	A.1	0.810000	0.965875		a	a
sw3156A-ms98-a-0001	A.1	0.965875	1.410250		[silence]	[silence]
sw3156A-ms98-a-0001	A.1	1.410250	1.480000		a	a
sw3156A-ms98-a-0001	A.1	1.480000	1.920000		topic	topic
sw3156A-ms98-a-0001	A.1	1.920000	2.140000		that's	that's
sw3156A-ms98-a-0001	A.1	2.140000	2.310000	<SUB>	going	gonna
sw3156A-ms98-a-0001	A.1	2.310000	2.310000	<INS>	to	---
sw3156A-ms98-a-0001	A.1	2.310000	2.730000		probably	probably
sw3156A-ms98-a-0001	A.1	2.730000	2.990000		take	take
sw3156A-ms98-a-0001	A.1	2.990000	3.230000		about	about
sw3156A-ms98-a-0001	A.1	3.230000	3.302625		a	a
sw3156A-ms98-a-0001	A.1	3.302625	4.029500		generation	generation
sw3156A-ms98-a-0001	A.1	4.029500	4.270000		to	to
sw3156A-ms98-a-0001	A.1	4.270000	4.490000		uh	uh
sw3156A-ms98-a-0001	A.1	4.490000	4.860000		catch	catch
sw3156A-ms98-a-0001	A.1	4.860000	5.070000		on	on
sw3156A-ms98-a-0001	A.1	5.070000	5.190000		it	it
sw3156A-ms98-a-0001	A.1	5.190000	5.570000		seems	seems
sw3156A-ms98-a-0001	A.1	5.570000	5.740000		or	or
sw3156A-ms98-a-0001	A.1	5.740000	6.010000		maybe	maybe
sw3156A-ms98-a-0001	A.1	6.010000	6.040000		a	a
sw3156A-ms98-a-0001	A.1	6.040000	6.662625		generation	generation
sw3156A-ms98-a-0001	A.1	6.662625	6.772375		[silence]	[silence]
sw3156A-ms98-a-0001	A.1	6.772375	6.949375		to	to
sw3156A-ms98-a-0001	A.1	6.949375	7.250000		two	two
sw3156A-ms98-a-0001	A.1	7.250000	8.198375		[silence]	[silence]
sw3156A-ms98-a-0002	A.1	8.198375	8.586625		[silence]	[silence]
sw3156A-ms98-a-0002	A.1	8.586625	8.868375		And	and
sw3156A-ms98-a-0002	A.1	8.868375	8.988375		we	we
sw3156A-ms98-a-0002	A.1	8.988375	9.438375		may	may
sw3156A-ms98-a-0002	A.1	9.438375	9.798375		have	have
sw3156A-ms98-a-0002	A.1	9.798375	9.918375		to	to
sw3156A-ms98-a-0002	A.1	9.918375	10.058375		do	do
sw3156A-ms98-a-0002	A.1	10.058375	10.138375		it	it
sw3156A-ms98-a-0002	A.1	10.138375	10.258375		out	out
sw3156A-ms98-a-0002	A.1	10.258375	10.318375		of	of
sw3156A-ms98-a-0002	A.1	10.318375	10.958375		necessity	necessity
sw3156A-ms98-a-0002	A.1	10.958375	11.078375		as	as
sw3156A-ms98-a-0002	A.1	11.078375	11.438375		far	far
sw3156A-ms98-a-0002	A.1	11.438375	11.610000		as	as
sw3156A-ms98-a-0002	A.1	11.610000	12.382125		[silence]	[silence]
sw3156A-ms98-a-0002	A.1	12.382125	12.758375		moving	moving
sw3156A-ms98-a-0002	A.1	12.758375	12.938375		that	that
sw3156A-ms98-a-0002	A.1	12.938375	13.275250		time	time
sw3156A-ms98-a-0002	A.1	13.275250	13.817625		schedule	schedule
sw3156A-ms98-a-0002	A.1	13.817625	14.177375		up	up
sw3156A-ms98-a-0002	A.1	14.177375	14.331875		[silence]	[silence]
sw3156A-ms98-a-0002	A.1	14.331875	14.639875	<SUB>	Uh	but
sw3156A-ms98-a-0002	A.1	14.639875	14.865875		it	it
sw3156A-ms98-a-0002	A.1	14.865875	15.058375		does	does
sw3156A-ms98-a-0002	A.1	15.058375	15.228375		seem	seem
sw3156A-ms98-a-0002	A.1	15.228375	15.318375		to	to
sw3156A-ms98-a-0002	A.1	15.318375	15.488375		be	be
sw3156A-ms98-a-0002	A.1	15.488375	15.558375		a	a
sw3156A-ms98-a-0002	A.1	15.558375	15.748375		lot	lot
sw3156A-ms98-a-0002	A.1	15.748375	15.838375		of	of
sw3156A-ms98-a-0002	A.1	15.838375	16.188375		habits	habits
sw3156A-ms98-a-0002	A.1	16.188375	16.308375		to	to
sw3156A-ms98-a-0002	A.1	16.308375	16.735750		break	break
sw3156A-ms98-a-0002	A.1	16.735750	16.948125		[silence]	[silence]
sw3156A-ms98-a-0003	A.1	16.948125	17.288125		[silence]	[silence]
sw3156A-ms98-a-0003	A.1	17.288125	17.548125		I	i
sw3156A-ms98-a-0003	A.1	17.548125	17.878125	<SUB>	uh	um
sw3156A-ms98-a-0003	A.1	17.878125	18.438125		[silence]	[silence]
sw3156A-ms98-a-0003	A.1	18.438125	18.778125		wasn't	wasn't
sw3156A-ms98-a-0003	A.1	18.778125	19.058125		raised	raised
sw3156A-ms98-a-0003	A.1	19.058125	19.158125		as	as
sw3156A-ms98-a-0003	A.1	19.158125	19.218125		a	a
sw3156A-ms98-a-0003	A.1	19.218125	19.498125		kid	kid
sw3156A-ms98-a-0003	A.1	19.498125	19.698125		on	on
sw3156A-ms98-a-0003	A.1	19.698125	19.838125		it	it
sw3156A-ms98-a-0003	A.1	19.838125	20.008125		but	but
sw3156A-ms98-a-0003	A.1	20.008125	20.178125		my	my
sw3156A-ms98-a-0003	A.1	20.178125	20.588125		kids	kids
sw3156A-ms98-a-0003	A.1	20.588125	20.958125		are	are
sw3156A-ms98-a-0003	A.1	20.958125	21.138125		and	and
sw3156A-ms98-a-0003	A.1	21.138125	21.418125		so	so
sw3156A-ms98-a-0003	A.1	21.418125	21.668125		they	they
sw3156A-ms98-a-0003	A.1	21.668125	22.148125		[silence]	[silence]
sw3156A-ms98-a-0003	A.1	22.148125	22.298125		they	they
sw3156A-ms98-a-0003	A.1	22.298125	22.718125		tended	tended
sw3156A-ms98-a-0003	A.1	22.718125	22.848125		to	to
sw3156A-ms98-a-0003	A.1	22.848125	23.168125	<SUB>	want	wanna
sw3156A-ms98-a-0003	A.1	23.168125	23.168125	<INS>	to	---
sw3156A-ms98-a-0003	A.1	23.168125	23.567125		[silence]	[silence]
sw3156A-ms98-a-0004	A.1	23.567125	24.058500		[silence]	[silence]
sw3156A-ms98-a-0004	A.1	24.058500	24.357125		grab	grab
sw3156A-ms98-a-0004	A.1	24.357125	24.487125		the	the
sw3156A-ms98-a-0004	A.1	24.487125	24.897125		aluminum	aluminum
sw3156A-ms98-a-0004	A.1	24.897125	25.437125		cans	cans
sw3156A-ms98-a-0004	A.1	25.437125	25.607125		when	when
sw3156A-ms98-a-0004	A.1	25.607125	25.767125		that	that
sw3156A-ms98-a-0004	A.1	25.767125	25.907125		was	was
sw3156A-ms98-a-0004	A.1	25.907125	26.057125		one	one
sw3156A-ms98-a-0004	A.1	26.057125	26.137125		of	of
sw3156A-ms98-a-0004	A.1	26.137125	26.197125		the	the
sw3156A-ms98-a-0004	A.1	26.197125	26.567125		first	first
sw3156A-ms98-a-0004	A.1	26.567125	26.867125		things	things
sw3156A-ms98-a-0004	A.1	26.867125	26.987125		to	to
sw3156A-ms98-a-0004	A.1	26.987125	27.397125		do	do
sw3156A-ms98-a-0004	A.1	27.397125	27.606000		and	and
sw3156A-ms98-a-0004	A.1	27.606000	27.772125		[silence]	[silence]
sw3156A-ms98-a-0005	A.1	27.772125	28.081250		[silence]	[silence]
sw3156A-ms98-a-0005	A.1	28.081250	28.142125		we	we
sw3156A-ms98-a-0005	A.1	28.142125	28.262125		were	were
sw3156A-ms98-a-0005	A.1	28.262125	28.472125		doing	doing
sw3156A-ms98-a-0005	A.1	28.472125	28.532125		all	all
sw3156A-ms98-a-0005	A.1	28.532125	28.892125		right	right
sw3156A-ms98-a-0005	A.1	28.892125	29.102125		there	there
sw3156A-ms98-a-0005	A.1	29.102125	29.682125		until	until
sw3156A-ms98-a-0005	A.1	29.682125	30.001500		uh	uh
sw3156A-ms98-a-0005	A.1	30.001500	30.668250		[silence]	[silence]
sw3156A-ms98-a-0005	A.1	30.668250	30.732125		the	the
sw3156A-ms98-a-0005	A.1	30.732125	31.132125		price	price
sw3156A-ms98-a-0005	A.1	31.132125	31.552125		dropped	dropped
sw3156A-ms98-a-0005	A.1	31.552125	31.812250		out	out
sw3156A-ms98-a-0005	A.1	31.812250	31.993000		[noise]	[noise]
sw3156A-ms98-a-0005	A.1	31.993000	32.132125		and	and
sw3156A-ms98-a-0005	A.1	32.132125	32.192125		they	they
sw3156A-ms98-a-0005	A.1	32.192125	32.402125		weren't	weren't
sw3156A-ms98-a-0005	A.1	32.402125	32.652125		worth	worth
sw3156A-ms98-a-0005	A.1	32.652125	33.042125		anything	anything
sw3156A-ms98-a-0005	A.1	33.042125	33.535375		anymore	anymore
sw3156A-ms98-a-0005	A.3	33.535375	33.981500		[silence]	[silence]
sw3156A-ms98-a-0006	A.3	33.981500	34.381500		[silence]	[silence]
sw3156A-ms98-a-0006	A.3	34.381500	34.921500		And	and
sw3156A-ms98-a-0006	A.3	34.921500	35.321500		we	we
sw3156A-ms98-a-0006	A.3	35.321500	35.691500		it	it
sw3156A-ms98-a-0006	A.3	35.691500	35.901500		took	took
sw3156A-ms98-a-0006	A.3	35.901500	36.351500		us	us
sw3156A-ms98-a-0006	A.3	36.351500	36.891500	<DEL>	---	um
sw3156A-ms98-a-0006	A.3	36.891500	37.275500		[silence]	[silence]
sw3156A-ms98-a-0007	A.3	37.275500	37.807000		[silence]	[silence]
sw3156A-ms98-a-0007	A.3	37.807000	37.858625		[noise]	[noise]
sw3156A-ms98-a-0007	A.3	37.858625	38.335500		almost	almost
sw3156A-ms98-a-0007	A.3	38.335500	38.375500		a	a
sw3156A-ms98-a-0007	A.3	38.375500	39.032625		year	year
sw3156A-ms98-a-0007	A.3	39.032625	39.529750		[silence]	[silence]
sw3156A-ms98-a-0007	A.3	39.529750	39.645500		to	to
sw3156A-ms98-a-0007	A.3	39.645500	39.795500		get	get
sw3156A-ms98-a-0007	A.3	39.795500	39.855500		a	a
sw3156A-ms98-a-0007	A.3	39.855500	40.215500		garbage	garbage
sw3156A-ms98-a-0007	A.3	40.215500	40.505500		sack	sack
sw3156A-ms98-a-0007	A.3	40.505500	40.825500		full	full
sw3156A-ms98-a-0007	A.3	40.825500	41.015500		[silence]	[silence]
sw3156A-ms98-a-0007	A.3	41.015500	41.085500		We	we
sw3156A-ms98-a-0007	A.3	41.085500	41.245500		just	just
sw3156A-ms98-a-0007	A.3	41.245500	41.405500		don't	don't
sw3156A-ms98-a-0007	A.3	41.405500	41.645500		drink	drink
sw3156A-ms98-a-0007	A.3	41.645500	41.805500		that	that
sw3156A-ms98-a-0007	A.3	41.805500	42.005500		many	many
sw3156A-ms98-a-0007	A.3	42.005500	42.155500		[silence]	[silence]
sw3156A-ms98-a-0007	A.3	42.155500	42.385500		So	so
sw3156A-ms98-a-0007	A.3	42.385500	42.525500		as	as
sw3156A-ms98-a-0007	A.3	42.525500	42.815500		far	far
sw3156A-ms98-a-0007	A.3	42.815500	42.965500		as	as
sw3156A-ms98-a-0007	A.3	42.965500	43.105500		at	at
sw3156A-ms98-a-0007	A.3	43.105500	43.435500		home	home
sw3156A-ms98-a-0007	A.3	43.435500	43.905500		use	use
sw3156A-ms98-a-0007	A.3	43.905500	44.085500		uh	uh
sw3156A-ms98-a-0007	A.3	44.085500	44.475500		we'll	we'll
sw3156A-ms98-a-0007	A.3	44.475500	44.675500		pick	pick
sw3156A-ms98-a-0007	A.3	44.675500	44.845500		up	up
sw3156A-ms98-a-0007	A.3	44.845500	44.905500		a	a
sw3156A-ms98-a-0007	A.3	44.905500	45.145500		six	six
sw3156A-ms98-a-0007	A.3	45.145500	45.435500		pack	pack
sw3156A-ms98-a-0007	A.3	45.435500	45.575500		every	every
sw3156A-ms98-a-0007	A.3	45.575500	45.785500		once	once
sw3156A-ms98-a-0007	A.3	45.785500	45.885500		in	in
sw3156A-ms98-a-0007	A.3	45.885500	45.915500		a	a
sw3156A-ms98-a-0007	A.3	45.915500	46.025500		while	while
sw3156A-ms98-a-0007	A.3	46.025500	46.245500		or	or
sw3156A-ms98-a-0007	A.3	46.245500	46.385500		for	for
sw3156A-ms98-a-0007	A.3	46.385500	46.695500		whatever	whatever
sw3156A-ms98-a-0007	A.3	46.695500	47.265500		occasion	occasion
sw3156A-ms98-a-0007	A.3	47.265500	47.509375		[silence]	[silence]
sw3156A-ms98-a-0008	A.3	47.509375	47.819375		[silence]	[silence]
sw3156A-ms98-a-0008	A.3	47.819375	48.069375		of	of
sw3156A-ms98-a-0008	A.3	48.069375	48.299375	<SUB>	Doctor	Dr
sw3156A-ms98-a-0008	A.3	48.299375	48.619375		Pepper	Pepper
sw3156A-ms98-a-0008	A.3	48.619375	48.749375		or	or
sw3156A-ms98-a-0008	A.3	48.749375	49.229375		something	something
sw3156A-ms98-a-0008	A.3	49.229375	49.589375		and	and
sw3156A-ms98-a-0008	A.3	49.589375	49.749375		and	and
sw3156A-ms98-a-0008	A.3	49.749375	49.829375		by	by
sw3156A-ms98-a-0008	A.3	49.829375	49.899375		the	the
sw3156A-ms98-a-0008	A.3	49.899375	50.209375		time	time
sw3156A-ms98-a-0008	A.3	50.209375	50.450875		we	we
sw3156A-ms98-a-0008	A.3	50.450875	50.635500		[silence]	[silence]
sw3156A-ms98-a-0008	A.3	50.635500	50.910750		gathered	gathered
sw3156A-ms98-a-0008	A.3	50.910750	51.084000		up	up
sw3156A-ms98-a-0008	A.3	51.084000	51.399375		enough	enough
sw3156A-ms98-a-0008	A.3	51.399375	51.769375		crushed	crushed
sw3156A-ms98-a-0008	A.3	51.769375	52.109375		cans	cans
sw3156A-ms98-a-0008	A.3	52.109375	52.309375		to	to
sw3156A-ms98-a-0008	A.3	52.309375	52.519375		take	take
sw3156A-ms98-a-0008	A.3	52.519375	52.709375		it	it
sw3156A-ms98-a-0008	A.3	52.709375	53.003000		in	in
sw3156A-ms98-a-0008	A.3	53.003000	53.342750		[silence]	[silence]
sw3156A-ms98-a-0009	A.3	53.342750	53.602750		[silence]	[silence]
sw3156A-ms98-a-0009	A.3	53.602750	53.985500		uh	uh
sw3156A-ms98-a-0009	A.3	53.985500	54.180375		at	at
sw3156A-ms98-a-0009	A.3	54.180375	54.258750		the	the
sw3156A-ms98-a-0009	A.3	54.258750	54.532750		time	time
sw3156A-ms98-a-0009	A.3	54.532750	54.622750		it	it
sw3156A-ms98-a-0009	A.3	54.622750	54.732750		was	was
sw3156A-ms98-a-0009	A.3	54.732750	55.262750		still	still
sw3156A-ms98-a-0009	A.3	55.262750	55.392750		oh	oh
sw3156A-ms98-a-0009	A.3	55.392750	55.672750		about	about
sw3156A-ms98-a-0009	A.3	55.672750	55.942750		[silence]	[silence]
sw3156A-ms98-a-0009	A.3	55.942750	56.512750		forty	forty
sw3156A-ms98-a-0009	A.3	56.512750	56.602750		or	or
sw3156A-ms98-a-0009	A.3	56.602750	56.912750		fifty	fifty
sw3156A-ms98-a-0009	A.3	56.912750	57.262750		cents	cents
sw3156A-ms98-a-0009	A.3	57.262750	57.506250		a	a
sw3156A-ms98-a-0009	A.3	57.506250	57.978500		[silence]	[silence]
sw3156A-ms98-a-0009	A.3	57.978500	58.573625		pound	pound
sw3156A-ms98-a-0009	A.3	58.573625	58.982750		and	and
sw3156A-ms98-a-0009	A.3	58.982750	59.102750		we	we
sw3156A-ms98-a-0009	A.3	59.102750	59.362750		came	came
sw3156A-ms98-a-0009	A.3	59.362750	59.562750		out	out
sw3156A-ms98-a-0009	A.3	59.562750	59.762750		with	with
sw3156A-ms98-a-0009	A.3	59.762750	59.952750		about	about_1
sw3156A-ms98-a-0009	A.3	59.952750	59.992750		a	a
sw3156A-ms98-a-0009	A.3	59.992750	60.372750		dollar	dollar
sw3156A-ms98-a-0009	A.3	60.372750	60.565250		[silence]	[silence]
sw3156A-ms98-a-0010	A.3	60.565250	60.811875		[silence]	[silence]
sw3156A-ms98-a-0010	A.3	60.811875	61.275250		it	[laughter-it]
sw3156A-ms98-a-0010	A.3	61.275250	61.575250		just	just
sw3156A-ms98-a-0010	A.3	61.575250	61.825250		really	really
sw3156A-ms98-a-0010	A.3	61.825250	62.095250		wasn't	wasn't
sw3156A-ms98-a-0010	A.3	62.095250	62.305250		worth	worth
sw3156A-ms98-a-0010	A.3	62.305250	62.445250		it	it
sw3156A-ms98-a-0010	A.5	62.445250	64.065250		[laughter]	[laughter]
sw3156A-ms98-a-0010	A.5	64.065250	64.715250		Yeah	yeah
sw3156A-ms98-a-0010	A.7	64.715250	65.715250		So	so
sw3156A-ms98-a-0010	A.7	65.715250	65.965250		[silence]	[silence]
sw3156A-ms98-a-0010	A.7	65.965250	66.436875		they	they
sw3156A-ms98-a-0010	A.7	66.436875	66.583875		[silence]	[silence]
sw3156A-ms98-a-0010	A.7	66.583875	66.715250		they	they
sw3156A-ms98-a-0010	A.7	66.715250	67.385250		realized	realized
sw3156A-ms98-a-0010	A.7	67.385250	67.455250		you	you
sw3156A-ms98-a-0010	A.7	67.455250	67.575250		know	know
sw3156A-ms98-a-0010	A.7	67.575250	67.775250		well	well
sw3156A-ms98-a-0010	A.7	67.775250	67.855250		of	of
sw3156A-ms98-a-0010	A.7	67.855250	68.065250		course	course
sw3156A-ms98-a-0010	A.7	68.065250	68.155250		to	to
sw3156A-ms98-a-0010	A.7	68.155250	68.425250		them	them
sw3156A-ms98-a-0010	A.7	68.425250	68.475250		a	a
sw3156A-ms98-a-0010	A.7	68.475250	68.725250		dollar	dollar
sw3156A-ms98-a-0010	A.7	68.725250	68.835250		was	was
sw3156A-ms98-a-0010	A.7	68.835250	68.895250		a	a
sw3156A-ms98-a-0010	A.7	68.895250	69.185250		dollar	dollar
sw3156A-ms98-a-0010	A.7	69.185250	69.315250		at	at
sw3156A-ms98-a-0010	A.7	69.315250	69.545250		four	four
sw3156A-ms98-a-0010	A.7	69.545250	69.645250		and	and
sw3156A-ms98-a-0010	A.7	69.645250	69.875250		five	five
sw3156A-ms98-a-0010	A.7	69.875250	70.065250		years	years
sw3156A-ms98-a-0010	A.7	70.065250	70.325250		old	old
sw3156A-ms98-a-0010	A.7	70.325250	70.455250		That	that
sw3156A-ms98-a-0010	A.7	70.455250	70.875250		wasn't	wasn't
sw3156A-ms98-a-0010	A.7	70.875250	71.015250		uh	uh
sw3156A-ms98-a-0010	A.7	71.015250	71.135250		that	that
sw3156A-ms98-a-0010	A.7	71.135250	71.665250		[silence]	[silence]
sw3156A-ms98-a-0010	A.7	71.665250	71.765250		was	was
sw3156A-ms98-a-0010	A.7	71.765250	71.855250		a	a
sw3156A-ms98-a-0010	A.7	71.855250	72.045250		big	big
sw3156A-ms98-a-0010	A.7	72.045250	72.405250		deal	deal
sw3156A-ms98-a-0010	A.7	72.405250	72.608750		but	but
sw3156A-ms98-a-0010	A.7	72.608750	72.854125		[silence]	[silence]
sw3156A-ms98-a-0011	A.7	72.854125	73.088250		[silence]	[silence]
sw3156A-ms98-a-0011	A.7	73.088250	73.184125		we	we
sw3156A-ms98-a-0011	A.7	73.184125	73.634125		decided	decided
sw3156A-ms98-a-0011	A.7	73.634125	73.744125		it	it
sw3156A-ms98-a-0011	A.7	73.744125	74.004125		wasn't	wasn't
sw3156A-ms98-a-0011	A.7	74.004125	74.254125		worth	worth
sw3156A-ms98-a-0011	A.7	74.254125	74.444125		us	us
sw3156A-ms98-a-0011	A.7	74.444125	74.774125		keeping	keeping
sw3156A-ms98-a-0011	A.7	74.774125	74.974125		it	it
sw3156A-ms98-a-0011	A.7	74.974125	75.144125		and	and
sw3156A-ms98-a-0011	A.7	75.144125	75.454125		then	then
sw3156A-ms98-a-0011	A.7	75.454125	75.810375	<SUB>	uh	um
sw3156A-ms98-a-0011	A.7	75.810375	76.064250		[silence]	[silence]
sw3156A-ms98-a-0012	A.7	76.064250	76.362125		[silence]	[silence]
sw3156A-ms98-a-0012	A.7	76.362125	76.684250	<CONT>	T	TI
sw3156A-ms98-a-0012	A.7	76.684250	76.684250	<CONT>	I	+++
sw3156A-ms98-a-0012	A.7	76.684250	77.054250		started	started
sw3156A-ms98-a-0012	A.7	77.054250	77.426250		keeping	keeping
sw3156A-ms98-a-0012	A.7	77.426250	77.587000		up	up
sw3156A-ms98-a-0012	A.7	77.587000	77.829500		with	with
sw3156A-ms98-a-0012	A.7	77.829500	77.972625		[silence]	[silence]
sw3156A-ms98-a-0012	A.7	77.972625	78.204250		uh	uh
sw3156A-ms98-a-0012	A.7	78.204250	78.704250		cans	cans
sw3156A-ms98-a-0012	A.7	78.704250	78.974250		there	there
sw3156A-ms98-a-0012	A.7	78.974250	79.204250		so	so
sw3156A-ms98-a-0012	A.7	79.204250	79.704250		occasionally	occasionally
sw3156A-ms98-a-0012	A.7	79.704250	79.944250		I'll	i'll
sw3156A-ms98-a-0012	A.7	79.944250	80.494250		[silence]	[silence]
sw3156A-ms98-a-0012	A.7	80.494250	80.714250		bring	bring
sw3156A-ms98-a-0012	A.7	80.714250	81.064250		whatever	whatever
sw3156A-ms98-a-0012	A.7	81.064250	81.164250		I've	i've
sw3156A-ms98-a-0012	A.7	81.164250	81.384250		got	got
sw3156A-ms98-a-0012	A.7	81.384250	81.604250		laying	laying
sw3156A-ms98-a-0012	A.7	81.604250	81.844250		around	around
sw3156A-ms98-a-0012	A.7	81.844250	81.904250		the	the
sw3156A-ms98-a-0012	A.7	81.904250	82.154250		car	car
sw3156A-ms98-a-0012	A.7	82.154250	82.354250		or	or
sw3156A-ms98-a-0012	A.7	82.354250	82.444250		the	the
sw3156A-ms98-a-0012	A.7	82.444250	82.794250		like	like
sw3156A-ms98-a-0012	A.7	82.794250	83.014250		and	and
sw3156A-ms98-a-0012	A.7	83.014250	83.204250		throw	throw
sw3156A-ms98-a-0012	A.7	83.204250	83.334250		them	them_1
sw3156A-ms98-a-0012	A.7	83.334250	83.484250		in	in
sw3156A-ms98-a-0012	A.7	83.484250	83.852375		there	there
sw3156A-ms98-a-0012	A.7	83.852375	84.121750		[silence]	[silence]
sw3156A-ms98-a-0013	A.7	84.121750	84.421750		[silence]	[silence]
sw3156A-ms98-a-0013	A.7	84.421750	84.601750		Least	least
sw3156A-ms98-a-0013	A.7	84.601750	84.661750		it	it
sw3156A-ms98-a-0013	A.7	84.661750	84.841750		gets	gets
sw3156A-ms98-a-0013	A.7	84.841750	85.101750		back	back
sw3156A-ms98-a-0013	A.7	85.101750	85.301750		into	into
sw3156A-ms98-a-0013	A.7	85.301750	85.361750		the	the
sw3156A-ms98-a-0013	A.7	85.361750	85.911750		system	system
sw3156A-ms98-a-0013	A.7	85.911750	86.251750		but	but
sw3156A-ms98-a-0013	A.7	86.251750	86.461750	<DEL>	---	um
sw3156A-ms98-a-0013	A.7	86.461750	86.551750		as	as
sw3156A-ms98-a-0013	A.7	86.551750	86.801750		far	far
sw3156A-ms98-a-0013	A.7	86.801750	86.881750		as	as
sw3156A-ms98-a-0013	A.7	86.881750	86.991750		a	a
sw3156A-ms98-a-0013	A.7	86.991750	87.341750		habit	habit
sw3156A-ms98-a-0013	A.7	87.341750	87.441750		at	at
sw3156A-ms98-a-0013	A.7	87.441750	87.551750		the	the
sw3156A-ms98-a-0013	A.7	87.551750	88.121750		house	house
sw3156A-ms98-a-0013	A.7	88.121750	88.343250		uh	uh
sw3156A-ms98-a-0013	A.7	88.343250	88.785000		[silence]	[silence]
sw3156A-ms98-a-0014	A.7	88.785000	89.225000		[silence]	[silence]
sw3156A-ms98-a-0014	A.7	89.225000	89.305000		I	i
sw3156A-ms98-a-0014	A.7	89.305000	89.642875		haven't	haven't
sw3156A-ms98-a-0014	A.7	89.642875	89.801125		[silence]	[silence]
sw3156A-ms98-a-0014	A.7	89.801125	90.175000		started	started
sw3156A-ms98-a-0014	A.7	90.175000	90.305000		on	on
sw3156A-ms98-a-0014	A.7	90.305000	90.645000		anything	anything
sw3156A-ms98-a-0014	A.7	90.645000	90.905000		other	other
sw3156A-ms98-a-0014	A.7	90.905000	91.125000		than	than
sw3156A-ms98-a-0014	A.7	91.125000	92.185000		just	just
sw3156A-ms98-a-0014	A.7	92.185000	92.555000		whatever	whatever
sw3156A-ms98-a-0014	A.7	92.555000	92.615000		the	the
sw3156A-ms98-a-0014	A.7	92.615000	92.905000		city	city
sw3156A-ms98-a-0014	A.7	92.905000	93.075000		wants	wants
sw3156A-ms98-a-0014	A.7	93.075000	93.175000		to	to
sw3156A-ms98-a-0014	A.7	93.175000	93.425000		pick	pick
sw3156A-ms98-a-0014	A.7	93.425000	93.734750		up	up
sw3156A-ms98-a-0014	A.7	93.734750	93.880750		[silence]	[silence]
sw3156A-ms98-a-0015	A.7	93.880750	94.052000		[silence]	[silence]
sw3156A-ms98-a-0015	A.7	94.052000	94.290750		Have	have
sw3156A-ms98-a-0015	A.7	94.290750	94.520750	<CONT>	you	y'all
sw3156A-ms98-a-0015	A.7	94.520750	94.520750	<CONT>	all	+++
sw3156A-ms98-a-0015	A.7	94.520750	94.730750		got	got
sw3156A-ms98-a-0015	A.7	94.730750	94.880750		the	the
sw3156A-ms98-a-0015	A.7	94.880750	95.470750		individual	individual
sw3156A-ms98-a-0015	A.7	95.470750	96.020750		containers	containers
sw3156A-ms98-a-0015	A.7	96.020750	96.379375		yet	yet
sw3156A-ms98-a-0015	A.9	96.379375	96.848875		[silence]	[silence]
sw3156A-ms98-a-0016	A.9	96.848875	108.657375		[silence]	[silence]
sw3156A-ms98-a-0017	A.9	108.657375	109.157000		[silence]	[silence]
sw3156A-ms98-a-0017	A.9	109.157000	109.457375	<SUB>	Um	hm
sw3156A-ms98-a-0017	A.11	109.457375	109.857875		[silence]	[silence]
sw3156A-ms98-a-0018	A.11	109.857875	123.105125		[silence]	[silence]
sw3156A-ms98-a-0019	A.11	123.105125	123.600875		[silence]	[silence]
sw3156A-ms98-a-0019	A.11	123.600875	124.128875		Right	right
sw3156A-ms98-a-0019	A.11	124.128875	124.616750		[silence]	[silence]
sw3156A-ms98-a-0019	A.11	124.616750	124.795125		Yeah	yeah
sw3156A-ms98-a-0019	A.11	124.795125	124.905125		it	it
sw3156A-ms98-a-0019	A.11	124.905125	125.335125		seemed	seemed
sw3156A-ms98-a-0019	A.11	125.335125	125.775125		like	like
sw3156A-ms98-a-0019	A.11	125.775125	126.235125		uh	uh
sw3156A-ms98-a-0019	A.11	126.235125	126.675125		if	if
sw3156A-ms98-a-0019	A.11	126.675125	126.895125		if	if
sw3156A-ms98-a-0019	A.11	126.895125	126.945125		I	i
sw3156A-ms98-a-0019	A.11	126.945125	127.485125		recall	recall
sw3156A-ms98-a-0019	A.11	127.485125	127.665125		it's	it's
sw3156A-ms98-a-0019	A.11	127.665125	127.795125		been	been
sw3156A-ms98-a-0019	A.11	127.795125	127.825125		a	a
sw3156A-ms98-a-0019	A.11	127.825125	128.305125		long	long
sw3156A-ms98-a-0019	A.11	128.305125	128.655125		time	time
sw3156A-ms98-a-0019	A.11	128.655125	128.775125		They're	they're
sw3156A-ms98-a-0019	A.11	128.775125	128.935125		way	way
sw3156A-ms98-a-0019	A.11	128.935125	129.285125		behind	behind
sw3156A-ms98-a-0019	A.11	129.285125	129.725125		schedule	schedule
sw3156A-ms98-a-0019	A.11	129.725125	129.845125		on	on
sw3156A-ms98-a-0019	A.11	129.845125	129.995125		that	that
sw3156A-ms98-a-0019	A.11	129.995125	130.285125		particular	particular
sw3156A-ms98-a-0019	A.11	130.285125	130.565125		part	part
sw3156A-ms98-a-0019	A.11	130.565125	130.655125		of	of
sw3156A-ms98-a-0019	A.11	130.655125	130.735125		it	it
sw3156A-ms98-a-0019	A.11	130.735125	130.835125		They	they
sw3156A-ms98-a-0019	A.11	130.835125	130.965125		were	were
sw3156A-ms98-a-0019	A.11	130.965125	131.295125		fine	fine
sw3156A-ms98-a-0019	A.11	131.295125	131.365125		on	on
sw3156A-ms98-a-0019	A.11	131.365125	131.445125		the	the
sw3156A-ms98-a-0019	A.11	131.445125	131.855125		green	green
sw3156A-ms98-a-0019	A.11	131.855125	132.055125		big	big
sw3156A-ms98-a-0019	A.11	132.055125	132.305125		green	green
sw3156A-ms98-a-0019	A.11	132.305125	132.855125		containers	containers
sw3156A-ms98-a-0019	A.13	132.855125	133.195125		but	but
sw3156A-ms98-a-0019	A.13	133.195125	133.495125		uh	uh
sw3156A-ms98-a-0019	A.13	133.495125	133.765125		seems	seems
sw3156A-ms98-a-0019	A.13	133.765125	133.955125		like	like
sw3156A-ms98-a-0019	A.13	133.955125	134.085125		they	they
sw3156A-ms98-a-0019	A.13	134.085125	134.315125		said	said
sw3156A-ms98-a-0019	A.13	134.315125	134.395125		they	they
sw3156A-ms98-a-0019	A.13	134.395125	134.475125		were	were
sw3156A-ms98-a-0019	A.13	134.475125	134.645125		just	just
sw3156A-ms98-a-0019	A.13	134.645125	134.785125	<SUB>	going	gonna
sw3156A-ms98-a-0019	A.13	134.785125	134.785125	<INS>	to	---
sw3156A-ms98-a-0019	A.13	134.785125	134.995125		have	have
sw3156A-ms98-a-0019	A.13	134.995125	135.152875		a	a
sw3156A-ms98-a-0019	A.13	135.152875	135.314500		[silence]	[silence]
sw3156A-ms98-a-0019	A.13	135.314500	135.725125		bin	bin
sw3156A-ms98-a-0019	A.13	135.725125	135.985375		[silence]	[silence]
sw3156A-ms98-a-0020	A.13	135.985375	136.259875		[silence]	[silence]
sw3156A-ms98-a-0020	A.13	136.259875	136.905375		and	and
sw3156A-ms98-a-0020	A.13	136.905375	137.135375		all	all
sw3156A-ms98-a-0020	A.13	137.135375	137.295375	<DEL>	---	s[orts]-
sw3156A-ms98-a-0020	A.13	137.295375	137.675375		different	different
sw3156A-ms98-a-0020	A.13	137.675375	137.985375		types	types
sw3156A-ms98-a-0020	A.13	137.985375	138.085375		would	would
sw3156A-ms98-a-0020	A.13	138.085375	138.285375		go	go
sw3156A-ms98-a-0020	A.13	138.285375	138.455375		in	in
sw3156A-ms98-a-0020	A.13	138.455375	138.725375		there	there
sw3156A-ms98-a-0020	A.13	138.725375	138.845375		and	and
sw3156A-ms98-a-0020	A.13	138.845375	139.005375		then	then
sw3156A-ms98-a-0020	A.13	139.005375	139.175375		that	that
sw3156A-ms98-a-0020	A.13	139.175375	139.335375		they	they
sw3156A-ms98-a-0020	A.13	139.335375	139.505375		would	would
sw3156A-ms98-a-0020	A.13	139.505375	139.835375		sort	sort
sw3156A-ms98-a-0020	A.13	139.835375	139.935375		it	it
sw3156A-ms98-a-0020	A.13	139.935375	140.348750		as	as
sw3156A-ms98-a-0020	A.15	140.348750	140.793250		[silence]	[silence]
sw3156A-ms98-a-0020	A.15	140.793250	141.115375		as	as
sw3156A-ms98-a-0020	A.15	141.115375	141.475375		needed	needed
sw3156A-ms98-a-0020	A.15	141.475375	141.645375		It	it
sw3156A-ms98-a-0020	A.15	141.645375	141.725375		it	it
sw3156A-ms98-a-0020	A.15	141.725375	142.205375		seemed	seemed
sw3156A-ms98-a-0020	A.15	142.205375	142.325375		[silence]	[silence]
sw3156A-ms98-a-0020	A.15	142.325375	142.485375		that	that
sw3156A-ms98-a-0020	A.15	142.485375	142.595375		there	there
sw3156A-ms98-a-0020	A.15	142.595375	142.795375		was	was
sw3156A-ms98-a-0020	A.15	142.795375	142.895375		at	at
sw3156A-ms98-a-0020	A.15	142.895375	142.955375		the	the
sw3156A-ms98-a-0020	A.15	142.955375	143.285375		time	time
sw3156A-ms98-a-0020	A.15	143.285375	143.765375		anyway	anyway
sw3156A-ms98-a-0020	A.15	143.765375	143.765375	<INS>	it	---
sw3156A-ms98-a-0020	A.15	143.765375	144.255375		[silence]	[silence]
sw3156A-ms98-a-0020	A.15	144.255375	144.345375		the	the
sw3156A-ms98-a-0020	A.15	144.345375	144.735375		thinking	thinking
sw3156A-ms98-a-0020	A.15	144.735375	145.085375		was	was
sw3156A-ms98-a-0020	A.15	145.085375	145.285375		that	that
sw3156A-ms98-a-0020	A.15	145.285375	145.505375		there	there
sw3156A-ms98-a-0020	A.15	145.505375	145.866500		was	was
sw3156A-ms98-a-0020	A.15	145.866500	146.280750		[silence]	[silence]
sw3156A-ms98-a-0020	A.15	146.280750	146.455375		too	too
sw3156A-ms98-a-0020	A.15	146.455375	146.978125		much	much
sw3156A-ms98-a-0020	A.15	146.978125	147.170125		[silence]	[silence]
sw3156A-ms98-a-0020	A.15	147.170125	147.445375		not	not
sw3156A-ms98-a-0020	A.15	147.445375	147.665375		getting	getting
sw3156A-ms98-a-0020	A.15	147.665375	147.995375		sorted	sorted
sw3156A-ms98-a-0020	A.15	147.995375	148.645375		properly	properly
sw3156A-ms98-a-0020	A.15	148.645375	148.857875		[silence]	[silence]
sw3156A-ms98-a-0021	A.15	148.857875	149.147875		[silence]	[silence]
sw3156A-ms98-a-0021	A.15	149.147875	149.357875		and	and
sw3156A-ms98-a-0021	A.15	149.357875	149.497875		that	that
sw3156A-ms98-a-0021	A.15	149.497875	149.777875		at	at
sw3156A-ms98-a-0021	A.15	149.777875	149.917875		at	at
sw3156A-ms98-a-0021	A.15	149.917875	150.107875		the	the
sw3156A-ms98-a-0021	A.15	150.107875	150.617875		collection	collection
sw3156A-ms98-a-0021	A.15	150.617875	150.957875		sites	sites
sw3156A-ms98-a-0021	A.15	150.957875	151.107875		where	where
sw3156A-ms98-a-0021	A.15	151.107875	151.447875		everything's	everything's
sw3156A-ms98-a-0021	A.15	151.447875	151.847875		clearly	clearly
sw3156A-ms98-a-0021	A.15	151.847875	152.287875		labeled	labeled
sw3156A-ms98-a-0021	A.15	152.287875	152.447875		and	and
sw3156A-ms98-a-0021	A.15	152.447875	152.727875		people	people
sw3156A-ms98-a-0021	A.15	152.727875	152.897875		that	that
sw3156A-ms98-a-0021	A.15	152.897875	153.247875		[silence]	[silence]
sw3156A-ms98-a-0021	A.15	153.247875	153.487875		happen	happen
sw3156A-ms98-a-0021	A.15	153.487875	153.557875		to	to
sw3156A-ms98-a-0021	A.15	153.557875	153.727875		go	go
sw3156A-ms98-a-0021	A.15	153.727875	153.807875		to	to
sw3156A-ms98-a-0021	A.15	153.807875	153.977875		that	that
sw3156A-ms98-a-0021	A.15	153.977875	154.137875		kind	kind
sw3156A-ms98-a-0021	A.15	154.137875	154.197875		of	of
sw3156A-ms98-a-0021	A.15	154.197875	154.507875		trouble	trouble
sw3156A-ms98-a-0021	A.15	154.507875	154.637875		to	to
sw3156A-ms98-a-0021	A.15	154.637875	154.847875		do	do
sw3156A-ms98-a-0021	A.15	154.847875	155.047875		it	it
sw3156A-ms98-a-0021	A.15	155.047875	155.377875		happen	happen
sw3156A-ms98-a-0021	A.15	155.377875	155.447875		to	to
sw3156A-ms98-a-0021	A.15	155.447875	155.567875		do	do
sw3156A-ms98-a-0021	A.15	155.567875	155.717875		it	it
sw3156A-ms98-a-0021	A.15	155.717875	155.977875		pretty	pretty
sw3156A-ms98-a-0021	A.15	155.977875	156.497875		well	well
sw3156A-ms98-a-0021	A.15	156.497875	156.839750		[silence]	[silence]
sw3156A-ms98-a-0022	A.15	156.839750	157.222000		[silence]	[silence]
sw3156A-ms98-a-0022	A.15	157.222000	157.519750		uh	uh
sw3156A-ms98-a-0022	A.15	157.519750	157.839750		those	those
sw3156A-ms98-a-0022	A.15	157.839750	157.979750		are	are
sw3156A-ms98-a-0022	A.15	157.979750	158.329750		okay	okay
sw3156A-ms98-a-0022	A.15	158.329750	158.469750		to	to
sw3156A-ms98-a-0022	A.15	158.469750	158.710125		have	have
sw3156A-ms98-a-0022	A.15	158.710125	158.860750		[silence]	[silence]
sw3156A-ms98-a-0022	A.15	158.860750	159.105875		the	the
sw3156A-ms98-a-0022	A.15	159.105875	159.501375		[silence]	[silence]
sw3156A-ms98-a-0022	A.15	159.501375	159.779750		general	general
sw3156A-ms98-a-0022	A.15	159.779750	160.139750		public	public
sw3156A-ms98-a-0022	A.15	160.139750	160.389750		doing	doing
sw3156A-ms98-a-0022	A.15	160.389750	160.449750		the	the
sw3156A-ms98-a-0022	A.15	160.449750	160.949750		sorting	sorting
sw3156A-ms98-a-0022	A.15	160.949750	161.139750		But	but
sw3156A-ms98-a-0022	A.15	161.139750	161.259750		when	when
sw3156A-ms98-a-0022	A.15	161.259750	161.399750		it	it
sw3156A-ms98-a-0022	A.15	161.399750	161.689750		comes	comes
sw3156A-ms98-a-0022	A.15	161.689750	161.969750		down	down
sw3156A-ms98-a-0022	A.15	161.969750	162.279750		to	to
sw3156A-ms98-a-0022	A.15	162.279750	162.519750		just	just
sw3156A-ms98-a-0022	A.15	162.519750	162.769750		general	general
sw3156A-ms98-a-0022	A.15	162.769750	163.109750		purpose	purpose
sw3156A-ms98-a-0022	A.15	163.109750	163.569750		trash	trash
sw3156A-ms98-a-0022	A.15	163.569750	163.769750		that	that
sw3156A-ms98-a-0022	A.15	163.769750	163.999750		all	all
sw3156A-ms98-a-0022	A.15	163.999750	164.109750		the	the
sw3156A-ms98-a-0022	A.15	164.109750	164.654000		houses	houses
sw3156A-ms98-a-0022	A.15	164.654000	164.913000		[silence]	[silence]
sw3156A-ms98-a-0023	A.15	164.913000	165.193000		[silence]	[silence]
sw3156A-ms98-a-0023	A.15	165.193000	165.393000	<SUB>	uh	um
sw3156A-ms98-a-0023	A.15	165.393000	165.503000		the	the
sw3156A-ms98-a-0023	A.15	165.503000	165.913000		success	success
sw3156A-ms98-a-0023	A.15	165.913000	166.083000		rate	rate
sw3156A-ms98-a-0023	A.15	166.083000	166.183000		of	of
sw3156A-ms98-a-0023	A.15	166.183000	166.373000		getting	getting
sw3156A-ms98-a-0023	A.15	166.373000	166.463000		it	it
sw3156A-ms98-a-0023	A.15	166.463000	166.773000		sorted	sorted
sw3156A-ms98-a-0023	A.15	166.773000	167.283000		properly	properly
sw3156A-ms98-a-0023	A.15	167.283000	167.533000		seemed	seemed
sw3156A-ms98-a-0023	A.15	167.533000	167.603000		to	to
sw3156A-ms98-a-0023	A.15	167.603000	167.733000		be	be
sw3156A-ms98-a-0023	A.15	167.733000	168.213000		poor	poor
sw3156A-ms98-a-0023	A.15	168.213000	168.613000		so	so
sw3156A-ms98-a-0023	A.15	168.613000	168.890875		[silence]	[silence]
sw3156A-ms98-a-0024	A.15	168.890875	169.208625		[silence]	[silence]
sw3156A-ms98-a-0024	A.15	169.208625	169.300875		they	they
sw3156A-ms98-a-0024	A.15	169.300875	169.610875		felt	felt
sw3156A-ms98-a-0024	A.15	169.610875	169.710875		that	that
sw3156A-ms98-a-0024	A.15	169.710875	170.050875		having	having
sw3156A-ms98-a-0024	A.15	170.050875	170.290875		one	one
sw3156A-ms98-a-0024	A.15	170.290875	170.550875		guy	guy
sw3156A-ms98-a-0024	A.15	170.550875	170.740875		just	just
sw3156A-ms98-a-0024	A.15	170.740875	170.900875		sit	sit
sw3156A-ms98-a-0024	A.15	170.900875	171.080875		there	there
sw3156A-ms98-a-0024	A.15	171.080875	171.220875		and	and
sw3156A-ms98-a-0024	A.15	171.220875	171.450875		run	run
sw3156A-ms98-a-0024	A.15	171.450875	171.650875		through	through
sw3156A-ms98-a-0024	A.15	171.650875	171.780875		it	it
sw3156A-ms98-a-0024	A.15	171.780875	171.940875		real	real
sw3156A-ms98-a-0024	A.15	171.940875	172.290875		quick	quick
sw3156A-ms98-a-0024	A.15	172.290875	172.480875		was	was
sw3156A-ms98-a-0024	A.15	172.480875	172.870875		better	better
sw3156A-ms98-a-0024	A.15	172.870875	173.205000		than	than
sw3156A-ms98-a-0024	A.15	173.205000	173.428500		[silence]	[silence]
sw3156A-ms98-a-0025	A.15	173.428500	173.727750		[silence]	[silence]
sw3156A-ms98-a-0025	A.15	173.727750	173.873375		than	than
sw3156A-ms98-a-0025	A.17	173.873375	174.155375		having	having
sw3156A-ms98-a-0025	A.17	174.155375	174.446875		a	a
sw3156A-ms98-a-0025	A.17	174.446875	174.948500		household	household
sw3156A-ms98-a-0025	A.17	174.948500	175.218500		try	try
sw3156A-ms98-a-0025	A.17	175.218500	175.308500		it	it
sw3156A-ms98-a-0025	A.17	175.308500	175.448500		But	but
sw3156A-ms98-a-0025	A.17	175.448500	175.728500	<SUB>	I	i-
sw3156A-ms98-a-0025	A.17	175.728500	175.888500		I	i
sw3156A-ms98-a-0025	A.17	175.888500	176.058500		don't	don't
sw3156A-ms98-a-0025	A.17	176.058500	176.208500		know	know
sw3156A-ms98-a-0025	A.17	176.208500	176.378500		that	that
sw3156A-ms98-a-0025	A.17	176.378500	176.578500		sounds	sounds
sw3156A-ms98-a-0025	A.17	176.578500	176.708500		like	like
sw3156A-ms98-a-0025	A.17	176.708500	176.828500		an	an
sw3156A-ms98-a-0025	A.17	176.828500	177.068500		awful	awful
sw3156A-ms98-a-0025	A.17	177.068500	177.228500		lot	lot
sw3156A-ms98-a-0025	A.17	177.228500	177.288500		of	of
sw3156A-ms98-a-0025	A.17	177.288500	177.628500		labor	labor
sw3156A-ms98-a-0025	A.17	177.628500	178.068500		[silence]	[silence]
sw3156A-ms98-a-0025	A.17	178.068500	178.138500		to	to
sw3156A-ms98-a-0025	A.17	178.138500	178.418500		sort	sort
sw3156A-ms98-a-0025	A.17	178.418500	178.578500		the	the
sw3156A-ms98-a-0025	A.17	178.578500	179.108500		entire	entire
sw3156A-ms98-a-0025	A.17	179.108500	179.408500		week's	week's
sw3156A-ms98-a-0025	A.17	179.408500	179.588500		worth	worth
sw3156A-ms98-a-0025	A.17	179.588500	179.658500		of	of
sw3156A-ms98-a-0025	A.17	179.658500	180.098500		trash	trash
sw3156A-ms98-a-0025	A.17	180.098500	180.338500		for	for
sw3156A-ms98-a-0025	A.17	180.338500	180.388500		a	a
sw3156A-ms98-a-0025	A.17	180.388500	180.818500		house	house
sw3156A-ms98-a-0025	A.19	180.818500	181.246625		[silence]	[silence]
sw3156A-ms98-a-0026	A.19	181.246625	182.488000		[silence]	[silence]
sw3156A-ms98-a-0027	A.19	182.488000	182.921375		[silence]	[silence]
sw3156A-ms98-a-0027	A.19	182.921375	183.408000		Yeah	yeah
sw3156A-ms98-a-0027	A.19	183.408000	183.776125		yeah	yeah
sw3156A-ms98-a-0027	A.21	183.776125	184.285125		[silence]	[silence]
sw3156A-ms98-a-0028	A.21	184.285125	187.548250		[silence]	[silence]
sw3156A-ms98-a-0029	A.21	187.548250	188.069000		[silence]	[silence]
sw3156A-ms98-a-0029	A.21	188.069000	188.550750		Right	right
sw3156A-ms98-a-0029	A.23	188.550750	189.001875		[silence]	[silence]
sw3156A-ms98-a-0030	A.23	189.001875	190.639375		[silence]	[silence]
sw3156A-ms98-a-0031	A.23	190.639375	191.042250		[silence]	[silence]
sw3156A-ms98-a-0031	A.23	191.042250	191.329375		That's	that's
sw3156A-ms98-a-0031	A.23	191.329375	191.689375		true	true
sw3156A-ms98-a-0031	A.25	191.689375	192.120875		[silence]	[silence]
sw3156A-ms98-a-0032	A.25	192.120875	197.313875		[silence]	[silence]
sw3156A-ms98-a-0033	A.25	197.313875	197.947875		[silence]	[silence]
sw3156A-ms98-a-0033	A.25	197.947875	198.424125		Right	right
sw3156A-ms98-a-0033	A.27	198.424125	198.938500		[silence]	[silence]
sw3156A-ms98-a-0034	A.27	198.938500	208.604875		[silence]	[silence]
sw3156A-ms98-a-0035	A.27	208.604875	209.183250		[silence]	[silence]
sw3156A-ms98-a-0035	A.27	209.183250	209.464875		Yeah	yeah
sw3156A-ms98-a-0035	A.29	209.464875	210.052750		[silence]	[silence]
sw3156A-ms98-a-0035	A.29	210.052750	210.128375		[noise]	[noise]
sw3156A-ms98-a-0035	A.29	210.128375	210.209375		[silence]	[silence]
sw3156A-ms98-a-0036	A.29	210.209375	210.519375		[silence]	[silence]
sw3156A-ms98-a-0036	A.29	210.519375	210.579375		They	they
sw3156A-ms98-a-0036	A.29	210.579375	210.739375		don't	don't
sw3156A-ms98-a-0036	A.29	210.739375	210.879375		do	do
sw3156A-ms98-a-0036	A.29	210.879375	211.089375		that	that
sw3156A-ms98-a-0036	A.29	211.089375	211.229375		We	we
sw3156A-ms98-a-0036	A.29	211.229375	211.499375		live	live
sw3156A-ms98-a-0036	A.29	211.499375	211.729375		next	next
sw3156A-ms98-a-0036	A.29	211.729375	211.819375		to	to
sw3156A-ms98-a-0036	A.29	211.819375	211.899375		a	a
sw3156A-ms98-a-0036	A.29	211.899375	212.089375		set	set
sw3156A-ms98-a-0036	A.29	212.089375	212.179375		of	of
sw3156A-ms98-a-0036	A.29	212.179375	212.559375		railroad	railroad
sw3156A-ms98-a-0036	A.29	212.559375	213.009375		tracks	tracks
sw3156A-ms98-a-0036	A.29	213.009375	213.344750		and	and
sw3156A-ms98-a-0036	A.29	213.344750	213.453875		[silence]	[silence]
sw3156A-ms98-a-0036	A.29	213.453875	213.599375		it	it
sw3156A-ms98-a-0036	A.29	213.599375	213.949375		seemed	seemed
sw3156A-ms98-a-0036	A.29	213.949375	214.049375		to	to
sw3156A-ms98-a-0036	A.29	214.049375	214.299375		be	be
sw3156A-ms98-a-0036	A.29	214.299375	214.479375		a	a
sw3156A-ms98-a-0036	A.29	214.479375	214.729375		very	very
sw3156A-ms98-a-0036	A.29	214.729375	215.189375		popular	popular
sw3156A-ms98-a-0036	A.29	215.189375	215.479375		thing	thing
sw3156A-ms98-a-0036	A.29	215.479375	215.599375		for	for
sw3156A-ms98-a-0036	A.29	215.599375	215.849375		people	people
sw3156A-ms98-a-0036	A.29	215.849375	216.209375		driving	driving
sw3156A-ms98-a-0036	A.29	216.209375	216.443375		by	by
sw3156A-ms98-a-0036	A.29	216.443375	216.661750		that	that
sw3156A-ms98-a-0036	A.29	216.661750	217.229375		highway	highway
sw3156A-ms98-a-0036	A.29	217.229375	217.529375		there	there
sw3156A-ms98-a-0036	A.29	217.529375	217.719375		by	by
sw3156A-ms98-a-0036	A.29	217.719375	217.859375		our	our
sw3156A-ms98-a-0036	A.29	217.859375	218.259375		tracks	tracks
sw3156A-ms98-a-0036	A.29	218.259375	218.379375		to	to
sw3156A-ms98-a-0036	A.29	218.379375	218.649375		throw	throw
sw3156A-ms98-a-0036	A.29	218.649375	218.799375		the	the
sw3156A-ms98-a-0036	A.29	218.799375	219.325125		bottles	bottles
sw3156A-ms98-a-0036	A.29	219.325125	219.901375		[silence]	[silence]
sw3156A-ms98-a-0036	A.29	219.901375	220.059375		at	at
sw3156A-ms98-a-0036	A.29	220.059375	220.139375		the	the
sw3156A-ms98-a-0036	A.29	220.139375	220.529375		tracks	tracks
sw3156A-ms98-a-0036	A.29	220.529375	220.629375		and	and
sw3156A-ms98-a-0036	A.29	220.629375	220.809375		try	try
sw3156A-ms98-a-0036	A.29	220.809375	220.899375		to	to
sw3156A-ms98-a-0036	A.29	220.899375	221.339375		crash	crash
sw3156A-ms98-a-0036	A.29	221.339375	221.449375		you	you
sw3156A-ms98-a-0036	A.29	221.449375	221.569375		know	know
sw3156A-ms98-a-0036	A.31	221.569375	221.889375		break	break
sw3156A-ms98-a-0036	A.31	221.889375	222.049375		them	them_1
sw3156A-ms98-a-0036	A.31	222.049375	222.320125		but	but
sw3156A-ms98-a-0036	A.31	222.320125	222.462000		[silence]	[silence]
sw3156A-ms98-a-0037	A.31	222.462000	222.732000		[silence]	[silence]
sw3156A-ms98-a-0037	A.31	222.732000	222.992000		uh	uh
sw3156A-ms98-a-0037	A.31	222.992000	223.122000		they	they
sw3156A-ms98-a-0037	A.31	223.122000	223.352000		weren't	weren't
sw3156A-ms98-a-0037	A.31	223.352000	223.532000		that	that
sw3156A-ms98-a-0037	A.31	223.532000	224.142000		successful	successful
sw3156A-ms98-a-0037	A.31	224.142000	224.292000		so	so
sw3156A-ms98-a-0037	A.31	224.292000	224.402000		there	there
sw3156A-ms98-a-0037	A.31	224.402000	224.492000		were	were
sw3156A-ms98-a-0037	A.31	224.492000	224.552000		a	a
sw3156A-ms98-a-0037	A.31	224.552000	225.042000		lot	lot
sw3156A-ms98-a-0037	A.31	225.042000	225.122000		of	of
sw3156A-ms98-a-0037	A.31	225.122000	225.502000		bottles	bottles
sw3156A-ms98-a-0037	A.31	225.502000	225.622000		to	to
sw3156A-ms98-a-0037	A.31	225.622000	225.722000		be	be
sw3156A-ms98-a-0037	A.31	225.722000	226.192000		returned	returned
sw3156A-ms98-a-0037	A.31	226.192000	226.292000		and	and
sw3156A-ms98-a-0037	A.31	226.292000	226.382000		we	we
sw3156A-ms98-a-0037	A.31	226.382000	226.612000		just	just
sw3156A-ms98-a-0037	A.31	226.612000	226.812000		walk	walk
sw3156A-ms98-a-0037	A.31	226.812000	227.072000		about	about
sw3156A-ms98-a-0037	A.31	227.072000	227.180625		a	a
sw3156A-ms98-a-0037	A.31	227.180625	227.546000		[silence]	[silence]
sw3156A-ms98-a-0037	A.31	227.546000	227.752000		half	half
sw3156A-ms98-a-0037	A.31	227.752000	227.812000		a	a
sw3156A-ms98-a-0037	A.31	227.812000	228.092000		mile	mile
sw3156A-ms98-a-0037	A.31	228.092000	228.192000		in	in
sw3156A-ms98-a-0037	A.31	228.192000	228.322000		each	each
sw3156A-ms98-a-0037	A.31	228.322000	228.872000		direction	direction
sw3156A-ms98-a-0037	A.31	228.872000	229.022000		and	and
sw3156A-ms98-a-0037	A.31	229.022000	229.252000		gathered	gathered
sw3156A-ms98-a-0037	A.31	229.252000	229.392000		up	up
sw3156A-ms98-a-0037	A.31	229.392000	229.662000		enough	enough
sw3156A-ms98-a-0037	A.31	229.662000	229.892000		to	to
sw3156A-ms98-a-0037	A.31	229.892000	230.122000		buy	buy
sw3156A-ms98-a-0037	A.31	230.122000	230.442000		whatever	whatever
sw3156A-ms98-a-0037	A.31	230.442000	230.542000		we	we
sw3156A-ms98-a-0037	A.31	230.542000	230.812000		wanted	wanted
sw3156A-ms98-a-0037	A.33	230.812000	230.922000		for	for
sw3156A-ms98-a-0037	A.33	230.922000	231.012000		the	the
sw3156A-ms98-a-0037	A.33	231.012000	231.372000		day	day
sw3156A-ms98-a-0037	A.33	231.372000	231.771875		and	[laughter-and]
sw3156A-ms98-a-0037	A.35	231.771875	232.285125		[silence]	[silence]
sw3156A-ms98-a-0038	A.35	232.285125	239.953250		[silence]	[silence]
sw3156A-ms98-a-0039	A.35	239.953250	240.343250		[silence]	[silence]
sw3156A-ms98-a-0039	A.35	240.343250	240.593250		Yeah	yeah
sw3156A-ms98-a-0039	A.35	240.593250	240.763250		just	just
sw3156A-ms98-a-0039	A.35	240.763250	240.813250		a	a
sw3156A-ms98-a-0039	A.35	240.813250	240.993250		little	little
sw3156A-ms98-a-0039	A.35	240.993250	241.093250		bit	bit
sw3156A-ms98-a-0039	A.35	241.093250	241.163250		of	of
sw3156A-ms98-a-0039	A.35	241.163250	241.563250		begging	begging
sw3156A-ms98-a-0039	A.35	241.563250	241.773250		will	will
sw3156A-ms98-a-0039	A.37	241.773250	242.175875		[laughter]	[laughter]
sw3156A-ms98-a-0039	A.37	242.175875	242.773875		[silence]	[silence]
sw3156A-ms98-a-0040	A.37	242.773875	255.434000		[silence]	[silence]
sw3156A-ms98-a-0041	A.37	255.434000	255.872875		[silence]	[silence]
sw3156A-ms98-a-0041	A.37	255.872875	256.194000		Right	right
sw3156A-ms98-a-0041	A.37	256.194000	256.979000		[silence]	[silence]
sw3156A-ms98-a-0042	A.37	256.979000	257.845000		[silence]	[silence]
sw3156A-ms98-a-0042	A.37	257.845000	258.109000		Well	well
sw3156A-ms98-a-0042	A.37	258.109000	258.139000		I	i
sw3156A-ms98-a-0042	A.37	258.139000	258.569000		wonder	wonder
sw3156A-ms98-a-0042	A.39	258.569000	258.699000	<DEL>	---	if
sw3156A-ms98-a-0042	A.39	258.699000	259.183125		[silence]	[silence]
sw3156A-ms98-a-0043	A.39	259.183125	263.776000		[silence]	[silence]
sw3156A-ms98-a-0044	A.39	263.776000	264.217125		[silence]	[silence]
sw3156A-ms98-a-0044	A.39	264.217125	264.576000		Yeah	yeah
sw3156A-ms98-a-0044	A.41	264.576000	265.030500		[silence]	[silence]
sw3156A-ms98-a-0045	A.41	265.030500	275.183250		[silence]	[silence]
sw3156A-ms98-a-0046	A.41	275.183250	275.703250		[silence]	[silence]
sw3156A-ms98-a-0046	A.41	275.703250	276.223250		Right	right
sw3156A-ms98-a-0046	A.41	276.223250	276.513250		[silence]	[silence]
sw3156A-ms98-a-0046	A.41	276.513250	276.776750	<SUB>	yeah	yep
sw3156A-ms98-a-0046	A.43	276.776750	277.251750		[silence]	[silence]
sw3156A-ms98-a-0047	A.43	277.251750	282.224875		[silence]	[silence]
sw3156A-ms98-a-0048	A.43	282.224875	282.647125		[silence]	[silence]
sw3156A-ms98-a-0048	A.43	282.647125	282.844875		Where	where
sw3156A-ms98-a-0048	A.43	282.844875	282.914875		do	do
sw3156A-ms98-a-0048	A.43	282.914875	282.974875		you	you
sw3156A-ms98-a-0048	A.43	282.974875	283.234875		take	take
sw3156A-ms98-a-0048	A.43	283.234875	283.324875		your	your
sw3156A-ms98-a-0048	A.43	283.324875	283.841125		cans	cans
sw3156A-ms98-a-0048	A.43	283.841125	284.145625		[silence]	[silence]
sw3156A-ms98-a-0049	A.43	284.145625	298.562000		[silence]	[silence]
