sw3171B-ms98-a-0001	B.2	0.000000	0.920000		[silence]	[silence]
sw3171B-ms98-a-0001	B.2	0.920000	1.141250		[noise]	[noise]
sw3171B-ms98-a-0001	B.2	1.141250	1.233375		[silence]	[silence]
sw3171B-ms98-a-0002	B.2	1.233375	1.369000		[silence]	[silence]
sw3171B-ms98-a-0002	B.2	1.369000	1.903375		[noise]	[noise]
sw3171B-ms98-a-0002	B.2	1.903375	2.283375		Well	well
sw3171B-ms98-a-0002	B.2	2.283375	2.513375		we	we
sw3171B-ms98-a-0002	B.2	2.513375	2.893375		haven't	haven't
sw3171B-ms98-a-0002	B.2	2.893375	3.383375		traveled	traveled
sw3171B-ms98-a-0002	B.2	3.383375	3.883375		outside	outside
sw3171B-ms98-a-0002	B.2	3.883375	3.963375		the	the
sw3171B-ms98-a-0002	B.2	3.963375	4.483375		United	United
sw3171B-ms98-a-0002	B.2	4.483375	4.883375		States	States
sw3171B-ms98-a-0002	B.2	4.883375	5.123375		that	that
sw3171B-ms98-a-0002	B.2	5.123375	5.833375		much	much
sw3171B-ms98-a-0002	B.2	5.833375	6.229875	<SUB>	Uh	um
sw3171B-ms98-a-0002	B.2	6.229875	6.391875		[silence]	[silence]
sw3171B-ms98-a-0002	B.2	6.391875	6.553375		we	we
sw3171B-ms98-a-0002	B.2	6.553375	7.113375		usually	usually
sw3171B-ms98-a-0002	B.2	7.113375	7.433375		take	take
sw3171B-ms98-a-0002	B.2	7.433375	7.823375		family	family
sw3171B-ms98-a-0002	B.2	7.823375	8.153375		type	type
sw3171B-ms98-a-0002	B.2	8.153375	9.013375		vacations	vacations
sw3171B-ms98-a-0002	B.2	9.013375	9.263375		We're	we're
sw3171B-ms98-a-0002	B.2	9.263375	9.543375		looking	looking
sw3171B-ms98-a-0002	B.2	9.543375	9.863375		forward	forward
sw3171B-ms98-a-0002	B.2	9.863375	9.943375		to	to
sw3171B-ms98-a-0002	B.2	9.943375	10.093375		one	one
sw3171B-ms98-a-0002	B.2	10.093375	10.223375		in	in
sw3171B-ms98-a-0002	B.2	10.223375	10.703375		October	October
sw3171B-ms98-a-0002	B.2	10.703375	10.863375		to	to
sw3171B-ms98-a-0002	B.2	10.863375	11.723375		Disneyworld	Disneyworld
sw3171B-ms98-a-0002	B.2	11.723375	11.973375		in	in
sw3171B-ms98-a-0002	B.2	11.973375	12.762750		Florida	Florida
sw3171B-ms98-a-0002	B.4	12.762750	13.147875		[silence]	[silence]
sw3171B-ms98-a-0003	B.4	13.147875	13.602750		[silence]	[silence]
sw3171B-ms98-a-0003	B.4	13.602750	13.677875	<SUB>	We	a
sw3171B-ms98-a-0003	B.4	13.677875	13.845875		have	have
sw3171B-ms98-a-0003	B.4	13.845875	13.963750		a	a
sw3171B-ms98-a-0003	B.4	13.963750	14.407875		nine	nine
sw3171B-ms98-a-0003	B.4	14.407875	14.637875		year	year
sw3171B-ms98-a-0003	B.4	14.637875	14.997875		old	old
sw3171B-ms98-a-0003	B.6	14.997875	15.247875		[noise]	[noise]
sw3171B-ms98-a-0003	B.6	15.247875	15.617875		When	when
sw3171B-ms98-a-0003	B.6	15.617875	15.767875		[silence]	[silence]
sw3171B-ms98-a-0003	B.6	15.767875	15.987875		when	when
sw3171B-ms98-a-0003	B.6	15.987875	16.237875		both	both
sw3171B-ms98-a-0003	B.6	16.237875	16.317875		of	of
sw3171B-ms98-a-0003	B.6	16.317875	16.467875		my	my
sw3171B-ms98-a-0003	B.6	16.467875	16.837875		kids	kids
sw3171B-ms98-a-0003	B.6	16.837875	16.947875		were	were
sw3171B-ms98-a-0003	B.6	16.947875	17.307875		much	much
sw3171B-ms98-a-0003	B.6	17.307875	17.857875		younger	younger
sw3171B-ms98-a-0003	B.6	17.857875	18.155375		[silence]	[silence]
sw3171B-ms98-a-0003	B.6	18.155375	18.542000		And	and
sw3171B-ms98-a-0003	B.6	18.542000	18.697875		this	this
sw3171B-ms98-a-0003	B.6	18.697875	18.967875		time	time
sw3171B-ms98-a-0003	B.6	18.967875	19.067875		we're	we're
sw3171B-ms98-a-0003	B.6	19.067875	19.287875	<SUB>	going	gonna
sw3171B-ms98-a-0003	B.6	19.287875	19.287875	<INS>	to	---
sw3171B-ms98-a-0003	B.6	19.287875	19.407875		be	be
sw3171B-ms98-a-0003	B.6	19.407875	19.747875		going	going
sw3171B-ms98-a-0003	B.6	19.747875	19.907875		with	with
sw3171B-ms98-a-0003	B.6	19.907875	20.127875		just	just
sw3171B-ms98-a-0003	B.6	20.127875	20.357875		one	one
sw3171B-ms98-a-0003	B.6	20.357875	20.837875		daughter	daughter
sw3171B-ms98-a-0003	B.6	20.837875	21.007875		and	and
sw3171B-ms98-a-0003	B.6	21.007875	21.237875		she's	she's
sw3171B-ms98-a-0003	B.6	21.237875	21.737875		nine	nine
sw3171B-ms98-a-0003	B.6	21.737875	21.877875		so	so
sw3171B-ms98-a-0003	B.6	21.877875	21.987875		it	it
sw3171B-ms98-a-0003	B.6	21.987875	22.127875		ought	ought
sw3171B-ms98-a-0003	B.6	22.127875	22.217875		to	to
sw3171B-ms98-a-0003	B.6	22.217875	22.437875		just	just
sw3171B-ms98-a-0003	B.6	22.437875	22.567875		be	be
sw3171B-ms98-a-0003	B.6	22.567875	22.627875		a	a
sw3171B-ms98-a-0003	B.6	22.627875	23.197875		ball	ball
sw3171B-ms98-a-0003	B.8	23.197875	23.674125		[silence]	[silence]
sw3171B-ms98-a-0004	B.8	23.674125	24.434125		[silence]	[silence]
sw3171B-ms98-a-0004	B.8	24.434125	25.034250		Uh-huh	uh-huh
sw3171B-ms98-a-0004	B.10	25.034250	25.331750		[silence]	[silence]
sw3171B-ms98-a-0004	B.10	25.331750	25.543250		I	i
sw3171B-ms98-a-0004	B.10	25.543250	25.744125		think	think
sw3171B-ms98-a-0004	B.10	25.744125	25.987875		so	so
sw3171B-ms98-a-0004	B.10	25.987875	26.406500		too	too
sw3171B-ms98-a-0004	B.12	26.406500	26.860750		[silence]	[silence]
sw3171B-ms98-a-0005	B.12	26.860750	34.710750		[silence]	[silence]
sw3171B-ms98-a-0006	B.12	34.710750	35.176375		[silence]	[silence]
sw3171B-ms98-a-0006	B.12	35.176375	35.510750		Oh	oh
sw3171B-ms98-a-0006	B.12	35.510750	36.600750		wonderful	wonderful
sw3171B-ms98-a-0006	B.14	36.600750	36.752375		So	so
sw3171B-ms98-a-0006	B.14	36.752375	36.918125		you	you
sw3171B-ms98-a-0006	B.14	36.918125	37.310750		travel	travel
sw3171B-ms98-a-0006	B.14	37.310750	37.370750		a	a
sw3171B-ms98-a-0006	B.14	37.370750	37.810750		lot	lot
sw3171B-ms98-a-0006	B.16	37.810750	38.243250		[silence]	[silence]
sw3171B-ms98-a-0007	B.16	38.243250	44.371750		[silence]	[silence]
sw3171B-ms98-a-0008	B.16	44.371750	44.851750		[silence]	[silence]
sw3171B-ms98-a-0008	B.16	44.851750	45.456125		Uh-huh	uh-huh
sw3171B-ms98-a-0008	B.18	45.456125	45.882500		[silence]	[silence]
sw3171B-ms98-a-0009	B.18	45.882500	48.133000		[silence]	[silence]
sw3171B-ms98-a-0010	B.18	48.133000	48.633000		[silence]	[silence]
sw3171B-ms98-a-0010	B.18	48.633000	49.474000		Sure	sure
sw3171B-ms98-a-0010	B.20	49.474000	49.849250		[silence]	[silence]
sw3171B-ms98-a-0011	B.20	49.849250	52.845750		[silence]	[silence]
sw3171B-ms98-a-0012	B.20	52.845750	53.325750		[silence]	[silence]
sw3171B-ms98-a-0012	B.20	53.325750	53.974500	<SUB>	Uh-huh	um-hum
sw3171B-ms98-a-0012	B.22	53.974500	54.390625		[silence]	[silence]
sw3171B-ms98-a-0013	B.22	54.390625	59.962875		[silence]	[silence]
sw3171B-ms98-a-0014	B.22	59.962875	60.462875		[silence]	[silence]
sw3171B-ms98-a-0014	B.22	60.462875	60.802875		Oh	oh
sw3171B-ms98-a-0014	B.22	60.802875	61.092875	<CONT>	that	that'll
sw3171B-ms98-a-0014	B.22	61.092875	61.092875	<CONT>	will	+++
sw3171B-ms98-a-0014	B.22	61.092875	61.262875		be	be
sw3171B-ms98-a-0014	B.22	61.262875	61.702875		fun	fun
sw3171B-ms98-a-0014	B.22	61.702875	62.556125		too	too
sw3171B-ms98-a-0014	B.24	62.556125	62.984625		[silence]	[silence]
sw3171B-ms98-a-0014	B.24	62.984625	63.792875		Yes	yes
sw3171B-ms98-a-0014	B.24	63.792875	63.962875		We	we
sw3171B-ms98-a-0014	B.24	63.962875	64.142875		went	went
sw3171B-ms98-a-0014	B.24	64.142875	64.492875		years	years
sw3171B-ms98-a-0014	B.24	64.492875	64.982875		ago	ago
sw3171B-ms98-a-0014	B.24	64.982875	65.122875		We	we
sw3171B-ms98-a-0014	B.24	65.122875	65.432875		haven't	haven't
sw3171B-ms98-a-0014	B.24	65.432875	65.665375		been	been
sw3171B-ms98-a-0014	B.24	65.665375	65.849875		[silence]	[silence]
sw3171B-ms98-a-0014	B.24	65.849875	66.512875		lately	lately
sw3171B-ms98-a-0014	B.24	66.512875	66.652875		and	and
sw3171B-ms98-a-0014	B.24	66.652875	66.702875		I	i
sw3171B-ms98-a-0014	B.24	66.702875	66.882875		know	know
sw3171B-ms98-a-0014	B.24	66.882875	67.052875		they've	they've
sw3171B-ms98-a-0014	B.24	67.052875	67.522875		changed	changed
sw3171B-ms98-a-0014	B.24	67.522875	67.602875		it	it
sw3171B-ms98-a-0014	B.24	67.602875	67.642875		a	a
sw3171B-ms98-a-0014	B.24	67.642875	68.012875		lot	lot
sw3171B-ms98-a-0014	B.24	68.012875	68.272875		and	and
sw3171B-ms98-a-0014	B.24	68.272875	68.832875		upgraded	upgraded
sw3171B-ms98-a-0014	B.24	68.832875	69.322875		everything	everything
sw3171B-ms98-a-0014	B.24	69.322875	69.452875		but	but
sw3171B-ms98-a-0014	B.24	69.452875	69.562875		we	we
sw3171B-ms98-a-0014	B.24	69.562875	69.732875		used	used
sw3171B-ms98-a-0014	B.24	69.732875	69.792875		to	to
sw3171B-ms98-a-0014	B.24	69.792875	69.912875		have	have
sw3171B-ms98-a-0014	B.24	69.912875	69.952875		a	a
sw3171B-ms98-a-0014	B.24	69.952875	70.092875		lot	lot
sw3171B-ms98-a-0014	B.24	70.092875	70.172875		of	of
sw3171B-ms98-a-0014	B.24	70.172875	70.472875		fun	fun
sw3171B-ms98-a-0014	B.24	70.472875	70.802875		there	there
sw3171B-ms98-a-0014	B.26	70.802875	71.328250		[silence]	[silence]
sw3171B-ms98-a-0015	B.26	71.328250	86.337125		[silence]	[silence]
sw3171B-ms98-a-0016	B.26	86.337125	86.856250		[silence]	[silence]
sw3171B-ms98-a-0016	B.26	86.856250	87.417125		[laughter]	[laughter]
sw3171B-ms98-a-0016	B.26	87.417125	87.567875		[silence]	[silence]
sw3171B-ms98-a-0017	B.26	87.567875	89.593875		[silence]	[silence]
sw3171B-ms98-a-0018	B.26	89.593875	90.083875		[silence]	[silence]
sw3171B-ms98-a-0018	B.26	90.083875	90.815875		Uh-huh	uh-huh
sw3171B-ms98-a-0018	B.28	90.815875	91.219500		[silence]	[silence]
sw3171B-ms98-a-0019	B.28	91.219500	91.559500		[silence]	[silence]
sw3171B-ms98-a-0019	B.28	91.559500	91.939500		Yeah	yeah
sw3171B-ms98-a-0019	B.28	91.939500	92.069500		if	if
sw3171B-ms98-a-0019	B.28	92.069500	92.179500		you	you
sw3171B-ms98-a-0019	B.28	92.179500	92.399500		don't	don't
sw3171B-ms98-a-0019	B.28	92.399500	92.629500		like	like
sw3171B-ms98-a-0019	B.28	92.629500	92.772000		the	the
sw3171B-ms98-a-0019	B.28	92.772000	93.096000		night	night
sw3171B-ms98-a-0019	B.28	93.096000	93.519500		life	life
sw3171B-ms98-a-0019	B.28	93.519500	93.739500		and	and
sw3171B-ms98-a-0019	B.28	93.739500	93.799500		the	the
sw3171B-ms98-a-0019	B.28	93.799500	94.209500		antique	antique
sw3171B-ms98-a-0019	B.28	94.209500	94.719500		shopping	shopping
sw3171B-ms98-a-0019	B.28	94.719500	94.899500		there	there
sw3171B-ms98-a-0019	B.28	94.899500	95.309500		isn't	isn't
sw3171B-ms98-a-0019	B.28	95.309500	95.759500		much	much
sw3171B-ms98-a-0019	B.28	95.759500	96.269500		there	there
sw3171B-ms98-a-0019	B.28	96.269500	96.679500		but	but
sw3171B-ms98-a-0019	B.28	96.679500	96.849500		that	that
sw3171B-ms98-a-0019	B.28	96.849500	96.989500		can	can
sw3171B-ms98-a-0019	B.28	96.989500	97.129500		be	be
sw3171B-ms98-a-0019	B.28	97.129500	97.649500		fun	fun
sw3171B-ms98-a-0019	B.30	97.649500	98.129375		[silence]	[silence]
sw3171B-ms98-a-0020	B.30	98.129375	103.417875		[silence]	[silence]
sw3171B-ms98-a-0021	B.30	103.417875	103.967875		[silence]	[silence]
sw3171B-ms98-a-0021	B.30	103.967875	104.673250	<SUB>	Uh-huh	um-hum
sw3171B-ms98-a-0021	B.34	104.673250	105.133875		[silence]	[silence]
sw3171B-ms98-a-0022	B.34	105.133875	110.609875		[silence]	[silence]
sw3171B-ms98-a-0023	B.34	110.609875	111.106875		[silence]	[silence]
sw3171B-ms98-a-0023	B.34	111.106875	112.175125		[laughter]	[laughter]
sw3171B-ms98-a-0023	B.34	112.175125	112.595750		[silence]	[silence]
sw3171B-ms98-a-0024	B.34	112.595750	116.833375		[silence]	[silence]
sw3171B-ms98-a-0025	B.34	116.833375	117.213375		[silence]	[silence]
sw3171B-ms98-a-0025	B.34	117.213375	117.813375		No	no
sw3171B-ms98-a-0025	B.34	117.813375	117.954875		I	i
sw3171B-ms98-a-0025	B.34	117.954875	118.143375		know	know
sw3171B-ms98-a-0025	B.34	118.143375	118.313375		this	this
sw3171B-ms98-a-0025	B.34	118.313375	118.443375		is	is
sw3171B-ms98-a-0025	B.34	118.443375	118.523375		a	a
sw3171B-ms98-a-0025	B.34	118.523375	118.793375		real	real
sw3171B-ms98-a-0025	B.34	118.793375	119.003375		good	good
sw3171B-ms98-a-0025	B.34	119.003375	119.293375		time	time
sw3171B-ms98-a-0025	B.34	119.293375	119.373375		to	to
sw3171B-ms98-a-0025	B.34	119.373375	119.693375		go	go
sw3171B-ms98-a-0025	B.34	119.693375	119.993375		because	because
sw3171B-ms98-a-0025	B.34	119.993375	120.163375		they	they
sw3171B-ms98-a-0025	B.34	120.163375	120.293375		are	are
sw3171B-ms98-a-0025	B.34	120.293375	120.663375		having	having
sw3171B-ms98-a-0025	B.34	120.663375	120.753375		so	so
sw3171B-ms98-a-0025	B.34	120.753375	121.043375		many	many
sw3171B-ms98-a-0025	B.34	121.043375	121.743375		activities	activities
sw3171B-ms98-a-0025	B.34	121.743375	121.873375		and	and
sw3171B-ms98-a-0025	B.34	121.873375	122.233375		special	special
sw3171B-ms98-a-0025	B.34	122.233375	122.943375		shows	shows
sw3171B-ms98-a-0025	B.36	122.943375	123.404625		[silence]	[silence]
sw3171B-ms98-a-0026	B.36	123.404625	126.489750		[silence]	[silence]
sw3171B-ms98-a-0027	B.36	126.489750	127.009750		[silence]	[silence]
sw3171B-ms98-a-0027	B.36	127.009750	127.766750		Yes	yes
sw3171B-ms98-a-0027	B.38	127.766750	128.285375		[silence]	[silence]
sw3171B-ms98-a-0027	B.38	128.285375	128.589750		Be	be
sw3171B-ms98-a-0027	B.38	128.589750	129.269750		excited	excited
sw3171B-ms98-a-0027	B.38	129.269750	129.579750		about	about
sw3171B-ms98-a-0027	B.38	129.579750	129.829750		all	all
sw3171B-ms98-a-0027	B.38	129.829750	129.961000		of	of
sw3171B-ms98-a-0027	B.38	129.961000	130.209750		it	it
sw3171B-ms98-a-0027	B.40	130.209750	130.874375		[silence]	[silence]
sw3171B-ms98-a-0028	B.40	130.874375	135.754625		[silence]	[silence]
sw3171B-ms98-a-0029	B.40	135.754625	136.241000		[silence]	[silence]
sw3171B-ms98-a-0029	B.40	136.241000	136.824625		[noise]	[noise]
sw3171B-ms98-a-0029	B.40	136.824625	137.294625		Well	well
sw3171B-ms98-a-0029	B.40	137.294625	137.524625		not	not
sw3171B-ms98-a-0029	B.40	137.524625	137.934625		really	really
sw3171B-ms98-a-0029	B.40	137.934625	138.064625	<DEL>	---	uh
sw3171B-ms98-a-0029	B.40	138.064625	138.354625		we're	we're
sw3171B-ms98-a-0029	B.40	138.354625	138.594625		doing	doing
sw3171B-ms98-a-0029	B.40	138.594625	138.664625		the	the
sw3171B-ms98-a-0029	B.40	138.664625	138.974625		same	same
sw3171B-ms98-a-0029	B.40	138.974625	139.324625		thing	thing
sw3171B-ms98-a-0029	B.40	139.324625	139.644625		Tying	tying
sw3171B-ms98-a-0029	B.40	139.644625	139.754625		it	it
sw3171B-ms98-a-0029	B.40	139.754625	140.004625		in	in
sw3171B-ms98-a-0029	B.40	140.004625	140.194625		with	with
sw3171B-ms98-a-0029	B.40	140.194625	140.344625		my	my
sw3171B-ms98-a-0029	B.40	140.344625	140.804625		husband's	husband's
sw3171B-ms98-a-0029	B.40	140.804625	141.274625		business	business
sw3171B-ms98-a-0029	B.40	141.274625	141.844625		trip	trip
sw3171B-ms98-a-0029	B.40	141.844625	142.134625		and	and
sw3171B-ms98-a-0029	B.40	142.134625	142.284625		I	i
sw3171B-ms98-a-0029	B.40	142.284625	142.474625		just	just
sw3171B-ms98-a-0029	B.40	142.474625	142.724625		save	save
sw3171B-ms98-a-0029	B.40	142.724625	143.474625		vacation	vacation
sw3171B-ms98-a-0029	B.40	143.474625	143.604625		for	for
sw3171B-ms98-a-0029	B.40	143.604625	143.964625		things	things
sw3171B-ms98-a-0029	B.40	143.964625	144.224625		like	like
sw3171B-ms98-a-0029	B.40	144.224625	144.643125		that	that
sw3171B-ms98-a-0029	B.42	144.643125	144.993500		[silence]	[silence]
sw3171B-ms98-a-0029	B.42	144.993500	145.484625		And	and
sw3171B-ms98-a-0029	B.42	145.484625	145.751625		uh	uh
sw3171B-ms98-a-0029	B.42	145.751625	146.271500		[silence]	[silence]
sw3171B-ms98-a-0029	B.42	146.271500	146.524625		just	just
sw3171B-ms98-a-0029	B.42	146.524625	146.924625		travel	travel
sw3171B-ms98-a-0029	B.42	146.924625	147.304625		whenever	whenever
sw3171B-ms98-a-0029	B.42	147.304625	147.424625		we	we
sw3171B-ms98-a-0029	B.42	147.424625	147.984625		can	can
sw3171B-ms98-a-0029	B.44	147.984625	148.475000		[silence]	[silence]
sw3171B-ms98-a-0030	B.44	148.475000	149.196750		[silence]	[silence]
sw3171B-ms98-a-0030	B.44	149.196750	150.459875		[noise]	[noise]
sw3171B-ms98-a-0030	B.44	150.459875	150.861000		[silence]	[silence]
sw3171B-ms98-a-0031	B.44	150.861000	152.455500		[silence]	[silence]
sw3171B-ms98-a-0032	B.44	152.455500	152.915500		[silence]	[silence]
sw3171B-ms98-a-0032	B.44	152.915500	153.371125		How	how
sw3171B-ms98-a-0032	B.44	153.371125	154.065500		easy	easy
sw3171B-ms98-a-0032	B.46	154.065500	155.213000		[laughter]	[laughter]
sw3171B-ms98-a-0032	B.46	155.213000	155.588750		[silence]	[silence]
sw3171B-ms98-a-0033	B.46	155.588750	156.378750		[silence]	[silence]
sw3171B-ms98-a-0033	B.46	156.378750	157.008750		Right	right
sw3171B-ms98-a-0033	B.48	157.008750	157.359750		[silence]	[silence]
sw3171B-ms98-a-0034	B.48	157.359750	159.930250		[silence]	[silence]
sw3171B-ms98-a-0035	B.48	159.930250	160.428250		[silence]	[silence]
sw3171B-ms98-a-0035	B.48	160.428250	164.342375		[noise]	[noise]
sw3171B-ms98-a-0035	B.48	164.342375	165.098750		[silence]	[silence]
sw3171B-ms98-a-0036	B.48	165.098750	165.596875		[silence]	[silence]
sw3171B-ms98-a-0036	B.48	165.596875	166.150000	<SUB>	Uh-huh	um-hum
sw3171B-ms98-a-0036	B.50	166.150000	166.358375		[silence]	[silence]
sw3171B-ms98-a-0037	B.50	166.358375	172.730125		[silence]	[silence]
sw3171B-ms98-a-0038	B.50	172.730125	173.220125		[silence]	[silence]
sw3171B-ms98-a-0038	B.50	173.220125	173.800125		Sure	sure
sw3171B-ms98-a-0038	B.52	173.800125	174.177500		[silence]	[silence]
sw3171B-ms98-a-0039	B.52	174.177500	177.540750		[silence]	[silence]
sw3171B-ms98-a-0040	B.52	177.540750	177.824500		[silence]	[silence]
sw3171B-ms98-a-0040	B.52	177.824500	178.491500	<SUB>	Uh-huh	um-hum
sw3171B-ms98-a-0040	B.54	178.491500	178.922625		[silence]	[silence]
sw3171B-ms98-a-0041	B.54	178.922625	180.819875		[silence]	[silence]
sw3171B-ms98-a-0042	B.54	180.819875	181.329875		[silence]	[silence]
sw3171B-ms98-a-0042	B.54	181.329875	181.838250	<SUB>	Uh-huh	um-hum
sw3171B-ms98-a-0042	B.56	181.838250	182.299875		[noise]	[noise]
sw3171B-ms98-a-0042	B.56	182.299875	182.469875		So	so
sw3171B-ms98-a-0042	B.56	182.469875	182.689875		that's	that's
sw3171B-ms98-a-0042	B.56	182.689875	183.109875		perfect	perfect
sw3171B-ms98-a-0042	B.56	183.109875	183.279875		What	what
sw3171B-ms98-a-0042	B.56	183.279875	183.459875		more	more
sw3171B-ms98-a-0042	B.56	183.459875	183.639875		could	could
sw3171B-ms98-a-0042	B.56	183.639875	183.769875		you	you
sw3171B-ms98-a-0042	B.56	183.769875	184.119875		ask	ask
sw3171B-ms98-a-0042	B.56	184.119875	184.517250		for	for
sw3171B-ms98-a-0042	B.58	184.517250	184.843000		[silence]	[silence]
sw3171B-ms98-a-0043	B.58	184.843000	185.143000		[silence]	[silence]
sw3171B-ms98-a-0043	B.58	185.143000	185.313000		And	and
sw3171B-ms98-a-0043	B.58	185.313000	185.473000		then	then
sw3171B-ms98-a-0043	B.58	185.473000	185.643000	<SUB>	got	get
sw3171B-ms98-a-0043	B.58	185.643000	185.743000		to	to
sw3171B-ms98-a-0043	B.58	185.743000	185.983000		pick	pick
sw3171B-ms98-a-0043	B.58	185.983000	186.133000		and	and
sw3171B-ms98-a-0043	B.58	186.133000	186.463000		choose	choose
sw3171B-ms98-a-0043	B.58	186.463000	186.563000		the	the
sw3171B-ms98-a-0043	B.58	186.563000	187.253000		places	places
sw3171B-ms98-a-0043	B.60	187.253000	187.620500		[silence]	[silence]
sw3171B-ms98-a-0044	B.60	187.620500	190.753500		[silence]	[silence]
sw3171B-ms98-a-0045	B.60	190.753500	190.893500		[silence]	[silence]
sw3171B-ms98-a-0045	B.60	190.893500	191.799625	<SUB>	Oh	ah
sw3171B-ms98-a-0045	B.62	191.799625	192.331625		[silence]	[silence]
sw3171B-ms98-a-0046	B.62	192.331625	198.865750		[silence]	[silence]
sw3171B-ms98-a-0047	B.62	198.865750	199.385750		[silence]	[silence]
sw3171B-ms98-a-0047	B.62	199.385750	199.939500		Uh-huh	uh-huh
sw3171B-ms98-a-0047	B.64	199.939500	200.428875		[silence]	[silence]
sw3171B-ms98-a-0048	B.64	200.428875	204.026750		[silence]	[silence]
sw3171B-ms98-a-0049	B.64	204.026750	204.506750		[silence]	[silence]
sw3171B-ms98-a-0049	B.64	204.506750	205.240750		Uh-huh	um-hum
sw3171B-ms98-a-0049	B.66	205.240750	205.648500		[silence]	[silence]
sw3171B-ms98-a-0050	B.66	205.648500	210.959625		[silence]	[silence]
sw3171B-ms98-a-0051	B.66	210.959625	211.469625		[silence]	[silence]
sw3171B-ms98-a-0051	B.66	211.469625	212.034375		Uh-huh	um-hum
sw3171B-ms98-a-0051	B.68	212.034375	212.485000		[silence]	[silence]
sw3171B-ms98-a-0052	B.68	212.485000	214.572875		[silence]	[silence]
sw3171B-ms98-a-0053	B.68	214.572875	215.112875		[silence]	[silence]
sw3171B-ms98-a-0053	B.68	215.112875	215.796125		Right	right
sw3171B-ms98-a-0053	B.68	215.796125	216.240625		[silence]	[silence]
sw3171B-ms98-a-0053	B.68	216.240625	216.412875		it's	it's
sw3171B-ms98-a-0053	B.68	216.412875	216.622875		kind	kind
sw3171B-ms98-a-0053	B.68	216.622875	216.702875		of	of
sw3171B-ms98-a-0053	B.68	216.702875	217.291500		shaky	shaky
sw3171B-ms98-a-0053	B.70	217.291500	217.775500		[silence]	[silence]
sw3171B-ms98-a-0054	B.70	217.775500	219.238750		[silence]	[silence]
sw3171B-ms98-a-0055	B.70	219.238750	219.698750		[silence]	[silence]
sw3171B-ms98-a-0055	B.70	219.698750	220.128750		That's	that's
sw3171B-ms98-a-0055	B.70	220.128750	220.688750		true	true
sw3171B-ms98-a-0055	B.72	220.688750	220.778750		It	it
sw3171B-ms98-a-0055	B.72	220.778750	221.178750		really	really
sw3171B-ms98-a-0055	B.72	221.178750	221.618750		is	is
sw3171B-ms98-a-0055	B.74	221.618750	222.228500		[silence]	[silence]
sw3171B-ms98-a-0056	B.74	222.228500	237.190875		[silence]	[silence]
sw3171B-ms98-a-0057	B.74	237.190875	237.628875		[silence]	[silence]
sw3171B-ms98-a-0057	B.74	237.628875	239.110500	<SUB>	Uh-huh	um-hum
sw3171B-ms98-a-0057	B.76	239.110500	239.360875		Our	our
sw3171B-ms98-a-0057	B.76	239.360875	239.770875		last	last
sw3171B-ms98-a-0057	B.76	239.770875	239.990875		big	big
sw3171B-ms98-a-0057	B.76	239.990875	240.600875		trip	trip
sw3171B-ms98-a-0057	B.76	240.600875	240.730875		we	we
sw3171B-ms98-a-0057	B.76	240.730875	241.410875		drove	drove
sw3171B-ms98-a-0057	B.76	241.410875	241.720875		through	through
sw3171B-ms98-a-0057	B.76	241.720875	241.970875		New	New
sw3171B-ms98-a-0057	B.76	241.970875	242.700875		Mexico	Mexico
sw3171B-ms98-a-0057	B.76	242.700875	242.830875		and	and
sw3171B-ms98-a-0057	B.76	242.830875	243.360875		Colorado	Colorado
sw3171B-ms98-a-0057	B.76	243.360875	243.480875		and	and
sw3171B-ms98-a-0057	B.76	243.480875	243.620875		went	went
sw3171B-ms98-a-0057	B.76	243.620875	243.700875		to	to
sw3171B-ms98-a-0057	B.76	243.700875	243.770875		the	the
sw3171B-ms98-a-0057	B.76	243.770875	244.120875		Grand	Grand
sw3171B-ms98-a-0057	B.76	244.120875	244.790875		Canyon	Canyon
sw3171B-ms98-a-0057	B.76	244.790875	245.160875		and	and
sw3171B-ms98-a-0057	B.76	245.160875	245.510875		[silence]	[silence]
sw3171B-ms98-a-0057	B.76	245.510875	245.910875		and	and
sw3171B-ms98-a-0057	B.76	245.910875	246.229500		uh	uh
sw3171B-ms98-a-0057	B.76	246.229500	246.586750		[silence]	[silence]
sw3171B-ms98-a-0058	B.76	246.586750	246.824000		[silence]	[silence]
sw3171B-ms98-a-0058	B.76	246.824000	247.096750		back	back
sw3171B-ms98-a-0058	B.76	247.096750	247.336750		through	through
sw3171B-ms98-a-0058	B.76	247.336750	247.956750		Silverton	Silverton
sw3171B-ms98-a-0058	B.76	247.956750	248.096750		and	and
sw3171B-ms98-a-0058	B.76	248.096750	248.596750		Durango	Durango
sw3171B-ms98-a-0058	B.76	248.596750	248.896750		and	and
sw3171B-ms98-a-0058	B.76	248.896750	249.226750		oh	oh
sw3171B-ms98-a-0058	B.76	249.226750	249.326750		it	it
sw3171B-ms98-a-0058	B.76	249.326750	249.586750		was	was
sw3171B-ms98-a-0058	B.76	249.586750	250.096750		fun	fun
sw3171B-ms98-a-0058	B.76	250.096750	250.196750		It	it
sw3171B-ms98-a-0058	B.76	250.196750	250.326750		was	was
sw3171B-ms98-a-0058	B.76	250.326750	250.741750		so	so
sw3171B-ms98-a-0058	B.76	250.741750	251.577875		relaxing	relaxing
sw3171B-ms98-a-0058	B.76	251.577875	251.946250		and	and
sw3171B-ms98-a-0058	B.76	251.946250	252.216750		a	a
sw3171B-ms98-a-0058	B.76	252.216750	252.571750		really	really
sw3171B-ms98-a-0058	B.76	252.571750	252.886750		neat	neat
sw3171B-ms98-a-0058	B.76	252.886750	253.156750		part	part
sw3171B-ms98-a-0058	B.76	253.156750	253.226750		of	of
sw3171B-ms98-a-0058	B.76	253.226750	253.286750		the	the
sw3171B-ms98-a-0058	B.76	253.286750	253.706750		country	country
sw3171B-ms98-a-0058	B.76	253.706750	253.796750		and	and
sw3171B-ms98-a-0058	B.76	253.796750	253.856750		the	the
sw3171B-ms98-a-0058	B.76	253.856750	254.176750		kids	kids
sw3171B-ms98-a-0058	B.76	254.176750	254.276750		were	were
sw3171B-ms98-a-0058	B.76	254.276750	254.436750		old	old
sw3171B-ms98-a-0058	B.76	254.436750	254.666750		enough	enough
sw3171B-ms98-a-0058	B.76	254.666750	254.786750		to	to
sw3171B-ms98-a-0058	B.76	254.786750	255.076750		really	really
sw3171B-ms98-a-0058	B.76	255.076750	255.556750		enjoy	enjoy
sw3171B-ms98-a-0058	B.76	255.556750	256.221375		it	it
sw3171B-ms98-a-0058	B.76	256.221375	256.638375		Our	our
sw3171B-ms98-a-0058	B.78	256.638375	257.283125		[silence]	[silence]
sw3171B-ms98-a-0059	B.78	257.283125	258.093125		[silence]	[silence]
sw3171B-ms98-a-0059	B.78	258.093125	258.784750	<SUB>	Uh-huh	um-hum
sw3171B-ms98-a-0059	B.80	258.784750	259.324375		[silence]	[silence]
sw3171B-ms98-a-0060	B.80	259.324375	264.390625		[silence]	[silence]
sw3171B-ms98-a-0061	B.80	264.390625	264.910625		[silence]	[silence]
sw3171B-ms98-a-0061	B.80	264.910625	265.562375		Right	right
sw3171B-ms98-a-0061	B.82	265.562375	265.809125		[silence]	[silence]
sw3171B-ms98-a-0062	B.82	265.809125	285.543000		[silence]	[silence]
sw3171B-ms98-a-0063	B.82	285.543000	286.223000		[silence]	[silence]
sw3171B-ms98-a-0063	B.82	286.223000	286.967250	<SUB>	Uh-huh	um-hum
sw3171B-ms98-a-0063	B.84	286.967250	287.498750		[silence]	[silence]
sw3171B-ms98-a-0064	B.84	287.498750	292.853000		[silence]	[silence]
sw3171B-ms98-a-0065	B.84	292.853000	293.423000		[silence]	[silence]
sw3171B-ms98-a-0065	B.84	293.423000	294.489750	<SUB>	Uh-huh	um-hum
sw3171B-ms98-a-0065	B.86	294.489750	294.875375		[silence]	[silence]
sw3171B-ms98-a-0065	B.86	294.875375	295.063000		Oh	oh
sw3171B-ms98-a-0065	B.86	295.063000	295.283000		there's	there's
sw3171B-ms98-a-0065	B.88	295.283000	295.563000	<DEL>	---	s[o]-
sw3171B-ms98-a-0065	B.88	295.563000	295.803000		too	too
sw3171B-ms98-a-0065	B.88	295.803000	296.063000		much	much
sw3171B-ms98-a-0065	B.88	296.063000	296.223000		to	to
sw3171B-ms98-a-0065	B.88	296.223000	296.543000		see	see
sw3171B-ms98-a-0065	B.88	296.543000	297.039250		really	really
sw3171B-ms98-a-0065	B.88	297.039250	297.258500		[silence]	[silence]
sw3171B-ms98-a-0065	B.88	297.258500	297.373000	<DEL>	---	you
sw3171B-ms98-a-0065	B.88	297.373000	297.593000	<DEL>	---	just
sw3171B-ms98-a-0065	B.88	297.593000	297.685375		[silence]	[silence]
sw3171B-ms98-a-0066	B.88	297.685375	299.458000		[silence]	[silence]
