sw3223A-ms98-a-0001	A.1	0.000000	0.020000		[silence]	[silence]
sw3223A-ms98-a-0001	A.1	0.020000	0.040000		[noise]	[noise]
sw3223A-ms98-a-0001	A.1	0.040000	0.130000		Well	well
sw3223A-ms98-a-0001	A.1	0.130000	0.160000		I	i
sw3223A-ms98-a-0001	A.1	0.160000	0.390000		almost	almost
sw3223A-ms98-a-0001	A.1	0.390000	0.680000		forgot	forgot
sw3223A-ms98-a-0001	A.1	0.680000	0.750000		the	the
sw3223A-ms98-a-0001	A.1	0.750000	1.130000		topic	topic
sw3223A-ms98-a-0001	A.1	1.130000	1.180000		I	i
sw3223A-ms98-a-0001	A.1	1.180000	1.290000		was	was
sw3223A-ms98-a-0001	A.1	1.290000	1.510000		waiting	waiting
sw3223A-ms98-a-0001	A.1	1.510000	1.650000		so	so
sw3223A-ms98-a-0001	A.1	1.650000	1.900000		long	long
sw3223A-ms98-a-0001	A.1	1.900000	2.170000		for	for
sw3223A-ms98-a-0001	A.1	2.170000	2.404500		uh	uh
sw3223A-ms98-a-0001	A.1	2.404500	2.590000		for	for
sw3223A-ms98-a-0001	A.1	2.590000	2.720000		it	it
sw3223A-ms98-a-0001	A.1	2.720000	2.790000		to	to
sw3223A-ms98-a-0001	A.1	2.790000	3.040000		find	find
sw3223A-ms98-a-0001	A.1	3.040000	3.511375		somebody	somebody
sw3223A-ms98-a-0001	A.1	3.511375	3.944625		[silence]	[silence]
sw3223A-ms98-a-0002	A.1	3.944625	4.444625		[silence]	[silence]
sw3223A-ms98-a-0002	A.1	4.444625	4.714625	<SUB>	Um	uh
sw3223A-ms98-a-0002	@A.3	4.714625	5.164375		[silence]	[silence]
sw3223A-ms98-a-0003	@A.3	5.164375	6.690125		[silence]	[silence]
sw3223A-ms98-a-0004	@A.3	6.690125	7.142125		[silence]	[silence]
sw3223A-ms98-a-0004	@A.3	7.142125	7.548875		Right	right
sw3223A-ms98-a-0004	@A.3	7.548875	8.031000		[silence]	[silence]
sw3223A-ms98-a-0004	@A.3	8.031000	8.175500		well	well
sw3223A-ms98-a-0004	@A.3	8.175500	8.510750		[silence]	[silence]
sw3223A-ms98-a-0004	@A.3	8.510750	8.705625		so	so
sw3223A-ms98-a-0004	@A.3	8.705625	8.820125		what	what
sw3223A-ms98-a-0004	@A.3	8.820125	8.910125		is	is
sw3223A-ms98-a-0004	@A.3	8.910125	9.030125		your	your
sw3223A-ms98-a-0004	@A.3	9.030125	9.310125		favorite	favorite
sw3223A-ms98-a-0004	@A.3	9.310125	9.480125	<CONT>	T	TV
sw3223A-ms98-a-0004	@A.3	9.480125	9.480125	<CONT>	V	+++
sw3223A-ms98-a-0004	@A.3	9.480125	9.770125		show	show
sw3223A-ms98-a-0004	A.5	9.770125	10.209250		[silence]	[silence]
sw3223A-ms98-a-0005	A.5	10.209250	11.417250		[silence]	[silence]
sw3223A-ms98-a-0006	A.5	11.417250	11.937250		[silence]	[silence]
sw3223A-ms98-a-0006	A.5	11.937250	12.037250		Oh	oh
sw3223A-ms98-a-0006	A.5	12.037250	12.157250		you	you
sw3223A-ms98-a-0006	A.5	12.157250	12.347250		like	like
sw3223A-ms98-a-0006	A.5	12.347250	12.467250		that	that
sw3223A-ms98-a-0006	A.5	12.467250	12.627250		one	one
sw3223A-ms98-a-0006	A.7	12.627250	13.097000		[silence]	[silence]
sw3223A-ms98-a-0007	A.7	13.097000	18.379875		[silence]	[silence]
sw3223A-ms98-a-0008	A.7	18.379875	18.819875		[silence]	[silence]
sw3223A-ms98-a-0008	A.7	18.819875	19.162750	<SUB>	Uh-huh	um-hum
sw3223A-ms98-a-0008	A.7	19.162750	19.691375		[silence]	[silence]
sw3223A-ms98-a-0008	A.7	19.691375	20.019875		[noise]	[noise]
sw3223A-ms98-a-0008	A.7	20.019875	20.188875	<SUB>	Uh	i['ve]-
sw3223A-ms98-a-0008	A.7	20.188875	20.399875		[silence]	[silence]
sw3223A-ms98-a-0008	A.7	20.399875	20.519875		I've	i've
sw3223A-ms98-a-0008	A.7	20.519875	20.749875		never	never
sw3223A-ms98-a-0008	A.7	20.749875	20.979875		really	really
sw3223A-ms98-a-0008	A.7	20.979875	21.269875		watched	watched
sw3223A-ms98-a-0008	A.7	21.269875	21.409875		that	that
sw3223A-ms98-a-0008	A.7	21.409875	21.609875		one	one
sw3223A-ms98-a-0008	A.7	21.609875	21.709875		You	you
sw3223A-ms98-a-0008	A.7	21.709875	21.789875		know	know
sw3223A-ms98-a-0008	A.7	21.789875	21.889875		it's	it's
sw3223A-ms98-a-0008	A.7	21.889875	22.119875		funny	funny
sw3223A-ms98-a-0008	A.7	22.119875	22.229875		how	how
sw3223A-ms98-a-0008	A.7	22.229875	22.369875		you	you
sw3223A-ms98-a-0008	A.7	22.369875	22.459875		can	can
sw3223A-ms98-a-0008	A.7	22.459875	22.639875		just	just
sw3223A-ms98-a-0008	A.7	22.639875	22.749875		get	get
sw3223A-ms98-a-0008	A.7	22.749875	22.869875		in	in
sw3223A-ms98-a-0008	A.7	22.869875	22.919875		a	a
sw3223A-ms98-a-0008	A.7	22.919875	23.219875		mode	mode
sw3223A-ms98-a-0008	A.7	23.219875	23.309875		where	where
sw3223A-ms98-a-0008	A.7	23.309875	23.409875		you	you
sw3223A-ms98-a-0008	A.7	23.409875	23.569875		only	only
sw3223A-ms98-a-0008	A.7	23.569875	23.929875		watch	watch
sw3223A-ms98-a-0008	A.7	23.929875	24.529875		[silence]	[silence]
sw3223A-ms98-a-0008	A.7	24.529875	24.809875		certain	certain
sw3223A-ms98-a-0008	A.7	24.809875	25.379250		shows	shows
sw3223A-ms98-a-0008	A.9	25.379250	25.877750		[silence]	[silence]
sw3223A-ms98-a-0009	A.9	25.877750	26.387750		[silence]	[silence]
sw3223A-ms98-a-0009	A.9	26.387750	26.590625		and	and
sw3223A-ms98-a-0009	A.9	26.590625	26.848500		uh	uh
sw3223A-ms98-a-0009	A.9	26.848500	27.437750		[silence]	[silence]
sw3223A-ms98-a-0009	A.9	27.437750	27.517750		you	you
sw3223A-ms98-a-0009	A.9	27.517750	27.597750		know	know
sw3223A-ms98-a-0009	A.9	27.597750	27.767750		there's	there's
sw3223A-ms98-a-0009	A.9	27.767750	27.957750		so	so
sw3223A-ms98-a-0009	A.9	27.957750	28.107750		there's	there's
sw3223A-ms98-a-0009	A.9	28.107750	28.297750		only	only
sw3223A-ms98-a-0009	A.9	28.297750	28.347750		a	a
sw3223A-ms98-a-0009	A.9	28.347750	28.587750		few	few
sw3223A-ms98-a-0009	A.9	28.587750	28.717750		that	that
sw3223A-ms98-a-0009	A.9	28.717750	28.847750		I	i
sw3223A-ms98-a-0009	A.9	28.847750	29.077750		[silence]	[silence]
sw3223A-ms98-a-0009	A.9	29.077750	29.167750		that	that
sw3223A-ms98-a-0009	A.9	29.167750	29.247750		I	i
sw3223A-ms98-a-0009	A.9	29.247750	29.447750		like	like
sw3223A-ms98-a-0009	A.9	29.447750	29.547750		to	to
sw3223A-ms98-a-0009	A.9	29.547750	29.807750		watch	watch
sw3223A-ms98-a-0009	A.9	29.807750	30.337750		routinely	routinely
sw3223A-ms98-a-0009	A.11	30.337750	30.752125		[silence]	[silence]
sw3223A-ms98-a-0010	A.11	30.752125	31.977000		[silence]	[silence]
sw3223A-ms98-a-0011	A.11	31.977000	32.317000		[silence]	[silence]
sw3223A-ms98-a-0011	A.11	32.317000	32.487000		[noise]	[noise]
sw3223A-ms98-a-0011	A.11	32.487000	32.757000		Probably	probably
sw3223A-ms98-a-0011	A.11	32.757000	32.867000		my	my
sw3223A-ms98-a-0011	A.11	32.867000	33.267000		favorite	favorite
sw3223A-ms98-a-0011	A.11	33.267000	33.487000		is	is
sw3223A-ms98-a-0011	A.11	33.487000	33.757000		um	um
sw3223A-ms98-a-0011	A.11	33.757000	34.192250		[silence]	[silence]
sw3223A-ms98-a-0012	A.11	34.192250	35.416875		[silence]	[silence]
sw3223A-ms98-a-0013	A.11	35.416875	35.776875		[silence]	[silence]
sw3223A-ms98-a-0013	A.11	35.776875	36.219125		oh	oh
sw3223A-ms98-a-0013	A.11	36.219125	36.346875		[silence]	[silence]
sw3223A-ms98-a-0013	A.11	36.346875	36.446875		well	well
sw3223A-ms98-a-0013	A.11	36.446875	36.608500	<DEL>	---	i-
sw3223A-ms98-a-0013	A.11	36.608500	36.726750		I	i
sw3223A-ms98-a-0013	A.11	36.726750	36.876875		like	like
sw3223A-ms98-a-0013	A.11	36.876875	37.106875		shows	shows
sw3223A-ms98-a-0013	A.11	37.106875	37.348375		like	like
sw3223A-ms98-a-0013	A.11	37.348375	37.491500		[silence]	[silence]
sw3223A-ms98-a-0013	A.11	37.491500	37.776875		GROWING	Growing
sw3223A-ms98-a-0013	A.11	37.776875	38.306875		PAINS	Pains
sw3223A-ms98-a-0013	A.11	38.306875	38.714250		and	and
sw3223A-ms98-a-0013	A.11	38.714250	39.126875		[silence]	[silence]
sw3223A-ms98-a-0013	A.11	39.126875	39.438500		uh	uh
sw3223A-ms98-a-0013	A.11	39.438500	40.121625		[silence]	[silence]
sw3223A-ms98-a-0013	A.11	40.121625	40.276875		what's	what's
sw3223A-ms98-a-0013	A.11	40.276875	40.328375		the	the
sw3223A-ms98-a-0013	A.11	40.328375	40.466875		other	other
sw3223A-ms98-a-0013	A.11	40.466875	40.606875		one	one
sw3223A-ms98-a-0013	A.11	40.606875	40.847375		now	now
sw3223A-ms98-a-0013	A.11	40.847375	40.944875		[silence]	[silence]
sw3223A-ms98-a-0013	A.11	40.944875	41.043250		they	they
sw3223A-ms98-a-0013	A.11	41.043250	41.043250		moved	moved
sw3223A-ms98-a-0013	A.11	41.043250	41.251750		[silence]	[silence]
sw3223A-ms98-a-0013	A.11	41.251750	41.466875		from	from
sw3223A-ms98-a-0013	A.11	41.466875	41.816875		Tuesday	Tuesday
sw3223A-ms98-a-0013	A.11	41.816875	41.996875		night	night
sw3223A-ms98-a-0013	A.11	41.996875	42.076875		to	to
sw3223A-ms98-a-0013	A.11	42.076875	42.398500		Wednesday	Wednesday
sw3223A-ms98-a-0013	A.11	42.398500	42.546875		night	night
sw3223A-ms98-a-0013	A.11	42.546875	42.606875		so	so
sw3223A-ms98-a-0013	A.11	42.606875	42.636875		I	i
sw3223A-ms98-a-0013	A.11	42.636875	42.776875		don't	don't
sw3223A-ms98-a-0013	A.11	42.776875	42.886875		get	get
sw3223A-ms98-a-0013	A.11	42.886875	42.956875		to	to
sw3223A-ms98-a-0013	A.11	42.956875	43.176875		watch	watch
sw3223A-ms98-a-0013	A.11	43.176875	43.236875		it	it
sw3223A-ms98-a-0013	A.11	43.236875	43.416875		very	very
sw3223A-ms98-a-0013	A.11	43.416875	43.723750		much	much
sw3223A-ms98-a-0013	A.13	43.723750	44.039125		[silence]	[silence]
sw3223A-ms98-a-0014	A.13	44.039125	44.409125		[silence]	[silence]
sw3223A-ms98-a-0014	A.13	44.409125	44.752750		WONDER	Wonder
sw3223A-ms98-a-0014	A.13	44.752750	45.019125		YEARS	Years
sw3223A-ms98-a-0014	A.13	45.019125	45.197000		yeah	yeah
sw3223A-ms98-a-0014	A.13	45.197000	45.349125		that's	that's
sw3223A-ms98-a-0014	A.13	45.349125	45.508875		my	my
sw3223A-ms98-a-0014	A.13	45.508875	45.969125		favorite	favorite
sw3223A-ms98-a-0014	A.13	45.969125	46.746500		[silence]	[silence]
sw3223A-ms98-a-0014	A.13	46.746500	46.895625		Uh	uh
sw3223A-ms98-a-0014	A.15	46.895625	47.378000		[silence]	[silence]
sw3223A-ms98-a-0015	A.15	47.378000	48.493250		[silence]	[silence]
sw3223A-ms98-a-0016	A.15	48.493250	49.063250		[silence]	[silence]
sw3223A-ms98-a-0016	A.15	49.063250	49.313250		Yeah	yeah
sw3223A-ms98-a-0016	A.15	49.313250	50.343250		[vocalized-noise]	[vocalized-noise]
sw3223A-ms98-a-0016	A.15	50.343250	50.751875		[silence]	[silence]
sw3223A-ms98-a-0017	A.15	50.751875	53.446000		[silence]	[silence]
sw3223A-ms98-a-0018	A.15	53.446000	54.029750		[silence]	[silence]
sw3223A-ms98-a-0018	A.15	54.029750	54.366875	<DEL>	---	yeah
sw3223A-ms98-a-0018	A.15	54.366875	54.875750		[silence]	[silence]
sw3223A-ms98-a-0018	A.15	54.875750	55.133625		WONDER	Wonder
sw3223A-ms98-a-0018	A.15	55.133625	55.396000		YEARS	Years
sw3223A-ms98-a-0018	A.15	55.396000	55.616000	<SUB>	I	i-
sw3223A-ms98-a-0018	A.15	55.616000	55.778375		I	i
sw3223A-ms98-a-0018	A.15	55.778375	56.196000		guess	guess
sw3223A-ms98-a-0018	A.15	56.196000	56.306000		[silence]	[silence]
sw3223A-ms98-a-0018	A.15	56.306000	56.496000		that	that
sw3223A-ms98-a-0018	A.15	56.496000	56.806000		[silence]	[silence]
sw3223A-ms98-a-0018	A.15	56.806000	56.906000		is	is
sw3223A-ms98-a-0018	A.15	56.906000	57.116000		supposed	supposed
sw3223A-ms98-a-0018	A.15	57.116000	57.176000		to	to
sw3223A-ms98-a-0018	A.15	57.176000	57.266000		be	be
sw3223A-ms98-a-0018	A.15	57.266000	57.476000		put	put
sw3223A-ms98-a-0018	A.15	57.476000	57.646000		out	out
sw3223A-ms98-a-0018	A.15	57.646000	57.736000		at	at
sw3223A-ms98-a-0018	A.15	57.736000	57.786000		a	a
sw3223A-ms98-a-0018	A.15	57.786000	58.076000		time	time
sw3223A-ms98-a-0018	A.15	58.076000	58.186000		when	when
sw3223A-ms98-a-0018	A.15	58.186000	58.276000		I	i
sw3223A-ms98-a-0018	A.15	58.276000	58.426000		was	was
sw3223A-ms98-a-0018	A.15	58.426000	58.686000		growing	growing
sw3223A-ms98-a-0018	A.15	58.686000	58.866000		up	up
sw3223A-ms98-a-0018	A.15	58.866000	58.926000		or	or
sw3223A-ms98-a-0018	A.15	58.926000	59.196000		whatever	whatever
sw3223A-ms98-a-0018	A.15	59.196000	59.256000		I	i
sw3223A-ms98-a-0018	A.15	59.256000	59.466000		guess	guess
sw3223A-ms98-a-0018	A.15	59.466000	59.552000		I	i
sw3223A-ms98-a-0018	A.15	59.552000	59.654500		can	can
sw3223A-ms98-a-0018	A.15	59.654500	59.726000	<DEL>	---	r[eally]-
sw3223A-ms98-a-0018	A.15	59.726000	59.886125		[silence]	[silence]
sw3223A-ms98-a-0018	A.15	59.886125	60.114750		really	really
sw3223A-ms98-a-0018	A.15	60.114750	60.436000		relate	relate
sw3223A-ms98-a-0018	A.15	60.436000	60.556000		to	to
sw3223A-ms98-a-0018	A.15	60.556000	60.706000		it	it
sw3223A-ms98-a-0018	A.15	60.706000	61.436000		[silence]	[silence]
sw3223A-ms98-a-0018	A.15	61.436000	61.646000		and	and
sw3223A-ms98-a-0018	A.15	61.646000	61.841125		uh	uh
sw3223A-ms98-a-0018	A.15	61.841125	62.116000		[silence]	[silence]
sw3223A-ms98-a-0018	A.15	62.116000	62.336000		it's	it's
sw3223A-ms98-a-0018	A.15	62.336000	62.556000		just	just
sw3223A-ms98-a-0018	A.15	62.556000	62.626000		a	a
sw3223A-ms98-a-0018	A.15	62.626000	62.766000		real	real
sw3223A-ms98-a-0018	A.15	62.766000	63.006000		cute	cute
sw3223A-ms98-a-0018	A.15	63.006000	63.428375		show	show
sw3223A-ms98-a-0018	A.15	63.428375	63.930625		[silence]	[silence]
sw3223A-ms98-a-0019	A.15	63.930625	64.404625		[silence]	[silence]
sw3223A-ms98-a-0019	A.15	64.404625	64.567750		Uh	uh
sw3223A-ms98-a-0019	A.15	64.567750	64.744750		[silence]	[silence]
sw3223A-ms98-a-0019	A.15	64.744750	64.879500	<SUB>	I	i-
sw3223A-ms98-a-0019	A.15	64.879500	65.263250		[silence]	[silence]
sw3223A-ms98-a-0019	A.15	65.263250	65.410125		I	i
sw3223A-ms98-a-0019	A.15	65.410125	65.580625		guess	guess
sw3223A-ms98-a-0019	A.15	65.580625	65.673250		I	i
sw3223A-ms98-a-0019	A.15	65.673250	65.944500		like	like
sw3223A-ms98-a-0019	A.15	65.944500	66.030625		the	the
sw3223A-ms98-a-0019	A.15	66.030625	66.370625		shows	shows
sw3223A-ms98-a-0019	A.15	66.370625	66.550625		that	that
sw3223A-ms98-a-0019	A.15	66.550625	66.720625		[silence]	[silence]
sw3223A-ms98-a-0019	A.15	66.720625	66.930625		really	really
sw3223A-ms98-a-0019	A.15	66.930625	67.100625		have	have
sw3223A-ms98-a-0019	A.15	67.100625	67.220625		a	a
sw3223A-ms98-a-0019	A.15	67.220625	68.250625		[silence]	[silence]
sw3223A-ms98-a-0019	A.15	68.250625	68.320625	<DEL>	---	a
sw3223A-ms98-a-0019	A.15	68.320625	68.490625		real	real
sw3223A-ms98-a-0019	A.15	68.490625	68.810625		sense	sense
sw3223A-ms98-a-0019	A.15	68.810625	69.040625		of	of
sw3223A-ms98-a-0019	A.15	69.040625	69.460625		uh	uh
sw3223A-ms98-a-0019	A.15	69.460625	70.482625		[noise]	[noise]
sw3223A-ms98-a-0019	A.15	70.482625	70.566500		I	i
sw3223A-ms98-a-0019	A.15	70.566500	70.650625		don't	don't
sw3223A-ms98-a-0019	A.15	70.650625	70.870625		know	know
sw3223A-ms98-a-0019	A.15	70.870625	71.460625		honesty	honesty
sw3223A-ms98-a-0019	A.15	71.460625	71.700625		or	or
sw3223A-ms98-a-0019	A.15	71.700625	72.350625		[silence]	[silence]
sw3223A-ms98-a-0019	A.15	72.350625	72.500625		sort	sort
sw3223A-ms98-a-0019	A.15	72.500625	72.580625		of	of
sw3223A-ms98-a-0019	A.15	72.580625	72.660625		a	a
sw3223A-ms98-a-0019	A.15	72.660625	73.040625		purity	purity
sw3223A-ms98-a-0019	A.15	73.040625	73.430625		value	value
sw3223A-ms98-a-0019	A.15	73.430625	73.586375		I	i
sw3223A-ms98-a-0019	A.15	73.586375	73.910625		guess	guess
sw3223A-ms98-a-0019	A.17	73.910625	74.600500		[silence]	[silence]
sw3223A-ms98-a-0020	A.17	74.600500	85.080500		[silence]	[silence]
sw3223A-ms98-a-0021	A.17	85.080500	85.667375		[silence]	[silence]
sw3223A-ms98-a-0021	A.17	85.667375	86.015750		Uh-huh	uh-huh
sw3223A-ms98-a-0021	A.19	86.015750	86.767250		[silence]	[silence]
sw3223A-ms98-a-0021	A.19	86.767250	87.050000		Yeah	yeah
sw3223A-ms98-a-0021	A.21	87.050000	87.513500		[silence]	[silence]
sw3223A-ms98-a-0022	A.21	87.513500	90.706375		[silence]	[silence]
sw3223A-ms98-a-0023	A.21	90.706375	91.136375		[silence]	[silence]
sw3223A-ms98-a-0023	A.21	91.136375	91.576375		Right	right
sw3223A-ms98-a-0023	A.21	91.576375	91.816375		right	right
sw3223A-ms98-a-0023	A.23	91.816375	92.312000		[silence]	[silence]
sw3223A-ms98-a-0024	A.23	92.312000	97.443500		[silence]	[silence]
sw3223A-ms98-a-0025	A.23	97.443500	97.983500		[silence]	[silence]
sw3223A-ms98-a-0025	A.23	97.983500	98.337375		Uh-huh	uh-huh
sw3223A-ms98-a-0025	A.23	98.337375	98.613500		[silence]	[silence]
sw3223A-ms98-a-0025	A.23	98.613500	98.746500		yeah	yeah
sw3223A-ms98-a-0025	A.23	98.746500	98.883750		my	my
sw3223A-ms98-a-0025	A.23	98.883750	99.113500		wife	wife
sw3223A-ms98-a-0025	A.23	99.113500	99.273500		really	really
sw3223A-ms98-a-0025	A.23	99.273500	99.503500		likes	likes
sw3223A-ms98-a-0025	A.23	99.503500	99.613500		that	that
sw3223A-ms98-a-0025	A.23	99.613500	99.815625		show	show
sw3223A-ms98-a-0025	A.25	99.815625	100.259000		[silence]	[silence]
sw3223A-ms98-a-0026	A.25	100.259000	102.251125		[silence]	[silence]
sw3223A-ms98-a-0027	A.25	102.251125	102.758875		[silence]	[silence]
sw3223A-ms98-a-0027	A.25	102.758875	103.071125		Uh-huh	uh-huh
sw3223A-ms98-a-0027	A.27	103.071125	103.633750		[silence]	[silence]
sw3223A-ms98-a-0028	A.27	103.633750	108.567625		[silence]	[silence]
sw3223A-ms98-a-0029	A.27	108.567625	109.087625		[silence]	[silence]
sw3223A-ms98-a-0029	A.27	109.087625	109.387625		Yeah	yeah
sw3223A-ms98-a-0029	A.29	109.387625	109.854250		[silence]	[silence]
sw3223A-ms98-a-0030	A.29	109.854250	116.221750		[silence]	[silence]
sw3223A-ms98-a-0031	A.29	116.221750	116.664125		[silence]	[silence]
sw3223A-ms98-a-0031	A.29	116.664125	117.018125		Yeah	yeah
sw3223A-ms98-a-0031	A.29	117.018125	117.492625		[silence]	[silence]
sw3223A-ms98-a-0031	A.29	117.492625	117.638500		well	well
sw3223A-ms98-a-0031	A.29	117.638500	118.257375		[silence]	[silence]
sw3223A-ms98-a-0031	A.29	118.257375	118.351750		there	there
sw3223A-ms98-a-0031	A.29	118.351750	118.664750		was	was
sw3223A-ms98-a-0031	A.29	118.664750	118.831750		but	but
sw3223A-ms98-a-0031	A.29	118.831750	119.051750		there's	there's
sw3223A-ms98-a-0031	A.29	119.051750	119.101750		a	a
sw3223A-ms98-a-0031	A.29	119.101750	119.391750		sense	sense
sw3223A-ms98-a-0031	A.29	119.391750	119.609750		of	of
sw3223A-ms98-a-0031	A.29	119.609750	119.711750		[silence]	[silence]
sw3223A-ms98-a-0031	A.29	119.711750	119.905875		ho-	ho[nesty]-
sw3223A-ms98-a-0031	A.29	119.905875	120.041750		[silence]	[silence]
sw3223A-ms98-a-0031	A.29	120.041750	120.180500		I	i
sw3223A-ms98-a-0031	A.29	120.180500	120.501750		guess	guess
sw3223A-ms98-a-0031	A.29	120.501750	120.881750		[silence]	[silence]
sw3223A-ms98-a-0031	A.29	120.881750	121.211750		purity	purity
sw3223A-ms98-a-0031	A.29	121.211750	121.341750		in	in
sw3223A-ms98-a-0031	A.29	121.341750	121.411750		the	the
sw3223A-ms98-a-0031	A.29	121.411750	121.736000		show	show
sw3223A-ms98-a-0031	A.29	121.736000	122.056125		like	like
sw3223A-ms98-a-0031	A.29	122.056125	122.386250		[silence]	[silence]
sw3223A-ms98-a-0031	A.29	122.386250	122.484250		one	one
sw3223A-ms98-a-0031	A.29	122.484250	122.571750		of	of
sw3223A-ms98-a-0031	A.29	122.571750	122.661750		my	my
sw3223A-ms98-a-0031	A.29	122.661750	122.941750		favorite	favorite
sw3223A-ms98-a-0031	A.29	122.941750	123.171750		shows	shows
sw3223A-ms98-a-0031	A.29	123.171750	123.301750		used	used
sw3223A-ms98-a-0031	A.29	123.301750	123.361750		to	to
sw3223A-ms98-a-0031	A.29	123.361750	123.481750		be	be
sw3223A-ms98-a-0031	A.29	123.481750	123.801750		HAPPY	Happy
sw3223A-ms98-a-0031	A.29	123.801750	124.171750		DAYS	Days
sw3223A-ms98-a-0031	A.31	124.171750	124.791750		[silence]	[silence]
sw3223A-ms98-a-0031	A.31	124.791750	125.191750		but	but
sw3223A-ms98-a-0031	A.31	125.191750	125.491750		uh	uh
sw3223A-ms98-a-0031	A.31	125.491750	125.927875		[silence]	[silence]
sw3223A-ms98-a-0032	A.31	125.927875	126.390875		[silence]	[silence]
sw3223A-ms98-a-0032	A.31	126.390875	126.505000		you	you
sw3223A-ms98-a-0032	A.31	126.505000	126.637875		know	know
sw3223A-ms98-a-0032	A.31	126.637875	126.927875		Richie	Richie
sw3223A-ms98-a-0032	A.31	126.927875	127.127875		always	always
sw3223A-ms98-a-0032	A.31	127.127875	127.317875		used	used
sw3223A-ms98-a-0032	A.31	127.317875	127.387875		to	to
sw3223A-ms98-a-0032	A.31	127.387875	127.567875		be	be
sw3223A-ms98-a-0032	A.31	127.567875	127.893125		so	so
sw3223A-ms98-a-0032	A.31	127.893125	128.097875		[silence]	[silence]
sw3223A-ms98-a-0032	A.31	128.097875	128.187875		you	you
sw3223A-ms98-a-0032	A.31	128.187875	128.397875		know	know
sw3223A-ms98-a-0032	A.31	128.397875	128.527875		[silence]	[silence]
sw3223A-ms98-a-0032	A.31	128.527875	128.757875		just	just
sw3223A-ms98-a-0032	A.31	128.757875	129.107875		so	so
sw3223A-ms98-a-0032	A.31	129.107875	129.457875		honest	honest
sw3223A-ms98-a-0032	A.31	129.457875	129.587875		and	and
sw3223A-ms98-a-0032	A.31	129.587875	129.985750		pure	pure
sw3223A-ms98-a-0032	A.33	129.985750	130.114500		[silence]	[silence]
sw3223A-ms98-a-0032	A.33	130.114500	130.247875		I	i
sw3223A-ms98-a-0032	A.33	130.247875	130.549875		guess	guess
sw3223A-ms98-a-0032	A.33	130.549875	130.817250		[silence]	[silence]
sw3223A-ms98-a-0032	A.33	130.817250	130.917875		and	and
sw3223A-ms98-a-0032	A.33	130.917875	131.027875		when	when
sw3223A-ms98-a-0032	A.33	131.027875	131.254125		he	he
sw3223A-ms98-a-0032	A.33	131.254125	131.497875		left	left
sw3223A-ms98-a-0032	A.33	131.497875	131.557875		the	the
sw3223A-ms98-a-0032	A.33	131.557875	132.026750		show	show
sw3223A-ms98-a-0032	A.33	132.026750	132.337875		[silence]	[silence]
sw3223A-ms98-a-0032	A.33	132.337875	132.425750		you	you
sw3223A-ms98-a-0032	A.33	132.425750	132.567875		know	know
sw3223A-ms98-a-0032	A.33	132.567875	132.807875		that	that
sw3223A-ms98-a-0032	A.33	132.807875	132.897875		it	it
sw3223A-ms98-a-0032	A.33	132.897875	133.067875		seemed	seemed
sw3223A-ms98-a-0032	A.33	133.067875	133.127875		to	to
sw3223A-ms98-a-0032	A.33	133.127875	133.227875		be	be
sw3223A-ms98-a-0032	A.33	133.227875	133.557875		missing	missing
sw3223A-ms98-a-0032	A.33	133.557875	133.707875		that	that
sw3223A-ms98-a-0032	A.33	133.707875	133.937875		part	part
sw3223A-ms98-a-0032	A.33	133.937875	134.047875		of	of
sw3223A-ms98-a-0032	A.33	134.047875	134.237875		it	it
sw3223A-ms98-a-0032	A.35	134.237875	134.327875		and	and
sw3223A-ms98-a-0032	A.35	134.327875	134.377875		I	i
sw3223A-ms98-a-0032	A.35	134.377875	134.567875		never	never
sw3223A-ms98-a-0032	A.35	134.567875	134.717875		did	did
sw3223A-ms98-a-0032	A.35	134.717875	134.907875		like	like
sw3223A-ms98-a-0032	A.35	134.907875	135.007875		it	it
sw3223A-ms98-a-0032	A.35	135.007875	135.207875		after	after
sw3223A-ms98-a-0032	A.35	135.207875	135.418125		that	that
sw3223A-ms98-a-0032	A.37	135.418125	135.798875		[silence]	[silence]
sw3223A-ms98-a-0033	A.37	135.798875	136.182250		[silence]	[silence]
sw3223A-ms98-a-0033	A.37	136.182250	136.391875		so	so
sw3223A-ms98-a-0033	A.37	136.391875	136.628875	<DEL>	---	i-
sw3223A-ms98-a-0033	A.37	136.628875	136.717000		I	i
sw3223A-ms98-a-0033	A.37	136.717000	136.808875		don't	don't
sw3223A-ms98-a-0033	A.37	136.808875	136.918875		know	know
sw3223A-ms98-a-0033	A.37	136.918875	137.080750	<SUB>	I	i-
sw3223A-ms98-a-0033	A.37	137.080750	137.708875		[silence]	[silence]
sw3223A-ms98-a-0033	A.37	137.708875	137.950250		I	i
sw3223A-ms98-a-0033	A.37	137.950250	138.278875		say	say
sw3223A-ms98-a-0033	A.37	138.278875	138.448875		see	see
sw3223A-ms98-a-0033	A.37	138.448875	138.528875		the	the
sw3223A-ms98-a-0033	A.37	138.528875	138.748875		same	same
sw3223A-ms98-a-0033	A.37	138.748875	138.908875		thing	thing
sw3223A-ms98-a-0033	A.37	138.908875	139.018875		in	in
sw3223A-ms98-a-0033	A.37	139.018875	139.188875		like	like
sw3223A-ms98-a-0033	A.37	139.188875	139.428875		WONDER	Wonder
sw3223A-ms98-a-0033	A.37	139.428875	139.718875		YEARS	Years
sw3223A-ms98-a-0033	A.37	139.718875	139.808875		and	and
sw3223A-ms98-a-0033	A.37	139.808875	139.838875		a	a
sw3223A-ms98-a-0033	A.37	139.838875	140.068875		lot	lot
sw3223A-ms98-a-0033	A.37	140.068875	140.128875		of	of
sw3223A-ms98-a-0033	A.37	140.128875	140.188875		the	the
sw3223A-ms98-a-0033	A.37	140.188875	140.468875		shows	shows
sw3223A-ms98-a-0033	A.37	140.468875	140.608875		that	that
sw3223A-ms98-a-0033	A.37	140.608875	140.678875		I	i
sw3223A-ms98-a-0033	A.37	140.678875	140.918875		like	like
sw3223A-ms98-a-0033	A.37	140.918875	141.018875		to	to
sw3223A-ms98-a-0033	A.37	141.018875	141.328875		watch	watch
sw3223A-ms98-a-0033	A.37	141.328875	141.438875		There	there
sw3223A-ms98-a-0033	A.37	141.438875	141.618875		always	always
sw3223A-ms98-a-0033	A.37	141.618875	141.838875		seems	seems
sw3223A-ms98-a-0033	A.37	141.838875	141.908875		to	to
sw3223A-ms98-a-0033	A.37	141.908875	142.048875		be	be
sw3223A-ms98-a-0033	A.37	142.048875	142.218875		that	that
sw3223A-ms98-a-0033	A.37	142.218875	142.528875		kind	kind
sw3223A-ms98-a-0033	A.37	142.528875	142.781250		of	of
sw3223A-ms98-a-0033	A.37	142.781250	143.238875		[silence]	[silence]
sw3223A-ms98-a-0033	A.37	143.238875	143.708875		value	value
sw3223A-ms98-a-0033	A.37	143.708875	143.848875		in	in
sw3223A-ms98-a-0033	A.37	143.848875	143.998875		there	there
sw3223A-ms98-a-0033	A.37	143.998875	144.498875		somewhere	somewhere
sw3223A-ms98-a-0033	A.39	144.498875	144.846375		[silence]	[silence]
sw3223A-ms98-a-0034	A.39	144.846375	148.871500		[silence]	[silence]
sw3223A-ms98-a-0035	A.39	148.871500	149.321500		[silence]	[silence]
sw3223A-ms98-a-0035	A.39	149.321500	149.541500		Yeah	yeah
sw3223A-ms98-a-0035	A.39	149.541500	149.811500		uh-huh	uh-huh
sw3223A-ms98-a-0035	A.41	149.811500	150.355500		[silence]	[silence]
sw3223A-ms98-a-0036	A.41	150.355500	157.299250		[silence]	[silence]
sw3223A-ms98-a-0037	A.41	157.299250	157.809250		[silence]	[silence]
sw3223A-ms98-a-0037	A.41	157.809250	158.109250		Uh-huh	uh-huh
sw3223A-ms98-a-0037	A.43	158.109250	158.541125		[silence]	[silence]
sw3223A-ms98-a-0038	A.43	158.541125	160.115375		[silence]	[silence]
sw3223A-ms98-a-0039	A.43	160.115375	160.595375		[silence]	[silence]
sw3223A-ms98-a-0039	A.43	160.595375	160.725375		So	so
sw3223A-ms98-a-0039	A.43	160.725375	160.815375		you're	you're
sw3223A-ms98-a-0039	A.43	160.815375	160.935375	<SUB>	going	gonna
sw3223A-ms98-a-0039	A.43	160.935375	160.935375	<INS>	to	---
sw3223A-ms98-a-0039	A.43	160.935375	161.115375		watch	watch
sw3223A-ms98-a-0039	A.43	161.115375	161.155375		a	a
sw3223A-ms98-a-0039	A.43	161.155375	161.345375		game	game
sw3223A-ms98-a-0039	A.43	161.345375	161.699125		tonight	tonight
sw3223A-ms98-a-0039	A.45	161.699125	162.050875		[silence]	[silence]
sw3223A-ms98-a-0040	A.45	162.050875	164.200375		[silence]	[silence]
sw3223A-ms98-a-0041	A.45	164.200375	164.685750		[silence]	[silence]
sw3223A-ms98-a-0041	A.45	164.685750	164.802000		So	so
sw3223A-ms98-a-0041	A.45	164.802000	164.900375		do	do
sw3223A-ms98-a-0041	A.45	164.900375	164.970375		you	you
sw3223A-ms98-a-0041	A.45	164.970375	165.162500		[silence]	[silence]
sw3223A-ms98-a-0041	A.45	165.162500	165.210250		do	do
sw3223A-ms98-a-0041	A.45	165.210250	165.240375		you	you
sw3223A-ms98-a-0041	A.45	165.240375	165.350375		have	have
sw3223A-ms98-a-0041	A.45	165.350375	165.410375		a	a
sw3223A-ms98-a-0041	A.45	165.410375	165.760375		favorite	favorite
sw3223A-ms98-a-0041	A.45	165.760375	165.870375		for	for
sw3223A-ms98-a-0041	A.45	165.870375	166.065750		the	the
sw3223A-ms98-a-0041	A.45	166.065750	166.305375		[silence]	[silence]
sw3223A-ms98-a-0041	A.45	166.305375	166.550375		series	series
sw3223A-ms98-a-0041	A.45	166.550375	166.640375		or	or
sw3223A-ms98-a-0041	A.45	166.640375	166.900375		anything	anything
sw3223A-ms98-a-0041	A.47	166.900375	167.347375		[silence]	[silence]
sw3223A-ms98-a-0042	A.47	167.347375	173.566875		[silence]	[silence]
sw3223A-ms98-a-0043	A.47	173.566875	174.110625		[silence]	[silence]
sw3223A-ms98-a-0043	A.47	174.110625	174.328750		Oh	oh
sw3223A-ms98-a-0043	A.47	174.328750	174.576875		uh-huh	uh-huh
sw3223A-ms98-a-0043	A.49	174.576875	175.070750		[silence]	[silence]
sw3223A-ms98-a-0044	A.49	175.070750	177.145375		[silence]	[silence]
sw3223A-ms98-a-0045	A.49	177.145375	177.615375		[silence]	[silence]
sw3223A-ms98-a-0045	A.49	177.615375	177.865375	<SUB>	Yes	yeah
sw3223A-ms98-a-0045	A.51	177.865375	178.399125		[silence]	[silence]
sw3223A-ms98-a-0046	A.51	178.399125	186.945750		[silence]	[silence]
sw3223A-ms98-a-0047	A.51	186.945750	187.435750		[silence]	[silence]
sw3223A-ms98-a-0047	A.51	187.435750	187.731500	<DEL>	---	yeah
sw3223A-ms98-a-0047	A.51	187.731500	188.315750		[silence]	[silence]
sw3223A-ms98-a-0047	A.51	188.315750	188.451125		Yeah	yeah
sw3223A-ms98-a-0047	A.51	188.451125	188.635750		he's	he's
sw3223A-ms98-a-0047	A.51	188.635750	188.685750		a	a
sw3223A-ms98-a-0047	A.51	188.685750	188.905750		nice	nice
sw3223A-ms98-a-0047	A.51	188.905750	189.216750		guy	guy
sw3223A-ms98-a-0047	A.53	189.216750	190.263750		[vocalized-noise]	[vocalized-noise]
sw3223A-ms98-a-0047	A.53	190.263750	190.390625	<DEL>	---	i-
sw3223A-ms98-a-0047	A.53	190.390625	190.503875		[silence]	[silence]
sw3223A-ms98-a-0047	A.53	190.503875	190.616875		I	i
sw3223A-ms98-a-0047	A.53	190.616875	190.775750		take	take
sw3223A-ms98-a-0047	A.53	190.775750	190.891250		it	it
sw3223A-ms98-a-0047	A.53	190.891250	190.995750		you	you
sw3223A-ms98-a-0047	A.53	190.995750	191.095750		live	live
sw3223A-ms98-a-0047	A.53	191.095750	191.155750		in	in
sw3223A-ms98-a-0047	A.53	191.155750	191.235750		the	the
sw3223A-ms98-a-0047	A.53	191.235750	191.565750		Dallas	Dallas
sw3223A-ms98-a-0047	A.53	191.565750	191.854750		area	area
sw3223A-ms98-a-0047	A.55	191.854750	192.635750		[silence]	[silence]
sw3223A-ms98-a-0047	A.55	192.635750	192.715750		Do	do
sw3223A-ms98-a-0047	A.55	192.715750	192.795750		you	you
sw3223A-ms98-a-0047	A.55	192.795750	192.905750		live	live
sw3223A-ms98-a-0047	A.55	192.905750	192.975750		in	in
sw3223A-ms98-a-0047	A.55	192.975750	193.069500		the	the
sw3223A-ms98-a-0047	A.55	193.069500	193.385750		Dallas	Dallas
sw3223A-ms98-a-0047	A.55	193.385750	193.689375		area	area
sw3223A-ms98-a-0047	A.57	193.689375	194.328250		[silence]	[silence]
sw3223A-ms98-a-0048	A.57	194.328250	194.948250		[silence]	[silence]
sw3223A-ms98-a-0048	A.57	194.948250	195.198250		Uh-huh	uh-huh
sw3223A-ms98-a-0048	A.57	195.198250	195.408250		[silence]	[silence]
sw3223A-ms98-a-0048	A.57	195.408250	195.488250		yeah	yeah
sw3223A-ms98-a-0048	A.57	195.488250	195.618250		I	i
sw3223A-ms98-a-0048	A.57	195.618250	195.768250		live	live
sw3223A-ms98-a-0048	A.57	195.768250	195.868250		in	in
sw3223A-ms98-a-0048	A.57	195.868250	196.543750		Garland	Garland
sw3223A-ms98-a-0048	A.57	196.543750	196.668250		[silence]	[silence]
sw3223A-ms98-a-0048	A.57	196.668250	196.888250		and	and
sw3223A-ms98-a-0048	A.57	196.888250	197.178250		[silence]	[silence]
sw3223A-ms98-a-0048	A.57	197.178250	197.368250		yeah	yeah
sw3223A-ms98-a-0048	A.57	197.368250	197.490750	<SUB>	I	i-
sw3223A-ms98-a-0048	A.57	197.490750	198.396750		[silence]	[silence]
sw3223A-ms98-a-0048	A.57	198.396750	198.520125		I	i
sw3223A-ms98-a-0048	A.57	198.520125	198.943250		like	like
sw3223A-ms98-a-0048	A.57	198.943250	199.268250		[silence]	[silence]
sw3223A-ms98-a-0048	A.57	199.268250	199.508250		Steve	Steve
sw3223A-ms98-a-0048	A.57	199.508250	199.898250		Bushel	Bushel
sw3223A-ms98-a-0048	A.57	199.898250	200.008250		but	but
sw3223A-ms98-a-0048	A.57	200.008250	200.078250		I	i
sw3223A-ms98-a-0048	A.57	200.078250	200.228250		don't	don't
sw3223A-ms98-a-0048	A.57	200.228250	200.378250		really	really
sw3223A-ms98-a-0048	A.57	200.378250	200.568250		like	like
sw3223A-ms98-a-0048	A.57	200.568250	200.628250		the	the
sw3223A-ms98-a-0048	A.57	200.628250	201.008250		Pirates	Pirates
sw3223A-ms98-a-0048	A.57	201.008250	201.158250		I'm	i'm
sw3223A-ms98-a-0048	A.57	201.158250	201.238250		a	a
sw3223A-ms98-a-0048	A.57	201.238250	201.478250		big	big
sw3223A-ms98-a-0048	A.57	201.478250	201.678250		Saint	Saint
sw3223A-ms98-a-0048	A.57	201.678250	201.818250		Louis	Louis
sw3223A-ms98-a-0048	A.57	201.818250	202.208250		Cardinals	Cardinals
sw3223A-ms98-a-0048	A.57	202.208250	202.508250		fan	fan
sw3223A-ms98-a-0048	A.59	202.508250	202.700875		[silence]	[silence]
sw3223A-ms98-a-0048	A.59	202.700875	202.938250		so	so
sw3223A-ms98-a-0048	A.59	202.938250	203.152375		uh	uh
sw3223A-ms98-a-0048	A.59	203.152375	203.295500		[silence]	[silence]
sw3223A-ms98-a-0048	A.59	203.295500	203.408250		I'm	i'm
sw3223A-ms98-a-0048	A.59	203.408250	203.528250		[silence]	[silence]
sw3223A-ms98-a-0048	A.59	203.528250	203.693500		kind	kind
sw3223A-ms98-a-0048	A.59	203.693500	203.908250		of	of
sw3223A-ms98-a-0048	A.59	203.908250	204.018250		I'm	i'm
sw3223A-ms98-a-0048	A.59	204.018250	204.178250		kind	kind
sw3223A-ms98-a-0048	A.59	204.178250	204.238250		of	of
sw3223A-ms98-a-0048	A.59	204.238250	204.468250		pulling	pulling
sw3223A-ms98-a-0048	A.59	204.468250	204.588250		for	for
sw3223A-ms98-a-0048	A.59	204.588250	204.648250		the	the
sw3223A-ms98-a-0048	A.59	204.648250	205.174375		Braves	Braves
sw3223A-ms98-a-0048	A.59	205.174375	205.538250		[silence]	[silence]
sw3223A-ms98-a-0048	A.59	205.538250	205.699000		over	over
sw3223A-ms98-a-0048	A.59	205.699000	205.908250		all	all
sw3223A-ms98-a-0048	A.59	205.908250	205.988250		they	they
sw3223A-ms98-a-0048	A.59	205.988250	206.048250		you	you
sw3223A-ms98-a-0048	A.59	206.048250	206.198250		know	know
sw3223A-ms98-a-0048	A.59	206.198250	206.398250		they	they
sw3223A-ms98-a-0048	A.61	206.398250	206.732875		[silence]	[silence]
sw3223A-ms98-a-0049	A.61	206.732875	207.062875		[silence]	[silence]
sw3223A-ms98-a-0049	A.61	207.062875	207.192875		they've	they've
sw3223A-ms98-a-0049	A.61	207.192875	207.402875		come	come
sw3223A-ms98-a-0049	A.61	207.402875	207.552875		from	from
sw3223A-ms98-a-0049	A.61	207.552875	207.712875		so	so
sw3223A-ms98-a-0049	A.61	207.712875	207.962875		far	far
sw3223A-ms98-a-0049	A.61	207.962875	208.412750		down	down
sw3223A-ms98-a-0049	A.61	208.412750	208.882875		[noise]	[noise]
sw3223A-ms98-a-0049	A.61	208.882875	209.033125		I	i
sw3223A-ms98-a-0049	A.61	209.033125	209.262875		really	really
sw3223A-ms98-a-0049	A.61	209.262875	209.392875		would	would
sw3223A-ms98-a-0049	A.61	209.392875	209.512875		like	like
sw3223A-ms98-a-0049	A.61	209.512875	209.602875		to	to
sw3223A-ms98-a-0049	A.61	209.602875	209.712875		see	see
sw3223A-ms98-a-0049	A.61	209.712875	209.822875		them	them_1
sw3223A-ms98-a-0049	A.61	209.822875	209.942000		do	do
sw3223A-ms98-a-0049	A.61	209.942000	210.192875		well	well
sw3223A-ms98-a-0049	A.63	210.192875	210.628000		[silence]	[silence]
sw3223A-ms98-a-0050	A.63	210.628000	213.927125		[silence]	[silence]
sw3223A-ms98-a-0051	A.63	213.927125	214.434750		[silence]	[silence]
sw3223A-ms98-a-0051	A.63	214.434750	214.733000		[noise]	[noise]
sw3223A-ms98-a-0051	A.63	214.733000	214.975875		[silence]	[silence]
sw3223A-ms98-a-0052	A.63	214.975875	215.325875		[silence]	[silence]
sw3223A-ms98-a-0052	A.63	215.325875	215.572625		Yeah	yeah
sw3223A-ms98-a-0052	A.63	215.572625	215.884500		one	one
sw3223A-ms98-a-0052	A.63	215.884500	215.975875		[silence]	[silence]
sw3223A-ms98-a-0052	A.63	215.975875	216.175875		one	one
sw3223A-ms98-a-0052	A.63	216.175875	216.525875		year	year
sw3223A-ms98-a-0052	A.63	216.525875	216.665875	<SUB>	they	then
sw3223A-ms98-a-0052	A.63	216.665875	216.855875		maybe	maybe
sw3223A-ms98-a-0052	A.63	216.855875	217.005875		they'll	they'll
sw3223A-ms98-a-0052	A.63	217.005875	217.245875		make	make
sw3223A-ms98-a-0052	A.63	217.245875	217.415875		it	it
sw3223A-ms98-a-0052	A.63	217.415875	217.515500		I	i
sw3223A-ms98-a-0052	A.63	217.515500	217.609500		don't	don't
sw3223A-ms98-a-0052	A.63	217.609500	217.754625		know	know
sw3223A-ms98-a-0052	A.65	217.754625	218.352625		[silence]	[silence]
sw3223A-ms98-a-0053	A.65	218.352625	218.834250		[silence]	[silence]
sw3223A-ms98-a-0053	A.65	218.834250	219.112625		so	so
sw3223A-ms98-a-0053	A.65	219.112625	219.962625		[noise]	[noise]
sw3223A-ms98-a-0053	A.65	219.962625	220.242625		but	but
sw3223A-ms98-a-0053	A.65	220.242625	220.510500		uh	uh
sw3223A-ms98-a-0053	A.65	220.510500	220.662625		[silence]	[silence]
sw3223A-ms98-a-0053	A.65	220.662625	220.792625		yeah	yeah
sw3223A-ms98-a-0053	A.65	220.792625	220.912625	<SUB>	I	i'd
sw3223A-ms98-a-0053	A.65	220.912625	221.082625		like	like
sw3223A-ms98-a-0053	A.65	221.082625	221.332625		[silence]	[silence]
sw3223A-ms98-a-0053	A.65	221.332625	221.642625		sports	sports
sw3223A-ms98-a-0053	A.65	221.642625	222.052625		programming	programming
sw3223A-ms98-a-0053	A.65	222.052625	222.242625		quite	quite
sw3223A-ms98-a-0053	A.65	222.242625	222.282625		a	a
sw3223A-ms98-a-0053	A.65	222.282625	222.512625		bit	bit
sw3223A-ms98-a-0053	A.65	222.512625	222.662625		but	but
sw3223A-ms98-a-0053	A.65	222.662625	223.009375		[silence]	[silence]
sw3223A-ms98-a-0054	A.65	223.009375	223.271500		[silence]	[silence]
sw3223A-ms98-a-0054	A.65	223.271500	223.569375		uh	uh
sw3223A-ms98-a-0054	A.65	223.569375	223.956125		[silence]	[silence]
sw3223A-ms98-a-0054	A.65	223.956125	224.060875		I	i
sw3223A-ms98-a-0054	A.65	224.060875	224.229375		guess	guess
sw3223A-ms98-a-0054	A.65	224.229375	224.369750		my	my
sw3223A-ms98-a-0054	A.65	224.369750	224.509375		[silence]	[silence]
sw3223A-ms98-a-0054	A.65	224.509375	224.684625		my	my
sw3223A-ms98-a-0054	A.65	224.684625	224.929375		favorite	favorite
sw3223A-ms98-a-0054	A.65	224.929375	225.179375		shows	shows
sw3223A-ms98-a-0054	A.65	225.179375	225.367250		are	are
sw3223A-ms98-a-0054	A.65	225.367250	225.521750		the	the
sw3223A-ms98-a-0054	A.65	225.521750	225.689375		[silence]	[silence]
sw3223A-ms98-a-0054	A.65	225.689375	225.859375		and	and
sw3223A-ms98-a-0054	A.65	225.859375	226.099375		[silence]	[silence]
sw3223A-ms98-a-0054	A.65	226.099375	226.189375		you	you
sw3223A-ms98-a-0054	A.65	226.189375	226.279375		know	know
sw3223A-ms98-a-0054	A.65	226.279375	226.431000	<SUB>	that	the
sw3223A-ms98-a-0054	A.65	226.431000	226.594625		[silence]	[silence]
sw3223A-ms98-a-0054	A.65	226.594625	226.789375		getting	getting
sw3223A-ms98-a-0054	A.65	226.789375	226.929375		back	back
sw3223A-ms98-a-0054	A.65	226.929375	227.029375		to	to
sw3223A-ms98-a-0054	A.65	227.029375	227.099375	<SUB>	the	a
sw3223A-ms98-a-0054	A.65	227.099375	227.349375		point	point
sw3223A-ms98-a-0054	A.65	227.349375	227.459375		that	that
sw3223A-ms98-a-0054	A.65	227.459375	227.569375		you	you
sw3223A-ms98-a-0054	A.65	227.569375	227.859375		made	made
sw3223A-ms98-a-0054	A.65	227.859375	228.059375		that's	that's
sw3223A-ms98-a-0054	A.65	228.059375	228.209375		really	really
sw3223A-ms98-a-0054	A.65	228.209375	228.439375		true	true
sw3223A-ms98-a-0054	A.65	228.439375	228.589375		we	we
sw3223A-ms98-a-0054	A.65	228.589375	228.689375	<SUB>	were	are
sw3223A-ms98-a-0054	A.65	228.689375	229.130500		watching	watching
sw3223A-ms98-a-0054	A.65	229.130500	229.589375		[silence]	[silence]
sw3223A-ms98-a-0054	A.65	229.589375	230.049375		ROSEANNE	Roseanne
sw3223A-ms98-a-0054	A.65	230.049375	230.129375		I	i
sw3223A-ms98-a-0054	A.65	230.129375	230.589375		guess	guess
sw3223A-ms98-a-0054	A.65	230.589375	230.879375		[silence]	[silence]
sw3223A-ms98-a-0054	A.65	230.879375	231.089375		couple	couple
sw3223A-ms98-a-0054	A.65	231.089375	231.149375		of	of
sw3223A-ms98-a-0054	A.65	231.149375	231.339375		weeks	weeks
sw3223A-ms98-a-0054	A.65	231.339375	231.679375		ago	ago
sw3223A-ms98-a-0054	A.65	231.679375	231.819375		and	and
sw3223A-ms98-a-0054	A.65	231.819375	232.111375		[silence]	[silence]
sw3223A-ms98-a-0055	A.65	232.111375	232.402500		[silence]	[silence]
sw3223A-ms98-a-0055	A.65	232.402500	232.493750		her	her
sw3223A-ms98-a-0055	A.65	232.493750	232.711375		daughter	daughter
sw3223A-ms98-a-0055	A.65	232.711375	232.821375		was	was
sw3223A-ms98-a-0055	A.65	232.821375	233.091375		talking	talking
sw3223A-ms98-a-0055	A.65	233.091375	233.281375		about	about
sw3223A-ms98-a-0055	A.65	233.281375	233.511375		birth	birth
sw3223A-ms98-a-0055	A.65	233.511375	233.901375		control	control
sw3223A-ms98-a-0055	A.65	233.901375	233.981375		you	you
sw3223A-ms98-a-0055	A.65	233.981375	234.101375		know	know
sw3223A-ms98-a-0055	A.67	234.101375	234.220625		and	and
sw3223A-ms98-a-0055	A.67	234.220625	234.337375		my	my
sw3223A-ms98-a-0055	A.67	234.337375	234.790375		daughter	daughter
sw3223A-ms98-a-0055	A.67	234.790375	235.031375		[silence]	[silence]
sw3223A-ms98-a-0055	A.67	235.031375	235.171375		was	was
sw3223A-ms98-a-0055	A.67	235.171375	235.311375		kind	kind
sw3223A-ms98-a-0055	A.67	235.311375	235.371375		of	of
sw3223A-ms98-a-0055	A.67	235.371375	235.671375		walking	walking
sw3223A-ms98-a-0055	A.67	235.671375	235.871375		in	in
sw3223A-ms98-a-0055	A.67	235.871375	236.061375		during	during
sw3223A-ms98-a-0055	A.67	236.061375	236.251375		that	that
sw3223A-ms98-a-0055	A.67	236.251375	236.521375		time	time
sw3223A-ms98-a-0055	A.67	236.521375	236.710625		and	and
sw3223A-ms98-a-0055	A.67	236.710625	237.181375		[silence]	[silence]
sw3223A-ms98-a-0055	A.67	237.181375	237.591375		[laughter]	[laughter]
sw3223A-ms98-a-0055	A.67	237.591375	237.681375		you	you
sw3223A-ms98-a-0055	A.67	237.681375	237.761375		know	know
sw3223A-ms98-a-0055	A.67	237.761375	237.961375		she's	she's
sw3223A-ms98-a-0055	A.67	237.961375	238.121375		only	only
sw3223A-ms98-a-0055	A.67	238.121375	238.381375		seven	seven
sw3223A-ms98-a-0055	A.67	238.381375	238.561375		years	years
sw3223A-ms98-a-0055	A.67	238.561375	238.871375		old	old
sw3223A-ms98-a-0055	A.67	238.871375	239.121375		so	so
sw3223A-ms98-a-0055	A.69	239.121375	239.939250		[silence]	[silence]
sw3223A-ms98-a-0056	A.69	239.939250	244.763500		[silence]	[silence]
sw3223A-ms98-a-0057	A.69	244.763500	245.293500		[silence]	[silence]
sw3223A-ms98-a-0057	A.69	245.293500	245.583500		Yeah	yeah
sw3223A-ms98-a-0057	A.71	245.583500	246.068875		[silence]	[silence]
sw3223A-ms98-a-0058	A.71	246.068875	249.388250		[silence]	[silence]
sw3223A-ms98-a-0059	A.71	249.388250	249.888250		[silence]	[silence]
sw3223A-ms98-a-0059	A.71	249.888250	250.068250		Yeah	yeah
sw3223A-ms98-a-0059	A.73	250.068250	250.941375		[silence]	[silence]
sw3223A-ms98-a-0060	A.73	250.941375	251.715250		[silence]	[silence]
sw3223A-ms98-a-0060	A.73	251.715250	252.024875		Yeah	yeah
sw3223A-ms98-a-0060	A.73	252.024875	252.121375		[silence]	[silence]
sw3223A-ms98-a-0060	A.73	252.121375	252.331375		yeah	yeah
sw3223A-ms98-a-0060	A.75	252.331375	252.809375		[silence]	[silence]
sw3223A-ms98-a-0061	A.75	252.809375	256.826000		[silence]	[silence]
sw3223A-ms98-a-0062	A.75	256.826000	257.267125		[silence]	[silence]
sw3223A-ms98-a-0062	A.75	257.267125	257.570000		Yeah	yeah
sw3223A-ms98-a-0062	A.75	257.570000	258.156500		[silence]	[silence]
sw3223A-ms98-a-0062	A.75	258.156500	258.239375		well	well
sw3223A-ms98-a-0062	A.75	258.239375	258.386000		that	that
sw3223A-ms98-a-0062	A.75	258.386000	258.556000		[silence]	[silence]
sw3223A-ms98-a-0062	A.75	258.556000	258.686000		that	that
sw3223A-ms98-a-0062	A.75	258.686000	258.906000		seems	seems
sw3223A-ms98-a-0062	A.75	258.906000	258.996000		to	to
sw3223A-ms98-a-0062	A.75	258.996000	259.106000		be	be
sw3223A-ms98-a-0062	A.75	259.106000	259.316000		more	more
sw3223A-ms98-a-0062	A.75	259.316000	259.446000		our	our
sw3223A-ms98-a-0062	A.75	259.446000	259.796000		values	values
sw3223A-ms98-a-0062	A.75	259.796000	260.036000		too	too
sw3223A-ms98-a-0062	A.75	260.036000	260.256000		like	like
sw3223A-ms98-a-0062	A.75	260.256000	260.436000	<DEL>	---	like
sw3223A-ms98-a-0062	A.75	260.436000	260.526000		the	the
sw3223A-ms98-a-0062	A.75	260.526000	260.706000		WONDER	Wonder
sw3223A-ms98-a-0062	A.75	260.706000	260.926000		YEARS	Years
sw3223A-ms98-a-0062	A.75	260.926000	261.026000	<SUB>	I	i-
sw3223A-ms98-a-0062	A.75	261.026000	261.216000		[silence]	[silence]
sw3223A-ms98-a-0062	A.75	261.216000	261.296125		I	i
sw3223A-ms98-a-0062	A.75	261.296125	261.456000		mean	mean
sw3223A-ms98-a-0062	A.75	261.456000	262.143250		[silence]	[silence]
sw3223A-ms98-a-0063	A.75	262.143250	263.063875		[silence]	[silence]
sw3223A-ms98-a-0063	A.75	263.063875	263.155250	<DEL>	---	uh
sw3223A-ms98-a-0063	A.75	263.155250	263.243250		it's	it's
sw3223A-ms98-a-0063	A.75	263.243250	263.543250		[silence]	[silence]
sw3223A-ms98-a-0063	A.75	263.543250	263.723250		kind	kind
sw3223A-ms98-a-0063	A.75	263.723250	263.813250		of	of
sw3223A-ms98-a-0063	A.75	263.813250	264.223250		risque	risque
sw3223A-ms98-a-0063	A.75	264.223250	264.543250		stuff	stuff
sw3223A-ms98-a-0063	A.75	264.543250	264.819875		for	for
sw3223A-ms98-a-0063	A.75	264.819875	264.993250		[silence]	[silence]
sw3223A-ms98-a-0063	A.75	264.993250	265.213250		maybe	maybe
sw3223A-ms98-a-0063	A.75	265.213250	265.353250		for	for
sw3223A-ms98-a-0063	A.75	265.353250	265.913250		teenagers	teenagers
sw3223A-ms98-a-0063	A.75	265.913250	266.023250		you	you
sw3223A-ms98-a-0063	A.75	266.023250	266.153250		know	know
sw3223A-ms98-a-0063	A.75	266.153250	266.337250		or	or
sw3223A-ms98-a-0063	A.75	266.337250	266.525125		[silence]	[silence]
sw3223A-ms98-a-0063	A.75	266.525125	266.743250	<DEL>	---	an[d]-
sw3223A-ms98-a-0063	A.75	266.743250	266.873250		and	and
sw3223A-ms98-a-0063	A.75	266.873250	266.953250		you	you
sw3223A-ms98-a-0063	A.75	266.953250	267.073250		can	can
sw3223A-ms98-a-0063	A.75	267.073250	267.263250		kind	kind
sw3223A-ms98-a-0063	A.75	267.263250	267.323250		of	of
sw3223A-ms98-a-0063	A.75	267.323250	267.683250		relate	relate
sw3223A-ms98-a-0063	A.75	267.683250	267.824000		to	to
sw3223A-ms98-a-0063	A.75	267.824000	268.013250		it	it
sw3223A-ms98-a-0063	A.77	268.013250	268.404125		[silence]	[silence]
sw3223A-ms98-a-0063	A.77	268.404125	268.502125		you	you
sw3223A-ms98-a-0063	A.77	268.502125	268.728125		know	know
sw3223A-ms98-a-0063	A.77	268.728125	269.121125		[silence]	[silence]
sw3223A-ms98-a-0063	A.77	269.121125	269.207500		I	i
sw3223A-ms98-a-0063	A.77	269.207500	269.303250		don't	don't
sw3223A-ms98-a-0063	A.77	269.303250	269.403250		know	know
sw3223A-ms98-a-0063	A.77	269.403250	269.710625		that's	that's
sw3223A-ms98-a-0063	A.77	269.710625	269.974250		[silence]	[silence]
sw3223A-ms98-a-0063	A.77	269.974250	270.082625		I	i
sw3223A-ms98-a-0063	A.77	270.082625	270.418500		enjoy	enjoy
sw3223A-ms98-a-0063	A.77	270.418500	270.575125		that	that
sw3223A-ms98-a-0063	A.77	270.575125	270.636750		a	a
sw3223A-ms98-a-0063	A.77	270.636750	270.925125		lot	lot
sw3223A-ms98-a-0063	A.79	270.925125	271.322000		[silence]	[silence]
sw3223A-ms98-a-0064	A.79	271.322000	271.602000		[silence]	[silence]
sw3223A-ms98-a-0064	A.79	271.602000	271.882000		but	but
sw3223A-ms98-a-0064	A.79	271.882000	272.107375		uh	uh
sw3223A-ms98-a-0064	A.79	272.107375	272.639750		[silence]	[silence]
sw3223A-ms98-a-0064	A.79	272.639750	272.732000		you	you
sw3223A-ms98-a-0064	A.79	272.732000	272.832000		know	know
sw3223A-ms98-a-0064	A.79	272.832000	272.972000	<DEL>	---	i-
sw3223A-ms98-a-0064	A.79	272.972000	273.192000	<DEL>	---	i-
sw3223A-ms98-a-0064	A.79	273.192000	273.402000		[silence]	[silence]
sw3223A-ms98-a-0064	A.79	273.402000	273.540375		I	i
sw3223A-ms98-a-0064	A.79	273.540375	273.721250		agree	agree
sw3223A-ms98-a-0064	A.79	273.721250	273.862000		with	with
sw3223A-ms98-a-0064	A.79	273.862000	273.982000		you	you
sw3223A-ms98-a-0064	A.79	273.982000	274.161000		the	the
sw3223A-ms98-a-0064	A.79	274.161000	274.948125		[silence]	[silence]
sw3223A-ms98-a-0064	A.79	274.948125	274.985750		and	and
sw3223A-ms98-a-0064	A.79	274.985750	275.087000		it's	it's
sw3223A-ms98-a-0064	A.79	275.087000	275.332000		funny	funny
sw3223A-ms98-a-0064	A.79	275.332000	275.662000		because	because
sw3223A-ms98-a-0064	A.79	275.662000	275.752000		the	the
sw3223A-ms98-a-0064	A.79	275.752000	276.286875		shows	shows
sw3223A-ms98-a-0064	A.79	276.286875	276.713500		[silence]	[silence]
sw3223A-ms98-a-0065	A.79	276.713500	277.113500		[silence]	[silence]
sw3223A-ms98-a-0065	A.79	277.113500	277.323500		like	like
sw3223A-ms98-a-0065	A.79	277.323500	277.563500		[silence]	[silence]
sw3223A-ms98-a-0065	A.79	277.563500	277.633500		a	a
sw3223A-ms98-a-0065	A.79	277.633500	277.763500		lot	lot
sw3223A-ms98-a-0065	A.79	277.763500	277.843500		of	of
sw3223A-ms98-a-0065	A.79	277.843500	277.903500		them	them_1
sw3223A-ms98-a-0065	A.79	277.903500	278.063500		that	that
sw3223A-ms98-a-0065	A.79	278.063500	278.243500		used	used
sw3223A-ms98-a-0065	A.79	278.243500	278.303500		to	to
sw3223A-ms98-a-0065	A.79	278.303500	278.393500		be	be
sw3223A-ms98-a-0065	A.79	278.393500	278.763500		considered	considered
sw3223A-ms98-a-0065	A.79	278.763500	279.133500		risque	risque
sw3223A-ms98-a-0065	A.79	279.133500	279.293500		like	like
sw3223A-ms98-a-0065	A.79	279.293500	279.543500		THREE'S	Three's
sw3223A-ms98-a-0065	A.79	279.543500	279.903500		COMPANY	Company
sw3223A-ms98-a-0065	A.79	279.903500	280.003500		and	and
sw3223A-ms98-a-0065	A.79	280.003500	280.337625		stuff	stuff
sw3223A-ms98-a-0065	A.79	280.337625	280.703000		[silence]	[silence]
sw3223A-ms98-a-0065	A.79	280.703000	280.823500		I	i
sw3223A-ms98-a-0065	A.79	280.823500	281.053500		think	think
sw3223A-ms98-a-0065	A.79	281.053500	281.292750		they	they
sw3223A-ms98-a-0065	A.79	281.292750	281.477250		[silence]	[silence]
sw3223A-ms98-a-0065	A.79	281.477250	281.583500		they	they
sw3223A-ms98-a-0065	A.79	281.583500	282.311750		maintained	maintained
sw3223A-ms98-a-0065	A.79	282.311750	282.903500		[silence]	[silence]
sw3223A-ms98-a-0065	A.79	282.903500	283.233500		people	people
sw3223A-ms98-a-0065	A.79	283.233500	283.423500		would	would
sw3223A-ms98-a-0065	A.79	283.423500	283.693500		watch	watch
sw3223A-ms98-a-0065	A.79	283.693500	283.803500		them	them_1
sw3223A-ms98-a-0065	A.79	283.803500	284.303000		because	because
sw3223A-ms98-a-0065	A.79	284.303000	284.403500		there	there
sw3223A-ms98-a-0065	A.79	284.403500	284.553500		was	was
sw3223A-ms98-a-0065	A.79	284.553500	284.742500		that	that
sw3223A-ms98-a-0065	A.79	284.742500	285.249875		[silence]	[silence]
sw3223A-ms98-a-0065	A.79	285.249875	285.591375		uh	uh
sw3223A-ms98-a-0065	A.79	285.591375	285.892250		[silence]	[silence]
sw3223A-ms98-a-0066	A.79	285.892250	286.222250		[silence]	[silence]
sw3223A-ms98-a-0066	A.79	286.222250	286.332250		you	you
sw3223A-ms98-a-0066	A.79	286.332250	286.402250		know	know
sw3223A-ms98-a-0066	A.79	286.402250	286.522250		there	there
sw3223A-ms98-a-0066	A.79	286.522250	286.662250		was	was
sw3223A-ms98-a-0066	A.79	286.662250	286.942250		really	really
sw3223A-ms98-a-0066	A.79	286.942250	287.062250		the	the
sw3223A-ms98-a-0066	A.79	287.062250	287.422250		period	period
sw3223A-ms98-a-0066	A.79	287.422250	287.512250		that	that
sw3223A-ms98-a-0066	A.79	287.512250	287.602250		was	was
sw3223A-ms98-a-0066	A.79	287.602250	287.832250		going	going
sw3223A-ms98-a-0066	A.79	287.832250	288.032250		on	on
sw3223A-ms98-a-0066	A.79	288.032250	288.172250		there	there
sw3223A-ms98-a-0066	A.79	288.172250	288.260125		I	i
sw3223A-ms98-a-0066	A.79	288.260125	288.432250		mean	mean
sw3223A-ms98-a-0066	A.79	288.432250	288.615250		[silence]	[silence]
sw3223A-ms98-a-0066	A.79	288.615250	288.692250		he	he
sw3223A-ms98-a-0066	A.79	288.692250	288.932250		really	really
sw3223A-ms98-a-0066	A.79	288.932250	289.112250		wasn't	wasn't
sw3223A-ms98-a-0066	A.79	289.112250	289.312250		messing	messing
sw3223A-ms98-a-0066	A.79	289.312250	289.522250		around	around
sw3223A-ms98-a-0066	A.79	289.522250	289.622250		with	with
sw3223A-ms98-a-0066	A.79	289.622250	289.692250		the	the
sw3223A-ms98-a-0066	A.79	289.692250	289.892250		girls	girls
sw3223A-ms98-a-0066	A.79	289.892250	290.202250		but	but
sw3223A-ms98-a-0066	A.79	290.202250	290.532250		everybody	everybody
sw3223A-ms98-a-0066	A.79	290.532250	290.992250		perceived	perceived
sw3223A-ms98-a-0066	A.79	290.992250	291.132250		him	him
sw3223A-ms98-a-0066	A.79	291.132250	291.292250		that	that
sw3223A-ms98-a-0066	A.79	291.292250	291.472250		way	way
sw3223A-ms98-a-0066	A.79	291.472250	291.582250		and	and
sw3223A-ms98-a-0066	A.79	291.582250	291.812250		stuff	stuff
sw3223A-ms98-a-0066	A.81	291.812250	291.916250		[silence]	[silence]
sw3223A-ms98-a-0067	A.81	291.916250	292.266250		[silence]	[silence]
sw3223A-ms98-a-0067	A.81	292.266250	292.376250		but	but
sw3223A-ms98-a-0067	A.81	292.376250	292.436250		as	as
sw3223A-ms98-a-0067	A.81	292.436250	292.636250		soon	soon
sw3223A-ms98-a-0067	A.81	292.636250	292.826250		as	as
sw3223A-ms98-a-0067	A.81	292.826250	292.916250		you	you
sw3223A-ms98-a-0067	A.81	292.916250	293.006250		know	know
sw3223A-ms98-a-0067	A.81	293.006250	293.146250		he	he
sw3223A-ms98-a-0067	A.81	293.146250	293.316250		went	went
sw3223A-ms98-a-0067	A.81	293.316250	293.386250		to	to
sw3223A-ms98-a-0067	A.81	293.386250	293.566250		move	move
sw3223A-ms98-a-0067	A.81	293.566250	293.696250		in	in
sw3223A-ms98-a-0067	A.81	293.696250	293.806250		with	with
sw3223A-ms98-a-0067	A.81	293.806250	294.026250		another	another
sw3223A-ms98-a-0067	A.81	294.026250	294.206250		girl	girl
sw3223A-ms98-a-0067	A.81	294.206250	294.306250		the	the
sw3223A-ms98-a-0067	A.81	294.306250	294.516250		show	show
sw3223A-ms98-a-0067	A.81	294.516250	294.706250		just	just
sw3223A-ms98-a-0067	A.81	294.706250	295.040375		died	died
sw3223A-ms98-a-0067	A.83	295.040375	295.427250		[silence]	[silence]
sw3223A-ms98-a-0068	A.83	295.427250	295.827250		[silence]	[silence]
sw3223A-ms98-a-0068	A.83	295.827250	296.137250		and	and
sw3223A-ms98-a-0068	A.83	296.137250	296.327250		[silence]	[silence]
sw3223A-ms98-a-0068	A.83	296.327250	296.527250		it's	it's
sw3223A-ms98-a-0068	A.83	296.527250	296.737250		it's	it's
sw3223A-ms98-a-0068	A.83	296.737250	297.097250		interesting	interesting
sw3223A-ms98-a-0068	A.83	297.097250	297.177250	<DEL>	---	th[at]-
sw3223A-ms98-a-0068	A.83	297.177250	297.347250		that	that
sw3223A-ms98-a-0068	A.83	297.347250	297.697250		[silence]	[silence]
sw3223A-ms98-a-0068	A.83	297.697250	297.727250		a	a
sw3223A-ms98-a-0068	A.83	297.727250	297.897250		lot	lot
sw3223A-ms98-a-0068	A.83	297.897250	297.957250		of	of
sw3223A-ms98-a-0068	A.83	297.957250	298.017250		the	the
sw3223A-ms98-a-0068	A.83	298.017250	298.237250		shows	shows
sw3223A-ms98-a-0068	A.83	298.237250	298.297250		are	are
sw3223A-ms98-a-0068	A.83	298.297250	298.467250		that	that
sw3223A-ms98-a-0068	A.83	298.467250	298.807250		way	way
sw3223A-ms98-a-0068	A.83	298.807250	299.554000		[silence]	[silence]
