sw3203B-ms98-a-0001	B.2	0.000000	0.050000		[silence]	[silence]
sw3203B-ms98-a-0001	B.2	0.050000	0.290000		[noise]	[noise]
sw3203B-ms98-a-0001	B.2	0.290000	0.438375		[silence]	[silence]
sw3203B-ms98-a-0002	B.2	0.438375	0.908375		[silence]	[silence]
sw3203B-ms98-a-0002	B.2	0.908375	1.388375		Okay	okay
sw3203B-ms98-a-0002	B.4	1.388375	1.947500		[silence]	[silence]
sw3203B-ms98-a-0003	B.4	1.947500	3.115000		[silence]	[silence]
sw3203B-ms98-a-0004	B.4	3.115000	3.585000		[silence]	[silence]
sw3203B-ms98-a-0004	B.4	3.585000	3.865000		We	we
sw3203B-ms98-a-0004	B.4	3.865000	4.115000		have	have
sw3203B-ms98-a-0004	B.4	4.115000	4.165000		a	a
sw3203B-ms98-a-0004	B.4	4.165000	4.265000		uh	uh
sw3203B-ms98-a-0004	B.4	4.265000	5.175000		[silence]	[silence]
sw3203B-ms98-a-0004	B.4	5.175000	5.465000		four	four
sw3203B-ms98-a-0004	B.4	5.465000	6.035000		bedroom	bedroom
sw3203B-ms98-a-0004	B.4	6.035000	6.605000		split	split
sw3203B-ms98-a-0004	B.4	6.605000	7.415000		[silence]	[silence]
sw3203B-ms98-a-0004	B.4	7.415000	7.785000		brick	brick
sw3203B-ms98-a-0004	B.4	7.785000	8.105000		home	home
sw3203B-ms98-a-0004	B.4	8.105000	8.295000		in	in
sw3203B-ms98-a-0004	B.4	8.295000	8.335000		[silence]	[silence]
sw3203B-ms98-a-0004	B.4	8.335000	8.685000		in	in
sw3203B-ms98-a-0004	B.4	8.685000	9.095000		[silence]	[silence]
sw3203B-ms98-a-0004	B.4	9.095000	9.565000		Richardson	Richardson
sw3203B-ms98-a-0004	B.4	9.565000	10.025000		actually	actually
sw3203B-ms98-a-0004	B.6	10.025000	10.327000		[silence]	[silence]
sw3203B-ms98-a-0005	B.6	10.327000	10.987000		[silence]	[silence]
sw3203B-ms98-a-0005	B.6	10.987000	11.387000		And	and
sw3203B-ms98-a-0005	B.6	11.387000	11.607000		uh	uh
sw3203B-ms98-a-0005	B.6	11.607000	11.637000		[silence]	[silence]
sw3203B-ms98-a-0005	B.6	11.637000	12.327000		[noise]	[noise]
sw3203B-ms98-a-0005	B.6	12.327000	12.527000		we	we
sw3203B-ms98-a-0005	B.6	12.527000	12.747000		bought	bought
sw3203B-ms98-a-0005	B.6	12.747000	12.857000		it	it
sw3203B-ms98-a-0005	B.6	12.857000	13.167000		back	back
sw3203B-ms98-a-0005	B.6	13.167000	13.197000		[silence]	[silence]
sw3203B-ms98-a-0005	B.6	13.197000	13.367000		in	in
sw3203B-ms98-a-0005	B.6	13.367000	13.677000		about	about
sw3203B-ms98-a-0005	B.6	13.677000	14.327000		nineteen	nineteen
sw3203B-ms98-a-0005	B.6	14.327000	14.987000	<CONT>	seventy-three	seventy
sw3203B-ms98-a-0005	B.6	14.987000	15.547000	<CONT>	+++	three
sw3203B-ms98-a-0005	B.6	15.547000	16.029500		[silence]	[silence]
sw3203B-ms98-a-0006	B.6	16.029500	16.559500		[silence]	[silence]
sw3203B-ms98-a-0006	B.6	16.559500	16.859500		So	so
sw3203B-ms98-a-0006	B.6	16.859500	17.039500		we've	we've
sw3203B-ms98-a-0006	B.6	17.039500	17.399500		seen	seen
sw3203B-ms98-a-0006	B.6	17.399500	17.499500		it	it
sw3203B-ms98-a-0006	B.6	17.499500	17.789500	<SUB>	go	gone
sw3203B-ms98-a-0006	B.6	17.789500	17.919500		up	up
sw3203B-ms98-a-0006	B.6	17.919500	17.999500		[silence]	[silence]
sw3203B-ms98-a-0006	B.6	17.999500	18.099500		in	in
sw3203B-ms98-a-0006	B.6	18.099500	18.459500		value	value
sw3203B-ms98-a-0006	B.6	18.459500	18.869500		wise	wise
sw3203B-ms98-a-0006	B.6	18.869500	19.019500		real	real
sw3203B-ms98-a-0006	B.6	19.019500	19.279500		well	well
sw3203B-ms98-a-0006	B.8	19.279500	19.319500		[silence]	[silence]
sw3203B-ms98-a-0006	B.8	19.319500	20.449500		[laughter]	[laughter]
sw3203B-ms98-a-0006	B.8	20.449500	20.819500		Yes	yes
sw3203B-ms98-a-0006	B.10	20.819500	22.849500		[laughter]	[laughter]
sw3203B-ms98-a-0006	B.10	22.849500	23.359500		[silence]	[silence]
sw3203B-ms98-a-0007	B.10	23.359500	24.782000		[silence]	[silence]
sw3203B-ms98-a-0008	B.10	24.782000	25.222000		[silence]	[silence]
sw3203B-ms98-a-0008	B.10	25.222000	25.842000		Yes	yes
sw3203B-ms98-a-0008	B.10	25.842000	25.902000		[silence]	[silence]
sw3203B-ms98-a-0008	B.10	25.902000	26.242000		yes	yes
sw3203B-ms98-a-0008	B.10	26.242000	26.412000		It	it
sw3203B-ms98-a-0008	B.10	26.412000	26.552000		[silence]	[silence]
sw3203B-ms98-a-0008	B.10	26.552000	26.732000		it	it
sw3203B-ms98-a-0008	B.10	26.732000	26.982000		looks	looks
sw3203B-ms98-a-0008	B.10	26.982000	27.252000		like	like
sw3203B-ms98-a-0008	B.10	27.252000	27.462000		all	all
sw3203B-ms98-a-0008	B.10	27.462000	27.572000		[silence]	[silence]
sw3203B-ms98-a-0008	B.10	27.572000	27.682000		the	the
sw3203B-ms98-a-0008	B.10	27.682000	27.962000		others	others
sw3203B-ms98-a-0008	B.10	27.962000	28.212000		[silence]	[silence]
sw3203B-ms98-a-0008	B.10	28.212000	28.672000		It's	it's
sw3203B-ms98-a-0008	B.10	28.672000	28.772000		uh	uh
sw3203B-ms98-a-0008	B.12	28.772000	29.274375		[silence]	[silence]
sw3203B-ms98-a-0009	B.12	29.274375	30.700250		[silence]	[silence]
sw3203B-ms98-a-0010	B.12	30.700250	31.170250		[silence]	[silence]
sw3203B-ms98-a-0010	B.12	31.170250	31.730250		Uh-huh	uh-huh
sw3203B-ms98-a-0010	B.14	31.730250	32.203125		[silence]	[silence]
sw3203B-ms98-a-0011	B.14	32.203125	38.619000		[silence]	[silence]
sw3203B-ms98-a-0012	B.14	38.619000	39.149000		[silence]	[silence]
sw3203B-ms98-a-0012	B.14	39.149000	39.399000		Oh	oh
sw3203B-ms98-a-0012	B.14	39.399000	39.479000		I	i
sw3203B-ms98-a-0012	B.14	39.479000	39.649000		know	know
sw3203B-ms98-a-0012	B.14	39.649000	39.809000		where	where
sw3203B-ms98-a-0012	B.14	39.809000	40.049000		that	that
sw3203B-ms98-a-0012	B.14	40.049000	40.469000		is	is
sw3203B-ms98-a-0012	B.14	40.469000	40.859000		Yeah	yeah
sw3203B-ms98-a-0012	B.16	40.859000	41.344625		[silence]	[silence]
sw3203B-ms98-a-0013	B.16	41.344625	49.205875		[silence]	[silence]
sw3203B-ms98-a-0014	B.16	49.205875	49.745875		[silence]	[silence]
sw3203B-ms98-a-0014	B.16	49.745875	50.015875		Yes	yes
sw3203B-ms98-a-0014	B.16	50.015875	50.175875		you're	you're
sw3203B-ms98-a-0014	B.16	50.175875	50.485875		in	in
sw3203B-ms98-a-0014	B.16	50.485875	50.685875		the	the
sw3203B-ms98-a-0014	B.16	50.685875	50.865875		the	the
sw3203B-ms98-a-0014	B.16	50.865875	51.245875		styles	styles
sw3203B-ms98-a-0014	B.16	51.245875	51.355875		that	that
sw3203B-ms98-a-0014	B.16	51.355875	51.485875		they	they
sw3203B-ms98-a-0014	B.16	51.485875	51.605875		have	have
sw3203B-ms98-a-0014	B.16	51.605875	51.965875		started	started
sw3203B-ms98-a-0014	B.16	51.965875	52.305875		building	building
sw3203B-ms98-a-0014	B.16	52.305875	52.425875		in	in
sw3203B-ms98-a-0014	B.16	52.425875	52.485875		the	the
sw3203B-ms98-a-0014	B.16	52.485875	52.735875		last	last
sw3203B-ms98-a-0014	B.16	52.735875	52.945875		couple	couple
sw3203B-ms98-a-0014	B.16	52.945875	53.275875		years	years
sw3203B-ms98-a-0014	B.16	53.275875	53.385875		with	with
sw3203B-ms98-a-0014	B.16	53.385875	53.495875		the	the
sw3203B-ms98-a-0014	B.16	53.495875	53.885875		[silence]	[silence]
sw3203B-ms98-a-0014	B.16	53.885875	54.075875		real	real
sw3203B-ms98-a-0014	B.16	54.075875	54.285875		high	high
sw3203B-ms98-a-0014	B.16	54.285875	54.935875		ceilings	ceilings
sw3203B-ms98-a-0014	B.18	54.935875	55.215875		and	and
sw3203B-ms98-a-0014	B.18	55.215875	55.525875		[silence]	[silence]
sw3203B-ms98-a-0014	B.18	55.525875	55.835875		uh-huh	uh-huh
sw3203B-ms98-a-0014	B.18	55.835875	56.315875		[silence]	[silence]
sw3203B-ms98-a-0014	B.18	56.315875	56.575875	<SUB>	Thou-	tho[se]-
sw3203B-ms98-a-0014	B.18	56.575875	56.815875		those	those
sw3203B-ms98-a-0014	B.18	56.815875	56.875875		are	are
sw3203B-ms98-a-0014	B.18	56.875875	57.445875		lovely	lovely
sw3203B-ms98-a-0014	B.20	57.445875	57.832125		[silence]	[silence]
sw3203B-ms98-a-0015	B.20	57.832125	74.362500		[silence]	[silence]
sw3203B-ms98-a-0016	B.20	74.362500	74.992500		[silence]	[silence]
sw3203B-ms98-a-0016	B.20	74.992500	75.172500		Oh	oh
sw3203B-ms98-a-0016	B.20	75.172500	75.662500		Oh	oh
sw3203B-ms98-a-0016	B.20	75.662500	75.752500		nice	nice
sw3203B-ms98-a-0016	B.22	75.752500	77.317750		[silence]	[silence]
sw3203B-ms98-a-0017	B.22	77.317750	82.773625		[silence]	[silence]
sw3203B-ms98-a-0018	B.22	82.773625	83.213625		[silence]	[silence]
sw3203B-ms98-a-0018	B.22	83.213625	84.013625		Yes	yes
sw3203B-ms98-a-0018	B.24	84.013625	84.223625		[silence]	[silence]
sw3203B-ms98-a-0018	B.24	84.223625	84.243625		[noise]	[noise]
sw3203B-ms98-a-0018	B.24	84.243625	84.278875		[silence]	[silence]
sw3203B-ms98-a-0019	B.24	84.278875	86.368000		[silence]	[silence]
sw3203B-ms98-a-0020	B.24	86.368000	86.998000		[silence]	[silence]
sw3203B-ms98-a-0020	B.24	86.998000	87.068000	<DEL>	---	um
sw3203B-ms98-a-0020	B.24	87.068000	87.288000		Have	have
sw3203B-ms98-a-0020	B.24	87.288000	87.468000		you	you
sw3203B-ms98-a-0020	B.24	87.468000	87.558000		[silence]	[silence]
sw3203B-ms98-a-0020	B.24	87.558000	87.818000		um	um
sw3203B-ms98-a-0020	B.24	87.818000	88.498000		[silence]	[silence]
sw3203B-ms98-a-0020	B.24	88.498000	88.788000		found	found
sw3203B-ms98-a-0020	B.24	88.788000	88.848000		in	in
sw3203B-ms98-a-0020	B.24	88.848000	89.178000		talking	talking
sw3203B-ms98-a-0020	B.24	89.178000	89.248000		to	to
sw3203B-ms98-a-0020	B.24	89.248000	89.418000		your	your
sw3203B-ms98-a-0020	B.24	89.418000	89.878000		neighbors	neighbors
sw3203B-ms98-a-0020	B.24	89.878000	89.908000		[silence]	[silence]
sw3203B-ms98-a-0020	B.24	89.908000	90.198000		that	that
sw3203B-ms98-a-0020	B.24	90.198000	90.428000		your	your
sw3203B-ms98-a-0020	B.24	90.428000	91.118000		utilities	utilities
sw3203B-ms98-a-0020	B.24	91.118000	91.178000		are	are
sw3203B-ms98-a-0020	B.24	91.178000	91.358000		quite	quite
sw3203B-ms98-a-0020	B.24	91.358000	91.398000		a	a
sw3203B-ms98-a-0020	B.24	91.398000	91.548000		bit	bit
sw3203B-ms98-a-0020	B.24	91.548000	91.838000		higher	higher
sw3203B-ms98-a-0020	B.24	91.838000	91.948000		with	with
sw3203B-ms98-a-0020	B.24	91.948000	92.108000		those	those
sw3203B-ms98-a-0020	B.24	92.108000	92.298000		high	high
sw3203B-ms98-a-0020	B.24	92.298000	92.918000		ceilings	ceilings
sw3203B-ms98-a-0020	B.26	92.918000	93.310125		[silence]	[silence]
sw3203B-ms98-a-0021	B.26	93.310125	95.032250		[silence]	[silence]
sw3203B-ms98-a-0022	B.26	95.032250	95.622250		[silence]	[silence]
sw3203B-ms98-a-0022	B.26	95.622250	95.862250		Are	are
sw3203B-ms98-a-0022	B.26	95.862250	96.002250		they	they
sw3203B-ms98-a-0022	B.28	96.002250	96.512250		[silence]	[silence]
sw3203B-ms98-a-0022	B.28	96.512250	96.862250		Uh-huh	uh-huh
sw3203B-ms98-a-0022	B.28	96.862250	97.202250		[silence]	[silence]
sw3203B-ms98-a-0022	B.28	97.202250	97.342250		Well	well
sw3203B-ms98-a-0022	B.28	97.342250	97.402250		I	i
sw3203B-ms98-a-0022	B.28	97.402250	97.542250		would	would
sw3203B-ms98-a-0022	B.28	97.542250	98.082250		expect	expect
sw3203B-ms98-a-0022	B.28	98.082250	98.362250		so	so
sw3203B-ms98-a-0022	B.28	98.362250	98.522250		I	i
sw3203B-ms98-a-0022	B.28	98.522250	98.722250		have	have
sw3203B-ms98-a-0022	B.28	98.722250	99.022250		wondered	wondered
sw3203B-ms98-a-0022	B.28	99.022250	99.342250		about	about
sw3203B-ms98-a-0022	B.28	99.342250	99.472250		the	the
sw3203B-ms98-a-0022	B.28	99.472250	100.192250		cooling	cooling
sw3203B-ms98-a-0022	B.28	100.192250	100.312250		and	and
sw3203B-ms98-a-0022	B.28	100.312250	100.372250		the	the
sw3203B-ms98-a-0022	B.28	100.372250	100.782250		heating	heating
sw3203B-ms98-a-0022	B.30	100.782250	100.962250		[silence]	[silence]
sw3203B-ms98-a-0022	B.30	100.962250	101.762250		Especially	especially
sw3203B-ms98-a-0022	B.30	101.762250	101.852250		the	the
sw3203B-ms98-a-0022	B.30	101.852250	102.482250		cooling	cooling
sw3203B-ms98-a-0022	B.32	102.482250	102.929000		[silence]	[silence]
sw3203B-ms98-a-0023	B.32	102.929000	106.871375		[silence]	[silence]
sw3203B-ms98-a-0024	B.32	106.871375	107.431375		[silence]	[silence]
sw3203B-ms98-a-0024	B.32	107.431375	107.841375		Wow	wow
sw3203B-ms98-a-0024	B.32	107.841375	108.271375		Uh-huh	uh-huh
sw3203B-ms98-a-0024	B.34	108.271375	108.824000		[silence]	[silence]
sw3203B-ms98-a-0025	B.34	108.824000	110.142750		[silence]	[silence]
sw3203B-ms98-a-0026	B.34	110.142750	110.632750		[silence]	[silence]
sw3203B-ms98-a-0026	B.34	110.632750	110.792750		Well	well
sw3203B-ms98-a-0026	B.34	110.792750	110.922750		how	how
sw3203B-ms98-a-0026	B.34	110.922750	111.082750		many	many
sw3203B-ms98-a-0026	B.34	111.082750	111.452750		bedrooms	bedrooms
sw3203B-ms98-a-0026	B.34	111.452750	111.562750		do	do
sw3203B-ms98-a-0026	B.34	111.562750	111.682750		you	you
sw3203B-ms98-a-0026	B.34	111.682750	111.872750		have	have
sw3203B-ms98-a-0026	B.34	111.872750	111.962750		in	in
sw3203B-ms98-a-0026	B.34	111.962750	112.082750		your	your
sw3203B-ms98-a-0026	B.34	112.082750	112.372750		home	home
sw3203B-ms98-a-0026	B.36	112.372750	112.804125		[silence]	[silence]
sw3203B-ms98-a-0027	B.36	112.804125	122.470625		[silence]	[silence]
sw3203B-ms98-a-0028	B.36	122.470625	122.970625		[silence]	[silence]
sw3203B-ms98-a-0028	B.36	122.970625	123.110625		Oh	oh
sw3203B-ms98-a-0028	B.36	123.110625	123.420625		uh-huh	uh-huh
sw3203B-ms98-a-0028	B.38	123.420625	123.866375		[silence]	[silence]
sw3203B-ms98-a-0029	B.38	123.866375	125.905750		[silence]	[silence]
sw3203B-ms98-a-0030	B.38	125.905750	126.395750		[silence]	[silence]
sw3203B-ms98-a-0030	B.38	126.395750	126.545750		Oh	oh
sw3203B-ms98-a-0030	B.38	126.545750	126.675750		how	how
sw3203B-ms98-a-0030	B.38	126.675750	127.425750		nice	nice
sw3203B-ms98-a-0030	B.38	127.425750	127.715750		Huh	huh
sw3203B-ms98-a-0030	B.40	127.715750	128.217750		[silence]	[silence]
sw3203B-ms98-a-0031	B.40	128.217750	129.543250		[silence]	[silence]
sw3203B-ms98-a-0032	B.40	129.543250	130.113250		[silence]	[silence]
sw3203B-ms98-a-0032	B.40	130.113250	130.503250		Uh-huh	uh-huh
sw3203B-ms98-a-0032	B.44	130.503250	130.981250		[silence]	[silence]
sw3203B-ms98-a-0033	B.44	130.981250	132.565000		[silence]	[silence]
sw3203B-ms98-a-0034	B.44	132.565000	134.155000		[silence]	[silence]
sw3203B-ms98-a-0034	B.44	134.155000	134.245000		[laughter]	[laughter]
sw3203B-ms98-a-0034	B.44	134.245000	134.425000		That's	that's
sw3203B-ms98-a-0034	B.44	134.425000	134.455000		a	a
sw3203B-ms98-a-0034	B.44	134.455000	134.605000		pretty	pretty
sw3203B-ms98-a-0034	B.44	134.605000	134.755000		good	good
sw3203B-ms98-a-0034	B.44	134.755000	135.095000		size	size
sw3203B-ms98-a-0034	B.44	135.095000	135.225000		room	room
sw3203B-ms98-a-0034	B.46	135.225000	135.995250		[silence]	[silence]
sw3203B-ms98-a-0035	B.46	135.995250	136.965250		[silence]	[silence]
sw3203B-ms98-a-0035	B.46	136.965250	137.055250	<DEL>	---	well
sw3203B-ms98-a-0035	B.46	137.055250	137.365250		That's	that's
sw3203B-ms98-a-0035	B.46	137.365250	137.845250		neat	neat
sw3203B-ms98-a-0035	B.50	137.845250	138.199000		[silence]	[silence]
sw3203B-ms98-a-0036	B.50	138.199000	140.600750		[silence]	[silence]
sw3203B-ms98-a-0037	B.50	140.600750	142.080750		[silence]	[silence]
sw3203B-ms98-a-0037	B.50	142.080750	142.320750		[laughter]	[laughter]
sw3203B-ms98-a-0037	B.50	142.320750	142.455875		[silence]	[silence]
sw3203B-ms98-a-0038	B.50	142.455875	142.925875		[silence]	[silence]
sw3203B-ms98-a-0038	B.50	142.925875	143.025875		Well	well
sw3203B-ms98-a-0038	B.50	143.025875	143.155875		it	it
sw3203B-ms98-a-0038	B.50	143.155875	143.455875		sounds	sounds
sw3203B-ms98-a-0038	B.50	143.455875	143.605875		like	like
sw3203B-ms98-a-0038	B.50	143.605875	143.665875		a	a
sw3203B-ms98-a-0038	B.50	143.665875	143.935875		real	real
sw3203B-ms98-a-0038	B.50	143.935875	144.385875		nice	nice
sw3203B-ms98-a-0038	B.50	144.385875	144.685875		one	one
sw3203B-ms98-a-0038	B.52	144.685875	145.158125		[silence]	[silence]
sw3203B-ms98-a-0039	B.52	145.158125	147.599000		[silence]	[silence]
sw3203B-ms98-a-0040	B.52	147.599000	148.149000		[silence]	[silence]
sw3203B-ms98-a-0040	B.52	148.149000	148.619000		Right	right
sw3203B-ms98-a-0040	B.52	148.619000	149.039000		[silence]	[silence]
sw3203B-ms98-a-0040	B.52	149.039000	149.139000		Where	where
sw3203B-ms98-a-0040	B.52	149.139000	149.309000		did	did
sw3203B-ms98-a-0040	B.52	149.309000	149.379000		you	you
sw3203B-ms98-a-0040	B.52	149.379000	149.619000		move	move
sw3203B-ms98-a-0040	B.52	149.619000	150.069000		from	from
sw3203B-ms98-a-0040	B.54	150.069000	150.808000		[silence]	[silence]
sw3203B-ms98-a-0041	B.54	150.808000	151.668000		[silence]	[silence]
sw3203B-ms98-a-0041	B.54	151.668000	151.828000		Oh	oh
sw3203B-ms98-a-0041	B.54	151.828000	152.668000		uh-huh	uh-huh
sw3203B-ms98-a-0041	B.56	152.668000	153.253250		[silence]	[silence]
sw3203B-ms98-a-0042	B.56	153.253250	153.903250		[silence]	[silence]
sw3203B-ms98-a-0042	B.56	153.903250	154.333250		Uh-huh	uh-huh
sw3203B-ms98-a-0042	B.56	154.333250	154.383250		[silence]	[silence]
sw3203B-ms98-a-0042	B.56	154.383250	154.503250		Do	do
sw3203B-ms98-a-0042	B.56	154.503250	154.613250		you	you
sw3203B-ms98-a-0042	B.56	154.613250	154.813250		like	like
sw3203B-ms98-a-0042	B.56	154.813250	154.873250		the	the
sw3203B-ms98-a-0042	B.56	154.873250	155.213250		Dallas	Dallas
sw3203B-ms98-a-0042	B.56	155.213250	155.533250		area	area
sw3203B-ms98-a-0042	B.58	155.533250	156.160375		[silence]	[silence]
sw3203B-ms98-a-0043	B.58	156.160375	156.970375		[silence]	[silence]
sw3203B-ms98-a-0043	B.58	156.970375	157.130375		And	and
sw3203B-ms98-a-0043	B.58	157.130375	157.220375		I	i
sw3203B-ms98-a-0043	B.58	157.220375	157.220375	<INS>	would	---
sw3203B-ms98-a-0043	B.58	157.220375	157.640375		imagine	imagine
sw3203B-ms98-a-0043	B.58	157.640375	157.810375		that	that
sw3203B-ms98-a-0043	B.58	157.810375	157.930375		you	you
sw3203B-ms98-a-0043	B.58	157.930375	158.050375		have	have
sw3203B-ms98-a-0043	B.58	158.050375	158.420375		found	found
sw3203B-ms98-a-0043	B.58	158.420375	158.580375		that	that
sw3203B-ms98-a-0043	B.58	158.580375	158.650375		[silence]	[silence]
sw3203B-ms98-a-0043	B.58	158.650375	158.780375		the	the
sw3203B-ms98-a-0043	B.58	158.780375	158.880375		[silence]	[silence]
sw3203B-ms98-a-0043	B.58	158.880375	159.380375		homes	homes
sw3203B-ms98-a-0043	B.58	159.380375	159.530375		[silence]	[silence]
sw3203B-ms98-a-0043	B.58	159.530375	159.560375	<SUB>	down	uh
sw3203B-ms98-a-0043	B.58	159.560375	159.850375		here	here
sw3203B-ms98-a-0043	B.58	159.850375	159.930375		[silence]	[silence]
sw3203B-ms98-a-0043	B.58	159.930375	160.320375		are	are
sw3203B-ms98-a-0043	B.58	160.320375	160.420375		uh	uh
sw3203B-ms98-a-0043	B.58	160.420375	161.250375		[silence]	[silence]
sw3203B-ms98-a-0043	B.58	161.250375	161.280375		a	a
sw3203B-ms98-a-0043	B.58	161.280375	161.500375		much	much
sw3203B-ms98-a-0043	B.58	161.500375	161.750375		better	better
sw3203B-ms98-a-0043	B.58	161.750375	162.210375		value	value
sw3203B-ms98-a-0043	B.58	162.210375	162.470375		down	down
sw3203B-ms98-a-0043	B.58	162.470375	162.710375		here	here
sw3203B-ms98-a-0043	B.60	162.710375	163.060375		[silence]	[silence]
sw3203B-ms98-a-0043	B.60	163.060375	163.220375		aren't	aren't
sw3203B-ms98-a-0043	B.60	163.220375	163.350375		they	they
sw3203B-ms98-a-0043	B.60	163.350375	163.650375		than	than
sw3203B-ms98-a-0043	B.60	163.650375	163.740375		[silence]	[silence]
sw3203B-ms98-a-0043	B.60	163.740375	164.020375	<SUB>	they	there
sw3203B-ms98-a-0043	B.60	164.020375	164.020375	<INS>	are	---
sw3203B-ms98-a-0043	B.62	164.020375	164.418750		[silence]	[silence]
sw3203B-ms98-a-0044	B.62	164.418750	167.170250		[silence]	[silence]
sw3203B-ms98-a-0045	B.62	167.170250	167.690250		[silence]	[silence]
sw3203B-ms98-a-0045	B.62	167.690250	167.820250		Oh	oh
sw3203B-ms98-a-0045	B.62	167.820250	168.050250		really	really
sw3203B-ms98-a-0045	B.64	168.050250	168.200250		Now	now
sw3203B-ms98-a-0045	B.64	168.200250	168.430250		that's	that's
sw3203B-ms98-a-0045	B.64	168.430250	169.170250		interesting	interesting
sw3203B-ms98-a-0045	B.66	169.170250	169.530125		[silence]	[silence]
sw3203B-ms98-a-0046	B.66	169.530125	178.655375		[silence]	[silence]
sw3203B-ms98-a-0047	B.66	178.655375	179.275375		[silence]	[silence]
sw3203B-ms98-a-0047	B.66	179.275375	179.635375	<SUB>	Uh-huh	um-hum
sw3203B-ms98-a-0047	B.68	179.635375	180.050250		[silence]	[silence]
sw3203B-ms98-a-0048	B.68	180.050250	183.971250		[silence]	[silence]
sw3203B-ms98-a-0049	B.68	183.971250	184.521250		[silence]	[silence]
sw3203B-ms98-a-0049	B.68	184.521250	184.701250		[noise]	[noise]
sw3203B-ms98-a-0049	B.68	184.701250	184.791250	<DEL>	---	well
sw3203B-ms98-a-0049	B.68	184.791250	184.841250		[silence]	[silence]
sw3203B-ms98-a-0049	B.68	184.841250	185.041250		That's	that's
sw3203B-ms98-a-0049	B.68	185.041250	185.431250		interesting	interesting
sw3203B-ms98-a-0049	B.68	185.431250	185.701250		because	because
sw3203B-ms98-a-0049	B.68	185.701250	185.831250		I've	i've
sw3203B-ms98-a-0049	B.68	185.831250	186.051250		heard	heard
sw3203B-ms98-a-0049	B.68	186.051250	186.141250		so	so
sw3203B-ms98-a-0049	B.68	186.141250	186.331250		many	many
sw3203B-ms98-a-0049	B.68	186.331250	186.691250		people	people
sw3203B-ms98-a-0049	B.68	186.691250	186.961250		down	down
sw3203B-ms98-a-0049	B.68	186.961250	187.241250		here	here
sw3203B-ms98-a-0049	B.68	187.241250	187.571250		say	say
sw3203B-ms98-a-0049	B.68	187.571250	187.741250		that	that
sw3203B-ms98-a-0049	B.68	187.741250	188.231250		[silence]	[silence]
sw3203B-ms98-a-0049	B.68	188.231250	188.331250		they	they
sw3203B-ms98-a-0049	B.68	188.331250	188.531250		don't	don't
sw3203B-ms98-a-0049	B.68	188.531250	188.701250		feel	feel
sw3203B-ms98-a-0049	B.68	188.701250	188.871250		like	like
sw3203B-ms98-a-0049	B.68	188.871250	188.931250		the	the
sw3203B-ms98-a-0049	B.68	188.931250	189.391250		quality	quality
sw3203B-ms98-a-0049	B.68	189.391250	189.491250		of	of
sw3203B-ms98-a-0049	B.68	189.491250	189.571250		the	the
sw3203B-ms98-a-0049	B.68	189.571250	190.091250		homes	homes
sw3203B-ms98-a-0049	B.68	190.091250	190.261250		you	you
sw3203B-ms98-a-0049	B.68	190.261250	190.371250		know	know
sw3203B-ms98-a-0049	B.68	190.371250	190.511250		are	are
sw3203B-ms98-a-0049	B.68	190.511250	190.761250		that	that
sw3203B-ms98-a-0049	B.68	190.761250	190.991250		good	good
sw3203B-ms98-a-0049	B.68	190.991250	191.251250		down	down
sw3203B-ms98-a-0049	B.68	191.251250	191.591250		here	here
sw3203B-ms98-a-0049	B.70	191.591250	192.451250		[silence]	[silence]
sw3203B-ms98-a-0049	B.70	192.451250	192.721250		And	and
sw3203B-ms98-a-0049	B.70	192.721250	192.861250		uh	uh
sw3203B-ms98-a-0049	B.70	192.861250	193.021250		so	so
sw3203B-ms98-a-0049	B.70	193.021250	193.241250		that's	that's
sw3203B-ms98-a-0049	B.70	193.241250	193.881250		interesting	interesting
sw3203B-ms98-a-0049	B.74	193.881250	194.303875		[silence]	[silence]
sw3203B-ms98-a-0050	B.74	194.303875	203.588625		[silence]	[silence]
sw3203B-ms98-a-0051	B.74	203.588625	205.328625		[silence]	[silence]
sw3203B-ms98-a-0051	B.74	205.328625	205.698625		[laughter]	[laughter]
sw3203B-ms98-a-0051	B.74	205.698625	206.070750		[silence]	[silence]
sw3203B-ms98-a-0052	B.74	206.070750	207.280750		[silence]	[silence]
sw3203B-ms98-a-0052	B.74	207.280750	207.350750	<DEL>	---	oh
sw3203B-ms98-a-0052	B.74	207.350750	207.480750		Well	well
sw3203B-ms98-a-0052	B.74	207.480750	207.770750		that's	that's
sw3203B-ms98-a-0052	B.74	207.770750	208.260750		good	good
sw3203B-ms98-a-0052	B.76	208.260750	209.240750		[silence]	[silence]
sw3203B-ms98-a-0052	B.76	209.240750	209.340750		Well	well
sw3203B-ms98-a-0052	B.76	209.340750	209.420750		I	i
sw3203B-ms98-a-0052	B.76	209.420750	209.550750		know	know
sw3203B-ms98-a-0052	B.76	209.550750	209.610750	<SUB>	as	our
sw3203B-ms98-a-0052	B.76	209.610750	209.610750	<INS>	I	---
sw3203B-ms98-a-0052	B.76	209.610750	209.710750		as	as
sw3203B-ms98-a-0052	B.76	209.710750	210.020750		I	i
sw3203B-ms98-a-0052	B.76	210.020750	210.150750		[silence]	[silence]
sw3203B-ms98-a-0052	B.76	210.150750	210.390750		said	said
sw3203B-ms98-a-0052	B.76	210.390750	210.520750		our	our
sw3203B-ms98-a-0052	B.76	210.520750	210.780750		house	house
sw3203B-ms98-a-0052	B.76	210.780750	210.900750		is	is
sw3203B-ms98-a-0052	B.76	210.900750	211.170750		about	about
sw3203B-ms98-a-0052	B.76	211.170750	211.650750		seventeen	seventeen
sw3203B-ms98-a-0052	B.76	211.650750	211.940750		years	years
sw3203B-ms98-a-0052	B.76	211.940750	212.330750		old	old
sw3203B-ms98-a-0052	B.76	212.330750	212.390750		[silence]	[silence]
sw3203B-ms98-a-0052	B.76	212.390750	212.770750		and	and
sw3203B-ms98-a-0052	B.76	212.770750	212.910750		uh	uh
sw3203B-ms98-a-0052	B.76	212.910750	213.434625		[silence]	[silence]
sw3203B-ms98-a-0053	B.76	213.434625	213.644625		[silence]	[silence]
sw3203B-ms98-a-0053	B.76	213.644625	213.804625		we've	we've
sw3203B-ms98-a-0053	B.76	213.804625	213.974625		been	been
sw3203B-ms98-a-0053	B.76	213.974625	214.174625		very	very
sw3203B-ms98-a-0053	B.76	214.174625	214.564625		pleased	pleased
sw3203B-ms98-a-0053	B.76	214.564625	214.724625		with	with
sw3203B-ms98-a-0053	B.76	214.724625	214.804625		it	it
sw3203B-ms98-a-0053	B.76	214.804625	214.824625		[silence]	[silence]
sw3203B-ms98-a-0053	B.76	214.824625	215.004625		We've	we've
sw3203B-ms98-a-0053	B.76	215.004625	215.274625		had	had
sw3203B-ms98-a-0053	B.76	215.274625	215.444625		[silence]	[silence]
sw3203B-ms98-a-0053	B.76	215.444625	215.644625		no	no
sw3203B-ms98-a-0053	B.76	215.644625	215.954625		major	major
sw3203B-ms98-a-0053	B.76	215.954625	216.464625		problems	problems
sw3203B-ms98-a-0053	B.76	216.464625	216.634625		with	with
sw3203B-ms98-a-0053	B.76	216.634625	216.744625		it	it
sw3203B-ms98-a-0053	B.76	216.744625	217.024625		[silence]	[silence]
sw3203B-ms98-a-0053	B.76	217.024625	217.214625		Knock	knock
sw3203B-ms98-a-0053	B.76	217.214625	217.404625		on	on
sw3203B-ms98-a-0053	B.76	217.404625	217.674625		wood	wood
sw3203B-ms98-a-0053	B.78	217.674625	217.844625		[silence]	[silence]
sw3203B-ms98-a-0053	B.78	217.844625	218.714625		[laughter]	[laughter]
sw3203B-ms98-a-0053	B.78	218.714625	219.104625		And	and
sw3203B-ms98-a-0053	B.78	219.104625	219.254625		uh	uh
sw3203B-ms98-a-0053	B.78	219.254625	219.714875		[silence]	[silence]
sw3203B-ms98-a-0054	B.78	219.714875	219.914875		[silence]	[silence]
sw3203B-ms98-a-0054	B.78	219.914875	220.034875		you	you
sw3203B-ms98-a-0054	B.78	220.034875	220.164875		know	know
sw3203B-ms98-a-0054	B.78	220.164875	220.334875		it	it
sw3203B-ms98-a-0054	B.78	220.334875	220.514875		is	is
sw3203B-ms98-a-0054	B.78	220.514875	220.584875		[silence]	[silence]
sw3203B-ms98-a-0054	B.78	220.584875	220.804875		with	with
sw3203B-ms98-a-0054	B.78	220.804875	221.084875		[silence]	[silence]
sw3203B-ms98-a-0054	B.78	221.084875	221.274875	<SUB>	uh	huh
sw3203B-ms98-a-0054	B.78	221.274875	221.894875	<SUB>	with	withstood
sw3203B-ms98-a-0054	B.78	221.894875	221.894875	<INS>	the	---
sw3203B-ms98-a-0054	B.78	221.894875	222.064875		[silence]	[silence]
sw3203B-ms98-a-0054	B.78	222.064875	222.164875		you	you
sw3203B-ms98-a-0054	B.78	222.164875	222.264875		know	know
sw3203B-ms98-a-0054	B.78	222.264875	222.424875		two	two
sw3203B-ms98-a-0054	B.78	222.424875	222.754875		children	children
sw3203B-ms98-a-0054	B.78	222.754875	223.024875		growing	growing
sw3203B-ms98-a-0054	B.78	223.024875	223.174875		up	up
sw3203B-ms98-a-0054	B.78	223.174875	223.264875		and	and
sw3203B-ms98-a-0054	B.78	223.264875	223.404875		now	now
sw3203B-ms98-a-0054	B.78	223.404875	223.494875		[silence]	[silence]
sw3203B-ms98-a-0054	B.78	223.494875	223.734875		three	three
sw3203B-ms98-a-0054	B.78	223.734875	224.374875		grandsons	grandsons
sw3203B-ms98-a-0054	B.78	224.374875	224.684875		roaming	roaming
sw3203B-ms98-a-0054	B.78	224.684875	224.884875		through	through
sw3203B-ms98-a-0054	B.78	224.884875	224.994875		it	it
sw3203B-ms98-a-0054	B.80	224.994875	225.124875		all	all
sw3203B-ms98-a-0054	B.80	225.124875	225.194875		the	the
sw3203B-ms98-a-0054	B.80	225.194875	225.504875		time	time
sw3203B-ms98-a-0054	B.80	225.504875	225.594875		[silence]	[silence]
sw3203B-ms98-a-0054	B.80	225.594875	226.284875		So	so
sw3203B-ms98-a-0054	B.80	226.284875	226.584875		[silence]	[silence]
sw3203B-ms98-a-0054	B.80	226.584875	226.694875		and	and
sw3203B-ms98-a-0054	B.80	226.694875	226.774875		we	we
sw3203B-ms98-a-0054	B.80	226.774875	226.984875		like	like
sw3203B-ms98-a-0054	B.80	226.984875	227.044875		our	our
sw3203B-ms98-a-0054	B.80	227.044875	227.524875		neighborhood	neighborhood
sw3203B-ms98-a-0054	B.80	227.524875	227.664875		It	it
sw3203B-ms98-a-0054	B.80	227.664875	227.734875		[silence]	[silence]
sw3203B-ms98-a-0054	B.80	227.734875	227.974875		it	it
sw3203B-ms98-a-0054	B.82	227.974875	228.044875		[silence]	[silence]
sw3203B-ms98-a-0054	B.82	228.044875	228.284875		has	has
sw3203B-ms98-a-0054	B.82	228.284875	228.444875		[silence]	[silence]
sw3203B-ms98-a-0054	B.82	228.444875	228.604875		has	has
sw3203B-ms98-a-0054	B.82	228.604875	228.954875		grown	grown
sw3203B-ms98-a-0054	B.82	228.954875	229.274875		and	and
sw3203B-ms98-a-0054	B.82	229.274875	229.334875		the	the
sw3203B-ms98-a-0054	B.82	229.334875	229.734875		majority	majority
sw3203B-ms98-a-0054	B.82	229.734875	229.794875		of	of
sw3203B-ms98-a-0054	B.82	229.794875	229.854875		the	the
sw3203B-ms98-a-0054	B.82	229.854875	230.254875		people	people
sw3203B-ms98-a-0054	B.82	230.254875	230.654875		[silence]	[silence]
sw3203B-ms98-a-0054	B.82	230.654875	230.764875		you	you
sw3203B-ms98-a-0054	B.82	230.764875	230.844875		know	know
sw3203B-ms98-a-0054	B.82	230.844875	231.094875		keep	keep
sw3203B-ms98-a-0054	B.82	231.094875	231.244875		up	up
sw3203B-ms98-a-0054	B.82	231.244875	231.324875		the	the
sw3203B-ms98-a-0054	B.82	231.324875	231.994875		neighborhood	neighborhood
sw3203B-ms98-a-0054	B.84	231.994875	232.515625		[silence]	[silence]
sw3203B-ms98-a-0055	B.84	232.515625	233.075625		[silence]	[silence]
sw3203B-ms98-a-0055	B.84	233.075625	233.235625		And	and
sw3203B-ms98-a-0055	B.84	233.235625	233.415625		that's	that's
sw3203B-ms98-a-0055	B.84	233.415625	233.725625		very	very
sw3203B-ms98-a-0055	B.84	233.725625	234.215625		important	important
sw3203B-ms98-a-0055	B.84	234.215625	234.375625		and	and
sw3203B-ms98-a-0055	B.84	234.375625	234.525625		and	and
sw3203B-ms98-a-0055	B.84	234.525625	234.635625		as	as
sw3203B-ms98-a-0055	B.84	234.635625	234.675625		I	i
sw3203B-ms98-a-0055	B.84	234.675625	234.895625		said	said
sw3203B-ms98-a-0055	B.84	234.895625	235.035625		it	it
sw3203B-ms98-a-0055	B.84	235.035625	235.165625		it	it
sw3203B-ms98-a-0055	B.84	235.165625	235.405625		has	has
sw3203B-ms98-a-0055	B.84	235.405625	235.715625		ris-	ris[en]-
sw3203B-ms98-a-0055	B.84	235.715625	236.095625		[silence]	[silence]
sw3203B-ms98-a-0055	B.84	236.095625	236.365625		risen	risen
sw3203B-ms98-a-0055	B.84	236.365625	236.495625		in	in
sw3203B-ms98-a-0055	B.84	236.495625	237.085625		value	value
sw3203B-ms98-a-0055	B.86	237.085625	237.421625		[silence]	[silence]
sw3203B-ms98-a-0056	B.86	237.421625	237.751625		[silence]	[silence]
sw3203B-ms98-a-0056	B.86	237.751625	237.941625		But	but
sw3203B-ms98-a-0056	B.86	237.941625	238.081625		we	we
sw3203B-ms98-a-0056	B.86	238.081625	238.311625		bought	bought
sw3203B-ms98-a-0056	B.86	238.311625	238.581625		back	back
sw3203B-ms98-a-0056	B.86	238.581625	238.721625		when	when
sw3203B-ms98-a-0056	B.86	238.721625	239.121625		housing	housing
sw3203B-ms98-a-0056	B.86	239.121625	239.251625		was	was
sw3203B-ms98-a-0056	B.86	239.251625	239.611625		so	so
sw3203B-ms98-a-0056	B.86	239.611625	240.141625		[silence]	[silence]
sw3203B-ms98-a-0056	B.86	240.141625	240.551625		low	low
sw3203B-ms98-a-0056	B.88	240.551625	241.001625		[silence]	[silence]
sw3203B-ms98-a-0056	B.88	241.001625	241.431625		and	and
sw3203B-ms98-a-0056	B.88	241.431625	241.511625		you	you
sw3203B-ms98-a-0056	B.88	241.511625	241.621625		know	know
sw3203B-ms98-a-0056	B.88	241.621625	242.051625		[silence]	[silence]
sw3203B-ms98-a-0056	B.88	242.051625	242.151625		and	and
sw3203B-ms98-a-0056	B.88	242.151625	242.351625		now	now
sw3203B-ms98-a-0056	B.88	242.351625	242.471625		i-	i[t]-
sw3203B-ms98-a-0056	B.88	242.471625	242.621625		you	you
sw3203B-ms98-a-0056	B.88	242.621625	242.711625		know	know
sw3203B-ms98-a-0056	B.88	242.711625	242.951625		[silence]	[silence]
sw3203B-ms98-a-0056	B.88	242.951625	243.041625	<SUB>	i-	it
sw3203B-ms98-a-0056	B.88	243.041625	243.131625		[silence]	[silence]
sw3203B-ms98-a-0056	B.88	243.131625	243.231625		then	then
sw3203B-ms98-a-0056	B.88	243.231625	243.321625		it	it
sw3203B-ms98-a-0056	B.88	243.321625	243.611625		started	started
sw3203B-ms98-a-0056	B.88	243.611625	243.971625		jumping	jumping
sw3203B-ms98-a-0056	B.88	243.971625	244.081625		by	by
sw3203B-ms98-a-0056	B.88	244.081625	244.421625		leaps	leaps
sw3203B-ms98-a-0056	B.88	244.421625	244.541625		and	and
sw3203B-ms98-a-0056	B.88	244.541625	245.101625		bounds	bounds
sw3203B-ms98-a-0056	B.90	245.101625	245.601625		[silence]	[silence]
sw3203B-ms98-a-0056	B.90	245.601625	245.711625		It	it
sw3203B-ms98-a-0056	B.90	245.711625	245.941625		seems	seems
sw3203B-ms98-a-0056	B.90	245.941625	246.011625		to	to
sw3203B-ms98-a-0056	B.90	246.011625	246.131625		have	have
sw3203B-ms98-a-0056	B.90	246.131625	246.461625		leveled	leveled
sw3203B-ms98-a-0056	B.90	246.461625	246.691625		off	off
sw3203B-ms98-a-0056	B.90	246.691625	246.841625		and	and
sw3203B-ms98-a-0056	B.90	246.841625	247.171625		[silence]	[silence]
sw3203B-ms98-a-0056	B.90	247.171625	247.421625		actually	actually
sw3203B-ms98-a-0056	B.90	247.421625	247.671625		dropped	dropped
sw3203B-ms98-a-0056	B.90	247.671625	247.861625		back	back
sw3203B-ms98-a-0056	B.90	247.861625	248.151625		down	down
sw3203B-ms98-a-0056	B.90	248.151625	248.181625		a	a
sw3203B-ms98-a-0056	B.90	248.181625	248.381625		little	little
sw3203B-ms98-a-0056	B.90	248.381625	248.701625		bit	bit
sw3203B-ms98-a-0056	B.92	248.701625	248.821625		[silence]	[silence]
sw3203B-ms98-a-0056	B.92	248.821625	249.011625		but	but
sw3203B-ms98-a-0056	B.92	249.011625	249.191625		we're	we're
sw3203B-ms98-a-0056	B.92	249.191625	249.431625		still	still
sw3203B-ms98-a-0056	B.92	249.431625	249.841625		fine	fine
sw3203B-ms98-a-0056	B.94	249.841625	250.309000		[silence]	[silence]
sw3203B-ms98-a-0057	B.94	250.309000	251.209000		[silence]	[silence]
sw3203B-ms98-a-0057	B.94	251.209000	251.649000		Uh-huh	uh-huh
sw3203B-ms98-a-0057	B.94	251.649000	252.109000		[silence]	[silence]
sw3203B-ms98-a-0057	B.94	252.109000	252.489000		uh-huh	uh-huh
sw3203B-ms98-a-0057	B.96	252.489000	253.063250		[silence]	[silence]
sw3203B-ms98-a-0058	B.96	253.063250	254.389000		[silence]	[silence]
sw3203B-ms98-a-0059	B.96	254.389000	254.829000		[silence]	[silence]
sw3203B-ms98-a-0059	B.96	254.829000	255.309000		Yes	yes
sw3203B-ms98-a-0059	B.98	255.309000	255.449000		[silence]	[silence]
sw3203B-ms98-a-0059	B.98	255.449000	256.589000		[laughter]	[laughter]
sw3203B-ms98-a-0059	B.98	256.589000	256.631125		[silence]	[silence]
sw3203B-ms98-a-0060	B.98	256.631125	261.515250		[silence]	[silence]
sw3203B-ms98-a-0061	B.98	261.515250	261.945250		[silence]	[silence]
sw3203B-ms98-a-0061	B.98	261.945250	262.105250		It	it
sw3203B-ms98-a-0061	B.98	262.105250	262.365250		should	should
sw3203B-ms98-a-0061	B.98	262.365250	262.605250		bring	bring
sw3203B-ms98-a-0061	B.98	262.605250	262.735250		up	up
sw3203B-ms98-a-0061	B.98	262.735250	262.885250		your	your
sw3203B-ms98-a-0061	B.98	262.885250	262.915250		[silence]	[silence]
sw3203B-ms98-a-0061	B.98	262.915250	262.965250	<DEL>	---	v[alues]-
sw3203B-ms98-a-0061	B.98	262.965250	263.025250		[silence]	[silence]
sw3203B-ms98-a-0061	B.98	263.025250	263.475250		property	property
sw3203B-ms98-a-0061	B.98	263.475250	263.855250		values	values
sw3203B-ms98-a-0061	B.98	263.855250	263.895250		a	a
sw3203B-ms98-a-0061	B.98	263.895250	264.055250		little	little
sw3203B-ms98-a-0061	B.98	264.055250	264.355250		bit	bit
sw3203B-ms98-a-0061	B.100	264.355250	264.625250		[silence]	[silence]
sw3203B-ms98-a-0061	B.100	264.625250	264.765250		Your	your
sw3203B-ms98-a-0061	B.100	264.765250	265.405250		pricing	pricing
sw3203B-ms98-a-0061	B.102	265.405250	265.831125		[silence]	[silence]
sw3203B-ms98-a-0062	B.102	265.831125	267.320875		[silence]	[silence]
sw3203B-ms98-a-0063	B.102	267.320875	267.730875		[silence]	[silence]
sw3203B-ms98-a-0063	B.102	267.730875	268.140875		Uh-huh	uh-huh
sw3203B-ms98-a-0063	B.104	268.140875	268.750875		[silence]	[silence]
sw3203B-ms98-a-0063	B.104	268.750875	268.860875		I	i
sw3203B-ms98-a-0063	B.104	268.860875	269.100875		think	think
sw3203B-ms98-a-0063	B.104	269.100875	269.640875		once	once
sw3203B-ms98-a-0063	B.104	269.640875	269.760875		[silence]	[silence]
sw3203B-ms98-a-0063	B.104	269.760875	269.910875		the	the
sw3203B-ms98-a-0063	B.104	269.910875	270.100875		[silence]	[silence]
sw3203B-ms98-a-0063	B.104	270.100875	270.590875		economic	economic
sw3203B-ms98-a-0063	B.104	270.590875	271.160875		situation	situation
sw3203B-ms98-a-0063	B.104	271.160875	271.350875		in	in
sw3203B-ms98-a-0063	B.104	271.350875	271.770875		[silence]	[silence]
sw3203B-ms98-a-0063	B.104	271.770875	271.830875		the	the
sw3203B-ms98-a-0063	B.104	271.830875	272.310875		Dallas	Dallas
sw3203B-ms98-a-0063	B.104	272.310875	272.360875		[silence]	[silence]
sw3203B-ms98-a-0063	B.104	272.360875	272.760875		area	area
sw3203B-ms98-a-0063	B.106	272.760875	273.440875		[silence]	[silence]
sw3203B-ms98-a-0063	B.106	273.440875	274.060875		improves	improves
sw3203B-ms98-a-0063	B.106	274.060875	274.180875		[silence]	[silence]
sw3203B-ms98-a-0063	B.106	274.180875	274.220875		I	i
sw3203B-ms98-a-0063	B.106	274.220875	274.510875		think	think
sw3203B-ms98-a-0063	B.106	274.510875	274.510875	<INS>	the	---
sw3203B-ms98-a-0063	B.106	274.510875	274.560875		[silence]	[silence]
sw3203B-ms98-a-0063	B.106	274.560875	274.970875		housing	housing
sw3203B-ms98-a-0063	B.106	274.970875	275.080875		will	will
sw3203B-ms98-a-0063	B.106	275.080875	275.270875		go	go
sw3203B-ms98-a-0063	B.106	275.270875	275.370875		[silence]	[silence]
sw3203B-ms98-a-0063	B.106	275.370875	275.670875		up	up
sw3203B-ms98-a-0063	B.108	275.670875	276.351000		[silence]	[silence]
sw3203B-ms98-a-0064	B.108	276.351000	277.131000		[silence]	[silence]
sw3203B-ms98-a-0064	B.108	277.131000	277.321000		You	you
sw3203B-ms98-a-0064	B.108	277.321000	277.521000		know	know
sw3203B-ms98-a-0064	B.108	277.521000	277.701000		[silence]	[silence]
sw3203B-ms98-a-0064	B.108	277.701000	277.901000		Right	right
sw3203B-ms98-a-0064	B.108	277.901000	278.241000		now	now
sw3203B-ms98-a-0064	B.108	278.241000	278.811000		[silence]	[silence]
sw3203B-ms98-a-0064	B.108	278.811000	279.051000		there's	there's
sw3203B-ms98-a-0064	B.108	279.051000	279.121000		a	a
sw3203B-ms98-a-0064	B.108	279.121000	279.411000		lot	lot
sw3203B-ms98-a-0064	B.108	279.411000	279.521000		on	on
sw3203B-ms98-a-0064	B.108	279.521000	279.581000		the	the
sw3203B-ms98-a-0064	B.108	279.581000	279.941000		market	market
sw3203B-ms98-a-0064	B.108	279.941000	280.061000		for	for
sw3203B-ms98-a-0064	B.108	280.061000	280.491000		sale	sale
sw3203B-ms98-a-0064	B.108	280.491000	280.781000		because	because
sw3203B-ms98-a-0064	B.108	280.781000	280.851000		of	of
sw3203B-ms98-a-0064	B.108	280.851000	281.151000		people	people
sw3203B-ms98-a-0064	B.108	281.151000	281.461000		having	having
sw3203B-ms98-a-0064	B.108	281.461000	281.741000		lost	lost
sw3203B-ms98-a-0064	B.108	281.741000	281.861000		their	their
sw3203B-ms98-a-0064	B.108	281.861000	282.351000		jobs	jobs
sw3203B-ms98-a-0064	B.110	282.351000	282.461000		and	and
sw3203B-ms98-a-0064	B.110	282.461000	282.811000		everything	everything
sw3203B-ms98-a-0064	B.110	282.811000	282.961000		so	so
sw3203B-ms98-a-0064	B.110	282.961000	283.341000		that's	that's
sw3203B-ms98-a-0064	B.110	283.341000	283.481000		you	you
sw3203B-ms98-a-0064	B.110	283.481000	283.631000		know	know
sw3203B-ms98-a-0064	B.110	283.631000	284.211000		[silence]	[silence]
sw3203B-ms98-a-0064	B.110	284.211000	284.371000		that	that
sw3203B-ms98-a-0064	B.110	284.371000	284.621000		keeps	keeps
sw3203B-ms98-a-0064	B.110	284.621000	284.681000	<DEL>	---	the
sw3203B-ms98-a-0064	B.110	284.681000	285.041000		prices	prices
sw3203B-ms98-a-0064	B.110	285.041000	285.061000		[silence]	[silence]
sw3203B-ms98-a-0064	B.110	285.061000	285.541000		down	down
sw3203B-ms98-a-0064	B.112	285.541000	286.000625		[silence]	[silence]
sw3203B-ms98-a-0065	B.112	286.000625	286.380625		[silence]	[silence]
sw3203B-ms98-a-0065	B.112	286.380625	286.540625		and	and
sw3203B-ms98-a-0065	B.112	286.540625	286.880625		value	value
sw3203B-ms98-a-0065	B.112	286.880625	287.100625		down	down
sw3203B-ms98-a-0065	B.112	287.100625	287.270625		and	and
sw3203B-ms98-a-0065	B.112	287.270625	287.330625	<SUB>	I'm	i
sw3203B-ms98-a-0065	B.112	287.330625	287.660625		[silence]	[silence]
sw3203B-ms98-a-0065	B.112	287.660625	287.890625		sure	sure
sw3203B-ms98-a-0065	B.112	287.890625	287.980625		the	the
sw3203B-ms98-a-0065	B.112	287.980625	288.580625	<SUB>	packs	tax
sw3203B-ms98-a-0065	B.112	288.580625	288.710625		uh	uh
sw3203B-ms98-a-0065	B.112	288.710625	289.220625		[silence]	[silence]
sw3203B-ms98-a-0065	B.112	289.220625	289.320625		or	or
sw3203B-ms98-a-0065	B.112	289.320625	289.690625	<DEL>	---	appraisal
sw3203B-ms98-a-0065	B.112	289.690625	290.240625	<DEL>	---	district
sw3203B-ms98-a-0065	B.112	290.240625	290.350625		would	would
sw3203B-ms98-a-0065	B.112	290.350625	290.540625		like	like
sw3203B-ms98-a-0065	B.112	290.540625	290.550625		[silence]	[silence]
sw3203B-ms98-a-0065	B.112	290.550625	290.700625		for	for
sw3203B-ms98-a-0065	B.112	290.700625	290.780625		it	it
sw3203B-ms98-a-0065	B.112	290.780625	290.840625		to	to
sw3203B-ms98-a-0065	B.112	290.840625	290.880625		[silence]	[silence]
sw3203B-ms98-a-0065	B.112	290.880625	291.080625		go	go
sw3203B-ms98-a-0065	B.112	291.080625	291.380625		up	up
sw3203B-ms98-a-0065	B.116	291.380625	294.130625		[laughter]	[laughter]
sw3203B-ms98-a-0065	B.116	294.130625	294.473750		[silence]	[silence]
sw3203B-ms98-a-0066	B.116	294.473750	295.393750		[silence]	[silence]
sw3203B-ms98-a-0066	B.116	295.393750	295.643750		That's	that's
sw3203B-ms98-a-0066	B.116	295.643750	295.783750		right	[laughter-right]
sw3203B-ms98-a-0066	B.118	295.783750	296.543750		[silence]	[silence]
sw3203B-ms98-a-0066	B.118	296.543750	296.803750		That's	that's
sw3203B-ms98-a-0066	B.118	296.803750	296.843750		[silence]	[silence]
sw3203B-ms98-a-0066	B.118	296.843750	297.183750		right	right
sw3203B-ms98-a-0066	B.118	297.183750	298.113750		[silence]	[silence]
sw3203B-ms98-a-0066	B.118	298.113750	298.263750		[laughter]	[laughter]
sw3203B-ms98-a-0066	B.118	298.263750	299.522000		[silence]	[silence]
