sw3236A-ms98-a-0001	A.1	0.000000	0.000000		[silence]	[silence]
sw3236A-ms98-a-0001	A.1	0.000000	0.172750		[noise]	[noise]
sw3236A-ms98-a-0001	A.1	0.172750	0.226125		Why	why
sw3236A-ms98-a-0001	A.1	0.226125	0.282750		don't	don't
sw3236A-ms98-a-0001	A.1	0.282750	0.400000		you	you
sw3236A-ms98-a-0001	A.1	0.400000	0.495250		go	go
sw3236A-ms98-a-0001	A.1	0.495250	0.743375		ahead	ahead
sw3236A-ms98-a-0001	A.1	0.743375	0.902250		and	and
sw3236A-ms98-a-0001	A.1	0.902250	1.076625		say	say
sw3236A-ms98-a-0001	A.1	1.076625	1.353750		what	what
sw3236A-ms98-a-0001	A.1	1.353750	1.692875		[silence]	[silence]
sw3236A-ms98-a-0001	A.1	1.692875	1.817125		you	you
sw3236A-ms98-a-0001	A.1	1.817125	2.170000		feel	feel
sw3236A-ms98-a-0001	A.1	2.170000	2.367750		and	and
sw3236A-ms98-a-0001	A.1	2.367750	2.510875		[silence]	[silence]
sw3236A-ms98-a-0001	A.1	2.510875	2.660000		then	then
sw3236A-ms98-a-0001	A.1	2.660000	2.848750		I'll	i'll
sw3236A-ms98-a-0001	A.1	2.848750	3.101000		[silence]	[silence]
sw3236A-ms98-a-0001	A.1	3.101000	3.704125		respond	respond
sw3236A-ms98-a-0001	A.3	3.704125	3.986375		[laughter]	[laughter]
sw3236A-ms98-a-0001	A.3	3.986375	4.590500		[silence]	[silence]
sw3236A-ms98-a-0002	A.3	4.590500	22.259000		[silence]	[silence]
sw3236A-ms98-a-0003	A.3	22.259000	22.852250		[silence]	[silence]
sw3236A-ms98-a-0003	A.3	22.852250	23.193750		Yeah	yeah
sw3236A-ms98-a-0003	A.5	23.193750	23.667000		[silence]	[silence]
sw3236A-ms98-a-0004	A.5	23.667000	28.064125		[silence]	[silence]
sw3236A-ms98-a-0005	A.5	28.064125	28.597250		[silence]	[silence]
sw3236A-ms98-a-0005	A.5	28.597250	28.704125		Well	well
sw3236A-ms98-a-0005	A.5	28.704125	28.884125		how	how
sw3236A-ms98-a-0005	A.5	28.884125	29.064125		long	long
sw3236A-ms98-a-0005	A.5	29.064125	29.164125		have	have
sw3236A-ms98-a-0005	A.5	29.164125	29.294125		you	you
sw3236A-ms98-a-0005	A.5	29.294125	29.514125		been	been
sw3236A-ms98-a-0005	A.5	29.514125	29.765875		here	here
sw3236A-ms98-a-0005	A.7	29.765875	30.217750		[silence]	[silence]
sw3236A-ms98-a-0006	A.7	30.217750	31.734000		[silence]	[silence]
sw3236A-ms98-a-0007	A.7	31.734000	31.937875		[silence]	[silence]
sw3236A-ms98-a-0007	A.7	31.937875	32.254000		[noise]	[noise]
sw3236A-ms98-a-0007	A.7	32.254000	32.966125		Well	well
sw3236A-ms98-a-0007	A.9	32.966125	33.807500		[laughter]	[laughter]
sw3236A-ms98-a-0007	A.9	33.807500	34.046000		[silence]	[silence]
sw3236A-ms98-a-0008	A.9	34.046000	34.665375		[silence]	[silence]
sw3236A-ms98-a-0008	A.9	34.665375	35.126875		Yeah	yeah
sw3236A-ms98-a-0008	A.11	35.126875	35.921250		[silence]	[silence]
sw3236A-ms98-a-0009	A.11	35.921250	36.609000		[silence]	[silence]
sw3236A-ms98-a-0009	A.11	36.609000	36.924000		[noise]	[noise]
sw3236A-ms98-a-0009	A.11	36.924000	37.376250		[silence]	[silence]
sw3236A-ms98-a-0010	A.11	37.376250	40.054625		[silence]	[silence]
sw3236A-ms98-a-0011	A.11	40.054625	40.605125		[silence]	[silence]
sw3236A-ms98-a-0011	A.11	40.605125	41.086250		Yeah	[laughter-yeah]
sw3236A-ms98-a-0011	A.11	41.086250	41.278375		[silence]	[silence]
sw3236A-ms98-a-0011	A.11	41.278375	41.424625		I	i
sw3236A-ms98-a-0011	A.11	41.424625	41.634625		think	think
sw3236A-ms98-a-0011	A.11	41.634625	41.864625		that's	that's
sw3236A-ms98-a-0011	A.11	41.864625	41.934625		a	a
sw3236A-ms98-a-0011	A.11	41.934625	42.061625		good	good
sw3236A-ms98-a-0011	A.11	42.061625	42.604000		excuse	excuse
sw3236A-ms98-a-0011	A.11	42.604000	42.694625		You	you
sw3236A-ms98-a-0011	A.11	42.694625	42.864625		need	need
sw3236A-ms98-a-0011	A.11	42.864625	42.964625		to	to
sw3236A-ms98-a-0011	A.11	42.964625	43.144625		get	get
sw3236A-ms98-a-0011	A.11	43.144625	43.504625		into	into
sw3236A-ms98-a-0011	A.11	43.504625	43.614625		the	the
sw3236A-ms98-a-0011	A.13	43.614625	44.174625		[laughter]	[laughter]
sw3236A-ms98-a-0011	A.13	44.174625	44.274625		the	the
sw3236A-ms98-a-0011	A.13	44.274625	44.654625		system	system
sw3236A-ms98-a-0011	A.13	44.654625	44.704625		a	a
sw3236A-ms98-a-0011	A.13	44.704625	44.874625		little	little
sw3236A-ms98-a-0011	A.13	44.874625	45.024625		more	more
sw3236A-ms98-a-0011	A.13	45.024625	45.194625		and	and
sw3236A-ms98-a-0011	A.13	45.194625	45.354625		know	know
sw3236A-ms98-a-0011	A.13	45.354625	45.514625		where	where
sw3236A-ms98-a-0011	A.13	45.514625	45.644625		to	to
sw3236A-ms98-a-0011	A.13	45.644625	45.988875		take	take
sw3236A-ms98-a-0011	A.13	45.988875	46.511375		things	things
sw3236A-ms98-a-0011	A.15	46.511375	46.902750		[silence]	[silence]
sw3236A-ms98-a-0012	A.15	46.902750	47.559000		[silence]	[silence]
sw3236A-ms98-a-0012	A.15	47.559000	47.809500		We've	we've
sw3236A-ms98-a-0012	A.15	47.809500	48.306625		[silence]	[silence]
sw3236A-ms98-a-0012	A.15	48.306625	48.522750		been	been
sw3236A-ms98-a-0012	A.15	48.522750	48.912750		here	here
sw3236A-ms98-a-0012	A.15	48.912750	49.494375		probably	probably
sw3236A-ms98-a-0012	A.15	49.494375	49.675125		[silence]	[silence]
sw3236A-ms98-a-0012	A.15	49.675125	49.782750		two	two
sw3236A-ms98-a-0012	A.15	49.782750	49.882750		and	and
sw3236A-ms98-a-0012	A.15	49.882750	49.942750		a	a
sw3236A-ms98-a-0012	A.15	49.942750	50.222750		half	half
sw3236A-ms98-a-0012	A.15	50.222750	50.602750		years	years
sw3236A-ms98-a-0012	A.15	50.602750	50.702750		[silence]	[silence]
sw3236A-ms98-a-0012	A.15	50.702750	51.044500		and	and
sw3236A-ms98-a-0012	A.15	51.044500	51.431500		[silence]	[silence]
sw3236A-ms98-a-0013	A.15	51.431500	51.993375		[silence]	[silence]
sw3236A-ms98-a-0013	A.15	51.993375	52.091500		and	and
sw3236A-ms98-a-0013	A.15	52.091500	52.191500		we	we
sw3236A-ms98-a-0013	A.15	52.191500	52.371500		didn't	didn't
sw3236A-ms98-a-0013	A.15	52.371500	52.841500		recycle	recycle
sw3236A-ms98-a-0013	A.15	52.841500	52.971500		at	at
sw3236A-ms98-a-0013	A.15	52.971500	53.343250		all	all
sw3236A-ms98-a-0013	A.15	53.343250	53.957250		[silence]	[silence]
sw3236A-ms98-a-0013	A.15	53.957250	54.221500		before	before
sw3236A-ms98-a-0013	A.15	54.221500	54.331500		we	we
sw3236A-ms98-a-0013	A.15	54.331500	54.738125		came	came
sw3236A-ms98-a-0013	A.17	54.738125	55.352125		[silence]	[silence]
sw3236A-ms98-a-0013	A.17	55.352125	55.531500		so	so
sw3236A-ms98-a-0013	A.17	55.531500	55.641500		I	i
sw3236A-ms98-a-0013	A.17	55.641500	55.921500		think	think
sw3236A-ms98-a-0013	A.17	55.921500	56.051500		we're	we're
sw3236A-ms98-a-0013	A.17	56.051500	56.421500		doing	doing
sw3236A-ms98-a-0013	A.17	56.421500	56.691500		well	well
sw3236A-ms98-a-0013	A.17	56.691500	56.936625		We	we
sw3236A-ms98-a-0013	A.17	56.936625	57.211625		[silence]	[silence]
sw3236A-ms98-a-0013	A.17	57.211625	57.441500	<SUB>	we	we've
sw3236A-ms98-a-0013	A.17	57.441500	57.721500	<SUB>	save	saved
sw3236A-ms98-a-0013	A.17	57.721500	57.991500		most	most
sw3236A-ms98-a-0013	A.17	57.991500	58.091500		of	of
sw3236A-ms98-a-0013	A.17	58.091500	58.231500		our	our
sw3236A-ms98-a-0013	A.17	58.231500	58.711500		aluminum	aluminum
sw3236A-ms98-a-0013	A.17	58.711500	59.161500		cans	cans
sw3236A-ms98-a-0013	A.17	59.161500	59.341500		and	and
sw3236A-ms98-a-0013	A.17	59.341500	59.980750		glass	glass
sw3236A-ms98-a-0013	A.19	59.980750	60.105000		[silence]	[silence]
sw3236A-ms98-a-0013	A.19	60.105000	60.241500		and	and
sw3236A-ms98-a-0013	A.19	60.241500	60.841500		newspaper	newspaper
sw3236A-ms98-a-0013	A.19	60.841500	61.101500		right	right
sw3236A-ms98-a-0013	A.19	61.101500	61.376875		now	now
sw3236A-ms98-a-0013	A.21	61.376875	62.123250		[silence]	[silence]
sw3236A-ms98-a-0014	A.21	62.123250	62.876250		[silence]	[silence]
sw3236A-ms98-a-0014	A.21	62.876250	63.838500		[noise]	[noise]
sw3236A-ms98-a-0014	A.21	63.838500	64.267250		Well	well
sw3236A-ms98-a-0014	A.21	64.267250	64.794500		[silence]	[silence]
sw3236A-ms98-a-0014	A.21	64.794500	64.915750		the	the
sw3236A-ms98-a-0014	A.21	64.915750	65.153125		[silence]	[silence]
sw3236A-ms98-a-0014	A.21	65.153125	65.613250		um	um
sw3236A-ms98-a-0014	A.21	65.613250	65.953250		[silence]	[silence]
sw3236A-ms98-a-0014	A.21	65.953250	66.343250		glass	glass
sw3236A-ms98-a-0014	A.21	66.343250	66.433250		and	and
sw3236A-ms98-a-0014	A.21	66.433250	66.503250		the	the
sw3236A-ms98-a-0014	A.21	66.503250	67.103250		newspaper	newspaper
sw3236A-ms98-a-0014	A.21	67.103250	67.233250		we	we
sw3236A-ms98-a-0014	A.21	67.233250	67.543250		usually	usually
sw3236A-ms98-a-0014	A.21	67.543250	67.736250		take	take
sw3236A-ms98-a-0014	A.21	67.736250	67.792750		[silence]	[silence]
sw3236A-ms98-a-0014	A.21	67.792750	67.933250		to	to
sw3236A-ms98-a-0014	A.21	67.933250	68.548500		Walmart	Wal-Mart
sw3236A-ms98-a-0014	A.21	68.548500	68.969125		[silence]	[silence]
sw3236A-ms98-a-0015	A.21	68.969125	69.586625		[silence]	[silence]
sw3236A-ms98-a-0015	A.21	69.586625	69.739125		They	they
sw3236A-ms98-a-0015	A.21	69.739125	70.099125		have	have
sw3236A-ms98-a-0015	A.21	70.099125	70.422875		um	um
sw3236A-ms98-a-0015	A.21	70.422875	71.040625		[silence]	[silence]
sw3236A-ms98-a-0015	A.21	71.040625	71.209125		in	in
sw3236A-ms98-a-0015	A.21	71.209125	71.739125		behind	behind
sw3236A-ms98-a-0015	A.21	71.739125	72.139125		Walmart	Wal-Mart
sw3236A-ms98-a-0015	A.21	72.139125	72.249125		they	they
sw3236A-ms98-a-0015	A.21	72.249125	72.438375		have	have
sw3236A-ms98-a-0015	A.21	72.438375	72.498625		[silence]	[silence]
sw3236A-ms98-a-0015	A.21	72.498625	73.049625		bins	bins
sw3236A-ms98-a-0015	A.23	73.049625	73.515250		[silence]	[silence]
sw3236A-ms98-a-0016	A.23	73.515250	74.007625		[silence]	[silence]
sw3236A-ms98-a-0016	A.23	74.007625	74.465250		and	and
sw3236A-ms98-a-0016	A.23	74.465250	74.685250		then	then
sw3236A-ms98-a-0016	A.23	74.685250	74.877000		we	we
sw3236A-ms98-a-0016	A.23	74.877000	75.483375		usually	usually
sw3236A-ms98-a-0016	A.23	75.483375	75.745250		save	save
sw3236A-ms98-a-0016	A.23	75.745250	75.935250		up	up
sw3236A-ms98-a-0016	A.23	75.935250	76.244375		our	our
sw3236A-ms98-a-0016	A.23	76.244375	76.282000		[silence]	[silence]
sw3236A-ms98-a-0016	A.23	76.282000	76.685250		cans	cans
sw3236A-ms98-a-0016	A.23	76.685250	76.889000		and	and
sw3236A-ms98-a-0016	A.23	76.889000	77.175250		[silence]	[silence]
sw3236A-ms98-a-0016	A.23	77.175250	77.338125		and	and
sw3236A-ms98-a-0016	A.23	77.338125	77.443625		[silence]	[silence]
sw3236A-ms98-a-0016	A.23	77.443625	77.745250		change	change
sw3236A-ms98-a-0016	A.23	77.745250	77.895250		them	them
sw3236A-ms98-a-0016	A.23	77.895250	78.025250		in	in
sw3236A-ms98-a-0016	A.23	78.025250	78.165250		for	for
sw3236A-ms98-a-0016	A.23	78.165250	78.465625		money	money
sw3236A-ms98-a-0016	A.25	78.465625	78.935000		[laughter]	[laughter]
sw3236A-ms98-a-0016	A.25	78.935000	80.154000		[silence]	[silence]
sw3236A-ms98-a-0017	A.25	80.154000	81.063625		[silence]	[silence]
sw3236A-ms98-a-0017	A.25	81.063625	81.434000		[noise]	[noise]
sw3236A-ms98-a-0017	A.25	81.434000	81.872875		[silence]	[silence]
sw3236A-ms98-a-0018	A.25	81.872875	82.575250		[silence]	[silence]
sw3236A-ms98-a-0018	A.25	82.575250	83.006250	<SUB>	Uh-huh	um-hum
sw3236A-ms98-a-0018	A.27	83.006250	83.494125		[silence]	[silence]
sw3236A-ms98-a-0019	A.27	83.494125	84.851125		[silence]	[silence]
sw3236A-ms98-a-0020	A.27	84.851125	85.438250		[silence]	[silence]
sw3236A-ms98-a-0020	A.27	85.438250	85.779125		Um	um
sw3236A-ms98-a-0020	A.27	85.779125	85.819250		[silence]	[silence]
sw3236A-ms98-a-0020	A.27	85.819250	86.001125		there's	there's
sw3236A-ms98-a-0020	A.27	86.001125	86.111125		a	a
sw3236A-ms98-a-0020	A.27	86.111125	86.541250		place	place
sw3236A-ms98-a-0020	A.27	86.541250	86.573250		[silence]	[silence]
sw3236A-ms98-a-0020	A.27	86.573250	86.751125		on	on
sw3236A-ms98-a-0020	A.27	86.751125	87.111125		Parker	Parker
sw3236A-ms98-a-0020	A.27	87.111125	87.622000		Road	Road
sw3236A-ms98-a-0020	A.27	87.622000	88.168125		[silence]	[silence]
sw3236A-ms98-a-0020	A.27	88.168125	88.557000		um	um
sw3236A-ms98-a-0020	A.27	88.557000	89.050375		[silence]	[silence]
sw3236A-ms98-a-0020	A.27	89.050375	89.483250		it's	it's
sw3236A-ms98-a-0020	A.27	89.483250	89.867500		[silence]	[silence]
sw3236A-ms98-a-0020	A.27	89.867500	90.035125		just	just
sw3236A-ms98-a-0020	A.27	90.035125	90.342625		over	over
sw3236A-ms98-a-0020	A.27	90.342625	90.467000		the	the
sw3236A-ms98-a-0020	A.27	90.467000	91.191125		overpass	overpass
sw3236A-ms98-a-0020	A.27	91.191125	91.511125		before	before
sw3236A-ms98-a-0020	A.27	91.511125	91.661125		you	you
sw3236A-ms98-a-0020	A.27	91.661125	91.871125		get	get
sw3236A-ms98-a-0020	A.27	91.871125	92.031125		like	like
sw3236A-ms98-a-0020	A.27	92.031125	92.131125		to	to
sw3236A-ms98-a-0020	A.27	92.131125	92.807375		K-Mart	KMart
sw3236A-ms98-a-0020	A.27	92.807375	93.135750		[silence]	[silence]
sw3236A-ms98-a-0020	A.27	93.135750	93.237375		I	i
sw3236A-ms98-a-0020	A.27	93.237375	93.350375		think	think
sw3236A-ms98-a-0020	A.27	93.350375	93.560125		there's	there's
sw3236A-ms98-a-0020	A.27	93.560125	93.678250		a	a
sw3236A-ms98-a-0020	A.27	93.678250	93.761125		[silence]	[silence]
sw3236A-ms98-a-0020	A.27	93.761125	93.871125		a	a
sw3236A-ms98-a-0020	A.27	93.871125	94.201125		service	service
sw3236A-ms98-a-0020	A.27	94.201125	94.561125		station	station
sw3236A-ms98-a-0020	A.27	94.561125	94.704750		there	there
sw3236A-ms98-a-0020	A.27	94.704750	95.092750		[silence]	[silence]
sw3236A-ms98-a-0020	A.27	95.092750	95.221125		There's	there's
sw3236A-ms98-a-0020	A.27	95.221125	95.661625		usually	usually
sw3236A-ms98-a-0020	A.27	95.661625	95.725625		[silence]	[silence]
sw3236A-ms98-a-0020	A.27	95.725625	95.901125		a	a
sw3236A-ms98-a-0020	A.27	95.901125	96.342625		semi	semi
sw3236A-ms98-a-0020	A.27	96.342625	96.644625		truck	truck
sw3236A-ms98-a-0020	A.27	96.644625	96.936000		[silence]	[silence]
sw3236A-ms98-a-0021	A.27	96.936000	97.356000		[silence]	[silence]
sw3236A-ms98-a-0021	A.27	97.356000	97.546000		that	that
sw3236A-ms98-a-0021	A.27	97.546000	97.906000		has	has
sw3236A-ms98-a-0021	A.27	97.906000	98.062125		a	a
sw3236A-ms98-a-0021	A.27	98.062125	98.928375		[silence]	[silence]
sw3236A-ms98-a-0021	A.27	98.928375	99.056000		a	a
sw3236A-ms98-a-0021	A.27	99.056000	99.709000		person	person
sw3236A-ms98-a-0021	A.27	99.709000	100.112000		[silence]	[silence]
sw3236A-ms98-a-0021	A.27	100.112000	100.326000		there	there
sw3236A-ms98-a-0021	A.27	100.326000	100.456000		that	that
sw3236A-ms98-a-0021	A.27	100.456000	100.656000		will	will
sw3236A-ms98-a-0021	A.27	100.656000	100.766000		weigh	weigh
sw3236A-ms98-a-0021	A.27	100.766000	101.026000		them	them_1
sw3236A-ms98-a-0021	A.27	101.026000	101.171625		and	and
sw3236A-ms98-a-0021	A.29	101.171625	101.817625		[silence]	[silence]
sw3236A-ms98-a-0022	A.29	101.817625	102.840250		[silence]	[silence]
sw3236A-ms98-a-0022	A.29	102.840250	102.987625		Now	now
sw3236A-ms98-a-0022	A.29	102.987625	103.137625		they	they
sw3236A-ms98-a-0022	A.29	103.137625	103.307625		aren't	aren't
sw3236A-ms98-a-0022	A.29	103.307625	103.507625		worth	worth
sw3236A-ms98-a-0022	A.29	103.507625	103.757625		much	much
sw3236A-ms98-a-0022	A.29	103.757625	103.927625		right	right
sw3236A-ms98-a-0022	A.29	103.927625	104.343875		now	now
sw3236A-ms98-a-0022	A.29	104.343875	104.507625		but	but
sw3236A-ms98-a-0022	A.31	104.507625	105.607625		[laughter]	[laughter]
sw3236A-ms98-a-0022	A.31	105.607625	105.777625		it's	it's
sw3236A-ms98-a-0022	A.31	105.777625	106.087625		better	better
sw3236A-ms98-a-0022	A.31	106.087625	106.297625		than	than
sw3236A-ms98-a-0022	A.31	106.297625	106.796625		nothing	[laughter-nothing]
sw3236A-ms98-a-0022	A.31	106.796625	107.079125		[silence]	[silence]
sw3236A-ms98-a-0022	A.31	107.079125	107.301375		so	so
sw3236A-ms98-a-0022	A.33	107.301375	108.057750		[silence]	[silence]
sw3236A-ms98-a-0022	A.33	108.057750	108.420500		and	and
sw3236A-ms98-a-0022	A.33	108.420500	108.540500		[silence]	[silence]
sw3236A-ms98-a-0023	A.33	108.540500	108.842750		[silence]	[silence]
sw3236A-ms98-a-0023	A.33	108.842750	109.020500		what	what
sw3236A-ms98-a-0023	A.33	109.020500	109.050500		I	i
sw3236A-ms98-a-0023	A.33	109.050500	109.451250		hear	hear
sw3236A-ms98-a-0023	A.33	109.451250	109.599500		a	a
sw3236A-ms98-a-0023	A.33	109.599500	109.770500		lot	lot
sw3236A-ms98-a-0023	A.33	109.770500	109.860500		of	of
sw3236A-ms98-a-0023	A.33	109.860500	110.410500		neighborhoods	neighborhoods
sw3236A-ms98-a-0023	A.33	110.410500	110.580500		do	do
sw3236A-ms98-a-0023	A.33	110.580500	110.930500		have	have
sw3236A-ms98-a-0023	A.33	110.930500	111.293000		the	the
sw3236A-ms98-a-0023	A.33	111.293000	111.767500		[silence]	[silence]
sw3236A-ms98-a-0023	A.33	111.767500	111.868625		the	the
sw3236A-ms98-a-0023	A.33	111.868625	111.902625		[silence]	[silence]
sw3236A-ms98-a-0023	A.33	111.902625	112.300500		pickup	pickup
sw3236A-ms98-a-0023	A.33	112.300500	112.630500		now	now
sw3236A-ms98-a-0023	A.33	112.630500	112.820500		and	and
sw3236A-ms98-a-0023	A.33	112.820500	113.063750		we	we
sw3236A-ms98-a-0023	A.33	113.063750	113.700250		[silence]	[silence]
sw3236A-ms98-a-0023	A.33	113.700250	114.120500		hopefully	hopefully
sw3236A-ms98-a-0023	A.33	114.120500	114.270500		we'll	we'll
sw3236A-ms98-a-0023	A.33	114.270500	114.410500		be	be
sw3236A-ms98-a-0023	A.33	114.410500	114.720500		getting	getting
sw3236A-ms98-a-0023	A.33	114.720500	114.880500		them	them
sw3236A-ms98-a-0023	A.33	114.880500	115.000500		in	in
sw3236A-ms98-a-0023	A.33	115.000500	115.060500		the	the
sw3236A-ms98-a-0023	A.33	115.060500	115.290500		month	month
sw3236A-ms98-a-0023	A.33	115.290500	115.380500		of	of
sw3236A-ms98-a-0023	A.33	115.380500	116.010500		October	October
sw3236A-ms98-a-0023	A.35	116.010500	116.254250		[silence]	[silence]
sw3236A-ms98-a-0024	A.35	116.254250	116.750375		[silence]	[silence]
sw3236A-ms98-a-0024	A.35	116.750375	117.116875		[noise]	[noise]
sw3236A-ms98-a-0024	A.35	117.116875	117.468125		[silence]	[silence]
sw3236A-ms98-a-0025	A.35	117.468125	119.693250		[silence]	[silence]
sw3236A-ms98-a-0026	A.35	119.693250	120.222625		[silence]	[silence]
sw3236A-ms98-a-0026	A.35	120.222625	120.473250		Yeah	yeah
sw3236A-ms98-a-0026	A.35	120.473250	121.083250		and	and
sw3236A-ms98-a-0026	A.37	121.083250	122.633250		[laughter]	[laughter]
sw3236A-ms98-a-0026	A.37	122.633250	122.743250		I	i
sw3236A-ms98-a-0026	A.37	122.743250	122.943250		think	think
sw3236A-ms98-a-0026	A.37	122.943250	123.146375		it's	it's
sw3236A-ms98-a-0026	A.37	123.146375	123.187750		[silence]	[silence]
sw3236A-ms98-a-0026	A.37	123.187750	123.343250		been	been
sw3236A-ms98-a-0026	A.37	123.343250	123.733250		delayed	delayed
sw3236A-ms98-a-0026	A.37	123.733250	123.803250		I	i
sw3236A-ms98-a-0026	A.37	123.803250	124.003250		think	think
sw3236A-ms98-a-0026	A.37	124.003250	124.083250		it	it
sw3236A-ms98-a-0026	A.37	124.083250	124.293250		was	was
sw3236A-ms98-a-0026	A.37	124.293250	124.763250		originally	originally
sw3236A-ms98-a-0026	A.37	124.763250	125.203250		scheduled	scheduled
sw3236A-ms98-a-0026	A.37	125.203250	125.333250		for	for
sw3236A-ms98-a-0026	A.37	125.333250	125.963250		February	February
sw3236A-ms98-a-0026	A.37	125.963250	126.071375		but	but
sw3236A-ms98-a-0026	A.37	126.071375	126.393375		[silence]	[silence]
sw3236A-ms98-a-0026	A.37	126.393375	126.453250		the	the
sw3236A-ms98-a-0026	A.37	126.453250	126.963250		trucks	trucks
sw3236A-ms98-a-0026	A.37	126.963250	127.113250		that	that
sw3236A-ms98-a-0026	A.37	127.113250	127.423250		[silence]	[silence]
sw3236A-ms98-a-0026	A.37	127.423250	127.493250		were	were
sw3236A-ms98-a-0026	A.37	127.493250	127.793250		supposed	supposed
sw3236A-ms98-a-0026	A.37	127.793250	127.903250		to	to
sw3236A-ms98-a-0026	A.37	127.903250	128.083250		do	do
sw3236A-ms98-a-0026	A.37	128.083250	128.232250		it	it
sw3236A-ms98-a-0026	A.37	128.232250	128.588250		[silence]	[silence]
sw3236A-ms98-a-0026	A.37	128.588250	128.753250		there's	there's
sw3236A-ms98-a-0026	A.37	128.753250	128.963250		been	been
sw3236A-ms98-a-0026	A.37	128.963250	129.133250		some	some
sw3236A-ms98-a-0026	A.37	129.133250	129.643250		problems	problems
sw3236A-ms98-a-0026	A.37	129.643250	130.017000		with	with
sw3236A-ms98-a-0026	A.39	130.017000	130.463250		[silence]	[silence]
sw3236A-ms98-a-0027	A.39	130.463250	131.137875		[silence]	[silence]
sw3236A-ms98-a-0027	A.39	131.137875	131.313250		from	from
sw3236A-ms98-a-0027	A.39	131.313250	131.463250		what	what
sw3236A-ms98-a-0027	A.39	131.463250	131.663250		I've	i've
sw3236A-ms98-a-0027	A.39	131.663250	131.933250		read	read
sw3236A-ms98-a-0027	A.39	131.933250	132.193250		in	in
sw3236A-ms98-a-0027	A.39	132.193250	132.453250		[silence]	[silence]
sw3236A-ms98-a-0027	A.39	132.453250	132.563250		you	you
sw3236A-ms98-a-0027	A.39	132.563250	132.815125		know	know
sw3236A-ms98-a-0027	A.39	132.815125	132.860375		[silence]	[silence]
sw3236A-ms98-a-0027	A.39	132.860375	133.034625		the	the
sw3236A-ms98-a-0027	A.39	133.034625	133.358500		[silence]	[silence]
sw3236A-ms98-a-0027	A.39	133.358500	133.673250		mail	mail
sw3236A-ms98-a-0027	A.39	133.673250	133.823250		that	that
sw3236A-ms98-a-0027	A.39	133.823250	134.022625		we	we
sw3236A-ms98-a-0027	A.39	134.022625	134.082875		[silence]	[silence]
sw3236A-ms98-a-0027	A.39	134.082875	134.419750		get	get
sw3236A-ms98-a-0027	A.41	134.419750	135.222000		[silence]	[silence]
sw3236A-ms98-a-0027	A.41	135.222000	135.363250		and	and
sw3236A-ms98-a-0027	A.41	135.363250	135.484250		I	i
sw3236A-ms98-a-0027	A.41	135.484250	135.683250		can't	can't
sw3236A-ms98-a-0027	A.41	135.683250	135.893250		wait	wait
sw3236A-ms98-a-0027	A.41	135.893250	136.013250		for	for
sw3236A-ms98-a-0027	A.41	136.013250	136.233250		that	that
sw3236A-ms98-a-0027	A.41	136.233250	136.373250		that	that
sw3236A-ms98-a-0027	A.41	136.373250	136.473250		will	will
sw3236A-ms98-a-0027	A.41	136.473250	136.613250		be	be
sw3236A-ms98-a-0027	A.41	136.613250	137.013250		easy	easy
sw3236A-ms98-a-0027	A.41	137.013250	137.113250		I	i
sw3236A-ms98-a-0027	A.41	137.113250	137.313250		get	get
sw3236A-ms98-a-0027	A.41	137.313250	137.583250		tired	tired
sw3236A-ms98-a-0027	A.41	137.583250	137.663250		of	of
sw3236A-ms98-a-0027	A.41	137.663250	138.213250		newspaper	newspaper
sw3236A-ms98-a-0027	A.41	138.213250	138.663250		littering	littering
sw3236A-ms98-a-0027	A.41	138.663250	138.743250		the	the
sw3236A-ms98-a-0027	A.41	138.743250	140.095875		garage	[laughter-garage]
sw3236A-ms98-a-0027	A.43	140.095875	141.866000		[silence]	[silence]
sw3236A-ms98-a-0028	A.43	141.866000	142.911875		[silence]	[silence]
sw3236A-ms98-a-0028	A.43	142.911875	143.036000		I	i
sw3236A-ms98-a-0028	A.43	143.036000	143.236000		feel	feel
sw3236A-ms98-a-0028	A.43	143.236000	143.536000		guilty	guilty
sw3236A-ms98-a-0028	A.43	143.536000	143.676000		we	we
sw3236A-ms98-a-0028	A.43	143.676000	143.916000		don't	don't
sw3236A-ms98-a-0028	A.43	143.916000	144.346000		recycle	recycle
sw3236A-ms98-a-0028	A.43	144.346000	144.554000		our	our
sw3236A-ms98-a-0028	A.43	144.554000	144.636875		[silence]	[silence]
sw3236A-ms98-a-0028	A.43	144.636875	144.746000		our	our
sw3236A-ms98-a-0028	A.43	144.746000	144.986000		milk	milk
sw3236A-ms98-a-0028	A.43	144.986000	145.586000		containers	containers
sw3236A-ms98-a-0028	A.43	145.586000	145.806000		because	because_1
sw3236A-ms98-a-0028	A.43	145.806000	145.956000		they	they
sw3236A-ms98-a-0028	A.43	145.956000	146.178625		seem	seem
sw3236A-ms98-a-0028	A.43	146.178625	146.374500		like	like
sw3236A-ms98-a-0028	A.43	146.374500	146.456000		a	a
sw3236A-ms98-a-0028	A.43	146.456000	146.676000		big	big
sw3236A-ms98-a-0028	A.43	146.676000	147.231875		waste	waste
sw3236A-ms98-a-0028	A.45	147.231875	147.506250		[silence]	[silence]
sw3236A-ms98-a-0029	A.45	147.506250	147.933750		[silence]	[silence]
sw3236A-ms98-a-0029	A.45	147.933750	148.001500		[noise]	[noise]
sw3236A-ms98-a-0029	A.45	148.001500	148.967375		[silence]	[silence]
sw3236A-ms98-a-0030	A.45	148.967375	149.456125		[silence]	[silence]
sw3236A-ms98-a-0030	A.45	149.456125	149.984250		Yeah	yeah
sw3236A-ms98-a-0030	A.47	149.984250	150.686625		[silence]	[silence]
sw3236A-ms98-a-0030	A.47	150.686625	150.817375		yeah	yeah
sw3236A-ms98-a-0030	A.47	150.817375	150.977375		they	they
sw3236A-ms98-a-0030	A.47	150.977375	151.147375		fill	fill
sw3236A-ms98-a-0030	A.47	151.147375	151.302875		up	up
sw3236A-ms98-a-0030	A.47	151.302875	151.385750		[silence]	[silence]
sw3236A-ms98-a-0030	A.47	151.385750	151.507375		the	the
sw3236A-ms98-a-0030	A.47	151.507375	151.734250		whole	whole
sw3236A-ms98-a-0030	A.47	151.734250	151.809500		[silence]	[silence]
sw3236A-ms98-a-0030	A.47	151.809500	152.557375		kitchen	kitchen
sw3236A-ms98-a-0030	A.47	152.557375	153.208125		garbage	[laughter-garbage]
sw3236A-ms98-a-0030	A.47	153.208125	153.253750		[silence]	[silence]
sw3236A-ms98-a-0030	A.47	153.253750	153.528500	<SUB>	can	pail
sw3236A-ms98-a-0030	A.49	153.528500	154.370750		[silence]	[silence]
sw3236A-ms98-a-0030	A.49	154.370750	154.662250		so	so
sw3236A-ms98-a-0030	A.49	154.662250	154.963500		[silence]	[silence]
sw3236A-ms98-a-0030	A.49	154.963500	155.077375		I'll	i'll
sw3236A-ms98-a-0030	A.49	155.077375	155.177375		be	be
sw3236A-ms98-a-0030	A.49	155.177375	155.467375		glad	glad
sw3236A-ms98-a-0030	A.49	155.467375	155.780000		when	when
sw3236A-ms98-a-0030	A.49	155.780000	156.051125		[silence]	[silence]
sw3236A-ms98-a-0030	A.49	156.051125	156.167375		the	the
sw3236A-ms98-a-0030	A.49	156.167375	156.497375		bins	bins
sw3236A-ms98-a-0030	A.49	156.497375	156.667375		do	do
sw3236A-ms98-a-0030	A.49	156.667375	156.967375		come	come
sw3236A-ms98-a-0030	A.49	156.967375	157.097375		and	and
sw3236A-ms98-a-0030	A.49	157.097375	157.234375		I	i
sw3236A-ms98-a-0030	A.49	157.234375	157.426500		think	think
sw3236A-ms98-a-0030	A.49	157.426500	157.528250		[silence]	[silence]
sw3236A-ms98-a-0030	A.49	157.528250	157.807375		that's	that's
sw3236A-ms98-a-0030	A.49	157.807375	157.977375		when	when
sw3236A-ms98-a-0030	A.49	157.977375	158.197375		I'll	i'll
sw3236A-ms98-a-0030	A.49	158.197375	158.687375		[silence]	[silence]
sw3236A-ms98-a-0030	A.49	158.687375	158.847375		I'll	i'll
sw3236A-ms98-a-0030	A.49	158.847375	159.147375		start	start
sw3236A-ms98-a-0030	A.49	159.147375	159.327375		doing	doing
sw3236A-ms98-a-0030	A.49	159.327375	159.397375		the	the
sw3236A-ms98-a-0030	A.49	159.397375	159.897375		plastic	plastic
sw3236A-ms98-a-0030	A.49	159.897375	160.333125		too	too
sw3236A-ms98-a-0030	A.51	160.333125	160.941250		[silence]	[silence]
sw3236A-ms98-a-0031	A.51	160.941250	168.172250		[silence]	[silence]
sw3236A-ms98-a-0032	A.51	168.172250	168.779625		[silence]	[silence]
sw3236A-ms98-a-0032	A.51	168.779625	169.129875		Yeah	yeah
sw3236A-ms98-a-0032	A.51	169.129875	169.839000		[silence]	[silence]
sw3236A-ms98-a-0033	A.51	169.839000	170.222875		[silence]	[silence]
sw3236A-ms98-a-0033	A.51	170.222875	170.409000		I've	i've
sw3236A-ms98-a-0033	A.51	170.409000	170.639000		gotten	gotten
sw3236A-ms98-a-0033	A.51	170.639000	170.879000		used	used
sw3236A-ms98-a-0033	A.51	170.879000	170.999000		to	to
sw3236A-ms98-a-0033	A.51	170.999000	171.389000		washing	washing
sw3236A-ms98-a-0033	A.51	171.389000	171.585875		the	the
sw3236A-ms98-a-0033	A.51	171.585875	171.947375		[silence]	[silence]
sw3236A-ms98-a-0033	A.51	171.947375	172.029000		you	you
sw3236A-ms98-a-0033	A.51	172.029000	172.179000		know	know
sw3236A-ms98-a-0033	A.51	172.179000	172.397375		the	the
sw3236A-ms98-a-0033	A.51	172.397375	172.894500		[silence]	[silence]
sw3236A-ms98-a-0033	A.51	172.894500	173.249000		um	um
sw3236A-ms98-a-0033	A.51	173.249000	173.519000		[silence]	[silence]
sw3236A-ms98-a-0033	A.51	173.519000	173.859000		salad	salad
sw3236A-ms98-a-0033	A.51	173.859000	174.189000		dressing	dressing
sw3236A-ms98-a-0033	A.51	174.189000	174.730500		bottles	bottles
sw3236A-ms98-a-0033	A.51	174.730500	175.044750		and	[laughter-and]
sw3236A-ms98-a-0033	A.53	175.044750	175.410500		[silence]	[silence]
sw3236A-ms98-a-0033	A.53	175.410500	175.609000		things	things
sw3236A-ms98-a-0033	A.53	175.609000	175.729000		like	like
sw3236A-ms98-a-0033	A.53	175.729000	175.849000		that	that
sw3236A-ms98-a-0033	A.53	175.849000	176.009000		it's	it's
sw3236A-ms98-a-0033	A.53	176.009000	176.219000		not	not
sw3236A-ms98-a-0033	A.53	176.219000	176.409000		that	that
sw3236A-ms98-a-0033	A.53	176.409000	176.549000		big	big
sw3236A-ms98-a-0033	A.53	176.549000	176.609000		of	of
sw3236A-ms98-a-0033	A.53	176.609000	176.679000		a	a
sw3236A-ms98-a-0033	A.53	176.679000	176.929000		deal	deal
sw3236A-ms98-a-0033	A.53	176.929000	177.009000	<SUB>	and	i
sw3236A-ms98-a-0033	A.53	177.009000	177.099000	<DEL>	---	mean
sw3236A-ms98-a-0033	A.53	177.099000	177.239000		it's	it's
sw3236A-ms98-a-0033	A.53	177.239000	177.579000		nicer	nicer
sw3236A-ms98-a-0033	A.53	177.579000	177.699000		to	to
sw3236A-ms98-a-0033	A.53	177.699000	177.929000		just	just
sw3236A-ms98-a-0033	A.53	177.929000	178.099000		throw	throw
sw3236A-ms98-a-0033	A.53	178.099000	178.209000		them	them_1
sw3236A-ms98-a-0033	A.53	178.209000	178.489000		out	out
sw3236A-ms98-a-0033	A.53	178.489000	178.737375		but	but
sw3236A-ms98-a-0033	A.53	178.737375	178.927625		[silence]	[silence]
sw3236A-ms98-a-0033	A.53	178.927625	179.059000		we	we
sw3236A-ms98-a-0033	A.53	179.059000	179.179000		can	can
sw3236A-ms98-a-0033	A.53	179.179000	179.329000		do	do
sw3236A-ms98-a-0033	A.53	179.329000	179.536000		our	our
sw3236A-ms98-a-0033	A.53	179.536000	180.399625		part	[laughter-part]
sw3236A-ms98-a-0033	A.55	180.399625	180.459000		[silence]	[silence]
sw3236A-ms98-a-0033	A.55	180.459000	180.649000		take	take
sw3236A-ms98-a-0033	A.55	180.649000	180.809000		an	an
sw3236A-ms98-a-0033	A.55	180.809000	180.919000		[silence]	[silence]
sw3236A-ms98-a-0033	A.55	180.919000	181.239000		extra	extra
sw3236A-ms98-a-0033	A.55	181.239000	181.589000		minute	minute
sw3236A-ms98-a-0033	A.55	181.589000	181.679000		or	or
sw3236A-ms98-a-0033	A.55	181.679000	182.103500		two	two
sw3236A-ms98-a-0033	A.57	182.103500	182.210875		[silence]	[silence]
sw3236A-ms98-a-0033	A.57	182.210875	182.519125		[noise]	[noise]
sw3236A-ms98-a-0033	A.57	182.519125	183.017750		[silence]	[silence]
sw3236A-ms98-a-0034	A.57	183.017750	185.374000		[silence]	[silence]
sw3236A-ms98-a-0035	A.57	185.374000	185.609500		[silence]	[silence]
sw3236A-ms98-a-0035	A.57	185.609500	186.933500		[noise]	[noise]
sw3236A-ms98-a-0035	A.57	186.933500	187.507000		Oh	oh
sw3236A-ms98-a-0035	A.57	187.507000	187.878500		[silence]	[silence]
sw3236A-ms98-a-0035	A.57	187.878500	187.984000		when	when
sw3236A-ms98-a-0035	A.57	187.984000	188.130625		we	we
sw3236A-ms98-a-0035	A.57	188.130625	188.471750		first	first
sw3236A-ms98-a-0035	A.57	188.471750	188.631250		were	were
sw3236A-ms98-a-0035	A.57	188.631250	189.118375		[silence]	[silence]
sw3236A-ms98-a-0035	A.57	189.118375	189.306750		were	were
sw3236A-ms98-a-0035	A.57	189.306750	189.644000		here	here
sw3236A-ms98-a-0035	A.57	189.644000	189.814000		it	it
sw3236A-ms98-a-0035	A.57	189.814000	189.984000		was	was
sw3236A-ms98-a-0035	A.57	189.984000	190.306500		like	like
sw3236A-ms98-a-0035	A.57	190.306500	190.638000		[silence]	[silence]
sw3236A-ms98-a-0035	A.57	190.638000	190.754000		we'd	we'd
sw3236A-ms98-a-0035	A.57	190.754000	191.054000		take	take
sw3236A-ms98-a-0035	A.57	191.054000	191.310125		[silence]	[silence]
sw3236A-ms98-a-0035	A.57	191.310125	191.804000		maybe	maybe
sw3236A-ms98-a-0035	A.57	191.804000	191.915250		a	a
sw3236A-ms98-a-0035	A.57	191.915250	192.156375		[silence]	[silence]
sw3236A-ms98-a-0035	A.57	192.156375	192.554375		oh	oh
sw3236A-ms98-a-0035	A.57	192.554375	192.959250		[silence]	[silence]
sw3236A-ms98-a-0035	A.57	192.959250	193.064000		a	a
sw3236A-ms98-a-0035	A.57	193.064000	193.544000		grocery	grocery
sw3236A-ms98-a-0035	A.57	193.544000	193.834000		sack	sack
sw3236A-ms98-a-0035	A.57	193.834000	194.004000		full	full
sw3236A-ms98-a-0035	A.57	194.004000	194.478000		or	or
sw3236A-ms98-a-0035	A.59	194.478000	194.692750		[silence]	[silence]
sw3236A-ms98-a-0035	A.59	194.692750	194.954000		maybe	maybe
sw3236A-ms98-a-0035	A.59	194.954000	195.184000		two	two
sw3236A-ms98-a-0035	A.59	195.184000	195.534000		grocery	grocery
sw3236A-ms98-a-0035	A.59	195.534000	195.794000		sacks	sacks
sw3236A-ms98-a-0035	A.59	195.794000	195.934000		full	full
sw3236A-ms98-a-0035	A.59	195.934000	196.024000		and	and
sw3236A-ms98-a-0035	A.59	196.024000	196.144000	<CONT>	it	it'd
sw3236A-ms98-a-0035	A.59	196.144000	196.144000	<CONT>	would	+++
sw3236A-ms98-a-0035	A.59	196.144000	196.304000		be	be
sw3236A-ms98-a-0035	A.59	196.304000	196.484000		like	like
sw3236A-ms98-a-0035	A.59	196.484000	196.684000		two	two
sw3236A-ms98-a-0035	A.59	196.684000	197.303250		dollars	dollars
sw3236A-ms98-a-0035	A.61	197.303250	197.364125		[silence]	[silence]
sw3236A-ms98-a-0036	A.61	197.364125	197.981125		[silence]	[silence]
sw3236A-ms98-a-0036	A.61	197.981125	198.124125		but	but
sw3236A-ms98-a-0036	A.61	198.124125	198.304125		since	since
sw3236A-ms98-a-0036	A.61	198.304125	198.644125		last	last
sw3236A-ms98-a-0036	A.61	198.644125	198.890625		time	time
sw3236A-ms98-a-0036	A.61	198.890625	199.090250		we've	we've
sw3236A-ms98-a-0036	A.61	199.090250	199.364125		gotten	gotten
sw3236A-ms98-a-0036	A.61	199.364125	199.504125		more	more
sw3236A-ms98-a-0036	A.61	199.504125	199.704125		like	like
sw3236A-ms98-a-0036	A.61	199.704125	199.784125		a	a
sw3236A-ms98-a-0036	A.61	199.784125	200.314125		dollar	dollar
sw3236A-ms98-a-0036	A.63	200.314125	201.338500		[silence]	[silence]
sw3236A-ms98-a-0037	A.63	201.338500	201.749125		[silence]	[silence]
sw3236A-ms98-a-0037	A.63	201.749125	202.053500		Yeah	yeah
sw3236A-ms98-a-0037	A.65	202.053500	202.458875		[silence]	[silence]
sw3236A-ms98-a-0037	A.65	202.458875	202.590000		which	which
sw3236A-ms98-a-0037	A.65	202.590000	202.703000		is	is
sw3236A-ms98-a-0037	A.65	202.703000	203.388500		understandable	understandable
sw3236A-ms98-a-0037	A.65	203.388500	203.478500		I	i
sw3236A-ms98-a-0037	A.65	203.478500	203.668500		think	think
sw3236A-ms98-a-0037	A.65	203.668500	203.838500		more	more
sw3236A-ms98-a-0037	A.65	203.838500	204.148500		people	people
sw3236A-ms98-a-0037	A.65	204.148500	204.432750		are	are
sw3236A-ms98-a-0037	A.67	204.432750	204.628625		[silence]	[silence]
sw3236A-ms98-a-0037	A.67	204.628625	204.738500		are	are
sw3236A-ms98-a-0037	A.67	204.738500	205.488500		recycling	recycling
sw3236A-ms98-a-0037	A.69	205.488500	206.097000	<DEL>	---	but
sw3236A-ms98-a-0037	A.69	206.097000	206.473625		[noise]	[noise]
sw3236A-ms98-a-0037	A.69	206.473625	206.668500		That's	that's
sw3236A-ms98-a-0037	A.69	206.668500	206.978500		something	something
sw3236A-ms98-a-0037	A.69	206.978500	207.038500	<DEL>	---	tha[t]-
sw3236A-ms98-a-0037	A.69	207.038500	207.208625		we	we
sw3236A-ms98-a-0037	A.69	207.208625	207.457250		[silence]	[silence]
sw3236A-ms98-a-0037	A.69	207.457250	207.568500		we	we
sw3236A-ms98-a-0037	A.69	207.568500	207.838500		don't	don't
sw3236A-ms98-a-0037	A.69	207.838500	208.138500		really	really
sw3236A-ms98-a-0037	A.69	208.138500	208.408500		make	make
sw3236A-ms98-a-0037	A.69	208.408500	208.608500		any	any
sw3236A-ms98-a-0037	A.69	208.608500	209.098500		effort	effort
sw3236A-ms98-a-0037	A.69	209.098500	209.338500		to	to
sw3236A-ms98-a-0037	A.69	209.338500	209.905250		[silence]	[silence]
sw3236A-ms98-a-0038	A.69	209.905250	210.444000		[silence]	[silence]
sw3236A-ms98-a-0038	A.69	210.444000	210.595250		and	and
sw3236A-ms98-a-0038	A.69	210.595250	210.925250		whatever	whatever
sw3236A-ms98-a-0038	A.69	210.925250	211.215250		pop	pop
sw3236A-ms98-a-0038	A.69	211.215250	211.345250		we	we
sw3236A-ms98-a-0038	A.69	211.345250	211.662500		drink	drink
sw3236A-ms98-a-0038	A.69	211.662500	212.092125		[silence]	[silence]
sw3236A-ms98-a-0038	A.69	212.092125	212.337000		we	we
sw3236A-ms98-a-0038	A.69	212.337000	212.535250		used	used
sw3236A-ms98-a-0038	A.69	212.535250	212.625250		to	to
sw3236A-ms98-a-0038	A.69	212.625250	212.775250		take	take
sw3236A-ms98-a-0038	A.69	212.775250	212.845250		the	the
sw3236A-ms98-a-0038	A.69	212.845250	213.095250		boys	boys
sw3236A-ms98-a-0038	A.69	213.095250	213.225250		out	out
sw3236A-ms98-a-0038	A.69	213.225250	213.355250		for	for
sw3236A-ms98-a-0038	A.69	213.355250	213.425250		a	a
sw3236A-ms98-a-0038	A.69	213.425250	213.755250		bike	bike
sw3236A-ms98-a-0038	A.69	213.755250	214.055250		ride	ride
sw3236A-ms98-a-0038	A.69	214.055250	214.244125		and	and
sw3236A-ms98-a-0038	A.69	214.244125	214.496500		[silence]	[silence]
sw3236A-ms98-a-0038	A.69	214.496500	214.695250		pick	pick
sw3236A-ms98-a-0038	A.69	214.695250	214.834250		up	up
sw3236A-ms98-a-0038	A.69	214.834250	215.036500		[silence]	[silence]
sw3236A-ms98-a-0038	A.69	215.036500	215.221000		the	the
sw3236A-ms98-a-0038	A.69	215.221000	215.745250		litter	litter
sw3236A-ms98-a-0038	A.69	215.745250	215.855250		you	you
sw3236A-ms98-a-0038	A.69	215.855250	215.995250		know	know
sw3236A-ms98-a-0038	A.69	215.995250	216.189375		the	the
sw3236A-ms98-a-0038	A.69	216.189375	216.686500		[silence]	[silence]
sw3236A-ms98-a-0038	A.69	216.686500	216.755250		the	the
sw3236A-ms98-a-0038	A.69	216.755250	217.298000		cans	cans
sw3236A-ms98-a-0038	A.71	217.298000	218.089000		[silence]	[silence]
sw3236A-ms98-a-0038	A.71	218.089000	218.185250		and	and
sw3236A-ms98-a-0038	A.71	218.185250	218.275250		that	that
sw3236A-ms98-a-0038	A.71	218.275250	218.405250		was	was
sw3236A-ms98-a-0038	A.71	218.405250	218.615250		kind	kind
sw3236A-ms98-a-0038	A.71	218.615250	218.705250		of	of
sw3236A-ms98-a-0038	A.71	218.705250	219.115250		fun	fun
sw3236A-ms98-a-0038	A.71	219.115250	219.265250		but	but
sw3236A-ms98-a-0038	A.71	219.265250	219.395250		we	we
sw3236A-ms98-a-0038	A.71	219.395250	219.695250		haven't	haven't
sw3236A-ms98-a-0038	A.71	219.695250	219.895250		done	done
sw3236A-ms98-a-0038	A.71	219.895250	220.205250		that	that
sw3236A-ms98-a-0038	A.71	220.205250	220.335250		for	for
sw3236A-ms98-a-0038	A.71	220.335250	220.365250		a	a
sw3236A-ms98-a-0038	A.71	220.365250	220.585250		long	long
sw3236A-ms98-a-0038	A.71	220.585250	220.969375		time	time
sw3236A-ms98-a-0038	A.73	220.969375	221.495125		[silence]	[silence]
sw3236A-ms98-a-0039	A.73	221.495125	221.599250		[silence]	[silence]
sw3236A-ms98-a-0039	A.73	221.599250	222.015125		so	so
sw3236A-ms98-a-0039	A.75	222.015125	222.145500		[silence]	[silence]
sw3236A-ms98-a-0040	A.75	222.145500	224.493000		[silence]	[silence]
sw3236A-ms98-a-0041	A.75	224.493000	224.863375		[silence]	[silence]
sw3236A-ms98-a-0041	A.75	224.863375	225.693000		[laughter]	[laughter]
sw3236A-ms98-a-0041	A.75	225.693000	225.783000		Well	well
sw3236A-ms98-a-0041	A.75	225.783000	225.905750		the	the
sw3236A-ms98-a-0041	A.75	225.905750	226.113000		boys	boys
sw3236A-ms98-a-0041	A.75	226.113000	226.273000		think	think
sw3236A-ms98-a-0041	A.75	226.273000	226.413000		it's	it's
sw3236A-ms98-a-0041	A.75	226.413000	226.643000		fun	fun
sw3236A-ms98-a-0041	A.75	226.643000	226.853000		plus	plus
sw3236A-ms98-a-0041	A.75	226.853000	226.953000		you	you
sw3236A-ms98-a-0041	A.75	226.953000	227.093000		get	get
sw3236A-ms98-a-0041	A.75	227.093000	227.253000		your	your
sw3236A-ms98-a-0041	A.75	227.253000	227.813000		exercise	exercise
sw3236A-ms98-a-0041	A.75	227.813000	228.003000		and	and
sw3236A-ms98-a-0041	A.77	228.003000	228.083000		you	you
sw3236A-ms98-a-0041	A.77	228.083000	228.693000		[laughter]	[laughter]
sw3236A-ms98-a-0041	A.77	228.693000	228.803000	<DEL>	---	you
sw3236A-ms98-a-0041	A.77	228.803000	228.933000		do	do
sw3236A-ms98-a-0041	A.77	228.933000	229.093000		get	get
sw3236A-ms98-a-0041	A.77	229.093000	229.173000		to	to
sw3236A-ms98-a-0041	A.77	229.173000	229.503000		stop	stop
sw3236A-ms98-a-0041	A.77	229.503000	229.703000		once	once
sw3236A-ms98-a-0041	A.77	229.703000	229.763000		in	in
sw3236A-ms98-a-0041	A.77	229.763000	229.793000		a	a
sw3236A-ms98-a-0041	A.77	229.793000	229.983000		while	while
sw3236A-ms98-a-0041	A.77	229.983000	230.143000		when	when
sw3236A-ms98-a-0041	A.77	230.143000	230.265750		there	there
sw3236A-ms98-a-0041	A.77	230.265750	230.431500		is	is
sw3236A-ms98-a-0041	A.77	230.431500	230.550125		a	a
sw3236A-ms98-a-0041	A.77	230.550125	230.943000		can	can
sw3236A-ms98-a-0041	A.77	230.943000	231.093000		to	to
sw3236A-ms98-a-0041	A.77	231.093000	231.690875		rest	[laughter-rest]
sw3236A-ms98-a-0041	A.79	231.690875	232.297000		[silence]	[silence]
sw3236A-ms98-a-0041	A.79	232.297000	232.697875		so	[laughter-so]
sw3236A-ms98-a-0041	A.81	232.697875	233.867250		[silence]	[silence]
sw3236A-ms98-a-0041	A.81	233.867250	234.309125		but	but
sw3236A-ms98-a-0041	A.83	234.309125	235.531625		[noise]	[noise]
sw3236A-ms98-a-0041	A.83	235.531625	235.890250		[silence]	[silence]
sw3236A-ms98-a-0042	A.83	235.890250	236.846625		[silence]	[silence]
sw3236A-ms98-a-0042	A.83	236.846625	237.760250		[laughter]	[laughter]
sw3236A-ms98-a-0042	A.83	237.760250	238.332375		[silence]	[silence]
sw3236A-ms98-a-0043	A.83	238.332375	243.408500		[silence]	[silence]
sw3236A-ms98-a-0044	A.83	243.408500	243.970125		[silence]	[silence]
sw3236A-ms98-a-0044	A.83	243.970125	244.303750	<DEL>	---	um-hum
sw3236A-ms98-a-0044	A.83	244.303750	244.846500		[silence]	[silence]
sw3236A-ms98-a-0045	A.83	244.846500	250.607625		[silence]	[silence]
sw3236A-ms98-a-0046	A.83	250.607625	251.165250		[silence]	[silence]
sw3236A-ms98-a-0046	A.83	251.165250	251.307625		Well	well
sw3236A-ms98-a-0046	A.83	251.307625	251.647625		hopefully	hopefully
sw3236A-ms98-a-0046	A.83	251.647625	251.750875		the	the
sw3236A-ms98-a-0046	A.83	251.750875	251.781000		[silence]	[silence]
sw3236A-ms98-a-0046	A.83	251.781000	252.027625		bins	bins
sw3236A-ms98-a-0046	A.83	252.027625	252.147625		will	will
sw3236A-ms98-a-0046	A.83	252.147625	252.277625		be	be
sw3236A-ms98-a-0046	A.83	252.277625	252.387625		here	here
sw3236A-ms98-a-0046	A.83	252.387625	252.477625		in	in
sw3236A-ms98-a-0046	A.83	252.477625	252.687625		this	this
sw3236A-ms98-a-0046	A.83	252.687625	252.977625		month	month
sw3236A-ms98-a-0046	A.83	252.977625	253.147625		and	and
sw3236A-ms98-a-0046	A.83	253.147625	253.297625		that	that
sw3236A-ms98-a-0046	A.83	253.297625	253.477625		will	will
sw3236A-ms98-a-0046	A.83	253.477625	253.767625		spur	spur
sw3236A-ms98-a-0046	A.83	253.767625	253.947625		you	you
sw3236A-ms98-a-0046	A.83	253.947625	254.328125		on	on
sw3236A-ms98-a-0046	A.83	254.328125	254.952250		so	[laughter-so]
sw3236A-ms98-a-0046	A.85	254.952250	258.037625		[laughter]	[laughter]
sw3236A-ms98-a-0046	A.85	258.037625	258.247625		All	all
sw3236A-ms98-a-0046	A.85	258.247625	258.647625		right	right
sw3236A-ms98-a-0046	A.85	258.647625	258.777625		well	well
sw3236A-ms98-a-0046	A.85	258.777625	258.897625		it	it
sw3236A-ms98-a-0046	A.85	258.897625	259.157625		sounds	sounds
sw3236A-ms98-a-0046	A.85	259.157625	259.387625		like	like
sw3236A-ms98-a-0046	A.85	259.387625	259.602000		we're	we're
sw3236A-ms98-a-0046	A.85	259.602000	259.662250		[silence]	[silence]
sw3236A-ms98-a-0046	A.85	259.662250	260.088500		doing	doing
sw3236A-ms98-a-0046	A.85	260.088500	260.540375		[silence]	[silence]
sw3236A-ms98-a-0046	A.85	260.540375	260.677625		our	our
sw3236A-ms98-a-0046	A.85	260.677625	261.057625		part	part
sw3236A-ms98-a-0046	A.85	261.057625	261.468500		and	and
sw3236A-ms98-a-0046	A.85	261.468500	262.029625		[silence]	[silence]
sw3236A-ms98-a-0046	A.85	262.029625	262.127625		at	at
sw3236A-ms98-a-0046	A.85	262.127625	262.297625		least	least
sw3236A-ms98-a-0046	A.85	262.297625	262.804250		starting	starting
sw3236A-ms98-a-0046	A.87	262.804250	263.026500		[silence]	[silence]
sw3236A-ms98-a-0046	A.87	263.026500	263.412500	<DEL>	---	so
sw3236A-ms98-a-0046	A.87	263.412500	263.638750		[silence]	[silence]
sw3236A-ms98-a-0047	A.87	263.638750	263.999000		[silence]	[silence]
sw3236A-ms98-a-0047	A.87	263.999000	265.103000	<DEL>	---	[laughter-yeah]
sw3236A-ms98-a-0047	A.87	265.103000	265.428750		Trying	trying
sw3236A-ms98-a-0047	A.87	265.428750	265.958750		[laughter]	[laughter]
sw3236A-ms98-a-0047	A.87	265.958750	266.178750		that's	that's
sw3236A-ms98-a-0047	A.87	266.178750	266.288750		all	all
sw3236A-ms98-a-0047	A.87	266.288750	266.398750		you	you
sw3236A-ms98-a-0047	A.87	266.398750	266.558750		can	can
sw3236A-ms98-a-0047	A.87	266.558750	266.814125		do	do
sw3236A-ms98-a-0047	A.89	266.814125	267.409250		[silence]	[silence]
sw3236A-ms98-a-0047	A.89	267.409250	268.006375		so	so
sw3236A-ms98-a-0047	A.91	268.006375	268.906750		[silence]	[silence]
sw3236A-ms98-a-0047	A.91	268.906750	269.092375	<DEL>	---	that
sw3236A-ms98-a-0047	A.91	269.092375	270.143750		[silence]	[silence]
sw3236A-ms98-a-0048	A.91	270.143750	272.656000		[silence]	[silence]
sw3236A-ms98-a-0049	A.91	272.656000	273.636875		[silence]	[silence]
sw3236A-ms98-a-0049	A.91	273.636875	274.052625		[noise]	[noise]
sw3236A-ms98-a-0049	A.91	274.052625	274.696000		Um	um
sw3236A-ms98-a-0049	A.91	274.696000	274.876000		yeah	yeah
sw3236A-ms98-a-0049	A.91	274.876000	275.066000		you	you
sw3236A-ms98-a-0049	A.91	275.066000	275.286000		can	can
sw3236A-ms98-a-0049	A.91	275.286000	275.426000		do	do
sw3236A-ms98-a-0049	A.91	275.426000	275.496000		it	it
sw3236A-ms98-a-0049	A.91	275.496000	275.606000		as	as
sw3236A-ms98-a-0049	A.91	275.606000	275.706000		long	long
sw3236A-ms98-a-0049	A.91	275.706000	275.906000		as	as
sw3236A-ms98-a-0049	A.91	275.906000	275.976000		you	you
sw3236A-ms98-a-0049	A.91	275.976000	276.166000		want	want
sw3236A-ms98-a-0049	A.91	276.166000	276.380625		They	they
sw3236A-ms98-a-0049	A.91	276.380625	276.862750		[silence]	[silence]
sw3236A-ms98-a-0049	A.91	276.862750	276.996000		you	you
sw3236A-ms98-a-0049	A.91	276.996000	277.086000		know	know
sw3236A-ms98-a-0049	A.91	277.086000	277.236000		if	if
sw3236A-ms98-a-0049	A.91	277.236000	277.386000		it's	it's
sw3236A-ms98-a-0049	A.91	277.386000	277.656000		been	been
sw3236A-ms98-a-0049	A.91	277.656000	277.876000		long	long
sw3236A-ms98-a-0049	A.91	277.876000	278.216000		enough	enough
sw3236A-ms98-a-0049	A.91	278.216000	278.516000		five	five
sw3236A-ms98-a-0049	A.91	278.516000	278.926000		minutes	minutes
sw3236A-ms98-a-0049	A.91	278.926000	279.290875		is	is
sw3236A-ms98-a-0049	A.91	279.290875	279.637500		[silence]	[silence]
sw3236A-ms98-a-0049	A.91	279.637500	279.846250		is	is
sw3236A-ms98-a-0049	A.91	279.846250	279.989375		[silence]	[silence]
sw3236A-ms98-a-0049	A.91	279.989375	280.176000		when	when
sw3236A-ms98-a-0049	A.91	280.176000	280.276000		they	they
sw3236A-ms98-a-0049	A.91	280.276000	280.546000		cut	cut
sw3236A-ms98-a-0049	A.91	280.546000	280.716000		in	in
sw3236A-ms98-a-0049	A.91	280.716000	280.866000		and	and
sw3236A-ms98-a-0049	A.91	280.866000	281.146000		say	say
sw3236A-ms98-a-0049	A.91	281.146000	281.755000		[silence]	[silence]
sw3236A-ms98-a-0050	A.91	281.755000	282.193500		[silence]	[silence]
sw3236A-ms98-a-0050	A.91	282.193500	282.315000		say	say
sw3236A-ms98-a-0050	A.91	282.315000	282.465000		we	we
sw3236A-ms98-a-0050	A.91	282.465000	282.666250		don't	don't
sw3236A-ms98-a-0050	A.91	282.666250	282.820750		have	have
sw3236A-ms98-a-0050	A.91	282.820750	283.315000	<CONT>	any	anymore
sw3236A-ms98-a-0050	A.91	283.315000	283.315000	<CONT>	more	+++
sw3236A-ms98-a-0050	A.91	283.315000	283.525000		room	room
sw3236A-ms98-a-0050	A.91	283.525000	283.685000		for	for
sw3236A-ms98-a-0050	A.91	283.685000	284.445000		recording	recording
sw3236A-ms98-a-0050	A.93	284.445000	286.329125	<DEL>	---	[laughter-so]
sw3236A-ms98-a-0050	A.93	286.329125	287.264000		So	so
sw3236A-ms98-a-0050	A.95	287.264000	287.415375		we	we
sw3236A-ms98-a-0050	A.95	287.415375	287.595250		can	can
sw3236A-ms98-a-0050	A.95	287.595250	287.792875		say	say
sw3236A-ms98-a-0050	A.95	287.792875	288.201250		good-bye	good-bye
sw3236A-ms98-a-0050	A.95	288.201250	288.446000		now	now
sw3236A-ms98-a-0050	A.95	288.446000	288.560000		It	it
sw3236A-ms98-a-0050	A.95	288.560000	288.705000		was	was
sw3236A-ms98-a-0050	A.95	288.705000	288.835000		good	good
sw3236A-ms98-a-0050	A.95	288.835000	289.065000		talking	talking
sw3236A-ms98-a-0050	A.95	289.065000	289.165000		to	to
sw3236A-ms98-a-0050	A.95	289.165000	289.225000		you	you
sw3236A-ms98-a-0050	A.95	289.225000	289.325000		and	and
sw3236A-ms98-a-0050	A.95	289.325000	289.585000		maybe	maybe
sw3236A-ms98-a-0050	A.95	289.585000	289.725000		we'll	we'll
sw3236A-ms98-a-0050	A.95	289.725000	289.981000		get	get
sw3236A-ms98-a-0050	A.95	289.981000	290.297375		[silence]	[silence]
sw3236A-ms98-a-0050	A.95	290.297375	290.455000		on	on
sw3236A-ms98-a-0050	A.95	290.455000	290.653125		line	line
sw3236A-ms98-a-0050	A.95	290.653125	291.020500		again	again
sw3236A-ms98-a-0050	A.97	291.020500	291.795000		[laughter]	[laughter]
sw3236A-ms98-a-0050	A.97	291.795000	292.085000		Thanks	thanks
sw3236A-ms98-a-0050	A.97	292.085000	292.363875		Sherry	Sherry
sw3236A-ms98-a-0050	A.99	292.363875	292.721625		[silence]	[silence]
sw3236A-ms98-a-0050	A.99	292.721625	292.975625		Bye-bye	bye-bye
sw3236A-ms98-a-0050	A.99	292.975625	294.446625		[noise]	[noise]
sw3236A-ms98-a-0050	A.99	294.446625	294.722000		[silence]	[silence]
