sw3206B-ms98-a-0001	B.2	0.000000	0.009750		[silence]	[silence]
sw3206B-ms98-a-0001	B.2	0.009750	0.160375		[noise]	[noise]
sw3206B-ms98-a-0001	B.2	0.160375	0.571750		[silence]	[silence]
sw3206B-ms98-a-0002	B.2	0.571750	1.038750		[silence]	[silence]
sw3206B-ms98-a-0002	B.2	1.038750	1.549250		Yes	yes
sw3206B-ms98-a-0002	B.4	1.549250	1.990750		[silence]	[silence]
sw3206B-ms98-a-0003	B.4	1.990750	5.028875		[silence]	[silence]
sw3206B-ms98-a-0004	B.4	5.028875	5.518875		[silence]	[silence]
sw3206B-ms98-a-0004	B.4	5.518875	5.708875		Uh	uh
sw3206B-ms98-a-0004	B.4	5.708875	6.038875		yes	yes
sw3206B-ms98-a-0004	B.4	6.038875	6.198875		It's	it's
sw3206B-ms98-a-0004	B.4	6.198875	6.548875		about	about
sw3206B-ms98-a-0004	B.4	6.548875	6.978875		why	why
sw3206B-ms98-a-0004	B.4	6.978875	7.148875		there	there
sw3206B-ms98-a-0004	B.4	7.148875	7.328875		aren't	aren't
sw3206B-ms98-a-0004	B.4	7.328875	7.498875		more	more
sw3206B-ms98-a-0004	B.4	7.498875	7.848875		people	people
sw3206B-ms98-a-0004	B.4	7.848875	7.978875		that	that
sw3206B-ms98-a-0004	B.4	7.978875	8.078875		are	are
sw3206B-ms98-a-0004	B.4	8.078875	8.448875		voting	voting
sw3206B-ms98-a-0004	B.4	8.448875	8.558875		and	and
sw3206B-ms98-a-0004	B.4	8.558875	9.338875		participating	participating
sw3206B-ms98-a-0004	B.4	9.338875	9.529750		in	in
sw3206B-ms98-a-0004	B.6	9.529750	10.053625		[silence]	[silence]
sw3206B-ms98-a-0005	B.6	10.053625	14.547000		[silence]	[silence]
sw3206B-ms98-a-0006	B.6	14.547000	14.697625		[silence]	[silence]
sw3206B-ms98-a-0006	B.6	14.697625	15.044125		[noise]	[noise]
sw3206B-ms98-a-0006	B.6	15.044125	15.227000		Oh	oh
sw3206B-ms98-a-0006	B.6	15.227000	16.087000		absolutely	absolutely
sw3206B-ms98-a-0006	B.8	16.087000	16.481000		[silence]	[silence]
sw3206B-ms98-a-0007	B.8	16.481000	17.489125		[silence]	[silence]
sw3206B-ms98-a-0008	B.8	17.489125	17.757250		[silence]	[silence]
sw3206B-ms98-a-0008	B.8	17.757250	18.149875		Um	um
sw3206B-ms98-a-0008	B.8	18.149875	18.931125		[silence]	[silence]
sw3206B-ms98-a-0008	B.8	18.931125	19.158000		I	i
sw3206B-ms98-a-0008	B.8	19.158000	19.436750		think	think
sw3206B-ms98-a-0008	B.8	19.436750	19.719125		that	that
sw3206B-ms98-a-0008	B.8	19.719125	20.033125		uh	uh
sw3206B-ms98-a-0008	B.8	20.033125	20.615625		[silence]	[silence]
sw3206B-ms98-a-0009	B.8	20.615625	21.045625		[silence]	[silence]
sw3206B-ms98-a-0009	B.8	21.045625	21.305625		it's	it's
sw3206B-ms98-a-0009	B.8	21.305625	21.535625		kind	kind
sw3206B-ms98-a-0009	B.8	21.535625	21.753625		of	of
sw3206B-ms98-a-0009	B.8	21.753625	21.877875		[silence]	[silence]
sw3206B-ms98-a-0009	B.8	21.877875	22.565625		discouraging	discouraging
sw3206B-ms98-a-0009	B.8	22.565625	22.891625		to	to
sw3206B-ms98-a-0009	B.8	22.891625	23.306000		[silence]	[silence]
sw3206B-ms98-a-0009	B.8	23.306000	23.735625	<SUB>	uh	um
sw3206B-ms98-a-0009	B.8	23.735625	23.835625		I	i
sw3206B-ms98-a-0009	B.8	23.835625	24.005625		have	have
sw3206B-ms98-a-0009	B.8	24.005625	24.285625		[silence]	[silence]
sw3206B-ms98-a-0009	B.8	24.285625	24.495625		been	been
sw3206B-ms98-a-0009	B.8	24.495625	24.868750		involved	involved
sw3206B-ms98-a-0009	B.8	24.868750	25.038250		in	in
sw3206B-ms98-a-0009	B.8	25.038250	25.348750		some	some
sw3206B-ms98-a-0009	B.8	25.348750	25.838500		[silence]	[silence]
sw3206B-ms98-a-0009	B.8	25.838500	26.235625		political	political
sw3206B-ms98-a-0009	B.8	26.235625	26.855625		campaigns	campaigns
sw3206B-ms98-a-0009	B.8	26.855625	26.945625		and	and
sw3206B-ms98-a-0009	B.8	26.945625	27.075625		that	that
sw3206B-ms98-a-0009	B.8	27.075625	27.275625		kind	kind
sw3206B-ms98-a-0009	B.8	27.275625	27.335625		of	of
sw3206B-ms98-a-0009	B.8	27.335625	27.665625		thing	thing
sw3206B-ms98-a-0009	B.8	27.665625	27.895625		and	and
sw3206B-ms98-a-0009	B.8	27.895625	28.115625		it's	it's
sw3206B-ms98-a-0009	B.8	28.115625	28.325625		really	really
sw3206B-ms98-a-0009	B.8	28.325625	28.965625		discouraging	discouraging
sw3206B-ms98-a-0009	B.8	28.965625	29.085625		to	to
sw3206B-ms98-a-0009	B.8	29.085625	29.165625		be	be
sw3206B-ms98-a-0009	B.8	29.165625	29.265625		in	in
sw3206B-ms98-a-0009	B.8	29.265625	29.305625		a	a
sw3206B-ms98-a-0009	B.8	29.305625	29.625625		phone	phone
sw3206B-ms98-a-0009	B.8	29.625625	29.925625		bank	bank
sw3206B-ms98-a-0009	B.8	29.925625	30.045625		and	and
sw3206B-ms98-a-0009	B.8	30.045625	30.325625		call	call
sw3206B-ms98-a-0009	B.8	30.325625	30.745625		people	people
sw3206B-ms98-a-0009	B.8	30.745625	30.885625		and	and
sw3206B-ms98-a-0009	B.8	30.885625	31.280625		not	not
sw3206B-ms98-a-0009	B.8	31.280625	31.487125		[silence]	[silence]
sw3206B-ms98-a-0010	B.8	31.487125	31.971625		[silence]	[silence]
sw3206B-ms98-a-0010	B.8	31.971625	32.057125		a	a
sw3206B-ms98-a-0010	B.8	32.057125	32.247125		lot	lot
sw3206B-ms98-a-0010	B.8	32.247125	32.357125		of	of
sw3206B-ms98-a-0010	B.8	32.357125	32.507125		them	them_1
sw3206B-ms98-a-0010	B.8	32.507125	32.627125		are	are
sw3206B-ms98-a-0010	B.8	32.627125	32.907125		so	so
sw3206B-ms98-a-0010	B.8	32.907125	33.067125		ill	ill
sw3206B-ms98-a-0010	B.8	33.067125	33.497125		informed	informed
sw3206B-ms98-a-0010	B.8	33.497125	33.587125		they	they
sw3206B-ms98-a-0010	B.8	33.587125	33.827125		have	have
sw3206B-ms98-a-0010	B.8	33.827125	34.287125		no	no
sw3206B-ms98-a-0010	B.8	34.287125	34.947125		idea	idea
sw3206B-ms98-a-0010	B.8	34.947125	35.566875		[silence]	[silence]
sw3206B-ms98-a-0011	B.8	35.566875	36.248125		[silence]	[silence]
sw3206B-ms98-a-0011	B.8	36.248125	36.376875		you	you
sw3206B-ms98-a-0011	B.8	36.376875	36.596875		know	know
sw3206B-ms98-a-0011	B.8	36.596875	36.926875		even	even
sw3206B-ms98-a-0011	B.8	36.926875	37.056875	<SUB>	that	th[ere's]-
sw3206B-ms98-a-0011	B.8	37.056875	37.206875		there's	there's
sw3206B-ms98-a-0011	B.8	37.206875	37.306875		an	an
sw3206B-ms98-a-0011	B.8	37.306875	37.956875		election	election
sw3206B-ms98-a-0011	B.8	37.956875	38.166875		or	or
sw3206B-ms98-a-0011	B.10	38.166875	38.656500		[silence]	[silence]
sw3206B-ms98-a-0012	B.10	38.656500	39.392875		[silence]	[silence]
sw3206B-ms98-a-0012	B.10	39.392875	39.441375		and	and
sw3206B-ms98-a-0012	B.10	39.441375	39.596500		these	these
sw3206B-ms98-a-0012	B.10	39.596500	39.696500		are	are
sw3206B-ms98-a-0012	B.10	39.696500	40.026500		[silence]	[silence]
sw3206B-ms98-a-0012	B.10	40.026500	40.286500		people	people
sw3206B-ms98-a-0012	B.10	40.286500	40.386500		that	that
sw3206B-ms98-a-0012	B.10	40.386500	40.466500		are	are
sw3206B-ms98-a-0012	B.10	40.466500	41.156500		registered	registered
sw3206B-ms98-a-0012	B.12	41.156500	41.673250		[silence]	[silence]
sw3206B-ms98-a-0013	B.12	41.673250	65.579375		[silence]	[silence]
sw3206B-ms98-a-0014	B.12	65.579375	66.210500		[silence]	[silence]
sw3206B-ms98-a-0014	B.12	66.210500	66.349375		Well	well
sw3206B-ms98-a-0014	B.12	66.349375	66.619375		that's	that's
sw3206B-ms98-a-0014	B.12	66.619375	66.669375		a	a
sw3206B-ms98-a-0014	B.12	66.669375	67.256125		thought	thought
sw3206B-ms98-a-0014	B.14	67.256125	67.594500		[silence]	[silence]
sw3206B-ms98-a-0015	B.14	67.594500	75.925250		[silence]	[silence]
sw3206B-ms98-a-0016	B.14	75.925250	76.539875		[silence]	[silence]
sw3206B-ms98-a-0016	B.14	76.539875	76.980625	<SUB>	Huh	hm
sw3206B-ms98-a-0016	B.14	76.980625	77.926000		[noise]	[noise]
sw3206B-ms98-a-0016	B.14	77.926000	78.035250		I	i
sw3206B-ms98-a-0016	B.14	78.035250	78.205250		don't	don't
sw3206B-ms98-a-0016	B.14	78.205250	78.405250		know	know
sw3206B-ms98-a-0016	B.14	78.405250	78.535250	<SUB>	I	i-
sw3206B-ms98-a-0016	B.14	78.535250	78.695250		I	i
sw3206B-ms98-a-0016	B.14	78.695250	78.925250		like	like
sw3206B-ms98-a-0016	B.14	78.925250	79.195250		that	that
sw3206B-ms98-a-0016	B.14	79.195250	79.835250		idea	idea
sw3206B-ms98-a-0016	B.14	79.835250	80.265250		Um	um
sw3206B-ms98-a-0016	B.14	80.265250	80.693250		[silence]	[silence]
sw3206B-ms98-a-0017	B.14	80.693250	81.698250		[silence]	[silence]
sw3206B-ms98-a-0018	B.14	81.698250	82.136250		[silence]	[silence]
sw3206B-ms98-a-0018	B.14	82.136250	82.628250		[noise]	[noise]
sw3206B-ms98-a-0018	B.14	82.628250	82.778250		oh	oh
sw3206B-ms98-a-0018	B.14	82.778250	82.838250		I	i
sw3206B-ms98-a-0018	B.14	82.838250	83.038250		had	had
sw3206B-ms98-a-0018	B.14	83.038250	83.188250		a	a
sw3206B-ms98-a-0018	B.14	83.188250	83.435125	<SUB>	thought	though
sw3206B-ms98-a-0018	B.14	83.435125	83.902125		[silence]	[silence]
sw3206B-ms98-a-0018	B.14	83.902125	84.107250		just	just
sw3206B-ms98-a-0018	B.14	84.107250	84.212375		a	a
sw3206B-ms98-a-0018	B.14	84.212375	84.558250		second	second
sw3206B-ms98-a-0018	B.14	84.558250	84.748250		ago	ago
sw3206B-ms98-a-0018	B.14	84.748250	84.868250		but	but
sw3206B-ms98-a-0018	B.14	84.868250	84.968250		it	it
sw3206B-ms98-a-0018	B.14	84.968250	85.348250		slipped	slipped
sw3206B-ms98-a-0018	B.14	85.348250	85.468250		my	my
sw3206B-ms98-a-0018	B.14	85.468250	85.921125		mind	mind
sw3206B-ms98-a-0018	B.16	85.921125	86.595375		[silence]	[silence]
sw3206B-ms98-a-0018	B.16	86.595375	87.068250		Um	um
sw3206B-ms98-a-0018	B.16	87.068250	87.363750		[silence]	[silence]
sw3206B-ms98-a-0019	B.16	87.363750	88.372750		[silence]	[silence]
sw3206B-ms98-a-0020	B.16	88.372750	88.715125		[silence]	[silence]
sw3206B-ms98-a-0020	B.16	88.715125	89.062750		one	one
sw3206B-ms98-a-0020	B.16	89.062750	89.430000		thing	thing
sw3206B-ms98-a-0020	B.16	89.430000	89.633375		that	that
sw3206B-ms98-a-0020	B.16	89.633375	89.713500		I-	i-
sw3206B-ms98-a-0020	B.16	89.713500	89.898000		[silence]	[silence]
sw3206B-ms98-a-0020	B.16	89.898000	90.072750		that	that
sw3206B-ms98-a-0020	B.16	90.072750	90.192750		I	i
sw3206B-ms98-a-0020	B.16	90.192750	90.462750		think	think
sw3206B-ms98-a-0020	B.16	90.462750	90.883375		probably	probably
sw3206B-ms98-a-0020	B.16	90.883375	90.973750		[silence]	[silence]
sw3206B-ms98-a-0020	B.16	90.973750	91.142750		one	one
sw3206B-ms98-a-0020	B.16	91.142750	91.212750		of	of
sw3206B-ms98-a-0020	B.16	91.212750	91.292750		the	the
sw3206B-ms98-a-0020	B.16	91.292750	91.642750		reasons	reasons
sw3206B-ms98-a-0020	B.16	91.642750	91.782750		that	that
sw3206B-ms98-a-0020	B.16	91.782750	92.142750		people	people
sw3206B-ms98-a-0020	B.16	92.142750	92.562750		don't	don't
sw3206B-ms98-a-0020	B.16	92.562750	92.822750		vote	vote
sw3206B-ms98-a-0020	B.16	92.822750	93.112750		more	more
sw3206B-ms98-a-0020	B.16	93.112750	93.312750		is	is
sw3206B-ms98-a-0020	B.16	93.312750	93.792750		because	because
sw3206B-ms98-a-0020	B.16	93.792750	93.946750		they	they
sw3206B-ms98-a-0020	B.16	93.946750	94.150125		[silence]	[silence]
sw3206B-ms98-a-0020	B.16	94.150125	94.372750		don't	don't
sw3206B-ms98-a-0020	B.16	94.372750	94.512750		know	know
sw3206B-ms98-a-0020	B.16	94.512750	94.592750		the	the
sw3206B-ms98-a-0020	B.16	94.592750	95.390625		candidates	candidates
sw3206B-ms98-a-0020	B.16	95.390625	95.487000		[silence]	[silence]
sw3206B-ms98-a-0021	B.16	95.487000	95.907000		[silence]	[silence]
sw3206B-ms98-a-0021	B.16	95.907000	95.993750		And	and
sw3206B-ms98-a-0021	B.16	95.993750	96.126375		I	i
sw3206B-ms98-a-0021	B.16	96.126375	96.557000		think	think
sw3206B-ms98-a-0021	B.16	96.557000	97.217000		sometimes	sometimes
sw3206B-ms98-a-0021	B.16	97.217000	97.307000		you	you
sw3206B-ms98-a-0021	B.16	97.307000	97.617000		know	know
sw3206B-ms98-a-0021	B.16	97.617000	97.807000		[silence]	[silence]
sw3206B-ms98-a-0021	B.16	97.807000	98.057000		that's	that's
sw3206B-ms98-a-0021	B.16	98.057000	98.217000		one	one
sw3206B-ms98-a-0021	B.16	98.217000	98.387000		thing	thing
sw3206B-ms98-a-0021	B.16	98.387000	98.527000		that	that
sw3206B-ms98-a-0021	B.16	98.527000	98.647000		I	i
sw3206B-ms98-a-0021	B.16	98.647000	98.867000		have	have
sw3206B-ms98-a-0021	B.16	98.867000	99.217000		learned	learned
sw3206B-ms98-a-0021	B.16	99.217000	99.347000		in	in
sw3206B-ms98-a-0021	B.16	99.347000	99.597000		w-	w[orking]-
sw3206B-ms98-a-0021	B.16	99.597000	100.187000		working	working
sw3206B-ms98-a-0021	B.16	100.187000	100.307000		in	in
sw3206B-ms98-a-0021	B.16	100.307000	100.797000		elections	elections
sw3206B-ms98-a-0021	B.16	100.797000	100.947000		and	and
sw3206B-ms98-a-0021	B.16	100.947000	101.287000		things	things
sw3206B-ms98-a-0021	B.16	101.287000	101.595375		is	is
sw3206B-ms98-a-0021	B.16	101.595375	102.149125		[silence]	[silence]
sw3206B-ms98-a-0021	B.16	102.149125	102.257000		you	you
sw3206B-ms98-a-0021	B.16	102.257000	102.391500		know	know
sw3206B-ms98-a-0021	B.16	102.391500	102.869875		sometimes	sometimes
sw3206B-ms98-a-0021	B.16	102.869875	103.187000		even	even
sw3206B-ms98-a-0021	B.16	103.187000	103.327000		when	when
sw3206B-ms98-a-0021	B.16	103.327000	103.447000		you	you
sw3206B-ms98-a-0021	B.16	103.447000	103.827000		work	work
sw3206B-ms98-a-0021	B.16	103.827000	103.957000		for	for
sw3206B-ms98-a-0021	B.16	103.957000	104.587000		someone	someone
sw3206B-ms98-a-0021	B.16	104.587000	104.767000		[silence]	[silence]
sw3206B-ms98-a-0021	B.16	104.767000	104.937000		you	you
sw3206B-ms98-a-0021	B.16	104.937000	105.207000		don't	don't
sw3206B-ms98-a-0021	B.16	105.207000	105.407000		really	really
sw3206B-ms98-a-0021	B.16	105.407000	105.547000		know	know
sw3206B-ms98-a-0021	B.16	105.547000	105.707000		what	what
sw3206B-ms98-a-0021	B.16	105.707000	105.857000		they're	they're
sw3206B-ms98-a-0021	B.16	105.857000	106.351000		like	like
sw3206B-ms98-a-0021	B.16	106.351000	106.774250		[silence]	[silence]
sw3206B-ms98-a-0022	B.16	106.774250	107.024250		[silence]	[silence]
sw3206B-ms98-a-0022	B.16	107.024250	107.134250		I	i
sw3206B-ms98-a-0022	B.16	107.134250	107.304250		know	know
sw3206B-ms98-a-0022	B.16	107.304250	107.504250		there's	there's
sw3206B-ms98-a-0022	B.16	107.504250	107.634250		been	been
sw3206B-ms98-a-0022	B.16	107.634250	107.694250		a	a
sw3206B-ms98-a-0022	B.16	107.694250	107.984250		couple	couple
sw3206B-ms98-a-0022	B.16	107.984250	108.054250		of	of
sw3206B-ms98-a-0022	B.16	108.054250	108.344250		people	people
sw3206B-ms98-a-0022	B.16	108.344250	108.444250		that	that
sw3206B-ms98-a-0022	B.16	108.444250	108.604250		we	we
sw3206B-ms98-a-0022	B.16	108.604250	108.894250		voted	voted
sw3206B-ms98-a-0022	B.16	108.894250	109.174250		for	for
sw3206B-ms98-a-0022	B.16	109.174250	109.324250		and	and
sw3206B-ms98-a-0022	B.16	109.324250	109.574250		worked	worked
sw3206B-ms98-a-0022	B.16	109.574250	109.844250		for	for
sw3206B-ms98-a-0022	B.16	109.844250	110.044250		and	and
sw3206B-ms98-a-0022	B.16	110.044250	110.164250		when	when
sw3206B-ms98-a-0022	B.16	110.164250	110.274250		they	they
sw3206B-ms98-a-0022	B.16	110.274250	110.494250		got	got
sw3206B-ms98-a-0022	B.16	110.494250	110.584250		in	in
sw3206B-ms98-a-0022	B.16	110.584250	111.194125		office	office
sw3206B-ms98-a-0022	B.16	111.194125	111.581250		[silence]	[silence]
sw3206B-ms98-a-0022	B.16	111.581250	111.637750		it	it
sw3206B-ms98-a-0022	B.16	111.637750	111.774250		was	was
sw3206B-ms98-a-0022	B.16	111.774250	111.974250		just	just
sw3206B-ms98-a-0022	B.16	111.974250	112.024250		a	a
sw3206B-ms98-a-0022	B.16	112.024250	112.844250		disaster	disaster
sw3206B-ms98-a-0022	B.18	112.844250	113.254250		[laughter]	[laughter]
sw3206B-ms98-a-0022	B.18	113.254250	113.454750		[silence]	[silence]
sw3206B-ms98-a-0023	B.18	113.454750	114.054750		[silence]	[silence]
sw3206B-ms98-a-0023	B.18	114.054750	114.401125		Uh	uh
sw3206B-ms98-a-0023	B.18	114.401125	114.623375		[silence]	[silence]
sw3206B-ms98-a-0023	B.18	114.623375	114.854750		and	and
sw3206B-ms98-a-0023	B.18	114.854750	115.004750		and	and
sw3206B-ms98-a-0023	B.18	115.004750	115.094750		I'm	i'm
sw3206B-ms98-a-0023	B.18	115.094750	115.334750		not	not
sw3206B-ms98-a-0023	B.18	115.334750	115.644750		sure	sure
sw3206B-ms98-a-0023	B.18	115.644750	115.854750		how	how
sw3206B-ms98-a-0023	B.18	115.854750	116.024750		you	you
sw3206B-ms98-a-0023	B.18	116.024750	116.194750		go	go
sw3206B-ms98-a-0023	B.18	116.194750	116.766875		about	about
sw3206B-ms98-a-0023	B.18	116.766875	117.362000		[silence]	[silence]
sw3206B-ms98-a-0023	B.18	117.362000	117.674750		really	really
sw3206B-ms98-a-0023	B.18	117.674750	118.184750		finding	finding
sw3206B-ms98-a-0023	B.18	118.184750	118.587750		out	out
sw3206B-ms98-a-0023	B.18	118.587750	118.708375		[silence]	[silence]
sw3206B-ms98-a-0023	B.18	118.708375	118.844750		what	what
sw3206B-ms98-a-0023	B.18	118.844750	119.124750		people	people
sw3206B-ms98-a-0023	B.18	119.124750	119.244750		are	are
sw3206B-ms98-a-0023	B.18	119.244750	119.504750		really	really
sw3206B-ms98-a-0023	B.18	119.504750	119.994750		like	like
sw3206B-ms98-a-0023	B.18	119.994750	120.314750		before	before
sw3206B-ms98-a-0023	B.18	120.314750	120.424750		you	you
sw3206B-ms98-a-0023	B.18	120.424750	120.674750		vote	vote
sw3206B-ms98-a-0023	B.18	120.674750	120.904750		for	for
sw3206B-ms98-a-0023	B.18	120.904750	121.144750		them	them_1
sw3206B-ms98-a-0023	B.20	121.144750	121.539750		[silence]	[silence]
sw3206B-ms98-a-0024	B.20	121.539750	127.909750		[silence]	[silence]
sw3206B-ms98-a-0025	B.20	127.909750	128.439750		[silence]	[silence]
sw3206B-ms98-a-0025	B.20	128.439750	129.294125		Absolutely	absolutely
sw3206B-ms98-a-0025	B.22	129.294125	130.042750		[silence]	[silence]
sw3206B-ms98-a-0026	B.22	130.042750	147.990000		[silence]	[silence]
sw3206B-ms98-a-0027	B.22	147.990000	148.560000		[silence]	[silence]
sw3206B-ms98-a-0027	B.22	148.560000	148.880000		That's	that's
sw3206B-ms98-a-0027	B.22	148.880000	149.180000		right	right
sw3206B-ms98-a-0027	B.24	149.180000	149.774875		[silence]	[silence]
sw3206B-ms98-a-0028	B.24	149.774875	167.785625		[silence]	[silence]
sw3206B-ms98-a-0029	B.24	167.785625	168.407500		[silence]	[silence]
sw3206B-ms98-a-0029	B.24	168.407500	168.535625		Now	now
sw3206B-ms98-a-0029	B.24	168.535625	168.645625		if	if
sw3206B-ms98-a-0029	B.24	168.645625	168.725625		you	you
sw3206B-ms98-a-0029	B.24	168.725625	168.995625		just	just
sw3206B-ms98-a-0029	B.24	168.995625	169.265625		lose	lose
sw3206B-ms98-a-0029	B.24	169.265625	169.385625		[silence]	[silence]
sw3206B-ms98-a-0029	B.24	169.385625	169.565625		if	if
sw3206B-ms98-a-0029	B.24	169.565625	169.655625		you	you
sw3206B-ms98-a-0029	B.24	169.655625	169.985625		just	just
sw3206B-ms98-a-0029	B.24	169.985625	170.255625		skip	skip
sw3206B-ms98-a-0029	B.24	170.255625	170.415625		one	one
sw3206B-ms98-a-0029	B.24	170.415625	171.035625		election	election
sw3206B-ms98-a-0029	B.26	171.035625	171.521625		[silence]	[silence]
sw3206B-ms98-a-0030	B.26	171.521625	172.331625		[silence]	[silence]
sw3206B-ms98-a-0030	B.26	172.331625	172.761625		Three	three
sw3206B-ms98-a-0030	B.28	172.761625	173.153875		[silence]	[silence]
sw3206B-ms98-a-0031	B.28	173.153875	174.601625		[silence]	[silence]
sw3206B-ms98-a-0032	B.28	174.601625	175.101625		[silence]	[silence]
sw3206B-ms98-a-0032	B.28	175.101625	175.475625	<SUB>	Uh-huh	um-hum
sw3206B-ms98-a-0032	B.30	175.475625	175.937000		[silence]	[silence]
sw3206B-ms98-a-0033	B.30	175.937000	184.515875		[silence]	[silence]
sw3206B-ms98-a-0034	B.30	184.515875	185.060375		[silence]	[silence]
sw3206B-ms98-a-0034	B.30	185.060375	185.235875		I	i
sw3206B-ms98-a-0034	B.30	185.235875	185.415875		think	think
sw3206B-ms98-a-0034	B.30	185.415875	185.624875		that's	that's
sw3206B-ms98-a-0034	B.30	185.624875	185.760375		an	an
sw3206B-ms98-a-0034	B.30	185.760375	186.215875		excellent	excellent
sw3206B-ms98-a-0034	B.30	186.215875	186.595875		idea	idea
sw3206B-ms98-a-0034	B.30	186.595875	186.885875		because	because
sw3206B-ms98-a-0034	B.30	186.885875	187.075875		then	then
sw3206B-ms98-a-0034	B.30	187.075875	187.415875		people	people
sw3206B-ms98-a-0034	B.30	187.415875	187.595875		really	really
sw3206B-ms98-a-0034	B.30	187.595875	187.735875		have	have
sw3206B-ms98-a-0034	B.30	187.735875	187.855875		to	to
sw3206B-ms98-a-0034	B.30	187.855875	188.105875		think	think
sw3206B-ms98-a-0034	B.30	188.105875	188.385875		about	about
sw3206B-ms98-a-0034	B.30	188.385875	188.586250		it	it
sw3206B-ms98-a-0034	B.32	188.586250	188.961250		[silence]	[silence]
sw3206B-ms98-a-0035	B.32	188.961250	200.343375		[silence]	[silence]
sw3206B-ms98-a-0036	B.32	200.343375	200.853375		[silence]	[silence]
sw3206B-ms98-a-0036	B.32	200.853375	201.123375		No	no
sw3206B-ms98-a-0036	B.32	201.123375	201.763375		excuse	excuse
sw3206B-ms98-a-0036	B.32	201.763375	201.923375	<SUB>	Uh	i-
sw3206B-ms98-a-0036	B.32	201.923375	202.103375		I'm	i'm
sw3206B-ms98-a-0036	B.32	202.103375	202.283375		not	not
sw3206B-ms98-a-0036	B.32	202.283375	202.443375		sure	sure
sw3206B-ms98-a-0036	B.32	202.443375	202.563375		if	if
sw3206B-ms98-a-0036	B.32	202.563375	202.693375		I'm	i'm
sw3206B-ms98-a-0036	B.32	202.693375	203.103375		familiar	familiar
sw3206B-ms98-a-0036	B.32	203.103375	203.263375		with	with
sw3206B-ms98-a-0036	B.32	203.263375	203.503375		that	that
sw3206B-ms98-a-0036	B.34	203.503375	203.583375		or	or
sw3206B-ms98-a-0036	B.34	203.583375	204.063375		not	not
sw3206B-ms98-a-0036	B.36	204.063375	204.490000		[silence]	[silence]
sw3206B-ms98-a-0037	B.36	204.490000	211.760875		[silence]	[silence]
sw3206B-ms98-a-0038	B.36	211.760875	212.280875		[silence]	[silence]
sw3206B-ms98-a-0038	B.36	212.280875	212.800875	<SUB>	Uh-huh	um-hum
sw3206B-ms98-a-0038	B.38	212.800875	213.174625		[silence]	[silence]
sw3206B-ms98-a-0039	B.38	213.174625	220.680500		[silence]	[silence]
sw3206B-ms98-a-0040	B.38	220.680500	221.210500		[silence]	[silence]
sw3206B-ms98-a-0040	B.38	221.210500	221.340500		Oh	oh
sw3206B-ms98-a-0040	B.38	221.340500	221.470500		I	i
sw3206B-ms98-a-0040	B.38	221.470500	221.680500		think	think
sw3206B-ms98-a-0040	B.38	221.680500	221.950500		that's	that's
sw3206B-ms98-a-0040	B.38	221.950500	222.539500		great	great
sw3206B-ms98-a-0040	B.38	222.539500	222.660375		[silence]	[silence]
sw3206B-ms98-a-0040	B.38	222.660375	222.983125	<SUB>	Um	uh
sw3206B-ms98-a-0040	B.40	222.983125	223.441875		[silence]	[silence]
sw3206B-ms98-a-0041	B.40	223.441875	223.691875		[silence]	[silence]
sw3206B-ms98-a-0041	B.40	223.691875	224.211875		[vocalized-noise]	[vocalized-noise]
sw3206B-ms98-a-0041	B.40	224.211875	224.691875		Actually	actually
sw3206B-ms98-a-0041	B.40	224.691875	224.841875		you	you
sw3206B-ms98-a-0041	B.40	224.841875	224.941875		know	know
sw3206B-ms98-a-0041	B.40	224.941875	225.081875		my	my
sw3206B-ms98-a-0041	B.40	225.081875	225.451875		husband	husband
sw3206B-ms98-a-0041	B.40	225.451875	225.601875		has	has
sw3206B-ms98-a-0041	B.40	225.601875	225.801875		run	run
sw3206B-ms98-a-0041	B.40	225.801875	225.961875		for	for
sw3206B-ms98-a-0041	B.40	225.961875	226.339875		office	office
sw3206B-ms98-a-0041	B.40	226.339875	226.908625		before	before
sw3206B-ms98-a-0041	B.40	226.908625	227.330375		and	and
sw3206B-ms98-a-0041	B.40	227.330375	227.823875		[silence]	[silence]
sw3206B-ms98-a-0041	B.40	227.823875	228.391875		sometimes	sometimes
sw3206B-ms98-a-0041	B.40	228.391875	228.601875		it's	it's
sw3206B-ms98-a-0041	B.40	228.601875	229.111875		nice	nice
sw3206B-ms98-a-0041	B.40	229.111875	229.390125		to	to
sw3206B-ms98-a-0041	B.40	229.390125	229.491875		be	be
sw3206B-ms98-a-0041	B.40	229.491875	229.711875		able	able
sw3206B-ms98-a-0041	B.40	229.711875	229.801875		to	to
sw3206B-ms98-a-0041	B.40	229.801875	230.011875		go	go
sw3206B-ms98-a-0041	B.40	230.011875	230.271875		ahead	ahead
sw3206B-ms98-a-0041	B.40	230.271875	230.331875		of	of
sw3206B-ms98-a-0041	B.40	230.331875	230.741875		time	time
sw3206B-ms98-a-0041	B.40	230.741875	230.961875		and	and
sw3206B-ms98-a-0041	B.40	230.961875	231.395125		vote	vote
sw3206B-ms98-a-0041	B.40	231.395125	231.549500		[silence]	[silence]
sw3206B-ms98-a-0041	B.40	231.549500	231.881875		because	because
sw3206B-ms98-a-0041	B.40	231.881875	231.981875		you	you
sw3206B-ms98-a-0041	B.40	231.981875	232.101875		know	know
sw3206B-ms98-a-0041	B.40	232.101875	232.181875		if	if
sw3206B-ms98-a-0041	B.40	232.181875	232.291875		you're	you're
sw3206B-ms98-a-0041	B.40	232.291875	232.451875	<SUB>	going	gonna
sw3206B-ms98-a-0041	B.40	232.451875	232.451875	<INS>	to	---
sw3206B-ms98-a-0041	B.40	232.451875	232.561875		be	be
sw3206B-ms98-a-0041	B.40	232.561875	232.851875		tied	tied
sw3206B-ms98-a-0041	B.40	232.851875	233.051875		up	up
sw3206B-ms98-a-0041	B.40	233.051875	233.271875		that	that
sw3206B-ms98-a-0041	B.40	233.271875	233.656375		day	day
sw3206B-ms98-a-0041	B.40	233.656375	233.898625		[silence]	[silence]
sw3206B-ms98-a-0042	B.40	233.898625	234.248625		[silence]	[silence]
sw3206B-ms98-a-0042	B.40	234.248625	234.691250		uh	uh
sw3206B-ms98-a-0042	B.40	234.691250	235.467125		campaigning	campaigning
sw3206B-ms98-a-0042	B.40	235.467125	235.628625		or	or
sw3206B-ms98-a-0042	B.40	235.628625	236.118625		whatever	whatever
sw3206B-ms98-a-0042	B.40	236.118625	236.218625		it	it
sw3206B-ms98-a-0042	B.40	236.218625	236.498625		might	might
sw3206B-ms98-a-0042	B.40	236.498625	236.830750		be	be
sw3206B-ms98-a-0042	B.40	236.830750	237.380625		[silence]	[silence]
sw3206B-ms98-a-0042	B.40	237.380625	237.898625		Um	um
sw3206B-ms98-a-0042	B.40	237.898625	238.118625		that	that
sw3206B-ms98-a-0042	B.40	238.118625	238.288625		kind	kind
sw3206B-ms98-a-0042	B.40	238.288625	238.358625		of	of
sw3206B-ms98-a-0042	B.40	238.358625	238.578625		just	just
sw3206B-ms98-a-0042	B.40	238.578625	238.758625		kind	kind
sw3206B-ms98-a-0042	B.40	238.758625	238.818625		of	of
sw3206B-ms98-a-0042	B.40	238.818625	239.088625		takes	takes
sw3206B-ms98-a-0042	B.40	239.088625	239.278625		that	that
sw3206B-ms98-a-0042	B.40	239.278625	239.538625		load	load
sw3206B-ms98-a-0042	B.40	239.538625	239.808625		off	off
sw3206B-ms98-a-0042	B.40	239.808625	239.888625		you	you
sw3206B-ms98-a-0042	B.40	239.888625	239.988625		know	know
sw3206B-ms98-a-0042	B.40	239.988625	240.138625		you	you
sw3206B-ms98-a-0042	B.40	240.138625	240.308625		can	can
sw3206B-ms98-a-0042	B.40	240.308625	240.488625		just	just
sw3206B-ms98-a-0042	B.40	240.488625	240.608625		go	go
sw3206B-ms98-a-0042	B.40	240.608625	240.848625		ahead	ahead
sw3206B-ms98-a-0042	B.40	240.848625	240.948625		and	and
sw3206B-ms98-a-0042	B.40	240.948625	241.138625		get	get
sw3206B-ms98-a-0042	B.40	241.138625	241.438625		that	that
sw3206B-ms98-a-0042	B.40	241.438625	241.758625		taken	taken
sw3206B-ms98-a-0042	B.40	241.758625	242.028625		care	care
sw3206B-ms98-a-0042	B.40	242.028625	242.208625		of	of
sw3206B-ms98-a-0042	B.40	242.208625	242.398625		and	and
sw3206B-ms98-a-0042	B.42	242.398625	242.845625		[silence]	[silence]
sw3206B-ms98-a-0043	B.42	242.845625	246.776125		[silence]	[silence]
sw3206B-ms98-a-0044	B.42	246.776125	247.246125		[silence]	[silence]
sw3206B-ms98-a-0044	B.42	247.246125	247.635625	<SUB>	Uh-huh	um-hum
sw3206B-ms98-a-0044	B.44	247.635625	248.104375		[silence]	[silence]
sw3206B-ms98-a-0045	B.44	248.104375	258.260500		[silence]	[silence]
sw3206B-ms98-a-0046	B.44	258.260500	258.770500		[silence]	[silence]
sw3206B-ms98-a-0046	B.44	258.770500	259.145875	<SUB>	Uh-huh	um-hum
sw3206B-ms98-a-0046	B.46	259.145875	259.674250		[silence]	[silence]
sw3206B-ms98-a-0047	B.46	259.674250	281.066250		[silence]	[silence]
sw3206B-ms98-a-0048	B.46	281.066250	281.586250		[silence]	[silence]
sw3206B-ms98-a-0048	B.46	281.586250	281.816250		Well	well
sw3206B-ms98-a-0048	B.46	281.816250	282.266250		hopefully	hopefully
sw3206B-ms98-a-0048	B.46	282.266250	282.566250		once	once
sw3206B-ms98-a-0048	B.46	282.566250	282.786250		they	they
sw3206B-ms98-a-0048	B.46	282.786250	283.166250		have	have
sw3206B-ms98-a-0048	B.46	283.166250	283.414000		uh	uh
sw3206B-ms98-a-0048	B.46	283.414000	283.904875		[silence]	[silence]
sw3206B-ms98-a-0049	B.46	283.904875	284.521875		[silence]	[silence]
sw3206B-ms98-a-0049	B.46	284.521875	284.604875		you	you
sw3206B-ms98-a-0049	B.46	284.604875	284.734875		know	know
sw3206B-ms98-a-0049	B.46	284.734875	284.964875		once	once
sw3206B-ms98-a-0049	B.46	284.964875	285.114875		they've	they've
sw3206B-ms98-a-0049	B.46	285.114875	285.444875		checked	checked
sw3206B-ms98-a-0049	B.46	285.444875	285.604875		them	them
sw3206B-ms98-a-0049	B.46	285.604875	285.814875		off	off
sw3206B-ms98-a-0049	B.46	285.814875	285.894875		the	the
sw3206B-ms98-a-0049	B.46	285.894875	286.334875		list	list
sw3206B-ms98-a-0049	B.46	286.334875	286.534875		they	they
sw3206B-ms98-a-0049	B.46	286.534875	286.794875		they	they
sw3206B-ms98-a-0049	B.46	286.794875	287.004875		do	do
sw3206B-ms98-a-0049	B.46	287.004875	287.164875		have	have
sw3206B-ms98-a-0049	B.46	287.164875	287.274875		to	to
sw3206B-ms98-a-0049	B.46	287.274875	287.534875		check	check
sw3206B-ms98-a-0049	B.46	287.534875	287.634875		them	them_1
sw3206B-ms98-a-0049	B.46	287.634875	287.834875		off	off
sw3206B-ms98-a-0049	B.46	287.834875	287.884875		a	a
sw3206B-ms98-a-0049	B.46	287.884875	288.435250		list	list
sw3206B-ms98-a-0049	B.48	288.435250	288.974125		[silence]	[silence]
sw3206B-ms98-a-0050	B.48	288.974125	289.541000		[silence]	[silence]
sw3206B-ms98-a-0050	B.48	289.541000	289.654125		when	when
sw3206B-ms98-a-0050	B.48	289.654125	289.784125		they	they
sw3206B-ms98-a-0050	B.48	289.784125	290.084125		vote	vote
sw3206B-ms98-a-0050	B.48	290.084125	290.264125		so	so
sw3206B-ms98-a-0050	B.48	290.264125	290.714125		hopefully	hopefully
sw3206B-ms98-a-0050	B.48	290.714125	290.854125		they	they
sw3206B-ms98-a-0050	B.48	290.854125	291.480500		couldn't	couldn't
sw3206B-ms98-a-0050	B.48	291.480500	291.952750		[silence]	[silence]
sw3206B-ms98-a-0051	B.48	291.952750	299.170000		[silence]	[silence]
