sw3250B-ms98-a-0001	B.2	0.000000	0.001625		[silence]	[silence]
sw3250B-ms98-a-0001	B.2	0.001625	0.007000		[noise]	[noise]
sw3250B-ms98-a-0001	B.2	0.007000	0.283375		[silence]	[silence]
sw3250B-ms98-a-0002	B.2	0.283375	0.473375		[silence]	[silence]
sw3250B-ms98-a-0002	B.2	0.473375	0.580375		Why	why
sw3250B-ms98-a-0002	B.2	0.580375	0.743375		don't	don't
sw3250B-ms98-a-0002	B.2	0.743375	0.843375		you	you
sw3250B-ms98-a-0002	B.2	0.843375	0.943375		go	go
sw3250B-ms98-a-0002	B.2	0.943375	1.133375		ahead	ahead
sw3250B-ms98-a-0002	B.2	1.133375	1.223375		and	and
sw3250B-ms98-a-0002	B.2	1.223375	1.577875		start	start
sw3250B-ms98-a-0002	B.4	1.577875	2.052625		[silence]	[silence]
sw3250B-ms98-a-0003	B.4	2.052625	10.493125		[silence]	[silence]
sw3250B-ms98-a-0004	B.4	10.493125	11.100375		[silence]	[silence]
sw3250B-ms98-a-0004	B.4	11.100375	11.464250	<SUB>	Uh-huh	um-hum
sw3250B-ms98-a-0004	B.6	11.464250	12.106125		[silence]	[silence]
sw3250B-ms98-a-0005	B.6	12.106125	31.290000		[silence]	[silence]
sw3250B-ms98-a-0006	B.6	31.290000	31.976375		[silence]	[silence]
sw3250B-ms98-a-0006	B.6	31.976375	32.420000	<SUB>	Uh-huh	um-hum
sw3250B-ms98-a-0006	B.8	32.420000	32.977375		[silence]	[silence]
sw3250B-ms98-a-0007	B.8	32.977375	33.618750		[silence]	[silence]
sw3250B-ms98-a-0007	B.8	33.618750	34.110875	<SUB>	Uh-huh	um-hum
sw3250B-ms98-a-0007	B.10	34.110875	35.032875		[silence]	[silence]
sw3250B-ms98-a-0008	B.10	35.032875	36.192875		[silence]	[silence]
sw3250B-ms98-a-0008	B.10	36.192875	36.632875		Yeah	yeah
sw3250B-ms98-a-0008	B.10	36.632875	37.022375		I	i
sw3250B-ms98-a-0008	B.10	37.022375	37.272875		well	well
sw3250B-ms98-a-0008	B.10	37.272875	37.372875		I	i
sw3250B-ms98-a-0008	B.10	37.372875	37.752875		have	have
sw3250B-ms98-a-0008	B.10	37.752875	37.872875		in	in
sw3250B-ms98-a-0008	B.10	37.872875	37.942875		a	a
sw3250B-ms98-a-0008	B.10	37.942875	38.246250	<SUB>	whi-	wh[ile]-
sw3250B-ms98-a-0008	B.10	38.246250	38.392875		for	for
sw3250B-ms98-a-0008	B.10	38.392875	38.442875		a	a
sw3250B-ms98-a-0008	B.10	38.442875	38.802875		while	while
sw3250B-ms98-a-0008	B.10	38.802875	38.862875		I	i
sw3250B-ms98-a-0008	B.10	38.862875	39.292875		haven't	haven't
sw3250B-ms98-a-0008	B.10	39.292875	39.652875		gotten	gotten
sw3250B-ms98-a-0008	B.10	39.652875	39.962875		any	any
sw3250B-ms98-a-0008	B.10	39.962875	40.440875		because	because
sw3250B-ms98-a-0008	B.10	40.440875	40.678000		I	i
sw3250B-ms98-a-0008	B.10	40.678000	40.975500		just	just
sw3250B-ms98-a-0008	B.10	40.975500	41.222875		find	find
sw3250B-ms98-a-0008	B.10	41.222875	41.312875		that	that
sw3250B-ms98-a-0008	B.10	41.312875	41.442875		I'm	i'm
sw3250B-ms98-a-0008	B.10	41.442875	41.808625		not	not
sw3250B-ms98-a-0008	B.10	41.808625	42.212875		reading	reading
sw3250B-ms98-a-0008	B.10	42.212875	42.372875		what	what
sw3250B-ms98-a-0008	B.10	42.372875	42.562875		I'm	i'm
sw3250B-ms98-a-0008	B.10	42.562875	42.982875		getting	getting
sw3250B-ms98-a-0008	B.10	42.982875	43.262875		because	because_1
sw3250B-ms98-a-0008	B.10	43.262875	43.488625		uh	uh
sw3250B-ms98-a-0008	B.10	43.488625	43.817250		[silence]	[silence]
sw3250B-ms98-a-0009	B.10	43.817250	43.892875		[silence]	[silence]
sw3250B-ms98-a-0009	B.10	43.892875	43.957250		I	i
sw3250B-ms98-a-0009	B.10	43.957250	44.127250		have	have
sw3250B-ms98-a-0009	B.10	44.127250	44.317250		so	so
sw3250B-ms98-a-0009	B.10	44.317250	44.567250		much	much
sw3250B-ms98-a-0009	B.10	44.567250	44.877250		going	going
sw3250B-ms98-a-0009	B.10	44.877250	45.087250		on	on
sw3250B-ms98-a-0009	B.10	45.087250	45.157250		in	in
sw3250B-ms98-a-0009	B.10	45.157250	45.277250		my	my
sw3250B-ms98-a-0009	B.10	45.277250	45.567250		life	life
sw3250B-ms98-a-0009	B.10	45.567250	45.737250		that	that
sw3250B-ms98-a-0009	B.10	45.737250	45.997250		seems	seems
sw3250B-ms98-a-0009	B.10	45.997250	46.117250		to	to
sw3250B-ms98-a-0009	B.10	46.117250	46.237250		be	be
sw3250B-ms98-a-0009	B.10	46.237250	46.357250		the	the
sw3250B-ms98-a-0009	B.10	46.357250	46.717250		last	last
sw3250B-ms98-a-0009	B.10	46.717250	46.917250		thing	thing
sw3250B-ms98-a-0009	B.10	46.917250	46.997250		I	i
sw3250B-ms98-a-0009	B.10	46.997250	47.317250		pick	pick
sw3250B-ms98-a-0009	B.10	47.317250	47.657250		up	up
sw3250B-ms98-a-0009	B.10	47.657250	48.031250		so	so
sw3250B-ms98-a-0009	B.10	48.031250	48.421375		[silence]	[silence]
sw3250B-ms98-a-0009	B.10	48.421375	48.541875		I	i
sw3250B-ms98-a-0009	B.10	48.541875	48.797250		found	found
sw3250B-ms98-a-0009	B.10	48.797250	48.907250		that	that
sw3250B-ms98-a-0009	B.10	48.907250	48.987250		I	i
sw3250B-ms98-a-0009	B.10	48.987250	49.237250		was	was
sw3250B-ms98-a-0009	B.10	49.237250	49.667250		wasting	wasting
sw3250B-ms98-a-0009	B.10	49.667250	49.797250		my	my
sw3250B-ms98-a-0009	B.10	49.797250	50.107250		money	money
sw3250B-ms98-a-0009	B.10	50.107250	50.297250		As	as
sw3250B-ms98-a-0009	B.10	50.297250	50.497250		much	much
sw3250B-ms98-a-0009	B.10	50.497250	50.647250		as	as
sw3250B-ms98-a-0009	B.10	50.647250	50.767250		I	i
sw3250B-ms98-a-0009	B.10	50.767250	51.307500		enjoy	enjoy
sw3250B-ms98-a-0009	B.10	51.307500	51.551500		them	them_1
sw3250B-ms98-a-0009	B.10	51.551500	51.618750		[silence]	[silence]
sw3250B-ms98-a-0010	B.10	51.618750	51.718750		[silence]	[silence]
sw3250B-ms98-a-0010	B.10	51.718750	51.938750		uh	uh
sw3250B-ms98-a-0010	B.10	51.938750	52.158750		when	when
sw3250B-ms98-a-0010	B.10	52.158750	52.258750		I	i
sw3250B-ms98-a-0010	B.10	52.258750	52.568750		do	do
sw3250B-ms98-a-0010	B.10	52.568750	53.158750		subscribe	subscribe
sw3250B-ms98-a-0010	B.10	53.158750	53.319625	<SUB>	I	i-
sw3250B-ms98-a-0010	B.10	53.319625	53.515500		[silence]	[silence]
sw3250B-ms98-a-0010	B.10	53.515500	53.708750		I've	i've
sw3250B-ms98-a-0010	B.10	53.708750	53.988750		gotten	gotten
sw3250B-ms98-a-0010	B.10	53.988750	54.098750		in	in
sw3250B-ms98-a-0010	B.10	54.098750	54.158750		the	the
sw3250B-ms98-a-0010	B.10	54.158750	54.588750		past	past
sw3250B-ms98-a-0010	B.10	54.588750	54.648750		the	the
sw3250B-ms98-a-0010	B.10	54.648750	55.138750		PARENTS	Parents
sw3250B-ms98-a-0010	B.10	55.138750	55.888750		magazine	magazine
sw3250B-ms98-a-0010	B.10	55.888750	56.080500		and	and
sw3250B-ms98-a-0010	B.10	56.080500	56.589000		[silence]	[silence]
sw3250B-ms98-a-0010	B.10	56.589000	57.126750		uh	uh
sw3250B-ms98-a-0010	B.10	57.126750	57.612625		[noise]	[noise]
sw3250B-ms98-a-0010	B.10	57.612625	57.708750		the	the
sw3250B-ms98-a-0010	B.10	57.708750	58.338750		HOUSEKEEPING	Housekeeping
sw3250B-ms98-a-0010	B.10	58.338750	59.058750		magazine	magazine
sw3250B-ms98-a-0010	B.12	59.058750	59.297875	<DEL>	---	and
sw3250B-ms98-a-0010	B.12	59.297875	59.645625		uh	uh
sw3250B-ms98-a-0010	B.14	59.645625	60.409250		[silence]	[silence]
sw3250B-ms98-a-0011	B.14	60.409250	61.480625		[silence]	[silence]
sw3250B-ms98-a-0011	B.14	61.480625	62.064000		Yes	yes
sw3250B-ms98-a-0011	B.14	62.064000	62.205250		[silence]	[silence]
sw3250B-ms98-a-0011	B.14	62.205250	62.634000		yeah	yeah
sw3250B-ms98-a-0011	B.16	62.634000	63.469500		[silence]	[silence]
sw3250B-ms98-a-0012	B.16	63.469500	64.462875		[silence]	[silence]
sw3250B-ms98-a-0012	B.16	64.462875	64.839250		Yeah	yeah
sw3250B-ms98-a-0012	B.16	64.839250	65.036750		[silence]	[silence]
sw3250B-ms98-a-0012	B.16	65.036750	65.418875		yeah	yeah
sw3250B-ms98-a-0012	B.18	65.418875	65.848375		[silence]	[silence]
sw3250B-ms98-a-0013	B.18	65.848375	67.568125		[silence]	[silence]
sw3250B-ms98-a-0014	B.18	67.568125	68.006250		[silence]	[silence]
sw3250B-ms98-a-0014	B.18	68.006250	69.675625		[laughter]	[laughter]
sw3250B-ms98-a-0014	B.18	69.675625	70.168125		Right	right
sw3250B-ms98-a-0014	B.18	70.168125	70.378125		well	well
sw3250B-ms98-a-0014	B.18	70.378125	70.488125		I	i
sw3250B-ms98-a-0014	B.18	70.488125	70.828125		found	found
sw3250B-ms98-a-0014	B.18	70.828125	70.998125		that	that
sw3250B-ms98-a-0014	B.18	70.998125	71.318125		after	after
sw3250B-ms98-a-0014	B.18	71.318125	71.368125		a	a
sw3250B-ms98-a-0014	B.18	71.368125	71.734250		couple	couple
sw3250B-ms98-a-0014	B.18	71.734250	71.798250		of	of
sw3250B-ms98-a-0014	B.18	71.798250	72.058125		years	years
sw3250B-ms98-a-0014	B.18	72.058125	72.168125		of	of
sw3250B-ms98-a-0014	B.18	72.168125	72.448125		having	having
sw3250B-ms98-a-0014	B.18	72.448125	72.508125		a	a
sw3250B-ms98-a-0014	B.18	72.508125	72.848125		PARENTS	Parents
sw3250B-ms98-a-0014	B.18	72.848125	73.328125		magazine	magazine
sw3250B-ms98-a-0014	B.18	73.328125	73.398125		it	it
sw3250B-ms98-a-0014	B.18	73.398125	73.538125		was	was
sw3250B-ms98-a-0014	B.18	73.538125	73.798125		getting	getting
sw3250B-ms98-a-0014	B.18	73.798125	74.488125		repetitious	repetitious
sw3250B-ms98-a-0014	B.18	74.488125	74.668125		so	so
sw3250B-ms98-a-0014	B.18	74.668125	74.778125		I	i
sw3250B-ms98-a-0014	B.18	74.778125	75.038125		kind	kind
sw3250B-ms98-a-0014	B.18	75.038125	75.098125		of	of
sw3250B-ms98-a-0014	B.18	75.098125	75.688125		canceled	canceled
sw3250B-ms98-a-0014	B.18	75.688125	75.798125		it	it
sw3250B-ms98-a-0014	B.18	75.798125	76.316250		anyway	anyway
sw3250B-ms98-a-0014	B.18	76.316250	76.448125		for	for
sw3250B-ms98-a-0014	B.18	76.448125	76.678125		that	that
sw3250B-ms98-a-0014	B.18	76.678125	77.074875		reason	reason
sw3250B-ms98-a-0014	B.18	77.074875	77.115500		[noise]	[noise]
sw3250B-ms98-a-0014	B.18	77.115500	77.115500		[silence]	[silence]
sw3250B-ms98-a-0015	B.18	77.115500	77.624000		[silence]	[silence]
sw3250B-ms98-a-0015	B.18	77.624000	77.975500		Uh	uh
sw3250B-ms98-a-0015	B.18	77.975500	78.105500		the	the
sw3250B-ms98-a-0015	B.18	78.105500	78.655500		HOUSEKEEPING	Housekeeping
sw3250B-ms98-a-0015	B.18	78.655500	79.215500		magazines	magazines
sw3250B-ms98-a-0015	B.18	79.215500	79.384625		I	i
sw3250B-ms98-a-0015	B.18	79.384625	79.555500		do	do
sw3250B-ms98-a-0015	B.18	79.555500	79.895500		like	like
sw3250B-ms98-a-0015	B.18	79.895500	80.355500		because	because
sw3250B-ms98-a-0015	B.18	80.355500	80.524875		they	they
sw3250B-ms98-a-0015	B.18	80.524875	80.785500		like	like
sw3250B-ms98-a-0015	B.18	80.785500	80.885500		you	you
sw3250B-ms98-a-0015	B.18	80.885500	81.145500		say	say
sw3250B-ms98-a-0015	B.18	81.145500	81.255500		they	they
sw3250B-ms98-a-0015	B.18	81.255500	81.495500		have	have
sw3250B-ms98-a-0015	B.18	81.495500	81.737125		nice	nice
sw3250B-ms98-a-0015	B.18	81.737125	81.925500		[vocalized-noise]	[vocalized-noise]
sw3250B-ms98-a-0015	B.18	81.925500	82.215500		uh	uh
sw3250B-ms98-a-0015	B.18	82.215500	82.765500		recipes	recipes
sw3250B-ms98-a-0015	B.18	82.765500	82.905500		in	in
sw3250B-ms98-a-0015	B.18	82.905500	83.075500		them	them
sw3250B-ms98-a-0015	B.18	83.075500	83.235500		and	and
sw3250B-ms98-a-0015	B.18	83.235500	83.855500		ideas	ideas
sw3250B-ms98-a-0015	B.18	83.855500	84.093125		but	but
sw3250B-ms98-a-0015	B.18	84.093125	84.782500		[silence]	[silence]
sw3250B-ms98-a-0015	B.18	84.782500	85.213125		uh	uh
sw3250B-ms98-a-0015	B.18	85.213125	85.469250		[silence]	[silence]
sw3250B-ms98-a-0015	B.18	85.469250	85.865500		lately	lately
sw3250B-ms98-a-0015	B.18	85.865500	86.005500	<SUB>	they've	they
sw3250B-ms98-a-0015	B.18	86.005500	86.215500		just	just
sw3250B-ms98-a-0015	B.18	86.215500	86.355500		been	been
sw3250B-ms98-a-0015	B.18	86.355500	86.855500		piling	piling
sw3250B-ms98-a-0015	B.18	86.855500	87.055500		up	up
sw3250B-ms98-a-0015	B.18	87.055500	87.245500		on	on
sw3250B-ms98-a-0015	B.18	87.245500	87.415500		me	me
sw3250B-ms98-a-0015	B.18	87.415500	87.745500		so	so
sw3250B-ms98-a-0015	B.18	87.745500	87.963500		I	i
sw3250B-ms98-a-0015	B.18	87.963500	88.121625		[silence]	[silence]
sw3250B-ms98-a-0015	B.18	88.121625	88.455500		figured	figured
sw3250B-ms98-a-0015	B.18	88.455500	88.555500		it	it
sw3250B-ms98-a-0015	B.18	88.555500	89.075500		wasn't	wasn't
sw3250B-ms98-a-0015	B.18	89.075500	89.325125		uh	uh
sw3250B-ms98-a-0015	B.18	89.325125	89.735500		something	something
sw3250B-ms98-a-0015	B.18	89.735500	89.845500		I	i
sw3250B-ms98-a-0015	B.18	89.845500	90.225500		needed	needed
sw3250B-ms98-a-0015	B.18	90.225500	90.365500		at	at
sw3250B-ms98-a-0015	B.18	90.365500	90.575500		this	this
sw3250B-ms98-a-0015	B.18	90.575500	90.875500		point	point
sw3250B-ms98-a-0015	B.18	90.875500	90.935500		in	in
sw3250B-ms98-a-0015	B.18	90.935500	91.341250		time	time
sw3250B-ms98-a-0015	B.20	91.341250	91.542125		[silence]	[silence]
sw3250B-ms98-a-0016	B.20	91.542125	95.644375		[silence]	[silence]
sw3250B-ms98-a-0017	B.20	95.644375	96.211375		[silence]	[silence]
sw3250B-ms98-a-0017	B.20	96.211375	96.369375		[noise]	[noise]
sw3250B-ms98-a-0017	B.20	96.369375	96.631500		[silence]	[silence]
sw3250B-ms98-a-0018	B.20	96.631500	97.105125		[silence]	[silence]
sw3250B-ms98-a-0018	B.20	97.105125	97.341000		I	i
sw3250B-ms98-a-0018	B.20	97.341000	97.491500		don't	don't
sw3250B-ms98-a-0018	B.20	97.491500	97.970500		know	know
sw3250B-ms98-a-0018	B.20	97.970500	98.200250		[silence]	[silence]
sw3250B-ms98-a-0018	B.20	98.200250	98.497000	<SUB>	I	i-
sw3250B-ms98-a-0018	B.20	98.497000	98.640125		[silence]	[silence]
sw3250B-ms98-a-0018	B.20	98.640125	98.867250		I	i
sw3250B-ms98-a-0018	B.20	98.867250	99.451000		[silence]	[silence]
sw3250B-ms98-a-0018	B.20	99.451000	99.691500		well	well
sw3250B-ms98-a-0018	B.20	99.691500	99.861500		my	my
sw3250B-ms98-a-0018	B.20	99.861500	100.494625		husband	husband
sw3250B-ms98-a-0018	B.20	100.494625	100.721500		would	would
sw3250B-ms98-a-0018	B.20	100.721500	100.911500		love	love
sw3250B-ms98-a-0018	B.20	100.911500	101.071500		to	to
sw3250B-ms98-a-0018	B.20	101.071500	101.341500		have	have
sw3250B-ms98-a-0018	B.20	101.341500	101.751500		more	more
sw3250B-ms98-a-0018	B.20	101.751500	101.911500		Now	now
sw3250B-ms98-a-0018	B.20	101.911500	102.291500		he's	he's
sw3250B-ms98-a-0018	B.20	102.291500	102.371500		the	the
sw3250B-ms98-a-0018	B.20	102.371500	102.761500		type	type
sw3250B-ms98-a-0018	B.20	102.761500	102.861500		who	who
sw3250B-ms98-a-0018	B.20	102.861500	103.051500		will	will
sw3250B-ms98-a-0018	B.20	103.051500	103.345625		get	get
sw3250B-ms98-a-0018	B.20	103.345625	103.633125		the	the
sw3250B-ms98-a-0018	B.20	103.633125	104.111500		[silence]	[silence]
sw3250B-ms98-a-0018	B.20	104.111500	104.802375		uh	uh
sw3250B-ms98-a-0018	B.20	104.802375	105.211500		INC	Inc
sw3250B-ms98-a-0018	B.20	105.211500	105.951500		magazine	magazine
sw3250B-ms98-a-0018	B.20	105.951500	106.101500		and	and
sw3250B-ms98-a-0018	B.20	106.101500	106.381500		MONEY	Money
sw3250B-ms98-a-0018	B.20	106.381500	107.011500		magazine	magazine
sw3250B-ms98-a-0018	B.20	107.011500	107.121500		and	and
sw3250B-ms98-a-0018	B.20	107.121500	107.311500		all	all
sw3250B-ms98-a-0018	B.20	107.311500	107.421500		the	the
sw3250B-ms98-a-0018	B.20	107.421500	108.151500		financial	financial
sw3250B-ms98-a-0018	B.20	108.151500	108.491500		type	type
sw3250B-ms98-a-0018	B.20	108.491500	109.232750		magazines	magazines
sw3250B-ms98-a-0018	B.22	109.232750	109.703125		[silence]	[silence]
sw3250B-ms98-a-0019	B.22	109.703125	110.296250		[silence]	[silence]
sw3250B-ms98-a-0019	B.22	110.296250	110.679375		Yeah	yeah
sw3250B-ms98-a-0019	B.24	110.679375	111.095000		[silence]	[silence]
sw3250B-ms98-a-0020	B.24	111.095000	113.041500		[silence]	[silence]
sw3250B-ms98-a-0021	B.24	113.041500	113.555250		[silence]	[silence]
sw3250B-ms98-a-0021	B.24	113.555250	113.990000		Uh-huh	uh-huh
sw3250B-ms98-a-0021	B.24	113.990000	114.134500		[silence]	[silence]
sw3250B-ms98-a-0021	B.24	114.134500	114.596500		yes	yes
sw3250B-ms98-a-0021	B.26	114.596500	115.009000		[silence]	[silence]
sw3250B-ms98-a-0022	B.26	115.009000	118.994125		[silence]	[silence]
sw3250B-ms98-a-0023	B.26	118.994125	119.507000		[silence]	[silence]
sw3250B-ms98-a-0023	B.26	119.507000	119.933250	<SUB>	Uh-huh	um-hum
sw3250B-ms98-a-0023	B.28	119.933250	120.501625		[silence]	[silence]
sw3250B-ms98-a-0024	B.28	120.501625	130.308250		[silence]	[silence]
sw3250B-ms98-a-0025	B.28	130.308250	130.858250		[silence]	[silence]
sw3250B-ms98-a-0025	B.28	130.858250	131.419625	<SUB>	Uh-huh	um-hum
sw3250B-ms98-a-0025	B.30	131.419625	131.885500		[silence]	[silence]
sw3250B-ms98-a-0026	B.30	131.885500	139.367250		[silence]	[silence]
sw3250B-ms98-a-0027	B.30	139.367250	139.867250		[silence]	[silence]
sw3250B-ms98-a-0027	B.30	139.867250	140.260625	<SUB>	Uh-huh	um-hum
sw3250B-ms98-a-0027	B.32	140.260625	140.738250		[silence]	[silence]
sw3250B-ms98-a-0028	B.32	140.738250	143.406000		[silence]	[silence]
sw3250B-ms98-a-0029	B.32	143.406000	143.639125		[silence]	[silence]
sw3250B-ms98-a-0029	B.32	143.639125	143.930000		[noise]	[noise]
sw3250B-ms98-a-0029	B.32	143.930000	144.160875		Well	well
sw3250B-ms98-a-0029	B.34	144.160875	144.682500		[silence]	[silence]
sw3250B-ms98-a-0030	B.34	144.682500	145.152500		[silence]	[silence]
sw3250B-ms98-a-0030	B.34	145.152500	145.512500		yeah	yeah
sw3250B-ms98-a-0030	B.34	145.512500	145.632500		and	and
sw3250B-ms98-a-0030	B.34	145.632500	145.892500	<DEL>	---	and
sw3250B-ms98-a-0030	B.34	145.892500	146.082500		some	some
sw3250B-ms98-a-0030	B.34	146.082500	146.182500		of	of
sw3250B-ms98-a-0030	B.34	146.182500	146.412500		those	those
sw3250B-ms98-a-0030	B.34	146.412500	146.562500	<DEL>	---	that
sw3250B-ms98-a-0030	B.34	146.562500	146.952500		have	have
sw3250B-ms98-a-0030	B.34	146.952500	146.952500	<INS>	had	---
sw3250B-ms98-a-0030	B.34	146.952500	147.109500		what	what
sw3250B-ms98-a-0030	B.34	147.109500	147.627375		[silence]	[silence]
sw3250B-ms98-a-0030	B.34	147.627375	147.774250		what	what
sw3250B-ms98-a-0030	B.34	147.774250	147.912500		I	i
sw3250B-ms98-a-0030	B.34	147.912500	148.662500		consider	consider
sw3250B-ms98-a-0030	B.34	148.662500	148.952500		or	or
sw3250B-ms98-a-0030	B.34	148.952500	149.142500		what	what
sw3250B-ms98-a-0030	B.34	149.142500	149.232500		I	i
sw3250B-ms98-a-0030	B.34	149.232500	149.442500		get	get
sw3250B-ms98-a-0030	B.34	149.442500	149.742500		the	the
sw3250B-ms98-a-0030	B.34	149.742500	150.242500		idea	idea
sw3250B-ms98-a-0030	B.34	150.242500	150.432500		that	that
sw3250B-ms98-a-0030	B.34	150.432500	150.682500	<CONT>	they	they're
sw3250B-ms98-a-0030	B.34	150.682500	150.682500	<CONT>	are	+++
sw3250B-ms98-a-0030	B.34	150.682500	151.012500		maybe	maybe
sw3250B-ms98-a-0030	B.34	151.012500	151.291750		the	the
sw3250B-ms98-a-0030	B.34	151.291750	151.867875		[silence]	[silence]
sw3250B-ms98-a-0031	B.34	151.867875	152.178500		[silence]	[silence]
sw3250B-ms98-a-0031	B.34	152.178500	152.327875		the	the
sw3250B-ms98-a-0031	B.34	152.327875	152.527875		more	more
sw3250B-ms98-a-0031	B.34	152.527875	153.187875		pricier	pricier
sw3250B-ms98-a-0031	B.34	153.187875	153.457875		type	type
sw3250B-ms98-a-0031	B.34	153.457875	153.997875		magazines	magazines
sw3250B-ms98-a-0031	B.34	153.997875	154.167875		as	as
sw3250B-ms98-a-0031	B.34	154.167875	154.397875		far	far
sw3250B-ms98-a-0031	B.34	154.397875	154.547875		as	as
sw3250B-ms98-a-0031	B.34	154.547875	154.967875		women's	women's
sw3250B-ms98-a-0031	B.34	154.967875	155.487875		magazines	magazines
sw3250B-ms98-a-0031	B.34	155.487875	155.627875		They	they
sw3250B-ms98-a-0031	B.34	155.627875	155.967875		seem	seem
sw3250B-ms98-a-0031	B.34	155.967875	155.967875	<INS>	just	---
sw3250B-ms98-a-0031	B.34	155.967875	156.067875		to	to
sw3250B-ms98-a-0031	B.34	156.067875	156.167875		be	be
sw3250B-ms98-a-0031	B.34	156.167875	156.417875	<DEL>	---	just
sw3250B-ms98-a-0031	B.34	156.417875	156.537875		so	so
sw3250B-ms98-a-0031	B.34	156.537875	157.007875		chocked	chocked
sw3250B-ms98-a-0031	B.34	157.007875	157.311250		full	full
sw3250B-ms98-a-0031	B.34	157.311250	157.541375		of	of
sw3250B-ms98-a-0031	B.34	157.541375	158.056250		of	of
sw3250B-ms98-a-0031	B.34	158.056250	158.783875		ads	ads
sw3250B-ms98-a-0031	B.36	158.783875	158.834750		[silence]	[silence]
sw3250B-ms98-a-0032	B.36	158.834750	163.260750		[silence]	[silence]
sw3250B-ms98-a-0033	B.36	163.260750	163.785750		[silence]	[silence]
sw3250B-ms98-a-0033	B.36	163.785750	164.128250		Uh-huh	uh-huh
sw3250B-ms98-a-0033	B.38	164.128250	164.543250		[silence]	[silence]
sw3250B-ms98-a-0034	B.38	164.543250	167.547875		[silence]	[silence]
sw3250B-ms98-a-0035	B.38	167.547875	168.045625		[silence]	[silence]
sw3250B-ms98-a-0035	B.38	168.045625	168.617000		Yeah	yeah
sw3250B-ms98-a-0035	B.38	168.617000	168.784125		[silence]	[silence]
sw3250B-ms98-a-0035	B.38	168.784125	169.050750		yeah	yeah
sw3250B-ms98-a-0035	B.40	169.050750	169.541875		[silence]	[silence]
sw3250B-ms98-a-0036	B.40	169.541875	170.955750		[silence]	[silence]
sw3250B-ms98-a-0037	B.40	170.955750	171.420250		[silence]	[silence]
sw3250B-ms98-a-0037	B.40	171.420250	171.968875		Yes	yes
sw3250B-ms98-a-0037	B.42	171.968875	172.234125		[silence]	[silence]
sw3250B-ms98-a-0038	B.42	172.234125	175.219125		[silence]	[silence]
sw3250B-ms98-a-0039	B.42	175.219125	175.699125		[silence]	[silence]
sw3250B-ms98-a-0039	B.42	175.699125	176.213875		Right	right
sw3250B-ms98-a-0039	B.44	176.213875	177.086500		[laughter]	[laughter]
sw3250B-ms98-a-0039	B.44	177.086500	177.446750	<DEL>	---	yeah
sw3250B-ms98-a-0039	B.44	177.446750	177.828375		[silence]	[silence]
sw3250B-ms98-a-0040	B.44	177.828375	181.011250		[silence]	[silence]
sw3250B-ms98-a-0041	B.44	181.011250	181.533875		[silence]	[silence]
sw3250B-ms98-a-0041	B.44	181.533875	182.001250		Yes	yes
sw3250B-ms98-a-0041	B.46	182.001250	182.437375		Yeah	yeah
sw3250B-ms98-a-0041	B.48	182.437375	183.025250		[silence]	[silence]
sw3250B-ms98-a-0042	B.48	183.025250	183.790250		[silence]	[silence]
sw3250B-ms98-a-0042	B.48	183.790250	184.267000	<DEL>	---	yes
sw3250B-ms98-a-0042	B.48	184.267000	184.663875		[silence]	[silence]
sw3250B-ms98-a-0043	B.48	184.663875	190.572125		[silence]	[silence]
sw3250B-ms98-a-0044	B.48	190.572125	191.172125		[silence]	[silence]
sw3250B-ms98-a-0044	B.48	191.172125	191.700000	<SUB>	Uh-huh	um-hum
sw3250B-ms98-a-0044	B.48	191.700000	191.828000		[silence]	[silence]
sw3250B-ms98-a-0044	B.48	191.828000	192.304125	<SUB>	uh-huh	um-hum
sw3250B-ms98-a-0044	B.50	192.304125	192.805750		[silence]	[silence]
sw3250B-ms98-a-0045	B.50	192.805750	198.174375		[silence]	[silence]
sw3250B-ms98-a-0046	B.50	198.174375	198.635375		[silence]	[silence]
sw3250B-ms98-a-0046	B.50	198.635375	199.084375		Yes	yes
sw3250B-ms98-a-0046	B.52	199.084375	199.309125		I	i
sw3250B-ms98-a-0046	B.52	199.309125	199.749750		enjoy	enjoy
sw3250B-ms98-a-0046	B.52	199.749750	200.104375		books	books
sw3250B-ms98-a-0046	B.52	200.104375	200.184375		a	a
sw3250B-ms98-a-0046	B.52	200.184375	200.504375		lot	lot
sw3250B-ms98-a-0046	B.52	200.504375	201.044375		more	more
sw3250B-ms98-a-0046	B.54	201.044375	201.304375		that's	that's
sw3250B-ms98-a-0046	B.54	201.304375	201.701125		true	true
sw3250B-ms98-a-0046	B.56	201.701125	202.524875		[silence]	[silence]
sw3250B-ms98-a-0047	B.56	202.524875	203.196875		[silence]	[silence]
sw3250B-ms98-a-0047	B.56	203.196875	203.605750		Well	well
sw3250B-ms98-a-0047	B.58	203.605750	204.189625		[silence]	[silence]
sw3250B-ms98-a-0047	B.58	204.189625	204.354875	<SUB>	now	yeah
sw3250B-ms98-a-0047	B.58	204.354875	204.564875		I	i
sw3250B-ms98-a-0047	B.58	204.564875	204.714875		have	have
sw3250B-ms98-a-0047	B.58	204.714875	205.124875		certainly	certainly
sw3250B-ms98-a-0047	B.58	205.124875	205.524875		stopped	stopped
sw3250B-ms98-a-0047	B.58	205.524875	206.224875		subscribing	subscribing
sw3250B-ms98-a-0047	B.58	206.224875	206.414875		as	as
sw3250B-ms98-a-0047	B.58	206.414875	206.624875		much	much
sw3250B-ms98-a-0047	B.58	206.624875	206.744875		as	as
sw3250B-ms98-a-0047	B.58	206.744875	206.814875		I	i
sw3250B-ms98-a-0047	B.58	206.814875	207.094875		used	used
sw3250B-ms98-a-0047	B.58	207.094875	207.274875		to	to
sw3250B-ms98-a-0047	B.58	207.274875	207.464875		other	other
sw3250B-ms98-a-0047	B.58	207.464875	207.644875		than	than
sw3250B-ms98-a-0047	B.58	207.644875	207.774875		my	my
sw3250B-ms98-a-0047	B.58	207.774875	208.264875		children	children
sw3250B-ms98-a-0047	B.58	208.264875	208.384875		have	have
sw3250B-ms98-a-0047	B.58	208.384875	208.714875	<SUB>	gotten	gott[en]-
sw3250B-ms98-a-0047	B.58	208.714875	208.844875		You	you
sw3250B-ms98-a-0047	B.58	208.844875	208.944875		know	know
sw3250B-ms98-a-0047	B.58	208.944875	209.204875		they	they
sw3250B-ms98-a-0047	B.58	209.204875	209.474875		get	get
sw3250B-ms98-a-0047	B.58	209.474875	209.754875		tons	tons
sw3250B-ms98-a-0047	B.58	209.754875	209.814875		of	of
sw3250B-ms98-a-0047	B.58	209.814875	210.494875		magazines	magazines
sw3250B-ms98-a-0047	B.58	210.494875	210.604875		it	it
sw3250B-ms98-a-0047	B.58	210.604875	210.930375		seems	seems
sw3250B-ms98-a-0047	B.60	210.930375	211.148875	<DEL>	---	they
sw3250B-ms98-a-0047	B.60	211.148875	211.574875		[silence]	[silence]
sw3250B-ms98-a-0047	B.60	211.574875	211.754875		they're	they're
sw3250B-ms98-a-0047	B.60	211.754875	212.064875		always	always
sw3250B-ms98-a-0047	B.60	212.064875	212.294875		getting	getting
sw3250B-ms98-a-0047	B.60	212.294875	212.544875		something	something
sw3250B-ms98-a-0047	B.60	212.544875	212.654875		in	in
sw3250B-ms98-a-0047	B.60	212.654875	212.714875		the	the
sw3250B-ms98-a-0047	B.60	212.714875	213.232875		mail	mail
sw3250B-ms98-a-0047	B.60	213.232875	213.687125		[silence]	[silence]
sw3250B-ms98-a-0048	B.60	213.687125	213.787000		[silence]	[silence]
sw3250B-ms98-a-0048	B.60	213.787000	214.137125		and	and
sw3250B-ms98-a-0048	B.60	214.137125	214.137125	<INS>	and	---
sw3250B-ms98-a-0048	B.60	214.137125	214.317125		uh	uh
sw3250B-ms98-a-0048	B.60	214.317125	214.497125		so	so
sw3250B-ms98-a-0048	B.60	214.497125	214.997125		between	between
sw3250B-ms98-a-0048	B.60	214.997125	215.337125		reading	reading
sw3250B-ms98-a-0048	B.60	215.337125	215.457125		to	to
sw3250B-ms98-a-0048	B.60	215.457125	215.917125		them	them
sw3250B-ms98-a-0048	B.60	215.917125	216.177125		and	and
sw3250B-ms98-a-0048	B.60	216.177125	216.487625		uh	uh
sw3250B-ms98-a-0048	B.60	216.487625	216.615625		[silence]	[silence]
sw3250B-ms98-a-0048	B.60	216.615625	217.007125		reading	reading
sw3250B-ms98-a-0048	B.60	217.007125	217.067125		the	the
sw3250B-ms98-a-0048	B.60	217.067125	217.667125		newspaper	newspaper
sw3250B-ms98-a-0048	B.60	217.667125	217.967125		and	and
sw3250B-ms98-a-0048	B.60	217.967125	218.127125		then	then
sw3250B-ms98-a-0048	B.60	218.127125	218.197125		I	i
sw3250B-ms98-a-0048	B.60	218.197125	218.367125		have	have
sw3250B-ms98-a-0048	B.60	218.367125	218.457125		a	a
sw3250B-ms98-a-0048	B.60	218.457125	218.687125		book	book
sw3250B-ms98-a-0048	B.60	218.687125	218.847125		that	that
sw3250B-ms98-a-0048	B.60	218.847125	219.017125		I'm	i'm
sw3250B-ms98-a-0048	B.60	219.017125	219.547125		occasionally	occasionally
sw3250B-ms98-a-0048	B.60	219.547125	219.917125		reading	reading
sw3250B-ms98-a-0048	B.60	219.917125	220.097125		when	when
sw3250B-ms98-a-0048	B.60	220.097125	220.187125		I	i
sw3250B-ms98-a-0048	B.60	220.187125	220.387125		get	get
sw3250B-ms98-a-0048	B.60	220.387125	220.447125		a	a
sw3250B-ms98-a-0048	B.60	220.447125	220.957125		chance	chance
sw3250B-ms98-a-0048	B.60	220.957125	221.227125		but	but
sw3250B-ms98-a-0048	B.60	221.227125	221.337125		I	i
sw3250B-ms98-a-0048	B.60	221.337125	221.557125		just	just
sw3250B-ms98-a-0048	B.60	221.557125	221.707125		don't	don't
sw3250B-ms98-a-0048	B.60	221.707125	221.867125		get	get
sw3250B-ms98-a-0048	B.60	221.867125	221.917125		a	a
sw3250B-ms98-a-0048	B.60	221.917125	222.257125		chance	chance
sw3250B-ms98-a-0048	B.60	222.257125	222.407125		for	for
sw3250B-ms98-a-0048	B.60	222.407125	222.768875		those	those
sw3250B-ms98-a-0048	B.60	222.768875	222.911500		[silence]	[silence]
sw3250B-ms98-a-0049	B.60	222.911500	223.201500		[silence]	[silence]
sw3250B-ms98-a-0049	B.60	223.201500	223.351500		uh	uh
sw3250B-ms98-a-0049	B.60	223.351500	223.939375		newsy	newsy
sw3250B-ms98-a-0049	B.60	223.939375	224.150375		[silence]	[silence]
sw3250B-ms98-a-0049	B.60	224.150375	224.841500		magazines	magazines
sw3250B-ms98-a-0049	B.60	224.841500	225.086000		the	the
sw3250B-ms98-a-0049	B.60	225.086000	225.692375		[silence]	[silence]
sw3250B-ms98-a-0049	B.60	225.692375	225.921500		ones	ones
sw3250B-ms98-a-0049	B.60	225.921500	226.011500		that	that
sw3250B-ms98-a-0049	B.60	226.011500	226.081500		are	are
sw3250B-ms98-a-0049	B.60	226.081500	226.321500		full	full
sw3250B-ms98-a-0049	B.60	226.321500	226.421500		of	of
sw3250B-ms98-a-0049	B.60	226.421500	226.861500		ads	ads
sw3250B-ms98-a-0049	B.60	226.861500	227.191500		unless	unless
sw3250B-ms98-a-0049	B.60	227.191500	227.271500		you	you
sw3250B-ms98-a-0049	B.60	227.271500	227.581500		just	just
sw3250B-ms98-a-0049	B.60	227.581500	227.731500		want	want
sw3250B-ms98-a-0049	B.60	227.731500	227.791500		to	to
sw3250B-ms98-a-0049	B.60	227.791500	228.171500		skim	skim
sw3250B-ms98-a-0049	B.60	228.171500	228.481500		through	through
sw3250B-ms98-a-0049	B.60	228.481500	228.711500		while	while
sw3250B-ms98-a-0049	B.60	228.711500	228.961500		you're	you're
sw3250B-ms98-a-0049	B.60	228.961500	229.216000	<SUB>	I	i-
sw3250B-ms98-a-0049	B.60	229.216000	229.423250		I	i
sw3250B-ms98-a-0049	B.60	229.423250	229.631500		read	read
sw3250B-ms98-a-0049	B.60	229.631500	229.731500		them	them_1
sw3250B-ms98-a-0049	B.60	229.731500	229.881500		when	when
sw3250B-ms98-a-0049	B.60	229.881500	229.991500		I'm	i'm
sw3250B-ms98-a-0049	B.60	229.991500	230.161500		at	at
sw3250B-ms98-a-0049	B.60	230.161500	230.201500		a	a
sw3250B-ms98-a-0049	B.60	230.201500	230.671500		doctor's	doctor's
sw3250B-ms98-a-0049	B.60	230.671500	231.141500		office	office
sw3250B-ms98-a-0049	B.60	231.141500	231.400750		or	or
sw3250B-ms98-a-0049	B.60	231.400750	231.528875		[silence]	[silence]
sw3250B-ms98-a-0049	B.60	231.528875	231.621500		you	you
sw3250B-ms98-a-0049	B.60	231.621500	231.731500		know	know
sw3250B-ms98-a-0049	B.60	231.731500	232.071500		waiting	waiting
sw3250B-ms98-a-0049	B.60	232.071500	232.181500		on	on
sw3250B-ms98-a-0049	B.60	232.181500	232.691500		something	something
sw3250B-ms98-a-0049	B.60	232.691500	232.921500		like	like
sw3250B-ms98-a-0049	B.60	232.921500	233.416750		that	that
sw3250B-ms98-a-0049	B.62	233.416750	233.678500		[silence]	[silence]
sw3250B-ms98-a-0050	B.62	233.678500	235.715000		[silence]	[silence]
sw3250B-ms98-a-0051	B.62	235.715000	236.255750		[silence]	[silence]
sw3250B-ms98-a-0051	B.62	236.255750	236.601000		Yeah	yeah
sw3250B-ms98-a-0051	B.64	236.601000	237.214500		[silence]	[silence]
sw3250B-ms98-a-0052	B.64	237.214500	251.160500		[silence]	[silence]
sw3250B-ms98-a-0053	B.64	251.160500	251.806875		[silence]	[silence]
sw3250B-ms98-a-0053	B.64	251.806875	252.164250	<SUB>	Uh-huh	um-hum
sw3250B-ms98-a-0053	B.64	252.164250	252.345875		[silence]	[silence]
sw3250B-ms98-a-0053	B.64	252.345875	252.758125	<SUB>	uh-huh	um-hum
sw3250B-ms98-a-0053	B.66	252.758125	253.100375		[silence]	[silence]
sw3250B-ms98-a-0054	B.66	253.100375	258.848250		[silence]	[silence]
sw3250B-ms98-a-0055	B.66	258.848250	259.250750		[silence]	[silence]
sw3250B-ms98-a-0055	B.66	259.250750	259.342000		[noise]	[noise]
sw3250B-ms98-a-0055	B.66	259.342000	259.958250		Oh	oh
sw3250B-ms98-a-0055	B.66	259.958250	260.386500		uh-huh	uh-huh
sw3250B-ms98-a-0055	B.68	260.386500	260.797625		[silence]	[silence]
sw3250B-ms98-a-0056	B.68	260.797625	264.556375		[silence]	[silence]
sw3250B-ms98-a-0057	B.68	264.556375	265.056375		[silence]	[silence]
sw3250B-ms98-a-0057	B.68	265.056375	265.496375	<SUB>	Uh-huh	um-hum
sw3250B-ms98-a-0057	B.70	265.496375	265.919500		[silence]	[silence]
sw3250B-ms98-a-0058	B.70	265.919500	268.909250		[silence]	[silence]
sw3250B-ms98-a-0059	B.70	268.909250	269.117125		[silence]	[silence]
sw3250B-ms98-a-0059	B.70	269.117125	269.377625		[noise]	[noise]
sw3250B-ms98-a-0059	B.70	269.377625	269.805625		Yeah	yeah
sw3250B-ms98-a-0059	B.72	269.805625	270.178250		[silence]	[silence]
sw3250B-ms98-a-0060	B.72	270.178250	272.489875		[silence]	[silence]
sw3250B-ms98-a-0061	B.72	272.489875	272.985500		[silence]	[silence]
sw3250B-ms98-a-0061	B.72	272.985500	273.613500	<SUB>	Uh-huh	um-hum
sw3250B-ms98-a-0061	B.72	273.613500	274.199000	<SUB>	uh-huh	um-hum
sw3250B-ms98-a-0061	B.74	274.199000	274.678125		[silence]	[silence]
sw3250B-ms98-a-0062	B.74	274.678125	275.181750		[silence]	[silence]
sw3250B-ms98-a-0062	B.74	275.181750	276.585500		[laughter]	[laughter]
sw3250B-ms98-a-0062	B.74	276.585500	276.868125		[noise]	[noise]
sw3250B-ms98-a-0062	B.74	276.868125	277.138125		That's	that's
sw3250B-ms98-a-0062	B.74	277.138125	277.548125		true	true
sw3250B-ms98-a-0062	B.74	277.548125	277.788125		that	that
sw3250B-ms98-a-0062	B.74	277.788125	278.058125		kind	kind
sw3250B-ms98-a-0062	B.74	278.058125	278.138125		of	of
sw3250B-ms98-a-0062	B.74	278.138125	278.258125		is	is
sw3250B-ms98-a-0062	B.74	278.258125	278.328125		a	a
sw3250B-ms98-a-0062	B.74	278.328125	278.518125		good	good
sw3250B-ms98-a-0062	B.74	278.518125	278.638125		way	way
sw3250B-ms98-a-0062	B.74	278.638125	278.748125		to	to
sw3250B-ms98-a-0062	B.74	278.748125	279.040750		do	do
sw3250B-ms98-a-0062	B.74	279.040750	279.258500		it	it
sw3250B-ms98-a-0062	B.78	279.258500	279.817750		[noise]	[noise]
sw3250B-ms98-a-0062	B.78	279.817750	279.969750		[silence]	[silence]
sw3250B-ms98-a-0063	B.78	279.969750	287.000125		[silence]	[silence]
sw3250B-ms98-a-0064	B.78	287.000125	287.501000		[silence]	[silence]
sw3250B-ms98-a-0064	B.78	287.501000	288.717000		[laughter]	[laughter]
sw3250B-ms98-a-0064	B.78	288.717000	289.145250		[silence]	[silence]
sw3250B-ms98-a-0065	B.78	289.145250	292.839750		[silence]	[silence]
sw3250B-ms98-a-0066	B.78	292.839750	293.390875		[silence]	[silence]
sw3250B-ms98-a-0066	B.78	293.390875	294.106750		Yeah	yeah
sw3250B-ms98-a-0066	B.78	294.106750	294.593250		yeah	yeah
sw3250B-ms98-a-0066	B.80	294.593250	295.209250		[silence]	[silence]
sw3250B-ms98-a-0067	B.80	295.209250	295.850625		[silence]	[silence]
sw3250B-ms98-a-0067	B.80	295.850625	296.472000		Okay	okay
sw3250B-ms98-a-0067	B.80	296.472000	296.926875		[silence]	[silence]
sw3250B-ms98-a-0068	B.80	296.926875	299.522000		[silence]	[silence]
