sw3233A-ms98-a-0001	A.1	0.000000	0.000000		[silence]	[silence]
sw3233A-ms98-a-0001	A.1	0.000000	0.004875		[noise]	[noise]
sw3233A-ms98-a-0001	A.1	0.004875	0.516625		[silence]	[silence]
sw3233A-ms98-a-0002	A.1	0.516625	1.016625		[silence]	[silence]
sw3233A-ms98-a-0002	A.1	1.016625	1.914250		Okay	okay
sw3233A-ms98-a-0002	A.1	1.914250	2.361125		[silence]	[silence]
sw3233A-ms98-a-0002	A.1	2.361125	2.506125		[noise]	[noise]
sw3233A-ms98-a-0002	A.1	2.506125	3.204375		well	well
sw3233A-ms98-a-0002	A.1	3.204375	3.736625		uh	uh
sw3233A-ms98-a-0002	A.1	3.736625	3.906625		some	some
sw3233A-ms98-a-0002	A.1	3.906625	4.006625		of	of
sw3233A-ms98-a-0002	A.1	4.006625	4.121500		the	the
sw3233A-ms98-a-0002	A.1	4.121500	4.464250		books	books
sw3233A-ms98-a-0002	A.1	4.464250	4.756625		I've	i've
sw3233A-ms98-a-0002	A.1	4.756625	4.976625		read	read
sw3233A-ms98-a-0002	A.1	4.976625	5.478125		lately	lately
sw3233A-ms98-a-0002	A.1	5.478125	5.651375		[silence]	[silence]
sw3233A-ms98-a-0002	A.1	5.651375	5.966625		have	have
sw3233A-ms98-a-0002	A.1	5.966625	6.106625		to	to
sw3233A-ms98-a-0002	A.1	6.106625	6.316625		do	do
sw3233A-ms98-a-0002	A.1	6.316625	6.518625		with	with
sw3233A-ms98-a-0002	A.1	6.518625	6.713750		[silence]	[silence]
sw3233A-ms98-a-0002	A.1	6.713750	7.693250		crafty	crafty
sw3233A-ms98-a-0002	A.1	7.693250	7.877875		[silence]	[silence]
sw3233A-ms98-a-0002	A.1	7.877875	8.216625		type	type
sw3233A-ms98-a-0002	A.1	8.216625	8.646625		things	things
sw3233A-ms98-a-0002	A.1	8.646625	8.806625		where	where
sw3233A-ms98-a-0002	A.1	8.806625	9.006625		I've	i've
sw3233A-ms98-a-0002	A.1	9.006625	9.414875		[silence]	[silence]
sw3233A-ms98-a-0003	A.1	9.414875	9.874875		[silence]	[silence]
sw3233A-ms98-a-0003	A.1	9.874875	10.124875		where	where
sw3233A-ms98-a-0003	A.1	10.124875	10.414875		I've	i've
sw3233A-ms98-a-0003	A.1	10.414875	10.839875		um	um
sw3233A-ms98-a-0003	A.1	10.839875	11.028250		[silence]	[silence]
sw3233A-ms98-a-0003	A.1	11.028250	11.434875		learned	learned
sw3233A-ms98-a-0003	A.1	11.434875	11.684875		things	things
sw3233A-ms98-a-0003	A.1	11.684875	11.824875		that	that
sw3233A-ms98-a-0003	A.1	11.824875	11.954875		I'm	i'm
sw3233A-ms98-a-0003	A.1	11.954875	12.154875		going	going
sw3233A-ms98-a-0003	A.1	12.154875	12.254875		to	to
sw3233A-ms98-a-0003	A.1	12.254875	12.434875		do	do
sw3233A-ms98-a-0003	A.1	12.434875	12.594875		for	for
sw3233A-ms98-a-0003	A.1	12.594875	12.734875		my	my
sw3233A-ms98-a-0003	A.1	12.734875	13.234875		children	children
sw3233A-ms98-a-0003	A.1	13.234875	13.344875		for	for
sw3233A-ms98-a-0003	A.1	13.344875	14.134875		Christmas	Christmas
sw3233A-ms98-a-0003	A.3	14.134875	14.445375		[silence]	[silence]
sw3233A-ms98-a-0004	A.3	14.445375	14.973625		[silence]	[silence]
sw3233A-ms98-a-0004	A.3	14.973625	15.593375		and	and
sw3233A-ms98-a-0004	A.3	15.593375	15.775375		[silence]	[silence]
sw3233A-ms98-a-0004	A.3	15.775375	15.935375		they	they
sw3233A-ms98-a-0004	A.3	15.935375	16.083375		were	were
sw3233A-ms98-a-0004	A.3	16.083375	16.606875		really	really
sw3233A-ms98-a-0004	A.3	16.606875	16.925375		uh	uh
sw3233A-ms98-a-0004	A.3	16.925375	17.611750		helpful	helpful
sw3233A-ms98-a-0004	A.3	17.611750	17.912250		[silence]	[silence]
sw3233A-ms98-a-0005	A.3	17.912250	18.252250		[silence]	[silence]
sw3233A-ms98-a-0005	A.3	18.252250	18.679250		because	because
sw3233A-ms98-a-0005	A.3	18.679250	18.815500		I	i
sw3233A-ms98-a-0005	A.3	18.815500	19.072250		didn't	didn't
sw3233A-ms98-a-0005	A.3	19.072250	19.242250		know	know
sw3233A-ms98-a-0005	A.3	19.242250	19.372250		how	how
sw3233A-ms98-a-0005	A.3	19.372250	19.502250		to	to
sw3233A-ms98-a-0005	A.3	19.502250	19.662250		do	do
sw3233A-ms98-a-0005	A.3	19.662250	19.962250		this	this
sw3233A-ms98-a-0005	A.3	19.962250	20.172250		one	one
sw3233A-ms98-a-0005	A.3	20.172250	20.880500		stitching	stitching
sw3233A-ms98-a-0005	A.3	20.880500	21.215375		[silence]	[silence]
sw3233A-ms98-a-0006	A.3	21.215375	21.485375		[silence]	[silence]
sw3233A-ms98-a-0006	A.3	21.485375	21.685375		and	and
sw3233A-ms98-a-0006	A.3	21.685375	22.135250		so	so
sw3233A-ms98-a-0006	A.3	22.135250	22.470500		that	that
sw3233A-ms98-a-0006	A.3	22.470500	22.715375		was	was
sw3233A-ms98-a-0006	A.3	22.715375	22.965375		very	very
sw3233A-ms98-a-0006	A.3	22.965375	23.455375		helpful	helpful
sw3233A-ms98-a-0006	A.3	23.455375	23.625375		to	to
sw3233A-ms98-a-0006	A.3	23.625375	24.109750		me	me
sw3233A-ms98-a-0006	A.3	24.109750	24.211500		[silence]	[silence]
sw3233A-ms98-a-0006	A.3	24.211500	24.475375		as	as
sw3233A-ms98-a-0006	A.3	24.475375	24.655375		far	far
sw3233A-ms98-a-0006	A.3	24.655375	24.845375		as	as
sw3233A-ms98-a-0006	A.3	24.845375	25.265375		books	books
sw3233A-ms98-a-0006	A.3	25.265375	25.809000		Otherwise	otherwise
sw3233A-ms98-a-0006	A.3	25.809000	26.146750		[silence]	[silence]
sw3233A-ms98-a-0007	A.3	26.146750	26.586750		[silence]	[silence]
sw3233A-ms98-a-0007	A.3	26.586750	27.046875		um	um
sw3233A-ms98-a-0007	A.3	27.046875	27.195625		[silence]	[silence]
sw3233A-ms98-a-0007	A.3	27.195625	27.346750		I	i
sw3233A-ms98-a-0007	A.3	27.346750	27.576750		like	like
sw3233A-ms98-a-0007	A.3	27.576750	27.886750		to	to
sw3233A-ms98-a-0007	A.3	27.886750	28.116750		read	read
sw3233A-ms98-a-0007	A.3	28.116750	28.666750		children's	children's
sw3233A-ms98-a-0007	A.3	28.666750	29.306875		books	books
sw3233A-ms98-a-0007	A.3	29.306875	29.605750		[silence]	[silence]
sw3233A-ms98-a-0008	A.3	29.605750	30.047750		[silence]	[silence]
sw3233A-ms98-a-0008	A.3	30.047750	30.321000		[noise]	[noise]
sw3233A-ms98-a-0008	A.3	30.321000	30.745750		and	and
sw3233A-ms98-a-0008	A.3	30.745750	31.025750		things	things
sw3233A-ms98-a-0008	A.3	31.025750	31.225750		like	like
sw3233A-ms98-a-0008	A.3	31.225750	31.428125		that	that
sw3233A-ms98-a-0008	A.3	31.428125	31.816000		[vocalized-noise]	[vocalized-noise]
sw3233A-ms98-a-0008	A.3	31.816000	31.915750		What	what
sw3233A-ms98-a-0008	A.3	31.915750	32.165750		about	about
sw3233A-ms98-a-0008	A.3	32.165750	32.457250		you	you
sw3233A-ms98-a-0008	A.5	32.457250	32.880250		[silence]	[silence]
sw3233A-ms98-a-0009	A.5	32.880250	36.489625		[silence]	[silence]
sw3233A-ms98-a-0010	A.5	36.489625	36.979625		[silence]	[silence]
sw3233A-ms98-a-0010	A.5	36.979625	37.649625		Oh	oh
sw3233A-ms98-a-0010	A.7	37.649625	38.110625		[silence]	[silence]
sw3233A-ms98-a-0011	A.7	38.110625	46.503750		[silence]	[silence]
sw3233A-ms98-a-0012	A.7	46.503750	46.983125		[silence]	[silence]
sw3233A-ms98-a-0012	A.7	46.983125	47.685500	<SUB>	Um	hm
sw3233A-ms98-a-0012	A.9	47.685500	48.001000		[silence]	[silence]
sw3233A-ms98-a-0013	A.9	48.001000	58.866250		[silence]	[silence]
sw3233A-ms98-a-0014	A.9	58.866250	59.296250		[silence]	[silence]
sw3233A-ms98-a-0014	A.9	59.296250	59.726250		Uh-huh	uh-huh
sw3233A-ms98-a-0014	A.11	59.726250	60.133250		[silence]	[silence]
sw3233A-ms98-a-0015	A.11	60.133250	65.448250		[silence]	[silence]
sw3233A-ms98-a-0016	A.11	65.448250	65.871750		[silence]	[silence]
sw3233A-ms98-a-0016	A.11	65.871750	66.288250		Oh	oh
sw3233A-ms98-a-0016	A.13	66.288250	66.683875		[silence]	[silence]
sw3233A-ms98-a-0017	A.13	66.683875	76.300625		[silence]	[silence]
sw3233A-ms98-a-0018	A.13	76.300625	76.815750		[silence]	[silence]
sw3233A-ms98-a-0018	A.13	76.815750	77.260875		Uh-huh	uh-huh
sw3233A-ms98-a-0018	A.13	77.260875	77.843250		[silence]	[silence]
sw3233A-ms98-a-0018	A.13	77.843250	78.227375		It's	it's
sw3233A-ms98-a-0018	A.13	78.227375	78.860625		interesting	interesting
sw3233A-ms98-a-0018	A.13	78.860625	78.980625		that	that
sw3233A-ms98-a-0018	A.13	78.980625	79.150625		you	you
sw3233A-ms98-a-0018	A.13	79.150625	79.370625		said	said
sw3233A-ms98-a-0018	A.13	79.370625	79.580625		that	that
sw3233A-ms98-a-0018	A.13	79.580625	79.760625		My	my
sw3233A-ms98-a-0018	A.13	79.760625	80.140625		husband	husband
sw3233A-ms98-a-0018	A.13	80.140625	80.309750		and	and
sw3233A-ms98-a-0018	A.13	80.309750	80.494250		I	i
sw3233A-ms98-a-0018	A.13	80.494250	80.872250		had	had
sw3233A-ms98-a-0018	A.13	80.872250	81.000250		[silence]	[silence]
sw3233A-ms98-a-0018	A.13	81.000250	81.350625		uh	uh
sw3233A-ms98-a-0018	A.13	81.350625	81.580625		took	took
sw3233A-ms98-a-0018	A.13	81.580625	81.660625		a	a
sw3233A-ms98-a-0018	A.13	81.660625	81.910625		book	book
sw3233A-ms98-a-0018	A.13	81.910625	81.990625		out	out
sw3233A-ms98-a-0018	A.13	81.990625	82.050625		of	of
sw3233A-ms98-a-0018	A.13	82.050625	82.140625		the	the
sw3233A-ms98-a-0018	A.13	82.140625	82.660625		library	library
sw3233A-ms98-a-0018	A.13	82.660625	82.950625		about	about
sw3233A-ms98-a-0018	A.13	82.950625	83.436000		gardening	gardening
sw3233A-ms98-a-0018	A.13	83.436000	83.707125		too	too
sw3233A-ms98-a-0018	A.13	83.707125	83.900625		and	and
sw3233A-ms98-a-0018	A.13	83.900625	84.290625		started	started
sw3233A-ms98-a-0018	A.13	84.290625	84.350625		a	a
sw3233A-ms98-a-0018	A.13	84.350625	84.830625		garden	garden
sw3233A-ms98-a-0018	A.13	84.830625	84.930625		a	a
sw3233A-ms98-a-0018	A.13	84.930625	85.150625		fall	fall
sw3233A-ms98-a-0018	A.13	85.150625	85.650625		garden	garden
sw3233A-ms98-a-0018	A.15	85.650625	85.987875		[silence]	[silence]
sw3233A-ms98-a-0019	A.15	85.987875	86.347875		[silence]	[silence]
sw3233A-ms98-a-0019	A.15	86.347875	86.938125		Um	um
sw3233A-ms98-a-0019	A.17	86.938125	87.156625		[silence]	[silence]
sw3233A-ms98-a-0019	A.17	87.156625	87.530875	<DEL>	---	w[ith]-
sw3233A-ms98-a-0019	A.17	87.530875	88.052250		[silence]	[silence]
sw3233A-ms98-a-0020	A.17	88.052250	88.710750		[silence]	[silence]
sw3233A-ms98-a-0020	A.17	88.710750	88.952250		Oh	oh
sw3233A-ms98-a-0020	A.17	88.952250	90.272250		[laughter]	[laughter]
sw3233A-ms98-a-0020	A.17	90.272250	90.522250		Yeah	yeah
sw3233A-ms98-a-0020	A.17	90.522250	90.642250		and	and
sw3233A-ms98-a-0020	A.17	90.642250	90.860125		our	our
sw3233A-ms98-a-0020	A.17	90.860125	90.980625		[silence]	[silence]
sw3233A-ms98-a-0020	A.17	90.980625	91.232250		our	our
sw3233A-ms98-a-0020	A.17	91.232250	91.482625		uh	uh
sw3233A-ms98-a-0020	A.17	91.482625	92.198375		cantaloupes	cantaloupes
sw3233A-ms98-a-0020	A.17	92.198375	92.474500		and	and
sw3233A-ms98-a-0020	A.17	92.474500	92.689125		[silence]	[silence]
sw3233A-ms98-a-0020	A.17	92.689125	93.142250		and	and
sw3233A-ms98-a-0020	A.17	93.142250	93.612250		um	um
sw3233A-ms98-a-0020	A.17	93.612250	93.782250		[silence]	[silence]
sw3233A-ms98-a-0020	A.17	93.782250	94.222250		peppers	peppers
sw3233A-ms98-a-0020	A.17	94.222250	94.352250		and	and
sw3233A-ms98-a-0020	A.17	94.352250	94.842250		tomatoes	tomatoes
sw3233A-ms98-a-0020	A.17	94.842250	94.942250		are	are
sw3233A-ms98-a-0020	A.17	94.942250	95.192250		on	on
sw3233A-ms98-a-0020	A.17	95.192250	95.362250		right	right
sw3233A-ms98-a-0020	A.17	95.362250	95.742250		now	now
sw3233A-ms98-a-0020	A.17	95.742250	96.106875		[silence]	[silence]
sw3233A-ms98-a-0021	A.17	96.106875	96.316875		[silence]	[silence]
sw3233A-ms98-a-0021	A.17	96.316875	96.786875		so	so
sw3233A-ms98-a-0021	A.17	96.786875	97.006875		it's	it's
sw3233A-ms98-a-0021	A.17	97.006875	97.154250		been	been
sw3233A-ms98-a-0021	A.17	97.154250	97.481875		really	really
sw3233A-ms98-a-0021	A.17	97.481875	97.706875		fun	fun
sw3233A-ms98-a-0021	A.17	97.706875	97.976875		and	and
sw3233A-ms98-a-0021	A.17	97.976875	98.105250		and	and
sw3233A-ms98-a-0021	A.17	98.105250	98.497000		we	we
sw3233A-ms98-a-0021	A.17	98.497000	98.816875		learned	learned
sw3233A-ms98-a-0021	A.17	98.816875	99.142125		that	that
sw3233A-ms98-a-0021	A.17	99.142125	99.398250		[vocalized-noise]	[vocalized-noise]
sw3233A-ms98-a-0021	A.17	99.398250	99.516875		you	you
sw3233A-ms98-a-0021	A.17	99.516875	99.846875		know	know
sw3233A-ms98-a-0021	A.17	99.846875	100.400875		um	um
sw3233A-ms98-a-0021	A.17	100.400875	100.623000		[silence]	[silence]
sw3233A-ms98-a-0021	A.17	100.623000	100.836875		some	some
sw3233A-ms98-a-0021	A.17	100.836875	101.016875		of	of
sw3233A-ms98-a-0021	A.17	101.016875	101.256875		the	the
sw3233A-ms98-a-0021	A.17	101.256875	101.726875		gardening	gardening
sw3233A-ms98-a-0021	A.17	101.726875	102.056875		skills	skills
sw3233A-ms98-a-0021	A.17	102.056875	102.176875		we	we
sw3233A-ms98-a-0021	A.17	102.176875	102.476875		had	had
sw3233A-ms98-a-0021	A.17	102.476875	102.616875		were	were
sw3233A-ms98-a-0021	A.17	102.616875	103.226875		before	before
sw3233A-ms98-a-0021	A.17	103.226875	103.506875		but	but
sw3233A-ms98-a-0021	A.17	103.506875	103.646875		[silence]	[silence]
sw3233A-ms98-a-0021	A.17	103.646875	103.876875		some	some
sw3233A-ms98-a-0021	A.17	103.876875	103.986875		of	of
sw3233A-ms98-a-0021	A.17	103.986875	104.146875		them	them
sw3233A-ms98-a-0021	A.17	104.146875	104.246875		we	we
sw3233A-ms98-a-0021	A.17	104.246875	104.536875		learned	learned
sw3233A-ms98-a-0021	A.17	104.536875	104.726875		from	from
sw3233A-ms98-a-0021	A.17	104.726875	104.826875		a	a
sw3233A-ms98-a-0021	A.17	104.826875	105.258000		book	book
sw3233A-ms98-a-0021	A.19	105.258000	105.524000		[silence]	[silence]
sw3233A-ms98-a-0022	A.19	105.524000	105.884000		[silence]	[silence]
sw3233A-ms98-a-0022	A.19	105.884000	106.054000		and	and
sw3233A-ms98-a-0022	A.19	106.054000	106.174000		so	so
sw3233A-ms98-a-0022	A.19	106.174000	106.364000		that	that
sw3233A-ms98-a-0022	A.19	106.364000	106.554000		was	was
sw3233A-ms98-a-0022	A.19	106.554000	106.904000		helpful	helpful
sw3233A-ms98-a-0022	A.19	106.904000	107.144000		to	to
sw3233A-ms98-a-0022	A.19	107.144000	107.469250		us	us
sw3233A-ms98-a-0022	A.19	107.469250	107.951375		[silence]	[silence]
sw3233A-ms98-a-0022	A.19	107.951375	108.334250		Now	now
sw3233A-ms98-a-0022	A.19	108.334250	108.571500		[silence]	[silence]
sw3233A-ms98-a-0022	A.19	108.571500	108.794000		I've	i've
sw3233A-ms98-a-0022	A.19	108.794000	109.054000		read	read
sw3233A-ms98-a-0022	A.19	109.054000	109.304000		two	two
sw3233A-ms98-a-0022	A.19	109.304000	109.931625		books	books
sw3233A-ms98-a-0022	A.19	109.931625	110.363500		[silence]	[silence]
sw3233A-ms98-a-0023	A.19	110.363500	111.088625		[silence]	[silence]
sw3233A-ms98-a-0023	A.19	111.088625	111.668875		uh	uh
sw3233A-ms98-a-0023	A.19	111.668875	111.827000		[silence]	[silence]
sw3233A-ms98-a-0023	A.19	111.827000	111.993500		that	that
sw3233A-ms98-a-0023	A.19	111.993500	112.479250		were	were
sw3233A-ms98-a-0023	A.19	112.479250	113.036750		[silence]	[silence]
sw3233A-ms98-a-0023	A.19	113.036750	113.443500		uh	uh
sw3233A-ms98-a-0023	A.19	113.443500	114.529375		nonfiction	nonfiction
sw3233A-ms98-a-0023	A.19	114.529375	114.853500		[silence]	[silence]
sw3233A-ms98-a-0023	A.19	114.853500	115.429875		lately	lately
sw3233A-ms98-a-0023	A.21	115.429875	115.900625		[silence]	[silence]
sw3233A-ms98-a-0023	A.21	115.900625	116.513500		and	and
sw3233A-ms98-a-0023	A.21	116.513500	116.919500		uh	uh
sw3233A-ms98-a-0023	A.21	116.919500	117.454875		[silence]	[silence]
sw3233A-ms98-a-0024	A.21	117.454875	118.054875		[silence]	[silence]
sw3233A-ms98-a-0024	A.21	118.054875	118.444875		I	i
sw3233A-ms98-a-0024	A.21	118.444875	118.861375		[silence]	[silence]
sw3233A-ms98-a-0025	A.21	118.861375	119.301375		[silence]	[silence]
sw3233A-ms98-a-0025	A.21	119.301375	119.591375		well	well
sw3233A-ms98-a-0025	A.21	119.591375	119.781375		one	one
sw3233A-ms98-a-0025	A.21	119.781375	119.951375		was	was
sw3233A-ms98-a-0025	A.21	119.951375	120.851375		nonfiction	nonfiction
sw3233A-ms98-a-0025	A.21	120.851375	120.981375		and	and
sw3233A-ms98-a-0025	A.21	120.981375	121.143500		one	one
sw3233A-ms98-a-0025	A.21	121.143500	121.334375		was	was
sw3233A-ms98-a-0025	A.21	121.334375	121.875875		fiction	fiction
sw3233A-ms98-a-0025	A.21	121.875875	122.218375		[silence]	[silence]
sw3233A-ms98-a-0026	A.21	122.218375	122.638375		[silence]	[silence]
sw3233A-ms98-a-0026	A.21	122.638375	122.958375		and	and
sw3233A-ms98-a-0026	A.21	122.958375	123.018375		the	the
sw3233A-ms98-a-0026	A.21	123.018375	123.528375		fiction	fiction
sw3233A-ms98-a-0026	A.21	123.528375	123.937000		one	one
sw3233A-ms98-a-0026	A.21	123.937000	124.287250		[silence]	[silence]
sw3233A-ms98-a-0026	A.21	124.287250	124.788375		uh	uh
sw3233A-ms98-a-0026	A.21	124.788375	125.008375		was	was
sw3233A-ms98-a-0026	A.21	125.008375	125.308375		about	about
sw3233A-ms98-a-0026	A.21	125.308375	125.368375		a	a
sw3233A-ms98-a-0026	A.21	125.368375	125.928125		boy	boy
sw3233A-ms98-a-0026	A.21	125.928125	126.399000		[silence]	[silence]
sw3233A-ms98-a-0026	A.21	126.399000	126.982750		in	in
sw3233A-ms98-a-0026	A.21	126.982750	127.547750		[silence]	[silence]
sw3233A-ms98-a-0026	A.21	127.547750	128.090750		uh	uh
sw3233A-ms98-a-0026	A.21	128.090750	128.542750		[silence]	[silence]
sw3233A-ms98-a-0026	A.21	128.542750	128.761000		during	during
sw3233A-ms98-a-0026	A.21	128.761000	128.907875		the	the
sw3233A-ms98-a-0026	A.21	128.907875	129.178375		time	time
sw3233A-ms98-a-0026	A.21	129.178375	129.448375		of	of
sw3233A-ms98-a-0026	A.21	129.448375	129.838375		Adolf	Adolf
sw3233A-ms98-a-0026	A.21	129.838375	130.288375		Hitler	Hitler
sw3233A-ms98-a-0026	A.23	130.288375	130.533875		[silence]	[silence]
sw3233A-ms98-a-0027	A.23	130.533875	130.883875		[silence]	[silence]
sw3233A-ms98-a-0027	A.23	130.883875	131.153875		and	and
sw3233A-ms98-a-0027	A.23	131.153875	131.333875		he	he
sw3233A-ms98-a-0027	A.23	131.333875	131.563875		grew	grew
sw3233A-ms98-a-0027	A.23	131.563875	131.865500		up	up
sw3233A-ms98-a-0027	A.23	131.865500	132.554750		[silence]	[silence]
sw3233A-ms98-a-0027	A.23	132.554750	133.143875		and	and
sw3233A-ms98-a-0027	A.23	133.143875	133.523875		lived	lived
sw3233A-ms98-a-0027	A.23	133.523875	133.673875		through	through
sw3233A-ms98-a-0027	A.23	133.673875	133.763875		a	a
sw3233A-ms98-a-0027	A.23	133.763875	134.613875		concentration	concentration
sw3233A-ms98-a-0027	A.23	134.613875	135.107250		camp	camp
sw3233A-ms98-a-0027	A.25	135.107250	135.476750		[silence]	[silence]
sw3233A-ms98-a-0028	A.25	135.476750	135.876750		[silence]	[silence]
sw3233A-ms98-a-0028	A.25	135.876750	136.366750		and	and
sw3233A-ms98-a-0028	A.25	136.366750	136.536750		that	that
sw3233A-ms98-a-0028	A.25	136.536750	136.686750		was	was
sw3233A-ms98-a-0028	A.25	136.686750	136.906750		not	not
sw3233A-ms98-a-0028	A.25	136.906750	137.516750		enjoyment	enjoyment
sw3233A-ms98-a-0028	A.27	137.516750	138.368125		[laughter]	[laughter]
sw3233A-ms98-a-0028	A.27	138.368125	138.718375		[silence]	[silence]
sw3233A-ms98-a-0028	A.27	138.718375	139.146750		That	that
sw3233A-ms98-a-0028	A.27	139.146750	139.566750		[silence]	[silence]
sw3233A-ms98-a-0028	A.27	139.566750	139.726750		that	that
sw3233A-ms98-a-0028	A.27	139.726750	139.956750		was	was
sw3233A-ms98-a-0028	A.27	139.956750	140.296750		too	too
sw3233A-ms98-a-0028	A.27	140.296750	141.326750		realistic	realistic
sw3233A-ms98-a-0028	A.27	141.326750	141.576750		and	and
sw3233A-ms98-a-0028	A.27	141.576750	142.173250		really	really
sw3233A-ms98-a-0028	A.27	142.173250	142.342750		[silence]	[silence]
sw3233A-ms98-a-0028	A.27	142.342750	142.766750		um	um
sw3233A-ms98-a-0028	A.27	142.766750	143.301375		mind	mind
sw3233A-ms98-a-0028	A.27	143.301375	143.745500		[silence]	[silence]
sw3233A-ms98-a-0029	A.27	143.745500	144.175375		[silence]	[silence]
sw3233A-ms98-a-0029	A.27	144.175375	144.405875		a	a
sw3233A-ms98-a-0029	A.27	144.405875	144.736125		real	real
sw3233A-ms98-a-0029	A.27	144.736125	144.925500		eye	eye
sw3233A-ms98-a-0029	A.27	144.925500	145.543625		opener	opener
sw3233A-ms98-a-0029	A.27	145.543625	145.856250		[silence]	[silence]
sw3233A-ms98-a-0029	A.27	145.856250	146.054500		[noise]	[noise]
sw3233A-ms98-a-0029	A.27	146.054500	146.325500		uh	uh
sw3233A-ms98-a-0029	A.27	146.325500	146.495500		and	and
sw3233A-ms98-a-0029	A.27	146.495500	146.565500		I	i
sw3233A-ms98-a-0029	A.27	146.565500	146.795500		guess	guess
sw3233A-ms98-a-0029	A.27	146.795500	146.965500		it's	it's
sw3233A-ms98-a-0029	A.27	146.965500	147.175500		good	good
sw3233A-ms98-a-0029	A.27	147.175500	147.295500		to	to
sw3233A-ms98-a-0029	A.27	147.295500	147.505500		read	read
sw3233A-ms98-a-0029	A.27	147.505500	147.765500		those	those
sw3233A-ms98-a-0029	A.27	147.765500	148.075500		things	things
sw3233A-ms98-a-0029	A.27	148.075500	148.495500		too	too
sw3233A-ms98-a-0029	A.27	148.495500	148.864625		[silence]	[silence]
sw3233A-ms98-a-0030	A.27	148.864625	149.186875		[silence]	[silence]
sw3233A-ms98-a-0030	A.27	149.186875	149.600125		Uh	uh
sw3233A-ms98-a-0030	A.27	149.600125	149.940125		[silence]	[silence]
sw3233A-ms98-a-0030	A.27	149.940125	150.313375		but	but
sw3233A-ms98-a-0030	A.27	150.313375	150.802500		I	i
sw3233A-ms98-a-0030	A.27	150.802500	151.044625		didn't	didn't
sw3233A-ms98-a-0030	A.27	151.044625	151.464625		enjoy	enjoy
sw3233A-ms98-a-0030	A.27	151.464625	151.654625		it	it
sw3233A-ms98-a-0030	A.27	151.654625	152.634625		necessarily	necessarily
sw3233A-ms98-a-0030	A.29	152.634625	152.974375		[silence]	[silence]
sw3233A-ms98-a-0031	A.29	152.974375	153.364375		[silence]	[silence]
sw3233A-ms98-a-0031	A.29	153.364375	153.794375		and	and
sw3233A-ms98-a-0031	A.29	153.794375	154.114375		uh	uh
sw3233A-ms98-a-0031	A.29	154.114375	154.204375		the	the
sw3233A-ms98-a-0031	A.29	154.204375	154.444375		other	other
sw3233A-ms98-a-0031	A.29	154.444375	154.714375		one	one
sw3233A-ms98-a-0031	A.29	154.714375	154.864375		was	was
sw3233A-ms98-a-0031	A.29	154.864375	155.154375		quite	quite
sw3233A-ms98-a-0031	A.29	155.154375	155.894375		enjoyable	enjoyable
sw3233A-ms98-a-0031	A.29	155.894375	156.004375		It	it
sw3233A-ms98-a-0031	A.29	156.004375	156.375125		was	was
sw3233A-ms98-a-0031	A.29	156.375125	156.733000		uh	uh
sw3233A-ms98-a-0031	A.29	156.733000	157.094375		about	about
sw3233A-ms98-a-0031	A.29	157.094375	157.425750		a	a
sw3233A-ms98-a-0031	A.29	157.425750	157.785625		[silence]	[silence]
sw3233A-ms98-a-0032	A.29	157.785625	158.195625		[silence]	[silence]
sw3233A-ms98-a-0032	A.29	158.195625	158.305625		a	a
sw3233A-ms98-a-0032	A.29	158.305625	158.885625		Chinese	Chinese
sw3233A-ms98-a-0032	A.29	158.885625	159.245625		lady	lady
sw3233A-ms98-a-0032	A.29	159.245625	159.395625		and	and
sw3233A-ms98-a-0032	A.29	159.395625	159.737000		her	her
sw3233A-ms98-a-0032	A.29	159.737000	159.937125		[silence]	[silence]
sw3233A-ms98-a-0032	A.29	159.937125	161.225625		generations	generations
sw3233A-ms98-a-0032	A.29	161.225625	161.785500		down	down
sw3233A-ms98-a-0032	A.29	161.785500	162.124500		[silence]	[silence]
sw3233A-ms98-a-0032	A.29	162.124500	162.275625		her	her
sw3233A-ms98-a-0032	A.29	162.275625	162.515625		what	what
sw3233A-ms98-a-0032	A.29	162.515625	162.815625		happened	happened
sw3233A-ms98-a-0032	A.29	162.815625	163.015625		to	to
sw3233A-ms98-a-0032	A.29	163.015625	163.125625		her	her
sw3233A-ms98-a-0032	A.29	163.125625	163.685625		family	family
sw3233A-ms98-a-0032	A.29	163.685625	163.925625		through	through
sw3233A-ms98-a-0032	A.29	163.925625	163.995625		the	the
sw3233A-ms98-a-0032	A.29	163.995625	164.507500		years	years
sw3233A-ms98-a-0032	A.31	164.507500	164.737625		[silence]	[silence]
sw3233A-ms98-a-0033	A.31	164.737625	165.050250		[silence]	[silence]
sw3233A-ms98-a-0033	A.31	165.050250	165.482000		so	so
sw3233A-ms98-a-0033	A.31	165.482000	165.664875		[silence]	[silence]
sw3233A-ms98-a-0033	A.31	165.664875	165.838375		that	that
sw3233A-ms98-a-0033	A.31	165.838375	165.958875		one	one
sw3233A-ms98-a-0033	A.31	165.958875	166.237625		was	was
sw3233A-ms98-a-0033	A.31	166.237625	166.668125		good	good
sw3233A-ms98-a-0033	A.31	166.668125	167.349875		[silence]	[silence]
sw3233A-ms98-a-0033	A.31	167.349875	167.497625		I	i
sw3233A-ms98-a-0033	A.31	167.497625	167.867625		think	think
sw3233A-ms98-a-0033	A.31	167.867625	168.067625		all	all
sw3233A-ms98-a-0033	A.31	168.067625	168.246625		of	of
sw3233A-ms98-a-0033	A.31	168.246625	168.404750		[silence]	[silence]
sw3233A-ms98-a-0033	A.31	168.404750	168.656000	<DEL>	---	uh
sw3233A-ms98-a-0033	A.31	168.656000	168.979875		[silence]	[silence]
sw3233A-ms98-a-0033	A.31	168.979875	169.428875		well	well
sw3233A-ms98-a-0033	A.31	169.428875	169.673625		even	even
sw3233A-ms98-a-0033	A.31	169.673625	169.847625		if	if
sw3233A-ms98-a-0033	A.31	169.847625	170.007625		they're	they're
sw3233A-ms98-a-0033	A.31	170.007625	170.247625		not	not
sw3233A-ms98-a-0033	A.31	170.247625	170.837625		enjoyable	enjoyable
sw3233A-ms98-a-0033	A.31	170.837625	171.007625		they	they
sw3233A-ms98-a-0033	A.31	171.007625	171.297625		bring	bring
sw3233A-ms98-a-0033	A.31	171.297625	171.417625		you	you
sw3233A-ms98-a-0033	A.31	171.417625	171.417625	<INS>	a	---
sw3233A-ms98-a-0033	A.31	171.417625	171.756875		uh	uh
sw3233A-ms98-a-0033	A.31	171.756875	172.144875	<DEL>	---	a
sw3233A-ms98-a-0033	A.31	172.144875	172.413625		some	some
sw3233A-ms98-a-0033	A.31	172.413625	172.747625		kind	kind
sw3233A-ms98-a-0033	A.31	172.747625	172.911250		of	of
sw3233A-ms98-a-0033	A.31	172.911250	173.212625		[silence]	[silence]
sw3233A-ms98-a-0033	A.31	173.212625	173.387625		of	of
sw3233A-ms98-a-0033	A.31	173.387625	173.966125		learning	learning
sw3233A-ms98-a-0033	A.31	173.966125	174.260375		[silence]	[silence]
sw3233A-ms98-a-0034	A.31	174.260375	174.670000		[silence]	[silence]
sw3233A-ms98-a-0034	A.31	174.670000	175.140375		so	so
sw3233A-ms98-a-0034	A.31	175.140375	175.480375		even	even
sw3233A-ms98-a-0034	A.31	175.480375	175.630375		if	if
sw3233A-ms98-a-0034	A.31	175.630375	175.874625		it's	it's
sw3233A-ms98-a-0034	A.31	175.874625	175.998875		the	the
sw3233A-ms98-a-0034	A.31	175.998875	176.480375		country	country
sw3233A-ms98-a-0034	A.31	176.480375	176.650375		that	that
sw3233A-ms98-a-0034	A.31	176.650375	176.900375		they're	they're
sw3233A-ms98-a-0034	A.31	176.900375	177.416375		from	from
sw3233A-ms98-a-0034	A.31	177.416375	177.842000		[silence]	[silence]
sw3233A-ms98-a-0034	A.31	177.842000	178.130375		or	or
sw3233A-ms98-a-0034	A.31	178.130375	178.640375		anything	anything
sw3233A-ms98-a-0034	A.31	178.640375	178.880375		like	like
sw3233A-ms98-a-0034	A.31	178.880375	179.301125		that	that
sw3233A-ms98-a-0034	A.31	179.301125	179.805875		[silence]	[silence]
sw3233A-ms98-a-0035	A.31	179.805875	180.245875		[silence]	[silence]
sw3233A-ms98-a-0035	A.31	180.245875	180.705875		So	so
sw3233A-ms98-a-0035	A.31	180.705875	181.066750		I	i
sw3233A-ms98-a-0035	A.31	181.066750	181.443875		[silence]	[silence]
sw3233A-ms98-a-0036	A.31	181.443875	181.976625		[silence]	[silence]
sw3233A-ms98-a-0036	A.31	181.976625	182.341875	<SUB>	I	i-
sw3233A-ms98-a-0036	A.31	182.341875	182.537125		[silence]	[silence]
sw3233A-ms98-a-0036	A.31	182.537125	182.653875		I	i
sw3233A-ms98-a-0036	A.31	182.653875	182.913875		like	like
sw3233A-ms98-a-0036	A.31	182.913875	183.093875		to	to
sw3233A-ms98-a-0036	A.31	183.093875	183.413875		read	read
sw3233A-ms98-a-0036	A.31	183.413875	183.891500		the	the
sw3233A-ms98-a-0036	A.31	183.891500	184.211625		[silence]	[silence]
sw3233A-ms98-a-0036	A.31	184.211625	184.313875		the	the
sw3233A-ms98-a-0036	A.31	184.313875	184.863875		children's	children's
sw3233A-ms98-a-0036	A.31	184.863875	185.153875		books	books
sw3233A-ms98-a-0036	A.31	185.153875	185.243875		I	i
sw3233A-ms98-a-0036	A.31	185.243875	185.533875		think	think
sw3233A-ms98-a-0036	A.31	185.533875	185.723875		that's	that's
sw3233A-ms98-a-0036	A.31	185.723875	185.853875		the	the
sw3233A-ms98-a-0036	A.31	185.853875	186.103875		most	most
sw3233A-ms98-a-0036	A.31	186.103875	186.663875		animated	animated
sw3233A-ms98-a-0036	A.31	186.663875	186.763875		and	and
sw3233A-ms98-a-0036	A.31	186.763875	187.673625		imaginative	imaginative
sw3233A-ms98-a-0036	A.31	187.673625	188.019625		[silence]	[silence]
sw3233A-ms98-a-0036	A.31	188.019625	188.243875		So	so
sw3233A-ms98-a-0036	A.31	188.243875	188.383875		I	i
sw3233A-ms98-a-0036	A.31	188.383875	188.663875		like	like
sw3233A-ms98-a-0036	A.31	188.663875	188.965750		those	those
sw3233A-ms98-a-0036	A.31	188.965750	189.074875		a	a
sw3233A-ms98-a-0036	A.31	189.074875	189.512500		lot	lot
sw3233A-ms98-a-0036	A.33	189.512500	190.016875		[silence]	[silence]
sw3233A-ms98-a-0037	A.33	190.016875	192.268875		[silence]	[silence]
sw3233A-ms98-a-0038	A.33	192.268875	192.477000		[silence]	[silence]
sw3233A-ms98-a-0038	A.33	192.477000	192.669000		[noise]	[noise]
sw3233A-ms98-a-0038	A.33	192.669000	192.860125		[silence]	[silence]
sw3233A-ms98-a-0038	A.33	192.860125	193.273000		Oh	oh
sw3233A-ms98-a-0038	A.33	193.273000	193.777625		[silence]	[silence]
sw3233A-ms98-a-0038	A.33	193.777625	193.958875		there	there
sw3233A-ms98-a-0038	A.33	193.958875	194.018875		are	are
sw3233A-ms98-a-0038	A.33	194.018875	194.068875		a	a
sw3233A-ms98-a-0038	A.33	194.068875	194.348875		couple	couple
sw3233A-ms98-a-0038	A.33	194.348875	194.448875		of	of
sw3233A-ms98-a-0038	A.33	194.448875	194.978875	<SUB>	Newberry	Newbery
sw3233A-ms98-a-0038	A.33	194.978875	195.358875		Award	Award
sw3233A-ms98-a-0038	A.33	195.358875	195.873750		winners	winners
sw3233A-ms98-a-0038	A.33	195.873750	196.001875		[silence]	[silence]
sw3233A-ms98-a-0038	A.33	196.001875	196.348875		Uh	uh
sw3233A-ms98-a-0038	A.33	196.348875	196.408875		A	A
sw3233A-ms98-a-0038	A.33	196.408875	196.788875		WRINKLE	Wrinkle
sw3233A-ms98-a-0038	A.33	196.788875	196.938875		IN	in
sw3233A-ms98-a-0038	A.33	196.938875	197.478750		TIME	Time
sw3233A-ms98-a-0038	A.33	197.478750	197.859125		[silence]	[silence]
sw3233A-ms98-a-0038	A.33	197.859125	198.138875		is	is
sw3233A-ms98-a-0038	A.33	198.138875	198.576375		one	one
sw3233A-ms98-a-0038	A.35	198.576375	198.983125		[silence]	[silence]
sw3233A-ms98-a-0038	A.35	198.983125	199.098875		[noise]	[noise]
sw3233A-ms98-a-0038	A.35	199.098875	199.278875	<DEL>	---	and
sw3233A-ms98-a-0038	A.35	199.278875	199.318875		I	i
sw3233A-ms98-a-0038	A.35	199.318875	199.488875		don't	don't
sw3233A-ms98-a-0038	A.35	199.488875	199.638875		know	know
sw3233A-ms98-a-0038	A.35	199.638875	199.768875		if	if
sw3233A-ms98-a-0038	A.35	199.768875	199.928875		you've	you've
sw3233A-ms98-a-0038	A.35	199.928875	200.108875		ever	ever
sw3233A-ms98-a-0038	A.35	200.108875	200.328875		read	read
sw3233A-ms98-a-0038	A.35	200.328875	200.648875		that	that
sw3233A-ms98-a-0038	A.37	200.648875	200.922125		but	but
sw3233A-ms98-a-0038	A.37	200.922125	201.374125		[silence]	[silence]
sw3233A-ms98-a-0038	A.37	201.374125	201.918875		but	but
sw3233A-ms98-a-0038	A.37	201.918875	202.454500		um	um
sw3233A-ms98-a-0038	A.37	202.454500	202.880375		[silence]	[silence]
sw3233A-ms98-a-0039	A.37	202.880375	203.186250		[silence]	[silence]
sw3233A-ms98-a-0039	A.37	203.186250	203.363750		[noise]	[noise]
sw3233A-ms98-a-0039	A.37	203.363750	203.620375		oh	oh
sw3233A-ms98-a-0039	A.37	203.620375	203.870375		there's	there's
sw3233A-ms98-a-0039	A.37	203.870375	204.080375		one	one
sw3233A-ms98-a-0039	A.37	204.080375	204.330375		about	about
sw3233A-ms98-a-0039	A.37	204.330375	204.522500		an	an
sw3233A-ms98-a-0039	A.37	204.522500	205.080375		Indian	Indian
sw3233A-ms98-a-0039	A.37	205.080375	205.599625		girl	girl
sw3233A-ms98-a-0039	A.37	205.599625	205.912250		[silence]	[silence]
sw3233A-ms98-a-0039	A.37	205.912250	206.094625		and	and
sw3233A-ms98-a-0039	A.37	206.094625	206.211375		I	i
sw3233A-ms98-a-0039	A.37	206.211375	206.490375		can't	can't
sw3233A-ms98-a-0039	A.37	206.490375	206.700375		think	think
sw3233A-ms98-a-0039	A.37	206.700375	206.850375		of	of
sw3233A-ms98-a-0039	A.37	206.850375	207.090875		that	that
sw3233A-ms98-a-0039	A.37	207.090875	207.563000		[silence]	[silence]
sw3233A-ms98-a-0040	A.37	207.563000	208.183000		[silence]	[silence]
sw3233A-ms98-a-0040	A.37	208.183000	208.613000		ISLAND	Island
sw3233A-ms98-a-0040	A.37	208.613000	208.683000		OF	of
sw3233A-ms98-a-0040	A.37	208.683000	208.763000		THE	the
sw3233A-ms98-a-0040	A.37	208.763000	208.963000		BLUE	Blue
sw3233A-ms98-a-0040	A.37	208.963000	209.553000		DOLPHINS	Dolphins
sw3233A-ms98-a-0040	A.37	209.553000	209.673000		is	is
sw3233A-ms98-a-0040	A.37	209.673000	210.175750		another	another
sw3233A-ms98-a-0040	A.39	210.175750	210.800000		[silence]	[silence]
sw3233A-ms98-a-0041	A.39	210.800000	211.423750		[silence]	[silence]
sw3233A-ms98-a-0041	A.39	211.423750	211.698250		and	and
sw3233A-ms98-a-0041	A.39	211.698250	211.990000		that's	that's
sw3233A-ms98-a-0041	A.39	211.990000	212.040000		a	a
sw3233A-ms98-a-0041	A.39	212.040000	212.250000		good	good
sw3233A-ms98-a-0041	A.39	212.250000	212.505875		one	one
sw3233A-ms98-a-0041	A.39	212.505875	212.864125		[silence]	[silence]
sw3233A-ms98-a-0042	A.39	212.864125	213.224125		[silence]	[silence]
sw3233A-ms98-a-0042	A.39	213.224125	213.704125		Now	now
sw3233A-ms98-a-0042	A.39	213.704125	213.924125		some	some
sw3233A-ms98-a-0042	A.39	213.924125	214.014125		of	of
sw3233A-ms98-a-0042	A.39	214.014125	214.114125		the	the
sw3233A-ms98-a-0042	A.39	214.114125	214.394125		ones	ones
sw3233A-ms98-a-0042	A.39	214.394125	214.514125		that	that
sw3233A-ms98-a-0042	A.39	214.514125	214.654125		have	have
sw3233A-ms98-a-0042	A.39	214.654125	215.064875		just	just
sw3233A-ms98-a-0042	A.39	215.064875	215.594125		received	received
sw3233A-ms98-a-0042	A.39	215.594125	215.814125		the	the
sw3233A-ms98-a-0042	A.39	215.814125	216.336750		awards	awards
sw3233A-ms98-a-0042	A.39	216.336750	216.476125		[silence]	[silence]
sw3233A-ms98-a-0042	A.39	216.476125	216.804125		this	this
sw3233A-ms98-a-0042	A.39	216.804125	217.276125		year	year
sw3233A-ms98-a-0042	A.39	217.276125	217.479500		I	i
sw3233A-ms98-a-0042	A.39	217.479500	217.864125		haven't	haven't
sw3233A-ms98-a-0042	A.39	217.864125	218.452250		read	read
sw3233A-ms98-a-0042	A.39	218.452250	218.569000		[silence]	[silence]
sw3233A-ms98-a-0042	A.39	218.569000	218.724125		and	and
sw3233A-ms98-a-0042	A.39	218.724125	218.794125		I	i
sw3233A-ms98-a-0042	A.39	218.794125	218.954125		would	would
sw3233A-ms98-a-0042	A.39	218.954125	219.130750		like	like
sw3233A-ms98-a-0042	A.39	219.130750	219.284875		to	to
sw3233A-ms98-a-0042	A.39	219.284875	219.484125		read	read
sw3233A-ms98-a-0042	A.39	219.484125	220.004125		those	those
sw3233A-ms98-a-0042	A.41	220.004125	220.242500		[silence]	[silence]
sw3233A-ms98-a-0043	A.41	220.242500	220.634000		[silence]	[silence]
sw3233A-ms98-a-0043	A.41	220.634000	220.996375		but	but
sw3233A-ms98-a-0043	A.41	220.996375	221.262500		uh	uh
sw3233A-ms98-a-0043	A.41	221.262500	221.748375		[silence]	[silence]
sw3233A-ms98-a-0043	A.41	221.748375	222.032500		it's	it's
sw3233A-ms98-a-0043	A.41	222.032500	222.242500		funny	funny
sw3233A-ms98-a-0043	A.41	222.242500	222.462500		because	because_1
sw3233A-ms98-a-0043	A.41	222.462500	222.652500		I've	i've
sw3233A-ms98-a-0043	A.41	222.652500	222.862500		read	read
sw3233A-ms98-a-0043	A.41	222.862500	223.132500		some	some
sw3233A-ms98-a-0043	A.41	223.132500	223.552500		from	from
sw3233A-ms98-a-0043	A.41	223.552500	223.762500		like	like
sw3233A-ms98-a-0043	A.41	223.762500	224.201000		nineteen	nineteen
sw3233A-ms98-a-0043	A.41	224.201000	224.547500	<CONT>	twenty-three	twenty
sw3233A-ms98-a-0043	A.41	224.547500	224.802500	<CONT>	+++	three
sw3233A-ms98-a-0043	A.41	224.802500	224.922500		and	and
sw3233A-ms98-a-0043	A.41	224.922500	225.302500		nineteen	nineteen
sw3233A-ms98-a-0043	A.41	225.302500	225.612500	<CONT>	forty-five	forty
sw3233A-ms98-a-0043	A.41	225.612500	225.922500	<CONT>	+++	five
sw3233A-ms98-a-0043	A.41	225.922500	226.062500		and	and
sw3233A-ms98-a-0043	A.41	226.062500	226.322500		things	things
sw3233A-ms98-a-0043	A.41	226.322500	226.542500		like	like
sw3233A-ms98-a-0043	A.41	226.542500	226.959750		that	that
sw3233A-ms98-a-0043	A.43	226.959750	227.483250		[silence]	[silence]
sw3233A-ms98-a-0044	A.43	227.483250	228.097250		[silence]	[silence]
sw3233A-ms98-a-0044	A.43	228.097250	229.701125		and	and
sw3233A-ms98-a-0044	A.43	229.701125	229.845125		I	i
sw3233A-ms98-a-0044	A.43	229.845125	230.033250		didn't	didn't
sw3233A-ms98-a-0044	A.43	230.033250	230.483250		enjoy	enjoy
sw3233A-ms98-a-0044	A.43	230.483250	230.713250		those	those
sw3233A-ms98-a-0044	A.43	230.713250	230.873250		as	as
sw3233A-ms98-a-0044	A.43	230.873250	231.183250		much	much
sw3233A-ms98-a-0044	A.43	231.183250	231.303250		and	and
sw3233A-ms98-a-0044	A.43	231.303250	231.353250		I	i
sw3233A-ms98-a-0044	A.43	231.353250	231.543250		don't	don't
sw3233A-ms98-a-0044	A.43	231.543250	231.623250		know	know
sw3233A-ms98-a-0044	A.43	231.623250	231.713250		if	if
sw3233A-ms98-a-0044	A.43	231.713250	231.923250		it's	it's
sw3233A-ms98-a-0044	A.43	231.923250	232.153250		just	just
sw3233A-ms98-a-0044	A.43	232.153250	232.523250		because	because
sw3233A-ms98-a-0044	A.43	232.523250	232.673250		they	they
sw3233A-ms98-a-0044	A.43	232.673250	232.933250		didn't	didn't
sw3233A-ms98-a-0044	A.43	232.933250	233.153250		come	come
sw3233A-ms98-a-0044	A.43	233.153250	233.377375		from	from
sw3233A-ms98-a-0044	A.43	233.377375	233.603375		my	my
sw3233A-ms98-a-0044	A.43	233.603375	234.273500		era	era
sw3233A-ms98-a-0044	A.43	234.273500	234.556000		[silence]	[silence]
sw3233A-ms98-a-0044	A.43	234.556000	234.833250		or	or
sw3233A-ms98-a-0044	A.43	234.833250	235.740875		what	what
sw3233A-ms98-a-0044	A.43	235.740875	236.074500		but	but
sw3233A-ms98-a-0044	A.43	236.074500	236.592125		uh	uh
sw3233A-ms98-a-0044	A.45	236.592125	237.012875		[silence]	[silence]
sw3233A-ms98-a-0045	A.45	237.012875	242.039375		[silence]	[silence]
sw3233A-ms98-a-0046	A.45	242.039375	242.549375		[silence]	[silence]
sw3233A-ms98-a-0046	A.45	242.549375	242.956375		Yeah	yeah
sw3233A-ms98-a-0046	A.47	242.956375	243.388875		[silence]	[silence]
sw3233A-ms98-a-0047	A.47	243.388875	247.470000		[silence]	[silence]
sw3233A-ms98-a-0048	A.47	247.470000	247.940000		[silence]	[silence]
sw3233A-ms98-a-0048	A.47	247.940000	248.380875		Uh-huh	uh-huh
sw3233A-ms98-a-0048	A.49	248.380875	248.851500		[silence]	[silence]
sw3233A-ms98-a-0049	A.49	248.851500	251.852750		[silence]	[silence]
sw3233A-ms98-a-0050	A.49	251.852750	252.382750		[silence]	[silence]
sw3233A-ms98-a-0050	A.49	252.382750	252.824625		Uh-huh	uh-huh
sw3233A-ms98-a-0050	A.51	252.824625	253.289625		[silence]	[silence]
sw3233A-ms98-a-0051	A.51	253.289625	254.902750		[silence]	[silence]
sw3233A-ms98-a-0052	A.51	254.902750	255.343500		[silence]	[silence]
sw3233A-ms98-a-0052	A.51	255.343500	255.932875		Uh-huh	uh-huh
sw3233A-ms98-a-0052	A.53	255.932875	256.384875		[silence]	[silence]
sw3233A-ms98-a-0052	A.53	256.384875	256.610250		No	no
sw3233A-ms98-a-0052	A.53	256.610250	256.975625		even	even
sw3233A-ms98-a-0052	A.53	256.975625	257.312750		that's	that's
sw3233A-ms98-a-0052	A.53	257.312750	257.785875		good	good
sw3233A-ms98-a-0052	A.55	257.785875	258.264500		[silence]	[silence]
sw3233A-ms98-a-0053	A.55	258.264500	261.415875		[silence]	[silence]
sw3233A-ms98-a-0054	A.55	261.415875	261.878250		[silence]	[silence]
sw3233A-ms98-a-0054	A.55	261.878250	262.453375	<SUB>	Uh-huh	um-hum
sw3233A-ms98-a-0054	A.57	262.453375	262.912875		[silence]	[silence]
sw3233A-ms98-a-0055	A.57	262.912875	265.263250		[silence]	[silence]
sw3233A-ms98-a-0056	A.57	265.263250	265.843250		[silence]	[silence]
sw3233A-ms98-a-0056	A.57	265.843250	266.265000		Yeah	yeah
sw3233A-ms98-a-0056	A.57	266.265000	266.671750		[silence]	[silence]
sw3233A-ms98-a-0056	A.57	266.671750	267.147500		uh	uh
sw3233A-ms98-a-0056	A.57	267.147500	267.286875		[silence]	[silence]
sw3233A-ms98-a-0056	A.57	267.286875	267.493250		my	my
sw3233A-ms98-a-0056	A.57	267.493250	267.933250		children	children
sw3233A-ms98-a-0056	A.57	267.933250	268.081000		and	and
sw3233A-ms98-a-0056	A.57	268.081000	268.495375		I	i
sw3233A-ms98-a-0056	A.57	268.495375	268.885000		uh	uh
sw3233A-ms98-a-0056	A.57	268.885000	268.993250		I	i
sw3233A-ms98-a-0056	A.57	268.993250	269.333250		started	started
sw3233A-ms98-a-0056	A.57	269.333250	269.363250		a	a
sw3233A-ms98-a-0056	A.57	269.363250	269.563250		thing	thing
sw3233A-ms98-a-0056	A.57	269.563250	269.783250		where	where
sw3233A-ms98-a-0056	A.57	269.783250	270.451125		I	i
sw3233A-ms98-a-0056	A.57	270.451125	270.726000		[silence]	[silence]
sw3233A-ms98-a-0056	A.57	270.726000	271.183250		read	read
sw3233A-ms98-a-0056	A.57	271.183250	271.469500		[silence]	[silence]
sw3233A-ms98-a-0056	A.57	271.469500	271.573250		a	a
sw3233A-ms98-a-0056	A.57	271.573250	271.773250		book	book
sw3233A-ms98-a-0056	A.57	271.773250	271.933250		with	with
sw3233A-ms98-a-0056	A.57	271.933250	272.153250		them	them
sw3233A-ms98-a-0056	A.57	272.153250	272.443375		before	before
sw3233A-ms98-a-0056	A.57	272.443375	272.567875		they	they
sw3233A-ms98-a-0056	A.57	272.567875	272.706625		went	went
sw3233A-ms98-a-0056	A.59	272.706625	272.877125		[noise]	[noise]
sw3233A-ms98-a-0056	A.59	272.877125	273.184375		[silence]	[silence]
sw3233A-ms98-a-0057	A.59	273.184375	273.468125		[silence]	[silence]
sw3233A-ms98-a-0057	A.59	273.468125	273.624375		to	to
sw3233A-ms98-a-0057	A.59	273.624375	273.824375		bed	bed
sw3233A-ms98-a-0057	A.59	273.824375	273.934375		at	at
sw3233A-ms98-a-0057	A.59	273.934375	274.233000		night	night
sw3233A-ms98-a-0057	A.59	274.233000	274.594625		[silence]	[silence]
sw3233A-ms98-a-0057	A.59	274.594625	274.714375		And	and
sw3233A-ms98-a-0057	A.59	274.714375	274.804375		there	there
sw3233A-ms98-a-0057	A.59	274.804375	274.934375		was	was
sw3233A-ms98-a-0057	A.59	274.934375	275.154375		one	one
sw3233A-ms98-a-0057	A.59	275.154375	275.608625		called	called
sw3233A-ms98-a-0057	A.59	275.608625	275.699000		THE	The
sw3233A-ms98-a-0057	A.59	275.699000	275.874375		PIG	Pig
sw3233A-ms98-a-0057	A.59	275.874375	276.594625		PRINCESS	Princess
sw3233A-ms98-a-0057	A.59	276.594625	276.844750		[silence]	[silence]
sw3233A-ms98-a-0058	A.59	276.844750	277.214750		[silence]	[silence]
sw3233A-ms98-a-0058	A.59	277.214750	277.456875		and	and
sw3233A-ms98-a-0058	A.59	277.456875	277.536500		it	it
sw3233A-ms98-a-0058	A.59	277.536500	277.682875		was	was
sw3233A-ms98-a-0058	A.59	277.682875	277.984125		a	a
sw3233A-ms98-a-0058	A.59	277.984125	278.294750		a	a
sw3233A-ms98-a-0058	A.59	278.294750	278.774750		princess	princess
sw3233A-ms98-a-0058	A.59	278.774750	278.924750		from	from
sw3233A-ms98-a-0058	A.59	278.924750	279.004750		a	a
sw3233A-ms98-a-0058	A.59	279.004750	279.484750		long	long
sw3233A-ms98-a-0058	A.59	279.484750	279.644750		long	long
sw3233A-ms98-a-0058	A.59	279.644750	279.894750		time	time
sw3233A-ms98-a-0058	A.59	279.894750	280.231000		ago	ago
sw3233A-ms98-a-0058	A.59	280.231000	280.539875		[silence]	[silence]
sw3233A-ms98-a-0058	A.59	280.539875	280.684750		and	and
sw3233A-ms98-a-0058	A.59	280.684750	280.794750		she	she
sw3233A-ms98-a-0058	A.59	280.794750	281.064750		came	came
sw3233A-ms98-a-0058	A.59	281.064750	281.328375		through	through
sw3233A-ms98-a-0058	A.59	281.328375	281.659875		a	a
sw3233A-ms98-a-0058	A.59	281.659875	281.764750		a	a
sw3233A-ms98-a-0058	A.59	281.764750	282.264750		spell	spell
sw3233A-ms98-a-0058	A.59	282.264750	282.544750		kind	kind
sw3233A-ms98-a-0058	A.59	282.544750	282.674750		of	of
sw3233A-ms98-a-0058	A.59	282.674750	282.904750		thing	thing
sw3233A-ms98-a-0058	A.59	282.904750	283.024750		and	and
sw3233A-ms98-a-0058	A.59	283.024750	283.284750		ended	ended
sw3233A-ms98-a-0058	A.59	283.284750	283.463125		up	up
sw3233A-ms98-a-0058	A.59	283.463125	283.896375		[silence]	[silence]
sw3233A-ms98-a-0058	A.59	283.896375	283.984750		in	in
sw3233A-ms98-a-0058	A.59	283.984750	284.114750		a	a
sw3233A-ms98-a-0058	A.59	284.114750	284.735125		pig	pig
sw3233A-ms98-a-0058	A.59	284.735125	284.844250		[silence]	[silence]
sw3233A-ms98-a-0058	A.59	284.844250	285.204750		um	um
sw3233A-ms98-a-0058	A.59	285.204750	285.823500		sty	sty
sw3233A-ms98-a-0058	A.59	285.823500	286.170000		[silence]	[silence]
sw3233A-ms98-a-0058	A.59	286.170000	286.384750		and	and
sw3233A-ms98-a-0058	A.59	286.384750	286.444750		the	the
sw3233A-ms98-a-0058	A.59	286.444750	286.784750		people	people
sw3233A-ms98-a-0058	A.59	286.784750	286.944750		that	that
sw3233A-ms98-a-0058	A.59	286.944750	287.054750		she	she
sw3233A-ms98-a-0058	A.59	287.054750	287.314625		came	came
sw3233A-ms98-a-0058	A.59	287.314625	287.468250		to	to
sw3233A-ms98-a-0058	A.59	287.468250	287.584750		were	were
sw3233A-ms98-a-0058	A.59	287.584750	287.862750		just	just
sw3233A-ms98-a-0058	A.59	287.862750	287.994500		[silence]	[silence]
sw3233A-ms98-a-0059	A.59	287.994500	288.139000		[silence]	[silence]
sw3233A-ms98-a-0059	A.59	288.139000	288.493875		farm	farm
sw3233A-ms98-a-0059	A.59	288.493875	288.994750		people	people
sw3233A-ms98-a-0059	A.61	288.994750	289.171750		[silence]	[silence]
sw3233A-ms98-a-0059	A.61	289.171750	289.324500		and	and
sw3233A-ms98-a-0059	A.61	289.324500	289.484500		she	she
sw3233A-ms98-a-0059	A.61	289.484500	289.714500		didn't	didn't
sw3233A-ms98-a-0059	A.61	289.714500	290.234500		understand	understand
sw3233A-ms98-a-0059	A.61	290.234500	290.424500		them	them
sw3233A-ms98-a-0059	A.61	290.424500	290.544500		and	and
sw3233A-ms98-a-0059	A.61	290.544500	290.654500		they	they
sw3233A-ms98-a-0059	A.61	290.654500	290.831125		didn't	didn't
sw3233A-ms98-a-0059	A.61	290.831125	291.497875		understand	understand
sw3233A-ms98-a-0059	A.61	291.497875	291.624500		her	her
sw3233A-ms98-a-0059	A.61	291.624500	291.794500		but	but
sw3233A-ms98-a-0059	A.61	291.794500	291.914500		it	it
sw3233A-ms98-a-0059	A.61	291.914500	292.394500		came	came
sw3233A-ms98-a-0059	A.61	292.394500	293.048000		together	together
sw3233A-ms98-a-0059	A.61	293.048000	293.454875		[silence]	[silence]
sw3233A-ms98-a-0059	A.61	293.454875	293.624500		in	in
sw3233A-ms98-a-0059	A.61	293.624500	293.844500		this	this
sw3233A-ms98-a-0059	A.61	293.844500	294.224500		book	book
sw3233A-ms98-a-0059	A.61	294.224500	294.362625		and	and
sw3233A-ms98-a-0059	A.61	294.362625	294.547125		it	it
sw3233A-ms98-a-0059	A.61	294.547125	294.674500		was	was
sw3233A-ms98-a-0059	A.61	294.674500	294.974500		really	really
sw3233A-ms98-a-0059	A.61	294.974500	295.044500		a	a
sw3233A-ms98-a-0059	A.61	295.044500	295.234500		lot	lot
sw3233A-ms98-a-0059	A.61	295.234500	295.407625		of	of
sw3233A-ms98-a-0059	A.61	295.407625	295.800250		fun	fun
sw3233A-ms98-a-0059	A.61	295.800250	296.222750		[silence]	[silence]
sw3233A-ms98-a-0060	A.61	296.222750	298.626000		[silence]	[silence]
