sw3207A-ms98-a-0001	@A.1	0.000000	0.020000		[silence]	[silence]
sw3207A-ms98-a-0001	@A.1	0.020000	0.040000		[noise]	[noise]
sw3207A-ms98-a-0001	@A.1	0.040000	0.184375		Um	um
sw3207A-ms98-a-0001	@A.1	0.184375	0.275625		I	i
sw3207A-ms98-a-0001	@A.1	0.275625	0.460000		don't	don't
sw3207A-ms98-a-0001	@A.1	0.460000	0.616125		[silence]	[silence]
sw3207A-ms98-a-0001	@A.1	0.616125	0.924125		I	i
sw3207A-ms98-a-0001	@A.1	0.924125	1.076125		[silence]	[silence]
sw3207A-ms98-a-0002	@A.1	1.076125	1.195875		[silence]	[silence]
sw3207A-ms98-a-0002	@A.1	1.195875	1.236125	<DEL>	---	i
sw3207A-ms98-a-0002	@A.1	1.236125	1.346125		am	am
sw3207A-ms98-a-0002	@A.1	1.346125	1.708625		only	only
sw3207A-ms98-a-0002	@A.1	1.708625	1.827500		[silence]	[silence]
sw3207A-ms98-a-0002	@A.1	1.827500	2.096125	<CONT>	twenty-eight	twenty
sw3207A-ms98-a-0002	@A.1	2.096125	2.246125	<CONT>	+++	eight
sw3207A-ms98-a-0002	@A.1	2.246125	2.346125		and	and
sw3207A-ms98-a-0002	@A.1	2.346125	2.386125		I	i
sw3207A-ms98-a-0002	@A.1	2.386125	2.606125		haven't	haven't
sw3207A-ms98-a-0002	@A.1	2.606125	2.736125		had	had
sw3207A-ms98-a-0002	@A.1	2.736125	2.916125		much	much
sw3207A-ms98-a-0002	@A.1	2.916125	3.656125		experience	experience
sw3207A-ms98-a-0002	@A.1	3.656125	3.906125		[silence]	[silence]
sw3207A-ms98-a-0002	@A.1	3.906125	4.136125		with	with
sw3207A-ms98-a-0002	@A.1	4.136125	4.486125		nursing	nursing
sw3207A-ms98-a-0002	@A.1	4.486125	4.799125		homes	homes
sw3207A-ms98-a-0002	@A.1	4.799125	4.885750		I	i
sw3207A-ms98-a-0002	@A.1	4.885750	5.090125		don't	don't
sw3207A-ms98-a-0002	@A.1	5.090125	5.240750		[silence]	[silence]
sw3207A-ms98-a-0002	@A.1	5.240750	5.306125		I	i
sw3207A-ms98-a-0002	@A.1	5.306125	5.456125		have	have
sw3207A-ms98-a-0002	@A.1	5.456125	5.726125		never	never
sw3207A-ms98-a-0002	@A.1	5.726125	6.076125		visited	visited
sw3207A-ms98-a-0002	@A.1	6.076125	6.266125		any	any
sw3207A-ms98-a-0002	@A.1	6.266125	6.266125	<INS>	of	---
sw3207A-ms98-a-0002	@A.1	6.266125	6.266125	<INS>	them	---
sw3207A-ms98-a-0002	@A.1	6.266125	6.266125	<INS>	and	---
sw3207A-ms98-a-0002	@A.1	6.266125	6.266125	<INS>	uh	---
sw3207A-ms98-a-0002	@A.1	6.266125	6.792250		[vocalized-noise]	[vocalized-noise]
sw3207A-ms98-a-0002	@A.1	6.792250	6.837500		I	i
sw3207A-ms98-a-0002	@A.1	6.837500	6.966125		don't	don't
sw3207A-ms98-a-0002	@A.1	6.966125	7.086125		think	think
sw3207A-ms98-a-0002	@A.1	7.086125	7.206125		I've	i've
sw3207A-ms98-a-0002	@A.1	7.206125	7.366125		ever	ever
sw3207A-ms98-a-0002	@A.1	7.366125	7.526125		even	even
sw3207A-ms98-a-0002	@A.1	7.526125	7.646125		been	been
sw3207A-ms98-a-0002	@A.1	7.646125	7.826125		in	in
sw3207A-ms98-a-0002	@A.1	7.826125	8.036125		one	one
sw3207A-ms98-a-0002	@A.1	8.036125	8.166125		Have	have
sw3207A-ms98-a-0002	@A.1	8.166125	8.439750		you	you
sw3207A-ms98-a-0002	A.3	8.439750	8.947500		[silence]	[silence]
sw3207A-ms98-a-0003	A.3	8.947500	27.875750		[silence]	[silence]
sw3207A-ms98-a-0004	A.3	27.875750	28.485750		[silence]	[silence]
sw3207A-ms98-a-0004	A.3	28.485750	28.775750		Uh-huh	uh-huh
sw3207A-ms98-a-0004	A.5	28.775750	29.359000		[silence]	[silence]
sw3207A-ms98-a-0005	A.5	29.359000	44.662125		[silence]	[silence]
sw3207A-ms98-a-0006	A.5	44.662125	45.262125		[silence]	[silence]
sw3207A-ms98-a-0006	A.5	45.262125	45.392125		And	and
sw3207A-ms98-a-0006	A.5	45.392125	45.512125		it	it
sw3207A-ms98-a-0006	A.5	45.512125	45.592125	<DEL>	---	ta[kes]-
sw3207A-ms98-a-0006	A.5	45.592125	45.772125		it	it
sw3207A-ms98-a-0006	A.5	45.772125	45.992125		takes	takes
sw3207A-ms98-a-0006	A.5	45.992125	46.042125		a	a
sw3207A-ms98-a-0006	A.5	46.042125	46.252125		lot	lot
sw3207A-ms98-a-0006	A.5	46.252125	46.312125		of	of
sw3207A-ms98-a-0006	A.5	46.312125	46.802125		care	care
sw3207A-ms98-a-0006	A.5	46.802125	46.952125		like	like
sw3207A-ms98-a-0006	A.5	46.952125	47.202125	<CONT>	twenty-four	twenty
sw3207A-ms98-a-0006	A.5	47.202125	47.402125	<CONT>	+++	four
sw3207A-ms98-a-0006	A.5	47.402125	47.662125		hours	hours
sw3207A-ms98-a-0006	A.5	47.662125	47.712125		a	a
sw3207A-ms98-a-0006	A.5	47.712125	47.912125		day	day
sw3207A-ms98-a-0006	A.5	47.912125	48.362875		someone	someone
sw3207A-ms98-a-0006	A.7	48.362875	48.867625		[silence]	[silence]
sw3207A-ms98-a-0006	A.7	48.867625	49.112125		has	has
sw3207A-ms98-a-0006	A.7	49.112125	49.242125		to	to
sw3207A-ms98-a-0006	A.7	49.242125	49.504125		be	be
sw3207A-ms98-a-0006	A.9	49.504125	49.632125	<SUB>	Well	we[ll]-
sw3207A-ms98-a-0006	A.9	49.632125	49.822125		[silence]	[silence]
sw3207A-ms98-a-0006	A.9	49.822125	50.009875	<DEL>	---	like
sw3207A-ms98-a-0006	A.9	50.009875	50.212125		there's	there's
sw3207A-ms98-a-0006	A.9	50.212125	50.452125		someone	someone
sw3207A-ms98-a-0006	A.9	50.452125	50.532125		in	in
sw3207A-ms98-a-0006	A.9	50.532125	50.711875		my	my
sw3207A-ms98-a-0006	A.9	50.711875	51.152125		[silence]	[silence]
sw3207A-ms98-a-0006	A.9	51.152125	51.416125		my	my
sw3207A-ms98-a-0006	A.9	51.416125	51.645875		[silence]	[silence]
sw3207A-ms98-a-0006	A.9	51.645875	52.162125	<SUB>	fiancee's	fiance's
sw3207A-ms98-a-0006	A.9	52.162125	52.511125		family	family
sw3207A-ms98-a-0006	A.9	52.511125	52.658000		[silence]	[silence]
sw3207A-ms98-a-0006	A.9	52.658000	52.842125		His	his
sw3207A-ms98-a-0006	A.9	52.842125	53.182125		grandmother	grandmother
sw3207A-ms98-a-0006	A.9	53.182125	53.462125		too	too
sw3207A-ms98-a-0006	A.9	53.462125	53.562125		and	and
sw3207A-ms98-a-0006	A.9	53.562125	53.782125		they're	they're
sw3207A-ms98-a-0006	A.9	53.782125	54.224500		[silence]	[silence]
sw3207A-ms98-a-0007	A.9	54.224500	55.104500		[silence]	[silence]
sw3207A-ms98-a-0007	A.9	55.104500	55.354500		that	that
sw3207A-ms98-a-0007	A.9	55.354500	55.574500		hi-	hi[s]-
sw3207A-ms98-a-0007	A.9	55.574500	56.157125		her	her
sw3207A-ms98-a-0007	A.9	56.157125	56.721000		[silence]	[silence]
sw3207A-ms98-a-0008	A.9	56.721000	57.201000		[silence]	[silence]
sw3207A-ms98-a-0008	A.9	57.201000	57.621000		son	son
sw3207A-ms98-a-0008	A.9	57.621000	57.991000		[silence]	[silence]
sw3207A-ms98-a-0008	A.9	57.991000	58.121000		his	his
sw3207A-ms98-a-0008	A.9	58.121000	58.491000		uncle	uncle
sw3207A-ms98-a-0008	A.9	58.491000	58.681000		[silence]	[silence]
sw3207A-ms98-a-0008	A.9	58.681000	59.001000		whatever	whatever
sw3207A-ms98-a-0008	A.9	59.001000	59.131000		you	you
sw3207A-ms98-a-0008	A.9	59.131000	59.271000		know	know
sw3207A-ms98-a-0008	A.9	59.271000	59.679000		anyway	anyway
sw3207A-ms98-a-0008	A.11	59.679000	60.231000		[noise]	[noise]
sw3207A-ms98-a-0008	A.11	60.231000	60.534250	<SUB>	He	h[e]-
sw3207A-ms98-a-0008	A.11	60.534250	60.721000		he	he
sw3207A-ms98-a-0008	A.11	60.721000	60.941000		has	has
sw3207A-ms98-a-0008	A.11	60.941000	61.191000		[silence]	[silence]
sw3207A-ms98-a-0008	A.11	61.191000	61.372500	<SUB>	he's	he
sw3207A-ms98-a-0008	A.11	61.372500	61.591000		[silence]	[silence]
sw3207A-ms98-a-0008	A.11	61.591000	61.961000		recently	recently
sw3207A-ms98-a-0008	A.11	61.961000	62.561000		retired	retired
sw3207A-ms98-a-0008	A.11	62.561000	62.691000		and	and
sw3207A-ms98-a-0008	A.11	62.691000	62.901000		so	so
sw3207A-ms98-a-0008	A.11	62.901000	63.211000		he's	he's
sw3207A-ms98-a-0008	A.11	63.211000	63.291000		the	the
sw3207A-ms98-a-0008	A.11	63.291000	63.611000		one	one
sw3207A-ms98-a-0008	A.11	63.611000	63.884125		who	who
sw3207A-ms98-a-0008	A.11	63.884125	64.437750		[silence]	[silence]
sw3207A-ms98-a-0008	A.11	64.437750	64.701125		she	she
sw3207A-ms98-a-0008	A.11	64.701125	64.941000		moved	moved
sw3207A-ms98-a-0008	A.11	64.941000	65.041000		in	in
sw3207A-ms98-a-0008	A.11	65.041000	65.161000		with	with
sw3207A-ms98-a-0008	A.11	65.161000	65.281000		when	when
sw3207A-ms98-a-0008	A.11	65.281000	65.411000		she	she
sw3207A-ms98-a-0008	A.11	65.411000	65.571000		had	had
sw3207A-ms98-a-0008	A.11	65.571000	65.631000		a	a
sw3207A-ms98-a-0008	A.11	65.631000	66.181000		stroke	stroke
sw3207A-ms98-a-0008	A.11	66.181000	66.481000		and	and
sw3207A-ms98-a-0008	A.11	66.481000	66.731000		[silence]	[silence]
sw3207A-ms98-a-0008	A.11	66.731000	66.921000		and	and
sw3207A-ms98-a-0008	A.11	66.921000	67.119000		all	all
sw3207A-ms98-a-0008	A.11	67.119000	67.221000		the	the
sw3207A-ms98-a-0008	A.11	67.221000	67.331000		other	other
sw3207A-ms98-a-0008	A.11	67.331000	67.911000		children	children
sw3207A-ms98-a-0008	A.11	67.911000	68.292125		[silence]	[silence]
sw3207A-ms98-a-0009	A.11	68.292125	69.092125		[silence]	[silence]
sw3207A-ms98-a-0009	A.11	69.092125	69.182125	<DEL>	---	um
sw3207A-ms98-a-0009	A.11	69.182125	69.272125		are	are
sw3207A-ms98-a-0009	A.11	69.272125	69.732125		working	working
sw3207A-ms98-a-0009	A.11	69.732125	69.792125		or	or
sw3207A-ms98-a-0009	A.11	69.792125	70.363500		whatever	whatever
sw3207A-ms98-a-0009	A.13	70.363500	70.634750		[silence]	[silence]
sw3207A-ms98-a-0009	A.13	70.634750	70.801000		They're	they're
sw3207A-ms98-a-0009	A.13	70.801000	71.032125		all	all
sw3207A-ms98-a-0009	A.13	71.032125	71.292125		[silence]	[silence]
sw3207A-ms98-a-0009	A.13	71.292125	71.427000		my	my
sw3207A-ms98-a-0009	A.13	71.427000	71.772125		parents	parent's
sw3207A-ms98-a-0009	A.13	71.772125	71.982125		age	age
sw3207A-ms98-a-0009	A.13	71.982125	72.795875		[silence]	[silence]
sw3207A-ms98-a-0009	A.13	72.795875	73.059500		And	and
sw3207A-ms98-a-0009	A.13	73.059500	73.342125		uh	uh
sw3207A-ms98-a-0009	A.13	73.342125	74.357875		so	so
sw3207A-ms98-a-0009	A.13	74.357875	74.712125		he's	he's
sw3207A-ms98-a-0009	A.13	74.712125	74.922125		got	got
sw3207A-ms98-a-0009	A.13	74.922125	75.022125		you	you
sw3207A-ms98-a-0009	A.13	75.022125	75.162125		know	know
sw3207A-ms98-a-0009	A.13	75.162125	75.312125		his	his
sw3207A-ms98-a-0009	A.13	75.312125	75.882125		retirement	retirement
sw3207A-ms98-a-0009	A.13	75.882125	76.042125		though	though
sw3207A-ms98-a-0009	A.13	76.042125	76.262125		is	is
sw3207A-ms98-a-0009	A.13	76.262125	76.587750		really	really
sw3207A-ms98-a-0009	A.13	76.587750	76.812125	<CONT>	twenty-four	twenty
sw3207A-ms98-a-0009	A.13	76.812125	76.982125	<CONT>	+++	four
sw3207A-ms98-a-0009	A.13	76.982125	77.252125		hours	hours
sw3207A-ms98-a-0009	A.13	77.252125	77.338125		a	a
sw3207A-ms98-a-0009	A.13	77.338125	77.482125		day	day
sw3207A-ms98-a-0009	A.13	77.482125	77.562125		They	they
sw3207A-ms98-a-0009	A.13	77.562125	77.742125		have	have
sw3207A-ms98-a-0009	A.13	77.742125	77.902125		a	a
sw3207A-ms98-a-0009	A.13	77.902125	78.292750		[silence]	[silence]
sw3207A-ms98-a-0010	A.13	78.292750	78.672750		[silence]	[silence]
sw3207A-ms98-a-0010	A.13	78.672750	78.902500		day	day
sw3207A-ms98-a-0010	A.13	78.902500	79.238625		care	care
sw3207A-ms98-a-0010	A.13	79.238625	80.012750		[noise]	[noise]
sw3207A-ms98-a-0010	A.13	80.012750	80.166750		two	two
sw3207A-ms98-a-0010	A.13	80.166750	80.352750		days	days
sw3207A-ms98-a-0010	A.13	80.352750	80.432750		a	a
sw3207A-ms98-a-0010	A.13	80.432750	80.902750		week	week
sw3207A-ms98-a-0010	A.13	80.902750	81.034125		They	they
sw3207A-ms98-a-0010	A.13	81.034125	81.262750		call	call
sw3207A-ms98-a-0010	A.13	81.262750	81.452750		it	it
sw3207A-ms98-a-0010	A.13	81.452750	81.682750		senior	senior
sw3207A-ms98-a-0010	A.13	81.682750	82.072750		citizen	citizen
sw3207A-ms98-a-0010	A.13	82.072750	82.289125		day	day
sw3207A-ms98-a-0010	A.13	82.289125	82.848375		care	[laughter-care]
sw3207A-ms98-a-0010	A.13	82.848375	83.108250		But	but
sw3207A-ms98-a-0010	A.13	83.108250	83.214250		she	she
sw3207A-ms98-a-0010	A.13	83.214250	83.372750		goes	goes
sw3207A-ms98-a-0010	A.13	83.372750	83.492750	<SUB>	in	to
sw3207A-ms98-a-0010	A.13	83.492750	83.552750		the	the
sw3207A-ms98-a-0010	A.13	83.552750	83.752750		senior	senior
sw3207A-ms98-a-0010	A.13	83.752750	84.172750		citizen	citizen
sw3207A-ms98-a-0010	A.13	84.172750	84.652750		center	center
sw3207A-ms98-a-0010	A.15	84.652750	85.388500		[silence]	[silence]
sw3207A-ms98-a-0011	A.15	85.388500	86.088500		[silence]	[silence]
sw3207A-ms98-a-0011	A.15	86.088500	86.278500		So	so
sw3207A-ms98-a-0011	A.15	86.278500	86.514875		sh-	sh[e]-
sw3207A-ms98-a-0011	A.15	86.514875	86.650500		[silence]	[silence]
sw3207A-ms98-a-0011	A.15	86.650500	86.888500		he	he
sw3207A-ms98-a-0011	A.15	86.888500	87.068500		gets	gets
sw3207A-ms98-a-0011	A.15	87.068500	87.148500		a	a
sw3207A-ms98-a-0011	A.15	87.148500	87.668500		break	break
sw3207A-ms98-a-0011	A.15	87.668500	87.913875		two	two
sw3207A-ms98-a-0011	A.15	87.913875	88.078500		days	days
sw3207A-ms98-a-0011	A.15	88.078500	88.138500		a	a
sw3207A-ms98-a-0011	A.15	88.138500	88.298500		week	week
sw3207A-ms98-a-0011	A.15	88.298500	88.418500		but	but
sw3207A-ms98-a-0011	A.15	88.418500	88.548500		it's	it's
sw3207A-ms98-a-0011	A.15	88.548500	88.929250		only	only
sw3207A-ms98-a-0011	A.15	88.929250	89.270750		for	for
sw3207A-ms98-a-0011	A.15	89.270750	89.458500		like	like
sw3207A-ms98-a-0011	A.15	89.458500	89.638500		two	two
sw3207A-ms98-a-0011	A.15	89.638500	89.708500		or	or
sw3207A-ms98-a-0011	A.15	89.708500	89.928500		three	three
sw3207A-ms98-a-0011	A.15	89.928500	90.138500		hours	hours
sw3207A-ms98-a-0011	A.15	90.138500	90.218500		at	at
sw3207A-ms98-a-0011	A.15	90.218500	90.278500		a	a
sw3207A-ms98-a-0011	A.15	90.278500	90.748500		time	time
sw3207A-ms98-a-0011	A.17	90.748500	91.016250		[silence]	[silence]
sw3207A-ms98-a-0012	A.17	91.016250	91.346250		[silence]	[silence]
sw3207A-ms98-a-0012	A.17	91.346250	91.516250		And	and
sw3207A-ms98-a-0012	A.17	91.516250	91.596250		you	you
sw3207A-ms98-a-0012	A.17	91.596250	91.766250		know	know
sw3207A-ms98-a-0012	A.17	91.766250	92.026250		just	just
sw3207A-ms98-a-0012	A.17	92.026250	92.146250		you	you
sw3207A-ms98-a-0012	A.17	92.146250	92.356250		see	see
sw3207A-ms98-a-0012	A.17	92.356250	92.406250		a	a
sw3207A-ms98-a-0012	A.17	92.406250	92.566250		lot	lot
sw3207A-ms98-a-0012	A.17	92.566250	92.636250		of	of
sw3207A-ms98-a-0012	A.17	92.636250	92.866250		things	things
sw3207A-ms98-a-0012	A.17	92.866250	93.116250		like	like
sw3207A-ms98-a-0012	A.17	93.116250	93.366250		you	you
sw3207A-ms98-a-0012	A.17	93.366250	93.706250		[silence]	[silence]
sw3207A-ms98-a-0012	A.17	93.706250	93.856250		you	you
sw3207A-ms98-a-0012	A.17	93.856250	94.133500		know	know
sw3207A-ms98-a-0012	A.17	94.133500	94.246500		[silence]	[silence]
sw3207A-ms98-a-0012	A.17	94.246500	94.436250		was	was
sw3207A-ms98-a-0012	A.17	94.436250	94.640500	<DEL>	---	always
sw3207A-ms98-a-0012	A.17	94.640500	94.742125		a	a
sw3207A-ms98-a-0012	A.17	94.742125	94.996250		great	great
sw3207A-ms98-a-0012	A.17	94.996250	95.464250		golfer	golfer
sw3207A-ms98-a-0012	A.17	95.464250	95.562125		and	and
sw3207A-ms98-a-0012	A.17	95.562125	95.756250		wanted	wanted
sw3207A-ms98-a-0012	A.17	95.756250	95.836250		to	to
sw3207A-ms98-a-0012	A.17	95.836250	96.086250		play	play
sw3207A-ms98-a-0012	A.17	96.086250	96.436250		golf	golf
sw3207A-ms98-a-0012	A.17	96.436250	96.536250		when	when
sw3207A-ms98-a-0012	A.17	96.536250	96.596250		he	he
sw3207A-ms98-a-0012	A.17	96.596250	97.116250		retired	retired
sw3207A-ms98-a-0012	A.17	97.116250	97.216250		and	and
sw3207A-ms98-a-0012	A.17	97.216250	97.316250		you	you
sw3207A-ms98-a-0012	A.17	97.316250	97.496250		know	know
sw3207A-ms98-a-0012	A.17	97.496250	97.596250		that	that
sw3207A-ms98-a-0012	A.17	97.596250	97.626250		a	a
sw3207A-ms98-a-0012	A.17	97.626250	97.866250		lot	lot
sw3207A-ms98-a-0012	A.17	97.866250	97.926250		of	of
sw3207A-ms98-a-0012	A.17	97.926250	97.996250		the	the
sw3207A-ms98-a-0012	A.17	97.996250	98.266250		things	things
sw3207A-ms98-a-0012	A.17	98.266250	98.386250		he	he
sw3207A-ms98-a-0012	A.17	98.386250	98.576250		thought	thought
sw3207A-ms98-a-0012	A.17	98.576250	98.636250		he	he
sw3207A-ms98-a-0012	A.17	98.636250	98.746250		would	would
sw3207A-ms98-a-0012	A.17	98.746250	98.856250		do	do
sw3207A-ms98-a-0012	A.17	98.856250	98.956250		when	when
sw3207A-ms98-a-0012	A.17	98.956250	99.026250		he	he
sw3207A-ms98-a-0012	A.17	99.026250	99.416250		retired	retired
sw3207A-ms98-a-0012	A.17	99.416250	99.546250		he's	he's
sw3207A-ms98-a-0012	A.17	99.546250	99.706250		not	not
sw3207A-ms98-a-0012	A.17	99.706250	99.936250		able	able
sw3207A-ms98-a-0012	A.17	99.936250	100.076250		to	to
sw3207A-ms98-a-0012	A.17	100.076250	100.296250		do	do
sw3207A-ms98-a-0012	A.17	100.296250	100.616250		now	now
sw3207A-ms98-a-0012	A.19	100.616250	101.028250		[silence]	[silence]
sw3207A-ms98-a-0013	A.19	101.028250	101.068250		[silence]	[silence]
sw3207A-ms98-a-0013	A.19	101.068250	101.348250		[noise]	[noise]
sw3207A-ms98-a-0013	A.19	101.348250	101.538250		But	but
sw3207A-ms98-a-0013	A.19	101.538250	101.598250		he	he
sw3207A-ms98-a-0013	A.19	101.598250	102.238250		refuses	refuses
sw3207A-ms98-a-0013	A.19	102.238250	102.518250		[silence]	[silence]
sw3207A-ms98-a-0013	A.19	102.518250	102.678250		to	to
sw3207A-ms98-a-0013	A.19	102.678250	103.148250		consider	consider
sw3207A-ms98-a-0013	A.19	103.148250	103.348250		any	any
sw3207A-ms98-a-0013	A.19	103.348250	103.638250		other	other
sw3207A-ms98-a-0013	A.19	103.638250	104.270500		[silence]	[silence]
sw3207A-ms98-a-0014	A.19	104.270500	104.833625		[silence]	[silence]
sw3207A-ms98-a-0014	A.19	104.833625	105.027625	<DEL>	---	i-
sw3207A-ms98-a-0014	A.19	105.027625	105.186375		I	i
sw3207A-ms98-a-0014	A.19	105.186375	105.355875		don't	don't
sw3207A-ms98-a-0014	A.21	105.355875	105.827625	<DEL>	---	know
sw3207A-ms98-a-0014	A.21	105.827625	106.480500		Yeah	yeah
sw3207A-ms98-a-0014	A.21	106.480500	106.740500		and	and
sw3207A-ms98-a-0014	A.21	106.740500	106.900500		is	is
sw3207A-ms98-a-0014	A.21	106.900500	107.020500		that	that
sw3207A-ms98-a-0014	A.21	107.020500	107.150500		how	how
sw3207A-ms98-a-0014	A.21	107.150500	107.250500		your	your
sw3207A-ms98-a-0014	A.21	107.250500	107.620500		parents	parents
sw3207A-ms98-a-0014	A.21	107.620500	107.952625		feel	feel
sw3207A-ms98-a-0014	A.21	107.952625	108.202250		or	or
sw3207A-ms98-a-0014	A.23	108.202250	108.692500		[silence]	[silence]
sw3207A-ms98-a-0015	A.23	108.692500	111.879250		[silence]	[silence]
sw3207A-ms98-a-0016	A.23	111.879250	112.459250		[silence]	[silence]
sw3207A-ms98-a-0016	A.23	112.459250	112.765875		Uh-huh	uh-huh
sw3207A-ms98-a-0016	A.25	112.765875	113.193750		[silence]	[silence]
sw3207A-ms98-a-0017	A.25	113.193750	130.175250		[silence]	[silence]
sw3207A-ms98-a-0018	A.25	130.175250	130.635250		[silence]	[silence]
sw3207A-ms98-a-0018	A.25	130.635250	131.055250		Uh-huh	uh-huh
sw3207A-ms98-a-0018	A.27	131.055250	131.486250		[silence]	[silence]
sw3207A-ms98-a-0019	A.27	131.486250	142.199500		[silence]	[silence]
sw3207A-ms98-a-0020	A.27	142.199500	142.549500		[silence]	[silence]
sw3207A-ms98-a-0020	A.27	142.549500	142.692250		I	i
sw3207A-ms98-a-0020	A.27	142.692250	142.959500		know	know
sw3207A-ms98-a-0020	A.27	142.959500	143.164875		at	at
sw3207A-ms98-a-0020	A.27	143.164875	143.386125		this	this
sw3207A-ms98-a-0020	A.27	143.386125	143.604625		I	i
sw3207A-ms98-a-0020	A.27	143.604625	143.732250		know	know
sw3207A-ms98-a-0020	A.27	143.732250	143.916875		I	i
sw3207A-ms98-a-0020	A.27	143.916875	144.059500		feel	feel
sw3207A-ms98-a-0020	A.27	144.059500	144.209500		like	like
sw3207A-ms98-a-0020	A.27	144.209500	144.343750		I	i
sw3207A-ms98-a-0020	A.27	144.343750	144.434125		would	would
sw3207A-ms98-a-0020	A.27	144.434125	144.889500		never	never
sw3207A-ms98-a-0020	A.27	144.889500	145.059500		do	do
sw3207A-ms98-a-0020	A.27	145.059500	145.289500		that	that
sw3207A-ms98-a-0020	A.27	145.289500	145.389500		with	with
sw3207A-ms98-a-0020	A.27	145.389500	145.547125		my	my
sw3207A-ms98-a-0020	A.27	145.547125	145.796000		parents	parents
sw3207A-ms98-a-0020	A.27	145.796000	146.059500		either	either
sw3207A-ms98-a-0020	A.27	146.059500	146.189500		you	you
sw3207A-ms98-a-0020	A.27	146.189500	146.349500		know	know
sw3207A-ms98-a-0020	A.27	146.349500	146.439500		But	but
sw3207A-ms98-a-0020	A.27	146.439500	146.619500	<SUB>	I	i-
sw3207A-ms98-a-0020	A.27	146.619500	146.749500		I	i
sw3207A-ms98-a-0020	A.27	146.749500	146.969500		really	really
sw3207A-ms98-a-0020	A.27	146.969500	147.209500		feel	feel
sw3207A-ms98-a-0020	A.27	147.209500	147.549500		bad	bad
sw3207A-ms98-a-0020	A.27	147.549500	147.689500		for	for
sw3207A-ms98-a-0020	A.27	147.689500	147.799625		the	the
sw3207A-ms98-a-0020	A.27	147.799625	148.021875		people	people
sw3207A-ms98-a-0020	A.27	148.021875	148.204750		I	i
sw3207A-ms98-a-0020	A.27	148.204750	148.444875		see	see
sw3207A-ms98-a-0020	A.27	148.444875	148.709500		th-	th[at]-
sw3207A-ms98-a-0020	A.27	148.709500	148.889500		not	not
sw3207A-ms98-a-0020	A.27	148.889500	149.049500		very	very
sw3207A-ms98-a-0020	A.27	149.049500	149.169500		I'm	i'm
sw3207A-ms98-a-0020	A.27	149.169500	149.339500		not	not
sw3207A-ms98-a-0020	A.27	149.339500	149.666500		really	really
sw3207A-ms98-a-0020	A.27	149.666500	150.182500		[silence]	[silence]
sw3207A-ms98-a-0020	A.27	150.182500	150.594375		really	really
sw3207A-ms98-a-0020	A.27	150.594375	151.020000		experienced	experienced
sw3207A-ms98-a-0020	A.27	151.020000	151.139500		but	but
sw3207A-ms98-a-0020	A.27	151.139500	151.293750		like	like
sw3207A-ms98-a-0020	A.27	151.293750	151.399125		I	i
sw3207A-ms98-a-0020	A.27	151.399125	151.599500		said	said
sw3207A-ms98-a-0020	A.27	151.599500	151.599500	<INS>	I	---
sw3207A-ms98-a-0020	A.27	151.599500	151.729500		just	just
sw3207A-ms98-a-0020	A.27	151.729500	151.839500		have	have
sw3207A-ms98-a-0020	A.27	151.839500	151.999500		that	that
sw3207A-ms98-a-0020	A.27	151.999500	152.319500		one	one
sw3207A-ms98-a-0020	A.27	152.319500	152.532375		[silence]	[silence]
sw3207A-ms98-a-0021	A.27	152.532375	152.812375		[silence]	[silence]
sw3207A-ms98-a-0021	A.27	152.812375	153.245250		family	family
sw3207A-ms98-a-0021	A.27	153.245250	153.352375		and	and
sw3207A-ms98-a-0021	A.27	153.352375	153.472375	<SUB>	I	that's
sw3207A-ms98-a-0021	A.27	153.472375	153.472375	<INS>	just	---
sw3207A-ms98-a-0021	A.27	153.472375	153.652375		really	really
sw3207A-ms98-a-0021	A.27	153.652375	153.822375	<SUB>	feel	so
sw3207A-ms98-a-0021	A.27	153.822375	154.222375		bad	bad
sw3207A-ms98-a-0021	A.27	154.222375	154.791000		for	for
sw3207A-ms98-a-0021	A.27	154.791000	154.955250		the	the
sw3207A-ms98-a-0021	A.27	154.955250	155.352375		guy	guy
sw3207A-ms98-a-0021	A.27	155.352375	155.652375		who	who
sw3207A-ms98-a-0021	A.27	155.652375	155.982375		[silence]	[silence]
sw3207A-ms98-a-0021	A.27	155.982375	156.152375		his	his
sw3207A-ms98-a-0021	A.27	156.152375	156.322375		whole	whole
sw3207A-ms98-a-0021	A.27	156.322375	156.572375		life	life
sw3207A-ms98-a-0021	A.27	156.572375	156.712375		is	is
sw3207A-ms98-a-0021	A.27	156.712375	157.042375		different	different
sw3207A-ms98-a-0021	A.27	157.042375	157.442375		now	now
sw3207A-ms98-a-0021	A.27	157.442375	157.572375		and	and
sw3207A-ms98-a-0021	A.27	157.572375	157.912375		[silence]	[silence]
sw3207A-ms98-a-0021	A.27	157.912375	158.012375		than	than
sw3207A-ms98-a-0021	A.27	158.012375	158.102375		he	he
sw3207A-ms98-a-0021	A.27	158.102375	158.322375		thought	thought
sw3207A-ms98-a-0021	A.27	158.322375	158.392375		it	it
sw3207A-ms98-a-0021	A.27	158.392375	158.572375		would	would
sw3207A-ms98-a-0021	A.27	158.572375	158.952375		be	be
sw3207A-ms98-a-0021	A.27	158.952375	159.199375		But	but
sw3207A-ms98-a-0021	A.29	159.199375	159.497125		[silence]	[silence]
sw3207A-ms98-a-0022	A.29	159.497125	159.867125		[silence]	[silence]
sw3207A-ms98-a-0022	A.29	159.867125	160.087125		Yeah	yeah
sw3207A-ms98-a-0022	A.29	160.087125	160.207125		and	and
sw3207A-ms98-a-0022	A.29	160.207125	160.357125		he's	he's
sw3207A-ms98-a-0022	A.29	160.357125	160.687125		got	got
sw3207A-ms98-a-0022	A.29	160.687125	160.827125		you	you
sw3207A-ms98-a-0022	A.29	160.827125	161.162500		know	know
sw3207A-ms98-a-0022	A.29	161.162500	161.271750		[silence]	[silence]
sw3207A-ms98-a-0022	A.29	161.271750	161.747125		seven	seven
sw3207A-ms98-a-0022	A.29	161.747125	161.977125		[silence]	[silence]
sw3207A-ms98-a-0022	A.29	161.977125	162.297125		brothers	brothers
sw3207A-ms98-a-0022	A.29	162.297125	162.407125		and	and
sw3207A-ms98-a-0022	A.29	162.407125	163.007125		sisters	sisters
sw3207A-ms98-a-0022	A.29	163.007125	163.297125		and	and
sw3207A-ms98-a-0022	A.29	163.297125	163.877125		[silence]	[silence]
sw3207A-ms98-a-0022	A.29	163.877125	164.187125		and	and
sw3207A-ms98-a-0022	A.29	164.187125	164.307125		uh	uh
sw3207A-ms98-a-0022	A.29	164.307125	164.577125		he's	he's
sw3207A-ms98-a-0022	A.29	164.577125	164.708375		the	the
sw3207A-ms98-a-0022	A.29	164.708375	165.047125		one	one
sw3207A-ms98-a-0022	A.29	165.047125	165.377125		because	because
sw3207A-ms98-a-0022	A.29	165.377125	165.517125		he's	he's
sw3207A-ms98-a-0022	A.29	165.517125	165.597125		the	the
sw3207A-ms98-a-0022	A.29	165.597125	165.697125		one	one
sw3207A-ms98-a-0022	A.29	165.697125	165.817125		that	that
sw3207A-ms98-a-0022	A.29	165.817125	166.057125	<SUB>	isn't	doesn't
sw3207A-ms98-a-0022	A.29	166.057125	166.207125		going	going
sw3207A-ms98-a-0022	A.29	166.207125	166.287125		to	to
sw3207A-ms98-a-0022	A.29	166.287125	166.507125		work	work
sw3207A-ms98-a-0022	A.29	166.507125	166.937125	<CONT>	every	everyday
sw3207A-ms98-a-0022	A.29	166.937125	166.937125	<CONT>	day	+++
sw3207A-ms98-a-0022	A.29	166.937125	167.047125		and	and
sw3207A-ms98-a-0022	A.29	167.047125	167.167125		that	that
sw3207A-ms98-a-0022	A.29	167.167125	167.287125		she	she
sw3207A-ms98-a-0022	A.29	167.287125	167.527125		moved	moved
sw3207A-ms98-a-0022	A.29	167.527125	167.687125		in	in
sw3207A-ms98-a-0022	A.29	167.687125	167.907125		with	with
sw3207A-ms98-a-0022	A.29	167.907125	168.087125		when	when
sw3207A-ms98-a-0022	A.29	168.087125	168.597125		[silence]	[silence]
sw3207A-ms98-a-0022	A.29	168.597125	168.847125		she	she
sw3207A-ms98-a-0022	A.29	168.847125	169.177125		needed	needed
sw3207A-ms98-a-0022	A.29	169.177125	169.297125		to	to
sw3207A-ms98-a-0022	A.29	169.297125	169.527125		move	move
sw3207A-ms98-a-0022	A.29	169.527125	169.647125		in	in
sw3207A-ms98-a-0022	A.29	169.647125	169.757125		with	with
sw3207A-ms98-a-0022	A.29	169.757125	170.186000		someone	someone
sw3207A-ms98-a-0022	A.29	170.186000	170.784875		[silence]	[silence]
sw3207A-ms98-a-0022	A.29	170.784875	171.016375		And	and
sw3207A-ms98-a-0022	A.31	171.016375	171.419375		[silence]	[silence]
sw3207A-ms98-a-0023	A.31	171.419375	175.720250		[silence]	[silence]
sw3207A-ms98-a-0024	A.31	175.720250	176.240250		[silence]	[silence]
sw3207A-ms98-a-0024	A.31	176.240250	176.440250	<DEL>	---	i
sw3207A-ms98-a-0024	A.31	176.440250	176.620250	<DEL>	---	can't
sw3207A-ms98-a-0024	A.31	176.620250	176.680250	<DEL>	---	say
sw3207A-ms98-a-0024	A.31	176.680250	176.800250	<DEL>	---	much
sw3207A-ms98-a-0024	A.31	176.800250	176.950250		[silence]	[silence]
sw3207A-ms98-a-0024	A.31	176.950250	176.980250		Oh	oh
sw3207A-ms98-a-0024	A.31	176.980250	177.090250		well	well
sw3207A-ms98-a-0024	A.31	177.090250	177.330250		that's	that's
sw3207A-ms98-a-0024	A.31	177.330250	177.850250		great	great
sw3207A-ms98-a-0024	A.33	177.850250	178.060250		That's	that's
sw3207A-ms98-a-0024	A.33	178.060250	178.100250		a	a
sw3207A-ms98-a-0024	A.33	178.100250	178.250250		good	good
sw3207A-ms98-a-0024	A.33	178.250250	178.660250		idea	idea
sw3207A-ms98-a-0024	A.33	178.660250	178.790250		We	we
sw3207A-ms98-a-0024	A.33	178.790250	178.860250		ought	ought
sw3207A-ms98-a-0024	A.33	178.860250	178.970250		to	to
sw3207A-ms98-a-0024	A.35	178.970250	179.466875		[silence]	[silence]
sw3207A-ms98-a-0025	A.35	179.466875	180.068375		[silence]	[silence]
sw3207A-ms98-a-0025	A.35	180.068375	180.526875		Yeah	yeah
sw3207A-ms98-a-0025	A.35	180.526875	180.786875		and	and
sw3207A-ms98-a-0025	A.35	180.786875	181.086875		maybe	maybe
sw3207A-ms98-a-0025	A.35	181.086875	181.216875		when	when
sw3207A-ms98-a-0025	A.35	181.216875	181.296875		the	the
sw3207A-ms98-a-0025	A.35	181.296875	181.456875		other	other
sw3207A-ms98-a-0025	A.35	181.456875	181.676875		brothers	brothers
sw3207A-ms98-a-0025	A.35	181.676875	181.826875		and	and
sw3207A-ms98-a-0025	A.35	181.826875	182.166875		sisters	sisters
sw3207A-ms98-a-0025	A.35	182.166875	182.746875		retire	retire
sw3207A-ms98-a-0025	A.35	182.746875	182.816875		or	[laughter-or]
sw3207A-ms98-a-0025	A.35	182.816875	183.282500		whatever	[laughter-whatever]
sw3207A-ms98-a-0025	A.35	183.282500	183.376625		I	i
sw3207A-ms98-a-0025	A.35	183.376625	183.536875		don't	don't
sw3207A-ms98-a-0025	A.35	183.536875	183.716875		know	know
sw3207A-ms98-a-0025	A.35	183.716875	183.856875		what	what
sw3207A-ms98-a-0025	A.35	183.856875	183.956875		they're	they're
sw3207A-ms98-a-0025	A.35	183.956875	184.126875	<SUB>	going	gonna
sw3207A-ms98-a-0025	A.35	184.126875	184.126875	<INS>	to	---
sw3207A-ms98-a-0025	A.35	184.126875	184.226875		do	do
sw3207A-ms98-a-0025	A.35	184.226875	184.366875		It's	it's
sw3207A-ms98-a-0025	A.35	184.366875	184.546875		really	really
sw3207A-ms98-a-0025	A.35	184.546875	184.776875		not	not
sw3207A-ms98-a-0025	A.35	184.776875	184.876875		my	my
sw3207A-ms98-a-0025	A.35	184.876875	185.266875		family	family
sw3207A-ms98-a-0025	A.35	185.266875	185.406875		It's	it's
sw3207A-ms98-a-0025	A.35	185.406875	185.526875		my	my
sw3207A-ms98-a-0025	A.35	185.526875	186.126875	<SUB>	fiancee's	fiance's
sw3207A-ms98-a-0025	A.35	186.126875	186.246875		so	so
sw3207A-ms98-a-0025	A.35	186.246875	186.369375		I	i
sw3207A-ms98-a-0025	A.35	186.369375	186.586875		don't	don't
sw3207A-ms98-a-0025	A.35	186.586875	186.668250		[silence]	[silence]
sw3207A-ms98-a-0026	A.35	186.668250	186.848250		[silence]	[silence]
sw3207A-ms98-a-0026	A.35	186.848250	186.969375		I	i
sw3207A-ms98-a-0026	A.35	186.969375	187.158250		can't	can't
sw3207A-ms98-a-0026	A.35	187.158250	187.370000		say	say
sw3207A-ms98-a-0026	A.35	187.370000	187.618250		much	much
sw3207A-ms98-a-0026	A.37	187.618250	187.988250		[silence]	[silence]
sw3207A-ms98-a-0026	A.37	187.988250	188.138250		But	but
sw3207A-ms98-a-0026	A.37	188.138250	188.228250		I	i
sw3207A-ms98-a-0026	A.37	188.228250	188.428250		always	always
sw3207A-ms98-a-0026	A.37	188.428250	188.558250		feel	feel
sw3207A-ms98-a-0026	A.37	188.558250	188.885875		like	like
sw3207A-ms98-a-0026	A.37	188.885875	189.119500		[silence]	[silence]
sw3207A-ms98-a-0026	A.37	189.119500	189.218250		I	i
sw3207A-ms98-a-0026	A.37	189.218250	189.348250		would	would
sw3207A-ms98-a-0026	A.37	189.348250	189.758250		never	never
sw3207A-ms98-a-0026	A.37	189.758250	190.078250		put	put
sw3207A-ms98-a-0026	A.37	190.078250	190.238250		my	my
sw3207A-ms98-a-0026	A.37	190.238250	190.638250		parents	parents
sw3207A-ms98-a-0026	A.37	190.638250	190.878250		in	in
sw3207A-ms98-a-0026	A.37	190.878250	191.141125		either	either
sw3207A-ms98-a-0026	A.37	191.141125	191.272875		and	and
sw3207A-ms98-a-0026	A.37	191.272875	191.358250		I	i
sw3207A-ms98-a-0026	A.37	191.358250	191.788500		wonder	wonder
sw3207A-ms98-a-0026	A.37	191.788500	192.534375		[silence]	[silence]
sw3207A-ms98-a-0026	A.37	192.534375	192.668250		I'm	i'm
sw3207A-ms98-a-0026	A.37	192.668250	192.898250	<SUB>	going	gonna
sw3207A-ms98-a-0026	A.37	192.898250	192.898250	<INS>	to	---
sw3207A-ms98-a-0026	A.37	192.898250	193.218250		be	be
sw3207A-ms98-a-0026	A.37	193.218250	193.449625		the	the
sw3207A-ms98-a-0026	A.37	193.449625	193.808250		only	only
sw3207A-ms98-a-0026	A.37	193.808250	194.254125		[silence]	[silence]
sw3207A-ms98-a-0027	A.37	194.254125	194.684125		[silence]	[silence]
sw3207A-ms98-a-0027	A.37	194.684125	195.384125		sibling	sibling
sw3207A-ms98-a-0027	A.37	195.384125	195.544125		that	that
sw3207A-ms98-a-0027	A.37	195.544125	195.724125		isn't	isn't
sw3207A-ms98-a-0027	A.37	195.724125	195.844125	<SUB>	going	gonna
sw3207A-ms98-a-0027	A.37	195.844125	195.844125	<INS>	to	---
sw3207A-ms98-a-0027	A.37	195.844125	196.054125		have	have
sw3207A-ms98-a-0027	A.37	196.054125	196.624125		children	children
sw3207A-ms98-a-0027	A.37	196.624125	197.004125		so	so
sw3207A-ms98-a-0027	A.37	197.004125	197.134125		if	if
sw3207A-ms98-a-0027	A.37	197.134125	197.234125		my	my
sw3207A-ms98-a-0027	A.37	197.234125	197.664125		parents	parents
sw3207A-ms98-a-0027	A.37	197.664125	197.794125		do	do
sw3207A-ms98-a-0027	A.37	197.794125	198.074125		need	need
sw3207A-ms98-a-0027	A.37	198.074125	198.264125		[silence]	[silence]
sw3207A-ms98-a-0027	A.37	198.264125	198.414125		to	to
sw3207A-ms98-a-0027	A.37	198.414125	198.554125		live	live
sw3207A-ms98-a-0027	A.37	198.554125	198.674125		with	with
sw3207A-ms98-a-0027	A.37	198.674125	198.934125		someone	someone
sw3207A-ms98-a-0027	A.37	198.934125	199.054125	<CONT>	it	it'll
sw3207A-ms98-a-0027	A.37	199.054125	199.054125	<CONT>	will	+++
sw3207A-ms98-a-0027	A.37	199.054125	199.374125		probably	probably
sw3207A-ms98-a-0027	A.37	199.374125	199.434125		be	be
sw3207A-ms98-a-0027	A.37	199.434125	199.584125		with	with
sw3207A-ms98-a-0027	A.37	199.584125	199.834125		me	me
sw3207A-ms98-a-0027	A.37	199.834125	200.124125		because	because
sw3207A-ms98-a-0027	A.37	200.124125	200.194125		all	all
sw3207A-ms98-a-0027	A.37	200.194125	200.304125		my	my
sw3207A-ms98-a-0027	A.37	200.304125	200.534125		brothers	brothers
sw3207A-ms98-a-0027	A.37	200.534125	200.624125		and	and
sw3207A-ms98-a-0027	A.37	200.624125	200.954125		sisters	sisters
sw3207A-ms98-a-0027	A.37	200.954125	201.074125		will	will
sw3207A-ms98-a-0027	A.37	201.074125	201.299875		be	be
sw3207A-ms98-a-0027	A.37	201.299875	201.800875		[silence]	[silence]
sw3207A-ms98-a-0027	A.37	201.800875	202.034125		having	having
sw3207A-ms98-a-0027	A.37	202.034125	202.614125		teenagers	teenagers
sw3207A-ms98-a-0027	A.37	202.614125	202.984125		around	around
sw3207A-ms98-a-0027	A.37	202.984125	203.074125		and	and
sw3207A-ms98-a-0027	A.37	203.074125	203.444125		everything	everything
sw3207A-ms98-a-0027	A.37	203.444125	203.564125		to	to
sw3207A-ms98-a-0027	A.37	203.564125	203.824125		care	care
sw3207A-ms98-a-0027	A.37	203.824125	204.194125		for	for
sw3207A-ms98-a-0027	A.39	204.194125	204.632375		[silence]	[silence]
sw3207A-ms98-a-0028	A.39	204.632375	204.912375		[silence]	[silence]
sw3207A-ms98-a-0028	A.39	204.912375	205.012375		You	you
sw3207A-ms98-a-0028	A.39	205.012375	205.142375		know	know
sw3207A-ms98-a-0028	A.39	205.142375	205.302375		and	and
sw3207A-ms98-a-0028	A.39	205.302375	205.456750		I'm	i'm
sw3207A-ms98-a-0028	A.39	205.456750	205.612250		[silence]	[silence]
sw3207A-ms98-a-0028	A.39	205.612250	205.862375		I	i
sw3207A-ms98-a-0028	A.39	205.862375	206.082375		that's	that's
sw3207A-ms98-a-0028	A.39	206.082375	206.312375		fine	fine
sw3207A-ms98-a-0028	A.39	206.312375	206.462375		with	with
sw3207A-ms98-a-0028	A.39	206.462375	206.882375		me	me
sw3207A-ms98-a-0028	A.39	206.882375	206.882375	<INS>	I-	---
sw3207A-ms98-a-0028	A.39	206.882375	207.452375		[vocalized-noise]	[vocalized-noise]
sw3207A-ms98-a-0028	A.39	207.452375	207.697250		my	my
sw3207A-ms98-a-0028	A.39	207.697250	208.051375		fiancee	fiancee
sw3207A-ms98-a-0028	A.39	208.051375	208.051375	<INS>	and	---
sw3207A-ms98-a-0028	A.39	208.051375	208.132375		I	i
sw3207A-ms98-a-0028	A.39	208.132375	208.513875		both	both
sw3207A-ms98-a-0028	A.39	208.513875	208.924375		[silence]	[silence]
sw3207A-ms98-a-0028	A.39	208.924375	209.182375		figure	figure
sw3207A-ms98-a-0028	A.39	209.182375	209.432375		that's	that's
sw3207A-ms98-a-0028	A.39	209.432375	209.632375		what's	what's
sw3207A-ms98-a-0028	A.39	209.632375	209.852375		we're	we're
sw3207A-ms98-a-0028	A.39	209.852375	210.022375	<SUB>	going	gonna
sw3207A-ms98-a-0028	A.39	210.022375	210.022375	<INS>	to	---
sw3207A-ms98-a-0028	A.39	210.022375	210.152375		end	end
sw3207A-ms98-a-0028	A.39	210.152375	210.262375		up	up
sw3207A-ms98-a-0028	A.39	210.262375	210.482375		with	with
sw3207A-ms98-a-0028	A.39	210.482375	210.712375		both	both
sw3207A-ms98-a-0028	A.39	210.712375	210.902375		of	of
sw3207A-ms98-a-0028	A.39	210.902375	210.982375		the	the
sw3207A-ms98-a-0028	A.39	210.982375	211.392375		parents	parents
sw3207A-ms98-a-0028	A.39	211.392375	211.492375		or	or
sw3207A-ms98-a-0028	A.39	211.492375	211.942375		whoever	whoever
sw3207A-ms98-a-0028	A.39	211.942375	212.102375		If	if
sw3207A-ms98-a-0028	A.39	212.102375	212.222375	<SUB>	the-	it
sw3207A-ms98-a-0028	A.41	212.222375	212.552375		[silence]	[silence]
sw3207A-ms98-a-0028	A.41	212.552375	212.622375		You	you
sw3207A-ms98-a-0028	A.41	212.622375	212.692375		know	know
sw3207A-ms98-a-0028	A.41	212.692375	212.782375		what	what
sw3207A-ms98-a-0028	A.41	212.782375	212.852375		I	i
sw3207A-ms98-a-0028	A.41	212.852375	213.092375		mean	mean
sw3207A-ms98-a-0028	A.41	213.092375	213.182375		We	we
sw3207A-ms98-a-0028	A.41	213.182375	213.332375		feel	feel
sw3207A-ms98-a-0028	A.41	213.332375	213.482375		like	like
sw3207A-ms98-a-0028	A.43	213.482375	213.602375		it's	it's
sw3207A-ms98-a-0028	A.43	213.602375	213.702375		our	our
sw3207A-ms98-a-0028	A.43	213.702375	214.472375		responsibility	responsibility
sw3207A-ms98-a-0028	A.43	214.472375	214.582375		and	and
sw3207A-ms98-a-0028	A.43	214.582375	214.632375		I	i
sw3207A-ms98-a-0028	A.43	214.632375	214.792375		feel	feel
sw3207A-ms98-a-0028	A.43	214.792375	214.932375		like	like
sw3207A-ms98-a-0028	A.43	214.932375	214.992375		I	i
sw3207A-ms98-a-0028	A.43	214.992375	215.162375		would	would
sw3207A-ms98-a-0028	A.43	215.162375	215.392375		never	never
sw3207A-ms98-a-0028	A.43	215.392375	215.572375		put	put
sw3207A-ms98-a-0028	A.43	215.572375	215.672375		them	them_1
sw3207A-ms98-a-0028	A.43	215.672375	215.771750		in	in
sw3207A-ms98-a-0028	A.43	215.771750	215.865000		a	a
sw3207A-ms98-a-0028	A.43	215.865000	216.132375		home	home
sw3207A-ms98-a-0028	A.43	216.132375	216.523750		[silence]	[silence]
sw3207A-ms98-a-0029	A.43	216.523750	216.597500		[silence]	[silence]
sw3207A-ms98-a-0029	A.43	216.597500	216.693750		But	but
sw3207A-ms98-a-0029	A.43	216.693750	216.810000		I	i
sw3207A-ms98-a-0029	A.43	216.810000	217.074625		wonder	wonder
sw3207A-ms98-a-0029	A.43	217.074625	217.213750		how	how
sw3207A-ms98-a-0029	A.43	217.213750	217.643750		much	much
sw3207A-ms98-a-0029	A.43	217.643750	217.741625		you	you
sw3207A-ms98-a-0029	A.43	217.741625	217.863750		know	know
sw3207A-ms98-a-0029	A.43	217.863750	218.003750		if	if
sw3207A-ms98-a-0029	A.43	218.003750	218.113750		one	one
sw3207A-ms98-a-0029	A.43	218.113750	218.193750		of	of
sw3207A-ms98-a-0029	A.43	218.193750	218.403750		us	us
sw3207A-ms98-a-0029	A.43	218.403750	218.513750		is	is
sw3207A-ms98-a-0029	A.43	218.513750	218.693750	<SUB>	going	gonna
sw3207A-ms98-a-0029	A.43	218.693750	218.693750	<INS>	to	---
sw3207A-ms98-a-0029	A.43	218.693750	218.853750		have	have
sw3207A-ms98-a-0029	A.43	218.853750	218.953750		to	to
sw3207A-ms98-a-0029	A.43	218.953750	219.269500		quit	quit
sw3207A-ms98-a-0029	A.43	219.269500	219.603750		work	work
sw3207A-ms98-a-0029	A.43	219.603750	220.133750		someday	someday
sw3207A-ms98-a-0029	A.43	220.133750	220.263750		or	or
sw3207A-ms98-a-0029	A.43	220.263750	220.843750		retire	retire
sw3207A-ms98-a-0029	A.43	220.843750	221.103750		early	early
sw3207A-ms98-a-0029	A.43	221.103750	221.183750		or	or
sw3207A-ms98-a-0029	A.43	221.183750	221.791000		something	something
sw3207A-ms98-a-0029	A.45	221.791000	222.254250		[silence]	[silence]
sw3207A-ms98-a-0029	A.45	222.254250	222.373750		You	you
sw3207A-ms98-a-0029	A.45	222.373750	222.613750		think	think
sw3207A-ms98-a-0029	A.45	222.613750	222.903750		about	about
sw3207A-ms98-a-0029	A.45	222.903750	222.993750		it	it
sw3207A-ms98-a-0029	A.45	222.993750	223.333750		and	and
sw3207A-ms98-a-0029	A.45	223.333750	223.713000		[silence]	[silence]
sw3207A-ms98-a-0030	A.45	223.713000	224.263000		[silence]	[silence]
sw3207A-ms98-a-0030	A.45	224.263000	224.483000		it's	it's
sw3207A-ms98-a-0030	A.45	224.483000	224.809000		really	really
sw3207A-ms98-a-0030	A.45	224.809000	225.120250		[silence]	[silence]
sw3207A-ms98-a-0030	A.45	225.120250	225.229500		I	i
sw3207A-ms98-a-0030	A.45	225.229500	225.383000		don't	don't
sw3207A-ms98-a-0030	A.45	225.383000	225.523000		know	know
sw3207A-ms98-a-0030	A.45	225.523000	225.653000		This	this
sw3207A-ms98-a-0030	A.45	225.653000	226.223000		country	country
sw3207A-ms98-a-0030	A.45	226.223000	226.433000		[silence]	[silence]
sw3207A-ms98-a-0030	A.45	226.433000	226.663000		kind	kind
sw3207A-ms98-a-0030	A.45	226.663000	226.783000		of	of
sw3207A-ms98-a-0030	A.45	226.783000	227.103000		takes	takes
sw3207A-ms98-a-0030	A.45	227.103000	227.183000		the	the
sw3207A-ms98-a-0030	A.45	227.183000	227.553000		worst	worst
sw3207A-ms98-a-0030	A.45	227.553000	227.853000		care	care
sw3207A-ms98-a-0030	A.45	227.853000	228.013000		of	of
sw3207A-ms98-a-0030	A.45	228.013000	228.103000		the	the
sw3207A-ms98-a-0030	A.45	228.103000	228.583000		elderly	elderly
sw3207A-ms98-a-0030	A.45	228.583000	228.683000		of	of
sw3207A-ms98-a-0030	A.45	228.683000	228.853000		any	any
sw3207A-ms98-a-0030	A.45	228.853000	229.023000		other	other
sw3207A-ms98-a-0030	A.45	229.023000	229.956500		country	country
sw3207A-ms98-a-0030	A.47	229.956500	230.301500		And	and
sw3207A-ms98-a-0030	A.49	230.301500	230.698000		[silence]	[silence]
sw3207A-ms98-a-0031	A.49	230.698000	235.778500		[silence]	[silence]
sw3207A-ms98-a-0032	A.49	235.778500	236.148500		[silence]	[silence]
sw3207A-ms98-a-0032	A.49	236.148500	236.368500		It's	it's
sw3207A-ms98-a-0032	A.49	236.368500	236.568500		really	really
sw3207A-ms98-a-0032	A.49	236.568500	236.778500		more	more
sw3207A-ms98-a-0032	A.49	236.778500	236.868500		of	of
sw3207A-ms98-a-0032	A.49	236.868500	236.978500		a	a
sw3207A-ms98-a-0032	A.49	236.978500	237.398500		um	um
sw3207A-ms98-a-0032	A.49	237.398500	238.227500		[silence]	[silence]
sw3207A-ms98-a-0032	A.49	238.227500	238.370625		like	like
sw3207A-ms98-a-0032	A.49	238.370625	238.450625		a	a
sw3207A-ms98-a-0032	A.49	238.450625	238.918500		respect	respect
sw3207A-ms98-a-0032	A.49	238.918500	239.408875		issue	issue
sw3207A-ms98-a-0032	A.49	239.408875	239.784375		[silence]	[silence]
sw3207A-ms98-a-0033	A.49	239.784375	239.941000		[silence]	[silence]
sw3207A-ms98-a-0033	A.49	239.941000	240.485875	<SUB>	th-	a[nd]-
sw3207A-ms98-a-0033	A.49	240.485875	240.924375		that	that
sw3207A-ms98-a-0033	A.49	240.924375	241.024375		the	the
sw3207A-ms98-a-0033	A.49	241.024375	241.284375		older	older
sw3207A-ms98-a-0033	A.49	241.284375	241.344375	<DEL>	---	the
sw3207A-ms98-a-0033	A.49	241.344375	241.554375		older	older
sw3207A-ms98-a-0033	A.49	241.554375	241.824375		people	people
sw3207A-ms98-a-0033	A.49	241.824375	241.914375		in	in
sw3207A-ms98-a-0033	A.49	241.914375	242.164375		other	other
sw3207A-ms98-a-0033	A.49	242.164375	242.614375		countries	countries
sw3207A-ms98-a-0033	A.49	242.614375	242.764375		that	that
sw3207A-ms98-a-0033	A.49	242.764375	242.944375		I've	i've
sw3207A-ms98-a-0033	A.49	242.944375	243.094375		been	been
sw3207A-ms98-a-0033	A.49	243.094375	243.504375		to	to
sw3207A-ms98-a-0033	A.49	243.504375	243.654375		seem	seem
sw3207A-ms98-a-0033	A.49	243.654375	243.764375		to	to
sw3207A-ms98-a-0033	A.49	243.764375	244.184375		really	really
sw3207A-ms98-a-0033	A.49	244.184375	244.274375		have	have
sw3207A-ms98-a-0033	A.49	244.274375	244.304375		a	a
sw3207A-ms98-a-0033	A.49	244.304375	244.464375		lot	lot
sw3207A-ms98-a-0033	A.49	244.464375	244.614375		more	more
sw3207A-ms98-a-0033	A.49	244.614375	245.114375		respect	respect
sw3207A-ms98-a-0033	A.49	245.114375	245.304375		for	for
sw3207A-ms98-a-0033	A.49	245.304375	245.543375		the	the
sw3207A-ms98-a-0033	A.49	245.543375	246.002875		[silence]	[silence]
sw3207A-ms98-a-0033	A.49	246.002875	246.384375		elderly	elderly
sw3207A-ms98-a-0033	A.49	246.384375	246.814375		people	people
sw3207A-ms98-a-0033	A.49	246.814375	247.034375		and	and
sw3207A-ms98-a-0033	A.49	247.034375	247.194375		and	and
sw3207A-ms98-a-0033	A.49	247.194375	247.264375		they	they
sw3207A-ms98-a-0033	A.49	247.264375	247.700875		really	really
sw3207A-ms98-a-0033	A.49	247.700875	247.817750		[silence]	[silence]
sw3207A-ms98-a-0033	A.49	247.817750	248.114375	<SUB>	seem	seen
sw3207A-ms98-a-0033	A.49	248.114375	248.294375		as	as
sw3207A-ms98-a-0033	A.49	248.294375	248.804375		wise	wise
sw3207A-ms98-a-0033	A.49	248.804375	249.094375		and	and
sw3207A-ms98-a-0033	A.49	249.094375	249.394375		and	and
sw3207A-ms98-a-0033	A.49	249.394375	249.534375		in	in
sw3207A-ms98-a-0033	A.49	249.534375	249.694375		this	this
sw3207A-ms98-a-0033	A.49	249.694375	250.256125		country	country
sw3207A-ms98-a-0033	A.49	250.256125	250.937875		[silence]	[silence]
sw3207A-ms98-a-0033	A.49	250.937875	251.274375		nobody	nobody
sw3207A-ms98-a-0033	A.49	251.274375	251.654375		really	really
sw3207A-ms98-a-0033	A.51	251.654375	252.308125		[silence]	[silence]
sw3207A-ms98-a-0034	A.51	252.308125	252.928125		[silence]	[silence]
sw3207A-ms98-a-0034	A.51	252.928125	253.308125		Yeah	yeah
sw3207A-ms98-a-0034	A.51	253.308125	253.568125		nobody	nobody
sw3207A-ms98-a-0034	A.51	253.568125	253.858125		really	really
sw3207A-ms98-a-0034	A.51	253.858125	254.208125		pays	pays
sw3207A-ms98-a-0034	A.51	254.208125	254.694250		attention	attention
sw3207A-ms98-a-0034	A.51	254.694250	254.822250		and	and
sw3207A-ms98-a-0034	A.51	254.822250	255.261375		they	they
sw3207A-ms98-a-0034	A.51	255.261375	255.541625		oh	oh
sw3207A-ms98-a-0034	A.51	255.541625	255.684750		the	the
sw3207A-ms98-a-0034	A.51	255.684750	255.918125	<CONT>	old-timer	old
sw3207A-ms98-a-0034	A.51	255.918125	256.348125	<CONT>	+++	timer
sw3207A-ms98-a-0034	A.51	256.348125	256.608125		made	made
sw3207A-ms98-a-0034	A.51	256.608125	256.778500		with	with
sw3207A-ms98-a-0034	A.51	256.778500	256.908000		the	the
sw3207A-ms98-a-0034	A.51	256.908000	257.238125		old	old
sw3207A-ms98-a-0034	A.51	257.238125	257.528125		way	way
sw3207A-ms98-a-0034	A.51	257.528125	257.638125		and	and
sw3207A-ms98-a-0034	A.51	257.638125	257.898125		nobody	nobody
sw3207A-ms98-a-0034	A.51	257.898125	258.408125		respects	respects
sw3207A-ms98-a-0034	A.51	258.408125	258.478125		the	the
sw3207A-ms98-a-0034	A.51	258.478125	259.368125		traditions	traditions
sw3207A-ms98-a-0034	A.51	259.368125	259.578125		And	and
sw3207A-ms98-a-0034	A.51	259.578125	259.738125		you	you
sw3207A-ms98-a-0034	A.51	259.738125	259.908125		know	know
sw3207A-ms98-a-0034	A.51	259.908125	260.078125		it's	it's
sw3207A-ms98-a-0034	A.51	260.078125	260.510125		[silence]	[silence]
sw3207A-ms98-a-0035	A.51	260.510125	260.880125		[silence]	[silence]
sw3207A-ms98-a-0035	A.51	260.880125	260.992250	<SUB>	I	i-
sw3207A-ms98-a-0035	A.51	260.992250	261.083625		[silence]	[silence]
sw3207A-ms98-a-0035	A.51	261.083625	261.320125		I'm	i'm
sw3207A-ms98-a-0035	A.51	261.320125	261.470125		not	not
sw3207A-ms98-a-0035	A.51	261.470125	261.690125		saying	saying
sw3207A-ms98-a-0035	A.51	261.690125	261.850125		that	that
sw3207A-ms98-a-0035	A.51	261.850125	262.076125		[silence]	[silence]
sw3207A-ms98-a-0035	A.51	262.076125	262.261125		I	i
sw3207A-ms98-a-0035	A.51	262.261125	262.392875		do	do
sw3207A-ms98-a-0035	A.51	262.392875	262.830375		either	either
sw3207A-ms98-a-0035	A.51	262.830375	263.041250		[silence]	[silence]
sw3207A-ms98-a-0035	A.51	263.041250	263.360125		but	but
sw3207A-ms98-a-0035	A.53	263.360125	264.350125		[laughter]	[laughter]
sw3207A-ms98-a-0035	A.53	264.350125	264.490125		you	you
sw3207A-ms98-a-0035	A.53	264.490125	264.770125		know	know
sw3207A-ms98-a-0035	A.53	264.770125	265.080125		it's	it's
sw3207A-ms98-a-0035	A.53	265.080125	265.300125		just	just
sw3207A-ms98-a-0035	A.53	265.300125	265.650125		funny	funny
sw3207A-ms98-a-0035	A.53	265.650125	266.010125		and	and
sw3207A-ms98-a-0035	A.53	266.010125	266.190125		and	and
sw3207A-ms98-a-0035	A.53	266.190125	266.320125		we	we
sw3207A-ms98-a-0035	A.53	266.320125	266.500125		really	really
sw3207A-ms98-a-0035	A.53	266.500125	266.630125		don't	don't
sw3207A-ms98-a-0035	A.53	266.630125	266.820125		have	have
sw3207A-ms98-a-0035	A.53	266.820125	266.980125		any	any
sw3207A-ms98-a-0035	A.53	266.980125	267.060125	<SUB>	that	they
sw3207A-ms98-a-0035	A.53	267.060125	267.270125		don't	don't
sw3207A-ms98-a-0035	A.53	267.270125	267.450125		have	have
sw3207A-ms98-a-0035	A.53	267.450125	267.450125	<INS>	the	---
sw3207A-ms98-a-0035	A.53	267.450125	267.802875		Social	social
sw3207A-ms98-a-0035	A.53	267.802875	268.060125		Security	security
sw3207A-ms98-a-0035	A.53	268.060125	268.150125		and	and
sw3207A-ms98-a-0035	A.53	268.150125	268.470125		everything	everything
sw3207A-ms98-a-0035	A.53	268.470125	268.670125		really	really
sw3207A-ms98-a-0035	A.53	268.670125	268.870125		isn't	isn't
sw3207A-ms98-a-0035	A.53	268.870125	269.020125		that	that
sw3207A-ms98-a-0035	A.53	269.020125	269.584625		much	much
sw3207A-ms98-a-0035	A.55	269.584625	270.081625		[silence]	[silence]
sw3207A-ms98-a-0035	A.55	270.081625	270.541625		for	for
sw3207A-ms98-a-0035	A.55	270.541625	270.814875		[silence]	[silence]
sw3207A-ms98-a-0036	A.55	270.814875	271.214875		[silence]	[silence]
sw3207A-ms98-a-0036	A.55	271.214875	271.664875		elderly	elderly
sw3207A-ms98-a-0036	A.55	271.664875	271.944875		people	people
sw3207A-ms98-a-0036	A.55	271.944875	272.014875		to	to
sw3207A-ms98-a-0036	A.55	272.014875	272.264875		live	live
sw3207A-ms98-a-0036	A.55	272.264875	272.564875		on	on
sw3207A-ms98-a-0036	A.55	272.564875	272.694875		You	you
sw3207A-ms98-a-0036	A.55	272.694875	272.874875		know	know
sw3207A-ms98-a-0036	A.55	272.874875	273.154875		even	even
sw3207A-ms98-a-0036	A.55	273.154875	273.324875		if	if
sw3207A-ms98-a-0036	A.55	273.324875	273.494875		they're	they're
sw3207A-ms98-a-0036	A.55	273.494875	273.714875		in	in
sw3207A-ms98-a-0036	A.55	273.714875	273.904875		good	good
sw3207A-ms98-a-0036	A.55	273.904875	274.274875		health	health
sw3207A-ms98-a-0036	A.55	274.274875	274.511750		it's	it's
sw3207A-ms98-a-0036	A.55	274.511750	275.267500		incredible	incredible
sw3207A-ms98-a-0036	A.57	275.267500	276.141375		[silence]	[silence]
sw3207A-ms98-a-0036	A.57	276.141375	276.269125		They	they
sw3207A-ms98-a-0036	A.57	276.269125	276.354875		don't	don't
sw3207A-ms98-a-0036	A.57	276.354875	276.454875		have	have
sw3207A-ms98-a-0036	A.57	276.454875	276.677375		any	any
sw3207A-ms98-a-0036	A.57	276.677375	277.626500		[silence]	[silence]
sw3207A-ms98-a-0036	A.57	277.626500	277.724875		they	they
sw3207A-ms98-a-0036	A.57	277.724875	277.854875		don't	don't
sw3207A-ms98-a-0036	A.57	277.854875	277.984875		get	get
sw3207A-ms98-a-0036	A.57	277.984875	278.314875		special	special
sw3207A-ms98-a-0036	A.57	278.314875	278.834875		treatment	treatment
sw3207A-ms98-a-0036	A.57	278.834875	278.924875		and	and
sw3207A-ms98-a-0036	A.57	278.924875	279.174875		maybe	maybe
sw3207A-ms98-a-0036	A.57	279.174875	279.284875		they	they
sw3207A-ms98-a-0036	A.57	279.284875	279.704875		should	should
sw3207A-ms98-a-0036	A.57	279.704875	280.144875		[silence]	[silence]
sw3207A-ms98-a-0036	A.57	280.144875	280.236250		you	you
sw3207A-ms98-a-0036	A.57	280.236250	280.582750		know	know
sw3207A-ms98-a-0036	@@A.59	280.582750	281.034875		[silence]	[silence]
sw3207A-ms98-a-0036	@@A.59	281.034875	281.214875		because	because_1
sw3207A-ms98-a-0036	@@A.59	281.214875	281.354875		we're	we're
sw3207A-ms98-a-0036	@@A.59	281.354875	281.534875		all	all
sw3207A-ms98-a-0036	@@A.59	281.534875	281.694875	<SUB>	going	gonna
sw3207A-ms98-a-0036	@@A.59	281.694875	281.694875	<INS>	to	---
sw3207A-ms98-a-0036	@@A.59	281.694875	281.804875		get	get
sw3207A-ms98-a-0036	@@A.59	281.804875	282.014875		old	old
sw3207A-ms98-a-0036	@@A.59	282.014875	282.874750		someday	someday
sw3207A-ms98-a-0036	A.61	282.874750	282.874750	<INS>	And	---
sw3207A-ms98-a-0036	A.61	282.874750	283.536875		[silence]	[silence]
sw3207A-ms98-a-0037	A.61	283.536875	284.196875		[silence]	[silence]
sw3207A-ms98-a-0037	A.61	284.196875	284.596875		so	so
sw3207A-ms98-a-0037	A.61	284.596875	284.806875		it's	it's
sw3207A-ms98-a-0037	A.61	284.806875	284.966875		a	a
sw3207A-ms98-a-0037	A.61	284.966875	285.266875		[vocalized-noise]	[vocalized-noise]
sw3207A-ms98-a-0037	A.61	285.266875	285.466875		it's	it's
sw3207A-ms98-a-0037	A.61	285.466875	285.706875		kind	kind
sw3207A-ms98-a-0037	A.61	285.706875	285.776875		of	of
sw3207A-ms98-a-0037	A.61	285.776875	285.776875	<INS>	a	---
sw3207A-ms98-a-0037	A.61	285.776875	286.316875		depressing	depressing
sw3207A-ms98-a-0037	A.61	286.316875	286.876875		topic	[laughter-topic]
sw3207A-ms98-a-0037	A.61	286.876875	287.146875		though	[laughter-though]
sw3207A-ms98-a-0037	A.61	287.146875	287.306875		How	how
sw3207A-ms98-a-0037	A.61	287.306875	287.486875		old	old
sw3207A-ms98-a-0037	A.61	287.486875	287.546875		are	are
sw3207A-ms98-a-0037	A.61	287.546875	287.916875		you	you
sw3207A-ms98-a-0037	A.63	287.916875	288.653250		[silence]	[silence]
sw3207A-ms98-a-0038	A.63	288.653250	289.943250		[silence]	[silence]
sw3207A-ms98-a-0038	A.63	289.943250	290.173250		So	so
sw3207A-ms98-a-0038	A.63	290.173250	290.313250		it	it
sw3207A-ms98-a-0038	A.63	290.313250	290.623250		is	is
sw3207A-ms98-a-0038	A.63	290.623250	290.823250		yeah	yeah
sw3207A-ms98-a-0038	A.63	290.823250	290.923250		and	and
sw3207A-ms98-a-0038	A.63	290.923250	290.983250		it	it
sw3207A-ms98-a-0038	A.63	290.983250	291.173250		must	must
sw3207A-ms98-a-0038	A.63	291.173250	291.283250		be	be
sw3207A-ms98-a-0038	A.63	291.283250	291.453250		rough	rough
sw3207A-ms98-a-0038	A.63	291.453250	291.563250		for	for
sw3207A-ms98-a-0038	A.63	291.563250	291.703250		you	you
sw3207A-ms98-a-0038	A.63	291.703250	292.023250		too	too
sw3207A-ms98-a-0038	A.63	292.023250	292.253250		to	to
sw3207A-ms98-a-0038	A.63	292.253250	292.443250		[silence]	[silence]
sw3207A-ms98-a-0038	A.63	292.443250	292.563250		see	see
sw3207A-ms98-a-0038	A.63	292.563250	292.723250		your	your
sw3207A-ms98-a-0038	A.63	292.723250	293.389875		grandmother	grandmother
sw3207A-ms98-a-0038	A.63	293.389875	294.133250		[silence]	[silence]
sw3207A-ms98-a-0038	A.63	294.133250	294.793250		[vocalized-noise]	[vocalized-noise]
sw3207A-ms98-a-0038	A.63	294.793250	295.169875		[silence]	[silence]
sw3207A-ms98-a-0039	A.63	295.169875	299.234000		[silence]	[silence]
