sw3286B-ms98-a-0001	B.1	0.000000	0.050000		[silence]	[silence]
sw3286B-ms98-a-0001	B.1	0.050000	0.070000		[noise]	[noise]
sw3286B-ms98-a-0001	B.1	0.070000	0.440000		So	so
sw3286B-ms98-a-0001	B.1	0.440000	0.560000		what	what
sw3286B-ms98-a-0001	B.1	0.560000	0.670000		do	do
sw3286B-ms98-a-0001	B.1	0.670000	0.820000		you	you
sw3286B-ms98-a-0001	B.1	0.820000	1.070000		think	think
sw3286B-ms98-a-0001	B.1	1.070000	1.300000		about	about
sw3286B-ms98-a-0001	B.1	1.300000	1.470000		it	it
sw3286B-ms98-a-0001	B.3	1.470000	1.976000		[silence]	[silence]
sw3286B-ms98-a-0002	B.3	1.976000	9.023500		[silence]	[silence]
sw3286B-ms98-a-0003	B.3	9.023500	9.413500		[silence]	[silence]
sw3286B-ms98-a-0003	B.3	9.413500	9.897875		Right	right
sw3286B-ms98-a-0003	B.5	9.897875	10.423500		[laughter]	[laughter]
sw3286B-ms98-a-0003	B.5	10.423500	10.507375		[silence]	[silence]
sw3286B-ms98-a-0004	B.5	10.507375	11.087375		[silence]	[silence]
sw3286B-ms98-a-0004	B.5	11.087375	11.387375		Yeah	yeah
sw3286B-ms98-a-0004	B.5	11.387375	11.457375		I	i
sw3286B-ms98-a-0004	B.5	11.457375	11.657375		guess	guess
sw3286B-ms98-a-0004	B.5	11.657375	11.867375		that's	that's
sw3286B-ms98-a-0004	B.5	11.867375	12.387375		so	so
sw3286B-ms98-a-0004	@B.7	12.387375	12.827375		[noise]	[noise]
sw3286B-ms98-a-0004	@B.7	12.827375	13.141250		[silence]	[silence]
sw3286B-ms98-a-0005	@B.7	13.141250	13.751250		[silence]	[silence]
sw3286B-ms98-a-0005	@B.7	13.751250	14.211250		Um	um
sw3286B-ms98-a-0005	@B.7	14.211250	14.800625		[silence]	[silence]
sw3286B-ms98-a-0006	@B.7	14.800625	15.970625		[silence]	[silence]
sw3286B-ms98-a-0006	@B.7	15.970625	16.734250		uh	uh
sw3286B-ms98-a-0006	@B.7	16.734250	17.502250		[silence]	[silence]
sw3286B-ms98-a-0006	@B.7	17.502250	17.634875		I	i
sw3286B-ms98-a-0006	@B.7	17.634875	17.780625		think	think
sw3286B-ms98-a-0006	@B.7	17.780625	17.930625	<SUB>	there's	there
sw3286B-ms98-a-0006	@B.7	17.930625	18.000625	<DEL>	---	are
sw3286B-ms98-a-0006	@B.7	18.000625	18.270625		some	some
sw3286B-ms98-a-0006	@B.7	18.270625	18.870625		problems	problems
sw3286B-ms98-a-0006	@B.7	18.870625	19.000625		but	but
sw3286B-ms98-a-0006	@B.7	19.000625	19.210625		they're	they're
sw3286B-ms98-a-0006	@B.7	19.210625	19.520625		not	not
sw3286B-ms98-a-0006	@B.7	19.520625	20.080625		[silence]	[silence]
sw3286B-ms98-a-0006	@B.7	20.080625	20.450625		really	really
sw3286B-ms98-a-0006	@B.7	20.450625	20.670625		big	big
sw3286B-ms98-a-0006	@B.7	20.670625	21.157125		ones	ones
sw3286B-ms98-a-0006	@B.7	21.157125	21.947250		[silence]	[silence]
sw3286B-ms98-a-0006	@B.7	21.947250	22.082875		I	i
sw3286B-ms98-a-0006	@B.7	22.082875	22.320625		think	think
sw3286B-ms98-a-0006	@B.7	22.320625	22.730625		that	that
sw3286B-ms98-a-0006	@B.7	22.730625	23.381750		[silence]	[silence]
sw3286B-ms98-a-0007	@B.7	23.381750	24.261750		[silence]	[silence]
sw3286B-ms98-a-0007	@B.7	24.261750	24.861750		um	um
sw3286B-ms98-a-0007	@B.7	24.861750	25.598375		[silence]	[silence]
sw3286B-ms98-a-0008	@B.7	25.598375	26.428375		[silence]	[silence]
sw3286B-ms98-a-0008	@B.7	26.428375	26.668375		in	in
sw3286B-ms98-a-0008	@B.7	26.668375	27.268375		general	general
sw3286B-ms98-a-0008	@B.7	27.268375	27.798375		[silence]	[silence]
sw3286B-ms98-a-0008	@B.7	27.798375	27.878375		the	the
sw3286B-ms98-a-0008	@B.7	27.878375	28.388375		whole	whole
sw3286B-ms98-a-0008	@B.7	28.388375	29.038375		immigration	immigration
sw3286B-ms98-a-0008	@B.7	29.038375	29.618375		policy	policy
sw3286B-ms98-a-0008	@B.7	29.618375	29.908375		isn't	isn't
sw3286B-ms98-a-0008	@B.7	29.908375	30.158375		quite	quite
sw3286B-ms98-a-0008	@B.7	30.158375	30.338375		as	as
sw3286B-ms98-a-0008	@B.7	30.338375	30.688375		open	open
sw3286B-ms98-a-0008	@B.7	30.688375	30.838375		as	as
sw3286B-ms98-a-0008	@B.7	30.838375	30.958375		it	it
sw3286B-ms98-a-0008	@B.7	30.958375	31.298375		should	should
sw3286B-ms98-a-0008	@B.7	31.298375	31.688625		be	be
sw3286B-ms98-a-0008	@B.7	31.688625	32.170625		[silence]	[silence]
sw3286B-ms98-a-0009	@B.7	32.170625	32.890625		[silence]	[silence]
sw3286B-ms98-a-0009	@B.7	32.890625	33.240625		That	that
sw3286B-ms98-a-0009	@B.7	33.240625	33.650625		it's	it's
sw3286B-ms98-a-0009	@B.7	33.650625	34.090625		[silence]	[silence]
sw3286B-ms98-a-0009	@B.7	34.090625	34.410625		really	really
sw3286B-ms98-a-0009	@B.7	34.410625	34.720625		pretty	pretty
sw3286B-ms98-a-0009	@B.7	34.720625	35.340625		hard	hard
sw3286B-ms98-a-0009	@B.7	35.340625	35.920250		for	for
sw3286B-ms98-a-0009	@B.7	35.920250	36.490625		[silence]	[silence]
sw3286B-ms98-a-0009	@B.7	36.490625	36.840625		people	people
sw3286B-ms98-a-0009	@B.7	36.840625	37.020625		from	from
sw3286B-ms98-a-0009	@B.7	37.020625	37.210625		other	other
sw3286B-ms98-a-0009	@B.7	37.210625	37.670625		countries	countries
sw3286B-ms98-a-0009	@B.7	37.670625	37.780625		to	to
sw3286B-ms98-a-0009	@B.7	37.780625	38.000625		get	get
sw3286B-ms98-a-0009	@B.7	38.000625	38.210625		in	in
sw3286B-ms98-a-0009	@B.7	38.210625	38.648875		here	here
sw3286B-ms98-a-0009	@B.7	38.648875	39.250625		[silence]	[silence]
sw3286B-ms98-a-0009	@B.7	39.250625	39.400625	<DEL>	---	like
sw3286B-ms98-a-0009	@B.7	39.400625	39.710625		even	even
sw3286B-ms98-a-0009	@B.7	39.710625	39.960625		if	if
sw3286B-ms98-a-0009	@B.7	39.960625	40.352125		they're	they're
sw3286B-ms98-a-0009	@B.7	40.352125	41.106625		[silence]	[silence]
sw3286B-ms98-a-0009	@B.7	41.106625	41.930625		educated	educated
sw3286B-ms98-a-0009	@B.7	41.930625	42.100625		and	and
sw3286B-ms98-a-0009	@B.7	42.100625	42.220625		will	will
sw3286B-ms98-a-0009	@B.7	42.220625	42.370625		be	be
sw3286B-ms98-a-0009	@B.7	42.370625	42.460625		a	a
sw3286B-ms98-a-0009	@B.7	42.460625	42.640625		good	good
sw3286B-ms98-a-0009	@B.7	42.640625	43.340625		asset	asset
sw3286B-ms98-a-0009	@B.7	43.340625	43.727125		to	to
sw3286B-ms98-a-0009	@B.7	43.727125	44.475000		America	America
sw3286B-ms98-a-0009	@B.7	44.475000	44.989375		[silence]	[silence]
sw3286B-ms98-a-0010	@B.7	44.989375	45.374625		[silence]	[silence]
sw3286B-ms98-a-0010	@B.7	45.374625	45.882625		It's	it's
sw3286B-ms98-a-0010	@B.7	45.882625	46.219375		often	often
sw3286B-ms98-a-0010	@B.7	46.219375	46.629375		hard	hard
sw3286B-ms98-a-0010	@B.7	46.629375	46.739375		for	for
sw3286B-ms98-a-0010	@B.7	46.739375	46.929375		them	them
sw3286B-ms98-a-0010	@B.7	46.929375	47.019375		to	to
sw3286B-ms98-a-0010	@B.7	47.019375	47.239375		get	get
sw3286B-ms98-a-0010	@B.7	47.239375	47.694375		in	in
sw3286B-ms98-a-0010	@B.7	47.694375	47.987500		and	and
sw3286B-ms98-a-0010	@B.7	47.987500	48.589375		[silence]	[silence]
sw3286B-ms98-a-0010	@B.7	48.589375	48.719375		get	get
sw3286B-ms98-a-0010	@B.7	48.719375	48.859375		on	on
sw3286B-ms98-a-0010	@B.7	48.859375	48.919375		the	the
sw3286B-ms98-a-0010	@B.7	48.919375	49.299375		track	track
sw3286B-ms98-a-0010	@B.7	49.299375	49.629375		towards	towards
sw3286B-ms98-a-0010	@B.7	49.629375	50.389375		citizenship	citizenship
sw3286B-ms98-a-0010	@B.7	50.389375	50.689375		unless	unless
sw3286B-ms98-a-0010	@B.7	50.689375	50.789375		they	they
sw3286B-ms98-a-0010	@B.7	50.789375	51.229375		marry	marry
sw3286B-ms98-a-0010	@B.7	51.229375	51.289375		a	a
sw3286B-ms98-a-0010	@B.7	51.289375	51.859375		citizen	citizen
sw3286B-ms98-a-0010	@B.7	51.859375	51.939375		or	or
sw3286B-ms98-a-0010	@B.7	51.939375	52.309375		something	something
sw3286B-ms98-a-0010	@B.7	52.309375	52.489375		like	like
sw3286B-ms98-a-0010	@B.7	52.489375	52.789375		that	that
sw3286B-ms98-a-0010	B.9	52.789375	53.197250		[silence]	[silence]
sw3286B-ms98-a-0011	B.9	53.197250	58.141125		[silence]	[silence]
sw3286B-ms98-a-0012	B.9	58.141125	58.611125		[silence]	[silence]
sw3286B-ms98-a-0012	B.9	58.611125	58.988000		Okay	okay
sw3286B-ms98-a-0012	B.11	58.988000	59.375500		[silence]	[silence]
sw3286B-ms98-a-0012	B.11	59.375500	59.616500		Uh	uh
sw3286B-ms98-a-0012	B.11	59.616500	59.751125		where	where
sw3286B-ms98-a-0012	B.11	59.751125	59.861125		did	did
sw3286B-ms98-a-0012	B.11	59.861125	59.951125		you	you
sw3286B-ms98-a-0012	B.11	59.951125	60.161125		come	come
sw3286B-ms98-a-0012	B.11	60.161125	60.431125		from	from
sw3286B-ms98-a-0012	B.13	60.431125	61.041500		[silence]	[silence]
sw3286B-ms98-a-0013	B.13	61.041500	61.551500		[silence]	[silence]
sw3286B-ms98-a-0013	B.13	61.551500	61.991375		Okay	okay
sw3286B-ms98-a-0013	B.15	61.991375	62.448750		[silence]	[silence]
sw3286B-ms98-a-0013	B.15	62.448750	62.822375		Okay	okay
sw3286B-ms98-a-0013	B.15	62.822375	63.011500		so	so
sw3286B-ms98-a-0013	B.15	63.011500	63.131500		where	where
sw3286B-ms98-a-0013	B.15	63.131500	63.221500		did	did
sw3286B-ms98-a-0013	B.15	63.221500	63.311500		your	your
sw3286B-ms98-a-0013	B.15	63.311500	63.771500		parents	parents
sw3286B-ms98-a-0013	B.15	63.771500	64.011500		come	come
sw3286B-ms98-a-0013	B.15	64.011500	64.231500		from	from
sw3286B-ms98-a-0013	B.17	64.231500	65.005250		[silence]	[silence]
sw3286B-ms98-a-0014	B.17	65.005250	65.675250		[silence]	[silence]
sw3286B-ms98-a-0014	B.17	65.675250	66.090375		Okay	okay
sw3286B-ms98-a-0014	B.17	66.090375	66.562000		[silence]	[silence]
sw3286B-ms98-a-0015	B.17	66.562000	66.972000		[silence]	[silence]
sw3286B-ms98-a-0015	B.17	66.972000	67.651125		And	and
sw3286B-ms98-a-0015	B.19	67.651125	68.062500		[silence]	[silence]
sw3286B-ms98-a-0016	B.19	68.062500	69.127000		[silence]	[silence]
sw3286B-ms98-a-0017	B.19	69.127000	69.647000		[silence]	[silence]
sw3286B-ms98-a-0017	B.19	69.647000	70.097000	<SUB>	Uh-huh	um-hum
sw3286B-ms98-a-0017	B.21	70.097000	70.513375		[silence]	[silence]
sw3286B-ms98-a-0018	B.21	70.513375	76.742500		[silence]	[silence]
sw3286B-ms98-a-0019	B.21	76.742500	77.202500		[silence]	[silence]
sw3286B-ms98-a-0019	B.21	77.202500	77.681375		Yeah	yeah
sw3286B-ms98-a-0019	B.23	77.681375	78.066250		[silence]	[silence]
sw3286B-ms98-a-0020	B.23	78.066250	79.873625		[silence]	[silence]
sw3286B-ms98-a-0021	B.23	79.873625	80.241250		[silence]	[silence]
sw3286B-ms98-a-0021	B.23	80.241250	80.908750	<SUB>	Uh-huh	um-hum
sw3286B-ms98-a-0021	B.25	80.908750	81.064125		[silence]	[silence]
sw3286B-ms98-a-0022	B.25	81.064125	88.247500		[silence]	[silence]
sw3286B-ms98-a-0023	B.25	88.247500	88.667500		[silence]	[silence]
sw3286B-ms98-a-0023	B.25	88.667500	89.210125		Yep	yep
sw3286B-ms98-a-0023	B.27	89.210125	89.489250		[silence]	[silence]
sw3286B-ms98-a-0024	B.27	89.489250	92.903500		[silence]	[silence]
sw3286B-ms98-a-0025	B.27	92.903500	93.351500		[silence]	[silence]
sw3286B-ms98-a-0025	B.27	93.351500	93.914625	<SUB>	Uh-huh	um-hum
sw3286B-ms98-a-0025	B.29	93.914625	94.511000		[silence]	[silence]
sw3286B-ms98-a-0026	B.29	94.511000	97.649625		[silence]	[silence]
sw3286B-ms98-a-0027	B.29	97.649625	98.139625		[silence]	[silence]
sw3286B-ms98-a-0027	B.29	98.139625	98.269625		I'm	i'm
sw3286B-ms98-a-0027	B.29	98.269625	98.589625		from	from
sw3286B-ms98-a-0027	B.29	98.589625	99.453375		Pennsylvania	Pennsylvania
sw3286B-ms98-a-0027	B.31	99.453375	99.930625		[silence]	[silence]
sw3286B-ms98-a-0028	B.31	99.930625	100.590625		[silence]	[silence]
sw3286B-ms98-a-0028	B.31	100.590625	100.930625		Yeah	yeah
sw3286B-ms98-a-0028	B.33	100.930625	101.431125		[silence]	[silence]
sw3286B-ms98-a-0029	B.33	101.431125	101.929125		[silence]	[silence]
sw3286B-ms98-a-0029	B.33	101.929125	102.434250		Right	right
sw3286B-ms98-a-0029	B.33	102.434250	102.768625		and	and
sw3286B-ms98-a-0029	B.33	102.768625	103.115125	<SUB>	uh	um
sw3286B-ms98-a-0029	B.35	103.115125	103.621125		[silence]	[silence]
sw3286B-ms98-a-0029	B.35	103.621125	103.695125		a	a
sw3286B-ms98-a-0029	B.35	103.695125	103.901125		lot	lot
sw3286B-ms98-a-0029	B.35	103.901125	104.271125		of	of
sw3286B-ms98-a-0029	B.37	104.271125	104.679000		[silence]	[silence]
sw3286B-ms98-a-0030	B.37	104.679000	109.389000		[silence]	[silence]
sw3286B-ms98-a-0031	B.37	109.389000	109.829000		[silence]	[silence]
sw3286B-ms98-a-0031	B.37	109.829000	110.259000	<SUB>	Uh-huh	um-hum
sw3286B-ms98-a-0031	B.39	110.259000	110.603000		[silence]	[silence]
sw3286B-ms98-a-0032	B.39	110.603000	112.512750		[silence]	[silence]
sw3286B-ms98-a-0033	B.39	112.512750	112.960875		[silence]	[silence]
sw3286B-ms98-a-0033	B.39	112.960875	113.415000		Yeah	yeah
sw3286B-ms98-a-0033	B.41	113.415000	114.099250		[silence]	[silence]
sw3286B-ms98-a-0034	B.41	114.099250	114.799250		[silence]	[silence]
sw3286B-ms98-a-0034	B.41	114.799250	115.449250		Um	um
sw3286B-ms98-a-0034	B.41	115.449250	116.089250		[silence]	[silence]
sw3286B-ms98-a-0034	B.41	116.089250	116.232875		I	i
sw3286B-ms98-a-0034	B.41	116.232875	116.666000		think	think
sw3286B-ms98-a-0034	B.41	116.666000	116.899250		[silence]	[silence]
sw3286B-ms98-a-0034	B.41	116.899250	117.169250		that's	that's
sw3286B-ms98-a-0034	B.41	117.169250	117.309250		all	all
sw3286B-ms98-a-0034	B.41	117.309250	117.566625		right	right
sw3286B-ms98-a-0034	B.41	117.566625	117.836875		[silence]	[silence]
sw3286B-ms98-a-0035	B.41	117.836875	118.855500		[silence]	[silence]
sw3286B-ms98-a-0036	B.41	118.855500	119.265500		[silence]	[silence]
sw3286B-ms98-a-0036	B.41	119.265500	119.745500		I	i
sw3286B-ms98-a-0036	B.41	119.745500	120.242375		um	um
sw3286B-ms98-a-0036	B.41	120.242375	120.835000		[silence]	[silence]
sw3286B-ms98-a-0037	B.41	120.835000	121.909500		[silence]	[silence]
sw3286B-ms98-a-0038	B.41	121.909500	122.439500		[silence]	[silence]
sw3286B-ms98-a-0038	B.41	122.439500	122.539500		at	at
sw3286B-ms98-a-0038	B.41	122.539500	122.849500		least	least
sw3286B-ms98-a-0038	B.41	122.849500	123.029500		on	on
sw3286B-ms98-a-0038	B.41	123.029500	123.089500		the	the
sw3286B-ms98-a-0038	B.41	123.089500	123.779500		surface	surface
sw3286B-ms98-a-0038	B.41	123.779500	123.949500		it	it
sw3286B-ms98-a-0038	B.41	123.949500	124.379500		sounds	sounds
sw3286B-ms98-a-0038	B.41	124.379500	124.539500		like	like
sw3286B-ms98-a-0038	B.41	124.539500	124.689500		a	a
sw3286B-ms98-a-0038	B.41	124.689500	125.079875		good	good
sw3286B-ms98-a-0038	B.41	125.079875	125.349500		[silence]	[silence]
sw3286B-ms98-a-0038	B.41	125.349500	125.689500		thing	thing
sw3286B-ms98-a-0038	B.41	125.689500	125.769500		Do	do
sw3286B-ms98-a-0038	B.41	125.769500	125.869500		you	you
sw3286B-ms98-a-0038	B.41	125.869500	125.959500		have	have
sw3286B-ms98-a-0038	B.41	125.959500	126.019500		an	an
sw3286B-ms98-a-0038	B.41	126.019500	126.339500		opinion	opinion
sw3286B-ms98-a-0038	B.41	126.339500	126.596500		about	about
sw3286B-ms98-a-0038	B.41	126.596500	126.709500		it	it
sw3286B-ms98-a-0038	B.43	126.709500	127.147625		[silence]	[silence]
sw3286B-ms98-a-0039	B.43	127.147625	128.620500		[silence]	[silence]
sw3286B-ms98-a-0040	B.43	128.620500	129.170500		[silence]	[silence]
sw3286B-ms98-a-0040	B.43	129.170500	129.520500		Uh-huh	uh-huh
sw3286B-ms98-a-0040	B.45	129.520500	130.148375		[silence]	[silence]
sw3286B-ms98-a-0041	B.45	130.148375	133.006125		[silence]	[silence]
sw3286B-ms98-a-0042	B.45	133.006125	133.436125		[silence]	[silence]
sw3286B-ms98-a-0042	B.45	133.436125	133.731000		Uh-huh	uh-huh
sw3286B-ms98-a-0042	B.47	133.731000	134.508125		[silence]	[silence]
sw3286B-ms98-a-0043	B.47	134.508125	138.297625		[silence]	[silence]
sw3286B-ms98-a-0044	B.47	138.297625	138.727625		[silence]	[silence]
sw3286B-ms98-a-0044	B.47	138.727625	139.047625		No	no
sw3286B-ms98-a-0044	B.47	139.047625	139.647625		okay	[laughter-okay]
sw3286B-ms98-a-0044	B.49	139.647625	140.066750		[silence]	[silence]
sw3286B-ms98-a-0045	B.49	140.066750	141.700625		[silence]	[silence]
sw3286B-ms98-a-0046	B.49	141.700625	142.200625		[silence]	[silence]
sw3286B-ms98-a-0046	B.49	142.200625	142.690625		Right	right
sw3286B-ms98-a-0046	B.51	142.690625	143.026250		[silence]	[silence]
sw3286B-ms98-a-0047	B.51	143.026250	143.546250		[silence]	[silence]
sw3286B-ms98-a-0047	B.51	143.546250	143.841500		Well	well
sw3286B-ms98-a-0047	B.51	143.841500	143.946250		[silence]	[silence]
sw3286B-ms98-a-0047	B.51	143.946250	144.016250		a	a
sw3286B-ms98-a-0047	B.51	144.016250	144.216250		lot	lot
sw3286B-ms98-a-0047	B.51	144.216250	144.312625		of	of
sw3286B-ms98-a-0047	B.51	144.312625	144.456250		the	the
sw3286B-ms98-a-0047	B.51	144.456250	145.066250		experience	experience
sw3286B-ms98-a-0047	B.51	145.066250	145.160250		that	that
sw3286B-ms98-a-0047	B.51	145.160250	145.377250		I	i
sw3286B-ms98-a-0047	B.51	145.377250	145.995125		have	have
sw3286B-ms98-a-0047	B.51	145.995125	146.396250		[silence]	[silence]
sw3286B-ms98-a-0047	B.51	146.396250	146.566250		with	with
sw3286B-ms98-a-0047	B.51	146.566250	146.936250		this	this
sw3286B-ms98-a-0047	B.51	146.936250	147.724250		[silence]	[silence]
sw3286B-ms98-a-0047	B.51	147.724250	148.346250		problem	problem
sw3286B-ms98-a-0047	B.51	148.346250	148.576250		has	has
sw3286B-ms98-a-0047	B.51	148.576250	148.666250		to	to
sw3286B-ms98-a-0047	B.51	148.666250	148.786250		do	do
sw3286B-ms98-a-0047	B.51	148.786250	148.956250		with	with
sw3286B-ms98-a-0047	B.51	148.956250	149.146250		my	my
sw3286B-ms98-a-0047	B.51	149.146250	149.916250		brother-in-law	brother-in-law
sw3286B-ms98-a-0047	B.51	149.916250	150.176250		who's	who's
sw3286B-ms98-a-0047	B.51	150.176250	151.019750		Chinese	Chinese
sw3286B-ms98-a-0047	B.51	151.019750	151.766250		[silence]	[silence]
sw3286B-ms98-a-0047	B.51	151.766250	152.036250		and	and
sw3286B-ms98-a-0047	B.51	152.036250	152.586250		immigrated	immigrated
sw3286B-ms98-a-0047	B.51	152.586250	152.776250		from	from
sw3286B-ms98-a-0047	B.51	152.776250	153.376500		China	China
sw3286B-ms98-a-0047	B.51	153.376500	154.107000		[silence]	[silence]
sw3286B-ms98-a-0047	B.51	154.107000	154.496500		And	and
sw3286B-ms98-a-0047	B.51	154.496500	154.961625		um	um
sw3286B-ms98-a-0047	B.51	154.961625	155.622500		[silence]	[silence]
sw3286B-ms98-a-0048	B.51	155.622500	156.320875		[silence]	[silence]
sw3286B-ms98-a-0048	B.51	156.320875	156.409375		you	you
sw3286B-ms98-a-0048	B.51	156.409375	156.568750		know	know
sw3286B-ms98-a-0048	B.51	156.568750	157.082500		he	he
sw3286B-ms98-a-0048	B.51	157.082500	157.391000		[silence]	[silence]
sw3286B-ms98-a-0049	B.51	157.391000	158.391250		[silence]	[silence]
sw3286B-ms98-a-0050	B.51	158.391250	158.771250		[silence]	[silence]
sw3286B-ms98-a-0050	B.51	158.771250	159.241250		um	um
sw3286B-ms98-a-0050	B.51	159.241250	159.951250		[silence]	[silence]
sw3286B-ms98-a-0050	B.51	159.951250	160.151250		got	got
sw3286B-ms98-a-0050	B.51	160.151250	160.211250		a	a
sw3286B-ms98-a-0050	B.51	160.211250	160.541250		green	green
sw3286B-ms98-a-0050	B.51	160.541250	160.971250		card	card
sw3286B-ms98-a-0050	B.51	160.971250	161.121250		is	is
sw3286B-ms98-a-0050	B.51	161.121250	161.271250		[silence]	[silence]
sw3286B-ms98-a-0050	B.51	161.271250	161.441375		and	and
sw3286B-ms98-a-0050	B.51	161.441375	161.641250		is	is
sw3286B-ms98-a-0050	B.51	161.641250	161.861250		in	in
sw3286B-ms98-a-0050	B.51	161.861250	162.031250		good	good
sw3286B-ms98-a-0050	B.51	162.031250	162.671250		standing	standing
sw3286B-ms98-a-0050	B.51	162.671250	162.741250		in	in
sw3286B-ms98-a-0050	B.51	162.741250	163.151250		America	America
sw3286B-ms98-a-0050	B.51	163.151250	163.271250		and	and
sw3286B-ms98-a-0050	B.51	163.271250	163.361250	<DEL>	---	in
sw3286B-ms98-a-0050	B.51	163.361250	163.877125		China	China
sw3286B-ms98-a-0050	B.51	163.877125	164.381250		[silence]	[silence]
sw3286B-ms98-a-0050	B.51	164.381250	164.711250		but	but
sw3286B-ms98-a-0050	B.51	164.711250	165.121250		[silence]	[silence]
sw3286B-ms98-a-0050	B.51	165.121250	165.411250		only	only
sw3286B-ms98-a-0050	B.51	165.411250	165.881250		because	because
sw3286B-ms98-a-0050	B.51	165.881250	165.971250		he	he
sw3286B-ms98-a-0050	B.51	165.971250	166.151250		was	was
sw3286B-ms98-a-0050	B.51	166.151250	166.711250		always	always
sw3286B-ms98-a-0050	B.51	166.711250	167.301250		[silence]	[silence]
sw3286B-ms98-a-0050	B.51	167.301250	167.641250	<DEL>	---	pretty
sw3286B-ms98-a-0050	B.51	167.641250	168.101250		nice	nice
sw3286B-ms98-a-0050	B.51	168.101250	168.221250		to	to
sw3286B-ms98-a-0050	B.51	168.221250	168.301250		the	the
sw3286B-ms98-a-0050	B.51	168.301250	168.845750		Chinese	Chinese
sw3286B-ms98-a-0050	B.51	168.845750	169.482125		government	government
sw3286B-ms98-a-0050	B.53	169.482125	169.768875		[silence]	[silence]
sw3286B-ms98-a-0051	B.53	169.768875	170.168875		[silence]	[silence]
sw3286B-ms98-a-0051	B.53	170.168875	170.381625		and	and
sw3286B-ms98-a-0051	B.53	170.381625	170.608875		all	all
sw3286B-ms98-a-0051	B.53	170.608875	171.068875		that	that
sw3286B-ms98-a-0051	B.53	171.068875	171.308875		and	and
sw3286B-ms98-a-0051	B.53	171.308875	171.388875		he	he
sw3286B-ms98-a-0051	B.53	171.388875	171.528875		was	was
sw3286B-ms98-a-0051	B.53	171.528875	171.828875		always	always
sw3286B-ms98-a-0051	B.53	171.828875	171.978875		on	on
sw3286B-ms98-a-0051	B.53	171.978875	172.208875		pretty	pretty
sw3286B-ms98-a-0051	B.53	172.208875	172.388875		good	good
sw3286B-ms98-a-0051	B.53	172.388875	172.798875		terms	terms
sw3286B-ms98-a-0051	B.53	172.798875	173.038875		with	with
sw3286B-ms98-a-0051	B.53	173.038875	173.338875		them	them
sw3286B-ms98-a-0051	B.55	173.338875	173.907125		[silence]	[silence]
sw3286B-ms98-a-0052	B.55	173.907125	174.387125		[silence]	[silence]
sw3286B-ms98-a-0052	B.55	174.387125	174.687125		But	but
sw3286B-ms98-a-0052	B.55	174.687125	175.005875		um	um
sw3286B-ms98-a-0052	B.55	175.005875	175.377125		[silence]	[silence]
sw3286B-ms98-a-0052	B.55	175.377125	175.783000		their	their
sw3286B-ms98-a-0052	B.55	175.783000	176.264625		[silence]	[silence]
sw3286B-ms98-a-0053	B.55	176.264625	176.844625		[silence]	[silence]
sw3286B-ms98-a-0053	B.55	176.844625	176.964625		my	my
sw3286B-ms98-a-0053	B.55	176.964625	177.334625		sister	sister
sw3286B-ms98-a-0053	B.55	177.334625	177.544625		just	just
sw3286B-ms98-a-0053	B.55	177.544625	177.684625		had	had
sw3286B-ms98-a-0053	B.55	177.684625	177.734625		a	a
sw3286B-ms98-a-0053	B.55	177.734625	178.353750		baby	baby
sw3286B-ms98-a-0053	B.55	178.353750	178.524625		[silence]	[silence]
sw3286B-ms98-a-0053	B.55	178.524625	178.704625		and	and
sw3286B-ms98-a-0053	B.55	178.704625	179.045875		they're	they're
sw3286B-ms98-a-0053	B.55	179.045875	179.441375		[silence]	[silence]
sw3286B-ms98-a-0053	B.55	179.441375	179.924625		trying	trying
sw3286B-ms98-a-0053	B.55	179.924625	180.344375		to	to
sw3286B-ms98-a-0053	B.55	180.344375	180.904625		[silence]	[silence]
sw3286B-ms98-a-0053	B.55	180.904625	181.084625		get	get
sw3286B-ms98-a-0053	B.55	181.084625	181.764625		permission	permission
sw3286B-ms98-a-0053	B.55	181.764625	182.054625		for	for
sw3286B-ms98-a-0053	B.55	182.054625	182.294625		his	his
sw3286B-ms98-a-0053	B.55	182.294625	182.704625		mother	mother
sw3286B-ms98-a-0053	B.55	182.704625	183.074625		to	to
sw3286B-ms98-a-0053	B.55	183.074625	183.354625		come	come
sw3286B-ms98-a-0053	B.55	183.354625	183.514625		to	to
sw3286B-ms98-a-0053	B.55	183.514625	184.155500		America	America
sw3286B-ms98-a-0053	B.55	184.155500	184.684625		[silence]	[silence]
sw3286B-ms98-a-0053	B.55	184.684625	184.864625		to	to
sw3286B-ms98-a-0053	B.55	184.864625	184.994625		like	like
sw3286B-ms98-a-0053	B.55	184.994625	185.244625		help	help
sw3286B-ms98-a-0053	B.55	185.244625	185.504625		care	care
sw3286B-ms98-a-0053	B.55	185.504625	185.634625		for	for
sw3286B-ms98-a-0053	B.55	185.634625	185.694625		the	the
sw3286B-ms98-a-0053	B.55	185.694625	186.124625		kid	kid
sw3286B-ms98-a-0053	B.55	186.124625	186.234625		and	and
sw3286B-ms98-a-0053	B.55	186.234625	186.354625		that	that
sw3286B-ms98-a-0053	B.55	186.354625	186.604625		sort	sort
sw3286B-ms98-a-0053	B.55	186.604625	186.674625		of	of
sw3286B-ms98-a-0053	B.55	186.674625	187.034625		thing	thing
sw3286B-ms98-a-0053	B.55	187.034625	187.305250		[silence]	[silence]
sw3286B-ms98-a-0054	B.55	187.305250	187.595250		[silence]	[silence]
sw3286B-ms98-a-0054	B.55	187.595250	187.685250		And	and
sw3286B-ms98-a-0054	B.55	187.685250	187.885250		it's	it's
sw3286B-ms98-a-0054	B.55	187.885250	188.165250		turned	turned
sw3286B-ms98-a-0054	B.55	188.165250	188.395250		out	out
sw3286B-ms98-a-0054	B.55	188.395250	188.515250		to	to
sw3286B-ms98-a-0054	B.55	188.515250	188.815250		be	be
sw3286B-ms98-a-0054	B.55	188.815250	189.085250		sort	sort
sw3286B-ms98-a-0054	B.55	189.085250	189.165250		of	of
sw3286B-ms98-a-0054	B.55	189.165250	189.245250		a	a
sw3286B-ms98-a-0054	B.55	189.245250	189.785250		horrible	horrible
sw3286B-ms98-a-0054	B.55	189.785250	189.925250		[silence]	[silence]
sw3286B-ms98-a-0054	B.55	189.925250	190.525250		problem	problem
sw3286B-ms98-a-0054	B.55	190.525250	190.910875		[silence]	[silence]
sw3286B-ms98-a-0055	B.55	190.910875	191.310875		[silence]	[silence]
sw3286B-ms98-a-0055	B.55	191.310875	191.480875		It's	it's
sw3286B-ms98-a-0055	B.55	191.480875	191.730875		just	just
sw3286B-ms98-a-0055	B.55	191.730875	192.060875		very	very
sw3286B-ms98-a-0055	B.55	192.060875	192.810875		difficult	difficult
sw3286B-ms98-a-0055	B.55	192.810875	192.950875		[silence]	[silence]
sw3286B-ms98-a-0055	B.55	192.950875	193.280875		to	to
sw3286B-ms98-a-0055	B.55	193.280875	193.819000		[silence]	[silence]
sw3286B-ms98-a-0056	B.55	193.819000	194.343500		[silence]	[silence]
sw3286B-ms98-a-0056	B.55	194.343500	194.696500		get	get
sw3286B-ms98-a-0056	B.55	194.696500	194.998750		a	a
sw3286B-ms98-a-0056	B.55	194.998750	195.491375		[silence]	[silence]
sw3286B-ms98-a-0056	B.55	195.491375	195.709750	<DEL>	---	a
sw3286B-ms98-a-0056	B.55	195.709750	196.149000		woman	woman
sw3286B-ms98-a-0056	B.55	196.149000	196.259000		who	who
sw3286B-ms98-a-0056	B.55	196.259000	196.569000		doesn't	doesn't
sw3286B-ms98-a-0056	B.55	196.569000	196.859000		have	have
sw3286B-ms98-a-0056	B.55	196.859000	197.033125		a	a
sw3286B-ms98-a-0056	B.55	197.033125	197.219000		[silence]	[silence]
sw3286B-ms98-a-0056	B.55	197.219000	197.429000		lot	lot
sw3286B-ms98-a-0056	B.55	197.429000	197.549000		of	of
sw3286B-ms98-a-0056	B.55	197.549000	198.169000		assets	assets
sw3286B-ms98-a-0056	B.55	198.169000	198.259000		or	or
sw3286B-ms98-a-0056	B.55	198.259000	198.767750		whatever	whatever
sw3286B-ms98-a-0056	B.55	198.767750	198.999000		out	out
sw3286B-ms98-a-0056	B.55	198.999000	199.099000		of	of
sw3286B-ms98-a-0056	B.55	199.099000	199.713875		China	China
sw3286B-ms98-a-0056	B.55	199.713875	200.111375		[silence]	[silence]
sw3286B-ms98-a-0056	B.55	200.111375	200.399000		even	even
sw3286B-ms98-a-0056	B.55	200.399000	201.269000		temporarily	temporarily
sw3286B-ms98-a-0056	B.55	201.269000	201.469000		to	to
sw3286B-ms98-a-0056	B.55	201.469000	201.849000		visit	visit
sw3286B-ms98-a-0056	B.55	201.849000	202.189000		here	here
sw3286B-ms98-a-0056	B.57	202.189000	202.599750		[silence]	[silence]
sw3286B-ms98-a-0057	B.57	202.599750	204.894000		[silence]	[silence]
sw3286B-ms98-a-0058	B.57	204.894000	205.424000		[silence]	[silence]
sw3286B-ms98-a-0058	B.57	205.424000	205.804000		Yeah	yeah
sw3286B-ms98-a-0058	B.59	205.804000	206.270125		[silence]	[silence]
sw3286B-ms98-a-0059	B.59	206.270125	208.004125		[silence]	[silence]
sw3286B-ms98-a-0060	B.59	208.004125	208.504125		[silence]	[silence]
sw3286B-ms98-a-0060	B.59	208.504125	209.004125	<SUB>	Uh-huh	um-hum
sw3286B-ms98-a-0060	B.61	209.004125	209.491000		[silence]	[silence]
sw3286B-ms98-a-0061	B.61	209.491000	213.641625		[silence]	[silence]
sw3286B-ms98-a-0062	B.61	213.641625	214.191625		[silence]	[silence]
sw3286B-ms98-a-0062	B.61	214.191625	214.571625		Right	right
sw3286B-ms98-a-0062	B.63	214.571625	215.404750		[silence]	[silence]
sw3286B-ms98-a-0063	B.63	215.404750	216.244750		[silence]	[silence]
sw3286B-ms98-a-0063	B.63	216.244750	216.504750		Yeah	yeah
sw3286B-ms98-a-0063	B.63	216.504750	216.974750		that's	that's
sw3286B-ms98-a-0063	B.63	216.974750	217.114750		and	and
sw3286B-ms98-a-0063	B.63	217.114750	217.264750		[silence]	[silence]
sw3286B-ms98-a-0063	B.63	217.264750	217.401250		I	i
sw3286B-ms98-a-0063	B.63	217.401250	217.614750		think	think
sw3286B-ms98-a-0063	B.63	217.614750	217.904750		that's	that's
sw3286B-ms98-a-0063	B.63	217.904750	218.154750		pretty	pretty
sw3286B-ms98-a-0063	B.63	218.154750	218.854375		crazy	crazy
sw3286B-ms98-a-0063	B.65	218.854375	219.384750		[silence]	[silence]
sw3286B-ms98-a-0063	B.65	219.384750	219.932750		because	because
sw3286B-ms98-a-0063	B.65	219.932750	220.477750		[silence]	[silence]
sw3286B-ms98-a-0064	B.65	220.477750	220.897750		[silence]	[silence]
sw3286B-ms98-a-0064	B.65	220.897750	220.927750		I	i
sw3286B-ms98-a-0064	B.65	220.927750	221.077750		mean	mean
sw3286B-ms98-a-0064	B.65	221.077750	221.480375		those	those
sw3286B-ms98-a-0064	B.65	221.480375	221.787750		[silence]	[silence]
sw3286B-ms98-a-0064	B.65	221.787750	222.297750		students	students
sw3286B-ms98-a-0064	B.65	222.297750	222.417750		who	who
sw3286B-ms98-a-0064	B.65	222.417750	222.527750		were	were
sw3286B-ms98-a-0064	B.65	222.527750	222.667750		in	in
sw3286B-ms98-a-0064	B.65	222.667750	223.157750		America	America
sw3286B-ms98-a-0064	B.65	223.157750	223.577750		when	when
sw3286B-ms98-a-0064	B.65	223.577750	223.697750		that	that
sw3286B-ms98-a-0064	B.65	223.697750	223.837750		was	was
sw3286B-ms98-a-0064	B.65	223.837750	224.587750		happening	happening
sw3286B-ms98-a-0064	B.65	224.587750	225.027125		[silence]	[silence]
sw3286B-ms98-a-0065	B.65	225.027125	225.497125		[silence]	[silence]
sw3286B-ms98-a-0065	B.65	225.497125	225.907125		are	are
sw3286B-ms98-a-0065	B.65	225.907125	226.331375		[silence]	[silence]
sw3286B-ms98-a-0066	B.65	226.331375	226.731375		[silence]	[silence]
sw3286B-ms98-a-0066	B.65	226.731375	227.291375		almost	almost
sw3286B-ms98-a-0066	B.65	227.291375	227.721375		certainly	certainly
sw3286B-ms98-a-0066	B.65	227.721375	227.931375		going	going
sw3286B-ms98-a-0066	B.65	227.931375	227.991375		to	to
sw3286B-ms98-a-0066	B.65	227.991375	228.121375		be	be
sw3286B-ms98-a-0066	B.65	228.121375	228.211375		in	in
sw3286B-ms98-a-0066	B.65	228.211375	228.781375		trouble	trouble
sw3286B-ms98-a-0066	B.65	228.781375	228.991375		if	if
sw3286B-ms98-a-0066	B.65	228.991375	229.081375		they	they
sw3286B-ms98-a-0066	B.65	229.081375	229.281375		go	go
sw3286B-ms98-a-0066	B.65	229.281375	229.855750		back	back
sw3286B-ms98-a-0066	B.65	229.855750	230.227750		[silence]	[silence]
sw3286B-ms98-a-0067	B.65	230.227750	230.667750		[silence]	[silence]
sw3286B-ms98-a-0067	B.65	230.667750	231.117750		and	and
sw3286B-ms98-a-0067	B.65	231.117750	231.477500		[silence]	[silence]
sw3286B-ms98-a-0068	B.65	231.477500	232.007500		[silence]	[silence]
sw3286B-ms98-a-0068	B.65	232.007500	232.587500	<SUB>	aside	besides
sw3286B-ms98-a-0068	B.65	232.587500	232.587500	<INS>	for	---
sw3286B-ms98-a-0068	B.65	232.587500	233.057500		that	that
sw3286B-ms98-a-0068	B.65	233.057500	233.428500		they're	they're
sw3286B-ms98-a-0068	B.65	233.428500	233.907500		[silence]	[silence]
sw3286B-ms98-a-0068	B.65	233.907500	234.027500		the	the
sw3286B-ms98-a-0068	B.65	234.027500	234.377500		best	best
sw3286B-ms98-a-0068	B.65	234.377500	234.547500		and	and
sw3286B-ms98-a-0068	B.65	234.547500	235.037500		brightest	brightest
sw3286B-ms98-a-0068	B.65	235.037500	235.137500		of	of
sw3286B-ms98-a-0068	B.65	235.137500	235.687500		China	China
sw3286B-ms98-a-0068	B.65	235.687500	235.867500		so	so
sw3286B-ms98-a-0068	B.65	235.867500	236.057500		it's	it's
sw3286B-ms98-a-0068	B.65	236.057500	236.665500		certainly	certainly
sw3286B-ms98-a-0068	B.65	236.665500	237.306250		[silence]	[silence]
sw3286B-ms98-a-0068	B.65	237.306250	237.487500		in	in
sw3286B-ms98-a-0068	B.65	237.487500	237.617500		our	our
sw3286B-ms98-a-0068	B.65	237.617500	238.094250		best	best
sw3286B-ms98-a-0068	B.65	238.094250	238.667500		selfish	selfish
sw3286B-ms98-a-0068	B.65	238.667500	239.127500		interest	interest
sw3286B-ms98-a-0068	B.65	239.127500	239.217500		to	to
sw3286B-ms98-a-0068	B.65	239.217500	239.517500		keep	keep
sw3286B-ms98-a-0068	B.65	239.517500	239.647500		them	them
sw3286B-ms98-a-0068	B.65	239.647500	239.917500		here	here
sw3286B-ms98-a-0068	B.65	239.917500	240.037500		if	if
sw3286B-ms98-a-0068	B.65	240.037500	240.159750		we	we
sw3286B-ms98-a-0068	B.65	240.159750	240.716250		can	can
sw3286B-ms98-a-0068	B.67	240.716250	241.074625		[silence]	[silence]
sw3286B-ms98-a-0069	B.67	241.074625	246.356625		[silence]	[silence]
sw3286B-ms98-a-0070	B.67	246.356625	246.786625		[silence]	[silence]
sw3286B-ms98-a-0070	B.67	246.786625	247.506625	<SUB>	Yeah	yep
sw3286B-ms98-a-0070	B.69	247.506625	247.848125		[silence]	[silence]
sw3286B-ms98-a-0071	B.69	247.848125	252.115125		[silence]	[silence]
sw3286B-ms98-a-0072	B.69	252.115125	252.715125		[silence]	[silence]
sw3286B-ms98-a-0072	B.69	252.715125	253.095125	<SUB>	Uh-huh	um-hum
sw3286B-ms98-a-0072	B.71	253.095125	253.440875		[silence]	[silence]
sw3286B-ms98-a-0073	B.71	253.440875	254.458625		[silence]	[silence]
sw3286B-ms98-a-0074	B.71	254.458625	254.868625		[silence]	[silence]
sw3286B-ms98-a-0074	B.71	254.868625	255.238625		Yeah	yeah
sw3286B-ms98-a-0074	B.73	255.238625	255.686625		[silence]	[silence]
sw3286B-ms98-a-0075	B.73	255.686625	256.917875		[silence]	[silence]
sw3286B-ms98-a-0076	B.73	256.917875	257.177875		[silence]	[silence]
sw3286B-ms98-a-0076	B.73	257.177875	257.567875		Um	um
sw3286B-ms98-a-0076	B.75	257.567875	258.302500		[silence]	[silence]
sw3286B-ms98-a-0077	B.75	258.302500	258.842500		[silence]	[silence]
sw3286B-ms98-a-0077	B.75	258.842500	259.111125		See	see
sw3286B-ms98-a-0077	B.75	259.111125	259.292500		these	these
sw3286B-ms98-a-0077	B.75	259.292500	259.462500		are	are
sw3286B-ms98-a-0077	B.75	259.462500	260.362500	<SUB>	refujees	refugees
sw3286B-ms98-a-0077	B.75	260.362500	260.452500		you	you
sw3286B-ms98-a-0077	B.75	260.452500	260.692500		mean	mean
sw3286B-ms98-a-0077	B.77	260.692500	260.853250		[silence]	[silence]
sw3286B-ms98-a-0077	B.77	260.853250	261.206625		Okay	okay
sw3286B-ms98-a-0077	B.79	261.206625	261.658500		[silence]	[silence]
sw3286B-ms98-a-0078	B.79	261.658500	261.988500		[silence]	[silence]
sw3286B-ms98-a-0078	B.79	261.988500	262.278500		Right	right
sw3286B-ms98-a-0078	B.79	262.278500	262.605500		okay	okay
sw3286B-ms98-a-0078	B.81	262.605500	262.967750		[silence]	[silence]
sw3286B-ms98-a-0079	B.81	262.967750	264.205500		[silence]	[silence]
sw3286B-ms98-a-0080	B.81	264.205500	264.695500		[silence]	[silence]
sw3286B-ms98-a-0080	B.81	264.695500	265.202375		Right	right
sw3286B-ms98-a-0080	B.81	265.202375	265.875500		[silence]	[silence]
sw3286B-ms98-a-0080	B.81	265.875500	266.345500		Well	well
sw3286B-ms98-a-0080	B.81	266.345500	266.985500		um	um
sw3286B-ms98-a-0080	B.81	266.985500	267.369750		[silence]	[silence]
sw3286B-ms98-a-0081	B.81	267.369750	267.860875		[silence]	[silence]
sw3286B-ms98-a-0081	B.81	267.860875	268.524500		I	i
sw3286B-ms98-a-0081	B.81	268.524500	269.262625		[silence]	[silence]
sw3286B-ms98-a-0081	B.81	269.262625	269.469750		don't	don't
sw3286B-ms98-a-0081	B.81	269.469750	269.629750		have	have
sw3286B-ms98-a-0081	B.81	269.629750	269.779750		any	any
sw3286B-ms98-a-0081	B.81	269.779750	270.269750		problem	problem
sw3286B-ms98-a-0081	B.81	270.269750	270.469750		with	with
sw3286B-ms98-a-0081	B.81	270.469750	270.899750		that	that
sw3286B-ms98-a-0081	B.81	270.899750	271.299750		[silence]	[silence]
sw3286B-ms98-a-0081	B.81	271.299750	271.679750		Um	um
sw3286B-ms98-a-0081	B.83	271.679750	272.168875		[silence]	[silence]
sw3286B-ms98-a-0082	B.83	272.168875	274.287125		[silence]	[silence]
sw3286B-ms98-a-0083	B.83	274.287125	274.757125		[silence]	[silence]
sw3286B-ms98-a-0083	B.83	274.757125	275.037125		Yeah	[laughter-yeah]
sw3286B-ms98-a-0083	B.83	275.037125	275.187125		I	[laughter-i]
sw3286B-ms98-a-0083	B.83	275.187125	275.577125		guess	[laughter-guess]
sw3286B-ms98-a-0083	B.83	275.577125	276.017125		so	[laughter-so]
sw3286B-ms98-a-0083	B.85	276.017125	277.707125		[laughter]	[laughter]
sw3286B-ms98-a-0083	B.85	277.707125	278.531125		Uh-huh	uh-huh
sw3286B-ms98-a-0083	B.85	278.531125	279.242250		Right	right
sw3286B-ms98-a-0083	B.87	279.242250	279.805500		[silence]	[silence]
sw3286B-ms98-a-0084	B.87	279.805500	280.439875		[silence]	[silence]
sw3286B-ms98-a-0084	B.87	280.439875	281.453375	<SUB>	Uh-huh	um-hum
sw3286B-ms98-a-0084	B.89	281.453375	281.859375		[silence]	[silence]
sw3286B-ms98-a-0085	B.89	281.859375	289.606125		[silence]	[silence]
sw3286B-ms98-a-0086	B.89	289.606125	290.006125		[silence]	[silence]
sw3286B-ms98-a-0086	B.89	290.006125	290.346125		Yeah	yeah
sw3286B-ms98-a-0086	B.89	290.346125	290.814875		[silence]	[silence]
sw3286B-ms98-a-0087	B.89	290.814875	299.074000		[silence]	[silence]
