sw3282A-ms98-a-0001	A.1	0.000000	0.490000		[silence]	[silence]
sw3282A-ms98-a-0001	A.1	0.490000	0.660000		[noise]	[noise]
sw3282A-ms98-a-0001	A.1	0.660000	0.720000	<DEL>	---	uh
sw3282A-ms98-a-0001	A.1	0.720000	0.780000		All	all
sw3282A-ms98-a-0001	A.1	0.780000	0.920000		right	right
sw3282A-ms98-a-0001	A.1	0.920000	1.370000		Carolyn	Carolyn
sw3282A-ms98-a-0001	A.1	1.370000	1.370000	<INS>	When	---
sw3282A-ms98-a-0001	A.1	1.370000	1.450000		do	do
sw3282A-ms98-a-0001	A.1	1.450000	1.740000		you	you
sw3282A-ms98-a-0001	A.1	1.740000	1.820000		are	are
sw3282A-ms98-a-0001	A.1	1.820000	1.960000		you	you
sw3282A-ms98-a-0001	A.1	1.960000	2.220000		reading	reading
sw3282A-ms98-a-0001	A.1	2.220000	2.300000		the	the
sw3282A-ms98-a-0001	A.1	2.300000	2.740000		papers	papers
sw3282A-ms98-a-0001	A.1	2.740000	3.060000		about	about
sw3282A-ms98-a-0001	A.1	3.060000	3.340000		the	the
sw3282A-ms98-a-0001	A.1	3.340000	3.590000		the	the
sw3282A-ms98-a-0001	A.1	3.590000	3.890000		Middle	Middle
sw3282A-ms98-a-0001	A.1	3.890000	4.080000		East	East
sw3282A-ms98-a-0001	A.1	4.080000	4.630000		summit	summit
sw3282A-ms98-a-0001	A.3	4.630000	5.059500		[silence]	[silence]
sw3282A-ms98-a-0002	A.3	5.059500	6.234750		[silence]	[silence]
sw3282A-ms98-a-0003	A.3	6.234750	6.614750		[silence]	[silence]
sw3282A-ms98-a-0003	A.3	6.614750	7.134750		Yes	yes
sw3282A-ms98-a-0003	A.3	7.134750	7.364750		I'm	i'm
sw3282A-ms98-a-0003	A.3	7.364750	7.564750		just	just
sw3282A-ms98-a-0003	A.3	7.564750	7.624750		a	a
sw3282A-ms98-a-0003	A.3	7.624750	7.814750		little	little
sw3282A-ms98-a-0003	A.3	7.814750	8.014750		bit	bit
sw3282A-ms98-a-0003	A.3	8.014750	8.408875		too	too
sw3282A-ms98-a-0003	A.3	8.408875	8.913625		[silence]	[silence]
sw3282A-ms98-a-0003	A.3	8.913625	9.014750		I	i
sw3282A-ms98-a-0003	A.3	9.014750	9.264750		think	think
sw3282A-ms98-a-0003	A.3	9.264750	9.630500		um	um
sw3282A-ms98-a-0003	A.3	9.630500	9.714750		I	i
sw3282A-ms98-a-0003	A.3	9.714750	9.854750		think	think
sw3282A-ms98-a-0003	A.3	9.854750	9.904750		I	i
sw3282A-ms98-a-0003	A.3	9.904750	10.104750		was	was
sw3282A-ms98-a-0003	A.3	10.104750	10.464750		worn	worn
sw3282A-ms98-a-0003	A.3	10.464750	10.684750	<SUB>	o-	ou[t]-
sw3282A-ms98-a-0003	A.3	10.684750	11.074750		worn	worn
sw3282A-ms98-a-0003	A.3	11.074750	11.324750		out	out
sw3282A-ms98-a-0003	A.3	11.324750	11.574750		from	from
sw3282A-ms98-a-0003	A.3	11.574750	11.884750		Middle	Middle
sw3282A-ms98-a-0003	A.3	11.884750	12.134750		East	East
sw3282A-ms98-a-0003	A.3	12.134750	12.404750		after	after
sw3282A-ms98-a-0003	A.3	12.404750	12.484750		the	the
sw3282A-ms98-a-0003	A.3	12.484750	13.020875		war	war
sw3282A-ms98-a-0003	A.5	13.020875	13.396000		[silence]	[silence]
sw3282A-ms98-a-0004	A.5	13.396000	19.586750		[silence]	[silence]
sw3282A-ms98-a-0005	A.5	19.586750	20.206750		[silence]	[silence]
sw3282A-ms98-a-0005	A.5	20.206750	20.559000	<SUB>	Uh-huh	um-hum
sw3282A-ms98-a-0005	A.7	20.559000	20.880875		[silence]	[silence]
sw3282A-ms98-a-0006	A.7	20.880875	25.862625		[silence]	[silence]
sw3282A-ms98-a-0007	A.7	25.862625	26.390500		[silence]	[silence]
sw3282A-ms98-a-0007	A.7	26.390500	26.947250		Yeah	yeah
sw3282A-ms98-a-0007	A.7	26.947250	27.262625		yeah	yeah
sw3282A-ms98-a-0007	A.7	27.262625	27.388375	<SUB>	Wha-	wh[at]-
sw3282A-ms98-a-0007	A.9	27.388375	27.987250		[silence]	[silence]
sw3282A-ms98-a-0007	A.9	27.987250	28.192625		That's	that's
sw3282A-ms98-a-0007	A.9	28.192625	28.312625		I	i
sw3282A-ms98-a-0007	A.9	28.312625	28.652625		think	think
sw3282A-ms98-a-0007	A.9	28.652625	28.882625		uh	uh
sw3282A-ms98-a-0007	A.9	28.882625	29.122625		I	i
sw3282A-ms98-a-0007	A.9	29.122625	29.262625		don't	don't
sw3282A-ms98-a-0007	A.9	29.262625	29.442625		know	know
sw3282A-ms98-a-0007	A.9	29.442625	29.532625		in	in
sw3282A-ms98-a-0007	A.9	29.532625	29.592625		the	the
sw3282A-ms98-a-0007	A.9	29.592625	29.912625		short	short
sw3282A-ms98-a-0007	A.9	29.912625	30.082625		run	run
sw3282A-ms98-a-0007	A.9	30.082625	30.142625		it	it
sw3282A-ms98-a-0007	A.9	30.142625	30.252625		would	would
sw3282A-ms98-a-0007	A.9	30.252625	30.332625		be	be
sw3282A-ms98-a-0007	A.9	30.332625	30.592625		really	really
sw3282A-ms98-a-0007	A.9	30.592625	30.862625		nice	nice
sw3282A-ms98-a-0007	A.9	30.862625	30.942625		to	to
sw3282A-ms98-a-0007	A.9	30.942625	31.112625		get	get
sw3282A-ms98-a-0007	A.9	31.112625	31.172625		the	the
sw3282A-ms98-a-0007	A.9	31.172625	31.782625		hostages	hostages
sw3282A-ms98-a-0007	A.9	31.782625	31.962625		all	all
sw3282A-ms98-a-0007	A.9	31.962625	32.515500		back	back
sw3282A-ms98-a-0007	A.11	32.515500	32.809250		[silence]	[silence]
sw3282A-ms98-a-0007	A.11	32.809250	32.932625		I	i
sw3282A-ms98-a-0007	A.11	32.932625	33.122625		think	think
sw3282A-ms98-a-0007	A.11	33.122625	33.372625		that's	that's
sw3282A-ms98-a-0007	A.11	33.372625	33.682625		really	really
sw3282A-ms98-a-0007	A.11	33.682625	33.901000		uh	uh
sw3282A-ms98-a-0007	A.11	33.901000	34.281375		[silence]	[silence]
sw3282A-ms98-a-0008	A.11	34.281375	34.671750		[silence]	[silence]
sw3282A-ms98-a-0008	A.11	34.671750	34.891375		really	really
sw3282A-ms98-a-0008	A.11	34.891375	35.471375		important	important
sw3282A-ms98-a-0008	A.11	35.471375	35.564125	<SUB>	I	i-
sw3282A-ms98-a-0008	A.11	35.564125	35.771375	<SUB>	I	i-
sw3282A-ms98-a-0008	A.13	35.771375	36.047625	<SUB>	I	i-
sw3282A-ms98-a-0008	A.13	36.047625	36.173625	<DEL>	---	c[an't]-
sw3282A-ms98-a-0008	A.13	36.173625	36.541375		[silence]	[silence]
sw3282A-ms98-a-0008	A.13	36.541375	36.591375		I	i
sw3282A-ms98-a-0008	A.13	36.591375	36.893375		guess	guess
sw3282A-ms98-a-0008	A.13	36.893375	37.096750		[silence]	[silence]
sw3282A-ms98-a-0008	A.13	37.096750	37.291375		we	we
sw3282A-ms98-a-0008	A.13	37.291375	37.421375		grew	grew
sw3282A-ms98-a-0008	A.13	37.421375	37.601375		up	up
sw3282A-ms98-a-0008	A.13	37.601375	37.691375		in	in
sw3282A-ms98-a-0008	A.13	37.691375	37.901375		such	such
sw3282A-ms98-a-0008	A.13	37.901375	37.941375		a	a
sw3282A-ms98-a-0008	A.13	37.941375	38.231375		different	different
sw3282A-ms98-a-0008	A.13	38.231375	38.461375		world	world
sw3282A-ms98-a-0008	A.13	38.461375	38.541375		I	i
sw3282A-ms98-a-0008	A.13	38.541375	38.701375		could	could
sw3282A-ms98-a-0008	A.13	38.701375	38.901375		never	never
sw3282A-ms98-a-0008	A.13	38.901375	39.091375		even	even
sw3282A-ms98-a-0008	A.13	39.091375	39.561375		imagine	imagine
sw3282A-ms98-a-0008	A.13	39.561375	39.951375		taking	taking
sw3282A-ms98-a-0008	A.13	39.951375	40.642500		hostages	hostages
sw3282A-ms98-a-0008	A.15	40.642500	40.952875		[silence]	[silence]
sw3282A-ms98-a-0009	A.15	40.952875	41.232875		[silence]	[silence]
sw3282A-ms98-a-0009	A.15	41.232875	41.332875		But	but
sw3282A-ms98-a-0009	A.15	41.332875	41.412875		I	i
sw3282A-ms98-a-0009	A.15	41.412875	41.677125		think	think
sw3282A-ms98-a-0009	A.15	41.677125	41.864250		[silence]	[silence]
sw3282A-ms98-a-0009	A.15	41.864250	42.002875		they	they
sw3282A-ms98-a-0009	A.15	42.002875	42.222875		just	just
sw3282A-ms98-a-0009	A.15	42.222875	42.392875		have	have
sw3282A-ms98-a-0009	A.15	42.392875	42.432875		a	a
sw3282A-ms98-a-0009	A.15	42.432875	42.622875		whole	whole
sw3282A-ms98-a-0009	A.15	42.622875	43.022875		different	different
sw3282A-ms98-a-0009	A.15	43.022875	43.362875		world	world
sw3282A-ms98-a-0009	A.15	43.362875	43.532875		than	than
sw3282A-ms98-a-0009	A.15	43.532875	43.652875		we	we
sw3282A-ms98-a-0009	A.15	43.652875	43.902875		do	do
sw3282A-ms98-a-0009	A.15	43.902875	44.297125		so	so
sw3282A-ms98-a-0009	A.15	44.297125	44.993875		[silence]	[silence]
sw3282A-ms98-a-0009	A.15	44.993875	45.102875		I	i
sw3282A-ms98-a-0009	A.15	45.102875	45.262875		don't	don't
sw3282A-ms98-a-0009	A.15	45.262875	45.422875		know	know
sw3282A-ms98-a-0009	A.15	45.422875	45.722875		But	but
sw3282A-ms98-a-0009	A.15	45.722875	45.782875		I	i
sw3282A-ms98-a-0009	A.15	45.782875	45.922875		don't	don't
sw3282A-ms98-a-0009	A.15	45.922875	46.012875		know	know
sw3282A-ms98-a-0009	A.15	46.012875	46.112875		what	what
sw3282A-ms98-a-0009	A.15	46.112875	46.172875		do	do
sw3282A-ms98-a-0009	A.15	46.172875	46.232875		you	you
sw3282A-ms98-a-0009	A.15	46.232875	46.432875		think	think
sw3282A-ms98-a-0009	A.15	46.432875	46.622875		some	some
sw3282A-ms98-a-0009	A.15	46.622875	46.752875		of	of
sw3282A-ms98-a-0009	A.15	46.752875	46.832875		the	the
sw3282A-ms98-a-0009	A.15	46.832875	47.032875		long	long
sw3282A-ms98-a-0009	A.15	47.032875	47.352875		term	term
sw3282A-ms98-a-0009	A.15	47.352875	48.072875		repercussions	repercussions
sw3282A-ms98-a-0009	A.15	48.072875	48.322875		might	might
sw3282A-ms98-a-0009	A.15	48.322875	48.699625		be	be
sw3282A-ms98-a-0009	A.17	48.699625	49.005875		[silence]	[silence]
sw3282A-ms98-a-0010	A.17	49.005875	63.667375		[silence]	[silence]
sw3282A-ms98-a-0011	A.17	63.667375	64.097375		[silence]	[silence]
sw3282A-ms98-a-0011	A.17	64.097375	64.315500	<SUB>	Uh-huh	um
sw3282A-ms98-a-0011	A.19	64.315500	64.664875		[silence]	[silence]
sw3282A-ms98-a-0012	A.19	64.664875	65.673000		[silence]	[silence]
sw3282A-ms98-a-0013	A.19	65.673000	66.083000		[silence]	[silence]
sw3282A-ms98-a-0013	A.19	66.083000	66.492875		Yeah	yeah
sw3282A-ms98-a-0013	A.21	66.492875	66.748000		[silence]	[silence]
sw3282A-ms98-a-0014	A.21	66.748000	70.956125		[silence]	[silence]
sw3282A-ms98-a-0015	A.21	70.956125	71.305875		[silence]	[silence]
sw3282A-ms98-a-0015	A.21	71.305875	71.663500	<SUB>	Uh-huh	um-hum
sw3282A-ms98-a-0015	A.23	71.663500	72.017250		[silence]	[silence]
sw3282A-ms98-a-0016	A.23	72.017250	77.780250		[silence]	[silence]
sw3282A-ms98-a-0017	A.23	77.780250	78.260250		[silence]	[silence]
sw3282A-ms98-a-0017	A.23	78.260250	78.390250		Yeah	yeah
sw3282A-ms98-a-0017	A.23	78.390250	78.470250		I	i
sw3282A-ms98-a-0017	A.23	78.470250	78.770250		think	think
sw3282A-ms98-a-0017	A.23	78.770250	79.040250		um	um
sw3282A-ms98-a-0017	A.23	79.040250	79.406625		[silence]	[silence]
sw3282A-ms98-a-0018	A.23	79.406625	79.748375		[silence]	[silence]
sw3282A-ms98-a-0018	A.23	79.748375	79.866625		I	i
sw3282A-ms98-a-0018	A.23	79.866625	79.996625		don't	don't
sw3282A-ms98-a-0018	A.23	79.996625	80.166625		know	know
sw3282A-ms98-a-0018	A.23	80.166625	80.206625		I	i
sw3282A-ms98-a-0018	A.23	80.206625	80.376625		have	have
sw3282A-ms98-a-0018	A.23	80.376625	80.536625		uh	uh
sw3282A-ms98-a-0018	A.23	80.536625	80.686625		I	i
sw3282A-ms98-a-0018	A.23	80.686625	80.886625		just	just
sw3282A-ms98-a-0018	A.23	80.886625	81.056625		have	have
sw3282A-ms98-a-0018	A.23	81.056625	81.376625		this	this
sw3282A-ms98-a-0018	A.23	81.376625	81.706625		this	this
sw3282A-ms98-a-0018	A.23	81.706625	82.086625		civil	civil
sw3282A-ms98-a-0018	A.23	82.086625	82.635875		rights	rights
sw3282A-ms98-a-0018	A.23	82.635875	82.948500		[silence]	[silence]
sw3282A-ms98-a-0018	A.23	82.948500	83.646625		mentality	mentality
sw3282A-ms98-a-0018	A.23	83.646625	83.886625	<SUB>	I	i-
sw3282A-ms98-a-0018	A.23	83.886625	83.956625		I	i
sw3282A-ms98-a-0018	A.23	83.956625	84.326625		guess	guess
sw3282A-ms98-a-0018	A.23	84.326625	84.396625		You	you
sw3282A-ms98-a-0018	A.23	84.396625	84.486625		know	know
sw3282A-ms98-a-0018	A.23	84.486625	84.716625		should	should
sw3282A-ms98-a-0018	A.23	84.716625	84.935375		we	we
sw3282A-ms98-a-0018	A.23	84.935375	85.312000		[silence]	[silence]
sw3282A-ms98-a-0018	A.23	85.312000	85.466625		or	or
sw3282A-ms98-a-0018	A.23	85.466625	85.877750		or	or
sw3282A-ms98-a-0018	A.23	85.877750	86.106625		you	you
sw3282A-ms98-a-0018	A.23	86.106625	86.196625		know	know
sw3282A-ms98-a-0018	A.23	86.196625	86.485250	<SUB>	sho-	sh[ould]-
sw3282A-ms98-a-0018	A.23	86.485250	86.699875		[silence]	[silence]
sw3282A-ms98-a-0018	A.23	86.699875	86.946625		should	should
sw3282A-ms98-a-0018	A.23	86.946625	87.373750		we	we
sw3282A-ms98-a-0018	A.23	87.373750	87.652000		[silence]	[silence]
sw3282A-ms98-a-0019	A.23	87.652000	88.012000		[silence]	[silence]
sw3282A-ms98-a-0019	A.23	88.012000	88.092000		uh	uh
sw3282A-ms98-a-0019	A.23	88.092000	88.402000		those	those
sw3282A-ms98-a-0019	A.23	88.402000	88.512000		I	i
sw3282A-ms98-a-0019	A.23	88.512000	88.752000		wish	wish
sw3282A-ms98-a-0019	A.23	88.752000	88.952000		those	those
sw3282A-ms98-a-0019	A.23	88.952000	89.696750		countries	countries
sw3282A-ms98-a-0019	A.23	89.696750	90.111125		[silence]	[silence]
sw3282A-ms98-a-0019	A.23	90.111125	90.730375		could	could
sw3282A-ms98-a-0019	A.23	90.730375	91.052000		have	have
sw3282A-ms98-a-0019	A.23	91.052000	91.142000		the	the
sw3282A-ms98-a-0019	A.23	91.142000	91.632000		same	same
sw3282A-ms98-a-0019	A.23	91.632000	91.982000		type	type
sw3282A-ms98-a-0019	A.23	91.982000	92.192000		of	of
sw3282A-ms98-a-0019	A.23	92.192000	93.072000		freedoms	freedoms
sw3282A-ms98-a-0019	A.23	93.072000	93.142000		or	or
sw3282A-ms98-a-0019	A.23	93.142000	93.462000		whatever	whatever
sw3282A-ms98-a-0019	A.23	93.462000	93.582000		that	that
sw3282A-ms98-a-0019	A.23	93.582000	93.752000		we	we
sw3282A-ms98-a-0019	A.23	93.752000	94.052500		do	do
sw3282A-ms98-a-0019	A.25	94.052500	94.470375		[silence]	[silence]
sw3282A-ms98-a-0020	A.25	94.470375	94.790375		[silence]	[silence]
sw3282A-ms98-a-0020	A.25	94.790375	94.880375	<DEL>	---	and
sw3282A-ms98-a-0020	A.25	94.880375	94.930375		I	i
sw3282A-ms98-a-0020	A.25	94.930375	95.120375		guess	guess
sw3282A-ms98-a-0020	A.25	95.120375	95.390375		that's	that's
sw3282A-ms98-a-0020	A.25	95.390375	95.560375		what	what
sw3282A-ms98-a-0020	A.25	95.560375	95.807375	<SUB>	I	i-
sw3282A-ms98-a-0020	A.25	95.807375	95.990375		I	i
sw3282A-ms98-a-0020	A.25	95.990375	96.230375		hope	hope
sw3282A-ms98-a-0020	A.25	96.230375	96.410375		for	for
sw3282A-ms98-a-0020	A.25	96.410375	96.660375		them	them
sw3282A-ms98-a-0020	A.25	96.660375	96.932375		But	but
sw3282A-ms98-a-0020	A.25	96.932375	97.220375		some	some
sw3282A-ms98-a-0020	A.25	97.220375	97.300375		of	of
sw3282A-ms98-a-0020	A.25	97.300375	97.390375		them	them
sw3282A-ms98-a-0020	A.25	97.390375	97.600375		don't	don't
sw3282A-ms98-a-0020	A.25	97.600375	97.820375		want	want
sw3282A-ms98-a-0020	A.25	97.820375	98.050375		those	those
sw3282A-ms98-a-0020	A.25	98.050375	98.480375		freedoms	freedoms
sw3282A-ms98-a-0020	A.25	98.480375	98.590375		I	i
sw3282A-ms98-a-0020	A.25	98.590375	98.930375		think	think
sw3282A-ms98-a-0020	A.25	98.930375	99.182875		Their	their
sw3282A-ms98-a-0020	A.25	99.182875	99.540625		[silence]	[silence]
sw3282A-ms98-a-0020	A.25	99.540625	99.720375		their	their
sw3282A-ms98-a-0020	A.25	99.720375	100.180375		religious	religious
sw3282A-ms98-a-0020	A.25	100.180375	100.770375		beliefs	beliefs
sw3282A-ms98-a-0020	A.25	100.770375	101.020375		may	may
sw3282A-ms98-a-0020	A.25	101.020375	101.330375		um	um
sw3282A-ms98-a-0020	A.25	101.330375	101.823250		[silence]	[silence]
sw3282A-ms98-a-0021	A.25	101.823250	102.363250		[silence]	[silence]
sw3282A-ms98-a-0021	A.25	102.363250	102.533250		may	may
sw3282A-ms98-a-0021	A.25	102.533250	103.009750		not	not
sw3282A-ms98-a-0021	A.25	103.009750	103.420250		[silence]	[silence]
sw3282A-ms98-a-0021	A.25	103.420250	103.503250		you	you
sw3282A-ms98-a-0021	A.25	103.503250	103.593250		know	know
sw3282A-ms98-a-0021	A.25	103.593250	103.713250		they	they
sw3282A-ms98-a-0021	A.25	103.713250	103.863250		may	may
sw3282A-ms98-a-0021	A.25	103.863250	104.103250		not	not
sw3282A-ms98-a-0021	A.25	104.103250	104.383250		want	want
sw3282A-ms98-a-0021	A.25	104.383250	104.483250		it	it
sw3282A-ms98-a-0021	A.25	104.483250	104.653250		as	as
sw3282A-ms98-a-0021	A.25	104.653250	104.713250		a	a
sw3282A-ms98-a-0021	A.25	104.713250	105.073250		whole	whole
sw3282A-ms98-a-0021	A.25	105.073250	105.213250		so	so
sw3282A-ms98-a-0021	A.25	105.213250	105.263250		I	i
sw3282A-ms98-a-0021	A.25	105.263250	105.473250		think	think
sw3282A-ms98-a-0021	A.25	105.473250	105.653250		that's	that's
sw3282A-ms98-a-0021	A.25	105.653250	105.943250		something	something
sw3282A-ms98-a-0021	A.25	105.943250	106.033250		that	that
sw3282A-ms98-a-0021	A.25	106.033250	106.123250		has	has
sw3282A-ms98-a-0021	A.25	106.123250	106.183250		to	to
sw3282A-ms98-a-0021	A.25	106.183250	106.263250		be	be
sw3282A-ms98-a-0021	A.25	106.263250	106.743250		considered	considered
sw3282A-ms98-a-0021	A.25	106.743250	107.102875		too	too
sw3282A-ms98-a-0021	A.27	107.102875	107.585000		[silence]	[silence]
sw3282A-ms98-a-0021	A.27	107.585000	107.743250		But	but
sw3282A-ms98-a-0021	A.27	107.743250	107.793250		I	i
sw3282A-ms98-a-0021	A.27	107.793250	107.993250		think	think
sw3282A-ms98-a-0021	A.27	107.993250	108.243250		that's	that's
sw3282A-ms98-a-0021	A.27	108.243250	108.463250		a	a
sw3282A-ms98-a-0021	A.27	108.463250	108.703250		that's	that's
sw3282A-ms98-a-0021	A.27	108.703250	108.863250		really	really
sw3282A-ms98-a-0021	A.27	108.863250	108.913250		a	a
sw3282A-ms98-a-0021	A.27	108.913250	109.313250		long	long
sw3282A-ms98-a-0021	A.27	109.313250	109.713250		term	term
sw3282A-ms98-a-0021	A.27	109.713250	110.145750		[silence]	[silence]
sw3282A-ms98-a-0022	A.27	110.145750	110.485750		[silence]	[silence]
sw3282A-ms98-a-0022	A.27	110.485750	110.775750		type	type
sw3282A-ms98-a-0022	A.27	110.775750	111.045750		thing	thing
sw3282A-ms98-a-0022	A.27	111.045750	111.085750		I	i
sw3282A-ms98-a-0022	A.27	111.085750	111.265750	<DEL>	---	don't
sw3282A-ms98-a-0022	A.27	111.265750	111.335750		know	know
sw3282A-ms98-a-0022	A.27	111.335750	111.335750	<INS>	that	---
sw3282A-ms98-a-0022	A.27	111.335750	111.542125		the	the
sw3282A-ms98-a-0022	A.27	111.542125	111.798250		[silence]	[silence]
sw3282A-ms98-a-0022	A.27	111.798250	111.945750		the	the
sw3282A-ms98-a-0022	A.27	111.945750	112.075750		it	it
sw3282A-ms98-a-0022	A.27	112.075750	112.475750		said	said
sw3282A-ms98-a-0022	A.27	112.475750	112.655750		think	think
sw3282A-ms98-a-0022	A.27	112.655750	112.967625		about	about
sw3282A-ms98-a-0022	A.27	112.967625	113.345750		long	long
sw3282A-ms98-a-0022	A.27	113.345750	113.665750		term	term
sw3282A-ms98-a-0022	A.27	113.665750	114.425750		repercussions	repercussions
sw3282A-ms98-a-0022	A.27	114.425750	114.515750		and	and
sw3282A-ms98-a-0022	A.27	114.515750	114.605750		I	i
sw3282A-ms98-a-0022	A.27	114.605750	114.905750		was	was
sw3282A-ms98-a-0022	A.27	114.905750	115.075750		just	just
sw3282A-ms98-a-0022	A.27	115.075750	115.459625		thinking	thinking
sw3282A-ms98-a-0022	A.27	115.459625	115.753375		[silence]	[silence]
sw3282A-ms98-a-0022	A.27	115.753375	115.935750		well	well
sw3282A-ms98-a-0022	A.27	115.935750	116.205750		peace	peace
sw3282A-ms98-a-0022	A.27	116.205750	116.335750		is	is
sw3282A-ms98-a-0022	A.27	116.335750	116.953250		peace	peace
sw3282A-ms98-a-0022	A.29	116.953250	117.190500		[silence]	[silence]
sw3282A-ms98-a-0022	A.29	117.190500	117.425750		you	you
sw3282A-ms98-a-0022	A.29	117.425750	117.615750		know	know
sw3282A-ms98-a-0022	A.29	117.615750	117.705750		and	and
sw3282A-ms98-a-0022	A.29	117.705750	117.885750	<SUB>	that	that's
sw3282A-ms98-a-0022	A.29	117.885750	118.205750		really	really
sw3282A-ms98-a-0022	A.29	118.205750	118.295750		is	is
sw3282A-ms98-a-0022	A.29	118.295750	118.375750		the	the
sw3282A-ms98-a-0022	A.29	118.375750	118.895750		nicest	nicest
sw3282A-ms98-a-0022	A.29	118.895750	119.102625		thing	thing
sw3282A-ms98-a-0022	A.31	119.102625	119.385250		[silence]	[silence]
sw3282A-ms98-a-0023	A.31	119.385250	125.395500		[silence]	[silence]
sw3282A-ms98-a-0024	A.31	125.395500	125.597625		[silence]	[silence]
sw3282A-ms98-a-0024	A.31	125.597625	126.218250	<SUB>	Uh-huh	um-hum
sw3282A-ms98-a-0024	A.31	126.218250	126.442375		[silence]	[silence]
sw3282A-ms98-a-0024	A.31	126.442375	126.834375		yeah	yeah
sw3282A-ms98-a-0024	A.33	126.834375	127.254625		[silence]	[silence]
sw3282A-ms98-a-0025	A.33	127.254625	128.873250		[silence]	[silence]
sw3282A-ms98-a-0026	A.33	128.873250	129.413250		[silence]	[silence]
sw3282A-ms98-a-0026	A.33	129.413250	129.733250		Yeah	yeah
sw3282A-ms98-a-0026	A.35	129.733250	130.177875		[silence]	[silence]
sw3282A-ms98-a-0027	A.35	130.177875	132.580250		[silence]	[silence]
sw3282A-ms98-a-0028	A.35	132.580250	133.030250		[silence]	[silence]
sw3282A-ms98-a-0028	A.35	133.030250	133.336375	<SUB>	Uh-huh	um-hum
sw3282A-ms98-a-0028	A.37	133.336375	133.686375		[silence]	[silence]
sw3282A-ms98-a-0029	A.37	133.686375	141.580625		[silence]	[silence]
sw3282A-ms98-a-0030	A.37	141.580625	141.954500		[silence]	[silence]
sw3282A-ms98-a-0030	A.37	141.954500	143.233500		Yeah	[laughter-yeah]
sw3282A-ms98-a-0030	A.37	143.233500	143.670625	<SUB>	Yeah	yes
sw3282A-ms98-a-0030	A.39	143.670625	143.800625	<SUB>	I	i-
sw3282A-ms98-a-0030	A.39	143.800625	143.980625		I	i
sw3282A-ms98-a-0030	A.39	143.980625	144.170625		think	think
sw3282A-ms98-a-0030	A.39	144.170625	144.570625		so	so
sw3282A-ms98-a-0030	A.39	144.570625	144.640625		I	i
sw3282A-ms98-a-0030	A.39	144.640625	144.930625		think	think
sw3282A-ms98-a-0030	A.39	144.930625	145.210625		um	um
sw3282A-ms98-a-0030	A.41	145.210625	145.210625	<INS>	And	---
sw3282A-ms98-a-0030	A.43	145.210625	145.613750		[silence]	[silence]
sw3282A-ms98-a-0031	A.43	145.613750	152.717875		[silence]	[silence]
sw3282A-ms98-a-0032	A.43	152.717875	152.877875		[silence]	[silence]
sw3282A-ms98-a-0032	A.43	152.877875	153.147375		Right	right
sw3282A-ms98-a-0032	A.43	153.147375	153.696500		[silence]	[silence]
sw3282A-ms98-a-0032	A.43	153.696500	153.887875		I	i
sw3282A-ms98-a-0032	A.43	153.887875	154.157875		think	think
sw3282A-ms98-a-0032	A.43	154.157875	154.297875		I	i
sw3282A-ms98-a-0032	A.43	154.297875	154.487875		think	think
sw3282A-ms98-a-0032	A.43	154.487875	154.607875		they	they
sw3282A-ms98-a-0032	A.43	154.607875	155.097875		realized	realized
sw3282A-ms98-a-0032	A.43	155.097875	155.207875		we	we
sw3282A-ms98-a-0032	A.43	155.207875	155.377875		would	would
sw3282A-ms98-a-0032	A.43	155.377875	155.667875		probably	probably
sw3282A-ms98-a-0032	A.43	155.667875	156.027875		never	never
sw3282A-ms98-a-0032	A.43	156.027875	156.317875		push	push
sw3282A-ms98-a-0032	A.43	156.317875	156.517875		him	him
sw3282A-ms98-a-0032	A.43	156.517875	156.935375		out	out
sw3282A-ms98-a-0032	A.43	156.935375	157.300750		[silence]	[silence]
sw3282A-ms98-a-0032	A.43	157.300750	157.767875		and	and
sw3282A-ms98-a-0032	A.43	157.767875	158.127875		uh	uh
sw3282A-ms98-a-0032	A.43	158.127875	158.217875		I	i
sw3282A-ms98-a-0032	A.43	158.217875	158.512750		think	think
sw3282A-ms98-a-0032	A.43	158.512750	158.817875		[silence]	[silence]
sw3282A-ms98-a-0032	A.43	158.817875	159.017875		the	the
sw3282A-ms98-a-0032	A.43	159.017875	159.427875		other	other
sw3282A-ms98-a-0032	A.43	159.427875	160.027875		probably	probably
sw3282A-ms98-a-0032	A.43	160.027875	160.257875		all	all
sw3282A-ms98-a-0032	A.43	160.257875	160.517875		of	of
sw3282A-ms98-a-0032	A.43	160.517875	160.587875		the	the
sw3282A-ms98-a-0032	A.43	160.587875	160.797875		other	other
sw3282A-ms98-a-0032	A.43	160.797875	161.097875		Arab	Arab
sw3282A-ms98-a-0032	A.43	161.097875	161.537875		countries	countries
sw3282A-ms98-a-0032	A.43	161.537875	161.777875		said	said
sw3282A-ms98-a-0032	A.43	161.777875	161.877875		that	that
sw3282A-ms98-a-0032	A.43	161.877875	162.017875		we	we
sw3282A-ms98-a-0032	A.43	162.017875	162.147875		were	were
sw3282A-ms98-a-0032	A.43	162.147875	162.387875		sort	sort
sw3282A-ms98-a-0032	A.43	162.387875	162.477875		of	of
sw3282A-ms98-a-0032	A.43	162.477875	162.817875		wimpy	wimpy
sw3282A-ms98-a-0032	A.43	162.817875	162.947875		for	for
sw3282A-ms98-a-0032	A.43	162.947875	163.217875		not	not
sw3282A-ms98-a-0032	A.43	163.217875	163.617875		forcing	forcing
sw3282A-ms98-a-0032	A.43	163.617875	163.787875		him	him
sw3282A-ms98-a-0032	A.43	163.787875	163.997875		out	out
sw3282A-ms98-a-0032	A.45	163.997875	164.793625	<DEL>	---	because_1
sw3282A-ms98-a-0032	A.45	164.793625	165.143375		[silence]	[silence]
sw3282A-ms98-a-0033	A.45	165.143375	167.018500		[silence]	[silence]
sw3282A-ms98-a-0034	A.45	167.018500	167.468500		[silence]	[silence]
sw3282A-ms98-a-0034	A.45	167.468500	167.888500	<SUN|B>	Uh-huh	um-hum
sw3282A-ms98-a-0034	A.47	167.888500	168.303500		[silence]	[silence]
sw3282A-ms98-a-0035	A.47	168.303500	169.781375		[silence]	[silence]
sw3282A-ms98-a-0036	A.47	169.781375	170.141250		[silence]	[silence]
sw3282A-ms98-a-0036	A.47	170.141250	170.535750		Yeah	yeah
sw3282A-ms98-a-0036	A.47	170.535750	170.713875		[silence]	[silence]
sw3282A-ms98-a-0036	A.47	170.713875	170.921375		yep	yep
sw3282A-ms98-a-0036	A.49	170.921375	171.500625		[silence]	[silence]
sw3282A-ms98-a-0037	A.49	171.500625	177.445375		[silence]	[silence]
sw3282A-ms98-a-0038	A.49	177.445375	177.885375		[silence]	[silence]
sw3282A-ms98-a-0038	A.49	177.885375	178.205375	<SUB>	Uh-huh	um-hum
sw3282A-ms98-a-0038	A.51	178.205375	178.627875		[silence]	[silence]
sw3282A-ms98-a-0039	A.51	178.627875	181.842000		[silence]	[silence]
sw3282A-ms98-a-0040	A.51	181.842000	182.262000		[silence]	[silence]
sw3282A-ms98-a-0040	A.51	182.262000	182.584750		Yeah	yeah
sw3282A-ms98-a-0040	A.51	182.584750	183.281125		[silence]	[silence]
sw3282A-ms98-a-0041	A.51	183.281125	183.436375		[silence]	[silence]
sw3282A-ms98-a-0041	A.51	183.436375	183.571125	<SUB>	I	i-
sw3282A-ms98-a-0041	A.51	183.571125	183.741125		I	i
sw3282A-ms98-a-0041	A.51	183.741125	184.038000		think	think
sw3282A-ms98-a-0041	A.51	184.038000	184.261125		the	the
sw3282A-ms98-a-0041	A.51	184.261125	184.351125		the	the
sw3282A-ms98-a-0041	A.51	184.351125	184.691125		thing	thing
sw3282A-ms98-a-0041	A.51	184.691125	184.871125		is	is
sw3282A-ms98-a-0041	A.51	184.871125	185.091125		though	though
sw3282A-ms98-a-0041	A.51	185.091125	185.211125	<SUB>	I	i-
sw3282A-ms98-a-0041	A.51	185.211125	185.451125		I	i
sw3282A-ms98-a-0041	A.51	185.451125	185.765375		guess	guess
sw3282A-ms98-a-0041	A.51	185.765375	186.120875		[silence]	[silence]
sw3282A-ms98-a-0042	A.51	186.120875	186.690875		[silence]	[silence]
sw3282A-ms98-a-0042	A.51	186.690875	187.260500		the	the
sw3282A-ms98-a-0042	A.51	187.260500	187.500000		[silence]	[silence]
sw3282A-ms98-a-0043	A.51	187.500000	187.850000		[silence]	[silence]
sw3282A-ms98-a-0043	A.51	187.850000	187.910000		the	the
sw3282A-ms98-a-0043	A.51	187.910000	188.270000		Arab	Arab
sw3282A-ms98-a-0043	A.51	188.270000	188.960000		countries	countries
sw3282A-ms98-a-0043	A.51	188.960000	189.190000		that	that
sw3282A-ms98-a-0043	A.51	189.190000	189.360000		[silence]	[silence]
sw3282A-ms98-a-0043	A.51	189.360000	189.620000		used	used
sw3282A-ms98-a-0043	A.51	189.620000	189.969250		to	to
sw3282A-ms98-a-0043	A.51	189.969250	190.135000		[silence]	[silence]
sw3282A-ms98-a-0043	A.51	190.135000	190.470000		argue	argue
sw3282A-ms98-a-0043	A.51	190.470000	190.670000		with	with
sw3282A-ms98-a-0043	A.51	190.670000	190.840000		us	us
sw3282A-ms98-a-0043	A.51	190.840000	191.020000		or	or
sw3282A-ms98-a-0043	A.51	191.020000	191.440000		not	not
sw3282A-ms98-a-0043	A.51	191.440000	192.088000		support	support
sw3282A-ms98-a-0043	A.51	192.088000	192.410000		any	any
sw3282A-ms98-a-0043	A.51	192.410000	193.207750		i-	i[deas]-
sw3282A-ms98-a-0043	A.51	193.207750	194.250000		ideas	ideas
sw3282A-ms98-a-0043	A.51	194.250000	194.437375		that	that
sw3282A-ms98-a-0043	A.51	194.437375	194.708625		[silence]	[silence]
sw3282A-ms98-a-0043	A.51	194.708625	194.860000		that	that
sw3282A-ms98-a-0043	A.51	194.860000	195.300000		coincide	coincide
sw3282A-ms98-a-0043	A.51	195.300000	195.470000		with	with
sw3282A-ms98-a-0043	A.51	195.470000	195.600000		the	the
sw3282A-ms98-a-0043	A.51	195.600000	195.910000		the	the
sw3282A-ms98-a-0043	A.51	195.910000	196.400000	<CONT>	U	US
sw3282A-ms98-a-0043	A.51	196.400000	196.400000	<CONT>	S	+++
sw3282A-ms98-a-0043	A.51	196.400000	196.890000		ideas	ideas
sw3282A-ms98-a-0043	A.51	196.890000	196.970000		or	or
sw3282A-ms98-a-0043	A.51	196.970000	197.306125		whatever	whatever
sw3282A-ms98-a-0043	A.51	197.306125	197.648875		[silence]	[silence]
sw3282A-ms98-a-0043	A.51	197.648875	197.860000		used	used
sw3282A-ms98-a-0043	A.51	197.860000	197.990000		to	to
sw3282A-ms98-a-0043	A.51	197.990000	198.380000		probably	probably
sw3282A-ms98-a-0043	A.51	198.380000	198.750000		receive	receive
sw3282A-ms98-a-0043	A.51	198.750000	198.990000		money	money
sw3282A-ms98-a-0043	A.51	198.990000	199.160000		from	from
sw3282A-ms98-a-0043	A.51	199.160000	199.220000		the	the
sw3282A-ms98-a-0043	A.51	199.220000	199.660000		Soviet	Soviet
sw3282A-ms98-a-0043	A.51	199.660000	200.172375		Union	Union
sw3282A-ms98-a-0043	A.53	200.172375	200.441250		[silence]	[silence]
sw3282A-ms98-a-0044	A.53	200.441250	200.701250		[silence]	[silence]
sw3282A-ms98-a-0044	A.53	200.701250	200.791250		And	and
sw3282A-ms98-a-0044	A.53	200.791250	200.851250		I	i
sw3282A-ms98-a-0044	A.53	200.851250	201.061250		guess	guess
sw3282A-ms98-a-0044	A.53	201.061250	201.291250		that's	that's
sw3282A-ms98-a-0044	A.53	201.291250	201.471250		all	all
sw3282A-ms98-a-0044	A.53	201.471250	201.859250		gone	gone
sw3282A-ms98-a-0044	A.53	201.859250	202.345125		[silence]	[silence]
sw3282A-ms98-a-0044	A.53	202.345125	202.521250		I	i
sw3282A-ms98-a-0044	A.53	202.521250	202.731250		think	think
sw3282A-ms98-a-0044	A.53	202.731250	202.951250		that's	that's
sw3282A-ms98-a-0044	A.53	202.951250	203.411250		really	really
sw3282A-ms98-a-0044	A.53	203.411250	203.690625		uh	uh
sw3282A-ms98-a-0044	A.53	203.690625	204.063500		[silence]	[silence]
sw3282A-ms98-a-0044	A.53	204.063500	204.331250		probably	probably
sw3282A-ms98-a-0044	A.53	204.331250	204.451250		what	what
sw3282A-ms98-a-0044	A.53	204.451250	204.791250		started	started
sw3282A-ms98-a-0044	A.53	204.791250	204.851250		the	the
sw3282A-ms98-a-0044	A.53	204.851250	205.001250		whole	whole
sw3282A-ms98-a-0044	A.53	205.001250	205.626875		process	process
sw3282A-ms98-a-0044	A.55	205.626875	206.555375		[laughter]	[laughter]
sw3282A-ms98-a-0044	A.55	206.555375	207.245625		I	i
sw3282A-ms98-a-0044	A.57	207.245625	207.847875		[silence]	[silence]
sw3282A-ms98-a-0045	A.57	207.847875	208.667875		[silence]	[silence]
sw3282A-ms98-a-0045	A.57	208.667875	209.018625		Yeah	yeah
sw3282A-ms98-a-0045	A.59	209.018625	209.452625		[silence]	[silence]
sw3282A-ms98-a-0046	A.59	209.452625	209.808750		[silence]	[silence]
sw3282A-ms98-a-0046	A.59	209.808750	209.912375		I	i
sw3282A-ms98-a-0046	A.59	209.912375	210.088500		think	think
sw3282A-ms98-a-0046	A.59	210.088500	210.404125		[silence]	[silence]
sw3282A-ms98-a-0046	A.59	210.404125	210.610625		I	i
sw3282A-ms98-a-0046	A.59	210.610625	210.738750		think	think
sw3282A-ms98-a-0046	A.59	210.738750	211.012625		that	that
sw3282A-ms98-a-0046	A.59	211.012625	211.212625		they're	they're
sw3282A-ms98-a-0046	A.59	211.212625	211.392625		s-	s[o]-
sw3282A-ms98-a-0046	A.59	211.392625	211.552625		they're	they're
sw3282A-ms98-a-0046	A.59	211.552625	211.712625		so	so
sw3282A-ms98-a-0046	A.59	211.712625	211.932625		much	much
sw3282A-ms98-a-0046	A.59	211.932625	212.092625		more	more
sw3282A-ms98-a-0046	A.59	212.092625	212.632625		vulnerable	vulnerable
sw3282A-ms98-a-0046	A.59	212.632625	212.852625		now	now
sw3282A-ms98-a-0046	A.59	212.852625	213.142625		because	because
sw3282A-ms98-a-0046	A.59	213.142625	213.252625		they	they
sw3282A-ms98-a-0046	A.59	213.252625	213.502625		don't	don't
sw3282A-ms98-a-0046	A.59	213.502625	213.822625		receive	receive
sw3282A-ms98-a-0046	A.59	213.822625	214.532625		support	support
sw3282A-ms98-a-0046	A.61	214.532625	214.753375		[silence]	[silence]
sw3282A-ms98-a-0047	A.61	214.753375	214.963375		[silence]	[silence]
sw3282A-ms98-a-0047	A.61	214.963375	215.133375		from	from
sw3282A-ms98-a-0047	A.61	215.133375	215.193375		the	the
sw3282A-ms98-a-0047	A.61	215.193375	215.573375		Soviet	Soviet
sw3282A-ms98-a-0047	A.61	215.573375	215.943375		Union	Union
sw3282A-ms98-a-0047	A.61	215.943375	216.103375		so	so
sw3282A-ms98-a-0047	A.61	216.103375	216.173375		I	i
sw3282A-ms98-a-0047	A.61	216.173375	216.433375		guess	guess
sw3282A-ms98-a-0047	A.61	216.433375	216.563375		they're	they're
sw3282A-ms98-a-0047	A.61	216.563375	216.913375		saying	saying
sw3282A-ms98-a-0047	A.61	216.913375	217.268000		well	well
sw3282A-ms98-a-0047	A.61	217.268000	217.723750		[silence]	[silence]
sw3282A-ms98-a-0047	A.61	217.723750	217.823375		you	you
sw3282A-ms98-a-0047	A.61	217.823375	217.893375		know	know
sw3282A-ms98-a-0047	A.61	217.893375	218.053375		we	we
sw3282A-ms98-a-0047	A.61	218.053375	218.427125		can	can
sw3282A-ms98-a-0047	A.61	218.427125	218.702125		[silence]	[silence]
sw3282A-ms98-a-0047	A.61	218.702125	219.003375		eat	eat
sw3282A-ms98-a-0047	A.61	219.003375	219.163375		two	two
sw3282A-ms98-a-0047	A.61	219.163375	219.863375		ways	ways
sw3282A-ms98-a-0047	A.61	219.863375	220.083375		or	or
sw3282A-ms98-a-0047	A.61	220.083375	220.213375		we	we
sw3282A-ms98-a-0047	A.61	220.213375	220.533375		can	can
sw3282A-ms98-a-0047	A.61	220.533375	220.773375		get	get
sw3282A-ms98-a-0047	A.61	220.773375	221.153375		this	this
sw3282A-ms98-a-0047	A.61	221.153375	221.553375		aid	aid
sw3282A-ms98-a-0047	A.61	221.553375	222.093375		free	free
sw3282A-ms98-a-0047	A.61	222.093375	222.293375		from	from
sw3282A-ms98-a-0047	A.61	222.293375	222.453375		these	these
sw3282A-ms98-a-0047	A.61	222.453375	223.003375		countries	countries
sw3282A-ms98-a-0047	A.61	223.003375	223.183375	<DEL>	---	f[rom]-
sw3282A-ms98-a-0047	A.61	223.183375	223.343375		two	two
sw3282A-ms98-a-0047	A.61	223.343375	223.793375		ways	ways
sw3282A-ms98-a-0047	A.61	223.793375	223.903375		We	we
sw3282A-ms98-a-0047	A.61	223.903375	224.073375		can	can
sw3282A-ms98-a-0047	A.61	224.073375	224.305875		either	either
sw3282A-ms98-a-0047	A.61	224.305875	224.637250		[silence]	[silence]
sw3282A-ms98-a-0047	A.61	224.637250	224.893375		act	act
sw3282A-ms98-a-0047	A.61	224.893375	225.073375		like	like
sw3282A-ms98-a-0047	A.61	225.073375	225.203375		we're	we're
sw3282A-ms98-a-0047	A.61	225.203375	225.443375	<SUB>	going	gonna
sw3282A-ms98-a-0047	A.61	225.443375	225.443375	<INS>	to	---
sw3282A-ms98-a-0047	A.61	225.443375	225.822750		be	be
sw3282A-ms98-a-0047	A.61	225.822750	226.033750		[silence]	[silence]
sw3282A-ms98-a-0048	A.61	226.033750	226.319750		[silence]	[silence]
sw3282A-ms98-a-0048	A.61	226.319750	226.493750	<CONT>	pro-communist	pro
sw3282A-ms98-a-0048	A.61	226.493750	227.073750	<CONT>	+++	communist
sw3282A-ms98-a-0048	A.61	227.073750	227.163750		or	or
sw3282A-ms98-a-0048	A.61	227.163750	227.353750		act	act
sw3282A-ms98-a-0048	A.61	227.353750	227.513750		like	like
sw3282A-ms98-a-0048	A.61	227.513750	227.613750		we're	we're
sw3282A-ms98-a-0048	A.61	227.613750	227.733750		going	going
sw3282A-ms98-a-0048	A.61	227.733750	227.823750		to	to
sw3282A-ms98-a-0048	A.61	227.823750	228.056125		be	be
sw3282A-ms98-a-0048	A.61	228.056125	228.436500		[silence]	[silence]
sw3282A-ms98-a-0048	A.61	228.436500	228.883750		pro	pro
sw3282A-ms98-a-0048	A.61	228.883750	229.190750		uh	uh
sw3282A-ms98-a-0048	A.61	229.190750	229.599750		[silence]	[silence]
sw3282A-ms98-a-0049	A.61	229.599750	230.000875		[silence]	[silence]
sw3282A-ms98-a-0049	A.61	230.000875	230.239750	<CONT>	pro-democracy	pro
sw3282A-ms98-a-0049	A.61	230.239750	231.019750	<CONT>	+++	democracy
sw3282A-ms98-a-0049	A.61	231.019750	231.469750		and	and
sw3282A-ms98-a-0049	A.61	231.469750	231.979750		whatever	whatever
sw3282A-ms98-a-0049	A.61	231.979750	232.239750		gets	gets
sw3282A-ms98-a-0049	A.61	232.239750	232.379750		us	us
sw3282A-ms98-a-0049	A.61	232.379750	232.469750		the	the
sw3282A-ms98-a-0049	A.61	232.469750	232.799750		most	most
sw3282A-ms98-a-0049	A.61	232.799750	232.969750	<SUB>	honor	out
sw3282A-ms98-a-0049	A.61	232.969750	233.039750	<DEL>	---	of
sw3282A-ms98-a-0049	A.61	233.039750	233.119750	<DEL>	---	it
sw3282A-ms98-a-0049	A.61	233.119750	233.329750		that's	that's
sw3282A-ms98-a-0049	A.61	233.329750	233.429750		what	what
sw3282A-ms98-a-0049	A.61	233.429750	233.579750		we'll	we'll
sw3282A-ms98-a-0049	A.61	233.579750	233.809750		act	act
sw3282A-ms98-a-0049	A.61	233.809750	233.989750		like	like
sw3282A-ms98-a-0049	A.61	233.989750	234.089750		we're	we're
sw3282A-ms98-a-0049	A.61	234.089750	234.209750		going	going
sw3282A-ms98-a-0049	A.61	234.209750	234.289750		to	to
sw3282A-ms98-a-0049	A.61	234.289750	234.529750		do	do
sw3282A-ms98-a-0049	A.61	234.529750	234.739750		but	but
sw3282A-ms98-a-0049	A.61	234.739750	234.859750		we	we
sw3282A-ms98-a-0049	A.61	234.859750	235.119750		really	really
sw3282A-ms98-a-0049	A.61	235.119750	235.339750		won't	won't
sw3282A-ms98-a-0049	A.61	235.339750	235.619750		change	change
sw3282A-ms98-a-0049	A.61	235.619750	235.719750		in	in
sw3282A-ms98-a-0049	A.61	235.719750	235.839750		the	the
sw3282A-ms98-a-0049	A.61	235.839750	236.129750		long	long
sw3282A-ms98-a-0049	A.61	236.129750	236.421250		run	run
sw3282A-ms98-a-0049	A.63	236.421250	236.895875		[silence]	[silence]
sw3282A-ms98-a-0049	A.63	236.895875	236.999750		I	i
sw3282A-ms98-a-0049	A.63	236.999750	237.199750		think	think
sw3282A-ms98-a-0049	A.63	237.199750	237.389750		that's	that's
sw3282A-ms98-a-0049	A.63	237.389750	237.449750		the	the
sw3282A-ms98-a-0049	A.63	237.449750	237.549750		way	way
sw3282A-ms98-a-0049	A.63	237.549750	237.679750		I	i
sw3282A-ms98-a-0049	A.63	237.679750	237.939750		sort	sort
sw3282A-ms98-a-0049	A.63	237.939750	238.029750		of	of
sw3282A-ms98-a-0049	A.63	238.029750	238.289750		see	see
sw3282A-ms98-a-0049	A.63	238.289750	238.459750		them	them
sw3282A-ms98-a-0049	A.63	238.459750	238.609750		all	all
sw3282A-ms98-a-0049	A.63	238.609750	239.051250		working	working
sw3282A-ms98-a-0049	A.63	239.051250	239.271500		[silence]	[silence]
sw3282A-ms98-a-0049	A.63	239.271500	239.329750		you	you
sw3282A-ms98-a-0049	A.63	239.329750	239.601250		know	know
sw3282A-ms98-a-0049	A.65	239.601250	239.816000		[silence]	[silence]
sw3282A-ms98-a-0050	A.65	239.816000	240.824375		[silence]	[silence]
sw3282A-ms98-a-0051	A.65	240.824375	241.044375		[silence]	[silence]
sw3282A-ms98-a-0051	A.65	241.044375	241.634750		Yeah	yeah
sw3282A-ms98-a-0051	A.67	241.634750	242.033125		[silence]	[silence]
sw3282A-ms98-a-0052	A.67	242.033125	246.605125		[silence]	[silence]
sw3282A-ms98-a-0053	A.67	246.605125	247.108000		[silence]	[silence]
sw3282A-ms98-a-0053	A.67	247.108000	247.505125	<SUB>	Uh-huh	um-hum
sw3282A-ms98-a-0053	A.69	247.505125	247.948625		[silence]	[silence]
sw3282A-ms98-a-0054	A.69	247.948625	255.937500		[silence]	[silence]
sw3282A-ms98-a-0055	A.69	255.937500	256.300750		[silence]	[silence]
sw3282A-ms98-a-0055	A.69	256.300750	256.671875		Yeah	yeah
sw3282A-ms98-a-0055	A.69	256.671875	257.056000		[silence]	[silence]
sw3282A-ms98-a-0055	A.69	257.056000	257.307500		It's	it's
sw3282A-ms98-a-0055	A.69	257.307500	257.467500		it's	it's
sw3282A-ms98-a-0055	A.69	257.467500	257.627500		really	really
sw3282A-ms98-a-0055	A.69	257.627500	257.837500		funny	funny
sw3282A-ms98-a-0055	A.69	257.837500	257.977500		as	as
sw3282A-ms98-a-0055	A.69	257.977500	258.067500		an	an
sw3282A-ms98-a-0055	A.69	258.067500	258.797500		American	American
sw3282A-ms98-a-0055	A.69	258.797500	259.037500		and	and
sw3282A-ms98-a-0055	A.69	259.037500	259.367500		always	always
sw3282A-ms98-a-0055	A.69	259.367500	259.577500		being	being
sw3282A-ms98-a-0055	A.69	259.577500	259.677500		an	an
sw3282A-ms98-a-0055	A.69	259.677500	260.027500		ally	ally
sw3282A-ms98-a-0055	A.69	260.027500	260.257500		with	with
sw3282A-ms98-a-0055	A.69	260.257500	260.377500		the	the
sw3282A-ms98-a-0055	A.69	260.377500	261.223750		Israelis	Israelis
sw3282A-ms98-a-0055	A.69	261.223750	261.528875		[silence]	[silence]
sw3282A-ms98-a-0055	A.69	261.528875	261.667500		I	i
sw3282A-ms98-a-0055	A.69	261.667500	262.077500		always	always
sw3282A-ms98-a-0055	A.69	262.077500	262.317500		find	find
sw3282A-ms98-a-0055	A.69	262.317500	262.407500		it	it
sw3282A-ms98-a-0055	A.69	262.407500	262.697500		very	very
sw3282A-ms98-a-0055	A.69	262.697500	263.424375		hard	hard
sw3282A-ms98-a-0055	A.69	263.424375	263.707500		in	in
sw3282A-ms98-a-0055	A.69	263.707500	263.957500		my	my
sw3282A-ms98-a-0055	A.69	263.957500	264.527500		heart	heart
sw3282A-ms98-a-0055	A.69	264.527500	264.759875		[silence]	[silence]
sw3282A-ms98-a-0056	A.69	264.759875	265.039875		[silence]	[silence]
sw3282A-ms98-a-0056	A.69	265.039875	265.299875		to	to
sw3282A-ms98-a-0056	A.69	265.299875	265.589875	<SUB>	a-	al[ign]-
sw3282A-ms98-a-0056	A.69	265.589875	265.849875		to	to
sw3282A-ms98-a-0056	A.69	265.849875	266.409875		align	align
sw3282A-ms98-a-0056	A.69	266.409875	266.549875		with	with
sw3282A-ms98-a-0056	A.69	266.549875	266.619875		the	the
sw3282A-ms98-a-0056	A.69	266.619875	267.189875		Israelis	Israelis
sw3282A-ms98-a-0056	A.69	267.189875	267.409875		because	because
sw3282A-ms98-a-0056	A.69	267.409875	267.539875		they	they
sw3282A-ms98-a-0056	A.69	267.539875	267.939875		seem	seem
sw3282A-ms98-a-0056	A.69	267.939875	268.049875		to	to
sw3282A-ms98-a-0056	A.69	268.049875	268.428875		be	be
sw3282A-ms98-a-0056	A.69	268.428875	268.651000		[silence]	[silence]
sw3282A-ms98-a-0056	A.69	268.651000	268.939875		just	just
sw3282A-ms98-a-0056	A.69	268.939875	269.059875		as	as
sw3282A-ms98-a-0056	A.69	269.059875	269.309875		bad	bad
sw3282A-ms98-a-0056	A.69	269.309875	269.439875		as	as
sw3282A-ms98-a-0056	A.69	269.439875	269.509875		the	the
sw3282A-ms98-a-0056	A.69	269.509875	270.200625		Arabs	Arabs
sw3282A-ms98-a-0056	A.69	270.200625	270.430375		[silence]	[silence]
sw3282A-ms98-a-0056	A.69	270.430375	270.619875		[noise]	[noise]
sw3282A-ms98-a-0056	A.69	270.619875	270.709875		you	you
sw3282A-ms98-a-0056	A.69	270.709875	270.963875		know	know
sw3282A-ms98-a-0056	A.71	270.963875	271.220000		[silence]	[silence]
sw3282A-ms98-a-0056	A.71	271.220000	271.369875		But	but
sw3282A-ms98-a-0056	A.71	271.369875	271.529875		then	then
sw3282A-ms98-a-0056	A.71	271.529875	272.119875		again	again
sw3282A-ms98-a-0056	A.71	272.119875	272.239875		they	they
sw3282A-ms98-a-0056	A.71	272.239875	272.429875		have	have
sw3282A-ms98-a-0056	A.71	272.429875	272.559875		to	to
sw3282A-ms98-a-0056	A.71	272.559875	272.769875		live	live
sw3282A-ms98-a-0056	A.71	272.769875	272.899875		in	in
sw3282A-ms98-a-0056	A.71	272.899875	273.059875		that	that
sw3282A-ms98-a-0056	A.71	273.059875	273.939750		environment	environment
sw3282A-ms98-a-0056	A.71	273.939750	274.385500		[silence]	[silence]
sw3282A-ms98-a-0056	A.71	274.385500	274.479875		They	they
sw3282A-ms98-a-0056	A.71	274.479875	274.699875		have	have
sw3282A-ms98-a-0056	A.71	274.699875	275.129875		to	to
sw3282A-ms98-a-0056	A.71	275.129875	275.259875		be	be
sw3282A-ms98-a-0056	A.71	275.259875	276.039875		subjected	subjected
sw3282A-ms98-a-0056	A.71	276.039875	276.527750		to	to
sw3282A-ms98-a-0056	A.71	276.527750	277.021125		[silence]	[silence]
sw3282A-ms98-a-0057	A.71	277.021125	277.526875		[silence]	[silence]
sw3282A-ms98-a-0057	A.71	277.526875	277.951125		all	all
sw3282A-ms98-a-0057	A.71	277.951125	278.161125		of	of
sw3282A-ms98-a-0057	A.71	278.161125	278.231125		the	the
sw3282A-ms98-a-0057	A.71	278.231125	278.811125		Arab	Arab
sw3282A-ms98-a-0057	A.71	278.811125	279.511125		bombings	bombings
sw3282A-ms98-a-0057	A.73	279.511125	279.671125		and	and
sw3282A-ms98-a-0057	A.73	279.671125	280.161125		terrorist	terrorist
sw3282A-ms98-a-0057	A.73	280.161125	280.681125		attacks	attacks
sw3282A-ms98-a-0057	A.73	280.681125	280.821125		and	and
sw3282A-ms98-a-0057	A.73	280.821125	281.319375		whatever	whatever
sw3282A-ms98-a-0057	A.75	281.319375	281.824125		[silence]	[silence]
sw3282A-ms98-a-0057	A.75	281.824125	282.011125	<SUB>	Then	and
sw3282A-ms98-a-0057	A.75	282.011125	282.091125		they	they
sw3282A-ms98-a-0057	A.75	282.091125	282.221125		have	have
sw3282A-ms98-a-0057	A.75	282.221125	282.341125		to	to
sw3282A-ms98-a-0057	A.75	282.341125	283.063125		negotiate	negotiate
sw3282A-ms98-a-0057	A.75	283.063125	283.477875		[silence]	[silence]
sw3282A-ms98-a-0058	A.75	283.477875	283.957875		[silence]	[silence]
sw3282A-ms98-a-0058	A.75	283.957875	284.347875		almost	almost
sw3282A-ms98-a-0058	A.75	284.347875	284.857875		everything	everything
sw3282A-ms98-a-0058	A.75	284.857875	285.058500		and	and
sw3282A-ms98-a-0058	A.75	285.058500	285.356000		[silence]	[silence]
sw3282A-ms98-a-0058	A.75	285.356000	285.577875		then	then
sw3282A-ms98-a-0058	A.75	285.577875	285.707875		you	you
sw3282A-ms98-a-0058	A.75	285.707875	285.907875		think	think
sw3282A-ms98-a-0058	A.75	285.907875	285.967875		to	to
sw3282A-ms98-a-0058	A.75	285.967875	286.377875		yourself	yourself
sw3282A-ms98-a-0058	A.75	286.377875	286.709250		well	well
sw3282A-ms98-a-0058	A.75	286.709250	286.893875		[silence]	[silence]
sw3282A-ms98-a-0058	A.75	286.893875	286.997875		you	you
sw3282A-ms98-a-0058	A.75	286.997875	287.117875		know	know
sw3282A-ms98-a-0058	A.75	287.117875	287.217875		in	in
sw3282A-ms98-a-0058	A.75	287.217875	287.357875		your	your
sw3282A-ms98-a-0058	A.75	287.357875	287.667875		heart	heart
sw3282A-ms98-a-0058	A.75	287.667875	287.757875		you	you
sw3282A-ms98-a-0058	A.75	287.757875	287.967875		don't	don't
sw3282A-ms98-a-0058	A.75	287.967875	288.157875		want	want
sw3282A-ms98-a-0058	A.75	288.157875	288.217875		to	to
sw3282A-ms98-a-0058	A.75	288.217875	288.387875		be	be
sw3282A-ms98-a-0058	A.75	288.387875	288.757875		aligned	aligned
sw3282A-ms98-a-0058	A.75	288.757875	288.847875		with	with
sw3282A-ms98-a-0058	A.75	288.847875	289.187875		somebody	somebody
sw3282A-ms98-a-0058	A.75	289.187875	289.507875		that's	that's
sw3282A-ms98-a-0058	A.75	289.507875	289.837875		mean	mean
sw3282A-ms98-a-0058	A.75	289.837875	289.997875		and	and
sw3282A-ms98-a-0058	A.75	289.997875	290.437875		cruel	cruel
sw3282A-ms98-a-0058	A.75	290.437875	290.527875		to	to
sw3282A-ms98-a-0058	A.75	290.527875	290.897875		someone	someone
sw3282A-ms98-a-0058	A.75	290.897875	291.246125		else	else
sw3282A-ms98-a-0058	A.75	291.246125	291.540500		[silence]	[silence]
sw3282A-ms98-a-0059	A.75	291.540500	291.653125		[silence]	[silence]
sw3282A-ms98-a-0059	A.75	291.653125	291.967625		but	but
sw3282A-ms98-a-0059	A.75	291.967625	292.190500		if	if
sw3282A-ms98-a-0059	A.75	292.190500	292.430500		that's	that's
sw3282A-ms98-a-0059	A.75	292.430500	292.500500		the	the
sw3282A-ms98-a-0059	A.75	292.500500	293.050500		environment	environment
sw3282A-ms98-a-0059	A.75	293.050500	293.170500		that	that
sw3282A-ms98-a-0059	A.75	293.170500	293.280500		they	they
sw3282A-ms98-a-0059	A.75	293.280500	293.460500		have	have
sw3282A-ms98-a-0059	A.75	293.460500	293.600500		to	to
sw3282A-ms98-a-0059	A.75	293.600500	293.900500		live	live
sw3282A-ms98-a-0059	A.75	293.900500	294.260500		in	in
sw3282A-ms98-a-0059	A.75	294.260500	294.410500		and	and
sw3282A-ms98-a-0059	A.75	294.410500	295.060500		survive	survive
sw3282A-ms98-a-0059	A.75	295.060500	295.403000		in	in
sw3282A-ms98-a-0059	A.75	295.403000	295.734375		[silence]	[silence]
sw3282A-ms98-a-0059	A.75	295.734375	296.294375		then	then
sw3282A-ms98-a-0059	A.75	296.294375	296.561750		[silence]	[silence]
sw3282A-ms98-a-0059	A.75	296.561750	296.650500		you	you
sw3282A-ms98-a-0059	A.75	296.650500	296.790500		have	have
sw3282A-ms98-a-0059	A.75	296.790500	297.110500		to	to
sw3282A-ms98-a-0059	A.75	297.110500	297.350500		sort	sort
sw3282A-ms98-a-0059	A.75	297.350500	297.410500		of	of
sw3282A-ms98-a-0059	A.75	297.410500	297.676875		like	like
sw3282A-ms98-a-0059	A.75	297.676875	298.132625		[silence]	[silence]
sw3282A-ms98-a-0059	A.75	298.132625	298.290500		I	i
sw3282A-ms98-a-0059	A.75	298.290500	298.440500		don't	don't
sw3282A-ms98-a-0059	A.75	298.440500	298.540500		know	know
sw3282A-ms98-a-0059	A.75	298.540500	299.477000		logically	logically
sw3282A-ms98-a-0059	A.75	299.477000	299.522000		[silence]	[silence]
