sw3345A-ms98-a-0001	A.1	0.000000	0.020000		[silence]	[silence]
sw3345A-ms98-a-0001	A.1	0.020000	0.040000		[noise]	[noise]
sw3345A-ms98-a-0001	A.1	0.040000	0.070000	<SUB>	Well	uh
sw3345A-ms98-a-0001	A.1	0.070000	0.220000		you	you
sw3345A-ms98-a-0001	A.1	0.220000	0.420000		keep	keep
sw3345A-ms98-a-0001	A.1	0.420000	0.510000		up	up
sw3345A-ms98-a-0001	A.1	0.510000	0.610000		with	with
sw3345A-ms98-a-0001	A.1	0.610000	0.940000		current	current
sw3345A-ms98-a-0001	A.1	0.940000	1.290000		events	events
sw3345A-ms98-a-0001	A.3	1.290000	2.106000		[silence]	[silence]
sw3345A-ms98-a-0002	A.3	2.106000	3.134750		[silence]	[silence]
sw3345A-ms98-a-0002	A.3	3.134750	3.569875	<SUB>	Not	somewhat
sw3345A-ms98-a-0002	A.5	3.569875	4.064000		[silence]	[silence]
sw3345A-ms98-a-0003	A.5	4.064000	6.104000		[silence]	[silence]
sw3345A-ms98-a-0004	A.5	6.104000	6.584375		[silence]	[silence]
sw3345A-ms98-a-0004	A.5	6.584375	6.688500		Is	is
sw3345A-ms98-a-0004	A.5	6.688500	6.824000		that	that
sw3345A-ms98-a-0004	A.5	6.824000	7.186500		right	right
sw3345A-ms98-a-0004	A.7	7.186500	7.989750		[silence]	[silence]
sw3345A-ms98-a-0005	A.7	7.989750	8.789750		[silence]	[silence]
sw3345A-ms98-a-0005	A.7	8.789750	9.229750		Yeah	yeah
sw3345A-ms98-a-0005	A.7	9.229750	9.429750		where	where
sw3345A-ms98-a-0005	A.7	9.429750	9.549750	<CONT>	whereabouts	where
sw3345A-ms98-a-0005	A.7	9.549750	9.749750	<CONT>	+++	abouts
sw3345A-ms98-a-0005	A.7	9.749750	9.829750		in	in
sw3345A-ms98-a-0005	A.7	9.829750	10.319750		Pennsylvania	Pennsylvania
sw3345A-ms98-a-0005	A.9	10.319750	10.978875		[silence]	[silence]
sw3345A-ms98-a-0006	A.9	10.978875	11.538875		[silence]	[silence]
sw3345A-ms98-a-0006	A.9	11.538875	11.688875		Where	where
sw3345A-ms98-a-0006	A.9	11.688875	11.788875		in	in
sw3345A-ms98-a-0006	A.9	11.788875	12.331375		Pennsylvania	Pennsylvania
sw3345A-ms98-a-0006	A.11	12.331375	12.808750		[silence]	[silence]
sw3345A-ms98-a-0007	A.11	12.808750	14.349875		[silence]	[silence]
sw3345A-ms98-a-0008	A.11	14.349875	14.842250		[silence]	[silence]
sw3345A-ms98-a-0008	A.11	14.842250	15.083750		Oh	oh
sw3345A-ms98-a-0008	A.11	15.083750	15.229875		do	do
sw3345A-ms98-a-0008	A.11	15.229875	15.519875		you	you
sw3345A-ms98-a-0008	A.11	15.519875	15.849875		well	well
sw3345A-ms98-a-0008	A.11	15.849875	16.310125		great	great
sw3345A-ms98-a-0008	A.13	16.310125	16.895125		[silence]	[silence]
sw3345A-ms98-a-0009	A.13	16.895125	17.455125		[silence]	[silence]
sw3345A-ms98-a-0009	A.13	17.455125	17.765125		How's	how's
sw3345A-ms98-a-0009	A.13	17.765125	17.925875		uh	uh
sw3345A-ms98-a-0009	A.13	17.925875	18.185125		well	well
sw3345A-ms98-a-0009	A.13	18.185125	18.325125		no	no
sw3345A-ms98-a-0009	A.13	18.325125	18.435125		we're	we're
sw3345A-ms98-a-0009	A.13	18.435125	18.525125		not	not
sw3345A-ms98-a-0009	A.13	18.525125	18.725125		supposed	supposed
sw3345A-ms98-a-0009	A.13	18.725125	18.785125		to	to
sw3345A-ms98-a-0009	A.13	18.785125	18.875125		talk	talk
sw3345A-ms98-a-0009	A.13	18.875125	19.055125		about	about
sw3345A-ms98-a-0009	A.13	19.055125	19.250750		that	that
sw3345A-ms98-a-0009	A.13	19.250750	19.365125		We're	we're
sw3345A-ms98-a-0009	A.13	19.365125	19.575125		supposed	supposed
sw3345A-ms98-a-0009	A.13	19.575125	19.635125		to	to
sw3345A-ms98-a-0009	A.13	19.635125	19.725125		talk	talk
sw3345A-ms98-a-0009	A.13	19.725125	19.935125		about	about
sw3345A-ms98-a-0009	A.13	19.935125	20.255000		current	current
sw3345A-ms98-a-0009	A.13	20.255000	20.741125		events	events
sw3345A-ms98-a-0009	A.15	20.741125	22.345125		[laughter]	[laughter]
sw3345A-ms98-a-0009	A.15	22.345125	22.645125		Well	well
sw3345A-ms98-a-0009	A.15	22.645125	22.805125		I'm	i'm
sw3345A-ms98-a-0009	A.15	22.805125	22.885125		a	a
sw3345A-ms98-a-0009	A.15	22.885125	23.155125		current	current
sw3345A-ms98-a-0009	A.15	23.155125	23.455125		event	event
sw3345A-ms98-a-0009	A.15	23.455125	23.795125		junkie	junkie
sw3345A-ms98-a-0009	A.15	23.795125	23.965125		So	so
sw3345A-ms98-a-0009	A.15	23.965125	24.224750		I	i
sw3345A-ms98-a-0009	A.15	24.224750	24.563125		[silence]	[silence]
sw3345A-ms98-a-0010	A.15	24.563125	24.942125		[silence]	[silence]
sw3345A-ms98-a-0010	A.15	24.942125	25.043125		I	i
sw3345A-ms98-a-0010	A.15	25.043125	25.373125		watch	watch
sw3345A-ms98-a-0010	A.15	25.373125	25.503125		I	i
sw3345A-ms98-a-0010	A.15	25.503125	25.693125		try	try
sw3345A-ms98-a-0010	A.15	25.693125	25.783125		to	to
sw3345A-ms98-a-0010	A.15	25.783125	26.013125		watch	watch
sw3345A-ms98-a-0010	A.15	26.013125	26.073125		the	the
sw3345A-ms98-a-0010	A.15	26.073125	26.813125		news	news
sw3345A-ms98-a-0010	A.15	26.813125	26.943125		and	and
sw3345A-ms98-a-0010	A.15	26.943125	27.043125		I	i
sw3345A-ms98-a-0010	A.15	27.043125	27.243125		read	read
sw3345A-ms98-a-0010	A.15	27.243125	27.313125		the	the
sw3345A-ms98-a-0010	A.15	27.313125	28.163125		newspaper	newspaper
sw3345A-ms98-a-0010	A.15	28.163125	28.303125		and	and
sw3345A-ms98-a-0010	A.15	28.303125	28.363125		I	i
sw3345A-ms98-a-0010	A.15	28.363125	28.553125		like	like
sw3345A-ms98-a-0010	A.15	28.553125	28.673125		to	to
sw3345A-ms98-a-0010	A.15	28.673125	28.863125		read	read
sw3345A-ms98-a-0010	A.15	28.863125	29.173125		TIME	Time
sw3345A-ms98-a-0010	A.15	29.173125	29.993125		magazine	magazine
sw3345A-ms98-a-0010	A.15	29.993125	29.993125	<INS>	and	---
sw3345A-ms98-a-0010	A.15	29.993125	30.303125		PEOPLE	People
sw3345A-ms98-a-0010	A.15	30.303125	30.813125		magazine	magazine
sw3345A-ms98-a-0010	A.15	30.813125	30.813125	<INS>	to	---
sw3345A-ms98-a-0010	A.15	30.813125	31.043125		keep	keep
sw3345A-ms98-a-0010	A.15	31.043125	31.203125		up	up
sw3345A-ms98-a-0010	A.15	31.203125	31.203125	<INS>	with	---
sw3345A-ms98-a-0010	A.15	31.203125	31.383125		what's	what's
sw3345A-ms98-a-0010	A.15	31.383125	31.593125		going	going
sw3345A-ms98-a-0010	A.15	31.593125	31.783125		on	on
sw3345A-ms98-a-0010	A.15	31.783125	31.843125		in	in
sw3345A-ms98-a-0010	A.15	31.843125	31.903125		the	the
sw3345A-ms98-a-0010	A.15	31.903125	32.313125		world	world
sw3345A-ms98-a-0010	A.19	32.313125	33.101625		[silence]	[silence]
sw3345A-ms98-a-0011	A.19	33.101625	33.861625		[silence]	[silence]
sw3345A-ms98-a-0011	A.19	33.861625	34.071625	<DEL>	---	but
sw3345A-ms98-a-0011	A.19	34.071625	34.699250		[silence]	[silence]
sw3345A-ms98-a-0012	A.19	34.699250	35.409250		[silence]	[silence]
sw3345A-ms98-a-0012	A.19	35.409250	35.809250		Well	well
sw3345A-ms98-a-0012	A.19	35.809250	35.919250		I	i
sw3345A-ms98-a-0012	A.19	35.919250	36.439250		just	just
sw3345A-ms98-a-0012	A.19	36.439250	36.764125		pretty	pretty
sw3345A-ms98-a-0012	A.19	36.764125	37.073000		[silence]	[silence]
sw3345A-ms98-a-0012	A.19	37.073000	37.902125		uh	uh
sw3345A-ms98-a-0012	A.19	37.902125	38.056625		[silence]	[silence]
sw3345A-ms98-a-0012	A.19	38.056625	38.339250	<DEL>	---	a
sw3345A-ms98-a-0012	A.19	38.339250	38.719250		little	little
sw3345A-ms98-a-0012	A.19	38.719250	38.829250		you	you
sw3345A-ms98-a-0012	A.19	38.829250	38.949250		know	know
sw3345A-ms98-a-0012	A.19	38.949250	39.209250		about	about_1
sw3345A-ms98-a-0012	A.19	39.209250	39.749250		everything	everything
sw3345A-ms98-a-0012	A.19	39.749250	39.839250		And	and
sw3345A-ms98-a-0012	A.19	39.839250	39.989250		not	not
sw3345A-ms98-a-0012	A.21	39.989250	40.489250		[silence]	[silence]
sw3345A-ms98-a-0012	A.21	40.489250	40.629250		and	and
sw3345A-ms98-a-0012	A.21	40.629250	40.759250		then	then
sw3345A-ms98-a-0012	A.21	40.759250	41.069250		again	again
sw3345A-ms98-a-0012	A.21	41.069250	41.269250		not	not
sw3345A-ms98-a-0012	A.21	41.269250	41.669250		everything	everything
sw3345A-ms98-a-0012	A.21	41.669250	41.829250		but	but
sw3345A-ms98-a-0012	A.21	41.829250	41.919250		you	you
sw3345A-ms98-a-0012	A.21	41.919250	41.999250		know	know
sw3345A-ms98-a-0012	A.21	41.999250	42.029250		I	i
sw3345A-ms98-a-0012	A.21	42.029250	42.209250		like	like
sw3345A-ms98-a-0012	A.21	42.209250	42.309250		to	to
sw3345A-ms98-a-0012	A.21	42.309250	42.522625		know	know
sw3345A-ms98-a-0012	A.21	42.522625	43.091250		[silence]	[silence]
sw3345A-ms98-a-0013	A.21	43.091250	43.641250		[silence]	[silence]
sw3345A-ms98-a-0013	A.21	43.641250	43.811250		pretty	pretty
sw3345A-ms98-a-0013	A.21	43.811250	44.001250		well	well
sw3345A-ms98-a-0013	A.21	44.001250	44.251250		what's	what's
sw3345A-ms98-a-0013	A.21	44.251250	44.681250		happening	happening
sw3345A-ms98-a-0013	A.21	44.681250	44.996625	<DEL>	---	so
sw3345A-ms98-a-0013	A.21	44.996625	45.858250		[silence]	[silence]
sw3345A-ms98-a-0013	A.21	45.858250	46.431250		Political	political
sw3345A-ms98-a-0013	A.21	46.431250	46.781250		things	things
sw3345A-ms98-a-0013	A.21	46.781250	47.011250		don't	don't
sw3345A-ms98-a-0013	A.21	47.011250	47.411250		interest	interest
sw3345A-ms98-a-0013	A.21	47.411250	47.531250		me	me
sw3345A-ms98-a-0013	A.21	47.531250	47.601625		a	a
sw3345A-ms98-a-0013	A.21	47.601625	47.782375		[silence]	[silence]
sw3345A-ms98-a-0013	A.21	47.782375	48.111250		great	great
sw3345A-ms98-a-0013	A.21	48.111250	48.461250		deal	deal
sw3345A-ms98-a-0013	A.21	48.461250	48.841250		except	except
sw3345A-ms98-a-0013	A.21	48.841250	48.881250		I	i
sw3345A-ms98-a-0013	A.21	48.881250	49.081250		do	do
sw3345A-ms98-a-0013	A.21	49.081250	49.251250		like	like
sw3345A-ms98-a-0013	A.21	49.251250	49.469250		to	to
sw3345A-ms98-a-0013	A.21	49.469250	49.555875		[silence]	[silence]
sw3345A-ms98-a-0013	A.21	49.555875	49.831250		stay	stay
sw3345A-ms98-a-0013	A.21	49.831250	50.261250		informed	informed
sw3345A-ms98-a-0013	A.21	50.261250	50.551250		enough	enough
sw3345A-ms98-a-0013	A.21	50.551250	50.711250		to	to
sw3345A-ms98-a-0013	A.21	50.711250	51.319375		[silence]	[silence]
sw3345A-ms98-a-0014	A.21	51.319375	51.879375		[silence]	[silence]
sw3345A-ms98-a-0014	A.21	51.879375	52.049375		feel	feel
sw3345A-ms98-a-0014	A.21	52.049375	52.219375		like	like
sw3345A-ms98-a-0014	A.21	52.219375	52.312500		I	i
sw3345A-ms98-a-0014	A.21	52.312500	52.839750		[silence]	[silence]
sw3345A-ms98-a-0014	A.21	52.839750	53.359375		halfway	halfway
sw3345A-ms98-a-0014	A.21	53.359375	53.649375		vote	vote
sw3345A-ms98-a-0014	A.21	53.649375	54.379375		intelligently	intelligently
sw3345A-ms98-a-0014	A.21	54.379375	54.509375		you	you
sw3345A-ms98-a-0014	A.21	54.509375	54.782750		know	know
sw3345A-ms98-a-0014	A.23	54.782750	55.379875		[silence]	[silence]
sw3345A-ms98-a-0015	A.23	55.379875	55.979875		[silence]	[silence]
sw3345A-ms98-a-0015	A.23	55.979875	56.389875		but	but
sw3345A-ms98-a-0015	A.23	56.389875	56.578125		uh	uh
sw3345A-ms98-a-0015	A.23	56.578125	57.212625		[silence]	[silence]
sw3345A-ms98-a-0016	A.23	57.212625	57.839250		[silence]	[silence]
sw3345A-ms98-a-0016	A.23	57.839250	57.942625		[noise]	[noise]
sw3345A-ms98-a-0016	A.23	57.942625	58.212625		other	other
sw3345A-ms98-a-0016	A.23	58.212625	58.372625		than	than
sw3345A-ms98-a-0016	A.23	58.372625	58.872625		that	that
sw3345A-ms98-a-0016	A.23	58.872625	59.212625		uh	uh
sw3345A-ms98-a-0016	A.23	59.212625	59.292625		I	i
sw3345A-ms98-a-0016	A.23	59.292625	59.842625		just	just
sw3345A-ms98-a-0016	A.23	59.842625	59.922625		you	you
sw3345A-ms98-a-0016	A.23	59.922625	60.129000		know	know
sw3345A-ms98-a-0016	A.23	60.129000	60.426500		[silence]	[silence]
sw3345A-ms98-a-0016	A.23	60.426500	60.652625		just	just
sw3345A-ms98-a-0016	A.23	60.652625	60.722625		the	the
sw3345A-ms98-a-0016	A.23	60.722625	61.222625		events	events
sw3345A-ms98-a-0016	A.23	61.222625	61.352625		that	that
sw3345A-ms98-a-0016	A.23	61.352625	61.652625		happen	happen
sw3345A-ms98-a-0016	A.23	61.652625	61.902625		around	around
sw3345A-ms98-a-0016	A.23	61.902625	61.962625		the	the
sw3345A-ms98-a-0016	A.23	61.962625	62.302625		world	world
sw3345A-ms98-a-0016	A.23	62.302625	62.652625		interest	interest
sw3345A-ms98-a-0016	A.23	62.652625	62.792625		me	me
sw3345A-ms98-a-0016	A.25	62.792625	62.882625	<DEL>	---	an[d]-
sw3345A-ms98-a-0016	A.25	62.882625	63.635125		[silence]	[silence]
sw3345A-ms98-a-0017	A.25	63.635125	64.269875		[silence]	[silence]
sw3345A-ms98-a-0017	A.25	64.269875	64.556250	<DEL>	---	and
sw3345A-ms98-a-0017	A.25	64.556250	64.795125		Stay	stay
sw3345A-ms98-a-0017	A.25	64.795125	64.905125		in	in
sw3345A-ms98-a-0017	A.25	64.905125	65.165125		touch	touch
sw3345A-ms98-a-0017	A.25	65.165125	65.315125		with	with
sw3345A-ms98-a-0017	A.25	65.315125	65.435125		it	it
sw3345A-ms98-a-0017	A.25	65.435125	65.435125	<INS>	and	---
sw3345A-ms98-a-0017	A.25	65.435125	65.555125		know	know
sw3345A-ms98-a-0017	A.25	65.555125	65.795125		feel	feel
sw3345A-ms98-a-0017	A.25	65.795125	65.925125		like	like
sw3345A-ms98-a-0017	A.25	65.925125	66.005125		I	i
sw3345A-ms98-a-0017	A.25	66.005125	66.145125		know	know
sw3345A-ms98-a-0017	A.25	66.145125	66.295125		what's	what's
sw3345A-ms98-a-0017	A.25	66.295125	66.515125		going	going
sw3345A-ms98-a-0017	A.25	66.515125	66.675125		on	on
sw3345A-ms98-a-0017	A.25	66.675125	66.815125		Now	now
sw3345A-ms98-a-0017	A.25	66.815125	66.845125		I	i
sw3345A-ms98-a-0017	A.25	66.845125	67.005125		have	have
sw3345A-ms98-a-0017	A.25	67.005125	67.115125		to	to
sw3345A-ms98-a-0017	A.25	67.115125	67.345125		say	say
sw3345A-ms98-a-0017	A.25	67.345125	67.515125		all	all
sw3345A-ms98-a-0017	A.25	67.515125	67.735125		three	three
sw3345A-ms98-a-0017	A.25	67.735125	67.795125		of	of
sw3345A-ms98-a-0017	A.25	67.795125	67.895125		my	my
sw3345A-ms98-a-0017	A.25	67.895125	68.334125		children	children
sw3345A-ms98-a-0017	A.25	68.334125	68.514875		[silence]	[silence]
sw3345A-ms98-a-0017	A.25	68.514875	68.705125		none	[laughter-none]
sw3345A-ms98-a-0017	A.25	68.705125	68.819250		of	[laughter-of]
sw3345A-ms98-a-0017	A.25	68.819250	69.025125		them	[laughter-them]
sw3345A-ms98-a-0017	A.25	69.025125	69.125125		are	[laughter-are]
sw3345A-ms98-a-0017	A.25	69.125125	69.305125		too	[laughter-too]
sw3345A-ms98-a-0017	A.25	69.305125	69.740750		interested	[laughter-interested]
sw3345A-ms98-a-0017	A.25	69.740750	69.915125		in	[laughter-in]
sw3345A-ms98-a-0017	A.25	69.915125	70.215125		current	current
sw3345A-ms98-a-0017	A.25	70.215125	70.665125		events	events
sw3345A-ms98-a-0017	A.27	70.665125	71.137250		[silence]	[silence]
sw3345A-ms98-a-0018	A.27	71.137250	71.587125		[silence]	[silence]
sw3345A-ms98-a-0018	A.27	71.587125	71.746250		But	but
sw3345A-ms98-a-0018	A.27	71.746250	71.917250		I	i
sw3345A-ms98-a-0018	A.27	71.917250	72.297250		always	always
sw3345A-ms98-a-0018	A.27	72.297250	72.597250		have	have
sw3345A-ms98-a-0018	A.27	72.597250	72.906750		been	been
sw3345A-ms98-a-0018	A.29	72.906750	73.432625		[silence]	[silence]
sw3345A-ms98-a-0019	A.29	73.432625	74.002625		[silence]	[silence]
sw3345A-ms98-a-0019	A.29	74.002625	74.481500		and	and
sw3345A-ms98-a-0019	A.29	74.481500	74.672625		I	i
sw3345A-ms98-a-0019	A.29	74.672625	74.992625		stay	stay
sw3345A-ms98-a-0019	A.29	74.992625	75.182625		up	up
sw3345A-ms98-a-0019	A.29	75.182625	75.362625		with	with
sw3345A-ms98-a-0019	A.29	75.362625	75.678875		it	it
sw3345A-ms98-a-0019	A.29	75.678875	76.210000		[silence]	[silence]
sw3345A-ms98-a-0019	A.29	76.210000	76.542625		But	but
sw3345A-ms98-a-0019	A.29	76.542625	76.752625		uh	uh
sw3345A-ms98-a-0019	A.29	76.752625	76.912625		how	how
sw3345A-ms98-a-0019	A.29	76.912625	76.992625		do	do
sw3345A-ms98-a-0019	A.29	76.992625	77.272375		you	you
sw3345A-ms98-a-0019	A.29	77.272375	77.656500		[silence]	[silence]
sw3345A-ms98-a-0019	A.29	77.656500	77.882625		how	how
sw3345A-ms98-a-0019	A.29	77.882625	77.972625		do	do
sw3345A-ms98-a-0019	A.29	77.972625	78.332625		you	you
sw3345A-ms98-a-0019	A.29	78.332625	78.675375		uh	uh
sw3345A-ms98-a-0019	A.29	78.675375	78.860000		[silence]	[silence]
sw3345A-ms98-a-0019	A.29	78.860000	79.102625		stay	stay
sw3345A-ms98-a-0019	A.29	79.102625	79.422625		aware	aware
sw3345A-ms98-a-0019	A.29	79.422625	79.502625		of	of
sw3345A-ms98-a-0019	A.29	79.502625	79.852625		most	most
sw3345A-ms98-a-0019	A.29	79.852625	79.942625		of	of
sw3345A-ms98-a-0019	A.29	79.942625	80.128375		the	the
sw3345A-ms98-a-0019	A.29	80.128375	80.731000		[silence]	[silence]
sw3345A-ms98-a-0019	A.29	80.731000	81.022625		current	current
sw3345A-ms98-a-0019	A.29	81.022625	81.316875		events	events
sw3345A-ms98-a-0019	A.29	81.316875	81.945875		[silence]	[silence]
sw3345A-ms98-a-0019	A.29	81.945875	82.442625		Uh	uh
sw3345A-ms98-a-0019	A.29	82.442625	83.072625		newspaper	newspaper
sw3345A-ms98-a-0019	A.31	83.072625	83.755375		[silence]	[silence]
sw3345A-ms98-a-0020	A.31	83.755375	84.414125		[silence]	[silence]
sw3345A-ms98-a-0020	A.31	84.414125	84.775375	<CONT>	T	TV
sw3345A-ms98-a-0020	A.31	84.775375	84.775375	<CONT>	V	+++
sw3345A-ms98-a-0020	A.31	84.775375	85.255375		news	news
sw3345A-ms98-a-0020	A.31	85.255375	85.405375		or	or
sw3345A-ms98-a-0020	A.31	85.405375	85.645375		what	what
sw3345A-ms98-a-0020	A.33	85.645375	86.507500		[silence]	[silence]
sw3345A-ms98-a-0021	A.33	86.507500	87.330000		[silence]	[silence]
sw3345A-ms98-a-0021	A.33	87.330000	87.696125	<DEL>	---	um-hum
sw3345A-ms98-a-0021	A.33	87.696125	88.155500		[silence]	[silence]
sw3345A-ms98-a-0022	A.33	88.155500	91.377500		[silence]	[silence]
sw3345A-ms98-a-0023	A.33	91.377500	91.887500		[silence]	[silence]
sw3345A-ms98-a-0023	A.33	91.887500	92.207500		Uh-huh	uh-huh
sw3345A-ms98-a-0023	A.35	92.207500	92.728500		[silence]	[silence]
sw3345A-ms98-a-0024	A.35	92.728500	96.772000		[silence]	[silence]
sw3345A-ms98-a-0025	A.35	96.772000	97.299250		[silence]	[silence]
sw3345A-ms98-a-0025	A.35	97.299250	97.522750	<SUB>	Uh-huh	well
sw3345A-ms98-a-0025	A.37	97.522750	97.984125	<SUB>	Right	that's
sw3345A-ms98-a-0025	A.39	97.984125	98.357000		[silence]	[silence]
sw3345A-ms98-a-0025	A.39	98.357000	98.712000		Yeah	yeah
sw3345A-ms98-a-0025	A.39	98.712000	98.932000		that's	that's
sw3345A-ms98-a-0025	A.39	98.932000	99.342000		good	good
sw3345A-ms98-a-0025	A.41	99.342000	99.656500	<DEL>	---	because
sw3345A-ms98-a-0025	A.41	99.656500	100.117875		[silence]	[silence]
sw3345A-ms98-a-0026	A.41	100.117875	103.299625		[silence]	[silence]
sw3345A-ms98-a-0027	A.41	103.299625	103.803125		[silence]	[silence]
sw3345A-ms98-a-0027	A.41	103.803125	104.042750	<DEL>	---	uh-huh
sw3345A-ms98-a-0027	A.41	104.042750	104.899625		[silence]	[silence]
sw3345A-ms98-a-0027	A.41	104.899625	105.029625		Well	well
sw3345A-ms98-a-0027	A.41	105.029625	105.189625		you	you
sw3345A-ms98-a-0027	A.41	105.189625	105.379625		stay	stay
sw3345A-ms98-a-0027	A.41	105.379625	105.499625		up	up
sw3345A-ms98-a-0027	A.41	105.499625	105.619625		with	with
sw3345A-ms98-a-0027	A.41	105.619625	105.709625		it	it
sw3345A-ms98-a-0027	A.41	105.709625	105.889625		pretty	pretty
sw3345A-ms98-a-0027	A.41	105.889625	106.169625		well	well
sw3345A-ms98-a-0027	A.41	106.169625	106.409625		then	then
sw3345A-ms98-a-0027	A.43	106.409625	106.920625		[silence]	[silence]
sw3345A-ms98-a-0028	A.43	106.920625	109.483125		[silence]	[silence]
sw3345A-ms98-a-0029	A.43	109.483125	110.013875		[silence]	[silence]
sw3345A-ms98-a-0029	A.43	110.013875	110.431625		Uh-huh	uh-huh
sw3345A-ms98-a-0029	A.45	110.431625	111.155750		[silence]	[silence]
sw3345A-ms98-a-0029	A.45	111.155750	111.430250	<DEL>	---	yeah
sw3345A-ms98-a-0029	A.45	111.430250	111.947875		[silence]	[silence]
sw3345A-ms98-a-0030	A.45	111.947875	113.289375		[silence]	[silence]
sw3345A-ms98-a-0031	A.45	113.289375	113.799375		[silence]	[silence]
sw3345A-ms98-a-0031	A.45	113.799375	114.099375	<DEL>	---	uh-huh
sw3345A-ms98-a-0031	A.45	114.099375	114.636250		[silence]	[silence]
sw3345A-ms98-a-0032	A.45	114.636250	121.794875		[silence]	[silence]
sw3345A-ms98-a-0033	A.45	121.794875	122.294875		[silence]	[silence]
sw3345A-ms98-a-0033	A.45	122.294875	122.644875		Uh-huh	uh-huh
sw3345A-ms98-a-0033	A.45	122.644875	122.884875		[silence]	[silence]
sw3345A-ms98-a-0033	A.45	122.884875	123.164875		yes	yes
sw3345A-ms98-a-0033	A.45	123.164875	123.498875		uh-huh	uh-huh
sw3345A-ms98-a-0033	A.47	123.498875	124.131125		[silence]	[silence]
sw3345A-ms98-a-0034	A.47	124.131125	124.691125		[silence]	[silence]
sw3345A-ms98-a-0034	A.47	124.691125	124.821125		Oh	oh
sw3345A-ms98-a-0034	A.47	124.821125	125.001125		you've	you've
sw3345A-ms98-a-0034	A.47	125.001125	125.221125		been	been
sw3345A-ms98-a-0034	A.47	125.221125	125.451125		there	there
sw3345A-ms98-a-0034	A.49	125.451125	125.581125		well	well
sw3345A-ms98-a-0034	A.49	125.581125	125.731125		you	you
sw3345A-ms98-a-0034	A.49	125.731125	125.951125		would	would
sw3345A-ms98-a-0034	A.49	125.951125	126.051125		be	be
sw3345A-ms98-a-0034	A.49	126.051125	126.441125		interested	interested
sw3345A-ms98-a-0034	A.49	126.441125	126.571125		in	in
sw3345A-ms98-a-0034	A.49	126.571125	126.721125		it	it
sw3345A-ms98-a-0034	A.49	126.721125	127.007625		then	then
sw3345A-ms98-a-0034	A.51	127.007625	127.876125		[silence]	[silence]
sw3345A-ms98-a-0035	A.51	127.876125	128.776125		[silence]	[silence]
sw3345A-ms98-a-0035	A.51	128.776125	129.136125		Yeah	yeah
sw3345A-ms98-a-0035	A.51	129.136125	129.539250		uh	uh
sw3345A-ms98-a-0035	A.51	129.539250	129.896125	<DEL>	---	i-
sw3345A-ms98-a-0035	A.51	129.896125	129.956125		I	i
sw3345A-ms98-a-0035	A.51	129.956125	130.506125		follow	follow
sw3345A-ms98-a-0035	A.51	130.506125	130.616125		it	it
sw3345A-ms98-a-0035	A.51	130.616125	130.736125		you	you
sw3345A-ms98-a-0035	A.51	130.736125	130.926125		know	know
sw3345A-ms98-a-0035	A.51	130.926125	131.039125		I	i
sw3345A-ms98-a-0035	A.51	131.039125	131.231125		don't	don't
sw3345A-ms98-a-0035	A.51	131.231125	131.476125		[silence]	[silence]
sw3345A-ms98-a-0035	A.51	131.476125	131.666125		just	just
sw3345A-ms98-a-0035	A.51	131.666125	131.875625		read	read
sw3345A-ms98-a-0035	A.51	131.875625	132.306125		everything	everything
sw3345A-ms98-a-0035	A.51	132.306125	132.476125		about	about_1
sw3345A-ms98-a-0035	A.51	132.476125	132.476125	<INS>	it	---
sw3345A-ms98-a-0035	A.51	132.476125	132.586125		but	but
sw3345A-ms98-a-0035	A.51	132.586125	132.686125	<DEL>	---	i
sw3345A-ms98-a-0035	A.51	132.686125	132.886125		I'm	i'm
sw3345A-ms98-a-0035	A.51	132.886125	133.186125		always	always
sw3345A-ms98-a-0035	A.51	133.186125	133.516125		aware	aware
sw3345A-ms98-a-0035	A.51	133.516125	133.616125		of	of
sw3345A-ms98-a-0035	A.51	133.616125	133.806125		what's	what's
sw3345A-ms98-a-0035	A.51	133.806125	134.030000		going	going
sw3345A-ms98-a-0035	A.51	134.030000	134.154250		on	on
sw3345A-ms98-a-0035	A.51	134.154250	134.404375		like	like
sw3345A-ms98-a-0035	A.51	134.404375	134.726125		that	that
sw3345A-ms98-a-0035	A.53	134.726125	135.323625		[silence]	[silence]
sw3345A-ms98-a-0036	A.53	135.323625	135.913625		[silence]	[silence]
sw3345A-ms98-a-0036	A.53	135.913625	136.333625		and	and
sw3345A-ms98-a-0036	A.53	136.333625	136.462750		uh	uh
sw3345A-ms98-a-0036	A.53	136.462750	137.110625		[silence]	[silence]
sw3345A-ms98-a-0036	A.53	137.110625	137.473625		because	because
sw3345A-ms98-a-0036	A.53	137.473625	137.603625		it	it
sw3345A-ms98-a-0036	A.53	137.603625	137.823625		is	is
sw3345A-ms98-a-0036	A.53	137.823625	137.943625		it's	it's
sw3345A-ms98-a-0036	A.53	137.943625	138.479625		interesting	interesting
sw3345A-ms98-a-0036	A.55	138.479625	138.997875		[silence]	[silence]
sw3345A-ms98-a-0037	A.55	138.997875	139.627875		[silence]	[silence]
sw3345A-ms98-a-0037	A.55	139.627875	140.187875		and	and
sw3345A-ms98-a-0037	A.55	140.187875	140.402875		uh	uh
sw3345A-ms98-a-0037	A.55	140.402875	140.632625		[silence]	[silence]
sw3345A-ms98-a-0037	A.55	140.632625	140.787875		I	i
sw3345A-ms98-a-0037	A.55	140.787875	141.037875	<DEL>	---	i
sw3345A-ms98-a-0037	A.55	141.037875	141.197875		don't	don't
sw3345A-ms98-a-0037	A.55	141.197875	141.397875		know	know
sw3345A-ms98-a-0037	A.55	141.397875	141.427875		I	i
sw3345A-ms98-a-0037	A.55	141.427875	141.627875		feel	feel
sw3345A-ms98-a-0037	A.55	141.627875	141.937875		sorry	sorry
sw3345A-ms98-a-0037	A.55	141.937875	142.037875		for	for
sw3345A-ms98-a-0037	A.55	142.037875	142.197875		those	those
sw3345A-ms98-a-0037	A.55	142.197875	142.527875		people	people
sw3345A-ms98-a-0037	A.55	142.527875	142.717875		down	down
sw3345A-ms98-a-0037	A.55	142.717875	142.857875		there	there
sw3345A-ms98-a-0037	A.55	142.857875	143.017875		they've	they've
sw3345A-ms98-a-0037	A.55	143.017875	143.247875		just	just
sw3345A-ms98-a-0037	A.55	143.247875	143.412125		been	been
sw3345A-ms98-a-0037	A.55	143.412125	143.816625		so	so
sw3345A-ms98-a-0037	A.55	143.816625	144.532375		[silence]	[silence]
sw3345A-ms98-a-0038	A.55	144.532375	145.233875		[silence]	[silence]
sw3345A-ms98-a-0038	A.55	145.233875	145.896875		terribly	terribly
sw3345A-ms98-a-0038	A.55	145.896875	146.424250		[silence]	[silence]
sw3345A-ms98-a-0038	A.55	146.424250	147.012375		mistreated	mistreated
sw3345A-ms98-a-0038	A.55	147.012375	147.217750		for	for
sw3345A-ms98-a-0038	A.55	147.217750	147.892000		[silence]	[silence]
sw3345A-ms98-a-0038	A.55	147.892000	148.142375		so	so
sw3345A-ms98-a-0038	A.55	148.142375	148.352375		many	many
sw3345A-ms98-a-0038	A.55	148.352375	148.642375		many	many
sw3345A-ms98-a-0038	A.55	148.642375	149.062375		years	years
sw3345A-ms98-a-0038	A.55	149.062375	149.182375		you	you
sw3345A-ms98-a-0038	A.55	149.182375	149.387125		know	know
sw3345A-ms98-a-0038	A.57	149.387125	150.113000		[silence]	[silence]
sw3345A-ms98-a-0038	A.57	150.113000	150.237250		I	i
sw3345A-ms98-a-0038	A.57	150.237250	150.546250		mean	mean
sw3345A-ms98-a-0038	A.59	150.546250	151.427625		[silence]	[silence]
sw3345A-ms98-a-0038	A.59	151.427625	151.702375		through	through
sw3345A-ms98-a-0038	A.59	151.702375	152.092375		Papa	Papa
sw3345A-ms98-a-0038	A.59	152.092375	152.492375		Doc	Doc
sw3345A-ms98-a-0038	A.59	152.492375	152.572375		I	i
sw3345A-ms98-a-0038	A.59	152.572375	152.792375		mean	mean
sw3345A-ms98-a-0038	A.59	152.792375	152.962375		he	he
sw3345A-ms98-a-0038	A.59	152.962375	153.152375		was	was
sw3345A-ms98-a-0038	A.61	153.152375	153.332625		a	a
sw3345A-ms98-a-0038	A.61	153.332625	153.419250		[silence]	[silence]
sw3345A-ms98-a-0038	A.61	153.419250	154.032375		terrible	terrible
sw3345A-ms98-a-0038	A.61	154.032375	154.672375		tyrant	tyrant
sw3345A-ms98-a-0038	A.63	154.672375	155.119250		[silence]	[silence]
sw3345A-ms98-a-0039	A.63	155.119250	155.609250		[silence]	[silence]
sw3345A-ms98-a-0039	A.63	155.609250	156.029250		and	and
sw3345A-ms98-a-0039	A.63	156.029250	156.209250	<DEL>	---	it
sw3345A-ms98-a-0039	A.63	156.209250	156.359250		I	i
sw3345A-ms98-a-0039	A.63	156.359250	156.579250		think	think
sw3345A-ms98-a-0039	A.63	156.579250	156.729250		it's	it's
sw3345A-ms98-a-0039	A.63	156.729250	156.999250		been	been
sw3345A-ms98-a-0039	A.63	156.999250	157.409250		better	better
sw3345A-ms98-a-0039	A.63	157.409250	157.679250		since	since
sw3345A-ms98-a-0039	A.63	157.679250	157.799250		he	he
sw3345A-ms98-a-0039	A.63	157.799250	158.259250		died	died
sw3345A-ms98-a-0039	A.63	158.259250	158.389250		but	but
sw3345A-ms98-a-0039	A.63	158.389250	158.519250		it's	it's
sw3345A-ms98-a-0039	A.63	158.519250	158.779250		still	still
sw3345A-ms98-a-0039	A.63	158.779250	158.979250		been	been
sw3345A-ms98-a-0039	A.63	158.979250	159.384125		bad	bad
sw3345A-ms98-a-0039	A.65	159.384125	160.055500		[silence]	[silence]
sw3345A-ms98-a-0040	A.65	160.055500	160.635500		[silence]	[silence]
sw3345A-ms98-a-0040	A.65	160.635500	161.075500		but	but
sw3345A-ms98-a-0040	A.65	161.075500	161.285500		uh	uh
sw3345A-ms98-a-0040	A.65	161.285500	161.772625		[silence]	[silence]
sw3345A-ms98-a-0041	A.65	161.772625	163.508500		[silence]	[silence]
sw3345A-ms98-a-0042	A.65	163.508500	163.996375		[silence]	[silence]
sw3345A-ms98-a-0042	A.65	163.996375	164.258500		even	even
sw3345A-ms98-a-0042	A.65	164.258500	164.418500		that	that
sw3345A-ms98-a-0042	A.65	164.418500	164.778500		priest	priest
sw3345A-ms98-a-0042	A.65	164.778500	164.908500		that	that
sw3345A-ms98-a-0042	A.65	164.908500	165.028500		was	was
sw3345A-ms98-a-0042	A.65	165.028500	165.178500		in	in
sw3345A-ms98-a-0042	A.65	165.178500	165.648500		control	control
sw3345A-ms98-a-0042	A.65	165.648500	165.798500		there	there
sw3345A-ms98-a-0042	A.65	165.798500	165.918500		for	for
sw3345A-ms98-a-0042	A.65	165.918500	165.958500		a	a
sw3345A-ms98-a-0042	A.65	165.958500	166.308500		while	while
sw3345A-ms98-a-0042	A.65	166.308500	166.448500		that	that
sw3345A-ms98-a-0042	A.65	166.448500	166.682625		they	they
sw3345A-ms98-a-0042	A.65	166.682625	166.840750		[silence]	[silence]
sw3345A-ms98-a-0042	A.65	166.840750	167.608500		overthrew	overthrew
sw3345A-ms98-a-0042	A.65	167.608500	167.748500		uh	uh
sw3345A-ms98-a-0042	A.65	167.748500	168.033375	<DEL>	---	i
sw3345A-ms98-a-0042	A.65	168.033375	168.474125		[silence]	[silence]
sw3345A-ms98-a-0042	A.65	168.474125	168.688500		I've	i've
sw3345A-ms98-a-0042	A.65	168.688500	168.818500		read	read
sw3345A-ms98-a-0042	A.65	168.818500	168.948500		some	some
sw3345A-ms98-a-0042	A.65	168.948500	169.238500		things	things
sw3345A-ms98-a-0042	A.65	169.238500	169.508500		about	about
sw3345A-ms98-a-0042	A.65	169.508500	169.858500		him	him
sw3345A-ms98-a-0042	A.65	169.858500	169.968500		that	that
sw3345A-ms98-a-0042	A.65	169.968500	170.145125		he	he
sw3345A-ms98-a-0042	A.65	170.145125	170.457750		was	was
sw3345A-ms98-a-0042	A.65	170.457750	171.358500		[silence]	[silence]
sw3345A-ms98-a-0042	A.65	171.358500	171.488500		he	he
sw3345A-ms98-a-0042	A.65	171.488500	171.758500		wasn't	wasn't
sw3345A-ms98-a-0042	A.65	171.758500	171.928500		too	too
sw3345A-ms98-a-0042	A.65	171.928500	172.128500		good	good
sw3345A-ms98-a-0042	A.65	172.128500	172.758500		himself	himself
sw3345A-ms98-a-0042	A.67	172.758500	173.257750		[silence]	[silence]
sw3345A-ms98-a-0043	A.67	173.257750	173.797750		[silence]	[silence]
sw3345A-ms98-a-0043	A.67	173.797750	174.017750		Yeah	yeah
sw3345A-ms98-a-0043	A.67	174.017750	174.157750		he	he
sw3345A-ms98-a-0043	A.67	174.157750	174.267750		was	was
sw3345A-ms98-a-0043	A.67	174.267750	174.607750		pretty	pretty
sw3345A-ms98-a-0043	A.67	174.607750	174.857750		pretty	pretty
sw3345A-ms98-a-0043	A.67	174.857750	175.167750		much	much
sw3345A-ms98-a-0043	A.67	175.167750	175.341875		a	a
sw3345A-ms98-a-0043	A.67	175.341875	176.080125		[silence]	[silence]
sw3345A-ms98-a-0043	A.67	176.080125	176.287750		he	he
sw3345A-ms98-a-0043	A.67	176.287750	176.487750		didn't	didn't
sw3345A-ms98-a-0043	A.67	176.487750	176.677750		mind	mind
sw3345A-ms98-a-0043	A.67	176.677750	176.887750		having	having
sw3345A-ms98-a-0043	A.67	176.887750	177.237750		people	people
sw3345A-ms98-a-0043	A.67	177.237750	177.517750		bumped	bumped
sw3345A-ms98-a-0043	A.67	177.517750	177.757750		off	off
sw3345A-ms98-a-0043	A.67	177.757750	178.012375		for	for
sw3345A-ms98-a-0043	A.67	178.012375	178.577625		[silence]	[silence]
sw3345A-ms98-a-0044	A.67	178.577625	179.127625		[silence]	[silence]
sw3345A-ms98-a-0044	A.67	179.127625	179.427625		certain	certain
sw3345A-ms98-a-0044	A.67	179.427625	179.817625		things	things
sw3345A-ms98-a-0044	A.67	179.817625	179.927625		you	you
sw3345A-ms98-a-0044	A.67	179.927625	180.123000		know	know
sw3345A-ms98-a-0044	A.69	180.123000	180.854500		[silence]	[silence]
sw3345A-ms98-a-0044	A.69	180.854500	180.900125		[noise]	[noise]
sw3345A-ms98-a-0044	A.69	180.900125	181.003875		[silence]	[silence]
sw3345A-ms98-a-0045	A.69	181.003875	181.870375		[silence]	[silence]
sw3345A-ms98-a-0045	A.69	181.870375	182.253875		But	but
sw3345A-ms98-a-0045	A.69	182.253875	182.433875		uh	uh
sw3345A-ms98-a-0045	A.71	182.433875	182.935125		[silence]	[silence]
sw3345A-ms98-a-0046	A.71	182.935125	183.458375		[silence]	[silence]
sw3345A-ms98-a-0046	A.71	183.458375	183.563000		[noise]	[noise]
sw3345A-ms98-a-0046	A.71	183.563000	183.866125	<SUB>	It's	that's
sw3345A-ms98-a-0046	A.71	183.866125	184.005875		[silence]	[silence]
sw3345A-ms98-a-0046	A.71	184.005875	184.107375	<DEL>	---	o[ne]-
sw3345A-ms98-a-0046	A.71	184.107375	184.345125		one	one
sw3345A-ms98-a-0046	A.71	184.345125	184.405125		of	of
sw3345A-ms98-a-0046	A.71	184.405125	184.475125		the	the
sw3345A-ms98-a-0046	A.71	184.475125	184.815125		reasons	reasons
sw3345A-ms98-a-0046	A.71	184.815125	184.815125	<INS>	the	---
sw3345A-ms98-a-0046	A.71	184.815125	185.155125	<CONT>	U	US
sw3345A-ms98-a-0046	A.71	185.155125	185.155125	<CONT>	S	+++
sw3345A-ms98-a-0046	A.71	185.155125	185.405125		wasn't	wasn't
sw3345A-ms98-a-0046	A.71	185.405125	185.638250		so	so
sw3345A-ms98-a-0046	A.71	185.638250	186.289875		[silence]	[silence]
sw3345A-ms98-a-0046	A.71	186.289875	186.355125		you	you
sw3345A-ms98-a-0046	A.71	186.355125	186.455125		know	know
sw3345A-ms98-a-0046	A.71	186.455125	186.685125		didn't	didn't
sw3345A-ms98-a-0046	A.71	186.685125	186.785125		do	do
sw3345A-ms98-a-0046	A.71	186.785125	187.085125		more	more
sw3345A-ms98-a-0046	A.71	187.085125	187.225125		than	than
sw3345A-ms98-a-0046	A.71	187.225125	187.422750		they	they
sw3345A-ms98-a-0046	A.71	187.422750	187.731625		[silence]	[silence]
sw3345A-ms98-a-0046	A.71	187.731625	187.925125		did	did
sw3345A-ms98-a-0046	A.71	187.925125	188.102125		at	at
sw3345A-ms98-a-0046	A.71	188.102125	188.265125		the	the
sw3345A-ms98-a-0046	A.71	188.265125	188.265125		time	time
sw3345A-ms98-a-0046	A.73	188.265125	189.222125		[silence]	[silence]
sw3345A-ms98-a-0047	A.73	189.222125	189.893375		[silence]	[silence]
sw3345A-ms98-a-0047	A.73	189.893375	190.042125		because	because_1
sw3345A-ms98-a-0047	A.73	190.042125	190.122125		they	they
sw3345A-ms98-a-0047	A.73	190.122125	190.402125		weren't	weren't
sw3345A-ms98-a-0047	A.73	190.402125	190.612125		all	all
sw3345A-ms98-a-0047	A.73	190.612125	190.752125		that	that
sw3345A-ms98-a-0047	A.73	190.752125	191.152125		excited	excited
sw3345A-ms98-a-0047	A.73	191.152125	191.352125		about	about
sw3345A-ms98-a-0047	A.73	191.352125	191.522125		him	him
sw3345A-ms98-a-0047	A.73	191.522125	191.862125		although	although
sw3345A-ms98-a-0047	A.73	191.862125	192.012125		he's	he's
sw3345A-ms98-a-0047	A.73	192.012125	192.372125		probably	probably
sw3345A-ms98-a-0047	A.73	192.372125	192.731250		better	better
sw3345A-ms98-a-0047	A.73	192.731250	193.375000		than	than
sw3345A-ms98-a-0047	A.73	193.375000	193.472875		a	a
sw3345A-ms98-a-0047	A.73	193.472875	193.742125		lot	lot
sw3345A-ms98-a-0047	A.73	193.742125	193.972125		of	of
sw3345A-ms98-a-0047	A.73	193.972125	194.152125		them	them_1
sw3345A-ms98-a-0047	A.73	194.152125	194.411250		but	but
sw3345A-ms98-a-0047	A.73	194.411250	195.662125		[noise]	[noise]
sw3345A-ms98-a-0047	A.73	195.662125	195.892125		uh	uh
sw3345A-ms98-a-0047	A.73	195.892125	196.182125		but	but
sw3345A-ms98-a-0047	A.73	196.182125	196.322125		then	then
sw3345A-ms98-a-0047	A.73	196.322125	196.622125		again	again
sw3345A-ms98-a-0047	A.73	196.622125	196.822125		who	who
sw3345A-ms98-a-0047	A.73	196.822125	197.002125	<DEL>	---	kn[ow]-
sw3345A-ms98-a-0047	A.73	197.002125	197.162125		you	you
sw3345A-ms98-a-0047	A.73	197.162125	197.462125		know	know
sw3345A-ms98-a-0047	A.73	197.462125	197.622125	<SUB>	those	they're
sw3345A-ms98-a-0047	A.73	197.622125	197.852125	<SUB>	people	so
sw3345A-ms98-a-0047	A.73	197.852125	198.232125	<SUB>	are	super
sw3345A-ms98-a-0047	A.73	198.232125	198.362125		so	so
sw3345A-ms98-a-0047	A.73	198.362125	198.622125		used	used
sw3345A-ms98-a-0047	A.73	198.622125	198.772125		to	to
sw3345A-ms98-a-0047	A.73	198.772125	198.832125		it	it
sw3345A-ms98-a-0047	A.73	198.832125	198.892125		I	i
sw3345A-ms98-a-0047	A.73	198.892125	199.042125		guess	guess
sw3345A-ms98-a-0047	A.73	199.042125	199.172125		it's	it's
sw3345A-ms98-a-0047	A.73	199.172125	199.242125		the	the
sw3345A-ms98-a-0047	A.73	199.242125	199.372125		only	only
sw3345A-ms98-a-0047	A.73	199.372125	199.532125		thing	thing
sw3345A-ms98-a-0047	A.73	199.532125	199.652125		that	that
sw3345A-ms98-a-0047	A.73	199.652125	200.112125		works	works
sw3345A-ms98-a-0047	A.75	200.112125	200.781250		[silence]	[silence]
sw3345A-ms98-a-0048	A.75	200.781250	201.491250		[silence]	[silence]
sw3345A-ms98-a-0048	A.75	201.491250	201.621250	<DEL>	---	and
sw3345A-ms98-a-0048	A.75	201.621250	201.836750	<DEL>	---	not
sw3345A-ms98-a-0048	A.75	201.836750	202.062500	<DEL>	---	that
sw3345A-ms98-a-0048	A.75	202.062500	202.446375		[silence]	[silence]
sw3345A-ms98-a-0049	A.75	202.446375	204.910375		[silence]	[silence]
sw3345A-ms98-a-0050	A.75	204.910375	205.428500		[silence]	[silence]
sw3345A-ms98-a-0050	A.75	205.428500	205.543375		I	i
sw3345A-ms98-a-0050	A.75	205.543375	205.750375		think	think
sw3345A-ms98-a-0050	A.75	205.750375	205.850375		it's	it's
sw3345A-ms98-a-0050	A.75	205.850375	206.120375		pretty	pretty
sw3345A-ms98-a-0050	A.75	206.120375	206.440375		darned	darned
sw3345A-ms98-a-0050	A.75	206.440375	206.740375		good	good
sw3345A-ms98-a-0050	A.75	206.740375	206.860375		I	i
sw3345A-ms98-a-0050	A.75	206.860375	207.060375		think	think
sw3345A-ms98-a-0050	A.75	207.060375	207.240375		we're	we're
sw3345A-ms98-a-0050	A.75	207.240375	207.490375		lucky	lucky
sw3345A-ms98-a-0050	A.75	207.490375	207.570375		to	to
sw3345A-ms98-a-0050	A.75	207.570375	207.730375		have	have
sw3345A-ms98-a-0050	A.75	207.730375	207.800375		as	as
sw3345A-ms98-a-0050	A.75	207.800375	207.980375		good	good
sw3345A-ms98-a-0050	A.75	207.980375	208.106000		a	a
sw3345A-ms98-a-0050	A.75	208.106000	208.787625		[silence]	[silence]
sw3345A-ms98-a-0050	A.75	208.787625	209.090375		coverage	coverage
sw3345A-ms98-a-0050	A.75	209.090375	209.190375		as	as
sw3345A-ms98-a-0050	A.75	209.190375	209.370375		we	we
sw3345A-ms98-a-0050	A.75	209.370375	209.790375		have	have
sw3345A-ms98-a-0050	A.77	209.790375	210.056500		[silence]	[silence]
sw3345A-ms98-a-0051	A.77	210.056500	210.406500		[silence]	[silence]
sw3345A-ms98-a-0051	A.77	210.406500	210.556500		I	i
sw3345A-ms98-a-0051	A.77	210.556500	210.846500		really	really
sw3345A-ms98-a-0051	A.77	210.846500	211.166500		do	do
sw3345A-ms98-a-0051	A.77	211.166500	211.552750		Now	now
sw3345A-ms98-a-0051	A.77	211.552750	211.929500		[silence]	[silence]
sw3345A-ms98-a-0051	A.77	211.929500	212.246500		I	i
sw3345A-ms98-a-0051	A.77	212.246500	212.336500	<DEL>	---	uh
sw3345A-ms98-a-0051	A.77	212.336500	212.618750		they	they
sw3345A-ms98-a-0051	A.77	212.618750	212.743125		[silence]	[silence]
sw3345A-ms98-a-0051	A.77	212.743125	213.236500		sometimes	sometimes
sw3345A-ms98-a-0051	A.77	213.236500	213.336500		they	they
sw3345A-ms98-a-0051	A.77	213.336500	213.596500		jump	jump
sw3345A-ms98-a-0051	A.77	213.596500	213.796500		on	on
sw3345A-ms98-a-0051	A.77	213.796500	213.876500		it	it
sw3345A-ms98-a-0051	A.77	213.876500	214.099375	<SUB>	and	an[d]-
sw3345A-ms98-a-0051	A.77	214.099375	214.227500		[silence]	[silence]
sw3345A-ms98-a-0051	A.77	214.227500	214.516500		and	and
sw3345A-ms98-a-0051	A.77	214.516500	214.736500		and	and
sw3345A-ms98-a-0051	A.77	214.736500	214.956500		go	go
sw3345A-ms98-a-0051	A.77	214.956500	214.986500		a	a
sw3345A-ms98-a-0051	A.77	214.986500	215.216500		little	little
sw3345A-ms98-a-0051	A.77	215.216500	215.416500		to	to
sw3345A-ms98-a-0051	A.77	215.416500	215.526500		the	the
sw3345A-ms98-a-0051	A.77	215.526500	216.096500		extreme	extreme
sw3345A-ms98-a-0051	A.77	216.096500	216.166500		the	the
sw3345A-ms98-a-0051	A.77	216.166500	216.566500		media	media
sw3345A-ms98-a-0051	A.77	216.566500	217.026500		does	does
sw3345A-ms98-a-0051	A.77	217.026500	217.359000		but	but
sw3345A-ms98-a-0051	A.77	217.359000	217.862375		[silence]	[silence]
sw3345A-ms98-a-0052	A.77	217.862375	218.512375		[silence]	[silence]
sw3345A-ms98-a-0052	A.77	218.512375	218.831125		uh	uh
sw3345A-ms98-a-0052	A.77	218.831125	219.196500		[silence]	[silence]
sw3345A-ms98-a-0052	A.77	219.196500	219.492375		but	but
sw3345A-ms98-a-0052	A.77	219.492375	219.662375		that's	that's
sw3345A-ms98-a-0052	A.77	219.662375	219.932375		kind	kind
sw3345A-ms98-a-0052	A.77	219.932375	220.022375		of	of
sw3345A-ms98-a-0052	A.77	220.022375	220.832375		understandable	understandable
sw3345A-ms98-a-0052	A.77	220.832375	220.992375		because	because_1
sw3345A-ms98-a-0052	A.77	220.992375	221.122375		you	you
sw3345A-ms98-a-0052	A.77	221.122375	221.312375		know	know
sw3345A-ms98-a-0052	A.77	221.312375	221.460500	<DEL>	---	i[t]-
sw3345A-ms98-a-0052	A.77	221.460500	221.829625		[silence]	[silence]
sw3345A-ms98-a-0052	A.77	221.829625	221.938875		of	of
sw3345A-ms98-a-0052	A.77	221.938875	222.152375		course	course
sw3345A-ms98-a-0052	A.77	222.152375	222.232375		if	if
sw3345A-ms98-a-0052	A.77	222.232375	222.332375		you	you
sw3345A-ms98-a-0052	A.77	222.332375	222.622375		watch	watch
sw3345A-ms98-a-0052	A.77	222.622375	222.829375		it	it
sw3345A-ms98-a-0052	A.77	222.829375	223.432125		[silence]	[silence]
sw3345A-ms98-a-0052	A.77	223.432125	223.732375		more	more
sw3345A-ms98-a-0052	A.77	223.732375	223.864875	<DEL>	---	th[an]-
sw3345A-ms98-a-0052	A.77	223.864875	224.188875		[silence]	[silence]
sw3345A-ms98-a-0052	A.77	224.188875	224.512375		more	more
sw3345A-ms98-a-0052	A.77	224.512375	224.662375		than	than
sw3345A-ms98-a-0052	A.77	224.662375	224.902375		once	once
sw3345A-ms98-a-0052	A.77	224.902375	224.972375		a	a
sw3345A-ms98-a-0052	A.77	224.972375	225.242375		day	day
sw3345A-ms98-a-0052	A.77	225.242375	225.302375		I	i
sw3345A-ms98-a-0052	A.77	225.302375	225.502375		mean	mean
sw3345A-ms98-a-0052	A.77	225.502375	225.612375		it's	it's
sw3345A-ms98-a-0052	A.77	225.612375	225.672375		the	the
sw3345A-ms98-a-0052	A.77	225.672375	225.942375		same	same
sw3345A-ms98-a-0052	A.77	225.942375	226.142375		thing	thing
sw3345A-ms98-a-0052	A.77	226.142375	226.312375		over	over
sw3345A-ms98-a-0052	A.77	226.312375	226.402375		and	and
sw3345A-ms98-a-0052	A.77	226.402375	226.522375		over	over
sw3345A-ms98-a-0052	A.77	226.522375	226.612375		and	and
sw3345A-ms98-a-0052	A.77	226.612375	226.732375		over	over
sw3345A-ms98-a-0052	A.77	226.732375	226.822375		and	and
sw3345A-ms98-a-0052	A.77	226.822375	226.912375		over	over
sw3345A-ms98-a-0052	A.77	226.912375	227.002375		and	and
sw3345A-ms98-a-0052	A.77	227.002375	227.032375		I	i
sw3345A-ms98-a-0052	A.77	227.032375	227.232375		listen	listen
sw3345A-ms98-a-0052	A.77	227.232375	227.292375		to	to
sw3345A-ms98-a-0052	A.77	227.292375	227.382375		the	the
sw3345A-ms98-a-0052	A.77	227.382375	227.912375		radio	radio
sw3345A-ms98-a-0052	A.79	227.912375	228.165875	<DEL>	---	watch
sw3345A-ms98-a-0052	A.79	228.165875	228.497750		[silence]	[silence]
sw3345A-ms98-a-0053	A.79	228.497750	228.842250		[silence]	[silence]
sw3345A-ms98-a-0053	A.79	228.842250	229.037750		so	so
sw3345A-ms98-a-0053	A.79	229.037750	229.268875		I	i
sw3345A-ms98-a-0053	A.79	229.268875	229.507750		you	you
sw3345A-ms98-a-0053	A.79	229.507750	229.667750		hear	hear
sw3345A-ms98-a-0053	A.79	229.667750	229.727750	<DEL>	---	it
sw3345A-ms98-a-0053	A.79	229.727750	229.847750		so	so
sw3345A-ms98-a-0053	A.79	229.847750	230.077750		much	much
sw3345A-ms98-a-0053	A.79	230.077750	230.137750		you	you
sw3345A-ms98-a-0053	A.79	230.137750	230.257750		get	get
sw3345A-ms98-a-0053	A.79	230.257750	230.287750		a	a
sw3345A-ms98-a-0053	A.79	230.287750	230.437750		little	little
sw3345A-ms98-a-0053	A.79	230.437750	230.787750		tired	tired
sw3345A-ms98-a-0053	A.79	230.787750	230.897750		of	of
sw3345A-ms98-a-0053	A.79	230.897750	231.007750		it	it
sw3345A-ms98-a-0053	A.79	231.007750	231.157750		but	but
sw3345A-ms98-a-0053	A.79	231.157750	231.297750		then	then
sw3345A-ms98-a-0053	A.79	231.297750	231.783250		again	again
sw3345A-ms98-a-0053	A.79	231.783250	232.431125		[silence]	[silence]
sw3345A-ms98-a-0053	A.79	232.431125	232.567750		so	so
sw3345A-ms98-a-0053	A.79	232.567750	232.757750		many	many
sw3345A-ms98-a-0053	A.79	232.757750	233.037750		people	people
sw3345A-ms98-a-0053	A.79	233.037750	233.107750		you	you
sw3345A-ms98-a-0053	A.79	233.107750	233.207750		got	got
sw3345A-ms98-a-0053	A.79	233.207750	233.267750		to	to
sw3345A-ms98-a-0053	A.79	233.267750	233.637750		understand	understand
sw3345A-ms98-a-0053	A.79	233.637750	233.886375		only	only
sw3345A-ms98-a-0053	A.79	233.886375	234.312000		[silence]	[silence]
sw3345A-ms98-a-0053	A.79	234.312000	234.497750		catch	catch
sw3345A-ms98-a-0053	A.79	234.497750	234.597750		it	it
sw3345A-ms98-a-0053	A.79	234.597750	234.807750		once	once
sw3345A-ms98-a-0053	A.79	234.807750	234.867750		a	a
sw3345A-ms98-a-0053	A.79	234.867750	235.067750		day	day
sw3345A-ms98-a-0053	A.79	235.067750	235.427750		maybe	maybe
sw3345A-ms98-a-0053	A.81	235.427750	236.044625		[silence]	[silence]
sw3345A-ms98-a-0054	A.81	236.044625	236.710875		[silence]	[silence]
sw3345A-ms98-a-0054	A.81	236.710875	236.844625		but	but
sw3345A-ms98-a-0054	A.81	236.844625	236.974625		I	i
sw3345A-ms98-a-0054	A.81	236.974625	237.214625		think	think
sw3345A-ms98-a-0054	A.81	237.214625	237.294625		the	the
sw3345A-ms98-a-0054	A.81	237.294625	237.664625		quality	quality
sw3345A-ms98-a-0054	A.81	237.664625	237.744625		of	of
sw3345A-ms98-a-0054	A.81	237.744625	238.094625		our	our
sw3345A-ms98-a-0054	A.81	238.094625	238.240875		uh	uh
sw3345A-ms98-a-0054	A.81	238.240875	239.107125		[silence]	[silence]
sw3345A-ms98-a-0054	A.81	239.107125	239.284625		our	our
sw3345A-ms98-a-0054	A.81	239.284625	239.894625		news	news
sw3345A-ms98-a-0054	A.81	239.894625	240.124625		is	is
sw3345A-ms98-a-0054	A.81	240.124625	240.644625		just	just
sw3345A-ms98-a-0054	A.81	240.644625	240.853250		uh	uh
sw3345A-ms98-a-0054	A.81	240.853250	241.802500		[silence]	[silence]
sw3345A-ms98-a-0054	A.81	241.802500	241.904625		I	i
sw3345A-ms98-a-0054	A.81	241.904625	242.044625		don't	don't
sw3345A-ms98-a-0054	A.81	242.044625	242.214625		believe	believe
sw3345A-ms98-a-0054	A.81	242.214625	242.274625		it	it
sw3345A-ms98-a-0054	A.81	242.274625	242.394625		could	could
sw3345A-ms98-a-0054	A.81	242.394625	242.504625		be	be
sw3345A-ms98-a-0054	A.81	242.504625	242.834625		better	better
sw3345A-ms98-a-0054	A.83	242.834625	243.463250		[silence]	[silence]
sw3345A-ms98-a-0055	A.83	243.463250	244.111875		[silence]	[silence]
sw3345A-ms98-a-0055	A.83	244.111875	244.263250		I	i
sw3345A-ms98-a-0055	A.83	244.263250	244.513250		really	really
sw3345A-ms98-a-0055	A.83	244.513250	244.923375		don't	don't
sw3345A-ms98-a-0055	A.85	244.923375	245.403750		[silence]	[silence]
sw3345A-ms98-a-0056	A.85	245.403750	249.429125		[silence]	[silence]
sw3345A-ms98-a-0057	A.85	249.429125	249.893875		[silence]	[silence]
sw3345A-ms98-a-0057	A.85	249.893875	250.027000		I	i
sw3345A-ms98-a-0057	A.85	250.027000	250.209125		don't	don't
sw3345A-ms98-a-0057	A.85	250.209125	250.379125		think	think
sw3345A-ms98-a-0057	A.85	250.379125	250.654250		so	so
sw3345A-ms98-a-0057	A.87	250.654250	251.033375		[silence]	[silence]
sw3345A-ms98-a-0058	A.87	251.033375	251.422250		[silence]	[silence]
sw3345A-ms98-a-0058	A.87	251.422250	251.503375		I	i
sw3345A-ms98-a-0058	A.87	251.503375	251.663375		don't	don't
sw3345A-ms98-a-0058	A.87	251.663375	251.853375		think	think
sw3345A-ms98-a-0058	A.87	251.853375	251.953375		our	our
sw3345A-ms98-a-0058	A.87	251.953375	252.153375		news	news
sw3345A-ms98-a-0058	A.87	252.153375	252.293375		could	could
sw3345A-ms98-a-0058	A.87	252.293375	252.433375		be	be
sw3345A-ms98-a-0058	A.87	252.433375	252.721125		better	better
sw3345A-ms98-a-0058	A.89	252.721125	253.072000		[silence]	[silence]
sw3345A-ms98-a-0059	A.89	253.072000	253.439500		[silence]	[silence]
sw3345A-ms98-a-0059	A.89	253.439500	253.555250		I	i
sw3345A-ms98-a-0059	A.89	253.555250	253.642000		I	i
sw3345A-ms98-a-0059	A.89	253.642000	253.862000		mean	mean
sw3345A-ms98-a-0059	A.89	253.862000	253.892000		I	i
sw3345A-ms98-a-0059	A.89	253.892000	254.132000		mean	mean
sw3345A-ms98-a-0059	A.89	254.132000	254.292000		what	what
sw3345A-ms98-a-0059	A.89	254.292000	254.402000		else	else
sw3345A-ms98-a-0059	A.89	254.402000	254.562000		could	could
sw3345A-ms98-a-0059	A.89	254.562000	254.662000		they	they
sw3345A-ms98-a-0059	A.89	254.662000	254.922000		do	do
sw3345A-ms98-a-0059	A.89	254.922000	255.002000		to	to
sw3345A-ms98-a-0059	A.89	255.002000	255.212000		make	make
sw3345A-ms98-a-0059	A.89	255.212000	255.322000		it	it
sw3345A-ms98-a-0059	A.89	255.322000	255.782000		better	better
sw3345A-ms98-a-0059	A.91	255.782000	256.353625		[silence]	[silence]
sw3345A-ms98-a-0060	A.91	256.353625	257.003625		[silence]	[silence]
sw3345A-ms98-a-0060	A.91	257.003625	257.128125		I	i
sw3345A-ms98-a-0060	A.91	257.128125	257.327750		don't	don't
sw3345A-ms98-a-0060	A.91	257.327750	257.730750		[silence]	[silence]
sw3345A-ms98-a-0060	A.91	257.730750	257.973625		see	see
sw3345A-ms98-a-0060	A.91	257.973625	258.273625		anything	anything
sw3345A-ms98-a-0060	A.91	258.273625	258.393625		that	that
sw3345A-ms98-a-0060	A.91	258.393625	258.503625		they	they
sw3345A-ms98-a-0060	A.91	258.503625	258.673625		could	could
sw3345A-ms98-a-0060	A.91	258.673625	258.903625		do	do
sw3345A-ms98-a-0060	A.93	258.903625	259.461750		[silence]	[silence]
sw3345A-ms98-a-0061	A.93	259.461750	266.521875		[silence]	[silence]
sw3345A-ms98-a-0062	A.93	266.521875	267.037750		[silence]	[silence]
sw3345A-ms98-a-0062	A.93	267.037750	267.291875		Well	well
sw3345A-ms98-a-0062	A.93	267.291875	267.471875		you	you
sw3345A-ms98-a-0062	A.93	267.471875	267.791875		always	always
sw3345A-ms98-a-0062	A.95	267.791875	267.991875	<SUB>	want	wanna
sw3345A-ms98-a-0062	A.95	267.991875	267.991875	<INS>	to	---
sw3345A-ms98-a-0062	A.95	267.991875	268.401875		think	think
sw3345A-ms98-a-0062	A.95	268.401875	269.051875		everything	everything
sw3345A-ms98-a-0062	A.95	269.051875	269.251875		can	can
sw3345A-ms98-a-0062	A.95	269.251875	269.401875		be	be
sw3345A-ms98-a-0062	A.95	269.401875	269.861875		improved	improved
sw3345A-ms98-a-0062	A.95	269.861875	270.331875		upon	upon
sw3345A-ms98-a-0062	A.97	270.331875	270.381875		I	i
sw3345A-ms98-a-0062	A.97	270.381875	270.601875	<DEL>	---	i
sw3345A-ms98-a-0062	A.97	270.601875	270.804375	<DEL>	---	r[eally]-
sw3345A-ms98-a-0062	A.97	270.804375	270.970125	<DEL>	---	i
sw3345A-ms98-a-0062	A.97	270.970125	271.301875		understand	understand
sw3345A-ms98-a-0062	A.97	271.301875	271.411875		what	what
sw3345A-ms98-a-0062	A.97	271.411875	271.531875		you're	you're
sw3345A-ms98-a-0062	A.97	271.531875	271.991875		saying	saying
sw3345A-ms98-a-0062	A.99	271.991875	272.650750		[silence]	[silence]
sw3345A-ms98-a-0063	A.99	272.650750	273.350750		[silence]	[silence]
sw3345A-ms98-a-0063	A.99	273.350750	273.560750		But	but
sw3345A-ms98-a-0063	A.99	273.560750	273.690750		by	by
sw3345A-ms98-a-0063	A.99	273.690750	274.060750		trial	trial
sw3345A-ms98-a-0063	A.99	274.060750	274.240750		and	and
sw3345A-ms98-a-0063	A.99	274.240750	274.620750		error	error
sw3345A-ms98-a-0063	A.99	274.620750	274.810750		over	over
sw3345A-ms98-a-0063	A.99	274.810750	274.870750		the	the
sw3345A-ms98-a-0063	A.99	274.870750	275.260750		years	years
sw3345A-ms98-a-0063	A.99	275.260750	275.360750		I	i
sw3345A-ms98-a-0063	A.99	275.360750	275.550750		think	think
sw3345A-ms98-a-0063	A.99	275.550750	275.640750		they	they
sw3345A-ms98-a-0063	A.99	275.640750	275.810750		got	got
sw3345A-ms98-a-0063	A.99	275.810750	275.890750		it	it
sw3345A-ms98-a-0063	A.99	275.890750	276.010750		about	about_1
sw3345A-ms98-a-0063	A.99	276.010750	276.090750		as	as
sw3345A-ms98-a-0063	A.99	276.090750	276.210750		good	good
sw3345A-ms98-a-0063	A.99	276.210750	276.270750		as	as
sw3345A-ms98-a-0063	A.99	276.270750	276.330750	<SUB>	they're	they
sw3345A-ms98-a-0063	A.99	276.330750	276.540750	<SUB>	going	gonna
sw3345A-ms98-a-0063	A.99	276.540750	276.540750	<INS>	to	---
sw3345A-ms98-a-0063	A.99	276.540750	276.770750		get	get
sw3345A-ms98-a-0063	A.99	276.770750	276.920750		it	it
sw3345A-ms98-a-0063	A.101	276.920750	277.372875		[silence]	[silence]
sw3345A-ms98-a-0064	A.101	277.372875	278.382125		[silence]	[silence]
sw3345A-ms98-a-0065	A.101	278.382125	278.856000		[silence]	[silence]
sw3345A-ms98-a-0065	A.101	278.856000	279.385500		Uh	uh
sw3345A-ms98-a-0065	A.103	279.385500	280.112125		[silence]	[silence]
sw3345A-ms98-a-0065	A.103	280.112125	280.452125		nothing	nothing
sw3345A-ms98-a-0065	A.103	280.452125	280.572125		is	is
sw3345A-ms98-a-0065	A.103	280.572125	281.052125		perfect	perfect
sw3345A-ms98-a-0065	A.105	281.052125	281.343750	<DEL>	---	but
sw3345A-ms98-a-0065	A.105	281.343750	281.898375		[silence]	[silence]
sw3345A-ms98-a-0066	A.105	281.898375	282.476125		[silence]	[silence]
sw3345A-ms98-a-0066	A.105	282.476125	282.797625	<DEL>	---	yeah
sw3345A-ms98-a-0066	A.105	282.797625	283.499750		[silence]	[silence]
sw3345A-ms98-a-0067	A.105	283.499750	284.229750		[silence]	[silence]
sw3345A-ms98-a-0067	A.105	284.229750	284.604125		Uh-huh	uh-huh
sw3345A-ms98-a-0067	A.107	284.604125	285.397875		[silence]	[silence]
sw3345A-ms98-a-0068	A.107	285.397875	286.127875		[silence]	[silence]
sw3345A-ms98-a-0068	A.107	286.127875	286.558250		Well	well
sw3345A-ms98-a-0068	A.107	286.558250	286.734125	<DEL>	---	th[at's]-
sw3345A-ms98-a-0068	A.107	286.734125	286.948750		[silence]	[silence]
sw3345A-ms98-a-0068	A.107	286.948750	287.184750	<DEL>	---	uh
sw3345A-ms98-a-0068	A.107	287.184750	287.417875		that's	that's
sw3345A-ms98-a-0068	A.107	287.417875	287.737875		true	true
sw3345A-ms98-a-0068	A.107	287.737875	287.797875		I	i
sw3345A-ms98-a-0068	A.107	287.797875	288.157875		understand	understand
sw3345A-ms98-a-0068	A.107	288.157875	288.287875		what	what
sw3345A-ms98-a-0068	A.107	288.287875	288.377875		you're	you're
sw3345A-ms98-a-0068	A.107	288.377875	288.627875		saying	saying
sw3345A-ms98-a-0068	A.107	288.627875	288.757875		and	and
sw3345A-ms98-a-0068	A.107	288.757875	288.867875		then	then
sw3345A-ms98-a-0068	A.107	288.867875	289.197875		again	again
sw3345A-ms98-a-0068	A.107	289.197875	289.883750		[silence]	[silence]
sw3345A-ms98-a-0069	A.107	289.883750	290.513750		[silence]	[silence]
sw3345A-ms98-a-0069	A.107	290.513750	290.633750		I	i
sw3345A-ms98-a-0069	A.107	290.633750	290.983750		understand	understand
sw3345A-ms98-a-0069	A.107	290.983750	291.093750		why	why
sw3345A-ms98-a-0069	A.107	291.093750	291.183750		they	they
sw3345A-ms98-a-0069	A.107	291.183750	291.423750		can't	can't
sw3345A-ms98-a-0069	A.107	291.423750	291.593750		dig	dig
sw3345A-ms98-a-0069	A.107	291.593750	291.703750		too	too
sw3345A-ms98-a-0069	A.107	291.703750	291.863750		much	much
sw3345A-ms98-a-0069	A.107	291.863750	292.083750		deeper	deeper
sw3345A-ms98-a-0069	A.107	292.083750	292.253750		that's	that's
sw3345A-ms98-a-0069	A.107	292.253750	292.373750		why	why
sw3345A-ms98-a-0069	A.107	292.373750	292.533750		we	we
sw3345A-ms98-a-0069	A.107	292.533750	292.653750		have	have
sw3345A-ms98-a-0069	A.107	292.653750	293.293750	<CONT>	C	CNN
sw3345A-ms98-a-0069	A.107	293.293750	293.293750	<CONT>	N	+++
sw3345A-ms98-a-0069	A.107	293.293750	293.293750	<CONT>	N	+++
sw3345A-ms98-a-0069	A.107	293.293750	293.393750	<DEL>	---	you
sw3345A-ms98-a-0069	A.107	293.393750	293.591000	<DEL>	---	know
sw3345A-ms98-a-0069	A.109	293.591000	293.997750		[silence]	[silence]
sw3345A-ms98-a-0069	A.109	293.997750	294.623750	<CONT>	C	CNN
sw3345A-ms98-a-0069	A.109	294.623750	294.623750	<CONT>	N	+++
sw3345A-ms98-a-0069	A.109	294.623750	294.623750	<CONT>	N	+++
sw3345A-ms98-a-0069	A.109	294.623750	294.853750		has	has
sw3345A-ms98-a-0069	A.109	294.853750	294.913750		the	the
sw3345A-ms98-a-0069	A.109	294.913750	295.253750		time	time
sw3345A-ms98-a-0069	A.109	295.253750	295.403750		since	since
sw3345A-ms98-a-0069	A.109	295.403750	295.553750		that's	that's
sw3345A-ms98-a-0069	A.109	295.553750	295.693750		all	all
sw3345A-ms98-a-0069	A.109	295.693750	295.783750		they	they
sw3345A-ms98-a-0069	A.109	295.783750	295.883750		do	do
sw3345A-ms98-a-0069	A.109	295.883750	296.083750		is	is
sw3345A-ms98-a-0069	A.109	296.083750	296.487500		news	news
sw3345A-ms98-a-0069	A.111	296.487500	296.822625		[silence]	[silence]
sw3345A-ms98-a-0069	A.111	296.822625	296.953750		to	to
sw3345A-ms98-a-0069	A.111	296.953750	297.183750		dig	dig
sw3345A-ms98-a-0069	A.111	297.183750	297.571375		deeper	deeper
sw3345A-ms98-a-0069	A.111	297.571375	298.370000		[silence]	[silence]
