sw3345B-ms98-a-0001	@B.2	0.000000	1.020875		[silence]	[silence]
sw3345B-ms98-a-0002	@B.2	1.020875	1.060875		[silence]	[silence]
sw3345B-ms98-a-0002	@B.2	1.060875	1.590875		[noise]	[noise]
sw3345B-ms98-a-0002	@B.2	1.590875	1.900875		Um	um
sw3345B-ms98-a-0002	@B.2	1.900875	2.300875		[silence]	[silence]
sw3345B-ms98-a-0002	@B.2	2.300875	2.840875		somewhat	somewhat
sw3345B-ms98-a-0002	@B.2	2.840875	3.313125		Yeah	yeah
sw3345B-ms98-a-0002	@B.2	3.313125	3.761375	<SUB>	somewhat	not
sw3345B-ms98-a-0002	B.4	3.761375	4.062625		[silence]	[silence]
sw3345B-ms98-a-0002	B.4	4.062625	4.240875		not	not
sw3345B-ms98-a-0002	B.4	4.240875	4.360875		as	as
sw3345B-ms98-a-0002	B.4	4.360875	4.640875		well	well
sw3345B-ms98-a-0002	B.4	4.640875	4.770875		as	as
sw3345B-ms98-a-0002	B.4	4.770875	5.207125		I	i
sw3345B-ms98-a-0002	B.4	5.207125	5.561250		[silence]	[silence]
sw3345B-ms98-a-0002	B.4	5.561250	5.780875		would	would
sw3345B-ms98-a-0002	B.4	5.780875	6.010875		like	like
sw3345B-ms98-a-0002	B.4	6.010875	6.423750		to	to
sw3345B-ms98-a-0002	B.4	6.423750	6.578250		[silence]	[silence]
sw3345B-ms98-a-0002	B.4	6.578250	7.280875		probably	probably
sw3345B-ms98-a-0002	B.6	7.280875	7.541500		but	but
sw3345B-ms98-a-0002	B.6	7.541500	7.635625		[silence]	[silence]
sw3345B-ms98-a-0002	B.6	7.635625	7.840875		that's	that's
sw3345B-ms98-a-0002	B.6	7.840875	7.910875		the	the
sw3345B-ms98-a-0002	B.6	7.910875	8.050875		way	way
sw3345B-ms98-a-0002	B.6	8.050875	8.200875		it	it
sw3345B-ms98-a-0002	B.6	8.200875	8.716875		goes	goes
sw3345B-ms98-a-0002	B.8	8.716875	9.231125		[silence]	[silence]
sw3345B-ms98-a-0003	B.8	9.231125	10.588250		[silence]	[silence]
sw3345B-ms98-a-0004	B.8	10.588250	11.094125		[silence]	[silence]
sw3345B-ms98-a-0004	B.8	11.094125	11.318250		What	what
sw3345B-ms98-a-0004	B.10	11.318250	12.117250		[silence]	[silence]
sw3345B-ms98-a-0005	B.10	12.117250	12.657250		[silence]	[silence]
sw3345B-ms98-a-0005	B.10	12.657250	12.987250		Um	um
sw3345B-ms98-a-0005	B.10	12.987250	13.297250		State	State
sw3345B-ms98-a-0005	B.10	13.297250	13.880500		College	College
sw3345B-ms98-a-0005	B.10	13.880500	13.967250		I	i
sw3345B-ms98-a-0005	B.10	13.967250	14.107250		go	go
sw3345B-ms98-a-0005	B.10	14.107250	14.197250		to	to
sw3345B-ms98-a-0005	B.10	14.197250	14.467250		Penn	Penn
sw3345B-ms98-a-0005	B.10	14.467250	14.847250		State	State
sw3345B-ms98-a-0005	B.12	14.847250	15.756500		[silence]	[silence]
sw3345B-ms98-a-0006	B.12	15.756500	16.646500		[silence]	[silence]
sw3345B-ms98-a-0006	B.12	16.646500	17.308000		Yep	yep
sw3345B-ms98-a-0006	B.14	17.308000	17.965125		[silence]	[silence]
sw3345B-ms98-a-0007	B.14	17.965125	20.089250		[silence]	[silence]
sw3345B-ms98-a-0008	B.14	20.089250	20.639250		[silence]	[silence]
sw3345B-ms98-a-0008	B.14	20.639250	21.179250		Right	[laughter-right]
sw3345B-ms98-a-0008	B.14	21.179250	21.782250		exactly	[laughter-exactly]
sw3345B-ms98-a-0008	B.14	21.782250	22.170125		[silence]	[silence]
sw3345B-ms98-a-0008	B.14	22.170125	22.580750		uh	uh
sw3345B-ms98-a-0008	B.16	22.580750	23.078500		[silence]	[silence]
sw3345B-ms98-a-0009	B.16	23.078500	32.091875		[silence]	[silence]
sw3345B-ms98-a-0010	B.16	32.091875	32.591875		[silence]	[silence]
sw3345B-ms98-a-0010	B.16	32.591875	32.881875		I	i
sw3345B-ms98-a-0010	B.16	32.881875	33.324375		see	see
sw3345B-ms98-a-0010	B.18	33.324375	33.716000		[silence]	[silence]
sw3345B-ms98-a-0010	B.18	33.716000	33.871875		Well	well
sw3345B-ms98-a-0010	B.18	33.871875	34.061875		what	what
sw3345B-ms98-a-0010	B.18	34.061875	34.761875		particularly	particularly
sw3345B-ms98-a-0010	B.18	34.761875	34.851875		are	are
sw3345B-ms98-a-0010	B.18	34.851875	34.991875		you	you
sw3345B-ms98-a-0010	B.18	34.991875	35.441875		interested	interested
sw3345B-ms98-a-0010	B.18	35.441875	35.711875		in	in
sw3345B-ms98-a-0010	B.20	35.711875	36.433750		[silence]	[silence]
sw3345B-ms98-a-0011	B.20	36.433750	40.272875		[silence]	[silence]
sw3345B-ms98-a-0012	B.20	40.272875	40.532375		[silence]	[silence]
sw3345B-ms98-a-0012	B.20	40.532375	40.892625	<SUB>	Uh-huh	um-hum
sw3345B-ms98-a-0012	B.22	40.892625	41.448125		[silence]	[silence]
sw3345B-ms98-a-0013	B.22	41.448125	54.542000		[silence]	[silence]
sw3345B-ms98-a-0014	B.22	54.542000	55.049875		[silence]	[silence]
sw3345B-ms98-a-0014	B.22	55.049875	55.696750	<SUB>	Uh-huh	um-hum
sw3345B-ms98-a-0014	B.24	55.696750	56.482375		[silence]	[silence]
sw3345B-ms98-a-0015	B.24	56.482375	63.104750		[silence]	[silence]
sw3345B-ms98-a-0016	B.24	63.104750	63.564750		[silence]	[silence]
sw3345B-ms98-a-0016	B.24	63.564750	64.035750		Yeah	yeah
sw3345B-ms98-a-0016	B.26	64.035750	64.513375		[silence]	[silence]
sw3345B-ms98-a-0017	B.26	64.513375	70.252250		[silence]	[silence]
sw3345B-ms98-a-0018	B.26	70.252250	70.732250		[silence]	[silence]
sw3345B-ms98-a-0018	B.26	70.732250	70.932250		I	i
sw3345B-ms98-a-0018	B.26	70.932250	71.508125		see	[laughter-see]
sw3345B-ms98-a-0018	B.28	71.508125	72.558875		[silence]	[silence]
sw3345B-ms98-a-0019	B.28	72.558875	73.321000		[silence]	[silence]
sw3345B-ms98-a-0019	B.28	73.321000	73.870750	<SUB>	Uh-huh	um-hum
sw3345B-ms98-a-0019	B.30	73.870750	74.388875		[noise]	[noise]
sw3345B-ms98-a-0019	B.30	74.388875	74.572250		[silence]	[silence]
sw3345B-ms98-a-0020	B.30	74.572250	82.885500		[silence]	[silence]
sw3345B-ms98-a-0021	B.30	82.885500	83.455500		[silence]	[silence]
sw3345B-ms98-a-0021	B.30	83.455500	83.960250		Um	um
sw3345B-ms98-a-0021	B.32	83.960250	84.483750		[silence]	[silence]
sw3345B-ms98-a-0021	B.32	84.483750	85.218875		uh	uh
sw3345B-ms98-a-0021	B.32	85.218875	85.810250		[silence]	[silence]
sw3345B-ms98-a-0021	B.32	85.810250	86.291125		well	well
sw3345B-ms98-a-0021	B.32	86.291125	86.370250		[silence]	[silence]
sw3345B-ms98-a-0021	B.32	86.370250	86.655500		some	some
sw3345B-ms98-a-0021	B.32	86.655500	86.795500		of	of
sw3345B-ms98-a-0021	B.32	86.795500	87.315500		both	both
sw3345B-ms98-a-0021	B.34	87.315500	87.785875		I	i
sw3345B-ms98-a-0021	B.34	87.785875	88.282875		[silence]	[silence]
sw3345B-ms98-a-0022	B.34	88.282875	88.810125		[silence]	[silence]
sw3345B-ms98-a-0022	B.34	88.810125	89.395125		read	read
sw3345B-ms98-a-0022	B.34	89.395125	89.526875		[silence]	[silence]
sw3345B-ms98-a-0022	B.34	89.526875	89.638000		I	i
sw3345B-ms98-a-0022	B.34	89.638000	89.772875		read	read
sw3345B-ms98-a-0022	B.34	89.772875	89.832875		the	the
sw3345B-ms98-a-0022	B.34	89.832875	90.582875		newspapers	newspapers
sw3345B-ms98-a-0022	B.34	90.582875	91.778750		sometimes	sometimes
sw3345B-ms98-a-0022	B.36	91.778750	92.398125		[silence]	[silence]
sw3345B-ms98-a-0022	B.36	92.398125	93.032875		and	and
sw3345B-ms98-a-0022	B.36	93.032875	93.500125		I	i
sw3345B-ms98-a-0022	B.36	93.500125	94.001125		[silence]	[silence]
sw3345B-ms98-a-0022	B.36	94.001125	94.610875		watch	watch
sw3345B-ms98-a-0022	B.36	94.610875	95.432875	<CONT>	C	CNN
sw3345B-ms98-a-0022	B.36	95.432875	95.432875	<CONT>	N	+++
sw3345B-ms98-a-0022	B.36	95.432875	95.432875	<CONT>	N	+++
sw3345B-ms98-a-0022	B.36	95.432875	95.732875	<DEL>	---	and
sw3345B-ms98-a-0022	B.36	95.732875	95.922875		that	that
sw3345B-ms98-a-0022	B.36	95.922875	96.242875		sort	sort
sw3345B-ms98-a-0022	B.36	96.242875	96.332875		of	of
sw3345B-ms98-a-0022	B.36	96.332875	96.762875		thing	thing
sw3345B-ms98-a-0022	B.38	96.762875	97.288250		[silence]	[silence]
sw3345B-ms98-a-0022	B.38	97.288250	98.413250		occasionally	occasionally
sw3345B-ms98-a-0022	B.40	98.413250	98.981625		[silence]	[silence]
sw3345B-ms98-a-0022	B.40	98.981625	99.510250		and	and
sw3345B-ms98-a-0022	B.40	99.510250	99.859000		[vocalized-noise]	[vocalized-noise]
sw3345B-ms98-a-0022	B.40	99.859000	100.336625		I	i
sw3345B-ms98-a-0022	B.40	100.336625	100.891000		[silence]	[silence]
sw3345B-ms98-a-0023	B.40	100.891000	101.898375		[silence]	[silence]
sw3345B-ms98-a-0024	B.40	101.898375	102.378375		[silence]	[silence]
sw3345B-ms98-a-0024	B.40	102.378375	102.678375		read	read
sw3345B-ms98-a-0024	B.40	102.678375	103.658375		magazines	magazines
sw3345B-ms98-a-0024	B.40	103.658375	104.228375		and	and
sw3345B-ms98-a-0024	B.40	104.228375	104.844000		such	such
sw3345B-ms98-a-0024	B.42	104.844000	105.763250		[silence]	[silence]
sw3345B-ms98-a-0025	B.42	105.763250	106.714500		[silence]	[silence]
sw3345B-ms98-a-0025	B.42	106.714500	107.116375		Well	well
sw3345B-ms98-a-0025	B.42	107.116375	107.711500		[silence]	[silence]
sw3345B-ms98-a-0025	B.42	107.711500	108.103250		yeah	yeah
sw3345B-ms98-a-0025	B.42	108.103250	108.227250		I	i
sw3345B-ms98-a-0025	B.42	108.227250	108.434375		mean	mean
sw3345B-ms98-a-0025	B.42	108.434375	108.753250		not	not
sw3345B-ms98-a-0025	B.42	108.753250	108.973250		[silence]	[silence]
sw3345B-ms98-a-0025	B.42	108.973250	109.173250		not	not
sw3345B-ms98-a-0025	B.42	109.173250	109.423250		that	that
sw3345B-ms98-a-0025	B.42	109.423250	109.928000		badly	badly
sw3345B-ms98-a-0025	B.44	109.928000	110.398750		[silence]	[silence]
sw3345B-ms98-a-0025	B.44	110.398750	110.913250		anyway	anyway
sw3345B-ms98-a-0025	B.44	110.913250	111.123250		so	so
sw3345B-ms98-a-0025	B.44	111.123250	111.223250		I	i
sw3345B-ms98-a-0025	B.44	111.223250	111.544250		am	am
sw3345B-ms98-a-0025	B.44	111.544250	111.984875		[silence]	[silence]
sw3345B-ms98-a-0025	B.44	111.984875	112.116125		I	i
sw3345B-ms98-a-0025	B.44	112.116125	112.244250		am	am
sw3345B-ms98-a-0025	B.44	112.244250	112.713250		interested	interested
sw3345B-ms98-a-0025	B.44	112.713250	112.843250		in	in
sw3345B-ms98-a-0025	B.44	112.843250	113.063250		what's	what's
sw3345B-ms98-a-0025	B.44	113.063250	113.383250		going	going
sw3345B-ms98-a-0025	B.44	113.383250	113.671000		on	on
sw3345B-ms98-a-0025	B.44	113.671000	114.235250		[silence]	[silence]
sw3345B-ms98-a-0026	B.44	114.235250	114.595250		[silence]	[silence]
sw3345B-ms98-a-0026	B.44	114.595250	115.209500		and	and
sw3345B-ms98-a-0026	B.44	115.209500	115.928875		[silence]	[silence]
sw3345B-ms98-a-0026	B.44	115.928875	116.125250		I'm	i'm
sw3345B-ms98-a-0026	B.44	116.125250	116.955250		particularly	particularly
sw3345B-ms98-a-0026	B.44	116.955250	117.375250		interested	interested
sw3345B-ms98-a-0026	B.44	117.375250	117.617875		in	in
sw3345B-ms98-a-0026	B.44	117.617875	117.889000		[silence]	[silence]
sw3345B-ms98-a-0026	B.44	117.889000	118.523250		certain	certain
sw3345B-ms98-a-0026	B.44	118.523250	119.468875		[silence]	[silence]
sw3345B-ms98-a-0026	B.44	119.468875	119.785250		things	things
sw3345B-ms98-a-0026	B.44	119.785250	119.875250		of	of
sw3345B-ms98-a-0026	B.44	119.875250	120.365250		course	course
sw3345B-ms98-a-0026	B.44	120.365250	120.505250		like	like
sw3345B-ms98-a-0026	B.44	120.505250	120.665250		all	all
sw3345B-ms98-a-0026	B.44	120.665250	120.735250		the	the
sw3345B-ms98-a-0026	B.44	120.735250	121.055250		news	news
sw3345B-ms98-a-0026	B.44	121.055250	121.325250		about	about
sw3345B-ms98-a-0026	B.44	121.325250	121.975250		Haiti	Haiti
sw3345B-ms98-a-0026	B.44	121.975250	122.735625		recently	recently
sw3345B-ms98-a-0026	B.46	122.735625	122.954000		[silence]	[silence]
sw3345B-ms98-a-0026	B.46	122.954000	123.135250		because	because_1
sw3345B-ms98-a-0026	B.46	123.135250	123.345250		I've	i've
sw3345B-ms98-a-0026	B.46	123.345250	123.665250		been	been
sw3345B-ms98-a-0026	B.46	123.665250	123.995250		down	down
sw3345B-ms98-a-0026	B.46	123.995250	124.435250		there	there
sw3345B-ms98-a-0026	B.48	124.435250	124.745875		[silence]	[silence]
sw3345B-ms98-a-0027	B.48	124.745875	125.083750		[silence]	[silence]
sw3345B-ms98-a-0027	B.48	125.083750	125.635875		and	and
sw3345B-ms98-a-0027	B.48	125.635875	125.905875		yeah	yeah
sw3345B-ms98-a-0027	B.50	125.905875	126.551125		[silence]	[silence]
sw3345B-ms98-a-0028	B.50	126.551125	127.113125		[silence]	[silence]
sw3345B-ms98-a-0028	B.50	127.113125	127.531125		Right	right
sw3345B-ms98-a-0028	B.50	127.531125	128.021125		exactly	exactly
sw3345B-ms98-a-0028	B.52	128.021125	128.600375		[silence]	[silence]
sw3345B-ms98-a-0029	B.52	128.600375	134.409875		[silence]	[silence]
sw3345B-ms98-a-0030	B.52	134.409875	134.927750		[silence]	[silence]
sw3345B-ms98-a-0030	B.52	134.927750	135.417500		Yep	yep
sw3345B-ms98-a-0030	B.54	135.417500	136.228000		[silence]	[silence]
sw3345B-ms98-a-0031	B.54	136.228000	138.605375		[silence]	[silence]
sw3345B-ms98-a-0032	B.54	138.605375	139.123250		[silence]	[silence]
sw3345B-ms98-a-0032	B.54	139.123250	139.556125	<SUB>	Uh-huh	um-hum
sw3345B-ms98-a-0032	B.56	139.556125	140.523500		[silence]	[silence]
sw3345B-ms98-a-0033	B.56	140.523500	148.744000		[silence]	[silence]
sw3345B-ms98-a-0034	B.56	148.744000	149.444000		[silence]	[silence]
sw3345B-ms98-a-0034	B.56	149.444000	149.644000		That's	that's
sw3345B-ms98-a-0034	B.56	149.644000	150.084000		true	true
sw3345B-ms98-a-0034	B.58	150.084000	150.264000		They've	they've
sw3345B-ms98-a-0034	B.58	150.264000	150.544000		never	never
sw3345B-ms98-a-0034	B.58	150.544000	150.804000		really	really
sw3345B-ms98-a-0034	B.58	150.804000	151.004000		had	had
sw3345B-ms98-a-0034	B.58	151.004000	151.136000		a	a
sw3345B-ms98-a-0034	B.58	151.136000	151.474000		good	good
sw3345B-ms98-a-0034	B.58	151.474000	151.934000		leader	leader
sw3345B-ms98-a-0034	B.60	151.934000	152.624875		[silence]	[silence]
sw3345B-ms98-a-0035	B.60	152.624875	153.024000		[silence]	[silence]
sw3345B-ms98-a-0035	B.60	153.024000	153.354875		Uh-huh	uh-huh
sw3345B-ms98-a-0035	B.62	153.354875	154.236125		[silence]	[silence]
sw3345B-ms98-a-0036	B.62	154.236125	154.916500		[silence]	[silence]
sw3345B-ms98-a-0036	B.62	154.916500	155.360875	<SUB>	Uh-huh	um-hum
sw3345B-ms98-a-0036	B.64	155.360875	156.043125		[noise]	[noise]
sw3345B-ms98-a-0036	B.64	156.043125	156.611125		[silence]	[silence]
sw3345B-ms98-a-0037	B.64	156.611125	159.416375		[silence]	[silence]
sw3345B-ms98-a-0038	B.64	159.416375	160.066375		[silence]	[silence]
sw3345B-ms98-a-0038	B.64	160.066375	160.505750		Yeah	yeah
sw3345B-ms98-a-0038	B.66	160.505750	161.176875		[silence]	[silence]
sw3345B-ms98-a-0039	B.66	161.176875	172.387250		[silence]	[silence]
sw3345B-ms98-a-0040	B.66	172.387250	172.897875		[silence]	[silence]
sw3345B-ms98-a-0040	B.66	172.897875	173.093500		Oh	oh
sw3345B-ms98-a-0040	B.66	173.093500	173.324625		yeah	yeah
sw3345B-ms98-a-0040	B.68	173.324625	174.068875		[silence]	[silence]
sw3345B-ms98-a-0041	B.68	174.068875	179.895375		[silence]	[silence]
sw3345B-ms98-a-0042	B.68	179.895375	180.413125		[silence]	[silence]
sw3345B-ms98-a-0042	B.68	180.413125	181.145750	<SUB>	Uh-huh	um-hum
sw3345B-ms98-a-0042	B.70	181.145750	181.672000		[silence]	[silence]
sw3345B-ms98-a-0043	B.70	181.672000	182.925000		[silence]	[silence]
sw3345B-ms98-a-0044	B.70	182.925000	183.494125		[silence]	[silence]
sw3345B-ms98-a-0044	B.70	183.494125	183.815000		I	i
sw3345B-ms98-a-0044	B.70	183.815000	184.539000		see	see
sw3345B-ms98-a-0044	B.72	184.539000	185.100375		[silence]	[silence]
sw3345B-ms98-a-0045	B.72	185.100375	188.842375		[silence]	[silence]
sw3345B-ms98-a-0046	B.72	188.842375	189.392000		[silence]	[silence]
sw3345B-ms98-a-0046	B.72	189.392000	189.806625	<SUB>	Uh-huh	um-hum
sw3345B-ms98-a-0046	B.74	189.806625	190.525875		[silence]	[silence]
sw3345B-ms98-a-0047	B.74	190.525875	199.893000		[silence]	[silence]
sw3345B-ms98-a-0048	B.74	199.893000	200.373250		[silence]	[silence]
sw3345B-ms98-a-0048	B.74	200.373250	200.844000		Yeah	yeah
sw3345B-ms98-a-0048	B.74	200.844000	201.563250		[silence]	[silence]
sw3345B-ms98-a-0048	B.74	201.563250	201.883000		so	so
sw3345B-ms98-a-0048	B.74	201.883000	201.993000		what	what
sw3345B-ms98-a-0048	B.74	201.993000	202.053000		do	do
sw3345B-ms98-a-0048	B.74	202.053000	202.113000		you	you
sw3345B-ms98-a-0048	B.74	202.113000	202.333000		think	think
sw3345B-ms98-a-0048	B.74	202.333000	202.573000		about	about
sw3345B-ms98-a-0048	B.74	202.573000	202.643000		the	the
sw3345B-ms98-a-0048	B.74	202.643000	203.183000		quality	quality
sw3345B-ms98-a-0048	B.74	203.183000	203.293000		of	of
sw3345B-ms98-a-0048	B.74	203.293000	203.783000		news	news
sw3345B-ms98-a-0048	B.74	203.783000	204.403000		coverage	coverage
sw3345B-ms98-a-0048	B.74	204.403000	204.463000		in	in
sw3345B-ms98-a-0048	B.74	204.463000	205.103125		America	America
sw3345B-ms98-a-0048	B.76	205.103125	205.932125		[silence]	[silence]
sw3345B-ms98-a-0048	B.76	205.932125	206.187375	<SUB>	Uh-huh	an[d]-
sw3345B-ms98-a-0048	B.78	206.187375	206.679000		[silence]	[silence]
sw3345B-ms98-a-0049	B.78	206.679000	209.364500		[silence]	[silence]
sw3345B-ms98-a-0050	B.78	209.364500	209.870750		[silence]	[silence]
sw3345B-ms98-a-0050	B.78	209.870750	210.317875	<SUB>	Right	um-hum
sw3345B-ms98-a-0050	B.78	210.317875	210.935000		[silence]	[silence]
sw3345B-ms98-a-0051	B.78	210.935000	227.026875		[silence]	[silence]
sw3345B-ms98-a-0052	B.78	227.026875	227.509750		[silence]	[silence]
sw3345B-ms98-a-0052	B.78	227.509750	228.096875		[vocalized-noise]	[vocalized-noise]
sw3345B-ms98-a-0052	B.78	228.096875	228.596875		right	right
sw3345B-ms98-a-0052	B.80	228.596875	229.446750		[silence]	[silence]
sw3345B-ms98-a-0053	B.80	229.446750	235.235250		[silence]	[silence]
sw3345B-ms98-a-0054	B.80	235.235250	235.755750		[silence]	[silence]
sw3345B-ms98-a-0054	B.80	235.755750	236.200875		Yep	yep
sw3345B-ms98-a-0054	B.82	236.200875	236.944000		[silence]	[silence]
sw3345B-ms98-a-0055	B.82	236.944000	243.125125		[silence]	[silence]
sw3345B-ms98-a-0056	B.82	243.125125	243.634750		[silence]	[silence]
sw3345B-ms98-a-0056	B.82	243.634750	244.065250	<SUB>	Uh-huh	um-hum
sw3345B-ms98-a-0056	B.84	244.065250	244.707375		[silence]	[silence]
sw3345B-ms98-a-0056	B.84	244.707375	245.138500		Yeah	yeah
sw3345B-ms98-a-0056	B.84	245.138500	245.549000		well	well
sw3345B-ms98-a-0056	B.84	245.549000	246.294750		[silence]	[silence]
sw3345B-ms98-a-0056	B.84	246.294750	246.475125		you	you
sw3345B-ms98-a-0056	B.84	246.475125	246.605125		know	know
sw3345B-ms98-a-0056	B.84	246.605125	246.685125		I	i
sw3345B-ms98-a-0056	B.84	246.685125	246.895125		think	think
sw3345B-ms98-a-0056	B.84	246.895125	246.975125		it	it
sw3345B-ms98-a-0056	B.84	246.975125	247.335125		probably	probably
sw3345B-ms98-a-0056	B.84	247.335125	247.515125		could	could
sw3345B-ms98-a-0056	B.84	247.515125	247.657875		be	be
sw3345B-ms98-a-0056	B.84	247.657875	248.143875		[vocalized-noise]	[vocalized-noise]
sw3345B-ms98-a-0056	B.84	248.143875	248.275125		it	it
sw3345B-ms98-a-0056	B.84	248.275125	248.545125		always	always
sw3345B-ms98-a-0056	B.84	248.545125	248.705125		could	could
sw3345B-ms98-a-0056	B.84	248.705125	248.825125		be	be
sw3345B-ms98-a-0056	B.84	248.825125	249.295125		better	better
sw3345B-ms98-a-0056	B.84	249.295125	249.432000		but	but
sw3345B-ms98-a-0056	B.84	249.432000	249.774750	<CONT>	I	i'd
sw3345B-ms98-a-0056	B.86	249.774750	249.774750	<CONT>	would	+++
sw3345B-ms98-a-0056	B.86	249.774750	250.195125		agree	agree
sw3345B-ms98-a-0056	B.86	250.195125	250.325125		that	that
sw3345B-ms98-a-0056	B.86	250.325125	250.485125		it's	it's
sw3345B-ms98-a-0056	B.86	250.485125	250.755125		pretty	pretty
sw3345B-ms98-a-0056	B.86	250.755125	251.142625		good	good
sw3345B-ms98-a-0056	B.88	251.142625	251.994875		[silence]	[silence]
sw3345B-ms98-a-0057	B.88	251.994875	252.834875		[silence]	[silence]
sw3345B-ms98-a-0057	B.88	252.834875	252.998250	<DEL>	---	oh
sw3345B-ms98-a-0057	B.88	252.998250	253.351625		Yeah	yeah
sw3345B-ms98-a-0057	B.90	253.351625	253.805000		[silence]	[silence]
sw3345B-ms98-a-0058	B.90	253.805000	255.881375		[silence]	[silence]
sw3345B-ms98-a-0059	B.90	255.881375	256.373625		[silence]	[silence]
sw3345B-ms98-a-0059	B.90	256.373625	256.980000		Um	um
sw3345B-ms98-a-0059	B.92	256.980000	257.321750		[silence]	[silence]
sw3345B-ms98-a-0060	B.92	257.321750	259.368000		[silence]	[silence]
sw3345B-ms98-a-0061	B.92	259.368000	259.876500		[silence]	[silence]
sw3345B-ms98-a-0061	B.92	259.876500	260.028000		Yeah	yeah
sw3345B-ms98-a-0061	B.92	260.028000	260.118000	<DEL>	---	it
sw3345B-ms98-a-0061	B.92	260.118000	260.268000		well	well
sw3345B-ms98-a-0061	B.92	260.268000	260.328000		I	i
sw3345B-ms98-a-0061	B.92	260.328000	260.658000		think	think
sw3345B-ms98-a-0061	B.92	260.658000	261.058000		that	that
sw3345B-ms98-a-0061	B.92	261.058000	261.240250		[noise]	[noise]
sw3345B-ms98-a-0061	B.92	261.240250	262.008750		[silence]	[silence]
sw3345B-ms98-a-0062	B.92	262.008750	262.648750		[silence]	[silence]
sw3345B-ms98-a-0062	B.92	262.648750	263.244000		um	um
sw3345B-ms98-a-0062	B.92	263.244000	263.819500		[silence]	[silence]
sw3345B-ms98-a-0063	B.92	263.819500	264.847250		[silence]	[silence]
sw3345B-ms98-a-0064	B.92	264.847250	265.347250		[silence]	[silence]
sw3345B-ms98-a-0064	B.92	265.347250	265.487250		I	i
sw3345B-ms98-a-0064	B.92	265.487250	265.627250		don't	don't
sw3345B-ms98-a-0064	B.92	265.627250	265.951000		know	know
sw3345B-ms98-a-0064	B.94	265.951000	266.754000		[silence]	[silence]
sw3345B-ms98-a-0065	B.94	266.754000	267.445250		[silence]	[silence]
sw3345B-ms98-a-0065	B.94	267.445250	267.804000		The	the
sw3345B-ms98-a-0065	B.94	267.804000	267.954000	<SUB>	um	uh
sw3345B-ms98-a-0065	B.96	267.954000	268.580500		[noise]	[noise]
sw3345B-ms98-a-0065	B.96	268.580500	269.561125		[silence]	[silence]
sw3345B-ms98-a-0066	B.96	269.561125	270.405875		[silence]	[silence]
sw3345B-ms98-a-0066	B.96	270.405875	271.090250		Right	right
sw3345B-ms98-a-0066	B.98	271.090250	271.766250		[silence]	[silence]
sw3345B-ms98-a-0066	B.98	271.766250	272.331125		Right	right
sw3345B-ms98-a-0066	B.98	272.331125	272.430000		I	i
sw3345B-ms98-a-0066	B.98	272.430000	272.671125		think	think
sw3345B-ms98-a-0066	B.98	272.671125	273.111125		that	that
sw3345B-ms98-a-0066	B.100	273.111125	273.635500		[silence]	[silence]
sw3345B-ms98-a-0067	B.100	273.635500	277.012750		[silence]	[silence]
sw3345B-ms98-a-0068	B.100	277.012750	277.492750		[silence]	[silence]
sw3345B-ms98-a-0068	B.100	277.492750	277.652750		Well	well
sw3345B-ms98-a-0068	B.100	277.652750	277.812750		that	that
sw3345B-ms98-a-0068	B.100	277.812750	277.982750		may	may
sw3345B-ms98-a-0068	B.100	277.982750	278.122750		be	be
sw3345B-ms98-a-0068	B.100	278.122750	278.502750		so	so
sw3345B-ms98-a-0068	B.100	278.502750	278.858625		yeah	yeah
sw3345B-ms98-a-0068	B.102	278.858625	279.344500		[silence]	[silence]
sw3345B-ms98-a-0068	B.102	279.344500	279.642750	<DEL>	---	uh
sw3345B-ms98-a-0068	B.102	279.642750	279.692750		I	i
sw3345B-ms98-a-0068	B.102	279.692750	279.992750		think	think
sw3345B-ms98-a-0068	B.102	279.992750	280.411250		that	that
sw3345B-ms98-a-0068	B.104	280.411250	280.840625		[silence]	[silence]
sw3345B-ms98-a-0068	B.104	280.840625	281.012750		I'm	i'm
sw3345B-ms98-a-0068	B.104	281.012750	281.302750		not	not
sw3345B-ms98-a-0068	B.104	281.302750	281.632750		always	always
sw3345B-ms98-a-0068	B.104	281.632750	282.382750		satisfied	satisfied
sw3345B-ms98-a-0068	B.104	282.382750	282.502750		with	with
sw3345B-ms98-a-0068	B.104	282.502750	282.692750		how	how
sw3345B-ms98-a-0068	B.104	282.692750	282.962750		dig	dig
sw3345B-ms98-a-0068	B.104	282.962750	283.102750		they	they
sw3345B-ms98-a-0068	B.104	283.102750	283.422750		deep	deep
sw3345B-ms98-a-0068	B.104	283.422750	283.642750		into	into
sw3345B-ms98-a-0068	B.104	283.642750	283.883500	<SUB>	the	th[ings]-
sw3345B-ms98-a-0068	B.106	283.883500	284.538875		[silence]	[silence]
sw3345B-ms98-a-0068	B.106	284.538875	284.632750		how	how
sw3345B-ms98-a-0068	B.106	284.632750	284.862750		deep	deep
sw3345B-ms98-a-0068	B.106	284.862750	284.932750		they	they
sw3345B-ms98-a-0068	B.106	284.932750	285.182750		dig	dig
sw3345B-ms98-a-0068	B.106	285.182750	285.322750		into	into
sw3345B-ms98-a-0068	B.106	285.322750	285.382750	<DEL>	---	the
sw3345B-ms98-a-0068	B.106	285.382750	285.912750		things	things
sw3345B-ms98-a-0068	B.106	285.912750	286.292750		and	and
sw3345B-ms98-a-0068	B.106	286.292750	286.804625		such	such
sw3345B-ms98-a-0068	B.108	286.804625	287.331625		[silence]	[silence]
sw3345B-ms98-a-0069	B.108	287.331625	293.439000		[silence]	[silence]
sw3345B-ms98-a-0070	B.108	293.439000	293.939000		[silence]	[silence]
sw3345B-ms98-a-0070	B.108	293.939000	294.369000		Right	right
sw3345B-ms98-a-0070	B.110	294.369000	294.836500		[silence]	[silence]
sw3345B-ms98-a-0071	B.110	294.836500	296.276250		[silence]	[silence]
sw3345B-ms98-a-0072	B.110	296.276250	296.766250		[silence]	[silence]
sw3345B-ms98-a-0072	B.110	296.766250	298.199375	<SUB>	Uh-huh	um-hum
sw3345B-ms98-a-0072	B.112	298.199375	298.337625		[silence]	[silence]
sw3345B-ms98-a-0072	B.112	298.337625	298.337625	<SUB>	Right	ri[ght]-
sw3345B-ms98-a-0072	B.112	298.337625	298.370000		[silence]	[silence]
