sw3375B-ms98-a-0001	B.4	0.000000	0.050000		[silence]	[silence]
sw3375B-ms98-a-0001	B.4	0.050000	0.360000		[noise]	[noise]
sw3375B-ms98-a-0001	B.4	0.360000	0.577125		[silence]	[silence]
sw3375B-ms98-a-0002	B.4	0.577125	11.529250		[silence]	[silence]
sw3375B-ms98-a-0003	B.4	11.529250	11.909250		[silence]	[silence]
sw3375B-ms98-a-0003	B.4	11.909250	12.199250		Uh	uh
sw3375B-ms98-a-0003	B.4	12.199250	12.399250		that	that
sw3375B-ms98-a-0003	B.4	12.399250	12.579250		might	might
sw3375B-ms98-a-0003	B.4	12.579250	12.709250		be	be
sw3375B-ms98-a-0003	B.4	12.709250	12.759250		a	a
sw3375B-ms98-a-0003	B.4	12.759250	13.059250		lot	lot
sw3375B-ms98-a-0003	B.4	13.059250	13.179250		to	to
sw3375B-ms98-a-0003	B.4	13.179250	13.399250		do	do
sw3375B-ms98-a-0003	B.4	13.399250	13.619250		with	with
sw3375B-ms98-a-0003	B.4	13.619250	13.739250		it	it
sw3375B-ms98-a-0003	B.4	13.739250	13.809250		I	i
sw3375B-ms98-a-0003	B.4	13.809250	14.039250		know	know
sw3375B-ms98-a-0003	B.4	14.039250	14.144875		a	a
sw3375B-ms98-a-0003	B.4	14.144875	14.459250		lot	lot
sw3375B-ms98-a-0003	B.4	14.459250	14.569250		of	of
sw3375B-ms98-a-0003	B.4	14.569250	14.669250		it	it
sw3375B-ms98-a-0003	B.4	14.669250	14.929250		here	here
sw3375B-ms98-a-0003	B.4	14.929250	15.019250		in	in
sw3375B-ms98-a-0003	B.4	15.019250	15.149250		my	my
sw3375B-ms98-a-0003	B.4	15.149250	15.429250		state	state
sw3375B-ms98-a-0003	B.4	15.429250	15.559250		I'm	i'm
sw3375B-ms98-a-0003	B.4	15.559250	15.699250		from	from
sw3375B-ms98-a-0003	B.4	15.699250	16.119250		Mississippi	Mississippi
sw3375B-ms98-a-0003	B.4	16.119250	16.199250		I'm	i'm
sw3375B-ms98-a-0003	B.4	16.199250	16.339250		not	not
sw3375B-ms98-a-0003	B.4	16.339250	16.519250		sure	sure
sw3375B-ms98-a-0003	B.4	16.519250	16.639250		where	where
sw3375B-ms98-a-0003	B.4	16.639250	16.759250		you're	you're
sw3375B-ms98-a-0003	B.4	16.759250	17.079250		from	from
sw3375B-ms98-a-0003	B.6	17.079250	18.389250		[silence]	[silence]
sw3375B-ms98-a-0003	B.6	18.389250	18.849250		Minnesota	Minnesota
sw3375B-ms98-a-0003	B.6	18.849250	19.246500		okay	okay
sw3375B-ms98-a-0003	B.6	19.246500	19.724750		[silence]	[silence]
sw3375B-ms98-a-0003	B.6	19.724750	19.859250		Well	well
sw3375B-ms98-a-0003	B.6	19.859250	19.889250		a	a
sw3375B-ms98-a-0003	B.6	19.889250	20.079250		lot	lot
sw3375B-ms98-a-0003	B.6	20.079250	20.169250		of	of
sw3375B-ms98-a-0003	B.6	20.169250	20.309250		it	it
sw3375B-ms98-a-0003	B.6	20.309250	20.369250		in	in
sw3375B-ms98-a-0003	B.6	20.369250	20.899250		Mississippi	Mississippi
sw3375B-ms98-a-0003	B.6	20.899250	21.179250		here	here
sw3375B-ms98-a-0003	B.6	21.179250	21.489250	<SUB>	has	is
sw3375B-ms98-a-0003	B.6	21.489250	21.649250		got	got
sw3375B-ms98-a-0003	B.6	21.649250	21.709250		to	to
sw3375B-ms98-a-0003	B.6	21.709250	21.789250		do	do
sw3375B-ms98-a-0003	B.6	21.789250	21.939250		with	with
sw3375B-ms98-a-0003	B.6	21.939250	22.539250		funding	funding
sw3375B-ms98-a-0003	B.8	22.539250	22.984625		[silence]	[silence]
sw3375B-ms98-a-0004	B.8	22.984625	23.564625		[silence]	[silence]
sw3375B-ms98-a-0004	B.8	23.564625	23.984625		Problems	problems
sw3375B-ms98-a-0004	B.8	23.984625	24.184625		with	with
sw3375B-ms98-a-0004	B.8	24.184625	24.424625		our	our
sw3375B-ms98-a-0004	B.8	24.424625	24.914625	<SUB>	educational	education
sw3375B-ms98-a-0004	B.8	24.914625	25.244625		system	system
sw3375B-ms98-a-0004	B.8	25.244625	25.274625		a	a
sw3375B-ms98-a-0004	B.8	25.274625	25.434625		lot	lot
sw3375B-ms98-a-0004	B.8	25.434625	25.524625		of	of
sw3375B-ms98-a-0004	B.8	25.524625	25.654625		it's	it's
sw3375B-ms98-a-0004	B.8	25.654625	25.844625		due	due
sw3375B-ms98-a-0004	B.8	25.844625	25.844625	<INS>	to	---
sw3375B-ms98-a-0004	B.8	25.844625	26.294625		money	money
sw3375B-ms98-a-0004	B.10	26.294625	26.724625		[silence]	[silence]
sw3375B-ms98-a-0004	B.10	26.724625	26.844625		And	and
sw3375B-ms98-a-0004	B.10	26.844625	26.964625		they're	they're
sw3375B-ms98-a-0004	B.10	26.964625	27.234625		trying	trying
sw3375B-ms98-a-0004	B.10	27.234625	27.384625		to	to
sw3375B-ms98-a-0004	B.10	27.384625	28.544625		spend	spend
sw3375B-ms98-a-0004	B.10	28.544625	28.854625		money	money
sw3375B-ms98-a-0004	B.10	28.854625	28.974625		where	where
sw3375B-ms98-a-0004	B.10	28.974625	29.064625		we	we
sw3375B-ms98-a-0004	B.10	29.064625	29.274625		don't	don't
sw3375B-ms98-a-0004	B.10	29.274625	29.504625		have	have
sw3375B-ms98-a-0004	B.10	29.504625	29.704625		it	it
sw3375B-ms98-a-0004	B.10	29.704625	30.184625		and	and
sw3375B-ms98-a-0004	B.10	30.184625	30.344625		there's	there's
sw3375B-ms98-a-0004	B.10	30.344625	30.384625		a	a
sw3375B-ms98-a-0004	B.10	30.384625	30.524625		lot	lot
sw3375B-ms98-a-0004	B.10	30.524625	30.594625		of	of
sw3375B-ms98-a-0004	B.10	30.594625	30.854625		things	things
sw3375B-ms98-a-0004	B.10	30.854625	30.994625		we	we
sw3375B-ms98-a-0004	B.10	30.994625	31.344625		need	need
sw3375B-ms98-a-0004	B.10	31.344625	31.434625		that	that
sw3375B-ms98-a-0004	B.10	31.434625	31.494625		we	we
sw3375B-ms98-a-0004	B.10	31.494625	31.664625		just	just
sw3375B-ms98-a-0004	B.10	31.664625	31.844625		can't	can't
sw3375B-ms98-a-0004	B.10	31.844625	32.374625		afford	afford
sw3375B-ms98-a-0004	B.12	32.374625	32.793000		[silence]	[silence]
sw3375B-ms98-a-0005	B.12	32.793000	37.778875		[silence]	[silence]
sw3375B-ms98-a-0006	B.12	37.778875	38.198375		[silence]	[silence]
sw3375B-ms98-a-0006	B.12	38.198375	38.412375		Well	well
sw3375B-ms98-a-0006	B.12	38.412375	38.488875		it	it
sw3375B-ms98-a-0006	B.12	38.488875	38.908875		is	is
sw3375B-ms98-a-0006	B.14	38.908875	39.343750		[silence]	[silence]
sw3375B-ms98-a-0007	B.14	39.343750	41.770875		[silence]	[silence]
sw3375B-ms98-a-0008	B.14	41.770875	42.240875		[silence]	[silence]
sw3375B-ms98-a-0008	B.14	42.240875	42.830875		Right	right
sw3375B-ms98-a-0008	B.16	42.830875	43.171375		[silence]	[silence]
sw3375B-ms98-a-0009	B.16	43.171375	46.996500		[silence]	[silence]
sw3375B-ms98-a-0010	B.16	46.996500	47.466500		[silence]	[silence]
sw3375B-ms98-a-0010	B.16	47.466500	47.686500		That's	that's
sw3375B-ms98-a-0010	B.16	47.686500	48.147500		true	true
sw3375B-ms98-a-0010	B.16	48.147500	48.595625		[silence]	[silence]
sw3375B-ms98-a-0010	B.16	48.595625	48.706500		And	and
sw3375B-ms98-a-0010	B.16	48.706500	48.736500		a	a
sw3375B-ms98-a-0010	B.16	48.736500	48.986500		lot	lot
sw3375B-ms98-a-0010	B.16	48.986500	49.086500		of	of
sw3375B-ms98-a-0010	B.16	49.086500	49.276500		it	it
sw3375B-ms98-a-0010	B.16	49.276500	49.466500		lot	lot
sw3375B-ms98-a-0010	B.16	49.466500	49.576500		of	of
sw3375B-ms98-a-0010	B.16	49.576500	49.686500		it	it
sw3375B-ms98-a-0010	B.16	49.686500	49.966500		has	has
sw3375B-ms98-a-0010	B.16	49.966500	50.026500		to	to
sw3375B-ms98-a-0010	B.16	50.026500	50.126500		do	do
sw3375B-ms98-a-0010	B.16	50.126500	50.416500		with	with
sw3375B-ms98-a-0010	B.16	50.416500	50.626500		uh	uh
sw3375B-ms98-a-0010	B.16	50.626500	51.236500		salaries	salaries
sw3375B-ms98-a-0010	B.16	51.236500	51.606500		too	too
sw3375B-ms98-a-0010	B.16	51.606500	52.446500		speaking	speaking
sw3375B-ms98-a-0010	B.18	52.446500	52.536500		of	of
sw3375B-ms98-a-0010	B.18	52.536500	52.946500		money	money
sw3375B-ms98-a-0010	B.20	52.946500	53.372125		[silence]	[silence]
sw3375B-ms98-a-0010	B.20	53.372125	53.666500		Cause	because_1
sw3375B-ms98-a-0010	B.20	53.666500	53.796500		if	if
sw3375B-ms98-a-0010	B.20	53.796500	53.856500		you	you
sw3375B-ms98-a-0010	B.20	53.856500	54.136500		can't	can't
sw3375B-ms98-a-0010	B.20	54.136500	54.386500		pay	pay
sw3375B-ms98-a-0010	B.20	54.386500	54.653875		the	the
sw3375B-ms98-a-0010	B.20	54.653875	55.004125		[silence]	[silence]
sw3375B-ms98-a-0010	B.20	55.004125	55.296500		right	right
sw3375B-ms98-a-0010	B.20	55.296500	55.606500		people	people
sw3375B-ms98-a-0010	B.20	55.606500	55.666500		you	you
sw3375B-ms98-a-0010	B.20	55.666500	55.726500		know	know
sw3375B-ms98-a-0010	B.20	55.726500	55.816500		they're	they're
sw3375B-ms98-a-0010	B.20	55.816500	55.906500		not	not
sw3375B-ms98-a-0010	B.20	55.906500	56.026500	<DEL>	---	going
sw3375B-ms98-a-0010	B.20	56.026500	56.086500		to	to
sw3375B-ms98-a-0010	B.20	56.086500	56.176500		be	be
sw3375B-ms98-a-0010	B.20	56.176500	56.356500		able	able
sw3375B-ms98-a-0010	B.20	56.356500	56.446500		to	to
sw3375B-ms98-a-0010	B.20	56.446500	56.669125		do	do
sw3375B-ms98-a-0010	B.20	56.669125	56.947875		[silence]	[silence]
sw3375B-ms98-a-0010	B.20	56.947875	57.066500		they're	they're
sw3375B-ms98-a-0010	B.20	57.066500	57.226500		not	not
sw3375B-ms98-a-0010	B.20	57.226500	57.356500		[silence]	[silence]
sw3375B-ms98-a-0010	B.20	57.356500	57.486500		not	not
sw3375B-ms98-a-0010	B.20	57.486500	57.606500	<SUB>	going	gonna
sw3375B-ms98-a-0010	B.20	57.606500	57.606500	<INS>	to	---
sw3375B-ms98-a-0010	B.20	57.606500	57.696500		get	get
sw3375B-ms98-a-0010	B.20	57.696500	57.756500		the	the
sw3375B-ms98-a-0010	B.20	57.756500	58.036500		people	people
sw3375B-ms98-a-0010	B.20	58.036500	58.146500		that	that
sw3375B-ms98-a-0010	B.20	58.146500	58.266500		can	can
sw3375B-ms98-a-0010	B.20	58.266500	58.565875		do	do
sw3375B-ms98-a-0010	B.20	58.565875	58.701500		a	a
sw3375B-ms98-a-0010	B.20	58.701500	58.856500		good	good
sw3375B-ms98-a-0010	B.20	58.856500	59.186500		job	job
sw3375B-ms98-a-0010	B.22	59.186500	59.770125		[silence]	[silence]
sw3375B-ms98-a-0011	B.22	59.770125	73.195250		[silence]	[silence]
sw3375B-ms98-a-0012	B.22	73.195250	73.745250		[silence]	[silence]
sw3375B-ms98-a-0012	B.22	73.745250	74.295250		Right	right
sw3375B-ms98-a-0012	B.24	74.295250	74.355250	<DEL>	---	i
sw3375B-ms98-a-0012	B.24	74.355250	74.555250	<DEL>	---	feel
sw3375B-ms98-a-0012	B.24	74.555250	74.615250	<DEL>	---	the
sw3375B-ms98-a-0012	B.24	74.615250	74.842750	<DEL>	---	s[ame]-
sw3375B-ms98-a-0012	B.24	74.842750	75.526625		[silence]	[silence]
sw3375B-ms98-a-0013	B.24	75.526625	76.326625		[silence]	[silence]
sw3375B-ms98-a-0013	B.24	76.326625	76.506625		Right	right
sw3375B-ms98-a-0013	B.24	76.506625	76.546625		I	i
sw3375B-ms98-a-0013	B.24	76.546625	76.756625		feel	feel
sw3375B-ms98-a-0013	B.24	76.756625	76.816625		the	the
sw3375B-ms98-a-0013	B.24	76.816625	77.096625		same	same
sw3375B-ms98-a-0013	B.24	77.096625	77.256625		way	way
sw3375B-ms98-a-0013	B.24	77.256625	77.316625		A	a
sw3375B-ms98-a-0013	B.24	77.316625	77.606625	<SUB>	lot	lot's
sw3375B-ms98-a-0013	B.24	77.606625	77.736625	<SUB>	has	got
sw3375B-ms98-a-0013	B.24	77.736625	77.796625		to	to
sw3375B-ms98-a-0013	B.24	77.796625	77.886625		do	do
sw3375B-ms98-a-0013	B.24	77.886625	78.006625		with	with
sw3375B-ms98-a-0013	B.24	78.006625	78.146625		how	how
sw3375B-ms98-a-0013	B.24	78.146625	78.226625		the	the
sw3375B-ms98-a-0013	B.24	78.226625	78.546625		kids	kids
sw3375B-ms98-a-0013	B.24	78.546625	78.636625		were	were
sw3375B-ms98-a-0013	B.24	78.636625	79.006625		raised	raised
sw3375B-ms98-a-0013	B.24	79.006625	79.076625		at	at
sw3375B-ms98-a-0013	B.24	79.076625	79.566625		home	home
sw3375B-ms98-a-0013	B.26	79.566625	80.178625		[silence]	[silence]
sw3375B-ms98-a-0014	B.26	80.178625	80.868625		[silence]	[silence]
sw3375B-ms98-a-0014	B.26	80.868625	81.348625		And	and
sw3375B-ms98-a-0014	B.26	81.348625	81.558625		[silence]	[silence]
sw3375B-ms98-a-0014	B.26	81.558625	82.048625		then	then
sw3375B-ms98-a-0014	B.26	82.048625	82.208625		when	when
sw3375B-ms98-a-0014	B.26	82.208625	82.268625		the	the
sw3375B-ms98-a-0014	B.26	82.268625	82.538625		kids	kids
sw3375B-ms98-a-0014	B.26	82.538625	82.678625		get	get
sw3375B-ms98-a-0014	B.26	82.678625	82.738625		to	to
sw3375B-ms98-a-0014	B.26	82.738625	83.118625		school	school
sw3375B-ms98-a-0014	B.26	83.118625	83.228625		they	they
sw3375B-ms98-a-0014	B.26	83.228625	83.408625		try	try
sw3375B-ms98-a-0014	B.26	83.408625	83.488625		to	to
sw3375B-ms98-a-0014	B.26	83.488625	83.698625		take	take
sw3375B-ms98-a-0014	B.26	83.698625	84.303875		away	away
sw3375B-ms98-a-0014	B.26	84.303875	84.582625		[silence]	[silence]
sw3375B-ms98-a-0014	B.26	84.582625	84.748375		a	a
sw3375B-ms98-a-0014	B.26	84.748375	84.928625		lot	lot
sw3375B-ms98-a-0014	B.26	84.928625	85.008625		of	of
sw3375B-ms98-a-0014	B.26	85.008625	85.268625		things	things
sw3375B-ms98-a-0014	B.26	85.268625	85.368625		that	that
sw3375B-ms98-a-0014	B.26	85.368625	85.488625		they	they
sw3375B-ms98-a-0014	B.26	85.488625	85.658625		can	can
sw3375B-ms98-a-0014	B.26	85.658625	85.818625		do	do
sw3375B-ms98-a-0014	B.26	85.818625	85.918625		to	to
sw3375B-ms98-a-0014	B.26	85.918625	86.398625		discipline	discipline
sw3375B-ms98-a-0014	B.26	86.398625	86.458625		the	the
sw3375B-ms98-a-0014	B.26	86.458625	86.908625		kids	kids
sw3375B-ms98-a-0014	B.26	86.908625	86.938625		I	i
sw3375B-ms98-a-0014	B.26	86.938625	87.068625		mean	mean
sw3375B-ms98-a-0014	B.26	87.068625	87.208625		they've	they've
sw3375B-ms98-a-0014	B.26	87.208625	87.468625		so	so
sw3375B-ms98-a-0014	B.26	87.468625	87.608625	<DEL>	---	se[verely]-
sw3375B-ms98-a-0014	B.26	87.608625	87.688625	<DEL>	---	se[verely]-
sw3375B-ms98-a-0014	B.26	87.688625	88.408625		severely	severely
sw3375B-ms98-a-0014	B.26	88.408625	88.988375		limited	limited
sw3375B-ms98-a-0014	B.26	88.988375	89.527500		[silence]	[silence]
sw3375B-ms98-a-0015	B.26	89.527500	90.047500		[silence]	[silence]
sw3375B-ms98-a-0015	B.26	90.047500	90.237500		what	what
sw3375B-ms98-a-0015	B.26	90.237500	90.657500		disciplinary	disciplinary
sw3375B-ms98-a-0015	B.26	90.657500	90.987500		action	action
sw3375B-ms98-a-0015	B.26	90.987500	91.067500		you	you
sw3375B-ms98-a-0015	B.26	91.067500	91.427500		can	can
sw3375B-ms98-a-0015	B.26	91.427500	91.802750		do	do
sw3375B-ms98-a-0015	B.28	91.802750	92.146750		[silence]	[silence]
sw3375B-ms98-a-0016	B.28	92.146750	100.934875		[silence]	[silence]
sw3375B-ms98-a-0017	B.28	100.934875	101.454875		[silence]	[silence]
sw3375B-ms98-a-0017	B.28	101.454875	102.344875		Exactly	exactly
sw3375B-ms98-a-0017	B.28	102.344875	102.843125		[silence]	[silence]
sw3375B-ms98-a-0017	B.28	102.843125	103.267125		Right	right
sw3375B-ms98-a-0017	B.30	103.267125	103.662375		[silence]	[silence]
sw3375B-ms98-a-0018	B.30	103.662375	105.430000		[silence]	[silence]
sw3375B-ms98-a-0019	B.30	105.430000	105.860000		[silence]	[silence]
sw3375B-ms98-a-0019	B.30	105.860000	106.020000		Lose	lose
sw3375B-ms98-a-0019	B.30	106.020000	106.130000		their	their
sw3375B-ms98-a-0019	B.30	106.130000	106.563875		job	job
sw3375B-ms98-a-0019	B.30	106.563875	106.873750	<SUB>	and	an[d]-
sw3375B-ms98-a-0019	B.30	106.873750	107.397250	<DEL>	---	an[d]-
sw3375B-ms98-a-0019	B.30	107.397250	107.650000		[silence]	[silence]
sw3375B-ms98-a-0019	B.30	107.650000	107.840000		big	big
sw3375B-ms98-a-0019	B.30	107.840000	108.220000		lawsuit	lawsuit
sw3375B-ms98-a-0019	B.30	108.220000	108.330000		and	and
sw3375B-ms98-a-0019	B.30	108.330000	108.470000		all	all
sw3375B-ms98-a-0019	B.30	108.470000	108.790000		that	that
sw3375B-ms98-a-0019	B.32	108.790000	109.507500		[silence]	[silence]
sw3375B-ms98-a-0020	B.32	109.507500	110.251000		[silence]	[silence]
sw3375B-ms98-a-0020	B.32	110.251000	110.424750		I	i
sw3375B-ms98-a-0020	B.32	110.424750	110.607500		feel	feel
sw3375B-ms98-a-0020	B.32	110.607500	110.767500		that's	that's
sw3375B-ms98-a-0020	B.32	110.767500	110.867500		got	got
sw3375B-ms98-a-0020	B.32	110.867500	110.897500		a	a
sw3375B-ms98-a-0020	B.32	110.897500	111.007500		lot	lot
sw3375B-ms98-a-0020	B.32	111.007500	111.067500		to	to
sw3375B-ms98-a-0020	B.32	111.067500	111.177500		do	do
sw3375B-ms98-a-0020	B.32	111.177500	111.347500		with	with
sw3375B-ms98-a-0020	B.32	111.347500	111.487500		it	it
sw3375B-ms98-a-0020	B.32	111.487500	111.787500		People	people
sw3375B-ms98-a-0020	B.32	111.787500	112.107500		aren't	aren't
sw3375B-ms98-a-0020	B.32	112.107500	112.257500		as	as
sw3375B-ms98-a-0020	B.32	112.257500	112.787500		afraid	afraid
sw3375B-ms98-a-0020	B.32	112.787500	113.007500		of	of
sw3375B-ms98-a-0020	B.32	113.007500	113.657500		misbehaving	misbehaving
sw3375B-ms98-a-0020	B.32	113.657500	113.747500		as	as
sw3375B-ms98-a-0020	B.32	113.747500	113.857500		they	they
sw3375B-ms98-a-0020	B.32	113.857500	114.087500		used	used
sw3375B-ms98-a-0020	B.32	114.087500	114.157500		to	to
sw3375B-ms98-a-0020	B.32	114.157500	114.464000		be	be
sw3375B-ms98-a-0020	B.34	114.464000	114.846625		[silence]	[silence]
sw3375B-ms98-a-0021	B.34	114.846625	123.808000		[silence]	[silence]
sw3375B-ms98-a-0022	B.34	123.808000	124.196000		[silence]	[silence]
sw3375B-ms98-a-0022	B.34	124.196000	125.338000		Really	[laughter-really]
sw3375B-ms98-a-0022	B.34	125.338000	125.728000	<SUB>	We	we've
sw3375B-ms98-a-0022	B.34	125.728000	125.878000		we've	we've
sw3375B-ms98-a-0022	B.34	125.878000	126.158000		talked	talked
sw3375B-ms98-a-0022	B.34	126.158000	126.268000		some	some
sw3375B-ms98-a-0022	B.34	126.268000	126.508000		about	about
sw3375B-ms98-a-0022	B.34	126.508000	126.568000		it	it
sw3375B-ms98-a-0022	B.34	126.568000	126.638000		in	in
sw3375B-ms98-a-0022	B.34	126.638000	126.808000		my	my
sw3375B-ms98-a-0022	B.34	126.808000	127.148000		state	state
sw3375B-ms98-a-0022	B.34	127.148000	127.388000		because	because
sw3375B-ms98-a-0022	B.34	127.388000	127.528000		we've	we've
sw3375B-ms98-a-0022	B.34	127.528000	127.648000	<SUB>	had	have
sw3375B-ms98-a-0022	B.34	127.648000	127.718000		a	a
sw3375B-ms98-a-0022	B.34	127.718000	128.090000		lot	lot
sw3375B-ms98-a-0022	B.34	128.090000	128.398000		of	of
sw3375B-ms98-a-0022	B.34	128.398000	128.638000		uh	uh
sw3375B-ms98-a-0022	B.34	128.638000	129.568000		prob-	prob[lems]-
sw3375B-ms98-a-0022	B.34	129.568000	129.998000	<DEL>	---	well
sw3375B-ms98-a-0022	B.34	129.998000	130.088000		our	our
sw3375B-ms98-a-0022	B.34	130.088000	130.418000		governor	governor
sw3375B-ms98-a-0022	B.34	130.418000	130.528000		that	that
sw3375B-ms98-a-0022	B.34	130.528000	130.688000		just	just
sw3375B-ms98-a-0022	B.34	130.688000	131.528000		got	got
sw3375B-ms98-a-0022	B.34	131.528000	131.738000		thrown	thrown
sw3375B-ms98-a-0022	B.34	131.738000	131.878000		out	out
sw3375B-ms98-a-0022	B.34	131.878000	131.968000		of	of
sw3375B-ms98-a-0022	B.34	131.968000	132.408000		office	office
sw3375B-ms98-a-0022	B.34	132.408000	132.758000		was	was
sw3375B-ms98-a-0022	B.34	132.758000	132.908000		[silence]	[silence]
sw3375B-ms98-a-0022	B.34	132.908000	133.228000		trying	trying
sw3375B-ms98-a-0022	B.34	133.228000	133.288000		to	to
sw3375B-ms98-a-0022	B.34	133.288000	133.408000		be	be
sw3375B-ms98-a-0022	B.34	133.408000	133.528000		real	real
sw3375B-ms98-a-0022	B.34	133.528000	133.758000		big	big
sw3375B-ms98-a-0022	B.34	133.758000	133.868000		on	on
sw3375B-ms98-a-0022	B.34	133.868000	134.418000		education	education
sw3375B-ms98-a-0022	B.34	134.418000	134.568000		but	but
sw3375B-ms98-a-0022	B.34	134.568000	134.638000		he	he
sw3375B-ms98-a-0022	B.34	134.638000	135.018000		wasn't	wasn't
sw3375B-ms98-a-0022	B.36	135.018000	135.373625		[silence]	[silence]
sw3375B-ms98-a-0023	B.36	135.373625	135.703625		[silence]	[silence]
sw3375B-ms98-a-0023	B.36	135.703625	135.867250		And	and
sw3375B-ms98-a-0023	B.36	135.867250	135.935625		a	a
sw3375B-ms98-a-0023	B.36	135.935625	136.103625		lot	lot
sw3375B-ms98-a-0023	B.36	136.103625	136.193625		of	of
sw3375B-ms98-a-0023	B.36	136.193625	136.523625		his	his
sw3375B-ms98-a-0023	B.36	136.523625	136.833625		[silence]	[silence]
sw3375B-ms98-a-0023	B.36	136.833625	137.123625		problems	problems
sw3375B-ms98-a-0023	B.36	137.123625	137.233625		had	had
sw3375B-ms98-a-0023	B.36	137.233625	137.293625		to	to
sw3375B-ms98-a-0023	B.36	137.293625	137.383625		do	do
sw3375B-ms98-a-0023	B.36	137.383625	137.533625		with	with
sw3375B-ms98-a-0023	B.36	137.533625	137.913625		money	money
sw3375B-ms98-a-0023	B.36	137.913625	138.509625		mostly	mostly
sw3375B-ms98-a-0023	B.36	138.509625	138.971250		[silence]	[silence]
sw3375B-ms98-a-0023	B.36	138.971250	139.067875		I	i
sw3375B-ms98-a-0023	B.36	139.067875	139.133625		know	know
sw3375B-ms98-a-0023	B.36	139.133625	139.239000		a	a
sw3375B-ms98-a-0023	B.36	139.239000	139.403625		lot	lot
sw3375B-ms98-a-0023	B.36	139.403625	139.473375	<DEL>	---	o[f]-
sw3375B-ms98-a-0023	B.36	139.473375	139.563875		a	a
sw3375B-ms98-a-0023	B.36	139.563875	139.793625		lot	lot
sw3375B-ms98-a-0023	B.36	139.793625	140.125125		of	of
sw3375B-ms98-a-0023	B.36	140.125125	140.353625		if	if
sw3375B-ms98-a-0023	B.36	140.353625	140.433625		you	you
sw3375B-ms98-a-0023	B.36	140.433625	140.633625		have	have
sw3375B-ms98-a-0023	B.36	140.633625	140.833625		more	more
sw3375B-ms98-a-0023	B.36	140.833625	141.391250		money	money
sw3375B-ms98-a-0023	B.36	141.391250	141.707625		[silence]	[silence]
sw3375B-ms98-a-0023	B.36	141.707625	141.833625		it's	it's
sw3375B-ms98-a-0023	B.36	141.833625	142.013625		just	just
sw3375B-ms98-a-0023	B.36	142.013625	142.453625		logical	logical
sw3375B-ms98-a-0023	B.36	142.453625	142.573625		that	that
sw3375B-ms98-a-0023	B.36	142.573625	142.683625		you	you
sw3375B-ms98-a-0023	B.36	142.683625	142.853625		can	can
sw3375B-ms98-a-0023	B.36	142.853625	143.153625		provide	provide
sw3375B-ms98-a-0023	B.36	143.153625	143.193625		a	a
sw3375B-ms98-a-0023	B.36	143.193625	143.393625		better	better
sw3375B-ms98-a-0023	B.36	143.393625	143.673625		school	school
sw3375B-ms98-a-0023	B.36	143.673625	144.143625		system	system
sw3375B-ms98-a-0023	B.38	144.143625	144.488500		[silence]	[silence]
sw3375B-ms98-a-0024	B.38	144.488500	145.008500		[silence]	[silence]
sw3375B-ms98-a-0024	B.38	145.008500	145.708500		And	and
sw3375B-ms98-a-0024	B.38	145.708500	146.238500		unfortunately	unfortunately
sw3375B-ms98-a-0024	B.38	146.238500	146.418500		there's	there's
sw3375B-ms98-a-0024	B.38	146.418500	146.598500		not	not
sw3375B-ms98-a-0024	B.38	146.598500	146.748500		many	many
sw3375B-ms98-a-0024	B.38	146.748500	147.118500		places	places
sw3375B-ms98-a-0024	B.38	147.118500	147.198500		to	to
sw3375B-ms98-a-0024	B.38	147.198500	147.408500		get	get
sw3375B-ms98-a-0024	B.38	147.408500	147.558500		that	that
sw3375B-ms98-a-0024	B.38	147.558500	147.948500		money	money
sw3375B-ms98-a-0024	B.40	147.948500	148.345000		[silence]	[silence]
sw3375B-ms98-a-0025	B.40	148.345000	149.624500		[silence]	[silence]
sw3375B-ms98-a-0026	B.40	149.624500	149.894500		[silence]	[silence]
sw3375B-ms98-a-0026	B.40	149.894500	150.484500		Then	then
sw3375B-ms98-a-0026	B.40	150.484500	150.844500		[silence]	[silence]
sw3375B-ms98-a-0026	B.40	150.844500	150.934500		if	if
sw3375B-ms98-a-0026	B.40	150.934500	151.014500		you	you
sw3375B-ms98-a-0026	B.40	151.014500	151.224500		don't	don't
sw3375B-ms98-a-0026	B.40	151.224500	151.564500		have	have
sw3375B-ms98-a-0026	B.40	151.564500	152.048500		[silence]	[silence]
sw3375B-ms98-a-0027	B.40	152.048500	152.468500		[silence]	[silence]
sw3375B-ms98-a-0027	B.40	152.468500	153.098500		qualified	qualified
sw3375B-ms98-a-0027	B.40	153.098500	153.857625		teachers	teachers
sw3375B-ms98-a-0027	B.40	153.857625	154.042125		[silence]	[silence]
sw3375B-ms98-a-0027	B.40	154.042125	154.328500		in	in
sw3375B-ms98-a-0027	B.40	154.328500	154.645750		the	the
sw3375B-ms98-a-0027	B.40	154.645750	155.142875		[silence]	[silence]
sw3375B-ms98-a-0027	B.40	155.142875	155.438500		different	different
sw3375B-ms98-a-0027	B.40	155.438500	155.728500	<DEL>	---	subject
sw3375B-ms98-a-0027	B.40	155.728500	156.118500	<DEL>	---	areas
sw3375B-ms98-a-0027	B.40	156.118500	156.198500		I	i
sw3375B-ms98-a-0027	B.40	156.198500	156.555375		know	know
sw3375B-ms98-a-0027	B.40	156.555375	157.148375		[silence]	[silence]
sw3375B-ms98-a-0027	B.40	157.148375	157.269000		one	one
sw3375B-ms98-a-0027	B.40	157.269000	157.365000		of	of
sw3375B-ms98-a-0027	B.40	157.365000	157.607500		my	my
sw3375B-ms98-a-0027	B.40	157.607500	157.803375		[silence]	[silence]
sw3375B-ms98-a-0027	B.40	157.803375	158.098500		physics	physics
sw3375B-ms98-a-0027	B.40	158.098500	158.608500		professors	professors
sw3375B-ms98-a-0027	B.40	158.608500	158.798500		at	at
sw3375B-ms98-a-0027	B.40	158.798500	159.228500		college	college
sw3375B-ms98-a-0027	B.40	159.228500	159.428500		has	has
sw3375B-ms98-a-0027	B.40	159.428500	159.572625	<DEL>	---	-[ha]s
sw3375B-ms98-a-0027	B.40	159.572625	159.700750		[silence]	[silence]
sw3375B-ms98-a-0027	B.40	159.700750	160.118500		addressed	addressed
sw3375B-ms98-a-0027	B.40	160.118500	160.398500		this	this
sw3375B-ms98-a-0027	B.40	160.398500	160.628500		That	that
sw3375B-ms98-a-0027	B.40	160.628500	160.838500		[silence]	[silence]
sw3375B-ms98-a-0028	B.40	160.838500	161.118500		[silence]	[silence]
sw3375B-ms98-a-0028	B.40	161.118500	161.348500		most	most
sw3375B-ms98-a-0028	B.40	161.348500	161.418500		of	of
sw3375B-ms98-a-0028	B.40	161.418500	161.478500		the	the
sw3375B-ms98-a-0028	B.40	161.478500	162.088500		teachers	teachers
sw3375B-ms98-a-0028	B.40	162.088500	162.328500		at	at
sw3375B-ms98-a-0028	B.40	162.328500	162.558500		the	the
sw3375B-ms98-a-0028	B.40	162.558500	162.914375	<DEL>	---	um
sw3375B-ms98-a-0028	B.40	162.914375	163.328750		[silence]	[silence]
sw3375B-ms98-a-0028	B.40	163.328750	163.778500		elementary	elementary
sw3375B-ms98-a-0028	B.40	163.778500	163.868500		and	and
sw3375B-ms98-a-0028	B.40	163.868500	164.008500		high	high
sw3375B-ms98-a-0028	B.40	164.008500	164.288500		school	school
sw3375B-ms98-a-0028	B.40	164.288500	164.661875		level	level
sw3375B-ms98-a-0028	B.40	164.661875	165.000875		[silence]	[silence]
sw3375B-ms98-a-0028	B.40	165.000875	165.257000		aren't	aren't
sw3375B-ms98-a-0028	B.40	165.257000	165.868500		scientists	scientists
sw3375B-ms98-a-0028	B.40	165.868500	165.988500		they're	they're
sw3375B-ms98-a-0028	B.40	165.988500	166.558500		teachers	teachers
sw3375B-ms98-a-0028	B.40	166.558500	166.758500		And	and
sw3375B-ms98-a-0028	B.40	166.758500	166.868500		they	they
sw3375B-ms98-a-0028	B.40	166.868500	167.008500		may	may
sw3375B-ms98-a-0028	B.40	167.008500	167.268500		not	not
sw3375B-ms98-a-0028	B.40	167.268500	167.704500		know	know
sw3375B-ms98-a-0028	B.40	167.704500	168.213125		[silence]	[silence]
sw3375B-ms98-a-0028	B.40	168.213125	168.322375		a	a
sw3375B-ms98-a-0028	B.40	168.322375	168.728500		lot	lot
sw3375B-ms98-a-0028	B.40	168.728500	169.158500		about	about
sw3375B-ms98-a-0028	B.40	169.158500	169.348500		what	what
sw3375B-ms98-a-0028	B.40	169.348500	169.588500		they're	they're
sw3375B-ms98-a-0028	B.40	169.588500	170.178500		teaching	teaching
sw3375B-ms98-a-0028	B.40	170.178500	170.550125		[silence]	[silence]
sw3375B-ms98-a-0029	B.40	170.550125	171.130125		[silence]	[silence]
sw3375B-ms98-a-0029	B.40	171.130125	171.230125		Where	where
sw3375B-ms98-a-0029	B.40	171.230125	171.300125	<DEL>	---	as
sw3375B-ms98-a-0029	B.40	171.300125	171.390125		they	they
sw3375B-ms98-a-0029	B.40	171.390125	171.520125		may	may
sw3375B-ms98-a-0029	B.40	171.520125	171.610125		have	have
sw3375B-ms98-a-0029	B.40	171.610125	171.790125		just	just
sw3375B-ms98-a-0029	B.40	171.790125	172.118375		had	had
sw3375B-ms98-a-0029	B.40	172.118375	172.638125		[silence]	[silence]
sw3375B-ms98-a-0029	B.40	172.638125	172.710125		a	a
sw3375B-ms98-a-0029	B.40	172.710125	173.180125		teaching	teaching
sw3375B-ms98-a-0029	B.40	173.180125	173.420375		[silence]	[silence]
sw3375B-ms98-a-0029	B.40	173.420375	174.050125		major	major
sw3375B-ms98-a-0029	B.40	174.050125	174.300125		[silence]	[silence]
sw3375B-ms98-a-0030	B.40	174.300125	174.560125		[silence]	[silence]
sw3375B-ms98-a-0030	B.40	174.560125	174.770125		and	and
sw3375B-ms98-a-0030	B.40	174.770125	175.070125		then	then
sw3375B-ms98-a-0030	B.40	175.070125	175.480125		had	had
sw3375B-ms98-a-0030	B.40	175.480125	175.900125		some	some
sw3375B-ms98-a-0030	B.40	175.900125	176.210125		social	social
sw3375B-ms98-a-0030	B.40	176.210125	176.550125		studies	studies
sw3375B-ms98-a-0030	B.40	176.550125	177.156375		courses	courses
sw3375B-ms98-a-0030	B.40	177.156375	177.476625		[silence]	[silence]
sw3375B-ms98-a-0030	B.40	177.476625	177.590125		and	and
sw3375B-ms98-a-0030	B.40	177.590125	177.730125		they're	they're
sw3375B-ms98-a-0030	B.40	177.730125	177.920125		trying	trying
sw3375B-ms98-a-0030	B.40	177.920125	177.980125		to	to
sw3375B-ms98-a-0030	B.40	177.980125	178.250125		teach	teach
sw3375B-ms98-a-0030	B.40	178.250125	178.550125		social	social
sw3375B-ms98-a-0030	B.40	178.550125	179.153875		studies	studies
sw3375B-ms98-a-0030	B.40	179.153875	179.530500		[silence]	[silence]
sw3375B-ms98-a-0030	B.40	179.530500	179.620125		And	and
sw3375B-ms98-a-0030	B.40	179.620125	179.690125		they	they
sw3375B-ms98-a-0030	B.40	179.690125	179.920125		don't	don't
sw3375B-ms98-a-0030	B.40	179.920125	180.285875		know	know
sw3375B-ms98-a-0030	B.40	180.285875	180.417750		a	a
sw3375B-ms98-a-0030	B.40	180.417750	180.650125		lot	lot
sw3375B-ms98-a-0030	B.40	180.650125	181.000125		about	about
sw3375B-ms98-a-0030	B.40	181.000125	181.270125		that	that
sw3375B-ms98-a-0030	B.42	181.270125	181.552750		[silence]	[silence]
sw3375B-ms98-a-0031	B.42	181.552750	181.872750		[silence]	[silence]
sw3375B-ms98-a-0031	B.42	181.872750	182.002750		Where	where
sw3375B-ms98-a-0031	B.42	182.002750	182.332750		maybe	maybe
sw3375B-ms98-a-0031	B.42	182.332750	182.422750		a	a
sw3375B-ms98-a-0031	B.42	182.422750	182.832750		physics	physics
sw3375B-ms98-a-0031	B.42	182.832750	183.302750		professor	professor
sw3375B-ms98-a-0031	B.42	183.302750	183.522750		he	he
sw3375B-ms98-a-0031	B.42	183.522750	183.762750		my	my
sw3375B-ms98-a-0031	B.42	183.762750	184.212750		professor	professor
sw3375B-ms98-a-0031	B.42	184.212750	184.462750		was	was
sw3375B-ms98-a-0031	B.42	184.462750	184.542750		a	a
sw3375B-ms98-a-0031	B.42	184.542750	184.822750		physics	physics
sw3375B-ms98-a-0031	B.42	184.822750	185.222750		professor	professor
sw3375B-ms98-a-0031	B.42	185.222750	185.312750		and	and
sw3375B-ms98-a-0031	B.42	185.312750	185.412750		he	he
sw3375B-ms98-a-0031	B.42	185.412750	185.582750		said	said
sw3375B-ms98-a-0031	B.42	185.582750	185.632750		a	a
sw3375B-ms98-a-0031	B.42	185.632750	185.812750		lot	lot
sw3375B-ms98-a-0031	B.42	185.812750	186.043875		of	of
sw3375B-ms98-a-0031	B.42	186.043875	186.492125		[silence]	[silence]
sw3375B-ms98-a-0031	B.42	186.492125	186.882750		teachers	teachers
sw3375B-ms98-a-0031	B.42	186.882750	187.212750		teaching	teaching
sw3375B-ms98-a-0031	B.42	187.212750	187.592750		physics	physics
sw3375B-ms98-a-0031	B.42	187.592750	188.079750		today	today
sw3375B-ms98-a-0031	B.42	188.079750	188.592000		[silence]	[silence]
sw3375B-ms98-a-0031	B.42	188.592000	188.782750		have	have
sw3375B-ms98-a-0031	B.42	188.782750	188.932750		no	no
sw3375B-ms98-a-0031	B.42	188.932750	189.442750		background	background
sw3375B-ms98-a-0031	B.42	189.442750	189.532750	<SUB>	of	in
sw3375B-ms98-a-0031	B.42	189.532750	190.192750		physics	physics
sw3375B-ms98-a-0031	B.42	190.192750	190.302750		at	at
sw3375B-ms98-a-0031	B.42	190.302750	190.392750		the	the
sw3375B-ms98-a-0031	B.42	190.392750	190.502750		high	high
sw3375B-ms98-a-0031	B.42	190.502750	190.792750		school	school
sw3375B-ms98-a-0031	B.42	190.792750	191.152750		level	level
sw3375B-ms98-a-0031	B.42	191.152750	191.472375		[silence]	[silence]
sw3375B-ms98-a-0032	B.42	191.472375	191.832375		[silence]	[silence]
sw3375B-ms98-a-0032	B.42	191.832375	191.982375		So	so
sw3375B-ms98-a-0032	B.42	191.982375	192.556125		therefore	therefore
sw3375B-ms98-a-0032	B.42	192.556125	192.883875		[silence]	[silence]
sw3375B-ms98-a-0032	B.42	192.883875	193.022375		they're	they're
sw3375B-ms98-a-0032	B.42	193.022375	193.342375		teaching	teaching
sw3375B-ms98-a-0032	B.42	193.342375	193.472375		from	from
sw3375B-ms98-a-0032	B.42	193.472375	193.532375		a	a
sw3375B-ms98-a-0032	B.42	193.532375	193.822375		teacher's	teacher's
sw3375B-ms98-a-0032	B.42	193.822375	193.992375		point	point
sw3375B-ms98-a-0032	B.42	193.992375	194.062375		of	of
sw3375B-ms98-a-0032	B.42	194.062375	194.252375		view	view
sw3375B-ms98-a-0032	B.42	194.252375	194.342375		and	and
sw3375B-ms98-a-0032	B.42	194.342375	194.482375		not	not
sw3375B-ms98-a-0032	B.42	194.482375	194.612375		from	from
sw3375B-ms98-a-0032	B.42	194.612375	194.652375		a	a
sw3375B-ms98-a-0032	B.42	194.652375	195.162375		physicist	physicist
sw3375B-ms98-a-0032	B.42	195.162375	195.352375		point	point
sw3375B-ms98-a-0032	B.42	195.352375	195.412375		of	of
sw3375B-ms98-a-0032	B.42	195.412375	195.622375		view	view
sw3375B-ms98-a-0032	B.42	195.622375	195.762375		And	and
sw3375B-ms98-a-0032	B.42	195.762375	195.932375		that	that
sw3375B-ms98-a-0032	B.42	195.932375	196.382375		[silence]	[silence]
sw3375B-ms98-a-0032	B.42	196.382375	196.692375		causes	causes
sw3375B-ms98-a-0032	B.42	196.692375	196.722375		a	a
sw3375B-ms98-a-0032	B.42	196.722375	196.822375		lot	lot
sw3375B-ms98-a-0032	B.42	196.822375	196.882375		of	of
sw3375B-ms98-a-0032	B.42	196.882375	197.292375		trouble	trouble
sw3375B-ms98-a-0032	B.44	197.292375	197.600375		[silence]	[silence]
sw3375B-ms98-a-0033	B.44	197.600375	214.600625		[silence]	[silence]
sw3375B-ms98-a-0034	B.44	214.600625	215.050625		[silence]	[silence]
sw3375B-ms98-a-0034	B.44	215.050625	215.620625		Right	right
sw3375B-ms98-a-0034	B.46	215.620625	216.019000		[silence]	[silence]
sw3375B-ms98-a-0035	B.46	216.019000	227.192500		[silence]	[silence]
sw3375B-ms98-a-0036	B.46	227.192500	227.582500		[silence]	[silence]
sw3375B-ms98-a-0036	B.46	227.582500	228.407500		Exactly	exactly
sw3375B-ms98-a-0036	B.46	228.407500	228.765250		[silence]	[silence]
sw3375B-ms98-a-0036	B.46	228.765250	229.161500		Because	because
sw3375B-ms98-a-0036	B.46	229.161500	229.270750		I	i
sw3375B-ms98-a-0036	B.46	229.270750	229.654000		mean	mean
sw3375B-ms98-a-0036	B.46	229.654000	230.162500		here	here
sw3375B-ms98-a-0036	B.46	230.162500	230.562500		in	in
sw3375B-ms98-a-0036	B.46	230.562500	230.862500	<DEL>	---	uh
sw3375B-ms98-a-0036	B.46	230.862500	231.042500		the	the
sw3375B-ms98-a-0036	B.46	231.042500	231.302500	<SUB>	town	county
sw3375B-ms98-a-0036	B.46	231.302500	231.402500	<DEL>	---	where
sw3375B-ms98-a-0036	B.46	231.402500	231.432500		I	i
sw3375B-ms98-a-0036	B.46	231.432500	231.592500		went	went
sw3375B-ms98-a-0036	B.46	231.592500	231.652500		to	to
sw3375B-ms98-a-0036	B.46	231.652500	231.842500		high	high
sw3375B-ms98-a-0036	B.46	231.842500	232.245500		school	school
sw3375B-ms98-a-0036	B.46	232.245500	232.633750		[silence]	[silence]
sw3375B-ms98-a-0037	B.46	232.633750	232.893750		[silence]	[silence]
sw3375B-ms98-a-0037	B.46	232.893750	233.043750		one	one
sw3375B-ms98-a-0037	B.46	233.043750	233.133750		of	of
sw3375B-ms98-a-0037	B.46	233.133750	233.373500		the	the
sw3375B-ms98-a-0037	B.46	233.373500	233.803500		[silence]	[silence]
sw3375B-ms98-a-0037	B.46	233.803500	233.913750	<SUB>	there	th[e]-
sw3375B-ms98-a-0037	B.46	233.913750	234.043750	<SUB>	were	the
sw3375B-ms98-a-0037	B.46	234.043750	234.423750		four	four
sw3375B-ms98-a-0037	B.46	234.423750	234.853750		high	high
sw3375B-ms98-a-0037	B.46	234.853750	235.123750		schools	schools
sw3375B-ms98-a-0037	B.46	235.123750	235.193750		in	in
sw3375B-ms98-a-0037	B.46	235.193750	235.283750		my	my
sw3375B-ms98-a-0037	B.46	235.283750	235.643750		county	county
sw3375B-ms98-a-0037	B.46	235.643750	235.823750		one	one
sw3375B-ms98-a-0037	B.46	235.823750	235.893750		of	of
sw3375B-ms98-a-0037	B.46	235.893750	236.103750		the	the
sw3375B-ms98-a-0037	B.46	236.103750	236.283750		high	high
sw3375B-ms98-a-0037	B.46	236.283750	236.573750		schools	schools
sw3375B-ms98-a-0037	B.46	236.573750	236.673750		was	was
sw3375B-ms98-a-0037	B.46	236.673750	236.833750		blown	blown
sw3375B-ms98-a-0037	B.46	236.833750	236.973750		away	away
sw3375B-ms98-a-0037	B.46	236.973750	237.123750		by	by
sw3375B-ms98-a-0037	B.46	237.123750	237.173750		a	a
sw3375B-ms98-a-0037	B.46	237.173750	237.795250		tornado	tornado
sw3375B-ms98-a-0037	B.46	237.795250	238.075000		[silence]	[silence]
sw3375B-ms98-a-0038	B.46	238.075000	238.435000		[silence]	[silence]
sw3375B-ms98-a-0038	B.46	238.435000	238.775000		So	so
sw3375B-ms98-a-0038	B.46	238.775000	238.905000		when	when
sw3375B-ms98-a-0038	B.46	238.905000	239.005000		they	they
sw3375B-ms98-a-0038	B.46	239.005000	239.335000		rebuilt	rebuilt
sw3375B-ms98-a-0038	B.46	239.335000	239.515000		that	that
sw3375B-ms98-a-0038	B.46	239.515000	239.855000		school	school
sw3375B-ms98-a-0038	B.46	239.855000	239.975000		they	they
sw3375B-ms98-a-0038	B.46	239.975000	240.275000		had	had
sw3375B-ms98-a-0038	B.46	240.275000	240.586000		a	a
sw3375B-ms98-a-0038	B.46	240.586000	241.060500		[silence]	[silence]
sw3375B-ms98-a-0038	B.46	241.060500	241.559500		a	a
sw3375B-ms98-a-0038	B.46	241.559500	241.815000		top	top
sw3375B-ms98-a-0038	B.46	241.815000	242.106750		[silence]	[silence]
sw3375B-ms98-a-0038	B.46	242.106750	242.212250		of	of
sw3375B-ms98-a-0038	B.46	242.212250	242.275000		the	the
sw3375B-ms98-a-0038	B.46	242.275000	242.605000		line	line
sw3375B-ms98-a-0038	B.46	242.605000	243.000250		high	high
sw3375B-ms98-a-0038	B.46	243.000250	243.286500		tech	tech
sw3375B-ms98-a-0038	B.46	243.286500	243.405000		[silence]	[silence]
sw3375B-ms98-a-0038	B.46	243.405000	243.835000		school	school
sw3375B-ms98-a-0038	B.46	243.835000	244.182375		there	there
sw3375B-ms98-a-0038	B.48	244.182375	244.611750		[silence]	[silence]
sw3375B-ms98-a-0038	B.48	244.611750	245.005000		And	and
sw3375B-ms98-a-0038	B.48	245.005000	245.115000		the	the
sw3375B-ms98-a-0038	B.48	245.115000	245.395625		other	other
sw3375B-ms98-a-0038	B.48	245.395625	245.805000		schools	schools
sw3375B-ms98-a-0038	B.48	245.805000	245.885000		were	were
sw3375B-ms98-a-0038	B.48	245.885000	246.200125		built	built
sw3375B-ms98-a-0038	B.48	246.200125	246.437375		[silence]	[silence]
sw3375B-ms98-a-0038	B.48	246.437375	246.685000		back	back
sw3375B-ms98-a-0038	B.48	246.685000	247.145250		in	in
sw3375B-ms98-a-0038	B.48	247.145250	247.397500		[silence]	[silence]
sw3375B-ms98-a-0038	B.48	247.397500	247.665000		maybe	maybe
sw3375B-ms98-a-0038	B.48	247.665000	247.745000		the	the
sw3375B-ms98-a-0038	B.48	247.745000	248.265000		fifties	fifties
sw3375B-ms98-a-0038	B.48	248.265000	248.685000		or	or
sw3375B-ms98-a-0038	B.48	248.685000	248.855000		early	early
sw3375B-ms98-a-0038	B.48	248.855000	249.572375		sixties	sixties
sw3375B-ms98-a-0038	B.48	249.572375	250.000000		[silence]	[silence]
sw3375B-ms98-a-0039	B.48	250.000000	250.310000		[silence]	[silence]
sw3375B-ms98-a-0039	B.48	250.310000	250.600000		and	and
sw3375B-ms98-a-0039	B.48	250.600000	250.790000		then	then
sw3375B-ms98-a-0039	B.48	250.790000	251.160000		when	when
sw3375B-ms98-a-0039	B.48	251.160000	251.603000		uh	uh
sw3375B-ms98-a-0039	B.48	251.603000	251.603000	<INS>	the	---
sw3375B-ms98-a-0039	B.48	251.603000	252.380000		evaluation	evaluation
sw3375B-ms98-a-0039	B.48	252.380000	252.760000		committees	committees
sw3375B-ms98-a-0039	B.48	252.760000	252.990000		came	came
sw3375B-ms98-a-0039	B.48	252.990000	253.360000		through	through
sw3375B-ms98-a-0039	B.48	253.360000	253.470000		they	they
sw3375B-ms98-a-0039	B.48	253.470000	254.080000		praised	praised
sw3375B-ms98-a-0039	B.48	254.080000	254.470000		[silence]	[silence]
sw3375B-ms98-a-0039	B.48	254.470000	254.570000		the	the
sw3375B-ms98-a-0039	B.48	254.570000	254.810000		school	school
sw3375B-ms98-a-0039	B.48	254.810000	254.910000		that	that
sw3375B-ms98-a-0039	B.48	254.910000	255.000000		had	had
sw3375B-ms98-a-0039	B.48	255.000000	255.130000		been	been
sw3375B-ms98-a-0039	B.48	255.130000	255.700000		rebuilt	rebuilt
sw3375B-ms98-a-0039	B.48	255.700000	256.150000		[silence]	[silence]
sw3375B-ms98-a-0039	B.48	256.150000	256.400000		while	while
sw3375B-ms98-a-0039	B.48	256.400000	256.490000		they	they
sw3375B-ms98-a-0039	B.48	256.490000	256.610000		were	were
sw3375B-ms98-a-0039	B.48	256.610000	256.880000		down	down
sw3375B-ms98-a-0039	B.48	256.880000	257.180000		grading	grading
sw3375B-ms98-a-0039	B.48	257.180000	257.300000		all	all
sw3375B-ms98-a-0039	B.48	257.300000	257.480000		these	these
sw3375B-ms98-a-0039	B.48	257.480000	257.680000		other	other
sw3375B-ms98-a-0039	B.48	257.680000	257.890000		ones	ones
sw3375B-ms98-a-0039	B.48	257.890000	258.090000		Telling	telling
sw3375B-ms98-a-0039	B.48	258.090000	258.150000		them	them_1
sw3375B-ms98-a-0039	B.48	258.150000	258.250000		what	what
sw3375B-ms98-a-0039	B.48	258.250000	258.330000		they	they
sw3375B-ms98-a-0039	B.48	258.330000	258.490000	<SUB>	needed	need
sw3375B-ms98-a-0039	B.48	258.490000	258.580000		to	to
sw3375B-ms98-a-0039	B.48	258.580000	258.690000		do	do
sw3375B-ms98-a-0039	B.48	258.690000	258.770000		to	to
sw3375B-ms98-a-0039	B.48	258.770000	259.030000		fix	fix
sw3375B-ms98-a-0039	B.48	259.030000	259.160000		up	up
sw3375B-ms98-a-0039	B.48	259.160000	259.360000		this	this
sw3375B-ms98-a-0039	B.48	259.360000	259.660000		building	building
sw3375B-ms98-a-0039	B.48	259.660000	259.750000		and	and
sw3375B-ms98-a-0039	B.48	259.750000	259.910000		this	this
sw3375B-ms98-a-0039	B.48	259.910000	260.010000		and	and
sw3375B-ms98-a-0039	B.48	260.010000	260.280000		this	this
sw3375B-ms98-a-0039	B.48	260.280000	260.400000		and	and
sw3375B-ms98-a-0039	B.48	260.400000	260.790000		this	this
sw3375B-ms98-a-0039	B.48	260.790000	260.989375		[silence]	[silence]
sw3375B-ms98-a-0040	B.48	260.989375	261.549375		[silence]	[silence]
sw3375B-ms98-a-0040	B.48	261.549375	261.659375		and	and
sw3375B-ms98-a-0040	B.48	261.659375	262.079375		so	so
sw3375B-ms98-a-0040	B.48	262.079375	262.149375	<DEL>	---	i[t]-
sw3375B-ms98-a-0040	B.48	262.149375	262.409375		[silence]	[silence]
sw3375B-ms98-a-0040	B.48	262.409375	262.519375		it	it
sw3375B-ms98-a-0040	B.48	262.519375	262.729375		kind	kind
sw3375B-ms98-a-0040	B.48	262.729375	262.928000		of	of
sw3375B-ms98-a-0040	B.48	262.928000	263.221750		[silence]	[silence]
sw3375B-ms98-a-0040	B.48	263.221750	263.389375		would	would
sw3375B-ms98-a-0040	B.48	263.389375	263.579375		make	make
sw3375B-ms98-a-0040	B.48	263.579375	263.649375		you	you
sw3375B-ms98-a-0040	B.48	263.649375	263.949375		think	think
sw3375B-ms98-a-0040	B.48	263.949375	264.119375		that	that
sw3375B-ms98-a-0040	B.48	264.119375	264.259375		we'd	we'd
sw3375B-ms98-a-0040	B.48	264.259375	264.379375		all	all
sw3375B-ms98-a-0040	B.48	264.379375	264.479375		be	be
sw3375B-ms98-a-0040	B.48	264.479375	264.739375		better	better
sw3375B-ms98-a-0040	B.48	264.739375	265.029375		off	off
sw3375B-ms98-a-0040	B.48	265.029375	265.139375		if	if
sw3375B-ms98-a-0040	B.48	265.139375	265.269375		all	all
sw3375B-ms98-a-0040	B.48	265.269375	265.329375		the	the
sw3375B-ms98-a-0040	B.48	265.329375	265.559375		schools	schools
sw3375B-ms98-a-0040	B.48	265.559375	265.619375		were	were
sw3375B-ms98-a-0040	B.48	265.619375	265.759375		blown	blown
sw3375B-ms98-a-0040	B.48	265.759375	265.889375		away	away
sw3375B-ms98-a-0040	B.48	265.889375	266.019375		by	by
sw3375B-ms98-a-0040	B.48	266.019375	266.489375		tornadoes	tornadoes
sw3375B-ms98-a-0040	B.48	266.489375	266.579375		and	and
sw3375B-ms98-a-0040	B.48	266.579375	266.639375		we	we
sw3375B-ms98-a-0040	B.48	266.639375	266.729375		had	had
sw3375B-ms98-a-0040	B.48	266.729375	266.789375		to	to
sw3375B-ms98-a-0040	B.48	266.789375	267.129375		rebuild	rebuild
sw3375B-ms98-a-0040	B.48	267.129375	267.309375		them	them
sw3375B-ms98-a-0040	B.50	267.309375	267.740625		[silence]	[silence]
sw3375B-ms98-a-0041	B.50	267.740625	293.508250		[silence]	[silence]
sw3375B-ms98-a-0042	B.50	293.508250	293.968250		[silence]	[silence]
sw3375B-ms98-a-0042	B.50	293.968250	294.448250		Right	right
sw3375B-ms98-a-0042	B.52	294.448250	294.908500		[silence]	[silence]
sw3375B-ms98-a-0043	B.52	294.908500	298.551625		[silence]	[silence]
sw3375B-ms98-a-0044	B.52	298.551625	298.981625		[silence]	[silence]
sw3375B-ms98-a-0044	B.52	298.981625	299.451625		Exactly	exactly
sw3375B-ms98-a-0044	B.52	299.451625	299.481625	<DEL>	---	th[at's]-
sw3375B-ms98-a-0044	B.52	299.481625	299.522000		[silence]	[silence]
