sw3360A-ms98-a-0001	A.1	0.000000	0.053000		[silence]	[silence]
sw3360A-ms98-a-0001	A.1	0.053000	0.167625		[noise]	[noise]
sw3360A-ms98-a-0001	A.1	0.167625	0.916125		[silence]	[silence]
sw3360A-ms98-a-0001	A.1	0.916125	1.739375	<SUB>	Uh	ah
sw3360A-ms98-a-0001	A.1	1.739375	2.027250		[silence]	[silence]
sw3360A-ms98-a-0001	A.1	2.027250	2.120000		I	i
sw3360A-ms98-a-0001	A.1	2.120000	2.280000		guess	guess
sw3360A-ms98-a-0001	A.1	2.280000	2.440000		my	my
sw3360A-ms98-a-0001	A.1	2.440000	2.830000		personal	personal
sw3360A-ms98-a-0001	A.1	2.830000	3.200000		opinion	opinion
sw3360A-ms98-a-0001	A.1	3.200000	3.350000	<SUB>	I	i-
sw3360A-ms98-a-0001	A.1	3.350000	3.530000		I	i
sw3360A-ms98-a-0001	A.1	3.530000	3.850000		don't	don't
sw3360A-ms98-a-0001	A.1	3.850000	4.170000		mind	mind
sw3360A-ms98-a-0001	A.1	4.170000	4.530000		paying	paying
sw3360A-ms98-a-0001	A.1	4.530000	5.090000		taxes	taxes
sw3360A-ms98-a-0001	A.1	5.090000	5.850000		necessarily	necessarily
sw3360A-ms98-a-0001	A.1	5.850000	6.057625		I	i
sw3360A-ms98-a-0001	A.1	6.057625	6.210000		I	I
sw3360A-ms98-a-0001	A.1	6.210000	6.420000		just	just
sw3360A-ms98-a-0001	A.1	6.420000	6.840000		sometimes	sometimes
sw3360A-ms98-a-0001	A.1	6.840000	7.220000		wonder	wonder
sw3360A-ms98-a-0001	A.1	7.220000	7.476500		if	if
sw3360A-ms98-a-0001	A.1	7.476500	7.623375		[silence]	[silence]
sw3360A-ms98-a-0001	A.1	7.623375	7.800000		our	our
sw3360A-ms98-a-0001	A.1	7.800000	8.180000	<CONT>	money	money's
sw3360A-ms98-a-0001	A.1	8.180000	8.180000	<CONT>	is	+++
sw3360A-ms98-a-0001	A.1	8.180000	8.420000		being	being
sw3360A-ms98-a-0001	A.1	8.420000	8.930000		used	used
sw3360A-ms98-a-0001	A.1	8.930000	9.050000		in	in
sw3360A-ms98-a-0001	A.1	9.050000	9.130000		the	the
sw3360A-ms98-a-0001	A.1	9.130000	9.650000		best	best
sw3360A-ms98-a-0001	A.1	9.650000	9.950000		way	way
sw3360A-ms98-a-0001	A.3	9.950000	10.515000		[silence]	[silence]
sw3360A-ms98-a-0002	A.3	10.515000	10.945625		[silence]	[silence]
sw3360A-ms98-a-0002	A.3	10.945625	11.497000	<SUB>	Uh	ah
sw3360A-ms98-a-0002	A.3	11.497000	11.925000		sometimes	sometimes
sw3360A-ms98-a-0002	A.3	11.925000	12.045000		when	when
sw3360A-ms98-a-0002	A.3	12.045000	12.135000		I	i
sw3360A-ms98-a-0002	A.3	12.135000	12.435000		hear	hear
sw3360A-ms98-a-0002	A.3	12.435000	12.594125		what	what
sw3360A-ms98-a-0002	A.3	12.594125	12.748500		[silence]	[silence]
sw3360A-ms98-a-0002	A.3	12.748500	12.955000		what	what
sw3360A-ms98-a-0002	A.3	12.955000	13.323875		they're	they're
sw3360A-ms98-a-0002	A.3	13.323875	13.621375		[silence]	[silence]
sw3360A-ms98-a-0002	A.3	13.621375	13.895000		even	even
sw3360A-ms98-a-0002	A.3	13.895000	13.985000	<SUB>	what	wha[t]-
sw3360A-ms98-a-0002	A.3	13.985000	14.245000		even	even
sw3360A-ms98-a-0002	A.3	14.245000	14.405000		what	what
sw3360A-ms98-a-0002	A.3	14.405000	14.525000		the	the
sw3360A-ms98-a-0002	A.3	14.525000	15.265000		politicians	politicians
sw3360A-ms98-a-0002	A.3	15.265000	15.355000		are	are
sw3360A-ms98-a-0002	A.3	15.355000	15.895000		making	making
sw3360A-ms98-a-0002	A.3	15.895000	16.385000		[silence]	[silence]
sw3360A-ms98-a-0002	A.3	16.385000	16.475000		you	you
sw3360A-ms98-a-0002	A.3	16.475000	16.585000		know	know
sw3360A-ms98-a-0002	A.3	16.585000	16.795000		when	when
sw3360A-ms98-a-0002	A.3	16.795000	16.905000	<DEL>	---	when
sw3360A-ms98-a-0002	A.3	16.905000	17.075000		they're	they're
sw3360A-ms98-a-0002	A.3	17.075000	17.275000		getting	getting
sw3360A-ms98-a-0002	A.3	17.275000	17.315000		a	a
sw3360A-ms98-a-0002	A.3	17.315000	17.565000		hundred	hundred
sw3360A-ms98-a-0002	A.3	17.565000	17.655000		and	and
sw3360A-ms98-a-0002	A.3	17.655000	17.975000		fifty	fifty
sw3360A-ms98-a-0002	A.3	17.975000	18.775000		thousand	thousand
sw3360A-ms98-a-0002	A.3	18.775000	19.235000		plus	plus
sw3360A-ms98-a-0002	A.3	19.235000	19.675000		[silence]	[silence]
sw3360A-ms98-a-0002	A.3	19.675000	20.225000		benefits	benefits
sw3360A-ms98-a-0002	A.3	20.225000	20.355000		and	and
sw3360A-ms98-a-0002	A.3	20.355000	20.685750		that	that
sw3360A-ms98-a-0002	A.3	20.685750	21.386250		[silence]	[silence]
sw3360A-ms98-a-0002	A.3	21.386250	22.049625	<SUB>	uh	ah
sw3360A-ms98-a-0002	A.3	22.049625	22.450000		[silence]	[silence]
sw3360A-ms98-a-0003	A.3	22.450000	22.750000		[silence]	[silence]
sw3360A-ms98-a-0003	A.3	22.750000	22.880000		[noise]	[noise]
sw3360A-ms98-a-0003	A.3	22.880000	23.040000		I	i
sw3360A-ms98-a-0003	A.3	23.040000	23.180000		think	think
sw3360A-ms98-a-0003	A.3	23.180000	23.515250		that's	that's
sw3360A-ms98-a-0003	A.3	23.515250	23.684625		[silence]	[silence]
sw3360A-ms98-a-0003	A.3	23.684625	23.870750		just	just
sw3360A-ms98-a-0003	A.3	23.870750	23.953625		a	a
sw3360A-ms98-a-0003	A.3	23.953625	24.150000		bit	bit
sw3360A-ms98-a-0003	A.3	24.150000	24.250000		too	too
sw3360A-ms98-a-0003	A.3	24.250000	24.910000		much	much
sw3360A-ms98-a-0003	A.3	24.910000	25.080000		to	to
sw3360A-ms98-a-0003	A.3	25.080000	25.254875		be	be
sw3360A-ms98-a-0003	A.3	25.254875	25.522250		[silence]	[silence]
sw3360A-ms98-a-0003	A.3	25.522250	25.910000		paying	paying
sw3360A-ms98-a-0003	A.3	25.910000	26.247750		them	them
sw3360A-ms98-a-0003	A.3	26.247750	26.533875	<SUB>	uh	ah
sw3360A-ms98-a-0003	A.3	26.533875	26.874625		[silence]	[silence]
sw3360A-ms98-a-0004	A.3	26.874625	26.894625		[silence]	[silence]
sw3360A-ms98-a-0004	A.3	26.894625	27.054625		and	and
sw3360A-ms98-a-0004	A.3	27.054625	27.204625		[silence]	[silence]
sw3360A-ms98-a-0004	A.3	27.204625	27.404625		that's	that's
sw3360A-ms98-a-0004	A.3	27.404625	27.564625		all	all
sw3360A-ms98-a-0004	A.3	27.564625	27.924625		tax	tax
sw3360A-ms98-a-0004	A.3	27.924625	28.154625		money	money
sw3360A-ms98-a-0004	A.3	28.154625	28.254625		When	when
sw3360A-ms98-a-0004	A.3	28.254625	28.324625		you	you
sw3360A-ms98-a-0004	A.3	28.324625	28.684625		figure	figure
sw3360A-ms98-a-0004	A.3	28.684625	28.894625		out	out
sw3360A-ms98-a-0004	A.3	28.894625	29.394625		how	how
sw3360A-ms98-a-0004	A.3	29.394625	29.644625		many	many
sw3360A-ms98-a-0004	A.3	29.644625	30.534625		politicians	politicians
sw3360A-ms98-a-0004	A.3	30.534625	30.784625		and	and
sw3360A-ms98-a-0004	A.3	30.784625	31.004625		each	each
sw3360A-ms98-a-0004	A.3	31.004625	31.264625		one	one
sw3360A-ms98-a-0004	A.3	31.264625	31.474625		getting	getting
sw3360A-ms98-a-0004	A.3	31.474625	31.674625		that	that
sw3360A-ms98-a-0004	A.3	31.674625	32.064625		much	much
sw3360A-ms98-a-0004	A.3	32.064625	32.294625		it's	it's
sw3360A-ms98-a-0004	A.3	32.294625	32.504625		just	just
sw3360A-ms98-a-0004	A.3	32.504625	32.904625		billions	billions
sw3360A-ms98-a-0004	A.3	32.904625	32.994625		of	of
sw3360A-ms98-a-0004	A.3	32.994625	33.384625		dollars	dollars
sw3360A-ms98-a-0004	A.3	33.384625	33.737625		that's	that's
sw3360A-ms98-a-0004	A.3	33.737625	34.385375		[silence]	[silence]
sw3360A-ms98-a-0004	A.3	34.385375	34.494625		I	i
sw3360A-ms98-a-0004	A.3	34.494625	34.654625		think	think
sw3360A-ms98-a-0004	A.3	34.654625	34.744625		is	is
sw3360A-ms98-a-0004	A.3	34.744625	34.904625		just	just
sw3360A-ms98-a-0004	A.3	34.904625	35.094625		being	being
sw3360A-ms98-a-0004	A.3	35.094625	35.384625		thrown	thrown
sw3360A-ms98-a-0004	A.3	35.384625	35.754625		away	away
sw3360A-ms98-a-0004	A.5	35.754625	36.445625		[silence]	[silence]
sw3360A-ms98-a-0005	A.5	36.445625	46.960375		[silence]	[silence]
sw3360A-ms98-a-0006	A.5	46.960375	47.440375		[silence]	[silence]
sw3360A-ms98-a-0006	A.5	47.440375	47.780375		Yeah	yeah
sw3360A-ms98-a-0006	A.7	47.780375	48.236125		[silence]	[silence]
sw3360A-ms98-a-0007	A.7	48.236125	65.167750		[silence]	[silence]
sw3360A-ms98-a-0008	A.7	65.167750	65.737750		[silence]	[silence]
sw3360A-ms98-a-0008	A.7	65.737750	65.977750		Yeah	yeah
sw3360A-ms98-a-0008	A.9	65.977750	66.430625		[silence]	[silence]
sw3360A-ms98-a-0009	A.9	66.430625	68.161375		[silence]	[silence]
sw3360A-ms98-a-0010	A.9	68.161375	68.631375		[silence]	[silence]
sw3360A-ms98-a-0010	A.9	68.631375	68.961375		Yeah	yeah
sw3360A-ms98-a-0010	A.11	68.961375	69.443750		[silence]	[silence]
sw3360A-ms98-a-0011	A.11	69.443750	73.434125		[silence]	[silence]
sw3360A-ms98-a-0012	A.11	73.434125	73.931000		[silence]	[silence]
sw3360A-ms98-a-0012	A.11	73.931000	74.179375		Yeah	yeah
sw3360A-ms98-a-0012	A.13	74.179375	74.667000		[silence]	[silence]
sw3360A-ms98-a-0013	A.13	74.667000	86.998250		[silence]	[silence]
sw3360A-ms98-a-0014	A.13	86.998250	87.508250		[silence]	[silence]
sw3360A-ms98-a-0014	A.13	87.508250	87.781125		Yeah	yeah
sw3360A-ms98-a-0014	A.13	87.781125	88.070625		[silence]	[silence]
sw3360A-ms98-a-0014	A.13	88.070625	88.305125		yeah	yeah
sw3360A-ms98-a-0014	A.13	88.305125	88.615875		[silence]	[silence]
sw3360A-ms98-a-0015	A.13	88.615875	88.925875		[silence]	[silence]
sw3360A-ms98-a-0015	A.13	88.925875	89.045875		Well	well
sw3360A-ms98-a-0015	A.13	89.045875	89.135875	<DEL>	---	i-
sw3360A-ms98-a-0015	A.13	89.135875	89.265875		I	i
sw3360A-ms98-a-0015	A.13	89.265875	89.505875		know	know
sw3360A-ms98-a-0015	A.13	89.505875	90.295875	<CONT>	any	anytime
sw3360A-ms98-a-0015	A.13	90.295875	90.295875	<CONT>	time	+++
sw3360A-ms98-a-0015	A.13	90.295875	90.475875		[silence]	[silence]
sw3360A-ms98-a-0015	A.13	90.475875	90.865875		there's	there's
sw3360A-ms98-a-0015	A.13	90.865875	91.095875		there's	there's
sw3360A-ms98-a-0015	A.13	91.095875	91.165875		a	a
sw3360A-ms98-a-0015	A.13	91.165875	91.625875		big	big
sw3360A-ms98-a-0015	A.13	91.625875	91.820125		uh	uh
sw3360A-ms98-a-0015	A.13	91.820125	92.436375		[silence]	[silence]
sw3360A-ms98-a-0015	A.13	92.436375	92.662375	<DEL>	---	uh
sw3360A-ms98-a-0015	A.13	92.662375	93.132000		budget	budget
sw3360A-ms98-a-0015	A.13	93.132000	93.440875		[silence]	[silence]
sw3360A-ms98-a-0015	A.13	93.440875	93.745875		cut	cut
sw3360A-ms98-a-0015	A.13	93.745875	93.855875		[silence]	[silence]
sw3360A-ms98-a-0015	A.13	93.855875	93.945875		you	you
sw3360A-ms98-a-0015	A.13	93.945875	94.015875		know	know
sw3360A-ms98-a-0015	A.13	94.015875	94.085875		I	i
sw3360A-ms98-a-0015	A.13	94.085875	94.365875		work	work
sw3360A-ms98-a-0015	A.13	94.365875	94.495875		with	with
sw3360A-ms98-a-0015	A.13	94.495875	94.555875		the	the
sw3360A-ms98-a-0015	A.13	94.555875	94.985875		state	state
sw3360A-ms98-a-0015	A.13	94.985875	95.071125		[silence]	[silence]
sw3360A-ms98-a-0015	A.13	95.071125	95.206750		and	and
sw3360A-ms98-a-0015	A.13	95.206750	95.635875	<CONT>	any	anytime
sw3360A-ms98-a-0015	A.13	95.635875	95.635875	<CONT>	time	+++
sw3360A-ms98-a-0015	A.13	95.635875	95.985875		there's	there's
sw3360A-ms98-a-0015	A.13	95.985875	96.135875		there	there
sw3360A-ms98-a-0015	A.13	96.135875	96.325875		is	is
sw3360A-ms98-a-0015	A.13	96.325875	96.616750		a	a
sw3360A-ms98-a-0015	A.13	96.616750	96.790000		[silence]	[silence]
sw3360A-ms98-a-0015	A.13	96.790000	97.155875		budget	budget
sw3360A-ms98-a-0015	A.13	97.155875	97.495875		cut	cut
sw3360A-ms98-a-0015	A.13	97.495875	97.813125		or	or
sw3360A-ms98-a-0015	A.13	97.813125	98.208625		[silence]	[silence]
sw3360A-ms98-a-0015	A.13	98.208625	98.765375		crunches	crunches
sw3360A-ms98-a-0015	A.13	98.765375	99.081750		[silence]	[silence]
sw3360A-ms98-a-0015	A.13	99.081750	99.235875		it's	it's
sw3360A-ms98-a-0015	A.13	99.235875	99.535875		always	always
sw3360A-ms98-a-0015	A.13	99.535875	99.615875		the	the
sw3360A-ms98-a-0015	A.13	99.615875	100.135875		small	small
sw3360A-ms98-a-0015	A.13	100.135875	100.644750		guy	guy
sw3360A-ms98-a-0015	A.13	100.644750	101.130625		[silence]	[silence]
sw3360A-ms98-a-0015	A.13	101.130625	101.385875		that	that
sw3360A-ms98-a-0015	A.13	101.385875	101.555875		that	that
sw3360A-ms98-a-0015	A.13	101.555875	101.888500		gets	gets
sw3360A-ms98-a-0015	A.13	101.888500	102.276375		hurt	hurt
sw3360A-ms98-a-0015	A.15	102.276375	102.485875		[noise]	[noise]
sw3360A-ms98-a-0015	A.15	102.485875	102.526250		[silence]	[silence]
sw3360A-ms98-a-0016	A.15	102.526250	102.726250		[silence]	[silence]
sw3360A-ms98-a-0016	A.15	102.726250	103.116250		It's	it's
sw3360A-ms98-a-0016	A.15	103.116250	103.416250		never	never
sw3360A-ms98-a-0016	A.15	103.416250	103.569875		the	the
sw3360A-ms98-a-0016	A.15	103.569875	103.965375		[silence]	[silence]
sw3360A-ms98-a-0016	A.15	103.965375	104.316250		uh	uh
sw3360A-ms98-a-0016	A.15	104.316250	104.436250		the	the
sw3360A-ms98-a-0016	A.15	104.436250	105.026250		person	person
sw3360A-ms98-a-0016	A.15	105.026250	105.226250		that's	that's
sw3360A-ms98-a-0016	A.15	105.226250	105.716250		making	making
sw3360A-ms98-a-0016	A.15	105.716250	105.836250		a	a
sw3360A-ms98-a-0016	A.15	105.836250	106.136250		hundred	hundred
sw3360A-ms98-a-0016	A.15	106.136250	106.888875		thousand	thousand
sw3360A-ms98-a-0016	A.15	106.888875	107.272875		[silence]	[silence]
sw3360A-ms98-a-0016	A.15	107.272875	107.676250		there	there
sw3360A-ms98-a-0016	A.15	107.676250	107.866250		It's	it's
sw3360A-ms98-a-0016	A.15	107.866250	108.166250		always	always
sw3360A-ms98-a-0016	A.15	108.166250	108.246250		the	the
sw3360A-ms98-a-0016	A.15	108.246250	108.636250		person	person
sw3360A-ms98-a-0016	A.15	108.636250	108.826250		that's	that's
sw3360A-ms98-a-0016	A.15	108.826250	109.156250		making	making
sw3360A-ms98-a-0016	A.15	109.156250	109.306250		the	the
sw3360A-ms98-a-0016	A.15	109.306250	109.716250		least	least
sw3360A-ms98-a-0016	A.15	109.716250	110.226250		amount	amount
sw3360A-ms98-a-0016	A.15	110.226250	110.446250		and	and
sw3360A-ms98-a-0016	A.17	110.446250	110.776000		[silence]	[silence]
sw3360A-ms98-a-0017	A.17	110.776000	111.192625		[silence]	[silence]
sw3360A-ms98-a-0017	A.17	111.192625	111.764875	<SUB>	uh	ah
sw3360A-ms98-a-0017	A.17	111.764875	112.375000		[silence]	[silence]
sw3360A-ms98-a-0017	A.17	112.375000	112.656000		and	and
sw3360A-ms98-a-0017	A.17	112.656000	112.886000	<DEL>	---	an[d]-
sw3360A-ms98-a-0017	A.17	112.886000	113.416000		sometimes	sometimes
sw3360A-ms98-a-0017	A.17	113.416000	113.626000		we're	we're
sw3360A-ms98-a-0017	A.17	113.626000	113.936000		running	running
sw3360A-ms98-a-0017	A.17	113.936000	114.236000		around	around
sw3360A-ms98-a-0017	A.17	114.236000	114.336000		there	there
sw3360A-ms98-a-0017	A.17	114.336000	114.406000		I	i
sw3360A-ms98-a-0017	A.17	114.406000	114.676000		see	see
sw3360A-ms98-a-0017	A.17	114.676000	115.246000		these	these
sw3360A-ms98-a-0017	A.17	115.246000	115.622625		these	these
sw3360A-ms98-a-0017	A.17	115.622625	115.854875	<SUB>	uh	ah
sw3360A-ms98-a-0017	A.17	115.854875	116.111625		[silence]	[silence]
sw3360A-ms98-a-0018	A.17	116.111625	116.351625		[silence]	[silence]
sw3360A-ms98-a-0018	A.17	116.351625	116.571625	<DEL>	---	ah
sw3360A-ms98-a-0018	A.17	116.571625	117.601625		supervisors	supervisors
sw3360A-ms98-a-0018	A.17	117.601625	117.921625		running	running
sw3360A-ms98-a-0018	A.17	117.921625	118.651625		around	around
sw3360A-ms98-a-0018	A.17	118.651625	118.900875	<SUB>	uh	ah
sw3360A-ms98-a-0018	A.17	118.900875	118.991250		[silence]	[silence]
sw3360A-ms98-a-0018	A.17	118.991250	119.301625		having	having
sw3360A-ms98-a-0018	A.17	119.301625	119.791625		meetings	meetings
sw3360A-ms98-a-0018	A.17	119.791625	119.981625	<SUB>	I	i-
sw3360A-ms98-a-0018	A.17	119.981625	120.151625		I	i
sw3360A-ms98-a-0018	A.17	120.151625	120.381625		really	really
sw3360A-ms98-a-0018	A.17	120.381625	120.551625		don't	don't
sw3360A-ms98-a-0018	A.17	120.551625	120.621625		know	know
sw3360A-ms98-a-0018	A.17	120.621625	120.831625		what	what
sw3360A-ms98-a-0018	A.17	120.831625	120.961625		they	they
sw3360A-ms98-a-0018	A.17	120.961625	121.321625		do	do
sw3360A-ms98-a-0018	A.19	121.321625	121.631625		I	[laughter-i]
sw3360A-ms98-a-0018	A.19	121.631625	122.031625		sometimes	sometimes
sw3360A-ms98-a-0018	A.19	122.031625	122.358500		wonder	wonder
sw3360A-ms98-a-0018	A.19	122.358500	122.617250		are	are
sw3360A-ms98-a-0018	A.19	122.617250	122.771625		are	are
sw3360A-ms98-a-0018	A.19	122.771625	122.911625		they	they
sw3360A-ms98-a-0018	A.19	122.911625	123.241625		really	really
sw3360A-ms98-a-0018	A.19	123.241625	123.561625		doing	doing
sw3360A-ms98-a-0018	A.19	123.561625	124.041500		anything	anything
sw3360A-ms98-a-0018	A.19	124.041500	124.191250		or	or
sw3360A-ms98-a-0018	A.21	124.191250	124.676125		[silence]	[silence]
sw3360A-ms98-a-0019	A.21	124.676125	171.512125		[silence]	[silence]
sw3360A-ms98-a-0020	A.21	171.512125	171.992125		[silence]	[silence]
sw3360A-ms98-a-0020	A.21	171.992125	172.202125		Yeah	yeah
sw3360A-ms98-a-0020	A.23	172.202125	172.717000		[silence]	[silence]
sw3360A-ms98-a-0021	A.23	172.717000	183.210250		[silence]	[silence]
sw3360A-ms98-a-0022	A.23	183.210250	183.720250		[silence]	[silence]
sw3360A-ms98-a-0022	A.23	183.720250	184.070250		Yeah	yeah
sw3360A-ms98-a-0022	A.23	184.070250	184.579750		[silence]	[silence]
sw3360A-ms98-a-0023	A.23	184.579750	185.129750		[silence]	[silence]
sw3360A-ms98-a-0023	A.23	185.129750	185.259750		Well	well
sw3360A-ms98-a-0023	A.23	185.259750	185.339750		they	they
sw3360A-ms98-a-0023	A.23	185.339750	185.529750		got	got
sw3360A-ms98-a-0023	A.23	185.529750	185.639750		so	so
sw3360A-ms98-a-0023	A.23	185.639750	185.839750		many	many
sw3360A-ms98-a-0023	A.23	185.839750	186.129750		hidden	hidden
sw3360A-ms98-a-0023	A.23	186.129750	186.609750		taxes	taxes
sw3360A-ms98-a-0023	A.23	186.609750	186.759750		that	that
sw3360A-ms98-a-0023	A.23	186.759750	186.909750		it's	it's
sw3360A-ms98-a-0023	A.23	186.909750	187.119750		really	really
sw3360A-ms98-a-0023	A.23	187.119750	187.309750		hard	hard
sw3360A-ms98-a-0023	A.23	187.309750	187.379750		to	to
sw3360A-ms98-a-0023	A.23	187.379750	187.709750		figure	figure
sw3360A-ms98-a-0023	A.23	187.709750	187.839750		out	out
sw3360A-ms98-a-0023	A.23	187.839750	187.979750		how	how
sw3360A-ms98-a-0023	A.23	187.979750	188.319750		much	much
sw3360A-ms98-a-0023	A.23	188.319750	188.479750		you	you
sw3360A-ms98-a-0023	A.23	188.479750	188.659750		are	are
sw3360A-ms98-a-0023	A.23	188.659750	189.029750		paying	paying
sw3360A-ms98-a-0023	A.23	189.029750	189.349750		because	because
sw3360A-ms98-a-0023	A.23	189.349750	189.869750		[silence]	[silence]
sw3360A-ms98-a-0023	A.23	189.869750	190.030375		go	go
sw3360A-ms98-a-0023	A.23	190.030375	190.109375		to	to
sw3360A-ms98-a-0023	A.23	190.109375	190.149750		a	a
sw3360A-ms98-a-0023	A.23	190.149750	190.559750		grocery	grocery
sw3360A-ms98-a-0023	A.23	190.559750	190.969750		store	store
sw3360A-ms98-a-0023	A.23	190.969750	191.429750	<DEL>	---	or
sw3360A-ms98-a-0023	A.23	191.429750	191.649750		something	something
sw3360A-ms98-a-0023	A.23	191.649750	191.809750		like	like
sw3360A-ms98-a-0023	A.23	191.809750	191.999750		that	that
sw3360A-ms98-a-0023	A.23	191.999750	192.099750		and	and
sw3360A-ms98-a-0023	A.23	192.099750	192.189750		you're	you're
sw3360A-ms98-a-0023	A.23	192.189750	192.609750		paying	paying
sw3360A-ms98-a-0023	A.23	192.609750	192.639750		a	a
sw3360A-ms98-a-0023	A.23	192.639750	192.839750		little	little
sw3360A-ms98-a-0023	A.23	192.839750	193.199750		tax	tax
sw3360A-ms98-a-0023	A.23	193.199750	193.659750		here	here
sw3360A-ms98-a-0023	A.23	193.659750	193.749750		and	and
sw3360A-ms98-a-0023	A.23	193.749750	193.909750		you	you
sw3360A-ms98-a-0023	A.25	193.909750	194.291375		[silence]	[silence]
sw3360A-ms98-a-0024	A.25	194.291375	194.771875		[silence]	[silence]
sw3360A-ms98-a-0024	A.25	194.771875	195.022500		so	so
sw3360A-ms98-a-0024	A.25	195.022500	195.667375		[silence]	[silence]
sw3360A-ms98-a-0024	A.25	195.667375	195.910250	<DEL>	---	yeah
sw3360A-ms98-a-0024	A.25	195.910250	196.049625		[silence]	[silence]
sw3360A-ms98-a-0024	A.25	196.049625	196.511375		Gas	gas
sw3360A-ms98-a-0024	A.25	196.511375	196.601375		I	i
sw3360A-ms98-a-0024	A.25	196.601375	196.761375		don't	don't
sw3360A-ms98-a-0024	A.25	196.761375	197.120750		know	know
sw3360A-ms98-a-0024	A.25	197.120750	197.339125		[silence]	[silence]
sw3360A-ms98-a-0024	A.25	197.339125	197.471375		about	about
sw3360A-ms98-a-0024	A.25	197.471375	197.631375		you	you
sw3360A-ms98-a-0024	A.25	197.631375	197.905125		guys	guys
sw3360A-ms98-a-0024	A.25	197.905125	198.147500	<DEL>	---	i
sw3360A-ms98-a-0024	A.25	198.147500	198.271750		[silence]	[silence]
sw3360A-ms98-a-0024	A.25	198.271750	198.481375		but	but
sw3360A-ms98-a-0024	A.25	198.481375	199.182125		[silence]	[silence]
sw3360A-ms98-a-0024	A.25	199.182125	199.423250		there's	there's
sw3360A-ms98-a-0024	A.25	199.423250	199.671375		probably	probably
sw3360A-ms98-a-0024	A.25	199.671375	199.751375		at	at
sw3360A-ms98-a-0024	A.25	199.751375	199.971375		least	least
sw3360A-ms98-a-0024	A.25	199.971375	200.231375		about	about
sw3360A-ms98-a-0024	A.25	200.231375	200.531375	<CONT>	twenty-five	twenty
sw3360A-ms98-a-0024	A.25	200.531375	200.991375	<CONT>	+++	five
sw3360A-ms98-a-0024	A.25	200.991375	201.311375		to	to
sw3360A-ms98-a-0024	A.25	201.311375	201.481375		to	to
sw3360A-ms98-a-0024	A.25	201.481375	201.811375		thirty	thirty
sw3360A-ms98-a-0024	A.25	201.811375	202.231375		cents	cents
sw3360A-ms98-a-0024	A.25	202.231375	202.391375		of	of
sw3360A-ms98-a-0024	A.25	202.391375	202.691375		[silence]	[silence]
sw3360A-ms98-a-0024	A.25	202.691375	203.031375		different	different
sw3360A-ms98-a-0024	A.25	203.031375	203.621375		taxes	taxes
sw3360A-ms98-a-0024	A.25	203.621375	203.891375		on	on
sw3360A-ms98-a-0024	A.25	203.891375	203.981375		[silence]	[silence]
sw3360A-ms98-a-0024	A.25	203.981375	204.141000		on	on
sw3360A-ms98-a-0024	A.25	204.141000	204.276625		our	our
sw3360A-ms98-a-0024	A.25	204.276625	204.917000		gas	gas
sw3360A-ms98-a-0024	A.27	204.917000	205.478250		[silence]	[silence]
sw3360A-ms98-a-0025	A.27	205.478250	206.018250		[silence]	[silence]
sw3360A-ms98-a-0025	A.27	206.018250	206.328250		And	and
sw3360A-ms98-a-0025	A.27	206.328250	206.478250		you	you
sw3360A-ms98-a-0025	A.27	206.478250	206.668250		don't	don't
sw3360A-ms98-a-0025	A.27	206.668250	207.085875		realize	realize
sw3360A-ms98-a-0025	A.29	207.085875	207.279875	<DEL>	---	it
sw3360A-ms98-a-0025	A.29	207.279875	207.770750		[silence]	[silence]
sw3360A-ms98-a-0026	A.29	207.770750	216.808500		[silence]	[silence]
sw3360A-ms98-a-0027	A.29	216.808500	217.298500		[silence]	[silence]
sw3360A-ms98-a-0027	A.29	217.298500	217.598500		Yeah	yeah
sw3360A-ms98-a-0027	A.31	217.598500	218.044625		[silence]	[silence]
sw3360A-ms98-a-0028	A.31	218.044625	243.098625		[silence]	[silence]
sw3360A-ms98-a-0029	A.31	243.098625	243.428875		[silence]	[silence]
sw3360A-ms98-a-0029	A.31	243.428875	243.916875		Yeah	yeah
sw3360A-ms98-a-0029	A.31	243.916875	244.422625		[silence]	[silence]
sw3360A-ms98-a-0029	A.31	244.422625	244.508625		Well	well
sw3360A-ms98-a-0029	A.31	244.508625	244.568625		I	i
sw3360A-ms98-a-0029	A.31	244.568625	244.738625		know	know
sw3360A-ms98-a-0029	A.31	244.738625	244.848625		they	they
sw3360A-ms98-a-0029	A.31	244.848625	245.311250		say	say
sw3360A-ms98-a-0029	A.31	245.311250	245.642750		[silence]	[silence]
sw3360A-ms98-a-0029	A.31	245.642750	245.898625		like	like
sw3360A-ms98-a-0029	A.31	245.898625	246.228625		[vocalized-noise]	[vocalized-noise]
sw3360A-ms98-a-0029	A.31	246.228625	246.448625		with	with
sw3360A-ms98-a-0029	A.31	246.448625	246.818625		Reagan	Reagan
sw3360A-ms98-a-0029	A.31	246.818625	246.928625		they	they
sw3360A-ms98-a-0029	A.31	246.928625	247.068625		say	say
sw3360A-ms98-a-0029	A.31	247.068625	247.258625		no	no
sw3360A-ms98-a-0029	A.31	247.258625	247.448625		new	new
sw3360A-ms98-a-0029	A.31	247.448625	248.088625		taxes	taxes
sw3360A-ms98-a-0029	A.31	248.088625	248.318625		but	but
sw3360A-ms98-a-0029	A.31	248.318625	248.798625		[silence]	[silence]
sw3360A-ms98-a-0029	A.31	248.798625	248.908625		they	they
sw3360A-ms98-a-0029	A.31	248.908625	249.371125		changed	changed
sw3360A-ms98-a-0029	A.31	249.371125	249.681125		the	the
sw3360A-ms98-a-0029	A.31	249.681125	250.042625	<SUB>	uh	ah
sw3360A-ms98-a-0029	A.31	250.042625	250.318625		[silence]	[silence]
sw3360A-ms98-a-0029	A.31	250.318625	251.278375		deductions	deductions
sw3360A-ms98-a-0029	A.31	251.278375	251.518375		[silence]	[silence]
sw3360A-ms98-a-0029	A.31	251.518375	251.798625		on	on
sw3360A-ms98-a-0029	A.31	251.798625	251.888625		you	you
sw3360A-ms98-a-0029	A.31	251.888625	252.038625		and	and
sw3360A-ms98-a-0029	A.31	252.038625	252.808625		[silence]	[silence]
sw3360A-ms98-a-0029	A.31	252.808625	252.978625		that	that
sw3360A-ms98-a-0029	A.31	252.978625	253.198625		just	just
sw3360A-ms98-a-0029	A.31	253.198625	253.538625		raises	raises
sw3360A-ms98-a-0029	A.31	253.538625	253.688625		your	your
sw3360A-ms98-a-0029	A.31	253.688625	254.436125		taxes	taxes
sw3360A-ms98-a-0029	A.31	254.436125	254.827750		[silence]	[silence]
sw3360A-ms98-a-0029	A.31	254.827750	254.898625		you	you
sw3360A-ms98-a-0029	A.31	254.898625	254.998625		know	know
sw3360A-ms98-a-0029	A.31	254.998625	255.128625		they	they
sw3360A-ms98-a-0029	A.31	255.128625	255.318625		just	just
sw3360A-ms98-a-0029	A.31	255.318625	255.458625		get	get
sw3360A-ms98-a-0029	A.31	255.458625	255.598625		it	it
sw3360A-ms98-a-0029	A.31	255.598625	255.668625		a	a
sw3360A-ms98-a-0029	A.31	255.668625	256.048625		different	different
sw3360A-ms98-a-0029	A.31	256.048625	256.248625		way	way
sw3360A-ms98-a-0029	A.33	256.248625	256.945125		[silence]	[silence]
sw3360A-ms98-a-0030	A.33	256.945125	257.275125		[silence]	[silence]
sw3360A-ms98-a-0030	A.33	257.275125	257.575125		so	so
sw3360A-ms98-a-0030	A.33	257.575125	257.615125		I	i
sw3360A-ms98-a-0030	A.33	257.615125	257.885125		mean	mean
sw3360A-ms98-a-0030	A.33	257.885125	258.025125		[silence]	[silence]
sw3360A-ms98-a-0030	A.33	258.025125	258.125125		to	to
sw3360A-ms98-a-0030	A.33	258.125125	258.724625		me	me
sw3360A-ms98-a-0030	A.33	258.724625	258.950625		it	it
sw3360A-ms98-a-0030	A.33	258.950625	259.345125		did	did
sw3360A-ms98-a-0030	A.33	259.345125	259.595125		uh	uh
sw3360A-ms98-a-0030	A.33	259.595125	259.685125		[silence]	[silence]
sw3360A-ms98-a-0030	A.33	259.685125	259.945125		raise	raise
sw3360A-ms98-a-0030	A.33	259.945125	260.161000		my	my
sw3360A-ms98-a-0030	A.33	260.161000	260.791750		taxes	taxes
sw3360A-ms98-a-0030	A.35	260.791750	261.123500		[silence]	[silence]
sw3360A-ms98-a-0031	A.35	261.123500	279.948375		[silence]	[silence]
sw3360A-ms98-a-0032	A.35	279.948375	280.398375		[silence]	[silence]
sw3360A-ms98-a-0032	A.35	280.398375	280.568375		Yeah	yeah
sw3360A-ms98-a-0032	A.35	280.568375	280.708375	<DEL>	---	i-
sw3360A-ms98-a-0032	A.35	280.708375	280.928375		I	i
sw3360A-ms98-a-0032	A.35	280.928375	281.258375		heard	heard
sw3360A-ms98-a-0032	A.35	281.258375	281.608375		someone	someone
sw3360A-ms98-a-0032	A.35	281.608375	281.868375		say	say
sw3360A-ms98-a-0032	A.35	281.868375	282.258375		that	that
sw3360A-ms98-a-0032	A.35	282.258375	282.518375		uh	uh
sw3360A-ms98-a-0032	A.35	282.518375	283.152750		[silence]	[silence]
sw3360A-ms98-a-0033	A.35	283.152750	283.752750		[silence]	[silence]
sw3360A-ms98-a-0033	A.35	283.752750	283.892750		if	if
sw3360A-ms98-a-0033	A.35	283.892750	284.022750		they	they
sw3360A-ms98-a-0033	A.35	284.022750	284.132750		would	would
sw3360A-ms98-a-0033	A.35	284.132750	284.858125		just	just
sw3360A-ms98-a-0033	A.35	284.858125	285.080250		[silence]	[silence]
sw3360A-ms98-a-0033	A.35	285.080250	285.362750		something	something
sw3360A-ms98-a-0033	A.35	285.362750	285.598000		about	about
sw3360A-ms98-a-0033	A.35	285.598000	285.933250		[silence]	[silence]
sw3360A-ms98-a-0033	A.35	285.933250	286.372750	<DEL>	---	uh
sw3360A-ms98-a-0033	A.35	286.372750	286.825875		with	with
sw3360A-ms98-a-0033	A.35	286.825875	287.027250		the	the
sw3360A-ms98-a-0033	A.35	287.027250	287.372750		uh	uh
sw3360A-ms98-a-0033	A.35	287.372750	287.703250		[silence]	[silence]
sw3360A-ms98-a-0034	A.35	287.703250	288.087000		[silence]	[silence]
sw3360A-ms98-a-0034	A.35	288.087000	288.262875		the	the
sw3360A-ms98-a-0034	A.35	288.262875	288.873250		defense	defense
sw3360A-ms98-a-0034	A.35	288.873250	289.493500		budget	budget
sw3360A-ms98-a-0034	A.35	289.493500	289.787250		[silence]	[silence]
sw3360A-ms98-a-0034	A.35	289.787250	289.973250		all	all
sw3360A-ms98-a-0034	A.35	289.973250	290.153250		that	that
sw3360A-ms98-a-0034	A.35	290.153250	290.483250		extra	extra
sw3360A-ms98-a-0034	A.35	290.483250	290.753250		money	money
sw3360A-ms98-a-0034	A.35	290.753250	290.911250		they're	they're
sw3360A-ms98-a-0034	A.35	290.911250	291.028000		[silence]	[silence]
sw3360A-ms98-a-0034	A.35	291.028000	291.363250		throwing	throwing
sw3360A-ms98-a-0034	A.35	291.363250	291.643250		back	back
sw3360A-ms98-a-0034	A.35	291.643250	291.763250		if	if
sw3360A-ms98-a-0034	A.35	291.763250	291.853250		they	they
sw3360A-ms98-a-0034	A.35	291.853250	292.123250		cut	cut
sw3360A-ms98-a-0034	A.35	292.123250	293.263250		back	back
sw3360A-ms98-a-0034	A.35	293.263250	293.603250		by	by
sw3360A-ms98-a-0034	A.35	293.603250	293.823250		so	so
sw3360A-ms98-a-0034	A.35	293.823250	294.063250		much	much
sw3360A-ms98-a-0034	A.35	294.063250	294.703250		percentage	percentage
sw3360A-ms98-a-0034	A.35	294.703250	294.833250		it	it
sw3360A-ms98-a-0034	A.35	294.833250	294.993250		could	could
sw3360A-ms98-a-0034	A.35	294.993250	295.343250		[silence]	[silence]
sw3360A-ms98-a-0034	A.35	295.343250	295.543250		throw	throw
sw3360A-ms98-a-0034	A.35	295.543250	295.823250		back	back
sw3360A-ms98-a-0034	A.35	295.823250	296.073250		about	about
sw3360A-ms98-a-0034	A.35	296.073250	296.353250		six	six
sw3360A-ms98-a-0034	A.35	296.353250	296.643250		hundred	hundred
sw3360A-ms98-a-0034	A.35	296.643250	297.293250		dollars	dollars
sw3360A-ms98-a-0034	A.35	297.293250	297.433250		on	on
sw3360A-ms98-a-0034	A.35	297.433250	297.543250		an	an
sw3360A-ms98-a-0034	A.35	297.543250	297.883250		average	average
sw3360A-ms98-a-0034	A.35	297.883250	298.073250		six	six
sw3360A-ms98-a-0034	A.35	298.073250	298.323250		hundred	hundred
sw3360A-ms98-a-0034	A.35	298.323250	298.583250		dollars	dollars
sw3360A-ms98-a-0034	A.35	298.583250	298.626000		[silence]	[silence]
