sw3403A-ms98-a-0001	A.1	0.000000	0.020000		[silence]	[silence]
sw3403A-ms98-a-0001	A.1	0.020000	0.040000		[noise]	[noise]
sw3403A-ms98-a-0001	A.1	0.040000	0.100000	<SUB>	Well	-[w]ell
sw3403A-ms98-a-0001	A.1	0.100000	0.270000		what's	what's
sw3403A-ms98-a-0001	A.1	0.270000	0.360000		your	your
sw3403A-ms98-a-0001	A.1	0.360000	0.640000		favorite	favorite
sw3403A-ms98-a-0001	A.1	0.640000	1.040000		baseball	baseball
sw3403A-ms98-a-0001	A.1	1.040000	1.270000		team	team
sw3403A-ms98-a-0001	A.1	1.270000	1.610000		Rita	Rita
sw3403A-ms98-a-0001	A.5	1.610000	1.921500		[silence]	[silence]
sw3403A-ms98-a-0002	A.5	1.921500	5.003750		[silence]	[silence]
sw3403A-ms98-a-0003	A.5	5.003750	5.412125		[silence]	[silence]
sw3403A-ms98-a-0003	A.5	5.412125	6.076125		[laughter]	[laughter]
sw3403A-ms98-a-0003	A.5	6.076125	6.572875		[silence]	[silence]
sw3403A-ms98-a-0004	A.5	6.572875	7.092875		[silence]	[silence]
sw3403A-ms98-a-0004	A.5	7.092875	7.302875		Well	well
sw3403A-ms98-a-0004	A.5	7.302875	7.462875	<SUB>	that	this
sw3403A-ms98-a-0004	A.5	7.462875	7.752875		isn't	isn't
sw3403A-ms98-a-0004	A.5	7.752875	7.963875		a	a
sw3403A-ms98-a-0004	A.5	7.963875	8.144625		a	a
sw3403A-ms98-a-0004	A.5	8.144625	8.374375	<DEL>	---	a
sw3403A-ms98-a-0004	A.5	8.374375	8.622875		true	true
sw3403A-ms98-a-0004	A.5	8.622875	9.012875		false	false
sw3403A-ms98-a-0004	A.5	9.012875	9.202875		or	or
sw3403A-ms98-a-0004	A.5	9.202875	9.402875		right	right
sw3403A-ms98-a-0004	A.5	9.402875	9.502875		or	or
sw3403A-ms98-a-0004	A.5	9.502875	9.762875		wrong	wrong
sw3403A-ms98-a-0004	A.5	9.762875	10.092875		test	test
sw3403A-ms98-a-0004	A.5	10.092875	10.322875		here	here
sw3403A-ms98-a-0004	A.7	10.322875	10.771500		[silence]	[silence]
sw3403A-ms98-a-0005	A.7	10.771500	21.696125		[silence]	[silence]
sw3403A-ms98-a-0006	A.7	21.696125	22.216125		[silence]	[silence]
sw3403A-ms98-a-0006	A.7	22.216125	22.445250		Not	not
sw3403A-ms98-a-0006	A.7	22.445250	22.530000		a	a
sw3403A-ms98-a-0006	A.7	22.530000	22.916125		Cubbies	Cubbies
sw3403A-ms98-a-0006	A.7	22.916125	23.226125		fan	fan
sw3403A-ms98-a-0006	A.7	23.226125	23.426125		huh	huh
sw3403A-ms98-a-0006	A.9	23.426125	23.882625		[silence]	[silence]
sw3403A-ms98-a-0007	A.9	23.882625	28.135375		[silence]	[silence]
sw3403A-ms98-a-0008	A.9	28.135375	28.545375		[silence]	[silence]
sw3403A-ms98-a-0008	A.9	28.545375	28.715375		Well	well
sw3403A-ms98-a-0008	A.9	28.715375	28.935375		that's	that's
sw3403A-ms98-a-0008	A.9	28.935375	29.125375		all	all
sw3403A-ms98-a-0008	A.9	29.125375	29.365375		right	right
sw3403A-ms98-a-0008	A.11	29.365375	29.965375		[silence]	[silence]
sw3403A-ms98-a-0008	A.11	29.965375	30.075375		How	how
sw3403A-ms98-a-0008	A.11	30.075375	30.135375		do	do
sw3403A-ms98-a-0008	A.11	30.135375	30.195375		you	you
sw3403A-ms98-a-0008	A.11	30.195375	30.545375		expect	expect
sw3403A-ms98-a-0008	A.11	30.545375	30.715375		them	them
sw3403A-ms98-a-0008	A.11	30.715375	30.785375		to	to
sw3403A-ms98-a-0008	A.11	30.785375	30.997125		do	do
sw3403A-ms98-a-0008	A.11	30.997125	31.195375		this	this
sw3403A-ms98-a-0008	A.11	31.195375	31.485375		year	year
sw3403A-ms98-a-0008	A.13	31.485375	31.823375		[silence]	[silence]
sw3403A-ms98-a-0009	A.13	31.823375	32.899500		[silence]	[silence]
sw3403A-ms98-a-0010	A.13	32.899500	33.389500		[silence]	[silence]
sw3403A-ms98-a-0010	A.13	33.389500	33.849500		Okay	okay_1
sw3403A-ms98-a-0010	A.15	33.849500	34.408750		[silence]	[silence]
sw3403A-ms98-a-0011	A.15	34.408750	35.649750		[silence]	[silence]
sw3403A-ms98-a-0012	A.15	35.649750	36.109750		[silence]	[silence]
sw3403A-ms98-a-0012	A.15	36.109750	36.569750		Well	well
sw3403A-ms98-a-0012	A.15	36.569750	37.000125		[silence]	[silence]
sw3403A-ms98-a-0013	A.15	37.000125	37.410125		[silence]	[silence]
sw3403A-ms98-a-0013	A.15	37.410125	37.640125		I'll	i'll
sw3403A-ms98-a-0013	A.15	37.640125	37.840125		tell	tell
sw3403A-ms98-a-0013	A.15	37.840125	37.980125		you	you
sw3403A-ms98-a-0013	A.15	37.980125	38.160125		I	i
sw3403A-ms98-a-0013	A.15	38.160125	38.510125		just	just
sw3403A-ms98-a-0013	A.15	38.510125	38.792250		uh	uh
sw3403A-ms98-a-0013	A.15	38.792250	39.272250		[silence]	[silence]
sw3403A-ms98-a-0014	A.15	39.272250	39.762250		[silence]	[silence]
sw3403A-ms98-a-0014	A.15	39.762250	40.022250		moved	moved
sw3403A-ms98-a-0014	A.15	40.022250	40.242250		down	down
sw3403A-ms98-a-0014	A.15	40.242250	40.412250		from	from
sw3403A-ms98-a-0014	A.15	40.412250	40.702250		South	South
sw3403A-ms98-a-0014	A.15	40.702250	41.142250		Dakota	Dakota
sw3403A-ms98-a-0014	A.15	41.142250	41.262250		in	in
sw3403A-ms98-a-0014	A.15	41.262250	41.792250		July	July
sw3403A-ms98-a-0014	A.15	41.792250	42.276500		[silence]	[silence]
sw3403A-ms98-a-0015	A.15	42.276500	42.716500		[silence]	[silence]
sw3403A-ms98-a-0015	A.15	42.716500	43.216500		and	and
sw3403A-ms98-a-0015	A.15	43.216500	43.586500		uh	uh
sw3403A-ms98-a-0015	A.15	43.586500	43.756500		in	in
sw3403A-ms98-a-0015	A.15	43.756500	44.036500		South	South
sw3403A-ms98-a-0015	A.15	44.036500	45.036500		Dakota	Dakota
sw3403A-ms98-a-0015	A.15	45.036500	45.126500		the	the
sw3403A-ms98-a-0015	A.15	45.126500	45.626500		Minnesota	Minnesota
sw3403A-ms98-a-0015	A.15	45.626500	45.966500		Twins	Twins
sw3403A-ms98-a-0015	A.15	45.966500	46.026500		are	are
sw3403A-ms98-a-0015	A.15	46.026500	46.106500		the	the
sw3403A-ms98-a-0015	A.15	46.106500	46.746500		closest	closest
sw3403A-ms98-a-0015	A.15	46.746500	46.950250		[silence]	[silence]
sw3403A-ms98-a-0016	A.15	46.950250	47.290250		[silence]	[silence]
sw3403A-ms98-a-0016	A.15	47.290250	47.820250		professional	professional
sw3403A-ms98-a-0016	A.15	47.820250	48.240250		sports	sports
sw3403A-ms98-a-0016	A.15	48.240250	48.570250		team	team
sw3403A-ms98-a-0016	A.15	48.570250	49.240250		[silence]	[silence]
sw3403A-ms98-a-0016	A.15	49.240250	49.370250		to	to
sw3403A-ms98-a-0016	A.15	49.370250	49.510250		where	where
sw3403A-ms98-a-0016	A.15	49.510250	49.650250		I	i
sw3403A-ms98-a-0016	A.15	49.650250	49.860250		was	was
sw3403A-ms98-a-0016	A.15	49.860250	50.260250		living	living
sw3403A-ms98-a-0016	A.17	50.260250	50.585375		[silence]	[silence]
sw3403A-ms98-a-0017	A.17	50.585375	50.935375		[silence]	[silence]
sw3403A-ms98-a-0017	A.17	50.935375	51.095375		and	and
sw3403A-ms98-a-0017	A.17	51.095375	51.255375		so	so
sw3403A-ms98-a-0017	A.17	51.255375	51.955375		everybody	everybody
sw3403A-ms98-a-0017	A.17	51.955375	52.125375		was	was
sw3403A-ms98-a-0017	A.17	52.125375	52.205375		a	a
sw3403A-ms98-a-0017	A.17	52.205375	52.555375		Twins	Twins
sw3403A-ms98-a-0017	A.17	52.555375	53.056750		fan	fan
sw3403A-ms98-a-0017	A.17	53.056750	53.486250		[silence]	[silence]
sw3403A-ms98-a-0017	A.17	53.486250	53.649500		and	and
sw3403A-ms98-a-0017	A.17	53.649500	53.755000		I	i
sw3403A-ms98-a-0017	A.17	53.755000	53.925625		was	was
sw3403A-ms98-a-0017	A.17	53.925625	54.332375		[vocalized-noise]	[vocalized-noise]
sw3403A-ms98-a-0017	A.17	54.332375	54.561000		kind	kind
sw3403A-ms98-a-0017	A.17	54.561000	54.730500		of	of
sw3403A-ms98-a-0017	A.17	54.730500	55.224875		[silence]	[silence]
sw3403A-ms98-a-0018	A.17	55.224875	56.537250		[silence]	[silence]
sw3403A-ms98-a-0019	A.17	56.537250	56.977250		[silence]	[silence]
sw3403A-ms98-a-0019	A.17	56.977250	57.512125		uh	uh
sw3403A-ms98-a-0019	A.17	57.512125	57.887250		[silence]	[silence]
sw3403A-ms98-a-0019	A.17	57.887250	58.137250		didn't	didn't
sw3403A-ms98-a-0019	A.17	58.137250	58.367250		have	have
sw3403A-ms98-a-0019	A.17	58.367250	58.597250		much	much
sw3403A-ms98-a-0019	A.17	58.597250	59.127250		interest	interest
sw3403A-ms98-a-0019	A.17	59.127250	59.247250		in	in
sw3403A-ms98-a-0019	A.17	59.247250	59.373000		the	the
sw3403A-ms98-a-0019	A.17	59.373000	59.791000		Twins	Twins
sw3403A-ms98-a-0019	A.17	59.791000	59.887250		you	you
sw3403A-ms98-a-0019	A.17	59.887250	60.087250		know	know
sw3403A-ms98-a-0019	A.17	60.087250	60.147250		it	it
sw3403A-ms98-a-0019	A.17	60.147250	60.407250		was	was
sw3403A-ms98-a-0019	A.17	60.407250	60.547250		it	it
sw3403A-ms98-a-0019	A.17	60.547250	60.687250		was	was
sw3403A-ms98-a-0019	A.17	60.687250	60.907250		kind	kind
sw3403A-ms98-a-0019	A.17	60.907250	60.987250		of	of
sw3403A-ms98-a-0019	A.17	60.987250	61.507250		pathetic	pathetic
sw3403A-ms98-a-0019	A.17	61.507250	61.577250		I	i
sw3403A-ms98-a-0019	A.17	61.577250	61.757250		mean	mean
sw3403A-ms98-a-0019	A.17	61.757250	61.877250		we	we
sw3403A-ms98-a-0019	A.17	61.877250	62.087250		only	only
sw3403A-ms98-a-0019	A.17	62.087250	62.327250		had	had
sw3403A-ms98-a-0019	A.17	62.327250	62.497250		two	two
sw3403A-ms98-a-0019	A.17	62.497250	62.882000		radio	radio
sw3403A-ms98-a-0019	A.17	62.882000	63.457875		stations	stations
sw3403A-ms98-a-0019	A.17	63.457875	63.690000		[silence]	[silence]
sw3403A-ms98-a-0020	A.17	63.690000	63.990000		[silence]	[silence]
sw3403A-ms98-a-0020	A.17	63.990000	64.210000		and	and
sw3403A-ms98-a-0020	A.17	64.210000	64.350000		one	one
sw3403A-ms98-a-0020	A.17	64.350000	64.450000		of	of
sw3403A-ms98-a-0020	A.17	64.450000	64.570000		them	them_1
sw3403A-ms98-a-0020	A.17	64.570000	65.160000		broadcast	broadcast
sw3403A-ms98-a-0020	A.17	65.160000	65.323375		every	every
sw3403A-ms98-a-0020	A.17	65.323375	65.605875		Twins	Twins
sw3403A-ms98-a-0020	A.17	65.605875	65.880000		game	game
sw3403A-ms98-a-0020	A.17	65.880000	66.270000		live	live
sw3403A-ms98-a-0020	A.17	66.270000	66.370000		you	you
sw3403A-ms98-a-0020	A.17	66.370000	66.493750		know	know
sw3403A-ms98-a-0020	A.17	66.493750	66.970125		[vocalized-noise]	[vocalized-noise]
sw3403A-ms98-a-0020	A.17	66.970125	67.045000		and	and
sw3403A-ms98-a-0020	A.17	67.045000	67.045000	<INS>	and	---
sw3403A-ms98-a-0020	A.17	67.045000	67.162875		the	the
sw3403A-ms98-a-0020	A.17	67.162875	67.280000		other	other
sw3403A-ms98-a-0020	A.17	67.280000	67.390000		one	one
sw3403A-ms98-a-0020	A.17	67.390000	67.540000		was	was
sw3403A-ms98-a-0020	A.17	67.540000	68.023000		country	country
sw3403A-ms98-a-0020	A.19	68.023000	68.346125		[noise]	[noise]
sw3403A-ms98-a-0020	A.19	68.346125	68.774125		[silence]	[silence]
sw3403A-ms98-a-0021	A.19	68.774125	70.115125		[silence]	[silence]
sw3403A-ms98-a-0022	A.19	70.115125	70.555125		[silence]	[silence]
sw3403A-ms98-a-0022	A.19	70.555125	70.912875		So	so
sw3403A-ms98-a-0022	A.19	70.912875	71.225125		that's	[laughter-that's]
sw3403A-ms98-a-0022	A.19	71.225125	71.551625		right	[laughter-right]
sw3403A-ms98-a-0022	A.21	71.551625	72.316250		[silence]	[silence]
sw3403A-ms98-a-0022	A.21	72.316250	72.445125	<SUB>	There's	it
sw3403A-ms98-a-0022	A.21	72.445125	72.595125		was	was
sw3403A-ms98-a-0022	A.21	72.595125	72.915125		Twins	Twins
sw3403A-ms98-a-0022	A.21	72.915125	73.153250		there	there
sw3403A-ms98-a-0022	A.21	73.153250	73.513250		or	or
sw3403A-ms98-a-0022	A.21	73.513250	73.645125		you	you
sw3403A-ms98-a-0022	A.21	73.645125	73.931625		know	know
sw3403A-ms98-a-0022	A.23	73.931625	74.210375		[silence]	[silence]
sw3403A-ms98-a-0022	A.23	74.210375	74.605125		Skip	Skip
sw3403A-ms98-a-0022	A.23	74.605125	75.155125		Williams	Williams
sw3403A-ms98-a-0022	A.25	75.155125	75.480875		[silence]	[silence]
sw3403A-ms98-a-0023	A.25	75.480875	100.536125		[silence]	[silence]
sw3403A-ms98-a-0024	A.25	100.536125	101.016125		[silence]	[silence]
sw3403A-ms98-a-0024	A.25	101.016125	101.236125		It	it
sw3403A-ms98-a-0024	A.25	101.236125	101.526125		sure	sure
sw3403A-ms98-a-0024	A.25	101.526125	101.896125		was	was
sw3403A-ms98-a-0024	A.25	101.896125	102.096125		[silence]	[silence]
sw3403A-ms98-a-0024	A.25	102.096125	102.316125		it	it
sw3403A-ms98-a-0024	A.25	102.316125	102.576125		sure	sure
sw3403A-ms98-a-0024	A.25	102.576125	102.856125		was	was
sw3403A-ms98-a-0024	A.27	102.856125	103.342625		[silence]	[silence]
sw3403A-ms98-a-0025	A.27	103.342625	105.368125		[silence]	[silence]
sw3403A-ms98-a-0026	A.27	105.368125	105.778125		[silence]	[silence]
sw3403A-ms98-a-0026	A.27	105.778125	106.010375		Well	well
sw3403A-ms98-a-0026	A.27	106.010375	106.190625		I	i
sw3403A-ms98-a-0026	A.29	106.190625	106.508125	<DEL>	---	would
sw3403A-ms98-a-0026	A.29	106.508125	107.144375		[silence]	[silence]
sw3403A-ms98-a-0027	A.29	107.144375	107.854375		[silence]	[silence]
sw3403A-ms98-a-0027	A.29	107.854375	108.055000		I	i
sw3403A-ms98-a-0027	A.29	108.055000	108.249875		would	would
sw3403A-ms98-a-0027	A.29	108.249875	108.534375		like	like
sw3403A-ms98-a-0027	A.29	108.534375	108.734375		to	to
sw3403A-ms98-a-0027	A.29	108.734375	108.861375		a-	a[ssume]-
sw3403A-ms98-a-0027	A.29	108.861375	109.023250		[silence]	[silence]
sw3403A-ms98-a-0027	A.29	109.023250	109.247375		a-	a[ssume]-
sw3403A-ms98-a-0027	A.29	109.247375	109.330250		[silence]	[silence]
sw3403A-ms98-a-0027	A.29	109.330250	109.734375		assume	assume
sw3403A-ms98-a-0027	A.29	109.734375	109.864375		that	that
sw3403A-ms98-a-0027	A.29	109.864375	109.994375		they're	they're
sw3403A-ms98-a-0027	A.29	109.994375	110.244375	<SUB>	going	gonna
sw3403A-ms98-a-0027	A.29	110.244375	110.244375	<INS>	to	---
sw3403A-ms98-a-0027	A.29	110.244375	110.512625		do	do
sw3403A-ms98-a-0027	A.29	110.512625	111.107750		[silence]	[silence]
sw3403A-ms98-a-0027	A.29	111.107750	111.264375		do	do
sw3403A-ms98-a-0027	A.29	111.264375	111.594375		better	better
sw3403A-ms98-a-0027	A.29	111.594375	111.914375		this	this
sw3403A-ms98-a-0027	A.29	111.914375	112.084375	<DEL>	---	who[le]-
sw3403A-ms98-a-0027	A.29	112.084375	112.274375	<DEL>	---	this
sw3403A-ms98-a-0027	A.29	112.274375	112.574375		coming	coming
sw3403A-ms98-a-0027	A.29	112.574375	112.704375		year	year
sw3403A-ms98-a-0027	A.29	112.704375	112.754375		I	i
sw3403A-ms98-a-0027	A.29	112.754375	112.864375	<SUB>	was	would
sw3403A-ms98-a-0027	A.29	112.864375	113.044375		sure	sure
sw3403A-ms98-a-0027	A.29	113.044375	113.234375	<SUB>	hopeful	hope
sw3403A-ms98-a-0027	A.29	113.234375	113.394375	<DEL>	---	so
sw3403A-ms98-a-0027	A.29	113.394375	113.807500		anyway	anyway
sw3403A-ms98-a-0027	A.29	113.807500	114.024375		When	when
sw3403A-ms98-a-0027	A.29	114.024375	114.124375		we	we
sw3403A-ms98-a-0027	A.29	114.124375	114.384375		moved	moved
sw3403A-ms98-a-0027	A.29	114.384375	114.873375		down	down
sw3403A-ms98-a-0027	A.29	114.873375	115.244875		[silence]	[silence]
sw3403A-ms98-a-0028	A.29	115.244875	115.664875		[silence]	[silence]
sw3403A-ms98-a-0028	A.29	115.664875	116.220500		uh	uh
sw3403A-ms98-a-0028	A.29	116.220500	116.860750		[silence]	[silence]
sw3403A-ms98-a-0028	A.29	116.860750	116.944875		I	i
sw3403A-ms98-a-0028	A.29	116.944875	117.084875		was	was
sw3403A-ms98-a-0028	A.29	117.084875	117.254875		able	able
sw3403A-ms98-a-0028	A.29	117.254875	117.314875		to	to
sw3403A-ms98-a-0028	A.29	117.314875	117.444875		go	go
sw3403A-ms98-a-0028	A.29	117.444875	117.504875		to	to
sw3403A-ms98-a-0028	A.29	117.504875	117.634875		my	my
sw3403A-ms98-a-0028	A.29	117.634875	117.997375		first	first
sw3403A-ms98-a-0028	A.29	117.997375	118.313750		[silence]	[silence]
sw3403A-ms98-a-0028	A.29	118.313750	118.384875		you	you
sw3403A-ms98-a-0028	A.29	118.384875	118.474875		know	know
sw3403A-ms98-a-0028	A.29	118.474875	118.924875		baseball	baseball
sw3403A-ms98-a-0028	A.29	118.924875	119.224875		game	game
sw3403A-ms98-a-0028	A.29	119.224875	119.414875		and	and
sw3403A-ms98-a-0028	A.31	119.414875	119.712375		[silence]	[silence]
sw3403A-ms98-a-0029	A.31	119.712375	120.112375		[silence]	[silence]
sw3403A-ms98-a-0029	A.31	120.112375	120.282375		thought	thought
sw3403A-ms98-a-0029	A.31	120.282375	120.462375		this	this
sw3403A-ms98-a-0029	A.31	120.462375	120.672375		is	is
sw3403A-ms98-a-0029	A.31	120.672375	121.122375		great	great
sw3403A-ms98-a-0029	A.31	121.122375	121.302375		[silence]	[silence]
sw3403A-ms98-a-0029	A.31	121.302375	121.482375		this	this
sw3403A-ms98-a-0029	A.31	121.482375	121.602375		is	is
sw3403A-ms98-a-0029	A.31	121.602375	122.122375		incredible	incredible
sw3403A-ms98-a-0029	A.31	122.122375	122.242375		So	so
sw3403A-ms98-a-0029	A.31	122.242375	122.362375		I	i
sw3403A-ms98-a-0029	A.31	122.362375	122.492375	<DEL>	---	i
sw3403A-ms98-a-0029	A.31	122.492375	122.882375		became	became
sw3403A-ms98-a-0029	A.31	122.882375	122.952375		a	a
sw3403A-ms98-a-0029	A.31	122.952375	123.362375		Rangers	Rangers
sw3403A-ms98-a-0029	A.31	123.362375	123.742375		fan	fan
sw3403A-ms98-a-0029	A.31	123.742375	124.135500		[silence]	[silence]
sw3403A-ms98-a-0030	A.31	124.135500	124.615500		[silence]	[silence]
sw3403A-ms98-a-0030	A.31	124.615500	124.929250		I	i
sw3403A-ms98-a-0030	A.31	124.929250	125.086750	<DEL>	---	i
sw3403A-ms98-a-0030	A.31	125.086750	125.215500		didn't	didn't
sw3403A-ms98-a-0030	A.31	125.215500	125.455500		really	really
sw3403A-ms98-a-0030	A.31	125.455500	125.755500		have	have
sw3403A-ms98-a-0030	A.31	125.755500	125.935500		one	one
sw3403A-ms98-a-0030	A.31	125.935500	126.045500		in	in
sw3403A-ms98-a-0030	A.31	126.045500	126.315500		South	South
sw3403A-ms98-a-0030	A.31	126.315500	126.745500		Dakota	Dakota
sw3403A-ms98-a-0030	A.31	126.745500	127.051125		So	so
sw3403A-ms98-a-0030	A.31	127.051125	127.616125		[silence]	[silence]
sw3403A-ms98-a-0030	A.31	127.616125	127.795500		I	i
sw3403A-ms98-a-0030	A.31	127.795500	128.245500		adopted	adopted
sw3403A-ms98-a-0030	A.31	128.245500	128.335500		the	the
sw3403A-ms98-a-0030	A.31	128.335500	128.775500		Rangers	Rangers
sw3403A-ms98-a-0030	A.31	128.775500	128.875500		or	or
sw3403A-ms98-a-0030	A.31	128.875500	129.185500		rather	rather
sw3403A-ms98-a-0030	A.31	129.185500	129.325500		they	they
sw3403A-ms98-a-0030	A.31	129.325500	129.775500		adopted	adopted
sw3403A-ms98-a-0030	A.31	129.775500	130.045500		me	me
sw3403A-ms98-a-0030	A.31	130.045500	130.216375		I	i
sw3403A-ms98-a-0030	A.31	130.216375	130.577750		guess	guess
sw3403A-ms98-a-0030	A.33	130.577750	131.002250		[silence]	[silence]
sw3403A-ms98-a-0031	A.33	131.002250	131.602250		[silence]	[silence]
sw3403A-ms98-a-0031	A.33	131.602250	132.032250		and	and
sw3403A-ms98-a-0031	A.33	132.032250	132.277250		uh	uh
sw3403A-ms98-a-0031	A.33	132.277250	132.586125		[silence]	[silence]
sw3403A-ms98-a-0031	A.33	132.586125	132.752250		it	it
sw3403A-ms98-a-0031	A.33	132.752250	132.922250		was	was
sw3403A-ms98-a-0031	A.33	132.922250	133.172250		just	just
sw3403A-ms98-a-0031	A.33	133.172250	133.860000		exciting	exciting
sw3403A-ms98-a-0031	A.33	133.860000	134.022000		[silence]	[silence]
sw3403A-ms98-a-0031	A.33	134.022000	134.152250		you	you
sw3403A-ms98-a-0031	A.33	134.152250	134.272250		know	know
sw3403A-ms98-a-0031	A.33	134.272250	134.402250		you	you
sw3403A-ms98-a-0031	A.33	134.402250	134.552250		can	can
sw3403A-ms98-a-0031	A.33	134.552250	134.772250		watch	watch
sw3403A-ms98-a-0031	A.33	134.772250	135.242250		baseball	baseball
sw3403A-ms98-a-0031	A.33	135.242250	135.442250		on	on
sw3403A-ms98-a-0031	A.33	135.442250	135.842250	<CONT>	T	TV
sw3403A-ms98-a-0031	A.33	135.842250	135.842250	<CONT>	V	+++
sw3403A-ms98-a-0031	A.33	135.842250	135.962250		and	and
sw3403A-ms98-a-0031	A.33	135.962250	136.052250		they	they
sw3403A-ms98-a-0031	A.33	136.052250	136.242250		hit	hit
sw3403A-ms98-a-0031	A.33	136.242250	136.312250		the	the
sw3403A-ms98-a-0031	A.33	136.312250	136.692250		long	long
sw3403A-ms98-a-0031	A.33	136.692250	137.072250		ball	ball
sw3403A-ms98-a-0031	A.33	137.072250	137.249125		and	and
sw3403A-ms98-a-0031	A.33	137.249125	137.795375		[silence]	[silence]
sw3403A-ms98-a-0031	A.33	137.795375	137.902250		it	it
sw3403A-ms98-a-0031	A.33	137.902250	138.132250		looks	looks
sw3403A-ms98-a-0031	A.33	138.132250	138.362250		like	like
sw3403A-ms98-a-0031	A.33	138.362250	138.692250		wow	wow
sw3403A-ms98-a-0031	A.33	138.692250	138.842250		they	they
sw3403A-ms98-a-0031	A.33	138.842250	139.162250		really	really
sw3403A-ms98-a-0031	A.33	139.162250	139.392250		hit	hit
sw3403A-ms98-a-0031	A.33	139.392250	139.642250		that	that
sw3403A-ms98-a-0031	A.33	139.642250	140.012250		ball	ball
sw3403A-ms98-a-0031	A.33	140.012250	140.273500		[silence]	[silence]
sw3403A-ms98-a-0032	A.33	140.273500	140.583500		[silence]	[silence]
sw3403A-ms98-a-0032	A.33	140.583500	140.693500		But	but
sw3403A-ms98-a-0032	A.33	140.693500	140.813500		when	when
sw3403A-ms98-a-0032	A.33	140.813500	140.913500		you	you
sw3403A-ms98-a-0032	A.33	140.913500	141.053500		go	go
sw3403A-ms98-a-0032	A.33	141.053500	141.123500		to	to
sw3403A-ms98-a-0032	A.33	141.123500	141.213500		the	the
sw3403A-ms98-a-0032	A.33	141.213500	141.843500	<CONT>	ball	ballpark
sw3403A-ms98-a-0032	A.33	141.843500	141.843500	<CONT>	park	+++
sw3403A-ms98-a-0032	A.33	141.843500	142.173500		it's	it's
sw3403A-ms98-a-0032	A.33	142.173500	142.433500		really	really
sw3403A-ms98-a-0032	A.33	142.433500	142.653500		not	not
sw3403A-ms98-a-0032	A.33	142.653500	142.803500		all	all
sw3403A-ms98-a-0032	A.33	142.803500	143.033500		that	that
sw3403A-ms98-a-0032	A.33	143.033500	143.583500		far	far
sw3403A-ms98-a-0032	A.35	143.583500	143.811500		[silence]	[silence]
sw3403A-ms98-a-0033	A.35	143.811500	144.261500		[silence]	[silence]
sw3403A-ms98-a-0033	A.35	144.261500	144.391500		you	you
sw3403A-ms98-a-0033	A.35	144.391500	144.571500		know	know
sw3403A-ms98-a-0033	A.35	144.571500	144.731500		and	and
sw3403A-ms98-a-0033	A.35	144.731500	145.011500		it's	it's
sw3403A-ms98-a-0033	A.35	145.011500	145.201500		so	so
sw3403A-ms98-a-0033	A.35	145.201500	145.441500		much	much
sw3403A-ms98-a-0033	A.35	145.441500	145.611500		more	more
sw3403A-ms98-a-0033	A.35	145.611500	146.081500		exciting	exciting
sw3403A-ms98-a-0033	A.35	146.081500	146.471500		watching	watching
sw3403A-ms98-a-0033	A.35	146.471500	146.521500		a	a
sw3403A-ms98-a-0033	A.35	146.521500	146.801500		ball	ball
sw3403A-ms98-a-0033	A.35	146.801500	147.051500		come	come
sw3403A-ms98-a-0033	A.35	147.051500	147.331500		at	at
sw3403A-ms98-a-0033	A.35	147.331500	147.671500		you	you
sw3403A-ms98-a-0033	A.35	147.671500	147.861500		and	and
sw3403A-ms98-a-0033	A.37	147.861500	148.386375		[silence]	[silence]
sw3403A-ms98-a-0034	A.37	148.386375	156.563625		[silence]	[silence]
sw3403A-ms98-a-0035	A.37	156.563625	157.013625		[silence]	[silence]
sw3403A-ms98-a-0035	A.37	157.013625	157.243625		That's	that's
sw3403A-ms98-a-0035	A.37	157.243625	157.553625		right	right
sw3403A-ms98-a-0035	A.37	157.553625	157.713625		[silence]	[silence]
sw3403A-ms98-a-0035	A.37	157.713625	157.963625		that's	that's
sw3403A-ms98-a-0035	A.37	157.963625	158.340000		right	right
sw3403A-ms98-a-0035	A.39	158.340000	158.777375		[silence]	[silence]
sw3403A-ms98-a-0036	A.39	158.777375	172.844375		[silence]	[silence]
sw3403A-ms98-a-0037	A.39	172.844375	173.277500		[silence]	[silence]
sw3403A-ms98-a-0037	A.39	173.277500	173.429250		The	the
sw3403A-ms98-a-0037	A.39	173.429250	174.044375		Restaurant	Restaurant
sw3403A-ms98-a-0037	A.39	174.044375	174.214375		Ha-	Ha[ll]-
sw3403A-ms98-a-0037	A.41	174.214375	174.598250		[silence]	[silence]
sw3403A-ms98-a-0038	A.41	174.598250	177.171125		[silence]	[silence]
sw3403A-ms98-a-0039	A.41	177.171125	177.591125		[silence]	[silence]
sw3403A-ms98-a-0039	A.41	177.591125	178.011125		Huh	huh
sw3403A-ms98-a-0039	A.43	178.011125	178.469125		[silence]	[silence]
sw3403A-ms98-a-0040	A.43	178.469125	183.117750		[silence]	[silence]
sw3403A-ms98-a-0041	A.43	183.117750	183.597750		[silence]	[silence]
sw3403A-ms98-a-0041	A.43	183.597750	183.957750		Right	right
sw3403A-ms98-a-0041	A.45	183.957750	184.420125		[silence]	[silence]
sw3403A-ms98-a-0042	A.45	184.420125	190.464500		[silence]	[silence]
sw3403A-ms98-a-0043	A.45	190.464500	190.884500		[silence]	[silence]
sw3403A-ms98-a-0043	A.45	190.884500	191.134500		That's	that's
sw3403A-ms98-a-0043	A.45	191.134500	191.334500		right	right
sw3403A-ms98-a-0043	A.47	191.334500	191.424500		and	and
sw3403A-ms98-a-0043	A.47	191.424500	191.794500		he's	he's
sw3403A-ms98-a-0043	A.47	191.794500	192.114500		still	still
sw3403A-ms98-a-0043	A.47	192.114500	192.344500		doing	doing
sw3403A-ms98-a-0043	A.47	192.344500	192.684500		great	great
sw3403A-ms98-a-0043	A.49	192.684500	192.934500		[silence]	[silence]
sw3403A-ms98-a-0043	A.49	192.934500	193.244500		still	still
sw3403A-ms98-a-0043	A.49	193.244500	193.454500		doing	doing
sw3403A-ms98-a-0043	A.49	193.454500	194.024500		excellent	excellent
sw3403A-ms98-a-0043	A.51	194.024500	194.349000		[silence]	[silence]
sw3403A-ms98-a-0044	A.51	194.349000	198.185500		[silence]	[silence]
sw3403A-ms98-a-0045	A.51	198.185500	198.665500		[silence]	[silence]
sw3403A-ms98-a-0045	A.51	198.665500	198.835500		Well	well
sw3403A-ms98-a-0045	A.51	198.835500	199.145500		didn't	didn't
sw3403A-ms98-a-0045	A.51	199.145500	199.275500		he	he
sw3403A-ms98-a-0045	A.51	199.275500	199.535500		just	just
sw3403A-ms98-a-0045	A.51	199.535500	199.805500		sign	sign
sw3403A-ms98-a-0045	A.51	199.805500	199.875500		a	a
sw3403A-ms98-a-0045	A.51	199.875500	200.185500		twelve	twelve
sw3403A-ms98-a-0045	A.51	200.185500	200.355500		year	year
sw3403A-ms98-a-0045	A.51	200.355500	200.965500		contract	contract
sw3403A-ms98-a-0045	A.51	200.965500	201.119500		with	with
sw3403A-ms98-a-0045	A.51	201.119500	201.265500		the	the
sw3403A-ms98-a-0045	A.51	201.265500	201.575500		Rangers	Rangers
sw3403A-ms98-a-0045	A.53	201.575500	201.966625		[silence]	[silence]
sw3403A-ms98-a-0046	A.53	201.966625	205.914250		[silence]	[silence]
sw3403A-ms98-a-0047	A.53	205.914250	206.294250		[silence]	[silence]
sw3403A-ms98-a-0047	A.53	206.294250	207.135000		Management	management
sw3403A-ms98-a-0047	A.55	207.135000	207.338750		[silence]	[silence]
sw3403A-ms98-a-0048	A.55	207.338750	209.962125		[silence]	[silence]
sw3403A-ms98-a-0049	A.55	209.962125	210.373375		[silence]	[silence]
sw3403A-ms98-a-0049	A.55	210.373375	210.794000		Right	right
sw3403A-ms98-a-0049	A.57	210.794000	211.210000		[silence]	[silence]
sw3403A-ms98-a-0050	A.57	211.210000	215.461000		[silence]	[silence]
sw3403A-ms98-a-0051	A.57	215.461000	215.841000		[silence]	[silence]
sw3403A-ms98-a-0051	A.57	215.841000	216.131000		That's	that's
sw3403A-ms98-a-0051	A.57	216.131000	216.471000		right	right
sw3403A-ms98-a-0051	A.59	216.471000	216.971250		[silence]	[silence]
sw3403A-ms98-a-0052	A.59	216.971250	220.934375		[silence]	[silence]
sw3403A-ms98-a-0053	A.59	220.934375	221.464375		[silence]	[silence]
sw3403A-ms98-a-0053	A.59	221.464375	221.594375		You	you
sw3403A-ms98-a-0053	A.59	221.594375	221.844375		know	know
sw3403A-ms98-a-0053	A.59	221.844375	222.114375		some	some
sw3403A-ms98-a-0053	A.59	222.114375	222.204375		of	of
sw3403A-ms98-a-0053	A.59	222.204375	222.434375		the	the
sw3403A-ms98-a-0053	A.59	222.434375	222.779750		[silence]	[silence]
sw3403A-ms98-a-0054	A.59	222.779750	223.179750		[silence]	[silence]
sw3403A-ms98-a-0054	A.59	223.179750	223.569750		like	like
sw3403A-ms98-a-0054	A.59	223.569750	223.906375		uh	uh
sw3403A-ms98-a-0054	A.59	223.906375	224.339375		[noise]	[noise]
sw3403A-ms98-a-0054	A.59	224.339375	224.435125		[silence]	[silence]
sw3403A-ms98-a-0055	A.59	224.435125	225.468625		[silence]	[silence]
sw3403A-ms98-a-0056	A.59	225.468625	225.896375		[silence]	[silence]
sw3403A-ms98-a-0056	A.59	225.896375	226.245500		Ivan	Ivan
sw3403A-ms98-a-0056	A.59	226.245500	226.888625		Rodriguez	Rodriguez
sw3403A-ms98-a-0056	A.59	226.888625	227.018625		[silence]	[silence]
sw3403A-ms98-a-0056	A.59	227.018625	227.366125		wasn't	[laughter-wasn't]
sw3403A-ms98-a-0056	A.59	227.366125	227.758625		even	even
sw3403A-ms98-a-0056	A.59	227.758625	228.218625		born	born
sw3403A-ms98-a-0056	A.59	228.218625	228.490375		when	when
sw3403A-ms98-a-0056	A.59	228.490375	229.198500		[silence]	[silence]
sw3403A-ms98-a-0056	A.59	229.198500	229.518625		when	when
sw3403A-ms98-a-0056	A.59	229.518625	229.754375		uh	uh
sw3403A-ms98-a-0056	A.59	229.754375	230.262875		[silence]	[silence]
sw3403A-ms98-a-0056	A.59	230.262875	230.618625		Nolan	Nolan
sw3403A-ms98-a-0056	A.59	230.618625	230.858625		Ryan	Ryan
sw3403A-ms98-a-0056	A.59	230.858625	231.228625		started	started
sw3403A-ms98-a-0056	A.59	231.228625	231.678625		pitching	pitching
sw3403A-ms98-a-0056	A.61	231.678625	232.055750		[silence]	[silence]
sw3403A-ms98-a-0057	A.61	232.055750	232.485750		[silence]	[silence]
sw3403A-ms98-a-0057	A.61	232.485750	232.665750		And	and
sw3403A-ms98-a-0057	A.61	232.665750	232.805750		it's	it's
sw3403A-ms98-a-0057	A.61	232.805750	233.035750		just	just
sw3403A-ms98-a-0057	A.61	233.035750	233.645750		incredible	incredible
sw3403A-ms98-a-0057	A.61	233.645750	233.755750		to	to
sw3403A-ms98-a-0057	A.61	233.755750	234.005750		think	think
sw3403A-ms98-a-0057	A.61	234.005750	234.195750		that	that
sw3403A-ms98-a-0057	A.61	234.195750	234.440625		there's	there's
sw3403A-ms98-a-0057	A.61	234.440625	234.685500		uh	uh
sw3403A-ms98-a-0057	A.61	234.685500	234.835750		there	there
sw3403A-ms98-a-0057	A.61	234.835750	234.975750		are	are
sw3403A-ms98-a-0057	A.61	234.975750	235.599250		players	players
sw3403A-ms98-a-0057	A.61	235.599250	236.238750		[silence]	[silence]
sw3403A-ms98-a-0058	A.61	236.238750	237.018750		[silence]	[silence]
sw3403A-ms98-a-0058	A.61	237.018750	237.248750		who	who
sw3403A-ms98-a-0058	A.61	237.248750	237.458750		are	are
sw3403A-ms98-a-0058	A.61	237.458750	237.548750		the	the
sw3403A-ms98-a-0058	A.61	237.548750	237.898750		sons	sons
sw3403A-ms98-a-0058	A.61	237.898750	238.018750		of	of
sw3403A-ms98-a-0058	A.61	238.018750	238.698750	<CONT>	ball	ballplayers
sw3403A-ms98-a-0058	A.61	238.698750	238.698750	<CONT>	players	+++
sw3403A-ms98-a-0058	A.61	238.698750	238.868750		that	that
sw3403A-ms98-a-0058	A.61	238.868750	239.088750		used	used
sw3403A-ms98-a-0058	A.61	239.088750	239.208750		to	to
sw3403A-ms98-a-0058	A.61	239.208750	239.643625		play	play
sw3403A-ms98-a-0058	A.61	239.643625	239.960000		[silence]	[silence]
sw3403A-ms98-a-0058	A.61	239.960000	240.408750		against	against
sw3403A-ms98-a-0058	A.61	240.408750	240.898750		Nolan	Nolan
sw3403A-ms98-a-0058	A.63	240.898750	241.608750		[silence]	[silence]
sw3403A-ms98-a-0058	A.63	241.608750	241.758750		or	or
sw3403A-ms98-a-0058	A.63	241.758750	242.008750		with	with
sw3403A-ms98-a-0058	A.63	242.008750	242.628750		Nolan	Nolan
sw3403A-ms98-a-0058	A.63	242.628750	242.954125		[silence]	[silence]
sw3403A-ms98-a-0059	A.63	242.954125	243.384125		[silence]	[silence]
sw3403A-ms98-a-0059	A.63	243.384125	243.514125		you	you
sw3403A-ms98-a-0059	A.63	243.514125	243.674125		know	know
sw3403A-ms98-a-0059	A.63	243.674125	243.764125		and	and
sw3403A-ms98-a-0059	A.63	243.764125	243.894125		now	now
sw3403A-ms98-a-0059	A.63	243.894125	244.034125		their	their
sw3403A-ms98-a-0059	A.63	244.034125	244.384125		sons	sons
sw3403A-ms98-a-0059	A.63	244.384125	244.744125		are	are
sw3403A-ms98-a-0059	A.65	244.744125	245.138750		[silence]	[silence]
sw3403A-ms98-a-0060	A.65	245.138750	260.894750		[silence]	[silence]
sw3403A-ms98-a-0061	A.65	260.894750	261.304750		[silence]	[silence]
sw3403A-ms98-a-0061	A.65	261.304750	261.676125	<SUB>	Uh-huh	huh-uh
sw3403A-ms98-a-0061	A.65	261.676125	261.755000		I	i
sw3403A-ms98-a-0061	A.65	261.755000	262.254750		wasn't	wasn't
sw3403A-ms98-a-0061	A.67	262.254750	262.567875		[silence]	[silence]
sw3403A-ms98-a-0062	A.67	262.567875	265.672500		[silence]	[silence]
sw3403A-ms98-a-0063	A.67	265.672500	266.212500		[silence]	[silence]
sw3403A-ms98-a-0063	A.67	266.212500	266.372500		Was	was
sw3403A-ms98-a-0063	A.67	266.372500	266.538375		it	it
sw3403A-ms98-a-0063	A.67	266.538375	266.713750		[silence]	[silence]
sw3403A-ms98-a-0063	A.67	266.713750	267.102500		Nolan	Nolan
sw3403A-ms98-a-0063	A.67	267.102500	267.656125		against	against
sw3403A-ms98-a-0063	A.67	267.656125	267.895875		uh	uh
sw3403A-ms98-a-0063	A.69	267.895875	268.162500	<DEL>	---	oh
sw3403A-ms98-a-0063	A.69	268.162500	268.302500	<DEL>	---	it
sw3403A-ms98-a-0063	A.69	268.302500	268.362500	<DEL>	---	it
sw3403A-ms98-a-0063	A.69	268.362500	268.522500	<DEL>	---	wa[s]-
sw3403A-ms98-a-0063	A.69	268.522500	268.812500		Ryan	Ryan
sw3403A-ms98-a-0063	A.69	268.812500	269.122500		against	against
sw3403A-ms98-a-0063	A.69	269.122500	269.532500		Ryan	Ryan
sw3403A-ms98-a-0063	A.69	269.532500	269.760625		huh	huh
sw3403A-ms98-a-0063	A.71	269.760625	270.206125		[silence]	[silence]
sw3403A-ms98-a-0064	A.71	270.206125	272.596750		[silence]	[silence]
sw3403A-ms98-a-0065	A.71	272.596750	273.056750		[silence]	[silence]
sw3403A-ms98-a-0065	A.71	273.056750	273.246875		Well	well
sw3403A-ms98-a-0065	A.71	273.246875	273.475250		that	that
sw3403A-ms98-a-0065	A.71	273.475250	273.658625		is	is
sw3403A-ms98-a-0065	A.71	273.658625	274.180125		neat	neat
sw3403A-ms98-a-0065	A.73	274.180125	274.713250		[silence]	[silence]
sw3403A-ms98-a-0066	A.73	274.713250	282.001250		[silence]	[silence]
sw3403A-ms98-a-0067	A.73	282.001250	282.491250		[silence]	[silence]
sw3403A-ms98-a-0067	A.73	282.491250	282.831250		Uh-huh	uh-huh
sw3403A-ms98-a-0067	A.75	282.831250	283.297625		[silence]	[silence]
sw3403A-ms98-a-0068	A.75	283.297625	289.941750		[silence]	[silence]
sw3403A-ms98-a-0069	A.75	289.941750	290.391750		[silence]	[silence]
sw3403A-ms98-a-0069	A.75	290.391750	290.841750		Right	right
sw3403A-ms98-a-0069	A.75	290.841750	291.367250		[silence]	[silence]
sw3403A-ms98-a-0070	A.75	291.367250	298.562000		[silence]	[silence]
