sw3467B-ms98-a-0001	B.2	0.000000	0.029375		[silence]	[silence]
sw3467B-ms98-a-0002	B.2	0.029375	0.137625		[silence]	[silence]
sw3467B-ms98-a-0002	B.2	0.137625	0.559375	<DEL>	---	okay
sw3467B-ms98-a-0002	B.2	0.559375	1.003250		[silence]	[silence]
sw3467B-ms98-a-0003	B.2	1.003250	4.380375		[silence]	[silence]
sw3467B-ms98-a-0004	B.2	4.380375	4.930375		[silence]	[silence]
sw3467B-ms98-a-0004	B.2	4.930375	5.245500		[noise]	[noise]
sw3467B-ms98-a-0004	B.2	5.245500	5.620250		Oh	oh
sw3467B-ms98-a-0004	B.2	5.620250	6.570375		no	no
sw3467B-ms98-a-0004	B.4	6.570375	7.090750		[silence]	[silence]
sw3467B-ms98-a-0005	B.4	7.090750	8.968625		[silence]	[silence]
sw3467B-ms98-a-0006	B.4	8.968625	9.198625		[silence]	[silence]
sw3467B-ms98-a-0006	B.4	9.198625	9.438625		Oh	oh
sw3467B-ms98-a-0006	B.4	9.438625	10.298625		gosh	gosh
sw3467B-ms98-a-0006	B.4	10.298625	10.468625		oh	oh
sw3467B-ms98-a-0006	B.4	10.468625	11.138625		gosh	gosh
sw3467B-ms98-a-0006	B.6	11.138625	11.591875		[silence]	[silence]
sw3467B-ms98-a-0006	B.6	11.591875	11.723750	<DEL>	---	i
sw3467B-ms98-a-0006	B.6	11.723750	11.956375	<DEL>	---	look
sw3467B-ms98-a-0006	B.6	11.956375	12.605875		[silence]	[silence]
sw3467B-ms98-a-0007	B.6	12.605875	13.305875		[silence]	[silence]
sw3467B-ms98-a-0007	B.6	13.305875	13.725875		Yes	yes
sw3467B-ms98-a-0007	B.6	13.725875	13.875875		we	we
sw3467B-ms98-a-0007	B.6	13.875875	14.544375		do	do
sw3467B-ms98-a-0007	B.8	14.544375	15.042625		[silence]	[silence]
sw3467B-ms98-a-0008	B.8	15.042625	16.049250		[silence]	[silence]
sw3467B-ms98-a-0009	B.8	16.049250	16.469250		[silence]	[silence]
sw3467B-ms98-a-0009	B.8	16.469250	17.019250		Okay	okay
sw3467B-ms98-a-0009	B.8	17.019250	17.149250		let	let
sw3467B-ms98-a-0009	B.8	17.149250	17.269250		me	me
sw3467B-ms98-a-0009	B.8	17.269250	17.629250		think	think
sw3467B-ms98-a-0009	B.8	17.629250	17.870375		here	here
sw3467B-ms98-a-0009	B.10	17.870375	18.092625		Favorite	favorite
sw3467B-ms98-a-0009	B.10	18.092625	18.219250	<DEL>	---	sh[ows]-
sw3467B-ms98-a-0009	B.10	18.219250	18.259250		I	i
sw3467B-ms98-a-0009	B.10	18.259250	18.489250		haven't	haven't
sw3467B-ms98-a-0009	B.10	18.489250	18.639250		been	been
sw3467B-ms98-a-0009	B.10	18.639250	18.959250		watching	watching
sw3467B-ms98-a-0009	B.10	18.959250	19.149250		much	much
sw3467B-ms98-a-0009	B.10	19.149250	19.559250	<CONT>	T	TV
sw3467B-ms98-a-0009	B.10	19.559250	19.559250	<CONT>	V	+++
sw3467B-ms98-a-0009	B.10	19.559250	20.082500		lately	lately
sw3467B-ms98-a-0009	B.12	20.082500	21.060750		[laughter]	[laughter]
sw3467B-ms98-a-0009	B.12	21.060750	21.316875		I	i
sw3467B-ms98-a-0009	B.12	21.316875	21.626750		used	used
sw3467B-ms98-a-0009	B.12	21.626750	22.064875		to	to
sw3467B-ms98-a-0009	B.14	22.064875	22.220250		[silence]	[silence]
sw3467B-ms98-a-0010	B.14	22.220250	22.370250		[silence]	[silence]
sw3467B-ms98-a-0010	B.14	22.370250	22.750250		Yeah	yeah
sw3467B-ms98-a-0010	B.14	22.750250	23.110250		I	i
sw3467B-ms98-a-0010	B.14	23.110250	23.480250		have	have
sw3467B-ms98-a-0010	B.14	23.480250	23.789750		uh	uh
sw3467B-ms98-a-0010	B.14	23.789750	23.955500	<DEL>	---	let's
sw3467B-ms98-a-0010	B.14	23.955500	24.070250	<DEL>	---	see
sw3467B-ms98-a-0010	B.14	24.070250	24.110250		I	i
sw3467B-ms98-a-0010	B.14	24.110250	24.250250		have	have
sw3467B-ms98-a-0010	B.14	24.250250	24.490250		one	one
sw3467B-ms98-a-0010	B.14	24.490250	24.800250		favorite	favorite
sw3467B-ms98-a-0010	B.14	24.800250	25.030250		soap	soap
sw3467B-ms98-a-0010	B.14	25.030250	25.250250		opera	opera
sw3467B-ms98-a-0010	B.14	25.250250	25.370250		I	i
sw3467B-ms98-a-0010	B.14	25.370250	25.660250		still	still
sw3467B-ms98-a-0010	B.14	25.660250	25.930250		watch	watch
sw3467B-ms98-a-0010	B.14	25.930250	26.030250		and	and
sw3467B-ms98-a-0010	B.14	26.030250	26.090250		I	i
sw3467B-ms98-a-0010	B.14	26.090250	26.420250		tape	tape
sw3467B-ms98-a-0010	B.14	26.420250	26.530250	<SUB>	because	if
sw3467B-ms98-a-0010	B.14	26.530250	26.620250		I'm	i'm
sw3467B-ms98-a-0010	B.14	26.620250	26.820250		not	not
sw3467B-ms98-a-0010	B.14	26.820250	27.110250		home	home
sw3467B-ms98-a-0010	B.16	27.110250	27.638375		[laughter]	[laughter]
sw3467B-ms98-a-0010	B.16	27.638375	28.131625		[silence]	[silence]
sw3467B-ms98-a-0010	B.16	28.131625	28.679375		And	and
sw3467B-ms98-a-0010	B.16	28.679375	29.096375		uh	uh
sw3467B-ms98-a-0010	B.16	29.096375	29.372000		[silence]	[silence]
sw3467B-ms98-a-0011	B.16	29.372000	29.451375		[silence]	[silence]
sw3467B-ms98-a-0011	B.16	29.451375	29.802000		let's	let's
sw3467B-ms98-a-0011	B.16	29.802000	30.082000		see	see
sw3467B-ms98-a-0011	B.16	30.082000	30.312000		that's	that's
sw3467B-ms98-a-0011	B.16	30.312000	30.612000		GENERAL	General
sw3467B-ms98-a-0011	B.16	30.612000	31.572000		HOSPITAL	Hospital
sw3467B-ms98-a-0011	B.16	31.572000	31.752000		and	and
sw3467B-ms98-a-0011	B.16	31.752000	32.182000		then	then
sw3467B-ms98-a-0011	B.16	32.182000	32.242000		uh	uh
sw3467B-ms98-a-0011	B.16	32.242000	32.793625		at	at
sw3467B-ms98-a-0011	B.16	32.793625	33.347250		night	night
sw3467B-ms98-a-0011	B.16	33.347250	33.347250	<INS>	uh	---
sw3467B-ms98-a-0011	B.16	33.347250	33.639250		I	i
sw3467B-ms98-a-0011	B.16	33.639250	34.076125		don't	don't
sw3467B-ms98-a-0011	B.16	34.076125	34.508250	<SUB>	uh	um
sw3467B-ms98-a-0011	B.16	34.508250	34.862375		[silence]	[silence]
sw3467B-ms98-a-0011	B.16	34.862375	34.972000		when	when
sw3467B-ms98-a-0011	B.16	34.972000	35.052000		I	i
sw3467B-ms98-a-0011	B.16	35.052000	35.232000		sit	sit
sw3467B-ms98-a-0011	B.16	35.232000	35.332000		down	down
sw3467B-ms98-a-0011	B.16	35.332000	35.362000		I	i
sw3467B-ms98-a-0011	B.16	35.362000	35.712000		don't	don't
sw3467B-ms98-a-0011	B.16	35.712000	36.072000		usually	usually
sw3467B-ms98-a-0011	B.16	36.072000	36.322000		sit	sit
sw3467B-ms98-a-0011	B.16	36.322000	36.542000		down	down
sw3467B-ms98-a-0011	B.16	36.542000	36.722000		till	till
sw3467B-ms98-a-0011	B.16	36.722000	36.982000		almost	almost
sw3467B-ms98-a-0011	B.16	36.982000	37.232000		nine	nine
sw3467B-ms98-a-0011	B.16	37.232000	37.642000		o'clock	o'clock
sw3467B-ms98-a-0011	B.18	37.642000	38.042000		[silence]	[silence]
sw3467B-ms98-a-0011	B.18	38.042000	38.202000		when	when
sw3467B-ms98-a-0011	B.18	38.202000	38.282000		my	my
sw3467B-ms98-a-0011	B.18	38.282000	38.572000		kids	kids
sw3467B-ms98-a-0011	B.18	38.572000	38.732000		get	get
sw3467B-ms98-a-0011	B.18	38.732000	38.822000		in	in
sw3467B-ms98-a-0011	B.18	38.822000	39.182000		bed	bed
sw3467B-ms98-a-0011	B.18	39.182000	39.482000		and	and
sw3467B-ms98-a-0011	B.18	39.482000	39.941500		[silence]	[silence]
sw3467B-ms98-a-0012	B.18	39.941500	39.991500		[silence]	[silence]
sw3467B-ms98-a-0012	B.18	39.991500	40.291500		and	and
sw3467B-ms98-a-0012	B.18	40.291500	40.421500	<DEL>	---	and
sw3467B-ms98-a-0012	B.18	40.421500	40.661500		uh	uh
sw3467B-ms98-a-0012	B.18	40.661500	40.811500		then	then
sw3467B-ms98-a-0012	B.18	40.811500	40.901500		I	i
sw3467B-ms98-a-0012	B.18	40.901500	41.491500		watch	watch
sw3467B-ms98-a-0012	B.18	41.491500	41.611500		uh	uh
sw3467B-ms98-a-0012	B.18	41.611500	41.781500		[silence]	[silence]
sw3467B-ms98-a-0012	B.18	41.781500	41.911500		what	what
sw3467B-ms98-a-0012	B.18	41.911500	41.971500		do	do
sw3467B-ms98-a-0012	B.18	41.971500	42.071500		I	i
sw3467B-ms98-a-0012	B.18	42.071500	42.341500		watch	watch
sw3467B-ms98-a-0012	B.18	42.341500	42.421500		at	at
sw3467B-ms98-a-0012	B.18	42.421500	42.591500		nine	nine
sw3467B-ms98-a-0012	B.18	42.591500	43.021500		o'clock	o'clock
sw3467B-ms98-a-0012	B.18	43.021500	43.231500		Let's	let's
sw3467B-ms98-a-0012	B.18	43.231500	43.391500		see	see
sw3467B-ms98-a-0012	B.18	43.391500	43.541500		oh	oh
sw3467B-ms98-a-0012	B.18	43.541500	43.711500		well	well
sw3467B-ms98-a-0012	B.18	43.711500	44.091500		Tuesday	Tuesday
sw3467B-ms98-a-0012	B.18	44.091500	44.401500		nights	nights
sw3467B-ms98-a-0012	B.18	44.401500	44.511500		I	i
sw3467B-ms98-a-0012	B.18	44.511500	44.901125		guess	guess
sw3467B-ms98-a-0012	B.18	44.901125	45.428500		[silence]	[silence]
sw3467B-ms98-a-0012	B.18	45.428500	45.561500		we	we
sw3467B-ms98-a-0012	B.18	45.561500	45.801500		try	try
sw3467B-ms98-a-0012	B.18	45.801500	45.871500		to	to
sw3467B-ms98-a-0012	B.18	45.871500	46.091500		catch	catch
sw3467B-ms98-a-0012	B.18	46.091500	46.151500		a	a
sw3467B-ms98-a-0012	B.18	46.151500	46.361500		couple	couple
sw3467B-ms98-a-0012	B.18	46.361500	46.421500		of	of
sw3467B-ms98-a-0012	B.18	46.421500	46.481500		the	the
sw3467B-ms98-a-0012	B.18	46.481500	46.771500		shows	shows
sw3467B-ms98-a-0012	B.18	46.771500	46.901500		that	that
sw3467B-ms98-a-0012	B.18	46.901500	46.961500		the	the
sw3467B-ms98-a-0012	B.18	46.961500	47.301500		kids	kids
sw3467B-ms98-a-0012	B.18	47.301500	47.801500		like	like
sw3467B-ms98-a-0012	B.20	47.801500	48.361500		And	and
sw3467B-ms98-a-0012	B.20	48.361500	48.607250		uh	uh
sw3467B-ms98-a-0012	B.22	48.607250	49.227750		[silence]	[silence]
sw3467B-ms98-a-0013	B.22	49.227750	49.977750		[silence]	[silence]
sw3467B-ms98-a-0013	B.22	49.977750	50.027750		I	i
sw3467B-ms98-a-0013	B.22	50.027750	50.127750		have	have
sw3467B-ms98-a-0013	B.22	50.127750	50.197750		a	a
sw3467B-ms98-a-0013	B.22	50.197750	50.477750		seven	seven
sw3467B-ms98-a-0013	B.22	50.477750	50.597750		year	year
sw3467B-ms98-a-0013	B.22	50.597750	50.727750		old	old
sw3467B-ms98-a-0013	B.22	50.727750	50.867750		and	and
sw3467B-ms98-a-0013	B.22	50.867750	50.977750		a	a
sw3467B-ms98-a-0013	B.22	50.977750	51.247750		ten	ten
sw3467B-ms98-a-0013	B.22	51.247750	51.447750		year	year
sw3467B-ms98-a-0013	B.22	51.447750	51.771500		old	old
sw3467B-ms98-a-0013	B.24	51.771500	52.232125		[silence]	[silence]
sw3467B-ms98-a-0014	B.24	52.232125	52.672125		[silence]	[silence]
sw3467B-ms98-a-0014	B.24	52.672125	53.112125		And	and
sw3467B-ms98-a-0014	B.24	53.112125	53.302125		uh	uh
sw3467B-ms98-a-0014	B.24	53.302125	53.572125		so	so
sw3467B-ms98-a-0014	B.24	53.572125	53.712125		we	we
sw3467B-ms98-a-0014	B.24	53.712125	54.022125		usually	usually
sw3467B-ms98-a-0014	B.24	54.022125	54.572125		catch	catch
sw3467B-ms98-a-0014	B.24	54.572125	54.972875		uh	uh
sw3467B-ms98-a-0014	B.24	54.972875	55.146125		[silence]	[silence]
sw3467B-ms98-a-0014	B.24	55.146125	55.412125		FULL	Full
sw3467B-ms98-a-0014	B.24	55.412125	56.002125		HOUSE	House
sw3467B-ms98-a-0014	B.24	56.002125	56.392125		and	and
sw3467B-ms98-a-0014	B.24	56.392125	56.798875		uh	uh
sw3467B-ms98-a-0014	B.24	56.798875	57.335250		[silence]	[silence]
sw3467B-ms98-a-0015	B.24	57.335250	57.815250		[silence]	[silence]
sw3467B-ms98-a-0015	B.24	57.815250	57.975250		what's	what's
sw3467B-ms98-a-0015	B.24	57.975250	58.035250		the	the
sw3467B-ms98-a-0015	B.24	58.035250	58.185250		one	one
sw3467B-ms98-a-0015	B.24	58.185250	58.395250		comes	comes
sw3467B-ms98-a-0015	B.24	58.395250	58.545250		on	on
sw3467B-ms98-a-0015	B.24	58.545250	58.745250		after	after
sw3467B-ms98-a-0015	B.24	58.745250	58.885250		that	that
sw3467B-ms98-a-0015	B.24	58.885250	59.015250		It's	it's
sw3467B-ms98-a-0015	B.24	59.015250	59.095250		a	a
sw3467B-ms98-a-0015	B.24	59.095250	59.540625		new	new
sw3467B-ms98-a-0015	B.24	59.540625	60.117000		one	one
sw3467B-ms98-a-0015	B.24	60.117000	60.755250	<SUB>	uh	um
sw3467B-ms98-a-0015	B.26	60.755250	61.156750		[noise]	[noise]
sw3467B-ms98-a-0015	B.26	61.156750	61.277125		[silence]	[silence]
sw3467B-ms98-a-0016	B.26	61.277125	61.747125		[silence]	[silence]
sw3467B-ms98-a-0016	B.26	61.747125	62.087125	<DEL>	---	three
sw3467B-ms98-a-0016	B.26	62.087125	62.377500	<DEL>	---	s[omething]-
sw3467B-ms98-a-0016	B.26	62.377500	62.709250		[silence]	[silence]
sw3467B-ms98-a-0017	B.26	62.709250	63.309250		[silence]	[silence]
sw3467B-ms98-a-0017	B.26	63.309250	63.979250		Uh-huh	uh-huh
sw3467B-ms98-a-0017	B.28	63.979250	64.491375		[silence]	[silence]
sw3467B-ms98-a-0018	B.28	64.491375	66.011125		[silence]	[silence]
sw3467B-ms98-a-0019	B.28	66.011125	66.461125		[silence]	[silence]
sw3467B-ms98-a-0019	B.28	66.461125	66.971125		Yeah	yeah
sw3467B-ms98-a-0019	B.28	66.971125	67.641000		yeah	yeah
sw3467B-ms98-a-0019	B.28	67.641000	68.066625		[silence]	[silence]
sw3467B-ms98-a-0019	B.28	68.066625	68.571125		Uh	uh
sw3467B-ms98-a-0019	B.28	68.571125	68.751125		[silence]	[silence]
sw3467B-ms98-a-0019	B.28	68.751125	68.931125		other	other
sw3467B-ms98-a-0019	B.28	68.931125	69.070625		than	than
sw3467B-ms98-a-0019	B.28	69.070625	69.507625		that	that
sw3467B-ms98-a-0019	B.28	69.507625	69.881125		uh	uh
sw3467B-ms98-a-0019	B.28	69.881125	69.941125		oh	oh
sw3467B-ms98-a-0019	B.28	69.941125	70.811625		gosh	gosh
sw3467B-ms98-a-0019	B.28	70.811625	71.397375		[silence]	[silence]
sw3467B-ms98-a-0019	B.28	71.397375	71.481125		I	i
sw3467B-ms98-a-0019	B.28	71.481125	71.664500		watch	watch
sw3467B-ms98-a-0019	B.28	71.664500	71.932000		KNOTS	Knots
sw3467B-ms98-a-0019	B.28	71.932000	72.388625		LANDING	Landing
sw3467B-ms98-a-0019	B.28	72.388625	72.577000		on	on
sw3467B-ms98-a-0019	B.28	72.577000	72.921125		Thursday	Thursday
sw3467B-ms98-a-0019	B.28	72.921125	73.271125		nights	nights
sw3467B-ms98-a-0019	B.30	73.271125	73.471125		for	for
sw3467B-ms98-a-0019	B.30	73.471125	73.691125		pure	pure
sw3467B-ms98-a-0019	B.30	73.691125	74.321125		entertainment	entertainment
sw3467B-ms98-a-0019	B.30	74.321125	74.681125		nothing	nothing
sw3467B-ms98-a-0019	B.30	74.681125	75.093375		else	else
sw3467B-ms98-a-0019	B.32	75.093375	76.318000		[laughter]	[laughter]
sw3467B-ms98-a-0019	B.32	76.318000	76.824375		Yeah	yeah
sw3467B-ms98-a-0019	B.34	76.824375	77.228875		[silence]	[silence]
sw3467B-ms98-a-0020	B.34	77.228875	80.232500		[silence]	[silence]
sw3467B-ms98-a-0021	B.34	80.232500	80.752500		[silence]	[silence]
sw3467B-ms98-a-0021	B.34	80.752500	81.162500		Oh	oh
sw3467B-ms98-a-0021	B.34	81.162500	81.342500		now	now
sw3467B-ms98-a-0021	B.34	81.342500	81.562500		that	that
sw3467B-ms98-a-0021	B.34	81.562500	81.742500		is	is
sw3467B-ms98-a-0021	B.34	81.742500	81.792500		a	a
sw3467B-ms98-a-0021	B.34	81.792500	81.992500		good	good
sw3467B-ms98-a-0021	B.34	81.992500	82.132500		one	one
sw3467B-ms98-a-0021	B.36	82.132500	82.552500		That	that
sw3467B-ms98-a-0021	B.36	82.552500	82.772500		is	is
sw3467B-ms98-a-0021	B.38	82.772500	82.872500	<SUB>	Yeah	a
sw3467B-ms98-a-0021	B.38	82.872500	83.092500	<DEL>	---	good
sw3467B-ms98-a-0021	B.38	83.092500	83.252500	<DEL>	---	one
sw3467B-ms98-a-0021	B.38	83.252500	83.372500		if	if
sw3467B-ms98-a-0021	B.38	83.372500	83.562500		I'm	i'm
sw3467B-ms98-a-0021	B.38	83.562500	83.782500		home	home
sw3467B-ms98-a-0021	B.38	83.782500	83.942500		on	on
sw3467B-ms98-a-0021	B.38	83.942500	84.352500		Mondays	Mondays
sw3467B-ms98-a-0021	B.38	84.352500	84.542500		then	then
sw3467B-ms98-a-0021	B.38	84.542500	84.672500		I	i
sw3467B-ms98-a-0021	B.38	84.672500	84.882500		I	i
sw3467B-ms98-a-0021	B.38	84.882500	85.302500		definitely	definitely
sw3467B-ms98-a-0021	B.38	85.302500	85.592500		watch	watch
sw3467B-ms98-a-0021	B.38	85.592500	85.955750		her	her
sw3467B-ms98-a-0021	B.40	85.955750	86.440750		[silence]	[silence]
sw3467B-ms98-a-0022	B.40	86.440750	89.380500		[silence]	[silence]
sw3467B-ms98-a-0023	B.40	89.380500	89.840500		[silence]	[silence]
sw3467B-ms98-a-0023	B.40	89.840500	90.360500		Yeah	yeah
sw3467B-ms98-a-0023	B.40	90.360500	90.600500		yeah	yeah
sw3467B-ms98-a-0023	B.40	90.600500	90.720500		well	well
sw3467B-ms98-a-0023	B.40	90.720500	90.930500		he's	he's
sw3467B-ms98-a-0023	B.40	90.930500	91.180500	<DEL>	---	such
sw3467B-ms98-a-0023	B.40	91.180500	91.250500		a	a
sw3467B-ms98-a-0023	B.40	91.250500	91.420500		good	good
sw3467B-ms98-a-0023	B.40	91.420500	91.950500		actor	actor
sw3467B-ms98-a-0023	B.40	91.950500	92.120500		He	he
sw3467B-ms98-a-0023	B.40	92.120500	92.390500		really	really
sw3467B-ms98-a-0023	B.40	92.390500	92.550500		is	is
sw3467B-ms98-a-0023	B.40	92.550500	92.942000		good	good
sw3467B-ms98-a-0023	B.42	92.942000	93.353000		[silence]	[silence]
sw3467B-ms98-a-0024	B.42	93.353000	97.949250		[silence]	[silence]
sw3467B-ms98-a-0025	B.42	97.949250	98.459250		[silence]	[silence]
sw3467B-ms98-a-0025	B.42	98.459250	98.947000		Yeah	yeah
sw3467B-ms98-a-0025	B.42	98.947000	99.405875		yeah	yeah
sw3467B-ms98-a-0025	B.44	99.405875	100.494375		[laughter]	[laughter]
sw3467B-ms98-a-0025	B.44	100.494375	100.952375		[silence]	[silence]
sw3467B-ms98-a-0026	B.44	100.952375	102.377125		[silence]	[silence]
sw3467B-ms98-a-0027	B.44	102.377125	102.877625		[silence]	[silence]
sw3467B-ms98-a-0027	B.44	102.877625	103.127125		Oh	oh
sw3467B-ms98-a-0027	B.44	103.127125	103.977125	<SUB>	God	gosh
sw3467B-ms98-a-0027	B.44	103.977125	104.207125		Well	well
sw3467B-ms98-a-0027	B.44	104.207125	104.357125		he	he
sw3467B-ms98-a-0027	B.44	104.357125	104.567125		could	could
sw3467B-ms98-a-0027	B.44	104.567125	104.867125		very	very
sw3467B-ms98-a-0027	B.44	104.867125	105.087125		well	well
sw3467B-ms98-a-0027	B.44	105.087125	105.537125		be	be
sw3467B-ms98-a-0027	B.46	105.537125	107.245625		[laughter]	[laughter]
sw3467B-ms98-a-0027	B.46	107.245625	107.746000		So	so
sw3467B-ms98-a-0027	B.46	107.746000	107.917125		do	do
sw3467B-ms98-a-0027	B.46	107.917125	107.997125		you	you
sw3467B-ms98-a-0027	B.46	107.997125	108.237125		watch	watch
sw3467B-ms98-a-0027	B.46	108.237125	108.456375		much	much
sw3467B-ms98-a-0027	B.46	108.456375	108.885375	<CONT>	T	TV
sw3467B-ms98-a-0027	B.46	108.885375	108.885375	<CONT>	V	+++
sw3467B-ms98-a-0027	B.46	108.885375	109.156625		or	or
sw3467B-ms98-a-0027	B.48	109.156625	109.665500		[silence]	[silence]
sw3467B-ms98-a-0028	B.48	109.665500	113.391500		[silence]	[silence]
sw3467B-ms98-a-0029	B.48	113.391500	113.871500		[silence]	[silence]
sw3467B-ms98-a-0029	B.48	113.871500	114.422250		Uh-huh	uh-huh
sw3467B-ms98-a-0029	B.50	114.422250	114.883625		[silence]	[silence]
sw3467B-ms98-a-0030	B.50	114.883625	121.227750		[silence]	[silence]
sw3467B-ms98-a-0031	B.50	121.227750	121.721000		[silence]	[silence]
sw3467B-ms98-a-0031	B.50	121.721000	121.890375		Now	now
sw3467B-ms98-a-0031	B.50	121.890375	122.060875		I	i
sw3467B-ms98-a-0031	B.50	122.060875	122.447750		never	never
sw3467B-ms98-a-0031	B.50	122.447750	122.697750		see	see
sw3467B-ms98-a-0031	B.50	122.697750	122.997750		that	that
sw3467B-ms98-a-0031	B.50	122.997750	123.047750	<SUB>	Well	oh
sw3467B-ms98-a-0031	B.50	123.047750	123.217750		I've	i've
sw3467B-ms98-a-0031	B.50	123.217750	123.337750		got	got
sw3467B-ms98-a-0031	B.50	123.337750	123.367750		a	a
sw3467B-ms98-a-0031	B.50	123.367750	123.727750		friend	friend
sw3467B-ms98-a-0031	B.50	123.727750	123.847750		that	that
sw3467B-ms98-a-0031	B.50	123.847750	124.037750		says	says
sw3467B-ms98-a-0031	B.50	124.037750	124.197750		that	that
sw3467B-ms98-a-0031	B.50	124.197750	124.367750		is	is
sw3467B-ms98-a-0031	B.50	124.367750	124.537750		just	just
sw3467B-ms98-a-0031	B.50	124.537750	125.197750		wonderful	wonderful
sw3467B-ms98-a-0031	B.50	125.197750	125.857625		show	show
sw3467B-ms98-a-0031	B.52	125.857625	126.323875		[silence]	[silence]
sw3467B-ms98-a-0032	B.52	126.323875	128.624000		[silence]	[silence]
sw3467B-ms98-a-0033	B.52	128.624000	129.094125		[silence]	[silence]
sw3467B-ms98-a-0033	B.52	129.094125	129.598375		Oh	oh
sw3467B-ms98-a-0033	B.52	129.598375	130.433125	<SUB>	nice	gosh
sw3467B-ms98-a-0033	B.54	130.433125	130.768750		[silence]	[silence]
sw3467B-ms98-a-0034	B.54	130.768750	133.007625		[silence]	[silence]
sw3467B-ms98-a-0035	B.54	133.007625	133.477625		[silence]	[silence]
sw3467B-ms98-a-0035	B.54	133.477625	133.667625		What	what
sw3467B-ms98-a-0035	B.54	133.667625	133.777625		now	now
sw3467B-ms98-a-0035	B.54	133.777625	133.957625		what	what
sw3467B-ms98-a-0035	B.54	133.957625	134.197625		night	night
sw3467B-ms98-a-0035	B.54	134.197625	134.277625		is	is
sw3467B-ms98-a-0035	B.54	134.277625	134.467625		that	that
sw3467B-ms98-a-0035	B.54	134.467625	134.717625		on	on
sw3467B-ms98-a-0035	B.54	134.717625	135.081375		now	now
sw3467B-ms98-a-0035	B.56	135.081375	135.572125		[silence]	[silence]
sw3467B-ms98-a-0036	B.56	135.572125	137.613500		[silence]	[silence]
sw3467B-ms98-a-0037	B.56	137.613500	137.793500		[silence]	[silence]
sw3467B-ms98-a-0037	B.56	137.793500	138.133500		Wednesday	Wednesday
sw3467B-ms98-a-0037	B.56	138.133500	138.261125		at	at
sw3467B-ms98-a-0037	B.56	138.261125	138.515750		seven	seven
sw3467B-ms98-a-0037	B.56	138.515750	138.903625		thirty	thirty
sw3467B-ms98-a-0037	B.56	138.903625	139.213500		oh	oh
sw3467B-ms98-a-0037	B.56	139.213500	139.633500		okay	okay
sw3467B-ms98-a-0037	B.56	139.633500	139.918125		Yeah	yeah
sw3467B-ms98-a-0037	B.56	139.918125	140.411500		Wednesdays	Wednesdays
sw3467B-ms98-a-0037	B.56	140.411500	140.703500		I	i
sw3467B-ms98-a-0037	B.56	140.703500	140.763500		I	i
sw3467B-ms98-a-0037	B.56	140.763500	140.883500		go	go
sw3467B-ms98-a-0037	B.56	140.883500	140.983500		to	to
sw3467B-ms98-a-0037	B.56	140.983500	141.273500		church	church
sw3467B-ms98-a-0037	B.56	141.273500	141.753500		choir	choir
sw3467B-ms98-a-0037	B.56	141.753500	142.147500		so	so
sw3467B-ms98-a-0037	B.58	142.147500	142.580625		[laughter]	[laughter]
sw3467B-ms98-a-0037	B.58	142.580625	142.733500		That's	that's
sw3467B-ms98-a-0037	B.58	142.733500	142.953500		my	my
sw3467B-ms98-a-0037	B.58	142.953500	143.173500		one	one
sw3467B-ms98-a-0037	B.58	143.173500	143.443500		night	night
sw3467B-ms98-a-0037	B.58	143.443500	143.633500		out	out
sw3467B-ms98-a-0037	B.58	143.633500	143.743500		and	and
sw3467B-ms98-a-0037	B.58	143.743500	144.123500		about	about
sw3467B-ms98-a-0037	B.58	144.123500	144.776125		so	so
sw3467B-ms98-a-0037	B.60	144.776125	145.240375		[silence]	[silence]
sw3467B-ms98-a-0038	B.60	145.240375	147.069750		[silence]	[silence]
sw3467B-ms98-a-0039	B.60	147.069750	147.509750		[silence]	[silence]
sw3467B-ms98-a-0039	B.60	147.509750	148.009750		Yeah	yeah
sw3467B-ms98-a-0039	B.60	148.009750	148.129750		I	i
sw3467B-ms98-a-0039	B.60	148.129750	148.319750		should	should
sw3467B-ms98-a-0039	B.60	148.319750	148.509750		get	get
sw3467B-ms98-a-0039	B.60	148.509750	148.629750		him	him
sw3467B-ms98-a-0039	B.60	148.629750	148.779750		to	to
sw3467B-ms98-a-0039	B.60	148.779750	148.969750		do	do
sw3467B-ms98-a-0039	B.60	148.969750	149.359750		that	that
sw3467B-ms98-a-0039	B.62	149.359750	149.595250		Because	because
sw3467B-ms98-a-0039	B.62	149.595250	149.727000		I	i
sw3467B-ms98-a-0039	B.62	149.727000	150.214000		know	know
sw3467B-ms98-a-0039	B.64	150.214000	151.101625		[silence]	[silence]
sw3467B-ms98-a-0040	B.64	151.101625	152.041625		[silence]	[silence]
sw3467B-ms98-a-0040	B.64	152.041625	152.611625		Yeah	yeah
sw3467B-ms98-a-0040	B.64	152.611625	153.091625		yeah	yeah
sw3467B-ms98-a-0040	B.64	153.091625	153.641625	<SUB>	uh-huh	uh-oh
sw3467B-ms98-a-0040	B.66	153.641625	154.878125		[silence]	[silence]
sw3467B-ms98-a-0041	B.66	154.878125	155.288125		[silence]	[silence]
sw3467B-ms98-a-0041	B.66	155.288125	155.418125		Are	are
sw3467B-ms98-a-0041	B.66	155.418125	155.538125		there	there
sw3467B-ms98-a-0041	B.66	155.538125	155.698125		any	any
sw3467B-ms98-a-0041	B.66	155.698125	155.918125		new	new
sw3467B-ms98-a-0041	B.66	155.918125	156.168125		ones	ones
sw3467B-ms98-a-0041	B.66	156.168125	156.398125		this	this
sw3467B-ms98-a-0041	B.66	156.398125	156.568125		year	year
sw3467B-ms98-a-0041	B.66	156.568125	156.698125		that	that
sw3467B-ms98-a-0041	B.66	156.698125	156.928125		came	came
sw3467B-ms98-a-0041	B.66	156.928125	157.208125		out	out
sw3467B-ms98-a-0041	B.66	157.208125	157.388125		that	that
sw3467B-ms98-a-0041	B.66	157.388125	157.616000		you	you
sw3467B-ms98-a-0041	B.66	157.616000	157.732750		[silence]	[silence]
sw3467B-ms98-a-0041	B.66	157.732750	158.198125		like	like
sw3467B-ms98-a-0041	B.66	158.198125	158.531000		or	or
sw3467B-ms98-a-0041	B.68	158.531000	158.965375		[silence]	[silence]
sw3467B-ms98-a-0042	B.68	158.965375	164.501125		[silence]	[silence]
sw3467B-ms98-a-0043	B.68	164.501125	164.871125		[silence]	[silence]
sw3467B-ms98-a-0043	B.68	164.871125	165.521125		Uh-huh	uh-huh
sw3467B-ms98-a-0043	B.68	165.521125	165.921125		uh-huh	uh-huh
sw3467B-ms98-a-0043	B.68	165.921125	166.201125		How's	how's
sw3467B-ms98-a-0043	B.68	166.201125	166.511125		that	that
sw3467B-ms98-a-0043	B.68	166.511125	166.551125		I	i
sw3467B-ms98-a-0043	B.68	166.551125	166.821125		haven't	haven't
sw3467B-ms98-a-0043	B.68	166.821125	167.031125		seen	seen
sw3467B-ms98-a-0043	B.68	167.031125	167.271125		that	that
sw3467B-ms98-a-0043	B.70	167.271125	167.782125		[silence]	[silence]
sw3467B-ms98-a-0044	B.70	167.782125	171.013500		[silence]	[silence]
sw3467B-ms98-a-0045	B.70	171.013500	171.460250		[silence]	[silence]
sw3467B-ms98-a-0045	B.70	171.460250	172.006750		Huh	huh
sw3467B-ms98-a-0045	B.72	172.006750	172.497000		[silence]	[silence]
sw3467B-ms98-a-0046	B.72	172.497000	181.399000		[silence]	[silence]
sw3467B-ms98-a-0047	B.72	181.399000	181.899375		[silence]	[silence]
sw3467B-ms98-a-0047	B.72	181.899375	182.669000	<DEL>	---	ah
sw3467B-ms98-a-0047	B.72	182.669000	183.138375		[silence]	[silence]
sw3467B-ms98-a-0048	B.72	183.138375	185.108000		[silence]	[silence]
sw3467B-ms98-a-0049	B.72	185.108000	185.608250		[silence]	[silence]
sw3467B-ms98-a-0049	B.72	185.608250	186.098000		Huh	huh
sw3467B-ms98-a-0049	B.74	186.098000	186.515125		[silence]	[silence]
sw3467B-ms98-a-0050	B.74	186.515125	186.945125		[silence]	[silence]
sw3467B-ms98-a-0050	B.74	186.945125	187.045125		I'll	i'll
sw3467B-ms98-a-0050	B.74	187.045125	187.195125		have	have
sw3467B-ms98-a-0050	B.74	187.195125	187.325125		to	to
sw3467B-ms98-a-0050	B.74	187.325125	187.595125		watch	watch
sw3467B-ms98-a-0050	B.74	187.595125	187.705125		for	for
sw3467B-ms98-a-0050	B.74	187.705125	187.915125		that	that
sw3467B-ms98-a-0050	B.76	187.915125	188.165125	<DEL>	---	one
sw3467B-ms98-a-0050	B.76	188.165125	188.595125	<DEL>	---	sometime
sw3467B-ms98-a-0050	B.76	188.595125	188.919875		[silence]	[silence]
sw3467B-ms98-a-0051	B.76	188.919875	190.470375		[silence]	[silence]
sw3467B-ms98-a-0052	B.76	190.470375	190.950375		[silence]	[silence]
sw3467B-ms98-a-0052	B.76	190.950375	191.570375		Uh-huh	uh-huh
sw3467B-ms98-a-0052	B.76	191.570375	192.040000		uh-huh	uh-huh
sw3467B-ms98-a-0052	B.78	192.040000	192.509125		[silence]	[silence]
sw3467B-ms98-a-0053	B.78	192.509125	195.499000		[silence]	[silence]
sw3467B-ms98-a-0054	B.78	195.499000	195.845375		[silence]	[silence]
sw3467B-ms98-a-0054	B.78	195.845375	196.192500	<DEL>	---	so
sw3467B-ms98-a-0054	B.78	196.192500	196.685375	<DEL>	---	go[sh]-
sw3467B-ms98-a-0054	B.78	196.685375	197.066125		[silence]	[silence]
sw3467B-ms98-a-0055	B.78	197.066125	199.137875		[silence]	[silence]
sw3467B-ms98-a-0056	B.78	199.137875	199.727875		[silence]	[silence]
sw3467B-ms98-a-0056	B.78	199.727875	200.137875	<SUB>	Uh-huh	uh-oh
sw3467B-ms98-a-0056	B.80	200.137875	202.094250		[laughter]	[laughter]
sw3467B-ms98-a-0056	B.80	202.094250	202.684000		[silence]	[silence]
sw3467B-ms98-a-0057	B.80	202.684000	203.314000		[silence]	[silence]
sw3467B-ms98-a-0057	B.80	203.314000	203.904375		Yeah	yeah
sw3467B-ms98-a-0057	B.80	203.904375	204.028625		[silence]	[silence]
sw3467B-ms98-a-0057	B.80	204.028625	204.574000		yeah	yeah
sw3467B-ms98-a-0057	B.82	204.574000	205.075250		[silence]	[silence]
sw3467B-ms98-a-0058	B.82	205.075250	207.009875		[silence]	[silence]
sw3467B-ms98-a-0059	B.82	207.009875	207.475000		[silence]	[silence]
sw3467B-ms98-a-0059	B.82	207.475000	207.737500	<DEL>	---	um
sw3467B-ms98-a-0059	B.82	207.737500	208.459875		Gosh	gosh
sw3467B-ms98-a-0059	B.84	208.459875	208.599875		Well	well
sw3467B-ms98-a-0059	B.84	208.599875	208.729875		we	we
sw3467B-ms98-a-0059	B.84	208.729875	208.939875		used	used
sw3467B-ms98-a-0059	B.84	208.939875	209.019875		to	to
sw3467B-ms98-a-0059	B.84	209.019875	209.269875		watch	watch
sw3467B-ms98-a-0059	B.84	209.269875	209.329875		a	a
sw3467B-ms98-a-0059	B.84	209.329875	209.509875		lot	lot
sw3467B-ms98-a-0059	B.84	209.509875	209.599875		of	of
sw3467B-ms98-a-0059	B.84	209.599875	210.069875		DESIGNING	Designing
sw3467B-ms98-a-0059	B.84	210.069875	210.449875		WOMEN	Women
sw3467B-ms98-a-0059	B.84	210.449875	210.799875		but	but
sw3467B-ms98-a-0059	B.84	210.799875	211.008625		uh	uh
sw3467B-ms98-a-0059	B.86	211.008625	211.438000		[silence]	[silence]
sw3467B-ms98-a-0059	B.86	211.438000	211.499875		I	i
sw3467B-ms98-a-0059	B.86	211.499875	211.839875		haven't	haven't
sw3467B-ms98-a-0059	B.86	211.839875	212.009875		seen	seen
sw3467B-ms98-a-0059	B.86	212.009875	212.159875		that	that
sw3467B-ms98-a-0059	B.86	212.159875	212.389875		much	much
sw3467B-ms98-a-0059	B.86	212.389875	212.915625		lately	lately
sw3467B-ms98-a-0059	B.88	212.915625	213.427875		[silence]	[silence]
sw3467B-ms98-a-0059	B.88	213.427875	213.679875		Since	since
sw3467B-ms98-a-0059	B.88	213.679875	213.932625		they	they
sw3467B-ms98-a-0059	B.88	213.932625	214.132250		[silence]	[silence]
sw3467B-ms98-a-0059	B.88	214.132250	214.399875		got	got
sw3467B-ms98-a-0059	B.88	214.399875	214.599875		rid	rid
sw3467B-ms98-a-0059	B.88	214.599875	214.789875		of	of
sw3467B-ms98-a-0059	B.88	214.789875	215.069875		uh	uh
sw3467B-ms98-a-0059	B.88	215.069875	215.389875		Delta	Delta
sw3467B-ms98-a-0059	B.88	215.389875	215.769875		Burke	Burke
sw3467B-ms98-a-0059	B.88	215.769875	215.959875		and	and
sw3467B-ms98-a-0059	B.88	215.959875	215.959875	<INS>	uh	---
sw3467B-ms98-a-0059	B.90	215.959875	216.739875		[laughter]	[laughter]
sw3467B-ms98-a-0059	B.90	216.739875	216.939875		brought	brought
sw3467B-ms98-a-0059	B.90	216.939875	217.079875		on	on
sw3467B-ms98-a-0059	B.90	217.079875	217.139875		the	the
sw3467B-ms98-a-0059	B.90	217.139875	217.369875		new	new
sw3467B-ms98-a-0059	B.90	217.369875	217.800625		ones	ones
sw3467B-ms98-a-0059	B.92	217.800625	218.432500		[silence]	[silence]
sw3467B-ms98-a-0060	B.92	218.432500	219.515750		[silence]	[silence]
sw3467B-ms98-a-0061	B.92	219.515750	219.975750		[silence]	[silence]
sw3467B-ms98-a-0061	B.92	219.975750	220.315750		Oh	oh
sw3467B-ms98-a-0061	B.92	220.315750	220.515750		she	she
sw3467B-ms98-a-0061	B.92	220.515750	220.645750		was	was
sw3467B-ms98-a-0061	B.92	220.645750	220.865750		just	just
sw3467B-ms98-a-0061	B.92	220.865750	221.235750		funny	funny
sw3467B-ms98-a-0061	B.94	221.235750	221.435750		[silence]	[silence]
sw3467B-ms98-a-0061	B.94	221.435750	221.655750		She	she
sw3467B-ms98-a-0061	B.94	221.655750	221.875750		was	was
sw3467B-ms98-a-0061	B.94	221.875750	222.195750		really	really
sw3467B-ms98-a-0061	B.94	222.195750	222.505750		funny	funny
sw3467B-ms98-a-0061	B.94	222.505750	222.625750		And	and
sw3467B-ms98-a-0061	B.94	222.625750	222.685750		her	her
sw3467B-ms98-a-0061	B.94	222.685750	223.125750		character	character
sw3467B-ms98-a-0061	B.94	223.125750	223.285750		was	was
sw3467B-ms98-a-0061	B.94	223.285750	223.505750		good	good
sw3467B-ms98-a-0061	B.94	223.505750	223.585750		I	i
sw3467B-ms98-a-0061	B.94	223.585750	223.755750		don't	don't
sw3467B-ms98-a-0061	B.94	223.755750	223.865750		know	know
sw3467B-ms98-a-0061	B.94	223.865750	223.985750		that	that
sw3467B-ms98-a-0061	B.94	223.985750	224.075750		it	it
sw3467B-ms98-a-0061	B.94	224.075750	224.275750		was	was
sw3467B-ms98-a-0061	B.94	224.275750	224.415750		her	her
sw3467B-ms98-a-0061	B.94	224.415750	224.545750		in	in
sw3467B-ms98-a-0061	B.94	224.545750	225.165750		particular	particular
sw3467B-ms98-a-0061	B.96	225.165750	225.225750	<SUB>	but	it
sw3467B-ms98-a-0061	B.96	225.225750	225.365750	<DEL>	---	was
sw3467B-ms98-a-0061	B.96	225.365750	225.535750		just	just
sw3467B-ms98-a-0061	B.96	225.535750	225.595750		the	the
sw3467B-ms98-a-0061	B.96	225.595750	226.261250		character	character
sw3467B-ms98-a-0061	B.96	226.261250	226.821500		[silence]	[silence]
sw3467B-ms98-a-0061	B.96	226.821500	227.405750		So	so
sw3467B-ms98-a-0061	B.96	227.405750	227.692375	<SUB>	uh	um
sw3467B-ms98-a-0061	B.98	227.692375	228.246250		[silence]	[silence]
sw3467B-ms98-a-0062	B.98	228.246250	228.776250		[silence]	[silence]
sw3467B-ms98-a-0062	B.98	228.776250	229.536250		Yeah	yeah
sw3467B-ms98-a-0062	B.98	229.536250	230.258375		yeah	yeah
sw3467B-ms98-a-0062	B.100	230.258375	230.697625		[silence]	[silence]
sw3467B-ms98-a-0063	B.100	230.697625	231.104875		[silence]	[silence]
sw3467B-ms98-a-0063	B.100	231.104875	231.537625		Oh	oh
sw3467B-ms98-a-0063	B.100	231.537625	231.751500		that	that
sw3467B-ms98-a-0063	B.100	231.751500	231.921000		was	was
sw3467B-ms98-a-0063	B.100	231.921000	232.557625		awful	awful
sw3467B-ms98-a-0063	B.100	232.557625	232.677625		[silence]	[silence]
sw3467B-ms98-a-0063	B.100	232.677625	232.887625		and	and
sw3467B-ms98-a-0063	B.100	232.887625	233.037625		who	who
sw3467B-ms98-a-0063	B.100	233.037625	233.337625		knows	knows
sw3467B-ms98-a-0063	B.100	233.337625	233.875750		still	still
sw3467B-ms98-a-0063	B.100	233.875750	234.085125		what	what
sw3467B-ms98-a-0063	B.100	234.085125	234.356250		ha-	ha[ppened]-
sw3467B-ms98-a-0063	B.100	234.356250	234.707625		really	really
sw3467B-ms98-a-0063	B.100	234.707625	235.187625		happened	happened
sw3467B-ms98-a-0063	B.100	235.187625	235.337625		you	you
sw3467B-ms98-a-0063	B.100	235.337625	235.586500		know	know
sw3467B-ms98-a-0063	B.102	235.586500	235.964250		[silence]	[silence]
sw3467B-ms98-a-0064	B.102	235.964250	237.147875		[silence]	[silence]
sw3467B-ms98-a-0065	B.102	237.147875	237.577875		[silence]	[silence]
sw3467B-ms98-a-0065	B.102	237.577875	237.967875		Yeah	yeah
sw3467B-ms98-a-0065	B.102	237.967875	238.147875		[silence]	[silence]
sw3467B-ms98-a-0065	B.102	238.147875	238.685000		yeah	yeah
sw3467B-ms98-a-0065	B.102	238.685000	238.685000	<INS>	so	---
sw3467B-ms98-a-0065	B.104	238.685000	239.108625		[silence]	[silence]
sw3467B-ms98-a-0066	B.104	239.108625	242.730875		[silence]	[silence]
sw3467B-ms98-a-0067	B.104	242.730875	243.108375		[silence]	[silence]
sw3467B-ms98-a-0067	B.104	243.108375	243.520875		Oh	oh
sw3467B-ms98-a-0067	B.104	243.520875	243.720875		I	i
sw3467B-ms98-a-0067	B.104	243.720875	244.040875		know	know
sw3467B-ms98-a-0067	B.106	244.040875	244.252250		Now	now
sw3467B-ms98-a-0067	B.106	244.252250	244.354000		I	i
sw3467B-ms98-a-0067	B.106	244.354000	244.610875		told	told
sw3467B-ms98-a-0067	B.106	244.610875	244.770875	<DEL>	---	was
sw3467B-ms98-a-0067	B.106	244.770875	244.990875	<DEL>	---	gonna
sw3467B-ms98-a-0067	B.106	244.990875	245.390875		no	no
sw3467B-ms98-a-0067	B.106	245.390875	245.600875		we	we
sw3467B-ms98-a-0067	B.106	245.600875	245.880875		don't	don't
sw3467B-ms98-a-0067	B.106	245.880875	246.090875		have	have
sw3467B-ms98-a-0067	B.106	246.090875	246.290875		that	that
sw3467B-ms98-a-0067	B.106	246.290875	246.830875		station	station
sw3467B-ms98-a-0067	B.106	246.830875	247.100875		either	either
sw3467B-ms98-a-0067	B.106	247.100875	247.530875		so	so
sw3467B-ms98-a-0067	B.106	247.530875	247.771750		uh	uh
sw3467B-ms98-a-0067	B.106	247.771750	248.005250		[silence]	[silence]
sw3467B-ms98-a-0067	B.106	248.005250	248.080375		I	i
sw3467B-ms98-a-0067	B.106	248.080375	248.210875		haven't	haven't
sw3467B-ms98-a-0067	B.106	248.210875	248.310875		been	been
sw3467B-ms98-a-0067	B.106	248.310875	248.520875		able	able
sw3467B-ms98-a-0067	B.106	248.520875	248.590875		to	to
sw3467B-ms98-a-0067	B.106	248.590875	248.760875		catch	catch
sw3467B-ms98-a-0067	B.106	248.760875	248.850875		any	any
sw3467B-ms98-a-0067	B.106	248.850875	248.910875		of	of
sw3467B-ms98-a-0067	B.106	248.910875	249.020875		that	that
sw3467B-ms98-a-0067	B.106	249.020875	249.130875		but	but
sw3467B-ms98-a-0067	B.106	249.130875	249.360875		just	just
sw3467B-ms98-a-0067	B.106	249.360875	249.550875		what	what
sw3467B-ms98-a-0067	B.106	249.550875	249.760875		little	little
sw3467B-ms98-a-0067	B.106	249.760875	249.860875		we	we
sw3467B-ms98-a-0067	B.106	249.860875	250.130875		caught	caught
sw3467B-ms98-a-0067	B.106	250.130875	250.240875		on	on
sw3467B-ms98-a-0067	B.106	250.240875	250.320875		the	the
sw3467B-ms98-a-0067	B.106	250.320875	250.903000		news	news
sw3467B-ms98-a-0067	B.108	250.903000	251.292125		[silence]	[silence]
sw3467B-ms98-a-0068	B.108	251.292125	251.629875		[silence]	[silence]
sw3467B-ms98-a-0068	B.108	251.629875	251.902125		Oh	oh
sw3467B-ms98-a-0068	B.108	251.902125	252.012125		I	i
sw3467B-ms98-a-0068	B.108	252.012125	252.362125		know	know
sw3467B-ms98-a-0068	B.108	252.362125	252.640125		it	it
sw3467B-ms98-a-0068	B.110	252.640125	253.266875		[silence]	[silence]
sw3467B-ms98-a-0069	B.110	253.266875	254.702375		[silence]	[silence]
sw3467B-ms98-a-0070	B.110	254.702375	255.192375		[silence]	[silence]
sw3467B-ms98-a-0070	B.110	255.192375	255.512375		Well	well
sw3467B-ms98-a-0070	B.110	255.512375	255.552375		I	i
sw3467B-ms98-a-0070	B.110	255.552375	255.772375		don't	don't
sw3467B-ms98-a-0070	B.110	255.772375	255.892375		see	see
sw3467B-ms98-a-0070	B.110	255.892375	256.012375		how	how
sw3467B-ms98-a-0070	B.110	256.012375	256.082375		he	he
sw3467B-ms98-a-0070	B.110	256.082375	256.492375		couldn't	couldn't
sw3467B-ms98-a-0070	B.110	256.492375	256.905125		be	be
sw3467B-ms98-a-0070	B.110	256.905125	257.101000		[silence]	[silence]
sw3467B-ms98-a-0070	B.110	257.101000	257.242375		you	you
sw3467B-ms98-a-0070	B.110	257.242375	257.796250		know	know
sw3467B-ms98-a-0070	B.112	257.796250	258.192875		[silence]	[silence]
sw3467B-ms98-a-0071	B.112	258.192875	262.006875		[silence]	[silence]
sw3467B-ms98-a-0072	B.112	262.006875	262.476875		[silence]	[silence]
sw3467B-ms98-a-0072	B.112	262.476875	262.826875		Yeah	yeah
sw3467B-ms98-a-0072	B.112	262.826875	262.986875		[silence]	[silence]
sw3467B-ms98-a-0072	B.112	262.986875	263.206875		that's	that's
sw3467B-ms98-a-0072	B.112	263.206875	263.780500		right	right
sw3467B-ms98-a-0072	B.114	263.780500	264.420250		[silence]	[silence]
sw3467B-ms98-a-0073	B.114	264.420250	265.100250		[silence]	[silence]
sw3467B-ms98-a-0073	B.114	265.100250	265.340250		Oh	oh
sw3467B-ms98-a-0073	B.114	265.340250	265.510250		and	and
sw3467B-ms98-a-0073	B.114	265.510250	265.650250		they	they
sw3467B-ms98-a-0073	B.114	265.650250	265.960250		said	said
sw3467B-ms98-a-0073	B.116	265.960250	266.220250		this	this
sw3467B-ms98-a-0073	B.116	266.220250	266.650250		lawyer	lawyer
sw3467B-ms98-a-0073	B.116	266.650250	266.760250		is	is
sw3467B-ms98-a-0073	B.116	266.760250	267.750250		unbelievable	unbelievable
sw3467B-ms98-a-0073	B.118	267.750250	268.080250		But	but
sw3467B-ms98-a-0073	B.118	268.080250	268.220250		they	they
sw3467B-ms98-a-0073	B.118	268.220250	268.390250		said	said
sw3467B-ms98-a-0073	B.118	268.390250	268.570250		she	she
sw3467B-ms98-a-0073	B.118	268.570250	268.800250		held	held
sw3467B-ms98-a-0073	B.118	268.800250	268.910250		up	up
sw3467B-ms98-a-0073	B.118	268.910250	269.160250		so	so
sw3467B-ms98-a-0073	B.118	269.160250	269.620250		well	well
sw3467B-ms98-a-0073	B.118	269.620250	270.337375		yesterday	yesterday
sw3467B-ms98-a-0073	B.120	270.337375	270.890750		[silence]	[silence]
sw3467B-ms98-a-0074	B.120	270.890750	272.720375		[silence]	[silence]
sw3467B-ms98-a-0075	B.120	272.720375	273.210375		[silence]	[silence]
sw3467B-ms98-a-0075	B.120	273.210375	273.717625		Yeah	yeah
sw3467B-ms98-a-0075	B.122	273.717625	274.103125		[silence]	[silence]
sw3467B-ms98-a-0076	B.122	274.103125	274.523125		[silence]	[silence]
sw3467B-ms98-a-0076	B.122	274.523125	274.843125		Oh	oh
sw3467B-ms98-a-0076	B.122	274.843125	275.493125	<SUB>	God	gosh
sw3467B-ms98-a-0076	B.126	275.493125	275.798875		[noise]	[noise]
sw3467B-ms98-a-0076	B.126	275.798875	276.517875		[silence]	[silence]
sw3467B-ms98-a-0077	B.126	276.517875	277.242125		[silence]	[silence]
sw3467B-ms98-a-0077	B.126	277.242125	281.091500		[laughter]	[laughter]
sw3467B-ms98-a-0077	B.126	281.091500	281.565000		Oh	oh
sw3467B-ms98-a-0077	B.126	281.565000	282.037875		shoot	shoot
sw3467B-ms98-a-0077	B.126	282.037875	282.317875		well	well
sw3467B-ms98-a-0077	B.126	282.317875	282.387875		do	do
sw3467B-ms98-a-0077	B.126	282.387875	282.467875		you	you
sw3467B-ms98-a-0077	B.126	282.467875	282.777875		watch	watch
sw3467B-ms98-a-0077	B.126	282.777875	283.192375		any	any
sw3467B-ms98-a-0077	B.126	283.192375	283.651875		uh	uh
sw3467B-ms98-a-0077	B.128	283.651875	283.957875		any	any
sw3467B-ms98-a-0077	B.128	283.957875	284.417875		sports	sports
sw3467B-ms98-a-0077	B.128	284.417875	284.487875		or	or
sw3467B-ms98-a-0077	B.128	284.487875	284.767875		anything	anything
sw3467B-ms98-a-0077	B.128	284.767875	284.947875		like	like
sw3467B-ms98-a-0077	B.128	284.947875	285.327875		that	that
sw3467B-ms98-a-0077	B.128	285.327875	285.583875		or	or
sw3467B-ms98-a-0077	B.130	285.583875	286.263625		[silence]	[silence]
sw3467B-ms98-a-0078	B.130	286.263625	286.853625		[silence]	[silence]
sw3467B-ms98-a-0078	B.130	286.853625	287.043625		Because	because_1
sw3467B-ms98-a-0078	B.130	287.043625	287.277750		I	i
sw3467B-ms98-a-0078	B.130	287.277750	287.518875		don't	don't
sw3467B-ms98-a-0078	B.130	287.518875	287.843625		either	either
sw3467B-ms98-a-0078	B.130	287.843625	287.923625		I	i
sw3467B-ms98-a-0078	B.130	287.923625	288.283625		can't	can't
sw3467B-ms98-a-0078	B.130	288.283625	288.333625		I	i
sw3467B-ms98-a-0078	B.130	288.333625	288.623625		can't	can't
sw3467B-ms98-a-0078	B.130	288.623625	288.833625		watch	watch
sw3467B-ms98-a-0078	B.130	288.833625	288.903625		it	it
sw3467B-ms98-a-0078	B.130	288.903625	289.023625		on	on
sw3467B-ms98-a-0078	B.130	289.023625	289.603625	<CONT>	T	TV
sw3467B-ms98-a-0078	B.130	289.603625	289.603625	<CONT>	V	+++
sw3467B-ms98-a-0078	B.130	289.603625	290.033875		so	so
sw3467B-ms98-a-0078	B.132	290.033875	290.255250	<DEL>	---	uh
sw3467B-ms98-a-0078	B.132	290.255250	290.553000		[noise]	[noise]
sw3467B-ms98-a-0078	B.132	290.553000	291.148500		[silence]	[silence]
sw3467B-ms98-a-0079	B.132	291.148500	294.327500		[silence]	[silence]
sw3467B-ms98-a-0080	B.132	294.327500	294.627500		[silence]	[silence]
sw3467B-ms98-a-0080	B.132	294.627500	295.344500		Uh-huh	uh-huh
sw3467B-ms98-a-0080	B.134	295.344500	295.892875		[silence]	[silence]
sw3467B-ms98-a-0081	B.134	295.892875	296.462875		[silence]	[silence]
sw3467B-ms98-a-0081	B.134	296.462875	296.692875		Yeah	yeah
sw3467B-ms98-a-0081	B.134	296.692875	296.732875		I	i
sw3467B-ms98-a-0081	B.134	296.732875	296.912875		like	like
sw3467B-ms98-a-0081	B.134	296.912875	297.032875		to	to
sw3467B-ms98-a-0081	B.134	297.032875	297.322875		catch	catch
sw3467B-ms98-a-0081	B.134	297.322875	297.392875		the	the
sw3467B-ms98-a-0081	B.134	297.392875	298.072875		gymnastics	gymnastics
sw3467B-ms98-a-0081	B.134	298.072875	298.512875		sometimes	sometimes
sw3467B-ms98-a-0081	B.134	298.512875	298.871125		too	too
sw3467B-ms98-a-0081	B.134	298.871125	299.253125		[silence]	[silence]
sw3467B-ms98-a-0082	B.134	299.253125	299.609125		[silence]	[silence]
sw3467B-ms98-a-0082	B.134	299.609125	299.773125	<DEL>	---	just
sw3467B-ms98-a-0082	B.134	299.773125	299.832000	<DEL>	---	t[o]-
sw3467B-ms98-a-0082	B.134	299.832000	299.842000		[silence]	[silence]
