sw3426B-ms98-a-0001	B.2	0.000000	0.001750		[silence]	[silence]
sw3426B-ms98-a-0001	B.2	0.001750	0.016875		[noise]	[noise]
sw3426B-ms98-a-0001	B.2	0.016875	0.899125		[silence]	[silence]
sw3426B-ms98-a-0002	B.2	0.899125	4.167500		[silence]	[silence]
sw3426B-ms98-a-0003	B.2	4.167500	4.596625		[silence]	[silence]
sw3426B-ms98-a-0003	B.2	4.596625	4.897500		Oh	oh
sw3426B-ms98-a-0003	B.2	4.897500	5.357500		really	really
sw3426B-ms98-a-0003	B.2	5.357500	5.568875		I	i
sw3426B-ms98-a-0003	B.2	5.568875	5.798000		just	just
sw3426B-ms98-a-0003	B.4	5.798000	6.234125		[silence]	[silence]
sw3426B-ms98-a-0004	B.4	6.234125	6.731875		[silence]	[silence]
sw3426B-ms98-a-0004	B.4	6.731875	7.224125		Oh	oh
sw3426B-ms98-a-0004	B.4	7.224125	7.344125		I	i
sw3426B-ms98-a-0004	B.4	7.344125	7.684125		just	just
sw3426B-ms98-a-0004	B.4	7.684125	7.954125		got	got
sw3426B-ms98-a-0004	B.4	7.954125	8.214125		mine	mine
sw3426B-ms98-a-0004	B.4	8.214125	8.594125		last	last
sw3426B-ms98-a-0004	B.4	8.594125	8.904125		week	week
sw3426B-ms98-a-0004	B.4	8.904125	9.064125		and	and
sw3426B-ms98-a-0004	B.4	9.064125	9.134125		I	i
sw3426B-ms98-a-0004	B.4	9.134125	9.514125		haven't	haven't
sw3426B-ms98-a-0004	B.4	9.514125	10.084125		started	started
sw3426B-ms98-a-0004	B.4	10.084125	10.344125		yet	yet
sw3426B-ms98-a-0004	B.4	10.344125	10.614125		because	because
sw3426B-ms98-a-0004	B.4	10.614125	10.744125		I	i
sw3426B-ms98-a-0004	B.4	10.744125	11.064125		wanted	wanted
sw3426B-ms98-a-0004	B.4	11.064125	11.174125		to	to
sw3426B-ms98-a-0004	B.4	11.174125	11.494125		get	get
sw3426B-ms98-a-0004	B.4	11.494125	11.788250		one	one
sw3426B-ms98-a-0004	B.4	11.788250	13.010500		first	[laughter-first]
sw3426B-ms98-a-0004	B.6	13.010500	13.184125		see	see
sw3426B-ms98-a-0004	B.6	13.184125	13.394125		how	how
sw3426B-ms98-a-0004	B.6	13.394125	13.554125		it	it
sw3426B-ms98-a-0004	B.6	13.554125	14.034125		worked	worked
sw3426B-ms98-a-0004	B.8	14.034125	14.870750		[silence]	[silence]
sw3426B-ms98-a-0005	B.8	14.870750	24.074500		[silence]	[silence]
sw3426B-ms98-a-0006	B.8	24.074500	24.563250		[silence]	[silence]
sw3426B-ms98-a-0006	B.8	24.563250	25.310375		Really	really
sw3426B-ms98-a-0006	B.10	25.310375	25.939250		[silence]	[silence]
sw3426B-ms98-a-0006	B.10	25.939250	26.851375		Yeah	yeah
sw3426B-ms98-a-0006	@B.12	26.851375	27.438750		[silence]	[silence]
sw3426B-ms98-a-0007	@B.12	27.438750	29.222500		[silence]	[silence]
sw3426B-ms98-a-0008	@B.12	29.222500	29.663875		[silence]	[silence]
sw3426B-ms98-a-0008	@B.12	29.663875	29.952500		I	i
sw3426B-ms98-a-0008	@B.12	29.952500	30.212500		have	have
sw3426B-ms98-a-0008	@B.12	30.212500	30.292500		I	i
sw3426B-ms98-a-0008	@B.12	30.292500	30.502500		was	was
sw3426B-ms98-a-0008	@B.12	30.502500	30.922500		trying	trying
sw3426B-ms98-a-0008	@B.12	30.922500	30.982500		to	to
sw3426B-ms98-a-0008	@B.12	30.982500	31.170500		think	think
sw3426B-ms98-a-0008	@B.12	31.170500	31.282500		of	of
sw3426B-ms98-a-0008	@B.12	31.282500	31.382500		the	the
sw3426B-ms98-a-0008	@B.12	31.382500	31.582500		one	one
sw3426B-ms98-a-0008	@B.12	31.582500	31.682500		I	i
sw3426B-ms98-a-0008	@B.12	31.682500	31.912500		went	went
sw3426B-ms98-a-0008	@B.12	31.912500	32.042500		to	to
sw3426B-ms98-a-0008	@B.12	32.042500	32.102500		a	a
sw3426B-ms98-a-0008	@B.12	32.102500	32.372500		couple	couple
sw3426B-ms98-a-0008	@B.12	32.372500	32.492500		of	of
sw3426B-ms98-a-0008	@B.12	32.492500	32.762500		weeks	weeks
sw3426B-ms98-a-0008	@B.12	32.762500	33.042500		ago	ago
sw3426B-ms98-a-0008	@B.12	33.042500	33.232500		but	but
sw3426B-ms98-a-0008	@B.12	33.232500	33.322500		I	i
sw3426B-ms98-a-0008	@B.12	33.322500	33.792500		forgot	forgot
sw3426B-ms98-a-0008	@B.12	33.792500	33.932500		it	it
sw3426B-ms98-a-0008	@B.12	33.932500	34.637500		already	already
sw3426B-ms98-a-0008	B.14	34.637500	35.088375		[silence]	[silence]
sw3426B-ms98-a-0009	B.14	35.088375	41.658000		[silence]	[silence]
sw3426B-ms98-a-0010	B.14	41.658000	42.186375		[silence]	[silence]
sw3426B-ms98-a-0010	B.14	42.186375	43.151625		Oh	oh
sw3426B-ms98-a-0010	B.16	43.151625	43.474125		[silence]	[silence]
sw3426B-ms98-a-0011	B.16	43.474125	44.527625		[silence]	[silence]
sw3426B-ms98-a-0012	B.16	44.527625	44.972000		[silence]	[silence]
sw3426B-ms98-a-0012	B.16	44.972000	45.257625		That's	that's
sw3426B-ms98-a-0012	B.16	45.257625	45.467625		your	your
sw3426B-ms98-a-0012	B.16	45.467625	46.227625		weekend	weekend
sw3426B-ms98-a-0012	B.18	46.227625	46.801875		Yeah	yeah
sw3426B-ms98-a-0012	B.20	46.801875	47.461000		really	really
sw3426B-ms98-a-0012	B.22	47.461000	47.982500		[silence]	[silence]
sw3426B-ms98-a-0013	B.22	47.982500	50.379250		[silence]	[silence]
sw3426B-ms98-a-0014	B.22	50.379250	50.899500		[silence]	[silence]
sw3426B-ms98-a-0014	B.22	50.899500	51.319250		Really	really
sw3426B-ms98-a-0014	B.22	51.319250	51.429250		I	i
sw3426B-ms98-a-0014	B.22	51.429250	51.779250		didn't	didn't
sw3426B-ms98-a-0014	B.22	51.779250	51.999250		see	see
sw3426B-ms98-a-0014	B.22	51.999250	52.189250		that	that
sw3426B-ms98-a-0014	B.22	52.189250	52.499250		because	because
sw3426B-ms98-a-0014	B.22	52.499250	52.619250		I	i
sw3426B-ms98-a-0014	B.22	52.619250	53.009250		didn't	didn't
sw3426B-ms98-a-0014	B.22	53.009250	53.229250		think	think
sw3426B-ms98-a-0014	B.22	53.229250	53.339250		I	i
sw3426B-ms98-a-0014	B.22	53.339250	53.569250		would	would
sw3426B-ms98-a-0014	B.22	53.569250	53.829250		care	care
sw3426B-ms98-a-0014	B.22	53.829250	54.159250		for	for
sw3426B-ms98-a-0014	B.22	54.159250	54.367750		it	it
sw3426B-ms98-a-0014	B.24	54.367750	55.070000		[silence]	[silence]
sw3426B-ms98-a-0015	B.24	55.070000	55.637750		[silence]	[silence]
sw3426B-ms98-a-0015	B.24	55.637750	56.318375		Oh	oh
sw3426B-ms98-a-0015	B.26	56.318375	56.850250		[silence]	[silence]
sw3426B-ms98-a-0016	B.26	56.850250	63.128625		[silence]	[silence]
sw3426B-ms98-a-0017	B.26	63.128625	63.658000		[silence]	[silence]
sw3426B-ms98-a-0017	B.26	63.658000	63.848625		Yeah	yeah
sw3426B-ms98-a-0017	B.26	63.848625	63.888625		I	i
sw3426B-ms98-a-0017	B.26	63.888625	64.198625		think	think
sw3426B-ms98-a-0017	B.26	64.198625	64.478625		that's	that's
sw3426B-ms98-a-0017	B.26	64.478625	64.678625		why	why
sw3426B-ms98-a-0017	B.26	64.678625	64.738625		a	a
sw3426B-ms98-a-0017	B.26	64.738625	64.928625		lot	lot
sw3426B-ms98-a-0017	B.26	64.928625	64.988625		of	of
sw3426B-ms98-a-0017	B.26	64.988625	65.288625		people	people
sw3426B-ms98-a-0017	B.26	65.288625	65.478625		go	go
sw3426B-ms98-a-0017	B.26	65.478625	65.618625		to	to
sw3426B-ms98-a-0017	B.26	65.618625	65.798625		see	see
sw3426B-ms98-a-0017	B.26	65.798625	65.998625		him	him
sw3426B-ms98-a-0017	B.26	65.998625	66.244250		though	though
sw3426B-ms98-a-0017	B.28	66.244250	67.999750		[laughter]	[laughter]
sw3426B-ms98-a-0017	B.28	67.999750	70.552000	<DEL>	---	[laughter-right]
sw3426B-ms98-a-0017	B.28	70.552000	70.998000		Right	right
sw3426B-ms98-a-0017	B.30	70.998000	71.722875		[silence]	[silence]
sw3426B-ms98-a-0018	B.30	71.722875	72.169000		[silence]	[silence]
sw3426B-ms98-a-0018	B.30	72.169000	72.402875		Yes	yes
sw3426B-ms98-a-0018	B.30	72.402875	72.522875		I	i
sw3426B-ms98-a-0018	B.30	72.522875	72.842875		did	did
sw3426B-ms98-a-0018	B.30	72.842875	73.052875		see	see
sw3426B-ms98-a-0018	B.30	73.052875	73.392875		that	that
sw3426B-ms98-a-0018	B.32	73.392875	74.271375		[silence]	[silence]
sw3426B-ms98-a-0018	B.32	74.271375	74.462875		and	and
sw3426B-ms98-a-0018	B.32	74.462875	74.592875		I	i
sw3426B-ms98-a-0018	B.32	74.592875	74.962875		really	really
sw3426B-ms98-a-0018	B.32	74.962875	75.482875		enjoyed	enjoyed
sw3426B-ms98-a-0018	B.32	75.482875	75.848875		that	that
sw3426B-ms98-a-0018	B.34	75.848875	76.252500		[silence]	[silence]
sw3426B-ms98-a-0019	B.34	76.252500	77.260625		[silence]	[silence]
sw3426B-ms98-a-0020	B.34	77.260625	77.658375		[silence]	[silence]
sw3426B-ms98-a-0020	B.34	77.658375	78.190625		Yeah	yeah
sw3426B-ms98-a-0020	B.34	78.190625	78.300625		I	i
sw3426B-ms98-a-0020	B.34	78.300625	78.580625		thought	thought
sw3426B-ms98-a-0020	B.34	78.580625	78.750625		that	that
sw3426B-ms98-a-0020	B.34	78.750625	78.860625		was	was
sw3426B-ms98-a-0020	B.34	78.860625	79.490625		appropriate	appropriate
sw3426B-ms98-a-0020	B.34	79.490625	79.690625		just	just
sw3426B-ms98-a-0020	B.34	79.690625	79.850000		for	for
sw3426B-ms98-a-0020	B.34	79.850000	80.564250		everyone	everyone
sw3426B-ms98-a-0020	B.36	80.564250	81.351000		[silence]	[silence]
sw3426B-ms98-a-0020	B.36	81.351000	81.745750		Yeah	yeah
sw3426B-ms98-a-0020	B.36	81.745750	82.005125		[silence]	[silence]
sw3426B-ms98-a-0020	B.36	82.005125	82.183250	<SUB>	It	that
sw3426B-ms98-a-0020	B.36	82.183250	82.461625		was	was
sw3426B-ms98-a-0020	B.36	82.461625	82.821250		great	great
sw3426B-ms98-a-0020	B.38	82.821250	83.335000		[silence]	[silence]
sw3426B-ms98-a-0021	B.38	83.335000	83.925500		[silence]	[silence]
sw3426B-ms98-a-0021	B.38	83.925500	84.465000		Yeah	yeah
sw3426B-ms98-a-0021	B.38	84.465000	84.605000		and	and
sw3426B-ms98-a-0021	B.38	84.605000	84.755000		my	my
sw3426B-ms98-a-0021	B.38	84.755000	85.095000		daughter	daughter
sw3426B-ms98-a-0021	B.38	85.095000	85.325000		went	went
sw3426B-ms98-a-0021	B.38	85.325000	85.425000		to	to
sw3426B-ms98-a-0021	B.38	85.425000	85.665000		see	see
sw3426B-ms98-a-0021	B.38	85.665000	85.915000		that	that
sw3426B-ms98-a-0021	B.38	85.915000	86.115000		one	one
sw3426B-ms98-a-0021	B.38	86.115000	86.485000		too	too
sw3426B-ms98-a-0021	B.38	86.485000	86.865000		So	so
sw3426B-ms98-a-0021	B.38	86.865000	87.055000		it	it
sw3426B-ms98-a-0021	B.38	87.055000	87.255000		was	was
sw3426B-ms98-a-0021	B.38	87.255000	87.535000		fine	fine
sw3426B-ms98-a-0021	B.38	87.535000	87.695000		for	for
sw3426B-ms98-a-0021	B.38	87.695000	88.102000		her	her
sw3426B-ms98-a-0021	B.40	88.102000	88.479125		[silence]	[silence]
sw3426B-ms98-a-0022	B.40	88.479125	88.854625		[silence]	[silence]
sw3426B-ms98-a-0022	B.40	88.854625	89.373250		so	so
sw3426B-ms98-a-0022	B.40	89.373250	89.584750		[silence]	[silence]
sw3426B-ms98-a-0022	B.40	89.584750	89.880125		yeah	yeah
sw3426B-ms98-a-0022	B.42	89.880125	90.595500		[silence]	[silence]
sw3426B-ms98-a-0023	B.42	90.595500	91.375375		[silence]	[silence]
sw3426B-ms98-a-0023	B.42	91.375375	91.871250		Right	right
sw3426B-ms98-a-0023	B.42	91.871250	92.075500		well	well
sw3426B-ms98-a-0023	B.42	92.075500	92.465500		that's	that's
sw3426B-ms98-a-0023	B.42	92.465500	92.716375		right	right
sw3426B-ms98-a-0023	B.44	92.716375	93.203250		[silence]	[silence]
sw3426B-ms98-a-0024	B.44	93.203250	97.536625		[silence]	[silence]
sw3426B-ms98-a-0025	B.44	97.536625	97.993500		[silence]	[silence]
sw3426B-ms98-a-0025	B.44	97.993500	98.646625		Probably	probably
sw3426B-ms98-a-0025	B.44	98.646625	98.886625		they	they
sw3426B-ms98-a-0025	B.44	98.886625	99.146625		have	have
sw3426B-ms98-a-0025	B.44	99.146625	99.276625	<SUB>	Well	them_1
sw3426B-ms98-a-0025	B.44	99.276625	99.426625		my	my
sw3426B-ms98-a-0025	B.44	99.426625	99.786625		daughter	daughter
sw3426B-ms98-a-0025	B.44	99.786625	99.966625		is	is
sw3426B-ms98-a-0025	B.44	99.966625	100.565625		twelve	twelve
sw3426B-ms98-a-0025	B.46	100.565625	100.977000		[silence]	[silence]
sw3426B-ms98-a-0026	B.46	100.977000	101.430000		[silence]	[silence]
sw3426B-ms98-a-0026	B.46	101.430000	101.627000		and	and
sw3426B-ms98-a-0026	B.46	101.627000	101.757000		we	we
sw3426B-ms98-a-0026	B.46	101.757000	101.917000		had	had
sw3426B-ms98-a-0026	B.46	101.917000	101.987000		a	a
sw3426B-ms98-a-0026	B.46	101.987000	102.317000		sleep	sleep
sw3426B-ms98-a-0026	B.46	102.317000	102.647000		over	over
sw3426B-ms98-a-0026	B.46	102.647000	102.897000		one	one
sw3426B-ms98-a-0026	B.46	102.897000	103.137000		night	night
sw3426B-ms98-a-0026	B.46	103.137000	103.267000		They	they
sw3426B-ms98-a-0026	B.46	103.267000	103.567000		wanted	wanted
sw3426B-ms98-a-0026	B.46	103.567000	103.727000		to	to
sw3426B-ms98-a-0026	B.46	103.727000	104.017000		watch	watch
sw3426B-ms98-a-0026	B.46	104.017000	104.377000		PRETTY	Pretty
sw3426B-ms98-a-0026	B.46	104.377000	104.757000		WOMAN	Woman
sw3426B-ms98-a-0026	B.46	104.757000	105.037000		which	which
sw3426B-ms98-a-0026	B.46	105.037000	105.157000		I	i
sw3426B-ms98-a-0026	B.46	105.157000	105.605125		have	have
sw3426B-ms98-a-0026	B.48	105.605125	106.158875		[silence]	[silence]
sw3426B-ms98-a-0026	B.48	106.158875	106.327000		and	and
sw3426B-ms98-a-0026	B.48	106.327000	106.447000		I	i
sw3426B-ms98-a-0026	B.48	106.447000	106.747000		was	was
sw3426B-ms98-a-0026	B.48	106.747000	107.387000		hesitant	hesitant
sw3426B-ms98-a-0026	B.48	107.387000	107.537000		and	and
sw3426B-ms98-a-0026	B.48	107.537000	107.697000		they	they
sw3426B-ms98-a-0026	B.48	107.697000	107.857000		all	all
sw3426B-ms98-a-0026	B.48	107.857000	108.037000		had	had
sw3426B-ms98-a-0026	B.48	108.037000	108.367000		seen	seen
sw3426B-ms98-a-0026	B.48	108.367000	108.497000		it	it
sw3426B-ms98-a-0026	B.48	108.497000	108.928750		anyway	anyway
sw3426B-ms98-a-0026	B.50	108.928750	109.261625		[silence]	[silence]
sw3426B-ms98-a-0027	B.50	109.261625	109.401125		[silence]	[silence]
sw3426B-ms98-a-0027	B.50	109.401125	109.988500		[laughter]	[laughter]
sw3426B-ms98-a-0027	B.50	109.988500	110.091625	<DEL>	---	[laughter-and]
sw3426B-ms98-a-0027	B.50	110.091625	110.281625	<DEL>	---	[laughter-they're]
sw3426B-ms98-a-0027	B.50	110.281625	110.568500		all	all
sw3426B-ms98-a-0027	B.50	110.568500	111.247750		twelve	twelve
sw3426B-ms98-a-0027	B.50	111.247750	112.588625		so	so
sw3426B-ms98-a-0027	B.52	112.588625	113.073375		[silence]	[silence]
sw3426B-ms98-a-0028	B.52	113.073375	115.008250		[silence]	[silence]
sw3426B-ms98-a-0029	B.52	115.008250	115.515625		[silence]	[silence]
sw3426B-ms98-a-0029	B.52	115.515625	115.948250		Yes	yes
sw3426B-ms98-a-0029	B.52	115.948250	116.158250		they	they
sw3426B-ms98-a-0029	B.52	116.158250	116.655500		do	do
sw3426B-ms98-a-0029	B.54	116.655500	117.058250		yes	yes
sw3426B-ms98-a-0029	B.54	117.058250	117.198250		they	they
sw3426B-ms98-a-0029	B.54	117.198250	117.548250		do	do
sw3426B-ms98-a-0029	B.56	117.548250	118.500625		[silence]	[silence]
sw3426B-ms98-a-0030	B.56	118.500625	119.286625		[silence]	[silence]
sw3426B-ms98-a-0030	B.56	119.286625	119.837750		Right	right
sw3426B-ms98-a-0030	B.56	119.837750	120.083125		[silence]	[silence]
sw3426B-ms98-a-0030	B.56	120.083125	120.391625		but	but
sw3426B-ms98-a-0030	B.58	120.391625	120.749500		I	i
sw3426B-ms98-a-0030	B.58	120.749500	120.980625		I	i
sw3426B-ms98-a-0030	B.58	120.980625	121.230625		love	love
sw3426B-ms98-a-0030	B.58	121.230625	121.510625		Julia	Julia
sw3426B-ms98-a-0030	B.58	121.510625	122.010625	<SUB>	Roberts	Roberts's
sw3426B-ms98-a-0030	B.58	122.010625	122.460625		movies	movies
sw3426B-ms98-a-0030	B.58	122.460625	122.620625		but	but
sw3426B-ms98-a-0030	B.58	122.620625	122.680625		I	i
sw3426B-ms98-a-0030	B.58	122.680625	122.970625		didn't	didn't
sw3426B-ms98-a-0030	B.58	122.970625	123.140625		think	think
sw3426B-ms98-a-0030	B.58	123.140625	123.260625		they	they
sw3426B-ms98-a-0030	B.58	123.260625	123.480625		were	were
sw3426B-ms98-a-0030	B.58	123.480625	123.790625		great	great
sw3426B-ms98-a-0030	B.58	123.790625	123.870625		for	for
sw3426B-ms98-a-0030	B.58	123.870625	124.040625		my	my
sw3426B-ms98-a-0030	B.58	124.040625	124.521500		daughter	daughter
sw3426B-ms98-a-0030	B.60	124.521500	126.052375		[laughter]	[laughter]
sw3426B-ms98-a-0030	B.60	126.052375	126.646125		[silence]	[silence]
sw3426B-ms98-a-0031	B.60	126.646125	127.304625		[silence]	[silence]
sw3426B-ms98-a-0031	B.60	127.304625	127.826500		[noise]	[noise]
sw3426B-ms98-a-0031	B.60	127.826500	128.517750		No	no
sw3426B-ms98-a-0031	B.62	128.517750	129.465250		[silence]	[silence]
sw3426B-ms98-a-0032	B.62	129.465250	129.990000		[silence]	[silence]
sw3426B-ms98-a-0032	B.62	129.990000	130.665625		Really	really
sw3426B-ms98-a-0032	B.62	130.665625	130.801250		[silence]	[silence]
sw3426B-ms98-a-0032	B.62	130.801250	131.190625		really	really
sw3426B-ms98-a-0032	B.64	131.190625	131.962875		[silence]	[silence]
sw3426B-ms98-a-0033	B.64	131.962875	132.649250		[silence]	[silence]
sw3426B-ms98-a-0033	B.64	132.649250	132.832875		Oh	oh
sw3426B-ms98-a-0033	B.64	132.832875	132.992875		I	i
sw3426B-ms98-a-0033	B.64	132.992875	133.302875		love	love
sw3426B-ms98-a-0033	B.64	133.302875	133.642875		PRETTY	Pretty
sw3426B-ms98-a-0033	B.64	133.642875	133.922875		WOMAN	Woman
sw3426B-ms98-a-0033	B.64	133.922875	134.202875		and	and
sw3426B-ms98-a-0033	B.64	134.202875	134.372875		then	then
sw3426B-ms98-a-0033	B.64	134.372875	134.482875		I	i
sw3426B-ms98-a-0033	B.64	134.482875	134.782875		like	like
sw3426B-ms98-a-0033	B.64	134.782875	135.002875		that	that
sw3426B-ms98-a-0033	B.64	135.002875	135.212875		one	one
sw3426B-ms98-a-0033	B.64	135.212875	135.602875		after	after
sw3426B-ms98-a-0033	B.64	135.602875	135.992875		that	that
sw3426B-ms98-a-0033	B.64	135.992875	136.349625		where	where
sw3426B-ms98-a-0033	B.64	136.349625	136.632875		oh	oh
sw3426B-ms98-a-0033	B.64	136.632875	136.832875		what	what
sw3426B-ms98-a-0033	B.64	136.832875	137.022875		was	was
sw3426B-ms98-a-0033	B.64	137.022875	137.177750		it	it
sw3426B-ms98-a-0033	B.64	137.177750	137.509250		[silence]	[silence]
sw3426B-ms98-a-0033	B.64	137.509250	137.582875		It	it
sw3426B-ms98-a-0033	B.64	137.582875	137.722875		was	was
sw3426B-ms98-a-0033	B.64	137.722875	137.942875		like	like
sw3426B-ms98-a-0033	B.64	137.942875	138.002875		a	a
sw3426B-ms98-a-0033	B.64	138.002875	138.342875		FATAL	Fatal
sw3426B-ms98-a-0033	B.64	138.342875	138.972875		ATTRACTION	Attraction
sw3426B-ms98-a-0033	B.64	138.972875	139.332875		thing	thing
sw3426B-ms98-a-0033	B.66	139.332875	139.882625		Yeah	yeah
sw3426B-ms98-a-0033	B.68	139.882625	140.272625		[silence]	[silence]
sw3426B-ms98-a-0034	B.68	140.272625	140.728000		[silence]	[silence]
sw3426B-ms98-a-0034	B.68	140.728000	140.902625		I	i
sw3426B-ms98-a-0034	B.68	140.902625	141.102625		don't	don't
sw3426B-ms98-a-0034	B.68	141.102625	141.462625		remember	remember
sw3426B-ms98-a-0034	B.68	141.462625	141.572625		the	the
sw3426B-ms98-a-0034	B.68	141.572625	141.812625		name	name
sw3426B-ms98-a-0034	B.68	141.812625	141.962625		of	of
sw3426B-ms98-a-0034	B.68	141.962625	142.092625		it	it
sw3426B-ms98-a-0034	B.68	142.092625	142.252625		but	but
sw3426B-ms98-a-0034	B.68	142.252625	142.432625		that	that
sw3426B-ms98-a-0034	B.68	142.432625	142.582625		was	was
sw3426B-ms98-a-0034	B.68	142.582625	143.210375		so	so
sw3426B-ms98-a-0034	B.68	143.210375	143.496625		[silence]	[silence]
sw3426B-ms98-a-0034	B.68	143.496625	143.808250		good	good
sw3426B-ms98-a-0034	B.70	143.808250	144.137375		[silence]	[silence]
sw3426B-ms98-a-0035	B.70	144.137375	144.577375		[silence]	[silence]
sw3426B-ms98-a-0035	B.70	144.577375	144.777375		That	that
sw3426B-ms98-a-0035	B.70	144.777375	145.047375		was	was
sw3426B-ms98-a-0035	B.70	145.047375	145.359875		really	really
sw3426B-ms98-a-0035	B.70	145.359875	145.950625		excellent	excellent
sw3426B-ms98-a-0035	B.72	145.950625	146.428250		[silence]	[silence]
sw3426B-ms98-a-0036	B.72	146.428250	147.435500		[silence]	[silence]
sw3426B-ms98-a-0037	B.72	147.435500	147.868875		[silence]	[silence]
sw3426B-ms98-a-0037	B.72	147.868875	148.389250		Yeah	yeah
sw3426B-ms98-a-0037	B.72	148.389250	148.910125		that	that
sw3426B-ms98-a-0037	B.72	148.910125	149.169125		that	that
sw3426B-ms98-a-0037	B.72	149.169125	149.391375		was	was
sw3426B-ms98-a-0037	B.72	149.391375	149.765500		[laughter]	[laughter]
sw3426B-ms98-a-0037	B.72	149.765500	150.045500		that	that
sw3426B-ms98-a-0037	B.72	150.045500	150.296750		was	was
sw3426B-ms98-a-0037	B.74	150.296750	151.579625		[laughter]	[laughter]
sw3426B-ms98-a-0037	B.74	151.579625	151.993750		[silence]	[silence]
sw3426B-ms98-a-0038	B.74	151.993750	153.023375		[silence]	[silence]
sw3426B-ms98-a-0039	B.74	153.023375	153.376625		[silence]	[silence]
sw3426B-ms98-a-0039	B.74	153.376625	153.623375		What	what
sw3426B-ms98-a-0039	B.74	153.623375	153.887125		was	was
sw3426B-ms98-a-0039	B.76	153.887125	154.313875		[silence]	[silence]
sw3426B-ms98-a-0040	B.76	154.313875	155.508375		[silence]	[silence]
sw3426B-ms98-a-0041	B.76	155.508375	155.974000		[silence]	[silence]
sw3426B-ms98-a-0041	B.76	155.974000	156.548375		Oh	oh
sw3426B-ms98-a-0041	B.76	156.548375	156.678375		I	i
sw3426B-ms98-a-0041	B.76	156.678375	156.878375		don't	don't
sw3426B-ms98-a-0041	B.76	156.878375	157.329750		know	know
sw3426B-ms98-a-0041	B.78	157.329750	157.729250		[silence]	[silence]
sw3426B-ms98-a-0042	B.78	157.729250	158.339125		[silence]	[silence]
sw3426B-ms98-a-0042	B.78	158.339125	158.932625		Really	really
sw3426B-ms98-a-0042	B.80	158.932625	159.372500		[silence]	[silence]
sw3426B-ms98-a-0043	B.80	159.372500	161.229375		[silence]	[silence]
sw3426B-ms98-a-0044	B.80	161.229375	161.664875		[silence]	[silence]
sw3426B-ms98-a-0044	B.80	161.664875	162.020125		Oh	oh
sw3426B-ms98-a-0044	B.80	162.020125	162.562500		[laughter]	[laughter]
sw3426B-ms98-a-0044	B.80	162.562500	162.649375		The	the
sw3426B-ms98-a-0044	B.80	162.649375	162.989375		last	last
sw3426B-ms98-a-0044	B.80	162.989375	163.349375		scary	scary
sw3426B-ms98-a-0044	B.80	163.349375	163.589375		thing	thing
sw3426B-ms98-a-0044	B.80	163.589375	163.689375		I	i
sw3426B-ms98-a-0044	B.80	163.689375	163.929375		saw	saw
sw3426B-ms98-a-0044	B.80	163.929375	164.149375		was	was
sw3426B-ms98-a-0044	B.80	164.149375	164.670000		MISERY	Misery
sw3426B-ms98-a-0044	B.82	164.670000	165.134250		[silence]	[silence]
sw3426B-ms98-a-0045	B.82	165.134250	166.667125		[silence]	[silence]
sw3426B-ms98-a-0046	B.82	166.667125	167.122500		[silence]	[silence]
sw3426B-ms98-a-0046	B.82	167.122500	167.300125	<DEL>	---	i
sw3426B-ms98-a-0046	B.82	167.300125	167.804875		[silence]	[silence]
sw3426B-ms98-a-0046	B.82	167.804875	168.027125		That	that
sw3426B-ms98-a-0046	B.82	168.027125	168.517125		scared	scared
sw3426B-ms98-a-0046	B.82	168.517125	168.677125		me	me
sw3426B-ms98-a-0046	B.82	168.677125	168.847125		to	to
sw3426B-ms98-a-0046	B.82	168.847125	169.207125		death	death
sw3426B-ms98-a-0046	B.82	169.207125	169.377125		and	and
sw3426B-ms98-a-0046	B.82	169.377125	169.537125		I	i
sw3426B-ms98-a-0046	B.82	169.537125	169.957125		watched	watched
sw3426B-ms98-a-0046	B.82	169.957125	170.057125		it	it
sw3426B-ms98-a-0046	B.82	170.057125	170.197125		at	at
sw3426B-ms98-a-0046	B.82	170.197125	170.247125		a	a
sw3426B-ms98-a-0046	B.82	170.247125	170.557125		friend's	friend's
sw3426B-ms98-a-0046	B.82	170.557125	170.837125		house	house
sw3426B-ms98-a-0046	B.82	170.837125	171.037125		on	on
sw3426B-ms98-a-0046	B.82	171.037125	171.662875		video	video
sw3426B-ms98-a-0046	B.82	171.662875	172.067625		and	and
sw3426B-ms98-a-0046	B.82	172.067625	172.377125		I	i
sw3426B-ms98-a-0046	B.82	172.377125	172.577125		was	was
sw3426B-ms98-a-0046	B.82	172.577125	172.773875		just	just
sw3426B-ms98-a-0046	B.84	172.773875	173.075250		[silence]	[silence]
sw3426B-ms98-a-0046	B.84	173.075250	173.417125		Oh	oh
sw3426B-ms98-a-0046	B.84	173.417125	173.967125		yes	yes
sw3426B-ms98-a-0046	B.86	173.967125	174.067125		It	it
sw3426B-ms98-a-0046	B.86	174.067125	174.236000		was	was
sw3426B-ms98-a-0046	B.86	174.236000	174.892875		horrible	horrible
sw3426B-ms98-a-0046	B.86	174.892875	175.277125		[silence]	[silence]
sw3426B-ms98-a-0046	B.86	175.277125	175.439125		It	it
sw3426B-ms98-a-0046	B.86	175.439125	175.617125		was	was
sw3426B-ms98-a-0046	B.86	175.617125	176.099125		so	so
sw3426B-ms98-a-0046	B.86	176.099125	176.705750		awful	awful
sw3426B-ms98-a-0046	B.88	176.705750	178.351500		[silence]	[silence]
sw3426B-ms98-a-0047	B.88	178.351500	180.059625		[silence]	[silence]
sw3426B-ms98-a-0048	B.88	180.059625	180.546500		[silence]	[silence]
sw3426B-ms98-a-0048	B.88	180.546500	181.095625		Really	really
sw3426B-ms98-a-0048	B.90	181.095625	181.800000		[silence]	[silence]
sw3426B-ms98-a-0049	B.90	181.800000	182.469875		[silence]	[silence]
sw3426B-ms98-a-0049	B.90	182.469875	182.588000		I	i
sw3426B-ms98-a-0049	B.90	182.588000	182.850000		like	like
sw3426B-ms98-a-0049	B.90	182.850000	183.120000		that	that
sw3426B-ms98-a-0049	B.90	183.120000	183.530000		too	too
sw3426B-ms98-a-0049	B.92	183.530000	183.710000		I	i
sw3426B-ms98-a-0049	B.92	183.710000	183.960000		like	like
sw3426B-ms98-a-0049	B.92	183.960000	184.240000		funny	funny
sw3426B-ms98-a-0049	B.92	184.240000	184.680000		movies	movies
sw3426B-ms98-a-0049	B.92	184.680000	184.910000		and	and
sw3426B-ms98-a-0049	B.92	184.910000	185.010000		I	i
sw3426B-ms98-a-0049	B.92	185.010000	185.260000		like	like
sw3426B-ms98-a-0049	B.92	185.260000	185.700000		scary	scary
sw3426B-ms98-a-0049	B.92	185.700000	186.266250		movies	movies
sw3426B-ms98-a-0049	B.94	186.266250	186.783000		[silence]	[silence]
sw3426B-ms98-a-0050	B.94	186.783000	187.891875		[silence]	[silence]
sw3426B-ms98-a-0051	B.94	187.891875	188.380375		[silence]	[silence]
sw3426B-ms98-a-0051	B.94	188.380375	189.016375		Yeah	yeah
sw3426B-ms98-a-0051	B.96	189.016375	189.518875		[silence]	[silence]
sw3426B-ms98-a-0052	B.96	189.518875	189.816500		[silence]	[silence]
sw3426B-ms98-a-0052	B.96	189.816500	190.078875		I'm	i'm
sw3426B-ms98-a-0052	B.96	190.078875	190.318875		from	from
sw3426B-ms98-a-0052	B.96	190.318875	190.398875		New	New
sw3426B-ms98-a-0052	B.96	190.398875	190.923875		York	York
sw3426B-ms98-a-0052	B.98	190.923875	191.223125		[laughter]	[laughter]
sw3426B-ms98-a-0052	B.98	191.223125	191.627500		[silence]	[silence]
sw3426B-ms98-a-0053	B.98	191.627500	192.638750		[silence]	[silence]
sw3426B-ms98-a-0054	B.98	192.638750	193.133875		[silence]	[silence]
sw3426B-ms98-a-0054	B.98	193.133875	193.308750		Is	is
sw3426B-ms98-a-0054	B.98	193.308750	193.458750		he	he
sw3426B-ms98-a-0054	B.98	193.458750	194.034875		really	really
sw3426B-ms98-a-0054	B.100	194.034875	194.485875		[silence]	[silence]
sw3426B-ms98-a-0055	B.100	194.485875	195.701000		[silence]	[silence]
sw3426B-ms98-a-0056	B.100	195.701000	196.226750		[silence]	[silence]
sw3426B-ms98-a-0056	B.100	196.226750	197.238000		Oh	oh
sw3426B-ms98-a-0056	B.102	197.238000	197.502250		[silence]	[silence]
sw3426B-ms98-a-0057	B.102	197.502250	198.518625		[silence]	[silence]
sw3426B-ms98-a-0058	B.102	198.518625	198.922000		[silence]	[silence]
sw3426B-ms98-a-0058	B.102	198.922000	199.708625		Yeah	yeah
sw3426B-ms98-a-0058	B.102	199.708625	200.278625		yes	yes
sw3426B-ms98-a-0058	B.102	200.278625	200.368625		it's	it's
sw3426B-ms98-a-0058	B.102	200.368625	200.428625		so	so
sw3426B-ms98-a-0058	B.102	200.428625	200.688625		close	close
sw3426B-ms98-a-0058	B.102	200.688625	200.852875	<DEL>	---	because_1
sw3426B-ms98-a-0058	B.102	200.852875	201.088625		I'm	i'm
sw3426B-ms98-a-0058	B.102	201.088625	201.258625		from	from
sw3426B-ms98-a-0058	B.102	201.258625	201.448625		Long	Long
sw3426B-ms98-a-0058	B.102	201.448625	202.028625		Island	Island
sw3426B-ms98-a-0058	B.104	202.028625	202.388625		so	so
sw3426B-ms98-a-0058	B.104	202.388625	202.768625		that's	that's
sw3426B-ms98-a-0058	B.104	202.768625	203.179250		close	close
sw3426B-ms98-a-0058	B.104	203.179250	203.399875		you	you
sw3426B-ms98-a-0058	B.104	203.399875	203.601875		know	know
sw3426B-ms98-a-0058	B.104	203.601875	203.784875		that's	that's
sw3426B-ms98-a-0058	B.106	203.784875	204.508125		[silence]	[silence]
sw3426B-ms98-a-0058	B.106	204.508125	204.948625		more	more
sw3426B-ms98-a-0058	B.106	204.948625	205.438625		related	related
sw3426B-ms98-a-0058	B.106	205.438625	205.568625		to	to
sw3426B-ms98-a-0058	B.106	205.568625	205.778625		New	New
sw3426B-ms98-a-0058	B.106	205.778625	206.208625		Jersey	Jersey
sw3426B-ms98-a-0058	B.106	206.208625	206.398625		than	than
sw3426B-ms98-a-0058	B.106	206.398625	206.518625		it	it
sw3426B-ms98-a-0058	B.106	206.518625	206.728625		is	is
sw3426B-ms98-a-0058	B.106	206.728625	206.868625		to	to
sw3426B-ms98-a-0058	B.106	206.868625	207.138625		like	like
sw3426B-ms98-a-0058	B.106	207.138625	207.948625		Rochester	Rochester
sw3426B-ms98-a-0058	B.106	207.948625	208.108625		New	New
sw3426B-ms98-a-0058	B.106	208.108625	208.568625		York	York
sw3426B-ms98-a-0058	B.106	208.568625	208.974375		those	those
sw3426B-ms98-a-0058	B.106	208.974375	209.531750		[silence]	[silence]
sw3426B-ms98-a-0058	B.106	209.531750	209.768625		that	that
sw3426B-ms98-a-0058	B.106	209.768625	209.988625		kind	kind
sw3426B-ms98-a-0058	B.106	209.988625	210.138625		of	of
sw3426B-ms98-a-0058	B.106	210.138625	210.394000		thing	thing
sw3426B-ms98-a-0058	B.108	210.394000	210.752375		[silence]	[silence]
sw3426B-ms98-a-0059	B.108	210.752375	211.172750		[silence]	[silence]
sw3426B-ms98-a-0059	B.108	211.172750	211.382375		Yeah	yeah
sw3426B-ms98-a-0059	B.108	211.382375	212.042375		different	different
sw3426B-ms98-a-0059	B.108	212.042375	212.272625		it's	it's
sw3426B-ms98-a-0059	B.110	212.272625	212.939375		[silence]	[silence]
sw3426B-ms98-a-0059	B.110	212.939375	213.232375		it's	it's
sw3426B-ms98-a-0059	B.110	213.232375	213.762375		different	different
sw3426B-ms98-a-0059	B.110	213.762375	213.972375		yeah	yeah
sw3426B-ms98-a-0059	B.110	213.972375	214.086875		I	i
sw3426B-ms98-a-0059	B.110	214.086875	214.668000		guess	guess
sw3426B-ms98-a-0059	B.112	214.668000	214.956875		[silence]	[silence]
sw3426B-ms98-a-0060	B.112	214.956875	219.092625		[silence]	[silence]
sw3426B-ms98-a-0061	B.112	219.092625	219.523750		[silence]	[silence]
sw3426B-ms98-a-0061	B.112	219.523750	219.971750		Oh	oh
sw3426B-ms98-a-0061	B.114	219.971750	220.499250		[silence]	[silence]
sw3426B-ms98-a-0062	B.114	220.499250	221.073500		[silence]	[silence]
sw3426B-ms98-a-0062	B.114	221.073500	221.617625		Really	really
sw3426B-ms98-a-0062	B.116	221.617625	222.151375		[silence]	[silence]
sw3426B-ms98-a-0063	B.116	222.151375	226.000750		[silence]	[silence]
sw3426B-ms98-a-0064	B.116	226.000750	226.494625		[silence]	[silence]
sw3426B-ms98-a-0064	B.116	226.494625	227.170875		Really	really
sw3426B-ms98-a-0064	B.116	227.170875	227.423125		[silence]	[silence]
sw3426B-ms98-a-0064	B.116	227.423125	227.560750		and	and
sw3426B-ms98-a-0064	B.116	227.560750	227.660750		they	they
sw3426B-ms98-a-0064	B.116	227.660750	227.720750		were	were
sw3426B-ms98-a-0064	B.116	227.720750	227.850750		all	all
sw3426B-ms98-a-0064	B.116	227.850750	228.000750		from	from
sw3426B-ms98-a-0064	B.116	228.000750	228.120750		New	New
sw3426B-ms98-a-0064	B.116	228.120750	228.698375		Jersey	Jersey
sw3426B-ms98-a-0064	B.118	228.698375	229.135250		[silence]	[silence]
sw3426B-ms98-a-0064	B.118	229.135250	229.535625	<SUB>	Um	hum
sw3426B-ms98-a-0064	B.120	229.535625	229.988875		[silence]	[silence]
sw3426B-ms98-a-0065	B.120	229.988875	238.726625		[silence]	[silence]
sw3426B-ms98-a-0066	B.120	238.726625	239.191125		[silence]	[silence]
sw3426B-ms98-a-0066	B.120	239.191125	239.757000		Really	really
sw3426B-ms98-a-0066	B.122	239.757000	240.073625		[silence]	[silence]
sw3426B-ms98-a-0066	B.122	240.073625	240.730125	<DEL>	---	yeah
sw3426B-ms98-a-0066	B.122	240.730125	241.005375		[silence]	[silence]
sw3426B-ms98-a-0067	B.122	241.005375	241.755375		[silence]	[silence]
sw3426B-ms98-a-0067	B.122	241.755375	242.140500	<SUB>	Um	huh
sw3426B-ms98-a-0067	B.124	242.140500	242.508625		[silence]	[silence]
sw3426B-ms98-a-0068	B.124	242.508625	243.528000		[silence]	[silence]
sw3426B-ms98-a-0069	B.124	243.528000	243.929125		[silence]	[silence]
sw3426B-ms98-a-0069	B.124	243.929125	244.138000		When	when
sw3426B-ms98-a-0069	B.124	244.138000	244.268000		did	did
sw3426B-ms98-a-0069	B.124	244.268000	244.368000		you	you
sw3426B-ms98-a-0069	B.124	244.368000	244.568000		live	live
sw3426B-ms98-a-0069	B.124	244.568000	244.808500		there	there
sw3426B-ms98-a-0069	B.126	244.808500	245.174250		[silence]	[silence]
sw3426B-ms98-a-0070	B.126	245.174250	246.214250		[silence]	[silence]
sw3426B-ms98-a-0071	B.126	246.214250	246.602000		[silence]	[silence]
sw3426B-ms98-a-0071	B.126	246.602000	246.644250		Oh	oh
sw3426B-ms98-a-0071	B.126	246.644250	246.724250		yeah	yeah
sw3426B-ms98-a-0071	B.128	246.724250	246.844250	<DEL>	---	well
sw3426B-ms98-a-0071	B.128	246.844250	246.884250		I	i
sw3426B-ms98-a-0071	B.128	246.884250	247.024250		was	was
sw3426B-ms98-a-0071	B.128	247.024250	247.084250		in	in
sw3426B-ms98-a-0071	B.128	247.084250	247.144250		New	New
sw3426B-ms98-a-0071	B.128	247.144250	247.264250		York	York
sw3426B-ms98-a-0071	B.128	247.264250	247.334250		in	in
sw3426B-ms98-a-0071	B.128	247.334250	247.394250		the	the
sw3426B-ms98-a-0071	B.128	247.394250	247.624750		sixties	sixties
sw3426B-ms98-a-0071	B.130	247.624750	248.314250		[laughter]	[laughter]
sw3426B-ms98-a-0071	B.130	248.314250	248.594250	<DEL>	---	yeah
sw3426B-ms98-a-0071	B.130	248.594250	251.513125		[silence]	[silence]
sw3426B-ms98-a-0072	B.130	251.513125	255.482000		[silence]	[silence]
sw3426B-ms98-a-0073	B.130	255.482000	256.000125		[silence]	[silence]
sw3426B-ms98-a-0073	B.130	256.000125	256.102000		Are	are
sw3426B-ms98-a-0073	B.130	256.102000	256.252000		you	you
sw3426B-ms98-a-0073	B.130	256.252000	256.422000		from	from
sw3426B-ms98-a-0073	B.130	256.422000	256.862375		Texas	Texas
sw3426B-ms98-a-0073	B.132	256.862375	257.351375		[silence]	[silence]
sw3426B-ms98-a-0074	B.132	257.351375	259.079500		[silence]	[silence]
sw3426B-ms98-a-0075	B.132	259.079500	259.508375		[silence]	[silence]
sw3426B-ms98-a-0075	B.132	259.508375	260.051750		Oh	oh
sw3426B-ms98-a-0075	B.132	260.051750	260.653250		yeah	yeah
sw3426B-ms98-a-0075	B.134	260.653250	261.265500		[silence]	[silence]
sw3426B-ms98-a-0076	B.134	261.265500	261.944375		[silence]	[silence]
sw3426B-ms98-a-0076	B.134	261.944375	262.821875		Oh	oh
sw3426B-ms98-a-0076	B.134	262.821875	263.518500		yeah	yeah
sw3426B-ms98-a-0076	B.136	263.518500	263.952750		[silence]	[silence]
sw3426B-ms98-a-0077	B.136	263.952750	267.322625		[silence]	[silence]
sw3426B-ms98-a-0078	B.136	267.322625	267.855250		[silence]	[silence]
sw3426B-ms98-a-0078	B.136	267.855250	268.015250		It	it
sw3426B-ms98-a-0078	B.136	268.015250	268.448000		is	is
sw3426B-ms98-a-0078	B.136	268.448000	268.745625		[silence]	[silence]
sw3426B-ms98-a-0078	B.136	268.745625	269.032625		it	it
sw3426B-ms98-a-0078	B.136	269.032625	269.439125		is	is
sw3426B-ms98-a-0078	B.136	269.439125	269.729250		[silence]	[silence]
sw3426B-ms98-a-0078	B.136	269.729250	270.355125		yeah	yeah
sw3426B-ms98-a-0078	B.138	270.355125	270.989500		[silence]	[silence]
sw3426B-ms98-a-0079	B.138	270.989500	271.839500		[silence]	[silence]
sw3426B-ms98-a-0079	B.138	271.839500	272.089500		I'm	i'm
sw3426B-ms98-a-0079	B.138	272.089500	272.399500		used	used
sw3426B-ms98-a-0079	B.138	272.399500	272.639500		to	to
sw3426B-ms98-a-0079	B.138	272.639500	272.749500		it	it
sw3426B-ms98-a-0079	B.138	272.749500	273.219500		now	now
sw3426B-ms98-a-0079	B.138	273.219500	273.699500		So	so
sw3426B-ms98-a-0079	B.138	273.699500	273.839500		I	i
sw3426B-ms98-a-0079	B.138	273.839500	274.093625		like	like
sw3426B-ms98-a-0079	B.140	274.093625	274.633500		[silence]	[silence]
sw3426B-ms98-a-0080	B.140	274.633500	275.645625		[silence]	[silence]
sw3426B-ms98-a-0081	B.140	275.645625	276.166375		[silence]	[silence]
sw3426B-ms98-a-0081	B.140	276.166375	276.587375	<SUB>	Um	hum
sw3426B-ms98-a-0081	B.142	276.587375	277.336750		[silence]	[silence]
sw3426B-ms98-a-0082	B.142	277.336750	278.234375		[silence]	[silence]
sw3426B-ms98-a-0082	B.142	278.234375	278.406750		Oh	oh
sw3426B-ms98-a-0082	B.142	278.406750	278.806750		yes	yes
sw3426B-ms98-a-0082	B.142	278.806750	278.906750		it	it
sw3426B-ms98-a-0082	B.142	278.906750	279.356750		was	was
sw3426B-ms98-a-0082	B.142	279.356750	279.756750		Because	because
sw3426B-ms98-a-0082	B.142	279.756750	279.906750		we're	we're
sw3426B-ms98-a-0082	B.142	279.906750	280.056750		here	here
sw3426B-ms98-a-0082	B.142	280.056750	280.616750		eighteen	eighteen
sw3426B-ms98-a-0082	B.142	280.616750	281.055875		years	years
sw3426B-ms98-a-0082	B.144	281.055875	281.444500		[silence]	[silence]
sw3426B-ms98-a-0083	B.144	281.444500	282.064500		[silence]	[silence]
sw3426B-ms98-a-0083	B.144	282.064500	282.575875		and	and
sw3426B-ms98-a-0083	B.144	282.575875	282.794250		[silence]	[silence]
sw3426B-ms98-a-0083	B.144	282.794250	282.914500		you	you
sw3426B-ms98-a-0083	B.144	282.914500	283.084500		can	can
sw3426B-ms98-a-0083	B.144	283.084500	283.614500		imagine	imagine
sw3426B-ms98-a-0083	B.144	283.614500	283.724500		what	what
sw3426B-ms98-a-0083	B.144	283.724500	284.124500		Plano	Plano
sw3426B-ms98-a-0083	B.144	284.124500	284.314500		was	was
sw3426B-ms98-a-0083	B.144	284.314500	284.554500		like	like
sw3426B-ms98-a-0083	B.144	284.554500	284.974500		eighteen	eighteen
sw3426B-ms98-a-0083	B.144	284.974500	285.274500		years	years
sw3426B-ms98-a-0083	B.144	285.274500	285.677750		ago	ago
sw3426B-ms98-a-0083	B.146	285.677750	286.053875		[silence]	[silence]
sw3426B-ms98-a-0084	B.146	286.053875	286.507875		[silence]	[silence]
sw3426B-ms98-a-0084	B.146	286.507875	286.559625		It	it
sw3426B-ms98-a-0084	B.146	286.559625	286.749875		was	was
sw3426B-ms98-a-0084	B.146	286.749875	286.956625		[silence]	[silence]
sw3426B-ms98-a-0084	B.146	286.956625	287.343875		very	very
sw3426B-ms98-a-0084	B.146	287.343875	287.980250		difficult	difficult
sw3426B-ms98-a-0084	B.148	287.980250	288.711875		[silence]	[silence]
sw3426B-ms98-a-0085	B.148	288.711875	289.383000		[silence]	[silence]
sw3426B-ms98-a-0085	B.148	289.383000	289.631875		Yeah	yeah
sw3426B-ms98-a-0085	B.148	289.631875	289.691875		it	it
sw3426B-ms98-a-0085	B.148	289.691875	289.981875		was	was
sw3426B-ms98-a-0085	B.148	289.981875	290.231875		very	very
sw3426B-ms98-a-0085	B.148	290.231875	290.461875		very	very
sw3426B-ms98-a-0085	B.148	290.461875	291.081875		difficult	difficult
sw3426B-ms98-a-0085	B.148	291.081875	291.201875		I	i
sw3426B-ms98-a-0085	B.148	291.201875	291.441875		didn't	didn't
sw3426B-ms98-a-0085	B.148	291.441875	291.701875		even	even
sw3426B-ms98-a-0085	B.148	291.701875	291.971875		want	want
sw3426B-ms98-a-0085	B.148	291.971875	292.061875		to	to
sw3426B-ms98-a-0085	B.148	292.061875	292.353750		talk	talk
sw3426B-ms98-a-0085	B.150	292.353750	292.842125		[silence]	[silence]
sw3426B-ms98-a-0086	B.150	292.842125	293.495875		[silence]	[silence]
sw3426B-ms98-a-0086	B.150	293.495875	293.896000		Yeah	yeah
sw3426B-ms98-a-0086	B.152	293.896000	295.045000		[silence]	[silence]
sw3426B-ms98-a-0087	B.152	295.045000	295.509500		[silence]	[silence]
sw3426B-ms98-a-0087	B.152	295.509500	295.509500		yeah	yeah
sw3426B-ms98-a-0087	B.152	295.509500	295.847500	<DEL>	---	so
sw3426B-ms98-a-0087	B.152	295.847500	296.336375		[silence]	[silence]
sw3426B-ms98-a-0088	B.152	296.336375	298.626000		[silence]	[silence]
