sw3425A-ms98-a-0001	A.1	0.000000	0.055125		[silence]	[silence]
sw3425A-ms98-a-0002	A.1	0.055125	0.365125		[silence]	[silence]
sw3425A-ms98-a-0002	A.1	0.365125	0.585125		Hi	hi
sw3425A-ms98-a-0002	A.1	0.585125	0.695125		my	my
sw3425A-ms98-a-0002	A.1	0.695125	0.925125		name	name
sw3425A-ms98-a-0002	A.1	0.925125	1.045125		is	is
sw3425A-ms98-a-0002	A.1	1.045125	1.405125		Donna	Donna
sw3425A-ms98-a-0002	A.1	1.405125	1.495125		and	and
sw3425A-ms98-a-0002	A.1	1.495125	1.665125		I'm	i'm
sw3425A-ms98-a-0002	A.1	1.665125	1.935125	<SUB>	calling	callin[g]-
sw3425A-ms98-a-0002	A.1	1.935125	2.215125		calling	calling
sw3425A-ms98-a-0002	A.1	2.215125	2.435125		from	from
sw3425A-ms98-a-0002	A.1	2.435125	2.685125		Plano	Plano
sw3425A-ms98-a-0002	A.1	2.685125	3.259250		Texas	Texas
sw3425A-ms98-a-0002	A.3	3.259250	3.259250	<INS>	Oh	---
sw3425A-ms98-a-0002	A.3	3.259250	3.655250		[silence]	[silence]
sw3425A-ms98-a-0003	A.3	3.655250	5.429750		[silence]	[silence]
sw3425A-ms98-a-0004	A.3	5.429750	5.785375		[silence]	[silence]
sw3425A-ms98-a-0004	A.3	5.785375	6.225000		[noise]	[noise]
sw3425A-ms98-a-0004	A.3	6.225000	6.587375		okay	okay
sw3425A-ms98-a-0004	A.3	6.587375	6.986625		[silence]	[silence]
sw3425A-ms98-a-0004	A.3	6.986625	7.458375		um	um
sw3425A-ms98-a-0004	A.3	7.458375	7.893625		[silence]	[silence]
sw3425A-ms98-a-0004	A.3	7.893625	8.281125		I	i
sw3425A-ms98-a-0004	A.3	8.281125	8.730125		um	um
sw3425A-ms98-a-0004	A.3	8.730125	9.419750		[silence]	[silence]
sw3425A-ms98-a-0004	A.3	9.419750	9.779750		find	find
sw3425A-ms98-a-0004	A.3	9.779750	10.679250		exercise	exercise
sw3425A-ms98-a-0004	A.3	10.679250	10.781000		[silence]	[silence]
sw3425A-ms98-a-0004	A.3	10.781000	10.979750		kind	kind
sw3425A-ms98-a-0004	A.3	10.979750	11.059750		of	of
sw3425A-ms98-a-0004	A.3	11.059750	11.119750		a	a
sw3425A-ms98-a-0004	A.3	11.119750	11.589750		task	task
sw3425A-ms98-a-0004	A.3	11.589750	11.689750		I	i
sw3425A-ms98-a-0004	A.3	11.689750	12.039750		guess	guess
sw3425A-ms98-a-0004	A.3	12.039750	12.225375		I'd	i'd
sw3425A-ms98-a-0004	A.3	12.225375	12.614625		say	say
sw3425A-ms98-a-0004	A.3	12.614625	12.944125		[silence]	[silence]
sw3425A-ms98-a-0004	A.3	12.944125	13.177750		I	i
sw3425A-ms98-a-0004	A.3	13.177750	13.305375		go	go
sw3425A-ms98-a-0004	A.3	13.305375	13.407000		to	to
sw3425A-ms98-a-0004	A.3	13.407000	13.712500		aerobics	aerobics
sw3425A-ms98-a-0004	A.3	13.712500	13.889500		two	two
sw3425A-ms98-a-0004	A.3	13.889500	14.119750		days	days
sw3425A-ms98-a-0004	A.3	14.119750	14.199750		a	a
sw3425A-ms98-a-0004	A.3	14.199750	14.583750		week	week
sw3425A-ms98-a-0004	A.3	14.583750	15.028125		[silence]	[silence]
sw3425A-ms98-a-0004	A.3	15.028125	15.214625		but	but
sw3425A-ms98-a-0004	A.3	15.214625	15.327625		I	i
sw3425A-ms98-a-0004	A.3	15.327625	15.529750		also	also
sw3425A-ms98-a-0004	A.3	15.529750	15.839750		have	have
sw3425A-ms98-a-0004	A.3	15.839750	16.115625		three	three
sw3425A-ms98-a-0004	A.3	16.115625	16.459750		kids	kids
sw3425A-ms98-a-0004	A.3	16.459750	16.619750		at	at
sw3425A-ms98-a-0004	A.3	16.619750	16.868750		home	home
sw3425A-ms98-a-0004	A.3	16.868750	17.019375		[silence]	[silence]
sw3425A-ms98-a-0004	A.3	17.019375	17.109750		so	so
sw3425A-ms98-a-0004	A.3	17.109750	17.269750		they	they
sw3425A-ms98-a-0004	A.3	17.269750	17.389750		[silence]	[silence]
sw3425A-ms98-a-0004	A.3	17.389750	17.539750		keep	keep
sw3425A-ms98-a-0004	A.3	17.539750	17.599750		me	me
sw3425A-ms98-a-0004	A.3	17.599750	17.939750		pretty	pretty
sw3425A-ms98-a-0004	A.3	17.939750	18.353750		busy	busy
sw3425A-ms98-a-0004	A.5	18.353750	18.915250		[silence]	[silence]
sw3425A-ms98-a-0005	A.5	18.915250	19.335250		[silence]	[silence]
sw3425A-ms98-a-0005	A.5	19.335250	19.715250	<SUB>	Yeah	yes
sw3425A-ms98-a-0005	A.5	19.715250	19.875250	<SUB>	that	it
sw3425A-ms98-a-0005	A.5	19.875250	19.955250		[silence]	[silence]
sw3425A-ms98-a-0005	A.5	19.955250	20.105250		gives	gives
sw3425A-ms98-a-0005	A.5	20.105250	20.285250		me	me
sw3425A-ms98-a-0005	A.5	20.285250	20.555250		plenty	plenty
sw3425A-ms98-a-0005	A.5	20.555250	20.615250		of	of
sw3425A-ms98-a-0005	A.5	20.615250	21.089375		exercise	exercise
sw3425A-ms98-a-0005	A.5	21.089375	21.176000		but	but
sw3425A-ms98-a-0005	A.5	21.176000	21.419875		I	i
sw3425A-ms98-a-0005	A.5	21.419875	21.808375		enjoy	enjoy
sw3425A-ms98-a-0005	A.5	21.808375	22.095250		um	um
sw3425A-ms98-a-0005	A.5	22.095250	22.215250		[silence]	[silence]
sw3425A-ms98-a-0005	A.5	22.215250	22.555875		[noise]	[noise]
sw3425A-ms98-a-0005	A.5	22.555875	23.060250		walking	walking
sw3425A-ms98-a-0005	A.5	23.060250	23.263625		[silence]	[silence]
sw3425A-ms98-a-0005	A.5	23.263625	24.062250		outside	outside
sw3425A-ms98-a-0005	A.5	24.062250	24.375250		and	and
sw3425A-ms98-a-0005	A.5	24.375250	24.925250		bicycling	bicycling
sw3425A-ms98-a-0005	A.5	24.925250	25.095250		once	once
sw3425A-ms98-a-0005	A.5	25.095250	25.165250		in	in
sw3425A-ms98-a-0005	A.5	25.165250	25.225250		a	a
sw3425A-ms98-a-0005	A.5	25.225250	25.365250		while	while
sw3425A-ms98-a-0005	A.5	25.365250	25.505250		with	with
sw3425A-ms98-a-0005	A.5	25.505250	25.644500		the	the
sw3425A-ms98-a-0005	A.5	25.644500	26.478250		family	family
sw3425A-ms98-a-0005	A.5	26.478250	26.758750		Excuse	excuse
sw3425A-ms98-a-0005	A.5	26.758750	26.961875		me	me
sw3425A-ms98-a-0005	A.5	26.961875	26.961875	<INS>	That's	---
sw3425A-ms98-a-0005	A.5	26.961875	26.961875	<INS>	fine	---
sw3425A-ms98-a-0005	A.5	26.961875	32.315250		[noise]	[noise]
sw3425A-ms98-a-0005	A.5	32.315250	32.395250		[vocalized-noise]	[vocalized-noise]
sw3425A-ms98-a-0005	A.5	32.395250	32.495250		And	and
sw3425A-ms98-a-0005	A.5	32.495250	33.056000		yourself	yourself
sw3425A-ms98-a-0005	A.7	33.056000	33.560125		[silence]	[silence]
sw3425A-ms98-a-0006	A.7	33.560125	35.380125		[silence]	[silence]
sw3425A-ms98-a-0006	A.7	35.380125	35.780125		[noise]	[noise]
sw3425A-ms98-a-0006	A.7	35.780125	38.320750		[silence]	[silence]
sw3425A-ms98-a-0007	A.7	38.320750	42.738250		[silence]	[silence]
sw3425A-ms98-a-0008	A.7	42.738250	44.628250		[silence]	[silence]
sw3425A-ms98-a-0008	A.7	44.628250	44.778250		[noise]	[noise]
sw3425A-ms98-a-0008	A.7	44.778250	45.148125	<SUB>	Uh-huh	um-hum
sw3425A-ms98-a-0008	A.7	45.148125	45.442000		[silence]	[silence]
sw3425A-ms98-a-0008	A.7	45.442000	45.668250		every	every
sw3425A-ms98-a-0008	A.7	45.668250	45.968250		morning	morning
sw3425A-ms98-a-0008	A.7	45.968250	46.228250		[silence]	[silence]
sw3425A-ms98-a-0008	A.7	46.228250	46.336125		Well	well
sw3425A-ms98-a-0008	A.7	46.336125	46.448250		my	my
sw3425A-ms98-a-0008	A.7	46.448250	46.858250		husband	husband
sw3425A-ms98-a-0008	A.7	46.858250	47.208250		swims	swims
sw3425A-ms98-a-0008	A.7	47.208250	47.408250		every	every
sw3425A-ms98-a-0008	A.7	47.408250	47.558250		day	day
sw3425A-ms98-a-0008	A.7	47.558250	47.738250		at	at
sw3425A-ms98-a-0008	A.7	47.738250	48.158250		lunch	lunch
sw3425A-ms98-a-0008	A.7	48.158250	48.338250		which	which
sw3425A-ms98-a-0008	A.7	48.338250	48.518250		he	he
sw3425A-ms98-a-0008	A.7	48.518250	48.938250		loves	loves
sw3425A-ms98-a-0008	A.7	48.938250	49.328250		doing	doing
sw3425A-ms98-a-0008	A.9	49.328250	49.528250	<DEL>	---	and
sw3425A-ms98-a-0008	A.9	49.528250	49.938250		[noise]	[noise]
sw3425A-ms98-a-0008	A.9	49.938250	50.046750		[silence]	[silence]
sw3425A-ms98-a-0009	A.9	50.046750	50.218750		[silence]	[silence]
sw3425A-ms98-a-0009	A.9	50.218750	50.686750		yeah	yeah
sw3425A-ms98-a-0009	A.9	50.686750	50.846750		he	he
sw3425A-ms98-a-0009	A.9	50.846750	51.086750		does	does
sw3425A-ms98-a-0009	A.9	51.086750	51.176750		it	it
sw3425A-ms98-a-0009	A.9	51.176750	51.426750		every	every
sw3425A-ms98-a-0009	A.9	51.426750	51.616750		day	day
sw3425A-ms98-a-0009	A.9	51.616750	51.756750		like	like
sw3425A-ms98-a-0009	A.9	51.756750	51.816750		a	a
sw3425A-ms98-a-0009	A.9	51.816750	52.236750		ritual	ritual
sw3425A-ms98-a-0009	A.9	52.236750	52.476750		Once	once
sw3425A-ms98-a-0009	A.9	52.476750	52.536750		in	in
sw3425A-ms98-a-0009	A.9	52.536750	52.576750		a	a
sw3425A-ms98-a-0009	A.9	52.576750	52.856750		while	while
sw3425A-ms98-a-0009	A.9	52.856750	52.986750		or	or
sw3425A-ms98-a-0009	A.9	52.986750	53.106750		if	if
sw3425A-ms98-a-0009	A.9	53.106750	53.186750		he	he
sw3425A-ms98-a-0009	A.9	53.186750	53.336750		has	has
sw3425A-ms98-a-0009	A.9	53.336750	53.396750		a	a
sw3425A-ms98-a-0009	A.9	53.396750	53.766750		business	business
sw3425A-ms98-a-0009	A.9	53.766750	54.196750		meeting	meeting
sw3425A-ms98-a-0009	A.9	54.196750	54.416750		or	or
sw3425A-ms98-a-0009	A.9	54.416750	54.546750		if	if
sw3425A-ms98-a-0009	A.9	54.546750	54.786750		he	he
sw3425A-ms98-a-0009	A.9	54.786750	55.316750		[noise]	[noise]
sw3425A-ms98-a-0009	A.9	55.316750	55.576750		um	um
sw3425A-ms98-a-0009	A.9	55.576750	55.846750		someone	someone
sw3425A-ms98-a-0009	A.9	55.846750	56.126750		invites	invites
sw3425A-ms98-a-0009	A.9	56.126750	56.216750		him	him
sw3425A-ms98-a-0009	A.9	56.216750	56.386750		to	to
sw3425A-ms98-a-0009	A.9	56.386750	56.712000		lunch	lunch
sw3425A-ms98-a-0009	A.9	56.712000	56.976750		he'll	he'll
sw3425A-ms98-a-0009	A.9	56.976750	57.136750		he'll	he'll
sw3425A-ms98-a-0009	A.9	57.136750	57.396750		not	not
sw3425A-ms98-a-0009	A.9	57.396750	57.636750		go	go
sw3425A-ms98-a-0009	A.9	57.636750	57.915000		but	but
sw3425A-ms98-a-0009	A.9	57.915000	58.318000		[noise]	[noise]
sw3425A-ms98-a-0009	A.9	58.318000	58.523000		he	he
sw3425A-ms98-a-0009	A.9	58.523000	58.875125		goes	goes
sw3425A-ms98-a-0009	A.9	58.875125	58.984375		[silence]	[silence]
sw3425A-ms98-a-0009	A.9	58.984375	59.216250		um	um
sw3425A-ms98-a-0009	A.9	59.216250	59.532125		every	every
sw3425A-ms98-a-0009	A.9	59.532125	59.637625		[silence]	[silence]
sw3425A-ms98-a-0009	A.9	59.637625	59.866750		every	every
sw3425A-ms98-a-0009	A.9	59.866750	60.359125		day	day
sw3425A-ms98-a-0009	A.9	60.359125	60.536750		and	and
sw3425A-ms98-a-0009	A.9	60.536750	60.706750		then	then
sw3425A-ms98-a-0009	A.9	60.706750	60.926875		he	he
sw3425A-ms98-a-0009	A.9	60.926875	61.025125		[silence]	[silence]
sw3425A-ms98-a-0010	A.9	61.025125	61.135125		[silence]	[silence]
sw3425A-ms98-a-0010	A.9	61.135125	61.380625		ru-	ru[ns]-
sw3425A-ms98-a-0010	A.9	61.380625	61.603125		he's	he's
sw3425A-ms98-a-0010	A.9	61.603125	61.775125		a	a
sw3425A-ms98-a-0010	A.9	61.775125	62.065125		runner	runner
sw3425A-ms98-a-0010	A.9	62.065125	62.245125		too	too
sw3425A-ms98-a-0010	A.9	62.245125	62.385125		He	he
sw3425A-ms98-a-0010	A.9	62.385125	62.680125		runs	runs
sw3425A-ms98-a-0010	A.9	62.680125	62.989000		[noise]	[noise]
sw3425A-ms98-a-0010	A.9	62.989000	63.285125		three	three
sw3425A-ms98-a-0010	A.9	63.285125	63.705125		mornings	mornings
sw3425A-ms98-a-0010	A.9	63.705125	63.785125		a	a
sw3425A-ms98-a-0010	A.9	63.785125	64.015125		week	week
sw3425A-ms98-a-0010	A.9	64.015125	64.115125		he	he
sw3425A-ms98-a-0010	A.9	64.115125	64.335125		gets	gets
sw3425A-ms98-a-0010	A.9	64.335125	64.445125		up	up
sw3425A-ms98-a-0010	A.9	64.445125	64.695125		about	about
sw3425A-ms98-a-0010	A.9	64.695125	65.035125		five	five
sw3425A-ms98-a-0010	A.9	65.035125	65.245125		and	and
sw3425A-ms98-a-0010	A.9	65.245125	65.665125		and	and
sw3425A-ms98-a-0010	A.11	65.665125	65.845125		does	does
sw3425A-ms98-a-0010	A.11	65.845125	66.105125		his	his
sw3425A-ms98-a-0010	A.11	66.105125	66.425125		his	his
sw3425A-ms98-a-0010	A.11	66.425125	66.860000		deal	deal
sw3425A-ms98-a-0010	A.11	66.860000	67.165125		[noise]	[noise]
sw3425A-ms98-a-0010	A.11	67.165125	67.445125		and	and
sw3425A-ms98-a-0010	A.11	67.445125	67.685125		some	some
sw3425A-ms98-a-0010	A.11	67.685125	67.965125		days	days
sw3425A-ms98-a-0010	A.11	67.965125	68.075125		he	he
sw3425A-ms98-a-0010	A.11	68.075125	68.583000		doesn't	doesn't
sw3425A-ms98-a-0010	A.11	68.583000	68.741125		[silence]	[silence]
sw3425A-ms98-a-0010	A.11	68.741125	68.835125		but	but
sw3425A-ms98-a-0010	A.11	68.835125	69.025125		then	then
sw3425A-ms98-a-0010	A.11	69.025125	69.285125		maybe	maybe
sw3425A-ms98-a-0010	A.11	69.285125	69.425125		he'll	he'll
sw3425A-ms98-a-0010	A.11	69.425125	69.745125		catch	catch
sw3425A-ms98-a-0010	A.11	69.745125	69.865125		up	up
sw3425A-ms98-a-0010	A.11	69.865125	69.985125		on	on
sw3425A-ms98-a-0010	A.11	69.985125	70.055125		the	the
sw3425A-ms98-a-0010	A.11	70.055125	70.455125		weekend	weekend
sw3425A-ms98-a-0010	A.11	70.455125	70.595125		and	and
sw3425A-ms98-a-0010	A.11	70.595125	70.735125		go	go
sw3425A-ms98-a-0010	A.11	70.735125	70.955125		for	for
sw3425A-ms98-a-0010	A.11	70.955125	71.015125		a	a
sw3425A-ms98-a-0010	A.11	71.015125	71.384000		run	run
sw3425A-ms98-a-0010	A.13	71.384000	71.845125		[noise]	[noise]
sw3425A-ms98-a-0010	A.13	71.845125	72.145125		And	and
sw3425A-ms98-a-0010	A.13	72.145125	72.486875		um	um
sw3425A-ms98-a-0010	A.13	72.486875	72.948625		[silence]	[silence]
sw3425A-ms98-a-0010	A.13	72.948625	73.165125		we	we
sw3425A-ms98-a-0010	A.15	73.165125	73.373125	<DEL>	---	ba[sically]-
sw3425A-ms98-a-0010	A.15	73.373125	73.621875		[silence]	[silence]
sw3425A-ms98-a-0011	A.15	73.621875	80.186125		[silence]	[silence]
sw3425A-ms98-a-0012	A.15	80.186125	80.656125		[silence]	[silence]
sw3425A-ms98-a-0012	A.15	80.656125	80.845625		[noise]	[noise]
sw3425A-ms98-a-0012	A.15	80.845625	81.610125		Oh	oh
sw3425A-ms98-a-0012	A.17	81.610125	82.176000		[silence]	[silence]
sw3425A-ms98-a-0013	A.17	82.176000	83.523875		[silence]	[silence]
sw3425A-ms98-a-0014	A.17	83.523875	83.763875		[silence]	[silence]
sw3425A-ms98-a-0014	A.17	83.763875	84.168125		[noise]	[noise]
sw3425A-ms98-a-0014	A.17	84.168125	84.257625		The	the
sw3425A-ms98-a-0014	A.17	84.257625	84.601250		[silence]	[silence]
sw3425A-ms98-a-0014	A.17	84.601250	84.741750		the	the
sw3425A-ms98-a-0014	A.17	84.741750	84.910375		[silence]	[silence]
sw3425A-ms98-a-0014	A.17	84.910375	85.013875		the	the
sw3425A-ms98-a-0014	A.17	85.013875	85.693875		bicycling	bicycling
sw3425A-ms98-a-0014	A.17	85.693875	85.793875		is	is
sw3425A-ms98-a-0014	A.17	85.793875	86.033875		nice	nice
sw3425A-ms98-a-0014	A.17	86.033875	86.473875		especially	especially
sw3425A-ms98-a-0014	A.17	86.473875	86.643875		with	with
sw3425A-ms98-a-0014	A.17	86.643875	86.713875		the	the
sw3425A-ms98-a-0014	A.17	86.713875	87.043875		weather	weather
sw3425A-ms98-a-0014	A.17	87.043875	87.343875		around	around
sw3425A-ms98-a-0014	A.17	87.343875	87.563875		here	here
sw3425A-ms98-a-0014	A.17	87.563875	87.703875		and	and
sw3425A-ms98-a-0014	A.17	87.703875	87.817375		I	i
sw3425A-ms98-a-0014	A.17	87.817375	88.136625		know	know
sw3425A-ms98-a-0014	A.17	88.136625	88.426250		um	um
sw3425A-ms98-a-0014	A.17	88.426250	89.288875		[silence]	[silence]
sw3425A-ms98-a-0014	A.17	89.288875	89.689500		uh	uh
sw3425A-ms98-a-0014	A.17	89.689500	89.924375		we	we
sw3425A-ms98-a-0014	A.17	89.924375	90.082625		[silence]	[silence]
sw3425A-ms98-a-0014	A.17	90.082625	90.315750		we	we
sw3425A-ms98-a-0014	A.17	90.315750	90.541750		both	both
sw3425A-ms98-a-0014	A.17	90.541750	90.693875		of	of
sw3425A-ms98-a-0014	A.17	90.693875	90.875000		my	my
sw3425A-ms98-a-0014	A.17	90.875000	91.130375		husband	husband
sw3425A-ms98-a-0014	A.17	91.130375	91.178000		and	and
sw3425A-ms98-a-0014	A.17	91.178000	91.298375		I	i
sw3425A-ms98-a-0014	A.17	91.298375	91.505375		both	both
sw3425A-ms98-a-0014	A.17	91.505375	91.663500		[silence]	[silence]
sw3425A-ms98-a-0015	A.17	91.663500	91.844875		[silence]	[silence]
sw3425A-ms98-a-0015	A.17	91.844875	92.013500		do	do
sw3425A-ms98-a-0015	A.17	92.013500	92.233500		it	it
sw3425A-ms98-a-0015	A.17	92.233500	92.613500		to	to
sw3425A-ms98-a-0015	A.17	92.613500	92.849000		just	just
sw3425A-ms98-a-0015	A.17	92.849000	93.475250		[noise]	[noise]
sw3425A-ms98-a-0015	A.17	93.475250	93.625875		keep	keep
sw3425A-ms98-a-0015	A.17	93.625875	93.814250		the	the
sw3425A-ms98-a-0015	A.17	93.814250	94.183500		pounds	pounds
sw3425A-ms98-a-0015	A.17	94.183500	94.413500		off	off
sw3425A-ms98-a-0015	A.17	94.413500	94.503500		We're	we're
sw3425A-ms98-a-0015	A.17	94.503500	94.793500		getting	getting
sw3425A-ms98-a-0015	A.17	94.793500	94.901500		up	up
sw3425A-ms98-a-0015	A.17	94.901500	95.053500		in	in
sw3425A-ms98-a-0015	A.17	95.053500	95.353500		age	age
sw3425A-ms98-a-0015	A.17	95.353500	95.433500		I	i
sw3425A-ms98-a-0015	A.17	95.433500	95.723500		guess	guess
sw3425A-ms98-a-0015	A.17	95.723500	95.848125		in	in
sw3425A-ms98-a-0015	A.17	95.848125	95.964875	<DEL>	---	uh
sw3425A-ms98-a-0015	A.17	95.964875	96.143500		our	our
sw3425A-ms98-a-0015	A.17	96.143500	96.373500		late	late
sw3425A-ms98-a-0015	A.17	96.373500	96.773500		thirties	thirties
sw3425A-ms98-a-0015	A.17	96.773500	97.033500		so	[laughter-so]
sw3425A-ms98-a-0015	A.17	97.033500	97.184250		we	[laughter-we]
sw3425A-ms98-a-0015	A.17	97.184250	97.409250		need	[laughter-need]
sw3425A-ms98-a-0015	A.17	97.409250	97.778250		to	[laughter-to]
sw3425A-ms98-a-0015	A.19	97.778250	98.623750		[silence]	[silence]
sw3425A-ms98-a-0015	A.19	98.623750	98.833500		keep	keep
sw3425A-ms98-a-0015	A.19	98.833500	99.483500		exercising	exercising
sw3425A-ms98-a-0015	A.19	99.483500	99.733500		just	just
sw3425A-ms98-a-0015	A.19	99.733500	99.833500		to	to
sw3425A-ms98-a-0015	A.19	99.833500	99.993500		be	be
sw3425A-ms98-a-0015	A.19	99.993500	100.242625		able	able
sw3425A-ms98-a-0015	A.19	100.242625	100.525125		to	to
sw3425A-ms98-a-0015	A.19	100.525125	100.798750	<SUB>	uh	um
sw3425A-ms98-a-0015	A.21	100.798750	102.656750		[silence]	[silence]
sw3425A-ms98-a-0016	A.21	102.656750	105.488500		[silence]	[silence]
sw3425A-ms98-a-0017	A.21	105.488500	106.816875		[silence]	[silence]
sw3425A-ms98-a-0017	A.21	106.816875	107.068500		Oh	oh
sw3425A-ms98-a-0017	A.21	107.068500	107.268250		I	i
sw3425A-ms98-a-0017	A.21	107.268250	107.828500		know	know
sw3425A-ms98-a-0017	A.23	107.828500	109.039250		[silence]	[silence]
sw3425A-ms98-a-0018	A.23	109.039250	109.559875		[silence]	[silence]
sw3425A-ms98-a-0018	A.23	109.559875	110.901625		[noise]	[noise]
sw3425A-ms98-a-0018	A.23	110.901625	111.600000		Yeah	yeah
sw3425A-ms98-a-0018	A.23	111.600000	111.716750		[silence]	[silence]
sw3425A-ms98-a-0018	A.23	111.716750	111.900750		I	i
sw3425A-ms98-a-0018	A.23	111.900750	112.111375		[silence]	[silence]
sw3425A-ms98-a-0018	A.23	112.111375	112.299750		go	go
sw3425A-ms98-a-0018	A.23	112.299750	112.409250		to	to
sw3425A-ms98-a-0018	A.23	112.409250	112.549250		this	this
sw3425A-ms98-a-0018	A.23	112.549250	112.969250		aerobics	aerobics
sw3425A-ms98-a-0018	A.23	112.969250	113.379250		class	class
sw3425A-ms98-a-0018	A.23	113.379250	113.619250		two	two
sw3425A-ms98-a-0018	A.23	113.619250	114.008125		mornings	mornings
sw3425A-ms98-a-0018	A.23	114.008125	114.166375		a	a
sw3425A-ms98-a-0018	A.23	114.166375	114.569250		week	week
sw3425A-ms98-a-0018	A.23	114.569250	114.699250		and	and
sw3425A-ms98-a-0018	A.23	114.699250	114.789250		I	i
sw3425A-ms98-a-0018	A.23	114.789250	115.079250		take	take
sw3425A-ms98-a-0018	A.23	115.079250	115.229250		my	my
sw3425A-ms98-a-0018	A.23	115.229250	115.469250		three	three
sw3425A-ms98-a-0018	A.23	115.469250	115.629250		year	year
sw3425A-ms98-a-0018	A.23	115.629250	115.789250		old	old
sw3425A-ms98-a-0018	A.23	115.789250	116.005375		with	with
sw3425A-ms98-a-0018	A.23	116.005375	116.095875		me	me
sw3425A-ms98-a-0018	A.23	116.095875	116.309250		There's	there's
sw3425A-ms98-a-0018	A.23	116.309250	116.479250		a	a
sw3425A-ms98-a-0018	A.23	116.479250	116.929250		nursery	nursery
sw3425A-ms98-a-0018	A.23	116.929250	117.299000		there	there
sw3425A-ms98-a-0018	A.23	117.299000	117.690750		[silence]	[silence]
sw3425A-ms98-a-0018	A.23	117.690750	117.879250		And	and
sw3425A-ms98-a-0018	A.23	117.879250	118.029250		it's	it's
sw3425A-ms98-a-0018	A.23	118.029250	118.269250		kind	kind
sw3425A-ms98-a-0018	A.23	118.269250	118.339250		of	of
sw3425A-ms98-a-0018	A.23	118.339250	118.709250		another	another
sw3425A-ms98-a-0018	A.23	118.709250	118.982625		day	day
sw3425A-ms98-a-0018	A.23	118.982625	119.212625		out	out
sw3425A-ms98-a-0018	A.23	119.212625	119.379250		for	for
sw3425A-ms98-a-0018	A.23	119.379250	119.934875		her	her
sw3425A-ms98-a-0018	A.25	119.934875	120.092000		[silence]	[silence]
sw3425A-ms98-a-0019	A.25	120.092000	120.277375		[silence]	[silence]
sw3425A-ms98-a-0019	A.25	120.277375	120.582000		to	to
sw3425A-ms98-a-0019	A.25	120.582000	120.742000		um	um
sw3425A-ms98-a-0019	A.25	120.742000	121.022000		have	have
sw3425A-ms98-a-0019	A.25	121.022000	121.242000		little	little
sw3425A-ms98-a-0019	A.25	121.242000	121.682000		friends	friends
sw3425A-ms98-a-0019	A.25	121.682000	121.847750		and	and
sw3425A-ms98-a-0019	A.25	121.847750	122.295875		[noise]	[noise]
sw3425A-ms98-a-0019	A.25	122.295875	122.712000		um	um
sw3425A-ms98-a-0019	A.25	122.712000	122.882375	<SUB>	I	i-
sw3425A-ms98-a-0019	A.25	122.882375	123.022000		[silence]	[silence]
sw3425A-ms98-a-0019	A.25	123.022000	123.182000		I	i
sw3425A-ms98-a-0019	A.25	123.182000	123.532000		enjoy	enjoy
sw3425A-ms98-a-0019	A.25	123.532000	123.622000		the	the
sw3425A-ms98-a-0019	A.25	123.622000	124.532000		socialization	socialization
sw3425A-ms98-a-0019	A.25	124.532000	124.722000		of	of
sw3425A-ms98-a-0019	A.25	124.722000	125.022000		it	it
sw3425A-ms98-a-0019	A.25	125.022000	125.132000		you	you
sw3425A-ms98-a-0019	A.25	125.132000	125.382000		know	know
sw3425A-ms98-a-0019	A.25	125.382000	125.712000		getting	getting
sw3425A-ms98-a-0019	A.25	125.712000	125.802000		to	to
sw3425A-ms98-a-0019	A.25	125.802000	126.002000		see	see
sw3425A-ms98-a-0019	A.25	126.002000	126.072000		the	the
sw3425A-ms98-a-0019	A.25	126.072000	126.362000		same	same
sw3425A-ms98-a-0019	A.25	126.362000	126.714500		women	women
sw3425A-ms98-a-0019	A.25	126.714500	126.902750		[silence]	[silence]
sw3425A-ms98-a-0019	A.25	126.902750	127.348750		every	every
sw3425A-ms98-a-0019	A.27	127.348750	127.864750		[noise]	[noise]
sw3425A-ms98-a-0019	A.27	127.864750	128.192000		morning	morning
sw3425A-ms98-a-0019	A.27	128.192000	128.462000		but	but
sw3425A-ms98-a-0019	A.27	128.462000	128.764625		um	um
sw3425A-ms98-a-0019	A.27	128.764625	129.407750		[noise]	[noise]
sw3425A-ms98-a-0019	A.27	129.407750	129.436500		[silence]	[silence]
sw3425A-ms98-a-0020	A.27	129.436500	129.500500		[silence]	[silence]
sw3425A-ms98-a-0020	A.27	129.500500	129.676500	<CONT>	there	there're
sw3425A-ms98-a-0020	A.27	129.676500	129.676500	<CONT>	are	+++
sw3425A-ms98-a-0020	A.27	129.676500	129.946500		some	some
sw3425A-ms98-a-0020	A.27	129.946500	130.396500		parts	parts
sw3425A-ms98-a-0020	A.27	130.396500	130.666500		during	during
sw3425A-ms98-a-0020	A.27	130.666500	130.826500		that	that
sw3425A-ms98-a-0020	A.27	130.826500	131.386500		exercise	exercise
sw3425A-ms98-a-0020	A.27	131.386500	131.526500		that	that
sw3425A-ms98-a-0020	A.27	131.526500	131.702000		I	i
sw3425A-ms98-a-0020	A.27	131.702000	131.961750		think	think
sw3425A-ms98-a-0020	A.27	131.961750	132.063500		[silence]	[silence]
sw3425A-ms98-a-0020	A.27	132.063500	132.210375		I	i
sw3425A-ms98-a-0020	A.27	132.210375	132.676500		cannot	cannot
sw3425A-ms98-a-0020	A.27	132.676500	132.786500		[silence]	[silence]
sw3425A-ms98-a-0020	A.27	132.786500	132.866500		do	do
sw3425A-ms98-a-0020	A.27	132.866500	133.376500		another	[laughter-another]
sw3425A-ms98-a-0020	A.29	133.376500	133.786500		second	[laughter-second]
sw3425A-ms98-a-0020	A.29	133.786500	133.946500		of	[laughter-of]
sw3425A-ms98-a-0020	A.29	133.946500	134.386500		this	[laughter-this]
sw3425A-ms98-a-0020	A.31	134.386500	136.003375		[silence]	[silence]
sw3425A-ms98-a-0021	A.31	136.003375	136.954250		[silence]	[silence]
sw3425A-ms98-a-0021	A.31	136.954250	137.233375		It	it
sw3425A-ms98-a-0021	A.31	137.233375	137.581250		is	is
sw3425A-ms98-a-0021	A.33	137.581250	138.319625		[silence]	[silence]
sw3425A-ms98-a-0022	A.33	138.319625	145.109625		[silence]	[silence]
sw3425A-ms98-a-0023	A.33	145.109625	145.334500		[silence]	[silence]
sw3425A-ms98-a-0023	A.33	145.334500	145.829625		[noise]	[noise]
sw3425A-ms98-a-0023	A.33	145.829625	146.129625		That's	that's
sw3425A-ms98-a-0023	A.33	146.129625	146.487750		true	true
sw3425A-ms98-a-0023	A.33	146.487750	146.593250		[silence]	[silence]
sw3425A-ms98-a-0023	A.33	146.593250	146.946750		that's	that's
sw3425A-ms98-a-0023	A.33	146.946750	147.268000		true	true
sw3425A-ms98-a-0023	A.35	147.268000	147.935875		[noise]	[noise]
sw3425A-ms98-a-0023	A.35	147.935875	148.212000		Well	well
sw3425A-ms98-a-0023	A.37	148.212000	149.178250		[silence]	[silence]
sw3425A-ms98-a-0023	A.37	149.178250	149.674125		Okay	okay
sw3425A-ms98-a-0023	A.37	149.674125	149.864000		well	well
sw3425A-ms98-a-0023	A.39	149.864000	150.082375		[silence]	[silence]
sw3425A-ms98-a-0023	A.39	150.082375	150.449625		Yes	yes
sw3425A-ms98-a-0023	A.39	150.449625	150.719625		thank	thank
sw3425A-ms98-a-0023	A.39	150.719625	150.799625		you	you
sw3425A-ms98-a-0023	A.39	150.799625	150.889625		for	for
sw3425A-ms98-a-0023	A.39	150.889625	151.753500		participating	participating
sw3425A-ms98-a-0023	A.41	151.753500	152.171625		[silence]	[silence]
sw3425A-ms98-a-0023	A.41	152.171625	152.379625		Thank	thank
sw3425A-ms98-a-0023	A.41	152.379625	152.522375		you	you
sw3425A-ms98-a-0023	A.41	152.522375	152.703250		[silence]	[silence]
sw3425A-ms98-a-0023	A.41	152.703250	152.912750		Bye	bye
sw3425A-ms98-a-0023	A.41	152.912750	154.273750		[noise]	[noise]
sw3425A-ms98-a-0023	A.41	154.273750	154.882000		[silence]	[silence]
