sw3405B-ms98-a-0001	A.2	0.000000	0.050000		[silence]	[silence]
sw3405B-ms98-a-0001	A.2	0.050000	0.420000		[noise]	[noise]
sw3405B-ms98-a-0001	A.2	0.420000	0.473500		[silence]	[silence]
sw3405B-ms98-a-0002	A.2	0.473500	11.006000		[silence]	[silence]
sw3405B-ms98-a-0003	A.2	11.006000	11.257125		[silence]	[silence]
sw3405B-ms98-a-0003	A.2	11.257125	11.636000		Well	well
sw3405B-ms98-a-0003	A.2	11.636000	11.666000		I	i
sw3405B-ms98-a-0003	A.2	11.666000	11.846000		have	have
sw3405B-ms98-a-0003	A.2	11.846000	11.936000		a	a
sw3405B-ms98-a-0003	A.2	11.936000	12.336000		town	town
sw3405B-ms98-a-0003	A.2	12.336000	12.666000		home	home
sw3405B-ms98-a-0003	A.2	12.666000	12.836000		so	so
sw3405B-ms98-a-0003	A.2	12.836000	12.946000		I	i
sw3405B-ms98-a-0003	A.2	12.946000	13.186000		don't	don't
sw3405B-ms98-a-0003	A.2	13.186000	13.376000		do	do
sw3405B-ms98-a-0003	A.2	13.376000	13.426000		a	a
sw3405B-ms98-a-0003	A.2	13.426000	13.656000		lot	lot
sw3405B-ms98-a-0003	A.2	13.656000	13.806000		of	of
sw3405B-ms98-a-0003	A.2	13.806000	14.196000		regular	regular
sw3405B-ms98-a-0003	A.2	14.196000	14.886000		maintenance	maintenance
sw3405B-ms98-a-0003	A.2	14.886000	15.076000		but	but
sw3405B-ms98-a-0003	A.2	15.076000	15.146000		I	i
sw3405B-ms98-a-0003	A.2	15.146000	15.396000		do	do
sw3405B-ms98-a-0003	A.2	15.396000	15.566000		have	have
sw3405B-ms98-a-0003	A.2	15.566000	15.626000		a	a
sw3405B-ms98-a-0003	A.2	15.626000	16.036000		large	large
sw3405B-ms98-a-0003	A.2	16.036000	16.486000		garden	garden
sw3405B-ms98-a-0003	A.2	16.486000	16.686000		out	out
sw3405B-ms98-a-0003	A.2	16.686000	16.796000		in	in
sw3405B-ms98-a-0003	A.2	16.796000	17.226000		back	back
sw3405B-ms98-a-0003	A.2	17.226000	17.426000		so	so
sw3405B-ms98-a-0003	A.2	17.426000	17.576000		we	we
sw3405B-ms98-a-0003	A.2	17.576000	17.786000		do	do
sw3405B-ms98-a-0003	A.2	17.786000	17.816000		a	a
sw3405B-ms98-a-0003	A.2	17.816000	18.076000		lot	lot
sw3405B-ms98-a-0003	A.2	18.076000	18.230375		of	of
sw3405B-ms98-a-0003	A.2	18.230375	18.663500		[noise]	[noise]
sw3405B-ms98-a-0003	A.2	18.663500	19.016000		things	things
sw3405B-ms98-a-0003	A.2	19.016000	19.146000		with	with
sw3405B-ms98-a-0003	A.2	19.146000	19.991750		perennials	perennials
sw3405B-ms98-a-0003	A.2	19.991750	20.383125		[silence]	[silence]
sw3405B-ms98-a-0004	A.2	20.383125	20.753125		[silence]	[silence]
sw3405B-ms98-a-0004	A.2	20.753125	21.363125		and	and
sw3405B-ms98-a-0004	A.2	21.363125	21.763125		uh	uh
sw3405B-ms98-a-0004	A.2	21.763125	22.133125		also	also
sw3405B-ms98-a-0004	A.2	22.133125	22.462625		a	a
sw3405B-ms98-a-0004	A.2	22.462625	22.944750		[silence]	[silence]
sw3405B-ms98-a-0004	A.2	22.944750	23.393125		few	few
sw3405B-ms98-a-0004	A.2	23.393125	24.008125		annual	annual
sw3405B-ms98-a-0004	A.2	24.008125	24.268125		[silence]	[silence]
sw3405B-ms98-a-0004	A.2	24.268125	24.842750		plants	plants
sw3405B-ms98-a-0004	A.2	24.842750	25.061250		[silence]	[silence]
sw3405B-ms98-a-0004	A.2	25.061250	25.714250		uh	uh
sw3405B-ms98-a-0004	A.2	25.714250	26.053250		[silence]	[silence]
sw3405B-ms98-a-0004	A.2	26.053250	26.393125		and	and
sw3405B-ms98-a-0004	A.2	26.393125	26.583125		then	then
sw3405B-ms98-a-0004	A.2	26.583125	26.843125		every	every
sw3405B-ms98-a-0004	A.2	26.843125	27.083125		year	year
sw3405B-ms98-a-0004	A.2	27.083125	27.173125		I	i
sw3405B-ms98-a-0004	A.2	27.173125	27.463125		grow	grow
sw3405B-ms98-a-0004	A.2	27.463125	27.523125		a	a
sw3405B-ms98-a-0004	A.2	27.523125	28.023125		garden	garden
sw3405B-ms98-a-0004	A.4	28.023125	28.311375		[silence]	[silence]
sw3405B-ms98-a-0005	A.4	28.311375	32.267250		[silence]	[silence]
sw3405B-ms98-a-0006	A.4	32.267250	32.755500		[silence]	[silence]
sw3405B-ms98-a-0006	A.4	32.755500	33.234750		Yes	yes
sw3405B-ms98-a-0006	A.6	33.234750	33.513750		[silence]	[silence]
sw3405B-ms98-a-0007	A.6	33.513750	36.115125		[silence]	[silence]
sw3405B-ms98-a-0008	A.6	36.115125	36.514250		[silence]	[silence]
sw3405B-ms98-a-0008	A.6	36.514250	37.355375		Um	um
sw3405B-ms98-a-0008	A.6	37.355375	37.573750		[silence]	[silence]
sw3405B-ms98-a-0008	A.6	37.573750	38.035125		we	we
sw3405B-ms98-a-0008	A.6	38.035125	38.525125		have	have
sw3405B-ms98-a-0008	A.6	38.525125	38.928000	<DEL>	---	n[o]-
sw3405B-ms98-a-0008	A.6	38.928000	39.565125		virtually	virtually
sw3405B-ms98-a-0008	A.6	39.565125	39.735125		no	no
sw3405B-ms98-a-0008	A.6	39.735125	40.105125		room	room
sw3405B-ms98-a-0008	A.6	40.105125	40.315125		out	out
sw3405B-ms98-a-0008	A.6	40.315125	40.415125		in	in
sw3405B-ms98-a-0008	A.6	40.415125	40.885125		front	front
sw3405B-ms98-a-0008	A.6	40.885125	40.985125		and	and
sw3405B-ms98-a-0008	A.6	40.985125	41.145125		then	then
sw3405B-ms98-a-0008	A.6	41.145125	41.255125		in	in
sw3405B-ms98-a-0008	A.6	41.255125	41.325125		the	the
sw3405B-ms98-a-0008	A.6	41.325125	41.705125		back	back
sw3405B-ms98-a-0008	A.6	41.705125	41.855125		I'd	i'd
sw3405B-ms98-a-0008	A.6	41.855125	42.085125		say	say
sw3405B-ms98-a-0008	A.6	42.085125	42.215125		we	we
sw3405B-ms98-a-0008	A.6	42.215125	42.395125		have	have
sw3405B-ms98-a-0008	A.6	42.395125	42.665125		about	about
sw3405B-ms98-a-0008	A.6	42.665125	42.775125		an	an
sw3405B-ms98-a-0008	A.6	42.775125	43.045125		eighth	eighth
sw3405B-ms98-a-0008	A.6	43.045125	43.105125		of	of
sw3405B-ms98-a-0008	A.6	43.105125	43.235125		an	an
sw3405B-ms98-a-0008	A.6	43.235125	43.806250		acre	acre
sw3405B-ms98-a-0008	A.8	43.806250	44.179000		[silence]	[silence]
sw3405B-ms98-a-0009	A.8	44.179000	44.659000		[silence]	[silence]
sw3405B-ms98-a-0009	A.8	44.659000	44.839000		and	and
sw3405B-ms98-a-0009	A.8	44.839000	44.959000		we	we
sw3405B-ms98-a-0009	A.8	44.959000	45.199000		pretty	pretty
sw3405B-ms98-a-0009	A.8	45.199000	45.449000		much	much
sw3405B-ms98-a-0009	A.8	45.449000	45.799000		fill	fill
sw3405B-ms98-a-0009	A.8	45.799000	45.889000		it	it
sw3405B-ms98-a-0009	A.8	45.889000	46.179000		up	up
sw3405B-ms98-a-0009	A.8	46.179000	46.415000		with	with
sw3405B-ms98-a-0009	A.8	46.415000	46.561000		[silence]	[silence]
sw3405B-ms98-a-0009	A.8	46.561000	46.930875		uh	uh
sw3405B-ms98-a-0009	A.8	46.930875	47.271250		[silence]	[silence]
sw3405B-ms98-a-0010	A.8	47.271250	47.641250		[silence]	[silence]
sw3405B-ms98-a-0010	A.8	47.641250	47.831250		like	like
sw3405B-ms98-a-0010	A.8	47.831250	47.921250		I	i
sw3405B-ms98-a-0010	A.8	47.921250	48.221250		said	said
sw3405B-ms98-a-0010	A.8	48.221250	48.911250		perennials	perennials
sw3405B-ms98-a-0010	A.8	48.911250	49.221250		things	things
sw3405B-ms98-a-0010	A.8	49.221250	49.391250		that	that
sw3405B-ms98-a-0010	A.8	49.391250	49.606250		aren't	aren't
sw3405B-ms98-a-0010	A.8	49.606250	49.768250		[silence]	[silence]
sw3405B-ms98-a-0010	A.8	49.768250	50.111250		don't	don't
sw3405B-ms98-a-0010	A.8	50.111250	50.201250		have	have
sw3405B-ms98-a-0010	A.8	50.201250	50.311250		to	to
sw3405B-ms98-a-0010	A.8	50.311250	50.601250		fool	fool
sw3405B-ms98-a-0010	A.8	50.601250	50.841250		with	with
sw3405B-ms98-a-0010	A.8	50.841250	51.071250		every	every
sw3405B-ms98-a-0010	A.8	51.071250	51.451250		year	year
sw3405B-ms98-a-0010	A.8	51.451250	51.621250		but	but
sw3405B-ms98-a-0010	A.8	51.621250	51.781250		then	then
sw3405B-ms98-a-0010	A.8	51.781250	51.951250		I've	i've
sw3405B-ms98-a-0010	A.8	51.951250	52.268125		got	got
sw3405B-ms98-a-0010	A.8	52.268125	52.751250		uh	uh
sw3405B-ms98-a-0010	A.8	52.751250	53.104250		[silence]	[silence]
sw3405B-ms98-a-0011	A.8	53.104250	53.446375		[silence]	[silence]
sw3405B-ms98-a-0011	A.8	53.446375	53.634250		a	a
sw3405B-ms98-a-0011	A.8	53.634250	54.034250	<CONT>	twenty-five	twenty
sw3405B-ms98-a-0011	A.8	54.034250	54.404250	<CONT>	+++	five
sw3405B-ms98-a-0011	A.8	54.404250	54.644250		by	by
sw3405B-ms98-a-0011	A.8	54.644250	55.305750		twenty	twenty
sw3405B-ms98-a-0011	A.8	55.305750	55.824250		[silence]	[silence]
sw3405B-ms98-a-0011	A.8	55.824250	56.673250		area	area
sw3405B-ms98-a-0011	A.8	56.673250	56.922750		[silence]	[silence]
sw3405B-ms98-a-0012	A.8	56.922750	57.262750		[silence]	[silence]
sw3405B-ms98-a-0012	A.8	57.262750	57.452750		that	that
sw3405B-ms98-a-0012	A.8	57.452750	57.532750		I	i
sw3405B-ms98-a-0012	A.8	57.532750	57.752750		do	do
sw3405B-ms98-a-0012	A.8	57.752750	58.266250		gardening	gardening
sw3405B-ms98-a-0012	A.8	58.266250	58.665500		[silence]	[silence]
sw3405B-ms98-a-0012	A.8	58.665500	58.832750		as	as
sw3405B-ms98-a-0012	A.8	58.832750	59.082750		far	far
sw3405B-ms98-a-0012	A.8	59.082750	59.242750		as	as
sw3405B-ms98-a-0012	A.8	59.242750	59.342750		you	you
sw3405B-ms98-a-0012	A.8	59.342750	59.628125		know	know
sw3405B-ms98-a-0012	A.8	59.628125	59.793875		[silence]	[silence]
sw3405B-ms98-a-0012	A.8	59.793875	60.302750		tomatoes	tomatoes
sw3405B-ms98-a-0012	A.8	60.302750	60.422750		and	and
sw3405B-ms98-a-0012	A.8	60.422750	60.952750		cucumbers	cucumbers
sw3405B-ms98-a-0012	A.8	60.952750	61.082750		and	and
sw3405B-ms98-a-0012	A.8	61.082750	61.522750		beans	beans
sw3405B-ms98-a-0012	A.8	61.522750	61.742750		and	and
sw3405B-ms98-a-0012	A.10	61.742750	62.090125		[silence]	[silence]
sw3405B-ms98-a-0013	A.10	62.090125	75.508375		[silence]	[silence]
sw3405B-ms98-a-0014	A.10	75.508375	75.988375		[silence]	[silence]
sw3405B-ms98-a-0014	A.10	75.988375	76.168375		No	no
sw3405B-ms98-a-0014	A.10	76.168375	76.278375		we	we
sw3405B-ms98-a-0014	A.10	76.278375	76.428375		have	have
sw3405B-ms98-a-0014	A.10	76.428375	76.498375		a	a
sw3405B-ms98-a-0014	A.10	76.498375	76.928375		separate	separate
sw3405B-ms98-a-0014	A.10	76.928375	77.278375		area	area
sw3405B-ms98-a-0014	A.10	77.278375	77.418375		for	for
sw3405B-ms98-a-0014	A.10	77.418375	77.488375		the	the
sw3405B-ms98-a-0014	A.10	77.488375	78.153375		garden	garden
sw3405B-ms98-a-0014	A.12	78.153375	78.804625		[silence]	[silence]
sw3405B-ms98-a-0015	A.12	78.804625	79.624625		[silence]	[silence]
sw3405B-ms98-a-0015	A.12	79.624625	79.794625		Yeah	yeah
sw3405B-ms98-a-0015	A.12	79.794625	79.944625		and	and
sw3405B-ms98-a-0015	A.12	79.944625	80.274625		last	last
sw3405B-ms98-a-0015	A.12	80.274625	80.454625		year	year
sw3405B-ms98-a-0015	A.12	80.454625	80.634625		was	was
sw3405B-ms98-a-0015	A.12	80.634625	80.694625		the	the
sw3405B-ms98-a-0015	A.12	80.694625	81.054625		first	first
sw3405B-ms98-a-0015	A.12	81.054625	81.214625		year	year
sw3405B-ms98-a-0015	A.12	81.214625	81.364625		we	we
sw3405B-ms98-a-0015	A.12	81.364625	81.894625		tried	tried
sw3405B-ms98-a-0015	A.12	81.894625	82.104625		two	two
sw3405B-ms98-a-0015	A.12	82.104625	82.294625		new	new
sw3405B-ms98-a-0015	A.12	82.294625	82.764625		things	things
sw3405B-ms98-a-0015	A.12	82.764625	82.904625		We	we
sw3405B-ms98-a-0015	A.12	82.904625	83.284625		tried	tried
sw3405B-ms98-a-0015	A.12	83.284625	84.147625		corn	corn
sw3405B-ms98-a-0015	A.12	84.147625	84.416750		[silence]	[silence]
sw3405B-ms98-a-0016	A.12	84.416750	84.776750		[silence]	[silence]
sw3405B-ms98-a-0016	A.12	84.776750	84.936750		and	and
sw3405B-ms98-a-0016	A.14	84.936750	85.156750		we	we
sw3405B-ms98-a-0016	A.14	85.156750	85.376750		tried	tried
sw3405B-ms98-a-0016	A.14	85.376750	85.456750		a	a
sw3405B-ms98-a-0016	A.14	85.456750	86.427625		watermelon	watermelon
sw3405B-ms98-a-0016	A.16	86.427625	86.842625		[silence]	[silence]
sw3405B-ms98-a-0017	A.16	86.842625	90.268750		[silence]	[silence]
sw3405B-ms98-a-0018	A.16	90.268750	90.707750		[silence]	[silence]
sw3405B-ms98-a-0018	A.16	90.707750	91.205500		Uh	uh
sw3405B-ms98-a-0018	A.18	91.205500	91.655750		[silence]	[silence]
sw3405B-ms98-a-0019	A.18	91.655750	93.408125		[silence]	[silence]
sw3405B-ms98-a-0020	A.18	93.408125	93.798125		[silence]	[silence]
sw3405B-ms98-a-0020	A.18	93.798125	94.018125		I	i
sw3405B-ms98-a-0020	A.18	94.018125	94.378125		enjoy	enjoy
sw3405B-ms98-a-0020	A.18	94.378125	94.668125		doing	doing
sw3405B-ms98-a-0020	A.18	94.668125	94.818125		it	it
sw3405B-ms98-a-0020	A.18	94.818125	95.048125		on	on
sw3405B-ms98-a-0020	A.18	95.048125	95.128125		a	a
sw3405B-ms98-a-0020	A.18	95.128125	95.628125		limited	limited
sw3405B-ms98-a-0020	A.18	95.628125	96.188125		basis	basis
sw3405B-ms98-a-0020	A.18	96.188125	96.298125		I	i
sw3405B-ms98-a-0020	A.18	96.298125	96.548125		don't	don't
sw3405B-ms98-a-0020	A.18	96.548125	96.738125		think	think
sw3405B-ms98-a-0020	A.18	96.738125	96.898125		that	that
sw3405B-ms98-a-0020	A.18	96.898125	97.148125		if	if
sw3405B-ms98-a-0020	A.18	97.148125	97.178125	<DEL>	---	i-
sw3405B-ms98-a-0020	A.18	97.178125	97.548125		I	i
sw3405B-ms98-a-0020	A.18	97.548125	97.778125		the	the
sw3405B-ms98-a-0020	A.18	97.778125	98.038125		reason	reason
sw3405B-ms98-a-0020	A.18	98.038125	98.108125		I	i
sw3405B-ms98-a-0020	A.18	98.108125	98.368125		bought	bought
sw3405B-ms98-a-0020	A.18	98.368125	98.418125		a	a
sw3405B-ms98-a-0020	A.18	98.418125	98.728125	<CONT>	townhouse	town
sw3405B-ms98-a-0020	A.18	98.728125	98.988125	<CONT>	+++	house
sw3405B-ms98-a-0020	A.18	98.988125	99.108125		is	is
sw3405B-ms98-a-0020	A.18	99.108125	99.278125		so	so
sw3405B-ms98-a-0020	A.18	99.278125	99.438125		that	that
sw3405B-ms98-a-0020	A.18	99.438125	99.518125		I	i
sw3405B-ms98-a-0020	A.18	99.518125	99.978125		wouldn't	wouldn't
sw3405B-ms98-a-0020	A.18	99.978125	100.098125		I	i
sw3405B-ms98-a-0020	A.18	100.098125	100.365625		get	get
sw3405B-ms98-a-0020	A.18	100.365625	100.666875		[silence]	[silence]
sw3405B-ms98-a-0020	A.18	100.666875	100.888125		I'm	i'm
sw3405B-ms98-a-0020	A.18	100.888125	101.288125		allergic	allergic
sw3405B-ms98-a-0020	A.18	101.288125	101.398125		to	to
sw3405B-ms98-a-0020	A.18	101.398125	101.950250		grass	grass
sw3405B-ms98-a-0020	A.18	101.950250	102.348000		[silence]	[silence]
sw3405B-ms98-a-0021	A.18	102.348000	102.791750		[silence]	[silence]
sw3405B-ms98-a-0021	A.18	102.791750	103.228000		So	so
sw3405B-ms98-a-0021	A.18	103.228000	103.388000		I	i
sw3405B-ms98-a-0021	A.18	103.388000	103.659000		don't	don't
sw3405B-ms98-a-0021	A.18	103.659000	103.979125		[silence]	[silence]
sw3405B-ms98-a-0021	A.18	103.979125	104.328000		mow	mow
sw3405B-ms98-a-0021	A.18	104.328000	104.858000		grass	grass
sw3405B-ms98-a-0021	A.18	104.858000	104.948000		or	or
sw3405B-ms98-a-0021	A.18	104.948000	105.248000		anything	anything
sw3405B-ms98-a-0021	A.18	105.248000	105.468000		like	like
sw3405B-ms98-a-0021	A.18	105.468000	105.718000		that	that
sw3405B-ms98-a-0021	A.18	105.718000	105.858000		So	so
sw3405B-ms98-a-0021	A.18	105.858000	105.888000		I	i
sw3405B-ms98-a-0021	A.18	105.888000	106.098000		think	think
sw3405B-ms98-a-0021	A.18	106.098000	106.228000		if	if
sw3405B-ms98-a-0021	A.18	106.228000	106.268000		I	i
sw3405B-ms98-a-0021	A.18	106.268000	106.458000		had	had
sw3405B-ms98-a-0021	A.18	106.458000	106.508000		a	a
sw3405B-ms98-a-0021	A.18	106.508000	106.808000		big	big
sw3405B-ms98-a-0021	A.18	106.808000	107.308000		home	home
sw3405B-ms98-a-0021	A.18	107.308000	107.448000		and	and
sw3405B-ms98-a-0021	A.18	107.448000	107.488000		a	a
sw3405B-ms98-a-0021	A.18	107.488000	107.738000		big	big
sw3405B-ms98-a-0021	A.18	107.738000	108.288000		lawn	lawn
sw3405B-ms98-a-0021	A.18	108.288000	108.358000	<SUB>	I'd	i
sw3405B-ms98-a-0021	A.18	108.358000	108.533750		I	i
sw3405B-ms98-a-0021	A.18	108.533750	108.838000		don't	don't
sw3405B-ms98-a-0021	A.18	108.838000	109.078000		believe	believe
sw3405B-ms98-a-0021	A.18	109.078000	109.178000		I	i
sw3405B-ms98-a-0021	A.18	109.178000	109.348000		would	would
sw3405B-ms98-a-0021	A.18	109.348000	109.758000		enjoy	enjoy
sw3405B-ms98-a-0021	A.18	109.758000	110.009125		it	it
sw3405B-ms98-a-0021	A.18	110.009125	110.291625		[silence]	[silence]
sw3405B-ms98-a-0021	A.18	110.291625	110.528000		But	but
sw3405B-ms98-a-0021	A.18	110.528000	110.788000		just	just
sw3405B-ms98-a-0021	A.18	110.788000	110.908000		on	on
sw3405B-ms98-a-0021	A.18	110.908000	110.968000		the	the
sw3405B-ms98-a-0021	A.18	110.968000	111.398000		limited	limited
sw3405B-ms98-a-0021	A.18	111.398000	111.828000		basis	basis
sw3405B-ms98-a-0021	A.18	111.828000	111.978000		that	that
sw3405B-ms98-a-0021	A.18	111.978000	112.068000		I	i
sw3405B-ms98-a-0021	A.18	112.068000	112.228000		do	do
sw3405B-ms98-a-0021	A.18	112.228000	112.348000		it	it
sw3405B-ms98-a-0021	A.18	112.348000	112.428000		I	i
sw3405B-ms98-a-0021	A.18	112.428000	112.658000		do	do
sw3405B-ms98-a-0021	A.18	112.658000	112.998000		enjoy	enjoy
sw3405B-ms98-a-0021	A.18	112.998000	113.108000		it	it
sw3405B-ms98-a-0021	A.18	113.108000	113.328000		very	very
sw3405B-ms98-a-0021	A.18	113.328000	113.708000		much	much
sw3405B-ms98-a-0021	A.20	113.708000	114.158875		[silence]	[silence]
sw3405B-ms98-a-0022	A.20	114.158875	125.903375		[silence]	[silence]
sw3405B-ms98-a-0023	A.20	125.903375	126.373375		[silence]	[silence]
sw3405B-ms98-a-0023	A.20	126.373375	126.553375		Oh	oh
sw3405B-ms98-a-0023	A.20	126.553375	127.254750		wow	wow
sw3405B-ms98-a-0023	A.22	127.254750	127.585250		[silence]	[silence]
sw3405B-ms98-a-0024	A.22	127.585250	149.251125		[silence]	[silence]
sw3405B-ms98-a-0025	A.22	149.251125	149.691125		[silence]	[silence]
sw3405B-ms98-a-0025	A.22	149.691125	149.861125		How	how
sw3405B-ms98-a-0025	A.22	149.861125	150.121125		about	about_1
sw3405B-ms98-a-0025	A.22	150.121125	150.471125		that	that
sw3405B-ms98-a-0025	A.24	150.471125	150.964625		[silence]	[silence]
sw3405B-ms98-a-0026	A.24	150.964625	195.809750		[silence]	[silence]
sw3405B-ms98-a-0027	A.24	195.809750	196.360625		[silence]	[silence]
sw3405B-ms98-a-0027	A.24	196.360625	196.529750		Well	well
sw3405B-ms98-a-0027	A.24	196.529750	196.799750		that's	that's
sw3405B-ms98-a-0027	A.24	196.799750	197.559750		nice	nice
sw3405B-ms98-a-0027	A.26	197.559750	197.607625		[silence]	[silence]
sw3405B-ms98-a-0028	A.26	197.607625	208.090250		[silence]	[silence]
sw3405B-ms98-a-0029	A.26	208.090250	208.580250		[silence]	[silence]
sw3405B-ms98-a-0029	A.26	208.580250	208.870250		That	that
sw3405B-ms98-a-0029	A.26	208.870250	209.130250		much	much
sw3405B-ms98-a-0029	A.26	209.130250	209.560250		land	land
sw3405B-ms98-a-0029	A.26	209.560250	210.020250		requires	requires
sw3405B-ms98-a-0029	A.26	210.020250	210.160250		an	an
sw3405B-ms98-a-0029	A.26	210.160250	210.440250		awful	awful
sw3405B-ms98-a-0029	A.26	210.440250	210.630250		lot	lot
sw3405B-ms98-a-0029	A.26	210.630250	210.710250		of	of
sw3405B-ms98-a-0029	A.26	210.710250	211.381625		time	time
sw3405B-ms98-a-0029	A.28	211.381625	211.769000		[silence]	[silence]
sw3405B-ms98-a-0030	A.28	211.769000	219.044500		[silence]	[silence]
sw3405B-ms98-a-0031	A.28	219.044500	219.215500		[silence]	[silence]
sw3405B-ms98-a-0031	A.28	219.215500	219.414500		How	how
sw3405B-ms98-a-0031	A.28	219.414500	219.784500		about	about
sw3405B-ms98-a-0031	A.28	219.784500	220.119875		that	that
sw3405B-ms98-a-0031	A.30	220.119875	220.332250		[silence]	[silence]
sw3405B-ms98-a-0032	A.30	220.332250	288.487500		[silence]	[silence]
sw3405B-ms98-a-0033	A.30	288.487500	288.987500		[silence]	[silence]
sw3405B-ms98-a-0033	A.30	288.987500	289.167500		Well	well
sw3405B-ms98-a-0033	A.30	289.167500	289.217500		I	i
sw3405B-ms98-a-0033	A.30	289.217500	289.437500		bet	bet
sw3405B-ms98-a-0033	A.30	289.437500	289.617500		you	you
sw3405B-ms98-a-0033	A.30	289.617500	289.777500		could	could
sw3405B-ms98-a-0033	A.30	289.777500	290.127500		answer	answer
sw3405B-ms98-a-0033	A.30	290.127500	290.177500		a	a
sw3405B-ms98-a-0033	A.30	290.177500	290.657500		question	question
sw3405B-ms98-a-0033	A.30	290.657500	290.757500		for	for
sw3405B-ms98-a-0033	A.30	290.757500	290.907500		me	me
sw3405B-ms98-a-0033	A.30	290.907500	291.087500		What's	what's
sw3405B-ms98-a-0033	A.30	291.087500	291.187500		a	a
sw3405B-ms98-a-0033	A.30	291.187500	291.487500		good	good
sw3405B-ms98-a-0033	A.30	291.487500	291.947500		apple	apple
sw3405B-ms98-a-0033	A.30	291.947500	292.067500		to	to
sw3405B-ms98-a-0033	A.30	292.067500	292.507500		bake	bake
sw3405B-ms98-a-0033	A.30	292.507500	293.027500		pies	pies
sw3405B-ms98-a-0033	A.30	293.027500	293.435125		with	with
sw3405B-ms98-a-0033	A.32	293.435125	293.808375		[silence]	[silence]
sw3405B-ms98-a-0034	A.32	293.808375	296.610750		[silence]	[silence]
sw3405B-ms98-a-0035	A.32	296.610750	297.052125		[silence]	[silence]
sw3405B-ms98-a-0035	A.32	297.052125	297.280750		Are	are
sw3405B-ms98-a-0035	A.32	297.280750	297.410750		there	there
sw3405B-ms98-a-0035	A.32	297.410750	297.530750		m-	m[any]-
sw3405B-ms98-a-0035	A.32	297.530750	297.720750	<SUB>	'n	uh
sw3405B-ms98-a-0035	A.32	297.720750	298.180750		there's	there's
sw3405B-ms98-a-0035	A.32	298.180750	298.240750		an	an
sw3405B-ms98-a-0035	A.32	298.240750	298.468375	<SUB>	afflu-	enough
sw3405B-ms98-a-0035	A.32	298.468375	298.621625		[vocalized-noise]	[vocalized-noise]
sw3405B-ms98-a-0035	A.32	298.621625	298.626000		[silence]	[silence]
