sw3513B-ms98-a-0001	B.2	0.000000	0.050000		[silence]	[silence]
sw3513B-ms98-a-0001	B.2	0.050000	0.290000		[noise]	[noise]
sw3513B-ms98-a-0001	B.2	0.290000	0.480375		[silence]	[silence]
sw3513B-ms98-a-0002	B.2	0.480375	6.977625		[silence]	[silence]
sw3513B-ms98-a-0003	B.2	6.977625	7.457625		[silence]	[silence]
sw3513B-ms98-a-0003	B.2	7.457625	7.749500		Oh	oh
sw3513B-ms98-a-0003	B.2	7.749500	8.000875		[silence]	[silence]
sw3513B-ms98-a-0003	B.2	8.000875	8.503625		wow	wow
sw3513B-ms98-a-0003	B.4	8.503625	8.913250		[silence]	[silence]
sw3513B-ms98-a-0004	B.4	8.913250	15.904250		[silence]	[silence]
sw3513B-ms98-a-0005	B.4	15.904250	16.304250		[silence]	[silence]
sw3513B-ms98-a-0005	B.4	16.304250	16.904250		Yeah	yeah
sw3513B-ms98-a-0005	B.6	16.904250	17.358250		[silence]	[silence]
sw3513B-ms98-a-0006	B.6	17.358250	24.166375		[silence]	[silence]
sw3513B-ms98-a-0007	B.6	24.166375	24.706375		[silence]	[silence]
sw3513B-ms98-a-0007	B.6	24.706375	25.306375		Right	right
sw3513B-ms98-a-0007	B.8	25.306375	25.860625		[silence]	[silence]
sw3513B-ms98-a-0008	B.8	25.860625	45.087000		[silence]	[silence]
sw3513B-ms98-a-0009	B.8	45.087000	45.587000		[silence]	[silence]
sw3513B-ms98-a-0009	B.8	45.587000	45.832000		What	what
sw3513B-ms98-a-0009	B.8	45.832000	46.092250		kind	kind
sw3513B-ms98-a-0009	B.8	46.092250	46.267000		of	of
sw3513B-ms98-a-0009	B.8	46.267000	46.487000	<SUB>	a	um
sw3513B-ms98-a-0009	B.8	46.487000	46.797000		car	car
sw3513B-ms98-a-0009	B.8	46.797000	46.887000		do	do
sw3513B-ms98-a-0009	B.8	46.887000	47.037000		you	you
sw3513B-ms98-a-0009	B.8	47.037000	47.207000		have	have
sw3513B-ms98-a-0009	B.8	47.207000	47.484375		now	now
sw3513B-ms98-a-0009	B.10	47.484375	47.913375		[silence]	[silence]
sw3513B-ms98-a-0010	B.10	47.913375	50.279250		[silence]	[silence]
sw3513B-ms98-a-0011	B.10	50.279250	50.722125		[silence]	[silence]
sw3513B-ms98-a-0011	B.10	50.722125	51.239250	<DEL>	---	um
sw3513B-ms98-a-0011	B.10	51.239250	51.491375		[silence]	[silence]
sw3513B-ms98-a-0012	B.10	51.491375	52.573875		[silence]	[silence]
sw3513B-ms98-a-0013	B.10	52.573875	53.030500		[silence]	[silence]
sw3513B-ms98-a-0013	B.10	53.030500	55.070625		[laughter]	[laughter]
sw3513B-ms98-a-0013	B.10	55.070625	55.338375		My	my
sw3513B-ms98-a-0013	B.10	55.338375	55.513875		car	car
sw3513B-ms98-a-0013	B.10	55.513875	55.703875		is	is
sw3513B-ms98-a-0013	B.10	55.703875	56.052000		really	really
sw3513B-ms98-a-0013	B.10	56.052000	56.393875		old	old
sw3513B-ms98-a-0013	B.10	56.393875	56.713875		too	too
sw3513B-ms98-a-0013	B.10	56.713875	57.178375		because	because
sw3513B-ms98-a-0013	B.10	57.178375	57.576250	<SUB>	uh	um
sw3513B-ms98-a-0013	B.10	57.576250	58.039500		[silence]	[silence]
sw3513B-ms98-a-0013	B.10	58.039500	58.221125		I	i
sw3513B-ms98-a-0013	B.10	58.221125	58.463875		drive	drive
sw3513B-ms98-a-0013	B.10	58.463875	58.633875		out	out
sw3513B-ms98-a-0013	B.10	58.633875	58.703875		of	of
sw3513B-ms98-a-0013	B.10	58.703875	59.023875		town	town
sw3513B-ms98-a-0013	B.10	59.023875	59.103875		a	a
sw3513B-ms98-a-0013	B.10	59.103875	59.203875		lot	lot
sw3513B-ms98-a-0013	B.10	59.203875	59.343875		of	of
sw3513B-ms98-a-0013	B.10	59.343875	59.433875		the	the
sw3513B-ms98-a-0013	B.10	59.433875	60.033125		weekends	weekends
sw3513B-ms98-a-0013	B.12	60.033125	60.654625		[silence]	[silence]
sw3513B-ms98-a-0013	B.12	60.654625	60.935250		and	and
sw3513B-ms98-a-0013	B.12	60.935250	61.393875	<SUB>	uh	um
sw3513B-ms98-a-0013	B.12	61.393875	61.698000		[silence]	[silence]
sw3513B-ms98-a-0014	B.12	61.698000	62.158000		[silence]	[silence]
sw3513B-ms98-a-0014	B.12	62.158000	62.295625		I	i
sw3513B-ms98-a-0014	B.12	62.295625	62.523625		would	would
sw3513B-ms98-a-0014	B.12	62.523625	62.825750		like	like
sw3513B-ms98-a-0014	B.12	62.825750	62.984000		[silence]	[silence]
sw3513B-ms98-a-0014	B.12	62.984000	63.178000		my	my
sw3513B-ms98-a-0014	B.12	63.178000	63.578000		next	next
sw3513B-ms98-a-0014	B.12	63.578000	63.908000		car	car
sw3513B-ms98-a-0014	B.12	63.908000	64.118000		to	to
sw3513B-ms98-a-0014	B.12	64.118000	64.318000		have	have
sw3513B-ms98-a-0014	B.12	64.318000	64.558000		good	good
sw3513B-ms98-a-0014	B.12	64.558000	64.948000		gas	gas
sw3513B-ms98-a-0014	B.12	64.948000	65.600000		mileage	mileage
sw3513B-ms98-a-0014	B.14	65.600000	65.888375		[silence]	[silence]
sw3513B-ms98-a-0015	B.14	65.888375	66.428375		[silence]	[silence]
sw3513B-ms98-a-0015	B.14	66.428375	66.764125		And	and
sw3513B-ms98-a-0015	B.14	66.764125	67.078375	<SUB>	uh	um
sw3513B-ms98-a-0015	B.14	67.078375	67.308375		[silence]	[silence]
sw3513B-ms98-a-0015	B.14	67.308375	67.728375		same	same
sw3513B-ms98-a-0015	B.14	67.728375	68.128375		here	here
sw3513B-ms98-a-0015	B.14	68.128375	68.458375	<SUB>	uh	um
sw3513B-ms98-a-0015	B.14	68.458375	68.768875		[silence]	[silence]
sw3513B-ms98-a-0016	B.14	68.768875	69.098875		[silence]	[silence]
sw3513B-ms98-a-0016	B.14	69.098875	69.248875		you	you
sw3513B-ms98-a-0016	B.14	69.248875	69.358875		know	know
sw3513B-ms98-a-0016	B.14	69.358875	69.438875		a	a
sw3513B-ms98-a-0016	B.14	69.438875	69.808875		nice	nice
sw3513B-ms98-a-0016	B.14	69.808875	70.467250		car	car
sw3513B-ms98-a-0016	B.14	70.467250	70.978875		American	American
sw3513B-ms98-a-0016	B.14	70.978875	71.583125		made	made
sw3513B-ms98-a-0016	B.14	71.583125	71.771500		[silence]	[silence]
sw3513B-ms98-a-0016	B.14	71.771500	72.202250		and	and
sw3513B-ms98-a-0016	B.14	72.202250	72.628875	<SUB>	uh	um
sw3513B-ms98-a-0016	B.14	72.628875	72.813375		[silence]	[silence]
sw3513B-ms98-a-0017	B.14	72.813375	73.861250		[silence]	[silence]
sw3513B-ms98-a-0018	B.14	73.861250	74.421250		[silence]	[silence]
sw3513B-ms98-a-0018	B.14	74.421250	74.541250		you	you
sw3513B-ms98-a-0018	B.14	74.541250	74.818125		know	know
sw3513B-ms98-a-0018	B.14	74.818125	75.177250	<SUB>	a	and
sw3513B-ms98-a-0018	B.14	75.177250	75.241250		a	a
sw3513B-ms98-a-0018	B.14	75.241250	75.471250		nice	nice
sw3513B-ms98-a-0018	B.14	75.471250	75.741250		car	car
sw3513B-ms98-a-0018	B.14	75.741250	75.961250		but	but
sw3513B-ms98-a-0018	B.14	75.961250	76.261250		not	not
sw3513B-ms98-a-0018	B.14	76.261250	76.462125		too	too
sw3513B-ms98-a-0018	B.14	76.462125	76.971250		expensive	expensive
sw3513B-ms98-a-0018	B.14	76.971250	77.498500		because	because
sw3513B-ms98-a-0018	B.14	77.498500	77.627625		[silence]	[silence]
sw3513B-ms98-a-0018	B.14	77.627625	78.031250	<SUB>	uh	um
sw3513B-ms98-a-0018	B.14	78.031250	78.349500		[silence]	[silence]
sw3513B-ms98-a-0019	B.14	78.349500	78.852875		[silence]	[silence]
sw3513B-ms98-a-0019	B.14	78.852875	79.115250		I	i
sw3513B-ms98-a-0019	B.14	79.115250	79.359500		couldn't	couldn't
sw3513B-ms98-a-0019	B.14	79.359500	79.629500		afford	afford
sw3513B-ms98-a-0019	B.14	79.629500	79.809500		like	like
sw3513B-ms98-a-0019	B.14	79.809500	79.952125		a	a
sw3513B-ms98-a-0019	B.14	79.952125	80.249500		brand	brand
sw3513B-ms98-a-0019	B.14	80.249500	80.359500		new	new
sw3513B-ms98-a-0019	B.14	80.359500	80.563250		like	like
sw3513B-ms98-a-0019	B.14	80.563250	81.252500	<SUB>	Lamborghini	[Bamorghini/Lamborghini]
sw3513B-ms98-a-0019	B.16	81.252500	81.516000	<DEL>	---	[laughter-or]
sw3513B-ms98-a-0019	B.16	81.516000	82.789250	<DEL>	---	[laughter-something]
sw3513B-ms98-a-0019	B.16	82.789250	83.111875		I	i
sw3513B-ms98-a-0019	B.16	83.111875	83.247125	<SUB>	hardly	would
sw3513B-ms98-a-0019	B.16	83.247125	83.576500	<SUB>	drive	like
sw3513B-ms98-a-0019	B.18	83.576500	83.850750	<DEL>	---	to
sw3513B-ms98-a-0019	B.18	83.850750	84.166750		[silence]	[silence]
sw3513B-ms98-a-0020	B.18	84.166750	84.707000		[silence]	[silence]
sw3513B-ms98-a-0020	B.18	84.707000	85.156750		[laughter]	[laughter]
sw3513B-ms98-a-0020	B.18	85.156750	85.376750		While	while
sw3513B-ms98-a-0020	B.18	85.376750	85.506750		we're	we're
sw3513B-ms98-a-0020	B.18	85.506750	85.916750		talking	talking
sw3513B-ms98-a-0020	B.18	85.916750	85.976750		my	my
sw3513B-ms98-a-0020	B.18	85.976750	86.336750		next	next
sw3513B-ms98-a-0020	B.18	86.336750	86.776750		car	car
sw3513B-ms98-a-0020	B.18	86.776750	87.102125		I'd	i'd
sw3513B-ms98-a-0020	B.18	87.102125	87.629375		[silence]	[silence]
sw3513B-ms98-a-0020	B.18	87.629375	87.927000		like	like
sw3513B-ms98-a-0020	B.18	87.927000	88.183125		[silence]	[silence]
sw3513B-ms98-a-0020	B.18	88.183125	88.306750		to	to
sw3513B-ms98-a-0020	B.18	88.306750	88.466750		be	be
sw3513B-ms98-a-0020	B.18	88.466750	89.186750		sporty	sporty
sw3513B-ms98-a-0020	B.18	89.186750	89.556750		and	and
sw3513B-ms98-a-0020	B.18	89.556750	89.697875		you	you
sw3513B-ms98-a-0020	B.18	89.697875	89.897500		know	know
sw3513B-ms98-a-0020	B.20	89.897500	90.346750		nice	nice
sw3513B-ms98-a-0020	B.20	90.346750	90.666750		but	but
sw3513B-ms98-a-0020	B.20	90.666750	91.136750		[silence]	[silence]
sw3513B-ms98-a-0020	B.20	91.136750	91.296750		you	you
sw3513B-ms98-a-0020	B.20	91.296750	91.526750		know	know
sw3513B-ms98-a-0020	B.20	91.526750	91.796750		it's	it's
sw3513B-ms98-a-0020	B.20	91.796750	92.446750		expensive	expensive
sw3513B-ms98-a-0020	B.20	92.446750	92.586750		and	and
sw3513B-ms98-a-0020	B.20	92.586750	92.736750		then	then
sw3513B-ms98-a-0020	B.20	92.736750	93.356750		insurance	insurance
sw3513B-ms98-a-0020	B.20	93.356750	93.536750		is	is
sw3513B-ms98-a-0020	B.20	93.536750	93.776750		really	really
sw3513B-ms98-a-0020	B.20	93.776750	94.068250		high	high
sw3513B-ms98-a-0020	B.20	94.068250	94.256750		for	for
sw3513B-ms98-a-0020	B.20	94.256750	94.496750		that	that
sw3513B-ms98-a-0020	B.20	94.496750	94.836750		too	too
sw3513B-ms98-a-0020	B.20	94.836750	95.157625		so	so
sw3513B-ms98-a-0020	B.22	95.157625	95.457750		[silence]	[silence]
sw3513B-ms98-a-0021	B.22	95.457750	95.837750		[silence]	[silence]
sw3513B-ms98-a-0021	B.22	95.837750	96.247750		Something	something
sw3513B-ms98-a-0021	B.22	96.247750	96.444500		with	with
sw3513B-ms98-a-0021	B.22	96.444500	96.781375		a	a
sw3513B-ms98-a-0021	B.22	96.781375	97.485750		[silence]	[silence]
sw3513B-ms98-a-0021	B.22	97.485750	97.657750		that's	that's
sw3513B-ms98-a-0021	B.22	97.657750	97.847750		not	not
sw3513B-ms98-a-0021	B.22	97.847750	98.017750		too	too
sw3513B-ms98-a-0021	B.22	98.017750	98.377750		sporty	sporty
sw3513B-ms98-a-0021	B.22	98.377750	98.677750		because	because
sw3513B-ms98-a-0021	B.22	98.677750	98.767750		of	of
sw3513B-ms98-a-0021	B.22	98.767750	99.247750		insurance	insurance
sw3513B-ms98-a-0021	B.22	99.247750	99.517750		then	then
sw3513B-ms98-a-0021	B.24	99.517750	100.103875		[laughter]	[laughter]
sw3513B-ms98-a-0021	B.24	100.103875	100.411250		[silence]	[silence]
sw3513B-ms98-a-0022	B.24	100.411250	103.041250		[silence]	[silence]
sw3513B-ms98-a-0023	B.24	103.041250	103.541250		[silence]	[silence]
sw3513B-ms98-a-0023	B.24	103.541250	104.195500		Yeah	yeah
sw3513B-ms98-a-0023	B.26	104.195500	104.415000		[silence]	[silence]
sw3513B-ms98-a-0024	B.26	104.415000	108.509875		[silence]	[silence]
sw3513B-ms98-a-0025	B.26	108.509875	109.287625		[silence]	[silence]
sw3513B-ms98-a-0025	B.26	109.287625	109.646375	<SUB>	Uh	um
sw3513B-ms98-a-0025	B.26	109.646375	109.897375		[silence]	[silence]
sw3513B-ms98-a-0025	B.26	109.897375	110.168500		no	no
sw3513B-ms98-a-0025	B.26	110.168500	110.400750		mine	mine
sw3513B-ms98-a-0025	B.26	110.400750	110.604125		just	just
sw3513B-ms98-a-0025	B.26	110.604125	110.819875		got	got
sw3513B-ms98-a-0025	B.26	110.819875	111.079875		lowered	lowered
sw3513B-ms98-a-0025	B.26	111.079875	111.385250		because	because
sw3513B-ms98-a-0025	B.26	111.385250	111.517125		I	i
sw3513B-ms98-a-0025	B.26	111.517125	111.739875		just	just
sw3513B-ms98-a-0025	B.26	111.739875	111.979875		turned	turned
sw3513B-ms98-a-0025	B.26	111.979875	112.269875	<CONT>	twenty-one	twenty
sw3513B-ms98-a-0025	B.26	112.269875	112.772625	<CONT>	+++	one
sw3513B-ms98-a-0025	B.26	112.772625	113.028750		[silence]	[silence]
sw3513B-ms98-a-0025	B.26	113.028750	113.419875		and	and
sw3513B-ms98-a-0025	B.26	113.419875	113.867875	<SUB>	uh	um
sw3513B-ms98-a-0025	B.26	113.867875	114.106750		[silence]	[silence]
sw3513B-ms98-a-0026	B.26	114.106750	114.506750		[silence]	[silence]
sw3513B-ms98-a-0026	B.26	114.506750	114.696750		I'm	i'm
sw3513B-ms98-a-0026	B.26	114.696750	114.976750		not	not
sw3513B-ms98-a-0026	B.26	114.976750	115.904250		sure	sure
sw3513B-ms98-a-0026	B.26	115.904250	116.206125		[silence]	[silence]
sw3513B-ms98-a-0027	B.26	116.206125	116.646125		[silence]	[silence]
sw3513B-ms98-a-0027	B.26	116.646125	117.056125		really	really
sw3513B-ms98-a-0027	B.26	117.056125	117.196125		how	how
sw3513B-ms98-a-0027	B.26	117.196125	117.601875		much	much
sw3513B-ms98-a-0027	B.26	117.601875	117.799375		I	i
sw3513B-ms98-a-0027	B.26	117.799375	118.118750		pay	pay
sw3513B-ms98-a-0027	B.26	118.118750	118.199125		I	i
sw3513B-ms98-a-0027	B.26	118.199125	118.553125		just	just
sw3513B-ms98-a-0027	B.26	118.553125	118.836250		[silence]	[silence]
sw3513B-ms98-a-0028	B.26	118.836250	119.326250		[silence]	[silence]
sw3513B-ms98-a-0028	B.26	119.326250	119.556250		my	my
sw3513B-ms98-a-0028	B.26	119.556250	119.858000		mom's	mom's
sw3513B-ms98-a-0028	B.26	119.858000	120.196250		helping	helping
sw3513B-ms98-a-0028	B.26	120.196250	120.336250		me	me
sw3513B-ms98-a-0028	B.26	120.336250	120.496250		out	out
sw3513B-ms98-a-0028	B.26	120.496250	120.556250		you	you
sw3513B-ms98-a-0028	B.26	120.556250	120.676250		know	know
sw3513B-ms98-a-0028	B.26	120.676250	120.856250		because	because_1
sw3513B-ms98-a-0028	B.26	120.856250	120.956250		I'm	i'm
sw3513B-ms98-a-0028	B.26	120.956250	121.006250		a	a
sw3513B-ms98-a-0028	B.26	121.006250	121.674750		college	college
sw3513B-ms98-a-0028	B.26	121.674750	121.826250		I'm	i'm
sw3513B-ms98-a-0028	B.26	121.826250	121.936250		in	in
sw3513B-ms98-a-0028	B.26	121.936250	122.376250		college	college
sw3513B-ms98-a-0028	B.26	122.376250	122.606250		and	and
sw3513B-ms98-a-0028	B.26	122.606250	122.864875	<SUB>	uh	um
sw3513B-ms98-a-0028	B.26	122.864875	123.222750		[silence]	[silence]
sw3513B-ms98-a-0028	B.26	123.222750	123.396250		so	so
sw3513B-ms98-a-0028	B.26	123.396250	123.506250		I	i
sw3513B-ms98-a-0028	B.26	123.506250	123.726250		just	just
sw3513B-ms98-a-0028	B.26	123.726250	123.896250		give	give
sw3513B-ms98-a-0028	B.26	123.896250	124.066250		her	her
sw3513B-ms98-a-0028	B.26	124.066250	124.166250		the	the
sw3513B-ms98-a-0028	B.26	124.166250	124.769250		money	[laughter-money]
sw3513B-ms98-a-0028	B.28	124.769250	125.155000	<DEL>	---	[laughter-and]
sw3513B-ms98-a-0028	B.28	125.155000	125.460000		[silence]	[silence]
sw3513B-ms98-a-0028	B.28	125.460000	125.676250		and	and
sw3513B-ms98-a-0028	B.28	125.676250	125.861750		take	take
sw3513B-ms98-a-0028	B.28	125.861750	126.016250		her	her
sw3513B-ms98-a-0028	B.28	126.016250	126.226250		word	word
sw3513B-ms98-a-0028	B.28	126.226250	126.456250		for	for
sw3513B-ms98-a-0028	B.28	126.456250	126.526375		it	it
sw3513B-ms98-a-0028	B.30	126.526375	127.349500		[laughter]	[laughter]
sw3513B-ms98-a-0028	B.30	127.349500	127.552750		[silence]	[silence]
sw3513B-ms98-a-0029	B.30	127.552750	129.556375		[silence]	[silence]
sw3513B-ms98-a-0030	B.30	129.556375	130.056375		[silence]	[silence]
sw3513B-ms98-a-0030	B.30	130.056375	130.649125		Yeah	yeah
sw3513B-ms98-a-0030	B.30	130.649125	130.829875		[silence]	[silence]
sw3513B-ms98-a-0030	B.30	130.829875	131.166375		yeah	yeah
sw3513B-ms98-a-0030	B.30	131.166375	131.246375		it	it
sw3513B-ms98-a-0030	B.30	131.246375	131.514750		is	is
sw3513B-ms98-a-0030	B.30	131.514750	131.665500		[silence]	[silence]
sw3513B-ms98-a-0030	B.30	131.665500	132.243875		so	so
sw3513B-ms98-a-0030	B.32	132.243875	132.476375		And	and
sw3513B-ms98-a-0030	B.32	132.476375	132.776375	<DEL>	---	that
sw3513B-ms98-a-0030	B.32	132.776375	132.896375		[silence]	[silence]
sw3513B-ms98-a-0030	B.32	132.896375	132.996375		the	the
sw3513B-ms98-a-0030	B.32	132.996375	133.156375		more	more
sw3513B-ms98-a-0030	B.32	133.156375	133.586375		expensive	expensive
sw3513B-ms98-a-0030	B.32	133.586375	133.656375		the	the
sw3513B-ms98-a-0030	B.32	133.656375	133.976375		car	car
sw3513B-ms98-a-0030	B.32	133.976375	134.096375		the	the
sw3513B-ms98-a-0030	B.32	134.096375	134.236375		higher	higher
sw3513B-ms98-a-0030	B.32	134.236375	134.296375		it	it
sw3513B-ms98-a-0030	B.32	134.296375	134.836375		is	is
sw3513B-ms98-a-0030	B.32	134.836375	135.467125		so	so
sw3513B-ms98-a-0030	B.34	135.467125	135.649250		[silence]	[silence]
sw3513B-ms98-a-0031	B.34	135.649250	136.079250		[silence]	[silence]
sw3513B-ms98-a-0031	B.34	136.079250	136.419250		Unless	unless
sw3513B-ms98-a-0031	B.34	136.419250	136.538000		I	i
sw3513B-ms98-a-0031	B.34	136.538000	136.679250		win	win
sw3513B-ms98-a-0031	B.34	136.679250	136.809250		the	the
sw3513B-ms98-a-0031	B.34	136.809250	137.343250		lottery	lottery
sw3513B-ms98-a-0031	B.34	137.343250	137.469250		I	i
sw3513B-ms98-a-0031	B.34	137.469250	137.819250		won't	won't
sw3513B-ms98-a-0031	B.34	137.819250	137.999250		be	be
sw3513B-ms98-a-0031	B.34	137.999250	138.349250	<SUB>	driving	buying
sw3513B-ms98-a-0031	B.36	138.349250	138.789250		anything	anything
sw3513B-ms98-a-0031	B.36	138.789250	138.979250		too	too
sw3513B-ms98-a-0031	B.36	138.979250	139.971750		expensive	expensive
sw3513B-ms98-a-0031	B.38	139.971750	140.349625		[silence]	[silence]
sw3513B-ms98-a-0031	B.38	140.349625	140.490250		I	i
sw3513B-ms98-a-0031	B.38	140.490250	140.649250		don't	don't
sw3513B-ms98-a-0031	B.38	140.649250	140.939250		plan	plan
sw3513B-ms98-a-0031	B.38	140.939250	141.089250		on	on
sw3513B-ms98-a-0031	B.38	141.089250	141.419250		buying	buying
sw3513B-ms98-a-0031	B.38	141.419250	141.489250		a	a
sw3513B-ms98-a-0031	B.38	141.489250	141.839250		car	car
sw3513B-ms98-a-0031	B.38	141.839250	141.989250		for	for
sw3513B-ms98-a-0031	B.38	141.989250	142.219250		many	many
sw3513B-ms98-a-0031	B.38	142.219250	142.489250		many	many
sw3513B-ms98-a-0031	B.38	142.489250	143.074875		years	years
sw3513B-ms98-a-0031	B.38	143.074875	143.389250		[laughter]	[laughter]
sw3513B-ms98-a-0031	B.38	143.389250	143.831125		so	so
sw3513B-ms98-a-0031	B.40	143.831125	144.244500		[silence]	[silence]
sw3513B-ms98-a-0032	B.40	144.244500	144.650500		[silence]	[silence]
sw3513B-ms98-a-0032	B.40	144.650500	145.016500	<DEL>	---	so
sw3513B-ms98-a-0032	B.40	145.016500	145.186875		I	i
sw3513B-ms98-a-0032	B.40	145.186875	145.318375		[silence]	[silence]
sw3513B-ms98-a-0032	B.40	145.318375	145.494500		have	have
sw3513B-ms98-a-0032	B.40	145.494500	145.634500		to	to
sw3513B-ms98-a-0032	B.40	145.634500	145.854500		make	make
sw3513B-ms98-a-0032	B.40	145.854500	146.094500		this	this
sw3513B-ms98-a-0032	B.40	146.094500	146.284500		one	one
sw3513B-ms98-a-0032	B.40	146.284500	146.744500		last	last
sw3513B-ms98-a-0032	B.40	146.744500	146.864500		as	as
sw3513B-ms98-a-0032	B.40	146.864500	147.094500		long	long
sw3513B-ms98-a-0032	B.40	147.094500	147.224500		as	as
sw3513B-ms98-a-0032	B.40	147.224500	147.355250		I	i
sw3513B-ms98-a-0032	B.40	147.355250	147.885125		can	can
sw3513B-ms98-a-0032	B.42	147.885125	148.314625		[silence]	[silence]
sw3513B-ms98-a-0033	B.42	148.314625	149.876875		[silence]	[silence]
sw3513B-ms98-a-0034	B.42	149.876875	150.405500		[silence]	[silence]
sw3513B-ms98-a-0034	B.42	150.405500	151.001500		Uh	uh
sw3513B-ms98-a-0034	B.42	151.001500	151.201125		in	in
sw3513B-ms98-a-0034	B.42	151.201125	152.126000		Kenosha	Kenosha
sw3513B-ms98-a-0034	B.44	152.126000	152.953625		[laughter]	[laughter]
sw3513B-ms98-a-0034	B.44	152.953625	153.562875		[silence]	[silence]
sw3513B-ms98-a-0035	B.44	153.562875	154.322875		[silence]	[silence]
sw3513B-ms98-a-0035	B.44	154.322875	154.542875		Oh	oh
sw3513B-ms98-a-0035	B.44	154.542875	154.742875		it	it
sw3513B-ms98-a-0035	B.44	154.742875	154.992875		just	just
sw3513B-ms98-a-0035	B.44	154.992875	155.202875	<SUB>	is	i[s]-
sw3513B-ms98-a-0035	B.46	155.202875	155.583250		[silence]	[silence]
sw3513B-ms98-a-0036	B.46	155.583250	158.894625		[silence]	[silence]
sw3513B-ms98-a-0037	B.46	158.894625	159.018125		[silence]	[silence]
sw3513B-ms98-a-0037	B.46	159.018125	159.357000		[noise]	[noise]
sw3513B-ms98-a-0037	B.46	159.357000	159.971625		Yeah	yeah
sw3513B-ms98-a-0037	B.46	159.971625	160.250875		we	we
sw3513B-ms98-a-0037	B.46	160.250875	160.425375		we	we
sw3513B-ms98-a-0037	B.46	160.425375	160.534625		have	have
sw3513B-ms98-a-0037	B.46	160.534625	160.614625		a	a
sw3513B-ms98-a-0037	B.46	160.614625	160.874625		Jeep	Jeep
sw3513B-ms98-a-0037	B.46	160.874625	161.044625		with	with
sw3513B-ms98-a-0037	B.46	161.044625	161.244625		four	four
sw3513B-ms98-a-0037	B.46	161.244625	161.524625		wheel	wheel
sw3513B-ms98-a-0037	B.46	161.524625	161.924625		drive	drive
sw3513B-ms98-a-0037	B.46	161.924625	162.334625		because	because
sw3513B-ms98-a-0037	B.46	162.334625	162.627125	<SUB>	uh	um
sw3513B-ms98-a-0037	B.46	162.627125	162.913375		[silence]	[silence]
sw3513B-ms98-a-0037	B.46	162.913375	163.224625		because	because
sw3513B-ms98-a-0037	B.46	163.224625	163.314625		of	of
sw3513B-ms98-a-0037	B.46	163.314625	163.404625		the	the
sw3513B-ms98-a-0037	B.46	163.404625	163.774625		snow	snow
sw3513B-ms98-a-0037	B.46	163.774625	163.934625		you	you
sw3513B-ms98-a-0037	B.46	163.934625	164.208500		mean	mean
sw3513B-ms98-a-0037	B.46	164.208500	164.544125		or	or
sw3513B-ms98-a-0037	B.48	164.544125	164.801500		[silence]	[silence]
sw3513B-ms98-a-0038	B.48	164.801500	165.860500		[silence]	[silence]
sw3513B-ms98-a-0039	B.48	165.860500	166.223125		[silence]	[silence]
sw3513B-ms98-a-0039	B.48	166.223125	166.916250		[laughter]	[laughter]
sw3513B-ms98-a-0039	B.48	166.916250	167.526500		[silence]	[silence]
sw3513B-ms98-a-0039	B.48	167.526500	167.630500		Well	well
sw3513B-ms98-a-0039	B.48	167.630500	167.740500		we	we
sw3513B-ms98-a-0039	B.48	167.740500	167.970500		don't	don't
sw3513B-ms98-a-0039	B.48	167.970500	168.100500		have	have
sw3513B-ms98-a-0039	B.48	168.100500	168.290500		any	any
sw3513B-ms98-a-0039	B.48	168.290500	168.550500		snow	snow
sw3513B-ms98-a-0039	B.48	168.550500	168.770500		here	here
sw3513B-ms98-a-0039	B.48	168.770500	169.186875		now	now
sw3513B-ms98-a-0039	B.50	169.186875	169.454375		[silence]	[silence]
sw3513B-ms98-a-0039	B.50	169.454375	169.631875		It	it
sw3513B-ms98-a-0039	B.50	169.631875	169.824000		all	all
sw3513B-ms98-a-0039	B.50	169.824000	170.320500		melted	melted
sw3513B-ms98-a-0039	B.50	170.320500	170.560500		Yeah	yeah
sw3513B-ms98-a-0039	B.50	170.560500	170.790500	<CONT>	there	there's
sw3513B-ms98-a-0039	B.50	170.790500	170.790500	<CONT>	is	+++
sw3513B-ms98-a-0039	B.50	170.790500	170.980500		no	no
sw3513B-ms98-a-0039	B.50	170.980500	171.280500		snow	snow
sw3513B-ms98-a-0039	B.50	171.280500	171.420500		at	at
sw3513B-ms98-a-0039	B.50	171.420500	171.743000		all	all
sw3513B-ms98-a-0039	B.52	171.743000	172.178875		[silence]	[silence]
sw3513B-ms98-a-0040	B.52	172.178875	176.408750		[silence]	[silence]
sw3513B-ms98-a-0041	B.52	176.408750	176.728750		[silence]	[silence]
sw3513B-ms98-a-0041	B.52	176.728750	177.430625		Huh	huh
sw3513B-ms98-a-0041	B.54	177.430625	177.687125		[silence]	[silence]
sw3513B-ms98-a-0042	B.54	177.687125	178.707000		[silence]	[silence]
sw3513B-ms98-a-0043	B.54	178.707000	179.087000		[silence]	[silence]
sw3513B-ms98-a-0043	B.54	179.087000	179.714875		Yeah	yeah
sw3513B-ms98-a-0043	B.56	179.714875	179.967250		[silence]	[silence]
sw3513B-ms98-a-0043	B.56	179.967250	180.433250		Yeah	yeah
sw3513B-ms98-a-0043	B.56	180.433250	180.607000		it	it
sw3513B-ms98-a-0043	B.56	180.607000	181.061500		is	is
sw3513B-ms98-a-0043	B.58	181.061500	181.362125		[silence]	[silence]
sw3513B-ms98-a-0044	B.58	181.362125	183.980375		[silence]	[silence]
sw3513B-ms98-a-0045	B.58	183.980375	184.210375		[silence]	[silence]
sw3513B-ms98-a-0045	B.58	184.210375	184.560375		Oh	oh
sw3513B-ms98-a-0045	B.58	184.560375	184.830375		don't	don't
sw3513B-ms98-a-0045	B.58	184.830375	185.050375		tell	tell
sw3513B-ms98-a-0045	B.58	185.050375	185.210375		me	me
sw3513B-ms98-a-0045	B.58	185.210375	185.470375		that	that
sw3513B-ms98-a-0045	B.60	185.470375	186.340375		[laughter]	[laughter]
sw3513B-ms98-a-0045	B.60	186.340375	186.630375	<DEL>	---	that's
sw3513B-ms98-a-0045	B.60	186.630375	187.148125	<DEL>	---	nice
sw3513B-ms98-a-0045	B.60	187.148125	187.409250		[silence]	[silence]
sw3513B-ms98-a-0046	B.60	187.409250	187.929250		[silence]	[silence]
sw3513B-ms98-a-0046	B.60	187.929250	188.139250		Well	well
sw3513B-ms98-a-0046	B.60	188.139250	188.499250		actually	actually
sw3513B-ms98-a-0046	B.60	188.499250	188.709250		it's	it's
sw3513B-ms98-a-0046	B.60	188.709250	188.999250		been	been
sw3513B-ms98-a-0046	B.60	188.999250	189.219250		warm	warm
sw3513B-ms98-a-0046	B.60	189.219250	189.369250		it's	it's
sw3513B-ms98-a-0046	B.60	189.369250	189.469250		in	in
sw3513B-ms98-a-0046	B.60	189.469250	189.629250		the	the
sw3513B-ms98-a-0046	B.60	189.629250	190.227625		forties	forties
sw3513B-ms98-a-0046	B.62	190.227625	190.825000		[silence]	[silence]
sw3513B-ms98-a-0047	B.62	190.825000	191.513750		[silence]	[silence]
sw3513B-ms98-a-0047	B.62	191.513750	191.875000		Yeah	yeah
sw3513B-ms98-a-0047	B.62	191.875000	191.965000		and	and
sw3513B-ms98-a-0047	B.62	191.965000	192.335000		that's	that's
sw3513B-ms98-a-0047	B.62	192.335000	192.595000		that's	that's
sw3513B-ms98-a-0047	B.62	192.595000	192.985000		really	really
sw3513B-ms98-a-0047	B.62	192.985000	193.496625		warm	warm
sw3513B-ms98-a-0047	B.64	193.496625	194.103750		[silence]	[silence]
sw3513B-ms98-a-0048	B.64	194.103750	194.783750		[silence]	[silence]
sw3513B-ms98-a-0048	B.64	194.783750	195.143750	<SUB>	Uh	um
sw3513B-ms98-a-0048	B.64	195.143750	195.753750		[noise]	[noise]
sw3513B-ms98-a-0048	B.64	195.753750	195.883750		and	and
sw3513B-ms98-a-0048	B.64	195.883750	195.973750		it's	it's
sw3513B-ms98-a-0048	B.64	195.973750	196.223750		supposed	supposed
sw3513B-ms98-a-0048	B.64	196.223750	196.333750		to	to
sw3513B-ms98-a-0048	B.64	196.333750	196.623750		rain	rain
sw3513B-ms98-a-0048	B.64	196.623750	197.283750		tomorrow	tomorrow
sw3513B-ms98-a-0048	B.64	197.283750	197.574500		so	so
sw3513B-ms98-a-0048	B.64	197.574500	197.773750		we	we
sw3513B-ms98-a-0048	B.64	197.773750	198.663750		[vocalized-noise]	[vocalized-noise]
sw3513B-ms98-a-0048	B.64	198.663750	198.743750		I've	i've
sw3513B-ms98-a-0048	B.64	198.743750	198.963750		only	only
sw3513B-ms98-a-0048	B.64	198.963750	199.183750		seen	seen
sw3513B-ms98-a-0048	B.64	199.183750	199.513750		snow	snow
sw3513B-ms98-a-0048	B.64	199.513750	199.863750		once	once
sw3513B-ms98-a-0048	B.64	199.863750	200.348750		this	this
sw3513B-ms98-a-0048	B.64	200.348750	200.752875		year	year
sw3513B-ms98-a-0048	B.64	200.752875	201.039625	<DEL>	---	an[d]-
sw3513B-ms98-a-0048	B.64	201.039625	201.439250		[silence]	[silence]
sw3513B-ms98-a-0049	B.64	201.439250	202.117750		[silence]	[silence]
sw3513B-ms98-a-0049	B.64	202.117750	202.309250		And	and
sw3513B-ms98-a-0049	B.64	202.309250	202.379250		it	it
sw3513B-ms98-a-0049	B.64	202.379250	202.549250		was	was
sw3513B-ms98-a-0049	B.64	202.549250	202.799250		really	really
sw3513B-ms98-a-0049	B.64	202.799250	203.302000		bad	bad
sw3513B-ms98-a-0049	B.64	203.302000	203.863250		[silence]	[silence]
sw3513B-ms98-a-0049	B.64	203.863250	204.059250		and	and
sw3513B-ms98-a-0049	B.64	204.059250	204.492625		then	then
sw3513B-ms98-a-0049	B.64	204.492625	204.737250		[silence]	[silence]
sw3513B-ms98-a-0049	B.64	204.737250	204.921750		it	it
sw3513B-ms98-a-0049	B.64	204.921750	205.069250		all	all
sw3513B-ms98-a-0049	B.64	205.069250	205.489250		melted	melted
sw3513B-ms98-a-0049	B.64	205.489250	205.689250		like	like
sw3513B-ms98-a-0049	B.64	205.689250	205.989250		within	within
sw3513B-ms98-a-0049	B.64	205.989250	206.059250		the	the
sw3513B-ms98-a-0049	B.64	206.059250	206.559250		week	week
sw3513B-ms98-a-0049	B.66	206.559250	206.930250		[silence]	[silence]
sw3513B-ms98-a-0050	B.66	206.930250	207.520250		[silence]	[silence]
sw3513B-ms98-a-0050	B.66	207.520250	207.610250		And	and
sw3513B-ms98-a-0050	B.66	207.610250	207.780250		now	now
sw3513B-ms98-a-0050	B.66	207.780250	208.010250	<CONT>	there	there's
sw3513B-ms98-a-0050	B.66	208.010250	208.010250	<CONT>	is	+++
sw3513B-ms98-a-0050	B.66	208.010250	208.160250		no	no
sw3513B-ms98-a-0050	B.66	208.160250	208.551625		snow	snow
sw3513B-ms98-a-0050	B.66	208.551625	208.914250		so	so
sw3513B-ms98-a-0050	B.68	208.914250	209.334250		[silence]	[silence]
sw3513B-ms98-a-0051	B.68	209.334250	215.483125		[silence]	[silence]
sw3513B-ms98-a-0052	B.68	215.483125	215.591875		[silence]	[silence]
sw3513B-ms98-a-0052	B.68	215.591875	215.969750		[vocalized-noise]	[vocalized-noise]
sw3513B-ms98-a-0052	B.68	215.969750	216.579375	<SUB>	Uh	um
sw3513B-ms98-a-0052	B.68	216.579375	217.298750		[silence]	[silence]
sw3513B-ms98-a-0052	B.68	217.298750	217.513125		I	i
sw3513B-ms98-a-0052	B.68	217.513125	217.693125		haven't	haven't
sw3513B-ms98-a-0052	B.68	217.693125	217.933375		really	really
sw3513B-ms98-a-0052	B.68	217.933375	218.183125		thought	thought
sw3513B-ms98-a-0052	B.68	218.183125	218.433125		about	about
sw3513B-ms98-a-0052	B.68	218.433125	218.433125	<INS>	it	---
sw3513B-ms98-a-0052	B.68	218.433125	218.573125		I'm	i'm
sw3513B-ms98-a-0052	B.68	218.573125	218.923125		not	not
sw3513B-ms98-a-0052	B.68	218.923125	219.073125		too	too
sw3513B-ms98-a-0052	B.68	219.073125	219.313125		big	big
sw3513B-ms98-a-0052	B.68	219.313125	219.543125		on	on
sw3513B-ms98-a-0052	B.68	219.543125	219.873125		cars	cars
sw3513B-ms98-a-0052	B.68	219.873125	219.903125		I	i
sw3513B-ms98-a-0052	B.68	219.903125	220.063125		mean	mean
sw3513B-ms98-a-0052	B.68	220.063125	220.123125		I	i
sw3513B-ms98-a-0052	B.68	220.123125	220.303125		don't	don't
sw3513B-ms98-a-0052	B.68	220.303125	220.433125		know	know
sw3513B-ms98-a-0052	B.68	220.433125	220.533125		the	the
sw3513B-ms98-a-0052	B.68	220.533125	220.843125		names	names
sw3513B-ms98-a-0052	B.68	220.843125	220.953125		and	and
sw3513B-ms98-a-0052	B.68	220.953125	221.213125		stuff	stuff
sw3513B-ms98-a-0052	B.68	221.213125	221.493125		but	but
sw3513B-ms98-a-0052	B.68	221.493125	221.797750		if	if
sw3513B-ms98-a-0052	B.68	221.797750	221.923125		I	i
sw3513B-ms98-a-0052	B.68	221.923125	222.063125		were	were
sw3513B-ms98-a-0052	B.68	222.063125	222.143125		to	to
sw3513B-ms98-a-0052	B.68	222.143125	222.366500		go	go
sw3513B-ms98-a-0052	B.68	222.366500	222.523125		to	to
sw3513B-ms98-a-0052	B.68	222.523125	222.563125		a	a
sw3513B-ms98-a-0052	B.68	222.563125	222.883125		car	car
sw3513B-ms98-a-0052	B.68	222.883125	223.313125		lot	lot
sw3513B-ms98-a-0052	B.68	223.313125	223.483125		and	and
sw3513B-ms98-a-0052	B.68	223.483125	223.742750		like	like
sw3513B-ms98-a-0052	B.68	223.742750	223.943125		look	look
sw3513B-ms98-a-0052	B.68	223.943125	224.123125		at	at
sw3513B-ms98-a-0052	B.68	224.123125	224.273125		them	them_1
sw3513B-ms98-a-0052	B.70	224.273125	224.403125		[laughter]	[laughter]
sw3513B-ms98-a-0052	B.70	224.403125	224.433125		I	i
sw3513B-ms98-a-0052	B.70	224.433125	224.573125		would	would
sw3513B-ms98-a-0052	B.70	224.573125	224.833125		pick	pick
sw3513B-ms98-a-0052	B.70	224.833125	225.053125		out	out
sw3513B-ms98-a-0052	B.70	225.053125	225.263125		one	one
sw3513B-ms98-a-0052	B.70	225.263125	225.437250		that	that
sw3513B-ms98-a-0052	B.70	225.437250	225.554000		[silence]	[silence]
sw3513B-ms98-a-0052	B.70	225.554000	225.679750		you	you
sw3513B-ms98-a-0052	B.70	225.679750	225.969750		know	know
sw3513B-ms98-a-0052	B.70	225.969750	226.343125		looked	[laughter-looked]
sw3513B-ms98-a-0052	B.70	226.343125	226.603125		really	really
sw3513B-ms98-a-0052	B.70	226.603125	227.105875		nice	nice
sw3513B-ms98-a-0052	B.72	227.105875	227.711125		[silence]	[silence]
sw3513B-ms98-a-0053	B.72	227.711125	228.461750		[silence]	[silence]
sw3513B-ms98-a-0053	B.72	228.461750	229.411125	<SUB>	Uh	um
sw3513B-ms98-a-0053	B.72	229.411125	229.561125		for	for
sw3513B-ms98-a-0053	B.72	229.561125	229.621125		a	a
sw3513B-ms98-a-0053	B.72	229.621125	230.120750		car	car
sw3513B-ms98-a-0053	B.74	230.120750	230.435500		[silence]	[silence]
sw3513B-ms98-a-0054	B.74	230.435500	231.505875		[silence]	[silence]
sw3513B-ms98-a-0055	B.74	231.505875	231.883250		[silence]	[silence]
sw3513B-ms98-a-0055	B.74	231.883250	232.288625		Probably	probably
sw3513B-ms98-a-0055	B.74	232.288625	232.418500		[silence]	[silence]
sw3513B-ms98-a-0055	B.74	232.418500	233.045125		blue	blue
sw3513B-ms98-a-0055	B.76	233.045125	233.473500		[silence]	[silence]
sw3513B-ms98-a-0056	B.76	233.473500	233.893500		[silence]	[silence]
sw3513B-ms98-a-0056	B.76	233.893500	234.163500		Like	like
sw3513B-ms98-a-0056	B.76	234.163500	234.303500		if	if
sw3513B-ms98-a-0056	B.76	234.303500	234.480375		it	it
sw3513B-ms98-a-0056	B.76	234.480375	234.653500		you	you
sw3513B-ms98-a-0056	B.76	234.653500	234.783500		know	know
sw3513B-ms98-a-0056	B.76	234.783500	234.963500		was	was
sw3513B-ms98-a-0056	B.76	234.963500	235.183500		just	just
sw3513B-ms98-a-0056	B.76	235.183500	235.367875	<SUB>	an	a
sw3513B-ms98-a-0056	B.76	235.367875	235.805000		average	average
sw3513B-ms98-a-0056	B.76	235.805000	236.019625		middle	middle
sw3513B-ms98-a-0056	B.76	236.019625	236.303875		class	class
sw3513B-ms98-a-0056	B.76	236.303875	236.522250		car	car
sw3513B-ms98-a-0056	B.76	236.522250	236.608875		But	but
sw3513B-ms98-a-0056	B.76	236.608875	236.729375		if	if
sw3513B-ms98-a-0056	B.76	236.729375	236.863500		I	i
sw3513B-ms98-a-0056	B.76	236.863500	236.983500		were	were
sw3513B-ms98-a-0056	B.76	236.983500	237.093500		to	to
sw3513B-ms98-a-0056	B.76	237.093500	237.253500		get	get
sw3513B-ms98-a-0056	B.76	237.253500	237.313500		a	a
sw3513B-ms98-a-0056	B.76	237.313500	237.753500		sports	sports
sw3513B-ms98-a-0056	B.76	237.753500	237.943500		car	car
sw3513B-ms98-a-0056	B.76	237.943500	238.265500		maybe	maybe
sw3513B-ms98-a-0056	B.76	238.265500	238.549125		white	white
sw3513B-ms98-a-0056	B.76	238.549125	238.736625		or	or
sw3513B-ms98-a-0056	B.76	238.736625	239.644500		red	[laughter-red]
sw3513B-ms98-a-0056	B.78	239.644500	240.852625		[laughter]	[laughter]
sw3513B-ms98-a-0056	B.78	240.852625	241.129500		[silence]	[silence]
sw3513B-ms98-a-0057	B.78	241.129500	241.253125		[silence]	[silence]
sw3513B-ms98-a-0057	B.78	241.253125	241.769375		[noise]	[noise]
sw3513B-ms98-a-0057	B.78	241.769375	241.858625		[silence]	[silence]
sw3513B-ms98-a-0058	B.78	241.858625	242.418625		[silence]	[silence]
sw3513B-ms98-a-0058	B.78	242.418625	243.046125		Yeah	yeah
sw3513B-ms98-a-0058	B.80	243.046125	243.539500		[silence]	[silence]
sw3513B-ms98-a-0059	B.80	243.539500	244.189500		[silence]	[silence]
sw3513B-ms98-a-0059	B.80	244.189500	244.647625	<SUB>	Uh	um
sw3513B-ms98-a-0059	B.80	244.647625	244.839500		it's	it's
sw3513B-ms98-a-0059	B.80	244.839500	244.939500		a	a
sw3513B-ms98-a-0059	B.80	244.939500	245.509500	<CONT>	Sky	Skyhawk
sw3513B-ms98-a-0059	B.80	245.509500	245.509500	<CONT>	Hawk	+++
sw3513B-ms98-a-0059	B.80	245.509500	246.199000		Buick	Buick
sw3513B-ms98-a-0059	B.82	246.199000	246.835500		[silence]	[silence]
sw3513B-ms98-a-0059	B.82	246.835500	247.163000	<CONT>	Eighty-three	eighty
sw3513B-ms98-a-0059	B.82	247.163000	247.609500	<CONT>	+++	three
sw3513B-ms98-a-0059	B.82	247.609500	247.783750		I	i
sw3513B-ms98-a-0059	B.82	247.783750	248.339500		think	think
sw3513B-ms98-a-0059	B.84	248.339500	248.823000		[silence]	[silence]
sw3513B-ms98-a-0060	B.84	248.823000	249.407500		[silence]	[silence]
sw3513B-ms98-a-0060	B.84	249.407500	249.994625		Yeah	yeah
sw3513B-ms98-a-0060	B.84	249.994625	250.341000	<SUB>	uh	oh
sw3513B-ms98-a-0060	B.84	250.341000	250.548125	<DEL>	---	i[t]-
sw3513B-ms98-a-0060	B.84	250.548125	250.765875		like	like
sw3513B-ms98-a-0060	B.84	250.765875	251.018250	<CONT>	eighty-two	eighty
sw3513B-ms98-a-0060	B.84	251.018250	251.195250	<CONT>	+++	two
sw3513B-ms98-a-0060	B.84	251.195250	251.623000		thousand	thousand
sw3513B-ms98-a-0060	B.84	251.623000	252.237125		miles	miles
sw3513B-ms98-a-0060	B.86	252.237125	252.666500		[silence]	[silence]
sw3513B-ms98-a-0061	B.86	252.666500	253.318625		[silence]	[silence]
sw3513B-ms98-a-0061	B.86	253.318625	254.175125		Yeah	yeah
sw3513B-ms98-a-0061	B.88	254.175125	254.708625		I'm	i'm
sw3513B-ms98-a-0061	B.88	254.708625	254.966500		afraid	afraid
sw3513B-ms98-a-0061	B.88	254.966500	255.076500		it's	it's
sw3513B-ms98-a-0061	B.88	255.076500	255.216500		not	not
sw3513B-ms98-a-0061	B.88	255.216500	255.406500	<SUB>	going	gonna
sw3513B-ms98-a-0061	B.88	255.406500	255.406500	<INS>	to	---
sw3513B-ms98-a-0061	B.88	255.406500	255.736500		last	last
sw3513B-ms98-a-0061	B.88	255.736500	255.846500		me	me
sw3513B-ms98-a-0061	B.88	255.846500	256.186500		that	[laughter-that]
sw3513B-ms98-a-0061	B.88	256.186500	256.576500		long	long
sw3513B-ms98-a-0061	B.88	256.576500	256.788125		and	and
sw3513B-ms98-a-0061	B.88	256.788125	257.364500		[silence]	[silence]
sw3513B-ms98-a-0061	B.88	257.364500	257.778375		I	i
sw3513B-ms98-a-0061	B.88	257.778375	257.925250		[silence]	[silence]
sw3513B-ms98-a-0061	B.88	257.925250	258.236500		hope	hope
sw3513B-ms98-a-0061	B.88	258.236500	258.336500		it	it
sw3513B-ms98-a-0061	B.88	258.336500	258.676500		does	does
sw3513B-ms98-a-0061	B.88	258.676500	259.093625		though	though
sw3513B-ms98-a-0061	B.90	259.093625	259.336000		[silence]	[silence]
sw3513B-ms98-a-0062	B.90	259.336000	260.339000		[silence]	[silence]
sw3513B-ms98-a-0063	B.90	260.339000	260.769000		[silence]	[silence]
sw3513B-ms98-a-0063	B.90	260.769000	261.139000		It's	it's
sw3513B-ms98-a-0063	B.90	261.139000	261.249000		a	a
sw3513B-ms98-a-0063	B.90	261.249000	261.769000		two	two
sw3513B-ms98-a-0063	B.90	261.769000	262.293500		door	door
sw3513B-ms98-a-0063	B.90	262.293500	262.443125		I	i
sw3513B-ms98-a-0063	B.90	262.443125	262.662250		like	like
sw3513B-ms98-a-0063	B.90	262.662250	262.812875	<DEL>	---	i-
sw3513B-ms98-a-0063	B.90	262.812875	263.200750		I	i
sw3513B-ms98-a-0063	B.90	263.200750	263.439000		like	like
sw3513B-ms98-a-0063	B.90	263.439000	263.921875		smaller	smaller
sw3513B-ms98-a-0063	B.90	263.921875	264.404000		cars	cars
sw3513B-ms98-a-0063	B.90	264.404000	264.728000	<DEL>	---	uh
sw3513B-ms98-a-0063	B.90	264.728000	264.961000		They're	they're
sw3513B-ms98-a-0063	B.90	264.961000	265.431750		[silence]	[silence]
sw3513B-ms98-a-0063	B.90	265.431750	265.668750		I	i
sw3513B-ms98-a-0063	B.90	265.668750	266.049125		[silence]	[silence]
sw3513B-ms98-a-0063	B.90	266.049125	266.399000		find	find
sw3513B-ms98-a-0063	B.90	266.399000	266.459000		them	them_1
sw3513B-ms98-a-0063	B.90	266.459000	266.589000		more	more
sw3513B-ms98-a-0063	B.90	266.589000	267.079000		comfortable	comfortable
sw3513B-ms98-a-0063	B.90	267.079000	267.179000		to	to
sw3513B-ms98-a-0063	B.90	267.179000	267.666500		drive	drive
sw3513B-ms98-a-0063	B.92	267.666500	268.156750		[silence]	[silence]
sw3513B-ms98-a-0064	B.92	268.156750	270.035625		[silence]	[silence]
sw3513B-ms98-a-0065	B.92	270.035625	270.665625		[silence]	[silence]
sw3513B-ms98-a-0065	B.92	270.665625	271.220500	<SUB>	Uh	um
sw3513B-ms98-a-0065	B.92	271.220500	271.676250		no	no
sw3513B-ms98-a-0065	B.92	271.676250	271.824875		I	i
sw3513B-ms98-a-0065	B.92	271.824875	271.995625		don't	don't
sw3513B-ms98-a-0065	B.92	271.995625	272.213875		see	see
sw3513B-ms98-a-0065	B.92	272.213875	272.405625		too	too
sw3513B-ms98-a-0065	B.92	272.405625	272.715625		many	many
sw3513B-ms98-a-0065	B.92	272.715625	273.095625		cars	cars
sw3513B-ms98-a-0065	B.92	273.095625	273.684750		tinted	tinted
sw3513B-ms98-a-0065	B.94	273.684750	274.055375		[silence]	[silence]
sw3513B-ms98-a-0066	B.94	274.055375	275.439125		[silence]	[silence]
sw3513B-ms98-a-0067	B.94	275.439125	275.899125		[silence]	[silence]
sw3513B-ms98-a-0067	B.94	275.899125	276.059125		Oh	oh
sw3513B-ms98-a-0067	B.94	276.059125	276.189125		I'm	i'm
sw3513B-ms98-a-0067	B.94	276.189125	276.876250		sure	sure
sw3513B-ms98-a-0067	B.94	276.876250	277.219125		yeah	yeah
sw3513B-ms98-a-0067	B.94	277.219125	277.390875		I	i
sw3513B-ms98-a-0067	B.94	277.390875	277.625500		could	could
sw3513B-ms98-a-0067	B.94	277.625500	277.889125		[silence]	[silence]
sw3513B-ms98-a-0067	B.94	277.889125	278.058750		I	i
sw3513B-ms98-a-0067	B.94	278.058750	278.219125		could	could
sw3513B-ms98-a-0067	B.94	278.219125	278.379125		see	see
sw3513B-ms98-a-0067	B.94	278.379125	278.694750		why	why
sw3513B-ms98-a-0067	B.96	278.694750	279.051500		[silence]	[silence]
sw3513B-ms98-a-0068	B.96	279.051500	280.164875		[silence]	[silence]
sw3513B-ms98-a-0069	B.96	280.164875	280.659000		[silence]	[silence]
sw3513B-ms98-a-0069	B.96	280.659000	281.044250		Yep	yep
sw3513B-ms98-a-0069	B.98	281.044250	281.536250		[silence]	[silence]
sw3513B-ms98-a-0069	B.98	281.536250	281.984875	<SUB>	Uh	um
sw3513B-ms98-a-0069	B.100	281.984875	282.544875		[silence]	[silence]
sw3513B-ms98-a-0070	B.100	282.544875	282.701625		[silence]	[silence]
sw3513B-ms98-a-0070	B.100	282.701625	283.204875		[noise]	[noise]
sw3513B-ms98-a-0070	B.100	283.204875	283.354875		It	it
sw3513B-ms98-a-0070	B.100	283.354875	283.574875		was	was
sw3513B-ms98-a-0070	B.100	283.574875	284.004875		busy	busy
sw3513B-ms98-a-0070	B.102	284.004875	284.705125		[laughter]	[laughter]
sw3513B-ms98-a-0070	B.102	284.705125	285.432750		[silence]	[silence]
sw3513B-ms98-a-0070	B.102	285.432750	286.074375	<SUB>	Yeah	yep
sw3513B-ms98-a-0070	B.104	286.074375	286.594875		It	it
sw3513B-ms98-a-0070	B.104	286.594875	286.784875		was	was
sw3513B-ms98-a-0070	B.104	286.784875	287.549375		nice	nice
sw3513B-ms98-a-0070	B.104	287.549375	287.674875		I	i
sw3513B-ms98-a-0070	B.104	287.674875	288.144875		remember	remember
sw3513B-ms98-a-0070	B.104	288.144875	288.464875	<SUB>	uh	um
sw3513B-ms98-a-0070	B.104	288.464875	288.800000		[silence]	[silence]
sw3513B-ms98-a-0071	B.104	288.800000	289.076750		[silence]	[silence]
sw3513B-ms98-a-0071	B.104	289.076750	289.469750		swimming	swimming
sw3513B-ms98-a-0071	B.104	289.469750	289.694125		on	on
sw3513B-ms98-a-0071	B.104	289.694125	290.060000		Easter	Easter
sw3513B-ms98-a-0071	B.104	290.060000	290.370000		day	day
sw3513B-ms98-a-0071	B.104	290.370000	290.480000		and	and
sw3513B-ms98-a-0071	B.104	290.480000	290.590000		it	it
sw3513B-ms98-a-0071	B.104	290.590000	290.750000		was	was
sw3513B-ms98-a-0071	B.104	290.750000	290.940000		like	like
sw3513B-ms98-a-0071	B.104	290.940000	291.200000		really	really
sw3513B-ms98-a-0071	B.104	291.200000	291.570000		cold	cold
sw3513B-ms98-a-0071	B.104	291.570000	291.710000		up	up
sw3513B-ms98-a-0071	B.104	291.710000	291.980000		here	here
sw3513B-ms98-a-0071	B.104	291.980000	292.411375		but	but
sw3513B-ms98-a-0071	B.106	292.411375	292.758000		[silence]	[silence]
sw3513B-ms98-a-0071	B.106	292.758000	293.020000		came	came
sw3513B-ms98-a-0071	B.106	293.020000	293.270000		back	back
sw3513B-ms98-a-0071	B.106	293.270000	293.430000		with	with
sw3513B-ms98-a-0071	B.106	293.430000	293.480000		a	a
sw3513B-ms98-a-0071	B.106	293.480000	293.690000		little	little
sw3513B-ms98-a-0071	B.106	293.690000	294.270000		tan	tan
sw3513B-ms98-a-0071	B.106	294.270000	294.470000		so	so
sw3513B-ms98-a-0071	B.106	294.470000	294.690000		that	that
sw3513B-ms98-a-0071	B.106	294.690000	294.850000		was	was
sw3513B-ms98-a-0071	B.106	294.850000	295.406750		nice	nice
sw3513B-ms98-a-0071	B.106	295.406750	296.069500		[laughter]	[laughter]
sw3513B-ms98-a-0071	B.106	296.069500	296.485875		[silence]	[silence]
sw3513B-ms98-a-0072	B.106	296.485875	298.402000		[silence]	[silence]
