sw3570B-ms98-a-0001	@B.2	0.000000	9.542875		[silence]	[silence]
sw3570B-ms98-a-0002	@B.2	9.542875	9.902875		[silence]	[silence]
sw3570B-ms98-a-0002	@B.2	9.902875	10.156375		I	i
sw3570B-ms98-a-0002	@B.2	10.156375	10.547375		think	think
sw3570B-ms98-a-0002	@B.2	10.547375	10.941250		that	that
sw3570B-ms98-a-0002	@B.2	10.941250	11.336750		[silence]	[silence]
sw3570B-ms98-a-0002	@B.2	11.336750	11.512875		the	the
sw3570B-ms98-a-0002	@B.2	11.512875	11.832875		space	space
sw3570B-ms98-a-0002	@B.2	11.832875	12.262875		program	program
sw3570B-ms98-a-0002	@B.2	12.262875	12.582875		has	has
sw3570B-ms98-a-0002	@B.2	12.582875	12.882875		done	done
sw3570B-ms98-a-0002	@B.2	12.882875	12.942875		a	a
sw3570B-ms98-a-0002	@B.2	12.942875	13.252875		lot	lot
sw3570B-ms98-a-0002	@B.2	13.252875	13.322875		of	of
sw3570B-ms98-a-0002	@B.2	13.322875	13.532875		good	good
sw3570B-ms98-a-0002	@B.2	13.532875	13.642875		for	for
sw3570B-ms98-a-0002	@B.2	13.642875	13.702875		the	the
sw3570B-ms98-a-0002	@B.2	13.702875	14.512875		country	country
sw3570B-ms98-a-0002	@B.2	14.512875	14.662875		Now	now
sw3570B-ms98-a-0002	@B.2	14.662875	14.762875		I	i
sw3570B-ms98-a-0002	@B.2	14.762875	15.052875		think	think
sw3570B-ms98-a-0002	@B.2	15.052875	15.522875		what	what
sw3570B-ms98-a-0002	@B.2	15.522875	15.662875		we	we
sw3570B-ms98-a-0002	@B.2	15.662875	16.022875		made	made
sw3570B-ms98-a-0002	@B.2	16.022875	16.072875		a	a
sw3570B-ms98-a-0002	@B.2	16.072875	16.814625		major	major
sw3570B-ms98-a-0002	@B.2	16.814625	17.197625		[silence]	[silence]
sw3570B-ms98-a-0003	@B.2	17.197625	17.607625		[silence]	[silence]
sw3570B-ms98-a-0003	@B.2	17.607625	18.017625		wrong	wrong
sw3570B-ms98-a-0003	@B.2	18.017625	18.567625		turn	turn
sw3570B-ms98-a-0003	@B.2	18.567625	18.567625	<INS>	when	---
sw3570B-ms98-a-0003	@B.2	18.567625	18.727625		we	we
sw3570B-ms98-a-0003	@B.2	18.727625	18.997250		went	went
sw3570B-ms98-a-0003	@B.2	18.997250	19.369250		into	into
sw3570B-ms98-a-0003	@B.2	19.369250	19.617250		the	the
sw3570B-ms98-a-0003	@B.2	19.617250	19.977625		uh	uh
sw3570B-ms98-a-0003	@B.2	19.977625	20.509375		[silence]	[silence]
sw3570B-ms98-a-0004	@B.2	20.509375	21.079375		[silence]	[silence]
sw3570B-ms98-a-0004	@B.2	21.079375	21.229375		to	to
sw3570B-ms98-a-0004	@B.2	21.229375	21.361625		the	the
sw3570B-ms98-a-0004	@B.2	21.361625	22.408375		current	current
sw3570B-ms98-a-0004	@B.2	22.408375	23.089375		generation	generation
sw3570B-ms98-a-0004	@B.2	23.089375	23.209375		of	of
sw3570B-ms98-a-0004	@B.2	23.209375	23.609375		space	space
sw3570B-ms98-a-0004	@B.2	23.609375	24.292500		craft	craft
sw3570B-ms98-a-0004	@B.2	24.292500	24.450750		[silence]	[silence]
sw3570B-ms98-a-0004	@B.2	24.450750	24.569375		the	the
sw3570B-ms98-a-0004	@B.2	24.569375	25.209375		reusable	reusable
sw3570B-ms98-a-0004	@B.2	25.209375	25.389375		ones	ones
sw3570B-ms98-a-0004	@B.2	25.389375	25.549375		like	like
sw3570B-ms98-a-0004	@B.2	25.549375	25.659375		they	they
sw3570B-ms98-a-0004	@B.2	25.659375	25.919375		are	are
sw3570B-ms98-a-0004	@B.2	25.919375	26.486500		now	now
sw3570B-ms98-a-0004	B.4	26.486500	26.694250		[silence]	[silence]
sw3570B-ms98-a-0005	B.4	26.694250	27.144250		[silence]	[silence]
sw3570B-ms98-a-0005	B.4	27.144250	27.724250		because	because
sw3570B-ms98-a-0005	B.4	27.724250	27.914250		they	they
sw3570B-ms98-a-0005	B.4	27.914250	28.054250		have	have
sw3570B-ms98-a-0005	B.4	28.054250	28.314250		not	not
sw3570B-ms98-a-0005	B.4	28.314250	28.704250		proven	proven
sw3570B-ms98-a-0005	B.4	28.704250	28.854250		as	as
sw3570B-ms98-a-0005	B.4	28.854250	29.464250		reliable	reliable
sw3570B-ms98-a-0005	B.4	29.464250	29.564250		as	as
sw3570B-ms98-a-0005	B.4	29.564250	29.714250		they	they
sw3570B-ms98-a-0005	B.4	29.714250	30.044250		should	should
sw3570B-ms98-a-0005	B.4	30.044250	30.544250		have	have
sw3570B-ms98-a-0005	B.4	30.544250	30.634250		and	and
sw3570B-ms98-a-0005	B.4	30.634250	30.674250		I	i
sw3570B-ms98-a-0005	B.4	30.674250	30.924250		think	think
sw3570B-ms98-a-0005	B.4	30.924250	31.034250		some	some
sw3570B-ms98-a-0005	B.4	31.034250	31.154250		of	of
sw3570B-ms98-a-0005	B.4	31.154250	31.214250		the	the
sw3570B-ms98-a-0005	B.4	31.214250	31.554250		earlier	earlier
sw3570B-ms98-a-0005	B.4	31.554250	32.134250		approaches	approaches
sw3570B-ms98-a-0005	B.4	32.134250	32.234250		were	were
sw3570B-ms98-a-0005	B.4	32.234250	32.554250		much	much
sw3570B-ms98-a-0005	B.4	32.554250	32.952125		more	more
sw3570B-ms98-a-0005	B.4	32.952125	33.581125		[silence]	[silence]
sw3570B-ms98-a-0005	B.4	33.581125	34.504250	<SUB>	uh	um
sw3570B-ms98-a-0005	B.4	34.504250	34.744250		much	much
sw3570B-ms98-a-0005	B.4	34.744250	35.134250		better	better
sw3570B-ms98-a-0005	B.4	35.134250	35.214250		in	in
sw3570B-ms98-a-0005	B.4	35.214250	35.484250		many	many
sw3570B-ms98-a-0005	B.4	35.484250	36.144750		ways	ways
sw3570B-ms98-a-0005	B.4	36.144750	36.524375		[silence]	[silence]
sw3570B-ms98-a-0006	B.4	36.524375	36.954375		[silence]	[silence]
sw3570B-ms98-a-0006	B.4	36.954375	37.764375		However	however
sw3570B-ms98-a-0006	B.4	37.764375	38.165000	<SUB>	uh	um
sw3570B-ms98-a-0006	B.4	38.165000	38.876750		[silence]	[silence]
sw3570B-ms98-a-0006	B.4	38.876750	39.014375		you	you
sw3570B-ms98-a-0006	B.4	39.014375	39.124375		know	know
sw3570B-ms98-a-0006	B.4	39.124375	39.414375		we've	we've
sw3570B-ms98-a-0006	B.4	39.414375	39.564375		[silence]	[silence]
sw3570B-ms98-a-0006	B.4	39.564375	39.844375		gained	gained
sw3570B-ms98-a-0006	B.4	39.844375	39.954375		an	an
sw3570B-ms98-a-0006	B.4	39.954375	40.264375		awful	awful
sw3570B-ms98-a-0006	B.4	40.264375	40.474375		lot	lot
sw3570B-ms98-a-0006	B.4	40.474375	40.594375		from	from
sw3570B-ms98-a-0006	B.4	40.594375	40.654375		the	the
sw3570B-ms98-a-0006	B.4	40.654375	41.044375		space	space
sw3570B-ms98-a-0006	B.4	41.044375	41.414375		program	program
sw3570B-ms98-a-0006	B.4	41.414375	41.564375		all	all
sw3570B-ms98-a-0006	B.4	41.564375	41.624375		the	the
sw3570B-ms98-a-0006	B.4	41.624375	41.784375		way	way
sw3570B-ms98-a-0006	B.4	41.784375	42.034375		from	from
sw3570B-ms98-a-0006	B.4	42.034375	42.424375		remote	remote
sw3570B-ms98-a-0006	B.4	42.424375	43.124375		monitoring	monitoring
sw3570B-ms98-a-0006	B.4	43.124375	43.254375		to	to
sw3570B-ms98-a-0006	B.4	43.254375	44.188000		teflon	Teflon
sw3570B-ms98-a-0006	B.4	44.188000	44.535125		to	to
sw3570B-ms98-a-0006	B.4	44.535125	44.924125		uh	uh
sw3570B-ms98-a-0006	B.4	44.924125	45.044000		[silence]	[silence]
sw3570B-ms98-a-0007	B.4	45.044000	45.764000		[silence]	[silence]
sw3570B-ms98-a-0007	B.4	45.764000	45.944000		some	some
sw3570B-ms98-a-0007	B.4	45.944000	46.124000		new	new
sw3570B-ms98-a-0007	B.4	46.124000	46.534000		space	space
sw3570B-ms98-a-0007	B.4	46.534000	46.844000		age	age
sw3570B-ms98-a-0007	B.4	46.844000	47.484000		materials	materials
sw3570B-ms98-a-0007	B.4	47.484000	48.134000		plastics	plastics
sw3570B-ms98-a-0007	B.4	48.134000	48.254000		and	and
sw3570B-ms98-a-0007	B.4	48.254000	48.444000		all	all
sw3570B-ms98-a-0007	B.4	48.444000	48.734000		that	that
sw3570B-ms98-a-0007	B.4	48.734000	48.854000		So	so
sw3570B-ms98-a-0007	B.4	48.854000	48.884000		I	i
sw3570B-ms98-a-0007	B.4	48.884000	49.034000		think	think
sw3570B-ms98-a-0007	B.4	49.034000	49.154000		it's	it's
sw3570B-ms98-a-0007	B.4	49.154000	49.314000		been	been
sw3570B-ms98-a-0007	B.4	49.314000	49.434000		a	a
sw3570B-ms98-a-0007	B.4	49.434000	49.624000		good	good
sw3570B-ms98-a-0007	B.4	49.624000	50.434000		investment	investment
sw3570B-ms98-a-0007	B.4	50.434000	50.779000		[silence]	[silence]
sw3570B-ms98-a-0008	B.4	50.779000	51.134625		[silence]	[silence]
sw3570B-ms98-a-0008	B.4	51.134625	51.469000		Uh	uh
sw3570B-ms98-a-0008	B.4	51.469000	51.899000		somebody	somebody
sw3570B-ms98-a-0008	B.4	51.899000	52.049000		was	was
sw3570B-ms98-a-0008	B.4	52.049000	52.369000		telling	telling
sw3570B-ms98-a-0008	B.4	52.369000	52.539000		me	me
sw3570B-ms98-a-0008	B.4	52.539000	52.749000		the	the
sw3570B-ms98-a-0008	B.4	52.749000	53.524000		return	return
sw3570B-ms98-a-0008	B.4	53.524000	54.111750		[silence]	[silence]
sw3570B-ms98-a-0009	B.4	54.111750	54.701750		[silence]	[silence]
sw3570B-ms98-a-0009	B.4	54.701750	54.831750		was	was
sw3570B-ms98-a-0009	B.4	54.831750	55.101750		about	about
sw3570B-ms98-a-0009	B.4	55.101750	55.351750	<CONT>	twenty-five	twenty
sw3570B-ms98-a-0009	B.4	55.351750	55.611750	<CONT>	+++	five
sw3570B-ms98-a-0009	B.4	55.611750	55.691750		or	or
sw3570B-ms98-a-0009	B.4	55.691750	55.981750		thirty	thirty
sw3570B-ms98-a-0009	B.4	55.981750	56.391750		dollars	dollars
sw3570B-ms98-a-0009	B.4	56.391750	56.551750		for	for
sw3570B-ms98-a-0009	B.4	56.551750	56.701750		every	every
sw3570B-ms98-a-0009	B.4	56.701750	57.051750		dollar	dollar
sw3570B-ms98-a-0009	B.4	57.051750	57.806500		spent	spent
sw3570B-ms98-a-0009	B.6	57.806500	58.268000		[silence]	[silence]
sw3570B-ms98-a-0010	B.6	58.268000	58.808000		[silence]	[silence]
sw3570B-ms98-a-0010	B.6	58.808000	59.008000		which	which
sw3570B-ms98-a-0010	B.6	59.008000	59.118000		is	is
sw3570B-ms98-a-0010	B.6	59.118000	59.608000		amazing	amazing
sw3570B-ms98-a-0010	B.6	59.608000	59.728000		for	for
sw3570B-ms98-a-0010	B.6	59.728000	59.958000		any	any
sw3570B-ms98-a-0010	B.6	59.958000	60.771875		governmental	governmental
sw3570B-ms98-a-0010	B.6	60.771875	61.328250		[silence]	[silence]
sw3570B-ms98-a-0010	B.6	61.328250	61.848000		financed	financed
sw3570B-ms98-a-0010	B.8	61.848000	62.788000		program	program
sw3570B-ms98-a-0010	B.10	62.788000	63.752125		[noise]	[noise]
sw3570B-ms98-a-0010	B.10	63.752125	66.253375		[laughter]	[laughter]
sw3570B-ms98-a-0010	B.10	66.253375	66.430875		I	i
sw3570B-ms98-a-0010	B.10	66.430875	66.585375		wish	wish
sw3570B-ms98-a-0010	B.10	66.585375	66.690500		the	the
sw3570B-ms98-a-0010	B.10	66.690500	66.991875		post	post
sw3570B-ms98-a-0010	B.10	66.991875	67.248000		office	office
sw3570B-ms98-a-0010	B.10	67.248000	67.248000	<INS>	would	---
sw3570B-ms98-a-0010	B.10	67.248000	67.418000		just	just
sw3570B-ms98-a-0010	B.10	67.418000	67.648000		stop	stop
sw3570B-ms98-a-0010	B.10	67.648000	68.018000		raising	raising
sw3570B-ms98-a-0010	B.10	68.018000	68.138000		our	our
sw3570B-ms98-a-0010	B.10	68.138000	68.712000		rates	rates
sw3570B-ms98-a-0010	B.12	68.712000	69.973250		[silence]	[silence]
sw3570B-ms98-a-0010	B.12	69.973250	70.746750	<DEL>	---	um
sw3570B-ms98-a-0010	B.12	70.746750	71.425375		[silence]	[silence]
sw3570B-ms98-a-0011	B.12	71.425375	71.749625		[silence]	[silence]
sw3570B-ms98-a-0011	B.12	71.749625	72.355375		[noise]	[noise]
sw3570B-ms98-a-0011	B.12	72.355375	72.525375		I	i
sw3570B-ms98-a-0011	B.12	72.525375	72.775375		think	think
sw3570B-ms98-a-0011	B.12	72.775375	72.985375		though	though
sw3570B-ms98-a-0011	B.12	72.985375	73.145375		that	that
sw3570B-ms98-a-0011	B.12	73.145375	73.425375		now	now
sw3570B-ms98-a-0011	B.12	73.425375	73.605375		that	that
sw3570B-ms98-a-0011	B.12	73.605375	73.725375		we're	we're
sw3570B-ms98-a-0011	B.12	73.725375	74.375375		finally	finally
sw3570B-ms98-a-0011	B.12	74.375375	74.675375		starting	starting
sw3570B-ms98-a-0011	B.12	74.675375	74.735375		to	to
sw3570B-ms98-a-0011	B.12	74.735375	74.895375		get	get
sw3570B-ms98-a-0011	B.12	74.895375	75.185375		over	over
sw3570B-ms98-a-0011	B.12	75.185375	75.345375		the	the
sw3570B-ms98-a-0011	B.12	75.345375	76.005375		fears	fears
sw3570B-ms98-a-0011	B.12	76.005375	76.515375		and	and
sw3570B-ms98-a-0011	B.12	76.515375	76.655375		the	the
sw3570B-ms98-a-0011	B.12	76.655375	76.939750		uh	uh
sw3570B-ms98-a-0011	B.12	76.939750	77.394250		[silence]	[silence]
sw3570B-ms98-a-0012	B.12	77.394250	77.854250		[silence]	[silence]
sw3570B-ms98-a-0012	B.12	77.854250	78.684250		oh	oh
sw3570B-ms98-a-0012	B.12	78.684250	78.814250		I	i
sw3570B-ms98-a-0012	B.12	78.814250	78.974250		don't	don't
sw3570B-ms98-a-0012	B.12	78.974250	79.104250		know	know
sw3570B-ms98-a-0012	B.12	79.104250	79.234250		the	the
sw3570B-ms98-a-0012	B.12	79.234250	79.614250		guilt	guilt
sw3570B-ms98-a-0012	B.12	79.614250	79.754250		that	that
sw3570B-ms98-a-0012	B.12	79.754250	79.894250		we	we
sw3570B-ms98-a-0012	B.12	79.894250	80.134250		had	had
sw3570B-ms98-a-0012	B.12	80.134250	80.334250		out	out
sw3570B-ms98-a-0012	B.12	80.334250	80.514250		of	of
sw3570B-ms98-a-0012	B.12	80.514250	80.858875		uh	uh
sw3570B-ms98-a-0012	B.12	80.858875	81.474250		Challenger	Challenger
sw3570B-ms98-a-0012	B.12	81.474250	81.554250		I	i
sw3570B-ms98-a-0012	B.12	81.554250	81.764250		think	think
sw3570B-ms98-a-0012	B.12	81.764250	82.014250		maybe	maybe
sw3570B-ms98-a-0012	B.12	82.014250	82.164250		we	we
sw3570B-ms98-a-0012	B.12	82.164250	82.384250		can	can
sw3570B-ms98-a-0012	B.14	82.384250	82.554250		pick	pick
sw3570B-ms98-a-0012	B.14	82.554250	82.734250		up	up
sw3570B-ms98-a-0012	B.14	82.734250	82.834250		and	and
sw3570B-ms98-a-0012	B.14	82.834250	83.244250		go	go
sw3570B-ms98-a-0012	B.14	83.244250	83.314250		on	on
sw3570B-ms98-a-0012	B.14	83.314250	83.624250		now	now
sw3570B-ms98-a-0012	B.14	83.624250	84.054250		But	but
sw3570B-ms98-a-0012	B.14	84.054250	84.595625		[silence]	[silence]
sw3570B-ms98-a-0013	B.14	84.595625	85.095625		[silence]	[silence]
sw3570B-ms98-a-0013	B.14	85.095625	85.874125		I	i
sw3570B-ms98-a-0013	B.14	85.874125	86.390125		[silence]	[silence]
sw3570B-ms98-a-0013	B.14	86.390125	86.545625		I	i
sw3570B-ms98-a-0013	B.14	86.545625	86.765625		don't	don't
sw3570B-ms98-a-0013	B.14	86.765625	86.945625		know	know
sw3570B-ms98-a-0013	B.14	86.945625	87.015625		I	i
sw3570B-ms98-a-0013	B.14	87.015625	87.195625		don't	don't
sw3570B-ms98-a-0013	B.14	87.195625	87.355625		think	think
sw3570B-ms98-a-0013	B.14	87.355625	87.505625	<SUB>	we	we're
sw3570B-ms98-a-0013	B.14	87.505625	88.083875		really	really
sw3570B-ms98-a-0013	B.14	88.083875	88.255625		have	have
sw3570B-ms98-a-0013	B.14	88.255625	88.465625		all	all
sw3570B-ms98-a-0013	B.14	88.465625	88.545625		of	of
sw3570B-ms98-a-0013	B.14	88.545625	88.765625		our	our
sw3570B-ms98-a-0013	B.14	88.765625	89.045625		act	act
sw3570B-ms98-a-0013	B.14	89.045625	89.405625		together	together
sw3570B-ms98-a-0013	B.14	89.405625	89.795625		yet	yet
sw3570B-ms98-a-0013	B.14	89.795625	89.935625		as	as
sw3570B-ms98-a-0013	B.14	89.935625	90.245625		far	far
sw3570B-ms98-a-0013	B.14	90.245625	90.385625		as	as
sw3570B-ms98-a-0013	B.14	90.385625	90.745625		clear	clear
sw3570B-ms98-a-0013	B.14	90.745625	91.530375		objectives	objectives
sw3570B-ms98-a-0013	B.16	91.530375	91.937375		[silence]	[silence]
sw3570B-ms98-a-0014	B.16	91.937375	92.287375		[silence]	[silence]
sw3570B-ms98-a-0014	B.16	92.287375	92.397375		The	the
sw3570B-ms98-a-0014	B.16	92.397375	92.797375		space	space
sw3570B-ms98-a-0014	B.16	92.797375	93.177375	<CONT>	station's	station
sw3570B-ms98-a-0014	B.16	93.177375	93.327375	<CONT>	+++	is
sw3570B-ms98-a-0014	B.16	93.327375	93.467375		where	where
sw3570B-ms98-a-0014	B.16	93.467375	93.587375		we	we
sw3570B-ms98-a-0014	B.16	93.587375	93.927375		should	should
sw3570B-ms98-a-0014	B.16	93.927375	94.331000		go	go
sw3570B-ms98-a-0014	B.18	94.331000	94.595000		[silence]	[silence]
sw3570B-ms98-a-0015	B.18	94.595000	94.825000		[silence]	[silence]
sw3570B-ms98-a-0015	B.18	94.825000	94.975000		at	at
sw3570B-ms98-a-0015	B.18	94.975000	95.205000		this	this
sw3570B-ms98-a-0015	B.18	95.205000	95.736875		point	point
sw3570B-ms98-a-0015	B.20	95.736875	96.097250		[silence]	[silence]
sw3570B-ms98-a-0016	B.20	96.097250	117.796000		[silence]	[silence]
sw3570B-ms98-a-0017	B.20	117.796000	118.536000		[silence]	[silence]
sw3570B-ms98-a-0017	B.20	118.536000	118.686000		Well	well
sw3570B-ms98-a-0017	B.20	118.686000	118.786000		where	where
sw3570B-ms98-a-0017	B.20	118.786000	118.846000		do	do
sw3570B-ms98-a-0017	B.20	118.846000	118.906000		you	you
sw3570B-ms98-a-0017	B.20	118.906000	119.076000		think	think
sw3570B-ms98-a-0017	B.20	119.076000	119.206000		we	we
sw3570B-ms98-a-0017	B.20	119.206000	119.296000		ought	ought
sw3570B-ms98-a-0017	B.20	119.296000	119.356000		to	to
sw3570B-ms98-a-0017	B.20	119.356000	119.556000		go	go
sw3570B-ms98-a-0017	B.20	119.556000	119.756000		with	with
sw3570B-ms98-a-0017	B.20	119.756000	120.026625		it	it
sw3570B-ms98-a-0017	B.22	120.026625	120.659625		[silence]	[silence]
sw3570B-ms98-a-0018	B.22	120.659625	121.459625		[silence]	[silence]
sw3570B-ms98-a-0018	B.22	121.459625	121.549625		You	you
sw3570B-ms98-a-0018	B.22	121.549625	121.729625		talking	talking
sw3570B-ms98-a-0018	B.22	121.729625	122.034125		about	about_1
sw3570B-ms98-a-0018	B.22	122.034125	122.410875		uh	uh
sw3570B-ms98-a-0018	B.22	122.410875	122.621250		uh	uh
sw3570B-ms98-a-0018	B.22	122.621250	122.838500		a	a
sw3570B-ms98-a-0018	B.22	122.838500	122.989125	<DEL>	---	a
sw3570B-ms98-a-0018	B.22	122.989125	123.319625		fully	fully
sw3570B-ms98-a-0018	B.22	123.319625	123.699625		manned	manned
sw3570B-ms98-a-0018	B.22	123.699625	123.999625		space	space
sw3570B-ms98-a-0018	B.22	123.999625	124.379625		station	station
sw3570B-ms98-a-0018	B.22	124.379625	124.489625		that	that
sw3570B-ms98-a-0018	B.22	124.489625	124.599625		we'll	we'll
sw3570B-ms98-a-0018	B.22	124.599625	124.829625		keep	keep
sw3570B-ms98-a-0018	B.22	124.829625	125.049625		up	up
sw3570B-ms98-a-0018	B.22	125.049625	125.474625		there	there
sw3570B-ms98-a-0018	B.24	125.474625	126.085500		[silence]	[silence]
sw3570B-ms98-a-0019	B.24	126.085500	138.485375		[silence]	[silence]
sw3570B-ms98-a-0020	B.24	138.485375	138.976125		[silence]	[silence]
sw3570B-ms98-a-0020	B.24	138.976125	139.325375		[noise]	[noise]
sw3570B-ms98-a-0020	B.24	139.325375	139.495375		Well	well
sw3570B-ms98-a-0020	B.26	139.495375	139.781750	<DEL>	---	you
sw3570B-ms98-a-0020	B.26	139.781750	140.307750		[silence]	[silence]
sw3570B-ms98-a-0021	B.26	140.307750	149.945250		[silence]	[silence]
sw3570B-ms98-a-0022	B.26	149.945250	150.445250		[silence]	[silence]
sw3570B-ms98-a-0022	B.26	150.445250	150.595250		Well	well
sw3570B-ms98-a-0022	B.26	150.595250	150.625250		I	i
sw3570B-ms98-a-0022	B.26	150.625250	150.785250		think	think
sw3570B-ms98-a-0022	B.26	150.785250	151.045250		about	about
sw3570B-ms98-a-0022	B.26	151.045250	151.335250		half	half
sw3570B-ms98-a-0022	B.26	151.335250	151.405250		the	the
sw3570B-ms98-a-0022	B.26	151.405250	151.915250	<SUB>	nations	missions
sw3570B-ms98-a-0022	B.26	151.915250	152.205250		now	now
sw3570B-ms98-a-0022	B.26	152.205250	152.425250		are	are
sw3570B-ms98-a-0022	B.26	152.425250	152.515250		are	are
sw3570B-ms98-a-0022	B.26	152.515250	153.035250		military	military
sw3570B-ms98-a-0022	B.26	153.035250	153.475250		related	related
sw3570B-ms98-a-0022	B.26	153.475250	153.615250		are	are
sw3570B-ms98-a-0022	B.26	153.615250	153.735250		they	they
sw3570B-ms98-a-0022	B.26	153.735250	154.055250		not	not
sw3570B-ms98-a-0022	B.28	154.055250	154.371000		[silence]	[silence]
sw3570B-ms98-a-0023	B.28	154.371000	155.405125		[silence]	[silence]
sw3570B-ms98-a-0024	B.28	155.405125	155.765125		[silence]	[silence]
sw3570B-ms98-a-0024	B.28	155.765125	156.299750		And	and
sw3570B-ms98-a-0024	B.28	156.299750	156.574500		uh	uh
sw3570B-ms98-a-0024	B.30	156.574500	156.957500		[silence]	[silence]
sw3570B-ms98-a-0025	B.30	156.957500	157.447500		[silence]	[silence]
sw3570B-ms98-a-0025	B.30	157.447500	157.617500		It	it
sw3570B-ms98-a-0025	B.30	157.617500	157.957500		seems	seems
sw3570B-ms98-a-0025	B.30	157.957500	158.127500		like	like
sw3570B-ms98-a-0025	B.30	158.127500	158.277500		it's	it's
sw3570B-ms98-a-0025	B.30	158.277500	158.457500		that	that
sw3570B-ms98-a-0025	B.30	158.457500	158.707500		high	high
sw3570B-ms98-a-0025	B.30	158.707500	158.767500		a	a
sw3570B-ms98-a-0025	B.30	158.767500	159.532000		percentage	percentage
sw3570B-ms98-a-0025	B.32	159.532000	159.981125		[silence]	[silence]
sw3570B-ms98-a-0026	B.32	159.981125	173.884000		[silence]	[silence]
sw3570B-ms98-a-0027	B.32	173.884000	174.434000		[silence]	[silence]
sw3570B-ms98-a-0027	B.32	174.434000	174.544000		Well	well
sw3570B-ms98-a-0027	B.32	174.544000	174.604000	<SUB>	it	they
sw3570B-ms98-a-0027	B.32	174.604000	174.834000		can't	can't
sw3570B-ms98-a-0027	B.32	174.834000	175.204000		afford	afford
sw3570B-ms98-a-0027	B.32	175.204000	175.591125		to	to
sw3570B-ms98-a-0027	B.34	175.591125	176.586125		[laughter]	[laughter]
sw3570B-ms98-a-0027	B.34	176.586125	177.349625		[silence]	[silence]
sw3570B-ms98-a-0028	B.34	177.349625	180.759625		[silence]	[silence]
sw3570B-ms98-a-0029	B.34	180.759625	181.099625		[silence]	[silence]
sw3570B-ms98-a-0029	B.34	181.099625	181.669625		No	no
sw3570B-ms98-a-0029	B.34	181.669625	181.969625		we	we
sw3570B-ms98-a-0029	B.34	181.969625	182.089625		were	were
sw3570B-ms98-a-0029	B.34	182.089625	182.359625		talking	talking
sw3570B-ms98-a-0029	B.34	182.359625	182.608125		about	about
sw3570B-ms98-a-0029	B.34	182.608125	182.965875		that	that
sw3570B-ms98-a-0029	B.34	182.965875	183.199625		this	this
sw3570B-ms98-a-0029	B.34	183.199625	183.769625		weekend	weekend
sw3570B-ms98-a-0029	B.34	183.769625	183.889625		We	we
sw3570B-ms98-a-0029	B.34	183.889625	184.039625		it's	it's
sw3570B-ms98-a-0029	B.34	184.039625	184.209625		only	only
sw3570B-ms98-a-0029	B.34	184.209625	184.329625		going	going
sw3570B-ms98-a-0029	B.34	184.329625	184.389625		to	to
sw3570B-ms98-a-0029	B.34	184.389625	184.499625		be	be
sw3570B-ms98-a-0029	B.34	184.499625	184.639625		there	there
sw3570B-ms98-a-0029	B.34	184.639625	184.689625		a	a
sw3570B-ms98-a-0029	B.34	184.689625	184.909625		couple	couple
sw3570B-ms98-a-0029	B.34	184.909625	184.909625	<INS>	of	---
sw3570B-ms98-a-0029	B.34	184.909625	185.089625		more	more
sw3570B-ms98-a-0029	B.34	185.089625	185.439625		weeks	weeks
sw3570B-ms98-a-0029	B.36	185.439625	185.539625		We	we
sw3570B-ms98-a-0029	B.36	185.539625	185.719625		need	need
sw3570B-ms98-a-0029	B.36	185.719625	185.799625		to	to
sw3570B-ms98-a-0029	B.36	185.799625	186.491625		go	go
sw3570B-ms98-a-0029	B.38	186.491625	187.171125		[silence]	[silence]
sw3570B-ms98-a-0030	B.38	187.171125	187.890500		[silence]	[silence]
sw3570B-ms98-a-0030	B.38	187.890500	188.218625		[noise]	[noise]
sw3570B-ms98-a-0030	B.38	188.218625	188.511375		[silence]	[silence]
sw3570B-ms98-a-0031	B.38	188.511375	196.176375		[silence]	[silence]
sw3570B-ms98-a-0032	B.38	196.176375	196.667125		[silence]	[silence]
sw3570B-ms98-a-0032	B.38	196.667125	196.756375		[noise]	[noise]
sw3570B-ms98-a-0032	B.38	196.756375	197.036375		Have	have
sw3570B-ms98-a-0032	B.38	197.036375	197.395750		they	they
sw3570B-ms98-a-0032	B.40	197.395750	197.868625		[silence]	[silence]
sw3570B-ms98-a-0033	B.40	197.868625	213.850500		[silence]	[silence]
sw3570B-ms98-a-0034	B.40	213.850500	214.144000		[silence]	[silence]
sw3570B-ms98-a-0034	B.40	214.144000	214.660500		[noise]	[noise]
sw3570B-ms98-a-0034	B.40	214.660500	215.170500		Oh	oh
sw3570B-ms98-a-0034	B.40	215.170500	215.824750		yes	yes
sw3570B-ms98-a-0034	B.42	215.824750	216.102125		[silence]	[silence]
sw3570B-ms98-a-0035	B.42	216.102125	220.714500		[silence]	[silence]
sw3570B-ms98-a-0036	B.42	220.714500	221.344500		[silence]	[silence]
sw3570B-ms98-a-0036	B.42	221.344500	221.614500		Well	well
sw3570B-ms98-a-0036	B.42	221.614500	221.884500		maybe	maybe
sw3570B-ms98-a-0036	B.42	221.884500	221.954500		I	i
sw3570B-ms98-a-0036	B.42	221.954500	222.144500		need	need
sw3570B-ms98-a-0036	B.42	222.144500	222.214500		to	to
sw3570B-ms98-a-0036	B.42	222.214500	222.384500		run	run
sw3570B-ms98-a-0036	B.42	222.384500	222.574500		out	out
sw3570B-ms98-a-0036	B.42	222.574500	222.724500		there	there
sw3570B-ms98-a-0036	B.42	222.724500	222.944500		this	this
sw3570B-ms98-a-0036	B.42	222.944500	223.408000		weekend	weekend
sw3570B-ms98-a-0036	B.44	223.408000	223.786375		[silence]	[silence]
sw3570B-ms98-a-0037	B.44	223.786375	231.563875		[silence]	[silence]
sw3570B-ms98-a-0038	B.44	231.563875	232.063875		[silence]	[silence]
sw3570B-ms98-a-0038	B.44	232.063875	232.173875		Now	now
sw3570B-ms98-a-0038	B.44	232.173875	232.273875		do	do
sw3570B-ms98-a-0038	B.44	232.273875	232.343875		you	you
sw3570B-ms98-a-0038	B.44	232.343875	232.453875		have	have
sw3570B-ms98-a-0038	B.44	232.453875	232.533875		to	to
sw3570B-ms98-a-0038	B.44	232.533875	232.683875		have	have
sw3570B-ms98-a-0038	B.44	232.683875	233.043875		tickets	tickets
sw3570B-ms98-a-0038	B.44	233.043875	233.418750		ahead	ahead
sw3570B-ms98-a-0038	B.44	233.418750	233.927250		[silence]	[silence]
sw3570B-ms98-a-0038	B.44	233.927250	234.393875		Excuse	excuse
sw3570B-ms98-a-0038	B.44	234.393875	234.750125		me	me
sw3570B-ms98-a-0038	B.46	234.750125	234.991000		[silence]	[silence]
sw3570B-ms98-a-0039	B.46	234.991000	240.956375		[silence]	[silence]
sw3570B-ms98-a-0040	B.46	240.956375	241.385250		[silence]	[silence]
sw3570B-ms98-a-0040	B.46	241.385250	242.016500		[laughter]	[laughter]
sw3570B-ms98-a-0040	B.46	242.016500	242.420375		[silence]	[silence]
sw3570B-ms98-a-0041	B.46	242.420375	246.637625		[silence]	[silence]
sw3570B-ms98-a-0042	B.46	246.637625	247.206750		[silence]	[silence]
sw3570B-ms98-a-0042	B.46	247.206750	247.562750		Um	um
sw3570B-ms98-a-0042	B.46	247.562750	247.677625		I	i
sw3570B-ms98-a-0042	B.46	247.677625	247.907625		think	think
sw3570B-ms98-a-0042	B.46	247.907625	248.156875		both	both
sw3570B-ms98-a-0042	B.46	248.156875	248.345250		of	of
sw3570B-ms98-a-0042	B.46	248.345250	248.657625	<DEL>	---	both
sw3570B-ms98-a-0042	B.46	248.657625	248.727625	<DEL>	---	of
sw3570B-ms98-a-0042	B.46	248.727625	248.897625		my	my
sw3570B-ms98-a-0042	B.46	248.897625	249.177625		kids	kids
sw3570B-ms98-a-0042	B.46	249.177625	249.237625		are	are
sw3570B-ms98-a-0042	B.46	249.237625	249.427625		too	too
sw3570B-ms98-a-0042	B.46	249.427625	249.717625		old	old
sw3570B-ms98-a-0042	B.46	249.717625	249.837625		for	for
sw3570B-ms98-a-0042	B.46	249.837625	250.330250		that	that
sw3570B-ms98-a-0042	B.48	250.330250	250.481250		[silence]	[silence]
sw3570B-ms98-a-0043	B.48	250.481250	250.778000		[silence]	[silence]
sw3570B-ms98-a-0043	B.48	250.778000	250.981250		they're	they're
sw3570B-ms98-a-0043	B.48	250.981250	251.401250		both	both
sw3570B-ms98-a-0043	B.48	251.401250	251.785750		uh	uh
sw3570B-ms98-a-0043	B.50	251.785750	252.264125		[silence]	[silence]
sw3570B-ms98-a-0044	B.50	252.264125	252.964125		[silence]	[silence]
sw3570B-ms98-a-0044	B.50	252.964125	253.724125		Yes	yes
sw3570B-ms98-a-0044	B.50	253.724125	254.262250		yes	yes
sw3570B-ms98-a-0044	B.52	254.262250	254.542375		[silence]	[silence]
sw3570B-ms98-a-0045	B.52	254.542375	261.078125		[silence]	[silence]
sw3570B-ms98-a-0046	B.52	261.078125	261.608125		[silence]	[silence]
sw3570B-ms98-a-0046	B.52	261.608125	261.768125	<SUB>	Did	but
sw3570B-ms98-a-0046	B.52	261.768125	262.036000		you	you
sw3570B-ms98-a-0046	B.54	262.036000	262.501000		[silence]	[silence]
sw3570B-ms98-a-0047	B.54	262.501000	263.982875		[silence]	[silence]
sw3570B-ms98-a-0048	B.54	263.982875	264.012125		[silence]	[silence]
sw3570B-ms98-a-0048	B.54	264.012125	264.264625		It's	it's
sw3570B-ms98-a-0048	B.54	264.264625	264.354625		[silence]	[silence]
sw3570B-ms98-a-0048	B.54	264.354625	264.662875	<DEL>	---	it's
sw3570B-ms98-a-0048	B.54	264.662875	264.952875		very	very
sw3570B-ms98-a-0048	B.54	264.952875	265.442875		impressive	impressive
sw3570B-ms98-a-0048	B.54	265.442875	265.622875		I'm	i'm
sw3570B-ms98-a-0048	B.54	265.622875	266.129625		sure	sure
sw3570B-ms98-a-0048	B.58	266.129625	266.436750		[silence]	[silence]
sw3570B-ms98-a-0049	B.58	266.436750	272.862875		[silence]	[silence]
sw3570B-ms98-a-0050	B.58	272.862875	273.082875		[silence]	[silence]
sw3570B-ms98-a-0050	B.58	273.082875	273.343125	<DEL>	---	what
sw3570B-ms98-a-0050	B.58	273.343125	273.685500		[silence]	[silence]
sw3570B-ms98-a-0051	B.58	273.685500	275.052500		[silence]	[silence]
sw3570B-ms98-a-0052	B.58	275.052500	275.434375		[silence]	[silence]
sw3570B-ms98-a-0052	B.58	275.434375	276.018000	<SUB>	Uh-huh	um-hum
sw3570B-ms98-a-0052	B.60	276.018000	276.415250		[silence]	[silence]
sw3570B-ms98-a-0053	B.60	276.415250	280.943125		[silence]	[silence]
sw3570B-ms98-a-0054	B.60	280.943125	281.403125		[silence]	[silence]
sw3570B-ms98-a-0054	B.60	281.403125	281.523125		Well	well
sw3570B-ms98-a-0054	B.60	281.523125	281.653125		see	see
sw3570B-ms98-a-0054	B.60	281.653125	281.733125	<DEL>	---	now
sw3570B-ms98-a-0054	B.60	281.733125	281.923125		that's	that's
sw3570B-ms98-a-0054	B.60	281.923125	282.173125		something	something
sw3570B-ms98-a-0054	B.60	282.173125	282.593125		else	else
sw3570B-ms98-a-0054	B.60	282.593125	282.763125		The	the
sw3570B-ms98-a-0054	B.60	282.763125	283.033125	<DEL>	---	uh
sw3570B-ms98-a-0054	B.60	283.033125	283.403125		Russians	Russians
sw3570B-ms98-a-0054	B.60	283.403125	283.543125		have	have
sw3570B-ms98-a-0054	B.60	283.543125	283.703125		had	had
sw3570B-ms98-a-0054	B.60	283.703125	284.053125		space	space
sw3570B-ms98-a-0054	B.60	284.053125	284.772375		stations	stations
sw3570B-ms98-a-0054	B.60	284.772375	285.396875		[silence]	[silence]
sw3570B-ms98-a-0054	B.60	285.396875	285.803125		manned	manned
sw3570B-ms98-a-0054	B.60	285.803125	286.222125		stat-	stat[ions]-
sw3570B-ms98-a-0054	B.60	286.222125	286.395375		[silence]	[silence]
sw3570B-ms98-a-0054	B.60	286.395375	286.783125		space	space
sw3570B-ms98-a-0054	B.60	286.783125	287.193125		stations	stations
sw3570B-ms98-a-0054	B.60	287.193125	287.313125		for	for
sw3570B-ms98-a-0054	B.60	287.313125	287.753125		years	years
sw3570B-ms98-a-0054	B.60	287.753125	288.247500		now	now
sw3570B-ms98-a-0054	B.60	288.247500	288.906625		[silence]	[silence]
sw3570B-ms98-a-0054	B.60	288.906625	289.173125		You	you
sw3570B-ms98-a-0054	B.60	289.173125	289.303125	<DEL>	---	you
sw3570B-ms98-a-0054	B.60	289.303125	289.443125		know	know
sw3570B-ms98-a-0054	B.60	289.443125	289.573125		they	they
sw3570B-ms98-a-0054	B.60	289.573125	289.683125		had	had
sw3570B-ms98-a-0054	B.60	289.683125	289.753125		the	the
sw3570B-ms98-a-0054	B.60	289.753125	290.476125	<SUB>	Merv	[MIRV/MIR]
sw3570B-ms98-a-0054	B.62	290.476125	290.862875		[silence]	[silence]
sw3570B-ms98-a-0055	B.62	290.862875	291.506250		[silence]	[silence]
sw3570B-ms98-a-0055	B.62	291.506250	291.852875		and	and
sw3570B-ms98-a-0055	B.62	291.852875	292.012875		see	see
sw3570B-ms98-a-0055	B.62	292.012875	292.272875		we've	we've
sw3570B-ms98-a-0055	B.62	292.272875	292.582875		yet	yet
sw3570B-ms98-a-0055	B.62	292.582875	292.642875		to	to
sw3570B-ms98-a-0055	B.62	292.642875	292.902875		keep	keep
sw3570B-ms98-a-0055	B.62	292.902875	293.262875		anyone	anyone
sw3570B-ms98-a-0055	B.62	293.262875	293.452875		up	up
sw3570B-ms98-a-0055	B.62	293.452875	293.842875		over	over
sw3570B-ms98-a-0055	B.64	293.842875	294.022875		[vocalized-noise]	[vocalized-noise]
sw3570B-ms98-a-0055	B.64	294.022875	294.312875		over	over
sw3570B-ms98-a-0055	B.64	294.312875	294.372875		a	a
sw3570B-ms98-a-0055	B.64	294.372875	294.562875		week	week
sw3570B-ms98-a-0055	B.64	294.562875	294.642875		or	or
sw3570B-ms98-a-0055	B.64	294.642875	294.892875		ten	ten
sw3570B-ms98-a-0055	B.64	294.892875	295.497250		days	days
sw3570B-ms98-a-0055	B.64	295.497250	295.812250		[silence]	[silence]
sw3570B-ms98-a-0056	B.64	295.812250	298.402000		[silence]	[silence]
