sw3570A-ms98-a-0001	A.1	0.000000	0.020000		[silence]	[silence]
sw3570A-ms98-a-0001	A.1	0.020000	0.050000		[noise]	[noise]
sw3570A-ms98-a-0001	A.1	0.050000	0.170000	<SUB>	Okay	-[o]kay
sw3570A-ms98-a-0001	A.1	0.170000	0.663875		Howard	Howard
sw3570A-ms98-a-0001	A.1	0.663875	0.810000		what	what
sw3570A-ms98-a-0001	A.1	0.810000	0.900000		do	do
sw3570A-ms98-a-0001	A.1	0.900000	1.050000		you	you
sw3570A-ms98-a-0001	A.1	1.050000	1.300000		think	think
sw3570A-ms98-a-0001	A.1	1.300000	1.400000		of	of
sw3570A-ms98-a-0001	A.1	1.400000	1.560000		our	our
sw3570A-ms98-a-0001	A.1	1.560000	1.910000		space	space
sw3570A-ms98-a-0001	A.1	1.910000	2.310000		budget	budget
sw3570A-ms98-a-0001	A.1	2.310000	2.770000		and	and
sw3570A-ms98-a-0001	A.1	2.770000	3.070000		should	should
sw3570A-ms98-a-0001	A.1	3.070000	3.200000		we	we
sw3570A-ms98-a-0001	A.1	3.200000	3.400000		go	go
sw3570A-ms98-a-0001	A.1	3.400000	3.790000		ahead	ahead
sw3570A-ms98-a-0001	A.1	3.790000	4.210000		and	and
sw3570A-ms98-a-0001	A.1	4.210000	4.526125		[silence]	[silence]
sw3570A-ms98-a-0002	A.1	4.526125	4.906125		[silence]	[silence]
sw3570A-ms98-a-0002	A.1	4.906125	5.066125		and	and
sw3570A-ms98-a-0002	A.1	5.066125	5.316125		keep	keep
sw3570A-ms98-a-0002	A.1	5.316125	5.866125		exploring	exploring
sw3570A-ms98-a-0002	A.1	5.866125	5.966125		or	or
sw3570A-ms98-a-0002	A.1	5.966125	6.176125		should	should
sw3570A-ms98-a-0002	A.1	6.176125	6.286125		we	we
sw3570A-ms98-a-0002	A.1	6.286125	6.566125		call	call
sw3570A-ms98-a-0002	A.1	6.566125	6.636125		a	a
sw3570A-ms98-a-0002	A.1	6.636125	6.976125		halt	halt
sw3570A-ms98-a-0002	A.1	6.976125	7.216125		to	to
sw3570A-ms98-a-0002	A.1	7.216125	7.545875		it	it
sw3570A-ms98-a-0002	A.1	7.545875	7.746125		is	is
sw3570A-ms98-a-0002	A.1	7.746125	7.886125		it	it
sw3570A-ms98-a-0002	A.1	7.886125	8.166125		doing	doing
sw3570A-ms98-a-0002	A.1	8.166125	8.286125		any	any
sw3570A-ms98-a-0002	A.1	8.286125	8.810375		good	good
sw3570A-ms98-a-0002	A.3	8.810375	9.460375		[silence]	[silence]
sw3570A-ms98-a-0003	A.3	9.460375	25.998250		[silence]	[silence]
sw3570A-ms98-a-0004	A.3	25.998250	26.357750		[silence]	[silence]
sw3570A-ms98-a-0004	A.3	26.357750	26.812000	<SUB>	Uh-huh	um-hum
sw3570A-ms98-a-0004	A.5	26.812000	27.141375		[silence]	[silence]
sw3570A-ms98-a-0005	A.5	27.141375	57.452000		[silence]	[silence]
sw3570A-ms98-a-0006	A.5	57.452000	57.912000		[silence]	[silence]
sw3570A-ms98-a-0006	A.5	57.912000	58.092000		Oh	oh
sw3570A-ms98-a-0006	A.5	58.092000	58.705375		really	really
sw3570A-ms98-a-0006	A.7	58.705375	59.059500		[silence]	[silence]
sw3570A-ms98-a-0007	A.7	59.059500	61.050875		[silence]	[silence]
sw3570A-ms98-a-0008	A.7	61.050875	61.620875		[silence]	[silence]
sw3570A-ms98-a-0008	A.7	61.620875	61.760875		Oh	oh
sw3570A-ms98-a-0008	A.7	61.760875	62.320875		yes	yes
sw3570A-ms98-a-0008	A.9	62.320875	62.580875		[silence]	[silence]
sw3570A-ms98-a-0008	A.9	62.580875	62.760875		Wish	wish
sw3570A-ms98-a-0008	A.9	62.760875	62.850875		our	our
sw3570A-ms98-a-0008	A.9	62.850875	63.170875		post	post
sw3570A-ms98-a-0008	A.9	63.170875	63.400875		office	office
sw3570A-ms98-a-0008	A.9	63.400875	63.540875		could	could
sw3570A-ms98-a-0008	A.9	63.540875	63.670875		do	do
sw3570A-ms98-a-0008	A.9	63.670875	63.820875		that	that
sw3570A-ms98-a-0008	A.11	63.820875	66.906875		[laughter]	[laughter]
sw3570A-ms98-a-0008	A.11	66.906875	67.027625		[silence]	[silence]
sw3570A-ms98-a-0009	A.11	67.027625	68.178375		[silence]	[silence]
sw3570A-ms98-a-0010	A.11	68.178375	68.332375		[silence]	[silence]
sw3570A-ms98-a-0010	A.11	68.332375	69.031875		[laughter]	[laughter]
sw3570A-ms98-a-0010	A.11	69.031875	69.359500		That's	[laughter-that's]
sw3570A-ms98-a-0010	A.11	69.359500	70.228375		right	[laughter-right]
sw3570A-ms98-a-0010	A.11	70.228375	70.348375		I	i
sw3570A-ms98-a-0010	A.11	70.348375	70.538375		wish	wish
sw3570A-ms98-a-0010	A.11	70.538375	70.708375		they'd	they'd
sw3570A-ms98-a-0010	A.11	70.708375	70.898375		just	just
sw3570A-ms98-a-0010	A.11	70.898375	71.282625		deliver	deliver
sw3570A-ms98-a-0010	A.11	71.282625	71.644500		stuff	stuff
sw3570A-ms98-a-0010	A.13	71.644500	72.138375		[laughter]	[laughter]
sw3570A-ms98-a-0010	A.13	72.138375	72.311875		[silence]	[silence]
sw3570A-ms98-a-0011	A.13	72.311875	81.662250		[silence]	[silence]
sw3570A-ms98-a-0012	A.13	81.662250	82.162125		[silence]	[silence]
sw3570A-ms98-a-0012	A.13	82.162125	82.698375	<SUB>	Uh-huh	um-hum
sw3570A-ms98-a-0012	A.15	82.698375	83.044625		[silence]	[silence]
sw3570A-ms98-a-0013	A.15	83.044625	91.865625		[silence]	[silence]
sw3570A-ms98-a-0014	A.15	91.865625	92.662375		[silence]	[silence]
sw3570A-ms98-a-0014	A.15	92.662375	92.860625		I	i
sw3570A-ms98-a-0014	A.15	92.860625	93.605625		agree	agree
sw3570A-ms98-a-0014	A.17	93.605625	94.180500		[silence]	[silence]
sw3570A-ms98-a-0015	A.17	94.180500	94.830500		[silence]	[silence]
sw3570A-ms98-a-0015	A.17	94.830500	94.930500		I	i
sw3570A-ms98-a-0015	A.17	94.930500	95.290250		agree	agree
sw3570A-ms98-a-0015	A.19	95.290250	95.772375		[silence]	[silence]
sw3570A-ms98-a-0015	A.19	95.772375	96.015750		Seems	seems
sw3570A-ms98-a-0015	A.19	96.015750	96.202250		like	like
sw3570A-ms98-a-0015	A.19	96.202250	96.292250		that	that
sw3570A-ms98-a-0015	A.19	96.292250	96.510500		we've	we've
sw3570A-ms98-a-0015	A.19	96.510500	96.790500		kind	kind
sw3570A-ms98-a-0015	A.19	96.790500	96.980500		of	of
sw3570A-ms98-a-0015	A.19	96.980500	97.519375		gotten	gotten
sw3570A-ms98-a-0015	A.19	97.519375	98.020500		side	side
sw3570A-ms98-a-0015	A.19	98.020500	98.530500		tracked	tracked
sw3570A-ms98-a-0015	A.19	98.530500	98.860500		with	with
sw3570A-ms98-a-0015	A.19	98.860500	99.163750		[silence]	[silence]
sw3570A-ms98-a-0016	A.19	99.163750	99.583750		[silence]	[silence]
sw3570A-ms98-a-0016	A.19	99.583750	99.903750		putting	putting
sw3570A-ms98-a-0016	A.19	99.903750	100.053750		all	all
sw3570A-ms98-a-0016	A.19	100.053750	100.223750		these	these
sw3570A-ms98-a-0016	A.19	100.223750	100.563750		different	different
sw3570A-ms98-a-0016	A.19	100.563750	100.853750		things	things
sw3570A-ms98-a-0016	A.19	100.853750	101.083750		up	up
sw3570A-ms98-a-0016	A.19	101.083750	101.482750		there	there
sw3570A-ms98-a-0016	A.19	101.482750	101.757625		[silence]	[silence]
sw3570A-ms98-a-0016	A.19	101.757625	101.923750		to	to
sw3570A-ms98-a-0016	A.19	101.923750	102.409125		monitor	monitor
sw3570A-ms98-a-0016	A.19	102.409125	102.517500		and	and
sw3570A-ms98-a-0016	A.19	102.517500	102.811250		[vocalized-noise]	[vocalized-noise]
sw3570A-ms98-a-0016	A.19	102.811250	103.063750		[silence]	[silence]
sw3570A-ms98-a-0016	A.19	103.063750	103.153750		you	you
sw3570A-ms98-a-0016	A.19	103.153750	103.263750		know	know
sw3570A-ms98-a-0016	A.19	103.263750	103.263750	<INS>	you	---
sw3570A-ms98-a-0016	A.19	103.263750	103.263750	<INS>	know	---
sw3570A-ms98-a-0016	A.19	103.263750	103.373750		and	and
sw3570A-ms98-a-0016	A.19	103.373750	103.523750		I'm	i'm
sw3570A-ms98-a-0016	A.19	103.523750	103.603750		in	in
sw3570A-ms98-a-0016	A.19	103.603750	103.983750		favor	favor
sw3570A-ms98-a-0016	A.19	103.983750	104.133750		of	of
sw3570A-ms98-a-0016	A.19	104.133750	104.223750		you	you
sw3570A-ms98-a-0016	A.19	104.223750	104.456250		know	know
sw3570A-ms98-a-0016	A.19	104.456250	104.806500		[silence]	[silence]
sw3570A-ms98-a-0016	A.19	104.806500	105.023750		getting	getting
sw3570A-ms98-a-0016	A.19	105.023750	105.403750		closer	closer
sw3570A-ms98-a-0016	A.19	105.403750	105.503750		to	to
sw3570A-ms98-a-0016	A.19	105.503750	105.803750		seeing	seeing
sw3570A-ms98-a-0016	A.19	105.803750	106.093750		certain	certain
sw3570A-ms98-a-0016	A.19	106.093750	106.373750		things	things
sw3570A-ms98-a-0016	A.19	106.373750	107.023750		but	but
sw3570A-ms98-a-0016	A.19	107.023750	107.113750		I'd	i'd
sw3570A-ms98-a-0016	A.19	107.113750	107.273750		like	like
sw3570A-ms98-a-0016	A.19	107.273750	107.363750		to	to
sw3570A-ms98-a-0016	A.19	107.363750	107.523750		see	see
sw3570A-ms98-a-0016	A.19	107.523750	107.673750		them	them_1
sw3570A-ms98-a-0016	A.19	107.673750	107.953750		also	also
sw3570A-ms98-a-0016	A.19	107.953750	108.263750		go	go
sw3570A-ms98-a-0016	A.19	108.263750	108.453750		you	you
sw3570A-ms98-a-0016	A.19	108.453750	108.690250		know	know
sw3570A-ms98-a-0016	A.19	108.690250	108.938875		[silence]	[silence]
sw3570A-ms98-a-0016	A.19	108.938875	109.053750		go	go
sw3570A-ms98-a-0016	A.19	109.053750	109.323750		back	back
sw3570A-ms98-a-0016	A.19	109.323750	109.483750		up	up
sw3570A-ms98-a-0016	A.19	109.483750	109.613750		there	there
sw3570A-ms98-a-0016	A.19	109.613750	110.040625		see	see
sw3570A-ms98-a-0016	A.19	110.040625	110.195000		[silence]	[silence]
sw3570A-ms98-a-0016	A.19	110.195000	110.283750		you	you
sw3570A-ms98-a-0016	A.19	110.283750	110.383750		know	know
sw3570A-ms98-a-0016	A.19	110.383750	110.513750		what	what
sw3570A-ms98-a-0016	A.19	110.513750	110.603750		they	they
sw3570A-ms98-a-0016	A.19	110.603750	110.693750		can	can
sw3570A-ms98-a-0016	A.19	110.693750	110.833750		do	do
sw3570A-ms98-a-0016	A.19	110.833750	111.063750		See	see
sw3570A-ms98-a-0016	A.19	111.063750	111.323750		about	about
sw3570A-ms98-a-0016	A.19	111.323750	111.613750		setting	setting
sw3570A-ms98-a-0016	A.19	111.613750	111.702250		a	a
sw3570A-ms98-a-0016	A.19	111.702250	112.090250		[silence]	[silence]
sw3570A-ms98-a-0016	A.19	112.090250	112.183750	<DEL>	---	a
sw3570A-ms98-a-0016	A.19	112.183750	112.493750		space	space
sw3570A-ms98-a-0016	A.19	112.493750	112.833750		station	station
sw3570A-ms98-a-0016	A.19	112.833750	112.983750		up	up
sw3570A-ms98-a-0016	A.19	112.983750	113.145250		[silence]	[silence]
sw3570A-ms98-a-0017	A.19	113.145250	113.455250		[silence]	[silence]
sw3570A-ms98-a-0017	A.19	113.455250	113.665250		I'm	i'm
sw3570A-ms98-a-0017	A.19	113.665250	113.785250		all	all
sw3570A-ms98-a-0017	A.19	113.785250	113.875250		in	in
sw3570A-ms98-a-0017	A.19	113.875250	114.155250		favor	favor
sw3570A-ms98-a-0017	A.19	114.155250	114.235250		of	of
sw3570A-ms98-a-0017	A.19	114.235250	114.295250		the	the
sw3570A-ms98-a-0017	A.19	114.295250	114.659625		space	space
sw3570A-ms98-a-0017	A.19	114.659625	115.213250		program	program
sw3570A-ms98-a-0017	A.19	115.213250	115.375250		and	and
sw3570A-ms98-a-0017	A.19	115.375250	115.425250		I	i
sw3570A-ms98-a-0017	A.19	115.425250	115.705250		don't	don't
sw3570A-ms98-a-0017	A.19	115.705250	115.885250		think	think
sw3570A-ms98-a-0017	A.19	115.885250	115.975250		we	we
sw3570A-ms98-a-0017	A.19	115.975250	116.195375		should	should
sw3570A-ms98-a-0017	A.19	116.195375	116.421375		[silence]	[silence]
sw3570A-ms98-a-0017	A.19	116.421375	116.785250		stop	stop
sw3570A-ms98-a-0017	A.19	116.785250	116.895250		and	and
sw3570A-ms98-a-0017	A.19	116.895250	116.935250		I	i
sw3570A-ms98-a-0017	A.19	116.935250	117.155250		don't	don't
sw3570A-ms98-a-0017	A.19	117.155250	117.305250		think	think
sw3570A-ms98-a-0017	A.19	117.305250	117.405250		we	we
sw3570A-ms98-a-0017	A.19	117.405250	117.555250		should	should
sw3570A-ms98-a-0017	A.19	117.555250	117.805250		cut	cut
sw3570A-ms98-a-0017	A.19	117.805250	117.875250		the	the
sw3570A-ms98-a-0017	A.19	117.875250	118.265250		money	money
sw3570A-ms98-a-0017	A.21	118.265250	119.538750		[silence]	[silence]
sw3570A-ms98-a-0018	A.21	119.538750	120.778750		[silence]	[silence]
sw3570A-ms98-a-0018	A.21	120.778750	121.315250	<SUB>	Uh	um
sw3570A-ms98-a-0018	A.23	121.315250	121.767625		[silence]	[silence]
sw3570A-ms98-a-0019	A.23	121.767625	125.071500		[silence]	[silence]
sw3570A-ms98-a-0020	A.23	125.071500	125.670375		[silence]	[silence]
sw3570A-ms98-a-0020	A.23	125.670375	126.001500		Yeah	yeah
sw3570A-ms98-a-0020	A.23	126.001500	126.081500		I	i
sw3570A-ms98-a-0020	A.23	126.081500	126.201500		would	would
sw3570A-ms98-a-0020	A.23	126.201500	126.311500	<SUB>	like	li[ke]-
sw3570A-ms98-a-0020	A.23	126.311500	126.481500		I'd	i'd
sw3570A-ms98-a-0020	A.23	126.481500	126.601500		like	like
sw3570A-ms98-a-0020	A.23	126.601500	126.691500		to	to
sw3570A-ms98-a-0020	A.23	126.691500	126.951500		see	see
sw3570A-ms98-a-0020	A.23	126.951500	127.131500		that	that
sw3570A-ms98-a-0020	A.23	127.131500	127.271500		I'd	i'd
sw3570A-ms98-a-0020	A.23	127.271500	127.511500		like	like
sw3570A-ms98-a-0020	A.23	127.511500	127.601500		for	for
sw3570A-ms98-a-0020	A.23	127.601500	127.701500		us	us
sw3570A-ms98-a-0020	A.23	127.701500	127.881500		to	to
sw3570A-ms98-a-0020	A.23	127.881500	128.261500		really	really
sw3570A-ms98-a-0020	A.23	128.261500	128.511500		find	find
sw3570A-ms98-a-0020	A.23	128.511500	128.711500		out	out
sw3570A-ms98-a-0020	A.23	128.711500	129.024125		[silence]	[silence]
sw3570A-ms98-a-0020	A.23	129.024125	129.281500		more	more
sw3570A-ms98-a-0020	A.23	129.281500	129.521500		about	about
sw3570A-ms98-a-0020	A.23	129.521500	129.631500		the	the
sw3570A-ms98-a-0020	A.23	129.631500	129.921500		actual	actual
sw3570A-ms98-a-0020	A.23	129.921500	130.551500		universe	universe
sw3570A-ms98-a-0020	A.23	130.551500	130.884875		and	and
sw3570A-ms98-a-0020	A.23	130.884875	131.352000		[silence]	[silence]
sw3570A-ms98-a-0020	A.23	131.352000	131.501500		get	get
sw3570A-ms98-a-0020	A.23	131.501500	131.711500		up	up
sw3570A-ms98-a-0020	A.23	131.711500	131.911500		there	there
sw3570A-ms98-a-0020	A.23	131.911500	132.041500	<DEL>	---	an[d]-
sw3570A-ms98-a-0020	A.23	132.041500	132.231500		and	and
sw3570A-ms98-a-0020	A.23	132.231500	132.481500		see	see
sw3570A-ms98-a-0020	A.23	132.481500	132.671500		what's	what's
sw3570A-ms98-a-0020	A.23	132.671500	132.951500		going	going
sw3570A-ms98-a-0020	A.23	132.951500	133.211500		on	on
sw3570A-ms98-a-0020	A.23	133.211500	133.471500		even	even
sw3570A-ms98-a-0020	A.23	133.471500	133.681375		if	if
sw3570A-ms98-a-0020	A.23	133.681375	134.148375		[silence]	[silence]
sw3570A-ms98-a-0020	A.23	134.148375	134.291500		you	you
sw3570A-ms98-a-0020	A.23	134.291500	134.411500		know	know
sw3570A-ms98-a-0020	A.23	134.411500	134.591500		there's	there's
sw3570A-ms98-a-0020	A.23	134.591500	134.741500		no	no
sw3570A-ms98-a-0020	A.23	134.741500	135.071500		life	life
sw3570A-ms98-a-0020	A.23	135.071500	135.251500		up	up
sw3570A-ms98-a-0020	A.23	135.251500	135.401500		there	there
sw3570A-ms98-a-0020	A.23	135.401500	135.491500		or	or
sw3570A-ms98-a-0020	A.23	135.491500	135.921500		anything	anything
sw3570A-ms98-a-0020	A.23	135.921500	136.021500		you	you
sw3570A-ms98-a-0020	A.23	136.021500	136.101500		know	know
sw3570A-ms98-a-0020	A.23	136.101500	136.231500		But	but
sw3570A-ms98-a-0020	A.23	136.231500	136.394625		who	who
sw3570A-ms98-a-0020	A.23	136.394625	136.933250		knows	knows
sw3570A-ms98-a-0020	A.23	136.933250	137.041500		And	and
sw3570A-ms98-a-0020	A.23	137.041500	137.131500		I	i
sw3570A-ms98-a-0020	A.23	137.131500	137.251500		would	would
sw3570A-ms98-a-0020	A.23	137.251500	137.381500		like	like
sw3570A-ms98-a-0020	A.23	137.381500	137.451500		to	to
sw3570A-ms98-a-0020	A.23	137.451500	137.661500		see	see
sw3570A-ms98-a-0020	A.23	137.661500	137.751500		them	them_1
sw3570A-ms98-a-0020	A.23	137.751500	137.881500		do	do
sw3570A-ms98-a-0020	A.23	137.881500	138.181500		something	something
sw3570A-ms98-a-0020	A.23	138.181500	138.381500		like	like
sw3570A-ms98-a-0020	A.23	138.381500	138.761500		that	that
sw3570A-ms98-a-0020	A.25	138.761500	139.056250		[silence]	[silence]
sw3570A-ms98-a-0021	A.25	139.056250	139.481250		[silence]	[silence]
sw3570A-ms98-a-0021	A.25	139.481250	139.656250		I	i
sw3570A-ms98-a-0021	A.25	139.656250	139.756250		I	i
sw3570A-ms98-a-0021	A.25	139.756250	139.926250		hate	hate
sw3570A-ms98-a-0021	A.25	139.926250	139.986250		to	to
sw3570A-ms98-a-0021	A.25	139.986250	140.156250		see	see
sw3570A-ms98-a-0021	A.25	140.156250	140.226250		them	them_1
sw3570A-ms98-a-0021	A.25	140.226250	140.536250		just	just
sw3570A-ms98-a-0021	A.25	140.536250	140.646250		you	you
sw3570A-ms98-a-0021	A.25	140.646250	140.726250		know	know
sw3570A-ms98-a-0021	A.25	140.726250	140.936250		keep	keep
sw3570A-ms98-a-0021	A.25	140.936250	141.256250		getting	getting
sw3570A-ms98-a-0021	A.25	141.256250	141.696250		diverted	diverted
sw3570A-ms98-a-0021	A.25	141.696250	141.926250		off	off
sw3570A-ms98-a-0021	A.25	141.926250	142.168125		to	to
sw3570A-ms98-a-0021	A.25	142.168125	142.612500		[silence]	[silence]
sw3570A-ms98-a-0021	A.25	142.612500	143.066250		spying	spying
sw3570A-ms98-a-0021	A.25	143.066250	143.196250		on	on
sw3570A-ms98-a-0021	A.25	143.196250	143.356250		other	other
sw3570A-ms98-a-0021	A.25	143.356250	143.876250		nations	nations
sw3570A-ms98-a-0021	A.25	143.876250	144.006250		and	and
sw3570A-ms98-a-0021	A.25	144.006250	144.246250		putting	putting
sw3570A-ms98-a-0021	A.25	144.246250	144.356250		up	up
sw3570A-ms98-a-0021	A.25	144.356250	144.806250		defense	defense
sw3570A-ms98-a-0021	A.25	144.806250	145.326250		things	things
sw3570A-ms98-a-0021	A.25	145.326250	145.526250		and	and
sw3570A-ms98-a-0021	A.25	145.526250	145.872250		[silence]	[silence]
sw3570A-ms98-a-0022	A.25	145.872250	146.242750		[silence]	[silence]
sw3570A-ms98-a-0022	A.25	146.242750	146.432250		I	i
sw3570A-ms98-a-0022	A.25	146.432250	146.622250		think	think
sw3570A-ms98-a-0022	A.25	146.622250	146.872250		they	they
sw3570A-ms98-a-0022	A.25	146.872250	147.092875		I	i
sw3570A-ms98-a-0022	A.25	147.092875	147.349000		[silence]	[silence]
sw3570A-ms98-a-0022	A.25	147.349000	147.532250		think	think
sw3570A-ms98-a-0022	A.25	147.532250	147.652250		they	they
sw3570A-ms98-a-0022	A.25	147.652250	147.862250		lose	lose
sw3570A-ms98-a-0022	A.25	147.862250	148.172250		sight	sight
sw3570A-ms98-a-0022	A.25	148.172250	148.392250		of	of
sw3570A-ms98-a-0022	A.25	148.392250	148.573000		of	of
sw3570A-ms98-a-0022	A.25	148.573000	148.746250		[silence]	[silence]
sw3570A-ms98-a-0022	A.25	148.746250	148.912250	<SUB>	probably	part
sw3570A-ms98-a-0022	A.25	148.912250	148.992250	<DEL>	---	of
sw3570A-ms98-a-0022	A.25	148.992250	149.132250		what	what
sw3570A-ms98-a-0022	A.25	149.132250	149.242250		they're	they're
sw3570A-ms98-a-0022	A.25	149.242250	149.492250		supposed	supposed
sw3570A-ms98-a-0022	A.25	149.492250	149.552250		to	to
sw3570A-ms98-a-0022	A.25	149.552250	149.632250		be	be
sw3570A-ms98-a-0022	A.25	149.632250	150.117250		doing	doing
sw3570A-ms98-a-0022	A.27	150.117250	150.556750		[silence]	[silence]
sw3570A-ms98-a-0023	A.27	150.556750	153.756125		[silence]	[silence]
sw3570A-ms98-a-0024	A.27	153.756125	154.256125		[silence]	[silence]
sw3570A-ms98-a-0024	A.27	154.256125	154.688000		Yes	yes
sw3570A-ms98-a-0024	A.27	154.688000	154.846125		[silence]	[silence]
sw3570A-ms98-a-0024	A.27	154.846125	155.196125		yes	yes
sw3570A-ms98-a-0024	A.29	155.196125	155.542500		[silence]	[silence]
sw3570A-ms98-a-0025	A.29	155.542500	156.012500		[silence]	[silence]
sw3570A-ms98-a-0025	A.29	156.012500	156.112500		I	i
sw3570A-ms98-a-0025	A.29	156.112500	156.362500		believe	believe
sw3570A-ms98-a-0025	A.29	156.362500	156.512500		they	they
sw3570A-ms98-a-0025	A.29	156.512500	156.883875		are	are
sw3570A-ms98-a-0025	A.31	156.883875	157.337375		[silence]	[silence]
sw3570A-ms98-a-0026	A.31	157.337375	159.362125		[silence]	[silence]
sw3570A-ms98-a-0027	A.31	159.362125	159.968625		[silence]	[silence]
sw3570A-ms98-a-0027	A.31	159.968625	160.132125		You	you
sw3570A-ms98-a-0027	A.31	160.132125	160.272125		know	know
sw3570A-ms98-a-0027	A.31	160.272125	160.632125		let's	let's
sw3570A-ms98-a-0027	A.31	160.632125	160.762125		go	go
sw3570A-ms98-a-0027	A.31	160.762125	160.982125		back	back
sw3570A-ms98-a-0027	A.31	160.982125	161.092125		to	to
sw3570A-ms98-a-0027	A.31	161.092125	161.192125		our	our
sw3570A-ms98-a-0027	A.31	161.192125	161.602125		original	original
sw3570A-ms98-a-0027	A.31	161.602125	161.982125		thing	thing
sw3570A-ms98-a-0027	A.31	161.982125	162.122125		with	with
sw3570A-ms98-a-0027	A.31	162.122125	162.252125		you	you
sw3570A-ms98-a-0027	A.31	162.252125	162.362125		know	know
sw3570A-ms98-a-0027	A.31	162.362125	162.422125	<SUB>	our	the
sw3570A-ms98-a-0027	A.31	162.422125	162.512125	<DEL>	---	right
sw3570A-ms98-a-0027	A.31	162.512125	163.292125		experiments	experiments
sw3570A-ms98-a-0027	A.31	163.292125	163.392125		and	and
sw3570A-ms98-a-0027	A.31	163.392125	163.642125	<SUB>	all	our
sw3570A-ms98-a-0027	A.31	163.642125	163.782500	<SUB>	the	uh
sw3570A-ms98-a-0027	A.31	163.782500	164.299875		[silence]	[silence]
sw3570A-ms98-a-0028	A.31	164.299875	164.599125		[silence]	[silence]
sw3570A-ms98-a-0028	A.31	164.599125	164.729875		you	you
sw3570A-ms98-a-0028	A.31	164.729875	164.829875		know	know
sw3570A-ms98-a-0028	A.31	164.829875	164.969875		our	our
sw3570A-ms98-a-0028	A.31	164.969875	165.309875		actual	actual
sw3570A-ms98-a-0028	A.31	165.309875	165.929875		exploring	exploring
sw3570A-ms98-a-0028	A.31	165.929875	165.999875		of	of
sw3570A-ms98-a-0028	A.31	165.999875	166.639875		space	space
sw3570A-ms98-a-0028	A.31	166.639875	167.015125		and	and
sw3570A-ms98-a-0028	A.31	167.015125	167.143250		and	and
sw3570A-ms98-a-0028	A.31	167.143250	167.289875		all	all
sw3570A-ms98-a-0028	A.31	167.289875	167.499875		that	that
sw3570A-ms98-a-0028	A.31	167.499875	167.673500		and	and
sw3570A-ms98-a-0028	A.31	167.673500	168.023750		[silence]	[silence]
sw3570A-ms98-a-0028	A.31	168.023750	168.109875		you	you
sw3570A-ms98-a-0028	A.31	168.109875	168.239875		know	know
sw3570A-ms98-a-0028	A.31	168.239875	168.429875		with	with
sw3570A-ms98-a-0028	A.31	168.429875	168.799875		with	with
sw3570A-ms98-a-0028	A.31	168.799875	169.372875		Russia	Russia
sw3570A-ms98-a-0028	A.31	169.372875	169.738750		[silence]	[silence]
sw3570A-ms98-a-0029	A.31	169.738750	170.228750		[silence]	[silence]
sw3570A-ms98-a-0029	A.31	170.228750	170.625125		uh	uh
sw3570A-ms98-a-0029	A.31	170.625125	170.746000		[silence]	[silence]
sw3570A-ms98-a-0029	A.31	170.746000	171.517000		seemingly	seemingly
sw3570A-ms98-a-0029	A.31	171.517000	172.237375		[silence]	[silence]
sw3570A-ms98-a-0029	A.31	172.237375	172.518750		not	not
sw3570A-ms98-a-0029	A.31	172.518750	172.698750		going	going
sw3570A-ms98-a-0029	A.31	172.698750	172.798750		to	to
sw3570A-ms98-a-0029	A.31	172.798750	172.958750		be	be
sw3570A-ms98-a-0029	A.31	172.958750	173.128750	<DEL>	---	a[s]-
sw3570A-ms98-a-0029	A.31	173.128750	173.248750		as	as
sw3570A-ms98-a-0029	A.31	173.248750	173.448750		big	big
sw3570A-ms98-a-0029	A.31	173.448750	173.508750		a	a
sw3570A-ms98-a-0029	A.31	173.508750	174.116125		threat	threat
sw3570A-ms98-a-0029	A.33	174.116125	174.473500		[silence]	[silence]
sw3570A-ms98-a-0030	A.33	174.473500	175.516250		[silence]	[silence]
sw3570A-ms98-a-0031	A.33	175.516250	175.926250		[silence]	[silence]
sw3570A-ms98-a-0031	A.33	175.926250	176.436250		Huh-uh	huh-uh
sw3570A-ms98-a-0031	A.33	176.436250	176.608625		you	you
sw3570A-ms98-a-0031	A.33	176.608625	176.875750		know	know
sw3570A-ms98-a-0031	A.33	176.875750	177.248625	<DEL>	---	and
sw3570A-ms98-a-0031	A.33	177.248625	177.436250		Have	have
sw3570A-ms98-a-0031	A.33	177.436250	177.576250		you	you
sw3570A-ms98-a-0031	A.33	177.576250	177.826250		gone	gone
sw3570A-ms98-a-0031	A.33	177.826250	178.046250		out	out
sw3570A-ms98-a-0031	A.33	178.046250	178.346250		to	to
sw3570A-ms98-a-0031	A.33	178.346250	178.776250		uh	uh
sw3570A-ms98-a-0031	A.33	178.776250	179.026250		Fort	Fort
sw3570A-ms98-a-0031	A.33	179.026250	179.316250		Worth	Worth
sw3570A-ms98-a-0031	A.33	179.316250	179.580500		to	to
sw3570A-ms98-a-0031	A.33	179.580500	179.859250		see	see
sw3570A-ms98-a-0031	A.33	179.859250	179.966250		the	the
sw3570A-ms98-a-0031	A.33	179.966250	180.466250		space	space
sw3570A-ms98-a-0031	A.33	180.466250	180.866250		Soviet	Soviet
sw3570A-ms98-a-0031	A.33	180.866250	181.172250		space	space
sw3570A-ms98-a-0031	A.33	181.172250	181.664375		exhibit	exhibit
sw3570A-ms98-a-0031	A.35	181.664375	182.105875		[silence]	[silence]
sw3570A-ms98-a-0032	A.35	182.105875	184.594500		[silence]	[silence]
sw3570A-ms98-a-0033	A.35	184.594500	185.162750		[silence]	[silence]
sw3570A-ms98-a-0033	A.35	185.162750	185.774500	<SUB>	Uh-huh	um-hum
sw3570A-ms98-a-0033	A.35	185.774500	186.285625	<SUB>	uh-huh	um-hum
sw3570A-ms98-a-0033	A.37	186.285625	186.681125		[silence]	[silence]
sw3570A-ms98-a-0033	A.37	186.681125	186.824500		We	we
sw3570A-ms98-a-0033	A.37	186.824500	187.234500		went	went
sw3570A-ms98-a-0033	A.37	187.234500	187.344500		uh	uh
sw3570A-ms98-a-0033	A.37	187.344500	187.444500		we	we
sw3570A-ms98-a-0033	A.37	187.444500	187.624500		took	took
sw3570A-ms98-a-0033	A.37	187.624500	187.694500		our	our
sw3570A-ms98-a-0033	A.37	187.694500	188.294500		grandsons	grandsons
sw3570A-ms98-a-0033	A.37	188.294500	188.404500		and	and
sw3570A-ms98-a-0033	A.37	188.404500	188.760625		went	went
sw3570A-ms98-a-0033	A.37	188.760625	188.986625		uh	uh
sw3570A-ms98-a-0033	A.37	188.986625	189.298125		[silence]	[silence]
sw3570A-ms98-a-0034	A.37	189.298125	189.638125		[silence]	[silence]
sw3570A-ms98-a-0034	A.37	189.638125	189.708125		the	the
sw3570A-ms98-a-0034	A.37	189.708125	189.998125		weekend	weekend
sw3570A-ms98-a-0034	A.37	189.998125	190.338125		before	before
sw3570A-ms98-a-0034	A.37	190.338125	190.808125		last	last
sw3570A-ms98-a-0034	A.37	190.808125	190.928125		and	and
sw3570A-ms98-a-0034	A.37	190.928125	191.108125		it	it
sw3570A-ms98-a-0034	A.37	191.108125	191.348125		is	is
sw3570A-ms98-a-0034	A.37	191.348125	192.068125		marvelous	marvelous
sw3570A-ms98-a-0034	A.37	192.068125	192.128125		I	i
sw3570A-ms98-a-0034	A.37	192.128125	192.308125		mean	mean
sw3570A-ms98-a-0034	A.37	192.308125	192.508125		it's	it's
sw3570A-ms98-a-0034	A.37	192.508125	193.109250		really	really
sw3570A-ms98-a-0034	A.37	193.109250	193.500875		[silence]	[silence]
sw3570A-ms98-a-0034	A.37	193.500875	193.828125		neat	neat
sw3570A-ms98-a-0034	A.37	193.828125	193.938125		how	how
sw3570A-ms98-a-0034	A.37	193.938125	194.178125		they	they
sw3570A-ms98-a-0034	A.37	194.178125	194.358125		they	they
sw3570A-ms98-a-0034	A.37	194.358125	194.508125		have	have
sw3570A-ms98-a-0034	A.37	194.508125	194.668125		done	done
sw3570A-ms98-a-0034	A.37	194.668125	194.768125		it	it
sw3570A-ms98-a-0034	A.37	194.768125	194.858125		They	they
sw3570A-ms98-a-0034	A.37	194.858125	194.998125		have	have
sw3570A-ms98-a-0034	A.37	194.998125	195.208125		done	done
sw3570A-ms98-a-0034	A.37	195.208125	195.268125		a	a
sw3570A-ms98-a-0034	A.37	195.268125	195.728125		beautiful	beautiful
sw3570A-ms98-a-0034	A.37	195.728125	196.118125		job	job
sw3570A-ms98-a-0034	A.39	196.118125	196.529375		[silence]	[silence]
sw3570A-ms98-a-0035	A.39	196.529375	196.649375		[silence]	[silence]
sw3570A-ms98-a-0035	A.39	196.649375	196.779375		And	and
sw3570A-ms98-a-0035	A.39	196.779375	196.889375		they	they
sw3570A-ms98-a-0035	A.39	196.889375	197.146375		have	have
sw3570A-ms98-a-0035	A.39	197.146375	197.485625		a	a
sw3570A-ms98-a-0035	A.39	197.485625	197.759250		uh	uh
sw3570A-ms98-a-0035	A.39	197.759250	198.049375		[silence]	[silence]
sw3570A-ms98-a-0035	A.39	198.049375	198.479375		scaled	scaled
sw3570A-ms98-a-0035	A.39	198.479375	198.739375		down	down
sw3570A-ms98-a-0035	A.39	198.739375	199.212750		model	model
sw3570A-ms98-a-0035	A.39	199.212750	199.664750		[silence]	[silence]
sw3570A-ms98-a-0035	A.39	199.664750	200.109375		showing	showing
sw3570A-ms98-a-0035	A.39	200.109375	200.269375		how	how
sw3570A-ms98-a-0035	A.39	200.269375	200.539375		they	they
sw3570A-ms98-a-0035	A.39	200.539375	200.619375		you	you
sw3570A-ms98-a-0035	A.39	200.619375	200.840250		know	know
sw3570A-ms98-a-0035	A.39	200.840250	201.299375		fuel	fuel
sw3570A-ms98-a-0035	A.39	201.299375	201.629375		it	it
sw3570A-ms98-a-0035	A.39	201.629375	201.839375		or	or
sw3570A-ms98-a-0035	A.39	201.839375	201.949375		you	you
sw3570A-ms98-a-0035	A.39	201.949375	202.157500		know	know
sw3570A-ms98-a-0035	A.39	202.157500	202.609500		[silence]	[silence]
sw3570A-ms98-a-0035	A.39	202.609500	202.960250		how	how
sw3570A-ms98-a-0035	A.39	202.960250	203.229875		they	they
sw3570A-ms98-a-0035	A.39	203.229875	203.585875		uh	uh
sw3570A-ms98-a-0035	A.39	203.585875	203.794250		[silence]	[silence]
sw3570A-ms98-a-0036	A.39	203.794250	204.244250		[silence]	[silence]
sw3570A-ms98-a-0036	A.39	204.244250	204.424250		oh	oh
sw3570A-ms98-a-0036	A.39	204.424250	204.544250		the	the
sw3570A-ms98-a-0036	A.39	204.544250	204.834250		fuel	fuel
sw3570A-ms98-a-0036	A.39	204.834250	205.124250		trucks	trucks
sw3570A-ms98-a-0036	A.39	205.124250	205.214250		and	and
sw3570A-ms98-a-0036	A.39	205.214250	205.469000		things	things
sw3570A-ms98-a-0036	A.39	205.469000	205.864500		[silence]	[silence]
sw3570A-ms98-a-0036	A.39	205.864500	206.094250		run	run
sw3570A-ms98-a-0036	A.39	206.094250	206.344250		out	out
sw3570A-ms98-a-0036	A.39	206.344250	206.554250		there	there
sw3570A-ms98-a-0036	A.39	206.554250	206.894250		to	to
sw3570A-ms98-a-0036	A.39	206.894250	207.004250		it	it
sw3570A-ms98-a-0036	A.39	207.004250	207.134250		and	and
sw3570A-ms98-a-0036	A.39	207.134250	207.324250		how	how
sw3570A-ms98-a-0036	A.39	207.324250	207.580375		they	they
sw3570A-ms98-a-0036	A.39	207.580375	207.883750		uh	uh
sw3570A-ms98-a-0036	A.39	207.883750	208.478875		[silence]	[silence]
sw3570A-ms98-a-0036	A.39	208.478875	208.674250		all	all
sw3570A-ms98-a-0036	A.39	208.674250	208.884250	<SUB>	the	those
sw3570A-ms98-a-0036	A.39	208.884250	209.374250		things	things
sw3570A-ms98-a-0036	A.39	209.374250	209.474250		that	that
sw3570A-ms98-a-0036	A.39	209.474250	209.544250		are	are
sw3570A-ms98-a-0036	A.39	209.544250	209.854250		against	against
sw3570A-ms98-a-0036	A.39	209.854250	209.924250		the	the
sw3570A-ms98-a-0036	A.39	209.924250	210.254250		actual	actual
sw3570A-ms98-a-0036	A.39	210.254250	210.668500		space	space
sw3570A-ms98-a-0036	A.39	210.668500	211.248500		mission	mission
sw3570A-ms98-a-0036	A.39	211.248500	211.504250		uh	uh
sw3570A-ms98-a-0036	A.39	211.504250	211.784250		space	space
sw3570A-ms98-a-0036	A.39	211.784250	212.124125		ship	ship
sw3570A-ms98-a-0036	A.39	212.124125	212.331750		[silence]	[silence]
sw3570A-ms98-a-0037	A.39	212.331750	212.651750		[silence]	[silence]
sw3570A-ms98-a-0037	A.39	212.651750	212.751750		you	you
sw3570A-ms98-a-0037	A.39	212.751750	212.841750		know	know
sw3570A-ms98-a-0037	A.39	212.841750	212.981750		how	how
sw3570A-ms98-a-0037	A.39	212.981750	213.111750		they	they
sw3570A-ms98-a-0037	A.39	213.111750	213.441750		fall	fall
sw3570A-ms98-a-0037	A.39	213.441750	213.701750		away	away
sw3570A-ms98-a-0037	A.39	213.701750	214.101750		from	from
sw3570A-ms98-a-0037	A.39	214.101750	214.281750		it	it
sw3570A-ms98-a-0037	A.39	214.281750	214.532125		and	and
sw3570A-ms98-a-0037	A.39	214.532125	214.694125		[silence]	[silence]
sw3570A-ms98-a-0037	A.39	214.694125	214.921750		the	the
sw3570A-ms98-a-0037	A.39	214.921750	215.201750		loading	loading
sw3570A-ms98-a-0037	A.39	215.201750	215.310125	<SUB>	of	and
sw3570A-ms98-a-0037	A.39	215.310125	215.476125	<SUB>	it	then
sw3570A-ms98-a-0037	A.41	215.476125	215.849000		[silence]	[silence]
sw3570A-ms98-a-0037	A.41	215.849000	215.981750		and	and
sw3570A-ms98-a-0037	A.41	215.981750	216.101750		then	then
sw3570A-ms98-a-0037	A.41	216.101750	216.271750		it's	it's
sw3570A-ms98-a-0037	A.41	216.271750	216.681750		actually	actually
sw3570A-ms98-a-0037	A.41	216.681750	216.791750		you	you
sw3570A-ms98-a-0037	A.41	216.791750	217.067750		know	know
sw3570A-ms98-a-0037	A.41	217.067750	217.248500		[silence]	[silence]
sw3570A-ms98-a-0037	A.41	217.248500	217.351750		the	the
sw3570A-ms98-a-0037	A.41	217.351750	217.721750		smoke	smoke
sw3570A-ms98-a-0037	A.41	217.721750	218.071750		comes	comes
sw3570A-ms98-a-0037	A.41	218.071750	218.311750		out	out
sw3570A-ms98-a-0037	A.41	218.311750	218.461750		like	like
sw3570A-ms98-a-0037	A.41	218.461750	218.611750		it's	it's
sw3570A-ms98-a-0037	A.41	218.611750	218.981750		taking	taking
sw3570A-ms98-a-0037	A.41	218.981750	219.137750		off	off
sw3570A-ms98-a-0037	A.41	219.137750	219.363750		[silence]	[silence]
sw3570A-ms98-a-0037	A.41	219.363750	219.495250		It	it
sw3570A-ms98-a-0037	A.41	219.495250	219.715750		is	is
sw3570A-ms98-a-0037	A.41	219.715750	220.280750		really	really
sw3570A-ms98-a-0037	A.41	220.280750	221.000750		interesting	interesting
sw3570A-ms98-a-0037	A.43	221.000750	221.375750		[silence]	[silence]
sw3570A-ms98-a-0038	A.43	221.375750	222.450625		[silence]	[silence]
sw3570A-ms98-a-0039	A.43	222.450625	222.870625		[silence]	[silence]
sw3570A-ms98-a-0039	A.43	222.870625	223.076125		You	you
sw3570A-ms98-a-0039	A.43	223.076125	223.345625		really	really
sw3570A-ms98-a-0039	A.43	223.345625	223.560625		do	do
sw3570A-ms98-a-0039	A.43	223.560625	223.764375	<SUB>	It's	it
sw3570A-ms98-a-0039	A.43	223.764375	224.009250		it's	it's
sw3570A-ms98-a-0039	A.43	224.009250	224.370625		well	well
sw3570A-ms98-a-0039	A.43	224.370625	224.670625		worth	worth
sw3570A-ms98-a-0039	A.43	224.670625	224.740625		the	the
sw3570A-ms98-a-0039	A.43	224.740625	225.100625		time	time
sw3570A-ms98-a-0039	A.43	225.100625	225.230625		and	and
sw3570A-ms98-a-0039	A.43	225.230625	225.410625		effort	effort
sw3570A-ms98-a-0039	A.43	225.410625	225.580625		We	we
sw3570A-ms98-a-0039	A.43	225.580625	226.020625		went	went
sw3570A-ms98-a-0039	A.43	226.020625	226.267250		uh	uh
sw3570A-ms98-a-0039	A.43	226.267250	226.915125		[silence]	[silence]
sw3570A-ms98-a-0039	A.43	226.915125	227.350625		early	early
sw3570A-ms98-a-0039	A.43	227.350625	227.480625		on	on
sw3570A-ms98-a-0039	A.43	227.480625	227.760625		Sunday	Sunday
sw3570A-ms98-a-0039	A.43	227.760625	227.890625		We	we
sw3570A-ms98-a-0039	A.43	227.890625	228.070625		got	got
sw3570A-ms98-a-0039	A.43	228.070625	228.330625		out	out
sw3570A-ms98-a-0039	A.43	228.330625	228.670625		there	there
sw3570A-ms98-a-0039	A.43	228.670625	229.250625		about	about
sw3570A-ms98-a-0039	A.43	229.250625	229.489375		uh	uh
sw3570A-ms98-a-0039	A.43	229.489375	229.943000		[silence]	[silence]
sw3570A-ms98-a-0040	A.43	229.943000	230.503000		[silence]	[silence]
sw3570A-ms98-a-0040	A.43	230.503000	230.933000		ten	ten
sw3570A-ms98-a-0040	A.43	230.933000	231.283000		ten	ten
sw3570A-ms98-a-0040	A.43	231.283000	231.777625		thirty	thirty
sw3570A-ms98-a-0040	A.43	231.777625	232.289875		[silence]	[silence]
sw3570A-ms98-a-0040	A.43	232.289875	232.503000		and	and
sw3570A-ms98-a-0040	A.43	232.503000	232.817750	<SUB>	the	beat
sw3570A-ms98-a-0040	A.45	232.817750	233.366125		[silence]	[silence]
sw3570A-ms98-a-0041	A.45	233.366125	234.036125		[silence]	[silence]
sw3570A-ms98-a-0041	A.45	234.036125	234.236125		No	no
sw3570A-ms98-a-0041	A.45	234.236125	234.366125		we	we
sw3570A-ms98-a-0041	A.45	234.366125	234.576125		bought	bought
sw3570A-ms98-a-0041	A.45	234.576125	234.906125		tickets	tickets
sw3570A-ms98-a-0041	A.45	234.906125	235.222625		there	there
sw3570A-ms98-a-0041	A.45	235.222625	235.373375		[silence]	[silence]
sw3570A-ms98-a-0041	A.45	235.373375	235.606125		and	and
sw3570A-ms98-a-0041	A.45	235.606125	235.736125		if	if
sw3570A-ms98-a-0041	A.45	235.736125	235.836125		you	you
sw3570A-ms98-a-0041	A.45	235.836125	236.046125		have	have
sw3570A-ms98-a-0041	A.45	236.046125	236.642500		children	children
sw3570A-ms98-a-0041	A.45	236.642500	236.834625		[silence]	[silence]
sw3570A-ms98-a-0041	A.45	236.834625	236.986125		if	if
sw3570A-ms98-a-0041	A.45	236.986125	237.066125		you	you
sw3570A-ms98-a-0041	A.45	237.066125	237.176125		go	go
sw3570A-ms98-a-0041	A.45	237.176125	237.246125		to	to
sw3570A-ms98-a-0041	A.45	237.246125	237.975750		McDonald's	McDonald's
sw3570A-ms98-a-0041	A.45	237.975750	238.480375		[silence]	[silence]
sw3570A-ms98-a-0041	A.45	238.480375	238.646125		you	you
sw3570A-ms98-a-0041	A.45	238.646125	238.856125	<SUB>	co-	could
sw3570A-ms98-a-0041	A.45	238.856125	238.966125		they	they
sw3570A-ms98-a-0041	A.45	238.966125	239.155250		have	have
sw3570A-ms98-a-0041	A.45	239.155250	240.036625		coupons	coupons
sw3570A-ms98-a-0041	A.45	240.036625	240.186125		or	or
sw3570A-ms98-a-0041	A.45	240.186125	240.406125		did	did
sw3570A-ms98-a-0041	A.45	240.406125	240.676125		have	have
sw3570A-ms98-a-0041	A.45	240.676125	240.806125		Now	now
sw3570A-ms98-a-0041	A.45	240.806125	240.906125		they	they
sw3570A-ms98-a-0041	A.45	240.906125	241.076125		may	may
sw3570A-ms98-a-0041	A.45	241.076125	241.216125		be	be
sw3570A-ms98-a-0041	A.45	241.216125	241.436125		through	through
sw3570A-ms98-a-0041	A.45	241.436125	241.576125		with	with
sw3570A-ms98-a-0041	A.45	241.576125	241.856125		them	them
sw3570A-ms98-a-0041	A.45	241.856125	242.056125		now	now
sw3570A-ms98-a-0041	A.45	242.056125	242.444125		[silence]	[silence]
sw3570A-ms98-a-0041	A.45	242.444125	242.806125	<SUB>	But	that
sw3570A-ms98-a-0041	A.45	242.806125	243.026000		uh	uh
sw3570A-ms98-a-0041	A.45	243.026000	243.436500		[silence]	[silence]
sw3570A-ms98-a-0041	A.45	243.436500	243.646125		buy	buy
sw3570A-ms98-a-0041	A.45	243.646125	243.841750		one	one
sw3570A-ms98-a-0041	A.45	243.841750	244.389500		adult	adult
sw3570A-ms98-a-0041	A.45	244.389500	244.924375		and	and
sw3570A-ms98-a-0041	A.45	244.924375	245.106125		one	one
sw3570A-ms98-a-0041	A.45	245.106125	245.316125		child	child
sw3570A-ms98-a-0041	A.45	245.316125	245.506125		gets	gets
sw3570A-ms98-a-0041	A.45	245.506125	245.626125		in	in
sw3570A-ms98-a-0041	A.45	245.626125	246.051250		free	free
sw3570A-ms98-a-0041	A.47	246.051250	246.526875		[silence]	[silence]
sw3570A-ms98-a-0042	A.47	246.526875	249.561750		[silence]	[silence]
sw3570A-ms98-a-0043	A.47	249.561750	250.156625		[silence]	[silence]
sw3570A-ms98-a-0043	A.47	250.156625	250.499500		Oh	oh
sw3570A-ms98-a-0043	A.47	250.499500	250.931750		okay	okay
sw3570A-ms98-a-0043	A.47	250.931750	251.101750		oh	oh
sw3570A-ms98-a-0043	A.47	251.101750	251.624125		okay	okay
sw3570A-ms98-a-0043	A.49	251.624125	251.876375		[silence]	[silence]
sw3570A-ms98-a-0043	A.49	251.876375	252.041750		You	you
sw3570A-ms98-a-0043	A.49	252.041750	252.211750		have	have
sw3570A-ms98-a-0043	A.49	252.211750	252.741750		teenagers	teenagers
sw3570A-ms98-a-0043	A.49	252.741750	252.801750		or	or
sw3570A-ms98-a-0043	A.49	252.801750	253.164500		something	something
sw3570A-ms98-a-0043	A.51	253.164500	253.684250		[silence]	[silence]
sw3570A-ms98-a-0043	A.51	253.684250	253.940250		Yes	yes
sw3570A-ms98-a-0043	A.51	253.940250	254.158750		[silence]	[silence]
sw3570A-ms98-a-0043	A.51	254.158750	254.261750		well	well
sw3570A-ms98-a-0043	A.51	254.261750	254.311750		I	i
sw3570A-ms98-a-0043	A.51	254.311750	254.541750		had	had
sw3570A-ms98-a-0043	A.51	254.541750	255.408000		grandchildren	[laughter-grandchildren]
sw3570A-ms98-a-0043	A.51	255.408000	256.360500		so	[laughter-so]
sw3570A-ms98-a-0043	A.51	256.360500	256.701750		three	three
sw3570A-ms98-a-0043	A.51	256.701750	256.851750		of	of
sw3570A-ms98-a-0043	A.51	256.851750	257.001750		them	them_1
sw3570A-ms98-a-0043	A.51	257.001750	257.251750		so	so
sw3570A-ms98-a-0043	A.51	257.251750	257.631750		between	between
sw3570A-ms98-a-0043	A.51	257.631750	257.761750		their	their
sw3570A-ms98-a-0043	A.51	257.761750	258.171750		mother	mother
sw3570A-ms98-a-0043	A.51	258.171750	258.431750		and	and
sw3570A-ms98-a-0043	A.51	258.431750	258.521750		their	their
sw3570A-ms98-a-0043	A.51	258.521750	259.051750		grandfather	grandfather
sw3570A-ms98-a-0043	A.51	259.051750	259.271750		and	and
sw3570A-ms98-a-0043	A.51	259.271750	259.331750		I	i
sw3570A-ms98-a-0043	A.51	259.331750	259.681750		because	because_1
sw3570A-ms98-a-0043	A.51	259.681750	259.771750		their	their
sw3570A-ms98-a-0043	A.51	259.771750	259.991750		dad	dad
sw3570A-ms98-a-0043	A.51	259.991750	260.101750		was	was
sw3570A-ms98-a-0043	A.51	260.101750	260.251750		at	at
sw3570A-ms98-a-0043	A.51	260.251750	260.681750		work	work
sw3570A-ms98-a-0043	A.51	260.681750	260.981750		and	and
sw3570A-ms98-a-0043	A.51	260.981750	261.093125		uh	uh
sw3570A-ms98-a-0043	A.53	261.093125	261.567875		[silence]	[silence]
sw3570A-ms98-a-0044	A.53	261.567875	261.707875		[silence]	[silence]
sw3570A-ms98-a-0044	A.53	261.707875	261.847875		But	but
sw3570A-ms98-a-0044	A.53	261.847875	262.017875		and	and
sw3570A-ms98-a-0044	A.53	262.017875	262.077875		the	the
sw3570A-ms98-a-0044	A.53	262.077875	262.517875		boys	boys
sw3570A-ms98-a-0044	A.53	262.517875	262.917875		loved	loved
sw3570A-ms98-a-0044	A.53	262.917875	263.117875		it	it
sw3570A-ms98-a-0044	A.53	263.117875	263.307875		you	you
sw3570A-ms98-a-0044	A.53	263.307875	263.487875		know	know
sw3570A-ms98-a-0044	A.53	263.487875	263.587875		they	they
sw3570A-ms98-a-0044	A.53	263.587875	263.957875		really	really
sw3570A-ms98-a-0044	A.53	263.957875	264.227875		did	did
sw3570A-ms98-a-0044	A.53	264.227875	264.547875		like	like
sw3570A-ms98-a-0044	A.53	264.547875	264.726000		it	it
sw3570A-ms98-a-0044	A.55	264.726000	265.434625		[silence]	[silence]
sw3570A-ms98-a-0045	A.55	265.434625	265.774625		[silence]	[silence]
sw3570A-ms98-a-0045	A.55	265.774625	266.224625		Uh-huh	uh-huh
sw3570A-ms98-a-0045	A.55	266.224625	266.344625		it	it
sw3570A-ms98-a-0045	A.55	266.344625	266.604625		is	is
sw3570A-ms98-a-0045	A.55	266.604625	266.724625		and	and
sw3570A-ms98-a-0045	A.55	266.724625	266.834625		I	i
sw3570A-ms98-a-0045	A.55	266.834625	267.214625		felt	felt
sw3570A-ms98-a-0045	A.55	267.214625	267.541000		the	the
sw3570A-ms98-a-0045	A.55	267.541000	267.763625		[silence]	[silence]
sw3570A-ms98-a-0045	A.55	267.763625	268.110125		uh	uh
sw3570A-ms98-a-0045	A.55	268.110125	268.384625		six	six
sw3570A-ms98-a-0045	A.55	268.384625	268.524625		year	year
sw3570A-ms98-a-0045	A.55	268.524625	268.764625		old	old
sw3570A-ms98-a-0045	A.55	268.764625	269.008250		would	would
sw3570A-ms98-a-0045	A.55	269.008250	269.388625		[silence]	[silence]
sw3570A-ms98-a-0045	A.55	269.388625	269.484625		you	you
sw3570A-ms98-a-0045	A.55	269.484625	269.564625		know	know
sw3570A-ms98-a-0045	A.55	269.564625	269.674625		that	that
sw3570A-ms98-a-0045	A.55	269.674625	269.824625		he'd	he'd
sw3570A-ms98-a-0045	A.55	269.824625	269.924625		be	be
sw3570A-ms98-a-0045	A.55	269.924625	270.144625		kind	kind
sw3570A-ms98-a-0045	A.55	270.144625	270.244625		of	of
sw3570A-ms98-a-0045	A.55	270.244625	270.554625		bored	bored
sw3570A-ms98-a-0045	A.55	270.554625	270.654625		but	but
sw3570A-ms98-a-0045	A.55	270.654625	270.824625		he	he
sw3570A-ms98-a-0045	A.55	270.824625	271.174625		wasn't	wasn't
sw3570A-ms98-a-0045	A.55	271.174625	271.344625		Even	even
sw3570A-ms98-a-0045	A.55	271.344625	271.424625		the	the
sw3570A-ms98-a-0045	A.55	271.424625	271.714625		three	three
sw3570A-ms98-a-0045	A.55	271.714625	271.914625		year	year
sw3570A-ms98-a-0045	A.55	271.914625	272.094625		old	old
sw3570A-ms98-a-0045	A.55	272.094625	272.484625		enjoyed	enjoyed
sw3570A-ms98-a-0045	A.55	272.484625	272.664625		it	it
sw3570A-ms98-a-0045	A.57	272.664625	272.769000		[silence]	[silence]
sw3570A-ms98-a-0046	A.57	272.769000	273.177125		[silence]	[silence]
sw3570A-ms98-a-0046	A.57	273.177125	273.429000		because	because
sw3570A-ms98-a-0046	A.57	273.429000	273.519000		they	they
sw3570A-ms98-a-0046	A.57	273.519000	273.699000		had	had
sw3570A-ms98-a-0046	A.57	273.699000	273.789000		one	one
sw3570A-ms98-a-0046	A.57	273.789000	273.849000	<DEL>	---	of
sw3570A-ms98-a-0046	A.57	273.849000	273.939000	<DEL>	---	th[ose]-
sw3570A-ms98-a-0046	A.57	273.939000	274.189000		had	had
sw3570A-ms98-a-0046	A.57	274.189000	274.279000		one	one
sw3570A-ms98-a-0046	A.57	274.279000	274.339000		of	of
sw3570A-ms98-a-0046	A.57	274.339000	274.509000		those	those
sw3570A-ms98-a-0046	A.57	274.509000	274.759000		moon	moon
sw3570A-ms98-a-0046	A.57	274.759000	275.383750		vehicles	vehicles
sw3570A-ms98-a-0046	A.59	275.383750	275.615375		[silence]	[silence]
sw3570A-ms98-a-0047	A.59	275.615375	275.935375		[silence]	[silence]
sw3570A-ms98-a-0047	A.59	275.935375	276.165375		and	and
sw3570A-ms98-a-0047	A.59	276.165375	276.285375		had	had
sw3570A-ms98-a-0047	A.59	276.285375	276.405375		it	it
sw3570A-ms98-a-0047	A.59	276.405375	276.525375	<SUB>	so	set
sw3570A-ms98-a-0047	A.59	276.525375	276.615375	<SUB>	it	up
sw3570A-ms98-a-0047	A.59	276.615375	276.615375	<INS>	looked	---
sw3570A-ms98-a-0047	A.59	276.615375	276.785375		like	like
sw3570A-ms98-a-0047	A.59	276.785375	276.855375		it	it
sw3570A-ms98-a-0047	A.59	276.855375	276.975375		was	was
sw3570A-ms98-a-0047	A.59	276.975375	277.125375		on	on
sw3570A-ms98-a-0047	A.59	277.125375	277.185375		the	the
sw3570A-ms98-a-0047	A.59	277.185375	277.365375		moon	moon
sw3570A-ms98-a-0047	A.59	277.365375	277.645375	<DEL>	---	an[d]-
sw3570A-ms98-a-0047	A.59	277.645375	277.845375		and	and
sw3570A-ms98-a-0047	A.59	277.845375	278.045375		showed	showed
sw3570A-ms98-a-0047	A.59	278.045375	278.125375		it	it
sw3570A-ms98-a-0047	A.59	278.125375	278.465375		moving	moving
sw3570A-ms98-a-0047	A.59	278.465375	278.885375		around	around
sw3570A-ms98-a-0047	A.59	278.885375	279.025375		and	and
sw3570A-ms98-a-0047	A.59	279.025375	279.351625		stuff	stuff
sw3570A-ms98-a-0047	A.59	279.351625	279.863875		[silence]	[silence]
sw3570A-ms98-a-0047	A.59	279.863875	279.995375		So	so
sw3570A-ms98-a-0047	A.59	279.995375	280.155375		it	it
sw3570A-ms98-a-0047	A.59	280.155375	280.305375		was	was
sw3570A-ms98-a-0047	A.59	280.305375	280.525375		really	really
sw3570A-ms98-a-0047	A.59	280.525375	280.985125		neat	neat
sw3570A-ms98-a-0047	A.61	280.985125	281.515500		[silence]	[silence]
sw3570A-ms98-a-0048	A.61	281.515500	289.161125		[silence]	[silence]
sw3570A-ms98-a-0049	A.61	289.161125	289.676625		[silence]	[silence]
sw3570A-ms98-a-0049	A.61	289.676625	290.397500	<SUB>	Uh-huh	um-hum
sw3570A-ms98-a-0049	A.61	290.397500	290.950000	<SUB>	uh-huh	um-hum
sw3570A-ms98-a-0049	A.63	290.950000	291.439000		[silence]	[silence]
sw3570A-ms98-a-0050	A.63	291.439000	293.024375		[silence]	[silence]
sw3570A-ms98-a-0051	A.63	293.024375	293.541500		[silence]	[silence]
sw3570A-ms98-a-0051	A.63	293.541500	294.051500		Right	right
sw3570A-ms98-a-0051	A.65	294.051500	294.613500		[silence]	[silence]
sw3570A-ms98-a-0052	A.65	294.613500	295.233500		[silence]	[silence]
sw3570A-ms98-a-0052	A.65	295.233500	295.353500		Well	well
sw3570A-ms98-a-0052	A.65	295.353500	295.503500		in	in
sw3570A-ms98-a-0052	A.65	295.503500	295.793500		going	going
sw3570A-ms98-a-0052	A.65	295.793500	296.008250		through	through
sw3570A-ms98-a-0052	A.65	296.008250	296.087375		it	it
sw3570A-ms98-a-0052	A.65	296.087375	296.240625		I	i
sw3570A-ms98-a-0052	A.65	296.240625	296.443500		got	got
sw3570A-ms98-a-0052	A.65	296.443500	296.513500		the	the
sw3570A-ms98-a-0052	A.65	296.513500	296.928750		impression	impression
sw3570A-ms98-a-0052	A.65	296.928750	297.071875		that	that
sw3570A-ms98-a-0052	A.65	297.071875	297.443500		actually	actually
sw3570A-ms98-a-0052	A.65	297.443500	297.613500		they	they
sw3570A-ms98-a-0052	A.65	297.613500	297.743500		were	were
sw3570A-ms98-a-0052	A.65	297.743500	298.123500		farther	farther
sw3570A-ms98-a-0052	A.65	298.123500	298.363500		ahead	ahead
sw3570A-ms98-a-0052	A.65	298.363500	298.402000		[silence]	[silence]
