sw3509B-ms98-a-0001	B.2	0.000000	0.000000		[silence]	[silence]
sw3509B-ms98-a-0001	B.2	0.000000	0.009375		[noise]	[noise]
sw3509B-ms98-a-0001	B.2	0.009375	0.552375		[silence]	[silence]
sw3509B-ms98-a-0002	B.2	0.552375	2.180750		[silence]	[silence]
sw3509B-ms98-a-0003	B.2	2.180750	2.651375		[silence]	[silence]
sw3509B-ms98-a-0003	B.2	2.651375	3.100750		Well	well
sw3509B-ms98-a-0003	B.2	3.100750	3.257625		I	i
sw3509B-ms98-a-0003	B.2	3.257625	3.470750		I'm	i'm
sw3509B-ms98-a-0003	B.2	3.470750	3.670750		not	not
sw3509B-ms98-a-0003	B.2	3.670750	3.860750		really	really
sw3509B-ms98-a-0003	B.2	3.860750	4.340750		certain	certain
sw3509B-ms98-a-0003	B.2	4.340750	4.636500		how	how
sw3509B-ms98-a-0003	B.2	4.636500	5.182625		[silence]	[silence]
sw3509B-ms98-a-0003	B.2	5.182625	5.530750		I	i
sw3509B-ms98-a-0003	B.2	5.530750	5.874375		uh	uh
sw3509B-ms98-a-0003	B.2	5.874375	6.352750		[silence]	[silence]
sw3509B-ms98-a-0003	B.2	6.352750	6.440750	<DEL>	---	i
sw3509B-ms98-a-0003	B.2	6.440750	6.690750		I'm	i'm
sw3509B-ms98-a-0003	B.2	6.690750	6.860750		not	not
sw3509B-ms98-a-0003	B.2	6.860750	7.100750		certain	certain
sw3509B-ms98-a-0003	B.2	7.100750	7.210750		that	that
sw3509B-ms98-a-0003	B.2	7.210750	7.210750	<INS>	that	---
sw3509B-ms98-a-0003	B.2	7.210750	7.330750		it	it
sw3509B-ms98-a-0003	B.2	7.330750	7.460750	<DEL>	---	doe[s]-
sw3509B-ms98-a-0003	B.2	7.460750	7.690750		does	does
sw3509B-ms98-a-0003	B.2	7.690750	7.750750		a	a
sw3509B-ms98-a-0003	B.2	7.750750	7.940750		lot	lot
sw3509B-ms98-a-0003	B.2	7.940750	8.030750		of	of
sw3509B-ms98-a-0003	B.2	8.030750	8.471250		good	good
sw3509B-ms98-a-0003	B.2	8.471250	8.535250		I	i
sw3509B-ms98-a-0003	B.2	8.535250	8.670750		mean	mean
sw3509B-ms98-a-0003	B.2	8.670750	8.770750		that	that
sw3509B-ms98-a-0003	B.2	8.770750	8.870750		it	it
sw3509B-ms98-a-0003	B.2	8.870750	9.040750		ends	ends
sw3509B-ms98-a-0003	B.2	9.040750	9.146875		up	up
sw3509B-ms98-a-0003	B.2	9.146875	9.357750		[silence]	[silence]
sw3509B-ms98-a-0003	B.2	9.357750	9.640750		ends	ends
sw3509B-ms98-a-0003	B.2	9.640750	9.850750		up	up
sw3509B-ms98-a-0003	B.2	9.850750	10.518500		effectively	effectively
sw3509B-ms98-a-0003	B.2	10.518500	10.736875		[silence]	[silence]
sw3509B-ms98-a-0003	B.2	10.736875	10.890750		uh	uh
sw3509B-ms98-a-0003	B.2	10.890750	11.231500		uh	uh
sw3509B-ms98-a-0003	B.2	11.231500	11.631000		[silence]	[silence]
sw3509B-ms98-a-0004	B.2	11.631000	12.081875		[silence]	[silence]
sw3509B-ms98-a-0004	B.2	12.081875	12.453875		uh	uh
sw3509B-ms98-a-0004	B.2	12.453875	12.887000		[silence]	[silence]
sw3509B-ms98-a-0004	B.2	12.887000	13.476000		avoiding	avoiding
sw3509B-ms98-a-0004	B.2	13.476000	13.758500		[silence]	[silence]
sw3509B-ms98-a-0004	B.2	13.758500	13.841000		a	a
sw3509B-ms98-a-0004	B.2	13.841000	13.991000		lot	lot
sw3509B-ms98-a-0004	B.2	13.991000	14.101000		of	of
sw3509B-ms98-a-0004	B.2	14.101000	14.161000		the	the
sw3509B-ms98-a-0004	B.2	14.161000	14.441000		crimes	crimes
sw3509B-ms98-a-0004	B.2	14.441000	14.591000		that	that
sw3509B-ms98-a-0004	B.2	14.591000	14.711000	<DEL>	---	that
sw3509B-ms98-a-0004	B.2	14.711000	14.841000		have	have
sw3509B-ms98-a-0004	B.2	14.841000	15.141000		capital	capital
sw3509B-ms98-a-0004	B.2	15.141000	15.549625		punishment	punishment
sw3509B-ms98-a-0004	B.4	15.549625	15.861625		[silence]	[silence]
sw3509B-ms98-a-0005	B.4	15.861625	16.601625		[silence]	[silence]
sw3509B-ms98-a-0005	B.4	16.601625	17.147750		penalties	penalties
sw3509B-ms98-a-0005	B.4	17.147750	17.618625		[silence]	[silence]
sw3509B-ms98-a-0005	B.4	17.618625	17.771625		Yet	yet
sw3509B-ms98-a-0005	B.4	17.771625	17.893500		on	on
sw3509B-ms98-a-0005	B.4	17.893500	17.991625		the	the
sw3509B-ms98-a-0005	B.4	17.991625	18.111625		other	other
sw3509B-ms98-a-0005	B.4	18.111625	18.443125		hand	hand
sw3509B-ms98-a-0005	B.4	18.443125	18.651625		uh	uh
sw3509B-ms98-a-0005	B.4	18.651625	18.811625		I	i
sw3509B-ms98-a-0005	B.4	18.811625	18.961625		don't	don't
sw3509B-ms98-a-0005	B.4	18.961625	19.161125		know	know
sw3509B-ms98-a-0005	B.4	19.161125	19.221625		I	i
sw3509B-ms98-a-0005	B.4	19.221625	19.351625		mean	mean
sw3509B-ms98-a-0005	B.4	19.351625	19.471625	<CONT>	there	there's
sw3509B-ms98-a-0005	B.4	19.471625	19.471625	<CONT>	is	+++
sw3509B-ms98-a-0005	B.4	19.471625	19.751625		things	things
sw3509B-ms98-a-0005	B.4	19.751625	19.891625		that	that
sw3509B-ms98-a-0005	B.4	19.891625	20.141625		seems	[laughter-seems]
sw3509B-ms98-a-0005	B.4	20.141625	20.311625		like	like
sw3509B-ms98-a-0005	B.4	20.311625	20.524625		it's	it's
sw3509B-ms98-a-0005	B.4	20.524625	21.025500		[silence]	[silence]
sw3509B-ms98-a-0005	B.4	21.025500	21.257000		it's	it's
sw3509B-ms98-a-0005	B.4	21.257000	21.354875		[silence]	[silence]
sw3509B-ms98-a-0005	B.4	21.354875	21.578500		it's	it's
sw3509B-ms98-a-0005	B.4	21.578500	21.741625		the	the
sw3509B-ms98-a-0005	B.4	21.741625	21.951625		right	right
sw3509B-ms98-a-0005	B.4	21.951625	22.131625		thing	thing
sw3509B-ms98-a-0005	B.4	22.131625	22.211625		to	to
sw3509B-ms98-a-0005	B.4	22.211625	22.473250		do	do
sw3509B-ms98-a-0005	B.4	22.473250	23.030750		[silence]	[silence]
sw3509B-ms98-a-0005	B.4	23.030750	23.222875		Now	now
sw3509B-ms98-a-0005	B.4	23.222875	23.506750		[silence]	[silence]
sw3509B-ms98-a-0006	B.4	23.506750	23.962500		[silence]	[silence]
sw3509B-ms98-a-0006	B.4	23.962500	24.036750		you	you
sw3509B-ms98-a-0006	B.4	24.036750	24.146750		know	know
sw3509B-ms98-a-0006	B.4	24.146750	24.176750		I	i
sw3509B-ms98-a-0006	B.4	24.176750	24.296750		mean	mean
sw3509B-ms98-a-0006	B.4	24.296750	24.596750		somebody	somebody
sw3509B-ms98-a-0006	B.4	24.596750	24.716750	<SUB>	a	as
sw3509B-ms98-a-0006	B.4	24.716750	24.886750	<SUB>	s-	se[rial]-
sw3509B-ms98-a-0006	B.4	24.886750	24.993000	<SUB>	s-	se[rial]-
sw3509B-ms98-a-0006	B.4	24.993000	25.279250		[silence]	[silence]
sw3509B-ms98-a-0006	B.4	25.279250	25.696750		serial	serial
sw3509B-ms98-a-0006	B.4	25.696750	26.056750		killer	killer
sw3509B-ms98-a-0006	B.4	26.056750	26.156750		or	or
sw3509B-ms98-a-0006	B.4	26.156750	26.386750		somebody	somebody
sw3509B-ms98-a-0006	B.4	26.386750	26.536750		goes	goes
sw3509B-ms98-a-0006	B.4	26.536750	26.626750		in	in
sw3509B-ms98-a-0006	B.4	26.626750	26.726750		and	and
sw3509B-ms98-a-0006	B.4	26.726750	26.956750		machine	machine
sw3509B-ms98-a-0006	B.4	26.956750	27.263625		guns	guns
sw3509B-ms98-a-0006	B.4	27.263625	27.824875		[silence]	[silence]
sw3509B-ms98-a-0006	B.4	27.824875	27.946750		you	you
sw3509B-ms98-a-0006	B.4	27.946750	28.016750		know	know
sw3509B-ms98-a-0006	B.4	28.016750	28.576750		fifty	fifty
sw3509B-ms98-a-0006	B.4	28.576750	28.866750		fifty	fifty
sw3509B-ms98-a-0006	B.4	28.866750	29.236750		children	children
sw3509B-ms98-a-0006	B.4	29.236750	29.346750		in	in
sw3509B-ms98-a-0006	B.4	29.346750	29.406750		a	a
sw3509B-ms98-a-0006	B.4	29.406750	29.666750		school	school
sw3509B-ms98-a-0006	B.4	29.666750	29.966750		yard	yard
sw3509B-ms98-a-0006	B.4	29.966750	30.036750		you	you
sw3509B-ms98-a-0006	B.4	30.036750	30.216750		kind	kind
sw3509B-ms98-a-0006	B.4	30.216750	30.324750		of	of
sw3509B-ms98-a-0006	B.4	30.324750	30.794125		[silence]	[silence]
sw3509B-ms98-a-0007	B.4	30.794125	31.514125		[silence]	[silence]
sw3509B-ms98-a-0007	B.4	31.514125	31.604125		I	i
sw3509B-ms98-a-0007	B.4	31.604125	31.744125		don't	don't
sw3509B-ms98-a-0007	B.4	31.744125	31.862125		know	know
sw3509B-ms98-a-0007	B.4	31.862125	32.249375		[silence]	[silence]
sw3509B-ms98-a-0008	B.4	32.249375	32.676000		[silence]	[silence]
sw3509B-ms98-a-0008	B.4	32.676000	32.749375		What	what
sw3509B-ms98-a-0008	B.4	32.749375	32.909375		about	about
sw3509B-ms98-a-0008	B.4	32.909375	33.309375		yourself	yourself
sw3509B-ms98-a-0008	B.6	33.309375	33.607750		[silence]	[silence]
sw3509B-ms98-a-0009	B.6	33.607750	43.948875		[silence]	[silence]
sw3509B-ms98-a-0010	B.6	43.948875	44.406750		[silence]	[silence]
sw3509B-ms98-a-0010	B.6	44.406750	44.704125		Uh-huh	uh-huh
sw3509B-ms98-a-0010	B.8	44.704125	45.133875		[noise]	[noise]
sw3509B-ms98-a-0010	B.8	45.133875	45.546625		[silence]	[silence]
sw3509B-ms98-a-0011	B.8	45.546625	46.321125		[silence]	[silence]
sw3509B-ms98-a-0011	B.8	46.321125	46.416625		I	i
sw3509B-ms98-a-0011	B.8	46.416625	46.590125		mean	mean
sw3509B-ms98-a-0011	B.8	46.590125	46.997000		[silence]	[silence]
sw3509B-ms98-a-0011	B.8	46.997000	47.376625		people	people
sw3509B-ms98-a-0011	B.8	47.376625	47.610250		like	like
sw3509B-ms98-a-0011	B.8	47.610250	47.934125		[silence]	[silence]
sw3509B-ms98-a-0011	B.8	47.934125	48.126750		I	i
sw3509B-ms98-a-0011	B.8	48.126750	48.910125		[vocalized-noise]	[vocalized-noise]
sw3509B-ms98-a-0011	B.8	48.910125	49.206625		it's	it's
sw3509B-ms98-a-0011	B.8	49.206625	49.466625		been	been
sw3509B-ms98-a-0011	B.8	49.466625	49.672500	<DEL>	---	show[n]-
sw3509B-ms98-a-0011	B.8	49.672500	49.755375		I	i
sw3509B-ms98-a-0011	B.8	49.755375	49.995250		mean	mean
sw3509B-ms98-a-0011	B.8	49.995250	50.286625		like	like
sw3509B-ms98-a-0011	B.8	50.286625	50.516125		the	the
sw3509B-ms98-a-0011	B.8	50.516125	50.856625		Arab	Arab
sw3509B-ms98-a-0011	B.8	50.856625	51.356625		societies	societies
sw3509B-ms98-a-0011	B.8	51.356625	51.446625		and	and
sw3509B-ms98-a-0011	B.8	51.446625	51.856625		stuff	stuff
sw3509B-ms98-a-0011	B.8	51.856625	51.907625		end	end
sw3509B-ms98-a-0011	B.8	51.907625	52.045375		up	up
sw3509B-ms98-a-0011	B.8	52.045375	52.233625		[silence]	[silence]
sw3509B-ms98-a-0011	B.8	52.233625	52.508250		uh	uh
sw3509B-ms98-a-0011	B.8	52.508250	52.651375		[silence]	[silence]
sw3509B-ms98-a-0011	B.8	52.651375	53.134625		having	having
sw3509B-ms98-a-0011	B.8	53.134625	53.808750		[noise]	[noise]
sw3509B-ms98-a-0011	B.8	53.808750	53.974500		e-	e[ffective]-
sw3509B-ms98-a-0011	B.8	53.974500	54.593000		effective	effective
sw3509B-ms98-a-0011	B.8	54.593000	54.959500		[silence]	[silence]
sw3509B-ms98-a-0012	B.8	54.959500	55.431250		[silence]	[silence]
sw3509B-ms98-a-0012	B.8	55.431250	56.009500		effective	effective
sw3509B-ms98-a-0012	B.8	56.009500	56.569500		punishments	punishments
sw3509B-ms98-a-0012	B.8	56.569500	56.729500		and	and
sw3509B-ms98-a-0012	B.8	56.729500	56.839500		and	and
sw3509B-ms98-a-0012	B.8	56.839500	57.089500		they're	they're
sw3509B-ms98-a-0012	B.8	57.089500	57.249500	<DEL>	---	they're
sw3509B-ms98-a-0012	B.8	57.249500	57.799500		extremely	extremely
sw3509B-ms98-a-0012	B.8	57.799500	58.211625		severe	severe
sw3509B-ms98-a-0012	B.8	58.211625	58.368250		[silence]	[silence]
sw3509B-ms98-a-0013	B.8	58.368250	58.849250		[silence]	[silence]
sw3509B-ms98-a-0013	B.8	58.849250	59.138250	<SUB>	Uh	um
sw3509B-ms98-a-0013	B.8	59.138250	59.294625		I	i
sw3509B-ms98-a-0013	B.8	59.294625	59.550750		[silence]	[silence]
sw3509B-ms98-a-0013	B.8	59.550750	59.668250		you	you
sw3509B-ms98-a-0013	B.8	59.668250	59.798250		know	know
sw3509B-ms98-a-0013	B.8	59.798250	59.898250		I	i
sw3509B-ms98-a-0013	B.8	59.898250	60.118250		think	think
sw3509B-ms98-a-0013	B.8	60.118250	60.208250		to	to
sw3509B-ms98-a-0013	B.8	60.208250	60.298250		a	a
sw3509B-ms98-a-0013	B.8	60.298250	60.458250		certain	certain
sw3509B-ms98-a-0013	B.8	60.458250	60.688250		degree	degree
sw3509B-ms98-a-0013	B.8	60.688250	60.768250		the	the
sw3509B-ms98-a-0013	B.8	60.768250	61.038250		reason	reason
sw3509B-ms98-a-0013	B.8	61.038250	61.138250		that	that
sw3509B-ms98-a-0013	B.8	61.138250	61.232250		it	it
sw3509B-ms98-a-0013	B.8	61.232250	61.352750		[silence]	[silence]
sw3509B-ms98-a-0013	B.8	61.352750	61.488250		it	it
sw3509B-ms98-a-0013	B.8	61.488250	61.738250		doesn't	doesn't
sw3509B-ms98-a-0013	B.8	61.738250	61.958250		serve	serve
sw3509B-ms98-a-0013	B.8	61.958250	62.068250		as	as
sw3509B-ms98-a-0013	B.8	62.068250	62.218250		a	a
sw3509B-ms98-a-0013	B.8	62.218250	62.902500		deterrent	deterrent
sw3509B-ms98-a-0013	B.8	62.902500	63.045625		[silence]	[silence]
sw3509B-ms98-a-0013	B.8	63.045625	63.228250		uh	uh
sw3509B-ms98-a-0013	B.8	63.228250	63.428250		may	may
sw3509B-ms98-a-0013	B.8	63.428250	63.578250		be	be
sw3509B-ms98-a-0013	B.8	63.578250	64.004750		because	because
sw3509B-ms98-a-0013	B.8	64.004750	64.542625		[silence]	[silence]
sw3509B-ms98-a-0014	B.8	64.542625	64.692625		[silence]	[silence]
sw3509B-ms98-a-0014	B.8	64.692625	65.094000		y-	y[ou]-
sw3509B-ms98-a-0014	B.8	65.094000	65.220625	<DEL>	---	y[ou]-
sw3509B-ms98-a-0014	B.8	65.220625	65.391000	<DEL>	---	y[ou]-
sw3509B-ms98-a-0014	B.8	65.391000	65.572625		you	you
sw3509B-ms98-a-0014	B.8	65.572625	65.772625		never	never
sw3509B-ms98-a-0014	B.8	65.772625	65.862625		know	know
sw3509B-ms98-a-0014	B.8	65.862625	65.932625		if	if
sw3509B-ms98-a-0014	B.8	65.932625	66.042625		it's	it's
sw3509B-ms98-a-0014	B.8	66.042625	66.192625	<SUB>	going	gonna
sw3509B-ms98-a-0014	B.8	66.192625	66.192625	<INS>	to	---
sw3509B-ms98-a-0014	B.8	66.192625	66.396375		be	be
sw3509B-ms98-a-0014	B.8	66.396375	66.532625		a-	a[pplied]-
sw3509B-ms98-a-0014	B.8	66.532625	67.076750		applied	applied
sw3509B-ms98-a-0014	B.8	67.076750	67.249750		[silence]	[silence]
sw3509B-ms98-a-0015	B.8	67.249750	67.512500		[silence]	[silence]
sw3509B-ms98-a-0015	B.8	67.512500	67.749250		Right	right
sw3509B-ms98-a-0015	B.8	67.749250	67.947000		un-	un[like]-
sw3509B-ms98-a-0015	B.8	67.947000	68.599750		unlike	unlike
sw3509B-ms98-a-0015	B.8	68.599750	68.875000		uh	uh
sw3509B-ms98-a-0015	B.8	68.875000	69.055750		[silence]	[silence]
sw3509B-ms98-a-0015	B.8	69.055750	69.289750		like	like
sw3509B-ms98-a-0015	B.8	69.289750	69.439750		in	in
sw3509B-ms98-a-0015	B.8	69.439750	69.579750		in	in
sw3509B-ms98-a-0015	B.8	69.579750	69.819750		Arab	Arab
sw3509B-ms98-a-0015	B.8	69.819750	70.219750		societies	societies
sw3509B-ms98-a-0015	B.8	70.219750	70.319750		If	if
sw3509B-ms98-a-0015	B.8	70.319750	70.439750		you	you
sw3509B-ms98-a-0015	B.8	70.439750	70.581125	<SUB>	get	got
sw3509B-ms98-a-0015	B.8	70.581125	70.814750		[silence]	[silence]
sw3509B-ms98-a-0015	B.8	70.814750	70.949750		get	get
sw3509B-ms98-a-0015	B.8	70.949750	71.149750		caught	caught
sw3509B-ms98-a-0015	B.8	71.149750	71.529750		stealing	stealing
sw3509B-ms98-a-0015	B.8	71.529750	71.703750		they	they
sw3509B-ms98-a-0015	B.8	71.703750	71.910875		[silence]	[silence]
sw3509B-ms98-a-0015	B.8	71.910875	72.169750		chop	chop
sw3509B-ms98-a-0015	B.8	72.169750	72.469750		off	off
sw3509B-ms98-a-0015	B.8	72.469750	72.569750		your	your
sw3509B-ms98-a-0015	B.8	72.569750	72.779750		hand	hand
sw3509B-ms98-a-0015	B.8	72.779750	72.999750		and	and
sw3509B-ms98-a-0015	B.10	72.999750	73.089750		and	and
sw3509B-ms98-a-0015	B.10	73.089750	73.149750		you	you
sw3509B-ms98-a-0015	B.10	73.149750	73.339750		walk	walk
sw3509B-ms98-a-0015	B.10	73.339750	73.489750		around	around
sw3509B-ms98-a-0015	B.10	73.489750	73.549750		the	the
sw3509B-ms98-a-0015	B.10	73.549750	73.669750		rest	rest
sw3509B-ms98-a-0015	B.10	73.669750	73.729750		of	of
sw3509B-ms98-a-0015	B.10	73.729750	73.819750		your	your
sw3509B-ms98-a-0015	B.10	73.819750	73.935500		life	life
sw3509B-ms98-a-0015	B.10	73.935500	74.199125		[vocalized-noise]	[vocalized-noise]
sw3509B-ms98-a-0015	B.10	74.199125	74.419750		with	with
sw3509B-ms98-a-0015	B.10	74.419750	74.539750		one	one
sw3509B-ms98-a-0015	B.10	74.539750	74.659750		hand	hand
sw3509B-ms98-a-0015	B.10	74.659750	74.779750		and	and
sw3509B-ms98-a-0015	B.10	74.779750	74.879750	<DEL>	---	then
sw3509B-ms98-a-0015	B.10	74.879750	75.179750		everybody	everybody
sw3509B-ms98-a-0015	B.10	75.179750	75.329750		knows	knows
sw3509B-ms98-a-0015	B.10	75.329750	75.789750		exactly	exactly
sw3509B-ms98-a-0015	B.10	75.789750	75.921625		what	what
sw3509B-ms98-a-0015	B.10	75.921625	76.520500		[silence]	[silence]
sw3509B-ms98-a-0015	B.10	76.520500	76.629750		what	what
sw3509B-ms98-a-0015	B.10	76.629750	77.071375		for	for
sw3509B-ms98-a-0015	B.12	77.071375	77.344625	<DEL>	---	right
sw3509B-ms98-a-0015	B.12	77.344625	77.489375		[silence]	[silence]
sw3509B-ms98-a-0016	B.12	77.489375	78.109375		[silence]	[silence]
sw3509B-ms98-a-0016	B.12	78.109375	78.463000	<SUB>	Uh	um
sw3509B-ms98-a-0016	B.12	78.463000	78.712250		[silence]	[silence]
sw3509B-ms98-a-0017	B.12	78.712250	79.216000		[silence]	[silence]
sw3509B-ms98-a-0017	B.12	79.216000	79.592250		and	and
sw3509B-ms98-a-0017	B.12	79.592250	79.852250		you	you
sw3509B-ms98-a-0017	B.12	79.852250	79.922250		know	know
sw3509B-ms98-a-0017	B.12	79.922250	80.042250		and	and
sw3509B-ms98-a-0017	B.12	80.042250	80.292250		here	here
sw3509B-ms98-a-0017	B.12	80.292250	80.462250		with	with
sw3509B-ms98-a-0017	B.12	80.462250	80.542250		our	our
sw3509B-ms98-a-0017	B.12	80.542250	80.812250		court	court
sw3509B-ms98-a-0017	B.12	80.812250	81.252250		system	system
sw3509B-ms98-a-0017	B.12	81.252250	81.492250		and	and
sw3509B-ms98-a-0017	B.12	81.492250	81.642250		and	and
sw3509B-ms98-a-0017	B.12	81.642250	81.852250		ways	ways
sw3509B-ms98-a-0017	B.12	81.852250	81.972250		of	of
sw3509B-ms98-a-0017	B.12	81.972250	82.232250		sort	sort
sw3509B-ms98-a-0017	B.12	82.232250	82.312250		of	of
sw3509B-ms98-a-0017	B.12	82.312250	82.742250		screwing	screwing
sw3509B-ms98-a-0017	B.12	82.742250	82.852250		it	it
sw3509B-ms98-a-0017	B.12	82.852250	83.262250		around	around
sw3509B-ms98-a-0017	B.12	83.262250	83.352250		and	and
sw3509B-ms98-a-0017	B.12	83.352250	83.672250		stuff	stuff
sw3509B-ms98-a-0017	B.12	83.672250	83.762250		you	you
sw3509B-ms98-a-0017	B.12	83.762250	84.014875		can	can
sw3509B-ms98-a-0017	B.12	84.014875	84.502750		[silence]	[silence]
sw3509B-ms98-a-0018	B.12	84.502750	84.782750		[silence]	[silence]
sw3509B-ms98-a-0018	B.12	84.782750	84.862750		you	you
sw3509B-ms98-a-0018	B.12	84.862750	85.022750		can	can
sw3509B-ms98-a-0018	B.12	85.022750	85.282750		kind	kind
sw3509B-ms98-a-0018	B.12	85.282750	85.526000		of	of
sw3509B-ms98-a-0018	B.12	85.526000	86.938750		[silence]	[silence]
sw3509B-ms98-a-0019	B.12	86.938750	87.461250		[silence]	[silence]
sw3509B-ms98-a-0019	B.12	87.461250	87.698750		always	always
sw3509B-ms98-a-0019	B.12	87.698750	87.948750		count	count
sw3509B-ms98-a-0019	B.12	87.948750	88.028750		on	on
sw3509B-ms98-a-0019	B.12	88.028750	88.088750		the	the
sw3509B-ms98-a-0019	B.12	88.088750	88.358750		fact	fact
sw3509B-ms98-a-0019	B.12	88.358750	88.438750	<DEL>	---	you
sw3509B-ms98-a-0019	B.12	88.438750	88.528750	<DEL>	---	know
sw3509B-ms98-a-0019	B.12	88.528750	88.898750		or	or
sw3509B-ms98-a-0019	B.12	88.898750	89.128750		or	or
sw3509B-ms98-a-0019	B.12	89.128750	89.278750	<CONT>	there	there's
sw3509B-ms98-a-0019	B.12	89.278750	89.278750	<CONT>	is	+++
sw3509B-ms98-a-0019	B.12	89.278750	89.328750		a	a
sw3509B-ms98-a-0019	B.12	89.328750	89.488750		good	good
sw3509B-ms98-a-0019	B.12	89.488750	89.698750		chance	chance
sw3509B-ms98-a-0019	B.12	89.698750	89.798750		you're	you're
sw3509B-ms98-a-0019	B.12	89.798750	89.938750	<SUB>	going	gonna
sw3509B-ms98-a-0019	B.12	89.938750	89.938750	<INS>	to	---
sw3509B-ms98-a-0019	B.12	89.938750	90.098750		get	get
sw3509B-ms98-a-0019	B.12	90.098750	90.321625		off	off
sw3509B-ms98-a-0019	B.14	90.321625	90.458750	<DEL>	---	and
sw3509B-ms98-a-0019	B.14	90.458750	90.636375	<DEL>	---	so
sw3509B-ms98-a-0019	B.14	90.636375	90.925875		[silence]	[silence]
sw3509B-ms98-a-0020	B.14	90.925875	100.032375		[silence]	[silence]
sw3509B-ms98-a-0021	B.14	100.032375	100.462625		[silence]	[silence]
sw3509B-ms98-a-0021	B.14	100.462625	100.880375		Uh-huh	uh-huh
sw3509B-ms98-a-0021	B.16	100.880375	101.400500		[silence]	[silence]
sw3509B-ms98-a-0022	B.16	101.400500	105.844625		[silence]	[silence]
sw3509B-ms98-a-0023	B.16	105.844625	106.255875		[silence]	[silence]
sw3509B-ms98-a-0023	B.16	106.255875	106.542250		Yeah	yeah
sw3509B-ms98-a-0023	B.16	106.542250	106.774625		some	some
sw3509B-ms98-a-0023	B.16	106.774625	107.015500		people	people
sw3509B-ms98-a-0023	B.18	107.015500	107.258500		[silence]	[silence]
sw3509B-ms98-a-0024	B.18	107.258500	108.265500		[silence]	[silence]
sw3509B-ms98-a-0025	B.18	108.265500	108.581875		[silence]	[silence]
sw3509B-ms98-a-0025	B.18	108.581875	108.980750		Yeah	yeah
sw3509B-ms98-a-0025	B.20	108.980750	109.602750		[silence]	[silence]
sw3509B-ms98-a-0026	B.20	109.602750	110.242750		[silence]	[silence]
sw3509B-ms98-a-0026	B.20	110.242750	110.562750		Except	except
sw3509B-ms98-a-0026	B.20	110.562750	110.782750		that	that
sw3509B-ms98-a-0026	B.20	110.782750	110.842750	<DEL>	---	you
sw3509B-ms98-a-0026	B.20	110.842750	110.942750	<DEL>	---	know
sw3509B-ms98-a-0026	B.20	110.942750	110.982750		I	i
sw3509B-ms98-a-0026	B.20	110.982750	111.142750		mean	mean
sw3509B-ms98-a-0026	B.20	111.142750	111.242750		the	the
sw3509B-ms98-a-0026	B.20	111.242750	111.592750		the	the
sw3509B-ms98-a-0026	B.20	111.592750	111.992750		average	average
sw3509B-ms98-a-0026	B.20	111.992750	112.377750		cost	cost
sw3509B-ms98-a-0026	B.20	112.377750	112.558500		[noise]	[noise]
sw3509B-ms98-a-0026	B.20	112.558500	112.652750		to	to
sw3509B-ms98-a-0026	B.20	112.652750	112.872750		[noise]	[noise]
sw3509B-ms98-a-0026	B.20	112.872750	113.311750	<SUB>	si-	socie[ty]-
sw3509B-ms98-a-0026	B.20	113.311750	113.585375		[silence]	[silence]
sw3509B-ms98-a-0027	B.20	113.585375	113.955375		[silence]	[silence]
sw3509B-ms98-a-0027	B.20	113.955375	114.105375		to	to
sw3509B-ms98-a-0027	B.20	114.105375	114.475375		society	society
sw3509B-ms98-a-0027	B.20	114.475375	114.535375		of	of
sw3509B-ms98-a-0027	B.20	114.535375	114.775375		having	having
sw3509B-ms98-a-0027	B.20	114.775375	115.005375		somebody	somebody
sw3509B-ms98-a-0027	B.20	115.005375	115.135375		in	in
sw3509B-ms98-a-0027	B.20	115.135375	115.335375		jail	jail
sw3509B-ms98-a-0027	B.20	115.335375	115.465375		for	for
sw3509B-ms98-a-0027	B.20	115.465375	115.625375		all	all
sw3509B-ms98-a-0027	B.20	115.625375	115.735375		their	their
sw3509B-ms98-a-0027	B.20	115.735375	116.025375		life	life
sw3509B-ms98-a-0027	B.20	116.025375	116.325375		is	is
sw3509B-ms98-a-0027	B.20	116.325375	116.593625		is	is
sw3509B-ms98-a-0027	B.20	116.593625	117.085375		extremely	extremely
sw3509B-ms98-a-0027	B.20	117.085375	117.295375		high	high
sw3509B-ms98-a-0027	B.20	117.295375	117.466125		I	i
sw3509B-ms98-a-0027	B.20	117.466125	117.705375		mean	mean
sw3509B-ms98-a-0027	B.20	117.705375	118.039750		something	something
sw3509B-ms98-a-0027	B.20	118.039750	118.627250		[silence]	[silence]
sw3509B-ms98-a-0027	B.20	118.627250	118.735375	<SUB>	I	i-
sw3509B-ms98-a-0027	B.20	118.735375	118.935375		I	i
sw3509B-ms98-a-0027	B.20	118.935375	119.095375		was	was
sw3509B-ms98-a-0027	B.20	119.095375	119.404625		amazed	amazed
sw3509B-ms98-a-0027	B.20	119.404625	119.521375		at	at
sw3509B-ms98-a-0027	B.20	119.521375	119.656625	<SUB>	Uh	a
sw3509B-ms98-a-0027	B.20	119.656625	119.942875		uh	uh
sw3509B-ms98-a-0027	B.20	119.942875	120.105375		per	per
sw3509B-ms98-a-0027	B.20	120.105375	120.575375		year	year
sw3509B-ms98-a-0027	B.20	120.575375	120.715375		it's	it's
sw3509B-ms98-a-0027	B.20	120.715375	121.045375		something	something
sw3509B-ms98-a-0027	B.20	121.045375	121.275375		like	like
sw3509B-ms98-a-0027	B.20	121.275375	121.575375		twenty	twenty
sw3509B-ms98-a-0027	B.20	121.575375	121.875375		thousand	thousand
sw3509B-ms98-a-0027	B.20	121.875375	122.115375		dollars	dollars
sw3509B-ms98-a-0027	B.20	122.115375	122.325375		per	per
sw3509B-ms98-a-0027	B.20	122.325375	122.715375		inmate	inmate
sw3509B-ms98-a-0027	B.20	122.715375	122.905375		per	per
sw3509B-ms98-a-0027	B.20	122.905375	123.280500		year	year
sw3509B-ms98-a-0027	B.22	123.280500	123.817875		[silence]	[silence]
sw3509B-ms98-a-0028	B.22	123.817875	124.349625		[silence]	[silence]
sw3509B-ms98-a-0028	B.22	124.349625	124.447875		To	to
sw3509B-ms98-a-0028	B.22	124.447875	124.661750		keep	keep
sw3509B-ms98-a-0028	B.22	124.661750	124.838375		[silence]	[silence]
sw3509B-ms98-a-0028	B.22	124.838375	125.087875		people	people
sw3509B-ms98-a-0028	B.22	125.087875	125.187875		in	in
sw3509B-ms98-a-0028	B.22	125.187875	125.515125		jail	jail
sw3509B-ms98-a-0028	B.22	125.515125	125.895500		[silence]	[silence]
sw3509B-ms98-a-0028	B.22	125.895500	126.199250		Uh	uh
sw3509B-ms98-a-0028	B.22	126.199250	126.478000		[silence]	[silence]
sw3509B-ms98-a-0028	B.22	126.478000	126.587875		you	you
sw3509B-ms98-a-0028	B.22	126.587875	126.727875		know	know
sw3509B-ms98-a-0028	B.22	126.727875	126.837875	<SUB>	and	i
sw3509B-ms98-a-0028	B.22	126.837875	126.947875	<DEL>	---	mean
sw3509B-ms98-a-0028	B.22	126.947875	127.157875	<SUB>	it's	that's
sw3509B-ms98-a-0028	B.22	127.157875	127.337875		sort	sort
sw3509B-ms98-a-0028	B.22	127.337875	127.590750		of	of
sw3509B-ms98-a-0028	B.22	127.590750	128.380750		[silence]	[silence]
sw3509B-ms98-a-0028	B.22	128.380750	128.569000		a	a
sw3509B-ms98-a-0028	B.22	128.569000	128.867875	<DEL>	---	[laughter-uh]
sw3509B-ms98-a-0028	B.22	128.867875	129.240000		sort	[laughter-sort]
sw3509B-ms98-a-0028	B.22	129.240000	129.277875		of	of
sw3509B-ms98-a-0028	B.22	129.277875	129.347875		a	a
sw3509B-ms98-a-0028	B.22	129.347875	129.707875		crass	crass
sw3509B-ms98-a-0028	B.22	129.707875	130.327875		perspective	perspective
sw3509B-ms98-a-0028	B.24	130.327875	130.522500	<DEL>	---	[laughter-i]
sw3509B-ms98-a-0028	B.24	130.522500	131.293250	<DEL>	---	[laughter-mean]
sw3509B-ms98-a-0028	B.24	131.293250	131.397875		on	on
sw3509B-ms98-a-0028	B.24	131.397875	131.457875		the	the
sw3509B-ms98-a-0028	B.24	131.457875	131.797875		usage	usage
sw3509B-ms98-a-0028	B.24	131.797875	131.877875		of	of
sw3509B-ms98-a-0028	B.24	131.877875	132.237875		capital	capital
sw3509B-ms98-a-0028	B.24	132.237875	132.667875		punishment	punishment
sw3509B-ms98-a-0028	B.24	132.667875	132.777875		but	but
sw3509B-ms98-a-0028	B.24	132.777875	132.877875		on	on
sw3509B-ms98-a-0028	B.24	132.877875	132.947875		the	the
sw3509B-ms98-a-0028	B.24	132.947875	133.077875		other	other
sw3509B-ms98-a-0028	B.24	133.077875	133.456750		hand	hand
sw3509B-ms98-a-0028	B.24	133.456750	133.807875		uh	uh
sw3509B-ms98-a-0028	B.24	133.807875	134.110750	<SUB>	uh	um
sw3509B-ms98-a-0028	B.24	134.110750	134.763250		[silence]	[silence]
sw3509B-ms98-a-0029	B.24	134.763250	135.623250		[silence]	[silence]
sw3509B-ms98-a-0029	B.24	135.623250	135.713250		you	you
sw3509B-ms98-a-0029	B.24	135.713250	135.833250		know	know
sw3509B-ms98-a-0029	B.24	135.833250	135.893250		I	i
sw3509B-ms98-a-0029	B.24	135.893250	136.023250	<SUB>	don't	do[n't]-
sw3509B-ms98-a-0029	B.24	136.023250	136.083250		I	i
sw3509B-ms98-a-0029	B.24	136.083250	136.203250		don't	don't
sw3509B-ms98-a-0029	B.24	136.203250	136.273250		know	know
sw3509B-ms98-a-0029	B.24	136.273250	136.403250		if	if
sw3509B-ms98-a-0029	B.24	136.403250	136.523250	<DEL>	---	if
sw3509B-ms98-a-0029	B.24	136.523250	136.763250		it's	it's
sw3509B-ms98-a-0029	B.24	136.763250	136.833250	<SUB>	that	a
sw3509B-ms98-a-0029	B.24	136.833250	137.113250	<SUB>	is	crime
sw3509B-ms98-a-0029	B.24	137.113250	137.421125	<SUB>	that	that's
sw3509B-ms98-a-0029	B.24	137.421125	137.534125		[silence]	[silence]
sw3509B-ms98-a-0029	B.24	137.534125	137.784875	<SUB>	is	that's
sw3509B-ms98-a-0029	B.24	137.784875	137.928000		[silence]	[silence]
sw3509B-ms98-a-0029	B.24	137.928000	138.153250		that	that
sw3509B-ms98-a-0029	B.24	138.153250	138.763250		serious	serious
sw3509B-ms98-a-0029	B.24	138.763250	138.923250		that	that
sw3509B-ms98-a-0029	B.24	138.923250	139.103250		they're	they're
sw3509B-ms98-a-0029	B.24	139.103250	139.444875		really	really
sw3509B-ms98-a-0029	B.24	139.444875	139.599375		[silence]	[silence]
sw3509B-ms98-a-0029	B.24	139.599375	139.813250		never	never
sw3509B-ms98-a-0029	B.24	139.813250	139.963250	<SUB>	going	gonna
sw3509B-ms98-a-0029	B.24	139.963250	139.963250	<INS>	to	---
sw3509B-ms98-a-0029	B.24	139.963250	140.093250		be	be
sw3509B-ms98-a-0029	B.24	140.093250	140.193250		out	out
sw3509B-ms98-a-0029	B.24	140.193250	140.263250		of	of
sw3509B-ms98-a-0029	B.24	140.263250	140.641750		jail	jail
sw3509B-ms98-a-0029	B.24	140.641750	140.907000		[silence]	[silence]
sw3509B-ms98-a-0029	B.24	140.907000	141.155000	<SUB>	uh	um
sw3509B-ms98-a-0029	B.26	141.155000	141.155000	<INS>	Uh-huh	---
sw3509B-ms98-a-0029	B.28	141.155000	141.498875		[silence]	[silence]
sw3509B-ms98-a-0030	B.28	141.498875	158.629875		[silence]	[silence]
sw3509B-ms98-a-0031	B.28	158.629875	159.129250		[silence]	[silence]
sw3509B-ms98-a-0031	B.28	159.129250	159.302125		Oh	oh
sw3509B-ms98-a-0031	B.28	159.302125	159.376500		I	i
sw3509B-ms98-a-0031	B.28	159.376500	159.489875		know	know
sw3509B-ms98-a-0031	B.28	159.489875	159.681875		I	i
sw3509B-ms98-a-0031	B.28	159.681875	159.789875		mean	mean
sw3509B-ms98-a-0031	B.28	159.789875	159.889875		you	you
sw3509B-ms98-a-0031	B.28	159.889875	160.159875		can't	can't
sw3509B-ms98-a-0031	B.28	160.159875	160.249875		it	it
sw3509B-ms98-a-0031	B.28	160.249875	160.592750		doesn't	doesn't
sw3509B-ms98-a-0031	B.30	160.592750	160.754625		[silence]	[silence]
sw3509B-ms98-a-0031	B.30	160.754625	161.079875		Taking	taking
sw3509B-ms98-a-0031	B.30	161.079875	161.389875		taking	taking
sw3509B-ms98-a-0031	B.30	161.389875	161.499875		one	one
sw3509B-ms98-a-0031	B.30	161.499875	161.679875		more	more
sw3509B-ms98-a-0031	B.30	161.679875	161.859875		life	life
sw3509B-ms98-a-0031	B.30	161.859875	162.219875		doesn't	doesn't
sw3509B-ms98-a-0031	B.30	162.219875	162.484125		doesn't	doesn't
sw3509B-ms98-a-0031	B.30	162.484125	163.173375		[silence]	[silence]
sw3509B-ms98-a-0031	B.30	163.173375	163.439875		doesn't	doesn't
sw3509B-ms98-a-0031	B.30	163.439875	163.610125	<DEL>	---	get
sw3509B-ms98-a-0031	B.30	163.610125	163.869875	<SUB>	re-	re[place]-
sw3509B-ms98-a-0031	B.30	163.869875	163.959875	<DEL>	---	you
sw3509B-ms98-a-0031	B.30	163.959875	164.019875	<DEL>	---	know
sw3509B-ms98-a-0031	B.30	164.019875	164.209875		get	get
sw3509B-ms98-a-0031	B.30	164.209875	164.419875		things	things
sw3509B-ms98-a-0031	B.30	164.419875	164.619875		back	back
sw3509B-ms98-a-0031	B.30	164.619875	164.699875		the	the
sw3509B-ms98-a-0031	B.30	164.699875	164.859875		way	way
sw3509B-ms98-a-0031	B.30	164.859875	164.969875		they	they
sw3509B-ms98-a-0031	B.30	164.969875	165.285625		were	were
sw3509B-ms98-a-0031	B.30	165.285625	165.573875		right	right
sw3509B-ms98-a-0031	B.32	165.573875	166.383625		[silence]	[silence]
sw3509B-ms98-a-0031	B.32	166.383625	166.589875		Yeah	yeah
sw3509B-ms98-a-0031	B.32	166.589875	166.759875		I	i
sw3509B-ms98-a-0031	B.32	166.759875	166.929875		don't	don't
sw3509B-ms98-a-0031	B.32	166.929875	167.099875		know	know
sw3509B-ms98-a-0031	B.32	167.099875	167.339875	<SUB>	I	i-
sw3509B-ms98-a-0031	B.32	167.339875	167.459875		I	i
sw3509B-ms98-a-0031	B.32	167.459875	167.789875		don't	don't
sw3509B-ms98-a-0031	B.32	167.789875	167.829875	<DEL>	---	kn[ow]-
sw3509B-ms98-a-0031	B.32	167.829875	167.929875		I	i
sw3509B-ms98-a-0031	B.32	167.929875	168.169875		really	really
sw3509B-ms98-a-0031	B.32	168.169875	168.349875		don't	don't
sw3509B-ms98-a-0031	B.32	168.349875	168.550375		know	know
sw3509B-ms98-a-0031	B.32	168.550375	168.674625		[silence]	[silence]
sw3509B-ms98-a-0031	B.32	168.674625	168.918000		uh	uh
sw3509B-ms98-a-0031	B.34	168.918000	169.379375		[silence]	[silence]
sw3509B-ms98-a-0031	B.34	169.379375	169.498000		I'm	i'm
sw3509B-ms98-a-0031	B.34	169.498000	169.599625		in	in
sw3509B-ms98-a-0031	B.34	169.599625	170.039875		Texas	Texas
sw3509B-ms98-a-0031	B.36	170.039875	170.348750		[silence]	[silence]
sw3509B-ms98-a-0032	B.36	170.348750	170.878750		[silence]	[silence]
sw3509B-ms98-a-0032	B.36	170.878750	171.128750	<SUB>	W-	wh[ere]-
sw3509B-ms98-a-0032	B.36	171.128750	171.334125	<SUB>	w-	wh[ere]-
sw3509B-ms98-a-0032	B.38	171.334125	172.220875		[silence]	[silence]
sw3509B-ms98-a-0032	B.38	172.220875	172.390375		No	no
sw3509B-ms98-a-0032	B.38	172.390375	172.578750		I'm	i'm
sw3509B-ms98-a-0032	B.38	172.578750	172.658750		in	in
sw3509B-ms98-a-0032	B.38	172.658750	173.049500		Austin	Austin
sw3509B-ms98-a-0032	B.40	173.049500	173.601125		[silence]	[silence]
sw3509B-ms98-a-0033	B.40	173.601125	173.964125		[silence]	[silence]
sw3509B-ms98-a-0033	B.40	173.964125	174.201125	<DEL>	---	an[d]-
sw3509B-ms98-a-0033	B.40	174.201125	174.321125		Where	where
sw3509B-ms98-a-0033	B.40	174.321125	174.381125	<DEL>	---	are
sw3509B-ms98-a-0033	B.40	174.381125	174.501125	<DEL>	---	you
sw3509B-ms98-a-0033	B.40	174.501125	174.591125		where	where
sw3509B-ms98-a-0033	B.40	174.591125	174.671125		are	are
sw3509B-ms98-a-0033	B.40	174.671125	174.751125		you	you
sw3509B-ms98-a-0033	B.40	174.751125	174.971125		calling	calling
sw3509B-ms98-a-0033	B.40	174.971125	175.139250		from	from
sw3509B-ms98-a-0033	B.42	175.139250	175.563500		[silence]	[silence]
sw3509B-ms98-a-0034	B.42	175.563500	177.367625		[silence]	[silence]
sw3509B-ms98-a-0035	B.42	177.367625	177.823500		[silence]	[silence]
sw3509B-ms98-a-0035	B.42	177.823500	177.967625		Oh	oh
sw3509B-ms98-a-0035	B.42	177.967625	178.106500		I	i
sw3509B-ms98-a-0035	B.42	178.106500	178.297875		see	see
sw3509B-ms98-a-0035	B.42	178.297875	178.587125		uh-huh	uh-huh
sw3509B-ms98-a-0035	B.44	178.587125	179.150875		[silence]	[silence]
sw3509B-ms98-a-0036	B.44	179.150875	179.989500		[silence]	[silence]
sw3509B-ms98-a-0037	B.44	179.989500	180.039500		[silence]	[silence]
sw3509B-ms98-a-0037	B.44	180.039500	180.180500	<DEL>	---	yeah
sw3509B-ms98-a-0037	B.44	180.180500	180.389500	<DEL>	---	so
sw3509B-ms98-a-0037	B.44	180.389500	180.496375	<DEL>	---	y[ou]-
sw3509B-ms98-a-0037	B.44	180.496375	180.652500		[silence]	[silence]
sw3509B-ms98-a-0038	B.44	180.652500	182.115125		[silence]	[silence]
sw3509B-ms98-a-0039	B.44	182.115125	182.629000		[silence]	[silence]
sw3509B-ms98-a-0039	B.44	182.629000	182.825125	<SUB>	It's	it
sw3509B-ms98-a-0039	B.44	182.825125	183.005125	<DEL>	---	i[s]-
sw3509B-ms98-a-0039	B.44	183.005125	183.425125		Texas	Texas
sw3509B-ms98-a-0039	B.44	183.425125	183.653875		is	is
sw3509B-ms98-a-0039	B.44	183.653875	183.981625		[silence]	[silence]
sw3509B-ms98-a-0039	B.44	183.981625	184.185125	<DEL>	---	ha[s]-
sw3509B-ms98-a-0039	B.44	184.185125	184.405125		has	has
sw3509B-ms98-a-0039	B.44	184.405125	184.535125		is	is
sw3509B-ms98-a-0039	B.44	184.535125	184.665125		one	one
sw3509B-ms98-a-0039	B.44	184.665125	184.735125		of	of
sw3509B-ms98-a-0039	B.44	184.735125	184.895875		the	the
sw3509B-ms98-a-0039	B.44	184.895875	185.064625		[silence]	[silence]
sw3509B-ms98-a-0040	B.44	185.064625	185.262875		[silence]	[silence]
sw3509B-ms98-a-0040	B.44	185.262875	185.374625		one	one
sw3509B-ms98-a-0040	B.44	185.374625	185.469000		of	of
sw3509B-ms98-a-0040	B.44	185.469000	185.525625		the	the
sw3509B-ms98-a-0040	B.44	185.525625	185.784375		s-	s[tates]-
sw3509B-ms98-a-0040	B.44	185.784375	186.004625		well	well
sw3509B-ms98-a-0040	B.44	186.004625	186.064625		I	i
sw3509B-ms98-a-0040	B.44	186.064625	186.204625		guess	guess
sw3509B-ms98-a-0040	B.44	186.204625	186.404625	<CONT>	there	there's
sw3509B-ms98-a-0040	B.44	186.404625	186.404625	<CONT>	is	+++
sw3509B-ms98-a-0040	B.44	186.404625	186.594625		more	more
sw3509B-ms98-a-0040	B.44	186.594625	186.684625		and	and
sw3509B-ms98-a-0040	B.44	186.684625	186.814625		more	more
sw3509B-ms98-a-0040	B.44	186.814625	187.084625		states	states
sw3509B-ms98-a-0040	B.44	187.084625	187.184625		that	that
sw3509B-ms98-a-0040	B.44	187.184625	187.395375		are	are
sw3509B-ms98-a-0040	B.44	187.395375	187.554625		that	that
sw3509B-ms98-a-0040	B.44	187.554625	187.614625		are	are
sw3509B-ms98-a-0040	B.44	187.614625	187.834625		going	going
sw3509B-ms98-a-0040	B.44	187.834625	188.034625		back	back
sw3509B-ms98-a-0040	B.44	188.034625	188.104625		to	to
sw3509B-ms98-a-0040	B.44	188.104625	188.404625		capital	capital
sw3509B-ms98-a-0040	B.44	188.404625	188.914625		punishment	punishment
sw3509B-ms98-a-0040	B.44	188.914625	189.143000	<SUB>	Uh	um
sw3509B-ms98-a-0040	B.44	189.143000	189.640250		[silence]	[silence]
sw3509B-ms98-a-0040	B.44	189.640250	189.984625		Texas	Texas
sw3509B-ms98-a-0040	B.44	189.984625	190.174625		has	has
sw3509B-ms98-a-0040	B.44	190.174625	190.314625		had	had
sw3509B-ms98-a-0040	B.44	190.314625	190.404625		it	it
sw3509B-ms98-a-0040	B.44	190.404625	190.514625		for	for
sw3509B-ms98-a-0040	B.44	190.514625	190.574625		a	a
sw3509B-ms98-a-0040	B.44	190.574625	190.924625		while	while
sw3509B-ms98-a-0040	B.44	190.924625	191.114625		It's	it's
sw3509B-ms98-a-0040	B.44	191.114625	191.214625		one	one
sw3509B-ms98-a-0040	B.44	191.214625	191.274625		of	of
sw3509B-ms98-a-0040	B.44	191.274625	191.334625		the	the
sw3509B-ms98-a-0040	B.44	191.334625	191.614625	<SUB>	quickest	quicker
sw3509B-ms98-a-0040	B.44	191.614625	191.614625	<INS>	it	---
sw3509B-ms98-a-0040	B.44	191.614625	191.825625		it	it
sw3509B-ms98-a-0040	B.44	191.825625	192.206125		[silence]	[silence]
sw3509B-ms98-a-0040	B.44	192.206125	192.414625		once	once
sw3509B-ms98-a-0040	B.44	192.414625	192.504625		it	it
sw3509B-ms98-a-0040	B.44	192.504625	192.617750		was	was
sw3509B-ms98-a-0040	B.44	192.617750	192.866375	<DEL>	---	uh
sw3509B-ms98-a-0040	B.44	192.866375	193.094625		it	it
sw3509B-ms98-a-0040	B.44	193.094625	193.304625		was	was
sw3509B-ms98-a-0040	B.44	193.304625	193.894625		reallowed	reallowed
sw3509B-ms98-a-0040	B.44	193.894625	193.934625		I	i
sw3509B-ms98-a-0040	B.44	193.934625	194.184625		think	think
sw3509B-ms98-a-0040	B.44	194.184625	194.354625		it	it
sw3509B-ms98-a-0040	B.44	194.354625	194.454625		was	was
sw3509B-ms98-a-0040	B.44	194.454625	194.784625		outlawed	outlawed
sw3509B-ms98-a-0040	B.44	194.784625	194.904625		for	for
sw3509B-ms98-a-0040	B.44	194.904625	194.964625		a	a
sw3509B-ms98-a-0040	B.44	194.964625	195.144625		while	while
sw3509B-ms98-a-0040	B.44	195.144625	195.264625	<SUB>	but	by
sw3509B-ms98-a-0040	B.44	195.264625	195.449500	<SUB>	uh	the
sw3509B-ms98-a-0040	B.44	195.449500	195.905250		[silence]	[silence]
sw3509B-ms98-a-0040	B.44	195.905250	195.984625		by	by
sw3509B-ms98-a-0040	B.44	195.984625	196.044625		the	the
sw3509B-ms98-a-0040	B.44	196.044625	196.344625		supreme	supreme
sw3509B-ms98-a-0040	B.44	196.344625	196.704625		court	court
sw3509B-ms98-a-0040	B.44	196.704625	196.754625		I	i
sw3509B-ms98-a-0040	B.44	196.754625	196.954625		mean	mean
sw3509B-ms98-a-0040	B.44	196.954625	197.014625		or	or
sw3509B-ms98-a-0040	B.44	197.014625	197.108500	<DEL>	---	or
sw3509B-ms98-a-0040	B.44	197.108500	197.296875		[silence]	[silence]
sw3509B-ms98-a-0040	B.44	197.296875	197.434625		the	the
sw3509B-ms98-a-0040	B.44	197.434625	198.034625		interpretation	interpretation
sw3509B-ms98-a-0040	B.44	198.034625	198.154625		of	of
sw3509B-ms98-a-0040	B.44	198.154625	198.224625		the	the
sw3509B-ms98-a-0040	B.44	198.224625	198.622500		constitution	constitution
sw3509B-ms98-a-0040	B.44	198.622500	198.735375		[silence]	[silence]
sw3509B-ms98-a-0041	B.44	198.735375	199.320875		[silence]	[silence]
sw3509B-ms98-a-0041	B.44	199.320875	199.526000		and	and
sw3509B-ms98-a-0041	B.44	199.526000	199.626125		[silence]	[silence]
sw3509B-ms98-a-0041	B.44	199.626125	199.725375		it	it
sw3509B-ms98-a-0041	B.44	199.725375	199.885375		seems	seems
sw3509B-ms98-a-0041	B.44	199.885375	200.025375		like	like
sw3509B-ms98-a-0041	B.44	200.025375	200.385375		everybody	everybody
sw3509B-ms98-a-0041	B.44	200.385375	200.765375		stopped	stopped
sw3509B-ms98-a-0041	B.44	200.765375	200.855375		and	and
sw3509B-ms98-a-0041	B.44	200.855375	201.084750		then	then
sw3509B-ms98-a-0041	B.44	201.084750	201.365375		and	and
sw3509B-ms98-a-0041	B.44	201.365375	201.595375		then	then
sw3509B-ms98-a-0041	B.44	201.595375	201.835375		once	once
sw3509B-ms98-a-0041	B.44	201.835375	202.172250		they	they
sw3509B-ms98-a-0041	B.44	202.172250	202.300375		[silence]	[silence]
sw3509B-ms98-a-0041	B.44	202.300375	202.515375		sort	sort
sw3509B-ms98-a-0041	B.44	202.515375	202.635375		of	of
sw3509B-ms98-a-0041	B.44	202.635375	203.085375		reallowed	reallowed
sw3509B-ms98-a-0041	B.44	203.085375	203.235375		it	it
sw3509B-ms98-a-0041	B.44	203.235375	203.615375		Texas	Texas
sw3509B-ms98-a-0041	B.44	203.615375	203.735375		was	was
sw3509B-ms98-a-0041	B.44	203.735375	203.845375		one	one
sw3509B-ms98-a-0041	B.44	203.845375	203.915375		of	of
sw3509B-ms98-a-0041	B.44	203.915375	203.975375		the	the
sw3509B-ms98-a-0041	B.44	203.975375	204.325375		first	first
sw3509B-ms98-a-0041	B.44	204.325375	204.578500		to	to
sw3509B-ms98-a-0041	B.44	204.578500	204.862625		uh	uh
sw3509B-ms98-a-0041	B.44	204.862625	205.476500		[silence]	[silence]
sw3509B-ms98-a-0041	B.44	205.476500	205.577125		to	to
sw3509B-ms98-a-0041	B.44	205.577125	206.156375		actually	actually
sw3509B-ms98-a-0041	B.44	206.156375	206.382375		uh	uh
sw3509B-ms98-a-0041	B.44	206.382375	206.775375		implement	implement
sw3509B-ms98-a-0041	B.44	206.775375	206.875375		it	it
sw3509B-ms98-a-0041	B.44	206.875375	207.130875		again	again
sw3509B-ms98-a-0041	B.46	207.130875	207.500750		[silence]	[silence]
sw3509B-ms98-a-0042	B.46	207.500750	208.127500		[silence]	[silence]
sw3509B-ms98-a-0042	B.46	208.127500	208.230750		They	they
sw3509B-ms98-a-0042	B.46	208.230750	208.350750		do	do
sw3509B-ms98-a-0042	B.46	208.350750	208.470750		it	it
sw3509B-ms98-a-0042	B.46	208.470750	208.860750		by	by
sw3509B-ms98-a-0042	B.46	208.860750	209.020750		uh	uh
sw3509B-ms98-a-0042	B.46	209.020750	209.271375		by	by
sw3509B-ms98-a-0042	B.46	209.271375	209.438500	<DEL>	---	l[ethal]-
sw3509B-ms98-a-0042	B.46	209.438500	209.626750		[silence]	[silence]
sw3509B-ms98-a-0042	B.46	209.626750	209.690750		do	do
sw3509B-ms98-a-0042	B.46	209.690750	209.770750		it	it
sw3509B-ms98-a-0042	B.46	209.770750	209.860750		by	by
sw3509B-ms98-a-0042	B.46	209.860750	210.170750		lethal	lethal
sw3509B-ms98-a-0042	B.46	210.170750	210.642750		injection	injection
sw3509B-ms98-a-0042	B.48	210.642750	210.931375		[silence]	[silence]
sw3509B-ms98-a-0043	B.48	210.931375	211.826375		[silence]	[silence]
sw3509B-ms98-a-0043	B.48	211.826375	212.229625	<SUB>	Uh	so
sw3509B-ms98-a-0043	B.48	212.229625	212.687375		[silence]	[silence]
sw3509B-ms98-a-0043	B.48	212.687375	212.742250	<DEL>	---	you
sw3509B-ms98-a-0043	B.48	212.742250	212.939250	<DEL>	---	know
sw3509B-ms98-a-0043	B.48	212.939250	212.949375		[silence]	[silence]
sw3509B-ms98-a-0044	B.48	212.949375	213.599375		[silence]	[silence]
sw3509B-ms98-a-0044	B.48	213.599375	213.709375		I'm	i'm
sw3509B-ms98-a-0044	B.48	213.709375	214.059375		originally	originally
sw3509B-ms98-a-0044	B.48	214.059375	214.229375		from	from
sw3509B-ms98-a-0044	B.48	214.229375	214.739375		Kansas	Kansas
sw3509B-ms98-a-0044	B.48	214.739375	214.909375		and	and
sw3509B-ms98-a-0044	B.48	214.909375	215.079375		in	in
sw3509B-ms98-a-0044	B.48	215.079375	215.479375		Kansas	Kansas
sw3509B-ms98-a-0044	B.48	215.479375	215.865750		also	also
sw3509B-ms98-a-0044	B.48	215.865750	216.009500		[silence]	[silence]
sw3509B-ms98-a-0044	B.48	216.009500	216.279375		uh	uh
sw3509B-ms98-a-0044	B.48	216.279375	216.529750		they	they
sw3509B-ms98-a-0044	B.48	216.529750	216.752500		[silence]	[silence]
sw3509B-ms98-a-0045	B.48	216.752500	217.022500		[silence]	[silence]
sw3509B-ms98-a-0045	B.48	217.022500	217.152500		they	they
sw3509B-ms98-a-0045	B.48	217.152500	217.412500		almost	almost
sw3509B-ms98-a-0045	B.48	217.412500	217.782500		immediately	immediately
sw3509B-ms98-a-0045	B.48	217.782500	217.992500		put	put
sw3509B-ms98-a-0045	B.48	217.992500	218.172500		back	back
sw3509B-ms98-a-0045	B.48	218.172500	218.462500		capital	capital
sw3509B-ms98-a-0045	B.48	218.462500	218.936750		punishment	punishment
sw3509B-ms98-a-0045	B.48	218.936750	219.550625		[silence]	[silence]
sw3509B-ms98-a-0045	B.48	219.550625	220.092500		and	and
sw3509B-ms98-a-0045	B.48	220.092500	220.399750		uh	uh
sw3509B-ms98-a-0045	B.48	220.399750	221.009875		[silence]	[silence]
sw3509B-ms98-a-0045	B.48	221.009875	221.242500		there	there
sw3509B-ms98-a-0045	B.48	221.242500	221.372500		they	they
sw3509B-ms98-a-0045	B.48	221.372500	221.482500		do	do
sw3509B-ms98-a-0045	B.48	221.482500	221.562500		it	it
sw3509B-ms98-a-0045	B.48	221.562500	221.652500		by	by
sw3509B-ms98-a-0045	B.48	221.652500	222.070625		hanging	hanging
sw3509B-ms98-a-0045	B.50	222.070625	222.318125		[silence]	[silence]
sw3509B-ms98-a-0046	B.50	222.318125	223.344500		[silence]	[silence]
sw3509B-ms98-a-0047	B.50	223.344500	223.644500		[silence]	[silence]
sw3509B-ms98-a-0047	B.50	223.644500	223.988625		Still	still
sw3509B-ms98-a-0047	B.50	223.988625	224.116750		[silence]	[silence]
sw3509B-ms98-a-0047	B.50	224.116750	224.344500	<SUB>	uh	right
sw3509B-ms98-a-0047	B.50	224.344500	224.444500		they	they
sw3509B-ms98-a-0047	B.50	224.444500	224.714500		have	have
sw3509B-ms98-a-0047	B.50	224.714500	224.927875		[silence]	[silence]
sw3509B-ms98-a-0048	B.50	224.927875	225.687250		[silence]	[silence]
sw3509B-ms98-a-0048	B.50	225.687250	225.767875		I	i
sw3509B-ms98-a-0048	B.50	225.767875	225.967875		still	still
sw3509B-ms98-a-0048	B.50	225.967875	226.287875		remember	remember
sw3509B-ms98-a-0048	B.50	226.287875	226.611000		the	the
sw3509B-ms98-a-0048	B.50	226.611000	226.957875		the	the
sw3509B-ms98-a-0048	B.50	226.957875	227.157875		the	the
sw3509B-ms98-a-0048	B.50	227.157875	227.637875		movie	movie
sw3509B-ms98-a-0048	B.50	227.637875	227.800500		uh	uh
sw3509B-ms98-a-0048	B.50	227.800500	228.045375		[silence]	[silence]
sw3509B-ms98-a-0048	B.50	228.045375	228.187875		IN	In
sw3509B-ms98-a-0048	B.50	228.187875	228.417875		COLD	Cold
sw3509B-ms98-a-0048	B.50	228.417875	228.719625		BLOOD	Blood
sw3509B-ms98-a-0048	B.50	228.719625	229.418875		[silence]	[silence]
sw3509B-ms98-a-0049	B.50	229.418875	229.742000		[silence]	[silence]
sw3509B-ms98-a-0049	B.50	229.742000	229.798875		I	i
sw3509B-ms98-a-0049	B.50	229.798875	229.938875		don't	don't
sw3509B-ms98-a-0049	B.50	229.938875	229.998875		know	know
sw3509B-ms98-a-0049	B.50	229.998875	230.158875		if	if
sw3509B-ms98-a-0049	B.50	230.158875	230.328875		you've	you've
sw3509B-ms98-a-0049	B.50	230.328875	230.821250		ever	ever
sw3509B-ms98-a-0049	B.50	230.821250	231.115125	<DEL>	---	i-
sw3509B-ms98-a-0049	B.50	231.115125	231.258875	<DEL>	---	i-
sw3509B-ms98-a-0049	B.50	231.258875	231.409125		I'm	i'm
sw3509B-ms98-a-0049	B.50	231.409125	231.650125		[silence]	[silence]
sw3509B-ms98-a-0049	B.50	231.650125	231.808875		sure	sure
sw3509B-ms98-a-0049	B.50	231.808875	231.958875		you're	you're
sw3509B-ms98-a-0049	B.50	231.958875	232.248875		familiar	familiar
sw3509B-ms98-a-0049	B.50	232.248875	232.398875		with	with
sw3509B-ms98-a-0049	B.50	232.398875	232.478875		it	it
sw3509B-ms98-a-0049	B.50	232.478875	232.668875		but	but
sw3509B-ms98-a-0049	B.50	232.668875	232.798875		have	have
sw3509B-ms98-a-0049	B.50	232.798875	232.878875		you	you
sw3509B-ms98-a-0049	B.50	232.878875	233.038875		seen	seen
sw3509B-ms98-a-0049	B.50	233.038875	233.098875		the	the
sw3509B-ms98-a-0049	B.50	233.098875	233.416250		movie	movie
sw3509B-ms98-a-0049	B.52	233.416250	233.910000		[silence]	[silence]
sw3509B-ms98-a-0050	B.52	233.910000	234.164500		[silence]	[silence]
sw3509B-ms98-a-0050	B.52	234.164500	234.425625		Yeah	yeah
sw3509B-ms98-a-0050	B.52	234.425625	234.669625		[silence]	[silence]
sw3509B-ms98-a-0050	B.52	234.669625	234.800000	<SUB>	That	the
sw3509B-ms98-a-0050	B.52	234.800000	235.027750		way	way
sw3509B-ms98-a-0050	B.54	235.027750	235.530750		[silence]	[silence]
sw3509B-ms98-a-0051	B.54	235.530750	236.348875		[silence]	[silence]
sw3509B-ms98-a-0051	B.54	236.348875	236.550750		Yeah	yeah
sw3509B-ms98-a-0051	B.54	236.550750	236.640750		well	well
sw3509B-ms98-a-0051	B.54	236.640750	236.840750		they	they
sw3509B-ms98-a-0051	B.54	236.840750	237.040750		they	they
sw3509B-ms98-a-0051	B.54	237.040750	237.270750		show	show
sw3509B-ms98-a-0051	B.54	237.270750	237.449625		it	it
sw3509B-ms98-a-0051	B.54	237.449625	237.935500		[vocalized-noise]	[vocalized-noise]
sw3509B-ms98-a-0051	B.54	237.935500	238.150750		not	not
sw3509B-ms98-a-0051	B.54	238.150750	238.460750		not	not
sw3509B-ms98-a-0051	B.54	238.460750	238.530750		I	i
sw3509B-ms98-a-0051	B.54	238.530750	238.906875		mean	mean
sw3509B-ms98-a-0051	B.54	238.906875	239.204375		the	the
sw3509B-ms98-a-0051	B.54	239.204375	239.300750		the	the
sw3509B-ms98-a-0051	B.54	239.300750	239.510750		movie	movie
sw3509B-ms98-a-0051	B.54	239.510750	239.690750		was	was
sw3509B-ms98-a-0051	B.54	239.690750	239.900750		made	made
sw3509B-ms98-a-0051	B.54	239.900750	239.990750		in	in
sw3509B-ms98-a-0051	B.54	239.990750	240.120750		like	like
sw3509B-ms98-a-0051	B.54	240.120750	240.410750		nineteen	nineteen
sw3509B-ms98-a-0051	B.54	240.410750	241.230750	<CONT>	sixty-two	sixty
sw3509B-ms98-a-0051	B.54	241.230750	241.410750	<CONT>	+++	two
sw3509B-ms98-a-0051	B.54	241.410750	241.520750		or	or
sw3509B-ms98-a-0051	B.54	241.520750	241.800750		something	something
sw3509B-ms98-a-0051	B.54	241.800750	241.970750		like	like
sw3509B-ms98-a-0051	B.54	241.970750	242.165125		that	that
sw3509B-ms98-a-0051	B.56	242.165125	242.786500		[silence]	[silence]
sw3509B-ms98-a-0051	B.56	242.786500	242.990750		and	and
sw3509B-ms98-a-0051	B.56	242.990750	243.170750		so	so
sw3509B-ms98-a-0051	B.56	243.170750	243.530750		it's	it's
sw3509B-ms98-a-0051	B.56	243.530750	243.751750		uh	uh
sw3509B-ms98-a-0051	B.56	243.751750	244.304625		[silence]	[silence]
sw3509B-ms98-a-0051	B.56	244.304625	244.436500		it's	it's
sw3509B-ms98-a-0051	B.56	244.436500	244.620750		not	not
sw3509B-ms98-a-0051	B.56	244.620750	245.030750		particularly	particularly
sw3509B-ms98-a-0051	B.56	245.030750	245.490750		graphic	graphic
sw3509B-ms98-a-0051	B.56	245.490750	245.620750		but	but
sw3509B-ms98-a-0051	B.56	245.620750	245.760750		on	on
sw3509B-ms98-a-0051	B.56	245.760750	245.820750		the	the
sw3509B-ms98-a-0051	B.56	245.820750	245.950750		other	other
sw3509B-ms98-a-0051	B.56	245.950750	246.110750		hand	hand
sw3509B-ms98-a-0051	B.56	246.110750	246.410750		it's	it's
sw3509B-ms98-a-0051	B.56	246.410750	246.685250		[silence]	[silence]
sw3509B-ms98-a-0052	B.56	246.685250	247.185250		[silence]	[silence]
sw3509B-ms98-a-0052	B.56	247.185250	247.335250		it's	it's
sw3509B-ms98-a-0052	B.56	247.335250	247.635250		fairly	fairly
sw3509B-ms98-a-0052	B.56	247.635250	248.115250		impressive	impressive
sw3509B-ms98-a-0052	B.56	248.115250	248.245250		to	to
sw3509B-ms98-a-0052	B.56	248.245250	248.445250		watch	watch
sw3509B-ms98-a-0052	B.56	248.445250	248.669375		them	them_1
sw3509B-ms98-a-0052	B.56	248.669375	248.884125		[silence]	[silence]
sw3509B-ms98-a-0052	B.56	248.884125	248.985250		you	you
sw3509B-ms98-a-0052	B.56	248.985250	249.179625		know	know
sw3509B-ms98-a-0052	B.56	249.179625	249.485250		walk	walk
sw3509B-ms98-a-0052	B.56	249.485250	249.665250		into	into
sw3509B-ms98-a-0052	B.56	249.665250	249.805250		the	the
sw3509B-ms98-a-0052	B.56	249.805250	249.965250		room	room
sw3509B-ms98-a-0052	B.56	249.965250	250.125250		with	with
sw3509B-ms98-a-0052	B.56	250.125250	250.625250		gallows	gallows
sw3509B-ms98-a-0052	B.56	250.625250	250.921125		It's	it's
sw3509B-ms98-a-0052	B.56	250.921125	251.448500		[silence]	[silence]
sw3509B-ms98-a-0052	B.56	251.448500	251.555250	<DEL>	---	a
sw3509B-ms98-a-0052	B.56	251.555250	251.675250		kind	kind
sw3509B-ms98-a-0052	B.56	251.675250	251.745250		of	of
sw3509B-ms98-a-0052	B.56	251.745250	251.835250		a	a
sw3509B-ms98-a-0052	B.56	251.835250	252.105250		barn	barn
sw3509B-ms98-a-0052	B.56	252.105250	252.275250		like	like
sw3509B-ms98-a-0052	B.56	252.275250	252.839250		structure	structure
sw3509B-ms98-a-0052	B.58	252.839250	253.545625		[silence]	[silence]
sw3509B-ms98-a-0053	B.58	253.545625	260.955875		[silence]	[silence]
sw3509B-ms98-a-0054	B.58	260.955875	261.405875		[silence]	[silence]
sw3509B-ms98-a-0054	B.58	261.405875	261.575875		Is	is
sw3509B-ms98-a-0054	B.58	261.575875	261.705875		that	that
sw3509B-ms98-a-0054	B.58	261.705875	262.037250		right	right
sw3509B-ms98-a-0054	B.58	262.037250	262.338625		[silence]	[silence]
sw3509B-ms98-a-0054	B.58	262.338625	262.435875		Are	are
sw3509B-ms98-a-0054	B.58	262.435875	262.575875		you	you
sw3509B-ms98-a-0054	B.58	262.575875	262.725875		there	there
sw3509B-ms98-a-0054	B.58	262.725875	262.805875		in	in
sw3509B-ms98-a-0054	B.58	262.805875	263.130500		school	school
sw3509B-ms98-a-0054	B.60	263.130500	263.764000		[silence]	[silence]
sw3509B-ms98-a-0054	B.60	263.764000	264.186500		Yeah	yeah
sw3509B-ms98-a-0054	B.62	264.186500	264.503125		Uh-huh	uh-huh
sw3509B-ms98-a-0054	B.62	264.503125	265.362375		[silence]	[silence]
sw3509B-ms98-a-0054	B.62	265.362375	265.793250	<DEL>	---	yeah
sw3509B-ms98-a-0054	B.62	265.793250	266.067375		[silence]	[silence]
sw3509B-ms98-a-0055	B.62	266.067375	276.045375		[silence]	[silence]
sw3509B-ms98-a-0056	B.62	276.045375	276.694750		[silence]	[silence]
sw3509B-ms98-a-0056	B.62	276.694750	277.046375	<DEL>	---	uh-huh
sw3509B-ms98-a-0056	B.62	277.046375	277.332000		[silence]	[silence]
sw3509B-ms98-a-0057	B.62	277.332000	278.392250		[silence]	[silence]
sw3509B-ms98-a-0058	B.62	278.392250	278.727125		[silence]	[silence]
sw3509B-ms98-a-0058	B.62	278.727125	278.970500	<SUB>	has	ha[s]-
sw3509B-ms98-a-0058	B.62	278.970500	279.192250		has	has
sw3509B-ms98-a-0058	B.62	279.192250	279.322250		a	a
sw3509B-ms98-a-0058	B.62	279.322250	279.722250		yeah	yeah
sw3509B-ms98-a-0058	B.64	279.722250	279.877125	<DEL>	---	h[as]-
sw3509B-ms98-a-0058	B.64	279.877125	280.186000		[silence]	[silence]
sw3509B-ms98-a-0058	B.64	280.186000	280.372250		Has	has
sw3509B-ms98-a-0058	B.64	280.372250	280.462250		a	a
sw3509B-ms98-a-0058	B.64	280.462250	280.622250		real	real
sw3509B-ms98-a-0058	B.64	280.622250	280.922250	<SUB>	bullets	bullet
sw3509B-ms98-a-0058	B.64	280.922250	281.012250		and	and
sw3509B-ms98-a-0058	B.64	281.012250	281.072250		the	the
sw3509B-ms98-a-0058	B.64	281.072250	281.202250		rest	rest
sw3509B-ms98-a-0058	B.64	281.202250	281.262250		of	of
sw3509B-ms98-a-0058	B.64	281.262250	281.322250		them	them_1
sw3509B-ms98-a-0058	B.64	281.322250	281.412250		have	have
sw3509B-ms98-a-0058	B.64	281.412250	281.842500		blanks	blanks
sw3509B-ms98-a-0058	B.66	281.842500	281.918500		[silence]	[silence]
sw3509B-ms98-a-0059	B.66	281.918500	282.513500		[silence]	[silence]
sw3509B-ms98-a-0059	B.66	282.513500	282.859750		[noise]	[noise]
sw3509B-ms98-a-0059	B.66	282.859750	283.118125		Yeah	yeah
sw3509B-ms98-a-0059	B.66	283.118125	283.177375		[silence]	[silence]
sw3509B-ms98-a-0060	B.66	283.177375	283.809000		[silence]	[silence]
sw3509B-ms98-a-0060	B.66	283.809000	283.907375	<DEL>	---	yeah
sw3509B-ms98-a-0060	B.66	283.907375	283.987375	<SUB>	I	i-
sw3509B-ms98-a-0060	B.66	283.987375	284.097375		I	i
sw3509B-ms98-a-0060	B.66	284.097375	284.407375		certainly	certainly
sw3509B-ms98-a-0060	B.66	284.407375	284.617375		wouldn't	wouldn't
sw3509B-ms98-a-0060	B.66	284.617375	284.737375		want	want
sw3509B-ms98-a-0060	B.66	284.737375	284.797375		to	to
sw3509B-ms98-a-0060	B.66	284.797375	284.867375		be	be
sw3509B-ms98-a-0060	B.66	284.867375	284.977375		the	the
sw3509B-ms98-a-0060	B.66	284.977375	285.547375		executioner	executioner
sw3509B-ms98-a-0060	B.66	285.547375	285.677375		I	i
sw3509B-ms98-a-0060	B.66	285.677375	285.757375		know	know
sw3509B-ms98-a-0060	B.66	285.757375	286.046375		that	that
sw3509B-ms98-a-0060	B.68	286.046375	287.168875		[laughter]	[laughter]
sw3509B-ms98-a-0060	B.68	287.168875	287.237375		I've	i've
sw3509B-ms98-a-0060	B.68	287.237375	287.417375		always	always
sw3509B-ms98-a-0060	B.68	287.417375	287.597375		said	said
sw3509B-ms98-a-0060	B.68	287.597375	287.687375		that	that
sw3509B-ms98-a-0060	B.68	287.687375	287.767375		if	if
sw3509B-ms98-a-0060	B.68	287.767375	287.892625		I	i
sw3509B-ms98-a-0060	B.68	287.892625	288.243750		[silence]	[silence]
sw3509B-ms98-a-0060	B.68	288.243750	288.334125		if	if
sw3509B-ms98-a-0060	B.68	288.334125	288.387375		I	i
sw3509B-ms98-a-0060	B.68	288.387375	288.497375		had	had
sw3509B-ms98-a-0060	B.68	288.497375	288.577375		to	to
sw3509B-ms98-a-0060	B.68	288.577375	288.867375		kill	kill
sw3509B-ms98-a-0060	B.68	288.867375	288.957375		and	and
sw3509B-ms98-a-0060	B.68	288.957375	289.207375		clean	clean
sw3509B-ms98-a-0060	B.68	289.207375	289.333625		and	and
sw3509B-ms98-a-0060	B.68	289.333625	289.333625	<INS>	do	---
sw3509B-ms98-a-0060	B.68	289.333625	289.563375		[vocalized-noise]	[vocalized-noise]
sw3509B-ms98-a-0060	B.68	289.563375	289.667375		my	my
sw3509B-ms98-a-0060	B.68	289.667375	289.870375		own	own
sw3509B-ms98-a-0060	B.68	289.870375	290.002250		[silence]	[silence]
sw3509B-ms98-a-0060	B.68	290.002250	290.147375		my	my
sw3509B-ms98-a-0060	B.68	290.147375	290.307375		own	own
sw3509B-ms98-a-0060	B.68	290.307375	290.547375		meat	meat
sw3509B-ms98-a-0060	B.68	290.547375	290.597375		I	i
sw3509B-ms98-a-0060	B.68	290.597375	290.787375		think	think
sw3509B-ms98-a-0060	B.68	290.787375	290.907375		I'd	i'd
sw3509B-ms98-a-0060	B.68	290.907375	291.167375		become	become
sw3509B-ms98-a-0060	B.68	291.167375	291.207375		a	a
sw3509B-ms98-a-0060	B.68	291.207375	291.768125		vegetarian	vegetarian
sw3509B-ms98-a-0060	B.70	291.768125	292.185875		[silence]	[silence]
sw3509B-ms98-a-0061	B.70	292.185875	292.703000		[silence]	[silence]
sw3509B-ms98-a-0061	B.70	292.703000	293.301125		[vocalized-noise]	[vocalized-noise]
sw3509B-ms98-a-0061	B.70	293.301125	293.694750		[silence]	[silence]
sw3509B-ms98-a-0062	B.70	293.694750	294.064750		[silence]	[silence]
sw3509B-ms98-a-0062	B.70	294.064750	294.244750	<DEL>	---	a[s]-
sw3509B-ms98-a-0062	B.70	294.244750	294.394750		As	as
sw3509B-ms98-a-0062	B.70	294.394750	294.534750		long	long
sw3509B-ms98-a-0062	B.70	294.534750	294.594750		as	as
sw3509B-ms98-a-0062	B.70	294.594750	294.684750		you're	you're
sw3509B-ms98-a-0062	B.70	294.684750	294.894750		sort	sort
sw3509B-ms98-a-0062	B.70	294.894750	294.954750		of	of
sw3509B-ms98-a-0062	B.70	294.954750	295.414750		safely	safely
sw3509B-ms98-a-0062	B.70	295.414750	295.834750		removed	removed
sw3509B-ms98-a-0062	B.70	295.834750	296.074750		from	from
sw3509B-ms98-a-0062	B.70	296.074750	296.154750		it	it
sw3509B-ms98-a-0062	B.70	296.154750	296.264750		it	it
sw3509B-ms98-a-0062	B.70	296.264750	296.674125		seems	seems
sw3509B-ms98-a-0062	B.70	296.674125	296.817250		[silence]	[silence]
sw3509B-ms98-a-0062	B.70	296.817250	297.044750		seems	seems
sw3509B-ms98-a-0062	B.70	297.044750	297.204750		not	not
sw3509B-ms98-a-0062	B.70	297.204750	297.445125		so	so
sw3509B-ms98-a-0062	B.70	297.445125	297.637125		[silence]	[silence]
sw3509B-ms98-a-0062	B.70	297.637125	297.884750	<DEL>	---	not
sw3509B-ms98-a-0062	B.70	297.884750	298.034750		so	so
sw3509B-ms98-a-0062	B.70	298.034750	298.384750		bad	bad
sw3509B-ms98-a-0062	B.70	298.384750	298.454750		I	i
sw3509B-ms98-a-0062	B.70	298.454750	298.734750		guess	guess
sw3509B-ms98-a-0062	B.70	298.734750	298.912250	<DEL>	---	but
sw3509B-ms98-a-0062	B.70	298.912250	299.522000		[silence]	[silence]
