sw3606A-ms98-a-0001	A.1	0.000000	0.001875		[silence]	[silence]
sw3606A-ms98-a-0001	A.1	0.001875	0.011625		[noise]	[noise]
sw3606A-ms98-a-0001	A.1	0.011625	0.111375	<DEL>	---	-[ok]ay
sw3606A-ms98-a-0001	A.1	0.111375	0.250000		What	what
sw3606A-ms98-a-0001	A.1	0.250000	0.310000		are	are
sw3606A-ms98-a-0001	A.1	0.310000	0.460000		your	your
sw3606A-ms98-a-0001	A.1	0.460000	0.810000		favorite	favorite
sw3606A-ms98-a-0001	A.1	0.810000	1.578000		shows	shows
sw3606A-ms98-a-0001	A.3	1.578000	1.978250		[silence]	[silence]
sw3606A-ms98-a-0002	A.3	1.978250	5.219375		[silence]	[silence]
sw3606A-ms98-a-0003	A.3	5.219375	5.781250		[silence]	[silence]
sw3606A-ms98-a-0003	A.3	5.781250	6.064500		Uh-huh	uh-huh
sw3606A-ms98-a-0003	A.5	6.064500	6.675750		[silence]	[silence]
sw3606A-ms98-a-0004	A.5	6.675750	11.574125		[silence]	[silence]
sw3606A-ms98-a-0005	A.5	11.574125	12.077875		[silence]	[silence]
sw3606A-ms98-a-0005	A.5	12.077875	12.264125		I've	i've
sw3606A-ms98-a-0005	A.5	12.264125	12.444125		never	never
sw3606A-ms98-a-0005	A.5	12.444125	12.704125		seen	seen
sw3606A-ms98-a-0005	A.5	12.704125	12.968250		that	that
sw3606A-ms98-a-0005	A.7	12.968250	12.968250	<INS>	Huh-uh	---
sw3606A-ms98-a-0005	A.11	12.968250	13.984875		[silence]	[silence]
sw3606A-ms98-a-0006	A.11	13.984875	22.040625		[silence]	[silence]
sw3606A-ms98-a-0007	A.11	22.040625	22.534250		[silence]	[silence]
sw3606A-ms98-a-0007	A.11	22.534250	22.977125		[laughter]	[laughter]
sw3606A-ms98-a-0007	A.11	22.977125	23.538375		[silence]	[silence]
sw3606A-ms98-a-0008	A.11	23.538375	24.103375		[silence]	[silence]
sw3606A-ms98-a-0008	A.11	24.103375	24.535000		Um	um
sw3606A-ms98-a-0008	A.11	24.535000	25.123875		[silence]	[silence]
sw3606A-ms98-a-0009	A.11	25.123875	25.866750		[silence]	[silence]
sw3606A-ms98-a-0009	A.11	25.866750	25.983875		I	i
sw3606A-ms98-a-0009	A.11	25.983875	26.243875		like	like
sw3606A-ms98-a-0009	A.11	26.243875	26.543875	<CONT>	L	LA
sw3606A-ms98-a-0009	A.11	26.543875	26.543875	<CONT>	A	+++
sw3606A-ms98-a-0009	A.11	26.543875	27.016000		LAW	Law
sw3606A-ms98-a-0009	A.13	27.016000	27.313000		[silence]	[silence]
sw3606A-ms98-a-0010	A.13	27.313000	27.370875		[silence]	[silence]
sw3606A-ms98-a-0010	A.13	27.370875	27.902500		[noise]	[noise]
sw3606A-ms98-a-0010	A.13	27.902500	27.980375		[silence]	[silence]
sw3606A-ms98-a-0011	A.13	27.980375	28.155250		[silence]	[silence]
sw3606A-ms98-a-0011	A.13	28.155250	28.290375		not	not
sw3606A-ms98-a-0011	A.13	28.290375	28.430375		because	because_1
sw3606A-ms98-a-0011	A.13	28.430375	28.590375		it's	it's
sw3606A-ms98-a-0011	A.13	28.590375	29.200375		realistic	realistic
sw3606A-ms98-a-0011	A.13	29.200375	29.411125		but	but
sw3606A-ms98-a-0011	A.13	29.411125	30.149375		[laughter]	[laughter]
sw3606A-ms98-a-0011	A.13	30.149375	30.270375		it's	it's
sw3606A-ms98-a-0011	A.13	30.270375	31.112625		entertaining	entertaining
sw3606A-ms98-a-0011	A.15	31.112625	31.570500		[silence]	[silence]
sw3606A-ms98-a-0012	A.15	31.570500	32.277250		[silence]	[silence]
sw3606A-ms98-a-0012	A.15	32.277250	32.787875		Um	um
sw3606A-ms98-a-0012	A.17	32.787875	33.136000		[silence]	[silence]
sw3606A-ms98-a-0013	A.17	33.136000	34.507625		[silence]	[silence]
sw3606A-ms98-a-0014	A.17	34.507625	34.683750		[silence]	[silence]
sw3606A-ms98-a-0014	A.17	34.683750	35.003000		Let's	let's
sw3606A-ms98-a-0014	A.17	35.003000	35.413625		see	see
sw3606A-ms98-a-0014	A.17	35.413625	35.645500		[silence]	[silence]
sw3606A-ms98-a-0014	A.17	35.645500	35.697625		I	i
sw3606A-ms98-a-0014	A.17	35.697625	35.957625		watch	watch
sw3606A-ms98-a-0014	A.17	35.957625	36.367625		CHEERS	Cheers
sw3606A-ms98-a-0014	A.17	36.367625	37.395500		sometimes	sometimes
sw3606A-ms98-a-0014	A.19	37.395500	37.585875		[silence]	[silence]
sw3606A-ms98-a-0015	A.19	37.585875	38.310875		[silence]	[silence]
sw3606A-ms98-a-0015	A.19	38.310875	38.809875		And	and
sw3606A-ms98-a-0015	A.19	38.809875	38.986875		[silence]	[silence]
sw3606A-ms98-a-0015	A.19	38.986875	39.375875		mostly	mostly
sw3606A-ms98-a-0015	A.19	39.375875	39.665875		just	just
sw3606A-ms98-a-0015	A.19	39.665875	40.625875		movies	movies
sw3606A-ms98-a-0015	A.19	40.625875	41.179125		[silence]	[silence]
sw3606A-ms98-a-0015	A.19	41.179125	41.335875		when	when
sw3606A-ms98-a-0015	A.19	41.335875	41.555875		there's	there's
sw3606A-ms98-a-0015	A.19	41.555875	41.635875		a	a
sw3606A-ms98-a-0015	A.19	41.635875	41.825875		good	good
sw3606A-ms98-a-0015	A.19	41.825875	42.165875		movie	movie
sw3606A-ms98-a-0015	A.19	42.165875	42.559250		on	on
sw3606A-ms98-a-0015	A.21	42.559250	42.895875		Actually	actually
sw3606A-ms98-a-0015	A.21	42.895875	42.995875		when	when
sw3606A-ms98-a-0015	A.21	42.995875	43.105875		there	there
sw3606A-ms98-a-0015	A.21	43.105875	43.315875		isn't	isn't
sw3606A-ms98-a-0015	A.21	43.315875	43.375875		a	a
sw3606A-ms98-a-0015	A.21	43.375875	43.495875		good	good
sw3606A-ms98-a-0015	A.21	43.495875	43.795875		movie	movie
sw3606A-ms98-a-0015	A.21	43.795875	43.915875		on	on
sw3606A-ms98-a-0015	A.21	43.915875	44.451625		too	too
sw3606A-ms98-a-0015	A.23	44.451625	45.018250		[silence]	[silence]
sw3606A-ms98-a-0015	A.23	45.018250	45.088250		I	i
sw3606A-ms98-a-0015	A.23	45.088250	45.223875		just	just
sw3606A-ms98-a-0015	A.23	45.223875	45.355875		like	like
sw3606A-ms98-a-0015	A.23	45.355875	45.455875		to	to
sw3606A-ms98-a-0015	A.23	45.455875	45.705875		have	have
sw3606A-ms98-a-0015	A.23	45.705875	45.785875		the	the
sw3606A-ms98-a-0015	A.23	45.785875	46.165875	<CONT>	T	TV
sw3606A-ms98-a-0015	A.23	46.165875	46.165875	<CONT>	V	+++
sw3606A-ms98-a-0015	A.23	46.165875	46.385875		on	on
sw3606A-ms98-a-0015	A.23	46.385875	46.746000		if	if
sw3606A-ms98-a-0015	A.23	46.746000	46.877875		you	you
sw3606A-ms98-a-0015	A.23	46.877875	46.985875		know	know
sw3606A-ms98-a-0015	A.23	46.985875	47.105875		if	if
sw3606A-ms98-a-0015	A.23	47.105875	47.195875		I'm	i'm
sw3606A-ms98-a-0015	A.23	47.195875	47.385875		home	home
sw3606A-ms98-a-0015	A.23	47.385875	47.655875		alone	alone
sw3606A-ms98-a-0015	A.23	47.655875	47.717250		or	or
sw3606A-ms98-a-0015	A.23	47.717250	48.230000		something	something
sw3606A-ms98-a-0015	A.25	48.230000	48.436375		[silence]	[silence]
sw3606A-ms98-a-0016	A.25	48.436375	48.906625		[silence]	[silence]
sw3606A-ms98-a-0016	A.25	48.906625	49.056750		have	have
sw3606A-ms98-a-0016	A.25	49.056750	49.380625		[silence]	[silence]
sw3606A-ms98-a-0016	A.25	49.380625	49.686375		either	either
sw3606A-ms98-a-0016	A.25	49.686375	49.826375		the	the
sw3606A-ms98-a-0016	A.25	49.826375	50.126375		radio	radio
sw3606A-ms98-a-0016	A.25	50.126375	50.246375		or	or
sw3606A-ms98-a-0016	A.25	50.246375	50.316375		the	the
sw3606A-ms98-a-0016	A.25	50.316375	50.666375	<CONT>	T	TVs
sw3606A-ms98-a-0016	A.25	50.666375	50.666375	<CONT>	V	+++
sw3606A-ms98-a-0016	A.25	50.666375	50.666375	<CONT>	-s	+++
sw3606A-ms98-a-0016	A.25	50.666375	50.896375		got	got
sw3606A-ms98-a-0016	A.25	50.896375	50.996375		to	to
sw3606A-ms98-a-0016	A.25	50.996375	51.146375		be	be
sw3606A-ms98-a-0016	A.25	51.146375	51.426375		on	on
sw3606A-ms98-a-0016	A.27	51.426375	52.616375		[laughter]	[laughter]
sw3606A-ms98-a-0016	A.27	52.616375	52.796375	<SUB>	the	at
sw3606A-ms98-a-0016	A.27	52.796375	52.866375	<SUB>	whole	all
sw3606A-ms98-a-0016	A.27	52.866375	53.610000	<SUB>	time	times
sw3606A-ms98-a-0016	A.29	53.610000	54.860750		[silence]	[silence]
sw3606A-ms98-a-0017	A.29	54.860750	58.094500		[silence]	[silence]
sw3606A-ms98-a-0018	A.29	58.094500	58.538375		[silence]	[silence]
sw3606A-ms98-a-0018	A.29	58.538375	58.704500		Oh	oh
sw3606A-ms98-a-0018	A.29	58.704500	59.027000		really	really
sw3606A-ms98-a-0018	A.31	59.027000	59.527375		[silence]	[silence]
sw3606A-ms98-a-0019	A.31	59.527375	61.179250		[silence]	[silence]
sw3606A-ms98-a-0020	A.31	61.179250	61.610750		[silence]	[silence]
sw3606A-ms98-a-0020	A.31	61.610750	61.874500		Uh-huh	uh-huh
sw3606A-ms98-a-0020	A.33	61.874500	62.240125		[silence]	[silence]
sw3606A-ms98-a-0021	A.33	62.240125	65.705250		[silence]	[silence]
sw3606A-ms98-a-0022	A.33	65.705250	66.302875		[silence]	[silence]
sw3606A-ms98-a-0022	A.33	66.302875	66.706250		Uh-huh	uh-huh
sw3606A-ms98-a-0022	A.35	66.706250	67.198000		[silence]	[silence]
sw3606A-ms98-a-0023	A.35	67.198000	68.392125		[silence]	[silence]
sw3606A-ms98-a-0024	A.35	68.392125	68.860500		[silence]	[silence]
sw3606A-ms98-a-0024	A.35	68.860500	69.283750	<SUB>	Uh-huh	um-hum
sw3606A-ms98-a-0024	A.37	69.283750	69.743500		[silence]	[silence]
sw3606A-ms98-a-0025	A.37	69.743500	70.604625		[silence]	[silence]
sw3606A-ms98-a-0025	A.37	70.604625	70.753875		I	i
sw3606A-ms98-a-0025	A.37	70.753875	70.904500		[silence]	[silence]
sw3606A-ms98-a-0025	A.37	70.904500	71.093500		well	well
sw3606A-ms98-a-0025	A.37	71.093500	71.163500		I	i
sw3606A-ms98-a-0025	A.37	71.163500	71.433500		don't	don't
sw3606A-ms98-a-0025	A.37	71.433500	71.543500		because	because_1
sw3606A-ms98-a-0025	A.37	71.543500	71.643500		I	i
sw3606A-ms98-a-0025	A.37	71.643500	71.933500		work	work
sw3606A-ms98-a-0025	A.37	71.933500	72.073500		all	all
sw3606A-ms98-a-0025	A.37	72.073500	72.417250		day	day
sw3606A-ms98-a-0025	A.39	72.417250	72.842750		[silence]	[silence]
sw3606A-ms98-a-0025	A.39	72.842750	73.033500		But	but
sw3606A-ms98-a-0025	A.39	73.033500	73.267000		um	um
sw3606A-ms98-a-0025	A.39	73.267000	73.624875		[silence]	[silence]
sw3606A-ms98-a-0025	A.39	73.624875	73.758250		I	i
sw3606A-ms98-a-0025	A.39	73.758250	74.060500		pro-	pro[bably]-
sw3606A-ms98-a-0025	A.39	74.060500	74.153500		I	i
sw3606A-ms98-a-0025	A.39	74.153500	74.593500		usually	usually
sw3606A-ms98-a-0025	A.39	74.593500	74.953500		do	do
sw3606A-ms98-a-0025	A.39	74.953500	75.083500		if	if
sw3606A-ms98-a-0025	A.39	75.083500	75.213500		I'm	i'm
sw3606A-ms98-a-0025	A.39	75.213500	75.473500		home	home
sw3606A-ms98-a-0025	A.39	75.473500	75.583500		for	for
sw3606A-ms98-a-0025	A.39	75.583500	75.623500		a	a
sw3606A-ms98-a-0025	A.39	75.623500	75.853500		couple	couple
sw3606A-ms98-a-0025	A.39	75.853500	75.913500		of	of
sw3606A-ms98-a-0025	A.39	75.913500	76.559375		days	days
sw3606A-ms98-a-0025	A.39	76.559375	77.079125		[silence]	[silence]
sw3606A-ms98-a-0025	A.39	77.079125	77.343500		like	like
sw3606A-ms98-a-0025	A.39	77.343500	77.443500		you	you
sw3606A-ms98-a-0025	A.39	77.443500	77.641625		know	know
sw3606A-ms98-a-0025	A.39	77.641625	77.953500		around	around
sw3606A-ms98-a-0025	A.39	77.953500	78.383500		Christmas	Christmas
sw3606A-ms98-a-0025	A.39	78.383500	78.513500		or	or
sw3606A-ms98-a-0025	A.39	78.513500	79.104500		whatever	whatever
sw3606A-ms98-a-0025	A.39	79.104500	79.571500		[silence]	[silence]
sw3606A-ms98-a-0025	A.39	79.571500	79.873500		after	after
sw3606A-ms98-a-0025	A.39	79.873500	79.953500		a	a
sw3606A-ms98-a-0025	A.39	79.953500	80.243500		while	while
sw3606A-ms98-a-0025	A.39	80.243500	80.563500		I'll	i'll
sw3606A-ms98-a-0025	A.39	80.563500	81.013500		start	start
sw3606A-ms98-a-0025	A.39	81.013500	81.473500		watching	watching
sw3606A-ms98-a-0025	A.39	81.473500	81.733500		it	it
sw3606A-ms98-a-0025	A.41	81.733500	81.931875		[silence]	[silence]
sw3606A-ms98-a-0026	A.41	81.931875	82.382250		[silence]	[silence]
sw3606A-ms98-a-0026	A.41	82.382250	82.511875		and	and
sw3606A-ms98-a-0026	A.41	82.511875	82.621875		then	then
sw3606A-ms98-a-0026	A.41	82.621875	82.771875	<SUB>	on	um
sw3606A-ms98-a-0026	A.41	82.771875	82.901875		for	for
sw3606A-ms98-a-0026	A.41	82.901875	83.001875		a	a
sw3606A-ms98-a-0026	A.41	83.001875	83.381875		while	while
sw3606A-ms98-a-0026	A.41	83.381875	83.471875		I'll	i'll
sw3606A-ms98-a-0026	A.41	83.471875	83.741875		ask	ask
sw3606A-ms98-a-0026	A.41	83.741875	84.061875		people	people
sw3606A-ms98-a-0026	A.41	84.061875	84.181875		if	if
sw3606A-ms98-a-0026	A.41	84.181875	84.271875		they	they
sw3606A-ms98-a-0026	A.41	84.271875	84.481875		know	[laughter-know]
sw3606A-ms98-a-0026	A.41	84.481875	84.661875		what	[laughter-what]
sw3606A-ms98-a-0026	A.41	84.661875	85.111875		happened	[laughter-happened]
sw3606A-ms98-a-0026	A.43	85.111875	85.231875		and	and
sw3606A-ms98-a-0026	A.43	85.231875	85.331875		then	then
sw3606A-ms98-a-0026	A.43	85.331875	85.431875		I'll	i'll
sw3606A-ms98-a-0026	A.43	85.431875	85.611875		just	just
sw3606A-ms98-a-0026	A.43	85.611875	85.941875		forget	forget
sw3606A-ms98-a-0026	A.43	85.941875	86.103875		it	it
sw3606A-ms98-a-0026	A.45	86.103875	86.534500		[laughter]	[laughter]
sw3606A-ms98-a-0026	A.45	86.534500	86.782250		[silence]	[silence]
sw3606A-ms98-a-0027	A.45	86.782250	87.635625		[silence]	[silence]
sw3606A-ms98-a-0027	A.45	87.635625	87.882250	<SUB>	Uh	oh
sw3606A-ms98-a-0027	A.45	87.882250	88.052250		I	i
sw3606A-ms98-a-0027	A.45	88.052250	88.212250		don't	don't
sw3606A-ms98-a-0027	A.45	88.212250	88.332250		even	even
sw3606A-ms98-a-0027	A.45	88.332250	88.542250		remember	remember
sw3606A-ms98-a-0027	A.45	88.542250	88.602250		the	the
sw3606A-ms98-a-0027	A.45	88.602250	88.792250		last	last
sw3606A-ms98-a-0027	A.45	88.792250	88.902250		time	time
sw3606A-ms98-a-0027	A.45	88.902250	88.992250		I	i
sw3606A-ms98-a-0027	A.45	88.992250	89.342250		watched	watched
sw3606A-ms98-a-0027	A.45	89.342250	89.488125		was	was
sw3606A-ms98-a-0027	A.45	89.488125	89.762250		back	back
sw3606A-ms98-a-0027	A.45	89.762250	89.852250		in	in
sw3606A-ms98-a-0027	A.45	89.852250	90.482250		college	college
sw3606A-ms98-a-0027	A.45	90.482250	90.542250		It	it
sw3606A-ms98-a-0027	A.45	90.542250	90.642250		was	was
sw3606A-ms98-a-0027	A.45	90.642250	90.852250		like	like
sw3606A-ms98-a-0027	A.45	90.852250	91.192250		GENERAL	General
sw3606A-ms98-a-0027	A.45	91.192250	91.742250		HOSPITAL	Hospital
sw3606A-ms98-a-0027	A.45	91.742250	91.872250		or	or
sw3606A-ms98-a-0027	A.45	91.872250	92.485375		something	something
sw3606A-ms98-a-0027	A.47	92.485375	92.871000		[silence]	[silence]
sw3606A-ms98-a-0028	A.47	92.871000	93.428250		[silence]	[silence]
sw3606A-ms98-a-0028	A.47	93.428250	94.067875		and	and
sw3606A-ms98-a-0028	A.47	94.067875	94.365000		I	i
sw3606A-ms98-a-0028	A.47	94.365000	94.602250		[silence]	[silence]
sw3606A-ms98-a-0028	A.47	94.602250	94.941000		maybe	maybe
sw3606A-ms98-a-0028	A.47	94.941000	95.261000		watched	watched
sw3606A-ms98-a-0028	A.47	95.261000	95.351000		it	it
sw3606A-ms98-a-0028	A.47	95.351000	95.481000		for	for
sw3606A-ms98-a-0028	A.47	95.481000	95.561000		a	a
sw3606A-ms98-a-0028	A.47	95.561000	96.179375		week	week
sw3606A-ms98-a-0028	A.49	96.179375	96.490875		[silence]	[silence]
sw3606A-ms98-a-0029	A.49	96.490875	96.879125		[silence]	[silence]
sw3606A-ms98-a-0029	A.49	96.879125	97.100875		but	but
sw3606A-ms98-a-0029	A.49	97.100875	97.314625		um	um
sw3606A-ms98-a-0029	A.49	97.314625	97.380875		I	i
sw3606A-ms98-a-0029	A.49	97.380875	97.520875		know	know
sw3606A-ms98-a-0029	A.49	97.520875	97.640875		that	that
sw3606A-ms98-a-0029	A.49	97.640875	97.860875		people	people
sw3606A-ms98-a-0029	A.49	97.860875	98.030875		used	used
sw3606A-ms98-a-0029	A.49	98.030875	98.100875		to	to
sw3606A-ms98-a-0029	A.49	98.100875	98.360875		arrange	arrange
sw3606A-ms98-a-0029	A.49	98.360875	98.480875		their	their
sw3606A-ms98-a-0029	A.49	98.480875	98.620875		whole	whole
sw3606A-ms98-a-0029	A.49	98.620875	99.100875		schedules	schedules
sw3606A-ms98-a-0029	A.49	99.100875	99.504750		around	around
sw3606A-ms98-a-0029	A.49	99.504750	99.689375		[silence]	[silence]
sw3606A-ms98-a-0029	A.49	99.689375	100.330000	<SUB>	the	those
sw3606A-ms98-a-0029	A.49	100.330000	100.537125		[silence]	[silence]
sw3606A-ms98-a-0029	A.49	100.537125	100.640875		you	you
sw3606A-ms98-a-0029	A.49	100.640875	100.915375		know	know
sw3606A-ms98-a-0029	A.49	100.915375	101.040875		they	they
sw3606A-ms98-a-0029	A.49	101.040875	101.310875		wouldn't	wouldn't
sw3606A-ms98-a-0029	A.49	101.310875	101.460875		take	take
sw3606A-ms98-a-0029	A.49	101.460875	101.530875		a	a
sw3606A-ms98-a-0029	A.49	101.530875	101.840875		class	class
sw3606A-ms98-a-0029	A.49	101.840875	101.930875		that	that
sw3606A-ms98-a-0029	A.49	101.930875	102.050875		was	was
sw3606A-ms98-a-0029	A.49	102.050875	102.180875		in	in
sw3606A-ms98-a-0029	A.49	102.180875	102.240875		the	the
sw3606A-ms98-a-0029	A.49	102.240875	102.470875		middle	middle
sw3606A-ms98-a-0029	A.49	102.470875	102.580875		of	of
sw3606A-ms98-a-0029	A.49	102.580875	102.730875		their	their
sw3606A-ms98-a-0029	A.49	102.730875	103.050875		soap	soap
sw3606A-ms98-a-0029	A.49	103.050875	103.359625		opera	opera
sw3606A-ms98-a-0029	A.51	103.359625	103.759125		[laughter]	[laughter]
sw3606A-ms98-a-0029	A.51	103.759125	103.986500		[silence]	[silence]
sw3606A-ms98-a-0030	A.51	103.986500	104.660250		[silence]	[silence]
sw3606A-ms98-a-0030	A.51	104.660250	104.706500		It	it
sw3606A-ms98-a-0030	A.51	104.706500	104.896500		was	was
sw3606A-ms98-a-0030	A.51	104.896500	105.001750	<SUB>	a	i
sw3606A-ms98-a-0030	A.55	105.001750	105.170375	<DEL>	---	mean
sw3606A-ms98-a-0030	A.55	105.170375	106.261875		[silence]	[silence]
sw3606A-ms98-a-0030	A.55	106.261875	106.967000		[laughter]	[laughter]
sw3606A-ms98-a-0030	A.55	106.967000	107.460750		[silence]	[silence]
sw3606A-ms98-a-0031	A.55	107.460750	109.193500		[silence]	[silence]
sw3606A-ms98-a-0032	A.55	109.193500	109.703625		[silence]	[silence]
sw3606A-ms98-a-0032	A.55	109.703625	109.984750	<SUB>	Uh-huh	um-hum
sw3606A-ms98-a-0032	A.57	109.984750	110.453375		[silence]	[silence]
sw3606A-ms98-a-0033	A.57	110.453375	110.928875		[silence]	[silence]
sw3606A-ms98-a-0033	A.57	110.928875	111.244250	<SUB>	Uh-huh	um-hum
sw3606A-ms98-a-0033	A.59	111.244250	111.772625		[silence]	[silence]
sw3606A-ms98-a-0034	A.59	111.772625	118.034250		[silence]	[silence]
sw3606A-ms98-a-0035	A.59	118.034250	118.497000		[silence]	[silence]
sw3606A-ms98-a-0035	A.59	118.497000	118.614250		Well	well
sw3606A-ms98-a-0035	A.59	118.614250	118.694250		you	you
sw3606A-ms98-a-0035	A.59	118.694250	118.864250		said	said
sw3606A-ms98-a-0035	A.59	118.864250	118.944250		you	you
sw3606A-ms98-a-0035	A.59	118.944250	119.234250		have	have
sw3606A-ms98-a-0035	A.59	119.234250	119.664250		kids	kids
sw3606A-ms98-a-0035	A.59	119.664250	119.854250		How	how
sw3606A-ms98-a-0035	A.59	119.854250	120.323375		old	old
sw3606A-ms98-a-0035	A.61	120.323375	120.768750		[silence]	[silence]
sw3606A-ms98-a-0036	A.61	120.768750	126.114625		[silence]	[silence]
sw3606A-ms98-a-0037	A.61	126.114625	126.548000		[silence]	[silence]
sw3606A-ms98-a-0037	A.61	126.548000	126.694625		So	so
sw3606A-ms98-a-0037	A.61	126.694625	126.925875		you're	you're
sw3606A-ms98-a-0037	A.61	126.925875	127.334625		you	you
sw3606A-ms98-a-0037	A.61	127.334625	127.524625		aren't	aren't
sw3606A-ms98-a-0037	A.61	127.524625	127.574625		a	a
sw3606A-ms98-a-0037	A.61	127.574625	127.934625		SESAME	Sesame
sw3606A-ms98-a-0037	A.61	127.934625	128.214625		STREET	Street
sw3606A-ms98-a-0037	A.61	128.214625	128.590625		fan	fan
sw3606A-ms98-a-0037	A.65	128.590625	128.984500		[silence]	[silence]
sw3606A-ms98-a-0038	A.65	128.984500	129.569875		[silence]	[silence]
sw3606A-ms98-a-0038	A.65	129.569875	130.296250		[laughter]	[laughter]
sw3606A-ms98-a-0038	A.65	130.296250	130.903250		[silence]	[silence]
sw3606A-ms98-a-0039	A.65	130.903250	131.517875		[silence]	[silence]
sw3606A-ms98-a-0039	A.65	131.517875	131.781250		[laughter]	[laughter]
sw3606A-ms98-a-0039	A.65	131.781250	132.235375		[silence]	[silence]
sw3606A-ms98-a-0040	A.65	132.235375	134.242125		[silence]	[silence]
sw3606A-ms98-a-0041	A.65	134.242125	134.728500		[silence]	[silence]
sw3606A-ms98-a-0041	A.65	134.728500	135.021625		Uh-huh	uh-huh
sw3606A-ms98-a-0041	A.67	135.021625	135.370000		[silence]	[silence]
sw3606A-ms98-a-0042	A.67	135.370000	139.619250		[silence]	[silence]
sw3606A-ms98-a-0043	A.67	139.619250	140.096375		[silence]	[silence]
sw3606A-ms98-a-0043	A.67	140.096375	140.480250		Uh-huh	uh-huh
sw3606A-ms98-a-0043	A.69	140.480250	140.937125		[silence]	[silence]
sw3606A-ms98-a-0044	A.69	140.937125	142.374500		[silence]	[silence]
sw3606A-ms98-a-0045	A.69	142.374500	142.741250		[silence]	[silence]
sw3606A-ms98-a-0045	A.69	142.741250	143.054500		Supposed	supposed
sw3606A-ms98-a-0045	A.69	143.054500	143.114500		to	to
sw3606A-ms98-a-0045	A.69	143.114500	143.214500		be	be
sw3606A-ms98-a-0045	A.69	143.214500	143.264500		a	a
sw3606A-ms98-a-0045	A.69	143.264500	143.504500		great	great
sw3606A-ms98-a-0045	A.69	143.504500	144.134500		babysitter	babysitter
sw3606A-ms98-a-0045	A.73	144.134500	145.587000		[laughter]	[laughter]
sw3606A-ms98-a-0045	A.73	145.587000	146.112125		[silence]	[silence]
sw3606A-ms98-a-0046	A.73	146.112125	147.780250		[silence]	[silence]
sw3606A-ms98-a-0047	A.73	147.780250	148.385375		[silence]	[silence]
sw3606A-ms98-a-0047	A.73	148.385375	148.996625		[laughter]	[laughter]
sw3606A-ms98-a-0047	A.73	148.996625	149.411375		[silence]	[silence]
sw3606A-ms98-a-0048	A.73	149.411375	150.276750		[silence]	[silence]
sw3606A-ms98-a-0048	A.73	150.276750	150.670500		Yeah	yeah
sw3606A-ms98-a-0048	A.75	150.670500	151.059000		[silence]	[silence]
sw3606A-ms98-a-0049	A.75	151.059000	152.177375		[silence]	[silence]
sw3606A-ms98-a-0050	A.75	152.177375	152.718125		[silence]	[silence]
sw3606A-ms98-a-0050	A.75	152.718125	152.947500	<SUB>	Um	hm
sw3606A-ms98-a-0050	A.77	152.947500	153.625500		[silence]	[silence]
sw3606A-ms98-a-0051	A.77	153.625500	154.828500		[silence]	[silence]
sw3606A-ms98-a-0052	A.77	154.828500	155.221375		[silence]	[silence]
sw3606A-ms98-a-0052	A.77	155.221375	155.710000	<SUB>	Uh-huh	um-hum
sw3606A-ms98-a-0052	A.79	155.710000	156.224750		[silence]	[silence]
sw3606A-ms98-a-0053	A.79	156.224750	158.751125		[silence]	[silence]
sw3606A-ms98-a-0054	A.79	158.751125	159.285000		[silence]	[silence]
sw3606A-ms98-a-0054	A.79	159.285000	159.381250		I	i
sw3606A-ms98-a-0054	A.79	159.381250	159.531125		know	know
sw3606A-ms98-a-0054	A.79	159.531125	159.761125	<DEL>	---	which
sw3606A-ms98-a-0054	A.79	159.761125	159.931125		what	what
sw3606A-ms98-a-0054	A.79	159.931125	160.091125		time	time
sw3606A-ms98-a-0054	A.79	160.091125	160.201125		is	is
sw3606A-ms98-a-0054	A.79	160.201125	160.341125		that	that
sw3606A-ms98-a-0054	A.79	160.341125	160.541125		on	on
sw3606A-ms98-a-0054	A.79	160.541125	160.611125		I	i
sw3606A-ms98-a-0054	A.79	160.611125	160.831125		never	never
sw3606A-ms98-a-0054	A.79	160.831125	161.041125		see	see
sw3606A-ms98-a-0054	A.79	161.041125	161.244250		it	it
sw3606A-ms98-a-0054	A.81	161.244250	161.797750		[silence]	[silence]
sw3606A-ms98-a-0055	A.81	161.797750	163.743750		[silence]	[silence]
sw3606A-ms98-a-0056	A.81	163.743750	164.209875		[silence]	[silence]
sw3606A-ms98-a-0056	A.81	164.209875	164.453750		Oh	oh
sw3606A-ms98-a-0056	A.81	164.453750	164.861875		okay	okay
sw3606A-ms98-a-0056	A.81	164.861875	164.963750		I'm	i'm
sw3606A-ms98-a-0056	A.81	164.963750	165.113750		not	not
sw3606A-ms98-a-0056	A.81	165.113750	165.303750		home	home
sw3606A-ms98-a-0056	A.81	165.303750	165.473750		then	then
sw3606A-ms98-a-0056	A.81	165.473750	165.723750		that's	that's
sw3606A-ms98-a-0056	A.81	165.723750	165.813750		why	why
sw3606A-ms98-a-0056	A.81	165.813750	165.843750		I	i
sw3606A-ms98-a-0056	A.81	165.843750	166.093750		don't	don't
sw3606A-ms98-a-0056	A.81	166.093750	166.313750		see	see
sw3606A-ms98-a-0056	A.81	166.313750	166.447750		it	it
sw3606A-ms98-a-0056	A.85	166.447750	166.946875		[silence]	[silence]
sw3606A-ms98-a-0057	A.85	166.946875	171.208625		[silence]	[silence]
sw3606A-ms98-a-0058	A.85	171.208625	171.854625		[silence]	[silence]
sw3606A-ms98-a-0058	A.85	171.854625	173.677000		[laughter]	[laughter]
sw3606A-ms98-a-0058	A.85	173.677000	173.768625	<DEL>	---	well
sw3606A-ms98-a-0058	A.85	173.768625	173.948625		Isn't	isn't
sw3606A-ms98-a-0058	A.85	173.948625	174.008625		it	it
sw3606A-ms98-a-0058	A.85	174.008625	174.268625		strange	strange
sw3606A-ms98-a-0058	A.85	174.268625	174.348625		how	how
sw3606A-ms98-a-0058	A.85	174.348625	174.568625		people	people
sw3606A-ms98-a-0058	A.85	174.568625	174.628625		are	are
sw3606A-ms98-a-0058	A.85	174.628625	175.228625		fascinated	fascinated
sw3606A-ms98-a-0058	A.85	175.228625	175.678125		by	by
sw3606A-ms98-a-0058	A.85	175.678125	175.948625		other	other
sw3606A-ms98-a-0058	A.85	175.948625	176.198625		people	people
sw3606A-ms98-a-0058	A.85	176.198625	176.328625		that	that
sw3606A-ms98-a-0058	A.85	176.328625	176.418625		they	they
sw3606A-ms98-a-0058	A.85	176.418625	176.608625		think	think
sw3606A-ms98-a-0058	A.85	176.608625	176.678625		are	are
sw3606A-ms98-a-0058	A.85	176.678625	177.392000		strange	strange
sw3606A-ms98-a-0058	A.87	177.392000	180.313750		[laughter]	[laughter]
sw3606A-ms98-a-0058	A.87	180.313750	180.519875		[silence]	[silence]
sw3606A-ms98-a-0059	A.87	180.519875	182.212500		[silence]	[silence]
sw3606A-ms98-a-0060	A.87	182.212500	182.839250		[silence]	[silence]
sw3606A-ms98-a-0060	A.87	182.839250	183.290875		Uh-huh	uh-huh
sw3606A-ms98-a-0060	A.87	183.290875	184.006750		[silence]	[silence]
sw3606A-ms98-a-0060	A.87	184.006750	184.588500		uh-huh	uh-huh
sw3606A-ms98-a-0060	A.89	184.588500	184.928875		[silence]	[silence]
sw3606A-ms98-a-0061	A.89	184.928875	187.263250		[silence]	[silence]
sw3606A-ms98-a-0062	A.89	187.263250	187.716250		[silence]	[silence]
sw3606A-ms98-a-0062	A.89	187.716250	187.923250		What's	what's
sw3606A-ms98-a-0062	A.89	187.923250	188.189125		that	that
sw3606A-ms98-a-0062	A.91	188.189125	188.646125		[silence]	[silence]
sw3606A-ms98-a-0063	A.91	188.646125	191.332250		[silence]	[silence]
sw3606A-ms98-a-0064	A.91	191.332250	191.872500		[silence]	[silence]
sw3606A-ms98-a-0064	A.91	191.872500	192.384875		Yeah	yeah
sw3606A-ms98-a-0064	A.91	192.384875	192.671125		[silence]	[silence]
sw3606A-ms98-a-0064	A.91	192.671125	192.992250		well	well
sw3606A-ms98-a-0064	A.91	192.992250	193.082250		I	i
sw3606A-ms98-a-0064	A.91	193.082250	193.202250		guess	guess
sw3606A-ms98-a-0064	A.91	193.202250	193.272250		it	it
sw3606A-ms98-a-0064	A.91	193.272250	193.462250		wasn't	wasn't
sw3606A-ms98-a-0064	A.91	193.462250	193.522250		a	a
sw3606A-ms98-a-0064	A.91	193.522250	193.692250		real	real
sw3606A-ms98-a-0064	A.91	193.692250	193.802250		good	good
sw3606A-ms98-a-0064	A.91	193.802250	194.262250		topic	topic
sw3606A-ms98-a-0064	A.91	194.262250	194.372250		for	for
sw3606A-ms98-a-0064	A.91	194.372250	194.752250		us	us
sw3606A-ms98-a-0064	A.91	194.752250	195.030250		but	but
sw3606A-ms98-a-0064	A.91	195.030250	196.088625		[laughter]	[laughter]
sw3606A-ms98-a-0064	A.91	196.088625	196.182250		Well	well
sw3606A-ms98-a-0064	A.91	196.182250	196.392250		tell	tell
sw3606A-ms98-a-0064	A.91	196.392250	196.482250		me	me
sw3606A-ms98-a-0064	A.91	196.482250	196.552250		is	is
sw3606A-ms98-a-0064	A.91	196.552250	196.682250		it	it
sw3606A-ms98-a-0064	A.91	196.682250	197.042250		snowing	snowing
sw3606A-ms98-a-0064	A.91	197.042250	197.152250		up	up
sw3606A-ms98-a-0064	A.91	197.152250	197.595500		there	there
sw3606A-ms98-a-0064	A.93	197.595500	198.034250		[silence]	[silence]
sw3606A-ms98-a-0065	A.93	198.034250	198.813875		[silence]	[silence]
sw3606A-ms98-a-0065	A.93	198.813875	199.053125		No	no
sw3606A-ms98-a-0065	A.95	199.053125	199.598875		[silence]	[silence]
sw3606A-ms98-a-0066	A.95	199.598875	202.683875		[silence]	[silence]
sw3606A-ms98-a-0067	A.95	202.683875	203.222500		[silence]	[silence]
sw3606A-ms98-a-0067	A.95	203.222500	203.482250		Uh-huh	uh-huh
sw3606A-ms98-a-0067	A.97	203.482250	203.976750		[silence]	[silence]
sw3606A-ms98-a-0068	A.97	203.976750	205.213875		[silence]	[silence]
sw3606A-ms98-a-0069	A.97	205.213875	205.608875		[silence]	[silence]
sw3606A-ms98-a-0069	A.97	205.608875	205.953875		Wow	wow
sw3606A-ms98-a-0069	A.97	205.953875	206.153875		But	but
sw3606A-ms98-a-0069	A.97	206.153875	206.253875		do	do
sw3606A-ms98-a-0069	A.97	206.253875	206.323875		you	you
sw3606A-ms98-a-0069	A.97	206.323875	206.503875		have	have
sw3606A-ms98-a-0069	A.97	206.503875	206.653875		snow	snow
sw3606A-ms98-a-0069	A.97	206.653875	206.723875		on	on
sw3606A-ms98-a-0069	A.97	206.723875	206.793875		the	the
sw3606A-ms98-a-0069	A.97	206.793875	207.073875		ground	ground
sw3606A-ms98-a-0069	A.97	207.073875	207.380500		now	now
sw3606A-ms98-a-0069	A.99	207.380500	208.077375		[silence]	[silence]
sw3606A-ms98-a-0069	A.99	208.077375	208.452375		Oh	oh
sw3606A-ms98-a-0069	A.101	208.452375	209.054875		[silence]	[silence]
sw3606A-ms98-a-0069	A.101	209.054875	209.152750		Well	well
sw3606A-ms98-a-0069	A.101	209.152750	209.353875		that's	that's
sw3606A-ms98-a-0069	A.101	209.353875	209.947250		nice	nice
sw3606A-ms98-a-0069	A.103	209.947250	210.444625		[silence]	[silence]
sw3606A-ms98-a-0070	A.103	210.444625	213.660250		[silence]	[silence]
sw3606A-ms98-a-0071	A.103	213.660250	214.210375		[silence]	[silence]
sw3606A-ms98-a-0071	A.103	214.210375	214.600250		Oh	oh
sw3606A-ms98-a-0071	A.103	214.600250	214.950250		gosh	gosh
sw3606A-ms98-a-0071	A.103	214.950250	215.070250		we've	we've
sw3606A-ms98-a-0071	A.103	215.070250	215.410250		broken	broken
sw3606A-ms98-a-0071	A.103	215.410250	215.530250		all	all
sw3606A-ms98-a-0071	A.103	215.530250	215.760250		sorts	sorts
sw3606A-ms98-a-0071	A.103	215.760250	215.860250		of	of
sw3606A-ms98-a-0071	A.103	215.860250	216.734250		records	records
sw3606A-ms98-a-0071	A.105	216.734250	217.005375		[silence]	[silence]
sw3606A-ms98-a-0071	A.105	217.005375	217.150250		They've	they've
sw3606A-ms98-a-0071	A.105	217.150250	217.556375		got	got
sw3606A-ms98-a-0071	A.105	217.556375	217.959375		[silence]	[silence]
sw3606A-ms98-a-0071	A.105	217.959375	218.020250		I	i
sw3606A-ms98-a-0071	A.105	218.020250	218.180250		mean	mean
sw3606A-ms98-a-0071	A.105	218.180250	218.280250		we	we
sw3606A-ms98-a-0071	A.105	218.280250	218.520250		still	still
sw3606A-ms98-a-0071	A.105	218.520250	218.650250		have	have
sw3606A-ms98-a-0071	A.105	218.650250	218.800250		some	some
sw3606A-ms98-a-0071	A.105	218.800250	219.170250		highways	highways
sw3606A-ms98-a-0071	A.105	219.170250	219.700250		closed	closed
sw3606A-ms98-a-0071	A.105	219.700250	219.800250		and	and
sw3606A-ms98-a-0071	A.105	219.800250	219.890250		it	it
sw3606A-ms98-a-0071	A.105	219.890250	220.230250		stopped	stopped
sw3606A-ms98-a-0071	A.105	220.230250	220.831875		raining	raining
sw3606A-ms98-a-0071	A.105	220.831875	221.046500		[silence]	[silence]
sw3606A-ms98-a-0071	A.105	221.046500	221.300250		almost	almost
sw3606A-ms98-a-0071	A.105	221.300250	221.520250	<CONT>	twenty-four	twenty
sw3606A-ms98-a-0071	A.105	221.520250	221.730250	<CONT>	+++	four
sw3606A-ms98-a-0071	A.105	221.730250	222.040250		hours	hours
sw3606A-ms98-a-0071	A.105	222.040250	222.449625		ago	ago
sw3606A-ms98-a-0071	A.107	222.449625	222.815875		[silence]	[silence]
sw3606A-ms98-a-0072	A.107	222.815875	223.322875		[silence]	[silence]
sw3606A-ms98-a-0072	A.107	223.322875	223.485500		But	but
sw3606A-ms98-a-0072	A.107	223.485500	223.769375		um	um
sw3606A-ms98-a-0072	A.107	223.769375	223.965250		[silence]	[silence]
sw3606A-ms98-a-0072	A.107	223.965250	224.395875		oh	oh
sw3606A-ms98-a-0072	A.107	224.395875	224.735875		just	just
sw3606A-ms98-a-0072	A.107	224.735875	225.385875		phenomenal	phenomenal
sw3606A-ms98-a-0072	A.107	225.385875	225.445875		I	i
sw3606A-ms98-a-0072	A.107	225.445875	225.645875		mean	mean
sw3606A-ms98-a-0072	A.107	225.645875	225.781750		I	i
sw3606A-ms98-a-0072	A.107	225.781750	226.305250		[silence]	[silence]
sw3606A-ms98-a-0072	A.107	226.305250	226.365875		you	you
sw3606A-ms98-a-0072	A.107	226.365875	226.435875		know	know
sw3606A-ms98-a-0072	A.107	226.435875	226.535875		you	you
sw3606A-ms98-a-0072	A.107	226.535875	226.745875		see	see
sw3606A-ms98-a-0072	A.107	226.745875	226.845875		it	it
sw3606A-ms98-a-0072	A.107	226.845875	226.965875		on	on
sw3606A-ms98-a-0072	A.107	226.965875	227.025875		the	the
sw3606A-ms98-a-0072	A.107	227.025875	227.305875		news	news
sw3606A-ms98-a-0072	A.107	227.305875	227.475875		all	all
sw3606A-ms98-a-0072	A.107	227.475875	227.585750		the	the
sw3606A-ms98-a-0072	A.107	227.585750	228.259625		time	time
sw3606A-ms98-a-0072	A.107	228.259625	228.609875		[silence]	[silence]
sw3606A-ms98-a-0072	A.107	228.609875	228.685875		but	but
sw3606A-ms98-a-0072	A.107	228.685875	228.905875		until	until
sw3606A-ms98-a-0072	A.107	228.905875	229.045875		you've	you've
sw3606A-ms98-a-0072	A.107	229.045875	229.245875		really	really
sw3606A-ms98-a-0072	A.107	229.245875	229.625875		seen	seen
sw3606A-ms98-a-0072	A.107	229.625875	229.900500		it	it
sw3606A-ms98-a-0072	A.107	229.900500	230.344875		[silence]	[silence]
sw3606A-ms98-a-0072	A.107	230.344875	230.435875		it	it
sw3606A-ms98-a-0072	A.107	230.435875	230.635875	<SUB>	does-	doe[s]-
sw3606A-ms98-a-0072	A.107	230.635875	230.715875		it	it
sw3606A-ms98-a-0072	A.107	230.715875	230.925875		doesn't	doesn't
sw3606A-ms98-a-0072	A.107	230.925875	231.125875		really	really
sw3606A-ms98-a-0072	A.107	231.125875	231.315875		hit	hit
sw3606A-ms98-a-0072	A.107	231.315875	231.702375		you	you
sw3606A-ms98-a-0072	A.109	231.702375	231.867500		[silence]	[silence]
sw3606A-ms98-a-0073	A.109	231.867500	232.193125		[silence]	[silence]
sw3606A-ms98-a-0073	A.109	232.193125	232.287500		But	but
sw3606A-ms98-a-0073	A.109	232.287500	232.347500		I	i
sw3606A-ms98-a-0073	A.109	232.347500	232.437500		was	was
sw3606A-ms98-a-0073	A.109	232.437500	232.677500		driving	driving
sw3606A-ms98-a-0073	A.109	232.677500	232.817500		home	home
sw3606A-ms98-a-0073	A.109	232.817500	232.947500		from	from
sw3606A-ms98-a-0073	A.109	232.947500	233.167500		work	work
sw3606A-ms98-a-0073	A.109	233.167500	233.587500		Friday	Friday
sw3606A-ms98-a-0073	A.109	233.587500	233.787500		and	and
sw3606A-ms98-a-0073	A.109	233.787500	233.857500		I	i
sw3606A-ms98-a-0073	A.109	233.857500	234.147500		saw	saw
sw3606A-ms98-a-0073	A.109	234.147500	234.267500		there	there
sw3606A-ms98-a-0073	A.109	234.267500	234.327500		were	were
sw3606A-ms98-a-0073	A.109	234.327500	234.477500		some	some
sw3606A-ms98-a-0073	A.109	234.477500	234.797500		stop	stop
sw3606A-ms98-a-0073	A.109	234.797500	235.292000		signs	signs
sw3606A-ms98-a-0073	A.109	235.292000	235.367500		I	i
sw3606A-ms98-a-0073	A.109	235.367500	235.557500		mean	mean
sw3606A-ms98-a-0073	A.109	235.557500	236.111375		submerged	submerged
sw3606A-ms98-a-0073	A.109	236.111375	236.303375		up	up
sw3606A-ms98-a-0073	A.109	236.303375	236.387500		to	to
sw3606A-ms98-a-0073	A.109	236.387500	236.507500		the	the
sw3606A-ms98-a-0073	A.109	236.507500	237.043875		writing	writing
sw3606A-ms98-a-0073	A.109	237.043875	237.322625		[silence]	[silence]
sw3606A-ms98-a-0073	A.109	237.322625	237.457500		on	on
sw3606A-ms98-a-0073	A.109	237.457500	237.517500		the	the
sw3606A-ms98-a-0073	A.109	237.517500	237.827500		stop	stop
sw3606A-ms98-a-0073	A.109	237.827500	238.314875		sign	sign
sw3606A-ms98-a-0073	A.109	238.314875	238.673500		[silence]	[silence]
sw3606A-ms98-a-0074	A.109	238.673500	239.063500		[silence]	[silence]
sw3606A-ms98-a-0074	A.109	239.063500	239.183500		and	and
sw3606A-ms98-a-0074	A.109	239.183500	239.303500		that	that
sw3606A-ms98-a-0074	A.109	239.303500	239.423500		was	was
sw3606A-ms98-a-0074	A.109	239.423500	239.811375		just	just
sw3606A-ms98-a-0074	A.111	239.811375	240.184875		[silence]	[silence]
sw3606A-ms98-a-0074	A.111	240.184875	240.241375		it	it
sw3606A-ms98-a-0074	A.111	240.241375	240.353500		was	was
sw3606A-ms98-a-0074	A.111	240.353500	240.823500		amazing	amazing
sw3606A-ms98-a-0074	A.111	240.823500	240.943500		to	to
sw3606A-ms98-a-0074	A.111	240.943500	241.520875		me	me
sw3606A-ms98-a-0074	A.113	241.520875	241.898375		[silence]	[silence]
sw3606A-ms98-a-0075	A.113	241.898375	242.484375		[silence]	[silence]
sw3606A-ms98-a-0075	A.113	242.484375	242.943625		So	so
sw3606A-ms98-a-0075	A.115	242.943625	243.470375		[silence]	[silence]
sw3606A-ms98-a-0076	A.115	243.470375	244.544000		[silence]	[silence]
sw3606A-ms98-a-0076	A.115	244.544000	244.690375		Oh	oh
sw3606A-ms98-a-0076	A.115	244.690375	244.850375		there's	there's
sw3606A-ms98-a-0076	A.115	244.850375	244.960375		been	been
sw3606A-ms98-a-0076	A.115	244.960375	245.050375		a	a
sw3606A-ms98-a-0076	A.115	245.050375	245.540375		lot	lot
sw3606A-ms98-a-0076	A.115	245.540375	246.030500		yeah	yeah
sw3606A-ms98-a-0076	A.117	246.030500	246.395875		[silence]	[silence]
sw3606A-ms98-a-0076	A.117	246.395875	246.630375		It's	it's
sw3606A-ms98-a-0076	A.117	246.630375	246.860375		it's	it's
sw3606A-ms98-a-0076	A.117	246.860375	247.030375		too	too
sw3606A-ms98-a-0076	A.117	247.030375	247.310375		bad	bad
sw3606A-ms98-a-0076	A.117	247.310375	247.445250		but	but
sw3606A-ms98-a-0076	A.117	247.445250	248.281500		[silence]	[silence]
sw3606A-ms98-a-0076	A.117	248.281500	248.370375		you	you
sw3606A-ms98-a-0076	A.117	248.370375	248.620375		know	know
sw3606A-ms98-a-0076	A.117	248.620375	248.780375		the	the
sw3606A-ms98-a-0076	A.117	248.780375	249.000375		thing	thing
sw3606A-ms98-a-0076	A.117	249.000375	249.170375		is	is
sw3606A-ms98-a-0076	A.117	249.170375	249.310375		that	that
sw3606A-ms98-a-0076	A.117	249.310375	249.460375		this	this
sw3606A-ms98-a-0076	A.117	249.460375	250.175875		happens	happens
sw3606A-ms98-a-0076	A.117	250.175875	250.480375		in	in
sw3606A-ms98-a-0076	A.117	250.480375	250.550375		the	the
sw3606A-ms98-a-0076	A.117	250.550375	250.860375		last	last
sw3606A-ms98-a-0076	A.117	250.860375	251.060375		three	three
sw3606A-ms98-a-0076	A.117	251.060375	251.380375		years	years
sw3606A-ms98-a-0076	A.117	251.380375	251.510375		it's	it's
sw3606A-ms98-a-0076	A.117	251.510375	251.810375		happened	happened
sw3606A-ms98-a-0076	A.117	251.810375	251.890375		at	at
sw3606A-ms98-a-0076	A.117	251.890375	252.120375		least	least
sw3606A-ms98-a-0076	A.117	252.120375	252.340375		once	once
sw3606A-ms98-a-0076	A.117	252.340375	252.370375		a	a
sw3606A-ms98-a-0076	A.117	252.370375	252.650375		year	year
sw3606A-ms98-a-0076	A.117	252.650375	252.770375		if	if
sw3606A-ms98-a-0076	A.117	252.770375	252.950375		not	not
sw3606A-ms98-a-0076	A.117	252.950375	253.620750		twice	twice
sw3606A-ms98-a-0076	A.119	253.620750	253.759000		[silence]	[silence]
sw3606A-ms98-a-0077	A.119	253.759000	254.017500		[silence]	[silence]
sw3606A-ms98-a-0077	A.119	254.017500	254.109000		But	but
sw3606A-ms98-a-0077	A.119	254.109000	254.169000		the	the
sw3606A-ms98-a-0077	A.119	254.169000	254.419000		people	people
sw3606A-ms98-a-0077	A.119	254.419000	254.779000		continue	continue
sw3606A-ms98-a-0077	A.119	254.779000	254.879000		to	to
sw3606A-ms98-a-0077	A.119	254.879000	255.109000		move	move
sw3606A-ms98-a-0077	A.119	255.109000	255.429000		back	back
sw3606A-ms98-a-0077	A.119	255.429000	255.489000		in	in
sw3606A-ms98-a-0077	A.119	255.489000	255.559000		the	the
sw3606A-ms98-a-0077	A.119	255.559000	255.839000		flood	flood
sw3606A-ms98-a-0077	A.119	255.839000	257.119125		zones	[laughter-zones]
sw3606A-ms98-a-0077	A.121	257.119125	257.667875		So	so
sw3606A-ms98-a-0077	A.121	257.667875	257.838625		[silence]	[silence]
sw3606A-ms98-a-0078	A.121	257.838625	258.068625		[silence]	[silence]
sw3606A-ms98-a-0078	A.121	258.068625	258.168625		I	i
sw3606A-ms98-a-0078	A.121	258.168625	258.318625		don't	don't
sw3606A-ms98-a-0078	A.121	258.318625	258.618625		know	know
sw3606A-ms98-a-0078	A.121	258.618625	258.718625		I	i
sw3606A-ms98-a-0078	A.121	258.718625	258.898625		mean	mean
sw3606A-ms98-a-0078	A.121	258.898625	258.998625		you	you
sw3606A-ms98-a-0078	A.121	258.998625	259.148625		got	got
sw3606A-ms98-a-0078	A.121	259.148625	259.228625		to	to
sw3606A-ms98-a-0078	A.121	259.228625	259.528625		wonder	wonder
sw3606A-ms98-a-0078	A.121	259.528625	259.668625		how	how
sw3606A-ms98-a-0078	A.121	259.668625	259.898625		long	long
sw3606A-ms98-a-0078	A.121	259.898625	259.988625		they're	they're
sw3606A-ms98-a-0078	A.121	259.988625	260.108625		going	going
sw3606A-ms98-a-0078	A.121	260.108625	260.168625		to	to
sw3606A-ms98-a-0078	A.121	260.168625	260.328625		keep	keep
sw3606A-ms98-a-0078	A.121	260.328625	260.568625		doing	doing
sw3606A-ms98-a-0078	A.121	260.568625	260.728625		that	that
sw3606A-ms98-a-0078	A.121	260.728625	261.060625		for	for
sw3606A-ms98-a-0078	A.123	261.060625	261.494125		[silence]	[silence]
sw3606A-ms98-a-0079	A.123	261.494125	261.844375		[silence]	[silence]
sw3606A-ms98-a-0079	A.123	261.844375	261.914125		I	i
sw3606A-ms98-a-0079	A.123	261.914125	262.084125		don't	don't
sw3606A-ms98-a-0079	A.123	262.084125	262.294125		think	think
sw3606A-ms98-a-0079	A.123	262.294125	262.484375		I	i
sw3606A-ms98-a-0079	A.123	262.484375	263.025250		would	would
sw3606A-ms98-a-0079	A.125	263.025250	263.414500		[silence]	[silence]
sw3606A-ms98-a-0080	A.125	263.414500	263.908250		[silence]	[silence]
sw3606A-ms98-a-0080	A.125	263.908250	264.044500		Because	because_1
sw3606A-ms98-a-0080	A.125	264.044500	264.184500		they	they
sw3606A-ms98-a-0080	A.125	264.184500	264.334500		just	just
sw3606A-ms98-a-0080	A.125	264.334500	264.564500		finished	finished
sw3606A-ms98-a-0080	A.125	264.564500	264.824500		cleaning	cleaning
sw3606A-ms98-a-0080	A.125	264.824500	264.934500		up	up
sw3606A-ms98-a-0080	A.125	264.934500	265.064500		from	from
sw3606A-ms98-a-0080	A.125	265.064500	265.124500		the	the
sw3606A-ms98-a-0080	A.125	265.124500	265.394500		last	last
sw3606A-ms98-a-0080	A.125	265.394500	266.013625		flood	flood
sw3606A-ms98-a-0080	A.127	266.013625	266.451375		[silence]	[silence]
sw3606A-ms98-a-0081	A.127	266.451375	267.684625		[silence]	[silence]
sw3606A-ms98-a-0081	A.127	267.684625	268.066000		Yeah	yeah
sw3606A-ms98-a-0081	A.129	268.066000	268.507750		[silence]	[silence]
sw3606A-ms98-a-0082	A.129	268.507750	269.646750		[silence]	[silence]
sw3606A-ms98-a-0082	A.129	269.646750	270.070875		Yeah	yeah
sw3606A-ms98-a-0082	A.129	270.070875	270.205750		I	i
sw3606A-ms98-a-0082	A.129	270.205750	270.508750		do	do
sw3606A-ms98-a-0082	A.129	270.508750	270.742250		[silence]	[silence]
sw3606A-ms98-a-0082	A.129	270.742250	271.123625		yeah	yeah
sw3606A-ms98-a-0082	A.131	271.123625	271.457375		[silence]	[silence]
sw3606A-ms98-a-0083	A.131	271.457375	275.454250		[silence]	[silence]
sw3606A-ms98-a-0084	A.131	275.454250	275.981000		[silence]	[silence]
sw3606A-ms98-a-0084	A.131	275.981000	276.214250		Have	have
sw3606A-ms98-a-0084	A.131	276.214250	276.294250		you	you
sw3606A-ms98-a-0084	A.131	276.294250	276.444250		made	made
sw3606A-ms98-a-0084	A.131	276.444250	276.504250		a	a
sw3606A-ms98-a-0084	A.131	276.504250	276.654250		lot	lot
sw3606A-ms98-a-0084	A.131	276.654250	276.734250		of	of
sw3606A-ms98-a-0084	A.131	276.734250	277.284250		calls	calls
sw3606A-ms98-a-0084	A.131	277.284250	277.457250		or	or
sw3606A-ms98-a-0084	A.133	277.457250	277.829500		[silence]	[silence]
sw3606A-ms98-a-0085	A.133	277.829500	280.795125		[silence]	[silence]
sw3606A-ms98-a-0086	A.133	280.795125	281.329000		[silence]	[silence]
sw3606A-ms98-a-0086	A.133	281.329000	281.654875		Uh-huh	uh-huh
sw3606A-ms98-a-0086	A.135	281.654875	282.113625		[silence]	[silence]
sw3606A-ms98-a-0087	A.135	282.113625	283.451250		[silence]	[silence]
sw3606A-ms98-a-0088	A.135	283.451250	283.943500		[silence]	[silence]
sw3606A-ms98-a-0088	A.135	283.943500	284.408000		Oh	oh
sw3606A-ms98-a-0088	A.137	284.408000	284.859750		[silence]	[silence]
sw3606A-ms98-a-0089	A.137	284.859750	288.068625		[silence]	[silence]
sw3606A-ms98-a-0090	A.137	288.068625	288.571250		[silence]	[silence]
sw3606A-ms98-a-0090	A.137	288.571250	288.618625		Do	do
sw3606A-ms98-a-0090	A.137	288.618625	288.778625		you	you
sw3606A-ms98-a-0090	A.137	288.778625	288.918625		get	get
sw3606A-ms98-a-0090	A.137	288.918625	289.198625		paid	paid
sw3606A-ms98-a-0090	A.137	289.198625	289.390000		for	for
sw3606A-ms98-a-0090	A.137	289.390000	289.918250		these	these
sw3606A-ms98-a-0090	A.139	289.918250	290.316125		[silence]	[silence]
sw3606A-ms98-a-0091	A.139	290.316125	291.677500		[silence]	[silence]
sw3606A-ms98-a-0092	A.139	291.677500	292.166250		[silence]	[silence]
sw3606A-ms98-a-0092	A.139	292.166250	292.377500		Five	five
sw3606A-ms98-a-0092	A.139	292.377500	292.677500		dollars	dollars
sw3606A-ms98-a-0092	A.139	292.677500	292.727500		a	a
sw3606A-ms98-a-0092	A.139	292.727500	293.124750		call	call
sw3606A-ms98-a-0092	A.141	293.124750	293.629375		[noise]	[noise]
sw3606A-ms98-a-0092	A.141	293.629375	293.937500		Gosh	gosh
sw3606A-ms98-a-0092	A.141	293.937500	293.987500		I	i
sw3606A-ms98-a-0092	A.141	293.987500	294.147500		wish	wish
sw3606A-ms98-a-0092	A.141	294.147500	294.177500		I	i
sw3606A-ms98-a-0092	A.141	294.177500	294.317500		could	could
sw3606A-ms98-a-0092	A.141	294.317500	294.511750		do	do
sw3606A-ms98-a-0092	A.141	294.511750	294.779875		that	that
sw3606A-ms98-a-0092	A.143	294.779875	295.729000		[laughter]	[laughter]
sw3606A-ms98-a-0092	A.143	295.729000	295.797500		We	we
sw3606A-ms98-a-0092	A.143	295.797500	296.027500		can't	can't
sw3606A-ms98-a-0092	A.143	296.027500	296.167500		get	get
sw3606A-ms98-a-0092	A.143	296.167500	296.437500		paid	paid
sw3606A-ms98-a-0092	A.143	296.437500	296.747500		for	for
sw3606A-ms98-a-0092	A.143	296.747500	297.297250		it	[laughter-it]
sw3606A-ms98-a-0092	A.143	297.297250	297.540875		[silence]	[silence]
sw3606A-ms98-a-0093	A.143	297.540875	298.562000		[silence]	[silence]
