sw3681A-ms98-a-0001	A.1	0.000000	0.025000		[silence]	[silence]
sw3681A-ms98-a-0001	A.1	0.025000	0.187625		Okay	okay
sw3681A-ms98-a-0001	A.1	0.187625	0.304375		you	you
sw3681A-ms98-a-0001	A.1	0.304375	0.490000		got	got
sw3681A-ms98-a-0001	A.1	0.490000	0.895375		any	any
sw3681A-ms98-a-0001	A.1	0.895375	1.064875		[silence]	[silence]
sw3681A-ms98-a-0001	A.1	1.064875	1.590000		hobbies	hobbies
sw3681A-ms98-a-0001	A.1	1.590000	1.790000		that	that
sw3681A-ms98-a-0001	A.1	1.790000	2.000000		you	you
sw3681A-ms98-a-0001	A.1	2.000000	2.250000	<SUB>	want	wanna
sw3681A-ms98-a-0001	A.1	2.250000	2.250000	<INS>	to	---
sw3681A-ms98-a-0001	A.1	2.250000	2.500000		talk	talk
sw3681A-ms98-a-0001	A.1	2.500000	2.780000		about	about
sw3681A-ms98-a-0001	A.3	2.780000	3.395000		[silence]	[silence]
sw3681A-ms98-a-0002	A.3	3.395000	14.209500		[silence]	[silence]
sw3681A-ms98-a-0003	A.3	14.209500	14.679500		[silence]	[silence]
sw3681A-ms98-a-0003	A.3	14.679500	14.859500		What	what
sw3681A-ms98-a-0003	A.3	14.859500	14.919500		in	in
sw3681A-ms98-a-0003	A.3	14.919500	14.979500		the	the
sw3681A-ms98-a-0003	A.3	14.979500	15.209500		world	world
sw3681A-ms98-a-0003	A.3	15.209500	15.269500		do	do
sw3681A-ms98-a-0003	A.3	15.269500	15.349500		you	you
sw3681A-ms98-a-0003	A.3	15.349500	15.449500		do	do
sw3681A-ms98-a-0003	A.3	15.449500	15.599500		with	with
sw3681A-ms98-a-0003	A.3	15.599500	15.699500		your	your
sw3681A-ms98-a-0003	A.3	15.699500	16.239500		computer	computer
sw3681A-ms98-a-0003	A.3	16.239500	16.389500		that	that
sw3681A-ms98-a-0003	A.3	16.389500	16.619500		takes	takes
sw3681A-ms98-a-0003	A.3	16.619500	16.759500		so	so
sw3681A-ms98-a-0003	A.3	16.759500	16.989500		much	much
sw3681A-ms98-a-0003	A.3	16.989500	17.363625		time	time
sw3681A-ms98-a-0003	A.5	17.363625	17.786500		[silence]	[silence]
sw3681A-ms98-a-0004	A.5	17.786500	22.167250		[silence]	[silence]
sw3681A-ms98-a-0005	A.5	22.167250	22.623125		[silence]	[silence]
sw3681A-ms98-a-0005	A.5	22.623125	22.787250		Oh	oh
sw3681A-ms98-a-0005	A.5	22.787250	23.061625		really	really
sw3681A-ms98-a-0005	A.9	23.061625	23.543375		[silence]	[silence]
sw3681A-ms98-a-0006	A.9	23.543375	31.882125		[silence]	[silence]
sw3681A-ms98-a-0007	A.9	31.882125	32.475375		[silence]	[silence]
sw3681A-ms98-a-0007	A.9	32.475375	33.982125		[laughter]	[laughter]
sw3681A-ms98-a-0007	A.9	33.982125	34.342000		[silence]	[silence]
sw3681A-ms98-a-0008	A.9	34.342000	34.711875		[silence]	[silence]
sw3681A-ms98-a-0008	A.9	34.711875	34.881875	<DEL>	---	uh
sw3681A-ms98-a-0008	A.9	34.881875	35.112000		[silence]	[silence]
sw3681A-ms98-a-0008	A.9	35.112000	35.302000		Did	did
sw3681A-ms98-a-0008	A.9	35.302000	35.452000		you	you
sw3681A-ms98-a-0008	A.9	35.452000	35.712000		have	have
sw3681A-ms98-a-0008	A.9	35.712000	36.022000		uh	uh
sw3681A-ms98-a-0008	A.9	36.022000	36.232000		your	your
sw3681A-ms98-a-0008	A.9	36.232000	36.352000		own	own
sw3681A-ms98-a-0008	A.9	36.352000	36.752000		business	business
sw3681A-ms98-a-0008	A.9	36.752000	36.872000		or	or
sw3681A-ms98-a-0008	A.9	36.872000	37.012000		you	you
sw3681A-ms98-a-0008	A.9	37.012000	37.162000		do	do
sw3681A-ms98-a-0008	A.9	37.162000	37.362000		that	that
sw3681A-ms98-a-0008	A.9	37.362000	37.884875		as	as
sw3681A-ms98-a-0008	A.9	37.884875	38.016750		[silence]	[silence]
sw3681A-ms98-a-0008	A.9	38.016750	38.212000		just	just
sw3681A-ms98-a-0008	A.9	38.212000	38.312000		on	on
sw3681A-ms98-a-0008	A.9	38.312000	38.392000		the	the
sw3681A-ms98-a-0008	A.9	38.392000	38.772000		side	side
sw3681A-ms98-a-0008	A.9	38.772000	38.932000		or	or
sw3681A-ms98-a-0008	A.9	38.932000	39.132000		what	what
sw3681A-ms98-a-0008	A.11	39.132000	39.599375		[silence]	[silence]
sw3681A-ms98-a-0009	A.11	39.599375	43.321125		[silence]	[silence]
sw3681A-ms98-a-0010	A.11	43.321125	43.811125		[silence]	[silence]
sw3681A-ms98-a-0010	A.11	43.811125	44.061125	<SUB>	Uh-huh	um-hum
sw3681A-ms98-a-0010	A.13	44.061125	44.532375		[silence]	[silence]
sw3681A-ms98-a-0011	A.13	44.532375	48.851625		[silence]	[silence]
sw3681A-ms98-a-0012	A.13	48.851625	49.341625		[silence]	[silence]
sw3681A-ms98-a-0012	A.13	49.341625	49.621625		Well	well
sw3681A-ms98-a-0012	A.15	49.621625	50.310375		[silence]	[silence]
sw3681A-ms98-a-0013	A.15	50.310375	51.050375		[silence]	[silence]
sw3681A-ms98-a-0013	A.15	51.050375	51.170375		What	what
sw3681A-ms98-a-0013	A.15	51.170375	51.230375		do	do
sw3681A-ms98-a-0013	A.15	51.230375	51.348875		you	you
sw3681A-ms98-a-0013	A.15	51.348875	51.760375		teach	teach
sw3681A-ms98-a-0013	A.17	51.760375	52.233875		[silence]	[silence]
sw3681A-ms98-a-0014	A.17	52.233875	54.798375		[silence]	[silence]
sw3681A-ms98-a-0015	A.17	54.798375	55.279000		[silence]	[silence]
sw3681A-ms98-a-0015	A.17	55.279000	55.591500		Oh	oh
sw3681A-ms98-a-0015	A.17	55.591500	55.761375		[silence]	[silence]
sw3681A-ms98-a-0015	A.17	55.761375	56.088375		that's	that's
sw3681A-ms98-a-0015	A.17	56.088375	56.388375		good	good
sw3681A-ms98-a-0015	A.21	56.388375	56.693500		[silence]	[silence]
sw3681A-ms98-a-0016	A.21	56.693500	57.317500		[silence]	[silence]
sw3681A-ms98-a-0016	A.21	57.317500	57.477250	<DEL>	---	that's
sw3681A-ms98-a-0016	A.21	57.477250	57.633500	<DEL>	---	good
sw3681A-ms98-a-0016	A.21	57.633500	57.809125		[silence]	[silence]
sw3681A-ms98-a-0017	A.21	57.809125	58.149125		[silence]	[silence]
sw3681A-ms98-a-0017	A.21	58.149125	60.515625		[laughter]	[laughter]
sw3681A-ms98-a-0017	A.21	60.515625	60.620125	<DEL>	---	it
sw3681A-ms98-a-0017	A.21	60.620125	60.787750	<DEL>	---	wa[s]-
sw3681A-ms98-a-0017	A.21	60.787750	61.225875		[silence]	[silence]
sw3681A-ms98-a-0018	A.21	61.225875	65.536000		[silence]	[silence]
sw3681A-ms98-a-0019	A.21	65.536000	66.016000		[silence]	[silence]
sw3681A-ms98-a-0019	A.21	66.016000	66.322625		Uh-huh	uh-huh
sw3681A-ms98-a-0019	A.23	66.322625	66.746625		[silence]	[silence]
sw3681A-ms98-a-0020	A.23	66.746625	72.314125		[silence]	[silence]
sw3681A-ms98-a-0021	A.23	72.314125	72.625375		[silence]	[silence]
sw3681A-ms98-a-0021	A.23	72.625375	72.931750		Well	well
sw3681A-ms98-a-0021	A.23	72.931750	73.036375		[silence]	[silence]
sw3681A-ms98-a-0021	A.23	73.036375	73.404125		I	i
sw3681A-ms98-a-0021	A.23	73.404125	73.830750		uh	uh
sw3681A-ms98-a-0021	A.23	73.830750	74.346875		[silence]	[silence]
sw3681A-ms98-a-0021	A.23	74.346875	74.584125		play	play
sw3681A-ms98-a-0021	A.23	74.584125	75.214125		trombone	trombone
sw3681A-ms98-a-0021	A.23	75.214125	75.404125		in	in
sw3681A-ms98-a-0021	A.23	75.404125	75.664125		the	the
sw3681A-ms98-a-0021	A.23	75.664125	75.964125		Plano	Plano
sw3681A-ms98-a-0021	A.23	75.964125	76.414125		Community	Community
sw3681A-ms98-a-0021	A.23	76.414125	76.844125		Band	Band
sw3681A-ms98-a-0021	A.25	76.844125	77.562625		[silence]	[silence]
sw3681A-ms98-a-0022	A.25	77.562625	78.251375		[silence]	[silence]
sw3681A-ms98-a-0022	A.25	78.251375	78.637250		And	and
sw3681A-ms98-a-0022	A.25	78.637250	78.932625		I	i
sw3681A-ms98-a-0022	A.25	78.932625	79.188250		uh	uh
sw3681A-ms98-a-0022	A.25	79.188250	79.832250		[silence]	[silence]
sw3681A-ms98-a-0022	A.25	79.832250	80.062625		like	like
sw3681A-ms98-a-0022	A.25	80.062625	80.432625		to	to
sw3681A-ms98-a-0022	A.25	80.432625	80.980375		[silence]	[silence]
sw3681A-ms98-a-0023	A.25	80.980375	81.496250		[silence]	[silence]
sw3681A-ms98-a-0023	A.25	81.496250	81.570375		do	do
sw3681A-ms98-a-0023	A.25	81.570375	81.600375		a	a
sw3681A-ms98-a-0023	A.25	81.600375	81.740375		lot	lot
sw3681A-ms98-a-0023	A.25	81.740375	81.860375		of	of
sw3681A-ms98-a-0023	A.25	81.860375	82.562000		bicycling	bicycling
sw3681A-ms98-a-0023	A.25	82.562000	82.680375		[silence]	[silence]
sw3681A-ms98-a-0023	A.25	82.680375	82.810375		when	when
sw3681A-ms98-a-0023	A.25	82.810375	82.870375		the	the
sw3681A-ms98-a-0023	A.25	82.870375	83.360375	<SUB>	weather	weathers
sw3681A-ms98-a-0023	A.25	83.360375	83.880375		allows	allows
sw3681A-ms98-a-0023	A.25	83.880375	84.050375		and	and
sw3681A-ms98-a-0023	A.25	84.050375	84.260375		[silence]	[silence]
sw3681A-ms98-a-0023	A.25	84.260375	84.480375		during	during
sw3681A-ms98-a-0023	A.25	84.480375	84.830375		summer	summer
sw3681A-ms98-a-0023	A.25	84.830375	84.970375		when	when
sw3681A-ms98-a-0023	A.25	84.970375	85.130375		there's	there's
sw3681A-ms98-a-0023	A.25	85.130375	85.480375		daylight	daylight
sw3681A-ms98-a-0023	A.25	85.480375	85.820375		savings	savings
sw3681A-ms98-a-0023	A.25	85.820375	86.140375		time's	time's
sw3681A-ms98-a-0023	A.25	86.140375	86.230375		when	when
sw3681A-ms98-a-0023	A.25	86.230375	86.270375		I	i
sw3681A-ms98-a-0023	A.25	86.270375	86.420375		get	get
sw3681A-ms98-a-0023	A.25	86.420375	86.550375		out	out
sw3681A-ms98-a-0023	A.25	86.550375	86.650375		and	and
sw3681A-ms98-a-0023	A.25	86.650375	86.950375		bike	bike
sw3681A-ms98-a-0023	A.27	86.950375	87.385625		[silence]	[silence]
sw3681A-ms98-a-0024	A.27	87.385625	90.368250		[silence]	[silence]
sw3681A-ms98-a-0025	A.27	90.368250	90.791375		[silence]	[silence]
sw3681A-ms98-a-0025	A.27	90.791375	91.078250		Well	well
sw3681A-ms98-a-0025	A.27	91.078250	91.148250		it	it
sw3681A-ms98-a-0025	A.27	91.148250	91.408250		wasn't	wasn't
sw3681A-ms98-a-0025	A.27	91.408250	91.548250		too	too
sw3681A-ms98-a-0025	A.27	91.548250	91.838250		bad	bad
sw3681A-ms98-a-0025	A.27	91.838250	91.978250		other	other
sw3681A-ms98-a-0025	A.27	91.978250	92.078250		than	than
sw3681A-ms98-a-0025	A.27	92.078250	92.138250		the	the
sw3681A-ms98-a-0025	A.27	92.138250	92.628250		Cowboys	Cowboys
sw3681A-ms98-a-0025	A.27	92.628250	92.838250		didn't	didn't
sw3681A-ms98-a-0025	A.27	92.838250	92.998250		do	do
sw3681A-ms98-a-0025	A.27	92.998250	93.168250		so	so
sw3681A-ms98-a-0025	A.27	93.168250	93.463500		hot	hot
sw3681A-ms98-a-0025	A.31	93.463500	93.762875		[silence]	[silence]
sw3681A-ms98-a-0026	A.31	93.762875	94.109875		[silence]	[silence]
sw3681A-ms98-a-0026	A.31	94.109875	96.178500		[laughter]	[laughter]
sw3681A-ms98-a-0026	A.31	96.178500	97.312250		[silence]	[silence]
sw3681A-ms98-a-0027	A.31	97.312250	98.467375		[silence]	[silence]
sw3681A-ms98-a-0028	A.31	98.467375	98.947375		[silence]	[silence]
sw3681A-ms98-a-0028	A.31	98.947375	99.267375		No	no
sw3681A-ms98-a-0028	A.31	99.267375	99.457375		just	just
sw3681A-ms98-a-0028	A.31	99.457375	99.537375		a	a
sw3681A-ms98-a-0028	A.31	99.537375	99.990875		crummy	crummy
sw3681A-ms98-a-0028	A.31	99.990875	100.405250		[silence]	[silence]
sw3681A-ms98-a-0028	A.31	100.405250	100.646750		well	well
sw3681A-ms98-a-0028	A.31	100.646750	101.057375		actually	actually
sw3681A-ms98-a-0028	A.31	101.057375	101.187375		the	the
sw3681A-ms98-a-0028	A.31	101.187375	101.557375		Lions	Lions
sw3681A-ms98-a-0028	A.31	101.557375	101.617375		are	are
sw3681A-ms98-a-0028	A.31	101.617375	101.952500		pretty	pretty
sw3681A-ms98-a-0028	A.31	101.952500	102.155875		good	good
sw3681A-ms98-a-0028	A.31	102.155875	102.217375	<CONT>	I'm	i
sw3681A-ms98-a-0028	A.31	102.217375	102.412375	<CONT>	+++	am
sw3681A-ms98-a-0028	A.31	102.412375	102.771500		afraid	afraid
sw3681A-ms98-a-0028	A.31	102.771500	102.884500		[silence]	[silence]
sw3681A-ms98-a-0028	A.31	102.884500	103.017375	<SUB>	they	they're
sw3681A-ms98-a-0028	A.31	103.017375	103.247375		pro-	pro[bably]-
sw3681A-ms98-a-0028	A.31	103.247375	103.327375		a	a
sw3681A-ms98-a-0028	A.31	103.327375	103.557375		lot	lot
sw3681A-ms98-a-0028	A.31	103.557375	103.787375		better	better
sw3681A-ms98-a-0028	A.31	103.787375	104.087375		team	team
sw3681A-ms98-a-0028	A.31	104.087375	104.177375		than	than
sw3681A-ms98-a-0028	A.31	104.177375	104.237375		the	the
sw3681A-ms98-a-0028	A.31	104.237375	104.767375		Cowboys	Cowboys
sw3681A-ms98-a-0028	A.31	104.767375	104.897375		were	were
sw3681A-ms98-a-0028	A.31	104.897375	105.277250		today	today
sw3681A-ms98-a-0028	A.31	105.277250	105.765250		[silence]	[silence]
sw3681A-ms98-a-0029	A.31	105.765250	106.105250		[silence]	[silence]
sw3681A-ms98-a-0029	A.31	106.105250	106.437250		And	and
sw3681A-ms98-a-0029	A.31	106.437250	106.787625		uh	uh
sw3681A-ms98-a-0029	A.35	106.787625	107.436875		[silence]	[silence]
sw3681A-ms98-a-0030	A.35	107.436875	108.146875		[silence]	[silence]
sw3681A-ms98-a-0030	A.35	108.146875	108.467375		Oh	oh
sw3681A-ms98-a-0030	A.35	108.467375	109.204875		[silence]	[silence]
sw3681A-ms98-a-0031	A.35	109.204875	109.888375		[silence]	[silence]
sw3681A-ms98-a-0031	A.35	109.888375	111.419625		[laughter]	[laughter]
sw3681A-ms98-a-0031	A.35	111.419625	112.751375		[silence]	[silence]
sw3681A-ms98-a-0032	A.35	112.751375	120.003875		[silence]	[silence]
sw3681A-ms98-a-0033	A.35	120.003875	120.482625		[silence]	[silence]
sw3681A-ms98-a-0033	A.35	120.482625	120.849125	<DEL>	---	oh
sw3681A-ms98-a-0033	A.35	120.849125	121.607250		okay	okay
sw3681A-ms98-a-0033	A.35	121.607250	122.228750		[silence]	[silence]
sw3681A-ms98-a-0033	A.35	122.228750	122.483875	<SUB>	I	i-
sw3681A-ms98-a-0033	A.35	122.483875	122.643875		I	i
sw3681A-ms98-a-0033	A.35	122.643875	122.923875		play	play
sw3681A-ms98-a-0033	A.35	122.923875	123.103875		that	that
sw3681A-ms98-a-0033	A.35	123.103875	123.353875		about	about
sw3681A-ms98-a-0033	A.35	123.353875	123.633875		six	six
sw3681A-ms98-a-0033	A.35	123.633875	124.003875		times	times
sw3681A-ms98-a-0033	A.35	124.003875	124.033875		a	a
sw3681A-ms98-a-0033	A.35	124.033875	124.333875		year	year
sw3681A-ms98-a-0033	A.35	124.333875	124.443875		and	and
sw3681A-ms98-a-0033	A.35	124.443875	124.653875		every	every
sw3681A-ms98-a-0033	A.35	124.653875	124.943875		year	year
sw3681A-ms98-a-0033	A.35	124.943875	125.073875		I	i
sw3681A-ms98-a-0033	A.35	125.073875	125.283875		hang	hang
sw3681A-ms98-a-0033	A.35	125.283875	125.413875		my	my
sw3681A-ms98-a-0033	A.35	125.413875	125.713750		bag	bag
sw3681A-ms98-a-0033	A.35	125.713750	125.953750		up	up
sw3681A-ms98-a-0033	A.35	125.953750	126.159000	<DEL>	---	uh
sw3681A-ms98-a-0033	A.35	126.159000	126.423125	<DEL>	---	i[f]-
sw3681A-ms98-a-0033	A.35	126.423125	126.593875		if	if
sw3681A-ms98-a-0033	A.35	126.593875	126.693875		I	i
sw3681A-ms98-a-0033	A.35	126.693875	126.933875		get	get
sw3681A-ms98-a-0033	A.35	126.933875	127.123875		that	that
sw3681A-ms98-a-0033	A.35	127.123875	127.253875	<SUB>	five	fi[ve]-
sw3681A-ms98-a-0033	A.35	127.253875	127.393875		or	or
sw3681A-ms98-a-0033	A.35	127.393875	127.763875		six	six
sw3681A-ms98-a-0033	A.35	127.763875	127.973875		and	and
sw3681A-ms98-a-0033	A.35	127.973875	128.063875		I	i
sw3681A-ms98-a-0033	A.35	128.063875	128.593875		swear	swear
sw3681A-ms98-a-0033	A.35	128.593875	128.867625		[silence]	[silence]
sw3681A-ms98-a-0034	A.35	128.867625	129.176000		[silence]	[silence]
sw3681A-ms98-a-0034	A.35	129.176000	129.477625		swear	swear
sw3681A-ms98-a-0034	A.35	129.477625	129.687625		that	that
sw3681A-ms98-a-0034	A.35	129.687625	129.907625		game	game
sw3681A-ms98-a-0034	A.35	129.907625	130.117625		off	off
sw3681A-ms98-a-0034	A.35	130.117625	130.247625		for	for
sw3681A-ms98-a-0034	A.35	130.247625	130.517625		another	another
sw3681A-ms98-a-0034	A.35	130.517625	130.757625		year	year
sw3681A-ms98-a-0034	A.35	130.757625	130.887625		but	but
sw3681A-ms98-a-0034	A.35	130.887625	130.937625		I	i
sw3681A-ms98-a-0034	A.35	130.937625	131.187625		always	always
sw3681A-ms98-a-0034	A.35	131.187625	131.277625		go	go
sw3681A-ms98-a-0034	A.35	131.277625	131.527625		back	back
sw3681A-ms98-a-0034	A.35	131.527625	131.647625		to	to
sw3681A-ms98-a-0034	A.35	131.647625	131.956625		it	it
sw3681A-ms98-a-0034	A.37	131.956625	132.194500		[silence]	[silence]
sw3681A-ms98-a-0035	A.37	132.194500	133.302000		[silence]	[silence]
sw3681A-ms98-a-0035	A.37	133.302000	134.222750		[laughter]	[laughter]
sw3681A-ms98-a-0035	A.37	134.222750	135.613625		[silence]	[silence]
sw3681A-ms98-a-0036	A.37	135.613625	144.348125		[silence]	[silence]
sw3681A-ms98-a-0037	A.37	144.348125	144.558125		[silence]	[silence]
sw3681A-ms98-a-0037	A.37	144.558125	145.488125		[laughter]	[laughter]
sw3681A-ms98-a-0037	A.37	145.488125	145.575250		[silence]	[silence]
sw3681A-ms98-a-0038	A.37	145.575250	149.725500		[silence]	[silence]
sw3681A-ms98-a-0039	A.37	149.725500	150.198250		[silence]	[silence]
sw3681A-ms98-a-0039	A.37	150.198250	150.458125		I	i
sw3681A-ms98-a-0039	A.37	150.458125	150.845500		understand	understand
sw3681A-ms98-a-0039	A.37	150.845500	151.005500		that	that
sw3681A-ms98-a-0039	A.39	151.005500	151.467625		[silence]	[silence]
sw3681A-ms98-a-0040	A.39	151.467625	158.597875		[silence]	[silence]
sw3681A-ms98-a-0041	A.39	158.597875	159.057875		[silence]	[silence]
sw3681A-ms98-a-0041	A.39	159.057875	159.167875		Well	well
sw3681A-ms98-a-0041	A.39	159.167875	159.267875		you	you
sw3681A-ms98-a-0041	A.39	159.267875	159.427875		do	do
sw3681A-ms98-a-0041	A.39	159.427875	159.697875		lots	lots
sw3681A-ms98-a-0041	A.39	159.697875	159.757875		of	of
sw3681A-ms98-a-0041	A.39	159.757875	160.131875		stuff	stuff
sw3681A-ms98-a-0041	A.43	160.131875	160.544625		[silence]	[silence]
sw3681A-ms98-a-0042	A.43	160.544625	165.303625		[silence]	[silence]
sw3681A-ms98-a-0043	A.43	165.303625	165.809625		[silence]	[silence]
sw3681A-ms98-a-0043	A.43	165.809625	166.374750		[laughter]	[laughter]
sw3681A-ms98-a-0043	A.43	166.374750	166.847750		[silence]	[silence]
sw3681A-ms98-a-0044	A.43	166.847750	174.097875		[silence]	[silence]
sw3681A-ms98-a-0045	A.43	174.097875	174.557875		[silence]	[silence]
sw3681A-ms98-a-0045	A.43	174.557875	174.972500		Gosh	gosh
sw3681A-ms98-a-0045	A.43	174.972500	175.227875		I	i
sw3681A-ms98-a-0045	A.43	175.227875	175.427875		come	come
sw3681A-ms98-a-0045	A.43	175.427875	175.607875		up	up
sw3681A-ms98-a-0045	A.43	175.607875	175.747875		there	there
sw3681A-ms98-a-0045	A.43	175.747875	175.807875		I'll	i'll
sw3681A-ms98-a-0045	A.43	175.807875	175.897875		have	have
sw3681A-ms98-a-0045	A.43	175.897875	175.957875		to	to
sw3681A-ms98-a-0045	A.43	175.957875	176.227875		stop	stop
sw3681A-ms98-a-0045	A.43	176.227875	176.447875		by	by
sw3681A-ms98-a-0045	A.43	176.447875	176.547875		and	and
sw3681A-ms98-a-0045	A.43	176.547875	176.707875		have	have
sw3681A-ms98-a-0045	A.43	176.707875	176.849750	<DEL>	---	so[me]-
sw3681A-ms98-a-0045	A.43	176.849750	177.077875		try	try
sw3681A-ms98-a-0045	A.43	177.077875	177.187875	<DEL>	---	your
sw3681A-ms98-a-0045	A.43	177.187875	177.347875		some	some
sw3681A-ms98-a-0045	A.43	177.347875	177.407875		of	of
sw3681A-ms98-a-0045	A.43	177.407875	177.587875		your	your
sw3681A-ms98-a-0045	A.43	177.587875	177.952000	<SUB>	baking	bakery
sw3681A-ms98-a-0045	A.45	177.952000	178.477875		[silence]	[silence]
sw3681A-ms98-a-0046	A.45	178.477875	179.007875		[silence]	[silence]
sw3681A-ms98-a-0046	A.45	179.007875	179.147875	<DEL>	---	i-
sw3681A-ms98-a-0046	A.45	179.147875	179.297875		I	i
sw3681A-ms98-a-0046	A.45	179.297875	179.607875		call	call
sw3681A-ms98-a-0046	A.45	179.607875	179.757875		on	on
sw3681A-ms98-a-0046	A.45	179.757875	180.057875		people	people
sw3681A-ms98-a-0046	A.45	180.057875	180.361375		in	in
sw3681A-ms98-a-0046	A.45	180.361375	180.625750	<DEL>	---	i
sw3681A-ms98-a-0046	A.45	180.625750	180.799000		[silence]	[silence]
sw3681A-ms98-a-0046	A.45	180.799000	181.077875		My	my
sw3681A-ms98-a-0046	A.45	181.077875	181.537875		business	business
sw3681A-ms98-a-0046	A.45	181.537875	181.807875		is	is
sw3681A-ms98-a-0046	A.45	181.807875	182.198000		uh	uh
sw3681A-ms98-a-0046	A.45	182.198000	182.540750		[silence]	[silence]
sw3681A-ms98-a-0046	A.45	182.540750	182.887875		machine	machine
sw3681A-ms98-a-0046	A.45	182.887875	183.197875		tool	tool
sw3681A-ms98-a-0046	A.45	183.197875	183.647875		sales	sales
sw3681A-ms98-a-0046	A.45	183.647875	183.767875		and	and
sw3681A-ms98-a-0046	A.45	183.767875	183.847875		I	i
sw3681A-ms98-a-0046	A.45	183.847875	183.957875		have	have
sw3681A-ms98-a-0046	A.45	183.957875	184.219875		some	some
sw3681A-ms98-a-0046	A.45	184.219875	184.758500		[silence]	[silence]
sw3681A-ms98-a-0046	A.45	184.758500	184.927875	<SUB>	I	i-
sw3681A-ms98-a-0046	A.45	184.927875	185.057875		I	i
sw3681A-ms98-a-0046	A.45	185.057875	185.347875		cover	cover
sw3681A-ms98-a-0046	A.45	185.347875	185.767875		Texas	Texas
sw3681A-ms98-a-0046	A.45	185.767875	185.857875		and	and
sw3681A-ms98-a-0046	A.45	185.857875	186.382625		Oklahoma	Oklahoma
sw3681A-ms98-a-0046	A.47	186.382625	187.011875		[silence]	[silence]
sw3681A-ms98-a-0047	A.47	187.011875	187.494750		[silence]	[silence]
sw3681A-ms98-a-0047	A.47	187.494750	187.871875		So	so
sw3681A-ms98-a-0047	A.47	187.871875	188.125625		I	i
sw3681A-ms98-a-0047	A.47	188.125625	188.272500		[silence]	[silence]
sw3681A-ms98-a-0047	A.47	188.272500	188.421875		what	what
sw3681A-ms98-a-0047	A.47	188.421875	188.511875		I	i
sw3681A-ms98-a-0047	A.47	188.511875	188.781875		said	said
sw3681A-ms98-a-0047	A.47	188.781875	188.981875		that	that
sw3681A-ms98-a-0047	A.47	188.981875	189.051875		I	i
sw3681A-ms98-a-0047	A.47	189.051875	189.391875		wasn't	wasn't
sw3681A-ms98-a-0047	A.47	189.391875	189.601875		being	being
sw3681A-ms98-a-0047	A.47	189.601875	189.821875		real	real
sw3681A-ms98-a-0047	A.47	189.821875	190.451875		facetious	facetious
sw3681A-ms98-a-0047	A.47	190.451875	190.781875		about	about
sw3681A-ms98-a-0047	A.47	190.781875	190.961875		that	that
sw3681A-ms98-a-0047	A.47	190.961875	191.091875	<DEL>	---	i-
sw3681A-ms98-a-0047	A.47	191.091875	191.251875		I	i
sw3681A-ms98-a-0047	A.47	191.251875	191.451875		got	got
sw3681A-ms98-a-0047	A.47	191.451875	191.851875		customers	customers
sw3681A-ms98-a-0047	A.47	191.851875	191.911875		in	in
sw3681A-ms98-a-0047	A.47	191.911875	192.341875		Oklahoma	Oklahoma
sw3681A-ms98-a-0047	A.47	192.341875	192.631875		City	City
sw3681A-ms98-a-0047	A.47	192.631875	192.791875		and	and
sw3681A-ms98-a-0047	A.47	192.791875	193.191875		Tulsa	Tulsa
sw3681A-ms98-a-0047	A.47	193.191875	193.461875		and	and
sw3681A-ms98-a-0047	A.47	193.461875	193.831875		[silence]	[silence]
sw3681A-ms98-a-0047	A.47	193.831875	194.161875		Perry	Perry
sw3681A-ms98-a-0047	A.47	194.161875	194.721875		Oklahoma	Oklahoma
sw3681A-ms98-a-0047	A.49	194.721875	194.931875		and	and
sw3681A-ms98-a-0047	A.49	194.931875	195.221875		[silence]	[silence]
sw3681A-ms98-a-0047	A.49	195.221875	195.591875		Eda	EDA
sw3681A-ms98-a-0047	A.49	195.591875	195.870000		and	and
sw3681A-ms98-a-0047	A.49	195.870000	196.081875		all	all
sw3681A-ms98-a-0047	A.49	196.081875	196.253125		that	that
sw3681A-ms98-a-0047	A.49	196.253125	196.505500		[silence]	[silence]
sw3681A-ms98-a-0047	A.49	196.505500	196.651875		all	all
sw3681A-ms98-a-0047	A.49	196.651875	196.821875		that	that
sw3681A-ms98-a-0047	A.49	196.821875	197.094375		way	way
sw3681A-ms98-a-0047	A.51	197.094375	197.537875		[silence]	[silence]
sw3681A-ms98-a-0048	A.51	197.537875	198.653875		[silence]	[silence]
sw3681A-ms98-a-0049	A.51	198.653875	199.153875		[silence]	[silence]
sw3681A-ms98-a-0049	A.51	199.153875	199.722250		Yes	yes
sw3681A-ms98-a-0049	A.51	199.722250	200.093875		yes	yes
sw3681A-ms98-a-0049	A.51	200.093875	200.522500		I	i
sw3681A-ms98-a-0049	A.51	200.522500	200.813875		about	about
sw3681A-ms98-a-0049	A.51	200.813875	201.073875	<CONT>	thirty-three	thirty
sw3681A-ms98-a-0049	A.51	201.073875	201.333875	<CONT>	+++	three
sw3681A-ms98-a-0049	A.51	201.333875	201.733875		thousand	thousand
sw3681A-ms98-a-0049	A.51	201.733875	202.043875		miles	miles
sw3681A-ms98-a-0049	A.51	202.043875	202.083875		a	a
sw3681A-ms98-a-0049	A.51	202.083875	202.373875		year	year
sw3681A-ms98-a-0049	A.51	202.373875	202.637875		So	so
sw3681A-ms98-a-0049	A.53	202.637875	203.113125		[silence]	[silence]
sw3681A-ms98-a-0050	A.53	203.113125	205.930000		[silence]	[silence]
sw3681A-ms98-a-0051	A.53	205.930000	206.369875		[silence]	[silence]
sw3681A-ms98-a-0051	A.53	206.369875	206.549875		[laughter]	[laughter]
sw3681A-ms98-a-0051	A.53	206.549875	207.016375		[silence]	[silence]
sw3681A-ms98-a-0052	A.53	207.016375	207.291750		[silence]	[silence]
sw3681A-ms98-a-0052	A.53	207.291750	207.564875		Well	well
sw3681A-ms98-a-0052	A.53	207.564875	207.757750		I	i
sw3681A-ms98-a-0052	A.53	207.757750	208.390000		usually	usually
sw3681A-ms98-a-0052	A.53	208.390000	208.849500		[silence]	[silence]
sw3681A-ms98-a-0052	A.53	208.849500	209.046375		see	see
sw3681A-ms98-a-0052	A.53	209.046375	209.196375		we	we
sw3681A-ms98-a-0052	A.53	209.196375	209.396375		we	we
sw3681A-ms98-a-0052	A.53	209.396375	209.626375		have	have
sw3681A-ms98-a-0052	A.53	209.626375	209.926375		our	our
sw3681A-ms98-a-0052	A.53	209.926375	210.164250	<DEL>	---	uh
sw3681A-ms98-a-0052	A.53	210.164250	210.315000		[silence]	[silence]
sw3681A-ms98-a-0052	A.53	210.315000	210.436375		our	our
sw3681A-ms98-a-0052	A.53	210.436375	210.736375		band	band
sw3681A-ms98-a-0052	A.53	210.736375	211.136375		practice	practice
sw3681A-ms98-a-0052	A.53	211.136375	211.206375		is	is
sw3681A-ms98-a-0052	A.53	211.206375	211.336375		on	on
sw3681A-ms98-a-0052	A.53	211.336375	211.637625		Monday	Monday
sw3681A-ms98-a-0052	A.53	211.637625	212.091375		night	night
sw3681A-ms98-a-0052	A.53	212.091375	212.551000		[silence]	[silence]
sw3681A-ms98-a-0052	A.53	212.551000	212.686375		and	and
sw3681A-ms98-a-0052	A.53	212.686375	212.896375		during	during
sw3681A-ms98-a-0052	A.53	212.896375	212.976375		the	the
sw3681A-ms98-a-0052	A.53	212.976375	213.356375		summer	summer
sw3681A-ms98-a-0052	A.53	213.356375	213.646375		we	we
sw3681A-ms98-a-0052	A.53	213.646375	213.876250		uh	uh
sw3681A-ms98-a-0052	A.53	213.876250	214.358875		[silence]	[silence]
sw3681A-ms98-a-0053	A.53	214.358875	214.828875		[silence]	[silence]
sw3681A-ms98-a-0053	A.53	214.828875	214.918875		we	we
sw3681A-ms98-a-0053	A.53	214.918875	215.038875		have	have
sw3681A-ms98-a-0053	A.53	215.038875	215.528875		concerts	concerts
sw3681A-ms98-a-0053	A.53	215.528875	215.708875		every	every
sw3681A-ms98-a-0053	A.53	215.708875	215.948875		Monday	Monday
sw3681A-ms98-a-0053	A.53	215.948875	216.138875		night	night
sw3681A-ms98-a-0053	A.53	216.138875	216.198875		in	in
sw3681A-ms98-a-0053	A.53	216.198875	216.258875		the	the
sw3681A-ms98-a-0053	A.53	216.258875	216.822000		park	park
sw3681A-ms98-a-0053	A.53	216.822000	217.338875		and	and
sw3681A-ms98-a-0053	A.53	217.338875	217.738875		uh	uh
sw3681A-ms98-a-0053	A.53	217.738875	217.898875		we	we
sw3681A-ms98-a-0053	A.53	217.898875	218.038875		we	we
sw3681A-ms98-a-0053	A.53	218.038875	218.439750		have	have
sw3681A-ms98-a-0053	A.53	218.439750	219.034875		[silence]	[silence]
sw3681A-ms98-a-0053	A.53	219.034875	219.078875		you	you
sw3681A-ms98-a-0053	A.53	219.078875	219.158875		know	know
sw3681A-ms98-a-0053	A.53	219.158875	219.478875		some	some
sw3681A-ms98-a-0053	A.53	219.478875	220.038875		concerts	concerts
sw3681A-ms98-a-0053	A.53	220.038875	220.198875		during	during
sw3681A-ms98-a-0053	A.53	220.198875	220.258875		the	the
sw3681A-ms98-a-0053	A.53	220.258875	220.608875		year	year
sw3681A-ms98-a-0053	A.53	220.608875	220.771750		and	and
sw3681A-ms98-a-0053	A.53	220.771750	220.866000		[silence]	[silence]
sw3681A-ms98-a-0053	A.53	220.866000	220.938875		you	you
sw3681A-ms98-a-0053	A.53	220.938875	221.146875		know	know
sw3681A-ms98-a-0053	A.53	221.146875	221.840000		[silence]	[silence]
sw3681A-ms98-a-0053	A.53	221.840000	222.158875		various	various
sw3681A-ms98-a-0053	A.53	222.158875	222.638875		people	people
sw3681A-ms98-a-0053	A.53	222.638875	222.638875	<INS>	in	---
sw3681A-ms98-a-0053	A.53	222.638875	222.638875	<INS>	the	---
sw3681A-ms98-a-0053	A.53	222.638875	223.181375		[silence]	[silence]
sw3681A-ms98-a-0054	A.53	223.181375	223.774375		[silence]	[silence]
sw3681A-ms98-a-0054	A.53	223.774375	224.371375		communities	communities
sw3681A-ms98-a-0054	A.53	224.371375	224.541375		want	want
sw3681A-ms98-a-0054	A.53	224.541375	224.631375		us	us
sw3681A-ms98-a-0054	A.53	224.631375	224.731375		to	to
sw3681A-ms98-a-0054	A.53	224.731375	224.989000		play	play
sw3681A-ms98-a-0054	A.53	224.989000	225.305375		for	for
sw3681A-ms98-a-0054	A.53	225.305375	225.701375		things	things
sw3681A-ms98-a-0054	A.53	225.701375	225.861375		but	but
sw3681A-ms98-a-0054	A.53	225.861375	226.031375		those	those
sw3681A-ms98-a-0054	A.53	226.031375	226.111375		are	are
sw3681A-ms98-a-0054	A.53	226.111375	226.451375		usually	usually
sw3681A-ms98-a-0054	A.53	226.451375	226.551375		on	on
sw3681A-ms98-a-0054	A.53	226.551375	226.611375		the	the
sw3681A-ms98-a-0054	A.53	226.611375	227.101375		weekend	weekend
sw3681A-ms98-a-0054	A.53	227.101375	227.473125		so	so
sw3681A-ms98-a-0054	A.53	227.473125	228.136125		[silence]	[silence]
sw3681A-ms98-a-0054	A.53	228.136125	228.261375		that	that
sw3681A-ms98-a-0054	A.53	228.261375	228.471375		isn't	isn't
sw3681A-ms98-a-0054	A.53	228.471375	228.571375		too	too
sw3681A-ms98-a-0054	A.53	228.571375	228.907875		bad	bad
sw3681A-ms98-a-0054	A.55	228.907875	229.366500		[silence]	[silence]
sw3681A-ms98-a-0055	A.55	229.366500	230.493250		[silence]	[silence]
sw3681A-ms98-a-0056	A.55	230.493250	230.973250		[silence]	[silence]
sw3681A-ms98-a-0056	A.55	230.973250	231.253250		Well	well
sw3681A-ms98-a-0056	A.55	231.253250	231.363250		we	we
sw3681A-ms98-a-0056	A.55	231.363250	231.606375		got	got
sw3681A-ms98-a-0056	A.55	231.606375	232.013250		uh	uh
sw3681A-ms98-a-0056	A.55	232.013250	232.193250		pretty	pretty
sw3681A-ms98-a-0056	A.55	232.193250	232.363250		good	good
sw3681A-ms98-a-0056	A.55	232.363250	232.733250		size	size
sw3681A-ms98-a-0056	A.55	232.733250	233.043250		band	band
sw3681A-ms98-a-0056	A.55	233.043250	233.183250		Not	not
sw3681A-ms98-a-0056	A.55	233.183250	233.473250		everybody	everybody
sw3681A-ms98-a-0056	A.55	233.473250	233.833250		shows	shows
sw3681A-ms98-a-0056	A.55	233.833250	234.103250		up	up
sw3681A-ms98-a-0056	A.55	234.103250	234.303250		but	but
sw3681A-ms98-a-0056	A.55	234.303250	234.433250		if	if
sw3681A-ms98-a-0056	A.55	234.433250	234.843250		everyone	everyone
sw3681A-ms98-a-0056	A.55	234.843250	235.083250		did	did
sw3681A-ms98-a-0056	A.55	235.083250	235.243250		we'd	we'd
sw3681A-ms98-a-0056	A.55	235.243250	235.583250		probably	probably
sw3681A-ms98-a-0056	A.55	235.583250	235.823250		have	have
sw3681A-ms98-a-0056	A.55	235.823250	236.033250		over	over
sw3681A-ms98-a-0056	A.55	236.033250	236.063250		a	a
sw3681A-ms98-a-0056	A.55	236.063250	236.373250		hundred	hundred
sw3681A-ms98-a-0056	A.55	236.373250	236.533875		but	but
sw3681A-ms98-a-0056	A.57	236.533875	237.233250		[silence]	[silence]
sw3681A-ms98-a-0056	A.57	237.233250	237.313250		we	we
sw3681A-ms98-a-0056	A.57	237.313250	237.513250		only	only
sw3681A-ms98-a-0056	A.57	237.513250	237.813250		average	average
sw3681A-ms98-a-0056	A.57	237.813250	238.063250		about	about
sw3681A-ms98-a-0056	A.57	238.063250	238.462000		forty	forty
sw3681A-ms98-a-0056	A.57	238.462000	238.706750		to	to
sw3681A-ms98-a-0056	A.57	238.706750	238.903250		[silence]	[silence]
sw3681A-ms98-a-0056	A.57	238.903250	239.193250		fifty	fifty
sw3681A-ms98-a-0056	A.57	239.193250	239.663250		people	people
sw3681A-ms98-a-0056	A.57	239.663250	239.796125		a	a
sw3681A-ms98-a-0056	A.57	239.796125	239.995750		[silence]	[silence]
sw3681A-ms98-a-0056	A.57	239.995750	240.103250		you	you
sw3681A-ms98-a-0056	A.57	240.103250	240.233250		know	know
sw3681A-ms98-a-0056	A.57	240.233250	240.370625	<DEL>	---	a
sw3681A-ms98-a-0056	A.57	240.370625	240.747250		[silence]	[silence]
sw3681A-ms98-a-0056	A.57	240.747250	241.223250		usually	usually
sw3681A-ms98-a-0056	A.59	241.223250	241.925250		[silence]	[silence]
sw3681A-ms98-a-0057	A.59	241.925250	242.648375		[silence]	[silence]
sw3681A-ms98-a-0057	A.59	242.648375	242.802750	<DEL>	---	but
sw3681A-ms98-a-0057	A.59	242.802750	242.938250	<DEL>	---	uh
sw3681A-ms98-a-0057	A.59	242.938250	243.560250		[silence]	[silence]
sw3681A-ms98-a-0058	A.59	243.560250	244.280250		[silence]	[silence]
sw3681A-ms98-a-0058	A.59	244.280250	244.670750		Yeah	yeah
sw3681A-ms98-a-0058	A.61	244.670750	245.000000		[silence]	[silence]
sw3681A-ms98-a-0059	A.61	245.000000	246.900875		[silence]	[silence]
sw3681A-ms98-a-0060	A.61	246.900875	247.380875		[silence]	[silence]
sw3681A-ms98-a-0060	A.61	247.380875	247.550125		Oh	oh
sw3681A-ms98-a-0060	A.61	247.550125	247.770875		no	no
sw3681A-ms98-a-0060	A.61	247.770875	247.970875		no	no
sw3681A-ms98-a-0060	A.61	247.970875	248.180875		This	this
sw3681A-ms98-a-0060	A.61	248.180875	248.270875		is	is
sw3681A-ms98-a-0060	A.61	248.270875	248.400875		a	a
sw3681A-ms98-a-0060	A.61	248.400875	248.590875		it's	it's
sw3681A-ms98-a-0060	A.61	248.590875	248.640875		a	a
sw3681A-ms98-a-0060	A.61	248.640875	249.130875		concert	concert
sw3681A-ms98-a-0060	A.61	249.130875	249.500875		band	band
sw3681A-ms98-a-0060	A.61	249.500875	249.760875		and	and
sw3681A-ms98-a-0060	A.61	249.760875	250.017750		uh	uh
sw3681A-ms98-a-0060	A.61	250.017750	250.643000		[silence]	[silence]
sw3681A-ms98-a-0060	A.61	250.643000	250.720875		we	we
sw3681A-ms98-a-0060	A.61	250.720875	250.900875		have	have
sw3681A-ms98-a-0060	A.61	250.900875	250.970875		a	a
sw3681A-ms98-a-0060	A.61	250.970875	251.200875		lot	lot
sw3681A-ms98-a-0060	A.61	251.200875	251.365375	<SUB>	of	o[f]-
sw3681A-ms98-a-0060	A.61	251.365375	251.540875	<SUB>	I	i-
sw3681A-ms98-a-0060	A.61	251.540875	251.850750		I	i
sw3681A-ms98-a-0060	A.61	251.850750	252.272625		[silence]	[silence]
sw3681A-ms98-a-0060	A.61	252.272625	252.450875		don't	don't
sw3681A-ms98-a-0060	A.61	252.450875	252.780875		pretend	pretend
sw3681A-ms98-a-0060	A.61	252.780875	252.840875		to	to
sw3681A-ms98-a-0060	A.61	252.840875	252.980875		be	be
sw3681A-ms98-a-0060	A.61	252.980875	253.220875		that	that
sw3681A-ms98-a-0060	A.61	253.220875	253.470875		good	good
sw3681A-ms98-a-0060	A.61	253.470875	253.630875		but	but
sw3681A-ms98-a-0060	A.61	253.630875	253.800875		there's	there's
sw3681A-ms98-a-0060	A.61	253.800875	253.840875		a	a
sw3681A-ms98-a-0060	A.61	253.840875	254.000875		lot	lot
sw3681A-ms98-a-0060	A.61	254.000875	254.070875		of	of
sw3681A-ms98-a-0060	A.61	254.070875	254.440875		people	people
sw3681A-ms98-a-0060	A.61	254.440875	254.680875		that	that
sw3681A-ms98-a-0060	A.61	254.680875	254.951750		uh	uh
sw3681A-ms98-a-0060	A.61	254.951750	255.486625		[silence]	[silence]
sw3681A-ms98-a-0060	A.61	255.486625	255.560875		you	you
sw3681A-ms98-a-0060	A.61	255.560875	255.670875		know	know
sw3681A-ms98-a-0060	A.61	255.670875	255.978250	<SUB>	are	our
sw3681A-ms98-a-0060	A.61	255.978250	256.481875		[silence]	[silence]
sw3681A-ms98-a-0060	A.61	256.481875	256.755375	<DEL>	---	uh
sw3681A-ms98-a-0060	A.61	256.755375	257.126375		[silence]	[silence]
sw3681A-ms98-a-0060	A.61	257.126375	257.380875		band	band
sw3681A-ms98-a-0060	A.61	257.380875	257.780875		directors	directors
sw3681A-ms98-a-0060	A.61	257.780875	257.900875		at	at
sw3681A-ms98-a-0060	A.61	257.900875	258.560875		schools	schools
sw3681A-ms98-a-0060	A.61	258.560875	258.700875		or	or
sw3681A-ms98-a-0060	A.61	258.700875	259.040875		have	have
sw3681A-ms98-a-0060	A.61	259.040875	259.460875		been	been
sw3681A-ms98-a-0060	A.61	259.460875	259.720875		or	or
sw3681A-ms98-a-0060	A.61	259.720875	259.750875		uh	uh
sw3681A-ms98-a-0060	A.61	259.750875	260.014125		you	you
sw3681A-ms98-a-0060	A.61	260.014125	260.653750		[silence]	[silence]
sw3681A-ms98-a-0060	A.61	260.653750	261.029875		know	know
sw3681A-ms98-a-0060	A.61	261.029875	261.340375		[silence]	[silence]
sw3681A-ms98-a-0061	A.61	261.340375	261.700375		[silence]	[silence]
sw3681A-ms98-a-0061	A.61	261.700375	261.951000		there	there
sw3681A-ms98-a-0061	A.61	261.951000	262.220375		some	some
sw3681A-ms98-a-0061	A.61	262.220375	262.480375		people	people
sw3681A-ms98-a-0061	A.61	262.480375	262.590375		that	that
sw3681A-ms98-a-0061	A.61	262.590375	262.700375		are	are
sw3681A-ms98-a-0061	A.61	262.700375	263.203625		actually	actually
sw3681A-ms98-a-0061	A.61	263.203625	263.708375		[silence]	[silence]
sw3681A-ms98-a-0061	A.61	263.708375	263.970375	<DEL>	---	mu[sic]-
sw3681A-ms98-a-0061	A.61	263.970375	264.320375		music	music
sw3681A-ms98-a-0061	A.61	264.320375	264.810375		majors	majors
sw3681A-ms98-a-0061	A.61	264.810375	264.890375		They	they
sw3681A-ms98-a-0061	A.61	264.890375	265.070375		don't	don't
sw3681A-ms98-a-0061	A.61	265.070375	265.490375		necessarily	necessarily
sw3681A-ms98-a-0061	A.61	265.490375	265.900375		follow	follow
sw3681A-ms98-a-0061	A.61	265.900375	266.159500		that	that
sw3681A-ms98-a-0061	A.61	266.159500	266.934750	<CONT>	any	anymore
sw3681A-ms98-a-0061	A.61	266.934750	266.934750	<CONT>	more	+++
sw3681A-ms98-a-0061	A.61	266.934750	267.021375		you	you
sw3681A-ms98-a-0061	A.61	267.021375	267.150375		know	know
sw3681A-ms98-a-0061	A.61	267.150375	267.310375		that	that
sw3681A-ms98-a-0061	A.61	267.310375	267.500375		isn't	isn't
sw3681A-ms98-a-0061	A.61	267.500375	267.830375		necessarily	necessarily
sw3681A-ms98-a-0061	A.61	267.830375	267.940375		their	their
sw3681A-ms98-a-0061	A.61	267.940375	268.410375		career	career
sw3681A-ms98-a-0061	A.61	268.410375	268.700375		but	but
sw3681A-ms98-a-0061	A.61	268.700375	268.931750		uh	uh
sw3681A-ms98-a-0061	A.61	268.931750	269.236250		[silence]	[silence]
sw3681A-ms98-a-0062	A.61	269.236250	269.586250		[silence]	[silence]
sw3681A-ms98-a-0062	A.61	269.586250	269.676250		we	we
sw3681A-ms98-a-0062	A.61	269.676250	269.836250		have	have
sw3681A-ms98-a-0062	A.61	269.836250	270.206250		some	some
sw3681A-ms98-a-0062	A.61	270.206250	270.796250		extremely	extremely
sw3681A-ms98-a-0062	A.61	270.796250	271.143125		good	good
sw3681A-ms98-a-0062	A.61	271.143125	271.331375		[silence]	[silence]
sw3681A-ms98-a-0062	A.61	271.331375	271.746250		talent	talent
sw3681A-ms98-a-0062	A.61	271.746250	271.856250		in	in
sw3681A-ms98-a-0062	A.61	271.856250	272.036250		there	there
sw3681A-ms98-a-0062	A.61	272.036250	272.356250		and	and
sw3681A-ms98-a-0062	A.61	272.356250	272.601375		uh	uh
sw3681A-ms98-a-0062	A.61	272.601375	273.181750		[silence]	[silence]
sw3681A-ms98-a-0063	A.61	273.181750	273.776500		[silence]	[silence]
sw3681A-ms98-a-0063	A.61	273.776500	273.951750		as	as
sw3681A-ms98-a-0063	A.61	273.951750	274.031750		a	a
sw3681A-ms98-a-0063	A.61	274.031750	274.301750		rule	rule
sw3681A-ms98-a-0063	A.61	274.301750	274.513625		it	it
sw3681A-ms98-a-0063	A.61	274.513625	275.221750		[silence]	[silence]
sw3681A-ms98-a-0063	A.61	275.221750	275.501750		sounds	sounds
sw3681A-ms98-a-0063	A.61	275.501750	275.741750		pretty	pretty
sw3681A-ms98-a-0063	A.61	275.741750	276.196000		decent	decent
sw3681A-ms98-a-0063	A.61	276.196000	276.500875		so	[laughter-so]
sw3681A-ms98-a-0063	A.61	276.500875	277.395125		[silence]	[silence]
sw3681A-ms98-a-0063	A.61	277.395125	277.612375		It's	it's
sw3681A-ms98-a-0063	A.61	277.612375	277.838500		fun	fun
sw3681A-ms98-a-0063	A.63	277.838500	278.324000		[silence]	[silence]
sw3681A-ms98-a-0064	A.63	278.324000	284.374750		[silence]	[silence]
sw3681A-ms98-a-0065	A.63	284.374750	285.874000		[silence]	[silence]
sw3681A-ms98-a-0065	A.63	285.874000	286.274750		[laughter]	[laughter]
sw3681A-ms98-a-0065	A.63	286.274750	286.643875		Well	well
sw3681A-ms98-a-0065	A.63	286.643875	286.749375		[silence]	[silence]
sw3681A-ms98-a-0065	A.63	286.749375	286.888750		I	i
sw3681A-ms98-a-0065	A.63	286.888750	286.994750		don't	don't
sw3681A-ms98-a-0065	A.63	286.994750	287.054750		know	know
sw3681A-ms98-a-0065	A.63	287.054750	287.154750		if	if
sw3681A-ms98-a-0065	A.63	287.154750	287.244750		I	i
sw3681A-ms98-a-0065	A.63	287.244750	287.394750		have	have
sw3681A-ms98-a-0065	A.63	287.394750	287.554750		any	any
sw3681A-ms98-a-0065	A.63	287.554750	287.624750		or	or
sw3681A-ms98-a-0065	A.63	287.624750	287.824750		not	not
sw3681A-ms98-a-0065	A.63	287.824750	288.050375		I	i
sw3681A-ms98-a-0065	A.63	288.050375	288.254750		I've	i've
sw3681A-ms98-a-0065	A.63	288.254750	288.514750		always	always
sw3681A-ms98-a-0065	A.63	288.514750	288.824750		enjoyed	enjoyed
sw3681A-ms98-a-0065	A.63	288.824750	288.914750		it	it
sw3681A-ms98-a-0065	A.63	288.914750	289.076500		I	i
sw3681A-ms98-a-0065	A.63	289.076500	289.739375		[silence]	[silence]
sw3681A-ms98-a-0065	A.63	289.739375	289.914750		sing	sing
sw3681A-ms98-a-0065	A.63	289.914750	289.994750		in	in
sw3681A-ms98-a-0065	A.63	289.994750	290.054750		a	a
sw3681A-ms98-a-0065	A.63	290.054750	290.314750		church	church
sw3681A-ms98-a-0065	A.63	290.314750	290.664750		choir	choir
sw3681A-ms98-a-0065	A.63	290.664750	290.814750		on	on
sw3681A-ms98-a-0065	A.63	290.814750	291.124750		Wednesday	Wednesday
sw3681A-ms98-a-0065	A.63	291.124750	291.454750		nights	nights
sw3681A-ms98-a-0065	A.63	291.454750	291.544750		when	when
sw3681A-ms98-a-0065	A.63	291.544750	291.614750		I'm	i'm
sw3681A-ms98-a-0065	A.63	291.614750	292.024750		around	around
sw3681A-ms98-a-0065	A.63	292.024750	292.330875		and	and
sw3681A-ms98-a-0065	A.63	292.330875	292.797125		[silence]	[silence]
sw3681A-ms98-a-0066	A.63	292.797125	293.267125		[silence]	[silence]
sw3681A-ms98-a-0066	A.63	293.267125	293.547125		play	play
sw3681A-ms98-a-0066	A.63	293.547125	293.607125		in	in
sw3681A-ms98-a-0066	A.63	293.607125	293.667125		the	the
sw3681A-ms98-a-0066	A.63	293.667125	293.927125		band	band
sw3681A-ms98-a-0066	A.63	293.927125	293.997125		on	on
sw3681A-ms98-a-0066	A.63	293.997125	294.267125		Monday	Monday
sw3681A-ms98-a-0066	A.63	294.267125	294.667125		nights	nights
sw3681A-ms98-a-0066	A.63	294.667125	294.887125		and	and
sw3681A-ms98-a-0066	A.63	294.887125	295.477125		[silence]	[silence]
sw3681A-ms98-a-0066	A.63	295.477125	295.687125		keeps	keeps
sw3681A-ms98-a-0066	A.63	295.687125	295.757125		you	you
sw3681A-ms98-a-0066	A.63	295.757125	295.817125		out	out
sw3681A-ms98-a-0066	A.63	295.817125	295.887125		of	of
sw3681A-ms98-a-0066	A.63	295.887125	296.207125		trouble	trouble
sw3681A-ms98-a-0066	A.63	296.207125	296.347125		that	that
sw3681A-ms98-a-0066	A.63	296.347125	296.457125		way	way
sw3681A-ms98-a-0066	A.63	296.457125	296.720625		[silence]	[silence]
sw3681A-ms98-a-0067	A.63	296.720625	296.961375		[silence]	[silence]
sw3681A-ms98-a-0067	A.63	296.961375	297.770000		[laughter]	[laughter]
sw3681A-ms98-a-0067	A.63	297.770000	298.224250		[silence]	[silence]
sw3681A-ms98-a-0068	A.63	298.224250	299.522000		[silence]	[silence]
