sw3638A-ms98-a-0001	A.1	0.000000	0.441625		[silence]	[silence]
sw3638A-ms98-a-0002	A.1	0.441625	0.578125		[silence]	[silence]
sw3638A-ms98-a-0002	A.1	0.578125	1.214875		Uh	uh
sw3638A-ms98-a-0002	A.1	1.214875	1.565375		well	well
sw3638A-ms98-a-0002	A.1	1.565375	1.865000		uh	uh
sw3638A-ms98-a-0002	A.1	1.865000	1.974250		the	the
sw3638A-ms98-a-0002	A.1	1.974250	2.574125		Cowboys	Cowboys
sw3638A-ms98-a-0002	A.1	2.574125	2.731125		are	are
sw3638A-ms98-a-0002	A.1	2.731125	2.905000		my	my
sw3638A-ms98-a-0002	A.1	2.905000	3.292125		favorite	favorite
sw3638A-ms98-a-0002	A.1	3.292125	3.633375		team	team
sw3638A-ms98-a-0002	A.1	3.633375	3.857500		That's	that's
sw3638A-ms98-a-0002	A.1	3.857500	3.989625		pretty	pretty
sw3638A-ms98-a-0002	A.1	3.989625	4.232125		easy	easy
sw3638A-ms98-a-0002	A.1	4.232125	4.363625		to	to
sw3638A-ms98-a-0002	A.1	4.363625	4.635125		say	say
sw3638A-ms98-a-0002	A.1	4.635125	5.839375		nowadays	[laughter-nowadays]
sw3638A-ms98-a-0002	A.3	5.839375	6.128625		Lot	lot
sw3638A-ms98-a-0002	A.3	6.128625	6.506375		easier	easier
sw3638A-ms98-a-0002	A.3	6.506375	6.596375		than	than
sw3638A-ms98-a-0002	A.3	6.596375	6.656375		it	it
sw3638A-ms98-a-0002	A.3	6.656375	6.896375		was	was
sw3638A-ms98-a-0002	A.3	6.896375	6.936375		a	a
sw3638A-ms98-a-0002	A.3	6.936375	7.206375		couple	couple
sw3638A-ms98-a-0002	A.3	7.206375	7.556375		years	years
sw3638A-ms98-a-0002	A.3	7.556375	8.068875		ago	ago
sw3638A-ms98-a-0002	A.3	8.068875	8.492750		[silence]	[silence]
sw3638A-ms98-a-0003	A.3	8.492750	9.002125		[silence]	[silence]
sw3638A-ms98-a-0003	A.3	9.002125	9.262750		but	but
sw3638A-ms98-a-0003	A.3	9.262750	9.362750		they	they
sw3638A-ms98-a-0003	A.3	9.362750	9.492750		had	had
sw3638A-ms98-a-0003	A.3	9.492750	9.552750		a	a
sw3638A-ms98-a-0003	A.3	9.552750	9.802750		big	big
sw3638A-ms98-a-0003	A.3	9.802750	10.062750		win	win
sw3638A-ms98-a-0003	A.3	10.062750	10.700375		today	today
sw3638A-ms98-a-0003	A.3	10.700375	11.020500		[silence]	[silence]
sw3638A-ms98-a-0003	A.3	11.020500	11.581125		Uh	uh
sw3638A-ms98-a-0003	A.3	11.581125	11.724250		[silence]	[silence]
sw3638A-ms98-a-0003	A.3	11.724250	11.862750		did	did
sw3638A-ms98-a-0003	A.3	11.862750	11.922750		you	you
sw3638A-ms98-a-0003	A.3	11.922750	12.052750		get	get
sw3638A-ms98-a-0003	A.3	12.052750	12.142750		to	to
sw3638A-ms98-a-0003	A.3	12.142750	12.392750		watch	watch
sw3638A-ms98-a-0003	A.3	12.392750	12.536875		it	it
sw3638A-ms98-a-0003	A.5	12.536875	13.026750		[silence]	[silence]
sw3638A-ms98-a-0004	A.5	13.026750	16.120125		[silence]	[silence]
sw3638A-ms98-a-0005	A.5	16.120125	16.540875		[silence]	[silence]
sw3638A-ms98-a-0005	A.5	16.540875	17.309375		Oh	oh
sw3638A-ms98-a-0005	A.5	17.309375	17.812125		[silence]	[silence]
sw3638A-ms98-a-0005	A.5	17.812125	17.959000		Are	are
sw3638A-ms98-a-0005	A.5	17.959000	18.010125		you	you
sw3638A-ms98-a-0005	A.5	18.010125	18.060125		a	a
sw3638A-ms98-a-0005	A.5	18.060125	18.500625		Cowboy	Cowboy
sw3638A-ms98-a-0005	A.5	18.500625	18.909875		fan	fan
sw3638A-ms98-a-0005	A.9	18.909875	19.406500		[silence]	[silence]
sw3638A-ms98-a-0006	A.9	19.406500	27.829375		[silence]	[silence]
sw3638A-ms98-a-0007	A.9	27.829375	28.336625		[silence]	[silence]
sw3638A-ms98-a-0007	A.9	28.336625	31.494250		[laughter]	[laughter]
sw3638A-ms98-a-0007	A.9	31.494250	32.272500		[silence]	[silence]
sw3638A-ms98-a-0008	A.9	32.272500	33.072500		[silence]	[silence]
sw3638A-ms98-a-0008	A.9	33.072500	33.665750		Right	right
sw3638A-ms98-a-0008	A.9	33.665750	34.238250		[silence]	[silence]
sw3638A-ms98-a-0008	A.9	34.238250	34.766250		yeah	yeah
sw3638A-ms98-a-0008	A.11	34.766250	35.220250		[silence]	[silence]
sw3638A-ms98-a-0009	A.11	35.220250	39.865125		[silence]	[silence]
sw3638A-ms98-a-0010	A.11	39.865125	40.347250		[silence]	[silence]
sw3638A-ms98-a-0010	A.11	40.347250	40.926750		Uh-huh	uh-huh
sw3638A-ms98-a-0010	A.13	40.926750	41.404375		[silence]	[silence]
sw3638A-ms98-a-0011	A.13	41.404375	43.129125		[silence]	[silence]
sw3638A-ms98-a-0012	A.13	43.129125	43.609125		[silence]	[silence]
sw3638A-ms98-a-0012	A.13	43.609125	43.982875		Right	right
sw3638A-ms98-a-0012	A.15	43.982875	44.774375		[silence]	[silence]
sw3638A-ms98-a-0013	A.15	44.774375	45.544375		[silence]	[silence]
sw3638A-ms98-a-0013	A.15	45.544375	46.045500	<SUB>	Yeah	yet
sw3638A-ms98-a-0013	A.17	46.045500	46.496750		[silence]	[silence]
sw3638A-ms98-a-0014	A.17	46.496750	49.080875		[silence]	[silence]
sw3638A-ms98-a-0015	A.17	49.080875	49.574750		[silence]	[silence]
sw3638A-ms98-a-0015	A.17	49.574750	49.990375		[laughter]	[laughter]
sw3638A-ms98-a-0015	A.17	49.990375	50.206500		[silence]	[silence]
sw3638A-ms98-a-0016	A.17	50.206500	50.566500		[silence]	[silence]
sw3638A-ms98-a-0016	A.17	50.566500	51.010625		Right	right
sw3638A-ms98-a-0016	A.19	51.010625	51.767500		[silence]	[silence]
sw3638A-ms98-a-0017	A.19	51.767500	52.516125		[silence]	[silence]
sw3638A-ms98-a-0017	A.19	52.516125	52.895000		Right	right
sw3638A-ms98-a-0017	A.21	52.895000	53.377875		[silence]	[silence]
sw3638A-ms98-a-0018	A.21	53.377875	56.126000		[silence]	[silence]
sw3638A-ms98-a-0019	A.21	56.126000	56.621125		[silence]	[silence]
sw3638A-ms98-a-0019	A.21	56.621125	57.006250		Yeah	yeah
sw3638A-ms98-a-0019	A.21	57.006250	57.106000		they	they
sw3638A-ms98-a-0019	A.21	57.106000	57.306000		made	made
sw3638A-ms98-a-0019	A.21	57.306000	57.426000		it	it
sw3638A-ms98-a-0019	A.21	57.426000	57.516000		to	to
sw3638A-ms98-a-0019	A.21	57.516000	57.586000		the	the
sw3638A-ms98-a-0019	A.21	57.586000	58.026000		playoffs	play-offs
sw3638A-ms98-a-0019	A.21	58.026000	58.462500		finally	finally
sw3638A-ms98-a-0019	A.21	58.462500	58.571750		[silence]	[silence]
sw3638A-ms98-a-0019	A.21	58.571750	58.819750		like	like
sw3638A-ms98-a-0019	A.21	58.819750	59.068250		[silence]	[silence]
sw3638A-ms98-a-0019	A.21	59.068250	59.364125		just	just
sw3638A-ms98-a-0019	A.21	59.364125	59.533625		[silence]	[silence]
sw3638A-ms98-a-0019	A.21	59.533625	59.616000		you	you
sw3638A-ms98-a-0019	A.21	59.616000	59.736000		know	know
sw3638A-ms98-a-0019	A.21	59.736000	59.976000		two	two
sw3638A-ms98-a-0019	A.21	59.976000	60.246000		years	years
sw3638A-ms98-a-0019	A.21	60.246000	60.536000		ago	ago
sw3638A-ms98-a-0019	A.21	60.536000	60.696000		they	they
sw3638A-ms98-a-0019	A.21	60.696000	60.916000		were	were
sw3638A-ms98-a-0019	A.21	60.916000	61.216000		one	one
sw3638A-ms98-a-0019	A.21	61.216000	61.386000		and	and
sw3638A-ms98-a-0019	A.21	61.386000	62.036000		fifteen	fifteen
sw3638A-ms98-a-0019	A.21	62.036000	62.156000		They	they
sw3638A-ms98-a-0019	A.21	62.156000	62.456000		won	won
sw3638A-ms98-a-0019	A.21	62.456000	62.706000		like	like
sw3638A-ms98-a-0019	A.21	62.706000	62.916000		just	just
sw3638A-ms98-a-0019	A.21	62.916000	63.156000		one	one
sw3638A-ms98-a-0019	A.21	63.156000	63.608000		game	game
sw3638A-ms98-a-0019	A.21	63.608000	64.019750		[silence]	[silence]
sw3638A-ms98-a-0020	A.21	64.019750	64.421375		[silence]	[silence]
sw3638A-ms98-a-0020	A.21	64.421375	64.779750		and	and
sw3638A-ms98-a-0020	A.21	64.779750	65.169125		so	so
sw3638A-ms98-a-0020	A.21	65.169125	65.817000		[silence]	[silence]
sw3638A-ms98-a-0020	A.21	65.817000	65.899125	<DEL>	---	it's
sw3638A-ms98-a-0020	A.21	65.899125	65.940500	<DEL>	---	a
sw3638A-ms98-a-0020	A.21	65.940500	66.149750		pretty	pretty
sw3638A-ms98-a-0020	A.21	66.149750	66.549750		fast	fast
sw3638A-ms98-a-0020	A.21	66.549750	66.739750	<CONT>	turnaround	turn
sw3638A-ms98-a-0020	A.21	66.739750	67.304875	<CONT>	+++	around
sw3638A-ms98-a-0020	A.21	67.304875	67.561000		[silence]	[silence]
sw3638A-ms98-a-0020	A.21	67.561000	67.789750		But	but
sw3638A-ms98-a-0020	A.21	67.789750	67.969750		this	this
sw3638A-ms98-a-0020	A.21	67.969750	68.119750		year	year
sw3638A-ms98-a-0020	A.21	68.119750	68.199750		they	they
sw3638A-ms98-a-0020	A.21	68.199750	68.399750		made	made
sw3638A-ms98-a-0020	A.21	68.399750	68.489750		it	it
sw3638A-ms98-a-0020	A.21	68.489750	68.609750		to	to
sw3638A-ms98-a-0020	A.21	68.609750	69.219750		playoffs	play-offs
sw3638A-ms98-a-0020	A.21	69.219750	69.519750		and	and
sw3638A-ms98-a-0020	A.21	69.519750	69.799750		today	today
sw3638A-ms98-a-0020	A.21	69.799750	69.959750		was	was
sw3638A-ms98-a-0020	A.21	69.959750	70.079750	<SUB>	the	their
sw3638A-ms98-a-0020	A.21	70.079750	70.459750		first	first
sw3638A-ms98-a-0020	A.21	70.459750	70.599750		game	game
sw3638A-ms98-a-0020	A.21	70.599750	70.809750		and	and
sw3638A-ms98-a-0020	A.21	70.809750	70.899750		they	they
sw3638A-ms98-a-0020	A.21	70.899750	71.209750		beat	beat
sw3638A-ms98-a-0020	A.21	71.209750	71.355250		the	the
sw3638A-ms98-a-0020	A.21	71.355250	71.426875		[silence]	[silence]
sw3638A-ms98-a-0020	A.21	71.426875	71.957125		Chicago	Chicago
sw3638A-ms98-a-0020	A.21	71.957125	72.610375		Bears	Bears
sw3638A-ms98-a-0020	A.21	72.610375	73.013375		[silence]	[silence]
sw3638A-ms98-a-0021	A.21	73.013375	73.498500		[silence]	[silence]
sw3638A-ms98-a-0021	A.21	73.498500	74.188750		so	so
sw3638A-ms98-a-0021	A.21	74.188750	74.752625		everybody's	everybody's
sw3638A-ms98-a-0021	A.21	74.752625	75.066000		really	really
sw3638A-ms98-a-0021	A.21	75.066000	75.318375		[silence]	[silence]
sw3638A-ms98-a-0021	A.21	75.318375	75.553375		going	going
sw3638A-ms98-a-0021	A.21	75.553375	76.221000		crazy	crazy
sw3638A-ms98-a-0021	A.21	76.221000	76.488375		[silence]	[silence]
sw3638A-ms98-a-0021	A.21	76.488375	76.573375		you	you
sw3638A-ms98-a-0021	A.21	76.573375	76.713375		know	know
sw3638A-ms98-a-0021	A.21	76.713375	77.023375		down	down
sw3638A-ms98-a-0021	A.21	77.023375	77.466625		here	here
sw3638A-ms98-a-0021	A.23	77.466625	78.129250		[silence]	[silence]
sw3638A-ms98-a-0022	A.23	78.129250	78.828500		[silence]	[silence]
sw3638A-ms98-a-0022	A.23	78.828500	79.099250		[laughter]	[laughter]
sw3638A-ms98-a-0022	A.23	79.099250	79.349250		They're	they're
sw3638A-ms98-a-0022	A.23	79.349250	79.639250		going	going
sw3638A-ms98-a-0022	A.23	79.639250	80.189250		crazy	crazy
sw3638A-ms98-a-0022	A.23	80.189250	80.651875		so	so
sw3638A-ms98-a-0022	A.23	80.651875	81.362000		[silence]	[silence]
sw3638A-ms98-a-0023	A.23	81.362000	81.543875		[silence]	[silence]
sw3638A-ms98-a-0023	A.23	81.543875	81.772000		so	so
sw3638A-ms98-a-0023	A.23	81.772000	81.842000		they	they
sw3638A-ms98-a-0023	A.23	81.842000	82.142000		turned	turned
sw3638A-ms98-a-0023	A.23	82.142000	82.222000		it	it
sw3638A-ms98-a-0023	A.23	82.222000	82.682000		around	around
sw3638A-ms98-a-0023	A.23	82.682000	82.890125		but	but
sw3638A-ms98-a-0023	A.23	82.890125	83.421250		[silence]	[silence]
sw3638A-ms98-a-0023	A.23	83.421250	83.632000	<SUB>	you	yeah
sw3638A-ms98-a-0023	A.23	83.632000	83.632000	<INS>	know	---
sw3638A-ms98-a-0023	A.23	83.632000	83.732000		they	they
sw3638A-ms98-a-0023	A.23	83.732000	83.934500		have	have
sw3638A-ms98-a-0023	A.23	83.934500	84.138750		a	a
sw3638A-ms98-a-0023	A.23	84.138750	84.357125		[silence]	[silence]
sw3638A-ms98-a-0023	A.23	84.357125	84.592000		lot	lot
sw3638A-ms98-a-0023	A.23	84.592000	84.722000		of	of
sw3638A-ms98-a-0023	A.23	84.722000	85.214875		young	young
sw3638A-ms98-a-0023	A.23	85.214875	85.339125		[silence]	[silence]
sw3638A-ms98-a-0023	A.23	85.339125	85.972000		exciting	exciting
sw3638A-ms98-a-0023	A.23	85.972000	86.452000		players	players
sw3638A-ms98-a-0023	A.23	86.452000	86.812000		now	now
sw3638A-ms98-a-0023	A.23	86.812000	86.929750	<SUB>	uh	up
sw3638A-ms98-a-0023	A.23	86.929750	87.231875		[silence]	[silence]
sw3638A-ms98-a-0024	A.23	87.231875	87.589000		[silence]	[silence]
sw3638A-ms98-a-0024	A.23	87.589000	87.687500		I	i
sw3638A-ms98-a-0024	A.23	87.687500	87.801875		mean	mean
sw3638A-ms98-a-0024	A.23	87.801875	88.321875		everybody	everybody
sw3638A-ms98-a-0024	A.23	88.321875	88.501875		was	was
sw3638A-ms98-a-0024	A.23	88.501875	88.701875		real	real
sw3638A-ms98-a-0024	A.23	88.701875	89.252250		upset	upset
sw3638A-ms98-a-0024	A.23	89.252250	89.357750		[silence]	[silence]
sw3638A-ms98-a-0024	A.23	89.357750	89.431875		you	you
sw3638A-ms98-a-0024	A.23	89.431875	89.641875		know	know
sw3638A-ms98-a-0024	A.23	89.641875	89.791875		when	when
sw3638A-ms98-a-0024	A.23	89.791875	90.014500		they	they
sw3638A-ms98-a-0024	A.23	90.014500	90.180250		[silence]	[silence]
sw3638A-ms98-a-0024	A.23	90.180250	90.621875		fired	fired
sw3638A-ms98-a-0024	A.23	90.621875	90.881875		Tom	Tom
sw3638A-ms98-a-0024	A.23	90.881875	91.622375		Landry	Landry
sw3638A-ms98-a-0024	A.23	91.622375	91.833250		[silence]	[silence]
sw3638A-ms98-a-0024	A.23	91.833250	92.148250		but	but
sw3638A-ms98-a-0024	A.23	92.148250	92.916625		[silence]	[silence]
sw3638A-ms98-a-0024	A.23	92.916625	93.021875		you	you
sw3638A-ms98-a-0024	A.23	93.021875	93.141875		know	know
sw3638A-ms98-a-0024	A.23	93.141875	93.471875		now	now
sw3638A-ms98-a-0024	A.23	93.471875	93.641875		it's	it's
sw3638A-ms98-a-0024	A.23	93.641875	93.882500		like	like
sw3638A-ms98-a-0024	A.23	93.882500	93.971875		you	you
sw3638A-ms98-a-0024	A.23	93.971875	94.111875		know	know
sw3638A-ms98-a-0024	A.23	94.111875	94.211875		they're	they're
sw3638A-ms98-a-0024	A.23	94.211875	94.511875		doing	doing
sw3638A-ms98-a-0024	A.23	94.511875	94.831875		good	good
sw3638A-ms98-a-0024	A.23	94.831875	94.951875		so	so
sw3638A-ms98-a-0024	A.23	94.951875	95.381125		everybody's	everybody's
sw3638A-ms98-a-0024	A.23	95.381125	95.885875		forgotten	[laughter-forgotten]
sw3638A-ms98-a-0024	A.23	95.885875	96.281875		about	about
sw3638A-ms98-a-0024	A.23	96.281875	96.638125		that	that
sw3638A-ms98-a-0024	A.25	96.638125	96.905250		[silence]	[silence]
sw3638A-ms98-a-0025	A.25	96.905250	100.833875		[silence]	[silence]
sw3638A-ms98-a-0026	A.25	100.833875	101.313875		[silence]	[silence]
sw3638A-ms98-a-0026	A.25	101.313875	102.307125		Uh-huh	uh-huh
sw3638A-ms98-a-0026	A.27	102.307125	102.820750		[silence]	[silence]
sw3638A-ms98-a-0027	A.27	102.820750	107.751250		[silence]	[silence]
sw3638A-ms98-a-0028	A.27	107.751250	108.182125		[silence]	[silence]
sw3638A-ms98-a-0028	A.27	108.182125	108.721250		Right	right
sw3638A-ms98-a-0028	A.29	108.721250	109.187250		[silence]	[silence]
sw3638A-ms98-a-0029	A.29	109.187250	111.444125		[silence]	[silence]
sw3638A-ms98-a-0030	A.29	111.444125	111.902250		[silence]	[silence]
sw3638A-ms98-a-0030	A.29	111.902250	112.379125		Right	right
sw3638A-ms98-a-0030	A.29	112.379125	112.730250		[silence]	[silence]
sw3638A-ms98-a-0031	A.29	112.730250	113.110250		[silence]	[silence]
sw3638A-ms98-a-0031	A.29	113.110250	113.730250		exactly	exactly
sw3638A-ms98-a-0031	A.31	113.730250	113.820250		You	you
sw3638A-ms98-a-0031	A.31	113.820250	114.150250		know	know
sw3638A-ms98-a-0031	A.33	114.150250	114.629375		[silence]	[silence]
sw3638A-ms98-a-0032	A.33	114.629375	118.177000		[silence]	[silence]
sw3638A-ms98-a-0033	A.33	118.177000	118.677000		[silence]	[silence]
sw3638A-ms98-a-0033	A.33	118.677000	119.317000	<SUB>	Uh-huh	um-hum
sw3638A-ms98-a-0033	A.35	119.317000	119.758625		[silence]	[silence]
sw3638A-ms98-a-0034	A.35	119.758625	123.955750		[silence]	[silence]
sw3638A-ms98-a-0035	A.35	123.955750	124.406500		[silence]	[silence]
sw3638A-ms98-a-0035	A.35	124.406500	124.792875		Right	right
sw3638A-ms98-a-0035	A.35	124.792875	125.020625		[silence]	[silence]
sw3638A-ms98-a-0035	A.35	125.020625	125.535750		[noise]	[noise]
sw3638A-ms98-a-0035	A.35	125.535750	125.917000		yeah	yeah
sw3638A-ms98-a-0035	A.35	125.917000	126.521125		uh	uh
sw3638A-ms98-a-0035	A.35	126.521125	127.079625		[silence]	[silence]
sw3638A-ms98-a-0036	A.35	127.079625	127.719625		[silence]	[silence]
sw3638A-ms98-a-0036	A.35	127.719625	127.879625		you	you
sw3638A-ms98-a-0036	A.35	127.879625	128.009625		know	know
sw3638A-ms98-a-0036	A.35	128.009625	128.099625		they	they
sw3638A-ms98-a-0036	A.35	128.099625	128.337125		have	have
sw3638A-ms98-a-0036	A.35	128.337125	128.580750		[silence]	[silence]
sw3638A-ms98-a-0036	A.35	128.580750	128.716250		a	a
sw3638A-ms98-a-0036	A.35	128.716250	128.999625		young	young
sw3638A-ms98-a-0036	A.35	128.999625	129.479625		team	team
sw3638A-ms98-a-0036	A.35	129.479625	129.779625		It's	it's
sw3638A-ms98-a-0036	A.35	129.779625	129.879625		you	you
sw3638A-ms98-a-0036	A.35	129.879625	130.029625		know	know
sw3638A-ms98-a-0036	A.35	130.029625	130.059625		a	a
sw3638A-ms98-a-0036	A.35	130.059625	130.309625		lot	lot
sw3638A-ms98-a-0036	A.35	130.309625	130.739625		different	different
sw3638A-ms98-a-0036	A.35	130.739625	130.879625		than	than
sw3638A-ms98-a-0036	A.35	130.879625	130.939625		the	the
sw3638A-ms98-a-0036	A.35	130.939625	131.309625		teams	teams
sw3638A-ms98-a-0036	A.35	131.309625	131.379625		they	they
sw3638A-ms98-a-0036	A.35	131.379625	131.619625		used	used
sw3638A-ms98-a-0036	A.35	131.619625	131.719625		to	to
sw3638A-ms98-a-0036	A.35	131.719625	132.029625		have	have
sw3638A-ms98-a-0036	A.35	132.029625	132.319625		where	where
sw3638A-ms98-a-0036	A.35	132.319625	132.449625		it's	it's
sw3638A-ms98-a-0036	A.35	132.449625	132.509625		the	the
sw3638A-ms98-a-0036	A.35	132.509625	132.849625		same	same
sw3638A-ms98-a-0036	A.35	132.849625	133.209625		old	old
sw3638A-ms98-a-0036	A.35	133.209625	133.269625		you	you
sw3638A-ms98-a-0036	A.35	133.269625	133.459625		know	know
sw3638A-ms98-a-0036	A.35	133.459625	133.969625		players	players
sw3638A-ms98-a-0036	A.35	133.969625	134.209625		every	every
sw3638A-ms98-a-0036	A.35	134.209625	134.639625		year	year
sw3638A-ms98-a-0036	A.35	134.639625	134.963125		and	and
sw3638A-ms98-a-0036	A.35	134.963125	135.284375		[silence]	[silence]
sw3638A-ms98-a-0037	A.35	135.284375	135.704375		[silence]	[silence]
sw3638A-ms98-a-0037	A.35	135.704375	135.764375		you	you
sw3638A-ms98-a-0037	A.35	135.764375	135.834375		know	know
sw3638A-ms98-a-0037	A.35	135.834375	136.204375		same	same
sw3638A-ms98-a-0037	A.35	136.204375	136.915250		coach	coach
sw3638A-ms98-a-0037	A.35	136.915250	137.314375		same	same
sw3638A-ms98-a-0037	A.35	137.314375	137.934375		everything	everything
sw3638A-ms98-a-0037	A.35	137.934375	138.402250		so	so
sw3638A-ms98-a-0037	A.35	138.402250	139.129125		[silence]	[silence]
sw3638A-ms98-a-0037	A.35	139.129125	139.424375		now	now
sw3638A-ms98-a-0037	A.35	139.424375	139.694375		it's	it's
sw3638A-ms98-a-0037	A.35	139.694375	139.814375		you	you
sw3638A-ms98-a-0037	A.35	139.814375	139.964375		know	know
sw3638A-ms98-a-0037	A.35	139.964375	140.144375		like	like
sw3638A-ms98-a-0037	A.35	140.144375	140.274375		a	a
sw3638A-ms98-a-0037	A.35	140.274375	140.674375		taste	taste
sw3638A-ms98-a-0037	A.35	140.674375	140.814375		of	of
sw3638A-ms98-a-0037	A.35	140.814375	141.254375		something	something
sw3638A-ms98-a-0037	A.35	141.254375	141.764625		different	different
sw3638A-ms98-a-0037	A.35	141.764625	141.937875		[silence]	[silence]
sw3638A-ms98-a-0037	A.35	141.937875	142.114375		They're	they're
sw3638A-ms98-a-0037	A.35	142.114375	142.412250		all	all
sw3638A-ms98-a-0037	A.35	142.412250	142.559125		[silence]	[silence]
sw3638A-ms98-a-0037	A.35	142.559125	142.855750		not	not
sw3638A-ms98-a-0037	A.35	142.855750	143.014000		[silence]	[silence]
sw3638A-ms98-a-0037	A.35	143.014000	143.174375		you	you
sw3638A-ms98-a-0037	A.35	143.174375	143.543750		know	know
sw3638A-ms98-a-0037	A.35	143.543750	143.656750		[silence]	[silence]
sw3638A-ms98-a-0037	A.35	143.656750	143.994375		mister	mister
sw3638A-ms98-a-0037	A.35	143.994375	144.344375		nice	nice
sw3638A-ms98-a-0037	A.35	144.344375	144.774375		guys	guys
sw3638A-ms98-a-0037	A.35	144.774375	144.944375		like	like
sw3638A-ms98-a-0037	A.35	144.944375	145.138875		they	they
sw3638A-ms98-a-0037	A.35	145.138875	145.374375		used	used
sw3638A-ms98-a-0037	A.35	145.374375	145.484375		to	to
sw3638A-ms98-a-0037	A.35	145.484375	145.829125		be	be
sw3638A-ms98-a-0037	A.37	145.829125	146.284875		[silence]	[silence]
sw3638A-ms98-a-0037	A.37	146.284875	146.504375		Now	now
sw3638A-ms98-a-0037	A.37	146.504375	146.674375		it's	it's
sw3638A-ms98-a-0037	A.37	146.674375	146.939625		like	like
sw3638A-ms98-a-0037	A.37	146.939625	147.054375		you	you
sw3638A-ms98-a-0037	A.37	147.054375	147.433500		know	know
sw3638A-ms98-a-0037	A.37	147.433500	147.931125		[silence]	[silence]
sw3638A-ms98-a-0038	A.37	147.931125	148.493375		[silence]	[silence]
sw3638A-ms98-a-0038	A.37	148.493375	148.831125		tough	tough
sw3638A-ms98-a-0038	A.37	148.831125	148.991125		and	and
sw3638A-ms98-a-0038	A.37	148.991125	149.301125		dirty	dirty
sw3638A-ms98-a-0038	A.37	149.301125	149.895125		team	team
sw3638A-ms98-a-0038	A.37	149.895125	150.068375		[silence]	[silence]
sw3638A-ms98-a-0038	A.37	150.068375	150.592625		so	so
sw3638A-ms98-a-0038	A.37	150.592625	150.807250		[silence]	[silence]
sw3638A-ms98-a-0038	A.37	150.807250	151.231125		everybody	everybody
sw3638A-ms98-a-0038	A.37	151.231125	151.361125		is	is
sw3638A-ms98-a-0038	A.37	151.361125	151.571125		really	really
sw3638A-ms98-a-0038	A.37	151.571125	152.156875		excited	excited
sw3638A-ms98-a-0038	A.37	152.156875	152.789750		[silence]	[silence]
sw3638A-ms98-a-0038	A.37	152.789750	152.965000		And	and
sw3638A-ms98-a-0038	A.39	152.965000	153.925250		[silence]	[silence]
sw3638A-ms98-a-0039	A.39	153.925250	154.069500		[silence]	[silence]
sw3638A-ms98-a-0039	A.39	154.069500	154.815500		[noise]	[noise]
sw3638A-ms98-a-0039	A.39	154.815500	155.025250		Well	well
sw3638A-ms98-a-0039	A.39	155.025250	155.175250		it's	it's
sw3638A-ms98-a-0039	A.39	155.175250	155.545250		supposed	supposed
sw3638A-ms98-a-0039	A.39	155.545250	155.615250		to	to
sw3638A-ms98-a-0039	A.39	155.615250	155.795250		be	be
sw3638A-ms98-a-0039	A.39	155.795250	156.075250		the	the
sw3638A-ms98-a-0039	A.39	156.075250	157.037375		Redskins	Redskins
sw3638A-ms98-a-0039	A.39	157.037375	157.375500		but	but
sw3638A-ms98-a-0039	A.39	157.375500	157.582625		[silence]	[silence]
sw3638A-ms98-a-0039	A.39	157.582625	157.655250		you	you
sw3638A-ms98-a-0039	A.39	157.655250	157.805250		know	know
sw3638A-ms98-a-0039	A.39	157.805250	157.945250		we	we
sw3638A-ms98-a-0039	A.39	157.945250	158.235250		beat	beat
sw3638A-ms98-a-0039	A.39	158.235250	158.758000		them	them
sw3638A-ms98-a-0039	A.39	158.758000	158.953875		[silence]	[silence]
sw3638A-ms98-a-0039	A.39	158.953875	159.678625		already	already
sw3638A-ms98-a-0039	A.39	159.678625	159.845250		We	we
sw3638A-ms98-a-0039	A.39	159.845250	160.095250		beat	beat
sw3638A-ms98-a-0039	A.39	160.095250	160.265250		them	them
sw3638A-ms98-a-0039	A.39	160.265250	160.495250		this	this
sw3638A-ms98-a-0039	A.39	160.495250	160.755250		year	year
sw3638A-ms98-a-0039	A.39	160.755250	161.080625		in	in
sw3638A-ms98-a-0039	A.39	161.080625	161.208750		[silence]	[silence]
sw3638A-ms98-a-0039	A.39	161.208750	161.415250		in	in
sw3638A-ms98-a-0039	A.39	161.415250	162.225250		Washington	Washington
sw3638A-ms98-a-0039	A.39	162.225250	162.721250		so	so
sw3638A-ms98-a-0039	A.39	162.721250	163.007375		[silence]	[silence]
sw3638A-ms98-a-0040	A.39	163.007375	163.297375		[silence]	[silence]
sw3638A-ms98-a-0040	A.39	163.297375	163.377375		you	you
sw3638A-ms98-a-0040	A.39	163.377375	163.547375		know	know
sw3638A-ms98-a-0040	A.39	163.547375	163.697375		so	so
sw3638A-ms98-a-0040	A.39	163.697375	164.037375		everybody	everybody
sw3638A-ms98-a-0040	A.39	164.037375	164.532625		has	has
sw3638A-ms98-a-0040	A.39	164.532625	164.687000		[silence]	[silence]
sw3638A-ms98-a-0040	A.39	164.687000	164.807375		the	the
sw3638A-ms98-a-0040	A.39	164.807375	165.237375		feeling	feeling
sw3638A-ms98-a-0040	A.39	165.237375	165.507375		like	like
sw3638A-ms98-a-0040	A.39	165.507375	165.627375		we	we
sw3638A-ms98-a-0040	A.39	165.627375	165.807375		can	can
sw3638A-ms98-a-0040	A.39	165.807375	166.047375		go	go
sw3638A-ms98-a-0040	A.39	166.047375	166.207375		all	all
sw3638A-ms98-a-0040	A.39	166.207375	166.277375		the	the
sw3638A-ms98-a-0040	A.39	166.277375	166.457375		way	way
sw3638A-ms98-a-0040	A.39	166.457375	166.600375		to	to
sw3638A-ms98-a-0040	A.39	166.600375	166.747375		the	the
sw3638A-ms98-a-0040	A.39	166.747375	167.097375		Super	Super
sw3638A-ms98-a-0040	A.39	167.097375	167.467375		Bowl	Bowl
sw3638A-ms98-a-0040	A.39	167.467375	167.756375		but	but
sw3638A-ms98-a-0040	A.39	167.756375	168.521000		[silence]	[silence]
sw3638A-ms98-a-0040	A.39	168.521000	168.607375		you	you
sw3638A-ms98-a-0040	A.39	168.607375	168.961375		know	know
sw3638A-ms98-a-0040	A.39	168.961375	169.408125		[silence]	[silence]
sw3638A-ms98-a-0041	A.39	169.408125	169.872875		[silence]	[silence]
sw3638A-ms98-a-0041	A.39	169.872875	170.128125		it's	it's
sw3638A-ms98-a-0041	A.39	170.128125	170.348125		just	just
sw3638A-ms98-a-0041	A.39	170.348125	170.458125		that	that
sw3638A-ms98-a-0041	A.39	170.458125	170.568125		we	we
sw3638A-ms98-a-0041	A.39	170.568125	170.728125		have	have
sw3638A-ms98-a-0041	A.39	170.728125	170.808125		to	to
sw3638A-ms98-a-0041	A.39	170.808125	170.988125		play	play
sw3638A-ms98-a-0041	A.39	170.988125	171.218125		every	every
sw3638A-ms98-a-0041	A.39	171.218125	171.693875		game	game
sw3638A-ms98-a-0041	A.39	171.693875	172.191125		[silence]	[silence]
sw3638A-ms98-a-0041	A.39	172.191125	172.758125		away	away
sw3638A-ms98-a-0041	A.39	172.758125	172.888125		you	you
sw3638A-ms98-a-0041	A.39	172.888125	173.168125		know	know
sw3638A-ms98-a-0041	A.39	173.168125	173.388125		it's	it's
sw3638A-ms98-a-0041	A.39	173.388125	173.598125	<SUB>	going	gonna
sw3638A-ms98-a-0041	A.39	173.598125	173.598125	<INS>	to	---
sw3638A-ms98-a-0041	A.39	173.598125	173.678125		be	be
sw3638A-ms98-a-0041	A.39	173.678125	174.178125		tough	tough
sw3638A-ms98-a-0041	A.39	174.178125	174.452375		but	but
sw3638A-ms98-a-0041	A.39	174.452375	175.194250		[silence]	[silence]
sw3638A-ms98-a-0042	A.39	175.194250	175.680750		[silence]	[silence]
sw3638A-ms98-a-0042	A.39	175.680750	175.794250		but	but
sw3638A-ms98-a-0042	A.39	175.794250	176.069625	<SUB>	every-	ever[y]-
sw3638A-ms98-a-0042	A.39	176.069625	176.206000		[silence]	[silence]
sw3638A-ms98-a-0042	A.39	176.206000	176.334250	<SUB>	the	their
sw3638A-ms98-a-0042	A.39	176.334250	177.054250		competition	competition
sw3638A-ms98-a-0042	A.39	177.054250	177.165625	<SUB>	is	i[s]-
sw3638A-ms98-a-0042	A.39	177.165625	177.316375		[silence]	[silence]
sw3638A-ms98-a-0042	A.39	177.316375	177.494250		are	are
sw3638A-ms98-a-0042	A.39	177.494250	177.914250		teams	teams
sw3638A-ms98-a-0042	A.39	177.914250	178.044250		that	that
sw3638A-ms98-a-0042	A.39	178.044250	178.234250		they've	they've
sw3638A-ms98-a-0042	A.39	178.234250	178.464250		already	already
sw3638A-ms98-a-0042	A.39	178.464250	178.813125		beat	beat
sw3638A-ms98-a-0042	A.39	178.813125	179.163375		[silence]	[silence]
sw3638A-ms98-a-0042	A.39	179.163375	179.414250		this	this
sw3638A-ms98-a-0042	A.39	179.414250	179.831875		year	year
sw3638A-ms98-a-0042	A.39	179.831875	180.061625		[silence]	[silence]
sw3638A-ms98-a-0042	A.39	180.061625	180.540000		so	so
sw3638A-ms98-a-0042	A.39	180.540000	181.093625		[silence]	[silence]
sw3638A-ms98-a-0042	A.39	181.093625	181.154250		I	i
sw3638A-ms98-a-0042	A.39	181.154250	181.444250		mean	mean
sw3638A-ms98-a-0042	A.39	181.444250	182.147125		Atlanta	Atlanta
sw3638A-ms98-a-0042	A.39	182.147125	182.294000		[silence]	[silence]
sw3638A-ms98-a-0042	A.39	182.294000	182.544250		they're	they're
sw3638A-ms98-a-0042	A.39	182.544250	182.604250		in	in
sw3638A-ms98-a-0042	A.39	182.604250	182.774250		it	it
sw3638A-ms98-a-0042	A.39	182.774250	183.302500		too	too
sw3638A-ms98-a-0042	A.39	183.302500	183.454250		and	and
sw3638A-ms98-a-0042	A.39	183.454250	183.564250		we	we
sw3638A-ms98-a-0042	A.39	183.564250	183.834250		beat	beat
sw3638A-ms98-a-0042	A.39	183.834250	184.334250		them	them
sw3638A-ms98-a-0042	A.39	184.334250	184.611875		[silence]	[silence]
sw3638A-ms98-a-0043	A.39	184.611875	184.891875		[silence]	[silence]
sw3638A-ms98-a-0043	A.39	184.891875	185.181875		and	and
sw3638A-ms98-a-0043	A.39	185.181875	185.684625		uh	uh
sw3638A-ms98-a-0043	A.39	185.684625	185.948375		[silence]	[silence]
sw3638A-ms98-a-0043	A.39	185.948375	186.367625		see	see
sw3638A-ms98-a-0043	A.39	186.367625	186.902375		[silence]	[silence]
sw3638A-ms98-a-0043	A.39	186.902375	187.552125		Detroit	Detroit
sw3638A-ms98-a-0043	A.39	187.552125	187.714000		[silence]	[silence]
sw3638A-ms98-a-0043	A.39	187.714000	187.841875		we	we
sw3638A-ms98-a-0043	A.39	187.841875	188.091875		play	play
sw3638A-ms98-a-0043	A.39	188.091875	188.371875		them	them
sw3638A-ms98-a-0043	A.39	188.371875	188.721875		next	next
sw3638A-ms98-a-0043	A.39	188.721875	188.981875		week	week
sw3638A-ms98-a-0043	A.39	188.981875	189.355000		but	but
sw3638A-ms98-a-0043	A.39	189.355000	189.461875		you	you
sw3638A-ms98-a-0043	A.39	189.461875	189.591875		know	know
sw3638A-ms98-a-0043	A.39	189.591875	189.741875		we	we
sw3638A-ms98-a-0043	A.39	189.741875	189.941875		should	should
sw3638A-ms98-a-0043	A.39	189.941875	190.151875		beat	beat
sw3638A-ms98-a-0043	A.39	190.151875	190.613625		them	them
sw3638A-ms98-a-0043	A.39	190.613625	191.021875		Everybody	everybody
sw3638A-ms98-a-0043	A.39	191.021875	191.361875		feels	feels
sw3638A-ms98-a-0043	A.39	191.361875	191.571875		like	like
sw3638A-ms98-a-0043	A.39	191.571875	191.711875		we	we
sw3638A-ms98-a-0043	A.39	191.711875	191.901875		should	should
sw3638A-ms98-a-0043	A.39	191.901875	192.051875		be	be
sw3638A-ms98-a-0043	A.39	192.051875	192.181875		able	able
sw3638A-ms98-a-0043	A.39	192.181875	192.241875		to	to
sw3638A-ms98-a-0043	A.39	192.241875	192.461875		beat	beat
sw3638A-ms98-a-0043	A.39	192.461875	192.663500		them	them_1
sw3638A-ms98-a-0043	A.39	192.663500	193.191000		[silence]	[silence]
sw3638A-ms98-a-0043	A.39	193.191000	193.718750		so	so
sw3638A-ms98-a-0043	A.39	193.718750	194.113250		[silence]	[silence]
sw3638A-ms98-a-0044	A.39	194.113250	194.343250		[silence]	[silence]
sw3638A-ms98-a-0044	A.39	194.343250	194.672000		it's	it's
sw3638A-ms98-a-0044	A.39	194.672000	195.143250		[vocalized-noise]	[vocalized-noise]
sw3638A-ms98-a-0044	A.39	195.143250	195.503250		so	so
sw3638A-ms98-a-0044	A.39	195.503250	195.913250	<CONT>	everything's	everything
sw3638A-ms98-a-0044	A.39	195.913250	196.155125	<CONT>	+++	is
sw3638A-ms98-a-0044	A.39	196.155125	196.393250		uh	uh
sw3638A-ms98-a-0044	A.39	196.393250	196.767625		looking	looking
sw3638A-ms98-a-0044	A.39	196.767625	196.973250		real	real
sw3638A-ms98-a-0044	A.39	196.973250	197.352875		good	good
sw3638A-ms98-a-0044	A.41	197.352875	197.812250		[silence]	[silence]
sw3638A-ms98-a-0045	A.41	197.812250	203.037125		[silence]	[silence]
sw3638A-ms98-a-0046	A.41	203.037125	203.527125		[silence]	[silence]
sw3638A-ms98-a-0046	A.41	203.527125	204.033875	<SUB>	Uh-huh	um-hum
sw3638A-ms98-a-0046	A.43	204.033875	204.501750		[silence]	[silence]
sw3638A-ms98-a-0047	A.43	204.501750	205.578875		[silence]	[silence]
sw3638A-ms98-a-0048	A.43	205.578875	206.066125		[silence]	[silence]
sw3638A-ms98-a-0048	A.43	206.066125	206.532500		Right	right
sw3638A-ms98-a-0048	A.45	206.532500	206.971500		[silence]	[silence]
sw3638A-ms98-a-0049	A.45	206.971500	208.366250		[silence]	[silence]
sw3638A-ms98-a-0050	A.45	208.366250	208.565625		[silence]	[silence]
sw3638A-ms98-a-0050	A.45	208.565625	208.995375		Right	right
sw3638A-ms98-a-0050	A.47	208.995375	209.468750		[silence]	[silence]
sw3638A-ms98-a-0051	A.47	209.468750	212.405000		[silence]	[silence]
sw3638A-ms98-a-0052	A.47	212.405000	212.895000		[silence]	[silence]
sw3638A-ms98-a-0052	A.47	212.895000	213.339625		Right	right
sw3638A-ms98-a-0052	A.49	213.339625	213.827375		[silence]	[silence]
sw3638A-ms98-a-0053	A.49	213.827375	217.694375		[silence]	[silence]
sw3638A-ms98-a-0054	A.49	217.694375	218.196125		[silence]	[silence]
sw3638A-ms98-a-0054	A.49	218.196125	218.524375		Yeah	yeah
sw3638A-ms98-a-0054	A.49	218.524375	218.654375		well	well
sw3638A-ms98-a-0054	A.49	218.654375	218.714375		the	the
sw3638A-ms98-a-0054	A.49	218.714375	219.154375		Cowboys	Cowboys
sw3638A-ms98-a-0054	A.49	219.154375	219.244375		are	are
sw3638A-ms98-a-0054	A.49	219.244375	219.304375		on	on
sw3638A-ms98-a-0054	A.49	219.304375	219.404375		a	a
sw3638A-ms98-a-0054	A.49	219.404375	219.754375		roll	roll
sw3638A-ms98-a-0054	A.49	219.754375	219.944375		They've	they've
sw3638A-ms98-a-0054	A.49	219.944375	220.184375		won	won
sw3638A-ms98-a-0054	A.49	220.184375	220.394000		like	like
sw3638A-ms98-a-0054	A.49	220.394000	220.828000		[silence]	[silence]
sw3638A-ms98-a-0054	A.49	220.828000	220.959875		I	i
sw3638A-ms98-a-0054	A.49	220.959875	221.214375		think	think
sw3638A-ms98-a-0054	A.49	221.214375	221.574375		six	six
sw3638A-ms98-a-0054	A.49	221.574375	221.634375		or	or
sw3638A-ms98-a-0054	A.49	221.634375	221.964375		seven	seven
sw3638A-ms98-a-0054	A.49	221.964375	222.034375		in	in
sw3638A-ms98-a-0054	A.49	222.034375	222.114375		a	a
sw3638A-ms98-a-0054	A.49	222.114375	222.344750		row	row
sw3638A-ms98-a-0054	A.49	222.344750	222.732750		now	now
sw3638A-ms98-a-0054	A.49	222.732750	223.169750		[silence]	[silence]
sw3638A-ms98-a-0054	A.49	223.169750	223.424375		so	so
sw3638A-ms98-a-0054	A.49	223.424375	223.544375		they're	they're
sw3638A-ms98-a-0054	A.49	223.544375	223.904375		supposed	supposed
sw3638A-ms98-a-0054	A.49	223.904375	223.964375		to	to
sw3638A-ms98-a-0054	A.49	223.964375	224.034375		be	be
sw3638A-ms98-a-0054	A.49	224.034375	224.144375		the	the
sw3638A-ms98-a-0054	A.49	224.144375	224.544375		hottest	hottest
sw3638A-ms98-a-0054	A.49	224.544375	224.814375		team	team
sw3638A-ms98-a-0054	A.49	224.814375	224.914375		in	in
sw3638A-ms98-a-0054	A.49	224.914375	225.233875		the	the
sw3638A-ms98-a-0054	A.49	225.233875	225.806375		[silence]	[silence]
sw3638A-ms98-a-0054	A.49	225.806375	225.954375		in	in
sw3638A-ms98-a-0054	A.49	225.954375	226.313500		the	the
sw3638A-ms98-a-0054	A.49	226.313500	226.411500		[silence]	[silence]
sw3638A-ms98-a-0054	A.49	226.411500	226.983500		league	league
sw3638A-ms98-a-0054	A.49	226.983500	227.213250		[silence]	[silence]
sw3638A-ms98-a-0054	A.49	227.213250	227.454375		going	going
sw3638A-ms98-a-0054	A.49	227.454375	227.704375		into	into
sw3638A-ms98-a-0054	A.49	227.704375	227.764375		the	the
sw3638A-ms98-a-0054	A.49	227.764375	228.689625		playoffs	play-offs
sw3638A-ms98-a-0054	A.49	228.689625	229.168125		[silence]	[silence]
sw3638A-ms98-a-0055	A.49	229.168125	229.551000		[silence]	[silence]
sw3638A-ms98-a-0055	A.49	229.551000	230.108125		so	so
sw3638A-ms98-a-0055	A.51	230.108125	230.597250		[silence]	[silence]
sw3638A-ms98-a-0056	A.51	230.597250	235.661125		[silence]	[silence]
sw3638A-ms98-a-0057	A.51	235.661125	235.764625		[silence]	[silence]
sw3638A-ms98-a-0057	A.51	235.764625	235.961375	<DEL>	---	uh
sw3638A-ms98-a-0057	A.51	235.961375	236.080875		[silence]	[silence]
sw3638A-ms98-a-0057	A.51	236.080875	236.671125		Right	right
sw3638A-ms98-a-0057	A.51	236.671125	237.113000		yeah	yeah
sw3638A-ms98-a-0057	A.51	237.113000	237.481125		Troy	Troy
sw3638A-ms98-a-0057	A.51	237.481125	237.741125		Aikman	Aikman
sw3638A-ms98-a-0057	A.51	237.741125	237.831125		he	he
sw3638A-ms98-a-0057	A.51	237.831125	238.051125		got	got
sw3638A-ms98-a-0057	A.51	238.051125	238.456625		hurt	hurt
sw3638A-ms98-a-0057	A.51	238.456625	238.691125		at	at
sw3638A-ms98-a-0057	A.51	238.691125	239.162000	<CONT>	O	OU
sw3638A-ms98-a-0057	A.51	239.162000	239.162000	<CONT>	U	+++
sw3638A-ms98-a-0057	A.51	239.162000	239.261125		so	so
sw3638A-ms98-a-0057	A.51	239.261125	239.351125		he	he
sw3638A-ms98-a-0057	A.51	239.351125	240.175000		transferred	transferred
sw3638A-ms98-a-0057	A.53	240.175000	240.802375		[silence]	[silence]
sw3638A-ms98-a-0057	A.53	240.802375	241.022750		to	to
sw3638A-ms98-a-0057	A.53	241.022750	241.979500	<CONT>	U	UCLA
sw3638A-ms98-a-0057	A.53	241.979500	241.979500	<CONT>	C	+++
sw3638A-ms98-a-0057	A.53	241.979500	241.979500	<CONT>	L	+++
sw3638A-ms98-a-0057	A.53	241.979500	241.979500	<CONT>	A	+++
sw3638A-ms98-a-0057	A.55	241.979500	242.445750		[silence]	[silence]
sw3638A-ms98-a-0058	A.55	242.445750	247.964750		[silence]	[silence]
sw3638A-ms98-a-0059	A.55	247.964750	248.444750		[silence]	[silence]
sw3638A-ms98-a-0059	A.55	248.444750	248.821875		Right	right
sw3638A-ms98-a-0059	A.57	248.821875	249.324125		[silence]	[silence]
sw3638A-ms98-a-0060	A.57	249.324125	251.572375		[silence]	[silence]
sw3638A-ms98-a-0061	A.57	251.572375	252.053125		[silence]	[silence]
sw3638A-ms98-a-0061	A.57	252.053125	252.575375	<SUB>	Uh-huh	um-hum
sw3638A-ms98-a-0061	A.59	252.575375	252.684625		[silence]	[silence]
sw3638A-ms98-a-0061	A.59	252.684625	252.792375		They're	they're
sw3638A-ms98-a-0061	A.59	252.792375	253.132375		playing	playing
sw3638A-ms98-a-0061	A.59	253.132375	253.482375		tonight	tonight
sw3638A-ms98-a-0061	A.59	253.482375	253.582375		in	in
sw3638A-ms98-a-0061	A.59	253.582375	254.142375		fact	fact
sw3638A-ms98-a-0061	A.61	254.142375	254.222375		I'm	i'm
sw3638A-ms98-a-0061	A.61	254.222375	254.572375		watching	watching
sw3638A-ms98-a-0061	A.61	254.572375	254.782375		them	them
sw3638A-ms98-a-0061	A.61	254.782375	254.922375		on	on
sw3638A-ms98-a-0061	A.61	254.922375	255.342375	<CONT>	T	TV
sw3638A-ms98-a-0061	A.61	255.342375	255.342375	<CONT>	V	+++
sw3638A-ms98-a-0061	A.61	255.342375	255.522375		right	right
sw3638A-ms98-a-0061	A.61	255.522375	255.955500		now	now
sw3638A-ms98-a-0061	A.61	255.955500	256.546250		[silence]	[silence]
sw3638A-ms98-a-0062	A.61	256.546250	257.146375		[silence]	[silence]
sw3638A-ms98-a-0062	A.61	257.146375	257.476375		But	but
sw3638A-ms98-a-0062	A.61	257.476375	257.747500		[silence]	[silence]
sw3638A-ms98-a-0062	A.61	257.747500	257.866250		they're	they're
sw3638A-ms98-a-0062	A.61	257.866250	258.176250		doing	doing
sw3638A-ms98-a-0062	A.61	258.176250	258.386250		some	some
sw3638A-ms98-a-0062	A.61	258.386250	259.116875		stomping	[laughter-stomping]
sw3638A-ms98-a-0062	A.61	259.116875	259.336250		on	[laughter-on]
sw3638A-ms98-a-0062	A.61	259.336250	260.044500		Virginia	Virginia
sw3638A-ms98-a-0062	A.63	260.044500	260.755500		[silence]	[silence]
sw3638A-ms98-a-0063	A.63	260.755500	264.457875		[silence]	[silence]
sw3638A-ms98-a-0064	A.63	264.457875	264.957875		[silence]	[silence]
sw3638A-ms98-a-0064	A.63	264.957875	265.434375		Really	really
sw3638A-ms98-a-0064	A.63	265.434375	265.830000		[silence]	[silence]
sw3638A-ms98-a-0064	A.63	265.830000	265.924125		Well	well
sw3638A-ms98-a-0064	A.63	265.924125	266.047875		they're	they're
sw3638A-ms98-a-0064	A.63	266.047875	266.297875		doing	doing
sw3638A-ms98-a-0064	A.63	266.297875	266.557875		good	good
sw3638A-ms98-a-0064	A.63	266.557875	267.054750		tonight	tonight
sw3638A-ms98-a-0064	A.65	267.054750	267.448125		[silence]	[silence]
sw3638A-ms98-a-0065	A.65	267.448125	267.841000		[silence]	[silence]
sw3638A-ms98-a-0065	A.65	267.841000	268.258125		Yeah	yeah
sw3638A-ms98-a-0065	A.67	268.258125	268.438125		they're	they're
sw3638A-ms98-a-0065	A.67	268.438125	268.897000		winning	winning
sw3638A-ms98-a-0065	A.69	268.897000	269.145625		[silence]	[silence]
sw3638A-ms98-a-0065	A.69	269.145625	269.298125		They're	they're
sw3638A-ms98-a-0065	A.69	269.298125	269.668125		winning	winning
sw3638A-ms98-a-0065	A.69	269.668125	270.148125	<CONT>	forty-one	forty
sw3638A-ms98-a-0065	A.69	270.148125	270.388125	<CONT>	+++	one
sw3638A-ms98-a-0065	A.69	270.388125	270.498125		to	to
sw3638A-ms98-a-0065	A.69	270.498125	271.098125		seven	seven
sw3638A-ms98-a-0065	A.71	271.098125	271.563750		[silence]	[silence]
sw3638A-ms98-a-0066	A.71	271.563750	271.781375		[silence]	[silence]
sw3638A-ms98-a-0066	A.71	271.781375	273.280625		Yeah	[laughter-yeah]
sw3638A-ms98-a-0066	A.73	273.280625	273.679000		Right	right
sw3638A-ms98-a-0066	A.75	273.679000	274.458625		[silence]	[silence]
sw3638A-ms98-a-0066	A.75	274.458625	274.771125		But	but
sw3638A-ms98-a-0066	A.75	274.771125	275.265250		[silence]	[silence]
sw3638A-ms98-a-0067	A.75	275.265250	275.428375		[silence]	[silence]
sw3638A-ms98-a-0067	A.75	275.428375	275.809000		[noise]	[noise]
sw3638A-ms98-a-0067	A.75	275.809000	276.163625		yeah	yeah
sw3638A-ms98-a-0067	A.75	276.163625	276.270375		[silence]	[silence]
sw3638A-ms98-a-0067	A.75	276.270375	276.705250		and	and
sw3638A-ms98-a-0067	A.75	276.705250	277.065375		uh	uh
sw3638A-ms98-a-0067	A.75	277.065375	277.385500		[silence]	[silence]
sw3638A-ms98-a-0067	A.75	277.385500	277.585250		that's	that's
sw3638A-ms98-a-0067	A.75	277.585250	277.905250		right	right
sw3638A-ms98-a-0067	A.75	277.905250	278.175250		Aikman	Aikman
sw3638A-ms98-a-0067	A.75	278.175250	278.385250		did	did
sw3638A-ms98-a-0067	A.75	278.385250	278.535250		go	go
sw3638A-ms98-a-0067	A.75	278.535250	278.675250		to	to
sw3638A-ms98-a-0067	A.75	278.675250	279.045250	<CONT>	O	OU
sw3638A-ms98-a-0067	A.75	279.045250	279.045250	<CONT>	U	+++
sw3638A-ms98-a-0067	A.75	279.045250	279.075250		I	i
sw3638A-ms98-a-0067	A.75	279.075250	279.375250		forgot	forgot
sw3638A-ms98-a-0067	A.75	279.375250	279.575250		about	about
sw3638A-ms98-a-0067	A.75	279.575250	279.975625		that	that
sw3638A-ms98-a-0067	A.77	279.975625	280.423750		[silence]	[silence]
sw3638A-ms98-a-0068	A.77	280.423750	285.225375		[silence]	[silence]
sw3638A-ms98-a-0069	A.77	285.225375	285.688625		[silence]	[silence]
sw3638A-ms98-a-0069	A.77	285.688625	286.005375		Yeah	yeah
sw3638A-ms98-a-0069	A.77	286.005375	286.301000		uh	uh
sw3638A-ms98-a-0069	A.77	286.301000	287.051750	<CONT>	U	UCLA
sw3638A-ms98-a-0069	A.77	287.051750	287.051750	<CONT>	C	+++
sw3638A-ms98-a-0069	A.77	287.051750	287.051750	<CONT>	L	+++
sw3638A-ms98-a-0069	A.77	287.051750	287.051750	<CONT>	A	+++
sw3638A-ms98-a-0069	A.79	287.051750	287.680625		[silence]	[silence]
sw3638A-ms98-a-0069	A.79	287.680625	288.093000		Yeah	yeah
sw3638A-ms98-a-0069	A.81	288.093000	288.665000		[silence]	[silence]
sw3638A-ms98-a-0070	A.81	288.665000	289.215000		[silence]	[silence]
sw3638A-ms98-a-0070	A.81	289.215000	289.505125		But	but
sw3638A-ms98-a-0070	A.81	289.505125	290.143750		[silence]	[silence]
sw3638A-ms98-a-0071	A.81	290.143750	290.672625		[silence]	[silence]
sw3638A-ms98-a-0071	A.81	290.672625	290.781250		the	the
sw3638A-ms98-a-0071	A.81	290.781250	291.203750		Cowboys	Cowboys
sw3638A-ms98-a-0071	A.81	291.203750	291.403750		did	did
sw3638A-ms98-a-0071	A.81	291.403750	291.613750		good	good
sw3638A-ms98-a-0071	A.81	291.613750	292.055125		today	today
sw3638A-ms98-a-0071	A.81	292.055125	292.262875		[silence]	[silence]
sw3638A-ms98-a-0071	A.81	292.262875	292.398375		I	i
sw3638A-ms98-a-0071	A.81	292.398375	292.573750		mean	mean
sw3638A-ms98-a-0071	A.81	292.573750	292.713750		I	i
sw3638A-ms98-a-0071	A.81	292.713750	292.943750		was	was
sw3638A-ms98-a-0071	A.81	292.943750	293.333750		proud	proud
sw3638A-ms98-a-0071	A.81	293.333750	293.442500		I	i
sw3638A-ms98-a-0071	A.81	293.442500	293.694000		thought	thought
sw3638A-ms98-a-0071	A.81	293.694000	294.330500		[silence]	[silence]
sw3638A-ms98-a-0071	A.81	294.330500	294.450125		I	i
sw3638A-ms98-a-0071	A.81	294.450125	294.673750		thought	thought
sw3638A-ms98-a-0071	A.81	294.673750	294.813750		they	they
sw3638A-ms98-a-0071	A.81	294.813750	294.923750		would	would
sw3638A-ms98-a-0071	A.81	294.923750	295.103750		get	get
sw3638A-ms98-a-0071	A.81	295.103750	295.343750		beat	beat
sw3638A-ms98-a-0071	A.81	295.343750	295.800375		today	today
sw3638A-ms98-a-0071	A.81	295.800375	296.139000		because	because_1
sw3638A-ms98-a-0071	A.81	296.139000	296.457875		[silence]	[silence]
sw3638A-ms98-a-0072	A.81	296.457875	296.897875		[silence]	[silence]
sw3638A-ms98-a-0072	A.81	296.897875	296.967875		I	i
sw3638A-ms98-a-0072	A.81	296.967875	297.087875		mean	mean
sw3638A-ms98-a-0072	A.81	297.087875	297.197875		they're	they're
sw3638A-ms98-a-0072	A.81	297.197875	297.437875		so	so
sw3638A-ms98-a-0072	A.81	297.437875	298.025625		young	young
sw3638A-ms98-a-0072	A.81	298.025625	298.240250		[silence]	[silence]
sw3638A-ms98-a-0072	A.81	298.240250	298.347875		you	you
sw3638A-ms98-a-0072	A.81	298.347875	298.649875		know	know
sw3638A-ms98-a-0072	A.81	298.649875	299.156500		playoffs	play-offs
sw3638A-ms98-a-0072	A.81	299.156500	299.170000		[silence]	[silence]
