sw3662A-ms98-a-0001	A.1	0.000000	0.500000		[silence]	[silence]
sw3662A-ms98-a-0001	A.1	0.500000	1.080000		[noise]	[noise]
sw3662A-ms98-a-0001	A.1	1.080000	1.200000		What	what
sw3662A-ms98-a-0001	A.1	1.200000	1.260000		do	do
sw3662A-ms98-a-0001	A.1	1.260000	1.360000		you	you
sw3662A-ms98-a-0001	A.1	1.360000	1.700000		think	think
sw3662A-ms98-a-0001	@A.3	1.700000	2.171875		[silence]	[silence]
sw3662A-ms98-a-0002	@A.3	2.171875	5.775750		[silence]	[silence]
sw3662A-ms98-a-0003	@A.3	5.775750	6.325750		[silence]	[silence]
sw3662A-ms98-a-0003	@A.3	6.325750	6.575750		Right	right
sw3662A-ms98-a-0003	A.5	6.575750	7.080375		[silence]	[silence]
sw3662A-ms98-a-0004	A.5	7.080375	39.864250		[silence]	[silence]
sw3662A-ms98-a-0005	A.5	39.864250	40.298375		[silence]	[silence]
sw3662A-ms98-a-0005	A.5	40.298375	40.724250	<SUB>	Uh-huh	um-hum
sw3662A-ms98-a-0005	A.7	40.724250	41.191375		[silence]	[silence]
sw3662A-ms98-a-0006	A.7	41.191375	49.499500		[silence]	[silence]
sw3662A-ms98-a-0007	A.7	49.499500	50.029500		[silence]	[silence]
sw3662A-ms98-a-0007	A.7	50.029500	50.199500		Yeah	yeah
sw3662A-ms98-a-0007	A.7	50.199500	50.329500		I	i
sw3662A-ms98-a-0007	A.7	50.329500	50.659500		think	think
sw3662A-ms98-a-0007	A.7	50.659500	50.909500	<SUB>	that	they
sw3662A-ms98-a-0007	A.7	50.909500	51.009500		the	the
sw3662A-ms98-a-0007	A.7	51.009500	51.859500		corporations	corporations
sw3662A-ms98-a-0007	A.7	51.859500	52.229500		should	should
sw3662A-ms98-a-0007	A.7	52.229500	52.687375		uh	uh
sw3662A-ms98-a-0007	A.7	52.687375	53.059500		do	do
sw3662A-ms98-a-0007	A.7	53.059500	53.279500		all	all
sw3662A-ms98-a-0007	A.7	53.279500	53.609500		that	that
sw3662A-ms98-a-0007	A.7	53.609500	53.769500		They	they
sw3662A-ms98-a-0007	A.7	53.769500	54.099500		should	should
sw3662A-ms98-a-0007	A.7	54.099500	54.310250		uh	uh
sw3662A-ms98-a-0007	A.7	54.310250	54.860125		[silence]	[silence]
sw3662A-ms98-a-0007	A.7	54.860125	55.179500		have	have
sw3662A-ms98-a-0007	A.7	55.179500	55.459500		drug	drug
sw3662A-ms98-a-0007	A.7	55.459500	55.839500		screening	screening
sw3662A-ms98-a-0007	A.7	55.839500	56.179500		before	before
sw3662A-ms98-a-0007	A.7	56.179500	56.289500		they	they
sw3662A-ms98-a-0007	A.7	56.289500	56.866375		hire	hire
sw3662A-ms98-a-0007	A.9	56.866375	57.472625		[silence]	[silence]
sw3662A-ms98-a-0007	A.9	57.472625	57.599500		an	an
sw3662A-ms98-a-0007	A.9	57.599500	58.229500		employee	employee
sw3662A-ms98-a-0007	A.9	58.229500	58.554625		[silence]	[silence]
sw3662A-ms98-a-0008	A.9	58.554625	58.674625		[silence]	[silence]
sw3662A-ms98-a-0008	A.9	58.674625	59.194625		and	and
sw3662A-ms98-a-0008	A.9	59.194625	59.621125		uh	uh
sw3662A-ms98-a-0008	A.9	59.621125	59.805625		[silence]	[silence]
sw3662A-ms98-a-0008	A.9	59.805625	60.484625	<CONT>	any	anytime
sw3662A-ms98-a-0008	A.9	60.484625	60.484625	<CONT>	time	+++
sw3662A-ms98-a-0008	A.9	60.484625	60.744625		that	that
sw3662A-ms98-a-0008	A.9	60.744625	60.864625		an	an
sw3662A-ms98-a-0008	A.9	60.864625	61.524625		employee	employee
sw3662A-ms98-a-0008	A.9	61.524625	61.764625		like	like
sw3662A-ms98-a-0008	A.9	61.764625	61.894625		if	if
sw3662A-ms98-a-0008	A.9	61.894625	62.237500		they're	they're
sw3662A-ms98-a-0008	A.9	62.237500	62.388250		[silence]	[silence]
sw3662A-ms98-a-0008	A.9	62.388250	62.674625		coming	coming
sw3662A-ms98-a-0008	A.9	62.674625	62.784625		to	to
sw3662A-ms98-a-0008	A.9	62.784625	63.044625		late	late
sw3662A-ms98-a-0008	A.9	63.044625	63.354625		[silence]	[silence]
sw3662A-ms98-a-0008	A.9	63.354625	63.724625		work	work
sw3662A-ms98-a-0008	A.9	63.724625	63.954625		all	all
sw3662A-ms98-a-0008	A.9	63.954625	64.077750		the	the
sw3662A-ms98-a-0008	A.9	64.077750	64.734625		time	time
sw3662A-ms98-a-0008	A.9	64.734625	65.154625		and	and
sw3662A-ms98-a-0008	A.9	65.154625	65.478500		uh	uh
sw3662A-ms98-a-0008	A.11	65.478500	65.791125		[silence]	[silence]
sw3662A-ms98-a-0008	A.11	65.791125	65.904625	<DEL>	---	and
sw3662A-ms98-a-0008	A.11	65.904625	66.074625		if	if
sw3662A-ms98-a-0008	A.11	66.074625	66.304625		they	they
sw3662A-ms98-a-0008	A.11	66.304625	66.554625		if	if
sw3662A-ms98-a-0008	A.11	66.554625	66.844625		they're	they're
sw3662A-ms98-a-0008	A.11	66.844625	67.374625		especially	especially
sw3662A-ms98-a-0008	A.11	67.374625	67.514625		if	if
sw3662A-ms98-a-0008	A.11	67.514625	67.724625		there's	there's
sw3662A-ms98-a-0008	A.11	67.724625	68.184625		[silence]	[silence]
sw3662A-ms98-a-0008	A.11	68.184625	68.384625	<SUB>	they're	not
sw3662A-ms98-a-0008	A.11	68.384625	68.464625		on	on
sw3662A-ms98-a-0008	A.11	68.464625	68.604625		the	the
sw3662A-ms98-a-0008	A.11	68.604625	69.054625		line	line
sw3662A-ms98-a-0008	A.11	69.054625	69.288875		or	or
sw3662A-ms98-a-0008	A.11	69.288875	69.630875		any	any
sw3662A-ms98-a-0008	A.11	69.630875	70.000000		[silence]	[silence]
sw3662A-ms98-a-0008	A.11	70.000000	70.314625		kind	kind
sw3662A-ms98-a-0008	A.11	70.314625	70.504625		of	of
sw3662A-ms98-a-0008	A.11	70.504625	71.514625		sensitive	sensitive
sw3662A-ms98-a-0008	A.11	71.514625	72.004625		job	job
sw3662A-ms98-a-0008	A.11	72.004625	72.344625		where	where
sw3662A-ms98-a-0008	A.11	72.344625	72.828375		[silence]	[silence]
sw3662A-ms98-a-0009	A.11	72.828375	73.278375		[silence]	[silence]
sw3662A-ms98-a-0009	A.11	73.278375	73.418375		you	you
sw3662A-ms98-a-0009	A.11	73.418375	73.558375		know	know
sw3662A-ms98-a-0009	A.11	73.558375	73.628375		if	if
sw3662A-ms98-a-0009	A.11	73.628375	73.748375		they	they
sw3662A-ms98-a-0009	A.11	73.748375	74.030250		can	can
sw3662A-ms98-a-0009	A.11	74.030250	74.218500		if	if
sw3662A-ms98-a-0009	A.11	74.218500	74.308375		they	they
sw3662A-ms98-a-0009	A.11	74.308375	74.518375		made	made
sw3662A-ms98-a-0009	A.11	74.518375	74.548375		a	a
sw3662A-ms98-a-0009	A.11	74.548375	75.078375		mistake	mistake
sw3662A-ms98-a-0009	A.11	75.078375	75.188375		it	it
sw3662A-ms98-a-0009	A.11	75.188375	75.358375		would	would
sw3662A-ms98-a-0009	A.11	75.358375	75.718375		cost	cost
sw3662A-ms98-a-0009	A.11	75.718375	75.798375		a	a
sw3662A-ms98-a-0009	A.11	75.798375	75.968375		lot	lot
sw3662A-ms98-a-0009	A.11	75.968375	76.028375		of	of
sw3662A-ms98-a-0009	A.11	76.028375	76.408375		money	money
sw3662A-ms98-a-0009	A.11	76.408375	76.808375		or	or
sw3662A-ms98-a-0009	A.13	76.808375	76.906375		or	or
sw3662A-ms98-a-0009	A.13	76.906375	77.368375		people's	people's
sw3662A-ms98-a-0009	A.13	77.368375	78.143750		lives	lives
sw3662A-ms98-a-0009	A.15	78.143750	78.829500		[silence]	[silence]
sw3662A-ms98-a-0009	A.15	78.829500	79.128375		Then	then
sw3662A-ms98-a-0009	A.15	79.128375	79.268375		they	they
sw3662A-ms98-a-0009	A.15	79.268375	79.518375		need	need
sw3662A-ms98-a-0009	A.15	79.518375	79.578375		to	to
sw3662A-ms98-a-0009	A.15	79.578375	79.748375		be	be
sw3662A-ms98-a-0009	A.15	79.748375	80.098375		watched	watched
sw3662A-ms98-a-0009	A.15	80.098375	80.698375		carefully	carefully
sw3662A-ms98-a-0009	A.15	80.698375	81.127750		so	so
sw3662A-ms98-a-0009	A.17	81.127750	81.626375		[silence]	[silence]
sw3662A-ms98-a-0010	A.17	81.626375	99.035500		[silence]	[silence]
sw3662A-ms98-a-0011	A.17	99.035500	99.340625		[silence]	[silence]
sw3662A-ms98-a-0011	A.17	99.340625	99.907000	<DEL>	---	um-hum
sw3662A-ms98-a-0011	A.17	99.907000	100.495250		[silence]	[silence]
sw3662A-ms98-a-0012	A.17	100.495250	129.029125		[silence]	[silence]
sw3662A-ms98-a-0013	A.17	129.029125	129.569125		[silence]	[silence]
sw3662A-ms98-a-0013	A.17	129.569125	129.919125		Right	right
sw3662A-ms98-a-0013	A.19	129.919125	130.487375		[silence]	[silence]
sw3662A-ms98-a-0014	A.19	130.487375	137.623125		[silence]	[silence]
sw3662A-ms98-a-0015	A.19	137.623125	138.102500		[silence]	[silence]
sw3662A-ms98-a-0015	A.19	138.102500	138.641875		Yeah	yeah
sw3662A-ms98-a-0015	A.19	138.641875	139.066875		[silence]	[silence]
sw3662A-ms98-a-0016	A.19	139.066875	139.574250		[silence]	[silence]
sw3662A-ms98-a-0016	A.19	139.574250	139.826875		yeah	yeah
sw3662A-ms98-a-0016	A.19	139.826875	140.046875		but	but
sw3662A-ms98-a-0016	A.19	140.046875	140.186875		you	you
sw3662A-ms98-a-0016	A.19	140.186875	140.356875		got	got
sw3662A-ms98-a-0016	A.19	140.356875	140.416875		to	to
sw3662A-ms98-a-0016	A.19	140.416875	140.616875		have	have
sw3662A-ms98-a-0016	A.19	140.616875	140.819000		a	a
sw3662A-ms98-a-0016	A.19	140.819000	140.996875		a	a
sw3662A-ms98-a-0016	A.19	140.996875	141.356875		safe	safe
sw3662A-ms98-a-0016	A.19	141.356875	141.606875		work	work
sw3662A-ms98-a-0016	A.19	141.606875	142.046875		place	place
sw3662A-ms98-a-0016	A.19	142.046875	142.256875		That's	that's
sw3662A-ms98-a-0016	A.19	142.256875	142.396875		all	all
sw3662A-ms98-a-0016	A.19	142.396875	142.526875		there	there
sw3662A-ms98-a-0016	A.19	142.526875	142.676875		is	is
sw3662A-ms98-a-0016	A.19	142.676875	142.796875		to	to
sw3662A-ms98-a-0016	A.19	142.796875	143.136875		it	it
sw3662A-ms98-a-0016	A.21	143.136875	143.323375		[silence]	[silence]
sw3662A-ms98-a-0017	A.21	143.323375	145.863375		[silence]	[silence]
sw3662A-ms98-a-0018	A.21	145.863375	146.322500		[silence]	[silence]
sw3662A-ms98-a-0018	A.21	146.322500	146.772000	<SUB>	Uh-huh	um-hum
sw3662A-ms98-a-0018	A.23	146.772000	147.218375		[silence]	[silence]
sw3662A-ms98-a-0019	A.23	147.218375	163.606875		[silence]	[silence]
sw3662A-ms98-a-0020	A.23	163.606875	164.077250		[silence]	[silence]
sw3662A-ms98-a-0020	A.23	164.077250	164.451250	<SUB>	Uh-huh	um-hum
sw3662A-ms98-a-0020	A.25	164.451250	164.983250		[silence]	[silence]
sw3662A-ms98-a-0021	A.25	164.983250	176.101875		[silence]	[silence]
sw3662A-ms98-a-0022	A.25	176.101875	176.911875		[silence]	[silence]
sw3662A-ms98-a-0022	A.25	176.911875	177.021875		I	i
sw3662A-ms98-a-0022	A.25	177.021875	177.241875		think	think
sw3662A-ms98-a-0022	A.25	177.241875	177.541875		it's	it's
sw3662A-ms98-a-0022	A.25	177.541875	177.751875		it's	it's
sw3662A-ms98-a-0022	A.25	177.751875	177.981875		more	more
sw3662A-ms98-a-0022	A.25	177.981875	178.431875		frequent	frequent
sw3662A-ms98-a-0022	A.25	178.431875	178.641875		now	now
sw3662A-ms98-a-0022	A.25	178.641875	178.791875		It's	it's
sw3662A-ms98-a-0022	A.25	178.791875	179.151875		probably	probably
sw3662A-ms98-a-0022	A.25	179.151875	179.351875		like	like
sw3662A-ms98-a-0022	A.25	179.351875	179.821875		forty	forty
sw3662A-ms98-a-0022	A.25	179.821875	180.141875		fifty	fifty
sw3662A-ms98-a-0022	A.25	180.141875	180.721875		percent	percent
sw3662A-ms98-a-0022	A.27	180.721875	181.267875		[silence]	[silence]
sw3662A-ms98-a-0023	A.27	181.267875	181.461375		[silence]	[silence]
sw3662A-ms98-a-0023	A.27	181.461375	182.171750		Yeah	yeah
sw3662A-ms98-a-0023	A.29	182.171750	182.906250		[silence]	[silence]
sw3662A-ms98-a-0023	A.29	182.906250	183.437875		Because	because
sw3662A-ms98-a-0023	A.29	183.437875	183.757875		uh	uh
sw3662A-ms98-a-0023	A.29	183.757875	183.907875		all	all
sw3662A-ms98-a-0023	A.29	183.907875	184.097875		the	the
sw3662A-ms98-a-0023	A.29	184.097875	184.427875		jobs	jobs
sw3662A-ms98-a-0023	A.29	184.427875	184.537875		that	that
sw3662A-ms98-a-0023	A.29	184.537875	184.687875		I've	i've
sw3662A-ms98-a-0023	A.29	184.687875	185.157875		applied	applied
sw3662A-ms98-a-0023	A.29	185.157875	185.625000		for	for
sw3662A-ms98-a-0023	A.29	185.625000	186.039375		[silence]	[silence]
sw3662A-ms98-a-0023	A.29	186.039375	186.437875		have	have
sw3662A-ms98-a-0023	A.29	186.437875	186.719000		uh	uh
sw3662A-ms98-a-0023	A.29	186.719000	187.084375		[silence]	[silence]
sw3662A-ms98-a-0023	A.29	187.084375	187.647875		mentioned	mentioned
sw3662A-ms98-a-0023	A.29	187.647875	187.867875		some	some
sw3662A-ms98-a-0023	A.29	187.867875	188.157875		type	type
sw3662A-ms98-a-0023	A.29	188.157875	188.337875		of	of
sw3662A-ms98-a-0023	A.29	188.337875	188.607875		drug	drug
sw3662A-ms98-a-0023	A.29	188.607875	189.109375		screening	screening
sw3662A-ms98-a-0023	A.31	189.109375	189.929375		[silence]	[silence]
sw3662A-ms98-a-0023	A.31	189.929375	190.442000	<SUB>	You	yeah
sw3662A-ms98-a-0023	A.31	190.442000	190.442000	<INS>	know	---
sw3662A-ms98-a-0023	A.33	190.442000	191.225875		[silence]	[silence]
sw3662A-ms98-a-0024	A.33	191.225875	191.773875		[silence]	[silence]
sw3662A-ms98-a-0024	A.33	191.773875	192.345875		Uh	uh
sw3662A-ms98-a-0024	A.33	192.345875	192.435875		I	i
sw3662A-ms98-a-0024	A.33	192.435875	192.645875		work	work
sw3662A-ms98-a-0024	A.33	192.645875	192.785875		at	at
sw3662A-ms98-a-0024	A.33	192.785875	193.423875		Sears	Sears
sw3662A-ms98-a-0024	A.35	193.423875	194.147125		[silence]	[silence]
sw3662A-ms98-a-0024	A.35	194.147125	194.365875		And	and
sw3662A-ms98-a-0024	A.35	194.365875	194.455875		I	i
sw3662A-ms98-a-0024	A.35	194.455875	194.745875		just	just
sw3662A-ms98-a-0024	A.35	194.745875	194.845875		do	do
sw3662A-ms98-a-0024	A.35	194.845875	195.445875		warehouse	warehouse
sw3662A-ms98-a-0024	A.35	195.445875	195.735875		work	work
sw3662A-ms98-a-0024	A.37	195.735875	196.214875		[silence]	[silence]
sw3662A-ms98-a-0025	A.37	196.214875	197.424500		[silence]	[silence]
sw3662A-ms98-a-0026	A.37	197.424500	197.779250		[silence]	[silence]
sw3662A-ms98-a-0026	A.37	197.779250	198.171125		Uh	uh
sw3662A-ms98-a-0026	A.37	198.171125	198.564500		not	not
sw3662A-ms98-a-0026	A.37	198.564500	198.714500		they	they
sw3662A-ms98-a-0026	A.37	198.714500	198.984500		hired	hired
sw3662A-ms98-a-0026	A.37	198.984500	199.074500		me	me
sw3662A-ms98-a-0026	A.37	199.074500	199.154500		in	in
sw3662A-ms98-a-0026	A.37	199.154500	199.504500		nineteen	nineteen
sw3662A-ms98-a-0026	A.37	199.504500	199.694500	<CONT>	eighty-four	eighty
sw3662A-ms98-a-0026	A.37	199.694500	200.084500	<CONT>	+++	four
sw3662A-ms98-a-0026	A.37	200.084500	200.824500		so	so
sw3662A-ms98-a-0026	A.39	200.824500	201.043250		Yeah	yeah
sw3662A-ms98-a-0026	A.41	201.043250	201.397250		[silence]	[silence]
sw3662A-ms98-a-0026	A.41	201.397250	201.544500		But	but
sw3662A-ms98-a-0026	A.41	201.544500	201.974500		now	now
sw3662A-ms98-a-0026	A.41	201.974500	202.414500		they	they
sw3662A-ms98-a-0026	A.41	202.414500	202.744500		they	they
sw3662A-ms98-a-0026	A.41	202.744500	203.154500		uh	uh
sw3662A-ms98-a-0026	A.41	203.154500	203.484500		they	they
sw3662A-ms98-a-0026	A.41	203.484500	203.834500		issued	issued
sw3662A-ms98-a-0026	A.41	203.834500	203.894500		a	a
sw3662A-ms98-a-0026	A.41	203.894500	204.480625		statement	statement
sw3662A-ms98-a-0026	A.43	204.480625	204.977000		[silence]	[silence]
sw3662A-ms98-a-0026	A.43	204.977000	205.364500		about	about
sw3662A-ms98-a-0026	A.43	205.364500	205.660875		that	that
sw3662A-ms98-a-0026	A.43	205.660875	205.928375		[silence]	[silence]
sw3662A-ms98-a-0026	A.43	205.928375	206.442375		about	about
sw3662A-ms98-a-0026	A.43	206.442375	207.127875		[vocalized-noise]	[vocalized-noise]
sw3662A-ms98-a-0026	A.43	207.127875	207.364500		three	three
sw3662A-ms98-a-0026	A.43	207.364500	207.664500		months	months
sw3662A-ms98-a-0026	A.43	207.664500	207.962750		ago	ago
sw3662A-ms98-a-0026	A.45	207.962750	208.362125		[silence]	[silence]
sw3662A-ms98-a-0027	A.45	208.362125	211.219250		[silence]	[silence]
sw3662A-ms98-a-0028	A.45	211.219250	211.748750		[silence]	[silence]
sw3662A-ms98-a-0028	A.45	211.748750	212.069250		Uh	uh
sw3662A-ms98-a-0028	A.45	212.069250	212.329250		not	not
sw3662A-ms98-a-0028	A.45	212.329250	212.459250		that	that
sw3662A-ms98-a-0028	A.45	212.459250	212.539250		I	i
sw3662A-ms98-a-0028	A.45	212.539250	212.779250		know	know
sw3662A-ms98-a-0028	A.45	212.779250	212.849250		of	of
sw3662A-ms98-a-0028	A.45	212.849250	213.019250		It	it
sw3662A-ms98-a-0028	A.45	213.019250	213.249250		was	was
sw3662A-ms98-a-0028	A.45	213.249250	213.509250		more	more
sw3662A-ms98-a-0028	A.45	213.509250	213.969250		about	about
sw3662A-ms98-a-0028	A.45	213.969250	214.236625		uh	uh
sw3662A-ms98-a-0028	A.45	214.236625	214.628250		[silence]	[silence]
sw3662A-ms98-a-0028	A.45	214.628250	214.859250		all	all
sw3662A-ms98-a-0028	A.45	214.859250	214.929250		the	the
sw3662A-ms98-a-0028	A.45	214.929250	215.359250		people's	people's
sw3662A-ms98-a-0028	A.45	215.359250	215.849250		problems	problems
sw3662A-ms98-a-0028	A.45	215.849250	216.279250		[silence]	[silence]
sw3662A-ms98-a-0028	A.45	216.279250	216.479250		Like	like
sw3662A-ms98-a-0028	A.47	216.479250	216.769250		[silence]	[silence]
sw3662A-ms98-a-0028	A.47	216.769250	216.929250		they've	they've
sw3662A-ms98-a-0028	A.47	216.929250	217.099250		been	been
sw3662A-ms98-a-0028	A.47	217.099250	217.319250		laying	laying
sw3662A-ms98-a-0028	A.47	217.319250	217.499250		off	off
sw3662A-ms98-a-0028	A.47	217.499250	217.539250		a	a
sw3662A-ms98-a-0028	A.47	217.539250	217.659250		lot	lot
sw3662A-ms98-a-0028	A.47	217.659250	217.739250		of	of
sw3662A-ms98-a-0028	A.47	217.739250	218.059250		people	people
sw3662A-ms98-a-0028	A.49	218.059250	218.389250		[silence]	[silence]
sw3662A-ms98-a-0028	A.49	218.389250	219.057625		And	and
sw3662A-ms98-a-0028	A.49	219.057625	219.501750		uh	uh
sw3662A-ms98-a-0028	A.49	219.501750	220.091500		[silence]	[silence]
sw3662A-ms98-a-0028	A.49	220.091500	220.401875		and	and
sw3662A-ms98-a-0028	A.49	220.401875	220.779750		uh	uh
sw3662A-ms98-a-0028	A.49	220.779750	221.238750		[silence]	[silence]
sw3662A-ms98-a-0029	A.49	221.238750	221.722875		[silence]	[silence]
sw3662A-ms98-a-0029	A.49	221.722875	222.098750		they	they
sw3662A-ms98-a-0029	A.49	222.098750	222.438750		sent	sent
sw3662A-ms98-a-0029	A.49	222.438750	222.699250		out	out
sw3662A-ms98-a-0029	A.49	222.699250	223.272125	<SUB>	the	uh
sw3662A-ms98-a-0029	A.49	223.272125	223.784375		[silence]	[silence]
sw3662A-ms98-a-0029	A.49	223.784375	224.208750		employee	employee
sw3662A-ms98-a-0029	A.49	224.208750	224.868750		assistance	assistance
sw3662A-ms98-a-0029	A.49	224.868750	225.457500		cards	cards
sw3662A-ms98-a-0029	A.49	225.457500	225.811500		[silence]	[silence]
sw3662A-ms98-a-0029	A.49	225.811500	225.968750		for	for
sw3662A-ms98-a-0029	A.49	225.968750	226.268750		anyone	anyone
sw3662A-ms98-a-0029	A.49	226.268750	226.398750		that	that
sw3662A-ms98-a-0029	A.49	226.398750	226.578750		had	had
sw3662A-ms98-a-0029	A.49	226.578750	226.778750		any	any
sw3662A-ms98-a-0029	A.49	226.778750	227.048750		sort	sort
sw3662A-ms98-a-0029	A.49	227.048750	227.178750		of	of
sw3662A-ms98-a-0029	A.49	227.178750	227.468750		drug	drug
sw3662A-ms98-a-0029	A.49	227.468750	228.078750		problem	problem
sw3662A-ms98-a-0029	A.49	228.078750	228.408750		or	or
sw3662A-ms98-a-0029	A.49	228.408750	228.648750		work	work
sw3662A-ms98-a-0029	A.49	228.648750	229.008750		related	related
sw3662A-ms98-a-0029	A.49	229.008750	229.454375		problem	problem
sw3662A-ms98-a-0029	A.51	229.454375	229.646500		[silence]	[silence]
sw3662A-ms98-a-0029	A.51	229.646500	229.958750		Family	family
sw3662A-ms98-a-0029	A.51	229.958750	230.578250		problems	problems
sw3662A-ms98-a-0029	A.51	230.578250	230.678750		you	you
sw3662A-ms98-a-0029	A.51	230.678750	230.875000		know	know
sw3662A-ms98-a-0029	A.53	230.875000	231.240375		[silence]	[silence]
sw3662A-ms98-a-0029	A.53	231.240375	231.318750	<SUB>	They	it
sw3662A-ms98-a-0029	A.53	231.318750	231.508750		kind	kind
sw3662A-ms98-a-0029	A.53	231.508750	231.568750		of	of
sw3662A-ms98-a-0029	A.53	231.568750	231.868750		covered	covered
sw3662A-ms98-a-0029	A.53	231.868750	232.448750		everything	everything
sw3662A-ms98-a-0029	A.55	232.448750	232.955375		[silence]	[silence]
sw3662A-ms98-a-0030	A.55	232.955375	233.225375		[silence]	[silence]
sw3662A-ms98-a-0030	A.55	233.225375	233.455375		But	but
sw3662A-ms98-a-0030	A.55	233.455375	233.575375		I	i
sw3662A-ms98-a-0030	A.55	233.575375	233.785375		know	know
sw3662A-ms98-a-0030	A.55	233.785375	233.905375		they	they
sw3662A-ms98-a-0030	A.55	233.905375	234.065375		have	have
sw3662A-ms98-a-0030	A.55	234.065375	234.105375		a	a
sw3662A-ms98-a-0030	A.55	234.105375	234.315375		lot	lot
sw3662A-ms98-a-0030	A.55	234.315375	234.405375		of	of
sw3662A-ms98-a-0030	A.55	234.405375	234.665375		drug	drug
sw3662A-ms98-a-0030	A.55	234.665375	235.245375		problems	problems
sw3662A-ms98-a-0030	A.55	235.245375	235.510875		so	so
sw3662A-ms98-a-0030	A.57	235.510875	236.040750		[silence]	[silence]
sw3662A-ms98-a-0031	A.57	236.040750	246.364375		[silence]	[silence]
sw3662A-ms98-a-0032	A.57	246.364375	246.994375		[silence]	[silence]
sw3662A-ms98-a-0032	A.57	246.994375	247.314375		Yes	yes
sw3662A-ms98-a-0032	A.57	247.314375	247.394375		I	i
sw3662A-ms98-a-0032	A.57	247.394375	247.871125		do	do
sw3662A-ms98-a-0032	A.59	247.871125	248.470000		[silence]	[silence]
sw3662A-ms98-a-0032	A.59	248.470000	249.010625		Because	because
sw3662A-ms98-a-0032	A.59	249.010625	249.221625		[silence]	[silence]
sw3662A-ms98-a-0032	A.59	249.221625	249.564375		because	because
sw3662A-ms98-a-0032	A.59	249.564375	249.624375		a	a
sw3662A-ms98-a-0032	A.59	249.624375	249.904375		lot	lot
sw3662A-ms98-a-0032	A.59	249.904375	250.044375		of	of
sw3662A-ms98-a-0032	A.59	250.044375	250.144375		them	them_1
sw3662A-ms98-a-0032	A.59	250.144375	250.464375		are	are
sw3662A-ms98-a-0032	A.59	250.464375	250.604375		you	you
sw3662A-ms98-a-0032	A.59	250.604375	250.949375		know	know
sw3662A-ms98-a-0032	A.59	250.949375	251.284625		[silence]	[silence]
sw3662A-ms98-a-0032	A.59	251.284625	251.434375		they're	they're
sw3662A-ms98-a-0032	A.59	251.434375	252.144375		hypocritical	hypocritical
sw3662A-ms98-a-0032	A.59	252.144375	252.413500		They	they
sw3662A-ms98-a-0032	A.59	252.413500	252.598125		[silence]	[silence]
sw3662A-ms98-a-0032	A.59	252.598125	252.979000		they	they
sw3662A-ms98-a-0032	A.59	252.979000	253.442375		[silence]	[silence]
sw3662A-ms98-a-0032	A.59	253.442375	253.724375		talk	talk
sw3662A-ms98-a-0032	A.59	253.724375	253.894375		[silence]	[silence]
sw3662A-ms98-a-0032	A.59	253.894375	254.384375		against	against
sw3662A-ms98-a-0032	A.59	254.384375	254.771625		drugs	drugs
sw3662A-ms98-a-0032	A.61	254.771625	255.396875		[silence]	[silence]
sw3662A-ms98-a-0032	A.61	255.396875	255.604375		and	and
sw3662A-ms98-a-0032	A.61	255.604375	255.864375		then	then
sw3662A-ms98-a-0032	A.61	255.864375	255.984375		they	they
sw3662A-ms98-a-0032	A.61	255.984375	256.184375		get	get
sw3662A-ms98-a-0032	A.61	256.184375	256.641625		caught	caught
sw3662A-ms98-a-0032	A.61	256.641625	256.890250		[silence]	[silence]
sw3662A-ms98-a-0032	A.61	256.890250	257.184375		you	you
sw3662A-ms98-a-0032	A.61	257.184375	257.517875		know	know
sw3662A-ms98-a-0032	A.63	257.517875	258.133750		[silence]	[silence]
sw3662A-ms98-a-0033	A.63	258.133750	258.744875		[silence]	[silence]
sw3662A-ms98-a-0033	A.63	258.744875	258.933750		In	in
sw3662A-ms98-a-0033	A.63	258.933750	259.553750		stings	stings
sw3662A-ms98-a-0033	A.63	259.553750	259.733750		in	in
sw3662A-ms98-a-0033	A.63	259.733750	260.397000		Washington	Washington
sw3662A-ms98-a-0033	A.65	260.397000	260.890500		[silence]	[silence]
sw3662A-ms98-a-0033	A.65	260.890500	261.163750		Whether	whether
sw3662A-ms98-a-0033	A.65	261.163750	261.263750		it's	it's
sw3662A-ms98-a-0033	A.65	261.263750	261.823750		drugs	drugs
sw3662A-ms98-a-0033	A.65	261.823750	262.173125		or	or
sw3662A-ms98-a-0033	A.65	262.173125	262.453750		any	any
sw3662A-ms98-a-0033	A.65	262.453750	262.693750		other	other
sw3662A-ms98-a-0033	A.65	262.693750	263.013750		kind	kind
sw3662A-ms98-a-0033	A.65	263.013750	263.226500		of	of
sw3662A-ms98-a-0033	A.65	263.226500	264.028750		[silence]	[silence]
sw3662A-ms98-a-0033	A.65	264.028750	264.313750		uh	uh
sw3662A-ms98-a-0033	A.65	264.313750	264.533750		like	like
sw3662A-ms98-a-0033	A.65	264.533750	264.895875		the	the
sw3662A-ms98-a-0033	A.65	264.895875	265.123750		the	the
sw3662A-ms98-a-0033	A.65	265.123750	265.473750		money	money
sw3662A-ms98-a-0033	A.65	265.473750	265.933750		laundering	laundering
sw3662A-ms98-a-0033	A.65	265.933750	266.543750		scams	scams
sw3662A-ms98-a-0033	A.65	266.543750	266.743750		All	all
sw3662A-ms98-a-0033	A.65	266.743750	266.973750		that	that
sw3662A-ms98-a-0033	A.65	266.973750	267.173750		was	was
sw3662A-ms98-a-0033	A.65	267.173750	267.433750		drug	drug
sw3662A-ms98-a-0033	A.65	267.433750	267.913750		related	related
sw3662A-ms98-a-0033	A.67	267.913750	269.026375		So	so
sw3662A-ms98-a-0033	A.67	269.026375	269.519125		[silence]	[silence]
sw3662A-ms98-a-0034	A.67	269.519125	269.840500		[silence]	[silence]
sw3662A-ms98-a-0034	A.67	269.840500	270.109125		and	and
sw3662A-ms98-a-0034	A.67	270.109125	270.369125		that	that
sw3662A-ms98-a-0034	A.67	270.369125	270.739125		cost	cost
sw3662A-ms98-a-0034	A.67	270.739125	270.999125	<SUB>	us	u[s]-
sw3662A-ms98-a-0034	A.67	270.999125	271.149125		the	the
sw3662A-ms98-a-0034	A.67	271.149125	271.564000		country	country
sw3662A-ms98-a-0034	A.67	271.564000	271.816375		[silence]	[silence]
sw3662A-ms98-a-0034	A.67	271.816375	271.979125		you	you
sw3662A-ms98-a-0034	A.67	271.979125	272.149125		know	know
sw3662A-ms98-a-0034	A.67	272.149125	272.659125		billions	billions
sw3662A-ms98-a-0034	A.67	272.659125	272.729125		of	of
sw3662A-ms98-a-0034	A.67	272.729125	273.446500		dollars	dollars
sw3662A-ms98-a-0034	A.69	273.446500	273.811125		[silence]	[silence]
sw3662A-ms98-a-0035	A.69	273.811125	274.190125		[silence]	[silence]
sw3662A-ms98-a-0035	A.69	274.190125	274.557125		So	so
sw3662A-ms98-a-0035	A.69	274.557125	275.093125		[silence]	[silence]
sw3662A-ms98-a-0036	A.69	275.093125	298.306000		[silence]	[silence]
