sw3639B-ms98-a-0001	B.2	0.000000	1.800000		[silence]	[silence]
sw3639B-ms98-a-0001	B.2	1.800000	3.862375		[noise]	[noise]
sw3639B-ms98-a-0001	B.2	3.862375	4.283250		[silence]	[silence]
sw3639B-ms98-a-0002	B.2	4.283250	4.703250		[silence]	[silence]
sw3639B-ms98-a-0002	B.2	4.703250	4.883250		Well	well
sw3639B-ms98-a-0002	B.2	4.883250	4.953250		as	as
sw3639B-ms98-a-0002	B.2	4.953250	4.993250		a	a
sw3639B-ms98-a-0002	B.2	4.993250	5.193250		matter	matter
sw3639B-ms98-a-0002	B.2	5.193250	5.263250		of	of
sw3639B-ms98-a-0002	B.2	5.263250	5.523250		fact	fact
sw3639B-ms98-a-0002	B.2	5.523250	5.613250		I	i
sw3639B-ms98-a-0002	B.2	5.613250	6.130375		just	just
sw3639B-ms98-a-0002	B.2	6.130375	6.567250		[silence]	[silence]
sw3639B-ms98-a-0002	B.2	6.567250	6.803250		bought	bought
sw3639B-ms98-a-0002	B.2	6.803250	7.023250		one	one
sw3639B-ms98-a-0002	B.4	7.023250	8.443250		[laughter]	[laughter]
sw3639B-ms98-a-0002	B.4	8.443250	8.893250		Just	just
sw3639B-ms98-a-0002	B.4	8.893250	9.203250		[silence]	[silence]
sw3639B-ms98-a-0002	B.4	9.203250	9.513250		just	just
sw3639B-ms98-a-0002	B.4	9.513250	9.843250		within	within
sw3639B-ms98-a-0002	B.4	9.843250	9.923250		the	the
sw3639B-ms98-a-0002	B.4	9.923250	10.416500		last	last
sw3639B-ms98-a-0002	B.4	10.416500	10.883625		[silence]	[silence]
sw3639B-ms98-a-0002	B.4	10.883625	11.103250		three	three
sw3639B-ms98-a-0002	B.4	11.103250	11.613250		weeks	weeks
sw3639B-ms98-a-0002	B.6	11.613250	12.021875		[silence]	[silence]
sw3639B-ms98-a-0003	B.6	12.021875	12.781875		[silence]	[silence]
sw3639B-ms98-a-0003	B.6	12.781875	12.891875		I	i
sw3639B-ms98-a-0003	B.6	12.891875	13.111875		got	got
sw3639B-ms98-a-0003	B.6	13.111875	13.161875		a	a
sw3639B-ms98-a-0003	B.6	13.161875	13.927500		Lexus	Lexus
sw3639B-ms98-a-0003	B.6	13.927500	14.321875	<CONT>	L	LS
sw3639B-ms98-a-0003	B.6	14.321875	14.321875	<CONT>	S	+++
sw3639B-ms98-a-0003	B.6	14.321875	14.581875		four	four
sw3639B-ms98-a-0003	B.6	14.581875	14.921875		hundred	hundred
sw3639B-ms98-a-0003	B.8	14.921875	15.397375		[silence]	[silence]
sw3639B-ms98-a-0004	B.8	15.397375	16.860125		[silence]	[silence]
sw3639B-ms98-a-0005	B.8	16.860125	17.401375		[silence]	[silence]
sw3639B-ms98-a-0005	B.8	17.401375	17.550125		Which	which
sw3639B-ms98-a-0005	B.8	17.550125	17.640125		is	is
sw3639B-ms98-a-0005	B.8	17.640125	17.870125		made	made
sw3639B-ms98-a-0005	B.8	17.870125	17.970125		by	by
sw3639B-ms98-a-0005	B.8	17.970125	18.580125		Toyota	Toyota
sw3639B-ms98-a-0005	B.10	18.580125	19.086750		[silence]	[silence]
sw3639B-ms98-a-0006	B.10	19.086750	21.638000		[silence]	[silence]
sw3639B-ms98-a-0007	B.10	21.638000	22.068000		[silence]	[silence]
sw3639B-ms98-a-0007	B.10	22.068000	22.398000		Yeah	yeah
sw3639B-ms98-a-0007	B.12	22.398000	23.006000		[silence]	[silence]
sw3639B-ms98-a-0008	B.12	23.006000	23.438125		[silence]	[silence]
sw3639B-ms98-a-0008	B.12	23.438125	23.676000		It's	it's
sw3639B-ms98-a-0008	B.12	23.676000	23.886000		kind	kind
sw3639B-ms98-a-0008	B.12	23.886000	24.149625		of	of
sw3639B-ms98-a-0008	B.12	24.149625	24.556000		their	their
sw3639B-ms98-a-0008	B.14	24.556000	25.051500		[silence]	[silence]
sw3639B-ms98-a-0009	B.14	25.051500	27.980125		[silence]	[silence]
sw3639B-ms98-a-0010	B.14	27.980125	28.460125		[silence]	[silence]
sw3639B-ms98-a-0010	B.14	28.460125	28.630125		[noise]	[noise]
sw3639B-ms98-a-0010	B.14	28.630125	29.032625		Right	right
sw3639B-ms98-a-0010	B.14	29.032625	29.270125		it	it
sw3639B-ms98-a-0010	B.14	29.270125	29.470125		it	it
sw3639B-ms98-a-0010	B.14	29.470125	29.950125		sounds	sounds
sw3639B-ms98-a-0010	B.14	29.950125	30.150125		like	like
sw3639B-ms98-a-0010	B.14	30.150125	30.240125		it	it
sw3639B-ms98-a-0010	B.14	30.240125	30.380125		but	but
sw3639B-ms98-a-0010	B.14	30.380125	30.490125		it	it
sw3639B-ms98-a-0010	B.14	30.490125	30.700125		really	really
sw3639B-ms98-a-0010	B.14	30.700125	31.100125		isn't	isn't
sw3639B-ms98-a-0010	B.16	31.100125	32.490125		[laughter]	[laughter]
sw3639B-ms98-a-0010	B.16	32.490125	32.790125		It's	it's
sw3639B-ms98-a-0010	B.16	32.790125	32.920125		uh	uh
sw3639B-ms98-a-0010	B.16	32.920125	33.400125		marketed	marketed
sw3639B-ms98-a-0010	B.16	33.400125	33.480125		of	of
sw3639B-ms98-a-0010	B.16	33.480125	34.103375		course	course
sw3639B-ms98-a-0010	B.16	34.103375	34.280125		it	it
sw3639B-ms98-a-0010	B.16	34.280125	34.430125		its	its
sw3639B-ms98-a-0010	B.16	34.430125	34.740125		own	own
sw3639B-ms98-a-0010	B.16	34.740125	35.674250		dealerships	dealerships
sw3639B-ms98-a-0010	B.18	35.674250	35.715125		[silence]	[silence]
sw3639B-ms98-a-0011	B.18	35.715125	35.905125		[silence]	[silence]
sw3639B-ms98-a-0011	B.18	35.905125	36.065125	<DEL>	---	u[sually]-
sw3639B-ms98-a-0011	B.18	36.065125	36.385125		Usually	usually
sw3639B-ms98-a-0011	B.18	36.385125	36.675125		or	or
sw3639B-ms98-a-0011	B.18	36.675125	37.025125		somebody	somebody
sw3639B-ms98-a-0011	B.18	37.025125	37.205125		that's	that's
sw3639B-ms98-a-0011	B.18	37.205125	37.435125		maybe	maybe
sw3639B-ms98-a-0011	B.18	37.435125	37.585125		got	got
sw3639B-ms98-a-0011	B.18	37.585125	37.645125		a	a
sw3639B-ms98-a-0011	B.18	37.645125	38.155125		Cadillac	Cadillac
sw3639B-ms98-a-0011	B.18	38.155125	38.265125		or	or
sw3639B-ms98-a-0011	B.18	38.265125	38.815125		Lincoln	Lincoln
sw3639B-ms98-a-0011	B.18	38.815125	39.215125		and	and
sw3639B-ms98-a-0011	B.18	39.215125	39.705125		Lexus	Lexus
sw3639B-ms98-a-0011	B.18	39.705125	40.232875		dealership	dealership
sw3639B-ms98-a-0011	B.18	40.232875	40.379875		[silence]	[silence]
sw3639B-ms98-a-0011	B.18	40.379875	40.645125		uh	uh
sw3639B-ms98-a-0011	B.20	40.645125	41.145125		sometimes	sometimes
sw3639B-ms98-a-0011	B.20	41.145125	41.275125		they	they
sw3639B-ms98-a-0011	B.20	41.275125	41.475125		do	do
sw3639B-ms98-a-0011	B.20	41.475125	41.764125		that	that
sw3639B-ms98-a-0011	B.20	41.764125	41.932750		[silence]	[silence]
sw3639B-ms98-a-0011	B.20	41.932750	42.150375		but	but
sw3639B-ms98-a-0011	B.22	42.150375	42.681375		[silence]	[silence]
sw3639B-ms98-a-0012	B.22	42.681375	43.291375		[silence]	[silence]
sw3639B-ms98-a-0012	B.22	43.291375	43.611375		it's	it's
sw3639B-ms98-a-0012	B.22	43.611375	43.989625		uh	uh
sw3639B-ms98-a-0012	B.22	43.989625	44.131375		a	a
sw3639B-ms98-a-0012	B.22	44.131375	44.821875		brand	brand
sw3639B-ms98-a-0012	B.22	44.821875	44.942375		[silence]	[silence]
sw3639B-ms98-a-0012	B.22	44.942375	45.301375		car	car
sw3639B-ms98-a-0012	B.22	45.301375	45.411375		but	but
sw3639B-ms98-a-0012	B.22	45.411375	45.571375		I've	i've
sw3639B-ms98-a-0012	B.22	45.571375	45.831375		really	really
sw3639B-ms98-a-0012	B.22	45.831375	46.131375		liked	liked
sw3639B-ms98-a-0012	B.22	46.131375	46.328125		it	it
sw3639B-ms98-a-0012	B.22	46.328125	46.456125		[silence]	[silence]
sw3639B-ms98-a-0012	B.22	46.456125	46.681375		It	it
sw3639B-ms98-a-0012	B.22	46.681375	46.851375		it	it
sw3639B-ms98-a-0012	B.22	46.851375	47.381375		drives	drives
sw3639B-ms98-a-0012	B.22	47.381375	47.701375		just	just
sw3639B-ms98-a-0012	B.22	47.701375	48.381375		wonderfully	wonderfully
sw3639B-ms98-a-0012	B.22	48.381375	48.561375		and	and
sw3639B-ms98-a-0012	B.22	48.561375	48.691375		there	there
sw3639B-ms98-a-0012	B.22	48.691375	48.899625		is	is
sw3639B-ms98-a-0012	B.22	48.899625	49.141375		it's	it's
sw3639B-ms98-a-0012	B.22	49.141375	49.281375		so	so
sw3639B-ms98-a-0012	B.22	49.281375	49.871375		quiet	quiet
sw3639B-ms98-a-0012	B.22	49.871375	50.134125	<DEL>	---	y[ou]-
sw3639B-ms98-a-0012	B.22	50.134125	50.363875		[silence]	[silence]
sw3639B-ms98-a-0012	B.22	50.363875	50.741375		almost	almost
sw3639B-ms98-a-0012	B.22	50.741375	51.001375		can't	can't
sw3639B-ms98-a-0012	B.22	51.001375	51.221375		tell	tell
sw3639B-ms98-a-0012	B.22	51.221375	51.291375		the	the
sw3639B-ms98-a-0012	B.22	51.291375	51.571375		engine	engine
sw3639B-ms98-a-0012	B.22	51.571375	51.671375		is	is
sw3639B-ms98-a-0012	B.22	51.671375	52.001375		running	running
sw3639B-ms98-a-0012	B.24	52.001375	52.614750		[silence]	[silence]
sw3639B-ms98-a-0013	B.24	52.614750	60.827375		[silence]	[silence]
sw3639B-ms98-a-0014	B.24	60.827375	61.477375		[silence]	[silence]
sw3639B-ms98-a-0014	B.24	61.477375	61.687375		It	it
sw3639B-ms98-a-0014	B.24	61.687375	61.967875		really	really
sw3639B-ms98-a-0014	B.24	61.967875	62.358750		is	is
sw3639B-ms98-a-0014	B.24	62.358750	62.727375		It's	it's
sw3639B-ms98-a-0014	B.24	62.727375	62.887375		got	got
sw3639B-ms98-a-0014	B.24	62.887375	63.057375		pretty	pretty
sw3639B-ms98-a-0014	B.24	63.057375	63.157375		good	good
sw3639B-ms98-a-0014	B.24	63.157375	63.987375		acceleration	acceleration
sw3639B-ms98-a-0014	B.24	63.987375	64.477375		too	too
sw3639B-ms98-a-0014	B.26	64.477375	64.657375		It's	it's
sw3639B-ms98-a-0014	B.26	64.657375	64.777375		got	got
sw3639B-ms98-a-0014	B.26	64.777375	64.817375		a	a
sw3639B-ms98-a-0014	B.26	64.817375	65.237375	<CONT>	C	CD
sw3639B-ms98-a-0014	B.26	65.237375	65.237375	<CONT>	D	+++
sw3639B-ms98-a-0014	B.26	65.237375	65.707375		player	player
sw3639B-ms98-a-0014	B.26	65.707375	65.847375		in	in
sw3639B-ms98-a-0014	B.26	65.847375	66.037375		it	it
sw3639B-ms98-a-0014	B.26	66.037375	66.217375		so	so
sw3639B-ms98-a-0014	B.26	66.217375	66.362125		I	i
sw3639B-ms98-a-0014	B.26	66.362125	66.616375		can	can
sw3639B-ms98-a-0014	B.26	66.616375	66.804750		[silence]	[silence]
sw3639B-ms98-a-0014	B.26	66.804750	66.907375		I	i
sw3639B-ms98-a-0014	B.26	66.907375	67.087375		can	can
sw3639B-ms98-a-0014	B.26	67.087375	67.307375		play	play
sw3639B-ms98-a-0014	B.26	67.307375	67.797375		those	those
sw3639B-ms98-a-0014	B.26	67.797375	67.966500		and	and
sw3639B-ms98-a-0014	B.28	67.966500	68.257125		[silence]	[silence]
sw3639B-ms98-a-0015	B.28	68.257125	70.257875		[silence]	[silence]
sw3639B-ms98-a-0016	B.28	70.257875	70.715625		[silence]	[silence]
sw3639B-ms98-a-0016	B.28	70.715625	71.140125	<SUB>	Uh-huh	hum-um
sw3639B-ms98-a-0016	B.30	71.140125	71.455375		[silence]	[silence]
sw3639B-ms98-a-0017	B.30	71.455375	71.925375		[silence]	[silence]
sw3639B-ms98-a-0017	B.30	71.925375	72.065375		But	but
sw3639B-ms98-a-0017	B.30	72.065375	72.245375	<CONT>	there	there's
sw3639B-ms98-a-0017	B.30	72.245375	72.245375	<CONT>	is	+++
sw3639B-ms98-a-0017	B.30	72.245375	72.455375		not	not
sw3639B-ms98-a-0017	B.30	72.455375	72.605375		very	very
sw3639B-ms98-a-0017	B.30	72.605375	72.865375		many	many
sw3639B-ms98-a-0017	B.30	72.865375	73.275375		options	options
sw3639B-ms98-a-0017	B.30	73.275375	73.385375		on	on
sw3639B-ms98-a-0017	B.30	73.385375	73.575375		that	that
sw3639B-ms98-a-0017	B.30	73.575375	73.925375		car	car
sw3639B-ms98-a-0017	B.32	73.925375	74.501375		[silence]	[silence]
sw3639B-ms98-a-0018	B.32	74.501375	74.596625		[silence]	[silence]
sw3639B-ms98-a-0018	B.32	74.596625	74.706875	<DEL>	---	yeah
sw3639B-ms98-a-0018	B.32	74.706875	74.851375	<CONT>	There	there's
sw3639B-ms98-a-0018	B.32	74.851375	74.851375	<CONT>	is	+++
sw3639B-ms98-a-0018	B.32	74.851375	75.091375		only	only
sw3639B-ms98-a-0018	B.32	75.091375	75.341375		about	about
sw3639B-ms98-a-0018	B.32	75.341375	75.581375		five	five
sw3639B-ms98-a-0018	B.32	75.581375	75.671375		or	or
sw3639B-ms98-a-0018	B.32	75.671375	75.961375		six	six
sw3639B-ms98-a-0018	B.32	75.961375	76.391375		options	options
sw3639B-ms98-a-0018	B.32	76.391375	76.791375		Everything	everything
sw3639B-ms98-a-0018	B.32	76.791375	77.071375		else	else
sw3639B-ms98-a-0018	B.32	77.071375	77.335125		is	is
sw3639B-ms98-a-0018	B.32	77.335125	77.613875		[silence]	[silence]
sw3639B-ms98-a-0018	B.32	77.613875	78.412375		standard	standard
sw3639B-ms98-a-0018	B.34	78.412375	78.731375		Uh	uh
sw3639B-ms98-a-0018	B.34	78.731375	78.941375		some	some
sw3639B-ms98-a-0018	B.34	78.941375	79.011375		of	of
sw3639B-ms98-a-0018	B.34	79.011375	79.071375		the	the
sw3639B-ms98-a-0018	B.34	79.071375	79.901375		tracking	tracking
sw3639B-ms98-a-0018	B.34	79.901375	80.431375		control	control
sw3639B-ms98-a-0018	B.34	80.431375	81.081375		things	things
sw3639B-ms98-a-0018	B.34	81.081375	81.321375		and	and
sw3639B-ms98-a-0018	B.34	81.321375	81.751375		skidding	skidding
sw3639B-ms98-a-0018	B.34	81.751375	82.111375		control	control
sw3639B-ms98-a-0018	B.34	82.111375	82.381375		things	things
sw3639B-ms98-a-0018	B.34	82.381375	82.584375		for	for
sw3639B-ms98-a-0018	B.34	82.584375	82.741250		up	up
sw3639B-ms98-a-0018	B.34	82.741250	83.296125		north	north
sw3639B-ms98-a-0018	B.36	83.296125	84.210375		[silence]	[silence]
sw3639B-ms98-a-0018	B.36	84.210375	84.351375		The	the
sw3639B-ms98-a-0018	B.36	84.351375	84.951375	<CONT>	C	CD
sw3639B-ms98-a-0018	B.36	84.951375	84.951375	<CONT>	D	+++
sw3639B-ms98-a-0018	B.36	84.951375	85.061375		and	and
sw3639B-ms98-a-0018	B.36	85.061375	85.121375		the	the
sw3639B-ms98-a-0018	B.36	85.121375	85.751375		premium	premium
sw3639B-ms98-a-0018	B.36	85.751375	86.301375		sound	sound
sw3639B-ms98-a-0018	B.36	86.301375	87.180250		system	system
sw3639B-ms98-a-0018	B.38	87.180250	87.724125		[silence]	[silence]
sw3639B-ms98-a-0019	B.38	87.724125	89.536500		[silence]	[silence]
sw3639B-ms98-a-0020	B.38	89.536500	90.076500		[silence]	[silence]
sw3639B-ms98-a-0020	B.38	90.076500	90.546500		Yeah	yeah
sw3639B-ms98-a-0020	B.38	90.546500	90.726500		it's	it's
sw3639B-ms98-a-0020	B.38	90.726500	90.916500		kind	kind
sw3639B-ms98-a-0020	B.38	90.916500	91.016500		of	of
sw3639B-ms98-a-0020	B.38	91.016500	91.166500		a	a
sw3639B-ms98-a-0020	B.38	91.166500	91.686500		traction	traction
sw3639B-ms98-a-0020	B.38	91.686500	92.196500		control	control
sw3639B-ms98-a-0020	B.38	92.196500	92.226500		I	i
sw3639B-ms98-a-0020	B.38	92.226500	92.446500		think	think
sw3639B-ms98-a-0020	B.38	92.446500	92.586500		they	they
sw3639B-ms98-a-0020	B.38	92.586500	92.906500		call	call
sw3639B-ms98-a-0020	B.38	92.906500	92.999125		it	it
sw3639B-ms98-a-0020	B.40	92.999125	93.195000		[silence]	[silence]
sw3639B-ms98-a-0020	B.40	93.195000	93.406500		It's	it's
sw3639B-ms98-a-0020	B.40	93.406500	93.626500		it's	it's
sw3639B-ms98-a-0020	B.40	93.626500	93.916500		not	not
sw3639B-ms98-a-0020	B.40	93.916500	94.156500		just	just
sw3639B-ms98-a-0020	B.40	94.156500	94.656500		antilock	antilock
sw3639B-ms98-a-0020	B.40	94.656500	94.956500		brake	brake
sw3639B-ms98-a-0020	B.40	94.956500	95.016500		I	i
sw3639B-ms98-a-0020	B.40	95.016500	95.216500		think	think
sw3639B-ms98-a-0020	B.40	95.216500	95.426500		that's	that's
sw3639B-ms98-a-0020	B.40	95.426500	95.756500		already	already
sw3639B-ms98-a-0020	B.40	95.756500	96.006500		on	on
sw3639B-ms98-a-0020	B.40	96.006500	96.276500		most	most
sw3639B-ms98-a-0020	B.40	96.276500	96.406500		of	of
sw3639B-ms98-a-0020	B.40	96.406500	96.556500		them	them_1
sw3639B-ms98-a-0020	B.40	96.556500	96.756500		but	but
sw3639B-ms98-a-0020	B.42	96.756500	97.016500		[silence]	[silence]
sw3639B-ms98-a-0020	B.42	97.016500	97.246500	<CONT>	there	there's
sw3639B-ms98-a-0020	B.42	97.246500	97.246500	<CONT>	is	+++
sw3639B-ms98-a-0020	B.42	97.246500	97.596500		a	a
sw3639B-ms98-a-0020	B.42	97.596500	98.046500		further	further
sw3639B-ms98-a-0020	B.42	98.046500	98.596500		traction	traction
sw3639B-ms98-a-0020	B.42	98.596500	99.366500		control	control
sw3639B-ms98-a-0020	B.42	99.366500	99.734875		uh	uh
sw3639B-ms98-a-0020	B.44	99.734875	100.321375		[silence]	[silence]
sw3639B-ms98-a-0021	B.44	100.321375	101.021375		[silence]	[silence]
sw3639B-ms98-a-0021	B.44	101.021375	101.449625		Yeah	yeah
sw3639B-ms98-a-0021	B.46	101.449625	102.051375		And	and
sw3639B-ms98-a-0021	B.46	102.051375	102.191375		and	and
sw3639B-ms98-a-0021	B.46	102.191375	102.551375		also	also
sw3639B-ms98-a-0021	B.46	102.551375	102.641375		the	the
sw3639B-ms98-a-0021	B.46	102.641375	103.231375		suspension	suspension
sw3639B-ms98-a-0021	B.46	103.231375	103.391375		can	can
sw3639B-ms98-a-0021	B.46	103.391375	103.541375		be	be
sw3639B-ms98-a-0021	B.46	103.541375	104.431375		raised	raised
sw3639B-ms98-a-0021	B.46	104.431375	104.911375		[silence]	[silence]
sw3639B-ms98-a-0021	B.46	104.911375	105.081375		for	for
sw3639B-ms98-a-0021	B.46	105.081375	105.541375		driving	driving
sw3639B-ms98-a-0021	B.46	105.541375	105.723875		like	like
sw3639B-ms98-a-0021	B.46	105.723875	105.859500		in	in
sw3639B-ms98-a-0021	B.46	105.859500	106.051375		the	the
sw3639B-ms98-a-0021	B.46	106.051375	106.241375		ice	ice
sw3639B-ms98-a-0021	B.46	106.241375	106.371375		and	and
sw3639B-ms98-a-0021	B.46	106.371375	106.751375		snow	snow
sw3639B-ms98-a-0021	B.46	106.751375	106.861375		It	it
sw3639B-ms98-a-0021	B.46	106.861375	107.001375		can	can
sw3639B-ms98-a-0021	B.46	107.001375	107.341375		raise	raise
sw3639B-ms98-a-0021	B.46	107.341375	107.553000		the	the
sw3639B-ms98-a-0021	B.46	107.553000	107.688625		[silence]	[silence]
sw3639B-ms98-a-0021	B.46	107.688625	108.261375		car's	car's
sw3639B-ms98-a-0021	B.46	108.261375	108.821375		center	center
sw3639B-ms98-a-0021	B.46	108.821375	108.951375		up	up
sw3639B-ms98-a-0021	B.46	108.951375	109.001375		a	a
sw3639B-ms98-a-0021	B.46	109.001375	109.211375		little	little
sw3639B-ms98-a-0021	B.46	109.211375	109.501375		bit	bit
sw3639B-ms98-a-0021	B.48	109.501375	110.107125		[silence]	[silence]
sw3639B-ms98-a-0022	B.48	110.107125	110.847125		[silence]	[silence]
sw3639B-ms98-a-0022	B.48	110.847125	110.997125		For	for
sw3639B-ms98-a-0022	B.48	110.997125	111.237125		going	going
sw3639B-ms98-a-0022	B.48	111.237125	111.447125		under	under
sw3639B-ms98-a-0022	B.50	111.447125	111.517125		a	a
sw3639B-ms98-a-0022	B.50	111.517125	111.687125		lot	lot
sw3639B-ms98-a-0022	B.50	111.687125	111.757125		of	of
sw3639B-ms98-a-0022	B.50	111.757125	112.147125		piled	piled
sw3639B-ms98-a-0022	B.50	112.147125	112.297125		up	up
sw3639B-ms98-a-0022	B.50	112.297125	112.547125		[silence]	[silence]
sw3639B-ms98-a-0022	B.50	112.547125	112.907125		stuff	stuff
sw3639B-ms98-a-0022	B.50	112.907125	113.017125		if	if
sw3639B-ms98-a-0022	B.50	113.017125	113.127125		you	you
sw3639B-ms98-a-0022	B.50	113.127125	113.452500		were	were
sw3639B-ms98-a-0022	B.50	113.452500	113.637000		[silence]	[silence]
sw3639B-ms98-a-0022	B.50	113.637000	113.817125		up	up
sw3639B-ms98-a-0022	B.50	113.817125	113.927125		in	in
sw3639B-ms98-a-0022	B.50	113.927125	114.357125		Michigan	Michigan
sw3639B-ms98-a-0022	B.50	114.357125	114.437125		or	[laughter-or]
sw3639B-ms98-a-0022	B.50	114.437125	115.200500		somewhere	[laughter-somewhere]
sw3639B-ms98-a-0022	B.52	115.200500	115.682750		[silence]	[silence]
sw3639B-ms98-a-0023	B.52	115.682750	116.752750		[silence]	[silence]
sw3639B-ms98-a-0023	B.52	116.752750	117.362750		Mississippi	Mississippi
sw3639B-ms98-a-0023	B.52	117.362750	117.652750		probably	probably
sw3639B-ms98-a-0023	B.52	117.652750	118.063125		doesn't	doesn't
sw3639B-ms98-a-0023	B.54	118.063125	119.037125		[silence]	[silence]
sw3639B-ms98-a-0024	B.54	119.037125	119.857125		[silence]	[silence]
sw3639B-ms98-a-0024	B.54	119.857125	120.427125		Mississippi	Mississippi
sw3639B-ms98-a-0024	B.54	120.427125	120.687125		probably	probably
sw3639B-ms98-a-0024	B.54	120.687125	120.867125		doesn't	doesn't
sw3639B-ms98-a-0024	B.54	120.867125	120.967125		have	have
sw3639B-ms98-a-0024	B.54	120.967125	121.077125		to	to
sw3639B-ms98-a-0024	B.54	121.077125	121.377125		worry	worry
sw3639B-ms98-a-0024	B.54	121.377125	121.567125		too	too
sw3639B-ms98-a-0024	B.54	121.567125	121.852000		much	much
sw3639B-ms98-a-0024	B.56	121.852000	122.640500		[laughter]	[laughter]
sw3639B-ms98-a-0024	B.56	122.640500	123.844750		[silence]	[silence]
sw3639B-ms98-a-0025	B.56	123.844750	124.894750		[silence]	[silence]
sw3639B-ms98-a-0025	B.56	124.894750	125.024750		If	if
sw3639B-ms98-a-0025	B.56	125.024750	125.164750		it	it
sw3639B-ms98-a-0025	B.56	125.164750	125.614750		does	does
sw3639B-ms98-a-0025	B.56	125.614750	125.914750		people	people
sw3639B-ms98-a-0025	B.56	125.914750	126.054750		go	go
sw3639B-ms98-a-0025	B.56	126.054750	126.294750		what's	what's
sw3639B-ms98-a-0025	B.56	126.294750	126.444750		this	this
sw3639B-ms98-a-0025	B.56	126.444750	126.864750		stuff	stuff
sw3639B-ms98-a-0025	B.58	126.864750	127.521750		[silence]	[silence]
sw3639B-ms98-a-0026	B.58	127.521750	129.526625		[silence]	[silence]
sw3639B-ms98-a-0027	B.58	129.526625	130.099500		[silence]	[silence]
sw3639B-ms98-a-0027	B.58	130.099500	130.216625		Oh	oh
sw3639B-ms98-a-0027	B.58	130.216625	130.306625		well	well
sw3639B-ms98-a-0027	B.58	130.306625	130.426625		you	you
sw3639B-ms98-a-0027	B.58	130.426625	130.626625		had	had
sw3639B-ms98-a-0027	B.58	130.626625	130.906625		some	some
sw3639B-ms98-a-0027	B.58	130.906625	131.397000		there	there
sw3639B-ms98-a-0027	B.60	131.397000	131.977500		[silence]	[silence]
sw3639B-ms98-a-0027	B.60	131.977500	132.594250		Yeah	yeah
sw3639B-ms98-a-0027	B.62	132.594250	132.985000		[silence]	[silence]
sw3639B-ms98-a-0028	B.62	132.985000	152.732875		[silence]	[silence]
sw3639B-ms98-a-0029	B.62	152.732875	153.411625		[silence]	[silence]
sw3639B-ms98-a-0029	B.62	153.411625	153.642875		Oh	oh
sw3639B-ms98-a-0029	B.62	153.642875	153.732875		I	i
sw3639B-ms98-a-0029	B.62	153.732875	154.102875		know	know
sw3639B-ms98-a-0029	B.64	154.102875	154.626250		[silence]	[silence]
sw3639B-ms98-a-0030	B.64	154.626250	177.574375		[silence]	[silence]
sw3639B-ms98-a-0031	B.64	177.574375	178.245500		[silence]	[silence]
sw3639B-ms98-a-0031	B.64	178.245500	178.504375		Oh	oh
sw3639B-ms98-a-0031	B.64	178.504375	178.945000		no	no
sw3639B-ms98-a-0031	B.68	178.945000	179.349875		[silence]	[silence]
sw3639B-ms98-a-0032	B.68	179.349875	180.379125		[silence]	[silence]
sw3639B-ms98-a-0033	B.68	180.379125	180.705250		[silence]	[silence]
sw3639B-ms98-a-0033	B.68	180.705250	181.517750		[laughter]	[laughter]
sw3639B-ms98-a-0033	B.68	181.517750	182.028625		[silence]	[silence]
sw3639B-ms98-a-0034	B.68	182.028625	185.452250		[silence]	[silence]
sw3639B-ms98-a-0035	B.68	185.452250	186.086375		[silence]	[silence]
sw3639B-ms98-a-0035	B.68	186.086375	186.272250		Well	well
sw3639B-ms98-a-0035	B.68	186.272250	186.441125		the	the
sw3639B-ms98-a-0035	B.68	186.441125	186.710500		uh	uh
sw3639B-ms98-a-0035	B.68	186.710500	187.249375		[silence]	[silence]
sw3639B-ms98-a-0036	B.68	187.249375	187.829375		[silence]	[silence]
sw3639B-ms98-a-0036	B.68	187.829375	187.979375		the	the
sw3639B-ms98-a-0036	B.68	187.979375	188.569375		Lexus	Lexus
sw3639B-ms98-a-0036	B.68	188.569375	189.179375		uh	uh
sw3639B-ms98-a-0036	B.68	189.179375	189.867875		really	really
sw3639B-ms98-a-0036	B.68	189.867875	190.297250		[silence]	[silence]
sw3639B-ms98-a-0036	B.68	190.297250	190.499375		and	and
sw3639B-ms98-a-0036	B.68	190.499375	190.559375		the	the
sw3639B-ms98-a-0036	B.68	190.559375	190.829375		moon	moon
sw3639B-ms98-a-0036	B.68	190.829375	191.089375		roof	roof
sw3639B-ms98-a-0036	B.68	191.089375	191.169375		I	i
sw3639B-ms98-a-0036	B.68	191.169375	191.379375		think	think
sw3639B-ms98-a-0036	B.68	191.379375	191.489375		is	is
sw3639B-ms98-a-0036	B.68	191.489375	191.789375		also	also
sw3639B-ms98-a-0036	B.68	191.789375	191.869375		an	an
sw3639B-ms98-a-0036	B.68	191.869375	192.249375		option	option
sw3639B-ms98-a-0036	B.70	192.249375	192.539375		[silence]	[silence]
sw3639B-ms98-a-0036	B.70	192.539375	192.849375		Although	although
sw3639B-ms98-a-0036	B.70	192.849375	193.139375		most	most
sw3639B-ms98-a-0036	B.70	193.139375	193.229375		of	of
sw3639B-ms98-a-0036	B.70	193.229375	193.299375		them	them_1
sw3639B-ms98-a-0036	B.70	193.299375	193.409375		are	are
sw3639B-ms98-a-0036	B.70	193.409375	193.689375		ordered	ordered
sw3639B-ms98-a-0036	B.70	193.689375	193.896000		them	them
sw3639B-ms98-a-0036	B.70	193.896000	194.031625		[silence]	[silence]
sw3639B-ms98-a-0036	B.70	194.031625	194.259375		with	with
sw3639B-ms98-a-0036	B.70	194.259375	194.419375		it	it
sw3639B-ms98-a-0036	B.70	194.419375	194.649375		but	but
sw3639B-ms98-a-0036	B.70	194.649375	194.789375		there	there
sw3639B-ms98-a-0036	B.70	194.789375	195.099375		really	really
sw3639B-ms98-a-0036	B.70	195.099375	195.259375		is	is
sw3639B-ms98-a-0036	B.70	195.259375	195.509375		only	only
sw3639B-ms98-a-0036	B.70	195.509375	195.739375		about	about
sw3639B-ms98-a-0036	B.70	195.739375	195.779375		a	a
sw3639B-ms98-a-0036	B.70	195.779375	195.999375		half	half
sw3639B-ms98-a-0036	B.70	195.999375	196.039375		a	a
sw3639B-ms98-a-0036	B.70	196.039375	196.597250		dozen	dozen
sw3639B-ms98-a-0036	B.70	196.597250	196.706500		[silence]	[silence]
sw3639B-ms98-a-0036	B.70	196.706500	196.949375		uh	uh
sw3639B-ms98-a-0036	B.70	196.949375	197.609375		things	things
sw3639B-ms98-a-0036	B.70	197.609375	197.811375		and	and
sw3639B-ms98-a-0036	B.72	197.811375	198.311250		[silence]	[silence]
sw3639B-ms98-a-0037	B.72	198.311250	198.634750		[silence]	[silence]
sw3639B-ms98-a-0037	B.72	198.634750	198.971250		everything	everything
sw3639B-ms98-a-0037	B.72	198.971250	199.281250		else	else
sw3639B-ms98-a-0037	B.72	199.281250	199.421250		is	is
sw3639B-ms98-a-0037	B.72	199.421250	199.967125		pretty	pretty
sw3639B-ms98-a-0037	B.72	199.967125	200.571250		standard	standard
sw3639B-ms98-a-0037	B.72	200.571250	200.661250		I	i
sw3639B-ms98-a-0037	B.72	200.661250	200.801250		did	did
sw3639B-ms98-a-0037	B.72	200.801250	201.061250		not	not
sw3639B-ms98-a-0037	B.72	201.061250	201.221250		get	get
sw3639B-ms98-a-0037	B.72	201.221250	201.291250		the	the
sw3639B-ms98-a-0037	B.72	201.291250	201.711250		traction	traction
sw3639B-ms98-a-0037	B.72	201.711250	202.111250		control	control
sw3639B-ms98-a-0037	B.72	202.111250	202.291250		which	which
sw3639B-ms98-a-0037	B.72	202.291250	202.701250		also	also
sw3639B-ms98-a-0037	B.72	202.701250	202.861250		when	when
sw3639B-ms98-a-0037	B.72	202.861250	202.941250		you	you
sw3639B-ms98-a-0037	B.72	202.941250	203.201250		take	take
sw3639B-ms98-a-0037	B.72	203.201250	203.332875		the	the
sw3639B-ms98-a-0037	B.72	203.332875	203.521250		c-	c[ontrol]-
sw3639B-ms98-a-0037	B.72	203.521250	203.891250		traction	traction
sw3639B-ms98-a-0037	B.72	203.891250	204.361250		control	control
sw3639B-ms98-a-0037	B.72	204.361250	204.611250		and	and
sw3639B-ms98-a-0037	B.72	204.611250	204.782125		the	the
sw3639B-ms98-a-0037	B.72	204.782125	206.181250		[noise]	[noise]
sw3639B-ms98-a-0037	B.72	206.181250	206.421250		and	and
sw3639B-ms98-a-0037	B.72	206.421250	206.531250		the	the
sw3639B-ms98-a-0037	B.72	206.531250	207.351250		suspension	suspension
sw3639B-ms98-a-0037	B.72	207.351250	207.831250		thing	thing
sw3639B-ms98-a-0037	B.72	207.831250	207.941250		it	it
sw3639B-ms98-a-0037	B.72	207.941250	208.539750		also	also
sw3639B-ms98-a-0037	B.72	208.539750	209.036875		[silence]	[silence]
sw3639B-ms98-a-0037	B.72	209.036875	209.461250		puts	puts
sw3639B-ms98-a-0037	B.72	209.461250	210.301250		heaters	heaters
sw3639B-ms98-a-0037	B.72	210.301250	210.471250		in	in
sw3639B-ms98-a-0037	B.72	210.471250	210.531250		the	the
sw3639B-ms98-a-0037	B.72	210.531250	210.921250		front	front
sw3639B-ms98-a-0037	B.72	210.921250	211.623250		seats	seats
sw3639B-ms98-a-0037	B.72	211.623250	211.980375		[silence]	[silence]
sw3639B-ms98-a-0037	B.72	211.980375	212.421375		too	too
sw3639B-ms98-a-0037	B.74	212.421375	212.846375		[silence]	[silence]
sw3639B-ms98-a-0038	B.74	212.846375	213.326375		[silence]	[silence]
sw3639B-ms98-a-0038	B.74	213.326375	213.516375		You	you
sw3639B-ms98-a-0038	B.74	213.516375	213.686375		go	go
sw3639B-ms98-a-0038	B.74	213.686375	213.776375		out	out
sw3639B-ms98-a-0038	B.74	213.776375	213.916375		and	and
sw3639B-ms98-a-0038	B.74	213.916375	214.046375		get	get
sw3639B-ms98-a-0038	B.74	214.046375	214.126375		in	in
sw3639B-ms98-a-0038	B.74	214.126375	214.316375		that	that
sw3639B-ms98-a-0038	B.74	214.316375	214.486375		real	real
sw3639B-ms98-a-0038	B.74	214.486375	214.836375		cold	cold
sw3639B-ms98-a-0038	B.74	214.836375	215.206375		car	car
sw3639B-ms98-a-0038	B.76	215.206375	215.336375		and	and
sw3639B-ms98-a-0038	B.76	215.336375	215.446375		you	you
sw3639B-ms98-a-0038	B.76	215.446375	215.716375		turn	turn
sw3639B-ms98-a-0038	B.76	215.716375	215.916375		that	that
sw3639B-ms98-a-0038	B.76	215.916375	216.206375		on	on
sw3639B-ms98-a-0038	B.76	216.206375	216.346375		and	and
sw3639B-ms98-a-0038	B.76	216.346375	216.476750		it	it
sw3639B-ms98-a-0038	B.76	216.476750	216.846375		yeah	yeah
sw3639B-ms98-a-0038	B.76	216.846375	216.936375		and	and
sw3639B-ms98-a-0038	B.76	216.936375	217.056375		it	it
sw3639B-ms98-a-0038	B.76	217.056375	217.296375		kind	kind
sw3639B-ms98-a-0038	B.76	217.296375	217.496375		of	of
sw3639B-ms98-a-0038	B.76	217.496375	217.786375		uh	uh
sw3639B-ms98-a-0038	B.76	217.786375	217.966375		but	but
sw3639B-ms98-a-0038	B.76	217.966375	218.146375		that's	that's
sw3639B-ms98-a-0038	B.76	218.146375	218.376375		only	only
sw3639B-ms98-a-0038	B.76	218.376375	218.826375		available	available
sw3639B-ms98-a-0038	B.76	218.826375	219.063000		if	if
sw3639B-ms98-a-0038	B.76	219.063000	219.198625		[silence]	[silence]
sw3639B-ms98-a-0038	B.76	219.198625	219.446375		with	with
sw3639B-ms98-a-0038	B.76	219.446375	219.506375		the	the
sw3639B-ms98-a-0038	B.76	219.506375	219.936375		traction	traction
sw3639B-ms98-a-0038	B.76	219.936375	220.346375		control	control
sw3639B-ms98-a-0038	B.76	220.346375	220.436375		and	and
sw3639B-ms98-a-0038	B.76	220.436375	220.556375		the	the
sw3639B-ms98-a-0038	B.76	220.556375	220.776375		other	other
sw3639B-ms98-a-0038	B.76	220.776375	221.247000		option	option
sw3639B-ms98-a-0038	B.78	221.247000	221.456375		And	and
sw3639B-ms98-a-0038	B.78	221.456375	221.696375		those	those
sw3639B-ms98-a-0038	B.78	221.696375	221.896375		two	two
sw3639B-ms98-a-0038	B.78	221.896375	222.006375		are	are
sw3639B-ms98-a-0038	B.78	222.006375	222.406375		sold	sold
sw3639B-ms98-a-0038	B.78	222.406375	222.946375		together	together
sw3639B-ms98-a-0038	B.78	222.946375	223.216375		so	so
sw3639B-ms98-a-0038	B.78	223.216375	223.406375		you	you
sw3639B-ms98-a-0038	B.78	223.406375	223.566375		have	have
sw3639B-ms98-a-0038	B.78	223.566375	223.686375		to	to
sw3639B-ms98-a-0038	B.78	223.686375	223.966375		take	take
sw3639B-ms98-a-0038	B.78	223.966375	224.105250		a	a
sw3639B-ms98-a-0038	B.78	224.105250	224.496875		[silence]	[silence]
sw3639B-ms98-a-0038	B.78	224.496875	224.656375		two	two
sw3639B-ms98-a-0038	B.78	224.656375	225.056375		thousand	thousand
sw3639B-ms98-a-0038	B.78	225.056375	225.356375		dollar	dollar
sw3639B-ms98-a-0038	B.78	225.356375	225.836375		option	option
sw3639B-ms98-a-0038	B.78	225.836375	226.046375		there	there
sw3639B-ms98-a-0038	B.78	226.046375	226.216375		to	to
sw3639B-ms98-a-0038	B.80	226.216375	226.942375		[silence]	[silence]
sw3639B-ms98-a-0039	B.80	226.942375	228.062625		[silence]	[silence]
sw3639B-ms98-a-0039	B.80	228.062625	228.312375		to	to
sw3639B-ms98-a-0039	B.80	228.312375	228.472375		uh	uh
sw3639B-ms98-a-0039	B.80	228.472375	228.752375		do	do
sw3639B-ms98-a-0039	B.80	228.752375	228.914375		it	it
sw3639B-ms98-a-0039	B.80	228.914375	229.374000		[silence]	[silence]
sw3639B-ms98-a-0039	B.80	229.374000	229.642375		so	so
sw3639B-ms98-a-0039	B.80	229.642375	229.742875		I	i
sw3639B-ms98-a-0039	B.80	229.742875	229.855875		[silence]	[silence]
sw3639B-ms98-a-0039	B.80	229.855875	230.092375		I	i
sw3639B-ms98-a-0039	B.80	230.092375	230.392375		opted	opted
sw3639B-ms98-a-0039	B.80	230.392375	230.715250		not	not
sw3639B-ms98-a-0039	B.80	230.715250	230.832000		[silence]	[silence]
sw3639B-ms98-a-0039	B.80	230.832000	231.032375		for	for
sw3639B-ms98-a-0039	B.80	231.032375	231.396875		that	that
sw3639B-ms98-a-0039	B.80	231.396875	231.486875		[silence]	[silence]
sw3639B-ms98-a-0039	B.80	231.486875	231.810125		but	but
sw3639B-ms98-a-0039	B.82	231.810125	232.427625		[silence]	[silence]
sw3639B-ms98-a-0040	B.82	232.427625	233.197625		[silence]	[silence]
sw3639B-ms98-a-0040	B.82	233.197625	233.737625		And	and
sw3639B-ms98-a-0040	B.82	233.737625	234.057625		uh	uh
sw3639B-ms98-a-0040	B.82	234.057625	234.167625		the	the
sw3639B-ms98-a-0040	B.82	234.167625	234.637625		dealership	dealership
sw3639B-ms98-a-0040	B.82	234.637625	234.727625		I	i
sw3639B-ms98-a-0040	B.82	234.727625	234.937625		dealt	dealt
sw3639B-ms98-a-0040	B.82	234.937625	235.157625		with	with
sw3639B-ms98-a-0040	B.82	235.157625	235.287625		they	they
sw3639B-ms98-a-0040	B.82	235.287625	235.547625		order	order
sw3639B-ms98-a-0040	B.82	235.547625	235.657625		them	them_1
sw3639B-ms98-a-0040	B.82	235.657625	236.204250		all	all
sw3639B-ms98-a-0040	B.82	236.204250	236.306000		[silence]	[silence]
sw3639B-ms98-a-0040	B.82	236.306000	236.626375		with	with
sw3639B-ms98-a-0040	B.82	236.626375	236.738250		the	the
sw3639B-ms98-a-0040	B.82	236.738250	236.827625		uh	uh
sw3639B-ms98-a-0040	B.82	236.827625	237.177625		moon	moon
sw3639B-ms98-a-0040	B.82	237.177625	237.597625		roof	roof
sw3639B-ms98-a-0040	B.82	237.597625	237.867625		and	and
sw3639B-ms98-a-0040	B.82	237.867625	238.178625		uh	uh
sw3639B-ms98-a-0040	B.84	238.178625	239.075375		[silence]	[silence]
sw3639B-ms98-a-0040	B.84	239.075375	239.177000		you	you
sw3639B-ms98-a-0040	B.84	239.177000	239.297625		know	know
sw3639B-ms98-a-0040	B.84	239.297625	239.637625		nice	nice
sw3639B-ms98-a-0040	B.84	239.637625	239.897625		floor	floor
sw3639B-ms98-a-0040	B.84	239.897625	240.277625		mats	mats
sw3639B-ms98-a-0040	B.84	240.277625	240.367625		and	and
sw3639B-ms98-a-0040	B.84	240.367625	240.727625		everything	everything
sw3639B-ms98-a-0040	B.84	240.727625	240.827625		in	in
sw3639B-ms98-a-0040	B.84	240.827625	241.081000		there	there
sw3639B-ms98-a-0040	B.86	241.081000	241.436250		[silence]	[silence]
sw3639B-ms98-a-0041	B.86	241.436250	241.808375		[silence]	[silence]
sw3639B-ms98-a-0041	B.86	241.808375	241.996250		So	so
sw3639B-ms98-a-0041	B.86	241.996250	242.090000		the	the
sw3639B-ms98-a-0041	B.86	242.090000	242.236250		only	only
sw3639B-ms98-a-0041	B.86	242.236250	242.396250		thing	thing
sw3639B-ms98-a-0041	B.86	242.396250	242.436250		I	i
sw3639B-ms98-a-0041	B.86	242.436250	242.566250		had	had
sw3639B-ms98-a-0041	B.86	242.566250	242.646250		to	to
sw3639B-ms98-a-0041	B.86	242.646250	243.026250		decide	decide
sw3639B-ms98-a-0041	B.86	243.026250	243.216250		on	on
sw3639B-ms98-a-0041	B.86	243.216250	243.386250		was	was
sw3639B-ms98-a-0041	B.86	243.386250	243.566250		whether	whether
sw3639B-ms98-a-0041	B.86	243.566250	243.606250		I	i
sw3639B-ms98-a-0041	B.86	243.606250	243.906250		wanted	wanted
sw3639B-ms98-a-0041	B.86	243.906250	243.966250		a	a
sw3639B-ms98-a-0041	B.86	243.966250	244.386250	<CONT>	C	CD
sw3639B-ms98-a-0041	B.86	244.386250	244.386250	<CONT>	D	+++
sw3639B-ms98-a-0041	B.86	244.386250	244.476250		or	or
sw3639B-ms98-a-0041	B.86	244.476250	244.736250		not	not
sw3639B-ms98-a-0041	B.86	244.736250	244.846250		in	in
sw3639B-ms98-a-0041	B.86	244.846250	244.926250		the	the
sw3639B-ms98-a-0041	B.86	244.926250	245.446250		stereo	stereo
sw3639B-ms98-a-0041	B.86	245.446250	245.936250		system	system
sw3639B-ms98-a-0041	B.86	245.936250	246.370625		and	and
sw3639B-ms98-a-0041	B.86	246.370625	246.536250		that	that
sw3639B-ms98-a-0041	B.86	246.536250	246.706250		was	was
sw3639B-ms98-a-0041	B.86	246.706250	247.156250		pretty	pretty
sw3639B-ms98-a-0041	B.86	247.156250	247.436250		much	much
sw3639B-ms98-a-0041	B.86	247.436250	247.606250		it	it
sw3639B-ms98-a-0041	B.86	247.606250	247.756250		And	and
sw3639B-ms98-a-0041	B.86	247.756250	247.836250		they	they
sw3639B-ms98-a-0041	B.86	247.836250	248.050000		had	had
sw3639B-ms98-a-0041	B.86	248.050000	248.340000		[silence]	[silence]
sw3639B-ms98-a-0041	B.86	248.340000	248.636250		like	like
sw3639B-ms98-a-0041	B.86	248.636250	249.076250		three	three
sw3639B-ms98-a-0041	B.86	249.076250	249.146250		or	or
sw3639B-ms98-a-0041	B.86	249.146250	249.376250		four	four
sw3639B-ms98-a-0041	B.86	249.376250	249.816250		basic	basic
sw3639B-ms98-a-0041	B.86	249.816250	250.396250		packages	packages
sw3639B-ms98-a-0041	B.86	250.396250	250.566250		that	that
sw3639B-ms98-a-0041	B.86	250.566250	250.815000		they	they
sw3639B-ms98-a-0041	B.88	250.815000	251.429375		[silence]	[silence]
sw3639B-ms98-a-0042	B.88	251.429375	252.409375		[silence]	[silence]
sw3639B-ms98-a-0042	B.88	252.409375	252.529375		they	they
sw3639B-ms98-a-0042	B.88	252.529375	252.887625		offer	offer
sw3639B-ms98-a-0042	B.90	252.887625	253.525250		[silence]	[silence]
sw3639B-ms98-a-0043	B.90	253.525250	262.159750		[silence]	[silence]
sw3639B-ms98-a-0044	B.90	262.159750	262.725500		[silence]	[silence]
sw3639B-ms98-a-0044	B.90	262.725500	262.889750		Yeah	yeah
sw3639B-ms98-a-0044	B.90	262.889750	262.989750		I've	i've
sw3639B-ms98-a-0044	B.90	262.989750	263.109750		been	been
sw3639B-ms98-a-0044	B.90	263.109750	263.330625		o-	o[ver]-
sw3639B-ms98-a-0044	B.90	263.330625	263.499750		I've	i've
sw3639B-ms98-a-0044	B.90	263.499750	264.017375		been	been
sw3639B-ms98-a-0044	B.92	264.017375	264.514625		[silence]	[silence]
sw3639B-ms98-a-0045	B.92	264.514625	265.685875		[silence]	[silence]
sw3639B-ms98-a-0046	B.92	265.685875	266.485875		[silence]	[silence]
sw3639B-ms98-a-0046	B.92	266.485875	266.785875		Yeah	yeah
sw3639B-ms98-a-0046	B.92	266.785875	266.905875		I've	i've
sw3639B-ms98-a-0046	B.92	266.905875	267.205875		seen	seen
sw3639B-ms98-a-0046	B.92	267.205875	267.415875		that	that
sw3639B-ms98-a-0046	B.92	267.415875	267.545875		in	in
sw3639B-ms98-a-0046	B.92	267.545875	267.635875		the	the
sw3639B-ms98-a-0046	B.92	267.635875	268.141000		dealership	dealership
sw3639B-ms98-a-0046	B.92	268.141000	268.502625		[silence]	[silence]
sw3639B-ms98-a-0046	B.92	268.502625	268.655875		I	i
sw3639B-ms98-a-0046	B.92	268.655875	268.815875		was	was
sw3639B-ms98-a-0046	B.92	268.815875	269.175875		driving	driving
sw3639B-ms98-a-0046	B.92	269.175875	269.215875		a	a
sw3639B-ms98-a-0046	B.92	269.215875	269.687625		Lincoln	Lincoln
sw3639B-ms98-a-0046	B.92	269.687625	269.883500		[silence]	[silence]
sw3639B-ms98-a-0046	B.92	269.883500	269.985875		a	a
sw3639B-ms98-a-0046	B.92	269.985875	270.265875		Mark	Mark
sw3639B-ms98-a-0046	B.92	270.265875	270.847375		Seven	Seven
sw3639B-ms98-a-0046	B.94	270.847375	271.103500		[silence]	[silence]
sw3639B-ms98-a-0046	B.94	271.103500	271.385875		for	for
sw3639B-ms98-a-0046	B.94	271.385875	271.445875		the	the
sw3639B-ms98-a-0046	B.94	271.445875	271.705875		last	last
sw3639B-ms98-a-0046	B.94	271.705875	271.905875		four	four
sw3639B-ms98-a-0046	B.94	271.905875	272.385875		years	years
sw3639B-ms98-a-0046	B.94	272.385875	272.745875		before	before
sw3639B-ms98-a-0046	B.94	272.745875	272.775875		I	i
sw3639B-ms98-a-0046	B.94	272.775875	273.205875		traded	traded
sw3639B-ms98-a-0046	B.94	273.205875	273.345875		it	it
sw3639B-ms98-a-0046	B.94	273.345875	273.495875		for	for
sw3639B-ms98-a-0046	B.94	273.495875	273.885875		this	this
sw3639B-ms98-a-0046	B.94	273.885875	274.215875		and	and
sw3639B-ms98-a-0046	B.94	274.215875	274.391625		uh	uh
sw3639B-ms98-a-0046	B.94	274.391625	274.861625		[silence]	[silence]
sw3639B-ms98-a-0047	B.94	274.861625	275.270000		[silence]	[silence]
sw3639B-ms98-a-0047	B.94	275.270000	275.491625		I'm	i'm
sw3639B-ms98-a-0047	B.94	275.491625	275.984750		leasing	leasing
sw3639B-ms98-a-0047	B.94	275.984750	276.101625		the	the
sw3639B-ms98-a-0047	B.94	276.101625	276.501625		Lexus	Lexus
sw3639B-ms98-a-0047	B.94	276.501625	276.571625		I	i
sw3639B-ms98-a-0047	B.94	276.571625	276.891625		usually	usually
sw3639B-ms98-a-0047	B.94	276.891625	277.181625		lease	lease
sw3639B-ms98-a-0047	B.94	277.181625	277.403250		them	them_1
sw3639B-ms98-a-0047	B.96	277.403250	277.553875		[silence]	[silence]
sw3639B-ms98-a-0047	B.96	277.553875	277.891625		since	since
sw3639B-ms98-a-0047	B.96	277.891625	277.961625		I	i
sw3639B-ms98-a-0047	B.96	277.961625	278.101625		own	own
sw3639B-ms98-a-0047	B.96	278.101625	278.161625		a	a
sw3639B-ms98-a-0047	B.96	278.161625	278.671625		business	business
sw3639B-ms98-a-0047	B.96	278.671625	278.721625		I	i
sw3639B-ms98-a-0047	B.96	278.721625	278.941625		just	just
sw3639B-ms98-a-0047	B.96	278.941625	279.161625		run	run
sw3639B-ms98-a-0047	B.96	279.161625	279.251625		it	it
sw3639B-ms98-a-0047	B.96	279.251625	279.391625		through	through
sw3639B-ms98-a-0047	B.96	279.391625	279.646125		my	my
sw3639B-ms98-a-0047	B.96	279.646125	279.725250		[silence]	[silence]
sw3639B-ms98-a-0047	B.96	279.725250	280.131625		business	business
sw3639B-ms98-a-0047	B.96	280.131625	280.358875		but	but
sw3639B-ms98-a-0047	B.98	280.358875	280.963875		[silence]	[silence]
sw3639B-ms98-a-0048	B.98	280.963875	281.363875		[silence]	[silence]
sw3639B-ms98-a-0048	B.98	281.363875	281.628250		but	but
sw3639B-ms98-a-0048	B.98	281.628250	281.831625		[silence]	[silence]
sw3639B-ms98-a-0048	B.98	281.831625	282.233875		it	it
sw3639B-ms98-a-0048	B.98	282.233875	282.293875		the	the
sw3639B-ms98-a-0048	B.98	282.293875	282.653875		Lincoln	Lincoln
sw3639B-ms98-a-0048	B.98	282.653875	282.873875		ride	ride
sw3639B-ms98-a-0048	B.98	282.873875	282.963875		is	is
sw3639B-ms98-a-0048	B.98	282.963875	283.333875		certainly	certainly
sw3639B-ms98-a-0048	B.98	283.333875	283.623875		good	good
sw3639B-ms98-a-0048	B.98	283.623875	283.893875		too	too
sw3639B-ms98-a-0048	B.98	283.893875	284.103875		but	but
sw3639B-ms98-a-0048	B.98	284.103875	284.389375		the	the
sw3639B-ms98-a-0048	B.98	284.389375	284.494875		[silence]	[silence]
sw3639B-ms98-a-0048	B.98	284.494875	284.723875		this	this
sw3639B-ms98-a-0048	B.98	284.723875	285.233875		Lexus	Lexus
sw3639B-ms98-a-0048	B.98	285.233875	285.413875		is	is
sw3639B-ms98-a-0048	B.98	285.413875	285.853875		nothing	nothing
sw3639B-ms98-a-0048	B.98	285.853875	286.103875		like	like
sw3639B-ms98-a-0048	B.98	286.103875	286.213875		I	i
sw3639B-ms98-a-0048	B.98	286.213875	286.353875		have	have
sw3639B-ms98-a-0048	B.98	286.353875	286.573875		ever	ever
sw3639B-ms98-a-0048	B.98	286.573875	286.793875		been	been
sw3639B-ms98-a-0048	B.98	286.793875	287.043875		in	in
sw3639B-ms98-a-0048	B.98	287.043875	287.513875		before	before
sw3639B-ms98-a-0048	B.98	287.513875	287.673875	<SUB>	It's	it
sw3639B-ms98-a-0048	B.98	287.673875	287.903875		just	just
sw3639B-ms98-a-0048	B.100	287.903875	288.643625		[silence]	[silence]
sw3639B-ms98-a-0049	B.100	288.643625	289.389625		[silence]	[silence]
sw3639B-ms98-a-0049	B.100	289.389625	289.593625		Yeah	yeah
sw3639B-ms98-a-0049	B.100	289.593625	289.673625		it	it
sw3639B-ms98-a-0049	B.100	289.673625	289.903625		really	really
sw3639B-ms98-a-0049	B.100	289.903625	290.123625		is	is
sw3639B-ms98-a-0049	B.100	290.123625	290.213625		and	and
sw3639B-ms98-a-0049	B.100	290.213625	290.313625		it's	it's
sw3639B-ms98-a-0049	B.100	290.313625	290.463625		got	got
sw3639B-ms98-a-0049	B.100	290.463625	290.553625		a	a
sw3639B-ms98-a-0049	B.100	290.553625	291.163625		lumbar	lumbar
sw3639B-ms98-a-0049	B.100	291.163625	291.713625		support	support
sw3639B-ms98-a-0049	B.100	291.713625	291.843625		in	in
sw3639B-ms98-a-0049	B.100	291.843625	291.913625		the	the
sw3639B-ms98-a-0049	B.100	291.913625	292.654500		seats	seats
sw3639B-ms98-a-0049	B.102	292.654500	293.435625		[silence]	[silence]
sw3639B-ms98-a-0049	B.102	293.435625	294.310125		Adjustable	adjustable
sw3639B-ms98-a-0049	B.102	294.310125	294.434375		[silence]	[silence]
sw3639B-ms98-a-0049	B.102	294.434375	294.683625		uh	uh
sw3639B-ms98-a-0049	B.104	294.683625	295.259000		power	power
sw3639B-ms98-a-0049	B.104	295.259000	295.922000		[silence]	[silence]
sw3639B-ms98-a-0049	B.104	295.922000	296.533625		and	and
sw3639B-ms98-a-0049	B.104	296.533625	296.753625		just	just
sw3639B-ms98-a-0049	B.104	296.753625	296.913625		kind	kind
sw3639B-ms98-a-0049	B.104	296.913625	296.983625		of	of
sw3639B-ms98-a-0049	B.104	296.983625	297.443625		brings	brings
sw3639B-ms98-a-0049	B.104	297.443625	297.633625		that	that
sw3639B-ms98-a-0049	B.104	297.633625	298.013625		support	support
sw3639B-ms98-a-0049	B.104	298.013625	298.153625		up	up
sw3639B-ms98-a-0049	B.104	298.153625	298.263625		in	in
sw3639B-ms98-a-0049	B.104	298.263625	298.323625		the	the
sw3639B-ms98-a-0049	B.104	298.323625	298.523625		sma-	sma[ll]-
sw3639B-ms98-a-0049	B.104	298.523625	298.562000		[silence]	[silence]
