sw3697A-ms98-a-0001	A.1	0.000000	0.001875		[silence]	[silence]
sw3697A-ms98-a-0001	A.1	0.001875	0.005750		[noise]	[noise]
sw3697A-ms98-a-0001	A.1	0.005750	0.620000		Okay	okay
sw3697A-ms98-a-0001	A.1	0.620000	0.890000		now	now
sw3697A-ms98-a-0001	A.1	0.890000	1.080000		then	then
sw3697A-ms98-a-0001	A.1	1.080000	1.250000		you	you
sw3697A-ms98-a-0001	A.1	1.250000	1.540000		heard	heard
sw3697A-ms98-a-0001	A.1	1.540000	1.610000		the	the
sw3697A-ms98-a-0001	A.1	1.610000	2.410750		question	question
sw3697A-ms98-a-0001	A.1	2.410750	2.641625		what	what
sw3697A-ms98-a-0001	A.3	2.641625	3.342125		[silence]	[silence]
sw3697A-ms98-a-0001	A.3	3.342125	3.590000		what	what
sw3697A-ms98-a-0001	A.3	3.590000	3.660000		do	do
sw3697A-ms98-a-0001	A.3	3.660000	4.228125		you	you
sw3697A-ms98-a-0001	A.3	4.228125	4.273375		[silence]	[silence]
sw3697A-ms98-a-0001	A.3	4.273375	4.620000		like	like
sw3697A-ms98-a-0001	A.3	4.620000	4.760000		to	to
sw3697A-ms98-a-0001	A.3	4.760000	5.020000		do	do
sw3697A-ms98-a-0001	A.3	5.020000	5.260000		for	for
sw3697A-ms98-a-0001	A.3	5.260000	6.130000		yourself	yourself
sw3697A-ms98-a-0001	A.3	6.130000	6.369625		in	in
sw3697A-ms98-a-0001	A.3	6.369625	6.810250		[silence]	[silence]
sw3697A-ms98-a-0001	A.3	6.810250	7.308000		car	car
sw3697A-ms98-a-0001	A.3	7.308000	7.990000		automobile	automobile
sw3697A-ms98-a-0001	A.3	7.990000	8.910500		repairs	repairs
sw3697A-ms98-a-0001	A.5	8.910500	9.246500		[silence]	[silence]
sw3697A-ms98-a-0002	A.5	9.246500	15.176500		[silence]	[silence]
sw3697A-ms98-a-0003	A.5	15.176500	15.736000		[silence]	[silence]
sw3697A-ms98-a-0003	A.5	15.736000	16.430875		Okay	okay
sw3697A-ms98-a-0003	A.7	16.430875	16.979375		[silence]	[silence]
sw3697A-ms98-a-0004	A.7	16.979375	26.310750		[silence]	[silence]
sw3697A-ms98-a-0005	A.7	26.310750	26.819750		[silence]	[silence]
sw3697A-ms98-a-0005	A.7	26.819750	27.267125		Um	um
sw3697A-ms98-a-0005	A.9	27.267125	27.764000		[silence]	[silence]
sw3697A-ms98-a-0006	A.9	27.764000	32.580000		[silence]	[silence]
sw3697A-ms98-a-0007	A.9	32.580000	33.161125		[silence]	[silence]
sw3697A-ms98-a-0007	A.9	33.161125	33.695875		Well	well
sw3697A-ms98-a-0007	A.11	33.695875	34.233125		[silence]	[silence]
sw3697A-ms98-a-0008	A.11	34.233125	42.339375		[silence]	[silence]
sw3697A-ms98-a-0009	A.11	42.339375	42.531625		[silence]	[silence]
sw3697A-ms98-a-0009	A.11	42.531625	43.599125		[laughter]	[laughter]
sw3697A-ms98-a-0009	A.11	43.599125	43.869375		Is	is
sw3697A-ms98-a-0009	A.11	43.869375	44.129375		that	that
sw3697A-ms98-a-0009	A.11	44.129375	44.219375		the	the
sw3697A-ms98-a-0009	A.11	44.219375	44.649375		reason	reason
sw3697A-ms98-a-0009	A.11	44.649375	44.809375		you're	you're
sw3697A-ms98-a-0009	A.11	44.809375	45.149375		not	not
sw3697A-ms98-a-0009	A.11	45.149375	45.609375		doing	doing
sw3697A-ms98-a-0009	A.11	45.609375	45.787125		it	it
sw3697A-ms98-a-0009	A.11	45.787125	45.949375		or	or
sw3697A-ms98-a-0009	A.11	45.949375	46.189375		are	are
sw3697A-ms98-a-0009	A.11	46.189375	46.449375		you	you
sw3697A-ms98-a-0009	A.11	46.449375	46.689375		so	so
sw3697A-ms98-a-0009	A.11	46.689375	47.159375		busy	busy
sw3697A-ms98-a-0009	A.11	47.159375	47.299375		you	you
sw3697A-ms98-a-0009	A.11	47.299375	47.579375		don't	don't
sw3697A-ms98-a-0009	A.11	47.579375	47.839375		have	have
sw3697A-ms98-a-0009	A.11	47.839375	48.249375		time	time
sw3697A-ms98-a-0009	A.11	48.249375	48.369375		to	to
sw3697A-ms98-a-0009	A.11	48.369375	48.638500		do	do
sw3697A-ms98-a-0009	A.11	48.638500	48.745625		it	it
sw3697A-ms98-a-0009	A.13	48.745625	49.692375		[silence]	[silence]
sw3697A-ms98-a-0010	A.13	49.692375	49.731375		[silence]	[silence]
sw3697A-ms98-a-0010	A.13	49.731375	49.876875	<SUB>	Uh	hm
sw3697A-ms98-a-0010	A.15	49.876875	50.630250		[silence]	[silence]
sw3697A-ms98-a-0010	A.15	50.630250	50.807750	<DEL>	---	well
sw3697A-ms98-a-0010	A.15	50.807750	51.284250		[silence]	[silence]
sw3697A-ms98-a-0011	A.15	51.284250	52.440250		[silence]	[silence]
sw3697A-ms98-a-0012	A.15	52.440250	52.931625		[silence]	[silence]
sw3697A-ms98-a-0012	A.15	52.931625	53.390625		Okay	okay
sw3697A-ms98-a-0012	A.15	53.390625	54.125000		[silence]	[silence]
sw3697A-ms98-a-0012	A.15	54.125000	54.250250		Well	well
sw3697A-ms98-a-0012	A.15	54.250250	54.600250		being	being
sw3697A-ms98-a-0012	A.15	54.600250	54.680250		a	a
sw3697A-ms98-a-0012	A.15	54.680250	55.320250		female	female
sw3697A-ms98-a-0012	A.15	55.320250	55.480250		and	and
sw3697A-ms98-a-0012	A.15	55.480250	55.780250		being	being
sw3697A-ms98-a-0012	A.15	55.780250	56.430250		alone	alone
sw3697A-ms98-a-0012	A.15	56.430250	56.961875		you	you
sw3697A-ms98-a-0012	A.15	56.961875	57.173875		[silence]	[silence]
sw3697A-ms98-a-0013	A.15	57.173875	57.495750		[silence]	[silence]
sw3697A-ms98-a-0013	A.15	57.495750	57.723875		I	i
sw3697A-ms98-a-0013	A.15	57.723875	58.093875		don't	don't
sw3697A-ms98-a-0013	A.15	58.093875	58.439750		do	do
sw3697A-ms98-a-0013	A.15	58.439750	59.063875		anything	anything
sw3697A-ms98-a-0013	A.15	59.063875	59.233875		but	but
sw3697A-ms98-a-0013	A.15	59.233875	59.583875		put	put
sw3697A-ms98-a-0013	A.15	59.583875	60.403875		gasoline	gasoline
sw3697A-ms98-a-0013	A.17	60.403875	60.563875		in	in
sw3697A-ms98-a-0013	A.17	60.563875	60.864625		my	my
sw3697A-ms98-a-0013	A.17	60.864625	61.388750		car	car
sw3697A-ms98-a-0013	A.17	61.388750	62.070625		[silence]	[silence]
sw3697A-ms98-a-0013	A.17	62.070625	62.853875		and	and
sw3697A-ms98-a-0013	A.17	62.853875	63.083875		let	let
sw3697A-ms98-a-0013	A.17	63.083875	63.503875		someone	someone
sw3697A-ms98-a-0013	A.17	63.503875	63.893875		else	else
sw3697A-ms98-a-0013	A.17	63.893875	64.263875		check	check
sw3697A-ms98-a-0013	A.17	64.263875	64.423875		the	the
sw3697A-ms98-a-0013	A.17	64.423875	64.863875		oil	oil
sw3697A-ms98-a-0013	A.17	64.863875	65.369750		even	even
sw3697A-ms98-a-0013	A.19	65.369750	65.897125		[silence]	[silence]
sw3697A-ms98-a-0013	A.19	65.897125	66.323875		But	but
sw3697A-ms98-a-0013	A.19	66.323875	66.544625	<SUB>	uh	um
sw3697A-ms98-a-0013	A.19	66.544625	67.019250		[silence]	[silence]
sw3697A-ms98-a-0013	A.19	67.019250	67.173875		have	have
sw3697A-ms98-a-0013	A.19	67.173875	67.313875		you	you
sw3697A-ms98-a-0013	A.19	67.313875	67.513875		had	had
sw3697A-ms98-a-0013	A.19	67.513875	67.753875		any	any
sw3697A-ms98-a-0013	A.19	67.753875	68.253875		major	major
sw3697A-ms98-a-0013	A.19	68.253875	69.103875		repairs	repairs
sw3697A-ms98-a-0013	A.19	69.103875	69.782125		recently	recently
sw3697A-ms98-a-0013	A.21	69.782125	70.302000		[silence]	[silence]
sw3697A-ms98-a-0014	A.21	70.302000	81.047375		[silence]	[silence]
sw3697A-ms98-a-0015	A.21	81.047375	81.560750		[silence]	[silence]
sw3697A-ms98-a-0015	A.21	81.560750	81.743125		Oh	oh
sw3697A-ms98-a-0015	A.23	81.743125	82.243000		[silence]	[silence]
sw3697A-ms98-a-0016	A.23	82.243000	85.185500		[silence]	[silence]
sw3697A-ms98-a-0017	A.23	85.185500	85.489000		[silence]	[silence]
sw3697A-ms98-a-0017	A.23	85.489000	86.155875		Okay	okay
sw3697A-ms98-a-0017	A.23	86.155875	86.512500		[silence]	[silence]
sw3697A-ms98-a-0018	A.23	86.512500	86.561375		[silence]	[silence]
sw3697A-ms98-a-0018	A.23	86.561375	87.018750		[noise]	[noise]
sw3697A-ms98-a-0018	A.23	87.018750	87.122500		Well	well
sw3697A-ms98-a-0018	A.23	87.122500	87.402500		you	you
sw3697A-ms98-a-0018	A.23	87.402500	87.802500		should	should
sw3697A-ms98-a-0018	A.23	87.802500	87.991625		be	be
sw3697A-ms98-a-0018	A.23	87.991625	88.166125	<DEL>	---	v[ery]-
sw3697A-ms98-a-0018	A.23	88.166125	88.502500		feel	feel
sw3697A-ms98-a-0018	A.23	88.502500	88.802500		very	very
sw3697A-ms98-a-0018	A.23	88.802500	89.522500		fortunate	fortunate
sw3697A-ms98-a-0018	A.23	89.522500	89.772500		I	i
sw3697A-ms98-a-0018	A.23	89.772500	90.392500		had	had
sw3697A-ms98-a-0018	A.23	90.392500	90.730750	<SUB>	to	um
sw3697A-ms98-a-0018	A.23	90.730750	91.049250		[silence]	[silence]
sw3697A-ms98-a-0019	A.23	91.049250	91.180375		[silence]	[silence]
sw3697A-ms98-a-0019	A.23	91.180375	91.399250		have	have
sw3697A-ms98-a-0019	A.23	91.399250	91.489250		a	a
sw3697A-ms98-a-0019	A.23	91.489250	92.639250		transmission	transmission
sw3697A-ms98-a-0019	A.23	92.639250	93.389250		replaced	replaced
sw3697A-ms98-a-0019	A.23	93.389250	93.499250		in	in
sw3697A-ms98-a-0019	A.23	93.499250	93.652250		an	an
sw3697A-ms98-a-0019	A.23	93.652250	93.969250	<CONT>	eighty-six	eighty
sw3697A-ms98-a-0019	A.23	93.969250	94.439250	<CONT>	+++	six
sw3697A-ms98-a-0019	A.23	94.439250	95.467250		automobile	automobile
sw3697A-ms98-a-0019	A.25	95.467250	95.932250		[silence]	[silence]
sw3697A-ms98-a-0019	A.25	95.932250	96.167375		and	and
sw3697A-ms98-a-0019	A.25	96.167375	96.549250		I'll	i'll
sw3697A-ms98-a-0019	A.25	96.549250	97.389250		declare	declare
sw3697A-ms98-a-0019	A.25	97.389250	97.739250		that's	that's
sw3697A-ms98-a-0019	A.25	97.739250	97.889250		an	an
sw3697A-ms98-a-0019	A.25	97.889250	99.081875		expensive	expensive
sw3697A-ms98-a-0019	A.27	99.081875	99.678125		[silence]	[silence]
sw3697A-ms98-a-0020	A.27	99.678125	100.203375		[silence]	[silence]
sw3697A-ms98-a-0020	A.27	100.203375	100.906375		Yes	yes
sw3697A-ms98-a-0020	A.27	100.906375	101.578125	<SUB>	uh-huh	um-hum
sw3697A-ms98-a-0020	A.29	101.578125	102.348125		[laughter]	[laughter]
sw3697A-ms98-a-0020	A.29	102.348125	102.683875		Maybe	maybe
sw3697A-ms98-a-0020	A.29	102.683875	102.906000		I	i
sw3697A-ms98-a-0020	A.29	102.906000	103.158125		should	should
sw3697A-ms98-a-0020	A.29	103.158125	103.328125		have	have
sw3697A-ms98-a-0020	A.29	103.328125	103.658125		just	just
sw3697A-ms98-a-0020	A.29	103.658125	104.138125		traded	traded
sw3697A-ms98-a-0020	A.29	104.138125	104.231125		the	the
sw3697A-ms98-a-0020	A.29	104.231125	104.891125		car	car
sw3697A-ms98-a-0020	A.29	104.891125	105.313500		in	[laughter-in]
sw3697A-ms98-a-0020	A.31	105.313500	106.504625		[silence]	[silence]
sw3697A-ms98-a-0021	A.31	106.504625	107.198625		[silence]	[silence]
sw3697A-ms98-a-0021	A.31	107.198625	107.474625		Oh	oh
sw3697A-ms98-a-0021	A.31	107.474625	107.894625		it	it
sw3697A-ms98-a-0021	A.31	107.894625	108.434625		just	just
sw3697A-ms98-a-0021	A.31	108.434625	108.664625		well	well
sw3697A-ms98-a-0021	A.31	108.664625	108.764625		I	i
sw3697A-ms98-a-0021	A.31	108.764625	108.974625		have	have
sw3697A-ms98-a-0021	A.31	108.974625	109.064625		a	a
sw3697A-ms98-a-0021	A.31	109.064625	109.334625		very	very
sw3697A-ms98-a-0021	A.31	109.334625	110.134625		comfortable	comfortable
sw3697A-ms98-a-0021	A.31	110.134625	110.824625		car	car
sw3697A-ms98-a-0021	A.33	110.824625	111.296375		and	and
sw3697A-ms98-a-0021	A.33	111.296375	111.846250		[silence]	[silence]
sw3697A-ms98-a-0021	A.33	111.846250	112.284000		I	i
sw3697A-ms98-a-0021	A.33	112.284000	112.663125		[silence]	[silence]
sw3697A-ms98-a-0022	A.33	112.663125	113.003250		[silence]	[silence]
sw3697A-ms98-a-0022	A.33	113.003250	113.553125		have	have
sw3697A-ms98-a-0022	A.33	113.553125	113.653125		a	a
sw3697A-ms98-a-0022	A.33	113.653125	114.033125		health	health
sw3697A-ms98-a-0022	A.33	114.033125	114.643125		problem	problem
sw3697A-ms98-a-0022	A.33	114.643125	114.843125		that	that
sw3697A-ms98-a-0022	A.33	114.843125	115.057875		I	i
sw3697A-ms98-a-0022	A.33	115.057875	115.618250		need	need
sw3697A-ms98-a-0022	A.33	115.618250	115.749250		[silence]	[silence]
sw3697A-ms98-a-0023	A.33	115.749250	116.301250		[silence]	[silence]
sw3697A-ms98-a-0023	A.33	116.301250	116.399250		a	a
sw3697A-ms98-a-0023	A.33	116.399250	117.059250		large	large
sw3697A-ms98-a-0023	A.33	117.059250	117.699250		comfortable	comfortable
sw3697A-ms98-a-0023	A.33	117.699250	118.409250		car	car
sw3697A-ms98-a-0023	A.35	118.409250	119.059250		So	so
sw3697A-ms98-a-0023	A.35	119.059250	119.589250		um	um
sw3697A-ms98-a-0023	A.35	119.589250	120.039250		[noise]	[noise]
sw3697A-ms98-a-0023	A.35	120.039250	120.539500		anyway	anyway
sw3697A-ms98-a-0023	A.35	120.539500	120.686375		[silence]	[silence]
sw3697A-ms98-a-0023	A.35	120.686375	120.969250		I	i
sw3697A-ms98-a-0023	A.35	120.969250	121.269250		have	have
sw3697A-ms98-a-0023	A.35	121.269250	121.339250		a	a
sw3697A-ms98-a-0023	A.35	121.339250	121.539250		new	new
sw3697A-ms98-a-0023	A.35	121.539250	122.866500		transmission	transmission
sw3697A-ms98-a-0023	A.37	122.866500	123.179250		and	and
sw3697A-ms98-a-0023	A.37	123.179250	123.379250		I'm	i'm
sw3697A-ms98-a-0023	A.37	123.379250	123.829250		sure	sure
sw3697A-ms98-a-0023	A.37	123.829250	124.031000		that	that
sw3697A-ms98-a-0023	A.37	124.031000	124.426500		[silence]	[silence]
sw3697A-ms98-a-0023	A.37	124.426500	124.769250		any	any
sw3697A-ms98-a-0023	A.37	124.769250	125.069250		of	of
sw3697A-ms98-a-0023	A.37	125.069250	125.259250		them	them_1
sw3697A-ms98-a-0023	A.37	125.259250	125.429250		would	would
sw3697A-ms98-a-0023	A.37	125.429250	125.971500		have	have
sw3697A-ms98-a-0023	A.37	125.971500	126.268875		[silence]	[silence]
sw3697A-ms98-a-0024	A.37	126.268875	126.864125		[silence]	[silence]
sw3697A-ms98-a-0024	A.37	126.864125	127.474750		cost	cost
sw3697A-ms98-a-0024	A.37	127.474750	127.828875		al-	al[most]-
sw3697A-ms98-a-0024	A.37	127.828875	128.038875		or	or
sw3697A-ms98-a-0024	A.37	128.038875	128.648875		charged	charged
sw3697A-ms98-a-0024	A.37	128.648875	128.858875		me	me
sw3697A-ms98-a-0024	A.37	128.858875	129.508875		almost	almost
sw3697A-ms98-a-0024	A.37	129.508875	129.588875		the	the
sw3697A-ms98-a-0024	A.37	129.588875	130.128875		same	same
sw3697A-ms98-a-0024	A.37	130.128875	130.868875		amount	amount
sw3697A-ms98-a-0024	A.37	130.868875	131.096250		But	but
sw3697A-ms98-a-0024	A.39	131.096250	131.667500		[silence]	[silence]
sw3697A-ms98-a-0025	A.39	131.667500	132.008250		[silence]	[silence]
sw3697A-ms98-a-0025	A.39	132.008250	132.277500		it	it
sw3697A-ms98-a-0025	A.39	132.277500	132.977500		hurts	hurts
sw3697A-ms98-a-0025	A.41	132.977500	133.197500		it	it
sw3697A-ms98-a-0025	A.41	133.197500	133.803375		hurts	hurts
sw3697A-ms98-a-0025	A.41	133.803375	134.237500		real	real
sw3697A-ms98-a-0025	A.41	134.237500	134.790750		bad	bad
sw3697A-ms98-a-0025	A.43	134.790750	135.643500		[silence]	[silence]
sw3697A-ms98-a-0026	A.43	135.643500	136.578375		[silence]	[silence]
sw3697A-ms98-a-0026	A.43	136.578375	136.813500		No	no
sw3697A-ms98-a-0026	A.43	136.813500	136.943500		I	i
sw3697A-ms98-a-0026	A.43	136.943500	137.303500		took	took
sw3697A-ms98-a-0026	A.43	137.303500	137.483500		it	it
sw3697A-ms98-a-0026	A.43	137.483500	137.793500		to	to
sw3697A-ms98-a-0026	A.43	137.793500	137.933500		an	an
sw3697A-ms98-a-0026	A.43	137.933500	138.753500		independent	independent
sw3697A-ms98-a-0026	A.45	138.753500	139.113500		out	out
sw3697A-ms98-a-0026	A.45	139.113500	139.283500		in	in
sw3697A-ms98-a-0026	A.45	139.283500	140.064375		Garland	Garland
sw3697A-ms98-a-0026	A.47	140.064375	140.482125		[silence]	[silence]
sw3697A-ms98-a-0027	A.47	140.482125	141.081875		[silence]	[silence]
sw3697A-ms98-a-0027	A.47	141.081875	141.292125		I	i
sw3697A-ms98-a-0027	A.47	141.292125	141.932125		had	had
sw3697A-ms98-a-0027	A.47	141.932125	142.532125		um	um
sw3697A-ms98-a-0027	A.47	142.532125	142.792125		these	these
sw3697A-ms98-a-0027	A.47	142.792125	143.262125		people	people
sw3697A-ms98-a-0027	A.47	143.262125	143.512125		were	were
sw3697A-ms98-a-0027	A.47	143.512125	144.452125		recommended	recommended
sw3697A-ms98-a-0027	A.47	144.452125	144.812125		by	by
sw3697A-ms98-a-0027	A.47	144.812125	144.892125		a	a
sw3697A-ms98-a-0027	A.47	144.892125	145.649750		neighbor	neighbor
sw3697A-ms98-a-0027	A.49	145.649750	145.773375		[silence]	[silence]
sw3697A-ms98-a-0028	A.49	145.773375	146.241250		[silence]	[silence]
sw3697A-ms98-a-0028	A.49	146.241250	146.373375		and	and
sw3697A-ms98-a-0028	A.49	146.373375	146.453375		you	you
sw3697A-ms98-a-0028	A.49	146.453375	146.543375		know	know
sw3697A-ms98-a-0028	A.49	146.543375	146.803375		that's	that's
sw3697A-ms98-a-0028	A.49	146.803375	146.873375		the	the
sw3697A-ms98-a-0028	A.49	146.873375	147.043375		only	only
sw3697A-ms98-a-0028	A.49	147.043375	147.433375		thing	thing
sw3697A-ms98-a-0028	A.49	147.433375	147.813375		I	i
sw3697A-ms98-a-0028	A.49	147.813375	148.233375		am	am
sw3697A-ms98-a-0028	A.49	148.233375	148.523375		not	not
sw3697A-ms98-a-0028	A.49	148.523375	148.583375		a	a
sw3697A-ms98-a-0028	A.49	148.583375	149.173375		native	native
sw3697A-ms98-a-0028	A.49	149.173375	149.453375		of	of
sw3697A-ms98-a-0028	A.49	149.453375	150.212625		Dallas	Dallas
sw3697A-ms98-a-0028	A.51	150.212625	150.356000		[silence]	[silence]
sw3697A-ms98-a-0029	A.51	150.356000	150.888000		[silence]	[silence]
sw3697A-ms98-a-0029	A.51	150.888000	151.086000		So	so
sw3697A-ms98-a-0029	A.51	151.086000	151.336000		that	that
sw3697A-ms98-a-0029	A.51	151.336000	151.766000		means	means
sw3697A-ms98-a-0029	A.51	151.766000	151.976000		I	i
sw3697A-ms98-a-0029	A.51	151.976000	152.420000		have	have
sw3697A-ms98-a-0029	A.51	152.420000	152.696000		to	to
sw3697A-ms98-a-0029	A.51	152.696000	153.526000		depend	depend
sw3697A-ms98-a-0029	A.51	153.526000	154.125375		on	on
sw3697A-ms98-a-0029	A.51	154.125375	154.398375		[silence]	[silence]
sw3697A-ms98-a-0030	A.51	154.398375	154.831375		[silence]	[silence]
sw3697A-ms98-a-0030	A.51	154.831375	154.948375		on	on
sw3697A-ms98-a-0030	A.51	154.948375	155.918375		trustworthy	trustworthy
sw3697A-ms98-a-0030	A.51	155.918375	156.854125		friends	friends
sw3697A-ms98-a-0030	A.53	156.854125	156.905875		[silence]	[silence]
sw3697A-ms98-a-0031	A.53	156.905875	157.321125		[silence]	[silence]
sw3697A-ms98-a-0031	A.53	157.321125	157.585875		and	and
sw3697A-ms98-a-0031	A.53	157.585875	158.104000		that's	that's
sw3697A-ms98-a-0031	A.53	158.104000	158.386500		[silence]	[silence]
sw3697A-ms98-a-0031	A.53	158.386500	158.831125		Anyway	anyway
sw3697A-ms98-a-0031	A.53	158.831125	159.057125		[silence]	[silence]
sw3697A-ms98-a-0031	A.53	159.057125	159.465875		it's	it's
sw3697A-ms98-a-0031	A.53	159.465875	159.925875		fixed	fixed
sw3697A-ms98-a-0031	A.53	159.925875	160.195875		it's	it's
sw3697A-ms98-a-0031	A.53	160.195875	160.795875		running	running
sw3697A-ms98-a-0031	A.53	160.795875	161.135875		and	and
sw3697A-ms98-a-0031	A.53	161.135875	161.165875		I	i
sw3697A-ms98-a-0031	A.53	161.165875	161.705875		pray	pray
sw3697A-ms98-a-0031	A.53	161.705875	162.004500		that	that
sw3697A-ms98-a-0031	A.53	162.004500	162.362375		[silence]	[silence]
sw3697A-ms98-a-0031	A.53	162.362375	162.505875		I	i
sw3697A-ms98-a-0031	A.53	162.505875	162.785875		get	get
sw3697A-ms98-a-0031	A.53	162.785875	162.965875		my	my
sw3697A-ms98-a-0031	A.53	162.965875	163.485875		thirteen	thirteen
sw3697A-ms98-a-0031	A.53	163.485875	163.835875		hundred	hundred
sw3697A-ms98-a-0031	A.53	163.835875	164.335875		dollars	dollars
sw3697A-ms98-a-0031	A.53	164.335875	164.575875		out	out
sw3697A-ms98-a-0031	A.53	164.575875	164.805875		of	of
sw3697A-ms98-a-0031	A.53	164.805875	165.005875		it	it
sw3697A-ms98-a-0031	A.55	165.005875	165.360625	<DEL>	---	um
sw3697A-ms98-a-0031	A.55	165.360625	165.714625		[silence]	[silence]
sw3697A-ms98-a-0031	A.55	165.714625	166.328625	<SUB>	Uh-huh	um-hum
sw3697A-ms98-a-0031	A.57	166.328625	166.826500		[silence]	[silence]
sw3697A-ms98-a-0032	A.57	166.826500	167.971250		[silence]	[silence]
sw3697A-ms98-a-0033	A.57	167.971250	168.556875		[silence]	[silence]
sw3697A-ms98-a-0033	A.57	168.556875	168.721250		Oh	oh
sw3697A-ms98-a-0033	A.57	168.721250	168.851250		I	i
sw3697A-ms98-a-0033	A.57	168.851250	169.251250		know	know
sw3697A-ms98-a-0033	A.57	169.251250	169.608750		it	it
sw3697A-ms98-a-0033	A.59	169.608750	170.078750	<DEL>	---	uh-huh
sw3697A-ms98-a-0033	A.59	170.078750	170.525750		[silence]	[silence]
sw3697A-ms98-a-0034	A.59	170.525750	170.752375		[silence]	[silence]
sw3697A-ms98-a-0034	A.59	170.752375	170.855875		It	it
sw3697A-ms98-a-0034	A.59	170.855875	171.455750		certainly	certainly
sw3697A-ms98-a-0034	A.59	171.455750	171.765750		is	is
sw3697A-ms98-a-0034	A.59	171.765750	172.313375		frightening	frightening
sw3697A-ms98-a-0034	A.59	172.313375	172.661750		[silence]	[silence]
sw3697A-ms98-a-0034	A.59	172.661750	172.835750		What	what
sw3697A-ms98-a-0034	A.59	172.835750	173.185750		work	work
sw3697A-ms98-a-0034	A.59	173.185750	173.275750		are	are
sw3697A-ms98-a-0034	A.59	173.275750	173.535750		you	you
sw3697A-ms98-a-0034	A.59	173.535750	173.874125		in	in
sw3697A-ms98-a-0034	A.61	173.874125	174.176250		[silence]	[silence]
sw3697A-ms98-a-0035	A.61	174.176250	175.281750		[silence]	[silence]
sw3697A-ms98-a-0036	A.61	175.281750	175.787375		[silence]	[silence]
sw3697A-ms98-a-0036	A.61	175.787375	175.970250		Oh	oh
sw3697A-ms98-a-0036	A.63	175.970250	176.480500		[silence]	[silence]
sw3697A-ms98-a-0037	A.63	176.480500	177.526500		[silence]	[silence]
sw3697A-ms98-a-0038	A.63	177.526500	178.003625		[silence]	[silence]
sw3697A-ms98-a-0038	A.63	178.003625	178.466250		Okay	okay
sw3697A-ms98-a-0038	A.63	178.466250	178.895625		[silence]	[silence]
sw3697A-ms98-a-0038	A.63	178.895625	179.326000		okay	okay
sw3697A-ms98-a-0038	A.65	179.326000	179.941250		[silence]	[silence]
sw3697A-ms98-a-0039	A.65	179.941250	180.572875		[silence]	[silence]
sw3697A-ms98-a-0039	A.65	180.572875	180.959625		No	no
sw3697A-ms98-a-0039	A.67	180.959625	181.166750		[silence]	[silence]
sw3697A-ms98-a-0039	A.67	181.166750	181.541250		No	no
sw3697A-ms98-a-0039	A.67	181.541250	181.781250		I	i
sw3697A-ms98-a-0039	A.67	181.781250	181.981250		have	have
sw3697A-ms98-a-0039	A.67	181.981250	182.341250		just	just
sw3697A-ms98-a-0039	A.67	182.341250	183.071250		retired	retired
sw3697A-ms98-a-0039	A.67	183.071250	183.761250		from	from
sw3697A-ms98-a-0039	A.67	183.761250	184.102375		um	um
sw3697A-ms98-a-0039	A.67	184.102375	184.627000		[silence]	[silence]
sw3697A-ms98-a-0039	A.67	184.627000	184.736250		the	the
sw3697A-ms98-a-0039	A.67	184.736250	185.311250		Southwest	Southwest
sw3697A-ms98-a-0039	A.67	185.311250	185.761250		Medical	Medical
sw3697A-ms98-a-0039	A.67	185.761250	186.372375		Center	Center
sw3697A-ms98-a-0039	A.69	186.372375	186.802750		[silence]	[silence]
sw3697A-ms98-a-0040	A.69	186.802750	187.214000		[silence]	[silence]
sw3697A-ms98-a-0040	A.69	187.214000	187.460875		Yeah	yeah
sw3697A-ms98-a-0040	A.69	187.460875	187.669375		[silence]	[silence]
sw3697A-ms98-a-0040	A.69	187.669375	187.772750		where	where
sw3697A-ms98-a-0040	A.69	187.772750	187.882750		there	there
sw3697A-ms98-a-0040	A.69	187.882750	187.942750		are	are
sw3697A-ms98-a-0040	A.69	187.942750	187.972750		a	a
sw3697A-ms98-a-0040	A.69	187.972750	188.162750		lot	lot
sw3697A-ms98-a-0040	A.69	188.162750	188.232750		of	of
sw3697A-ms98-a-0040	A.69	188.232750	188.532750		people	people
sw3697A-ms98-a-0040	A.69	188.532750	188.822750		down	down
sw3697A-ms98-a-0040	A.69	188.822750	189.012750		there	there
sw3697A-ms98-a-0040	A.69	189.012750	189.162750		that	that
sw3697A-ms98-a-0040	A.69	189.162750	189.312750		could	could
sw3697A-ms98-a-0040	A.69	189.312750	189.582750		help	help
sw3697A-ms98-a-0040	A.69	189.582750	189.752750		me	me
sw3697A-ms98-a-0040	A.69	189.752750	189.992750		with	with
sw3697A-ms98-a-0040	A.69	189.992750	190.212750		my	my
sw3697A-ms98-a-0040	A.69	190.212750	190.542750		car	car
sw3697A-ms98-a-0040	A.69	190.542750	190.752750		but	but
sw3697A-ms98-a-0040	A.69	190.752750	191.012750		they're	they're
sw3697A-ms98-a-0040	A.69	191.012750	191.192750		all	all
sw3697A-ms98-a-0040	A.69	191.192750	191.362750		too	too
sw3697A-ms98-a-0040	A.69	191.362750	191.964375		busy	busy
sw3697A-ms98-a-0040	A.69	191.964375	192.331000		So	so
sw3697A-ms98-a-0040	A.71	192.331000	192.678750		[silence]	[silence]
sw3697A-ms98-a-0041	A.71	192.678750	192.965125		[silence]	[silence]
sw3697A-ms98-a-0041	A.71	192.965125	193.108750		I	i
sw3697A-ms98-a-0041	A.71	193.108750	193.348750		have	have
sw3697A-ms98-a-0041	A.71	193.348750	193.638750		to	to
sw3697A-ms98-a-0041	A.71	193.638750	194.338750		[laughter]	[laughter]
sw3697A-ms98-a-0041	A.71	194.338750	194.548750		do	do
sw3697A-ms98-a-0041	A.71	194.548750	194.711500		it	it
sw3697A-ms98-a-0041	A.71	194.711500	195.028750		the	the
sw3697A-ms98-a-0041	A.71	195.028750	195.323875		other	other
sw3697A-ms98-a-0041	A.71	195.323875	195.613875		way	way
sw3697A-ms98-a-0041	A.71	195.613875	195.778750		and	and
sw3697A-ms98-a-0041	A.71	195.778750	196.188750		that's	that's
sw3697A-ms98-a-0041	A.71	196.188750	196.948750		find	find
sw3697A-ms98-a-0041	A.71	196.948750	197.488750		someone	someone
sw3697A-ms98-a-0041	A.71	197.488750	197.658750		and	and
sw3697A-ms98-a-0041	A.71	197.658750	197.918750		pay	pay
sw3697A-ms98-a-0041	A.71	197.918750	198.188750		them	them_1
sw3697A-ms98-a-0041	A.71	198.188750	198.348750		to	to
sw3697A-ms98-a-0041	A.71	198.348750	198.558750		do	do
sw3697A-ms98-a-0041	A.71	198.558750	198.836000		it	it
sw3697A-ms98-a-0041	@@A.73	198.836000	199.333500		[silence]	[silence]
sw3697A-ms98-a-0042	@@A.73	199.333500	199.760625		[silence]	[silence]
sw3697A-ms98-a-0042	@@A.73	199.760625	199.853500		So	so
sw3697A-ms98-a-0042	@@A.73	199.853500	200.023500		I	i
sw3697A-ms98-a-0042	@@A.73	200.023500	200.443500		certainly	certainly
sw3697A-ms98-a-0042	@@A.73	200.443500	200.693500		hope	hope
sw3697A-ms98-a-0042	@@A.73	200.693500	200.913500		you	you
sw3697A-ms98-a-0042	@@A.73	200.913500	201.183500		have	have
sw3697A-ms98-a-0042	@@A.73	201.183500	201.253500		a	a
sw3697A-ms98-a-0042	@@A.73	201.253500	201.926625		nice	nice
sw3697A-ms98-a-0042	@@A.73	201.926625	202.273500		New	New
sw3697A-ms98-a-0042	@@A.73	202.273500	202.748000		Year	Year
sw3697A-ms98-a-0042	A.75	202.748000	203.185625		[silence]	[silence]
sw3697A-ms98-a-0043	A.75	203.185625	207.554625		[silence]	[silence]
sw3697A-ms98-a-0044	A.75	207.554625	208.078625		[silence]	[silence]
sw3697A-ms98-a-0044	A.75	208.078625	208.224625		Oh	oh
sw3697A-ms98-a-0044	A.75	208.224625	208.364625		it	it
sw3697A-ms98-a-0044	A.75	208.364625	208.654625		could	could
sw3697A-ms98-a-0044	A.75	208.654625	208.908625		be	be
sw3697A-ms98-a-0044	A.77	208.908625	209.260875		[silence]	[silence]
sw3697A-ms98-a-0044	A.77	209.260875	209.501250		[noise]	[noise]
sw3697A-ms98-a-0044	A.77	209.501250	209.580375		but	but
sw3697A-ms98-a-0044	A.77	209.580375	209.764625		I	i
sw3697A-ms98-a-0044	A.77	209.764625	210.014625		don't	don't
sw3697A-ms98-a-0044	A.77	210.014625	210.394625		much	much
sw3697A-ms98-a-0044	A.77	210.394625	210.664625		think	think
sw3697A-ms98-a-0044	A.77	210.664625	211.423500		so	[laughter-so]
sw3697A-ms98-a-0044	A.79	211.423500	213.664625		[laughter]	[laughter]
sw3697A-ms98-a-0044	A.79	213.664625	214.350000		I'm	i'm
sw3697A-ms98-a-0044	A.79	214.350000	214.512000		[silence]	[silence]
sw3697A-ms98-a-0044	A.79	214.512000	214.849500		well	well
sw3697A-ms98-a-0044	A.79	214.849500	215.233750		[silence]	[silence]
sw3697A-ms98-a-0044	A.79	215.233750	215.494625		we're	we're
sw3697A-ms98-a-0044	A.79	215.494625	216.024625		starting	starting
sw3697A-ms98-a-0044	A.79	216.024625	216.184625		out	out
sw3697A-ms98-a-0044	A.79	216.184625	216.224625		a	a
sw3697A-ms98-a-0044	A.79	216.224625	216.464625		new	new
sw3697A-ms98-a-0044	A.79	216.464625	216.644625		one	one
sw3697A-ms98-a-0044	A.79	216.644625	216.814625		so	so
sw3697A-ms98-a-0044	A.79	216.814625	217.114625		let's	let's
sw3697A-ms98-a-0044	A.79	217.114625	217.354625		make	make
sw3697A-ms98-a-0044	A.79	217.354625	217.444625		it	it
sw3697A-ms98-a-0044	A.79	217.444625	217.534625		a	a
sw3697A-ms98-a-0044	A.79	217.534625	217.884625		good	good
sw3697A-ms98-a-0044	A.79	217.884625	218.106875		one	one
sw3697A-ms98-a-0044	A.81	218.106875	218.525875		[silence]	[silence]
sw3697A-ms98-a-0045	A.81	218.525875	219.534000		[silence]	[silence]
sw3697A-ms98-a-0046	A.81	219.534000	220.028750		[silence]	[silence]
sw3697A-ms98-a-0046	A.81	220.028750	220.627750		Okay	okay
sw3697A-ms98-a-0046	A.83	220.627750	221.067375		[silence]	[silence]
sw3697A-ms98-a-0047	A.83	221.067375	222.646375		[silence]	[silence]
sw3697A-ms98-a-0048	A.83	222.646375	223.116375		[silence]	[silence]
sw3697A-ms98-a-0048	A.83	223.116375	223.426375		Thank	thank
sw3697A-ms98-a-0048	A.83	223.426375	223.756125		you	you
sw3697A-ms98-a-0048	A.85	223.756125	224.113875		[silence]	[silence]
sw3697A-ms98-a-0048	A.85	224.113875	224.271625	<SUB>	Bye	all
sw3697A-ms98-a-0048	A.85	224.271625	224.586375	<DEL>	---	right
sw3697A-ms98-a-0048	A.85	224.586375	225.024125		Bye-bye	bye-bye
sw3697A-ms98-a-0048	A.85	225.024125	225.477375		[silence]	[silence]
sw3697A-ms98-a-0049	A.85	225.477375	226.696875		[silence]	[silence]
sw3697A-ms98-a-0050	A.85	226.696875	227.174750		[silence]	[silence]
sw3697A-ms98-a-0050	A.85	227.174750	227.924000		[noise]	[noise]
sw3697A-ms98-a-0050	A.85	227.924000	228.450000		[silence]	[silence]
