sw3665A-ms98-a-0001	A.1	0.000000	0.002375		[silence]	[silence]
sw3665A-ms98-a-0001	A.1	0.002375	0.056625		[noise]	[noise]
sw3665A-ms98-a-0001	A.1	0.056625	0.477750		Okay	okay
sw3665A-ms98-a-0001	A.1	0.477750	0.830500	<SUB>	uh	um
sw3665A-ms98-a-0001	A.1	0.830500	1.372250		[silence]	[silence]
sw3665A-ms98-a-0002	A.1	1.372250	1.772250		[silence]	[silence]
sw3665A-ms98-a-0002	A.1	1.772250	1.952250		some	some
sw3665A-ms98-a-0002	A.1	1.952250	2.022250		of	of
sw3665A-ms98-a-0002	A.1	2.022250	2.082250		the	the
sw3665A-ms98-a-0002	A.1	2.082250	2.382250	<CONT>	T	TV
sw3665A-ms98-a-0002	A.1	2.382250	2.382250	<CONT>	V	+++
sw3665A-ms98-a-0002	A.1	2.382250	2.602250		shows	shows
sw3665A-ms98-a-0002	A.1	2.602250	2.702250		I	i
sw3665A-ms98-a-0002	A.1	2.702250	2.922250		like	like
sw3665A-ms98-a-0002	A.1	2.922250	3.064250		to	to
sw3665A-ms98-a-0002	A.1	3.064250	3.561375		watch	watch
sw3665A-ms98-a-0002	A.1	3.561375	3.892250		are	are
sw3665A-ms98-a-0002	A.1	3.892250	4.079500	<SUB>	uh	um
sw3665A-ms98-a-0002	A.1	4.079500	4.444875		[silence]	[silence]
sw3665A-ms98-a-0002	A.1	4.444875	4.843125		mostly	mostly
sw3665A-ms98-a-0002	A.1	4.843125	5.255625		evening	evening
sw3665A-ms98-a-0002	A.1	5.255625	5.685000		evening	evening
sw3665A-ms98-a-0002	A.1	5.685000	6.182250		shows	shows
sw3665A-ms98-a-0002	A.1	6.182250	6.370375		and	and
sw3665A-ms98-a-0002	A.1	6.370375	6.799750		[silence]	[silence]
sw3665A-ms98-a-0002	A.1	6.799750	7.254750		uh	uh
sw3665A-ms98-a-0002	A.1	7.254750	7.582500		[silence]	[silence]
sw3665A-ms98-a-0002	A.1	7.582500	7.792250		like	like
sw3665A-ms98-a-0002	A.1	7.792250	7.902250		for	for
sw3665A-ms98-a-0002	A.1	7.902250	8.312250		instance	instance
sw3665A-ms98-a-0002	A.1	8.312250	8.570250		the	the
sw3665A-ms98-a-0002	A.1	8.570250	8.690750		[silence]	[silence]
sw3665A-ms98-a-0002	A.1	8.690750	8.842250		one	one
sw3665A-ms98-a-0002	A.1	8.842250	8.992250		I'm	i'm
sw3665A-ms98-a-0002	A.1	8.992250	9.232250		looking	looking
sw3665A-ms98-a-0002	A.1	9.232250	9.482250		forward	forward
sw3665A-ms98-a-0002	A.1	9.482250	9.542250		to	to
sw3665A-ms98-a-0002	A.1	9.542250	9.602250		to	to
sw3665A-ms98-a-0002	A.1	9.602250	9.802250		tonight	tonight
sw3665A-ms98-a-0002	A.1	9.802250	9.892250		is	is
sw3665A-ms98-a-0002	A.1	9.892250	10.192250		TWENTY	Twenty
sw3665A-ms98-a-0002	A.1	10.192250	10.676875		TWENTY	Twenty
sw3665A-ms98-a-0002	A.1	10.676875	11.133250		[silence]	[silence]
sw3665A-ms98-a-0003	A.1	11.133250	11.723250		[silence]	[silence]
sw3665A-ms98-a-0003	A.1	11.723250	11.822625		I	i
sw3665A-ms98-a-0003	A.1	11.822625	11.993250		usually	usually
sw3665A-ms98-a-0003	A.1	11.993250	12.193250		watch	watch
sw3665A-ms98-a-0003	A.1	12.193250	12.422625		those	those
sw3665A-ms98-a-0003	A.1	12.422625	12.618500		[silence]	[silence]
sw3665A-ms98-a-0003	A.1	12.618500	12.843250		prime	prime
sw3665A-ms98-a-0003	A.1	12.843250	13.173250		time	time
sw3665A-ms98-a-0003	A.1	13.173250	13.730875		programs	programs
sw3665A-ms98-a-0003	A.3	13.730875	14.395000		[silence]	[silence]
sw3665A-ms98-a-0004	A.3	14.395000	14.935000		[silence]	[silence]
sw3665A-ms98-a-0004	A.3	14.935000	15.720250		Uh	uh
sw3665A-ms98-a-0004	A.3	15.720250	15.921000		[silence]	[silence]
sw3665A-ms98-a-0004	A.3	15.921000	16.026500		I	i
sw3665A-ms98-a-0004	A.3	16.026500	16.155000		like	like
sw3665A-ms98-a-0004	A.3	16.155000	16.225000		to	to
sw3665A-ms98-a-0004	A.3	16.225000	16.395000		watch	watch
sw3665A-ms98-a-0004	A.3	16.395000	16.675000	<CONT>	FORTY-EIGHT	Forty
sw3665A-ms98-a-0004	A.3	16.675000	16.785000	<CONT>	+++	Eight
sw3665A-ms98-a-0004	A.3	16.785000	17.549250		HOURS	Hours
sw3665A-ms98-a-0004	A.3	17.549250	17.858125		[silence]	[silence]
sw3665A-ms98-a-0004	A.3	17.858125	18.065000		Never	never
sw3665A-ms98-a-0004	A.3	18.065000	18.273000		miss	miss
sw3665A-ms98-a-0004	A.3	18.273000	18.374625		[silence]	[silence]
sw3665A-ms98-a-0004	A.3	18.374625	18.785000		that	that
sw3665A-ms98-a-0004	A.3	18.785000	19.125000		and	and
sw3665A-ms98-a-0004	A.3	19.125000	19.394000		uh	uh
sw3665A-ms98-a-0004	A.3	19.394000	19.928750		[silence]	[silence]
sw3665A-ms98-a-0004	A.3	19.928750	20.305000		sometimes	sometimes
sw3665A-ms98-a-0004	A.3	20.305000	20.575000		PRIME	Prime
sw3665A-ms98-a-0004	A.3	20.575000	20.845000		TIME	Time
sw3665A-ms98-a-0004	A.3	20.845000	21.473000		LIVE	Live
sw3665A-ms98-a-0004	A.3	21.473000	22.113875		[silence]	[silence]
sw3665A-ms98-a-0004	A.3	22.113875	22.752875	<SUB>	Uh	um
sw3665A-ms98-a-0004	A.3	22.752875	23.585875		[silence]	[silence]
sw3665A-ms98-a-0005	A.3	23.585875	24.605875		[silence]	[silence]
sw3665A-ms98-a-0005	A.3	24.605875	24.755875		and	and
sw3665A-ms98-a-0005	A.3	24.755875	24.915875		then	then
sw3665A-ms98-a-0005	A.3	24.915875	24.975875		the	the
sw3665A-ms98-a-0005	A.3	24.975875	25.165875		week	week
sw3665A-ms98-a-0005	A.3	25.165875	25.375875		goes	goes
sw3665A-ms98-a-0005	A.3	25.375875	25.515875		by	by
sw3665A-ms98-a-0005	A.3	25.515875	25.585125		and	and
sw3665A-ms98-a-0005	A.3	25.585125	25.649125		I	i
sw3665A-ms98-a-0005	A.3	25.649125	25.885875		don't	[laughter-don't]
sw3665A-ms98-a-0005	A.3	25.885875	26.115875		think	[laughter-think]
sw3665A-ms98-a-0005	A.3	26.115875	26.115875	<INS>	I	---
sw3665A-ms98-a-0005	A.3	26.115875	26.345875		ever	[laughter-ever]
sw3665A-ms98-a-0005	A.3	26.345875	26.605875		watch	[laughter-watch]
sw3665A-ms98-a-0005	A.3	26.605875	26.936625		anything	[laughter-anything]
sw3665A-ms98-a-0005	A.3	26.936625	27.125000		else	[laughter-else]
sw3665A-ms98-a-0005	A.5	27.125000	27.465875		[silence]	[silence]
sw3665A-ms98-a-0005	A.5	27.465875	27.555875		You	you
sw3665A-ms98-a-0005	A.5	27.555875	27.625875		know	know
sw3665A-ms98-a-0005	A.5	27.625875	27.855875		the	the
sw3665A-ms98-a-0005	A.5	27.855875	28.005875		the	the
sw3665A-ms98-a-0005	A.5	28.005875	28.295875		Sunday	Sunday
sw3665A-ms98-a-0005	A.5	28.295875	28.495875		night	night
sw3665A-ms98-a-0005	A.5	28.495875	28.925875		movies	movies
sw3665A-ms98-a-0005	A.5	28.925875	29.005875		I	i
sw3665A-ms98-a-0005	A.5	29.005875	29.205875		watch	watch
sw3665A-ms98-a-0005	A.5	29.205875	29.385875		those	those
sw3665A-ms98-a-0005	A.5	29.385875	29.525875		kind	kind
sw3665A-ms98-a-0005	A.5	29.525875	29.615875		of	of
sw3665A-ms98-a-0005	A.5	29.615875	29.955875		things	things
sw3665A-ms98-a-0005	A.5	29.955875	30.217875		[silence]	[silence]
sw3665A-ms98-a-0006	A.5	30.217875	30.738375		[silence]	[silence]
sw3665A-ms98-a-0006	A.5	30.738375	30.970875		But	but
sw3665A-ms98-a-0006	A.5	30.970875	31.256375		uh	uh
sw3665A-ms98-a-0006	A.5	31.256375	32.104000		[silence]	[silence]
sw3665A-ms98-a-0006	A.5	32.104000	32.384250	<SUB>	most	most[ly]-
sw3665A-ms98-a-0006	A.5	32.384250	32.610250		but	but
sw3665A-ms98-a-0006	A.5	32.610250	33.159375		basically	basically
sw3665A-ms98-a-0006	A.5	33.159375	33.283625		a	a
sw3665A-ms98-a-0006	A.5	33.283625	33.457875		lot	lot
sw3665A-ms98-a-0006	A.5	33.457875	33.527875		of	of
sw3665A-ms98-a-0006	A.5	33.527875	34.197875		documentary	documentary
sw3665A-ms98-a-0006	A.5	34.197875	34.587875		things	things
sw3665A-ms98-a-0006	A.5	34.587875	34.837875		and	and
sw3665A-ms98-a-0006	A.5	34.837875	34.987875		[silence]	[silence]
sw3665A-ms98-a-0006	A.5	34.987875	35.067875		you	you
sw3665A-ms98-a-0006	A.5	35.067875	35.147875		know	know
sw3665A-ms98-a-0006	A.5	35.147875	35.337875		what's	what's
sw3665A-ms98-a-0006	A.5	35.337875	35.587875		going	going
sw3665A-ms98-a-0006	A.5	35.587875	35.927875		on	on
sw3665A-ms98-a-0006	A.5	35.927875	36.117875		and	and
sw3665A-ms98-a-0006	A.5	36.117875	36.797875		[silence]	[silence]
sw3665A-ms98-a-0006	A.5	36.797875	36.989625		that	that
sw3665A-ms98-a-0006	A.5	36.989625	37.202625		kind	kind
sw3665A-ms98-a-0006	A.5	37.202625	37.307875		of	of
sw3665A-ms98-a-0006	A.5	37.307875	37.497875		thing	thing
sw3665A-ms98-a-0006	A.7	37.497875	38.091875		[silence]	[silence]
sw3665A-ms98-a-0007	A.7	38.091875	42.878250		[silence]	[silence]
sw3665A-ms98-a-0008	A.7	42.878250	43.318375		[silence]	[silence]
sw3665A-ms98-a-0008	A.7	43.318375	43.770750		Uh-huh	uh-huh
sw3665A-ms98-a-0008	A.9	43.770750	44.490125		[silence]	[silence]
sw3665A-ms98-a-0009	A.9	44.490125	45.203625		[silence]	[silence]
sw3665A-ms98-a-0009	A.9	45.203625	45.654500		Uh-huh	uh-huh
sw3665A-ms98-a-0009	A.11	45.654500	46.130125		[silence]	[silence]
sw3665A-ms98-a-0010	A.11	46.130125	49.592000		[silence]	[silence]
sw3665A-ms98-a-0011	A.11	49.592000	50.114250		[silence]	[silence]
sw3665A-ms98-a-0011	A.11	50.114250	50.599625		Yeah	yeah
sw3665A-ms98-a-0011	A.13	50.599625	50.985375		[silence]	[silence]
sw3665A-ms98-a-0012	A.13	50.985375	51.996125		[silence]	[silence]
sw3665A-ms98-a-0013	A.13	51.996125	52.429750		[silence]	[silence]
sw3665A-ms98-a-0013	A.13	52.429750	52.587375		Yeah	yeah
sw3665A-ms98-a-0013	A.13	52.587375	52.696125		it's	it's
sw3665A-ms98-a-0013	A.13	52.696125	52.846125		hard	hard
sw3665A-ms98-a-0013	A.13	52.846125	52.926125		to	to
sw3665A-ms98-a-0013	A.13	52.926125	53.489375		follow	follow
sw3665A-ms98-a-0013	A.15	53.489375	53.939000		[silence]	[silence]
sw3665A-ms98-a-0014	A.15	53.939000	57.753875		[silence]	[silence]
sw3665A-ms98-a-0015	A.15	57.753875	58.193875		[silence]	[silence]
sw3665A-ms98-a-0015	A.15	58.193875	58.373875		Oh	oh
sw3665A-ms98-a-0015	A.15	58.373875	58.483875		I've	i've
sw3665A-ms98-a-0015	A.15	58.483875	58.663875		never	never
sw3665A-ms98-a-0015	A.15	58.663875	58.853875		seen	seen
sw3665A-ms98-a-0015	A.15	58.853875	59.013875		that	that
sw3665A-ms98-a-0015	A.15	59.013875	59.195250		one	one
sw3665A-ms98-a-0015	A.17	59.195250	59.689875		[silence]	[silence]
sw3665A-ms98-a-0016	A.17	59.689875	61.879625		[silence]	[silence]
sw3665A-ms98-a-0017	A.17	61.879625	62.349625		[silence]	[silence]
sw3665A-ms98-a-0017	A.17	62.349625	62.709625		Okay	okay
sw3665A-ms98-a-0017	A.17	62.709625	63.071250		yeah	yeah
sw3665A-ms98-a-0017	A.19	63.071250	63.199250		[silence]	[silence]
sw3665A-ms98-a-0017	A.19	63.199250	63.299625		I've	i've
sw3665A-ms98-a-0017	A.19	63.299625	63.549625		seen	seen
sw3665A-ms98-a-0017	A.19	63.549625	63.632625		a	a
sw3665A-ms98-a-0017	A.19	63.632625	63.730500		[silence]	[silence]
sw3665A-ms98-a-0017	A.19	63.730500	63.899625		uh	uh
sw3665A-ms98-a-0017	A.19	63.899625	64.142250		the	the
sw3665A-ms98-a-0017	A.19	64.142250	64.281625		[silence]	[silence]
sw3665A-ms98-a-0017	A.19	64.281625	64.649625		previews	previews
sw3665A-ms98-a-0017	A.19	64.649625	64.759625		for	for
sw3665A-ms98-a-0017	A.19	64.759625	64.960875		that	that
sw3665A-ms98-a-0017	A.21	64.960875	65.495375		[silence]	[silence]
sw3665A-ms98-a-0018	A.21	65.495375	69.750875		[silence]	[silence]
sw3665A-ms98-a-0019	A.21	69.750875	70.320625		[silence]	[silence]
sw3665A-ms98-a-0019	A.21	70.320625	70.829375		Uh-huh	uh-huh
sw3665A-ms98-a-0019	A.23	70.829375	71.294500		[silence]	[silence]
sw3665A-ms98-a-0020	A.23	71.294500	82.321125		[silence]	[silence]
sw3665A-ms98-a-0021	A.23	82.321125	82.831125		[silence]	[silence]
sw3665A-ms98-a-0021	A.23	82.831125	83.101125		Oh	oh
sw3665A-ms98-a-0021	A.23	83.101125	83.241125		we	we
sw3665A-ms98-a-0021	A.23	83.241125	83.491125		never	never
sw3665A-ms98-a-0021	A.23	83.491125	83.741125		miss	miss
sw3665A-ms98-a-0021	A.23	83.741125	84.011500		that	that
sw3665A-ms98-a-0021	A.23	84.011500	84.101875		[silence]	[silence]
sw3665A-ms98-a-0021	A.23	84.101875	84.211125		or	or
sw3665A-ms98-a-0021	A.23	84.211125	84.321125		we	we
sw3665A-ms98-a-0021	A.23	84.321125	84.571125		try	try
sw3665A-ms98-a-0021	A.23	84.571125	84.831125		not	not
sw3665A-ms98-a-0021	A.23	84.831125	84.941125		to	to
sw3665A-ms98-a-0021	A.23	84.941125	85.141125		miss	miss
sw3665A-ms98-a-0021	A.23	85.141125	85.379250		that	that
sw3665A-ms98-a-0021	A.25	85.379250	85.558875		[silence]	[silence]
sw3665A-ms98-a-0022	A.25	85.558875	86.068875		[silence]	[silence]
sw3665A-ms98-a-0022	A.25	86.068875	86.418875		Oh	oh
sw3665A-ms98-a-0022	A.25	86.418875	86.538875		we	we
sw3665A-ms98-a-0022	A.25	86.538875	86.698875		think	think
sw3665A-ms98-a-0022	A.25	86.698875	86.809000		it	it
sw3665A-ms98-a-0022	A.25	86.809000	86.952125		is	is
sw3665A-ms98-a-0022	A.27	86.952125	87.493375		so	[laughter-so]
sw3665A-ms98-a-0022	A.27	87.493375	87.711875		[silence]	[silence]
sw3665A-ms98-a-0022	A.27	87.711875	88.294625		funny	[laughter-funny]
sw3665A-ms98-a-0022	A.29	88.294625	89.938000		[silence]	[silence]
sw3665A-ms98-a-0023	A.29	89.938000	90.908000		[silence]	[silence]
sw3665A-ms98-a-0023	A.29	90.908000	91.415750		Oh	oh
sw3665A-ms98-a-0023	A.29	91.415750	91.596500	<DEL>	---	i
sw3665A-ms98-a-0023	A.29	91.596500	91.868000		just	just
sw3665A-ms98-a-0023	A.29	91.868000	92.168000		part	part
sw3665A-ms98-a-0023	A.29	92.168000	92.318000		of	of
sw3665A-ms98-a-0023	A.29	92.318000	92.698000		it	it
sw3665A-ms98-a-0023	A.31	92.698000	93.862750		[laughter]	[laughter]
sw3665A-ms98-a-0023	A.31	93.862750	94.248125		[silence]	[silence]
sw3665A-ms98-a-0024	A.31	94.248125	96.341625		[silence]	[silence]
sw3665A-ms98-a-0025	A.31	96.341625	96.767375		[silence]	[silence]
sw3665A-ms98-a-0025	A.31	96.767375	97.305125		Uh-huh	uh-huh
sw3665A-ms98-a-0025	A.33	97.305125	98.041250		[silence]	[silence]
sw3665A-ms98-a-0026	A.33	98.041250	98.891250		[silence]	[silence]
sw3665A-ms98-a-0026	A.33	98.891250	99.531250		No	no
sw3665A-ms98-a-0026	A.35	99.531250	100.047875		[silence]	[silence]
sw3665A-ms98-a-0027	A.35	100.047875	104.724375		[silence]	[silence]
sw3665A-ms98-a-0028	A.35	104.724375	105.207500		[silence]	[silence]
sw3665A-ms98-a-0028	A.35	105.207500	105.614500		Uh-huh	uh-huh
sw3665A-ms98-a-0028	A.35	105.614500	105.923125		[silence]	[silence]
sw3665A-ms98-a-0028	A.35	105.923125	106.224375		oh	oh
sw3665A-ms98-a-0028	A.35	106.224375	106.584375		that's	that's
sw3665A-ms98-a-0028	A.35	106.584375	106.824375		right	right
sw3665A-ms98-a-0028	A.35	106.824375	106.944375		and	and
sw3665A-ms98-a-0028	A.35	106.944375	107.004375		the	the
sw3665A-ms98-a-0028	A.35	107.004375	107.404375		neighbor	neighbor
sw3665A-ms98-a-0028	A.35	107.404375	107.514375		they	they
sw3665A-ms98-a-0028	A.35	107.514375	107.724375		thought	thought
sw3665A-ms98-a-0028	A.35	107.724375	107.814375		it	it
sw3665A-ms98-a-0028	A.35	107.814375	107.994375		was	was
sw3665A-ms98-a-0028	A.35	107.994375	108.094375		the	the
sw3665A-ms98-a-0028	A.35	108.094375	108.690375		neighbor	neighbor
sw3665A-ms98-a-0028	A.39	108.690375	109.088000		[silence]	[silence]
sw3665A-ms98-a-0029	A.39	109.088000	112.861125		[silence]	[silence]
sw3665A-ms98-a-0030	A.39	112.861125	113.278250		[silence]	[silence]
sw3665A-ms98-a-0030	A.39	113.278250	114.103250		[laughter]	[laughter]
sw3665A-ms98-a-0030	A.39	114.103250	114.489625		[silence]	[silence]
sw3665A-ms98-a-0031	A.39	114.489625	114.926250		[silence]	[silence]
sw3665A-ms98-a-0031	A.39	114.926250	115.777125		Yeah	[laughter-yeah]
sw3665A-ms98-a-0031	A.41	115.777125	116.456000		[silence]	[silence]
sw3665A-ms98-a-0031	A.41	116.456000	116.865750	<DEL>	---	[laughter-yeah]
sw3665A-ms98-a-0031	A.41	116.865750	117.267250		[silence]	[silence]
sw3665A-ms98-a-0032	A.41	117.267250	117.767250		[silence]	[silence]
sw3665A-ms98-a-0032	A.41	117.767250	117.967250		And	and
sw3665A-ms98-a-0032	A.41	117.967250	118.187250		then	then
sw3665A-ms98-a-0032	A.41	118.187250	118.347250		uh	uh
sw3665A-ms98-a-0032	A.41	118.347250	118.617250		it	it
sw3665A-ms98-a-0032	A.41	118.617250	118.967250		it's	it's
sw3665A-ms98-a-0032	A.41	118.967250	119.199125		it	it
sw3665A-ms98-a-0032	A.41	119.199125	119.662500		appeared	appeared
sw3665A-ms98-a-0032	A.41	119.662500	119.797250		that	that
sw3665A-ms98-a-0032	A.41	119.797250	120.027250		maybe	maybe
sw3665A-ms98-a-0032	A.41	120.027250	120.167250		it	it
sw3665A-ms98-a-0032	A.41	120.167250	120.587250		probably	probably
sw3665A-ms98-a-0032	A.41	120.587250	120.932125		wasn't	wasn't
sw3665A-ms98-a-0032	A.41	120.932125	121.062125		[silence]	[silence]
sw3665A-ms98-a-0032	A.41	121.062125	121.137250		the	the
sw3665A-ms98-a-0032	A.41	121.137250	121.578375		neighbor	neighbor
sw3665A-ms98-a-0032	A.43	121.578375	121.994375		[silence]	[silence]
sw3665A-ms98-a-0033	A.43	121.994375	135.322625		[silence]	[silence]
sw3665A-ms98-a-0034	A.43	135.322625	135.870250		[silence]	[silence]
sw3665A-ms98-a-0034	A.43	135.870250	136.224750	<SUB>	Uh-huh	um-hum
sw3665A-ms98-a-0034	A.45	136.224750	136.603500		[silence]	[silence]
sw3665A-ms98-a-0035	A.45	136.603500	140.427000		[silence]	[silence]
sw3665A-ms98-a-0036	A.45	140.427000	140.927000		[silence]	[silence]
sw3665A-ms98-a-0036	A.45	140.927000	141.257000		Uh-huh	uh-huh
sw3665A-ms98-a-0036	A.45	141.257000	141.391125		[silence]	[silence]
sw3665A-ms98-a-0036	A.45	141.391125	141.477750		I've	i've
sw3665A-ms98-a-0036	A.45	141.477750	141.567000		[silence]	[silence]
sw3665A-ms98-a-0036	A.45	141.567000	142.022375		never	never
sw3665A-ms98-a-0036	A.45	142.022375	142.188125		[silence]	[silence]
sw3665A-ms98-a-0036	A.45	142.188125	142.337000		seen	seen
sw3665A-ms98-a-0036	A.45	142.337000	142.477000		that	that
sw3665A-ms98-a-0036	A.45	142.477000	142.827000		program	program
sw3665A-ms98-a-0036	A.47	142.827000	143.381500		[silence]	[silence]
sw3665A-ms98-a-0037	A.47	143.381500	147.484375		[silence]	[silence]
sw3665A-ms98-a-0038	A.47	147.484375	147.964375		[silence]	[silence]
sw3665A-ms98-a-0038	A.47	147.964375	148.304375		Uh-huh	uh-huh
sw3665A-ms98-a-0038	A.49	148.304375	149.200500		[silence]	[silence]
sw3665A-ms98-a-0039	A.49	149.200500	149.990625		[silence]	[silence]
sw3665A-ms98-a-0039	A.49	149.990625	150.408125		Uh-huh	uh-huh
sw3665A-ms98-a-0039	A.51	150.408125	150.783750		[silence]	[silence]
sw3665A-ms98-a-0040	A.51	150.783750	155.267625		[silence]	[silence]
sw3665A-ms98-a-0041	A.51	155.267625	155.787750		[silence]	[silence]
sw3665A-ms98-a-0041	A.51	155.787750	156.201750		Oh	oh
sw3665A-ms98-a-0041	A.53	156.201750	156.752625		[silence]	[silence]
sw3665A-ms98-a-0042	A.53	156.752625	164.675500		[silence]	[silence]
sw3665A-ms98-a-0043	A.53	164.675500	165.255500		[silence]	[silence]
sw3665A-ms98-a-0043	A.53	165.255500	165.915500		Oh	oh
sw3665A-ms98-a-0043	A.55	165.915500	166.716125		[silence]	[silence]
sw3665A-ms98-a-0044	A.55	166.716125	167.586125		[silence]	[silence]
sw3665A-ms98-a-0044	A.55	167.586125	168.006125		Uh-huh	uh-huh
sw3665A-ms98-a-0044	A.57	168.006125	168.453125		[silence]	[silence]
sw3665A-ms98-a-0045	A.57	168.453125	172.787250		[silence]	[silence]
sw3665A-ms98-a-0046	A.57	172.787250	173.084250		[silence]	[silence]
sw3665A-ms98-a-0046	A.57	173.084250	173.525125	<SUB>	Uh-huh	um-hum
sw3665A-ms98-a-0046	A.59	173.525125	174.000250		[silence]	[silence]
sw3665A-ms98-a-0047	A.59	174.000250	177.243250		[silence]	[silence]
sw3665A-ms98-a-0048	A.59	177.243250	177.739500		[silence]	[silence]
sw3665A-ms98-a-0048	A.59	177.739500	178.328500		Oh	oh
sw3665A-ms98-a-0048	A.59	178.328500	178.943250		okay	okay
sw3665A-ms98-a-0048	A.61	178.943250	179.264125		[silence]	[silence]
sw3665A-ms98-a-0049	A.61	179.264125	182.512500		[silence]	[silence]
sw3665A-ms98-a-0050	A.61	182.512500	182.932500		[silence]	[silence]
sw3665A-ms98-a-0050	A.61	182.932500	183.397625		Yeah	yeah
sw3665A-ms98-a-0050	A.61	183.397625	183.681500		[silence]	[silence]
sw3665A-ms98-a-0050	A.61	183.681500	183.996125		right	right
sw3665A-ms98-a-0050	A.63	183.996125	184.499750		[silence]	[silence]
sw3665A-ms98-a-0051	A.63	184.499750	186.915625		[silence]	[silence]
sw3665A-ms98-a-0052	A.63	186.915625	187.385625		[silence]	[silence]
sw3665A-ms98-a-0052	A.63	187.385625	187.555125		Oh	oh
sw3665A-ms98-a-0052	A.63	187.555125	187.695500		I	i
sw3665A-ms98-a-0052	A.63	187.695500	187.862000		do	do
sw3665A-ms98-a-0052	A.63	187.862000	188.395625		too	too
sw3665A-ms98-a-0052	A.65	188.395625	188.572125		[silence]	[silence]
sw3665A-ms98-a-0053	A.65	188.572125	188.605000		[silence]	[silence]
sw3665A-ms98-a-0053	A.65	188.605000	190.199125		[laughter]	[laughter]
sw3665A-ms98-a-0053	A.65	190.199125	190.513625		[silence]	[silence]
sw3665A-ms98-a-0054	A.65	190.513625	190.896625		[silence]	[silence]
sw3665A-ms98-a-0054	A.65	190.896625	191.208500		Oh	[laughter-oh]
sw3665A-ms98-a-0054	A.65	191.208500	191.329250		I	[laughter-i]
sw3665A-ms98-a-0054	A.65	191.329250	191.537625		do	[laughter-do]
sw3665A-ms98-a-0054	A.65	191.537625	191.863625		too	[laughter-too]
sw3665A-ms98-a-0054	A.65	191.863625	192.053625	<DEL>	---	uh
sw3665A-ms98-a-0054	A.65	192.053625	192.282625		but	but
sw3665A-ms98-a-0054	A.65	192.282625	192.452125		I	i
sw3665A-ms98-a-0054	A.65	192.452125	192.673625		just	just
sw3665A-ms98-a-0054	A.65	192.673625	192.873625		seem	seem
sw3665A-ms98-a-0054	A.65	192.873625	193.131500		to	to
sw3665A-ms98-a-0054	A.65	193.131500	193.470500		[silence]	[silence]
sw3665A-ms98-a-0054	A.65	193.470500	193.646125		to	to
sw3665A-ms98-a-0054	A.65	193.646125	193.853625		miss	miss
sw3665A-ms98-a-0054	A.65	193.853625	193.913625		a	a
sw3665A-ms98-a-0054	A.65	193.913625	194.123625		lot	lot
sw3665A-ms98-a-0054	A.65	194.123625	194.183625		of	of
sw3665A-ms98-a-0054	A.65	194.183625	194.314125		these	these
sw3665A-ms98-a-0054	A.65	194.314125	194.408250		[silence]	[silence]
sw3665A-ms98-a-0054	A.65	194.408250	194.843625		programs	programs
sw3665A-ms98-a-0054	A.65	194.843625	194.923625		I	i
sw3665A-ms98-a-0054	A.65	194.923625	195.113625		don't	don't
sw3665A-ms98-a-0054	A.65	195.113625	195.233625		know	know
sw3665A-ms98-a-0054	A.65	195.233625	195.603625		why	why
sw3665A-ms98-a-0054	A.65	195.603625	195.732875		I	i
sw3665A-ms98-a-0054	A.65	195.732875	196.087375		just	just
sw3665A-ms98-a-0054	A.65	196.087375	196.209625		[silence]	[silence]
sw3665A-ms98-a-0055	A.65	196.209625	196.566875		[silence]	[silence]
sw3665A-ms98-a-0055	A.65	196.566875	196.669250		if	if
sw3665A-ms98-a-0055	A.65	196.669250	196.794125		I	i
sw3665A-ms98-a-0055	A.65	196.794125	196.939625		can	can
sw3665A-ms98-a-0055	A.65	196.939625	197.279625		catch	catch
sw3665A-ms98-a-0055	A.65	197.279625	197.389625		them	them_1
sw3665A-ms98-a-0055	A.65	197.389625	197.489625		I	i
sw3665A-ms98-a-0055	A.65	197.489625	197.849625		do	do
sw3665A-ms98-a-0055	A.65	197.849625	197.999625		Or	or
sw3665A-ms98-a-0055	A.65	197.999625	198.108625		if	if
sw3665A-ms98-a-0055	A.65	198.108625	198.304500		I	i
sw3665A-ms98-a-0055	A.65	198.304500	198.959625		remember	remember
sw3665A-ms98-a-0055	A.69	198.959625	199.440375		[silence]	[silence]
sw3665A-ms98-a-0056	A.69	199.440375	204.007250		[silence]	[silence]
sw3665A-ms98-a-0057	A.69	204.007250	204.590875		[silence]	[silence]
sw3665A-ms98-a-0057	A.69	204.590875	205.522625		[laughter]	[laughter]
sw3665A-ms98-a-0057	A.69	205.522625	205.768000		[silence]	[silence]
sw3665A-ms98-a-0058	A.69	205.768000	211.135125		[silence]	[silence]
sw3665A-ms98-a-0059	A.69	211.135125	211.661750		[silence]	[silence]
sw3665A-ms98-a-0059	A.69	211.661750	211.935500		Oh	oh
sw3665A-ms98-a-0059	A.69	211.935500	212.514125		yeah	yeah
sw3665A-ms98-a-0059	A.69	212.514125	212.668500		I	i
sw3665A-ms98-a-0059	A.69	212.668500	212.995125		watch	watch
sw3665A-ms98-a-0059	A.69	212.995125	213.514375		one	one
sw3665A-ms98-a-0059	A.69	213.514375	214.259250		[silence]	[silence]
sw3665A-ms98-a-0059	A.69	214.259250	214.504000	<SUB>	and	an[d]-
sw3665A-ms98-a-0059	A.71	214.504000	215.421500		[silence]	[silence]
sw3665A-ms98-a-0060	A.71	215.421500	218.817125		[silence]	[silence]
sw3665A-ms98-a-0061	A.71	218.817125	219.354375		[silence]	[silence]
sw3665A-ms98-a-0061	A.71	219.354375	219.772750		Oh	oh
sw3665A-ms98-a-0061	A.73	219.772750	220.250625		[silence]	[silence]
sw3665A-ms98-a-0062	A.73	220.250625	222.838875		[silence]	[silence]
sw3665A-ms98-a-0063	A.73	222.838875	223.348875		[silence]	[silence]
sw3665A-ms98-a-0063	A.73	223.348875	224.019375		Oh	oh
sw3665A-ms98-a-0063	A.73	224.019375	224.711750		[silence]	[silence]
sw3665A-ms98-a-0063	A.73	224.711750	225.155875		okay	okay
sw3665A-ms98-a-0063	A.75	225.155875	225.283875		[silence]	[silence]
sw3665A-ms98-a-0064	A.75	225.283875	227.872000		[silence]	[silence]
sw3665A-ms98-a-0065	A.75	227.872000	228.302000		[silence]	[silence]
sw3665A-ms98-a-0065	A.75	228.302000	228.512000		Yeah	yeah
sw3665A-ms98-a-0065	A.75	228.512000	228.752000		that's	that's
sw3665A-ms98-a-0065	A.75	228.752000	228.882000		been	been
sw3665A-ms98-a-0065	A.75	228.882000	229.043625		on	on
sw3665A-ms98-a-0065	A.75	229.043625	229.239500		for	for
sw3665A-ms98-a-0065	A.75	229.239500	229.900750		years	years
sw3665A-ms98-a-0065	A.77	229.900750	230.402125		[silence]	[silence]
sw3665A-ms98-a-0066	A.77	230.402125	234.379125		[silence]	[silence]
sw3665A-ms98-a-0067	A.77	234.379125	234.859125		[silence]	[silence]
sw3665A-ms98-a-0067	A.77	234.859125	235.679000		Oh	oh
sw3665A-ms98-a-0067	A.77	235.679000	236.105875		[silence]	[silence]
sw3665A-ms98-a-0067	A.77	236.105875	236.191125		and	and
sw3665A-ms98-a-0067	A.77	236.191125	236.289125		so	so
sw3665A-ms98-a-0067	A.77	236.289125	236.399125		you	you
sw3665A-ms98-a-0067	A.77	236.399125	236.519125		get	get
sw3665A-ms98-a-0067	A.77	236.519125	236.579125		to	to
sw3665A-ms98-a-0067	A.77	236.579125	236.749125		come	come
sw3665A-ms98-a-0067	A.77	236.749125	237.189125		home	home
sw3665A-ms98-a-0067	A.77	237.189125	237.410875		[silence]	[silence]
sw3665A-ms98-a-0068	A.77	237.410875	237.590875		[silence]	[silence]
sw3665A-ms98-a-0068	A.77	237.590875	237.880875		and	and
sw3665A-ms98-a-0068	A.77	237.880875	238.160875		watch	watch
sw3665A-ms98-a-0068	A.77	238.160875	238.410875		them	them
sw3665A-ms98-a-0068	A.79	238.410875	239.080000		[laughter]	[laughter]
sw3665A-ms98-a-0068	A.79	239.080000	239.640250		[silence]	[silence]
sw3665A-ms98-a-0069	A.79	239.640250	242.148250		[silence]	[silence]
sw3665A-ms98-a-0070	A.79	242.148250	242.644500		[silence]	[silence]
sw3665A-ms98-a-0070	A.79	242.644500	243.045875		Yeah	yeah
sw3665A-ms98-a-0070	A.81	243.045875	243.439875		[silence]	[silence]
sw3665A-ms98-a-0071	A.81	243.439875	243.769875		[silence]	[silence]
sw3665A-ms98-a-0071	A.81	243.769875	244.281250		Uh-huh	uh-huh
sw3665A-ms98-a-0071	A.81	244.281250	244.557625		[silence]	[silence]
sw3665A-ms98-a-0071	A.81	244.557625	244.985125		uh-huh	uh-huh
sw3665A-ms98-a-0071	A.83	244.985125	245.511875		[silence]	[silence]
sw3665A-ms98-a-0072	A.83	245.511875	252.577750		[silence]	[silence]
sw3665A-ms98-a-0073	A.83	252.577750	253.081000		[silence]	[silence]
sw3665A-ms98-a-0073	A.83	253.081000	253.462625		Uh-huh	uh-huh
sw3665A-ms98-a-0073	A.85	253.462625	253.894000		[silence]	[silence]
sw3665A-ms98-a-0074	A.85	253.894000	259.665000		[silence]	[silence]
sw3665A-ms98-a-0075	A.85	259.665000	260.155000		[silence]	[silence]
sw3665A-ms98-a-0075	A.85	260.155000	260.405000		Yeah	yeah
sw3665A-ms98-a-0075	A.85	260.405000	260.645000		well	well
sw3665A-ms98-a-0075	A.85	260.645000	260.895000		we	we
sw3665A-ms98-a-0075	A.87	260.895000	261.379500		[silence]	[silence]
sw3665A-ms98-a-0076	A.87	261.379500	262.473500		[silence]	[silence]
sw3665A-ms98-a-0077	A.87	262.473500	262.853500		[silence]	[silence]
sw3665A-ms98-a-0077	A.87	262.853500	263.308250		Yeah	yeah
sw3665A-ms98-a-0077	A.87	263.308250	263.730125		[silence]	[silence]
sw3665A-ms98-a-0077	A.87	263.730125	263.933500		that's	that's
sw3665A-ms98-a-0077	A.87	263.933500	263.983500		a	a
sw3665A-ms98-a-0077	A.87	263.983500	264.133500		good	good
sw3665A-ms98-a-0077	A.87	264.133500	264.423500		idea	idea
sw3665A-ms98-a-0077	A.87	264.423500	264.523500		We	we
sw3665A-ms98-a-0077	A.87	264.523500	264.653500		did	did
sw3665A-ms98-a-0077	A.87	264.653500	264.793500		have	have
sw3665A-ms98-a-0077	A.87	264.793500	265.055000		H	H
sw3665A-ms98-a-0077	A.87	265.055000	265.179250		B	B
sw3665A-ms98-a-0077	A.87	265.179250	265.333500		O	O
sw3665A-ms98-a-0077	A.87	265.333500	265.531250		but	but
sw3665A-ms98-a-0077	A.87	265.531250	265.983500		[silence]	[silence]
sw3665A-ms98-a-0077	A.87	265.983500	266.093500		it	it
sw3665A-ms98-a-0077	A.87	266.093500	266.373500		[silence]	[silence]
sw3665A-ms98-a-0077	A.87	266.373500	266.493500		we	we
sw3665A-ms98-a-0077	A.87	266.493500	266.693500		just	just
sw3665A-ms98-a-0077	A.87	266.693500	267.163500		canceled	canceled
sw3665A-ms98-a-0077	A.87	267.163500	267.293500		it	it
sw3665A-ms98-a-0077	A.87	267.293500	267.613500		last	last
sw3665A-ms98-a-0077	A.87	267.613500	267.803500		week	week
sw3665A-ms98-a-0077	A.87	267.803500	268.033500		because	because
sw3665A-ms98-a-0077	A.87	268.033500	268.143500		it	it
sw3665A-ms98-a-0077	A.87	268.143500	268.383500		seemed	seemed
sw3665A-ms98-a-0077	A.87	268.383500	268.553500		like	like
sw3665A-ms98-a-0077	A.87	268.553500	268.662250		it	it
sw3665A-ms98-a-0077	A.87	268.662250	268.821750		was	was
sw3665A-ms98-a-0077	A.87	268.821750	269.256250		so	so
sw3665A-ms98-a-0077	A.87	269.256250	269.997000		[silence]	[silence]
sw3665A-ms98-a-0077	A.87	269.997000	270.833500		repetitious	repetitious
sw3665A-ms98-a-0077	A.87	270.833500	271.043500		you	you
sw3665A-ms98-a-0077	A.87	271.043500	271.183500		know	know
sw3665A-ms98-a-0077	A.89	271.183500	271.323500		It's	it's
sw3665A-ms98-a-0077	A.89	271.323500	271.638125		just	just
sw3665A-ms98-a-0077	A.91	271.638125	271.927750		[silence]	[silence]
sw3665A-ms98-a-0078	A.91	271.927750	277.507250		[silence]	[silence]
sw3665A-ms98-a-0079	A.91	277.507250	278.107250		[silence]	[silence]
sw3665A-ms98-a-0079	A.91	278.107250	278.757250		Oh	oh
sw3665A-ms98-a-0079	A.93	278.757250	279.213375		[silence]	[silence]
sw3665A-ms98-a-0080	A.93	279.213375	279.642750		[silence]	[silence]
sw3665A-ms98-a-0080	A.93	279.642750	279.811000		Oh	oh
sw3665A-ms98-a-0080	A.93	279.811000	280.272250		yes	yes
sw3665A-ms98-a-0080	A.93	280.272250	280.433375		if	if
sw3665A-ms98-a-0080	A.93	280.433375	280.573375		you're	you're
sw3665A-ms98-a-0080	A.93	280.573375	280.673750		up	up
sw3665A-ms98-a-0080	A.93	280.673750	280.787875		[silence]	[silence]
sw3665A-ms98-a-0080	A.93	280.787875	281.194500		then	then
sw3665A-ms98-a-0080	A.95	281.194500	281.782125		[laughter]	[laughter]
sw3665A-ms98-a-0080	A.95	281.782125	282.301000		[silence]	[silence]
sw3665A-ms98-a-0081	A.95	282.301000	286.024375		[silence]	[silence]
sw3665A-ms98-a-0082	A.95	286.024375	286.497375		[silence]	[silence]
sw3665A-ms98-a-0082	A.95	286.497375	286.904125		Yeah	yeah
sw3665A-ms98-a-0082	A.97	286.904125	287.698625		[silence]	[silence]
sw3665A-ms98-a-0083	A.97	287.698625	288.592750		[silence]	[silence]
sw3665A-ms98-a-0083	A.97	288.592750	289.060250		Right	right
sw3665A-ms98-a-0083	A.99	289.060250	289.668750		[silence]	[silence]
sw3665A-ms98-a-0084	A.99	289.668750	290.102875		[silence]	[silence]
sw3665A-ms98-a-0084	A.99	290.102875	290.524375		Right	right
sw3665A-ms98-a-0084	A.101	290.524375	291.009000		[silence]	[silence]
sw3665A-ms98-a-0085	A.101	291.009000	293.008625		[silence]	[silence]
sw3665A-ms98-a-0086	A.101	293.008625	293.478625		[silence]	[silence]
sw3665A-ms98-a-0086	A.101	293.478625	293.874250		Yeah	yeah
sw3665A-ms98-a-0086	A.101	293.874250	294.268125		[silence]	[silence]
sw3665A-ms98-a-0086	A.101	294.268125	294.610000		yeah	yeah
sw3665A-ms98-a-0086	A.101	294.610000	295.118625		[silence]	[silence]
sw3665A-ms98-a-0087	A.101	295.118625	300.098000		[silence]	[silence]
