sw3680B-ms98-a-0001	@B.2	0.000000	1.684000		[silence]	[silence]
sw3680B-ms98-a-0002	@B.2	1.684000	2.204000		[silence]	[silence]
sw3680B-ms98-a-0002	@B.2	2.204000	2.514000		Okay	okay
sw3680B-ms98-a-0002	@B.2	2.514000	2.814000		Well	well
sw3680B-ms98-a-0002	@B.2	2.814000	2.924000		I'm	i'm
sw3680B-ms98-a-0002	@B.2	2.924000	2.994000		a	a
sw3680B-ms98-a-0002	@B.2	2.994000	3.494000		Vietnam	Vietnam
sw3680B-ms98-a-0002	@B.2	3.494000	3.774000		era	era
sw3680B-ms98-a-0002	@B.2	3.774000	4.444000		veteran	veteran
sw3680B-ms98-a-0002	@B.2	4.444000	4.844000		and	and
sw3680B-ms98-a-0002	@B.2	4.844000	5.064000		uh	uh
sw3680B-ms98-a-0002	@B.2	5.064000	5.164000		[silence]	[silence]
sw3680B-ms98-a-0002	@B.2	5.164000	5.314000		I	i
sw3680B-ms98-a-0002	@B.2	5.314000	5.674000		was	was
sw3680B-ms98-a-0002	@B.2	5.674000	5.868375		uh	uh
sw3680B-ms98-a-0002	@B.2	5.868375	6.384375		[silence]	[silence]
sw3680B-ms98-a-0002	@B.2	6.384375	6.646750	<DEL>	---	uh
sw3680B-ms98-a-0002	@B.2	6.646750	7.114000		fortunate	fortunate
sw3680B-ms98-a-0002	@B.2	7.114000	7.404000		not	not
sw3680B-ms98-a-0002	@B.2	7.404000	7.494000		to	to
sw3680B-ms98-a-0002	@B.2	7.494000	7.684000		have	have
sw3680B-ms98-a-0002	@B.2	7.684000	7.814000		to	to
sw3680B-ms98-a-0002	@B.2	7.814000	8.114000		serve	serve
sw3680B-ms98-a-0002	@B.2	8.114000	8.214000		in	in
sw3680B-ms98-a-0002	@B.2	8.214000	8.294000		the	the
sw3680B-ms98-a-0002	@B.2	8.294000	8.674000		theater	theater
sw3680B-ms98-a-0002	@B.2	8.674000	9.224000		however	however
sw3680B-ms98-a-0002	@B.2	9.224000	9.494000	<DEL>	---	uh
sw3680B-ms98-a-0002	@B.2	9.494000	9.764000	<DEL>	---	m[y]-
sw3680B-ms98-a-0002	@B.2	9.764000	10.042500		my	my
sw3680B-ms98-a-0002	@B.2	10.042500	10.483125		support	support
sw3680B-ms98-a-0002	@B.2	10.483125	10.724000		roll	roll
sw3680B-ms98-a-0002	@B.2	10.724000	10.844000		in	in
sw3680B-ms98-a-0002	@B.2	10.844000	10.914000		the	the
sw3680B-ms98-a-0002	@B.2	10.914000	11.374000		service	service
sw3680B-ms98-a-0002	@B.2	11.374000	11.654000		was	was
sw3680B-ms98-a-0002	@B.2	11.654000	11.814000		to	to
sw3680B-ms98-a-0002	@B.2	11.814000	12.264000		support	support
sw3680B-ms98-a-0002	@B.2	12.264000	12.574000		those	those
sw3680B-ms98-a-0002	@B.2	12.574000	12.654000		[silence]	[silence]
sw3680B-ms98-a-0002	@B.2	12.654000	12.994000		in	in
sw3680B-ms98-a-0002	@B.2	12.994000	13.134000		the	the
sw3680B-ms98-a-0002	@B.2	13.134000	13.504000		theater	theater
sw3680B-ms98-a-0002	@B.2	13.504000	13.614000		of	of
sw3680B-ms98-a-0002	@B.2	13.614000	14.254000		operation	operation
sw3680B-ms98-a-0002	@B.2	14.254000	14.381625		[silence]	[silence]
sw3680B-ms98-a-0003	@B.2	14.381625	15.081625		[silence]	[silence]
sw3680B-ms98-a-0003	@B.2	15.081625	15.381625		Uh	uh
sw3680B-ms98-a-0003	@B.2	15.381625	15.611625		I'm	i'm
sw3680B-ms98-a-0003	@B.2	15.611625	15.711625		of	of
sw3680B-ms98-a-0003	@B.2	15.711625	15.791625		the	the
sw3680B-ms98-a-0003	@B.2	15.791625	16.021625		old	old
sw3680B-ms98-a-0003	@B.2	16.021625	16.411625		school	school
sw3680B-ms98-a-0003	@B.2	16.411625	16.511625		that	that
sw3680B-ms98-a-0003	@B.2	16.511625	17.011625		believes	believes
sw3680B-ms98-a-0003	@B.2	17.011625	17.371625		that	that
sw3680B-ms98-a-0003	@B.2	17.371625	17.631625	<SUB>	uh	um
sw3680B-ms98-a-0003	@B.2	17.631625	18.079875		[silence]	[silence]
sw3680B-ms98-a-0004	@B.2	18.079875	18.669000		[silence]	[silence]
sw3680B-ms98-a-0004	@B.2	18.669000	18.845625		the	the
sw3680B-ms98-a-0004	@B.2	18.845625	19.143750		uh	uh
sw3680B-ms98-a-0004	@B.2	19.143750	19.483125		uh	uh
sw3680B-ms98-a-0004	@B.2	19.483125	20.134250		[silence]	[silence]
sw3680B-ms98-a-0004	@B.2	20.134250	20.709875		contracts	contracts
sw3680B-ms98-a-0004	@B.2	20.709875	20.829875		that	that
sw3680B-ms98-a-0004	@B.2	20.829875	20.969875		we	we
sw3680B-ms98-a-0004	@B.2	20.969875	21.309875		made	made
sw3680B-ms98-a-0004	@B.2	21.309875	21.639875		back	back
sw3680B-ms98-a-0004	@B.2	21.639875	21.879875		years	years
sw3680B-ms98-a-0004	@B.2	21.879875	22.226875		ago	ago
sw3680B-ms98-a-0004	@B.2	22.226875	22.746625		[silence]	[silence]
sw3680B-ms98-a-0004	@B.2	22.746625	22.999875	<DEL>	---	uh
sw3680B-ms98-a-0004	@B.2	22.999875	23.369875		needed	needed
sw3680B-ms98-a-0004	@B.2	23.369875	23.429875		to	to
sw3680B-ms98-a-0004	@B.2	23.429875	23.569875		be	be
sw3680B-ms98-a-0004	@B.2	23.569875	24.109875		honored	honored
sw3680B-ms98-a-0004	@B.2	24.109875	24.394125		[silence]	[silence]
sw3680B-ms98-a-0005	@B.2	24.394125	24.664125		[silence]	[silence]
sw3680B-ms98-a-0005	@B.2	24.664125	25.264125		However	however
sw3680B-ms98-a-0005	@B.2	25.264125	25.844125		[silence]	[silence]
sw3680B-ms98-a-0005	@B.2	25.844125	26.233000		uh	uh
sw3680B-ms98-a-0005	@B.2	26.233000	27.158875		[silence]	[silence]
sw3680B-ms98-a-0005	@B.2	27.158875	27.358250		I	i
sw3680B-ms98-a-0005	@B.2	27.358250	27.576750		think	think
sw3680B-ms98-a-0005	@B.2	27.576750	27.734125		we	we
sw3680B-ms98-a-0005	@B.2	27.734125	28.034125	<CONT>	could	could've
sw3680B-ms98-a-0005	@B.2	28.034125	28.034125	<CONT>	have	+++
sw3680B-ms98-a-0005	@B.2	28.034125	28.594125		executed	executed
sw3680B-ms98-a-0005	@B.2	28.594125	28.664125		the	the
sw3680B-ms98-a-0005	@B.2	28.664125	28.985250		war	war
sw3680B-ms98-a-0005	@B.2	28.985250	29.335500		[silence]	[silence]
sw3680B-ms98-a-0005	@B.2	29.335500	29.464125		and	and
sw3680B-ms98-a-0005	@B.2	29.464125	29.684125		gotten	gotten
sw3680B-ms98-a-0005	@B.2	29.684125	29.784125		it	it
sw3680B-ms98-a-0005	@B.2	29.784125	30.014125		over	over
sw3680B-ms98-a-0005	@B.2	30.014125	30.044125		a	a
sw3680B-ms98-a-0005	@B.2	30.044125	30.224125		whole	whole
sw3680B-ms98-a-0005	@B.2	30.224125	30.414125		lot	lot
sw3680B-ms98-a-0005	@B.2	30.414125	30.874125		quicker	quicker
sw3680B-ms98-a-0005	@B.2	30.874125	31.244125		[silence]	[silence]
sw3680B-ms98-a-0006	@B.2	31.244125	31.606000		[silence]	[silence]
sw3680B-ms98-a-0006	@B.2	31.606000	32.003750	<SUB>	Uh	oh
sw3680B-ms98-a-0006	@B.2	32.003750	32.595000		[silence]	[silence]
sw3680B-ms98-a-0006	@B.2	32.595000	32.714125		but	but
sw3680B-ms98-a-0006	@B.2	32.714125	32.944125		those	those
sw3680B-ms98-a-0006	@B.2	32.944125	33.004125		are	are
sw3680B-ms98-a-0006	@B.2	33.004125	33.144125		my	my
sw3680B-ms98-a-0006	@B.2	33.144125	33.644125		personal	personal
sw3680B-ms98-a-0006	@B.2	33.644125	34.336625		thoughts	thoughts
sw3680B-ms98-a-0006	@B.2	34.336625	34.585125		[silence]	[silence]
sw3680B-ms98-a-0006	@B.2	34.585125	35.017125		and	and
sw3680B-ms98-a-0006	@B.2	35.017125	35.148875		I	i
sw3680B-ms98-a-0006	@B.2	35.148875	35.344125		think	think
sw3680B-ms98-a-0006	@B.2	35.344125	35.534125		that	that
sw3680B-ms98-a-0006	@B.2	35.534125	35.654125		if	if
sw3680B-ms98-a-0006	@B.2	35.654125	35.814125		we'd	we'd
sw3680B-ms98-a-0006	@B.2	35.814125	36.004125		let	let
sw3680B-ms98-a-0006	@B.2	36.004125	36.084125		the	the
sw3680B-ms98-a-0006	@B.2	36.084125	36.504125		generals	generals
sw3680B-ms98-a-0006	@B.2	36.504125	36.724125		run	run
sw3680B-ms98-a-0006	@B.2	36.724125	36.784125		the	the
sw3680B-ms98-a-0006	@B.2	36.784125	37.090000		war	war
sw3680B-ms98-a-0006	@B.2	37.090000	37.587125		[silence]	[silence]
sw3680B-ms98-a-0006	@B.2	37.587125	37.794125		like	like
sw3680B-ms98-a-0006	@B.2	37.794125	37.894125		we	we
sw3680B-ms98-a-0006	@B.2	37.894125	38.144125		let	let
sw3680B-ms98-a-0006	@B.2	38.144125	38.224125		the	the
sw3680B-ms98-a-0006	@B.2	38.224125	38.604125		generals	generals
sw3680B-ms98-a-0006	@B.2	38.604125	38.874125		run	run
sw3680B-ms98-a-0006	@B.2	38.874125	39.074125		World	World
sw3680B-ms98-a-0006	@B.2	39.074125	39.254125		War	War
sw3680B-ms98-a-0006	@B.2	39.254125	39.474125		Two	Two
sw3680B-ms98-a-0006	@B.2	39.474125	39.624125		we'd	we'd
sw3680B-ms98-a-0006	@B.2	39.624125	39.714125	<SUB>	had	have
sw3680B-ms98-a-0006	@B.2	39.714125	39.864125		got	got
sw3680B-ms98-a-0006	@B.2	39.864125	39.934125		it	it
sw3680B-ms98-a-0006	@B.2	39.934125	40.154125		over	over
sw3680B-ms98-a-0006	@B.2	40.154125	40.204125		a	a
sw3680B-ms98-a-0006	@B.2	40.204125	40.294125		whole	whole
sw3680B-ms98-a-0006	@B.2	40.294125	40.423625		lot	lot
sw3680B-ms98-a-0006	@B.2	40.423625	40.860625		quicker	quicker
sw3680B-ms98-a-0006	@B.2	40.860625	41.144125		and	and
sw3680B-ms98-a-0006	@B.2	41.144125	41.464125		lost	lost
sw3680B-ms98-a-0006	@B.2	41.464125	41.514125		a	a
sw3680B-ms98-a-0006	@B.2	41.514125	41.714125		lot	lot
sw3680B-ms98-a-0006	@B.2	41.714125	41.974125		fewer	fewer
sw3680B-ms98-a-0006	@B.2	41.974125	42.465875		people	people
sw3680B-ms98-a-0006	@B.2	42.465875	42.913625		[silence]	[silence]
sw3680B-ms98-a-0007	@B.2	42.913625	43.453500		[silence]	[silence]
sw3680B-ms98-a-0007	@B.2	43.453500	43.631375		But	but
sw3680B-ms98-a-0007	@B.2	43.631375	43.823625		as	as
sw3680B-ms98-a-0007	@B.2	43.823625	43.923625		it	it
sw3680B-ms98-a-0007	@B.2	43.923625	44.233625		was	was
sw3680B-ms98-a-0007	@B.2	44.233625	44.293625		the	the
sw3680B-ms98-a-0007	@B.2	44.293625	44.963625		politicians	politicians
sw3680B-ms98-a-0007	@B.2	44.963625	45.483625		ran	ran
sw3680B-ms98-a-0007	@B.2	45.483625	45.873625		the	the
sw3680B-ms98-a-0007	@B.2	45.873625	46.203625		the	the
sw3680B-ms98-a-0007	@B.2	46.203625	46.713625		Korean	Korean
sw3680B-ms98-a-0007	@B.2	46.713625	47.313625		conflict	conflict
sw3680B-ms98-a-0007	@B.2	47.313625	47.783625		and	and
sw3680B-ms98-a-0007	@B.2	47.783625	48.223625		ultimately	ultimately
sw3680B-ms98-a-0007	@B.2	48.223625	48.293625		the	the
sw3680B-ms98-a-0007	@B.2	48.293625	48.853625		Vietnam	Vietnam
sw3680B-ms98-a-0007	@B.2	48.853625	49.323625		thing	thing
sw3680B-ms98-a-0007	@B.2	49.323625	49.873625		[silence]	[silence]
sw3680B-ms98-a-0007	@B.2	49.873625	50.223625		and	and
sw3680B-ms98-a-0007	@B.2	50.223625	50.353625		we	we
sw3680B-ms98-a-0007	@B.2	50.353625	50.783625		managed	managed
sw3680B-ms98-a-0007	@B.2	50.783625	50.843625		to	to
sw3680B-ms98-a-0007	@B.2	50.843625	51.043625		come	come
sw3680B-ms98-a-0007	@B.2	51.043625	51.383625		out	out
sw3680B-ms98-a-0007	@B.2	51.383625	51.573625		uh	uh
sw3680B-ms98-a-0007	@B.2	51.573625	51.733625		[silence]	[silence]
sw3680B-ms98-a-0007	@B.2	51.733625	52.133625		losers	losers
sw3680B-ms98-a-0007	@B.2	52.133625	52.353625		all	all
sw3680B-ms98-a-0007	@B.2	52.353625	52.353625	<INS>	the	---
sw3680B-ms98-a-0007	@B.2	52.353625	52.463625		way	way
sw3680B-ms98-a-0007	@B.2	52.463625	52.819875		around	around
sw3680B-ms98-a-0007	@B.2	52.819875	53.527250		[silence]	[silence]
sw3680B-ms98-a-0008	@B.2	53.527250	54.147250		[silence]	[silence]
sw3680B-ms98-a-0008	@B.2	54.147250	54.517250		And	and
sw3680B-ms98-a-0008	@B.2	54.517250	54.757250		so	so
sw3680B-ms98-a-0008	@B.2	54.757250	54.977250		this	this
sw3680B-ms98-a-0008	@B.2	54.977250	55.157250		is	is
sw3680B-ms98-a-0008	@B.2	55.157250	55.357250		what	what
sw3680B-ms98-a-0008	@B.2	55.357250	55.567250		[silence]	[silence]
sw3680B-ms98-a-0008	@B.2	55.567250	55.987250		trigger-	trigger[ed]-
sw3680B-ms98-a-0008	@B.2	55.987250	56.507250		ultimately	ultimately
sw3680B-ms98-a-0008	@B.2	56.507250	57.047250		triggered	triggered
sw3680B-ms98-a-0008	@B.2	57.047250	57.187250	<DEL>	---	the
sw3680B-ms98-a-0008	@B.2	57.187250	57.687250		us	us
sw3680B-ms98-a-0008	@B.2	57.687250	57.897250		uh	uh
sw3680B-ms98-a-0008	@B.2	57.897250	57.927250	<DEL>	---	uh
sw3680B-ms98-a-0008	@B.2	57.927250	58.257250	<DEL>	---	the
sw3680B-ms98-a-0008	@B.2	58.257250	58.717250		United	United
sw3680B-ms98-a-0008	@B.2	58.717250	59.137250		States	States
sw3680B-ms98-a-0008	@B.2	59.137250	59.137250	<INS>	uh	---
sw3680B-ms98-a-0008	@B.2	59.137250	59.547250		[vocalized-noise]	[vocalized-noise]
sw3680B-ms98-a-0008	@B.2	59.547250	59.797250		per	per
sw3680B-ms98-a-0008	@B.2	59.797250	60.337500		se	se
sw3680B-ms98-a-0008	@B.2	60.337500	60.744375		being	being
sw3680B-ms98-a-0008	@B.2	60.744375	61.320500		[silence]	[silence]
sw3680B-ms98-a-0008	@B.2	61.320500	61.700125		uh	uh
sw3680B-ms98-a-0008	@B.2	61.700125	61.888375		[silence]	[silence]
sw3680B-ms98-a-0008	@B.2	61.888375	62.317250		deciding	deciding
sw3680B-ms98-a-0008	@B.2	62.317250	62.387250		to	to
sw3680B-ms98-a-0008	@B.2	62.387250	62.547250		get	get
sw3680B-ms98-a-0008	@B.2	62.547250	62.647250		out	out
sw3680B-ms98-a-0008	@B.2	62.647250	62.727250		of	of
sw3680B-ms98-a-0008	@B.2	62.727250	62.817250		the	the
sw3680B-ms98-a-0008	@B.2	62.817250	63.157250		role	role
sw3680B-ms98-a-0008	@B.2	63.157250	63.247250		of	of
sw3680B-ms98-a-0008	@B.2	63.247250	63.607250		world	world
sw3680B-ms98-a-0008	@B.2	63.607250	64.127250		policeman	policeman
sw3680B-ms98-a-0008	@B.2	64.127250	65.187250		[silence]	[silence]
sw3680B-ms98-a-0008	@B.2	65.187250	65.327250		Your	your
sw3680B-ms98-a-0008	@B.2	65.327250	65.757250		views	views
sw3680B-ms98-a-0008	B.4	65.757250	66.265500		[silence]	[silence]
sw3680B-ms98-a-0009	B.4	66.265500	75.620625		[silence]	[silence]
sw3680B-ms98-a-0010	B.4	75.620625	76.031250		[silence]	[silence]
sw3680B-ms98-a-0010	B.4	76.031250	76.266750		Well	well
sw3680B-ms98-a-0010	B.6	76.266750	77.285875		[silence]	[silence]
sw3680B-ms98-a-0010	B.6	77.285875	77.495250		We	we
sw3680B-ms98-a-0010	B.6	77.495250	77.721875		got	got
sw3680B-ms98-a-0010	B.6	77.721875	78.008125		into	into
sw3680B-ms98-a-0010	B.6	78.008125	78.190625		it	it
sw3680B-ms98-a-0010	B.6	78.190625	78.530625		because	because
sw3680B-ms98-a-0010	B.6	78.530625	78.620625		of	of
sw3680B-ms98-a-0010	B.6	78.620625	78.700625	<DEL>	---	a
sw3680B-ms98-a-0010	B.6	78.700625	79.160625		SEATO	SEATO
sw3680B-ms98-a-0010	B.6	79.160625	79.589875		agreement	agreement
sw3680B-ms98-a-0010	B.6	79.589875	79.733000		[silence]	[silence]
sw3680B-ms98-a-0010	B.6	79.733000	79.900875		back	back
sw3680B-ms98-a-0010	B.6	79.900875	80.013875		[silence]	[silence]
sw3680B-ms98-a-0010	B.6	80.013875	80.210625		just	just
sw3680B-ms98-a-0010	B.6	80.210625	80.400625		right	right
sw3680B-ms98-a-0010	B.6	80.400625	80.580625		after	after
sw3680B-ms98-a-0010	B.6	80.580625	80.810625		World	World
sw3680B-ms98-a-0010	B.6	80.810625	80.980625		War	War
sw3680B-ms98-a-0010	B.6	80.980625	81.430625		Two	Two
sw3680B-ms98-a-0010	B.6	81.430625	82.236250		[silence]	[silence]
sw3680B-ms98-a-0011	B.6	82.236250	83.407125		[silence]	[silence]
sw3680B-ms98-a-0011	B.6	83.407125	83.765500		that	that
sw3680B-ms98-a-0011	B.6	83.765500	84.346250		uh	uh
sw3680B-ms98-a-0011	B.6	84.346250	85.096250		[silence]	[silence]
sw3680B-ms98-a-0011	B.6	85.096250	85.376250		we	we
sw3680B-ms98-a-0011	B.6	85.376250	85.906250		pledged	pledged
sw3680B-ms98-a-0011	B.6	85.906250	85.956250		a	a
sw3680B-ms98-a-0011	B.6	85.956250	86.476250		mutual	mutual
sw3680B-ms98-a-0011	B.6	86.476250	87.086250		[silence]	[silence]
sw3680B-ms98-a-0011	B.6	87.086250	87.486500	<SUB>	uh	um
sw3680B-ms98-a-0011	B.6	87.486500	88.742375		[silence]	[silence]
sw3680B-ms98-a-0011	B.6	88.742375	89.328000		uh	uh
sw3680B-ms98-a-0011	B.6	89.328000	89.907000		defense	defense
sw3680B-ms98-a-0011	B.6	89.907000	90.239375		of	of
sw3680B-ms98-a-0011	B.6	90.239375	90.541250		of	of
sw3680B-ms98-a-0011	B.6	90.541250	90.801875		the	the
sw3680B-ms98-a-0011	B.6	90.801875	91.106250		South	South
sw3680B-ms98-a-0011	B.6	91.106250	91.866250		Vietnamese	Vietnamese
sw3680B-ms98-a-0011	B.6	91.866250	92.049125		[silence]	[silence]
sw3680B-ms98-a-0012	B.6	92.049125	92.529125		[silence]	[silence]
sw3680B-ms98-a-0012	B.6	92.529125	92.759125		and	and
sw3680B-ms98-a-0012	B.6	92.759125	92.869125		as	as
sw3680B-ms98-a-0012	B.6	92.869125	92.989125		it	it
sw3680B-ms98-a-0012	B.6	92.989125	93.269125		turned	turned
sw3680B-ms98-a-0012	B.6	93.269125	93.449125		out	out
sw3680B-ms98-a-0012	B.6	93.449125	93.569125		they	they
sw3680B-ms98-a-0012	B.6	93.569125	93.709125		were	were
sw3680B-ms98-a-0012	B.6	93.709125	93.789125		in	in
sw3680B-ms98-a-0012	B.6	93.789125	93.849125		a	a
sw3680B-ms98-a-0012	B.6	93.849125	94.229125		civil	civil
sw3680B-ms98-a-0012	B.6	94.229125	94.439125		war	war
sw3680B-ms98-a-0012	B.6	94.439125	94.699125		one	one
sw3680B-ms98-a-0012	B.6	94.699125	94.899125		with	with
sw3680B-ms98-a-0012	B.6	94.899125	95.219125		another	another
sw3680B-ms98-a-0012	B.6	95.219125	95.429125		and	and
sw3680B-ms98-a-0012	B.6	95.429125	95.734875		really	really
sw3680B-ms98-a-0012	B.6	95.734875	96.001125		we	[laughter-we]
sw3680B-ms98-a-0012	B.6	96.001125	96.852625		[silence]	[silence]
sw3680B-ms98-a-0012	B.6	96.852625	97.094625		I	i
sw3680B-ms98-a-0012	B.6	97.094625	97.305500		I	i
sw3680B-ms98-a-0012	B.6	97.305500	97.809125		question	question
sw3680B-ms98-a-0012	B.6	97.809125	98.429125		us	us
sw3680B-ms98-a-0012	B.6	98.429125	98.499125		you	you
sw3680B-ms98-a-0012	B.6	98.499125	98.639125		know	know
sw3680B-ms98-a-0012	B.6	98.639125	98.989125		now	now
sw3680B-ms98-a-0012	B.6	98.989125	99.069125		of	of
sw3680B-ms98-a-0012	B.6	99.069125	99.400375		course	course
sw3680B-ms98-a-0012	B.6	99.400375	99.664125	<DEL>	---	uh
sw3680B-ms98-a-0012	B.6	99.664125	99.839125		[silence]	[silence]
sw3680B-ms98-a-0012	B.6	99.839125	100.319125		hindsight	hindsight
sw3680B-ms98-a-0012	B.6	100.319125	100.439125		is	is
sw3680B-ms98-a-0012	B.6	100.439125	100.599125		all	all
sw3680B-ms98-a-0012	B.6	100.599125	100.759125		too	too
sw3680B-ms98-a-0012	B.6	100.759125	101.294750		clear	clear
sw3680B-ms98-a-0012	B.8	101.294750	102.129250		[silence]	[silence]
sw3680B-ms98-a-0012	B.8	102.129250	102.521250	<SUB>	Uh	um
sw3680B-ms98-a-0012	B.8	102.521250	103.253500		[silence]	[silence]
sw3680B-ms98-a-0013	B.8	103.253500	103.843500		[silence]	[silence]
sw3680B-ms98-a-0013	B.8	103.843500	104.265000		so	so
sw3680B-ms98-a-0013	B.8	104.265000	105.230125		[silence]	[silence]
sw3680B-ms98-a-0013	B.8	105.230125	105.613500		[noise]	[noise]
sw3680B-ms98-a-0013	B.8	105.613500	105.893500		we're	we're
sw3680B-ms98-a-0013	B.8	105.893500	106.113500		we	we
sw3680B-ms98-a-0013	B.8	106.113500	106.263500		we	we
sw3680B-ms98-a-0013	B.8	106.263500	106.493500		have	have
sw3680B-ms98-a-0013	B.8	106.493500	106.763500		to	to
sw3680B-ms98-a-0013	B.8	106.763500	106.963500		have	have
sw3680B-ms98-a-0013	B.8	106.963500	107.093500		to	to
sw3680B-ms98-a-0013	B.8	107.093500	107.363500		deal	deal
sw3680B-ms98-a-0013	B.8	107.363500	107.523500		with	with
sw3680B-ms98-a-0013	B.8	107.523500	107.613500		[silence]	[silence]
sw3680B-ms98-a-0013	B.8	107.613500	107.860375		with	with
sw3680B-ms98-a-0013	B.8	107.860375	108.066750		the	the
sw3680B-ms98-a-0013	B.8	108.066750	108.224000		uh	uh
sw3680B-ms98-a-0013	B.8	108.224000	108.559250		[silence]	[silence]
sw3680B-ms98-a-0013	B.8	108.559250	109.153500		situation	situation
sw3680B-ms98-a-0013	B.8	109.153500	109.353500		as	as
sw3680B-ms98-a-0013	B.8	109.353500	109.553500		as	as
sw3680B-ms98-a-0013	B.8	109.553500	109.703500		we	we
sw3680B-ms98-a-0013	B.8	109.703500	110.073500		played	played
sw3680B-ms98-a-0013	B.8	110.073500	110.392250		it	it
sw3680B-ms98-a-0013	B.10	110.392250	110.671250		[silence]	[silence]
sw3680B-ms98-a-0013	B.10	110.671250	110.864625	<DEL>	---	but
sw3680B-ms98-a-0013	B.10	110.864625	111.363250		[silence]	[silence]
sw3680B-ms98-a-0014	B.10	111.363250	115.635375		[silence]	[silence]
sw3680B-ms98-a-0015	B.10	115.635375	116.105375		[silence]	[silence]
sw3680B-ms98-a-0015	B.10	116.105375	116.545250		I	i
sw3680B-ms98-a-0015	B.10	116.545250	116.686875		[silence]	[silence]
sw3680B-ms98-a-0015	B.10	116.686875	117.395375		[laughter]	[laughter]
sw3680B-ms98-a-0015	B.10	117.395375	117.665375		don't	don't
sw3680B-ms98-a-0015	B.10	117.665375	117.835375		get	get
sw3680B-ms98-a-0015	B.10	117.835375	117.995375		me	me
sw3680B-ms98-a-0015	B.10	117.995375	118.415375		started	started
sw3680B-ms98-a-0015	B.10	118.415375	118.595375		on	on
sw3680B-ms98-a-0015	B.10	118.595375	118.815375		those	those
sw3680B-ms98-a-0015	B.10	118.815375	119.275375		people	people
sw3680B-ms98-a-0015	B.10	119.275375	120.089500		[silence]	[silence]
sw3680B-ms98-a-0016	B.10	120.089500	121.189500		[silence]	[silence]
sw3680B-ms98-a-0016	B.10	121.189500	121.339500		You	you
sw3680B-ms98-a-0016	B.10	121.339500	121.429500		know	know
sw3680B-ms98-a-0016	B.10	121.429500	121.839500		before	before
sw3680B-ms98-a-0016	B.10	121.839500	121.999500	<SUB>	she	sh[e]-
sw3680B-ms98-a-0016	B.10	121.999500	122.359500		before	before
sw3680B-ms98-a-0016	B.10	122.359500	122.619500		Jane	Jane
sw3680B-ms98-a-0016	B.10	122.619500	122.959500		Fonda	Fonda
sw3680B-ms98-a-0016	B.10	122.959500	123.289500		did	did
sw3680B-ms98-a-0016	B.10	123.289500	123.779500		[silence]	[silence]
sw3680B-ms98-a-0016	B.10	123.779500	123.989500		did	did
sw3680B-ms98-a-0016	B.10	123.989500	124.159500		what	what
sw3680B-ms98-a-0016	B.10	124.159500	124.309500		she	she
sw3680B-ms98-a-0016	B.10	124.309500	124.569500		did	did
sw3680B-ms98-a-0016	B.10	124.569500	124.669500		I	i
sw3680B-ms98-a-0016	B.10	124.669500	124.939500		thought	thought
sw3680B-ms98-a-0016	B.10	124.939500	125.099500		she	she
sw3680B-ms98-a-0016	B.10	125.099500	125.269500		was	was
sw3680B-ms98-a-0016	B.10	125.269500	125.329500		a	a
sw3680B-ms98-a-0016	B.10	125.329500	125.749500		wonderful	wonderful
sw3680B-ms98-a-0016	B.10	125.749500	126.159500		person	person
sw3680B-ms98-a-0016	B.10	126.159500	126.319500		but	but
sw3680B-ms98-a-0016	B.10	126.319500	126.791625		after	after
sw3680B-ms98-a-0016	B.10	126.791625	127.002500		uh	uh
sw3680B-ms98-a-0016	B.10	127.002500	127.743125		[silence]	[silence]
sw3680B-ms98-a-0016	B.10	127.743125	128.314875		uh	uh
sw3680B-ms98-a-0016	B.10	128.314875	128.735000		[silence]	[silence]
sw3680B-ms98-a-0016	B.10	128.735000	129.132375		well	well
sw3680B-ms98-a-0016	B.10	129.132375	129.535250		[silence]	[silence]
sw3680B-ms98-a-0017	B.10	129.535250	129.997250		[silence]	[silence]
sw3680B-ms98-a-0017	B.10	129.997250	130.571125		[vocalized-noise]	[vocalized-noise]
sw3680B-ms98-a-0017	B.10	130.571125	131.294250		[silence]	[silence]
sw3680B-ms98-a-0017	B.10	131.294250	131.440625	<SUB>	I	i-
sw3680B-ms98-a-0017	B.10	131.440625	131.613875		I	i
sw3680B-ms98-a-0017	B.10	131.613875	131.805250		just	just
sw3680B-ms98-a-0017	B.10	131.805250	132.017750		don't	don't
sw3680B-ms98-a-0017	B.10	132.017750	132.236250		[silence]	[silence]
sw3680B-ms98-a-0017	B.10	132.236250	132.475250		have	have
sw3680B-ms98-a-0017	B.10	132.475250	132.935250		anything	anything
sw3680B-ms98-a-0017	B.10	132.935250	133.145250		want	want
sw3680B-ms98-a-0017	B.10	133.145250	133.435250		anything	anything
sw3680B-ms98-a-0017	B.10	133.435250	133.505250		to	to
sw3680B-ms98-a-0017	B.10	133.505250	133.675250		do	do
sw3680B-ms98-a-0017	B.10	133.675250	133.825250		with	with
sw3680B-ms98-a-0017	B.10	133.825250	133.955250		her	her
sw3680B-ms98-a-0017	B.10	133.955250	134.368000	<CONT>	any	anymore
sw3680B-ms98-a-0017	B.10	134.368000	134.368000	<CONT>	more	+++
sw3680B-ms98-a-0017	B.10	134.368000	135.181500		[silence]	[silence]
sw3680B-ms98-a-0017	B.10	135.181500	135.685250		because	because
sw3680B-ms98-a-0017	B.10	135.685250	135.925250		you	you
sw3680B-ms98-a-0017	B.10	135.925250	136.455250		support	support
sw3680B-ms98-a-0017	B.10	136.455250	136.703625		uh	uh
sw3680B-ms98-a-0017	B.10	136.703625	137.234625		[silence]	[silence]
sw3680B-ms98-a-0017	B.10	137.234625	137.335250		you	you
sw3680B-ms98-a-0017	B.10	137.335250	137.715250		support	support
sw3680B-ms98-a-0017	B.10	137.715250	137.825250		your	your
sw3680B-ms98-a-0017	B.10	137.825250	138.265250		government	government
sw3680B-ms98-a-0017	B.12	138.265250	138.751125		[silence]	[silence]
sw3680B-ms98-a-0018	B.12	138.751125	140.151750		[silence]	[silence]
sw3680B-ms98-a-0019	B.12	140.151750	140.521750		[silence]	[silence]
sw3680B-ms98-a-0019	B.12	140.521750	140.921750		Uh	uh
sw3680B-ms98-a-0019	B.12	140.921750	141.261750		okay	okay
sw3680B-ms98-a-0019	B.12	141.261750	141.611750		right	right
sw3680B-ms98-a-0019	B.12	141.611750	141.711750		or	or
sw3680B-ms98-a-0019	B.12	141.711750	142.028625		wrong	wrong
sw3680B-ms98-a-0019	B.12	142.028625	142.574875		[silence]	[silence]
sw3680B-ms98-a-0019	B.12	142.574875	142.705875		I	i
sw3680B-ms98-a-0019	B.12	142.705875	142.864000		don't	don't
sw3680B-ms98-a-0019	B.12	142.864000	143.111750		think	think
sw3680B-ms98-a-0019	B.12	143.111750	143.351750		is	is
sw3680B-ms98-a-0019	B.12	143.351750	144.101750		is	is
sw3680B-ms98-a-0019	B.12	144.101750	144.241750		we	we
sw3680B-ms98-a-0019	B.12	144.241750	144.491750		can	can
sw3680B-ms98-a-0019	B.12	144.491750	145.001750		determine	determine
sw3680B-ms98-a-0019	B.12	145.001750	145.191750		whether	whether
sw3680B-ms98-a-0019	B.12	145.191750	145.341750		we	we
sw3680B-ms98-a-0019	B.12	145.341750	145.471750		were	were
sw3680B-ms98-a-0019	B.12	145.471750	145.731750		right	right
sw3680B-ms98-a-0019	B.12	145.731750	145.841750		or	or
sw3680B-ms98-a-0019	B.12	145.841750	146.211750		wrong	wrong
sw3680B-ms98-a-0019	B.12	146.211750	146.947250		[silence]	[silence]
sw3680B-ms98-a-0020	B.12	146.947250	147.667250		[silence]	[silence]
sw3680B-ms98-a-0020	B.12	147.667250	148.129625		because	because
sw3680B-ms98-a-0020	B.12	148.129625	148.709750		[vocalized-noise]	[vocalized-noise]
sw3680B-ms98-a-0020	B.12	148.709750	149.037250		you're	you're
sw3680B-ms98-a-0020	B.12	149.037250	149.217250		you're	you're
sw3680B-ms98-a-0020	B.12	149.217250	149.527250		having	having
sw3680B-ms98-a-0020	B.12	149.527250	149.627250		to	to
sw3680B-ms98-a-0020	B.12	149.627250	149.897250		deal	deal
sw3680B-ms98-a-0020	B.12	149.897250	150.067125		with	with
sw3680B-ms98-a-0020	B.12	150.067125	150.790375		[silence]	[silence]
sw3680B-ms98-a-0020	B.12	150.790375	150.933750	<DEL>	---	a[gain]-
sw3680B-ms98-a-0020	B.12	150.933750	151.486375		again	again
sw3680B-ms98-a-0020	B.12	151.486375	152.247250		[silence]	[silence]
sw3680B-ms98-a-0020	B.12	152.247250	152.527250		uh	uh
sw3680B-ms98-a-0020	B.12	152.527250	152.647250		I	i
sw3680B-ms98-a-0020	B.12	152.647250	152.907250		think	think
sw3680B-ms98-a-0020	B.12	152.907250	153.017250		we	we
sw3680B-ms98-a-0020	B.12	153.017250	153.437250	<CONT>	could	could've
sw3680B-ms98-a-0020	B.12	153.437250	153.437250	<CONT>	have	+++
sw3680B-ms98-a-0020	B.12	153.437250	153.727250		made	made
sw3680B-ms98-a-0020	B.12	153.727250	153.797250		a	a
sw3680B-ms98-a-0020	B.12	153.797250	154.322125		different	different
sw3680B-ms98-a-0020	B.12	154.322125	154.608375		[silence]	[silence]
sw3680B-ms98-a-0020	B.12	154.608375	155.433000		agreement	agreement
sw3680B-ms98-a-0020	B.14	155.433000	155.568500		[silence]	[silence]
sw3680B-ms98-a-0020	B.14	155.568500	155.837250		back	back
sw3680B-ms98-a-0020	B.14	155.837250	156.057250		in	in
sw3680B-ms98-a-0020	B.14	156.057250	156.287250		for-	for[ties]-
sw3680B-ms98-a-0020	B.14	156.287250	156.407250		the	the
sw3680B-ms98-a-0020	B.14	156.407250	156.797250	<SUB>	for-	fort[ies]-
sw3680B-ms98-a-0020	B.14	156.797250	156.897250		the	the
sw3680B-ms98-a-0020	B.14	156.897250	157.137250		late	late
sw3680B-ms98-a-0020	B.14	157.137250	157.547250		forties	forties
sw3680B-ms98-a-0020	B.14	157.547250	157.968625		era	era
sw3680B-ms98-a-0020	B.14	157.968625	158.228500		[silence]	[silence]
sw3680B-ms98-a-0020	B.14	158.228500	158.347250		that	that
sw3680B-ms98-a-0020	B.14	158.347250	158.507250	<CONT>	would	would've
sw3680B-ms98-a-0020	B.14	158.507250	158.507250	<CONT>	have	+++
sw3680B-ms98-a-0020	B.14	158.507250	159.097250		kept	kept
sw3680B-ms98-a-0020	B.14	159.097250	159.167250	<DEL>	---	out
sw3680B-ms98-a-0020	B.14	159.167250	159.237250		of	of
sw3680B-ms98-a-0020	B.14	159.237250	159.517250		there	there
sw3680B-ms98-a-0020	B.16	159.517250	159.963125		[silence]	[silence]
sw3680B-ms98-a-0021	B.16	159.963125	161.746000		[silence]	[silence]
sw3680B-ms98-a-0022	B.16	161.746000	162.230000		[silence]	[silence]
sw3680B-ms98-a-0022	B.16	162.230000	162.511125	<DEL>	---	so
sw3680B-ms98-a-0022	B.16	162.511125	162.969750		[silence]	[silence]
sw3680B-ms98-a-0023	B.16	162.969750	171.053750		[silence]	[silence]
sw3680B-ms98-a-0024	B.16	171.053750	171.563750		[silence]	[silence]
sw3680B-ms98-a-0024	B.16	171.563750	171.713750		Can	can
sw3680B-ms98-a-0024	B.16	171.713750	171.823750		you	you
sw3680B-ms98-a-0024	B.16	171.823750	172.063750		hold	hold
sw3680B-ms98-a-0024	B.16	172.063750	172.235750		just	just
sw3680B-ms98-a-0024	B.16	172.235750	172.379375	<SUB>	a	s[econd]-
sw3680B-ms98-a-0024	B.16	172.379375	172.587250		second	second
sw3680B-ms98-a-0024	B.16	172.587250	172.808750		Terry	Terry
sw3680B-ms98-a-0024	B.18	172.808750	173.584625		[silence]	[silence]
sw3680B-ms98-a-0024	B.18	173.584625	173.743750		One	one
sw3680B-ms98-a-0024	B.18	173.743750	173.963750		moment	moment
sw3680B-ms98-a-0024	B.18	173.963750	174.243750		please	please
sw3680B-ms98-a-0024	B.20	174.243750	174.863000		[silence]	[silence]
sw3680B-ms98-a-0025	B.20	174.863000	175.540250		[silence]	[silence]
sw3680B-ms98-a-0025	B.20	175.540250	176.502000		[noise]	[noise]
sw3680B-ms98-a-0025	B.20	176.502000	176.990875		[silence]	[silence]
sw3680B-ms98-a-0026	B.20	176.990875	192.813125		[silence]	[silence]
sw3680B-ms98-a-0027	B.20	192.813125	193.293125		[silence]	[silence]
sw3680B-ms98-a-0027	B.20	193.293125	193.473125		Sorry	sorry
sw3680B-ms98-a-0027	B.20	193.473125	193.603125		for	for
sw3680B-ms98-a-0027	B.20	193.603125	193.703125		the	the
sw3680B-ms98-a-0027	B.20	193.703125	194.143125		delay	delay
sw3680B-ms98-a-0027	B.22	194.143125	194.829500		[silence]	[silence]
sw3680B-ms98-a-0028	B.22	194.829500	195.535125		[silence]	[silence]
sw3680B-ms98-a-0028	B.22	195.535125	195.905500		Uh	uh
sw3680B-ms98-a-0028	B.22	195.905500	196.089500		[silence]	[silence]
sw3680B-ms98-a-0028	B.22	196.089500	196.279500		yeah	yeah
sw3680B-ms98-a-0028	B.22	196.279500	196.509500		this	this
sw3680B-ms98-a-0028	B.22	196.509500	196.659500		is	is
sw3680B-ms98-a-0028	B.22	196.659500	196.895875		the	the
sw3680B-ms98-a-0028	B.22	196.895875	197.152000		[silence]	[silence]
sw3680B-ms98-a-0028	B.22	197.152000	197.349500		uh	uh
sw3680B-ms98-a-0028	B.22	197.349500	197.709500		the	the
sw3680B-ms98-a-0028	B.22	197.709500	197.799500		the	the
sw3680B-ms98-a-0028	B.22	197.799500	198.039500		uh	uh
sw3680B-ms98-a-0028	B.22	198.039500	198.349500	<DEL>	---	the
sw3680B-ms98-a-0028	B.22	198.349500	198.899500		mutual	mutual
sw3680B-ms98-a-0028	B.22	198.899500	199.329500		defense	defense
sw3680B-ms98-a-0028	B.22	199.329500	199.749500		thing	thing
sw3680B-ms98-a-0028	B.22	199.749500	200.234875		[silence]	[silence]
sw3680B-ms98-a-0029	B.22	200.234875	200.739750		[silence]	[silence]
sw3680B-ms98-a-0029	B.22	200.739750	201.028750		was	was
sw3680B-ms98-a-0029	B.22	201.028750	201.028750	<INS>	uh	---
sw3680B-ms98-a-0029	B.22	201.028750	201.443250		[silence]	[silence]
sw3680B-ms98-a-0029	B.22	201.443250	201.656125		[vocalized-noise]	[vocalized-noise]
sw3680B-ms98-a-0029	B.22	201.656125	201.884875		we	we
sw3680B-ms98-a-0029	B.22	201.884875	202.212625		we	we
sw3680B-ms98-a-0029	B.22	202.212625	202.941500		[silence]	[silence]
sw3680B-ms98-a-0030	B.22	202.941500	203.661500		[silence]	[silence]
sw3680B-ms98-a-0030	B.22	203.661500	203.782375	<DEL>	---	yeah
sw3680B-ms98-a-0030	B.22	203.782375	203.831000		it	it
sw3680B-ms98-a-0030	B.22	203.831000	203.921500		was	was
sw3680B-ms98-a-0030	B.22	203.921500	204.661500		complicated	complicated
sw3680B-ms98-a-0030	B.22	204.661500	204.771500		and	and
sw3680B-ms98-a-0030	B.22	204.771500	204.821500		I	i
sw3680B-ms98-a-0030	B.22	204.821500	205.021500		don't	don't
sw3680B-ms98-a-0030	B.22	205.021500	205.241500		think	think
sw3680B-ms98-a-0030	B.22	205.241500	205.713750		everybody	everybody
sw3680B-ms98-a-0030	B.22	205.713750	206.113000		[silence]	[silence]
sw3680B-ms98-a-0030	B.22	206.113000	206.441500		knows	knows
sw3680B-ms98-a-0030	B.22	206.441500	206.521500		the	the
sw3680B-ms98-a-0030	B.22	206.521500	206.701500		whole	whole
sw3680B-ms98-a-0030	B.22	206.701500	207.307000		situation	situation
sw3680B-ms98-a-0030	B.22	207.307000	207.516000		I	i
sw3680B-ms98-a-0030	B.22	207.516000	207.920875		don't	don't
sw3680B-ms98-a-0030	B.22	207.920875	208.363125		[silence]	[silence]
sw3680B-ms98-a-0031	B.22	208.363125	208.849250		[silence]	[silence]
sw3680B-ms98-a-0031	B.22	208.849250	209.045500		But	but
sw3680B-ms98-a-0031	B.22	209.045500	209.253125		from	from
sw3680B-ms98-a-0031	B.22	209.253125	209.443125		what	what
sw3680B-ms98-a-0031	B.22	209.443125	209.553125		I	i
sw3680B-ms98-a-0031	B.22	209.553125	209.753125		can	can
sw3680B-ms98-a-0031	B.22	209.753125	210.123125		gather	gather
sw3680B-ms98-a-0031	B.22	210.123125	210.293125		is	is
sw3680B-ms98-a-0031	B.22	210.293125	210.623125		we	we
sw3680B-ms98-a-0031	B.22	210.623125	211.057375		went	went
sw3680B-ms98-a-0031	B.22	211.057375	211.731500		[silence]	[silence]
sw3680B-ms98-a-0031	B.22	211.731500	212.495625		and	and
sw3680B-ms98-a-0031	B.22	212.495625	212.702875		[silence]	[silence]
sw3680B-ms98-a-0031	B.22	212.702875	212.993125		said	said
sw3680B-ms98-a-0031	B.22	212.993125	213.233125		yeah	yeah
sw3680B-ms98-a-0031	B.22	213.233125	213.453125		we	we
sw3680B-ms98-a-0031	B.22	213.453125	213.633125		will	will
sw3680B-ms98-a-0031	B.22	213.633125	214.013125		help	help
sw3680B-ms98-a-0031	B.22	214.013125	214.812375		[silence]	[silence]
sw3680B-ms98-a-0031	B.22	214.812375	215.109875		the	the
sw3680B-ms98-a-0031	B.22	215.109875	215.323125	<DEL>	---	uh
sw3680B-ms98-a-0031	B.22	215.323125	215.423125		[silence]	[silence]
sw3680B-ms98-a-0031	B.22	215.423125	215.683125		South	South
sw3680B-ms98-a-0031	B.22	215.683125	216.363125		Vietnamese	Vietnamese
sw3680B-ms98-a-0031	B.22	216.363125	216.888500		[silence]	[silence]
sw3680B-ms98-a-0032	B.22	216.888500	217.518500		[silence]	[silence]
sw3680B-ms98-a-0032	B.22	217.518500	217.918500		uh	uh
sw3680B-ms98-a-0032	B.22	217.918500	218.398500		[silence]	[silence]
sw3680B-ms98-a-0032	B.22	218.398500	218.658500		should	should
sw3680B-ms98-a-0032	B.22	218.658500	218.788500		they	they
sw3680B-ms98-a-0032	B.22	218.788500	219.178500		ask	ask
sw3680B-ms98-a-0032	B.22	219.178500	219.478500		Well	well
sw3680B-ms98-a-0032	B.22	219.478500	219.608500		[silence]	[silence]
sw3680B-ms98-a-0032	B.22	219.608500	219.688500		the	the
sw3680B-ms98-a-0032	B.22	219.688500	220.018500		French	French
sw3680B-ms98-a-0032	B.22	220.018500	220.248500		went	went
sw3680B-ms98-a-0032	B.22	220.248500	220.388500		in	in
sw3680B-ms98-a-0032	B.22	220.388500	220.488500		and	and
sw3680B-ms98-a-0032	B.22	220.488500	220.768500		tried	tried
sw3680B-ms98-a-0032	B.22	220.768500	220.928500		their	their
sw3680B-ms98-a-0032	B.22	220.928500	221.118500		old	old
sw3680B-ms98-a-0032	B.22	221.118500	221.578500		style	style
sw3680B-ms98-a-0032	B.22	221.578500	222.198500		warfare	warfare
sw3680B-ms98-a-0032	B.22	222.198500	222.598500		and	and
sw3680B-ms98-a-0032	B.22	222.598500	222.748500		uh	uh
sw3680B-ms98-a-0032	B.22	222.748500	223.253500		[silence]	[silence]
sw3680B-ms98-a-0033	B.22	223.253500	223.768750		[silence]	[silence]
sw3680B-ms98-a-0033	B.22	223.768750	223.991750		got	got
sw3680B-ms98-a-0033	B.22	223.991750	224.503500		soundly	soundly
sw3680B-ms98-a-0033	B.22	224.503500	225.166000		thrashed	thrashed
sw3680B-ms98-a-0033	B.22	225.166000	225.641625		[silence]	[silence]
sw3680B-ms98-a-0034	B.22	225.641625	226.111625		[silence]	[silence]
sw3680B-ms98-a-0034	B.22	226.111625	226.331625		And	and
sw3680B-ms98-a-0034	B.22	226.331625	226.461625		we	we
sw3680B-ms98-a-0034	B.22	226.461625	226.661625		didn't	didn't
sw3680B-ms98-a-0034	B.22	226.661625	226.811625		do	do
sw3680B-ms98-a-0034	B.22	226.811625	226.841625		a	a
sw3680B-ms98-a-0034	B.22	226.841625	226.971625		whole	whole
sw3680B-ms98-a-0034	B.22	226.971625	227.131625		lot	lot
sw3680B-ms98-a-0034	B.22	227.131625	227.541625		better	better
sw3680B-ms98-a-0034	B.24	227.541625	228.039750		[silence]	[silence]
sw3680B-ms98-a-0035	B.24	228.039750	232.414750		[silence]	[silence]
sw3680B-ms98-a-0036	B.24	232.414750	232.914375		[silence]	[silence]
sw3680B-ms98-a-0036	B.24	232.914375	233.088875		Well	well
sw3680B-ms98-a-0036	B.24	233.088875	233.304750		yeah	yeah
sw3680B-ms98-a-0036	B.24	233.304750	233.484750		that	that
sw3680B-ms98-a-0036	B.24	233.484750	233.714750		was	was
sw3680B-ms98-a-0036	B.24	233.714750	233.804750		the	the
sw3680B-ms98-a-0036	B.24	233.804750	234.024750		old	old
sw3680B-ms98-a-0036	B.24	234.024750	234.304750		French	French
sw3680B-ms98-a-0036	B.24	234.304750	234.664750		colony	colony
sw3680B-ms98-a-0036	B.24	234.664750	234.854750		but	but
sw3680B-ms98-a-0036	B.24	234.854750	235.064750		see	see
sw3680B-ms98-a-0036	B.24	235.064750	235.204750		the	the
sw3680B-ms98-a-0036	B.24	235.204750	235.698000		French	French
sw3680B-ms98-a-0036	B.24	235.698000	236.251750		[silence]	[silence]
sw3680B-ms98-a-0036	B.24	236.251750	236.354750		the	the
sw3680B-ms98-a-0036	B.24	236.354750	236.814750		French	French
sw3680B-ms98-a-0036	B.24	236.814750	237.154750		were	were
sw3680B-ms98-a-0036	B.24	237.154750	237.544750		our	our
sw3680B-ms98-a-0036	B.24	237.544750	237.718375		uh	uh
sw3680B-ms98-a-0036	B.24	237.718375	238.106375		[silence]	[silence]
sw3680B-ms98-a-0036	B.24	238.106375	238.584750		allies	allies
sw3680B-ms98-a-0036	B.24	238.584750	238.694750		in	in
sw3680B-ms98-a-0036	B.24	238.694750	239.235250		NATO	NATO
sw3680B-ms98-a-0036	B.26	239.235250	239.901875		[silence]	[silence]
sw3680B-ms98-a-0036	B.26	239.901875	240.134750		and	and
sw3680B-ms98-a-0036	B.26	240.134750	240.334750		they're	they're
sw3680B-ms98-a-0036	B.26	240.334750	240.684750		also	also
sw3680B-ms98-a-0036	B.26	240.684750	240.854750		our	our
sw3680B-ms98-a-0036	B.26	240.854750	241.254750		allies	allies
sw3680B-ms98-a-0036	B.26	241.254750	241.364750		in	in
sw3680B-ms98-a-0036	B.26	241.364750	241.936500		SEATO	SEATO
sw3680B-ms98-a-0036	B.26	241.936500	242.380750		[silence]	[silence]
sw3680B-ms98-a-0037	B.26	242.380750	242.800750		[silence]	[silence]
sw3680B-ms98-a-0037	B.26	242.800750	243.050750		which	which
sw3680B-ms98-a-0037	B.26	243.050750	243.290750		was	was
sw3680B-ms98-a-0037	B.26	243.290750	243.510750		the	the
sw3680B-ms98-a-0037	B.26	243.510750	243.820750	<CONT>	Southeast	South
sw3680B-ms98-a-0037	B.26	243.820750	244.050750	<CONT>	+++	East
sw3680B-ms98-a-0037	B.26	244.050750	244.510750		Asia	Asia
sw3680B-ms98-a-0037	B.26	244.510750	244.830750		Treaty	Treaty
sw3680B-ms98-a-0037	B.26	244.830750	245.610750		Organization	Organization
sw3680B-ms98-a-0037	B.26	245.610750	246.180750		[silence]	[silence]
sw3680B-ms98-a-0037	B.26	246.180750	246.360750		which	which
sw3680B-ms98-a-0037	B.26	246.360750	246.510750		has	has
sw3680B-ms98-a-0037	B.26	246.510750	246.730750		since	since
sw3680B-ms98-a-0037	B.26	246.730750	246.905625		been	been
sw3680B-ms98-a-0037	B.26	246.905625	247.075125	<SUB>	uh	a[bandoned]-
sw3680B-ms98-a-0037	B.26	247.075125	247.640750		disbanded	disbanded
sw3680B-ms98-a-0037	B.26	247.640750	247.720750		as	as
sw3680B-ms98-a-0037	B.26	247.720750	247.910750		far	far
sw3680B-ms98-a-0037	B.26	247.910750	247.980750		as	as
sw3680B-ms98-a-0037	B.26	247.980750	248.136750		I	i
sw3680B-ms98-a-0037	B.26	248.136750	248.416250		know	know
sw3680B-ms98-a-0037	B.26	248.416250	249.070750		[silence]	[silence]
sw3680B-ms98-a-0038	B.26	249.070750	249.680750		[silence]	[silence]
sw3680B-ms98-a-0038	B.26	249.680750	249.790750		you	you
sw3680B-ms98-a-0038	B.26	249.790750	249.930750		know	know
sw3680B-ms98-a-0038	B.26	249.930750	250.380750		NATO	NATO
sw3680B-ms98-a-0038	B.26	250.380750	250.540750		is	is
sw3680B-ms98-a-0038	B.26	250.540750	250.790750		is	is
sw3680B-ms98-a-0038	B.26	250.790750	250.990750		on	on
sw3680B-ms98-a-0038	B.26	250.990750	251.050750		the	the
sw3680B-ms98-a-0038	B.26	251.050750	251.270750		way	way
sw3680B-ms98-a-0038	B.26	251.270750	251.340750		of	of
sw3680B-ms98-a-0038	B.26	251.340750	251.570750		being	being
sw3680B-ms98-a-0038	B.26	251.570750	252.198625		disbanded	disbanded
sw3680B-ms98-a-0038	B.26	252.198625	253.112500		[silence]	[silence]
sw3680B-ms98-a-0038	B.26	253.112500	253.510750		Uh	uh
sw3680B-ms98-a-0038	B.26	253.510750	254.332875		[silence]	[silence]
sw3680B-ms98-a-0039	B.26	254.332875	255.175125		[silence]	[silence]
sw3680B-ms98-a-0039	B.26	255.175125	255.424875		but	but
sw3680B-ms98-a-0039	B.26	255.424875	255.685875		uh	uh
sw3680B-ms98-a-0039	B.26	255.685875	256.679125		[silence]	[silence]
sw3680B-ms98-a-0040	B.26	256.679125	257.629125		[silence]	[silence]
sw3680B-ms98-a-0040	B.26	257.629125	257.919125		the	the
sw3680B-ms98-a-0040	B.26	257.919125	258.684000		[silence]	[silence]
sw3680B-ms98-a-0041	B.26	258.684000	259.485375		[silence]	[silence]
sw3680B-ms98-a-0041	B.26	259.485375	259.771000	<SUB>	you	yeah
sw3680B-ms98-a-0041	B.26	259.771000	259.771000	<INS>	know	---
sw3680B-ms98-a-0041	B.26	259.771000	259.834000		the	the
sw3680B-ms98-a-0041	B.26	259.834000	260.224000	<SUB>	French	Fren[ch]-
sw3680B-ms98-a-0041	B.26	260.224000	260.334000		yeah	yeah
sw3680B-ms98-a-0041	B.26	260.334000	260.564000		we	we
sw3680B-ms98-a-0041	B.26	260.564000	260.764000	<SUB>	go	went
sw3680B-ms98-a-0041	B.26	260.764000	261.004000		in	in
sw3680B-ms98-a-0041	B.26	261.004000	261.164000		as	as
sw3680B-ms98-a-0041	B.26	261.164000	261.274000		an	an
sw3680B-ms98-a-0041	B.26	261.274000	261.624000		ally	ally
sw3680B-ms98-a-0041	B.26	261.624000	261.794000		to	to
sw3680B-ms98-a-0041	B.26	261.794000	261.884000		the	the
sw3680B-ms98-a-0041	B.26	261.884000	262.244000		French	French
sw3680B-ms98-a-0041	B.26	262.244000	262.344000		and	and
sw3680B-ms98-a-0041	B.26	262.344000	262.574000		says	says
sw3680B-ms98-a-0041	B.26	262.574000	263.014000		yeah	yeah
sw3680B-ms98-a-0041	B.26	263.014000	263.284000		we'll	we'll
sw3680B-ms98-a-0041	B.26	263.284000	263.514000		we'll	we'll
sw3680B-ms98-a-0041	B.26	263.514000	263.804000		help	help
sw3680B-ms98-a-0041	B.26	263.804000	263.894000		you	you
sw3680B-ms98-a-0041	B.26	263.894000	264.281125		out	out
sw3680B-ms98-a-0041	B.26	264.281125	264.823500		[silence]	[silence]
sw3680B-ms98-a-0041	B.26	264.823500	264.964000		if	if
sw3680B-ms98-a-0041	B.26	264.964000	265.044000		you	you
sw3680B-ms98-a-0041	B.26	265.044000	265.184000		get	get
sw3680B-ms98-a-0041	B.26	265.184000	265.244000		in	in
sw3680B-ms98-a-0041	B.26	265.244000	265.294000		a	a
sw3680B-ms98-a-0041	B.26	265.294000	265.674000		bind	bind
sw3680B-ms98-a-0041	B.26	265.674000	265.864000		Well	well
sw3680B-ms98-a-0041	B.26	265.864000	265.954000		they	they
sw3680B-ms98-a-0041	B.26	265.954000	266.114000		got	got
sw3680B-ms98-a-0041	B.26	266.114000	266.204000		in	in
sw3680B-ms98-a-0041	B.26	266.204000	266.254000		a	a
sw3680B-ms98-a-0041	B.26	266.254000	266.524000		bind	bind
sw3680B-ms98-a-0041	B.26	266.524000	266.634000		and	and
sw3680B-ms98-a-0041	B.26	266.634000	266.852125		says	says
sw3680B-ms98-a-0041	B.26	266.852125	267.458500		[silence]	[silence]
sw3680B-ms98-a-0041	B.26	267.458500	267.604000		we	we
sw3680B-ms98-a-0041	B.26	267.604000	267.754000		don't	don't
sw3680B-ms98-a-0041	B.26	267.754000	268.014000	<SUB>	want	wanna
sw3680B-ms98-a-0041	B.26	268.014000	268.014000	<INS>	to	---
sw3680B-ms98-a-0041	B.26	268.014000	268.214000		[silence]	[silence]
sw3680B-ms98-a-0041	B.26	268.214000	268.274000		you	you
sw3680B-ms98-a-0041	B.26	268.274000	268.404000		know	know
sw3680B-ms98-a-0041	B.26	268.404000	268.734000		play	play
sw3680B-ms98-a-0041	B.26	268.734000	269.271125	<CONT>	any	anymore
sw3680B-ms98-a-0041	B.26	269.271125	269.271125	<CONT>	more	+++
sw3680B-ms98-a-0041	B.28	269.271125	269.677000		[silence]	[silence]
sw3680B-ms98-a-0042	B.28	269.677000	270.087000		[silence]	[silence]
sw3680B-ms98-a-0042	B.28	270.087000	270.517000		so	so
sw3680B-ms98-a-0042	B.28	270.517000	270.763375		uh	uh
sw3680B-ms98-a-0042	B.28	270.763375	271.641000		[silence]	[silence]
sw3680B-ms98-a-0042	B.28	271.641000	271.907000		we	we
sw3680B-ms98-a-0042	B.28	271.907000	272.027000		we	we
sw3680B-ms98-a-0042	B.28	272.027000	272.307000		kind	kind
sw3680B-ms98-a-0042	B.28	272.307000	272.387000		of	of
sw3680B-ms98-a-0042	B.28	272.387000	272.547000		[silence]	[silence]
sw3680B-ms98-a-0042	B.28	272.547000	272.667000		we	we
sw3680B-ms98-a-0042	B.28	272.667000	272.877000		kind	kind
sw3680B-ms98-a-0042	B.28	272.877000	272.937000		of	of
sw3680B-ms98-a-0042	B.28	272.937000	273.147000		got	got
sw3680B-ms98-a-0042	B.28	273.147000	273.290750	<DEL>	---	st[arted]-
sw3680B-ms98-a-0042	B.28	273.290750	273.490375		[silence]	[silence]
sw3680B-ms98-a-0042	B.28	273.490375	273.677000		got	got
sw3680B-ms98-a-0042	B.28	273.677000	273.747000		the	the
sw3680B-ms98-a-0042	B.28	273.747000	274.037000		ball	ball
sw3680B-ms98-a-0042	B.28	274.037000	274.472375		rolling	rolling
sw3680B-ms98-a-0042	B.28	274.472375	275.209750		ourselves	ourselves
sw3680B-ms98-a-0042	B.28	275.209750	275.683000		[silence]	[silence]
sw3680B-ms98-a-0043	B.28	275.683000	276.163000		[silence]	[silence]
sw3680B-ms98-a-0043	B.28	276.163000	276.631375		versus	versus
sw3680B-ms98-a-0043	B.28	276.631375	276.902500		a	a
sw3680B-ms98-a-0043	B.28	276.902500	277.143000		bunch	bunch
sw3680B-ms98-a-0043	B.28	277.143000	277.203000		of	of
sw3680B-ms98-a-0043	B.28	277.203000	277.443000		top	top
sw3680B-ms98-a-0043	B.28	277.443000	277.840625		secret	secret
sw3680B-ms98-a-0043	B.28	277.840625	278.123125		[silence]	[silence]
sw3680B-ms98-a-0043	B.28	278.123125	278.453000		silly	silly
sw3680B-ms98-a-0043	B.28	278.453000	278.853000		organi-	organi[zations]-
sw3680B-ms98-a-0043	B.28	278.853000	279.424125		[silence]	[silence]
sw3680B-ms98-a-0043	B.28	279.424125	279.721750		uh	uh
sw3680B-ms98-a-0043	B.28	279.721750	280.083000		[silence]	[silence]
sw3680B-ms98-a-0043	B.28	280.083000	280.349875		um	um
sw3680B-ms98-a-0043	B.28	280.349875	281.229625		[silence]	[silence]
sw3680B-ms98-a-0044	B.28	281.229625	282.069625		[silence]	[silence]
sw3680B-ms98-a-0044	B.28	282.069625	282.551375		oh	oh
sw3680B-ms98-a-0044	B.28	282.551375	282.739750		[silence]	[silence]
sw3680B-ms98-a-0044	B.28	282.739750	282.999625	<DEL>	---	o[perations]-
sw3680B-ms98-a-0044	B.28	282.999625	283.639625		operations	operations
sw3680B-ms98-a-0044	B.28	283.639625	283.779625		and	and
sw3680B-ms98-a-0044	B.28	283.779625	283.929625		then	then
sw3680B-ms98-a-0044	B.28	283.929625	283.979625	<SUB>	the	a
sw3680B-ms98-a-0044	B.28	283.979625	284.229625		full	full
sw3680B-ms98-a-0044	B.28	284.229625	284.589625		scale	scale
sw3680B-ms98-a-0044	B.28	284.589625	284.669625		you	you
sw3680B-ms98-a-0044	B.28	284.669625	284.829625		know	know
sw3680B-ms98-a-0044	B.28	284.829625	285.079625		full	full
sw3680B-ms98-a-0044	B.28	285.079625	285.369625		scale	scale
sw3680B-ms98-a-0044	B.28	285.369625	285.769625		troops	troops
sw3680B-ms98-a-0044	B.28	285.769625	285.879625		et	et
sw3680B-ms98-a-0044	B.28	285.879625	286.159625		cetera	cetera
sw3680B-ms98-a-0044	B.28	286.159625	286.219625		et	et
sw3680B-ms98-a-0044	B.28	286.219625	286.399625		cetera	cetera
sw3680B-ms98-a-0044	B.28	286.399625	286.459625		et	et
sw3680B-ms98-a-0044	B.28	286.459625	286.799625		cetera	cetera
sw3680B-ms98-a-0044	B.30	286.799625	287.282500		[silence]	[silence]
sw3680B-ms98-a-0045	B.30	287.282500	290.970375		[silence]	[silence]
sw3680B-ms98-a-0046	B.30	290.970375	291.456000		[silence]	[silence]
sw3680B-ms98-a-0046	B.30	291.456000	291.770250		[laughter]	[laughter]
sw3680B-ms98-a-0046	B.30	291.770250	292.655875		[silence]	[silence]
sw3680B-ms98-a-0047	B.30	292.655875	293.565875		[silence]	[silence]
sw3680B-ms98-a-0047	B.30	293.565875	294.167250	<SUB>	Uh	ah
sw3680B-ms98-a-0047	B.30	294.167250	294.167250	<INS>	yeah	---
sw3680B-ms98-a-0047	B.30	294.167250	294.584750		yeah	yeah
sw3680B-ms98-a-0047	B.30	294.584750	295.284750		[silence]	[silence]
sw3680B-ms98-a-0047	B.30	295.284750	295.775875		roughly	roughly
sw3680B-ms98-a-0047	B.30	295.775875	296.250750		[silence]	[silence]
sw3680B-ms98-a-0048	B.30	296.250750	298.562000		[silence]	[silence]
