sw3657B-ms98-a-0001	B.2	0.000000	0.002000		[silence]	[silence]
sw3657B-ms98-a-0001	B.2	0.002000	0.008125		[noise]	[noise]
sw3657B-ms98-a-0001	B.2	0.008125	0.539875		[silence]	[silence]
sw3657B-ms98-a-0002	B.2	0.539875	0.900000		[silence]	[silence]
sw3657B-ms98-a-0002	B.2	0.900000	1.209875	<SUB>	Ok-	-[o]kay
sw3657B-ms98-a-0002	B.4	1.209875	1.757750		[silence]	[silence]
sw3657B-ms98-a-0003	B.4	1.757750	7.734500		[silence]	[silence]
sw3657B-ms98-a-0004	B.4	7.734500	8.295500		[silence]	[silence]
sw3657B-ms98-a-0004	B.4	8.295500	8.653000		[laughter]	[laughter]
sw3657B-ms98-a-0004	B.4	8.653000	9.020875		Oops	oops
sw3657B-ms98-a-0004	B.6	9.020875	10.114500		[laughter]	[laughter]
sw3657B-ms98-a-0004	B.6	10.114500	10.484500		Oh	oh
sw3657B-ms98-a-0004	B.6	10.484500	10.934500		well	well
sw3657B-ms98-a-0004	B.8	10.934500	11.082375		[silence]	[silence]
sw3657B-ms98-a-0005	B.8	11.082375	11.558500		[silence]	[silence]
sw3657B-ms98-a-0005	B.8	11.558500	11.909000	<SUB>	Well	oh
sw3657B-ms98-a-0005	B.8	11.909000	12.059375		[silence]	[silence]
sw3657B-ms98-a-0005	B.8	12.059375	12.662375		okay	okay
sw3657B-ms98-a-0005	B.8	12.662375	13.002375		well	well
sw3657B-ms98-a-0005	B.8	13.002375	13.302375		let's	let's
sw3657B-ms98-a-0005	B.8	13.302375	13.562375		let's	let's
sw3657B-ms98-a-0005	B.8	13.562375	13.832375		fire	fire
sw3657B-ms98-a-0005	B.8	13.832375	14.236750		away	away
sw3657B-ms98-a-0005	B.8	14.236750	14.539625		Uh	uh
sw3657B-ms98-a-0005	B.8	14.539625	15.492625		[silence]	[silence]
sw3657B-ms98-a-0005	B.8	15.492625	15.642375		well	well
sw3657B-ms98-a-0005	B.8	15.642375	16.057500		Brian	Bryan
sw3657B-ms98-a-0005	B.10	16.057500	16.727125		[silence]	[silence]
sw3657B-ms98-a-0006	B.10	16.727125	17.361125		[silence]	[silence]
sw3657B-ms98-a-0006	B.10	17.361125	17.637125		Yeah	yeah
sw3657B-ms98-a-0006	B.10	17.637125	17.787125		why	why
sw3657B-ms98-a-0006	B.10	17.787125	17.917125		don't	don't
sw3657B-ms98-a-0006	B.10	17.917125	18.057125		you	you
sw3657B-ms98-a-0006	B.10	18.057125	18.197125		why	why
sw3657B-ms98-a-0006	B.10	18.197125	18.317125		don't	don't
sw3657B-ms98-a-0006	B.10	18.317125	18.537125		we	we
sw3657B-ms98-a-0006	B.10	18.537125	18.597125		why	why
sw3657B-ms98-a-0006	B.10	18.597125	18.717125		don't	don't
sw3657B-ms98-a-0006	B.10	18.717125	18.817125		you	you
sw3657B-ms98-a-0006	B.10	18.817125	18.917125		do	do
sw3657B-ms98-a-0006	B.10	18.917125	19.207125		about	about
sw3657B-ms98-a-0006	B.10	19.207125	19.417125		thirty	thirty
sw3657B-ms98-a-0006	B.10	19.417125	19.907125		seconds	seconds
sw3657B-ms98-a-0006	B.10	19.907125	20.017125		and	and
sw3657B-ms98-a-0006	B.10	20.017125	20.137125		I'll	i'll
sw3657B-ms98-a-0006	B.10	20.137125	20.277125		do	do
sw3657B-ms98-a-0006	B.10	20.277125	20.547125		thirty	thirty
sw3657B-ms98-a-0006	B.10	20.547125	20.987125		seconds	seconds
sw3657B-ms98-a-0006	B.10	20.987125	21.077125		and	and
sw3657B-ms98-a-0006	B.10	21.077125	21.207125		then	then
sw3657B-ms98-a-0006	B.10	21.207125	21.307125		we	we
sw3657B-ms98-a-0006	B.10	21.307125	21.580750		can	can
sw3657B-ms98-a-0006	B.10	21.580750	21.995125		[silence]	[silence]
sw3657B-ms98-a-0006	B.10	21.995125	22.197125		work	work
sw3657B-ms98-a-0006	B.10	22.197125	22.457125		off	off
sw3657B-ms98-a-0006	B.10	22.457125	22.527125		of	of
sw3657B-ms98-a-0006	B.10	22.527125	22.988000		there	there
sw3657B-ms98-a-0006	B.12	22.988000	23.448625		[silence]	[silence]
sw3657B-ms98-a-0007	B.12	23.448625	91.300750		[silence]	[silence]
sw3657B-ms98-a-0008	B.12	91.300750	92.354000		[silence]	[silence]
sw3657B-ms98-a-0008	B.12	92.354000	92.766375		[noise]	[noise]
sw3657B-ms98-a-0008	B.12	92.766375	93.120750		Well	well
sw3657B-ms98-a-0008	B.12	93.120750	93.440125		uh	uh
sw3657B-ms98-a-0008	B.12	93.440125	93.816750		[silence]	[silence]
sw3657B-ms98-a-0008	B.12	93.816750	94.340750		since	since
sw3657B-ms98-a-0008	B.12	94.340750	94.620750		uh	uh
sw3657B-ms98-a-0008	B.12	94.620750	94.750750		well	well
sw3657B-ms98-a-0008	B.12	94.750750	94.810750		I	i
sw3657B-ms98-a-0008	B.12	94.810750	95.161625		guess	guess
sw3657B-ms98-a-0008	B.12	95.161625	95.485500		[silence]	[silence]
sw3657B-ms98-a-0008	B.12	95.485500	95.828250		since	since
sw3657B-ms98-a-0008	B.12	95.828250	95.960750		this	this
sw3657B-ms98-a-0008	B.12	95.960750	96.220750		time	time
sw3657B-ms98-a-0008	B.12	96.220750	96.580750		last	last
sw3657B-ms98-a-0008	B.12	96.580750	96.971250		year	year
sw3657B-ms98-a-0008	B.12	96.971250	97.280750		I've	i've
sw3657B-ms98-a-0008	B.12	97.280750	97.790750		changed	changed
sw3657B-ms98-a-0008	B.12	97.790750	98.063000		uh	uh
sw3657B-ms98-a-0008	B.12	98.063000	98.484875		[silence]	[silence]
sw3657B-ms98-a-0008	B.12	98.484875	98.860750		jobs	jobs
sw3657B-ms98-a-0008	B.12	98.860750	99.160750		within	within
sw3657B-ms98-a-0008	B.12	99.160750	99.230750		the	the
sw3657B-ms98-a-0008	B.12	99.230750	99.630750		firm	firm
sw3657B-ms98-a-0008	B.12	99.630750	99.850750		I'm	i'm
sw3657B-ms98-a-0008	B.12	99.850750	100.343875		with	with
sw3657B-ms98-a-0008	B.14	100.343875	100.725000		[silence]	[silence]
sw3657B-ms98-a-0009	B.14	100.725000	101.326375		[silence]	[silence]
sw3657B-ms98-a-0009	B.14	101.326375	101.805000		and	and
sw3657B-ms98-a-0009	B.14	101.805000	102.025000		uh	uh
sw3657B-ms98-a-0009	B.14	102.025000	102.155000		I	i
sw3657B-ms98-a-0009	B.14	102.155000	102.558125		now	now
sw3657B-ms98-a-0009	B.14	102.558125	103.035000		am	am
sw3657B-ms98-a-0009	B.14	103.035000	103.325000		learning	learning
sw3657B-ms98-a-0009	B.14	103.325000	103.445000		to	to
sw3657B-ms98-a-0009	B.14	103.445000	103.585000		be	be
sw3657B-ms98-a-0009	B.14	103.585000	103.635000		a	a
sw3657B-ms98-a-0009	B.14	103.635000	103.895000		sys	sys
sw3657B-ms98-a-0009	B.14	103.895000	104.485625		admin	admin
sw3657B-ms98-a-0009	B.14	104.485625	104.821500		[silence]	[silence]
sw3657B-ms98-a-0010	B.14	104.821500	105.119875		[silence]	[silence]
sw3657B-ms98-a-0010	B.14	105.119875	105.321500		on	on
sw3657B-ms98-a-0010	B.14	105.321500	105.651500		on	on
sw3657B-ms98-a-0010	B.14	105.651500	105.861500		not	not
sw3657B-ms98-a-0010	B.14	105.861500	106.071500		only	only
sw3657B-ms98-a-0010	B.14	106.071500	106.661500	<CONT>	P	PCs
sw3657B-ms98-a-0010	B.14	106.661500	106.661500	<CONT>	C	+++
sw3657B-ms98-a-0010	B.14	106.661500	106.661500	<CONT>	-s	+++
sw3657B-ms98-a-0010	B.14	106.661500	107.021500		but	but
sw3657B-ms98-a-0010	B.14	107.021500	107.241500		uh	uh
sw3657B-ms98-a-0010	B.14	107.241500	107.564625		pers-	pers[onal]-
sw3657B-ms98-a-0010	B.14	107.564625	107.901500		uh	uh
sw3657B-ms98-a-0010	B.14	107.901500	108.681500		professional	professional
sw3657B-ms98-a-0010	B.14	108.681500	108.891500		work	work
sw3657B-ms98-a-0010	B.14	108.891500	109.371500		stations	stations
sw3657B-ms98-a-0010	B.16	109.371500	109.481500		as	as
sw3657B-ms98-a-0010	B.16	109.481500	109.899250		well	well
sw3657B-ms98-a-0010	B.18	109.899250	110.292000		[silence]	[silence]
sw3657B-ms98-a-0011	B.18	110.292000	110.488750		[silence]	[silence]
sw3657B-ms98-a-0011	B.18	110.488750	110.662000		And	and
sw3657B-ms98-a-0011	B.18	110.662000	110.922000		these	these
sw3657B-ms98-a-0011	B.18	110.922000	110.982000		are	are
sw3657B-ms98-a-0011	B.18	110.982000	111.082000		the	the
sw3657B-ms98-a-0011	B.18	111.082000	111.362000		big	big
sw3657B-ms98-a-0011	B.18	111.362000	111.982625		mamas	mamas
sw3657B-ms98-a-0011	B.18	111.982625	112.402000	<CONT>	i	IE
sw3657B-ms98-a-0011	B.18	112.402000	112.402000	<CONT>	e	+++
sw3657B-ms98-a-0011	B.18	112.402000	112.972000		sons	sons
sw3657B-ms98-a-0011	B.18	112.972000	113.162000		uh	uh
sw3657B-ms98-a-0011	B.18	113.162000	113.442000		Hewlett	Hewlett
sw3657B-ms98-a-0011	B.18	113.442000	114.072000		Packards	Packards
sw3657B-ms98-a-0011	B.18	114.072000	114.401625		uh	uh
sw3657B-ms98-a-0011	B.20	114.401625	114.861125		[silence]	[silence]
sw3657B-ms98-a-0011	B.20	114.861125	115.532000	<SUB>	uh	absorb
sw3657B-ms98-a-0011	B.20	115.532000	115.532000	<INS>	sor-	---
sw3657B-ms98-a-0011	B.20	115.532000	115.891500		uh	uh
sw3657B-ms98-a-0011	B.20	115.891500	116.392500		[silence]	[silence]
sw3657B-ms98-a-0011	B.20	116.392500	116.722000		oh	oh
sw3657B-ms98-a-0011	B.20	116.722000	116.792000		the	the
sw3657B-ms98-a-0011	B.20	116.792000	117.002000		big	big
sw3657B-ms98-a-0011	B.20	117.002000	117.612000		Solburns	Solburns
sw3657B-ms98-a-0011	B.20	117.612000	117.865375		and	and
sw3657B-ms98-a-0011	B.20	117.865375	118.272250		[silence]	[silence]
sw3657B-ms98-a-0011	B.20	118.272250	118.422000	<SUB>	and	it
sw3657B-ms98-a-0011	B.20	118.422000	118.652000		so	so
sw3657B-ms98-a-0011	B.20	118.652000	119.081750		forth	forth
sw3657B-ms98-a-0011	B.22	119.081750	119.461750		[silence]	[silence]
sw3657B-ms98-a-0012	B.22	119.461750	119.590875		[silence]	[silence]
sw3657B-ms98-a-0012	B.22	119.590875	119.951750		And	and
sw3657B-ms98-a-0012	B.22	119.951750	120.244250		uh	uh
sw3657B-ms98-a-0012	B.22	120.244250	120.967375		[silence]	[silence]
sw3657B-ms98-a-0012	B.22	120.967375	121.266125		h-	h[ow]-
sw3657B-ms98-a-0012	B.22	121.266125	121.551750		and	and
sw3657B-ms98-a-0012	B.22	121.551750	121.801750		and	and
sw3657B-ms98-a-0012	B.22	121.801750	121.948125		uh	uh
sw3657B-ms98-a-0012	B.22	121.948125	122.803125		[silence]	[silence]
sw3657B-ms98-a-0012	B.22	122.803125	122.961750		we	we
sw3657B-ms98-a-0012	B.22	122.961750	123.281750		have	have
sw3657B-ms98-a-0012	B.22	123.281750	123.431750		uh	uh
sw3657B-ms98-a-0012	B.22	123.431750	123.821750		two	two
sw3657B-ms98-a-0012	B.22	123.821750	124.371750	<CONT>	P	PC's
sw3657B-ms98-a-0012	B.22	124.371750	124.371750	<CONT>	C	+++
sw3657B-ms98-a-0012	B.22	124.371750	124.371750	<CONT>	-s	+++
sw3657B-ms98-a-0012	B.22	124.371750	124.801750		here	here
sw3657B-ms98-a-0012	B.22	124.801750	124.961750		We	we
sw3657B-ms98-a-0012	B.22	124.961750	125.221750		have	have
sw3657B-ms98-a-0012	B.22	125.221750	125.461750		uh	uh
sw3657B-ms98-a-0012	B.22	125.461750	125.551750		an	an
sw3657B-ms98-a-0012	B.22	125.551750	126.231750	<CONT>	X	XT
sw3657B-ms98-a-0012	B.22	126.231750	126.231750	<CONT>	T	+++
sw3657B-ms98-a-0012	B.22	126.231750	126.411750		and	and
sw3657B-ms98-a-0012	B.22	126.411750	126.659375		then	then
sw3657B-ms98-a-0012	B.22	126.659375	126.961500		[silence]	[silence]
sw3657B-ms98-a-0013	B.22	126.961500	127.220375		[silence]	[silence]
sw3657B-ms98-a-0013	B.22	127.220375	127.831500		recently	recently
sw3657B-ms98-a-0013	B.22	127.831500	128.033500		we	we
sw3657B-ms98-a-0013	B.22	128.033500	128.161500		we	we
sw3657B-ms98-a-0013	B.22	128.161500	128.441500		made	made
sw3657B-ms98-a-0013	B.22	128.441500	128.687500		a	a
sw3657B-ms98-a-0013	B.22	128.687500	129.105625		[silence]	[silence]
sw3657B-ms98-a-0013	B.22	129.105625	129.468125		the	the
sw3657B-ms98-a-0013	B.22	129.468125	129.754500		[silence]	[silence]
sw3657B-ms98-a-0013	B.22	129.754500	130.101500		command	command
sw3657B-ms98-a-0013	B.22	130.101500	130.521500		decision	decision
sw3657B-ms98-a-0013	B.22	130.521500	130.611500		to	to
sw3657B-ms98-a-0013	B.22	130.611500	130.761500		go	go
sw3657B-ms98-a-0013	B.22	130.761500	130.891500		ahead	ahead
sw3657B-ms98-a-0013	B.22	130.891500	131.021500		and	and
sw3657B-ms98-a-0013	B.22	131.021500	131.248500		get	get
sw3657B-ms98-a-0013	B.22	131.248500	131.564875		uh	uh
sw3657B-ms98-a-0013	B.22	131.564875	131.994250		[silence]	[silence]
sw3657B-ms98-a-0013	B.22	131.994250	132.111500		the	the
sw3657B-ms98-a-0013	B.22	132.111500	132.671500		absolute	absolute
sw3657B-ms98-a-0013	B.22	132.671500	132.931500		top	top
sw3657B-ms98-a-0013	B.22	132.931500	132.991500		of	of
sw3657B-ms98-a-0013	B.22	132.991500	133.051500		the	the
sw3657B-ms98-a-0013	B.22	133.051500	133.361500		line	line
sw3657B-ms98-a-0013	B.22	133.361500	133.711500		because	because
sw3657B-ms98-a-0013	B.22	133.711500	134.141500		spouse	spouse
sw3657B-ms98-a-0013	B.22	134.141500	134.307500		is	is
sw3657B-ms98-a-0013	B.22	134.307500	134.501750		a	a
sw3657B-ms98-a-0013	B.22	134.501750	134.795625		uh	uh
sw3657B-ms98-a-0013	B.22	134.795625	135.419000		programmer	programmer
sw3657B-ms98-a-0013	B.24	135.419000	135.780875		[silence]	[silence]
sw3657B-ms98-a-0014	B.24	135.780875	136.100375		[silence]	[silence]
sw3657B-ms98-a-0014	B.24	136.100375	136.300875		And	and
sw3657B-ms98-a-0014	B.24	136.300875	136.450875		so	so
sw3657B-ms98-a-0014	B.24	136.450875	136.560875		we	we
sw3657B-ms98-a-0014	B.24	136.560875	136.790875		got	got
sw3657B-ms98-a-0014	B.24	136.790875	137.000875		one	one
sw3657B-ms98-a-0014	B.24	137.000875	137.220875		that	that
sw3657B-ms98-a-0014	B.26	137.220875	137.410875		that	that
sw3657B-ms98-a-0014	B.26	137.410875	137.580875		could	could
sw3657B-ms98-a-0014	B.26	137.580875	137.720875		do	do
sw3657B-ms98-a-0014	B.26	137.720875	138.210875		enough	enough
sw3657B-ms98-a-0014	B.26	138.210875	138.655625		uh	uh
sw3657B-ms98-a-0014	B.26	138.655625	138.880875		and	and
sw3657B-ms98-a-0014	B.26	138.880875	138.970875		you	you
sw3657B-ms98-a-0014	B.26	138.970875	139.120875		know	know
sw3657B-ms98-a-0014	B.26	139.120875	139.360875		hold	hold
sw3657B-ms98-a-0014	B.26	139.360875	139.550875		three	three
sw3657B-ms98-a-0014	B.26	139.550875	139.870875		different	different
sw3657B-ms98-a-0014	B.26	139.870875	140.547750	<CONT>	O	OS's
sw3657B-ms98-a-0014	B.26	140.547750	140.547750	<CONT>	S	+++
sw3657B-ms98-a-0014	B.26	140.547750	140.547750	<CONT>	-s	+++
sw3657B-ms98-a-0014	B.28	140.547750	140.829125		[silence]	[silence]
sw3657B-ms98-a-0015	B.28	140.829125	141.098250		[silence]	[silence]
sw3657B-ms98-a-0015	B.28	141.098250	141.269125		As	as
sw3657B-ms98-a-0015	B.28	141.269125	141.519125		far	far
sw3657B-ms98-a-0015	B.28	141.519125	141.669125		as	as
sw3657B-ms98-a-0015	B.28	141.669125	142.139125		DOS	DOS
sw3657B-ms98-a-0015	B.28	142.139125	142.259125		uh	uh
sw3657B-ms98-a-0015	B.28	142.259125	142.739125		UNIX	Unix
sw3657B-ms98-a-0015	B.28	142.739125	143.159125		and	and
sw3657B-ms98-a-0015	B.28	143.159125	143.399125		uh	uh
sw3657B-ms98-a-0015	B.28	143.399125	143.691375	<CONT>	O	OS
sw3657B-ms98-a-0015	B.28	143.691375	143.691375	<CONT>	S	+++
sw3657B-ms98-a-0015	B.28	143.691375	144.069750		Two	II
sw3657B-ms98-a-0015	B.30	144.069750	144.449750		[silence]	[silence]
sw3657B-ms98-a-0016	B.30	144.449750	144.850250		[silence]	[silence]
sw3657B-ms98-a-0016	B.30	144.850250	145.641500		[laughter]	[laughter]
sw3657B-ms98-a-0016	B.30	145.641500	146.019750		So	so
sw3657B-ms98-a-0016	B.30	146.019750	146.140000		uh	uh
sw3657B-ms98-a-0016	B.30	146.140000	146.324500		[silence]	[silence]
sw3657B-ms98-a-0016	B.30	146.324500	146.597125		I	i
sw3657B-ms98-a-0016	B.30	146.597125	146.770375		I	i
sw3657B-ms98-a-0016	B.30	146.770375	146.959750		get	get
sw3657B-ms98-a-0016	B.30	146.959750	147.019750		to	to
sw3657B-ms98-a-0016	B.30	147.019750	147.209750		see	see
sw3657B-ms98-a-0016	B.30	147.209750	147.389750		all	all
sw3657B-ms98-a-0016	B.30	147.389750	147.749750		kinds	kinds
sw3657B-ms98-a-0016	B.30	147.749750	147.969750		of	of
sw3657B-ms98-a-0016	B.30	147.969750	148.279750		different	different
sw3657B-ms98-a-0016	B.30	148.279750	149.129750		applications	applications
sw3657B-ms98-a-0016	B.32	149.129750	149.708000		[silence]	[silence]
sw3657B-ms98-a-0017	B.32	149.708000	150.226625		[silence]	[silence]
sw3657B-ms98-a-0017	B.32	150.226625	150.718000		No	no
sw3657B-ms98-a-0017	B.32	150.718000	151.018000		no	no
sw3657B-ms98-a-0017	B.34	151.018000	151.428000		Learning	learning
sw3657B-ms98-a-0017	B.34	151.428000	151.658000		I'm	i'm
sw3657B-ms98-a-0017	B.34	151.658000	152.068000		learning	learning
sw3657B-ms98-a-0017	B.34	152.068000	152.258000	<SUB>	t-	to
sw3657B-ms98-a-0017	B.34	152.258000	152.418000		I'm	i'm
sw3657B-ms98-a-0017	B.34	152.418000	152.768000		learning	learning
sw3657B-ms98-a-0017	B.34	152.768000	152.898000		to	to
sw3657B-ms98-a-0017	B.34	152.898000	153.418625		be	be
sw3657B-ms98-a-0017	B.34	153.418625	153.768000		uh	uh
sw3657B-ms98-a-0017	B.34	153.768000	154.268000		one	one
sw3657B-ms98-a-0017	B.34	154.268000	154.408000		who	who
sw3657B-ms98-a-0017	B.34	154.408000	154.728000		knows	knows
sw3657B-ms98-a-0017	B.34	154.728000	154.928000		what's	what's
sw3657B-ms98-a-0017	B.34	154.928000	155.148000		he's	he's
sw3657B-ms98-a-0017	B.34	155.148000	155.668375		doing	doing
sw3657B-ms98-a-0017	B.36	155.668375	155.865500		[silence]	[silence]
sw3657B-ms98-a-0018	B.36	155.865500	156.012000		[silence]	[silence]
sw3657B-ms98-a-0018	B.36	156.012000	156.265500		but	but
sw3657B-ms98-a-0018	B.36	156.265500	156.755500		expert	expert
sw3657B-ms98-a-0018	B.36	156.755500	157.004125		no	no
sw3657B-ms98-a-0018	B.38	157.004125	158.262125		[laughter]	[laughter]
sw3657B-ms98-a-0018	B.38	158.262125	158.375500		I	i
sw3657B-ms98-a-0018	B.38	158.375500	158.715500		frown	frown
sw3657B-ms98-a-0018	B.38	158.715500	158.865500		on	on
sw3657B-ms98-a-0018	B.38	158.865500	159.123250		that	that
sw3657B-ms98-a-0018	B.38	159.123250	159.285250		[silence]	[silence]
sw3657B-ms98-a-0018	B.38	159.285250	159.535500		that	that
sw3657B-ms98-a-0018	B.38	159.535500	159.855500		term	term
sw3657B-ms98-a-0018	B.38	159.855500	160.282875		because	because
sw3657B-ms98-a-0018	B.38	160.282875	160.718000		[silence]	[silence]
sw3657B-ms98-a-0018	B.38	160.718000	161.138250		uh	uh
sw3657B-ms98-a-0018	B.38	161.138250	161.640250		[silence]	[silence]
sw3657B-ms98-a-0019	B.38	161.640250	161.939500		[silence]	[silence]
sw3657B-ms98-a-0019	B.38	161.939500	162.030250		too	too
sw3657B-ms98-a-0019	B.38	162.030250	162.250250		many	many
sw3657B-ms98-a-0019	B.38	162.250250	162.844625		people	people
sw3657B-ms98-a-0019	B.38	162.844625	163.086000		s-	s[ay]-
sw3657B-ms98-a-0019	B.38	163.086000	163.322500		you	you
sw3657B-ms98-a-0019	B.38	163.322500	163.556625		know	know
sw3657B-ms98-a-0019	B.38	163.556625	163.921250		uh	uh
sw3657B-ms98-a-0019	B.38	163.921250	164.064375		[silence]	[silence]
sw3657B-ms98-a-0019	B.38	164.064375	164.600250		misuse	misuse
sw3657B-ms98-a-0019	B.38	164.600250	164.690250		the	the
sw3657B-ms98-a-0019	B.38	164.690250	165.030250		word	word
sw3657B-ms98-a-0019	B.38	165.030250	165.299000		so	so
sw3657B-ms98-a-0019	B.40	165.299000	165.637875		[silence]	[silence]
sw3657B-ms98-a-0019	B.40	165.637875	165.850250		I'd	i'd
sw3657B-ms98-a-0019	B.40	165.850250	166.080250		rather	rather
sw3657B-ms98-a-0019	B.40	166.080250	166.380250		say	say
sw3657B-ms98-a-0019	B.40	166.380250	166.720250		I'm	i'm
sw3657B-ms98-a-0019	B.40	166.720250	166.950250		I	i
sw3657B-ms98-a-0019	B.40	166.950250	167.080250		I	i
sw3657B-ms98-a-0019	B.40	167.080250	167.200250		am	am
sw3657B-ms98-a-0019	B.40	167.200250	167.760250		continually	continually
sw3657B-ms98-a-0019	B.40	167.760250	168.246375		learning	learning
sw3657B-ms98-a-0019	B.40	168.246375	168.626875		[silence]	[silence]
sw3657B-ms98-a-0019	B.40	168.626875	168.790250		but	but
sw3657B-ms98-a-0019	B.40	168.790250	169.100250		my	my
sw3657B-ms98-a-0019	B.40	169.100250	169.550250		area	area
sw3657B-ms98-a-0019	B.40	169.550250	169.710250	<SUB>	m-	my
sw3657B-ms98-a-0019	B.40	169.710250	170.087250		my	my
sw3657B-ms98-a-0019	B.40	170.087250	170.659625		level	level
sw3657B-ms98-a-0019	B.40	170.659625	170.850250		of	of
sw3657B-ms98-a-0019	B.40	170.850250	171.590250		expertise	expertise
sw3657B-ms98-a-0019	B.40	171.590250	171.877250		is	is
sw3657B-ms98-a-0019	B.40	171.877250	172.620250		increasing	increasing
sw3657B-ms98-a-0019	B.40	172.620250	172.970250		almost	almost
sw3657B-ms98-a-0019	B.40	172.970250	173.590375		daily	daily
sw3657B-ms98-a-0019	B.42	173.590375	173.853750		[silence]	[silence]
sw3657B-ms98-a-0020	B.42	173.853750	174.447000		[silence]	[silence]
sw3657B-ms98-a-0020	B.42	174.447000	174.813750		And	and
sw3657B-ms98-a-0020	B.42	174.813750	175.083750		uh	uh
sw3657B-ms98-a-0020	B.42	175.083750	175.343750	<SUB>	yeah	yes
sw3657B-ms98-a-0020	B.42	175.343750	175.343750	<INS>	so	---
sw3657B-ms98-a-0020	B.42	175.343750	175.513750		I've	i've
sw3657B-ms98-a-0020	B.42	175.513750	175.683750		got	got
sw3657B-ms98-a-0020	B.42	175.683750	175.713750		a	a
sw3657B-ms98-a-0020	B.42	175.713750	176.123750	<CONT>	P	PC
sw3657B-ms98-a-0020	B.42	176.123750	176.123750	<CONT>	C	+++
sw3657B-ms98-a-0020	B.42	176.123750	176.303750		and	and
sw3657B-ms98-a-0020	B.42	176.303750	176.353750		a	a
sw3657B-ms98-a-0020	B.42	176.353750	176.553750		work	work
sw3657B-ms98-a-0020	B.42	176.553750	177.023750		station	station
sw3657B-ms98-a-0020	B.42	177.023750	177.143750		at	at
sw3657B-ms98-a-0020	B.42	177.143750	177.473750		work	work
sw3657B-ms98-a-0020	B.42	177.473750	177.723750		and	and
sw3657B-ms98-a-0020	B.42	177.723750	177.793750		I	i
sw3657B-ms98-a-0020	B.44	177.793750	177.953750		and	and
sw3657B-ms98-a-0020	B.44	177.953750	178.043750		we	we
sw3657B-ms98-a-0020	B.44	178.043750	178.233750		have	have
sw3657B-ms98-a-0020	B.44	178.233750	178.373750		two	two
sw3657B-ms98-a-0020	B.44	178.373750	178.873750	<CONT>	P	PC's
sw3657B-ms98-a-0020	B.44	178.873750	178.873750	<CONT>	C	+++
sw3657B-ms98-a-0020	B.44	178.873750	178.873750	<CONT>	-s	+++
sw3657B-ms98-a-0020	B.44	178.873750	179.093750		here	here
sw3657B-ms98-a-0020	B.44	179.093750	179.193750	<DEL>	---	at
sw3657B-ms98-a-0020	B.44	179.193750	179.415125		w-	w[ork]-
sw3657B-ms98-a-0020	B.44	179.415125	179.613750		at	at
sw3657B-ms98-a-0020	B.44	179.613750	180.045625		home	home
sw3657B-ms98-a-0020	B.46	180.045625	180.324125		[silence]	[silence]
sw3657B-ms98-a-0021	B.46	180.324125	180.582625		[silence]	[silence]
sw3657B-ms98-a-0021	B.46	180.582625	180.954125		And	and
sw3657B-ms98-a-0021	B.46	180.954125	181.064125		the	the
sw3657B-ms98-a-0021	B.46	181.064125	181.248500		a	a
sw3657B-ms98-a-0021	B.46	181.248500	181.604125		lot	lot
sw3657B-ms98-a-0021	B.46	181.604125	181.694125		of	of
sw3657B-ms98-a-0021	B.46	181.694125	181.959875		the	the
sw3657B-ms98-a-0021	B.46	181.959875	182.365375		the	the
sw3657B-ms98-a-0021	B.46	182.365375	182.470750		the	the
sw3657B-ms98-a-0021	B.46	182.470750	182.666875		new	new
sw3657B-ms98-a-0021	B.46	182.666875	183.044125		mama	mama
sw3657B-ms98-a-0021	B.46	183.044125	183.414125		we're	we're
sw3657B-ms98-a-0021	B.46	183.414125	183.584875		uh	uh
sw3657B-ms98-a-0021	B.46	183.584875	184.187500		[silence]	[silence]
sw3657B-ms98-a-0021	B.46	184.187500	184.334125		I've	i've
sw3657B-ms98-a-0021	B.46	184.334125	184.564125		got	got
sw3657B-ms98-a-0021	B.46	184.564125	185.114125		Aldus	Aldus
sw3657B-ms98-a-0021	B.46	185.114125	185.504125		and	and
sw3657B-ms98-a-0021	B.46	185.504125	185.714875		uh	uh
sw3657B-ms98-a-0021	B.46	185.714875	185.974000		[silence]	[silence]
sw3657B-ms98-a-0021	B.46	185.974000	187.024125		Micrographics	Micrographics
sw3657B-ms98-a-0021	B.46	187.024125	187.284125		on	on
sw3657B-ms98-a-0021	B.46	187.284125	187.534125		it	it
sw3657B-ms98-a-0021	B.46	187.534125	187.714125		as	as
sw3657B-ms98-a-0021	B.46	187.714125	188.024125		far	far
sw3657B-ms98-a-0021	B.46	188.024125	188.254125		as	as
sw3657B-ms98-a-0021	B.46	188.254125	188.543875		uh	uh
sw3657B-ms98-a-0021	B.46	188.543875	189.067375		[silence]	[silence]
sw3657B-ms98-a-0021	B.46	189.067375	189.414125		technical	technical
sw3657B-ms98-a-0021	B.46	189.414125	190.024125		publishing	publishing
sw3657B-ms98-a-0021	B.46	190.024125	190.154125		and	and
sw3657B-ms98-a-0021	B.46	190.154125	190.264125		we	we
sw3657B-ms98-a-0021	B.46	190.264125	190.554125		do	do
sw3657B-ms98-a-0021	B.46	190.554125	190.674125		a	a
sw3657B-ms98-a-0021	B.46	190.674125	190.734125	<DEL>	---	a
sw3657B-ms98-a-0021	B.46	190.734125	191.088125		[silence]	[silence]
sw3657B-ms98-a-0021	B.46	191.088125	191.274125		quite	quite
sw3657B-ms98-a-0021	B.46	191.274125	191.304125		a	a
sw3657B-ms98-a-0021	B.46	191.304125	191.454125		bit	bit
sw3657B-ms98-a-0021	B.46	191.454125	191.514125		of	of
sw3657B-ms98-a-0021	B.46	191.514125	191.854125		church	church
sw3657B-ms98-a-0021	B.46	191.854125	192.104125		work	work
sw3657B-ms98-a-0021	B.46	192.104125	192.254125		with	with
sw3657B-ms98-a-0021	B.46	192.254125	192.738375		ours	ours
sw3657B-ms98-a-0021	B.48	192.738375	193.025625		[silence]	[silence]
sw3657B-ms98-a-0022	B.48	193.025625	193.438625		[silence]	[silence]
sw3657B-ms98-a-0022	B.48	193.438625	193.875625		And	and
sw3657B-ms98-a-0022	B.48	193.875625	194.206750		uh	uh
sw3657B-ms98-a-0022	B.50	194.206750	194.644250		[silence]	[silence]
sw3657B-ms98-a-0023	B.50	194.644250	196.509500		[silence]	[silence]
sw3657B-ms98-a-0024	B.50	196.509500	197.024125		[silence]	[silence]
sw3657B-ms98-a-0024	B.50	197.024125	197.349500		You	you
sw3657B-ms98-a-0024	B.50	197.349500	197.539500		know	know
sw3657B-ms98-a-0024	B.50	197.539500	197.849500		some	some
sw3657B-ms98-a-0024	B.50	197.849500	198.028625		I	i
sw3657B-ms98-a-0024	B.50	198.028625	198.309500		I	i
sw3657B-ms98-a-0024	B.50	198.309500	198.499500		I've	i've
sw3657B-ms98-a-0024	B.50	198.499500	198.879500		found	found
sw3657B-ms98-a-0024	B.50	198.879500	199.179500		that	that
sw3657B-ms98-a-0024	B.50	199.179500	199.279500		uh	uh
sw3657B-ms98-a-0024	B.50	199.279500	199.419500		the	the
sw3657B-ms98-a-0024	B.50	199.419500	199.659500		more	more
sw3657B-ms98-a-0024	B.50	199.659500	199.819500		we	we
sw3657B-ms98-a-0024	B.50	199.819500	200.059500		do	do
sw3657B-ms98-a-0024	B.50	200.059500	200.329500		with	with
sw3657B-ms98-a-0024	B.50	200.329500	200.599500		it	it
sw3657B-ms98-a-0024	B.50	200.599500	200.679500		uh	uh
sw3657B-ms98-a-0024	B.50	200.679500	201.309500		it	it
sw3657B-ms98-a-0024	B.50	201.309500	201.569500	<SUB>	seem	seems
sw3657B-ms98-a-0024	B.50	201.569500	201.569500	<INS>	and	---
sw3657B-ms98-a-0024	B.50	201.569500	201.849500		the	the
sw3657B-ms98-a-0024	B.50	201.849500	202.119500	<CONT>	Lord's	Lord
sw3657B-ms98-a-0024	B.50	202.119500	202.219500	<CONT>	+++	is
sw3657B-ms98-a-0024	B.50	202.219500	202.219500	<INS>	just	---
sw3657B-ms98-a-0024	B.50	202.219500	202.649500		pleased	pleased
sw3657B-ms98-a-0024	B.50	202.649500	202.799500		that	that
sw3657B-ms98-a-0024	B.50	202.799500	203.040250		we're	we're
sw3657B-ms98-a-0024	B.50	203.040250	203.412750		[silence]	[silence]
sw3657B-ms98-a-0025	B.50	203.412750	203.876875		[silence]	[silence]
sw3657B-ms98-a-0025	B.50	203.876875	204.122750		kind	kind
sw3657B-ms98-a-0025	B.50	204.122750	204.242750		of	of
sw3657B-ms98-a-0025	B.50	204.242750	204.412750		this	this
sw3657B-ms98-a-0025	B.50	204.412750	204.682750		is	is
sw3657B-ms98-a-0025	B.50	204.682750	204.902750		this	this
sw3657B-ms98-a-0025	B.50	204.902750	205.182750		is	is
sw3657B-ms98-a-0025	B.50	205.182750	205.482750		part	part
sw3657B-ms98-a-0025	B.50	205.482750	205.752750		of	of
sw3657B-ms98-a-0025	B.50	205.752750	206.032750		giving	giving
sw3657B-ms98-a-0025	B.50	206.032750	206.272750		back	back
sw3657B-ms98-a-0025	B.50	206.272750	206.342750		a	a
sw3657B-ms98-a-0025	B.50	206.342750	206.732750		portion	portion
sw3657B-ms98-a-0025	B.50	206.732750	206.822750		of	of
sw3657B-ms98-a-0025	B.50	206.822750	206.952750		what	what
sw3657B-ms98-a-0025	B.50	206.952750	207.142750		He's	he's
sw3657B-ms98-a-0025	B.50	207.142750	207.412750		given	given
sw3657B-ms98-a-0025	B.50	207.412750	207.522750		to	to
sw3657B-ms98-a-0025	B.50	207.522750	207.898625		us	us
sw3657B-ms98-a-0025	B.52	207.898625	208.151875		[silence]	[silence]
sw3657B-ms98-a-0026	B.52	208.151875	208.442125		[silence]	[silence]
sw3657B-ms98-a-0026	B.52	208.442125	208.941875		So	so
sw3657B-ms98-a-0026	B.52	208.941875	209.251875		uh	uh
sw3657B-ms98-a-0026	B.52	209.251875	209.521875		I	i
sw3657B-ms98-a-0026	B.52	209.521875	209.741875		don't	don't
sw3657B-ms98-a-0026	B.52	209.741875	210.121875		mind	mind
sw3657B-ms98-a-0026	B.52	210.121875	210.311875		because	because_1
sw3657B-ms98-a-0026	B.52	210.311875	210.551875		seems	seems
sw3657B-ms98-a-0026	B.52	210.551875	210.781875		like	like
sw3657B-ms98-a-0026	B.52	210.781875	210.861875		the	the
sw3657B-ms98-a-0026	B.52	210.861875	211.101875		more	more
sw3657B-ms98-a-0026	B.52	211.101875	211.251875		we	we
sw3657B-ms98-a-0026	B.52	211.251875	211.501875		do	do
sw3657B-ms98-a-0026	B.52	211.501875	211.851875		there's	there's
sw3657B-ms98-a-0026	B.52	211.851875	212.091875		there's	there's
sw3657B-ms98-a-0026	B.52	212.091875	212.191875		the	the
sw3657B-ms98-a-0026	B.52	212.191875	212.431875		more	more
sw3657B-ms98-a-0026	B.52	212.431875	212.761875		stuff	stuff
sw3657B-ms98-a-0026	B.52	212.761875	213.041875		that's	that's
sw3657B-ms98-a-0026	B.52	213.041875	213.219125		uh	uh
sw3657B-ms98-a-0026	B.52	213.219125	213.599500		[silence]	[silence]
sw3657B-ms98-a-0026	B.52	213.599500	214.131875		available	available
sw3657B-ms98-a-0026	B.52	214.131875	214.231875		that	that
sw3657B-ms98-a-0026	B.52	214.231875	214.491875		comes	comes
sw3657B-ms98-a-0026	B.52	214.491875	214.841875		along	along
sw3657B-ms98-a-0026	B.52	214.841875	214.951875		and	and
sw3657B-ms98-a-0026	B.52	214.951875	215.131875		so	so
sw3657B-ms98-a-0026	B.52	215.131875	215.542375		forth	forth
sw3657B-ms98-a-0026	B.54	215.542375	215.928875		[silence]	[silence]
sw3657B-ms98-a-0027	B.54	215.928875	216.356125		[silence]	[silence]
sw3657B-ms98-a-0027	B.54	216.356125	217.016500		And	and
sw3657B-ms98-a-0027	B.56	217.016500	217.347000		[silence]	[silence]
sw3657B-ms98-a-0028	B.56	217.347000	217.586375		[silence]	[silence]
sw3657B-ms98-a-0028	B.56	217.586375	218.037000		So	so
sw3657B-ms98-a-0028	B.56	218.037000	218.428125		uh	uh
sw3657B-ms98-a-0028	B.56	218.428125	218.748250		[silence]	[silence]
sw3657B-ms98-a-0028	B.56	218.748250	219.087000		rather	rather
sw3657B-ms98-a-0028	B.56	219.087000	219.257000		than	than
sw3657B-ms98-a-0028	B.56	219.257000	219.567000		being	being
sw3657B-ms98-a-0028	B.56	219.567000	220.097000		niggardly	niggardly
sw3657B-ms98-a-0028	B.56	220.097000	220.232625	<SUB>	and	a[nd]-
sw3657B-ms98-a-0028	B.56	220.232625	220.592625		and	and
sw3657B-ms98-a-0028	B.56	220.592625	221.177000		chintzy	chintzy
sw3657B-ms98-a-0028	B.56	221.177000	221.517000		uh	uh
sw3657B-ms98-a-0028	B.56	221.517000	221.777000		we've	we've
sw3657B-ms98-a-0028	B.56	221.777000	222.067000		just	just
sw3657B-ms98-a-0028	B.56	222.067000	222.424500		said	said
sw3657B-ms98-a-0028	B.56	222.424500	222.763375		[silence]	[silence]
sw3657B-ms98-a-0028	B.56	222.763375	222.847000		you	you
sw3657B-ms98-a-0028	B.56	222.847000	223.107000		bet	bet
sw3657B-ms98-a-0028	B.56	223.107000	223.506250		boss	boss
sw3657B-ms98-a-0028	B.56	223.506250	223.847000		seeing	seeing
sw3657B-ms98-a-0028	B.56	223.847000	223.947000		as	as
sw3657B-ms98-a-0028	B.56	223.947000	224.117000	<DEL>	---	how
sw3657B-ms98-a-0028	B.56	224.117000	224.277000		he	he
sw3657B-ms98-a-0028	B.56	224.277000	224.417000		was	was
sw3657B-ms98-a-0028	B.56	224.417000	224.477000		the	the
sw3657B-ms98-a-0028	B.56	224.477000	224.717000		one	one
sw3657B-ms98-a-0028	B.56	224.717000	225.007000		that	that
sw3657B-ms98-a-0028	B.56	225.007000	225.145500		uh	uh
sw3657B-ms98-a-0028	B.58	225.145500	225.492125		[silence]	[silence]
sw3657B-ms98-a-0028	B.58	225.492125	225.957000		enabled	enabled
sw3657B-ms98-a-0028	B.58	225.957000	226.057000		us	us
sw3657B-ms98-a-0028	B.58	226.057000	226.177000		to	to
sw3657B-ms98-a-0028	B.58	226.177000	226.357000		get	get
sw3657B-ms98-a-0028	B.58	226.357000	226.437000		the	the
sw3657B-ms98-a-0028	B.58	226.437000	226.687000		money	money
sw3657B-ms98-a-0028	B.58	226.687000	226.797000		to	to
sw3657B-ms98-a-0028	B.58	226.797000	227.037000		buy	buy
sw3657B-ms98-a-0028	B.58	227.037000	227.117000		the	the
sw3657B-ms98-a-0028	B.58	227.117000	228.021625	<CONT>	Four	486
sw3657B-ms98-a-0028	B.58	228.021625	228.021625	<CONT>	Eighty-Six	+++
sw3657B-ms98-a-0028	B.60	228.021625	228.411750		[silence]	[silence]
sw3657B-ms98-a-0029	B.60	228.411750	228.756875		[silence]	[silence]
sw3657B-ms98-a-0029	B.60	228.756875	229.061750		Because	because_1
sw3657B-ms98-a-0029	B.60	229.061750	229.221750	<DEL>	---	the
sw3657B-ms98-a-0029	B.60	229.221750	229.411750		the	the
sw3657B-ms98-a-0029	B.60	229.411750	229.701750		top	top
sw3657B-ms98-a-0029	B.60	229.701750	229.771750		of	of
sw3657B-ms98-a-0029	B.60	229.771750	229.831750		the	the
sw3657B-ms98-a-0029	B.60	229.831750	230.051750		line	line
sw3657B-ms98-a-0029	B.60	230.051750	230.211750		we've	we've
sw3657B-ms98-a-0029	B.60	230.211750	230.421750		got	got
sw3657B-ms98-a-0029	B.60	230.421750	230.732375		well	well
sw3657B-ms98-a-0029	B.60	230.732375	231.021750		we've	we've
sw3657B-ms98-a-0029	B.60	231.021750	231.181750		got	got
sw3657B-ms98-a-0029	B.60	231.181750	231.221750		a	a
sw3657B-ms98-a-0029	B.60	231.221750	232.111750		compatible	compatible
sw3657B-ms98-a-0029	B.60	232.111750	232.495250	<SUB>	It	to
sw3657B-ms98-a-0029	B.60	232.495250	232.495250	<INS>	uh	---
sw3657B-ms98-a-0029	B.62	232.495250	232.988625		[silence]	[silence]
sw3657B-ms98-a-0029	B.62	232.988625	233.191750		Eight	eight
sw3657B-ms98-a-0029	B.62	233.191750	233.451750		meg	meg
sw3657B-ms98-a-0029	B.62	233.451750	233.541750		of	of
sw3657B-ms98-a-0029	B.62	233.541750	233.951750		ram	RAM
sw3657B-ms98-a-0029	B.62	233.951750	234.161750		and	and
sw3657B-ms98-a-0029	B.62	234.161750	234.321750		and	and
sw3657B-ms98-a-0029	B.62	234.321750	234.871750		two	two
sw3657B-ms98-a-0029	B.62	234.871750	235.071750		two	two
sw3657B-ms98-a-0029	B.62	235.071750	235.241750		two	two
sw3657B-ms98-a-0029	B.62	235.241750	235.451750		hundred	hundred
sw3657B-ms98-a-0029	B.62	235.451750	235.541750		and	and
sw3657B-ms98-a-0029	B.62	235.541750	235.841750		eleven	eleven
sw3657B-ms98-a-0029	B.62	235.841750	236.141750		hard	hard
sw3657B-ms98-a-0029	B.62	236.141750	236.651875		drives	drives
sw3657B-ms98-a-0029	B.64	236.651875	237.199000		[silence]	[silence]
sw3657B-ms98-a-0030	B.64	237.199000	240.390500		[silence]	[silence]
sw3657B-ms98-a-0031	B.64	240.390500	240.887875		[silence]	[silence]
sw3657B-ms98-a-0031	B.64	240.887875	241.430125		Uh-huh	uh-huh
sw3657B-ms98-a-0031	B.64	241.430125	241.650625		[silence]	[silence]
sw3657B-ms98-a-0031	B.64	241.650625	241.919500		uh-huh	uh-huh
sw3657B-ms98-a-0031	B.66	241.919500	242.389250		[silence]	[silence]
sw3657B-ms98-a-0032	B.66	242.389250	242.816875		[silence]	[silence]
sw3657B-ms98-a-0032	B.66	242.816875	243.006000	<DEL>	---	huh
sw3657B-ms98-a-0032	B.66	243.006000	243.257500		[silence]	[silence]
sw3657B-ms98-a-0032	B.66	243.257500	243.419250		Like	like
sw3657B-ms98-a-0032	B.66	243.419250	243.449250		I	i
sw3657B-ms98-a-0032	B.66	243.449250	243.689250		said	said
sw3657B-ms98-a-0032	B.68	243.689250	243.819250		we	we
sw3657B-ms98-a-0032	B.68	243.819250	244.059250		bought	bought
sw3657B-ms98-a-0032	B.68	244.059250	244.119250		a	a
sw3657B-ms98-a-0032	B.68	244.119250	244.309250		real	real
sw3657B-ms98-a-0032	B.68	244.309250	244.849250		steam	steam
sw3657B-ms98-a-0032	B.68	244.849250	245.209250		steam	steam
sw3657B-ms98-a-0032	B.68	245.209250	245.629750		burner	burner
sw3657B-ms98-a-0032	B.70	245.629750	246.068375		[silence]	[silence]
sw3657B-ms98-a-0033	B.70	246.068375	246.279625		[silence]	[silence]
sw3657B-ms98-a-0033	B.70	246.279625	246.508375		Uh	uh
sw3657B-ms98-a-0033	B.70	246.508375	247.018375		mainly	mainly
sw3657B-ms98-a-0033	B.70	247.018375	247.638375		because	because
sw3657B-ms98-a-0033	B.70	247.638375	247.958375		of	of
sw3657B-ms98-a-0033	B.70	247.958375	248.508375		spouse's	spouse's
sw3657B-ms98-a-0033	B.70	248.508375	249.076250		UNIX	Unix
sw3657B-ms98-a-0033	B.72	249.076250	249.302250		[silence]	[silence]
sw3657B-ms98-a-0033	B.72	249.302250	249.458375		because	because_1
sw3657B-ms98-a-0033	B.72	249.458375	250.064375		UNIX	Unix
sw3657B-ms98-a-0033	B.74	250.064375	250.415625		[silence]	[silence]
sw3657B-ms98-a-0034	B.74	250.415625	251.773125		[silence]	[silence]
sw3657B-ms98-a-0035	B.74	251.773125	252.222000		[silence]	[silence]
sw3657B-ms98-a-0035	B.74	252.222000	252.633125		takes	takes
sw3657B-ms98-a-0035	B.74	252.633125	252.977000	<SUB>	a	uh
sw3657B-ms98-a-0035	B.74	252.977000	253.161625		[silence]	[silence]
sw3657B-ms98-a-0035	B.74	253.161625	253.313125	<SUB>	a	uh
sw3657B-ms98-a-0035	B.74	253.313125	253.313125	<INS>	c-	---
sw3657B-ms98-a-0035	B.74	253.313125	253.313125	<INS>	a	---
sw3657B-ms98-a-0035	B.74	253.313125	253.639500		well	well
sw3657B-ms98-a-0035	B.74	253.639500	253.854250		[silence]	[silence]
sw3657B-ms98-a-0035	B.74	253.854250	254.063125		four	four
sw3657B-ms98-a-0035	B.74	254.063125	254.553125		megs	megs
sw3657B-ms98-a-0035	B.74	254.553125	255.270250		minimum	minimum
sw3657B-ms98-a-0035	B.76	255.270250	255.697125		[silence]	[silence]
sw3657B-ms98-a-0036	B.76	255.697125	256.261250		[silence]	[silence]
sw3657B-ms98-a-0036	B.76	256.261250	256.435125		of	of
sw3657B-ms98-a-0036	B.76	256.435125	256.763125		RAM	RAM
sw3657B-ms98-a-0036	B.76	256.763125	257.007125		and	and
sw3657B-ms98-a-0036	B.76	257.007125	257.287125		then	then
sw3657B-ms98-a-0036	B.76	257.287125	257.567125		uh	uh
sw3657B-ms98-a-0036	B.76	257.567125	257.837125		it	it
sw3657B-ms98-a-0036	B.76	257.837125	258.050250		it	it
sw3657B-ms98-a-0036	B.76	258.050250	258.287125		it	it
sw3657B-ms98-a-0036	B.76	258.287125	258.547125		likes	likes
sw3657B-ms98-a-0036	B.76	258.547125	258.677125		to	to
sw3657B-ms98-a-0036	B.76	258.677125	258.907125		live	live
sw3657B-ms98-a-0036	B.76	258.907125	259.047125		on	on
sw3657B-ms98-a-0036	B.76	259.047125	259.427125		about	about
sw3657B-ms98-a-0036	B.76	259.427125	259.457125		a	a
sw3657B-ms98-a-0036	B.76	259.457125	259.767125		hundred	hundred
sw3657B-ms98-a-0036	B.76	259.767125	259.877125		and	and
sw3657B-ms98-a-0036	B.76	259.877125	260.127125		fifty	fifty
sw3657B-ms98-a-0036	B.76	260.127125	260.627125		megabyte	megabyte
sw3657B-ms98-a-0036	B.76	260.627125	260.917125		hard	hard
sw3657B-ms98-a-0036	B.76	260.917125	261.337375		drive	drive
sw3657B-ms98-a-0036	B.78	261.337375	261.720875		[silence]	[silence]
sw3657B-ms98-a-0037	B.78	261.720875	262.089750		[silence]	[silence]
sw3657B-ms98-a-0037	B.78	262.089750	262.460875		So	so
sw3657B-ms98-a-0037	B.78	262.460875	262.600875		the	the
sw3657B-ms98-a-0037	B.78	262.600875	262.880875		next	next
sw3657B-ms98-a-0037	B.78	262.880875	263.190875		size	size
sw3657B-ms98-a-0037	B.78	263.190875	263.410875		up	up
sw3657B-ms98-a-0037	B.78	263.410875	263.540875		was	was
sw3657B-ms98-a-0037	B.78	263.540875	263.600875		a	a
sw3657B-ms98-a-0037	B.78	263.600875	263.860875		Two	two
sw3657B-ms98-a-0037	B.78	263.860875	264.120875		Hundred	hundred
sw3657B-ms98-a-0037	B.78	264.120875	264.210875		and	and
sw3657B-ms98-a-0037	B.78	264.210875	264.641750		Eleven	eleven
sw3657B-ms98-a-0037	B.78	264.641750	264.990875		and	and
sw3657B-ms98-a-0037	B.78	264.990875	265.292125		so	so
sw3657B-ms98-a-0037	B.78	265.292125	265.541125		[silence]	[silence]
sw3657B-ms98-a-0038	B.78	265.541125	265.891500		[silence]	[silence]
sw3657B-ms98-a-0038	B.78	265.891500	266.191125		rather	rather
sw3657B-ms98-a-0038	B.78	266.191125	266.361125		than	than
sw3657B-ms98-a-0038	B.78	266.361125	266.591125		just	just
sw3657B-ms98-a-0038	B.78	266.591125	266.841125		have	have
sw3657B-ms98-a-0038	B.78	266.841125	267.071125		one	one
sw3657B-ms98-a-0038	B.78	267.071125	267.249250		we	we
sw3657B-ms98-a-0038	B.78	267.249250	267.461125		went	went
sw3657B-ms98-a-0038	B.78	267.461125	267.671125		ahead	ahead
sw3657B-ms98-a-0038	B.78	267.671125	267.761125		and	and
sw3657B-ms98-a-0038	B.78	267.761125	268.001125		got	got
sw3657B-ms98-a-0038	B.78	268.001125	268.393375		two	two
sw3657B-ms98-a-0038	B.78	268.393375	268.615250		[silence]	[silence]
sw3657B-ms98-a-0039	B.78	268.615250	268.878000		[silence]	[silence]
sw3657B-ms98-a-0039	B.78	268.878000	269.475750		Uh	uh
sw3657B-ms98-a-0039	B.78	269.475750	269.695250		at	at
sw3657B-ms98-a-0039	B.78	269.695250	269.895250		some	some
sw3657B-ms98-a-0039	B.78	269.895250	270.155250		point	point
sw3657B-ms98-a-0039	B.78	270.155250	270.215250		in	in
sw3657B-ms98-a-0039	B.78	270.215250	270.525250		time	time
sw3657B-ms98-a-0039	B.78	270.525250	270.675250		I'm	i'm
sw3657B-ms98-a-0039	B.78	270.675250	270.845250		going	going
sw3657B-ms98-a-0039	B.78	270.845250	270.945250		to	to
sw3657B-ms98-a-0039	B.78	270.945250	271.105250		do	do
sw3657B-ms98-a-0039	B.78	271.105250	271.205250		the	the
sw3657B-ms98-a-0039	B.78	271.205250	271.983000		mirroring	mirroring
sw3657B-ms98-a-0039	B.78	271.983000	272.239125		[silence]	[silence]
sw3657B-ms98-a-0039	B.78	272.239125	272.652125		uh	uh
sw3657B-ms98-a-0039	B.78	272.652125	273.455250		experiment	experiment
sw3657B-ms98-a-0039	B.78	273.455250	273.595250		to	to
sw3657B-ms98-a-0039	B.78	273.595250	273.847875		where	where
sw3657B-ms98-a-0039	B.78	273.847875	274.101750		[silence]	[silence]
sw3657B-ms98-a-0040	B.78	274.101750	274.266250		[silence]	[silence]
sw3657B-ms98-a-0040	B.78	274.266250	274.681750		one	one
sw3657B-ms98-a-0040	B.78	274.681750	275.111750		disk	disc
sw3657B-ms98-a-0040	B.78	275.111750	275.524625		mirrors	mirrors
sw3657B-ms98-a-0040	B.78	275.524625	275.667750		the	the
sw3657B-ms98-a-0040	B.78	275.667750	275.991750		other	other
sw3657B-ms98-a-0040	B.78	275.991750	276.171750		for	for
sw3657B-ms98-a-0040	B.80	276.171750	276.481750		fault	fault
sw3657B-ms98-a-0040	B.80	276.481750	277.111250		tolerance	tolerance
sw3657B-ms98-a-0040	B.82	277.111250	277.947750		[silence]	[silence]
sw3657B-ms98-a-0041	B.82	277.947750	278.857125		[silence]	[silence]
sw3657B-ms98-a-0041	B.82	278.857125	279.317750		And	and
sw3657B-ms98-a-0041	B.82	279.317750	279.639250		uh	uh
sw3657B-ms98-a-0041	B.82	279.639250	279.805000		[silence]	[silence]
sw3657B-ms98-a-0041	B.82	279.805000	280.297750		oh	oh
sw3657B-ms98-a-0041	B.82	280.297750	280.994625		speak	speak
sw3657B-ms98-a-0041	B.82	280.994625	281.407750		speak	speak
sw3657B-ms98-a-0041	B.82	281.407750	281.507750		of	of
sw3657B-ms98-a-0041	B.82	281.507750	281.567750		the	the
sw3657B-ms98-a-0041	B.82	281.567750	282.007750		angel	angel
sw3657B-ms98-a-0041	B.82	282.007750	282.137750		she	she
sw3657B-ms98-a-0041	B.82	282.137750	282.347750		just	just
sw3657B-ms98-a-0041	B.82	282.347750	282.627750		walked	walked
sw3657B-ms98-a-0041	B.82	282.627750	282.901375		in	in
sw3657B-ms98-a-0041	B.84	282.901375	283.745875		[noise]	[noise]
sw3657B-ms98-a-0041	B.84	283.745875	284.002000		[silence]	[silence]
sw3657B-ms98-a-0041	B.84	284.002000	284.002000		<b_aside>	<b_aside>
sw3657B-ms98-a-0041	B.84	284.002000	284.227750	<DEL>	---	its
sw3657B-ms98-a-0041	B.84	284.227750	284.477750	<CONT>	T	TI
sw3657B-ms98-a-0041	B.84	284.477750	284.477750	<CONT>	I	+++
sw3657B-ms98-a-0041	B.84	284.477750	284.797750		stuff	stuff
sw3657B-ms98-a-0041	B.84	284.797750	284.797750		<e_aside>	<e_aside>
sw3657B-ms98-a-0041	B.84	284.797750	285.275750		[silence]	[silence]
sw3657B-ms98-a-0041	B.84	285.275750	285.737750		So	so
sw3657B-ms98-a-0041	B.84	285.737750	285.987000		uh	uh
sw3657B-ms98-a-0041	B.84	285.987000	286.530375		[silence]	[silence]
sw3657B-ms98-a-0041	B.84	286.530375	286.962750		uh	uh
sw3657B-ms98-a-0041	B.86	286.962750	287.671750		[silence]	[silence]
sw3657B-ms98-a-0042	B.86	287.671750	288.621750		[silence]	[silence]
sw3657B-ms98-a-0042	B.86	288.621750	288.851750		Yeah	yeah
sw3657B-ms98-a-0042	B.86	288.851750	289.291750		she's	she's
sw3657B-ms98-a-0042	B.86	289.291750	289.501750		she's	she's
sw3657B-ms98-a-0042	B.86	289.501750	289.551750		a	a
sw3657B-ms98-a-0042	B.86	289.551750	289.951750		squirrel	squirrel
sw3657B-ms98-a-0042	B.86	289.951750	290.381750		for	for
sw3657B-ms98-a-0042	B.86	290.381750	290.594125		uh	uh
sw3657B-ms98-a-0042	B.86	290.594125	290.978250		[silence]	[silence]
sw3657B-ms98-a-0042	B.86	290.978250	291.381750		uh	uh
sw3657B-ms98-a-0042	B.86	291.381750	291.981750		contractor	contractor
sw3657B-ms98-a-0042	B.86	291.981750	292.051750		out	out
sw3657B-ms98-a-0042	B.86	292.051750	292.111750		at	at
sw3657B-ms98-a-0042	B.86	292.111750	292.431750		American	American
sw3657B-ms98-a-0042	B.86	292.431750	293.029250		Airlines	Airlines
sw3657B-ms98-a-0042	B.88	293.029250	293.427125		[silence]	[silence]
sw3657B-ms98-a-0043	B.88	293.427125	293.954125		[silence]	[silence]
sw3657B-ms98-a-0043	B.88	293.954125	294.366875		So	so
sw3657B-ms98-a-0043	B.88	294.366875	294.979625		[silence]	[silence]
sw3657B-ms98-a-0044	B.88	294.979625	297.762625		[silence]	[silence]
sw3657B-ms98-a-0045	B.88	297.762625	298.298500		[silence]	[silence]
sw3657B-ms98-a-0045	B.88	298.298500	298.551500	<DEL>	---	right
sw3657B-ms98-a-0045	B.88	298.551500	298.562000		[silence]	[silence]
