sw3663A-ms98-a-0001	A.2	0.000000	0.050000		[silence]	[silence]
sw3663A-ms98-a-0001	A.2	0.050000	0.240000		[noise]	[noise]
sw3663A-ms98-a-0001	A.2	0.240000	0.482500		[silence]	[silence]
sw3663A-ms98-a-0002	A.2	0.482500	0.495000		[silence]	[silence]
sw3663A-ms98-a-0002	A.2	0.495000	1.102500		[noise]	[noise]
sw3663A-ms98-a-0002	A.2	1.102500	1.598750		Yeah	yeah
sw3663A-ms98-a-0002	A.4	1.598750	2.142875		[silence]	[silence]
sw3663A-ms98-a-0003	A.4	2.142875	2.711750		[silence]	[silence]
sw3663A-ms98-a-0003	A.4	2.711750	3.016875	<DEL>	---	oh
sw3663A-ms98-a-0003	A.4	3.016875	3.515875		[silence]	[silence]
sw3663A-ms98-a-0004	A.4	3.515875	10.177125		[silence]	[silence]
sw3663A-ms98-a-0005	A.4	10.177125	10.917125		[silence]	[silence]
sw3663A-ms98-a-0005	A.4	10.917125	11.287125		Yeah	yeah
sw3663A-ms98-a-0005	A.4	11.287125	11.517125		we	we
sw3663A-ms98-a-0005	A.4	11.517125	11.957125		have	have
sw3663A-ms98-a-0005	A.4	11.957125	12.432750	<SUB>	uh	um
sw3663A-ms98-a-0005	A.4	12.432750	12.617125		in	in
sw3663A-ms98-a-0005	A.4	12.617125	13.451625		California	California
sw3663A-ms98-a-0005	A.4	13.451625	13.617125		I'm	i'm
sw3663A-ms98-a-0005	A.4	13.617125	13.737125		in	in
sw3663A-ms98-a-0005	A.4	13.737125	13.880250		c-	c[entral]-
sw3663A-ms98-a-0005	A.4	13.880250	14.057125		I	i
sw3663A-ms98-a-0005	A.4	14.057125	14.327125		lived	lived
sw3663A-ms98-a-0005	A.4	14.327125	14.437125		in	in
sw3663A-ms98-a-0005	A.4	14.437125	14.747125		central	central
sw3663A-ms98-a-0005	A.4	14.747125	15.317125		California	California
sw3663A-ms98-a-0005	A.4	15.317125	15.417125		We	we
sw3663A-ms98-a-0005	A.4	15.417125	15.597125		have	have
sw3663A-ms98-a-0005	A.4	15.597125	16.064375		rain	rain
sw3663A-ms98-a-0005	A.4	16.064375	16.307125		couple	couple
sw3663A-ms98-a-0005	A.4	16.307125	16.647125		times	times
sw3663A-ms98-a-0005	A.4	16.647125	16.677125		a	a
sw3663A-ms98-a-0005	A.4	16.677125	17.122875		year	year
sw3663A-ms98-a-0005	A.4	17.122875	17.717875		[silence]	[silence]
sw3663A-ms98-a-0005	A.4	17.717875	18.057125		and	and
sw3663A-ms98-a-0005	A.4	18.057125	18.187125		other	other
sw3663A-ms98-a-0005	A.4	18.187125	18.367125		than	than
sw3663A-ms98-a-0005	A.4	18.367125	18.684375		that	that
sw3663A-ms98-a-0005	A.4	18.684375	19.019625		[silence]	[silence]
sw3663A-ms98-a-0005	A.4	19.019625	19.097125		you	you
sw3663A-ms98-a-0005	A.4	19.097125	19.187125		know	know
sw3663A-ms98-a-0005	A.4	19.187125	19.327125	<CONT>	it	it'd
sw3663A-ms98-a-0005	A.4	19.327125	19.327125	<CONT>	would	+++
sw3663A-ms98-a-0005	A.4	19.327125	19.447125		be	be
sw3663A-ms98-a-0005	A.4	19.447125	19.787125		maybe	maybe
sw3663A-ms98-a-0005	A.4	19.787125	20.409375		October	October
sw3663A-ms98-a-0005	A.4	20.409375	20.872625		[silence]	[silence]
sw3663A-ms98-a-0005	A.4	20.872625	21.037125		and	and
sw3663A-ms98-a-0005	A.4	21.037125	21.157125		then	then
sw3663A-ms98-a-0005	A.4	21.157125	21.237125		in	in
sw3663A-ms98-a-0005	A.4	21.237125	21.317125		the	the
sw3663A-ms98-a-0005	A.4	21.317125	21.856125		spring	spring
sw3663A-ms98-a-0005	A.4	21.856125	22.048125		[silence]	[silence]
sw3663A-ms98-a-0005	A.4	22.048125	22.277125		and	and
sw3663A-ms98-a-0005	A.4	22.277125	22.527125		then	then
sw3663A-ms98-a-0005	A.4	22.527125	22.667125		other	other
sw3663A-ms98-a-0005	A.4	22.667125	22.837125		than	than
sw3663A-ms98-a-0005	A.4	22.837125	23.087125		that	that
sw3663A-ms98-a-0005	A.4	23.087125	23.197125		there	there
sw3663A-ms98-a-0005	A.4	23.197125	23.427125		wouldn't	wouldn't
sw3663A-ms98-a-0005	A.4	23.427125	23.527125		be	be
sw3663A-ms98-a-0005	A.4	23.527125	23.687125		any	any
sw3663A-ms98-a-0005	A.4	23.687125	24.017125		rain	rain
sw3663A-ms98-a-0005	A.6	24.017125	24.509375		[silence]	[silence]
sw3663A-ms98-a-0006	A.6	24.509375	24.909375		[silence]	[silence]
sw3663A-ms98-a-0006	A.6	24.909375	25.309375		So	so
sw3663A-ms98-a-0006	A.8	25.309375	25.987250		[silence]	[silence]
sw3663A-ms98-a-0007	A.8	25.987250	26.687375		[silence]	[silence]
sw3663A-ms98-a-0007	A.8	26.687375	27.183375		Yeah	yeah
sw3663A-ms98-a-0007	A.8	27.183375	27.719875		[silence]	[silence]
sw3663A-ms98-a-0007	A.8	27.719875	28.291125		yeah	yeah
sw3663A-ms98-a-0007	A.10	28.291125	29.071625		[silence]	[silence]
sw3663A-ms98-a-0008	A.10	29.071625	29.776375		[silence]	[silence]
sw3663A-ms98-a-0008	A.10	29.776375	30.311625		Yeah	yeah
sw3663A-ms98-a-0008	A.10	30.311625	30.461625		there	there
sw3663A-ms98-a-0008	A.10	30.461625	31.029750		has	has
sw3663A-ms98-a-0008	A.10	31.029750	31.506500		[silence]	[silence]
sw3663A-ms98-a-0009	A.10	31.506500	32.046500		[silence]	[silence]
sw3663A-ms98-a-0009	A.10	32.046500	32.286500		So	so
sw3663A-ms98-a-0009	A.10	32.286500	32.866500		here	here
sw3663A-ms98-a-0009	A.10	32.866500	32.976500		I	i
sw3663A-ms98-a-0009	A.10	32.976500	33.206500		know	know
sw3663A-ms98-a-0009	A.10	33.206500	33.666500		that	that
sw3663A-ms98-a-0009	A.10	33.666500	34.302625	<SUB>	uh	um
sw3663A-ms98-a-0009	A.10	34.302625	34.686500		last	last
sw3663A-ms98-a-0009	A.10	34.686500	34.806500		year	year
sw3663A-ms98-a-0009	A.10	34.806500	34.916500		there	there
sw3663A-ms98-a-0009	A.10	34.916500	35.046500		was	was
sw3663A-ms98-a-0009	A.10	35.046500	35.206500		some	some
sw3663A-ms98-a-0009	A.10	35.206500	35.396500		ice	ice
sw3663A-ms98-a-0009	A.10	35.396500	35.806500		storms	storms
sw3663A-ms98-a-0009	A.10	35.806500	35.956500		while	while
sw3663A-ms98-a-0009	A.10	35.956500	36.046500		I	i
sw3663A-ms98-a-0009	A.10	36.046500	36.226500		was	was
sw3663A-ms98-a-0009	A.10	36.226500	36.366500		out	out
sw3663A-ms98-a-0009	A.10	36.366500	36.446500		of	of
sw3663A-ms98-a-0009	A.10	36.446500	36.526500		the	the
sw3663A-ms98-a-0009	A.10	36.526500	37.164250		state	state
sw3663A-ms98-a-0009	A.10	37.164250	37.367625		[silence]	[silence]
sw3663A-ms98-a-0009	A.10	37.367625	37.796500		and	and
sw3663A-ms98-a-0009	A.10	37.796500	37.926500		I'm	i'm
sw3663A-ms98-a-0009	A.10	37.926500	38.156500		glad	glad
sw3663A-ms98-a-0009	A.10	38.156500	38.226500		to	to
sw3663A-ms98-a-0009	A.10	38.226500	38.386500		see	see
sw3663A-ms98-a-0009	A.10	38.386500	38.516500		there	there
sw3663A-ms98-a-0009	A.10	38.516500	38.726500		haven't	haven't
sw3663A-ms98-a-0009	A.10	38.726500	38.856500		been	been
sw3663A-ms98-a-0009	A.10	38.856500	39.066500		any	any
sw3663A-ms98-a-0009	A.10	39.066500	39.316500		this	this
sw3663A-ms98-a-0009	A.10	39.316500	39.571500		year	year
sw3663A-ms98-a-0009	A.12	39.571500	39.990250		[silence]	[silence]
sw3663A-ms98-a-0010	A.12	39.990250	40.450250		[silence]	[silence]
sw3663A-ms98-a-0010	A.12	40.450250	40.736750		Yeah	yeah
sw3663A-ms98-a-0010	A.12	40.736750	41.678375		yet	[laughter-yet]
sw3663A-ms98-a-0010	A.12	41.678375	41.860250		Still	still
sw3663A-ms98-a-0010	A.12	41.860250	42.050250		could	could
sw3663A-ms98-a-0010	A.12	42.050250	42.370250		come	come
sw3663A-ms98-a-0010	A.12	42.370250	43.266625		huh	[laughter-huh]
sw3663A-ms98-a-0010	A.14	43.266625	43.717125		[silence]	[silence]
sw3663A-ms98-a-0011	A.14	43.717125	48.141375		[silence]	[silence]
sw3663A-ms98-a-0012	A.14	48.141375	48.611375		[silence]	[silence]
sw3663A-ms98-a-0012	A.14	48.611375	49.136250		Uh-huh	uh-huh
sw3663A-ms98-a-0012	A.16	49.136250	49.586125		[silence]	[silence]
sw3663A-ms98-a-0013	A.16	49.586125	52.629625		[silence]	[silence]
sw3663A-ms98-a-0014	A.16	52.629625	53.100375		[silence]	[silence]
sw3663A-ms98-a-0014	A.16	53.100375	53.558125		Yeah	yeah
sw3663A-ms98-a-0014	A.18	53.558125	54.008000		[silence]	[silence]
sw3663A-ms98-a-0015	A.18	54.008000	58.729625		[silence]	[silence]
sw3663A-ms98-a-0016	A.18	58.729625	59.209625		[silence]	[silence]
sw3663A-ms98-a-0016	A.18	59.209625	59.549125	<SUB>	Um	hm
sw3663A-ms98-a-0016	A.20	59.549125	59.984125		[silence]	[silence]
sw3663A-ms98-a-0017	A.20	59.984125	67.305125		[silence]	[silence]
sw3663A-ms98-a-0018	A.20	67.305125	67.785125		[silence]	[silence]
sw3663A-ms98-a-0018	A.20	67.785125	68.211250		Yeah	yeah
sw3663A-ms98-a-0018	A.20	68.211250	68.464750		[silence]	[silence]
sw3663A-ms98-a-0018	A.20	68.464750	68.615125		yeah	yeah
sw3663A-ms98-a-0018	A.20	68.615125	68.775125		it's	it's
sw3663A-ms98-a-0018	A.20	68.775125	69.205125		so	so
sw3663A-ms98-a-0018	A.20	69.205125	69.435125		hard	hard
sw3663A-ms98-a-0018	A.20	69.435125	69.515125		to	to
sw3663A-ms98-a-0018	A.20	69.515125	69.975125		predict	predict
sw3663A-ms98-a-0018	A.20	69.975125	70.440000		here	here
sw3663A-ms98-a-0018	A.22	70.440000	70.825000		[silence]	[silence]
sw3663A-ms98-a-0019	A.22	70.825000	71.880000		[silence]	[silence]
sw3663A-ms98-a-0020	A.22	71.880000	72.370000		[silence]	[silence]
sw3663A-ms98-a-0020	A.22	72.370000	73.009375		Yeah	yeah
sw3663A-ms98-a-0020	A.24	73.009375	73.344625		[silence]	[silence]
sw3663A-ms98-a-0020	A.24	73.344625	73.590000		Well	well
sw3663A-ms98-a-0020	A.24	73.590000	74.000000		today	today
sw3663A-ms98-a-0020	A.24	74.000000	74.230000		it's	it's
sw3663A-ms98-a-0020	A.24	74.230000	74.430000		not	not
sw3663A-ms98-a-0020	A.24	74.430000	74.730000		bad	bad
sw3663A-ms98-a-0020	A.24	74.730000	74.930000		out	out
sw3663A-ms98-a-0020	A.24	74.930000	75.822250		there	there
sw3663A-ms98-a-0020	A.26	75.822250	76.508625		[silence]	[silence]
sw3663A-ms98-a-0021	A.26	76.508625	77.423125		[silence]	[silence]
sw3663A-ms98-a-0021	A.26	77.423125	77.872750	<SUB>	Uh-huh	um-hum
sw3663A-ms98-a-0021	A.28	77.872750	78.334125		[silence]	[silence]
sw3663A-ms98-a-0022	A.28	78.334125	80.559125		[silence]	[silence]
sw3663A-ms98-a-0023	A.28	80.559125	81.039125		[silence]	[silence]
sw3663A-ms98-a-0023	A.28	81.039125	81.579625		Yeah	yeah
sw3663A-ms98-a-0023	A.30	81.579625	82.315625		[silence]	[silence]
sw3663A-ms98-a-0024	A.30	82.315625	83.165625		[silence]	[silence]
sw3663A-ms98-a-0024	A.30	83.165625	83.645625		Yeah	yeah
sw3663A-ms98-a-0024	A.32	83.645625	83.967250		[silence]	[silence]
sw3663A-ms98-a-0025	A.32	83.967250	90.770250		[silence]	[silence]
sw3663A-ms98-a-0026	A.32	90.770250	91.250250		[silence]	[silence]
sw3663A-ms98-a-0026	A.32	91.250250	91.877875		Uh-huh	uh-huh
sw3663A-ms98-a-0026	A.34	91.877875	92.365375		[silence]	[silence]
sw3663A-ms98-a-0027	A.34	92.365375	94.167000		[silence]	[silence]
sw3663A-ms98-a-0028	A.34	94.167000	94.647000		[silence]	[silence]
sw3663A-ms98-a-0028	A.34	94.647000	94.947000		Yeah	yeah
sw3663A-ms98-a-0028	A.34	94.947000	95.087000		So	so
sw3663A-ms98-a-0028	A.34	95.087000	95.207000		you	you
sw3663A-ms98-a-0028	A.34	95.207000	95.317000		do	do
sw3663A-ms98-a-0028	A.34	95.317000	95.517000		that	that
sw3663A-ms98-a-0028	A.34	95.517000	95.727000		even	even
sw3663A-ms98-a-0028	A.34	95.727000	95.847000		in	in
sw3663A-ms98-a-0028	A.34	95.847000	96.407000		January	January
sw3663A-ms98-a-0028	A.34	96.407000	96.606250		huh	huh
sw3663A-ms98-a-0028	A.36	96.606250	97.363250		[silence]	[silence]
sw3663A-ms98-a-0028	A.36	97.363250	97.860625		Uh-huh	uh-huh
sw3663A-ms98-a-0028	A.38	97.860625	98.229625		[silence]	[silence]
sw3663A-ms98-a-0029	A.38	98.229625	99.774375		[silence]	[silence]
sw3663A-ms98-a-0030	A.38	99.774375	100.225250		[silence]	[silence]
sw3663A-ms98-a-0030	A.38	100.225250	100.743375		Yeah	yeah
sw3663A-ms98-a-0030	A.38	100.743375	101.365875		[silence]	[silence]
sw3663A-ms98-a-0030	A.38	101.365875	101.514375		oh	oh
sw3663A-ms98-a-0030	A.38	101.514375	101.824375		that's	that's
sw3663A-ms98-a-0030	A.40	101.824375	102.344375		interesting	interesting
sw3663A-ms98-a-0030	A.42	102.344375	102.803375		[silence]	[silence]
sw3663A-ms98-a-0031	A.42	102.803375	105.443000		[silence]	[silence]
sw3663A-ms98-a-0032	A.42	105.443000	105.922750		[silence]	[silence]
sw3663A-ms98-a-0032	A.42	105.922750	106.340750	<SUB>	Uh-huh	um-hum
sw3663A-ms98-a-0032	A.44	106.340750	106.798375		[silence]	[silence]
sw3663A-ms98-a-0033	A.44	106.798375	109.434125		[silence]	[silence]
sw3663A-ms98-a-0034	A.44	109.434125	109.934125		[silence]	[silence]
sw3663A-ms98-a-0034	A.44	109.934125	110.324125		Yeah	yeah
sw3663A-ms98-a-0034	A.44	110.324125	110.597250	<SUB>	I	yep
sw3663A-ms98-a-0034	A.44	110.597250	110.597250	<INS>	have	---
sw3663A-ms98-a-0034	A.44	110.597250	110.928750		[silence]	[silence]
sw3663A-ms98-a-0034	A.44	110.928750	111.610500		and	and
sw3663A-ms98-a-0034	A.44	111.610500	112.017375		[silence]	[silence]
sw3663A-ms98-a-0034	A.44	112.017375	112.224125		they're	they're
sw3663A-ms98-a-0034	A.44	112.224125	112.514125		not	not
sw3663A-ms98-a-0034	A.44	112.514125	112.614125		too	too
sw3663A-ms98-a-0034	A.44	112.614125	113.050375		pleasant	pleasant
sw3663A-ms98-a-0034	A.46	113.050375	114.170000		[laughter]	[laughter]
sw3663A-ms98-a-0034	A.46	114.170000	114.344125		It	it
sw3663A-ms98-a-0034	A.46	114.344125	114.574125		gets	gets
sw3663A-ms98-a-0034	A.46	114.574125	115.054125		so	so
sw3663A-ms98-a-0034	A.46	115.054125	115.614125		humid	humid
sw3663A-ms98-a-0034	A.46	115.614125	115.754125		To	to
sw3663A-ms98-a-0034	A.46	115.754125	115.894125		me	me
sw3663A-ms98-a-0034	A.46	115.894125	116.064125		it's	it's
sw3663A-ms98-a-0034	A.46	116.064125	116.364125		humid	humid
sw3663A-ms98-a-0034	A.46	116.364125	116.674125		here	here
sw3663A-ms98-a-0034	A.46	116.674125	117.044125		People	people
sw3663A-ms98-a-0034	A.46	117.044125	117.257500		that	that
sw3663A-ms98-a-0034	A.46	117.257500	117.547625		[silence]	[silence]
sw3663A-ms98-a-0034	A.46	117.547625	117.754125		I	i
sw3663A-ms98-a-0034	A.46	117.754125	117.974125		know	know
sw3663A-ms98-a-0034	A.46	117.974125	118.194000		that	that
sw3663A-ms98-a-0034	A.48	118.194000	118.514125		[silence]	[silence]
sw3663A-ms98-a-0034	A.48	118.514125	118.734125		come	come
sw3663A-ms98-a-0034	A.48	118.734125	119.204750		from	from
sw3663A-ms98-a-0034	A.48	119.204750	119.688500	<SUB>	uh	um
sw3663A-ms98-a-0034	A.48	119.688500	119.894125		like	like
sw3663A-ms98-a-0034	A.48	119.894125	120.354125		Georgia	Georgia
sw3663A-ms98-a-0034	A.48	120.354125	120.706875		or	or
sw3663A-ms98-a-0034	A.50	120.706875	121.015750		[silence]	[silence]
sw3663A-ms98-a-0034	A.50	121.015750	121.234125		North	North
sw3663A-ms98-a-0034	A.50	121.234125	121.714125		Carolina	Carolina
sw3663A-ms98-a-0034	A.52	121.714125	122.024125		Yeah	yeah
sw3663A-ms98-a-0034	A.52	122.024125	122.154125		they	they
sw3663A-ms98-a-0034	A.52	122.154125	122.264125		say	say
sw3663A-ms98-a-0034	A.52	122.264125	122.404125	<SUB>	it's	this
sw3663A-ms98-a-0034	A.54	122.404125	122.894125	<DEL>	---	isn't
sw3663A-ms98-a-0034	A.54	122.894125	123.226375	<DEL>	---	humid
sw3663A-ms98-a-0034	A.54	123.226375	123.631625		[silence]	[silence]
sw3663A-ms98-a-0035	A.54	123.631625	124.021000		[silence]	[silence]
sw3663A-ms98-a-0035	A.54	124.021000	124.486125		Yeah	yeah
sw3663A-ms98-a-0035	A.56	124.486125	125.350625		[silence]	[silence]
sw3663A-ms98-a-0035	A.56	125.350625	125.531625		But	but
sw3663A-ms98-a-0035	A.56	125.531625	125.611625		I	i
sw3663A-ms98-a-0035	A.56	125.611625	126.021625		find	find
sw3663A-ms98-a-0035	A.56	126.021625	126.171625		it	it
sw3663A-ms98-a-0035	A.58	126.171625	126.651000	<DEL>	---	humid
sw3663A-ms98-a-0035	A.58	126.651000	127.061625		[silence]	[silence]
sw3663A-ms98-a-0036	A.58	127.061625	128.262125		[silence]	[silence]
sw3663A-ms98-a-0037	A.58	128.262125	128.742125		[silence]	[silence]
sw3663A-ms98-a-0037	A.58	128.742125	129.222125		Right	right
sw3663A-ms98-a-0037	A.60	129.222125	129.706375		[silence]	[silence]
sw3663A-ms98-a-0038	A.60	129.706375	130.211625		[silence]	[silence]
sw3663A-ms98-a-0038	A.60	130.211625	130.551750	<DEL>	---	yeah
sw3663A-ms98-a-0038	A.60	130.551750	131.131375		[silence]	[silence]
sw3663A-ms98-a-0039	A.60	131.131375	131.721375		[silence]	[silence]
sw3663A-ms98-a-0039	A.60	131.721375	131.811375		I	i
sw3663A-ms98-a-0039	A.60	131.811375	132.011375		was	was
sw3663A-ms98-a-0039	A.60	132.011375	132.411375		central	central
sw3663A-ms98-a-0039	A.60	132.411375	133.172625		California	California
sw3663A-ms98-a-0039	A.62	133.172625	133.507875		[silence]	[silence]
sw3663A-ms98-a-0039	A.62	133.507875	133.811375		Central	Central
sw3663A-ms98-a-0039	A.62	133.811375	134.251000		valley	Valley
sw3663A-ms98-a-0039	A.64	134.251000	134.503375		[silence]	[silence]
sw3663A-ms98-a-0039	A.64	134.503375	134.503375	<DEL>	---	so
sw3663A-ms98-a-0039	A.64	134.503375	134.692625	<SUB>	It's	-[i]t's
sw3663A-ms98-a-0039	A.64	134.692625	134.835750		[silence]	[silence]
sw3663A-ms98-a-0039	A.64	134.835750	135.191375		very	very
sw3663A-ms98-a-0039	A.64	135.191375	135.461375		dry	dry
sw3663A-ms98-a-0039	A.64	135.461375	135.797250		there	there
sw3663A-ms98-a-0039	A.66	135.797250	136.260250		[silence]	[silence]
sw3663A-ms98-a-0040	A.66	136.260250	138.012000		[silence]	[silence]
sw3663A-ms98-a-0041	A.66	138.012000	138.512000		[silence]	[silence]
sw3663A-ms98-a-0041	A.66	138.512000	138.870625		Yeah	yeah
sw3663A-ms98-a-0041	A.68	138.870625	139.414500		[silence]	[silence]
sw3663A-ms98-a-0041	A.68	139.414500	139.899375		Yeah	yeah
sw3663A-ms98-a-0041	A.70	139.899375	140.693625		[silence]	[silence]
sw3663A-ms98-a-0042	A.70	140.693625	141.610375		[silence]	[silence]
sw3663A-ms98-a-0042	A.70	141.610375	141.783625		Well	well
sw3663A-ms98-a-0042	A.70	141.783625	141.923625		it's	it's
sw3663A-ms98-a-0042	A.70	141.923625	142.223625		pretty	pretty
sw3663A-ms98-a-0042	A.70	142.223625	142.503625		hot	hot
sw3663A-ms98-a-0042	A.70	142.503625	142.563625		in	in
sw3663A-ms98-a-0042	A.70	142.563625	142.623625		the	the
sw3663A-ms98-a-0042	A.70	142.623625	142.993625		summer	summer
sw3663A-ms98-a-0042	A.70	142.993625	143.203625		It's	it's
sw3663A-ms98-a-0042	A.70	143.203625	143.323625		in	in
sw3663A-ms98-a-0042	A.70	143.323625	143.622875		the	the
sw3663A-ms98-a-0042	A.70	143.622875	144.391375		usually	usually
sw3663A-ms98-a-0042	A.70	144.391375	144.632500		[silence]	[silence]
sw3663A-ms98-a-0042	A.70	144.632500	144.723625		you	you
sw3663A-ms98-a-0042	A.70	144.723625	144.853625		know	know
sw3663A-ms98-a-0042	A.70	144.853625	145.291500		for	for
sw3663A-ms98-a-0042	A.70	145.291500	145.291500	<INS>	a	---
sw3663A-ms98-a-0042	A.70	145.291500	145.593875		[silence]	[silence]
sw3663A-ms98-a-0042	A.70	145.593875	145.903625		good	good
sw3663A-ms98-a-0042	A.70	145.903625	146.453625		[silence]	[silence]
sw3663A-ms98-a-0042	A.70	146.453625	146.833625		three	three
sw3663A-ms98-a-0042	A.70	146.833625	147.123625		four	four
sw3663A-ms98-a-0042	A.70	147.123625	147.493625		weeks	weeks
sw3663A-ms98-a-0042	A.70	147.493625	147.603625		we	we
sw3663A-ms98-a-0042	A.70	147.603625	147.972000		have	have
sw3663A-ms98-a-0042	A.70	147.972000	148.243625		over	over
sw3663A-ms98-a-0042	A.70	148.243625	148.303625		a	a
sw3663A-ms98-a-0042	A.70	148.303625	148.673625		hundred	hundred
sw3663A-ms98-a-0042	A.70	148.673625	149.303625		[silence]	[silence]
sw3663A-ms98-a-0042	A.70	149.303625	149.936750		degrees	degrees
sw3663A-ms98-a-0042	A.72	149.936750	150.741375		[silence]	[silence]
sw3663A-ms98-a-0042	A.72	150.741375	150.824250		But	but
sw3663A-ms98-a-0042	A.72	150.824250	150.983625		it's	it's
sw3663A-ms98-a-0042	A.72	150.983625	151.053625		a	a
sw3663A-ms98-a-0042	A.72	151.053625	151.303625		dry	dry
sw3663A-ms98-a-0042	A.72	151.303625	151.693625		heat	heat
sw3663A-ms98-a-0042	A.72	151.693625	152.026125		yeah	yeah
sw3663A-ms98-a-0042	A.74	152.026125	152.488625		[silence]	[silence]
sw3663A-ms98-a-0043	A.74	152.488625	154.793875		[silence]	[silence]
sw3663A-ms98-a-0044	A.74	154.793875	155.224500		[silence]	[silence]
sw3663A-ms98-a-0044	A.74	155.224500	156.030875		Uh-huh	uh-huh
sw3663A-ms98-a-0044	A.74	156.030875	156.527500		[silence]	[silence]
sw3663A-ms98-a-0044	A.74	156.527500	157.078000		yeah	yeah
sw3663A-ms98-a-0044	A.74	157.078000	157.574125		[silence]	[silence]
sw3663A-ms98-a-0044	A.74	157.574125	157.913875		I	i
sw3663A-ms98-a-0044	A.74	157.913875	158.143875		know	know
sw3663A-ms98-a-0044	A.74	158.143875	158.536500	<DEL>	---	huh
sw3663A-ms98-a-0044	A.74	158.536500	158.958375		[silence]	[silence]
sw3663A-ms98-a-0044	A.74	158.958375	159.083875		Well	well
sw3663A-ms98-a-0044	A.74	159.083875	159.123875		I	i
sw3663A-ms98-a-0044	A.74	159.123875	159.433875		lived	lived
sw3663A-ms98-a-0044	A.74	159.433875	159.643875		in	in
sw3663A-ms98-a-0044	A.74	159.643875	160.223875		Africa	Africa
sw3663A-ms98-a-0044	A.74	160.223875	160.383875		for	for
sw3663A-ms98-a-0044	A.74	160.383875	160.423875		a	a
sw3663A-ms98-a-0044	A.74	160.423875	160.693875		couple	couple
sw3663A-ms98-a-0044	A.74	160.693875	161.133875		years	years
sw3663A-ms98-a-0044	A.74	161.133875	161.364500		in	in
sw3663A-ms98-a-0044	A.76	161.364500	161.873750		[silence]	[silence]
sw3663A-ms98-a-0045	A.76	161.873750	162.343750		[silence]	[silence]
sw3663A-ms98-a-0045	A.76	162.343750	163.003750		Cameroon	Cameroon
sw3663A-ms98-a-0045	A.76	163.003750	163.133750		and	and
sw3663A-ms98-a-0045	A.76	163.133750	163.333750		that's	that's
sw3663A-ms98-a-0045	A.76	163.333750	163.383750		a	a
sw3663A-ms98-a-0045	A.76	163.383750	163.873750		tropical	tropical
sw3663A-ms98-a-0045	A.76	163.873750	164.373750		climate	climate
sw3663A-ms98-a-0045	A.76	164.373750	164.648750		and	and
sw3663A-ms98-a-0045	A.76	164.648750	164.919875		[silence]	[silence]
sw3663A-ms98-a-0045	A.76	164.919875	165.043750		it	it
sw3663A-ms98-a-0045	A.76	165.043750	165.223750		really	really
sw3663A-ms98-a-0045	A.76	165.223750	165.453750		feels	feels
sw3663A-ms98-a-0045	A.76	165.453750	165.843750		similar	similar
sw3663A-ms98-a-0045	A.76	165.843750	165.973750		to	to
sw3663A-ms98-a-0045	A.76	165.973750	166.617625		this	this
sw3663A-ms98-a-0045	A.78	166.617625	166.847375		[silence]	[silence]
sw3663A-ms98-a-0045	A.78	166.847375	167.043750		during	during
sw3663A-ms98-a-0045	A.78	167.043750	167.123750		the	the
sw3663A-ms98-a-0045	A.78	167.123750	167.584625		summer	summer
sw3663A-ms98-a-0045	A.80	167.584625	168.047750		[silence]	[silence]
sw3663A-ms98-a-0046	A.80	168.047750	171.869250		[silence]	[silence]
sw3663A-ms98-a-0047	A.80	171.869250	172.344750		[silence]	[silence]
sw3663A-ms98-a-0047	A.80	172.344750	172.599250		No	no
sw3663A-ms98-a-0047	A.80	172.599250	172.719250		I	i
sw3663A-ms98-a-0047	A.80	172.719250	172.949250		was	was
sw3663A-ms98-a-0047	A.80	172.949250	173.209250	<SUB>	uh	um
sw3663A-ms98-a-0047	A.80	173.209250	173.678750		working	working
sw3663A-ms98-a-0047	A.80	173.678750	173.852000		[silence]	[silence]
sw3663A-ms98-a-0047	A.80	173.852000	174.149250		with	with
sw3663A-ms98-a-0047	A.80	174.149250	174.491125	<SUB>	uh	um
sw3663A-ms98-a-0047	A.80	174.491125	174.589250		I	i
sw3663A-ms98-a-0047	A.80	174.589250	174.889250		still	still
sw3663A-ms98-a-0047	A.80	174.889250	175.109250		work	work
sw3663A-ms98-a-0047	A.80	175.109250	175.289250		with	with
sw3663A-ms98-a-0047	A.80	175.289250	175.579250		Wycliff	Wycliffe
sw3663A-ms98-a-0047	A.80	175.579250	175.889250		Bible	Bible
sw3663A-ms98-a-0047	A.80	175.889250	176.712875		Translators	Translators
sw3663A-ms98-a-0047	A.82	176.712875	177.198750		[silence]	[silence]
sw3663A-ms98-a-0048	A.82	177.198750	177.698750		[silence]	[silence]
sw3663A-ms98-a-0048	A.82	177.698750	177.868750		It's	it's
sw3663A-ms98-a-0048	A.82	177.868750	177.948750		an	an
sw3663A-ms98-a-0048	A.82	177.948750	178.658750		organization	organization
sw3663A-ms98-a-0048	A.82	178.658750	178.808750		where	where
sw3663A-ms98-a-0048	A.82	178.808750	179.101250		we	we
sw3663A-ms98-a-0048	A.82	179.101250	179.402625		[silence]	[silence]
sw3663A-ms98-a-0048	A.82	179.402625	179.568750		are	are
sw3663A-ms98-a-0048	A.82	179.568750	179.888750		looking	looking
sw3663A-ms98-a-0048	A.82	179.888750	180.114875		to	to
sw3663A-ms98-a-0048	A.82	180.114875	180.495375		[silence]	[silence]
sw3663A-ms98-a-0048	A.82	180.495375	180.958750		translate	translate
sw3663A-ms98-a-0048	A.82	180.958750	181.018750		the	the
sw3663A-ms98-a-0048	A.82	181.018750	181.338750		BIBLE	Bible
sw3663A-ms98-a-0048	A.82	181.338750	181.628750		into	into
sw3663A-ms98-a-0048	A.82	181.628750	182.354000		languages	languages
sw3663A-ms98-a-0048	A.82	182.354000	182.568625		[silence]	[silence]
sw3663A-ms98-a-0048	A.82	182.568625	182.698750		of	of
sw3663A-ms98-a-0048	A.82	182.698750	182.778750		the	the
sw3663A-ms98-a-0048	A.82	182.778750	183.018750		world	world
sw3663A-ms98-a-0048	A.82	183.018750	183.158750		that	that
sw3663A-ms98-a-0048	A.82	183.158750	183.308750		aren't	aren't
sw3663A-ms98-a-0048	A.82	183.308750	183.508750		yet	yet
sw3663A-ms98-a-0048	A.82	183.508750	183.951625		written	written
sw3663A-ms98-a-0048	A.84	183.951625	184.414250		[silence]	[silence]
sw3663A-ms98-a-0049	A.84	184.414250	190.318250		[silence]	[silence]
sw3663A-ms98-a-0050	A.84	190.318250	190.818250		[silence]	[silence]
sw3663A-ms98-a-0050	A.84	190.818250	191.158250		Right	right
sw3663A-ms98-a-0050	A.84	191.158250	191.578250		languages	languages
sw3663A-ms98-a-0050	A.84	191.578250	191.678250		that	that
sw3663A-ms98-a-0050	A.84	191.678250	191.858250		don't	don't
sw3663A-ms98-a-0050	A.84	191.858250	191.978250		have	have
sw3663A-ms98-a-0050	A.84	191.978250	192.338250		anything	anything
sw3663A-ms98-a-0050	A.84	192.338250	192.638250		written	written
sw3663A-ms98-a-0050	A.84	192.638250	192.978250		yet	yet
sw3663A-ms98-a-0050	A.84	192.978250	193.508250		So	so
sw3663A-ms98-a-0050	A.84	193.508250	193.688250		this	this
sw3663A-ms98-a-0050	A.84	193.688250	193.848250		is	is
sw3663A-ms98-a-0050	A.84	193.848250	194.028250		like	like
sw3663A-ms98-a-0050	A.84	194.028250	194.098250		the	the
sw3663A-ms98-a-0050	A.84	194.098250	194.398250		first	first
sw3663A-ms98-a-0050	A.84	194.398250	194.598250		thing	thing
sw3663A-ms98-a-0050	A.84	194.598250	194.788250		that's	that's
sw3663A-ms98-a-0050	A.84	194.788250	195.008250		written	written
sw3663A-ms98-a-0050	A.84	195.008250	195.455125		down	down
sw3663A-ms98-a-0050	A.84	195.455125	195.852625		or	or
sw3663A-ms98-a-0050	A.86	195.852625	196.346000		[silence]	[silence]
sw3663A-ms98-a-0050	A.86	196.346000	196.578250		you	you
sw3663A-ms98-a-0050	A.86	196.578250	196.872375		know	know
sw3663A-ms98-a-0050	A.86	196.872375	197.094500		[silence]	[silence]
sw3663A-ms98-a-0050	A.86	197.094500	197.468250		first	first
sw3663A-ms98-a-0050	A.86	197.468250	197.738250		an	an
sw3663A-ms98-a-0050	A.86	197.738250	198.168250		alphabet	alphabet
sw3663A-ms98-a-0050	A.86	198.168250	198.288250		is	is
sw3663A-ms98-a-0050	A.86	198.288250	198.768250		developed	developed
sw3663A-ms98-a-0050	A.86	198.768250	198.868250		and	and
sw3663A-ms98-a-0050	A.86	198.868250	199.116750		then	then
sw3663A-ms98-a-0050	A.86	199.116750	199.557375		[silence]	[silence]
sw3663A-ms98-a-0050	A.86	199.557375	199.918250	<SUB>	uh	um
sw3663A-ms98-a-0050	A.88	199.918250	200.575375		[silence]	[silence]
sw3663A-ms98-a-0051	A.88	200.575375	201.185375		[silence]	[silence]
sw3663A-ms98-a-0051	A.88	201.185375	201.633500		So	so
sw3663A-ms98-a-0051	A.90	201.633500	202.109875		[silence]	[silence]
sw3663A-ms98-a-0052	A.90	202.109875	205.141000		[silence]	[silence]
sw3663A-ms98-a-0053	A.90	205.141000	205.621000		[silence]	[silence]
sw3663A-ms98-a-0053	A.90	205.621000	206.161875		Yeah	yeah
sw3663A-ms98-a-0053	A.92	206.161875	206.969125		[silence]	[silence]
sw3663A-ms98-a-0054	A.92	206.969125	207.899125		[silence]	[silence]
sw3663A-ms98-a-0054	A.92	207.899125	208.280625		Yeah	yeah
sw3663A-ms98-a-0054	A.92	208.280625	208.525375		[silence]	[silence]
sw3663A-ms98-a-0054	A.92	208.525375	208.619125		well	well
sw3663A-ms98-a-0054	A.92	208.619125	208.759125		it's	it's
sw3663A-ms98-a-0054	A.92	208.759125	209.119125		based	based
sw3663A-ms98-a-0054	A.92	209.119125	209.517375		here	here
sw3663A-ms98-a-0054	A.92	209.517375	209.779125	<SUB>	uh	um
sw3663A-ms98-a-0054	A.92	209.779125	209.869125		the	the
sw3663A-ms98-a-0054	A.92	209.869125	210.399125		international	international
sw3663A-ms98-a-0054	A.92	210.399125	210.919125		headquarters	headquarters
sw3663A-ms98-a-0054	A.92	210.919125	211.211125		for	for
sw3663A-ms98-a-0054	A.92	211.211125	211.719625		[silence]	[silence]
sw3663A-ms98-a-0054	A.92	211.719625	212.059125		Wycliff	Wycliffe
sw3663A-ms98-a-0054	A.92	212.059125	212.289125		Bible	Bible
sw3663A-ms98-a-0054	A.92	212.289125	212.879125		Translators	Translators
sw3663A-ms98-a-0054	A.92	212.879125	212.999125		is	is
sw3663A-ms98-a-0054	A.92	212.999125	213.159125		right	right
sw3663A-ms98-a-0054	A.92	213.159125	213.359125		here	here
sw3663A-ms98-a-0054	A.92	213.359125	213.517625		in	in
sw3663A-ms98-a-0054	A.92	213.517625	213.905625		[silence]	[silence]
sw3663A-ms98-a-0054	A.92	213.905625	214.019125		in	in
sw3663A-ms98-a-0054	A.92	214.019125	214.630000		Dallas	Dallas
sw3663A-ms98-a-0054	A.94	214.630000	215.100875		[silence]	[silence]
sw3663A-ms98-a-0055	A.94	215.100875	216.665250		[silence]	[silence]
sw3663A-ms98-a-0056	A.94	216.665250	217.154500		[silence]	[silence]
sw3663A-ms98-a-0056	A.94	217.154500	217.695250		Yeah	yeah
sw3663A-ms98-a-0056	A.94	217.695250	217.855250		right	right
sw3663A-ms98-a-0056	A.94	217.855250	218.035250		now	now
sw3663A-ms98-a-0056	A.94	218.035250	218.095250		I	i
sw3663A-ms98-a-0056	A.94	218.095250	218.375250		am	am
sw3663A-ms98-a-0056	A.94	218.375250	219.165250	<DEL>	---	so
sw3663A-ms98-a-0056	A.94	219.165250	219.385250		That's	that's
sw3663A-ms98-a-0056	A.94	219.385250	219.515250		what	what
sw3663A-ms98-a-0056	A.94	219.515250	219.745250		brought	brought
sw3663A-ms98-a-0056	A.94	219.745250	219.815250		me	me
sw3663A-ms98-a-0056	A.94	219.815250	220.085250		here	here
sw3663A-ms98-a-0056	A.94	220.085250	220.742500		[silence]	[silence]
sw3663A-ms98-a-0057	A.94	220.742500	221.412500		[silence]	[silence]
sw3663A-ms98-a-0057	A.94	221.412500	221.822250		yeah	yeah
sw3663A-ms98-a-0057	A.96	221.822250	222.304250		[silence]	[silence]
sw3663A-ms98-a-0058	A.96	222.304250	230.543125		[silence]	[silence]
sw3663A-ms98-a-0059	A.96	230.543125	231.007375		[silence]	[silence]
sw3663A-ms98-a-0059	A.96	231.007375	231.423750		Yeah	yeah
sw3663A-ms98-a-0059	A.98	231.423750	231.875375		[silence]	[silence]
sw3663A-ms98-a-0060	A.98	231.875375	238.979500		[silence]	[silence]
sw3663A-ms98-a-0061	A.98	238.979500	239.609500		[silence]	[silence]
sw3663A-ms98-a-0061	A.98	239.609500	239.859500		Yeah	yeah
sw3663A-ms98-a-0061	A.100	239.859500	240.009500		I	i
sw3663A-ms98-a-0061	A.100	240.009500	240.464750		agree	agree
sw3663A-ms98-a-0061	A.100	240.464750	240.709500		[silence]	[silence]
sw3663A-ms98-a-0061	A.100	240.709500	240.809500		I	i
sw3663A-ms98-a-0061	A.100	240.809500	241.229500		agree	agree
sw3663A-ms98-a-0061	A.100	241.229500	241.452875		I	i
sw3663A-ms98-a-0061	A.100	241.452875	241.925750		[silence]	[silence]
sw3663A-ms98-a-0062	A.100	241.925750	242.435750		[silence]	[silence]
sw3663A-ms98-a-0062	A.100	242.435750	242.535750		I	i
sw3663A-ms98-a-0062	A.100	242.535750	242.765750		thought	thought
sw3663A-ms98-a-0062	A.100	242.765750	242.835750		the	the
sw3663A-ms98-a-0062	A.100	242.835750	243.155750		fall	fall
sw3663A-ms98-a-0062	A.100	243.155750	243.335750		was	was
sw3663A-ms98-a-0062	A.100	243.335750	243.565750		really	really
sw3663A-ms98-a-0062	A.100	243.565750	244.188500		nice	nice
sw3663A-ms98-a-0062	A.102	244.188500	244.640875		[silence]	[silence]
sw3663A-ms98-a-0063	A.102	244.640875	246.608875		[silence]	[silence]
sw3663A-ms98-a-0064	A.102	246.608875	247.098875		[silence]	[silence]
sw3663A-ms98-a-0064	A.102	247.098875	247.609000		Uh-huh	uh-huh
sw3663A-ms98-a-0064	A.104	247.609000	247.978500		[silence]	[silence]
sw3663A-ms98-a-0065	A.104	247.978500	251.989375		[silence]	[silence]
sw3663A-ms98-a-0066	A.104	251.989375	252.438250		[silence]	[silence]
sw3663A-ms98-a-0066	A.104	252.438250	253.031500		Yeah	yeah
sw3663A-ms98-a-0066	A.106	253.031500	253.450750		[silence]	[silence]
sw3663A-ms98-a-0066	A.106	253.450750	253.841500		Uh-huh	uh-huh
sw3663A-ms98-a-0066	A.108	253.841500	254.324625		[silence]	[silence]
sw3663A-ms98-a-0067	A.108	254.324625	255.882750		[silence]	[silence]
sw3663A-ms98-a-0068	A.108	255.882750	256.372750		[silence]	[silence]
sw3663A-ms98-a-0068	A.108	256.372750	256.765750	<SUB>	Uh-huh	um-hum
sw3663A-ms98-a-0068	A.110	256.765750	257.233875		[silence]	[silence]
sw3663A-ms98-a-0069	A.110	257.233875	259.363375		[silence]	[silence]
sw3663A-ms98-a-0070	A.110	259.363375	259.843375		[silence]	[silence]
sw3663A-ms98-a-0070	A.110	259.843375	260.073375		Yeah	yeah
sw3663A-ms98-a-0070	A.110	260.073375	260.193375	<DEL>	---	and
sw3663A-ms98-a-0070	A.110	260.193375	260.263375		you	you
sw3663A-ms98-a-0070	A.110	260.263375	260.553375		probably	probably
sw3663A-ms98-a-0070	A.110	260.553375	260.693375		do	do
sw3663A-ms98-a-0070	A.110	260.693375	260.743375		a	a
sw3663A-ms98-a-0070	A.110	260.743375	260.923375		lot	lot
sw3663A-ms98-a-0070	A.110	260.923375	260.995125		of	of
sw3663A-ms98-a-0070	A.110	260.995125	261.209875		that	that
sw3663A-ms98-a-0070	A.110	261.209875	261.541000		with	with
sw3663A-ms98-a-0070	A.112	261.541000	261.834750		[silence]	[silence]
sw3663A-ms98-a-0070	A.112	261.834750	262.593375	<SUB>	scout	scouts
sw3663A-ms98-a-0070	A.114	262.593375	263.079125		scouting	scouting
sw3663A-ms98-a-0070	A.116	263.079125	263.900250		[silence]	[silence]
sw3663A-ms98-a-0070	A.116	263.900250	264.379000		Uh-huh	uh-huh
sw3663A-ms98-a-0070	A.118	264.379000	264.825500		[silence]	[silence]
sw3663A-ms98-a-0071	A.118	264.825500	270.848500		[silence]	[silence]
sw3663A-ms98-a-0072	A.118	270.848500	271.341625		[silence]	[silence]
sw3663A-ms98-a-0072	A.118	271.341625	271.728500	<SUB>	Uh-huh	um-hum
sw3663A-ms98-a-0072	A.120	271.728500	272.186125		[silence]	[silence]
sw3663A-ms98-a-0073	A.120	272.186125	281.825625		[silence]	[silence]
sw3663A-ms98-a-0074	A.120	281.825625	282.303000		[silence]	[silence]
sw3663A-ms98-a-0074	A.120	282.303000	282.801375	<SUB>	Uh-huh	um-hum
sw3663A-ms98-a-0074	A.122	282.801375	283.264875		[silence]	[silence]
sw3663A-ms98-a-0075	A.122	283.264875	286.853000		[silence]	[silence]
sw3663A-ms98-a-0076	A.122	286.853000	287.308375		[silence]	[silence]
sw3663A-ms98-a-0076	A.122	287.308375	288.010375		Yeah	[laughter-yeah]
sw3663A-ms98-a-0076	A.124	288.010375	288.456625		[silence]	[silence]
sw3663A-ms98-a-0077	A.124	288.456625	291.867500		[silence]	[silence]
sw3663A-ms98-a-0078	A.124	291.867500	292.356875		[silence]	[silence]
sw3663A-ms98-a-0078	A.124	292.356875	292.815125	<SUB>	Uh-huh	um-hum
sw3663A-ms98-a-0078	A.124	292.815125	293.278625		[silence]	[silence]
sw3663A-ms98-a-0079	A.124	293.278625	298.626000		[silence]	[silence]
