sw3746A-ms98-a-0001	A.1	0.000000	0.001375		[silence]	[silence]
sw3746A-ms98-a-0001	A.1	0.001375	0.301750		[noise]	[noise]
sw3746A-ms98-a-0001	A.1	0.301750	0.731625		[silence]	[silence]
sw3746A-ms98-a-0002	A.1	0.731625	1.492750		[silence]	[silence]
sw3746A-ms98-a-0002	A.1	1.492750	2.061625		Okay	okay
sw3746A-ms98-a-0002	A.1	2.061625	2.451250	<SUB>	uh	um
sw3746A-ms98-a-0002	A.1	2.451250	2.989875		[silence]	[silence]
sw3746A-ms98-a-0002	A.1	2.989875	3.111625		what	what
sw3746A-ms98-a-0002	A.1	3.111625	3.311625		kind	kind
sw3746A-ms98-a-0002	A.1	3.311625	3.381625		of	of
sw3746A-ms98-a-0002	A.1	3.381625	3.741625		hobbies	hobbies
sw3746A-ms98-a-0002	A.1	3.741625	3.811625		do	do
sw3746A-ms98-a-0002	A.1	3.811625	3.891625		you	you
sw3746A-ms98-a-0002	A.1	3.891625	4.131625		have	have
sw3746A-ms98-a-0002	A.1	4.131625	4.530875		Lori	Lori
sw3746A-ms98-a-0002	A.3	4.530875	4.859625		[silence]	[silence]
sw3746A-ms98-a-0003	A.3	4.859625	7.370750		[silence]	[silence]
sw3746A-ms98-a-0004	A.3	7.370750	7.832125		[silence]	[silence]
sw3746A-ms98-a-0004	A.3	7.832125	8.221250		Uh-huh	uh-huh
sw3746A-ms98-a-0004	A.5	8.221250	8.739625		[silence]	[silence]
sw3746A-ms98-a-0005	A.5	8.739625	9.308500		[silence]	[silence]
sw3746A-ms98-a-0005	A.5	9.308500	9.582500		[noise]	[noise]
sw3746A-ms98-a-0005	A.5	9.582500	9.949250		[silence]	[silence]
sw3746A-ms98-a-0006	A.5	9.949250	17.704250		[silence]	[silence]
sw3746A-ms98-a-0007	A.5	17.704250	18.262500		[silence]	[silence]
sw3746A-ms98-a-0007	A.5	18.262500	18.554250		Uh-huh	uh-huh
sw3746A-ms98-a-0007	A.5	18.554250	18.784250		Where	where
sw3746A-ms98-a-0007	A.5	18.784250	18.854250		do	do
sw3746A-ms98-a-0007	A.5	18.854250	18.964250		you	you
sw3746A-ms98-a-0007	A.5	18.964250	19.214250		play	play
sw3746A-ms98-a-0007	A.5	19.214250	19.674250		golf	golf
sw3746A-ms98-a-0007	A.5	19.674250	19.878875	<DEL>	---	or
sw3746A-ms98-a-0007	A.5	19.878875	20.064250		in	in
sw3746A-ms98-a-0007	A.5	20.064250	20.244250		this	this
sw3746A-ms98-a-0007	A.5	20.244250	20.666125		area	area
sw3746A-ms98-a-0007	A.9	20.666125	21.074875		[silence]	[silence]
sw3746A-ms98-a-0008	A.9	21.074875	23.164000		[silence]	[silence]
sw3746A-ms98-a-0009	A.9	23.164000	23.707500		[silence]	[silence]
sw3746A-ms98-a-0009	A.9	23.707500	24.019375		[noise]	[noise]
sw3746A-ms98-a-0009	A.9	24.019375	24.381750		[silence]	[silence]
sw3746A-ms98-a-0010	A.9	24.381750	25.266750		[silence]	[silence]
sw3746A-ms98-a-0011	A.9	25.266750	25.748250		[silence]	[silence]
sw3746A-ms98-a-0011	A.9	25.748250	26.071625		Uh-huh	uh-huh
sw3746A-ms98-a-0011	A.11	26.071625	26.550750		[silence]	[silence]
sw3746A-ms98-a-0012	A.11	26.550750	33.758750		[silence]	[silence]
sw3746A-ms98-a-0013	A.11	33.758750	34.113875		[silence]	[silence]
sw3746A-ms98-a-0013	A.11	34.113875	34.208750		Do	do
sw3746A-ms98-a-0013	A.11	34.208750	34.458750		you	you
sw3746A-ms98-a-0013	A.11	34.458750	34.798750		uh	uh
sw3746A-ms98-a-0013	A.11	34.798750	35.048750		do	do
sw3746A-ms98-a-0013	A.11	35.048750	35.248750		you	you
sw3746A-ms98-a-0013	A.11	35.248750	35.738750		ride	ride
sw3746A-ms98-a-0013	A.11	35.738750	35.858750		or	or
sw3746A-ms98-a-0013	A.11	35.858750	35.958750		do	do
sw3746A-ms98-a-0013	A.11	35.958750	36.068750		you	you
sw3746A-ms98-a-0013	A.11	36.068750	36.338750		pull	pull
sw3746A-ms98-a-0013	A.11	36.338750	36.378750		a	a
sw3746A-ms98-a-0013	A.11	36.378750	36.698750		cart	cart
sw3746A-ms98-a-0013	A.11	36.698750	36.858750		when	when
sw3746A-ms98-a-0013	A.11	36.858750	36.968750		you	you
sw3746A-ms98-a-0013	A.11	36.968750	37.208750		play	play
sw3746A-ms98-a-0013	A.11	37.208750	37.580125		golf	golf
sw3746A-ms98-a-0013	A.13	37.580125	37.580125	<INS>	Oh	---
sw3746A-ms98-a-0013	A.15	37.580125	38.065625		[silence]	[silence]
sw3746A-ms98-a-0014	A.15	38.065625	38.747500		[silence]	[silence]
sw3746A-ms98-a-0014	A.15	38.747500	39.287500		[laughter]	[laughter]
sw3746A-ms98-a-0014	A.15	39.287500	39.704125		[silence]	[silence]
sw3746A-ms98-a-0015	A.15	39.704125	40.314125		[silence]	[silence]
sw3746A-ms98-a-0015	A.15	40.314125	40.414125		I	i
sw3746A-ms98-a-0015	A.15	40.414125	40.524125		was	was
sw3746A-ms98-a-0015	A.15	40.524125	40.694125	<SUB>	going	gonna
sw3746A-ms98-a-0015	A.15	40.694125	40.694125	<INS>	to	---
sw3746A-ms98-a-0015	A.15	40.694125	40.964125		say	say
sw3746A-ms98-a-0015	A.15	40.964125	41.144125		that	that
sw3746A-ms98-a-0015	A.15	41.144125	41.294125		could	could
sw3746A-ms98-a-0015	A.15	41.294125	41.394125		be	be
sw3746A-ms98-a-0015	A.15	41.394125	42.095375		difficult	difficult
sw3746A-ms98-a-0015	A.17	42.095375	42.539875		[silence]	[silence]
sw3746A-ms98-a-0016	A.17	42.539875	50.867625		[silence]	[silence]
sw3746A-ms98-a-0017	A.17	50.867625	51.354000		[silence]	[silence]
sw3746A-ms98-a-0017	A.17	51.354000	51.697625		Uh-huh	uh-huh
sw3746A-ms98-a-0017	A.19	51.697625	52.145500		[silence]	[silence]
sw3746A-ms98-a-0018	A.19	52.145500	57.472500		[silence]	[silence]
sw3746A-ms98-a-0019	A.19	57.472500	57.967875		[silence]	[silence]
sw3746A-ms98-a-0019	A.19	57.967875	58.172500		I	i
sw3746A-ms98-a-0019	A.19	58.172500	58.352500		think	think
sw3746A-ms98-a-0019	A.19	58.352500	58.492500		that	that
sw3746A-ms98-a-0019	A.19	58.492500	58.662500		might	might
sw3746A-ms98-a-0019	A.19	58.662500	58.817500		be	be
sw3746A-ms98-a-0019	A.19	58.817500	59.273500		true	true
sw3746A-ms98-a-0019	A.21	59.273500	59.546125		[silence]	[silence]
sw3746A-ms98-a-0020	A.21	59.546125	59.937625		[silence]	[silence]
sw3746A-ms98-a-0020	A.21	59.937625	60.059875		I	i
sw3746A-ms98-a-0020	A.21	60.059875	60.246125		don't	don't
sw3746A-ms98-a-0020	A.21	60.246125	60.456125		like	like
sw3746A-ms98-a-0020	A.21	60.456125	60.846125		pulling	pulling
sw3746A-ms98-a-0020	A.21	60.846125	60.896125		a	a
sw3746A-ms98-a-0020	A.21	60.896125	61.196125		cart	cart
sw3746A-ms98-a-0020	A.21	61.196125	61.326125		on	on
sw3746A-ms98-a-0020	A.21	61.326125	61.917000	<SUB>	Firewell	Firewh[eel]-
sw3746A-ms98-a-0020	A.21	61.917000	62.206125		golf	golf
sw3746A-ms98-a-0020	A.21	62.206125	62.486125		course	course
sw3746A-ms98-a-0020	A.21	62.486125	62.656125		because	because_1
sw3746A-ms98-a-0020	A.21	62.656125	62.776125		they	they
sw3746A-ms98-a-0020	A.21	62.776125	63.006125		want	want
sw3746A-ms98-a-0020	A.21	63.006125	63.116125		you	you
sw3746A-ms98-a-0020	A.21	63.116125	63.206125		to	to
sw3746A-ms98-a-0020	A.21	63.206125	63.456125		pull	pull
sw3746A-ms98-a-0020	A.21	63.456125	63.526125		the	the
sw3746A-ms98-a-0020	A.21	63.526125	63.916125		cart	cart
sw3746A-ms98-a-0020	A.21	63.916125	64.016125		on	on
sw3746A-ms98-a-0020	A.21	64.016125	64.112875		the	the
sw3746A-ms98-a-0020	A.21	64.112875	64.614375		path	path
sw3746A-ms98-a-0020	A.25	64.614375	64.988875		[silence]	[silence]
sw3746A-ms98-a-0021	A.25	64.988875	66.892625		[silence]	[silence]
sw3746A-ms98-a-0022	A.25	66.892625	67.226500		[silence]	[silence]
sw3746A-ms98-a-0022	A.25	67.226500	68.105125		[laughter]	[laughter]
sw3746A-ms98-a-0022	A.25	68.105125	68.518875		[silence]	[silence]
sw3746A-ms98-a-0023	A.25	68.518875	73.882000		[silence]	[silence]
sw3746A-ms98-a-0024	A.25	73.882000	74.264250		[silence]	[silence]
sw3746A-ms98-a-0024	A.25	74.264250	74.492000	<CONT>	That	that's
sw3746A-ms98-a-0024	A.25	74.492000	74.492000	<CONT>	is	+++
sw3746A-ms98-a-0024	A.25	74.492000	74.552000		the	the
sw3746A-ms98-a-0024	A.25	74.552000	74.782000		reason	reason
sw3746A-ms98-a-0024	A.25	74.782000	74.842000		I	i
sw3746A-ms98-a-0024	A.25	74.842000	74.992000		don't	don't
sw3746A-ms98-a-0024	A.25	74.992000	75.222000		play	play
sw3746A-ms98-a-0024	A.25	75.222000	75.392000		over	over
sw3746A-ms98-a-0024	A.25	75.392000	75.652000		there	there
sw3746A-ms98-a-0024	A.27	75.652000	75.924250		[silence]	[silence]
sw3746A-ms98-a-0025	A.27	75.924250	76.243750		[silence]	[silence]
sw3746A-ms98-a-0025	A.27	76.243750	76.395625		I	i
sw3746A-ms98-a-0025	A.27	76.395625	76.604000		like	like
sw3746A-ms98-a-0025	A.27	76.604000	76.654250		the	the
sw3746A-ms98-a-0025	A.27	76.654250	77.044250		course	course
sw3746A-ms98-a-0025	A.27	77.044250	77.204250		but	but
sw3746A-ms98-a-0025	A.27	77.204250	77.244250		I	i
sw3746A-ms98-a-0025	A.27	77.244250	77.424250		don't	don't
sw3746A-ms98-a-0025	A.27	77.424250	77.594250		play	play
sw3746A-ms98-a-0025	A.27	77.594250	77.734250		over	over
sw3746A-ms98-a-0025	A.27	77.734250	77.914250		there	there
sw3746A-ms98-a-0025	A.27	77.914250	78.434500		because	because
sw3746A-ms98-a-0025	A.27	78.434500	79.027250		[silence]	[silence]
sw3746A-ms98-a-0026	A.27	79.027250	79.489875		[silence]	[silence]
sw3746A-ms98-a-0026	A.27	79.489875	79.769125		[noise]	[noise]
sw3746A-ms98-a-0026	A.27	79.769125	79.877250		you	you
sw3746A-ms98-a-0026	A.27	79.877250	80.027250		they	they
sw3746A-ms98-a-0026	A.27	80.027250	80.208125		don't	don't
sw3746A-ms98-a-0026	A.27	80.208125	80.622375		[silence]	[silence]
sw3746A-ms98-a-0026	A.27	80.622375	81.121125		uh	uh
sw3746A-ms98-a-0026	A.27	81.121125	81.411125		[silence]	[silence]
sw3746A-ms98-a-0026	A.27	81.411125	81.517250		you	you
sw3746A-ms98-a-0026	A.27	81.517250	81.667250		know	know
sw3746A-ms98-a-0026	A.27	81.667250	81.827250		don't	don't
sw3746A-ms98-a-0026	A.27	81.827250	82.027250		allow	allow
sw3746A-ms98-a-0026	A.27	82.027250	82.087250		you	you
sw3746A-ms98-a-0026	A.27	82.087250	82.157250		to	to
sw3746A-ms98-a-0026	A.27	82.157250	82.367250		pull	pull
sw3746A-ms98-a-0026	A.27	82.367250	82.456625		a	a
sw3746A-ms98-a-0026	A.27	82.456625	82.825000		cart	cart
sw3746A-ms98-a-0026	A.29	82.825000	83.499250		[silence]	[silence]
sw3746A-ms98-a-0027	A.29	83.499250	84.139250		[silence]	[silence]
sw3746A-ms98-a-0027	A.29	84.139250	84.319250		And	and
sw3746A-ms98-a-0027	A.29	84.319250	84.379250		I	i
sw3746A-ms98-a-0027	A.29	84.379250	84.599250		don't	don't
sw3746A-ms98-a-0027	A.29	84.599250	84.799250		think	think
sw3746A-ms98-a-0027	A.29	84.799250	84.869250		a	a
sw3746A-ms98-a-0027	A.29	84.869250	85.189250		cart	cart
sw3746A-ms98-a-0027	A.29	85.189250	85.739250		damages	damages
sw3746A-ms98-a-0027	A.29	85.739250	85.852000		the	the
sw3746A-ms98-a-0027	A.29	85.852000	86.287125		turf	turf
sw3746A-ms98-a-0027	A.31	86.287125	86.765375		[silence]	[silence]
sw3746A-ms98-a-0028	A.31	86.765375	100.450000		[silence]	[silence]
sw3746A-ms98-a-0029	A.31	100.450000	101.121250		[silence]	[silence]
sw3746A-ms98-a-0029	A.31	101.121250	101.499250		Uh-huh	uh-huh
sw3746A-ms98-a-0029	A.33	101.499250	101.816625		[silence]	[silence]
sw3746A-ms98-a-0030	A.33	101.816625	105.062250		[silence]	[silence]
sw3746A-ms98-a-0031	A.33	105.062250	105.578375		[silence]	[silence]
sw3746A-ms98-a-0031	A.33	105.578375	105.925125		Well	well
sw3746A-ms98-a-0031	A.33	105.925125	106.107375		I	i
sw3746A-ms98-a-0031	A.33	106.107375	106.252250		guess	guess
sw3746A-ms98-a-0031	A.33	106.252250	106.332250		I	i
sw3746A-ms98-a-0031	A.33	106.332250	106.482250		could	could
sw3746A-ms98-a-0031	A.33	106.482250	106.662250		use	use
sw3746A-ms98-a-0031	A.33	106.662250	106.712250		a	a
sw3746A-ms98-a-0031	A.33	106.712250	106.982250	<SUB>	card	car
sw3746A-ms98-a-0031	A.33	106.982250	107.302250		too	too
sw3746A-ms98-a-0031	A.33	107.302250	107.442250		I	i
sw3746A-ms98-a-0031	A.33	107.442250	107.772250		live	live
sw3746A-ms98-a-0031	A.33	107.772250	107.912250		uh	uh
sw3746A-ms98-a-0031	A.33	107.912250	108.202250		very	very
sw3746A-ms98-a-0031	A.33	108.202250	108.431500		near	near
sw3746A-ms98-a-0031	A.33	108.431500	108.431500	<INS>	uh	---
sw3746A-ms98-a-0031	A.33	108.431500	108.732250		very	very
sw3746A-ms98-a-0031	A.33	108.732250	109.032250		close	close
sw3746A-ms98-a-0031	A.33	109.032250	109.152250		to	to
sw3746A-ms98-a-0031	A.33	109.152250	109.222250		the	the
sw3746A-ms98-a-0031	A.33	109.222250	109.682250		Firewheel	Firewheel
sw3746A-ms98-a-0031	A.33	109.682250	109.932250		Golf	Golf
sw3746A-ms98-a-0031	A.33	109.932250	110.302750		Course	Course
sw3746A-ms98-a-0031	A.35	110.302750	110.710750		[silence]	[silence]
sw3746A-ms98-a-0032	A.35	110.710750	110.973875		[silence]	[silence]
sw3746A-ms98-a-0032	A.35	110.973875	111.391000		[noise]	[noise]
sw3746A-ms98-a-0032	A.35	111.391000	111.895000		[silence]	[silence]
sw3746A-ms98-a-0033	A.35	111.895000	112.466500		[silence]	[silence]
sw3746A-ms98-a-0033	A.35	112.466500	112.735000		Yes	yes
sw3746A-ms98-a-0033	A.35	112.735000	112.775000		I	i
sw3746A-ms98-a-0033	A.35	112.775000	112.985000		live	live
sw3746A-ms98-a-0033	A.35	112.985000	113.075000		in	in
sw3746A-ms98-a-0033	A.35	113.075000	113.775000		northwest	northwest
sw3746A-ms98-a-0033	A.35	113.775000	114.125000		Garland	Garland
sw3746A-ms98-a-0033	A.35	114.125000	114.255000		Right	right
sw3746A-ms98-a-0033	A.35	114.255000	114.375000		up	up
sw3746A-ms98-a-0033	A.35	114.375000	114.525000		there	there
sw3746A-ms98-a-0033	A.35	114.525000	114.695000		near	near
sw3746A-ms98-a-0033	A.35	114.695000	114.755000		the	the
sw3746A-ms98-a-0033	A.35	114.755000	115.045000		golf	golf
sw3746A-ms98-a-0033	A.35	115.045000	115.350250		course	course
sw3746A-ms98-a-0033	A.37	115.350250	115.433500	<DEL>	---	in
sw3746A-ms98-a-0033	A.37	115.433500	115.776250	<DEL>	---	fact
sw3746A-ms98-a-0033	A.37	115.776250	116.090750		[silence]	[silence]
sw3746A-ms98-a-0034	A.37	116.090750	129.354500		[silence]	[silence]
sw3746A-ms98-a-0035	A.37	129.354500	129.766875		[silence]	[silence]
sw3746A-ms98-a-0035	A.37	129.766875	129.892625		Well	well
sw3746A-ms98-a-0035	A.37	129.892625	129.948875		in	in
sw3746A-ms98-a-0035	A.37	129.948875	130.033000		the	the
sw3746A-ms98-a-0035	A.37	130.033000	130.254500		last	last
sw3746A-ms98-a-0035	A.37	130.254500	130.414500		two	two
sw3746A-ms98-a-0035	A.37	130.414500	130.714500		years	years
sw3746A-ms98-a-0035	A.37	130.714500	130.794500		I	i
sw3746A-ms98-a-0035	A.37	130.794500	131.014500	<CONT>	have	haven't
sw3746A-ms98-a-0035	A.37	131.014500	131.014500	<CONT>	not	+++
sw3746A-ms98-a-0035	A.37	131.014500	131.284500		played	played
sw3746A-ms98-a-0035	A.37	131.284500	131.474500		very	very
sw3746A-ms98-a-0035	A.37	131.474500	131.714500		much	much
sw3746A-ms98-a-0035	A.37	131.714500	132.024500		golf	golf
sw3746A-ms98-a-0035	A.37	132.024500	132.354500		because	because
sw3746A-ms98-a-0035	A.37	132.354500	132.474500	<CONT>	I	i'm
sw3746A-ms98-a-0035	A.37	132.474500	132.474500	<CONT>	am	+++
sw3746A-ms98-a-0035	A.37	132.474500	133.004500		involved	involved
sw3746A-ms98-a-0035	A.37	133.004500	133.084500		in	in
sw3746A-ms98-a-0035	A.37	133.084500	133.244500		Boy	Boy
sw3746A-ms98-a-0035	A.37	133.244500	133.689625		Scouts	Scouts
sw3746A-ms98-a-0035	A.39	133.689625	134.343000		[silence]	[silence]
sw3746A-ms98-a-0036	A.39	134.343000	135.093000		[silence]	[silence]
sw3746A-ms98-a-0036	A.39	135.093000	135.433000		So	so
sw3746A-ms98-a-0036	A.39	135.433000	135.483000		I	i
sw3746A-ms98-a-0036	A.39	135.483000	135.933000		have	have
sw3746A-ms98-a-0036	A.39	135.933000	136.276000		uh	uh
sw3746A-ms98-a-0036	A.39	136.276000	136.372125		[silence]	[silence]
sw3746A-ms98-a-0036	A.39	136.372125	136.515250		I	i
sw3746A-ms98-a-0036	A.39	136.515250	136.713000		have	have
sw3746A-ms98-a-0036	A.39	136.713000	137.203000	<SUB>	uh	children
sw3746A-ms98-a-0036	A.39	137.203000	137.312250		[silence]	[silence]
sw3746A-ms98-a-0036	A.39	137.312250	137.429625		I	i
sw3746A-ms98-a-0036	A.39	137.429625	137.573000		have	have
sw3746A-ms98-a-0036	A.39	137.573000	137.933000		children	children
sw3746A-ms98-a-0036	A.41	137.933000	138.153000		Boy	Boy
sw3746A-ms98-a-0036	A.41	138.153000	138.553625		Scout	Scout
sw3746A-ms98-a-0036	A.41	138.553625	138.923000		age	age
sw3746A-ms98-a-0036	A.41	138.923000	138.953000		I	i
sw3746A-ms98-a-0036	A.41	138.953000	139.083000		have	have
sw3746A-ms98-a-0036	A.41	139.083000	139.381250		two	two
sw3746A-ms98-a-0036	A.41	139.381250	139.703000		boys	boys
sw3746A-ms98-a-0036	A.41	139.703000	139.793000		that	that
sw3746A-ms98-a-0036	A.41	139.793000	139.873000		are	are
sw3746A-ms98-a-0036	A.41	139.873000	140.083000		boy	Boy
sw3746A-ms98-a-0036	A.41	140.083000	140.463000		scout	Scout
sw3746A-ms98-a-0036	A.41	140.463000	140.733000		age	age
sw3746A-ms98-a-0036	A.41	140.733000	140.853000		and	and
sw3746A-ms98-a-0036	A.41	140.853000	140.853000	<INS>	uh	---
sw3746A-ms98-a-0036	A.41	140.853000	141.188250		so	so
sw3746A-ms98-a-0036	A.43	141.188250	141.469625		[silence]	[silence]
sw3746A-ms98-a-0037	A.43	141.469625	141.744125		[silence]	[silence]
sw3746A-ms98-a-0037	A.43	141.744125	141.869625	<CONT>	I	i'm
sw3746A-ms98-a-0037	A.43	141.869625	141.869625	<CONT>	am	+++
sw3746A-ms98-a-0037	A.43	141.869625	142.089625		very	very
sw3746A-ms98-a-0037	A.43	142.089625	142.419625		active	active
sw3746A-ms98-a-0037	A.43	142.419625	142.519625		in	in
sw3746A-ms98-a-0037	A.43	142.519625	142.719625		Boy	Boy
sw3746A-ms98-a-0037	A.43	142.719625	143.079625		Scouts	Scouts
sw3746A-ms98-a-0037	A.43	143.079625	143.179625		so	so
sw3746A-ms98-a-0037	A.43	143.179625	143.309625	<CONT>	I	i'd
sw3746A-ms98-a-0037	A.43	143.309625	143.309625	<CONT>	would	+++
sw3746A-ms98-a-0037	A.43	143.309625	143.499625		have	have
sw3746A-ms98-a-0037	A.43	143.499625	143.589625		to	to
sw3746A-ms98-a-0037	A.43	143.589625	143.809625		say	say
sw3746A-ms98-a-0037	A.43	143.809625	144.019625		that	that
sw3746A-ms98-a-0037	A.43	144.019625	144.629625		camping	camping
sw3746A-ms98-a-0037	A.43	144.629625	144.789625		and	and
sw3746A-ms98-a-0037	A.43	144.789625	145.279625		hiking	hiking
sw3746A-ms98-a-0037	A.43	145.279625	145.419625		and	and
sw3746A-ms98-a-0037	A.43	145.419625	145.989625		canoeing	canoeing
sw3746A-ms98-a-0037	A.43	145.989625	146.159625		and	and
sw3746A-ms98-a-0037	A.43	146.159625	146.339625		Boy	Boy
sw3746A-ms98-a-0037	A.43	146.339625	146.769625		Scouts	Scouts
sw3746A-ms98-a-0037	A.43	146.769625	146.879625		is	is
sw3746A-ms98-a-0037	A.43	146.879625	147.039625		my	my
sw3746A-ms98-a-0037	A.43	147.039625	147.389625		hobby	hobby
sw3746A-ms98-a-0037	A.45	147.389625	147.771000		[silence]	[silence]
sw3746A-ms98-a-0038	A.45	147.771000	148.585125		[silence]	[silence]
sw3746A-ms98-a-0038	A.45	148.585125	148.671125		But	but
sw3746A-ms98-a-0038	A.45	148.671125	148.704375		I	i
sw3746A-ms98-a-0038	A.47	148.704375	148.878750	<DEL>	---	-[li]ke
sw3746A-ms98-a-0038	A.47	148.878750	149.237250		[silence]	[silence]
sw3746A-ms98-a-0039	A.47	149.237250	150.277250		[silence]	[silence]
sw3746A-ms98-a-0040	A.47	150.277250	150.706625		[silence]	[silence]
sw3746A-ms98-a-0040	A.47	150.706625	150.907250		but	but
sw3746A-ms98-a-0040	A.47	150.907250	151.057250		my	my
sw3746A-ms98-a-0040	A.47	151.057250	151.397250		golf	golf
sw3746A-ms98-a-0040	A.47	151.397250	151.657250		clubs	clubs
sw3746A-ms98-a-0040	A.47	151.657250	151.747250		will	will
sw3746A-ms98-a-0040	A.47	151.747250	152.077250		probably	probably
sw3746A-ms98-a-0040	A.47	152.077250	152.447250		rust	rust
sw3746A-ms98-a-0040	A.47	152.447250	152.757250		before	before
sw3746A-ms98-a-0040	A.47	152.757250	152.807250		I	i
sw3746A-ms98-a-0040	A.47	152.807250	152.977250		get	get
sw3746A-ms98-a-0040	A.47	152.977250	153.037250		to	to
sw3746A-ms98-a-0040	A.47	153.037250	153.277250		use	use
sw3746A-ms98-a-0040	A.47	153.277250	153.357250		them	them_1
sw3746A-ms98-a-0040	A.47	153.357250	153.637250		again	again
sw3746A-ms98-a-0040	A.47	153.637250	153.977250		because	because
sw3746A-ms98-a-0040	A.47	153.977250	154.107250		my	my
sw3746A-ms98-a-0040	A.47	154.107250	154.457250		boys	boys
sw3746A-ms98-a-0040	A.47	154.457250	154.527250		are	are
sw3746A-ms98-a-0040	A.47	154.527250	155.067875		still	still
sw3746A-ms98-a-0040	A.47	155.067875	155.135625		[silence]	[silence]
sw3746A-ms98-a-0040	A.47	155.135625	155.317250		right	right
sw3746A-ms98-a-0040	A.47	155.317250	155.427250		at	at
sw3746A-ms98-a-0040	A.47	155.427250	155.487250		the	the
sw3746A-ms98-a-0040	A.47	155.487250	155.937250		beginning	beginning
sw3746A-ms98-a-0040	A.47	155.937250	156.237250		age	age
sw3746A-ms98-a-0040	A.47	156.237250	156.327250		and	and
sw3746A-ms98-a-0040	A.47	156.327250	156.457250	<CONT>	it	it's
sw3746A-ms98-a-0040	A.47	156.457250	156.457250	<CONT>	is	+++
sw3746A-ms98-a-0040	A.47	156.457250	156.587250	<DEL>	---	gonna
sw3746A-ms98-a-0040	A.47	156.587250	156.857250		probably	probably
sw3746A-ms98-a-0040	A.47	156.857250	156.857250	<INS>	going	---
sw3746A-ms98-a-0040	A.47	156.857250	156.857250	<INS>	to	---
sw3746A-ms98-a-0040	A.47	156.857250	157.017250		be	be
sw3746A-ms98-a-0040	A.47	157.017250	157.287250		six	six
sw3746A-ms98-a-0040	A.47	157.287250	157.377250		to	to
sw3746A-ms98-a-0040	A.47	157.377250	157.567250		eight	eight
sw3746A-ms98-a-0040	A.47	157.567250	157.797250		years	years
sw3746A-ms98-a-0040	A.47	157.797250	158.117250		before	before
sw3746A-ms98-a-0040	A.47	158.117250	158.217250		they	they
sw3746A-ms98-a-0040	A.47	158.217250	158.347250		go	go
sw3746A-ms98-a-0040	A.47	158.347250	158.417250		to	to
sw3746A-ms98-a-0040	A.47	158.417250	158.902500		college	college
sw3746A-ms98-a-0040	A.49	158.902500	159.293875		[silence]	[silence]
sw3746A-ms98-a-0041	A.49	159.293875	159.834875		[silence]	[silence]
sw3746A-ms98-a-0041	A.49	159.834875	160.281000	<DEL>	---	[laughter-so]
sw3746A-ms98-a-0041	A.49	160.281000	160.591250		[silence]	[silence]
sw3746A-ms98-a-0042	A.49	160.591250	162.857000		[silence]	[silence]
sw3746A-ms98-a-0043	A.49	162.857000	163.387750		[silence]	[silence]
sw3746A-ms98-a-0043	A.49	163.387750	163.607000		That's	that's
sw3746A-ms98-a-0043	A.49	163.607000	163.947000		right	right
sw3746A-ms98-a-0043	A.49	163.947000	164.357000		Lessons	lessons
sw3746A-ms98-a-0043	A.49	164.357000	164.457000		are	are
sw3746A-ms98-a-0043	A.49	164.457000	164.977000		expensive	expensive
sw3746A-ms98-a-0043	A.49	164.977000	165.314500		though	though
sw3746A-ms98-a-0043	A.51	165.314500	165.596625		[silence]	[silence]
sw3746A-ms98-a-0044	A.51	165.596625	167.765000		[silence]	[silence]
sw3746A-ms98-a-0045	A.51	167.765000	168.218875		[silence]	[silence]
sw3746A-ms98-a-0045	A.51	168.218875	168.345625		[noise]	[noise]
sw3746A-ms98-a-0045	A.51	168.345625	168.552125		Well	well
sw3746A-ms98-a-0045	A.51	168.552125	168.829125		[silence]	[silence]
sw3746A-ms98-a-0045	A.51	168.829125	168.985000		they	they
sw3746A-ms98-a-0045	A.51	168.985000	168.985000	<INS>	would	---
sw3746A-ms98-a-0045	A.51	168.985000	169.295000		probably	probably
sw3746A-ms98-a-0045	A.51	169.295000	169.435000	<DEL>	---	would
sw3746A-ms98-a-0045	A.51	169.435000	169.695000		never	never
sw3746A-ms98-a-0045	A.51	169.695000	169.955000		make	make
sw3746A-ms98-a-0045	A.51	169.955000	170.075000		it	it
sw3746A-ms98-a-0045	A.51	170.075000	170.265000		then	then
sw3746A-ms98-a-0045	A.51	170.265000	170.615000		because	because
sw3746A-ms98-a-0045	A.51	170.615000	170.779375		I	i
sw3746A-ms98-a-0045	A.51	170.779375	170.933875		don't	don't
sw3746A-ms98-a-0045	A.51	170.933875	171.371375		[silence]	[silence]
sw3746A-ms98-a-0045	A.51	171.371375	171.476375	<DEL>	---	i
sw3746A-ms98-a-0045	A.51	171.476375	171.662875		think	think
sw3746A-ms98-a-0045	A.51	171.662875	171.662875	<INS>	uh	---
sw3746A-ms98-a-0045	A.51	171.662875	171.745750		I	i
sw3746A-ms98-a-0045	A.51	171.745750	171.895000		only	only
sw3746A-ms98-a-0045	A.51	171.895000	172.155000		took	took
sw3746A-ms98-a-0045	A.51	172.155000	172.685000		lessons	lessons
sw3746A-ms98-a-0045	A.51	172.685000	172.895000		for	for
sw3746A-ms98-a-0045	A.51	172.895000	173.315000		golf	golf
sw3746A-ms98-a-0045	A.51	173.315000	173.505000		when	when
sw3746A-ms98-a-0045	A.51	173.505000	173.585000		I	i
sw3746A-ms98-a-0045	A.51	173.585000	173.865000		was	was
sw3746A-ms98-a-0045	A.51	173.865000	174.015000		in	in
sw3746A-ms98-a-0045	A.51	174.015000	174.605000		college	college
sw3746A-ms98-a-0045	A.53	174.605000	175.164750		[silence]	[silence]
sw3746A-ms98-a-0046	A.53	175.164750	175.477000		[silence]	[silence]
sw3746A-ms98-a-0046	A.53	175.477000	175.828750		[noise]	[noise]
sw3746A-ms98-a-0046	A.53	175.828750	176.110375	<SUB>	Uh	ah
sw3746A-ms98-a-0046	A.53	176.110375	176.304750		as	as
sw3746A-ms98-a-0046	A.53	176.304750	176.364750		a	a
sw3746A-ms98-a-0046	A.53	176.364750	176.794750		course	course
sw3746A-ms98-a-0046	A.53	176.794750	176.964750		for	for
sw3746A-ms98-a-0046	A.53	176.964750	177.154750		P	P
sw3746A-ms98-a-0046	A.53	177.154750	177.574750		E	E
sw3746A-ms98-a-0046	A.53	177.574750	177.714750		you	you
sw3746A-ms98-a-0046	A.53	177.714750	177.892875		know	know
sw3746A-ms98-a-0046	A.55	177.892875	178.853375		[laughter]	[laughter]
sw3746A-ms98-a-0046	A.55	178.853375	178.974750		so	so
sw3746A-ms98-a-0046	A.55	178.974750	179.052875		I	i
sw3746A-ms98-a-0046	A.55	179.052875	179.177625		could	could
sw3746A-ms98-a-0046	A.55	179.177625	179.938375		graduate	[laughter-graduate]
sw3746A-ms98-a-0046	A.57	179.938375	180.404375		[silence]	[silence]
sw3746A-ms98-a-0047	A.57	180.404375	180.880000		[silence]	[silence]
sw3746A-ms98-a-0047	A.57	180.880000	181.094375		But	but
sw3746A-ms98-a-0047	A.57	181.094375	181.324375		uh	uh
sw3746A-ms98-a-0047	A.57	181.324375	181.594375	<CONT>	that	that's
sw3746A-ms98-a-0047	A.57	181.594375	181.594375	<CONT>	is	+++
sw3746A-ms98-a-0047	A.57	181.594375	181.674375		the	the
sw3746A-ms98-a-0047	A.57	181.674375	181.824375		only	only
sw3746A-ms98-a-0047	A.57	181.824375	182.074375		time	time
sw3746A-ms98-a-0047	A.57	182.074375	182.134375		I	i
sw3746A-ms98-a-0047	A.57	182.134375	182.394375		think	think
sw3746A-ms98-a-0047	A.57	182.394375	182.574375	<CONT>	I	i've
sw3746A-ms98-a-0047	A.57	182.574375	182.574375	<CONT>	have	+++
sw3746A-ms98-a-0047	A.57	182.574375	182.844375		ever	ever
sw3746A-ms98-a-0047	A.57	182.844375	183.154375		really	really
sw3746A-ms98-a-0047	A.57	183.154375	183.714375		taken	taken
sw3746A-ms98-a-0047	A.57	183.714375	184.104375		golf	golf
sw3746A-ms98-a-0047	A.57	184.104375	184.644375		lessons	lessons
sw3746A-ms98-a-0047	A.57	184.644375	184.774375		and	and
sw3746A-ms98-a-0047	A.57	184.774375	184.934375		that	that
sw3746A-ms98-a-0047	A.57	184.934375	185.084375		was	was
sw3746A-ms98-a-0047	A.57	185.084375	185.304375		kind	kind
sw3746A-ms98-a-0047	A.57	185.304375	185.414375		of	of
sw3746A-ms98-a-0047	A.57	185.414375	185.514375		a	a
sw3746A-ms98-a-0047	A.57	185.514375	185.878875		group	group
sw3746A-ms98-a-0047	A.59	185.878875	186.338375		[silence]	[silence]
sw3746A-ms98-a-0047	A.59	186.338375	186.964375		scenario	scenario
sw3746A-ms98-a-0047	A.61	186.964375	187.074375		and	and
sw3746A-ms98-a-0047	A.61	187.074375	187.294375		not	not
sw3746A-ms98-a-0047	A.61	187.294375	187.879875		individual	individual
sw3746A-ms98-a-0047	A.63	187.879875	188.109125		[silence]	[silence]
sw3746A-ms98-a-0048	A.63	188.109125	188.455875		[silence]	[silence]
sw3746A-ms98-a-0048	A.63	188.455875	188.597750		I	i
sw3746A-ms98-a-0048	A.63	188.597750	188.809125		took	took
sw3746A-ms98-a-0048	A.63	188.809125	189.059125		one	one
sw3746A-ms98-a-0048	A.63	189.059125	189.439125		lesson	lesson
sw3746A-ms98-a-0048	A.63	189.439125	189.619125		one	one
sw3746A-ms98-a-0048	A.63	189.619125	189.799125		other	other
sw3746A-ms98-a-0048	A.63	189.799125	190.119125		time	time
sw3746A-ms98-a-0048	A.63	190.119125	190.489125		Besides	besides
sw3746A-ms98-a-0048	A.63	190.489125	190.889125		that	that
sw3746A-ms98-a-0048	A.63	190.889125	191.139625	<SUB>	uh	um
sw3746A-ms98-a-0048	A.63	191.139625	191.723500		[silence]	[silence]
sw3746A-ms98-a-0048	A.63	191.723500	191.893000		I	i
sw3746A-ms98-a-0048	A.63	191.893000	192.179125		just	just
sw3746A-ms98-a-0048	A.63	192.179125	192.490500		uh	uh
sw3746A-ms98-a-0048	A.63	192.490500	192.833250		[silence]	[silence]
sw3746A-ms98-a-0048	A.63	192.833250	193.198750		try	try
sw3746A-ms98-a-0048	A.63	193.198750	193.605625		[silence]	[silence]
sw3746A-ms98-a-0048	A.63	193.605625	193.849875		to	to
sw3746A-ms98-a-0048	A.63	193.849875	194.049125		make	make
sw3746A-ms98-a-0048	A.63	194.049125	194.109125		the	the
sw3746A-ms98-a-0048	A.63	194.109125	194.419125		club	club
sw3746A-ms98-a-0048	A.63	194.419125	194.589125		hit	hit
sw3746A-ms98-a-0048	A.63	194.589125	194.659125		the	the
sw3746A-ms98-a-0048	A.63	194.659125	194.963000		ball	ball
sw3746A-ms98-a-0048	A.67	194.963000	195.582750		[silence]	[silence]
sw3746A-ms98-a-0048	A.67	195.582750	196.642500		[laughter]	[laughter]
sw3746A-ms98-a-0048	A.67	196.642500	197.027250		[silence]	[silence]
sw3746A-ms98-a-0049	A.67	197.027250	198.147125		[silence]	[silence]
sw3746A-ms98-a-0050	A.67	198.147125	198.625875		[silence]	[silence]
sw3746A-ms98-a-0050	A.67	198.625875	198.821000		I	i
sw3746A-ms98-a-0050	A.67	198.821000	198.987125		don't	don't
sw3746A-ms98-a-0050	A.67	198.987125	199.187125	<SUB>	want	wanna
sw3746A-ms98-a-0050	A.67	199.187125	199.187125	<INS>	to	---
sw3746A-ms98-a-0050	A.67	199.187125	199.447125		play	play
sw3746A-ms98-a-0050	A.67	199.447125	199.887125		strike	strike
sw3746A-ms98-a-0050	A.67	199.887125	200.147125		out	out
sw3746A-ms98-a-0050	A.67	200.147125	200.237125		you	you
sw3746A-ms98-a-0050	A.67	200.237125	200.423375		know	know
sw3746A-ms98-a-0050	A.69	200.423375	201.043000		[silence]	[silence]
sw3746A-ms98-a-0051	A.69	201.043000	201.859125		[silence]	[silence]
sw3746A-ms98-a-0051	A.69	201.859125	201.901000		But	but
sw3746A-ms98-a-0051	A.69	201.901000	201.983000		I	i
sw3746A-ms98-a-0051	A.69	201.983000	202.173000		have	have
sw3746A-ms98-a-0051	A.69	202.173000	202.513000		fun	fun
sw3746A-ms98-a-0051	A.69	202.513000	202.883000		doing	doing
sw3746A-ms98-a-0051	A.69	202.883000	203.043000		it	it
sw3746A-ms98-a-0051	A.69	203.043000	203.283000		some	some
sw3746A-ms98-a-0051	A.69	203.283000	203.283000	<INS>	uh	---
sw3746A-ms98-a-0051	A.69	203.283000	203.373000		you	you
sw3746A-ms98-a-0051	A.69	203.373000	203.605000		know	know
sw3746A-ms98-a-0051	A.69	203.605000	203.605000	<INS>	I	---
sw3746A-ms98-a-0051	A.69	203.605000	203.813000		have	have
sw3746A-ms98-a-0051	A.69	203.813000	204.043000		some	some
sw3746A-ms98-a-0051	A.69	204.043000	204.213000		good	good
sw3746A-ms98-a-0051	A.69	204.213000	204.643000		shots	shots
sw3746A-ms98-a-0051	A.69	204.643000	204.743000		and	and
sw3746A-ms98-a-0051	A.69	204.743000	204.883000		some	some
sw3746A-ms98-a-0051	A.69	204.883000	205.113000		bad	bad
sw3746A-ms98-a-0051	A.69	205.113000	205.336750		shots	shots
sw3746A-ms98-a-0051	A.71	205.336750	205.799250		[silence]	[silence]
sw3746A-ms98-a-0052	A.71	205.799250	209.045375		[silence]	[silence]
sw3746A-ms98-a-0053	A.71	209.045375	209.365375		[silence]	[silence]
sw3746A-ms98-a-0053	A.71	209.365375	209.505375		So	so
sw3746A-ms98-a-0053	A.71	209.505375	209.635375		you	you
sw3746A-ms98-a-0053	A.71	209.635375	209.865375		said	said
sw3746A-ms98-a-0053	A.71	209.865375	210.088625		you	you
sw3746A-ms98-a-0053	A.71	210.088625	210.415375		work	work
sw3746A-ms98-a-0053	A.71	210.415375	210.776125		uh	uh
sw3746A-ms98-a-0053	A.71	210.776125	210.905375		in	in
sw3746A-ms98-a-0053	A.71	210.905375	210.975375		the	the
sw3746A-ms98-a-0053	A.71	210.975375	211.445375		gardens	gardens
sw3746A-ms98-a-0053	A.71	211.445375	211.725375		too	too
sw3746A-ms98-a-0053	A.71	211.725375	211.815375		Do	do
sw3746A-ms98-a-0053	A.71	211.815375	212.005375		you	you
sw3746A-ms98-a-0053	A.71	212.005375	212.335375		have	have
sw3746A-ms98-a-0053	A.71	212.335375	212.627250	<SUB>	uh	ah
sw3746A-ms98-a-0053	A.71	212.627250	212.627250	<INS>	a	---
sw3746A-ms98-a-0053	A.71	212.627250	213.055375		special	special
sw3746A-ms98-a-0053	A.71	213.055375	213.631000		flowers	flowers
sw3746A-ms98-a-0053	A.73	213.631000	214.126625		[silence]	[silence]
sw3746A-ms98-a-0054	A.73	214.126625	223.263750		[silence]	[silence]
sw3746A-ms98-a-0055	A.73	223.263750	223.816250		[silence]	[silence]
sw3746A-ms98-a-0055	A.73	223.816250	224.000750		My	my
sw3746A-ms98-a-0055	A.73	224.000750	224.326125		wife	wife
sw3746A-ms98-a-0055	A.73	224.326125	224.468000		had	had
sw3746A-ms98-a-0055	A.73	224.468000	224.873125		uh	uh
sw3746A-ms98-a-0055	A.73	224.873125	225.350875		[silence]	[silence]
sw3746A-ms98-a-0056	A.73	225.350875	226.187375		[silence]	[silence]
sw3746A-ms98-a-0056	A.73	226.187375	226.400875		just	just
sw3746A-ms98-a-0056	A.73	226.400875	226.590875		put	put
sw3746A-ms98-a-0056	A.73	226.590875	226.740875		in	in
sw3746A-ms98-a-0056	A.73	226.740875	226.810875		a	a
sw3746A-ms98-a-0056	A.73	226.810875	227.100875		bunch	bunch
sw3746A-ms98-a-0056	A.73	227.100875	227.383500		of	of
sw3746A-ms98-a-0056	A.73	227.383500	227.556625		[silence]	[silence]
sw3746A-ms98-a-0056	A.73	227.556625	227.726125		I	i
sw3746A-ms98-a-0056	A.73	227.726125	227.900875	<SUB>	want	wanna
sw3746A-ms98-a-0056	A.73	227.900875	227.900875	<INS>	to	---
sw3746A-ms98-a-0056	A.73	227.900875	228.110875		say	say
sw3746A-ms98-a-0056	A.73	228.110875	228.240875	<CONT>	they	they're
sw3746A-ms98-a-0056	A.73	228.240875	228.240875	<CONT>	are	+++
sw3746A-ms98-a-0056	A.73	228.240875	228.899500		pansies	pansies
sw3746A-ms98-a-0056	A.75	228.899500	229.502625		[silence]	[silence]
sw3746A-ms98-a-0057	A.75	229.502625	230.240875		[silence]	[silence]
sw3746A-ms98-a-0057	A.75	230.240875	230.362250		She	she
sw3746A-ms98-a-0057	A.75	230.362250	230.502625		put	put
sw3746A-ms98-a-0057	A.75	230.502625	230.602625		them	them_1
sw3746A-ms98-a-0057	A.75	230.602625	230.712625		in	in
sw3746A-ms98-a-0057	A.75	230.712625	230.882625		like	like
sw3746A-ms98-a-0057	A.75	230.882625	231.042625		two	two
sw3746A-ms98-a-0057	A.75	231.042625	231.332625		months	months
sw3746A-ms98-a-0057	A.75	231.332625	231.602625		ago	ago
sw3746A-ms98-a-0057	A.75	231.602625	231.882625	<SUB>	cause	because
sw3746A-ms98-a-0057	A.75	231.882625	232.062625	<CONT>	they	they're
sw3746A-ms98-a-0057	A.75	232.062625	232.062625	<CONT>	are	+++
sw3746A-ms98-a-0057	A.75	232.062625	232.372625		winter	winter
sw3746A-ms98-a-0057	A.75	232.372625	232.942625		plants	plants
sw3746A-ms98-a-0057	A.77	232.942625	233.309875		[silence]	[silence]
sw3746A-ms98-a-0058	A.77	233.309875	233.949875		[silence]	[silence]
sw3746A-ms98-a-0058	A.77	233.949875	234.139875		And	and
sw3746A-ms98-a-0058	A.77	234.139875	234.249875		they	they
sw3746A-ms98-a-0058	A.77	234.249875	234.449875	<SUB>	have	just
sw3746A-ms98-a-0058	A.77	234.449875	234.680250		[silence]	[silence]
sw3746A-ms98-a-0058	A.77	234.680250	234.774375	<SUB>	been	bl[oom]-
sw3746A-ms98-a-0058	A.77	234.774375	234.949875	<SUB>	we	with
sw3746A-ms98-a-0058	A.77	234.949875	234.989875	<SUB>	thought	a[ll]-
sw3746A-ms98-a-0058	A.77	234.989875	235.339875		even	even
sw3746A-ms98-a-0058	A.77	235.339875	235.514250		with	with
sw3746A-ms98-a-0058	A.77	235.514250	235.729875		all	all
sw3746A-ms98-a-0058	A.77	235.729875	235.799875		the	the
sw3746A-ms98-a-0058	A.77	235.799875	236.089875		cold	cold
sw3746A-ms98-a-0058	A.77	236.089875	236.399875		weather	weather
sw3746A-ms98-a-0058	A.77	236.399875	236.809875		weather	weather
sw3746A-ms98-a-0058	A.77	236.809875	236.999875	<CONT>	we	we've
sw3746A-ms98-a-0058	A.77	236.999875	236.999875	<CONT>	have	+++
sw3746A-ms98-a-0058	A.77	236.999875	237.379875		had	had
sw3746A-ms98-a-0058	A.77	237.379875	237.689875	<CONT>	they	they've
sw3746A-ms98-a-0058	A.77	237.689875	237.689875	<CONT>	have	+++
sw3746A-ms98-a-0058	A.77	237.689875	237.889875		been	been
sw3746A-ms98-a-0058	A.77	237.889875	238.279875		blooming	blooming
sw3746A-ms98-a-0058	A.77	238.279875	238.479875		just	just
sw3746A-ms98-a-0058	A.77	238.479875	238.825375		fine	fine
sw3746A-ms98-a-0058	A.79	238.825375	239.259625		[silence]	[silence]
sw3746A-ms98-a-0059	A.79	239.259625	241.858000		[silence]	[silence]
sw3746A-ms98-a-0060	A.79	241.858000	242.293750		[silence]	[silence]
sw3746A-ms98-a-0060	A.79	242.293750	242.468000	<CONT>	That	that's
sw3746A-ms98-a-0060	A.79	242.468000	242.468000	<CONT>	is	+++
sw3746A-ms98-a-0060	A.79	242.468000	242.568000		when	when
sw3746A-ms98-a-0060	A.79	242.568000	242.768000		she	she
sw3746A-ms98-a-0060	A.79	242.768000	243.038000		did	did
sw3746A-ms98-a-0060	A.79	243.038000	243.159625		I	i
sw3746A-ms98-a-0060	A.79	243.159625	243.390125		think	think
sw3746A-ms98-a-0060	A.81	243.390125	243.859250		[silence]	[silence]
sw3746A-ms98-a-0061	A.81	243.859250	269.911750		[silence]	[silence]
sw3746A-ms98-a-0062	A.81	269.911750	270.357000		[silence]	[silence]
sw3746A-ms98-a-0062	A.81	270.357000	270.716875	<SUB>	Uh-huh	um-hum
sw3746A-ms98-a-0062	A.83	270.716875	271.117875		[silence]	[silence]
sw3746A-ms98-a-0063	A.83	271.117875	274.359125		[silence]	[silence]
sw3746A-ms98-a-0064	A.83	274.359125	274.780000		[silence]	[silence]
sw3746A-ms98-a-0064	A.83	274.780000	274.859125		Do	do
sw3746A-ms98-a-0064	A.83	274.859125	274.999125		they	they
sw3746A-ms98-a-0064	A.83	274.999125	275.569125		survive	survive
sw3746A-ms98-a-0064	A.83	275.569125	275.979125		longer	longer
sw3746A-ms98-a-0064	A.83	275.979125	276.079125		if	if
sw3746A-ms98-a-0064	A.83	276.079125	276.169125		you	you
sw3746A-ms98-a-0064	A.83	276.169125	276.349125	<SUB>	plant	put
sw3746A-ms98-a-0064	A.83	276.349125	276.509125		them	them_1
sw3746A-ms98-a-0064	A.83	276.509125	276.679125		in	in
sw3746A-ms98-a-0064	A.83	276.679125	276.779125		the	the
sw3746A-ms98-a-0064	A.83	276.779125	277.009125		winter	winter
sw3746A-ms98-a-0064	A.83	277.009125	277.299125		time	time
sw3746A-ms98-a-0064	A.83	277.299125	277.389125		Will	will
sw3746A-ms98-a-0064	A.83	277.389125	277.519125		they	they
sw3746A-ms98-a-0064	A.83	277.519125	277.749125		make	make
sw3746A-ms98-a-0064	A.83	277.749125	277.849125		it	it
sw3746A-ms98-a-0064	A.83	277.849125	278.069125		through	through
sw3746A-ms98-a-0064	A.83	278.069125	278.209125		the	the
sw3746A-ms98-a-0064	A.83	278.209125	278.519125		summer	summer
sw3746A-ms98-a-0064	A.83	278.519125	278.857250	<SUB>	sun	some
sw3746A-ms98-a-0064	A.85	278.857250	279.342750		[silence]	[silence]
sw3746A-ms98-a-0065	A.85	279.342750	282.426375		[silence]	[silence]
sw3746A-ms98-a-0066	A.85	282.426375	282.902500		[silence]	[silence]
sw3746A-ms98-a-0066	A.85	282.902500	283.187250	<SUB>	Well	um-hum
sw3746A-ms98-a-0066	A.87	283.187250	283.636000		[silence]	[silence]
sw3746A-ms98-a-0067	A.87	283.636000	288.566875		[silence]	[silence]
sw3746A-ms98-a-0068	A.87	288.566875	288.996875		[silence]	[silence]
sw3746A-ms98-a-0068	A.87	288.996875	289.283750		Well	well
sw3746A-ms98-a-0068	A.87	289.283750	289.775375		[silence]	[silence]
sw3746A-ms98-a-0069	A.87	289.775375	291.912500		[silence]	[silence]
sw3746A-ms98-a-0070	A.87	291.912500	292.404500		[silence]	[silence]
sw3746A-ms98-a-0070	A.87	292.404500	292.482875	<DEL>	---	oh
sw3746A-ms98-a-0070	A.87	292.482875	292.702500	<CONT>	that	that's
sw3746A-ms98-a-0070	A.87	292.702500	292.702500	<CONT>	is	+++
sw3746A-ms98-a-0070	A.87	292.702500	292.969750		good	good
sw3746A-ms98-a-0070	A.87	292.969750	293.465750		[silence]	[silence]
sw3746A-ms98-a-0071	A.87	293.465750	298.626000		[silence]	[silence]
