sw3760B-ms98-a-0001	B.2	0.000000	0.195125		[silence]	[silence]
sw3760B-ms98-a-0001	B.2	0.195125	0.364250		[noise]	[noise]
sw3760B-ms98-a-0001	B.2	0.364250	0.493375		[silence]	[silence]
sw3760B-ms98-a-0002	B.2	0.493375	2.983125		[silence]	[silence]
sw3760B-ms98-a-0003	B.2	2.983125	3.339000		[silence]	[silence]
sw3760B-ms98-a-0003	B.2	3.339000	3.671500	<SUB>	Uh-huh	um-hum
sw3760B-ms98-a-0003	B.4	3.671500	4.114875		[silence]	[silence]
sw3760B-ms98-a-0004	B.4	4.114875	6.525375		[silence]	[silence]
sw3760B-ms98-a-0005	B.4	6.525375	6.792625		[silence]	[silence]
sw3760B-ms98-a-0005	B.4	6.792625	7.407375		Uh-huh	uh-huh
sw3760B-ms98-a-0005	B.6	7.407375	7.781000		[silence]	[silence]
sw3760B-ms98-a-0006	B.6	7.781000	21.676125		[silence]	[silence]
sw3760B-ms98-a-0007	B.6	21.676125	22.166125		[silence]	[silence]
sw3760B-ms98-a-0007	B.6	22.166125	22.286125		Well	well
sw3760B-ms98-a-0007	B.6	22.286125	22.476125	<CONT>	that	that's
sw3760B-ms98-a-0007	B.6	22.476125	22.476125	<CONT>	is	+++
sw3760B-ms98-a-0007	B.6	22.476125	22.646125		pretty	pretty
sw3760B-ms98-a-0007	B.6	22.646125	23.066125		impressive	impressive
sw3760B-ms98-a-0007	B.6	23.066125	23.126125		to	to
sw3760B-ms98-a-0007	B.6	23.126125	23.226125		have	have
sw3760B-ms98-a-0007	B.6	23.226125	23.436125		three	three
sw3760B-ms98-a-0007	B.6	23.436125	23.696125		books	books
sw3760B-ms98-a-0007	B.6	23.696125	24.126375		going	going
sw3760B-ms98-a-0007	B.8	24.126375	24.268875		[silence]	[silence]
sw3760B-ms98-a-0008	B.8	24.268875	25.279875		[silence]	[silence]
sw3760B-ms98-a-0009	B.8	25.279875	25.684875		[silence]	[silence]
sw3760B-ms98-a-0009	B.8	25.684875	25.799875		Oh	oh
sw3760B-ms98-a-0009	B.8	25.799875	26.092750		yeah	yeah
sw3760B-ms98-a-0009	B.8	26.092750	26.333750		[silence]	[silence]
sw3760B-ms98-a-0009	B.8	26.333750	26.559875		And	and
sw3760B-ms98-a-0009	B.8	26.559875	26.649875	<SUB>	what	and
sw3760B-ms98-a-0009	B.8	26.649875	26.819875		what	what
sw3760B-ms98-a-0009	B.8	26.819875	26.989875		kind	kind
sw3760B-ms98-a-0009	B.8	26.989875	27.059875		of	of
sw3760B-ms98-a-0009	B.8	27.059875	27.239875		books	books
sw3760B-ms98-a-0009	B.8	27.239875	27.309875		do	do
sw3760B-ms98-a-0009	B.8	27.309875	27.399875		you	you
sw3760B-ms98-a-0009	B.8	27.399875	27.589875		read	read
sw3760B-ms98-a-0009	B.10	27.589875	28.002125		[silence]	[silence]
sw3760B-ms98-a-0010	B.10	28.002125	42.999125		[silence]	[silence]
sw3760B-ms98-a-0011	B.10	42.999125	43.358875		[silence]	[silence]
sw3760B-ms98-a-0011	B.10	43.358875	43.529125		Oh	oh
sw3760B-ms98-a-0011	B.10	43.529125	43.820625		yeah	yeah
sw3760B-ms98-a-0011	B.12	43.820625	44.200750		[silence]	[silence]
sw3760B-ms98-a-0012	B.12	44.200750	44.570500		[silence]	[silence]
sw3760B-ms98-a-0012	B.12	44.570500	44.690750		Oh	oh
sw3760B-ms98-a-0012	B.12	44.690750	44.790750		do	do
sw3760B-ms98-a-0012	B.12	44.790750	44.870750		you	you
sw3760B-ms98-a-0012	B.12	44.870750	45.100750		like	like
sw3760B-ms98-a-0012	B.12	45.100750	45.280750		those	those
sw3760B-ms98-a-0012	B.12	45.280750	45.710750		detective	detective
sw3760B-ms98-a-0012	B.12	45.710750	46.260000		stories	stories
sw3760B-ms98-a-0012	B.14	46.260000	46.493875		[silence]	[silence]
sw3760B-ms98-a-0013	B.14	46.493875	51.417000		[silence]	[silence]
sw3760B-ms98-a-0014	B.14	51.417000	52.040375		[silence]	[silence]
sw3760B-ms98-a-0014	B.14	52.040375	52.247000		Oh	oh
sw3760B-ms98-a-0014	B.14	52.247000	52.507000		well	well
sw3760B-ms98-a-0014	B.14	52.507000	52.747000	<CONT>	that	that's
sw3760B-ms98-a-0014	B.14	52.747000	52.747000	<CONT>	is	+++
sw3760B-ms98-a-0014	B.14	52.747000	53.157000		interesting	interesting
sw3760B-ms98-a-0014	B.14	53.157000	53.237000	<SUB>	Actually	i-
sw3760B-ms98-a-0014	B.14	53.237000	53.377000		I	i
sw3760B-ms98-a-0014	B.14	53.377000	53.733875	<DEL>	---	actually
sw3760B-ms98-a-0014	B.14	53.733875	53.987000		like	like
sw3760B-ms98-a-0014	B.14	53.987000	54.117000		to	to
sw3760B-ms98-a-0014	B.14	54.117000	54.277000		read	read
sw3760B-ms98-a-0014	B.14	54.277000	54.577000		also	also
sw3760B-ms98-a-0014	B.14	54.577000	54.897000		but	but
sw3760B-ms98-a-0014	B.14	54.897000	55.393125		[silence]	[silence]
sw3760B-ms98-a-0015	B.14	55.393125	56.073125		[silence]	[silence]
sw3760B-ms98-a-0015	B.14	56.073125	56.333125	<SUB>	uh	i
sw3760B-ms98-a-0015	B.14	56.333125	56.683125		usually	usually
sw3760B-ms98-a-0015	B.14	56.683125	56.933125		fall	fall
sw3760B-ms98-a-0015	B.14	56.933125	57.143125		into	into
sw3760B-ms98-a-0015	B.14	57.143125	57.283125		one	one
sw3760B-ms98-a-0015	B.14	57.283125	57.373125	<SUB>	or	of
sw3760B-ms98-a-0015	B.14	57.373125	57.603125		two	two
sw3760B-ms98-a-0015	B.14	57.603125	58.324625		categories	categories
sw3760B-ms98-a-0015	B.14	58.324625	58.938000		either	either
sw3760B-ms98-a-0015	B.14	58.938000	59.462625		[silence]	[silence]
sw3760B-ms98-a-0016	B.14	59.462625	59.695500		[silence]	[silence]
sw3760B-ms98-a-0016	B.14	59.695500	59.962625		[vocalized-noise]	[vocalized-noise]
sw3760B-ms98-a-0016	B.14	59.962625	60.592625		true	true
sw3760B-ms98-a-0016	B.14	60.592625	61.042625		science	science
sw3760B-ms98-a-0016	B.14	61.042625	61.372625		fiction	fiction
sw3760B-ms98-a-0016	B.14	61.372625	61.442625		or	or
sw3760B-ms98-a-0016	B.14	61.442625	62.095000		fantasy	fantasy
sw3760B-ms98-a-0016	B.14	62.095000	62.513000		[silence]	[silence]
sw3760B-ms98-a-0016	B.14	62.513000	62.772625		on	on
sw3760B-ms98-a-0016	B.14	62.772625	62.772625	<INS>	the	---
sw3760B-ms98-a-0016	B.14	62.772625	62.952625		one	one
sw3760B-ms98-a-0016	B.14	62.952625	63.290250		hand	hand
sw3760B-ms98-a-0016	B.14	63.290250	63.520000		[silence]	[silence]
sw3760B-ms98-a-0016	B.14	63.520000	63.825125		or	or
sw3760B-ms98-a-0016	B.14	63.825125	64.149000		[silence]	[silence]
sw3760B-ms98-a-0016	B.14	64.149000	64.482625		highly	highly
sw3760B-ms98-a-0016	B.14	64.482625	65.166625		technical	technical
sw3760B-ms98-a-0016	B.16	65.166625	65.739500		[silence]	[silence]
sw3760B-ms98-a-0017	B.16	65.739500	66.498875		[silence]	[silence]
sw3760B-ms98-a-0017	B.16	66.498875	66.895000		Yeah	yeah
sw3760B-ms98-a-0017	B.18	66.895000	66.895000	<INS>	Yeah	---
sw3760B-ms98-a-0017	B.18	66.895000	67.319375		[silence]	[silence]
sw3760B-ms98-a-0018	B.18	67.319375	67.759375		[silence]	[silence]
sw3760B-ms98-a-0018	B.18	67.759375	67.949375		kind	kind
sw3760B-ms98-a-0018	B.18	67.949375	68.199375		of	of
sw3760B-ms98-a-0018	B.18	68.199375	68.339375		one	one
sw3760B-ms98-a-0018	B.18	68.339375	68.449375		or	or
sw3760B-ms98-a-0018	B.18	68.449375	68.529375		the	the
sw3760B-ms98-a-0018	B.18	68.529375	68.862250		other	other
sw3760B-ms98-a-0018	B.18	68.862250	69.241750		[silence]	[silence]
sw3760B-ms98-a-0019	B.18	69.241750	69.671750		[silence]	[silence]
sw3760B-ms98-a-0019	B.18	69.671750	70.005250	<SUB>	Uh	i
sw3760B-ms98-a-0019	B.20	70.005250	70.512750		[silence]	[silence]
sw3760B-ms98-a-0020	B.20	70.512750	71.186125		[silence]	[silence]
sw3760B-ms98-a-0020	B.20	71.186125	71.292750		I	i
sw3760B-ms98-a-0020	B.20	71.292750	71.692750		do	do
sw3760B-ms98-a-0020	B.20	71.692750	72.007125		Yes	yes
sw3760B-ms98-a-0020	B.22	72.007125	72.374250		[silence]	[silence]
sw3760B-ms98-a-0021	B.22	72.374250	72.769375		[silence]	[silence]
sw3760B-ms98-a-0021	B.22	72.769375	73.034250		Yeah	yeah
sw3760B-ms98-a-0021	B.22	73.034250	73.254250		and	and
sw3760B-ms98-a-0021	B.22	73.254250	73.394250	<CONT>	I	i'm
sw3760B-ms98-a-0021	B.22	73.394250	73.394250	<CONT>	am	+++
sw3760B-ms98-a-0021	B.22	73.394250	73.434250		a	a
sw3760B-ms98-a-0021	B.22	73.434250	73.814250		computer	computer
sw3760B-ms98-a-0021	B.22	73.814250	74.474250		scientist	scientist
sw3760B-ms98-a-0021	B.24	74.474250	74.912375		[silence]	[silence]
sw3760B-ms98-a-0022	B.24	74.912375	75.562375		[silence]	[silence]
sw3760B-ms98-a-0022	B.24	75.562375	75.792375		But	but
sw3760B-ms98-a-0022	B.24	75.792375	75.872375		I	i
sw3760B-ms98-a-0022	B.24	75.872375	76.032375		have	have
sw3760B-ms98-a-0022	B.24	76.032375	76.072375		a	a
sw3760B-ms98-a-0022	B.24	76.072375	76.252375		lot	lot
sw3760B-ms98-a-0022	B.24	76.252375	76.332375		of	of
sw3760B-ms98-a-0022	B.24	76.332375	76.474000		other	other
sw3760B-ms98-a-0022	B.24	76.474000	77.231000		hobbies	hobbies
sw3760B-ms98-a-0022	B.26	77.231000	77.543500	<DEL>	---	i-
sw3760B-ms98-a-0022	B.26	77.543500	77.886250	<DEL>	---	i
sw3760B-ms98-a-0022	B.26	77.886250	78.272375		[silence]	[silence]
sw3760B-ms98-a-0022	B.26	78.272375	78.472375		Well	well
sw3760B-ms98-a-0022	B.26	78.472375	78.702375		yeah	yeah
sw3760B-ms98-a-0022	B.26	78.702375	78.732375	<DEL>	---	i-
sw3760B-ms98-a-0022	B.26	78.732375	79.074500		I	i
sw3760B-ms98-a-0022	B.26	79.074500	79.442375	<SUB>	am	i'm
sw3760B-ms98-a-0022	B.26	79.442375	79.702375		kind	kind
sw3760B-ms98-a-0022	B.26	79.702375	79.812375		of	of
sw3760B-ms98-a-0022	B.26	79.812375	80.082375	<SUB>	uh	um
sw3760B-ms98-a-0022	B.26	80.082375	80.875375		[silence]	[silence]
sw3760B-ms98-a-0023	B.26	80.875375	81.514000		[silence]	[silence]
sw3760B-ms98-a-0023	B.26	81.514000	81.735375	<DEL>	---	i-
sw3760B-ms98-a-0023	B.26	81.735375	81.765375		I	i
sw3760B-ms98-a-0023	B.26	81.765375	81.867000		guess	guess
sw3760B-ms98-a-0023	B.26	81.867000	82.175375		what	what
sw3760B-ms98-a-0023	B.26	82.175375	82.395375	<CONT>	you	you'd
sw3760B-ms98-a-0023	B.26	82.395375	82.395375	<CONT>	would	+++
sw3760B-ms98-a-0023	B.26	82.395375	82.585375		call	call
sw3760B-ms98-a-0023	B.26	82.585375	82.655375		it	it
sw3760B-ms98-a-0023	B.26	82.655375	82.695375		a	a
sw3760B-ms98-a-0023	B.26	82.695375	83.355375		project	project
sw3760B-ms98-a-0023	B.26	83.355375	84.131000		person	person
sw3760B-ms98-a-0023	B.28	84.131000	84.402250		[silence]	[silence]
sw3760B-ms98-a-0023	B.28	84.402250	84.735375		Yeah	yeah
sw3760B-ms98-a-0023	B.28	84.735375	84.905375		and	and
sw3760B-ms98-a-0023	B.28	84.905375	84.985375		I	i
sw3760B-ms98-a-0023	B.28	84.985375	85.335375		love	love
sw3760B-ms98-a-0023	B.28	85.335375	85.556000	<DEL>	---	i
sw3760B-ms98-a-0023	B.28	85.556000	85.895375		like	like
sw3760B-ms98-a-0023	B.28	85.895375	86.005375		I	i
sw3760B-ms98-a-0023	B.28	86.005375	86.125375		have	have
sw3760B-ms98-a-0023	B.28	86.125375	86.175375		a	a
sw3760B-ms98-a-0023	B.28	86.175375	86.715375		shop	shop
sw3760B-ms98-a-0023	B.28	86.715375	87.044625		and	and
sw3760B-ms98-a-0023	B.28	87.044625	87.240625		[silence]	[silence]
sw3760B-ms98-a-0024	B.28	87.240625	87.460625		[silence]	[silence]
sw3760B-ms98-a-0024	B.28	87.460625	87.630625		when	when
sw3760B-ms98-a-0024	B.28	87.630625	87.980625		things	things
sw3760B-ms98-a-0024	B.28	87.980625	88.200625		break	break
sw3760B-ms98-a-0024	B.28	88.200625	88.370625		around	around
sw3760B-ms98-a-0024	B.28	88.370625	88.430625		the	the
sw3760B-ms98-a-0024	B.28	88.430625	88.720625		house	house
sw3760B-ms98-a-0024	B.28	88.720625	88.750625		I	i
sw3760B-ms98-a-0024	B.28	88.750625	88.920625		always	always
sw3760B-ms98-a-0024	B.28	88.920625	89.100625		try	try
sw3760B-ms98-a-0024	B.28	89.100625	89.270625	<SUB>	to	and
sw3760B-ms98-a-0024	B.28	89.270625	89.504250		[silence]	[silence]
sw3760B-ms98-a-0024	B.28	89.504250	89.770625		fix	fix
sw3760B-ms98-a-0024	B.28	89.770625	89.840625		them	them_1
sw3760B-ms98-a-0024	B.28	89.840625	90.430625		myself	myself
sw3760B-ms98-a-0024	B.28	90.430625	90.597125		and	and
sw3760B-ms98-a-0024	B.28	90.597125	91.154625		[silence]	[silence]
sw3760B-ms98-a-0024	B.28	91.154625	91.400625		so	so
sw3760B-ms98-a-0024	B.28	91.400625	91.820625		hobby	hobby
sw3760B-ms98-a-0024	B.28	91.820625	92.028000	<DEL>	---	i[t's]-
sw3760B-ms98-a-0024	B.28	92.028000	92.231375		[silence]	[silence]
sw3760B-ms98-a-0024	B.28	92.231375	92.378375	<DEL>	---	i[t's]-
sw3760B-ms98-a-0024	B.28	92.378375	92.559125		[silence]	[silence]
sw3760B-ms98-a-0024	B.28	92.559125	92.770625		it's	it's
sw3760B-ms98-a-0024	B.28	92.770625	92.960625	<SUB>	it's	its
sw3760B-ms98-a-0024	B.28	92.960625	93.398625		funny	funny
sw3760B-ms98-a-0024	B.28	93.398625	93.670625		uh	uh
sw3760B-ms98-a-0024	B.28	93.670625	93.890625		from	from
sw3760B-ms98-a-0024	B.28	93.890625	93.950625		the	the
sw3760B-ms98-a-0024	B.28	93.950625	94.200625		one	one
sw3760B-ms98-a-0024	B.28	94.200625	94.500625		stand	stand
sw3760B-ms98-a-0024	B.28	94.500625	94.850625		point	point
sw3760B-ms98-a-0024	B.28	94.850625	95.257875	<CONT>	it	it's
sw3760B-ms98-a-0024	B.28	95.257875	95.257875	<CONT>	is	+++
sw3760B-ms98-a-0024	B.28	95.257875	95.611875		[silence]	[silence]
sw3760B-ms98-a-0024	B.28	95.611875	96.268375		work	work
sw3760B-ms98-a-0024	B.28	96.268375	96.508125		[silence]	[silence]
sw3760B-ms98-a-0025	B.28	96.508125	96.828125		[silence]	[silence]
sw3760B-ms98-a-0025	B.28	96.828125	96.998125		But	but
sw3760B-ms98-a-0025	B.28	96.998125	97.148125	<CONT>	it	it's
sw3760B-ms98-a-0025	B.28	97.148125	97.148125	<CONT>	is	+++
sw3760B-ms98-a-0025	B.28	97.148125	97.208125		a	a
sw3760B-ms98-a-0025	B.28	97.208125	97.638125		hobby	hobby
sw3760B-ms98-a-0025	B.28	97.638125	97.858125		too	too
sw3760B-ms98-a-0025	B.28	97.858125	98.088125		that	that
sw3760B-ms98-a-0025	B.28	98.088125	98.218125	<DEL>	---	that
sw3760B-ms98-a-0025	B.28	98.218125	98.268125		I	i
sw3760B-ms98-a-0025	B.28	98.268125	98.608125		enjoy	enjoy
sw3760B-ms98-a-0025	B.30	98.608125	98.708125		to	to
sw3760B-ms98-a-0025	B.30	98.708125	99.128125		do	do
sw3760B-ms98-a-0025	B.30	99.128125	99.387375		To	to
sw3760B-ms98-a-0025	B.30	99.387375	99.654875		[silence]	[silence]
sw3760B-ms98-a-0025	B.30	99.654875	100.048125		find	find
sw3760B-ms98-a-0025	B.30	100.048125	100.820875		broken	broken
sw3760B-ms98-a-0025	B.32	100.820875	101.086125		[silence]	[silence]
sw3760B-ms98-a-0026	B.32	101.086125	101.836125		[silence]	[silence]
sw3760B-ms98-a-0026	B.32	101.836125	102.120000		Well	well
sw3760B-ms98-a-0026	B.32	102.120000	102.323375		[silence]	[silence]
sw3760B-ms98-a-0026	B.32	102.323375	102.896125		essentially	essentially
sw3760B-ms98-a-0026	B.32	102.896125	103.186125		anything	anything
sw3760B-ms98-a-0026	B.32	103.186125	103.326125	<SUB>	you	you'd
sw3760B-ms98-a-0026	B.32	103.326125	103.556125		find	find
sw3760B-ms98-a-0026	B.32	103.556125	103.706125		in	in
sw3760B-ms98-a-0026	B.32	103.706125	103.736125		a	a
sw3760B-ms98-a-0026	B.32	103.736125	104.286125		house	house
sw3760B-ms98-a-0026	B.32	104.286125	104.404375		[silence]	[silence]
sw3760B-ms98-a-0027	B.32	104.404375	104.676375		[silence]	[silence]
sw3760B-ms98-a-0027	B.32	104.676375	104.994375		Uh	uh
sw3760B-ms98-a-0027	B.32	104.994375	105.024375		a	a
sw3760B-ms98-a-0027	B.32	105.024375	105.097125	<DEL>	---	a
sw3760B-ms98-a-0027	B.32	105.097125	105.365625		[silence]	[silence]
sw3760B-ms98-a-0027	B.32	105.365625	105.644375		stove	stove
sw3760B-ms98-a-0027	B.32	105.644375	105.744375		or	or
sw3760B-ms98-a-0027	B.32	105.744375	105.824375	<DEL>	---	an
sw3760B-ms98-a-0027	B.32	105.824375	106.114375		oven	oven
sw3760B-ms98-a-0027	B.32	106.114375	106.294375		or	or
sw3760B-ms98-a-0027	B.32	106.294375	106.334375		a	a
sw3760B-ms98-a-0027	B.32	106.334375	106.904375		broken	broken
sw3760B-ms98-a-0027	B.32	106.904375	107.134375		piece	piece
sw3760B-ms98-a-0027	B.32	107.134375	107.194375		of	of
sw3760B-ms98-a-0027	B.32	107.194375	107.844375		porcelain	porcelain
sw3760B-ms98-a-0027	B.32	107.844375	108.034375		or	or
sw3760B-ms98-a-0027	B.32	108.034375	108.227625		uh	uh
sw3760B-ms98-a-0027	B.32	108.227625	108.820375		[silence]	[silence]
sw3760B-ms98-a-0028	B.32	108.820375	109.417625		[silence]	[silence]
sw3760B-ms98-a-0028	B.32	109.417625	109.790375		chipped	chipped
sw3760B-ms98-a-0028	B.32	109.790375	110.240375		tile	tile
sw3760B-ms98-a-0028	B.32	110.240375	110.400375		on	on
sw3760B-ms98-a-0028	B.32	110.400375	110.470375		the	the
sw3760B-ms98-a-0028	B.32	110.470375	110.920375		floor	floor
sw3760B-ms98-a-0028	B.32	110.920375	110.960375		I	i
sw3760B-ms98-a-0028	B.32	110.960375	111.080375		mean	mean
sw3760B-ms98-a-0028	B.32	111.080375	111.290375		just	just
sw3760B-ms98-a-0028	B.32	111.290375	111.732750		anything	anything
sw3760B-ms98-a-0028	B.34	111.732750	112.119000		[silence]	[silence]
sw3760B-ms98-a-0029	B.34	112.119000	113.948125		[silence]	[silence]
sw3760B-ms98-a-0030	B.34	113.948125	114.528125		[silence]	[silence]
sw3760B-ms98-a-0030	B.34	114.528125	114.768125		Well	well
sw3760B-ms98-a-0030	B.34	114.768125	115.107625	<SUB>	it	it's
sw3760B-ms98-a-0030	B.34	115.107625	115.398125	<CONT>	it	it's
sw3760B-ms98-a-0030	B.34	115.398125	115.398125	<CONT>	is	+++
sw3760B-ms98-a-0030	B.34	115.398125	115.648125		not	not
sw3760B-ms98-a-0030	B.34	115.648125	115.958125		anything	anything
sw3760B-ms98-a-0030	B.34	115.958125	116.418125		elaborate	elaborate
sw3760B-ms98-a-0030	B.34	116.418125	116.518125	<CONT>	It	it's
sw3760B-ms98-a-0030	B.34	116.518125	116.518125	<CONT>	is	+++
sw3760B-ms98-a-0030	B.34	116.518125	116.738125		just	just
sw3760B-ms98-a-0030	B.34	116.738125	116.818125		a	a
sw3760B-ms98-a-0030	B.34	116.818125	117.108125		work	work
sw3760B-ms98-a-0030	B.34	117.108125	117.428125		bench	bench
sw3760B-ms98-a-0030	B.34	117.428125	117.546625	<SUB>	and	with
sw3760B-ms98-a-0030	B.34	117.546625	117.829125		[silence]	[silence]
sw3760B-ms98-a-0030	B.34	117.829125	117.958125		a	a
sw3760B-ms98-a-0030	B.34	117.958125	118.438125		gazillion	gazillion
sw3760B-ms98-a-0030	B.34	118.438125	119.021875		tools	tools
sw3760B-ms98-a-0030	B.36	119.021875	119.169000		[silence]	[silence]
sw3760B-ms98-a-0031	B.36	119.169000	119.532000		[silence]	[silence]
sw3760B-ms98-a-0031	B.36	119.532000	119.789000		But	but
sw3760B-ms98-a-0031	B.36	119.789000	120.199000		enough	enough
sw3760B-ms98-a-0031	B.36	120.199000	120.419000		that	that
sw3760B-ms98-a-0031	B.36	120.419000	120.950875		[silence]	[silence]
sw3760B-ms98-a-0032	B.36	120.950875	121.380500		[silence]	[silence]
sw3760B-ms98-a-0032	B.36	121.380500	121.740875		[vocalized-noise]	[vocalized-noise]
sw3760B-ms98-a-0032	B.36	121.740875	122.020875		again	again
sw3760B-ms98-a-0032	B.36	122.020875	122.130875		for	for
sw3760B-ms98-a-0032	B.36	122.130875	122.420875		anything	anything
sw3760B-ms98-a-0032	B.36	122.420875	122.520875		in	in
sw3760B-ms98-a-0032	B.36	122.520875	122.590875		the	the
sw3760B-ms98-a-0032	B.36	122.590875	123.060875		house	house
sw3760B-ms98-a-0032	B.36	123.060875	123.120875		I	i
sw3760B-ms98-a-0032	B.36	123.120875	123.360875	<SUB>	could	can
sw3760B-ms98-a-0032	B.36	123.360875	123.930875		probably	probably
sw3760B-ms98-a-0032	B.38	123.930875	124.632625		[silence]	[silence]
sw3760B-ms98-a-0033	B.38	124.632625	125.293625		[silence]	[silence]
sw3760B-ms98-a-0033	B.38	125.293625	125.732000		Right	right
sw3760B-ms98-a-0033	B.40	125.732000	126.186125		[silence]	[silence]
sw3760B-ms98-a-0034	B.40	126.186125	126.723250		[silence]	[silence]
sw3760B-ms98-a-0034	B.40	126.723250	126.866125		And	and
sw3760B-ms98-a-0034	B.40	126.866125	126.946125		in	in
sw3760B-ms98-a-0034	B.40	126.946125	127.006125		the	the
sw3760B-ms98-a-0034	B.40	127.006125	127.376125		car	car
sw3760B-ms98-a-0034	B.40	127.376125	127.446125		I	i
sw3760B-ms98-a-0034	B.40	127.446125	127.656125		guess	guess
sw3760B-ms98-a-0034	B.40	127.656125	127.879125		the	the
sw3760B-ms98-a-0034	B.40	127.879125	128.230875		car	car
sw3760B-ms98-a-0034	B.40	128.230875	128.475375		[silence]	[silence]
sw3760B-ms98-a-0034	B.40	128.475375	128.793625		too	too
sw3760B-ms98-a-0034	B.42	128.793625	128.793625	<INS>	And	---
sw3760B-ms98-a-0034	B.42	128.793625	128.987125		[silence]	[silence]
sw3760B-ms98-a-0035	B.42	128.987125	130.021625		[silence]	[silence]
sw3760B-ms98-a-0036	B.42	130.021625	130.401625		[silence]	[silence]
sw3760B-ms98-a-0036	B.42	130.401625	130.541625		so	so
sw3760B-ms98-a-0036	B.42	130.541625	130.811625	<SUB>	uh	that's
sw3760B-ms98-a-0036	B.42	130.811625	130.861625	<DEL>	---	i-
sw3760B-ms98-a-0036	B.42	130.861625	131.007125		I	i
sw3760B-ms98-a-0036	B.42	131.007125	131.331625		think	think
sw3760B-ms98-a-0036	B.42	131.331625	131.401625		I	i
sw3760B-ms98-a-0036	B.42	131.401625	131.401625	<INS>	probably	---
sw3760B-ms98-a-0036	B.42	131.401625	131.501625		would	would
sw3760B-ms98-a-0036	B.42	131.501625	131.751625	<DEL>	---	probably
sw3760B-ms98-a-0036	B.42	131.751625	132.121625		consider	consider
sw3760B-ms98-a-0036	B.42	132.121625	132.281625		that	that
sw3760B-ms98-a-0036	B.42	132.281625	132.351625		a	a
sw3760B-ms98-a-0036	B.42	132.351625	132.711625		hobby	hobby
sw3760B-ms98-a-0036	B.42	132.711625	133.061625		Although	although
sw3760B-ms98-a-0036	B.42	133.061625	133.441625		sometimes	sometimes
sw3760B-ms98-a-0036	B.42	133.441625	133.521625		it	it
sw3760B-ms98-a-0036	B.42	133.521625	133.681625		gets	gets
sw3760B-ms98-a-0036	B.42	133.681625	133.741625		to	to
sw3760B-ms98-a-0036	B.42	133.741625	133.851625		be	be
sw3760B-ms98-a-0036	B.42	133.851625	134.551500		excessive	excessive
sw3760B-ms98-a-0036	B.44	134.551500	135.119000		[laughter]	[laughter]
sw3760B-ms98-a-0036	B.44	135.119000	135.607000		[silence]	[silence]
sw3760B-ms98-a-0037	B.44	135.607000	144.293500		[silence]	[silence]
sw3760B-ms98-a-0038	B.44	144.293500	144.859500		[silence]	[silence]
sw3760B-ms98-a-0038	B.44	144.859500	145.115500		Yeah	yeah
sw3760B-ms98-a-0038	B.44	145.115500	145.328500		[silence]	[silence]
sw3760B-ms98-a-0038	B.44	145.328500	145.540250		I	i
sw3760B-ms98-a-0038	B.46	145.540250	145.928125		[silence]	[silence]
sw3760B-ms98-a-0039	B.46	145.928125	150.476250		[silence]	[silence]
sw3760B-ms98-a-0040	B.46	150.476250	151.023500		[silence]	[silence]
sw3760B-ms98-a-0040	B.46	151.023500	151.378625		Right	right
sw3760B-ms98-a-0040	B.46	151.378625	151.755250		[silence]	[silence]
sw3760B-ms98-a-0040	B.46	151.755250	151.856250		Yeah	yeah
sw3760B-ms98-a-0040	B.46	151.856250	151.986250	<DEL>	---	i-
sw3760B-ms98-a-0040	B.46	151.986250	152.066250		I	i
sw3760B-ms98-a-0040	B.46	152.066250	152.276250		think	think
sw3760B-ms98-a-0040	B.46	152.276250	152.446250		it	it
sw3760B-ms98-a-0040	B.46	152.446250	152.646125		it	it
sw3760B-ms98-a-0040	B.46	152.646125	153.051875		[silence]	[silence]
sw3760B-ms98-a-0041	B.46	153.051875	153.511875		[silence]	[silence]
sw3760B-ms98-a-0041	B.46	153.511875	153.745750	<DEL>	---	it
sw3760B-ms98-a-0041	B.46	153.745750	153.996875	<DEL>	---	it
sw3760B-ms98-a-0041	B.46	153.996875	154.221875		not	not
sw3760B-ms98-a-0041	B.46	154.221875	154.411875		only	only
sw3760B-ms98-a-0041	B.46	154.411875	154.571875		can	can
sw3760B-ms98-a-0041	B.46	154.571875	154.661875		it	it
sw3760B-ms98-a-0041	B.46	154.661875	154.781875		be	be
sw3760B-ms98-a-0041	B.46	154.781875	155.091875		fun	fun
sw3760B-ms98-a-0041	B.46	155.091875	155.181875		but	but
sw3760B-ms98-a-0041	B.46	155.181875	155.271875		it	it
sw3760B-ms98-a-0041	B.46	155.271875	155.431875		can	can
sw3760B-ms98-a-0041	B.46	155.431875	155.901875		certainly	certainly
sw3760B-ms98-a-0041	B.46	155.901875	156.181875		help	help
sw3760B-ms98-a-0041	B.46	156.181875	156.321875		your	your
sw3760B-ms98-a-0041	B.46	156.321875	157.024250		finances	finances
sw3760B-ms98-a-0041	B.48	157.024250	157.190000		[silence]	[silence]
sw3760B-ms98-a-0042	B.48	157.190000	159.311875		[silence]	[silence]
sw3760B-ms98-a-0043	B.48	159.311875	159.795750		[silence]	[silence]
sw3760B-ms98-a-0043	B.48	159.795750	160.031875		So	so
sw3760B-ms98-a-0043	B.48	160.031875	160.131875		do	do
sw3760B-ms98-a-0043	B.48	160.131875	160.231875		you	you
sw3760B-ms98-a-0043	B.48	160.231875	160.441875		have	have
sw3760B-ms98-a-0043	B.48	160.441875	160.804500		any	any
sw3760B-ms98-a-0043	B.48	160.804500	161.068125		[silence]	[silence]
sw3760B-ms98-a-0043	B.48	161.068125	161.274875	<SUB>	art	art[istic]-
sw3760B-ms98-a-0043	B.48	161.274875	161.410500		[silence]	[silence]
sw3760B-ms98-a-0043	B.48	161.410500	162.106000	<SUB>	uh	um
sw3760B-ms98-a-0043	B.48	162.106000	162.286875		[silence]	[silence]
sw3760B-ms98-a-0043	B.48	162.286875	162.491375	<SUB>	how	i
sw3760B-ms98-a-0043	B.48	162.491375	162.571875	<SUB>	do	w[anna]-
sw3760B-ms98-a-0043	B.48	162.571875	162.601875		I	i
sw3760B-ms98-a-0043	B.48	162.601875	162.761875	<DEL>	---	guess
sw3760B-ms98-a-0043	B.48	162.761875	162.801875	<DEL>	---	i
sw3760B-ms98-a-0043	B.48	162.801875	162.941875	<DEL>	---	wanna
sw3760B-ms98-a-0043	B.48	162.941875	163.281875		say	say
sw3760B-ms98-a-0043	B.48	163.281875	163.281875	<INS>	it	---
sw3760B-ms98-a-0043	B.48	163.281875	163.791875		creative	creative
sw3760B-ms98-a-0043	B.48	163.791875	163.861875		or	or
sw3760B-ms98-a-0043	B.48	163.861875	164.601875		artistic	artistic
sw3760B-ms98-a-0043	B.48	164.601875	165.125125		hobbies	hobbies
sw3760B-ms98-a-0043	B.50	165.125125	165.501000		[silence]	[silence]
sw3760B-ms98-a-0044	B.50	165.501000	171.852250		[silence]	[silence]
sw3760B-ms98-a-0045	B.50	171.852250	172.120000		[silence]	[silence]
sw3760B-ms98-a-0045	B.50	172.120000	172.322250		Oh	oh
sw3760B-ms98-a-0045	B.50	172.322250	172.412250		yeah	yeah
sw3760B-ms98-a-0045	B.50	172.412250	172.512250		well	well
sw3760B-ms98-a-0045	B.50	172.512250	172.792250		that's	that's
sw3760B-ms98-a-0045	B.50	172.792250	173.083625		good	good
sw3760B-ms98-a-0045	B.52	173.083625	173.485250		[silence]	[silence]
sw3760B-ms98-a-0046	B.52	173.485250	176.199250		[silence]	[silence]
sw3760B-ms98-a-0047	B.52	176.199250	176.615125		[silence]	[silence]
sw3760B-ms98-a-0047	B.52	176.615125	176.931875		Yeah	yeah
sw3760B-ms98-a-0047	B.52	176.931875	177.177250		[silence]	[silence]
sw3760B-ms98-a-0047	B.52	177.177250	177.329250		Well	well
sw3760B-ms98-a-0047	B.52	177.329250	177.409250		I	i
sw3760B-ms98-a-0047	B.52	177.409250	177.579250		don't	don't
sw3760B-ms98-a-0047	B.52	177.579250	178.229250		necessarily	necessarily
sw3760B-ms98-a-0047	B.52	178.229250	178.449250		either	either
sw3760B-ms98-a-0047	B.52	178.449250	178.539250		I	i
sw3760B-ms98-a-0047	B.52	178.539250	178.789250		can	can
sw3760B-ms98-a-0047	B.52	178.789250	179.059250		plink	plink
sw3760B-ms98-a-0047	B.52	179.059250	179.239250		out	out
sw3760B-ms98-a-0047	B.52	179.239250	179.279250		a	a
sw3760B-ms98-a-0047	B.52	179.279250	179.569250		song	song
sw3760B-ms98-a-0047	B.52	179.569250	179.639250		or	or
sw3760B-ms98-a-0047	B.52	179.639250	179.829250		two	two
sw3760B-ms98-a-0047	B.52	179.829250	179.919250		on	on
sw3760B-ms98-a-0047	B.52	179.919250	179.969250		a	a
sw3760B-ms98-a-0047	B.52	179.969250	180.495000		piano	piano
sw3760B-ms98-a-0047	B.54	180.495000	181.044875		[silence]	[silence]
sw3760B-ms98-a-0047	B.54	181.044875	181.489125		and	and
sw3760B-ms98-a-0047	B.54	181.489125	181.639250		I	i
sw3760B-ms98-a-0047	B.54	181.639250	182.188625		can	can
sw3760B-ms98-a-0047	B.54	182.188625	182.293125		[silence]	[silence]
sw3760B-ms98-a-0048	B.54	182.293125	183.304375		[silence]	[silence]
sw3760B-ms98-a-0049	B.54	183.304375	183.636000		[silence]	[silence]
sw3760B-ms98-a-0049	B.54	183.636000	184.114375	<SUB>	uh	um
sw3760B-ms98-a-0049	B.54	184.114375	184.274375	<DEL>	---	i-
sw3760B-ms98-a-0049	B.54	184.274375	184.434375		I	i
sw3760B-ms98-a-0049	B.54	184.434375	184.674375		don't	don't
sw3760B-ms98-a-0049	B.54	184.674375	185.294375		necessarily	necessarily
sw3760B-ms98-a-0049	B.54	185.294375	185.754375		draw	draw
sw3760B-ms98-a-0049	B.54	185.754375	185.894375		or	or
sw3760B-ms98-a-0049	B.54	185.894375	186.064375		do	do
sw3760B-ms98-a-0049	B.54	186.064375	186.234375		any	any
sw3760B-ms98-a-0049	B.54	186.234375	186.324375		of	of
sw3760B-ms98-a-0049	B.54	186.324375	186.484375		that	that
sw3760B-ms98-a-0049	B.54	186.484375	186.674375		kind	kind
sw3760B-ms98-a-0049	B.54	186.674375	186.874375		of	of
sw3760B-ms98-a-0049	B.54	186.874375	187.351000		art	art
sw3760B-ms98-a-0049	B.54	187.351000	187.599625		[silence]	[silence]
sw3760B-ms98-a-0049	B.54	187.599625	187.724375		I	i
sw3760B-ms98-a-0049	B.54	187.724375	188.084375		guess	guess
sw3760B-ms98-a-0049	B.56	188.084375	188.084375	<INS>	uh	---
sw3760B-ms98-a-0049	B.56	188.084375	188.544375	<SUB>	graphic	graphics
sw3760B-ms98-a-0049	B.56	188.544375	188.864375		arts	arts
sw3760B-ms98-a-0049	B.58	188.864375	188.964375		is	is
sw3760B-ms98-a-0049	B.58	188.964375	189.134375		that	that
sw3760B-ms98-a-0049	B.58	189.134375	189.244375		what	what
sw3760B-ms98-a-0049	B.58	189.244375	189.344375	<SUB>	they	that
sw3760B-ms98-a-0049	B.58	189.344375	189.434375	<DEL>	---	would
sw3760B-ms98-a-0049	B.58	189.434375	189.524375	<DEL>	---	be
sw3760B-ms98-a-0049	B.58	189.524375	189.744375	<SUB>	call	called
sw3760B-ms98-a-0049	B.58	189.744375	189.834375		it	it
sw3760B-ms98-a-0049	B.58	189.834375	189.864375		I	i
sw3760B-ms98-a-0049	B.58	189.864375	190.144375		can't	can't
sw3760B-ms98-a-0049	B.58	190.144375	190.254375	<DEL>	---	like
sw3760B-ms98-a-0049	B.58	190.254375	190.374375		do	do
sw3760B-ms98-a-0049	B.58	190.374375	190.484375		any	any
sw3760B-ms98-a-0049	B.58	190.484375	190.554375		of	of
sw3760B-ms98-a-0049	B.58	190.554375	190.784375		that	that
sw3760B-ms98-a-0049	B.58	190.784375	190.944375		but	but
sw3760B-ms98-a-0049	B.58	190.944375	191.244375		sweat	sweat
sw3760B-ms98-a-0049	B.58	191.244375	191.504375		shirts	shirts
sw3760B-ms98-a-0049	B.58	191.504375	191.584375		is	is
sw3760B-ms98-a-0049	B.58	191.584375	192.134375		certainly	certainly
sw3760B-ms98-a-0049	B.58	192.134375	192.909750		impressive	impressive
sw3760B-ms98-a-0049	B.60	192.909750	193.301125		[silence]	[silence]
sw3760B-ms98-a-0050	B.60	193.301125	198.692375		[silence]	[silence]
sw3760B-ms98-a-0051	B.60	198.692375	199.153000		[silence]	[silence]
sw3760B-ms98-a-0051	B.60	199.153000	199.546750	<SUB>	Uh-huh	um-hum
sw3760B-ms98-a-0051	B.62	199.546750	199.945625		[silence]	[silence]
sw3760B-ms98-a-0052	B.62	199.945625	204.535750		[silence]	[silence]
sw3760B-ms98-a-0053	B.62	204.535750	204.941750		[silence]	[silence]
sw3760B-ms98-a-0053	B.62	204.941750	205.105750		Oh	oh
sw3760B-ms98-a-0053	B.62	205.105750	205.434375		yeah	yeah
sw3760B-ms98-a-0053	B.64	205.434375	205.777375		[silence]	[silence]
sw3760B-ms98-a-0054	B.64	205.777375	210.560250		[silence]	[silence]
sw3760B-ms98-a-0055	B.64	210.560250	210.996250		[silence]	[silence]
sw3760B-ms98-a-0055	B.64	210.996250	211.130250		Oh	oh
sw3760B-ms98-a-0055	B.64	211.130250	211.458000		yeah	yeah
sw3760B-ms98-a-0055	B.66	211.458000	211.827500		[silence]	[silence]
sw3760B-ms98-a-0056	B.66	211.827500	212.247500		[silence]	[silence]
sw3760B-ms98-a-0056	B.66	212.247500	212.551625		Uh-huh	uh-huh
sw3760B-ms98-a-0056	B.68	212.551625	212.978750		[silence]	[silence]
sw3760B-ms98-a-0057	B.68	212.978750	216.335000		[silence]	[silence]
sw3760B-ms98-a-0058	B.68	216.335000	216.795000		[silence]	[silence]
sw3760B-ms98-a-0058	B.68	216.795000	216.895000		I	i
sw3760B-ms98-a-0058	B.68	216.895000	217.115000		see	see
sw3760B-ms98-a-0058	B.70	217.115000	217.239500		Well	well
sw3760B-ms98-a-0058	B.70	217.239500	217.699000		[silence]	[silence]
sw3760B-ms98-a-0058	B.70	217.699000	218.075000	<CONT>	that	that's
sw3760B-ms98-a-0058	B.70	218.075000	218.075000	<CONT>	is	+++
sw3760B-ms98-a-0058	B.70	218.075000	218.335000		neat	neat
sw3760B-ms98-a-0058	B.72	218.335000	218.545000	<DEL>	---	that's
sw3760B-ms98-a-0058	B.72	218.545000	218.905000	<DEL>	---	a
sw3760B-ms98-a-0058	B.72	218.905000	218.975000		I	i
sw3760B-ms98-a-0058	B.72	218.975000	219.185000		guess	guess
sw3760B-ms98-a-0058	B.72	219.185000	219.225000	<SUB>	you	i
sw3760B-ms98-a-0058	B.72	219.225000	219.225000	<INS>	could	---
sw3760B-ms98-a-0058	B.72	219.225000	219.725000		consider	consider
sw3760B-ms98-a-0058	B.72	219.725000	219.865000		that	that
sw3760B-ms98-a-0058	B.72	219.865000	219.905000		a	a
sw3760B-ms98-a-0058	B.72	219.905000	220.335000		hobby	hobby
sw3760B-ms98-a-0058	B.72	220.335000	220.405000		Do	do
sw3760B-ms98-a-0058	B.72	220.405000	220.541500		you	you
sw3760B-ms98-a-0058	B.72	220.541500	220.748750		[silence]	[silence]
sw3760B-ms98-a-0058	B.72	220.748750	220.815000		do	do
sw3760B-ms98-a-0058	B.72	220.815000	220.985000		you	you
sw3760B-ms98-a-0058	B.72	220.985000	221.255000		cook	cook
sw3760B-ms98-a-0058	B.72	221.255000	221.445000		for	for
sw3760B-ms98-a-0058	B.72	221.445000	221.475000		a	a
sw3760B-ms98-a-0058	B.72	221.475000	221.815000		hobby	hobby
sw3760B-ms98-a-0058	B.72	221.815000	221.975000		or	or
sw3760B-ms98-a-0058	B.72	221.975000	222.095000		do	do
sw3760B-ms98-a-0058	B.72	222.095000	222.235000		you	you
sw3760B-ms98-a-0058	B.74	222.235000	222.489625		[silence]	[silence]
sw3760B-ms98-a-0059	B.74	222.489625	222.911875		[silence]	[silence]
sw3760B-ms98-a-0059	B.74	222.911875	222.981125	<DEL>	---	do
sw3760B-ms98-a-0059	B.74	222.981125	223.089500	<DEL>	---	you
sw3760B-ms98-a-0059	B.74	223.089500	223.714875		[silence]	[silence]
sw3760B-ms98-a-0060	B.74	223.714875	224.294875		[silence]	[silence]
sw3760B-ms98-a-0060	B.74	224.294875	225.532125		[laughter]	[laughter]
sw3760B-ms98-a-0060	B.74	225.532125	225.560750		[silence]	[silence]
sw3760B-ms98-a-0061	B.74	225.560750	225.640750		[silence]	[silence]
sw3760B-ms98-a-0061	B.74	225.640750	225.860750		That's	that's
sw3760B-ms98-a-0061	B.74	225.860750	225.860750	<INS>	not	---
sw3760B-ms98-a-0061	B.74	225.860750	226.180750		something	something
sw3760B-ms98-a-0061	B.74	226.180750	226.367125		you	you
sw3760B-ms98-a-0061	B.76	226.367125	226.623250		[silence]	[silence]
sw3760B-ms98-a-0062	B.76	226.623250	227.632875		[silence]	[silence]
sw3760B-ms98-a-0063	B.76	227.632875	227.939875		[silence]	[silence]
sw3760B-ms98-a-0063	B.76	227.939875	228.428000		[noise]	[noise]
sw3760B-ms98-a-0063	B.76	228.428000	228.499875		[silence]	[silence]
sw3760B-ms98-a-0064	B.76	228.499875	228.665625		[silence]	[silence]
sw3760B-ms98-a-0064	B.76	228.665625	228.739875		I	i
sw3760B-ms98-a-0064	B.76	228.739875	229.219875		understand	understand
sw3760B-ms98-a-0064	B.76	229.219875	229.730250		that	that
sw3760B-ms98-a-0064	B.78	229.730250	229.924375		[silence]	[silence]
sw3760B-ms98-a-0065	B.78	229.924375	235.554750		[silence]	[silence]
sw3760B-ms98-a-0066	B.78	235.554750	235.985875		[silence]	[silence]
sw3760B-ms98-a-0066	B.78	235.985875	236.450250		Yeah	yeah
sw3760B-ms98-a-0066	B.80	236.450250	236.777750		[silence]	[silence]
sw3760B-ms98-a-0067	B.80	236.777750	238.219000		[silence]	[silence]
sw3760B-ms98-a-0067	B.80	238.219000	238.497500	<DEL>	---	uh
sw3760B-ms98-a-0067	B.80	238.497500	243.208625		[silence]	[silence]
sw3760B-ms98-a-0067	B.80	243.208625	243.491375		Right	right
sw3760B-ms98-a-0067	B.82	243.491375	244.254500		[silence]	[silence]
sw3760B-ms98-a-0068	B.82	244.254500	244.898500		[silence]	[silence]
sw3760B-ms98-a-0068	B.82	244.898500	245.496500		Yeah	yeah
sw3760B-ms98-a-0068	B.84	245.496500	246.002500		[silence]	[silence]
sw3760B-ms98-a-0069	B.84	246.002500	246.532500		[silence]	[silence]
sw3760B-ms98-a-0069	B.84	246.532500	246.692500		But	but
sw3760B-ms98-a-0069	B.84	246.692500	246.772500		I	i
sw3760B-ms98-a-0069	B.84	246.772500	246.992500		think	think
sw3760B-ms98-a-0069	B.84	246.992500	247.152500		that	that
sw3760B-ms98-a-0069	B.84	247.152500	247.513000		still	still
sw3760B-ms98-a-0069	B.84	247.513000	248.112500		borders	borders
sw3760B-ms98-a-0069	B.84	248.112500	248.282500		on	on
sw3760B-ms98-a-0069	B.84	248.282500	249.019250		hobby	hobby
sw3760B-ms98-a-0069	B.86	249.019250	249.368250		[silence]	[silence]
sw3760B-ms98-a-0070	B.86	249.368250	249.758250		[silence]	[silence]
sw3760B-ms98-a-0070	B.86	249.758250	250.028250		Probably	probably
sw3760B-ms98-a-0070	B.86	250.028250	250.158250		the	the
sw3760B-ms98-a-0070	B.86	250.158250	250.248250		other	other
sw3760B-ms98-a-0070	B.86	250.248250	250.548250		thing	thing
sw3760B-ms98-a-0070	B.86	250.548250	250.608250		I	i
sw3760B-ms98-a-0070	B.86	250.608250	251.151000		do	do
sw3760B-ms98-a-0070	B.86	251.151000	251.562625		which	which
sw3760B-ms98-a-0070	B.86	251.562625	251.873875		[silence]	[silence]
sw3760B-ms98-a-0071	B.86	251.873875	252.203875		[silence]	[silence]
sw3760B-ms98-a-0071	B.86	252.203875	252.385125	<CONT>	I	i'm
sw3760B-ms98-a-0071	B.86	252.385125	252.385125	<CONT>	am	+++
sw3760B-ms98-a-0071	B.86	252.385125	252.583875		sure	sure
sw3760B-ms98-a-0071	B.86	252.583875	252.733875	<SUB>	will	it'll
sw3760B-ms98-a-0071	B.86	252.733875	252.893875		sound	sound
sw3760B-ms98-a-0071	B.86	252.893875	253.293875		horrible	horrible
sw3760B-ms98-a-0071	B.86	253.293875	253.443875		to	to
sw3760B-ms98-a-0071	B.86	253.443875	253.563875		you	you
sw3760B-ms98-a-0071	B.86	253.563875	253.893875		but	but
sw3760B-ms98-a-0071	B.86	253.893875	253.993875		is	is
sw3760B-ms98-a-0071	B.86	253.993875	254.093875		I	i
sw3760B-ms98-a-0071	B.86	254.093875	254.723875		program	program
sw3760B-ms98-a-0071	B.86	254.723875	254.873875		for	for
sw3760B-ms98-a-0071	B.86	254.873875	255.401500		fun	fun
sw3760B-ms98-a-0071	B.86	255.401500	255.401500	<INS>	Uh	---
sw3760B-ms98-a-0071	B.86	255.401500	255.842125		[silence]	[silence]
sw3760B-ms98-a-0071	B.86	255.842125	256.033875		on	on
sw3760B-ms98-a-0071	B.86	256.033875	256.163875	<SUB>	the	my
sw3760B-ms98-a-0071	B.86	256.163875	256.745375		computer	computer
sw3760B-ms98-a-0071	B.88	256.745375	257.247125		[silence]	[silence]
sw3760B-ms98-a-0072	B.88	257.247125	257.827125		[silence]	[silence]
sw3760B-ms98-a-0072	B.88	257.827125	258.087125		So	so
sw3760B-ms98-a-0072	B.88	258.087125	258.332875	<DEL>	---	i'll
sw3760B-ms98-a-0072	B.88	258.332875	258.437125		I	i
sw3760B-ms98-a-0072	B.88	258.437125	258.567125		have	have
sw3760B-ms98-a-0072	B.88	258.567125	258.737125		little	little
sw3760B-ms98-a-0072	B.88	258.737125	259.427125		projects	projects
sw3760B-ms98-a-0072	B.88	259.427125	259.757125		little	little
sw3760B-ms98-a-0072	B.88	259.757125	260.107125		computer	computer
sw3760B-ms98-a-0072	B.88	260.107125	260.657125		projects	projects
sw3760B-ms98-a-0072	B.88	260.657125	260.917125		going	going
sw3760B-ms98-a-0072	B.88	260.917125	261.067125		on	on
sw3760B-ms98-a-0072	B.88	261.067125	261.187125		that	that
sw3760B-ms98-a-0072	B.88	261.187125	261.267125		I	i
sw3760B-ms98-a-0072	B.88	261.267125	261.727125		consider	consider
sw3760B-ms98-a-0072	B.88	261.727125	262.334000		hobbies	hobbies
sw3760B-ms98-a-0072	B.90	262.334000	262.710625		[silence]	[silence]
sw3760B-ms98-a-0073	B.90	262.710625	263.100625		[silence]	[silence]
sw3760B-ms98-a-0073	B.90	263.100625	263.306750		But	but
sw3760B-ms98-a-0073	B.90	263.306750	263.451875		[silence]	[silence]
sw3760B-ms98-a-0073	B.90	263.451875	263.670625		drive	drive
sw3760B-ms98-a-0073	B.90	263.670625	263.820625		my	my
sw3760B-ms98-a-0073	B.90	263.820625	264.130625		wife	wife
sw3760B-ms98-a-0073	B.90	264.130625	264.981625		crazy	crazy
sw3760B-ms98-a-0073	B.92	264.981625	265.335625		[silence]	[silence]
sw3760B-ms98-a-0074	B.92	265.335625	268.478125		[silence]	[silence]
sw3760B-ms98-a-0075	B.92	268.478125	268.908125		[silence]	[silence]
sw3760B-ms98-a-0075	B.92	268.908125	268.968125		I	i
sw3760B-ms98-a-0075	B.92	268.968125	269.208125		do	do
sw3760B-ms98-a-0075	B.92	269.208125	269.598125		yes	yes
sw3760B-ms98-a-0075	B.94	269.598125	269.871375		[silence]	[silence]
sw3760B-ms98-a-0076	B.94	269.871375	271.016875		[silence]	[silence]
sw3760B-ms98-a-0077	B.94	271.016875	271.346875		[silence]	[silence]
sw3760B-ms98-a-0077	B.94	271.346875	271.406875		In	in
sw3760B-ms98-a-0077	B.94	271.406875	271.616875		fact	fact
sw3760B-ms98-a-0077	B.94	271.616875	271.776875	<CONT>	there	there's
sw3760B-ms98-a-0077	B.94	271.776875	271.776875	<CONT>	is	+++
sw3760B-ms98-a-0077	B.94	271.776875	272.046875		actually	actually
sw3760B-ms98-a-0077	B.94	272.046875	272.456875		several	several
sw3760B-ms98-a-0077	B.94	272.456875	272.566875		of	of
sw3760B-ms98-a-0077	B.94	272.566875	272.686875		them	them
sw3760B-ms98-a-0077	B.94	272.686875	272.924875		here	here
sw3760B-ms98-a-0077	B.94	272.924875	273.168500		right	right
sw3760B-ms98-a-0077	B.94	273.168500	273.492375		now	now
sw3760B-ms98-a-0077	B.96	273.492375	273.866875		Not	not
sw3760B-ms98-a-0077	B.96	273.866875	274.006875	<DEL>	---	not
sw3760B-ms98-a-0077	B.96	274.006875	274.176875		all	all
sw3760B-ms98-a-0077	B.96	274.176875	274.296875		of	of
sw3760B-ms98-a-0077	B.96	274.296875	274.456875		them	them
sw3760B-ms98-a-0077	B.96	274.456875	274.666875		being	being
sw3760B-ms98-a-0077	B.96	274.666875	274.910750		mine	mine
sw3760B-ms98-a-0077	B.98	274.910750	275.381875		[silence]	[silence]
sw3760B-ms98-a-0078	B.98	275.381875	276.548500		[silence]	[silence]
sw3760B-ms98-a-0079	B.98	276.548500	276.998500		[silence]	[silence]
sw3760B-ms98-a-0079	B.98	276.998500	277.466000		Yeah	yeah
sw3760B-ms98-a-0079	B.100	277.466000	277.678875		[silence]	[silence]
sw3760B-ms98-a-0080	B.100	277.678875	278.726875		[silence]	[silence]
sw3760B-ms98-a-0081	B.100	278.726875	279.143375		[silence]	[silence]
sw3760B-ms98-a-0081	B.100	279.143375	279.306875	<DEL>	---	so
sw3760B-ms98-a-0081	B.100	279.306875	279.631000		Uh	uh
sw3760B-ms98-a-0081	B.100	279.631000	279.806875		I	i
sw3760B-ms98-a-0081	B.100	279.806875	280.116875		wonder	wonder
sw3760B-ms98-a-0081	B.100	280.116875	280.400000		if	if
sw3760B-ms98-a-0081	B.100	280.400000	280.619875		you	you
sw3760B-ms98-a-0081	B.100	280.619875	280.766875	<SUB>	can	you
sw3760B-ms98-a-0081	B.100	280.766875	280.946875	<DEL>	---	could
sw3760B-ms98-a-0081	B.100	280.946875	281.446875		construe	construe
sw3760B-ms98-a-0081	B.100	281.446875	281.806875		raising	raising
sw3760B-ms98-a-0081	B.100	281.806875	282.186875		children	children
sw3760B-ms98-a-0081	B.100	282.186875	282.316875		as	as
sw3760B-ms98-a-0081	B.100	282.316875	282.566875		being	being
sw3760B-ms98-a-0081	B.100	282.566875	282.596875		a	a
sw3760B-ms98-a-0081	B.100	282.596875	283.176625		hobby	hobby
sw3760B-ms98-a-0081	B.102	283.176625	283.210000		[silence]	[silence]
sw3760B-ms98-a-0082	B.102	283.210000	283.234375		[silence]	[silence]
sw3760B-ms98-a-0082	B.102	283.234375	283.965750		[laughter]	[laughter]
sw3760B-ms98-a-0082	B.102	283.965750	284.289000		[silence]	[silence]
sw3760B-ms98-a-0083	B.102	284.289000	290.959875		[silence]	[silence]
sw3760B-ms98-a-0084	B.102	290.959875	291.471750		[silence]	[silence]
sw3760B-ms98-a-0084	B.102	291.471750	291.902625	<SUB>	Uh-huh	um-hum
sw3760B-ms98-a-0084	B.102	291.902625	292.358625		[silence]	[silence]
sw3760B-ms98-a-0085	B.102	292.358625	298.626000		[silence]	[silence]
