sw3768A-ms98-a-0001	A.1	0.000000	0.020000		[silence]	[silence]
sw3768A-ms98-a-0001	A.1	0.020000	0.110000		Well	well
sw3768A-ms98-a-0001	A.1	0.110000	0.240000		what	what
sw3768A-ms98-a-0001	A.1	0.240000	0.410000		kind	kind
sw3768A-ms98-a-0001	A.1	0.410000	0.470000		of	of
sw3768A-ms98-a-0001	A.1	0.470000	1.230000		vacations	vacations
sw3768A-ms98-a-0001	A.1	1.230000	1.340000		do	do
sw3768A-ms98-a-0001	A.1	1.340000	1.440000		you	you
sw3768A-ms98-a-0001	A.1	1.440000	1.610000		like	like
sw3768A-ms98-a-0001	A.1	1.610000	1.710000		to	to
sw3768A-ms98-a-0001	A.1	1.710000	2.157000		take	take
sw3768A-ms98-a-0001	A.3	2.157000	2.883875		[silence]	[silence]
sw3768A-ms98-a-0001	A.3	2.883875	3.054750	<DEL>	---	are
sw3768A-ms98-a-0001	A.3	3.054750	3.171750	<DEL>	---	you
sw3768A-ms98-a-0001	A.3	3.171750	3.643250		[silence]	[silence]
sw3768A-ms98-a-0002	A.3	3.643250	6.618250		[silence]	[silence]
sw3768A-ms98-a-0003	A.3	6.618250	7.148250		[silence]	[silence]
sw3768A-ms98-a-0003	A.3	7.148250	7.568250		Uh-huh	uh-huh
sw3768A-ms98-a-0003	A.5	7.568250	8.087250		[silence]	[silence]
sw3768A-ms98-a-0004	A.5	8.087250	10.513625		[silence]	[silence]
sw3768A-ms98-a-0005	A.5	10.513625	11.024750		[silence]	[silence]
sw3768A-ms98-a-0005	A.5	11.024750	11.530500		Uh-huh	uh-huh
sw3768A-ms98-a-0005	A.7	11.530500	12.419875		[silence]	[silence]
sw3768A-ms98-a-0006	A.7	12.419875	13.438250		[silence]	[silence]
sw3768A-ms98-a-0007	A.7	13.438250	13.878000		[silence]	[silence]
sw3768A-ms98-a-0007	A.7	13.878000	14.188250		Yeah	yeah
sw3768A-ms98-a-0007	A.7	14.188250	14.338250		Where	where
sw3768A-ms98-a-0007	A.7	14.338250	14.478250		have	have
sw3768A-ms98-a-0007	A.7	14.478250	14.558250		you	you
sw3768A-ms98-a-0007	A.7	14.558250	14.838250		gone	gone
sw3768A-ms98-a-0007	A.7	14.838250	15.118250		there	there
sw3768A-ms98-a-0007	A.9	15.118250	15.615500		[silence]	[silence]
sw3768A-ms98-a-0008	A.9	15.615500	21.977000		[silence]	[silence]
sw3768A-ms98-a-0009	A.9	21.977000	22.487000		[silence]	[silence]
sw3768A-ms98-a-0009	A.9	22.487000	22.971625	<SUB>	Uh-huh	um-hum
sw3768A-ms98-a-0009	A.11	22.971625	23.316500		[silence]	[silence]
sw3768A-ms98-a-0010	A.11	23.316500	24.413000		[silence]	[silence]
sw3768A-ms98-a-0011	A.11	24.413000	24.782000		[silence]	[silence]
sw3768A-ms98-a-0011	A.11	24.782000	25.143000		Uh-huh	uh-huh
sw3768A-ms98-a-0011	A.13	25.143000	25.731625		[silence]	[silence]
sw3768A-ms98-a-0012	A.13	25.731625	29.942625		[silence]	[silence]
sw3768A-ms98-a-0013	A.13	29.942625	30.465750		[silence]	[silence]
sw3768A-ms98-a-0013	A.13	30.465750	30.852625		Uh-huh	uh-huh
sw3768A-ms98-a-0013	A.13	30.852625	31.370750		[silence]	[silence]
sw3768A-ms98-a-0014	A.13	31.370750	31.918625		[silence]	[silence]
sw3768A-ms98-a-0014	A.13	31.918625	32.130750		Yeah	yeah
sw3768A-ms98-a-0014	A.13	32.130750	32.320750		well	well
sw3768A-ms98-a-0014	A.13	32.320750	32.470750		I've	i've
sw3768A-ms98-a-0014	A.13	32.470750	32.630750		been	been
sw3768A-ms98-a-0014	A.13	32.630750	32.800750		over	over
sw3768A-ms98-a-0014	A.13	32.800750	32.950750		there	there
sw3768A-ms98-a-0014	A.13	32.950750	33.340375		too	too
sw3768A-ms98-a-0014	A.15	33.340375	33.747250		[silence]	[silence]
sw3768A-ms98-a-0014	A.15	33.747250	33.900750		I	i
sw3768A-ms98-a-0014	A.15	33.900750	34.390750		even	even
sw3768A-ms98-a-0014	A.15	34.390750	35.070750		[noise]	[noise]
sw3768A-ms98-a-0014	A.15	35.070750	35.350750		Let's	let's
sw3768A-ms98-a-0014	A.15	35.350750	35.880750		see	see
sw3768A-ms98-a-0014	A.15	35.880750	36.547000		um	um
sw3768A-ms98-a-0014	A.15	36.547000	37.294125		[noise]	[noise]
sw3768A-ms98-a-0014	A.15	37.294125	37.770750		mostly	mostly
sw3768A-ms98-a-0014	A.15	37.770750	38.360750		Germany	Germany
sw3768A-ms98-a-0014	A.15	38.360750	38.520750		and	and
sw3768A-ms98-a-0014	A.15	38.520750	39.120750		France	France
sw3768A-ms98-a-0014	A.17	39.120750	39.220750		I	i
sw3768A-ms98-a-0014	A.17	39.220750	39.520750		lived	lived
sw3768A-ms98-a-0014	A.17	39.520750	39.640750		in	in
sw3768A-ms98-a-0014	A.17	39.640750	40.020750		France	France
sw3768A-ms98-a-0014	A.17	40.020750	40.110750		for	for
sw3768A-ms98-a-0014	A.17	40.110750	40.140750		a	a
sw3768A-ms98-a-0014	A.17	40.140750	40.310750		year	year
sw3768A-ms98-a-0014	A.17	40.310750	40.410750		and	and
sw3768A-ms98-a-0014	A.17	40.410750	40.440750		a	a
sw3768A-ms98-a-0014	A.17	40.440750	40.770750		half	half
sw3768A-ms98-a-0014	A.17	40.770750	41.100750		so	so
sw3768A-ms98-a-0014	A.19	41.100750	41.456250		[silence]	[silence]
sw3768A-ms98-a-0015	A.19	41.456250	41.725375		[silence]	[silence]
sw3768A-ms98-a-0015	A.19	41.725375	41.826250		I	i
sw3768A-ms98-a-0015	A.19	41.826250	41.976250		was	was
sw3768A-ms98-a-0015	A.19	41.976250	42.324750		able	able
sw3768A-ms98-a-0015	A.19	42.324750	42.803125		[silence]	[silence]
sw3768A-ms98-a-0015	A.19	42.803125	43.116250		but	but
sw3768A-ms98-a-0015	A.19	43.116250	43.468750		I	i
sw3768A-ms98-a-0015	A.19	43.468750	43.868000		[silence]	[silence]
sw3768A-ms98-a-0015	A.19	43.868000	44.256250	<SUB>	once	loved
sw3768A-ms98-a-0015	A.19	44.256250	44.376250		when	when
sw3768A-ms98-a-0015	A.19	44.376250	44.416250		I	i
sw3768A-ms98-a-0015	A.19	44.416250	44.596250		had	had
sw3768A-ms98-a-0015	A.19	44.596250	44.666250		a	a
sw3768A-ms98-a-0015	A.19	44.666250	45.136250		chance	chance
sw3768A-ms98-a-0015	A.19	45.136250	45.174000		[silence]	[silence]
sw3768A-ms98-a-0015	A.19	45.174000	45.266250		in	in
sw3768A-ms98-a-0015	A.19	45.266250	45.706250		France	France
sw3768A-ms98-a-0015	A.19	45.706250	45.806250		to	to
sw3768A-ms98-a-0015	A.19	45.806250	45.926250		go	go
sw3768A-ms98-a-0015	A.19	45.926250	46.006250		on	on
sw3768A-ms98-a-0015	A.19	46.006250	46.596250		vacation	vacation
sw3768A-ms98-a-0015	A.19	46.596250	46.906250		instead	instead
sw3768A-ms98-a-0015	A.19	46.906250	46.976250		of	of
sw3768A-ms98-a-0015	A.19	46.976250	47.396250	<SUB>	travelling	traveling
sw3768A-ms98-a-0015	A.19	47.396250	47.636250		around	around
sw3768A-ms98-a-0015	A.19	47.636250	47.926250		France	France
sw3768A-ms98-a-0015	A.19	47.926250	47.966250		I	i
sw3768A-ms98-a-0015	A.19	47.966250	48.126250		went	went
sw3768A-ms98-a-0015	A.19	48.126250	48.226250		to	to
sw3768A-ms98-a-0015	A.19	48.226250	48.785750		Germany	Germany
sw3768A-ms98-a-0015	A.21	48.785750	49.365875		[laughter]	[laughter]
sw3768A-ms98-a-0015	A.21	49.365875	49.786250		because	because
sw3768A-ms98-a-0015	A.21	49.786250	50.080625		uh	uh
sw3768A-ms98-a-0015	A.21	50.080625	50.236250		I've	i've
sw3768A-ms98-a-0015	A.21	50.236250	50.416250		got	got
sw3768A-ms98-a-0015	A.21	50.416250	50.866250		relatives	relatives
sw3768A-ms98-a-0015	A.21	50.866250	51.096250		there	there
sw3768A-ms98-a-0015	A.21	51.096250	51.236250		and	and
sw3768A-ms98-a-0015	A.21	51.236250	51.316250		I	i
sw3768A-ms98-a-0015	A.21	51.316250	51.762750		just	just
sw3768A-ms98-a-0015	A.23	51.762750	51.976250		[silence]	[silence]
sw3768A-ms98-a-0015	A.23	51.976250	52.196250		like	like
sw3768A-ms98-a-0015	A.23	52.196250	52.326250		it	it
sw3768A-ms98-a-0015	A.23	52.326250	52.587750		there	there
sw3768A-ms98-a-0015	A.25	52.587750	52.943625		[silence]	[silence]
sw3768A-ms98-a-0016	A.25	52.943625	52.975125		[silence]	[silence]
sw3768A-ms98-a-0016	A.25	52.975125	53.673625		[noise]	[noise]
sw3768A-ms98-a-0016	A.25	53.673625	54.083625		So	so
sw3768A-ms98-a-0016	A.25	54.083625	54.333625		but	but
sw3768A-ms98-a-0016	A.25	54.333625	54.597875		um	um
sw3768A-ms98-a-0016	A.25	54.597875	54.624250		[silence]	[silence]
sw3768A-ms98-a-0016	A.25	54.624250	55.393625		Austria	Austria
sw3768A-ms98-a-0016	A.25	55.393625	55.453625		I	i
sw3768A-ms98-a-0016	A.25	55.453625	55.763625		found	found
sw3768A-ms98-a-0016	A.25	55.763625	56.003625		really	really
sw3768A-ms98-a-0016	A.25	56.003625	56.573625		pretty	pretty
sw3768A-ms98-a-0016	A.27	56.573625	56.913625		and	and
sw3768A-ms98-a-0016	A.27	56.913625	57.806625		Switzerland	Switzerland
sw3768A-ms98-a-0016	A.27	57.806625	57.993625		[silence]	[silence]
sw3768A-ms98-a-0016	A.27	57.993625	58.153625		yeah	yeah
sw3768A-ms98-a-0016	A.27	58.153625	58.353625		and	and
sw3768A-ms98-a-0016	A.27	58.353625	58.522875		I	i
sw3768A-ms98-a-0016	A.27	58.522875	58.583125		[silence]	[silence]
sw3768A-ms98-a-0016	A.27	58.583125	58.673625		I	i
sw3768A-ms98-a-0016	A.27	58.673625	58.923625		lived	lived
sw3768A-ms98-a-0016	A.27	58.923625	59.003625		in	in
sw3768A-ms98-a-0016	A.27	59.003625	59.119125		the	the
sw3768A-ms98-a-0016	A.27	59.119125	59.156750		[silence]	[silence]
sw3768A-ms98-a-0016	A.27	59.156750	59.513625		Alps	Alps
sw3768A-ms98-a-0016	A.27	59.513625	59.633625		in	in
sw3768A-ms98-a-0016	A.27	59.633625	60.123625		France	France
sw3768A-ms98-a-0016	A.27	60.123625	60.313625		so	so
sw3768A-ms98-a-0016	A.27	60.313625	60.547375		I	i
sw3768A-ms98-a-0016	A.29	60.547375	61.071250		[noise]	[noise]
sw3768A-ms98-a-0016	A.29	61.071250	61.097625		[silence]	[silence]
sw3768A-ms98-a-0017	A.29	61.097625	61.487625		[silence]	[silence]
sw3768A-ms98-a-0017	A.29	61.487625	62.011000		anything	anything
sw3768A-ms98-a-0017	A.29	62.011000	62.062125		[silence]	[silence]
sw3768A-ms98-a-0017	A.29	62.062125	62.247625		in	in
sw3768A-ms98-a-0017	A.29	62.247625	62.327625		the	the
sw3768A-ms98-a-0017	A.29	62.327625	62.944250		mountains	mountains
sw3768A-ms98-a-0017	A.29	62.944250	63.166500		[silence]	[silence]
sw3768A-ms98-a-0017	A.29	63.166500	63.367625		over	over
sw3768A-ms98-a-0017	A.29	63.367625	63.557625		there	there
sw3768A-ms98-a-0017	A.29	63.557625	63.657625		I	i
sw3768A-ms98-a-0017	A.29	63.657625	63.917625		just	just
sw3768A-ms98-a-0017	A.29	63.917625	64.318250		love	love
sw3768A-ms98-a-0017	A.31	64.318250	64.794250		[silence]	[silence]
sw3768A-ms98-a-0018	A.31	64.794250	65.142375		[silence]	[silence]
sw3768A-ms98-a-0018	A.31	65.142375	65.314250		Then	then
sw3768A-ms98-a-0018	A.31	65.314250	65.364250		I	i
sw3768A-ms98-a-0018	A.31	65.364250	65.694250		finally	finally
sw3768A-ms98-a-0018	A.31	65.694250	65.874250		made	made
sw3768A-ms98-a-0018	A.31	65.874250	65.994250		it	it
sw3768A-ms98-a-0018	A.31	65.994250	66.104250		to	to
sw3768A-ms98-a-0018	A.31	66.104250	66.684875		England	England
sw3768A-ms98-a-0018	A.31	66.684875	66.737625		[silence]	[silence]
sw3768A-ms98-a-0018	A.31	66.737625	67.334500		too	too
sw3768A-ms98-a-0018	A.31	67.334500	67.500250		[silence]	[silence]
sw3768A-ms98-a-0018	A.31	67.500250	68.007125	<SUB>	uh	um
sw3768A-ms98-a-0018	A.31	68.007125	68.406375		[silence]	[silence]
sw3768A-ms98-a-0018	A.31	68.406375	68.554250		on	on
sw3768A-ms98-a-0018	A.31	68.554250	68.684250		my	my
sw3768A-ms98-a-0018	A.31	68.684250	68.884250		way	way
sw3768A-ms98-a-0018	A.31	68.884250	69.292125		home	home
sw3768A-ms98-a-0018	A.31	69.292125	69.936250		[silence]	[silence]
sw3768A-ms98-a-0018	A.31	69.936250	70.386625		um	um
sw3768A-ms98-a-0018	A.31	70.386625	70.627750		[silence]	[silence]
sw3768A-ms98-a-0018	A.31	70.627750	70.814250	<DEL>	---	so
sw3768A-ms98-a-0018	A.31	70.814250	70.854250		I	i
sw3768A-ms98-a-0018	A.31	70.854250	71.084250		lived	lived
sw3768A-ms98-a-0018	A.31	71.084250	71.194250		in	in
sw3768A-ms98-a-0018	A.31	71.194250	71.676375		Africa	Africa
sw3768A-ms98-a-0018	A.31	71.676375	72.149500		actually	[laughter-actually]
sw3768A-ms98-a-0018	A.31	72.149500	72.684250		[silence]	[silence]
sw3768A-ms98-a-0018	A.31	72.684250	72.764250		and	and
sw3768A-ms98-a-0018	A.31	72.764250	72.874250		on	on
sw3768A-ms98-a-0018	A.31	72.874250	72.974250		my	my
sw3768A-ms98-a-0018	A.31	72.974250	73.124250		way	way
sw3768A-ms98-a-0018	A.31	73.124250	73.284250		home	home
sw3768A-ms98-a-0018	A.31	73.284250	73.464250		from	from
sw3768A-ms98-a-0018	A.31	73.464250	73.804625		there	there
sw3768A-ms98-a-0018	A.33	73.804625	74.034250		[silence]	[silence]
sw3768A-ms98-a-0018	A.33	74.034250	74.617375		Yeah	[laughter-yeah]
sw3768A-ms98-a-0018	A.35	74.617375	75.184375		[silence]	[silence]
sw3768A-ms98-a-0019	A.35	75.184375	75.732250		[silence]	[silence]
sw3768A-ms98-a-0019	A.35	75.732250	76.074375		Yeah	yeah
sw3768A-ms98-a-0019	A.37	76.074375	76.833375		[laughter]	[laughter]
sw3768A-ms98-a-0019	A.37	76.833375	76.944000		[silence]	[silence]
sw3768A-ms98-a-0020	A.37	76.944000	77.485250		[silence]	[silence]
sw3768A-ms98-a-0020	A.37	77.485250	78.023125		So	so
sw3768A-ms98-a-0020	A.37	78.023125	78.211375		[silence]	[silence]
sw3768A-ms98-a-0020	A.37	78.211375	78.617125		um	um
sw3768A-ms98-a-0020	A.37	78.617125	78.643500		[silence]	[silence]
sw3768A-ms98-a-0020	A.37	78.643500	78.894000		and	and
sw3768A-ms98-a-0020	A.37	78.894000	78.984000		you	you
sw3768A-ms98-a-0020	A.37	78.984000	79.204000		always	always
sw3768A-ms98-a-0020	A.37	79.204000	79.344000		have	have
sw3768A-ms98-a-0020	A.37	79.344000	79.424000		to	to
sw3768A-ms98-a-0020	A.37	79.424000	79.524000		go	go
sw3768A-ms98-a-0020	A.37	79.524000	79.644000		out	out
sw3768A-ms98-a-0020	A.37	79.644000	79.874000		fly	fly
sw3768A-ms98-a-0020	A.37	79.874000	80.375875		through	through
sw3768A-ms98-a-0020	A.37	80.375875	80.451125		[silence]	[silence]
sw3768A-ms98-a-0020	A.37	80.451125	80.554000		or	or
sw3768A-ms98-a-0020	A.37	80.554000	80.794000		unless	unless
sw3768A-ms98-a-0020	A.37	80.794000	80.854000		you	you
sw3768A-ms98-a-0020	A.37	80.854000	81.044000		fly	fly
sw3768A-ms98-a-0020	A.37	81.044000	81.234000		from	from
sw3768A-ms98-a-0020	A.37	81.234000	81.874000		Nairobi	Nairobi
sw3768A-ms98-a-0020	A.37	81.874000	82.062000		you	you
sw3768A-ms98-a-0020	A.37	82.062000	82.133625		[silence]	[silence]
sw3768A-ms98-a-0020	A.37	82.133625	82.294000		have	have
sw3768A-ms98-a-0020	A.37	82.294000	82.404000		to	to
sw3768A-ms98-a-0020	A.37	82.404000	82.634000		fly	fly
sw3768A-ms98-a-0020	A.37	82.634000	83.136750		through	through
sw3768A-ms98-a-0020	A.37	83.136750	83.261000		[silence]	[silence]
sw3768A-ms98-a-0020	A.37	83.261000	83.706250		um	um
sw3768A-ms98-a-0020	A.37	83.706250	84.256250		[silence]	[silence]
sw3768A-ms98-a-0020	A.37	84.256250	84.629250		uh	uh
sw3768A-ms98-a-0020	A.37	84.629250	84.855125		[silence]	[silence]
sw3768A-ms98-a-0020	A.37	84.855125	85.184000		Europe	Europe
sw3768A-ms98-a-0020	A.37	85.184000	85.304000		on	on
sw3768A-ms98-a-0020	A.37	85.304000	85.404000		your	your
sw3768A-ms98-a-0020	A.37	85.404000	85.564000		way	way
sw3768A-ms98-a-0020	A.37	85.564000	85.918750		home	home
sw3768A-ms98-a-0020	A.39	85.918750	86.253875		So	so
sw3768A-ms98-a-0020	A.39	86.253875	86.830000		[silence]	[silence]
sw3768A-ms98-a-0020	A.39	86.830000	86.934000		I	i
sw3768A-ms98-a-0020	A.39	86.934000	87.094000		went	went
sw3768A-ms98-a-0020	A.39	87.094000	87.184000		to	to
sw3768A-ms98-a-0020	A.39	87.184000	87.614000		England	England
sw3768A-ms98-a-0020	A.39	87.614000	87.734000		and	and
sw3768A-ms98-a-0020	A.39	87.734000	87.794000		I	i
sw3768A-ms98-a-0020	A.39	87.794000	88.144000		really	really
sw3768A-ms98-a-0020	A.39	88.144000	88.444000		liked	liked
sw3768A-ms98-a-0020	A.39	88.444000	88.554000		it	it
sw3768A-ms98-a-0020	A.39	88.554000	88.754000		there	there
sw3768A-ms98-a-0020	A.39	88.754000	89.144000		too	too
sw3768A-ms98-a-0020	A.41	89.144000	89.992000		[silence]	[silence]
sw3768A-ms98-a-0021	A.41	89.992000	90.893500		[silence]	[silence]
sw3768A-ms98-a-0021	A.41	90.893500	91.012000		I	i
sw3768A-ms98-a-0021	A.41	91.012000	91.665000		know	know
sw3768A-ms98-a-0021	A.41	91.665000	91.892875		[silence]	[silence]
sw3768A-ms98-a-0021	A.41	91.892875	92.122000		it's	it's
sw3768A-ms98-a-0021	A.41	92.122000	92.625000		true	true
sw3768A-ms98-a-0021	A.43	92.625000	93.489125		[silence]	[silence]
sw3768A-ms98-a-0021	A.43	93.489125	93.677500		That's	that's
sw3768A-ms98-a-0021	A.43	93.677500	93.832000		the	the
sw3768A-ms98-a-0021	A.43	93.832000	94.062000		one	one
sw3768A-ms98-a-0021	A.43	94.062000	94.488500		thing	thing
sw3768A-ms98-a-0021	A.45	94.488500	95.083250		[laughter]	[laughter]
sw3768A-ms98-a-0021	A.45	95.083250	95.551875		[silence]	[silence]
sw3768A-ms98-a-0022	A.45	95.551875	99.447875		[silence]	[silence]
sw3768A-ms98-a-0023	A.45	99.447875	100.043125		[silence]	[silence]
sw3768A-ms98-a-0023	A.45	100.043125	100.628000		Yeah	yeah
sw3768A-ms98-a-0023	A.47	100.628000	101.368875		[silence]	[silence]
sw3768A-ms98-a-0024	A.47	101.368875	102.148875		[silence]	[silence]
sw3768A-ms98-a-0024	A.47	102.148875	102.358875		Yeah	yeah
sw3768A-ms98-a-0024	A.47	102.358875	102.698875		actually	actually
sw3768A-ms98-a-0024	A.47	102.698875	103.048875		now	now
sw3768A-ms98-a-0024	A.47	103.048875	103.188875		you	you
sw3768A-ms98-a-0024	A.47	103.188875	103.338875		can	can
sw3768A-ms98-a-0024	A.47	103.338875	103.518875		get	get
sw3768A-ms98-a-0024	A.47	103.518875	103.798875		some	some
sw3768A-ms98-a-0024	A.47	103.798875	104.038875		really	really
sw3768A-ms98-a-0024	A.47	104.038875	104.228875		good	good
sw3768A-ms98-a-0024	A.47	104.228875	104.568875		deals	deals
sw3768A-ms98-a-0024	A.47	104.568875	104.608875		[silence]	[silence]
sw3768A-ms98-a-0024	A.47	104.608875	104.968875		flying	flying
sw3768A-ms98-a-0024	A.47	104.968875	105.238875		over	over
sw3768A-ms98-a-0024	A.47	105.238875	105.468875		but	but
sw3768A-ms98-a-0024	A.47	105.468875	105.988875		it's	it's
sw3768A-ms98-a-0024	A.49	105.988875	106.188875		once	once
sw3768A-ms98-a-0024	A.49	106.188875	106.318875		you're	you're
sw3768A-ms98-a-0024	A.49	106.318875	106.598875		there	there
sw3768A-ms98-a-0024	A.49	106.598875	106.708875		you	you
sw3768A-ms98-a-0024	A.49	106.708875	106.918875		still	still
sw3768A-ms98-a-0024	A.49	106.918875	107.038875		have	have
sw3768A-ms98-a-0024	A.49	107.038875	107.168875		to	to
sw3768A-ms98-a-0024	A.49	107.168875	107.448875		spend	spend
sw3768A-ms98-a-0024	A.49	107.448875	107.818875		money	money
sw3768A-ms98-a-0024	A.51	107.818875	108.086250		[laughter]	[laughter]
sw3768A-ms98-a-0024	A.51	108.086250	108.600625		[silence]	[silence]
sw3768A-ms98-a-0025	A.51	108.600625	109.060125		[silence]	[silence]
sw3768A-ms98-a-0025	A.51	109.060125	109.280625		Unless	unless
sw3768A-ms98-a-0025	A.51	109.280625	109.380625		you	you
sw3768A-ms98-a-0025	A.51	109.380625	109.590625		know	know
sw3768A-ms98-a-0025	A.51	109.590625	110.070625		people	people
sw3768A-ms98-a-0025	A.51	110.070625	110.150625		[silence]	[silence]
sw3768A-ms98-a-0025	A.51	110.150625	110.220625		you	you
sw3768A-ms98-a-0025	A.51	110.220625	110.420625		know	know
sw3768A-ms98-a-0025	A.53	110.420625	110.520875		[silence]	[silence]
sw3768A-ms98-a-0025	A.53	110.520875	110.840625		[laughter]	[laughter]
sw3768A-ms98-a-0025	A.53	110.840625	111.388875		[silence]	[silence]
sw3768A-ms98-a-0026	A.53	111.388875	112.408500		[silence]	[silence]
sw3768A-ms98-a-0027	A.53	112.408500	112.868000		[silence]	[silence]
sw3768A-ms98-a-0027	A.53	112.868000	113.408875		Uh-huh	uh-huh
sw3768A-ms98-a-0027	A.55	113.408875	113.660750		[silence]	[silence]
sw3768A-ms98-a-0027	A.55	113.660750	113.724750	<DEL>	---	an[d]-
sw3768A-ms98-a-0027	A.55	113.724750	113.918500		That	that
sw3768A-ms98-a-0027	A.55	113.918500	114.178500		helps	helps
sw3768A-ms98-a-0027	A.55	114.178500	114.258500		a	a
sw3768A-ms98-a-0027	A.55	114.258500	114.658500		lot	lot
sw3768A-ms98-a-0027	A.57	114.658500	115.145875		[silence]	[silence]
sw3768A-ms98-a-0028	A.57	115.145875	115.565875		[silence]	[silence]
sw3768A-ms98-a-0028	A.57	115.565875	115.886500		But	but
sw3768A-ms98-a-0028	A.59	115.886500	116.334000		[silence]	[silence]
sw3768A-ms98-a-0029	A.59	116.334000	118.575125		[silence]	[silence]
sw3768A-ms98-a-0030	A.59	118.575125	119.081250		[silence]	[silence]
sw3768A-ms98-a-0030	A.59	119.081250	119.470125		Uh-huh	uh-huh
sw3768A-ms98-a-0030	A.61	119.470125	119.942875		[silence]	[silence]
sw3768A-ms98-a-0031	A.61	119.942875	121.225125		[silence]	[silence]
sw3768A-ms98-a-0032	A.61	121.225125	121.692125		[silence]	[silence]
sw3768A-ms98-a-0032	A.61	121.692125	122.133625		Yeah	yeah
sw3768A-ms98-a-0032	A.63	122.133625	122.591000		[silence]	[silence]
sw3768A-ms98-a-0033	A.63	122.591000	127.639125		[silence]	[silence]
sw3768A-ms98-a-0034	A.63	127.639125	128.149125		[silence]	[silence]
sw3768A-ms98-a-0034	A.63	128.149125	128.623125		Uh-huh	uh-huh
sw3768A-ms98-a-0034	A.63	128.623125	129.399125		[silence]	[silence]
sw3768A-ms98-a-0034	A.63	129.399125	129.941000		Yeah	yeah
sw3768A-ms98-a-0034	A.65	129.941000	130.540250		[silence]	[silence]
sw3768A-ms98-a-0035	A.65	130.540250	131.240250		[silence]	[silence]
sw3768A-ms98-a-0035	A.65	131.240250	131.370250		I	i
sw3768A-ms98-a-0035	A.65	131.370250	132.044875		haven't	haven't
sw3768A-ms98-a-0035	A.65	132.044875	132.511875		[silence]	[silence]
sw3768A-ms98-a-0035	A.65	132.511875	132.650250		I've	i've
sw3768A-ms98-a-0035	A.65	132.650250	132.990250		been	been
sw3768A-ms98-a-0035	A.65	132.990250	133.160250		I've	i've
sw3768A-ms98-a-0035	A.65	133.160250	133.670250		[silence]	[silence]
sw3768A-ms98-a-0035	A.65	133.670250	133.900250		most	most
sw3768A-ms98-a-0035	A.65	133.900250	133.960250		of	of
sw3768A-ms98-a-0035	A.65	133.960250	134.050250		my	my
sw3768A-ms98-a-0035	A.65	134.050250	134.690250		vacationing	vacationing
sw3768A-ms98-a-0035	A.65	134.690250	134.810250		in	in
sw3768A-ms98-a-0035	A.65	134.810250	134.870250		the	the
sw3768A-ms98-a-0035	A.65	134.870250	135.250250	<CONT>	U	US
sw3768A-ms98-a-0035	A.65	135.250250	135.250250	<CONT>	S	+++
sw3768A-ms98-a-0035	A.65	135.250250	135.400250		has	has
sw3768A-ms98-a-0035	A.65	135.400250	135.630250		been	been
sw3768A-ms98-a-0035	A.65	135.630250	135.760250		on	on
sw3768A-ms98-a-0035	A.65	135.760250	135.830250		the	the
sw3768A-ms98-a-0035	A.65	135.830250	136.090250		West	West
sw3768A-ms98-a-0035	A.65	136.090250	136.640250		Coast	Coast
sw3768A-ms98-a-0035	A.67	136.640250	136.688625		[silence]	[silence]
sw3768A-ms98-a-0036	A.67	136.688625	137.227750		[silence]	[silence]
sw3768A-ms98-a-0036	A.67	137.227750	137.678625		or	or
sw3768A-ms98-a-0036	A.67	137.678625	138.098625		this	this
sw3768A-ms98-a-0036	A.67	138.098625	138.458625		summer	summer
sw3768A-ms98-a-0036	A.67	138.458625	138.578625		I	i
sw3768A-ms98-a-0036	A.67	138.578625	138.768625		went	went
sw3768A-ms98-a-0036	A.67	138.768625	138.848625		to	to
sw3768A-ms98-a-0036	A.67	138.848625	139.538625		Colorado	Colorado
sw3768A-ms98-a-0036	A.69	139.538625	140.098000		[silence]	[silence]
sw3768A-ms98-a-0037	A.69	140.098000	140.462625		[silence]	[silence]
sw3768A-ms98-a-0037	A.69	140.462625	140.908000		and	and
sw3768A-ms98-a-0037	A.69	140.908000	141.141375		uh	uh
sw3768A-ms98-a-0037	A.69	141.141375	141.638000		[silence]	[silence]
sw3768A-ms98-a-0037	A.69	141.638000	141.748000		I'd	i'd
sw3768A-ms98-a-0037	A.69	141.748000	141.848000		love	love
sw3768A-ms98-a-0037	A.69	141.848000	141.968000		to	to
sw3768A-ms98-a-0037	A.69	141.968000	142.068000		go	go
sw3768A-ms98-a-0037	A.69	142.068000	142.158000		to	to
sw3768A-ms98-a-0037	A.69	142.158000	142.228000		the	the
sw3768A-ms98-a-0037	A.69	142.228000	142.478000		East	East
sw3768A-ms98-a-0037	A.69	142.478000	143.048000		Coast	Coast
sw3768A-ms98-a-0037	A.69	143.048000	143.258000		during	during
sw3768A-ms98-a-0037	A.69	143.258000	143.318000		the	the
sw3768A-ms98-a-0037	A.69	143.318000	143.831250		Fall	fall
sw3768A-ms98-a-0037	A.71	143.831250	144.165125		[silence]	[silence]
sw3768A-ms98-a-0038	A.71	144.165125	146.829125		[silence]	[silence]
sw3768A-ms98-a-0039	A.71	146.829125	147.360875		[silence]	[silence]
sw3768A-ms98-a-0039	A.71	147.360875	147.784250		Yeah	yeah
sw3768A-ms98-a-0039	A.73	147.784250	148.427875		[silence]	[silence]
sw3768A-ms98-a-0040	A.73	148.427875	152.617000		[silence]	[silence]
sw3768A-ms98-a-0041	A.73	152.617000	153.129875		[silence]	[silence]
sw3768A-ms98-a-0041	A.73	153.129875	153.494625		Uh-huh	uh-huh
sw3768A-ms98-a-0041	A.75	153.494625	153.924500		[silence]	[silence]
sw3768A-ms98-a-0042	A.75	153.924500	155.741750		[silence]	[silence]
sw3768A-ms98-a-0043	A.75	155.741750	156.211750		[silence]	[silence]
sw3768A-ms98-a-0043	A.75	156.211750	156.601750	<SUB>	Uh-huh	um-hum
sw3768A-ms98-a-0043	A.77	156.601750	157.135125		[silence]	[silence]
sw3768A-ms98-a-0044	A.77	157.135125	159.222375		[silence]	[silence]
sw3768A-ms98-a-0045	A.77	159.222375	159.738250		[silence]	[silence]
sw3768A-ms98-a-0045	A.77	159.738250	160.062000		Yeah	yeah
sw3768A-ms98-a-0045	A.79	160.062000	160.567875		[silence]	[silence]
sw3768A-ms98-a-0046	A.79	160.567875	164.059250		[silence]	[silence]
sw3768A-ms98-a-0047	A.79	164.059250	164.485375		[silence]	[silence]
sw3768A-ms98-a-0047	A.79	164.485375	164.967000		Uh-huh	uh-huh
sw3768A-ms98-a-0047	A.79	164.967000	165.125125		[silence]	[silence]
sw3768A-ms98-a-0047	A.79	165.125125	165.259250		I	i
sw3768A-ms98-a-0047	A.79	165.259250	165.489250		haven't	haven't
sw3768A-ms98-a-0047	A.79	165.489250	165.679250		been	been
sw3768A-ms98-a-0047	A.79	165.679250	165.984500		there	there
sw3768A-ms98-a-0047	A.79	165.984500	166.142750		[silence]	[silence]
sw3768A-ms98-a-0047	A.79	166.142750	166.519250		anywhere	anywhere
sw3768A-ms98-a-0047	A.79	166.519250	166.629250		on	on
sw3768A-ms98-a-0047	A.79	166.629250	166.689250		the	the
sw3768A-ms98-a-0047	A.79	166.689250	166.909250		East	East
sw3768A-ms98-a-0047	A.79	166.909250	167.389250		Coast	Coast
sw3768A-ms98-a-0047	A.81	167.389250	167.561250		I	i
sw3768A-ms98-a-0047	A.81	167.561250	168.292375		[silence]	[silence]
sw3768A-ms98-a-0048	A.81	168.292375	168.668125		[silence]	[silence]
sw3768A-ms98-a-0048	A.81	168.668125	168.739500	<DEL>	---	i
sw3768A-ms98-a-0048	A.81	168.739500	168.992375		think	think
sw3768A-ms98-a-0048	A.81	168.992375	169.532375	<CONT>	Tennessee	Tennessee's
sw3768A-ms98-a-0048	A.81	169.532375	169.532375	<CONT>	has	+++
sw3768A-ms98-a-0048	A.81	169.532375	169.732375		been	been
sw3768A-ms98-a-0048	A.81	169.732375	169.802375		the	the
sw3768A-ms98-a-0048	A.81	169.802375	170.262375		furthest	furthest
sw3768A-ms98-a-0048	A.81	170.262375	170.512375		east	east
sw3768A-ms98-a-0048	A.81	170.512375	170.642375		I've	i've
sw3768A-ms98-a-0048	A.81	170.642375	170.903000		been	been
sw3768A-ms98-a-0048	A.83	170.903000	171.288500		[silence]	[silence]
sw3768A-ms98-a-0049	A.83	171.288500	171.643875		[silence]	[silence]
sw3768A-ms98-a-0049	A.83	171.643875	172.049625		Yeah	yeah
sw3768A-ms98-a-0049	A.85	172.049625	172.539750		[silence]	[silence]
sw3768A-ms98-a-0050	A.85	172.539750	174.092000		[silence]	[silence]
sw3768A-ms98-a-0051	A.85	174.092000	174.589375		[silence]	[silence]
sw3768A-ms98-a-0051	A.85	174.589375	175.187500		Yeah	[laughter-yeah]
sw3768A-ms98-a-0051	A.85	175.187500	175.368250		[silence]	[silence]
sw3768A-ms98-a-0051	A.85	175.368250	175.452000		I	i
sw3768A-ms98-a-0051	A.85	175.452000	175.722000		guess	guess
sw3768A-ms98-a-0051	A.85	175.722000	176.112000		so	so
sw3768A-ms98-a-0051	A.87	176.112000	176.659375		[silence]	[silence]
sw3768A-ms98-a-0052	A.87	176.659375	179.509875		[silence]	[silence]
sw3768A-ms98-a-0053	A.87	179.509875	180.053000		[silence]	[silence]
sw3768A-ms98-a-0053	A.87	180.053000	180.419875		Uh-huh	uh-huh
sw3768A-ms98-a-0053	A.89	180.419875	180.963125		[silence]	[silence]
sw3768A-ms98-a-0054	A.89	180.963125	185.260625		[silence]	[silence]
sw3768A-ms98-a-0055	A.89	185.260625	185.785375		[silence]	[silence]
sw3768A-ms98-a-0055	A.89	185.785375	186.218125		Yeah	yeah
sw3768A-ms98-a-0055	A.91	186.218125	186.772000		[silence]	[silence]
sw3768A-ms98-a-0056	A.91	186.772000	194.733375		[silence]	[silence]
sw3768A-ms98-a-0057	A.91	194.733375	195.213375		[silence]	[silence]
sw3768A-ms98-a-0057	A.91	195.213375	195.573375		Uh-huh	uh-huh
sw3768A-ms98-a-0057	A.93	195.573375	196.503375		[noise]	[noise]
sw3768A-ms98-a-0057	A.93	196.503375	196.974875		Yeah	[laughter-yeah]
sw3768A-ms98-a-0057	A.95	196.974875	197.502625		[silence]	[silence]
sw3768A-ms98-a-0058	A.95	197.502625	198.507375		[silence]	[silence]
sw3768A-ms98-a-0059	A.95	198.507375	198.923500		[silence]	[silence]
sw3768A-ms98-a-0059	A.95	198.923500	199.277375		Yeah	yeah
sw3768A-ms98-a-0059	A.97	199.277375	199.789250		[silence]	[silence]
sw3768A-ms98-a-0060	A.97	199.789250	201.441500		[silence]	[silence]
sw3768A-ms98-a-0061	A.97	201.441500	201.961750		[silence]	[silence]
sw3768A-ms98-a-0061	A.97	201.961750	202.380375		Yeah	yeah
sw3768A-ms98-a-0061	A.97	202.380375	202.766875		[silence]	[silence]
sw3768A-ms98-a-0061	A.97	202.766875	202.961500		So	so
sw3768A-ms98-a-0061	A.97	202.961500	203.041500		the	the
sw3768A-ms98-a-0061	A.97	203.041500	203.331500		type	type
sw3768A-ms98-a-0061	A.97	203.331500	203.431500		of	of
sw3768A-ms98-a-0061	A.97	203.431500	204.011500		vacation	vacation
sw3768A-ms98-a-0061	A.97	204.011500	204.181500		you'd	you'd
sw3768A-ms98-a-0061	A.97	204.181500	204.398000		like	like
sw3768A-ms98-a-0061	A.97	204.398000	204.544875		[silence]	[silence]
sw3768A-ms98-a-0061	A.97	204.544875	204.691500	<SUB>	um	i
sw3768A-ms98-a-0061	A.97	204.691500	204.901500	<DEL>	---	mean
sw3768A-ms98-a-0061	A.97	204.901500	205.161500		like	like
sw3768A-ms98-a-0061	A.97	205.161500	205.311500		would	would
sw3768A-ms98-a-0061	A.97	205.311500	205.431500		you	you
sw3768A-ms98-a-0061	A.97	205.431500	205.591500		go	go
sw3768A-ms98-a-0061	A.97	205.591500	205.791500		over	over
sw3768A-ms98-a-0061	A.97	205.791500	205.921500		and	and
sw3768A-ms98-a-0061	A.97	205.921500	206.141500		spend	spend
sw3768A-ms98-a-0061	A.97	206.141500	206.191500		a	a
sw3768A-ms98-a-0061	A.97	206.191500	206.321500		lot	lot
sw3768A-ms98-a-0061	A.97	206.321500	206.411500		of	of
sw3768A-ms98-a-0061	A.97	206.411500	206.611500		time	time
sw3768A-ms98-a-0061	A.97	206.611500	206.741500		in	in
sw3768A-ms98-a-0061	A.97	206.741500	206.891500		one	one
sw3768A-ms98-a-0061	A.97	206.891500	207.241500		place	place
sw3768A-ms98-a-0061	A.97	207.241500	207.502875		or	or
sw3768A-ms98-a-0061	A.97	207.502875	207.845625		[silence]	[silence]
sw3768A-ms98-a-0061	A.97	207.845625	208.191500		travel	travel
sw3768A-ms98-a-0061	A.97	208.191500	208.419125		to	to
sw3768A-ms98-a-0061	A.97	208.419125	208.648875		[silence]	[silence]
sw3768A-ms98-a-0061	A.97	208.648875	208.841500		whole	whole
sw3768A-ms98-a-0061	A.97	208.841500	209.041500		bunch	bunch
sw3768A-ms98-a-0061	A.97	209.041500	209.101500		of	of
sw3768A-ms98-a-0061	A.97	209.101500	209.361500		different	different
sw3768A-ms98-a-0061	A.97	209.361500	209.791500		places	places
sw3768A-ms98-a-0061	A.97	209.791500	210.101125		in	in
sw3768A-ms98-a-0061	A.97	210.101125	210.579500		[silence]	[silence]
sw3768A-ms98-a-0061	A.97	210.579500	210.741500		one	one
sw3768A-ms98-a-0061	A.97	210.741500	211.330750		week	week
sw3768A-ms98-a-0061	A.99	211.330750	212.038250		[silence]	[silence]
sw3768A-ms98-a-0062	A.99	212.038250	212.961250		[silence]	[silence]
sw3768A-ms98-a-0062	A.99	212.961250	213.238250		Yeah	yeah
sw3768A-ms98-a-0062	A.99	213.238250	213.468250		main-	main[ly]-
sw3768A-ms98-a-0062	A.99	213.468250	213.588250		[silence]	[silence]
sw3768A-ms98-a-0062	A.99	213.588250	213.858250		mainly	mainly
sw3768A-ms98-a-0062	A.99	213.858250	214.128250		probably	probably
sw3768A-ms98-a-0062	A.99	214.128250	214.298250		because	because_1
sw3768A-ms98-a-0062	A.99	214.298250	214.378250		you	you
sw3768A-ms98-a-0062	A.99	214.378250	214.548250	<SUB>	want	wanna
sw3768A-ms98-a-0062	A.99	214.548250	214.548250	<INS>	to	---
sw3768A-ms98-a-0062	A.99	214.548250	214.728250		see	see
sw3768A-ms98-a-0062	A.99	214.728250	215.208250		everything	everything
sw3768A-ms98-a-0062	A.101	215.208250	215.408250	<DEL>	---	and
sw3768A-ms98-a-0062	A.101	215.408250	215.918250		[noise]	[noise]
sw3768A-ms98-a-0062	A.101	215.918250	216.284125		Yeah	yeah
sw3768A-ms98-a-0062	A.103	216.284125	216.812250		[silence]	[silence]
sw3768A-ms98-a-0063	A.103	216.812250	216.874125		[silence]	[silence]
sw3768A-ms98-a-0063	A.103	216.874125	217.522250		[noise]	[noise]
sw3768A-ms98-a-0063	A.103	217.522250	217.792250		Yeah	yeah
sw3768A-ms98-a-0063	A.103	217.792250	217.862250		I	i
sw3768A-ms98-a-0063	A.103	217.862250	218.280750		know	know
sw3768A-ms98-a-0063	A.105	218.280750	218.710125		[silence]	[silence]
sw3768A-ms98-a-0063	A.105	218.710125	218.924875	<SUB>	Yeah	how
sw3768A-ms98-a-0063	A.107	218.924875	219.012750	<DEL>	---	it
sw3768A-ms98-a-0063	A.107	219.012750	219.262000	<DEL>	---	is
sw3768A-ms98-a-0063	A.107	219.262000	219.801250		[silence]	[silence]
sw3768A-ms98-a-0064	A.107	219.801250	220.429750		[silence]	[silence]
sw3768A-ms98-a-0064	A.107	220.429750	220.511250		[noise]	[noise]
sw3768A-ms98-a-0064	A.107	220.511250	220.871250		Well	well
sw3768A-ms98-a-0064	A.107	220.871250	221.001250		I	i
sw3768A-ms98-a-0064	A.107	221.001250	221.361250		liked	liked
sw3768A-ms98-a-0064	A.107	221.361250	221.561250		it	it
sw3768A-ms98-a-0064	A.107	221.561250	221.811250	<DEL>	---	um
sw3768A-ms98-a-0064	A.107	221.811250	221.921250		I	i
sw3768A-ms98-a-0064	A.107	221.921250	222.121250		was	was
sw3768A-ms98-a-0064	A.107	222.121250	222.471250		working	working
sw3768A-ms98-a-0064	A.107	222.471250	222.731250		in	in
sw3768A-ms98-a-0064	A.107	222.731250	223.451250		Cameroon	Cameroon
sw3768A-ms98-a-0064	A.107	223.451250	223.881250		Africa	Africa
sw3768A-ms98-a-0064	A.109	223.881250	224.131250		and	and
sw3768A-ms98-a-0064	A.109	224.131250	224.351250		it's	it's
sw3768A-ms98-a-0064	A.109	224.351250	224.401250		[silence]	[silence]
sw3768A-ms98-a-0064	A.109	224.401250	224.548000		not	not
sw3768A-ms98-a-0064	A.109	224.548000	224.766125		a	a
sw3768A-ms98-a-0064	A.109	224.766125	225.420125		[noise]	[noise]
sw3768A-ms98-a-0064	A.109	225.420125	225.439125		[silence]	[silence]
sw3768A-ms98-a-0065	A.109	225.439125	225.533125		[silence]	[silence]
sw3768A-ms98-a-0065	A.109	225.533125	225.659125		it's	it's
sw3768A-ms98-a-0065	A.109	225.659125	225.869125		not	not
sw3768A-ms98-a-0065	A.109	225.869125	225.919125		a	a
sw3768A-ms98-a-0065	A.109	225.919125	226.319125		place	place
sw3768A-ms98-a-0065	A.109	226.319125	226.469125		for	for
sw3768A-ms98-a-0065	A.109	226.469125	227.119125		tourists	tourists
sw3768A-ms98-a-0065	A.109	227.119125	227.149125		I	i
sw3768A-ms98-a-0065	A.109	227.149125	227.329125		mean	mean
sw3768A-ms98-a-0065	A.109	227.329125	227.459125		they're	they're
sw3768A-ms98-a-0065	A.109	227.459125	227.733625		not	not
sw3768A-ms98-a-0065	A.109	227.733625	228.569750		[laughter]	[laughter]
sw3768A-ms98-a-0065	A.109	228.569750	228.759125		used	used
sw3768A-ms98-a-0065	A.109	228.759125	228.839125		to	to
sw3768A-ms98-a-0065	A.109	228.839125	229.099125		having	having
sw3768A-ms98-a-0065	A.109	229.099125	229.519125		tourists	tourists
sw3768A-ms98-a-0065	A.109	229.519125	229.739125		there	there
sw3768A-ms98-a-0065	A.109	229.739125	230.176000		so	so
sw3768A-ms98-a-0065	A.111	230.176000	230.892875		it's	it's
sw3768A-ms98-a-0065	A.111	230.892875	231.179125		[silence]	[silence]
sw3768A-ms98-a-0065	A.111	231.179125	231.309125		you're	you're
sw3768A-ms98-a-0065	A.111	231.309125	231.499125		kind	kind
sw3768A-ms98-a-0065	A.111	231.499125	231.589125		of	of
sw3768A-ms98-a-0065	A.111	231.589125	231.939125		roughing	roughing
sw3768A-ms98-a-0065	A.111	231.939125	232.114500		it	it
sw3768A-ms98-a-0065	A.111	232.114500	232.227500		[silence]	[silence]
sw3768A-ms98-a-0065	A.111	232.227500	232.489125		But	but
sw3768A-ms98-a-0065	A.111	232.489125	232.743250		um	um
sw3768A-ms98-a-0065	A.111	232.743250	233.398625		[silence]	[silence]
sw3768A-ms98-a-0065	A.111	233.398625	233.499125		I	i
sw3768A-ms98-a-0065	A.111	233.499125	233.819125		liked	liked
sw3768A-ms98-a-0065	A.111	233.819125	233.980250		it	it
sw3768A-ms98-a-0065	A.111	233.980250	234.292875		[silence]	[silence]
sw3768A-ms98-a-0065	A.111	234.292875	234.369750		I	i
sw3768A-ms98-a-0065	A.111	234.369750	234.662625		liked	liked
sw3768A-ms98-a-0065	A.111	234.662625	234.768125		it	it
sw3768A-ms98-a-0065	A.113	234.768125	234.869125		The	the
sw3768A-ms98-a-0065	A.113	234.869125	235.239125		people	people
sw3768A-ms98-a-0065	A.113	235.239125	235.469125		there	there
sw3768A-ms98-a-0065	A.113	235.469125	235.539125		are	are
sw3768A-ms98-a-0065	A.113	235.539125	235.789125		just	just
sw3768A-ms98-a-0065	A.113	235.789125	236.119125		very	very
sw3768A-ms98-a-0065	A.113	236.119125	236.349125		very	very
sw3768A-ms98-a-0065	A.113	236.349125	236.859125		friendly	friendly
sw3768A-ms98-a-0065	A.113	236.859125	237.175875		and	and
sw3768A-ms98-a-0065	A.115	237.175875	237.992625		[silence]	[silence]
sw3768A-ms98-a-0066	A.115	237.992625	238.612625		[silence]	[silence]
sw3768A-ms98-a-0066	A.115	238.612625	238.981375		Um	um
sw3768A-ms98-a-0066	A.115	238.981375	239.222375		[silence]	[silence]
sw3768A-ms98-a-0066	A.115	239.222375	239.322625		I	i
sw3768A-ms98-a-0066	A.115	239.322625	239.572625		was	was
sw3768A-ms98-a-0066	A.115	239.572625	240.012625		working	working
sw3768A-ms98-a-0066	A.115	240.012625	240.192625		with	with
sw3768A-ms98-a-0066	A.115	240.192625	240.302625		[silence]	[silence]
sw3768A-ms98-a-0066	A.115	240.302625	240.502625		an	an
sw3768A-ms98-a-0066	A.115	240.502625	241.162625		organization	organization
sw3768A-ms98-a-0066	A.115	241.162625	241.272625		that	that
sw3768A-ms98-a-0066	A.115	241.272625	241.462625		does	does
sw3768A-ms98-a-0066	A.115	241.462625	241.722625		Bible	Bible
sw3768A-ms98-a-0066	A.115	241.722625	242.542625		translation	translation
sw3768A-ms98-a-0066	A.117	242.542625	242.958500		[silence]	[silence]
sw3768A-ms98-a-0067	A.117	242.958500	243.428500		[silence]	[silence]
sw3768A-ms98-a-0067	A.117	243.428500	243.628500		So	so
sw3768A-ms98-a-0067	A.117	243.628500	243.668500		I	i
sw3768A-ms98-a-0067	A.117	243.668500	243.798500		was	was
sw3768A-ms98-a-0067	A.117	243.798500	244.058500		doing	doing
sw3768A-ms98-a-0067	A.117	244.058500	244.638500		linguistic	linguistic
sw3768A-ms98-a-0067	A.117	244.638500	244.898500		work	work
sw3768A-ms98-a-0067	A.117	244.898500	245.367750		actually	actually
sw3768A-ms98-a-0067	A.117	245.367750	245.473125		[silence]	[silence]
sw3768A-ms98-a-0067	A.117	245.473125	245.968500		travelling	traveling
sw3768A-ms98-a-0067	A.117	245.968500	246.498500		around	around
sw3768A-ms98-a-0067	A.117	246.498500	246.868500		finding	finding
sw3768A-ms98-a-0067	A.117	246.868500	247.018500		out	out
sw3768A-ms98-a-0067	A.117	247.018500	247.259000		about	about
sw3768A-ms98-a-0067	A.117	247.259000	247.304125		[silence]	[silence]
sw3768A-ms98-a-0067	A.117	247.304125	247.898500		languages	languages
sw3768A-ms98-a-0067	A.117	247.898500	248.166375		and	and
sw3768A-ms98-a-0067	A.119	248.166375	248.840625		[silence]	[silence]
sw3768A-ms98-a-0067	A.119	248.840625	249.268500		uh	uh
sw3768A-ms98-a-0067	A.119	249.268500	249.328500		[silence]	[silence]
sw3768A-ms98-a-0067	A.119	249.328500	249.458500		what	what
sw3768A-ms98-a-0067	A.119	249.458500	249.518500		they	they
sw3768A-ms98-a-0067	A.119	249.518500	249.738500		call	call
sw3768A-ms98-a-0067	A.119	249.738500	250.178500		survey	survey
sw3768A-ms98-a-0067	A.119	250.178500	250.621250		work	work
sw3768A-ms98-a-0067	A.121	250.621250	251.288625		[silence]	[silence]
sw3768A-ms98-a-0067	A.121	251.288625	251.578500		Find	find
sw3768A-ms98-a-0067	A.121	251.578500	251.708500		out	out
sw3768A-ms98-a-0067	A.121	251.708500	251.928500		where	where
sw3768A-ms98-a-0067	A.121	251.928500	252.260125		the	the
sw3768A-ms98-a-0067	A.121	252.260125	253.070000		[silence]	[silence]
sw3768A-ms98-a-0067	A.121	253.070000	253.518500		languages	languages
sw3768A-ms98-a-0067	A.121	253.518500	253.788500		are	are
sw3768A-ms98-a-0067	A.123	253.788500	254.168250		[silence]	[silence]
sw3768A-ms98-a-0068	A.123	254.168250	254.415500		[silence]	[silence]
sw3768A-ms98-a-0068	A.123	254.415500	254.738250		So	so
sw3768A-ms98-a-0068	A.123	254.738250	254.848250		I	i
sw3768A-ms98-a-0068	A.123	254.848250	255.288250	<SUB>	travelled	traveled
sw3768A-ms98-a-0068	A.123	255.288250	255.318250		a	a
sw3768A-ms98-a-0068	A.123	255.318250	255.618250		lot	lot
sw3768A-ms98-a-0068	A.123	255.618250	255.724375	<DEL>	---	a[round]-
sw3768A-ms98-a-0068	A.123	255.724375	256.078500		[silence]	[silence]
sw3768A-ms98-a-0068	A.123	256.078500	256.368250		around	around
sw3768A-ms98-a-0068	A.123	256.368250	256.428250		the	the
sw3768A-ms98-a-0068	A.123	256.428250	256.868250		country	country
sw3768A-ms98-a-0068	A.123	256.868250	257.028250		and	and
sw3768A-ms98-a-0068	A.123	257.028250	257.188250		met	met
sw3768A-ms98-a-0068	A.123	257.188250	257.228250		a	a
sw3768A-ms98-a-0068	A.123	257.228250	257.398250		lot	lot
sw3768A-ms98-a-0068	A.123	257.398250	257.458250		of	of
sw3768A-ms98-a-0068	A.123	257.458250	257.848250		people	people
sw3768A-ms98-a-0068	A.125	257.848250	258.039875	<DEL>	---	and
sw3768A-ms98-a-0068	A.125	258.039875	258.781500		[silence]	[silence]
sw3768A-ms98-a-0069	A.125	258.781500	259.112750		[silence]	[silence]
sw3768A-ms98-a-0069	A.125	259.112750	259.448375		Um	um
sw3768A-ms98-a-0069	A.127	259.448375	259.961875		[silence]	[silence]
sw3768A-ms98-a-0070	A.127	259.961875	260.140875		[silence]	[silence]
sw3768A-ms98-a-0070	A.127	260.140875	260.496625		[noise]	[noise]
sw3768A-ms98-a-0070	A.127	260.496625	260.741875		Yeah	yeah
sw3768A-ms98-a-0070	A.127	260.741875	260.881875		I	i
sw3768A-ms98-a-0070	A.127	260.881875	261.421875		enjoyed	enjoyed
sw3768A-ms98-a-0070	A.127	261.421875	261.542125		it	it
sw3768A-ms98-a-0070	A.127	261.542125	261.677750		[silence]	[silence]
sw3768A-ms98-a-0070	A.127	261.677750	262.084500		So	so
sw3768A-ms98-a-0070	A.129	262.084500	262.675875		[silence]	[silence]
sw3768A-ms98-a-0071	A.129	262.675875	269.083125		[silence]	[silence]
sw3768A-ms98-a-0072	A.129	269.083125	269.623125		[silence]	[silence]
sw3768A-ms98-a-0072	A.129	269.623125	270.027375		Yeah	yeah
sw3768A-ms98-a-0072	A.131	270.027375	270.815500		[silence]	[silence]
sw3768A-ms98-a-0073	A.131	270.815500	274.047125		[silence]	[silence]
sw3768A-ms98-a-0074	A.131	274.047125	274.574125		[silence]	[silence]
sw3768A-ms98-a-0074	A.131	274.574125	274.941500		Yeah	yeah
sw3768A-ms98-a-0074	A.131	274.941500	275.035250		[silence]	[silence]
sw3768A-ms98-a-0074	A.131	275.035250	275.117125		my	my
sw3768A-ms98-a-0074	A.131	275.117125	275.507125		cousin	cousin
sw3768A-ms98-a-0074	A.131	275.507125	275.717125		came	came
sw3768A-ms98-a-0074	A.131	275.717125	275.947125		over	over
sw3768A-ms98-a-0074	A.131	275.947125	276.057125		while	while
sw3768A-ms98-a-0074	A.131	276.057125	276.137125		I	i
sw3768A-ms98-a-0074	A.131	276.137125	276.277125		was	was
sw3768A-ms98-a-0074	A.131	276.277125	276.487125		there	there
sw3768A-ms98-a-0074	A.131	276.487125	276.767125		and	and
sw3768A-ms98-a-0074	A.131	276.767125	276.963500		she	she
sw3768A-ms98-a-0074	A.131	276.963500	277.227250		[silence]	[silence]
sw3768A-ms98-a-0074	A.131	277.227250	277.437125		came	came
sw3768A-ms98-a-0074	A.131	277.437125	277.507125		to	to
sw3768A-ms98-a-0074	A.131	277.507125	278.017125		Cameroon	Cameroon
sw3768A-ms98-a-0074	A.131	278.017125	278.017125	<INS>	and	---
sw3768A-ms98-a-0074	A.131	278.017125	278.157125		then	then
sw3768A-ms98-a-0074	A.131	278.157125	278.257125		she	she
sw3768A-ms98-a-0074	A.131	278.257125	278.397125		went	went
sw3768A-ms98-a-0074	A.131	278.397125	278.567125		over	over
sw3768A-ms98-a-0074	A.131	278.567125	278.727125		to	to
sw3768A-ms98-a-0074	A.131	278.727125	279.317125		Nairobi	Nairobi
sw3768A-ms98-a-0074	A.131	279.317125	279.537125		and	and
sw3768A-ms98-a-0074	A.131	279.537125	279.937125		[silence]	[silence]
sw3768A-ms98-a-0074	A.131	279.937125	280.097125		took	took
sw3768A-ms98-a-0074	A.131	280.097125	280.177125		a	a
sw3768A-ms98-a-0074	A.131	280.177125	280.707125		safari	safari
sw3768A-ms98-a-0074	A.131	280.707125	281.129875		around	around
sw3768A-ms98-a-0074	A.133	281.129875	281.389375		[silence]	[silence]
sw3768A-ms98-a-0075	A.133	281.389375	281.639375		[silence]	[silence]
sw3768A-ms98-a-0075	A.133	281.639375	281.719375		you	you
sw3768A-ms98-a-0075	A.133	281.719375	281.779375		know	know
sw3768A-ms98-a-0075	A.133	281.779375	282.039375		close	close
sw3768A-ms98-a-0075	A.133	282.039375	282.189375		to	to
sw3768A-ms98-a-0075	A.133	282.189375	282.739625		Nairobi	Nairobi
sw3768A-ms98-a-0075	A.133	282.739625	282.931750		[silence]	[silence]
sw3768A-ms98-a-0075	A.133	282.931750	283.019375		in	in
sw3768A-ms98-a-0075	A.133	283.019375	283.459375		Kenya	Kenya
sw3768A-ms98-a-0075	A.135	283.459375	284.417000		[silence]	[silence]
sw3768A-ms98-a-0075	A.135	284.417000	284.689375		So	so
sw3768A-ms98-a-0075	A.135	284.689375	284.939375		she'd	she'd
sw3768A-ms98-a-0075	A.135	284.939375	285.169375		always	always
sw3768A-ms98-a-0075	A.135	285.169375	285.459375		dreamed	dreamed
sw3768A-ms98-a-0075	A.135	285.459375	285.539375		of	of
sw3768A-ms98-a-0075	A.135	285.539375	285.769375		doing	doing
sw3768A-ms98-a-0075	A.135	285.769375	286.039375		that	that
sw3768A-ms98-a-0075	A.135	286.039375	286.299375		too	too
sw3768A-ms98-a-0075	A.137	286.299375	287.065875		[silence]	[silence]
sw3768A-ms98-a-0076	A.137	287.065875	287.797875		[silence]	[silence]
sw3768A-ms98-a-0076	A.137	287.797875	288.173250		So	so
sw3768A-ms98-a-0076	A.137	288.173250	288.844000		[silence]	[silence]
sw3768A-ms98-a-0077	A.137	288.844000	289.613375		[silence]	[silence]
sw3768A-ms98-a-0077	A.137	289.613375	290.084000		Yeah	yeah
sw3768A-ms98-a-0077	A.137	290.084000	290.934000		[noise]	[noise]
sw3768A-ms98-a-0077	A.137	290.934000	291.194000		So	so
sw3768A-ms98-a-0077	A.137	291.194000	291.304000		is	is
sw3768A-ms98-a-0077	A.137	291.304000	291.424000		there	there
sw3768A-ms98-a-0077	A.137	291.424000	291.854000	<CONT>	any	anyplace
sw3768A-ms98-a-0077	A.137	291.854000	291.854000	<CONT>	place	+++
sw3768A-ms98-a-0077	A.137	291.854000	291.994000		you	you
sw3768A-ms98-a-0077	A.137	291.994000	292.164000		would	would
sw3768A-ms98-a-0077	A.137	292.164000	292.354000		try	try
sw3768A-ms98-a-0077	A.137	292.354000	292.464000		to	to
sw3768A-ms98-a-0077	A.137	292.464000	292.734000		talk	talk
sw3768A-ms98-a-0077	A.137	292.734000	292.834000		me	me
sw3768A-ms98-a-0077	A.137	292.834000	293.074000		into	into
sw3768A-ms98-a-0077	A.137	293.074000	293.344000		going	going
sw3768A-ms98-a-0077	A.137	293.344000	293.594000		to	[laughter-to]
sw3768A-ms98-a-0077	A.139	293.594000	294.254000		[laughter]	[laughter]
sw3768A-ms98-a-0077	A.139	294.254000	294.344000		It	it
sw3768A-ms98-a-0077	A.139	294.344000	294.554000		sounds	sounds
sw3768A-ms98-a-0077	A.139	294.554000	294.674000		like	like
sw3768A-ms98-a-0077	A.139	294.674000	294.814000		we've	we've
sw3768A-ms98-a-0077	A.139	294.814000	295.011750		been	been
sw3768A-ms98-a-0077	A.139	295.011750	295.249000		to	[laughter-to]
sw3768A-ms98-a-0077	A.139	295.249000	295.454000		[silence]	[silence]
sw3768A-ms98-a-0077	A.139	295.454000	295.584000		some	some
sw3768A-ms98-a-0077	A.139	295.584000	295.654000		of	of
sw3768A-ms98-a-0077	A.139	295.654000	295.724000		the	the
sw3768A-ms98-a-0077	A.139	295.724000	295.964000		same	same
sw3768A-ms98-a-0077	A.139	295.964000	296.434000		places	places
sw3768A-ms98-a-0077	A.139	296.434000	296.697875	<DEL>	---	but
sw3768A-ms98-a-0077	A.139	296.697875	297.186000		[silence]	[silence]
