sw3751A-ms98-a-0001	A.1	0.000000	0.000000	<INS>	Where	---
sw3751A-ms98-a-0001	A.1	0.000000	0.020000		[silence]	[silence]
sw3751A-ms98-a-0001	A.1	0.020000	0.040000		[noise]	[noise]
sw3751A-ms98-a-0001	A.1	0.040000	0.100000		are	are
sw3751A-ms98-a-0001	A.1	0.100000	0.230000		you	you
sw3751A-ms98-a-0001	A.1	0.230000	0.520000		Bob	Bob
sw3751A-ms98-a-0001	A.3	0.520000	0.996625		[silence]	[silence]
sw3751A-ms98-a-0002	A.3	0.996625	1.999125		[silence]	[silence]
sw3751A-ms98-a-0003	A.3	1.999125	2.339125		[silence]	[silence]
sw3751A-ms98-a-0003	A.3	2.339125	2.529125		Oh	oh
sw3751A-ms98-a-0003	A.3	2.529125	2.719125		okay	okay
sw3751A-ms98-a-0003	A.3	2.719125	2.749125		I	i
sw3751A-ms98-a-0003	A.3	2.749125	2.929125		am	am
sw3751A-ms98-a-0003	A.3	2.929125	3.039125		in	in
sw3751A-ms98-a-0003	A.3	3.039125	3.569125		Waco	Waco
sw3751A-ms98-a-0003	A.5	3.569125	3.971625		[silence]	[silence]
sw3751A-ms98-a-0004	A.5	3.971625	4.311625		[silence]	[silence]
sw3751A-ms98-a-0004	A.5	4.311625	4.651625		Yeah	yeah
sw3751A-ms98-a-0004	A.7	4.651625	4.851625		[laughter]	[laughter]
sw3751A-ms98-a-0004	A.7	4.851625	5.367000		[silence]	[silence]
sw3751A-ms98-a-0005	A.7	5.367000	5.507000		[silence]	[silence]
sw3751A-ms98-a-0005	A.7	5.507000	5.657000		Right	right
sw3751A-ms98-a-0005	A.7	5.657000	5.837000		down	down
sw3751A-ms98-a-0005	A.7	5.837000	5.897000		the	the
sw3751A-ms98-a-0005	A.7	5.897000	6.347000		street	street
sw3751A-ms98-a-0005	A.9	6.347000	6.715750		[silence]	[silence]
sw3751A-ms98-a-0006	A.9	6.715750	7.065750		[silence]	[silence]
sw3751A-ms98-a-0006	A.9	7.065750	7.215750		Oh	oh
sw3751A-ms98-a-0006	A.9	7.215750	7.595750		credit	credit
sw3751A-ms98-a-0006	A.9	7.595750	7.995750		cards	cards
sw3751A-ms98-a-0006	A.9	7.995750	8.235750		My	my
sw3751A-ms98-a-0006	A.9	8.235750	8.845750		favorite	favorite
sw3751A-ms98-a-0006	A.9	8.845750	9.585750		subject	subject
sw3751A-ms98-a-0006	A.11	9.585750	10.245750		[laughter]	[laughter]
sw3751A-ms98-a-0006	A.11	10.245750	10.708750		[silence]	[silence]
sw3751A-ms98-a-0007	A.11	10.708750	11.188750		[silence]	[silence]
sw3751A-ms98-a-0007	A.11	11.188750	11.788750		Oh	oh
sw3751A-ms98-a-0007	A.11	11.788750	12.148750		do	do
sw3751A-ms98-a-0007	A.11	12.148750	12.608750		I	i
sw3751A-ms98-a-0007	A.13	12.608750	12.698750		[silence]	[silence]
sw3751A-ms98-a-0007	A.13	12.698750	12.728750	<DEL>	---	uh
sw3751A-ms98-a-0007	A.13	12.728750	14.252750		[silence]	[silence]
sw3751A-ms98-a-0008	A.13	14.252750	14.992750		[silence]	[silence]
sw3751A-ms98-a-0008	A.13	14.992750	15.262750		Yeah	yeah
sw3751A-ms98-a-0008	A.13	15.262750	15.682750		mostly	mostly
sw3751A-ms98-a-0008	A.13	15.682750	15.882750		over	over
sw3751A-ms98-a-0008	A.13	15.882750	16.552750		Christmas	Christmas
sw3751A-ms98-a-0008	A.13	16.552750	16.742750		[silence]	[silence]
sw3751A-ms98-a-0008	A.13	16.742750	17.042750		Uh	uh
sw3751A-ms98-a-0008	A.13	17.042750	17.172750		[silence]	[silence]
sw3751A-ms98-a-0008	A.13	17.172750	17.262750		I	i
sw3751A-ms98-a-0008	A.13	17.262750	17.472750		get	get
sw3751A-ms98-a-0008	A.13	17.472750	17.562750		in	in
sw3751A-ms98-a-0008	A.13	17.562750	17.632750		a	a
sw3751A-ms98-a-0008	A.13	17.632750	17.882750		rut	rut
sw3751A-ms98-a-0008	A.13	17.882750	18.052750		with	with
sw3751A-ms98-a-0008	A.13	18.052750	18.352750		credit	credit
sw3751A-ms98-a-0008	A.13	18.352750	18.662750		cards	cards
sw3751A-ms98-a-0008	A.13	18.662750	18.882750		cause	cause
sw3751A-ms98-a-0008	A.13	18.882750	18.982750		[silence]	[silence]
sw3751A-ms98-a-0008	A.13	18.982750	19.142750		they	they
sw3751A-ms98-a-0008	A.13	19.142750	19.302750		get	get
sw3751A-ms98-a-0008	A.13	19.302750	19.412750		me	me
sw3751A-ms98-a-0008	A.13	19.412750	19.602750		kind	kind
sw3751A-ms98-a-0008	A.13	19.602750	19.692750		of	of
sw3751A-ms98-a-0008	A.13	19.692750	19.792750		in	in
sw3751A-ms98-a-0008	A.13	19.792750	19.852750		a	a
sw3751A-ms98-a-0008	A.13	19.852750	20.292750		vicious	vicious
sw3751A-ms98-a-0008	A.13	20.292750	20.652750		cycle	cycle
sw3751A-ms98-a-0008	A.13	20.652750	20.762750		Where	where
sw3751A-ms98-a-0008	A.13	20.762750	21.602750		[silence]	[silence]
sw3751A-ms98-a-0008	A.13	21.602750	21.742750		you	you
sw3751A-ms98-a-0008	A.13	21.742750	22.072750		use	use
sw3751A-ms98-a-0008	A.13	22.072750	22.182750		them	them_1
sw3751A-ms98-a-0008	A.13	22.182750	22.222750		a	a
sw3751A-ms98-a-0008	A.13	22.222750	22.492750		lot	lot
sw3751A-ms98-a-0008	A.13	22.492750	22.672750		one	one
sw3751A-ms98-a-0008	A.13	22.672750	23.042750		month	month
sw3751A-ms98-a-0008	A.13	23.042750	23.152750		and	and
sw3751A-ms98-a-0008	A.13	23.152750	23.282750		then	then
sw3751A-ms98-a-0008	A.13	23.282750	23.422750		you	you
sw3751A-ms98-a-0008	A.13	23.422750	23.572750		have	have
sw3751A-ms98-a-0008	A.13	23.572750	23.722750		to	to
sw3751A-ms98-a-0008	A.13	23.722750	24.282750		use	use
sw3751A-ms98-a-0008	A.13	24.282750	24.572750		[silence]	[silence]
sw3751A-ms98-a-0008	A.13	24.572750	24.892750		whatever	whatever
sw3751A-ms98-a-0008	A.13	24.892750	25.102750		money	money
sw3751A-ms98-a-0008	A.13	25.102750	25.232750		you	you
sw3751A-ms98-a-0008	A.13	25.232750	25.712750		have	have
sw3751A-ms98-a-0008	A.13	25.712750	25.812750		to	to
sw3751A-ms98-a-0008	A.13	25.812750	26.012750		pay	pay
sw3751A-ms98-a-0008	A.13	26.012750	26.032750		[silence]	[silence]
sw3751A-ms98-a-0008	A.13	26.032750	26.262750		those	those
sw3751A-ms98-a-0008	A.13	26.262750	26.802750		off	off
sw3751A-ms98-a-0008	A.15	26.802750	26.983250		[silence]	[silence]
sw3751A-ms98-a-0009	A.15	26.983250	27.273250		[silence]	[silence]
sw3751A-ms98-a-0009	A.15	27.273250	27.403250		and	and
sw3751A-ms98-a-0009	A.15	27.403250	27.573250		so	so
sw3751A-ms98-a-0009	A.15	27.573250	27.833250		then	then
sw3751A-ms98-a-0009	A.15	27.833250	27.963250		you	you
sw3751A-ms98-a-0009	A.15	27.963250	28.173250		have	have
sw3751A-ms98-a-0009	A.15	28.173250	28.313250		no	no
sw3751A-ms98-a-0009	A.15	28.313250	28.793250		money	money
sw3751A-ms98-a-0009	A.17	28.793250	28.833250		[silence]	[silence]
sw3751A-ms98-a-0009	A.17	28.833250	29.073250		[laughter]	[laughter]
sw3751A-ms98-a-0009	A.17	29.073250	29.503250		so	so
sw3751A-ms98-a-0009	A.17	29.503250	29.733250		you	you
sw3751A-ms98-a-0009	A.17	29.733250	30.013250		use	use
sw3751A-ms98-a-0009	A.17	30.013250	30.093250		a	a
sw3751A-ms98-a-0009	A.17	30.093250	30.373250		credit	credit
sw3751A-ms98-a-0009	A.17	30.373250	30.823250		card	card
sw3751A-ms98-a-0009	A.19	30.823250	31.481000		[silence]	[silence]
sw3751A-ms98-a-0010	A.19	31.481000	31.851000		[silence]	[silence]
sw3751A-ms98-a-0010	A.19	31.851000	32.221000	<DEL>	---	so
sw3751A-ms98-a-0010	A.19	32.221000	32.421000		[silence]	[silence]
sw3751A-ms98-a-0010	A.19	32.421000	32.781000		Yeah	yeah
sw3751A-ms98-a-0010	A.19	32.781000	33.071000		[silence]	[silence]
sw3751A-ms98-a-0010	A.19	33.071000	33.121000		Uh	uh
sw3751A-ms98-a-0010	A.19	33.121000	33.151000		I	i
sw3751A-ms98-a-0010	A.19	33.151000	33.471000		probably	probably
sw3751A-ms98-a-0010	A.19	33.471000	33.661000		have	have
sw3751A-ms98-a-0010	A.19	33.661000	33.841000		one	one
sw3751A-ms98-a-0010	A.19	33.841000	33.951000		of	of
sw3751A-ms98-a-0010	A.19	33.951000	34.291000		every	every
sw3751A-ms98-a-0010	A.19	34.291000	34.601000		credit	credit
sw3751A-ms98-a-0010	A.19	34.601000	34.881000		card	card
sw3751A-ms98-a-0010	A.19	34.881000	35.031000		there	there
sw3751A-ms98-a-0010	A.19	35.031000	35.551000		is	is
sw3751A-ms98-a-0010	A.21	35.551000	36.224000		[silence]	[silence]
sw3751A-ms98-a-0011	A.21	36.224000	36.954000		[silence]	[silence]
sw3751A-ms98-a-0011	A.21	36.954000	37.074000		Do	do
sw3751A-ms98-a-0011	A.21	37.074000	37.134000		you	you
sw3751A-ms98-a-0011	A.21	37.134000	37.364000		use	use
sw3751A-ms98-a-0011	A.21	37.364000	37.484000		them	them
sw3751A-ms98-a-0011	A.21	37.484000	37.524000		a	a
sw3751A-ms98-a-0011	A.21	37.524000	37.874000		lot	lot
sw3751A-ms98-a-0011	A.23	37.874000	38.485625		[silence]	[silence]
sw3751A-ms98-a-0012	A.23	38.485625	44.785375		[silence]	[silence]
sw3751A-ms98-a-0013	A.23	44.785375	45.435375		[silence]	[silence]
sw3751A-ms98-a-0013	A.23	45.435375	45.635375		Uh-huh	uh-huh
sw3751A-ms98-a-0013	A.25	45.635375	46.239250		[silence]	[silence]
sw3751A-ms98-a-0014	A.25	46.239250	51.489000		[silence]	[silence]
sw3751A-ms98-a-0015	A.25	51.489000	52.079000		[silence]	[silence]
sw3751A-ms98-a-0015	A.25	52.079000	52.709000		Oh	oh
sw3751A-ms98-a-0015	A.27	52.709000	53.299250		[silence]	[silence]
sw3751A-ms98-a-0016	A.27	53.299250	55.498875		[silence]	[silence]
sw3751A-ms98-a-0017	A.27	55.498875	55.968875		[silence]	[silence]
sw3751A-ms98-a-0017	A.27	55.968875	56.318875		Yeah	yeah
sw3751A-ms98-a-0017	A.27	56.318875	56.968875		[silence]	[silence]
sw3751A-ms98-a-0017	A.27	56.968875	57.258875		Yeah	yeah
sw3751A-ms98-a-0017	A.27	57.258875	57.478875		[silence]	[silence]
sw3751A-ms98-a-0017	A.27	57.478875	57.578875		Well	well
sw3751A-ms98-a-0017	A.27	57.578875	57.668875		that	that
sw3751A-ms98-a-0017	A.27	57.668875	57.778875		is	is
sw3751A-ms98-a-0017	A.27	57.778875	57.848875		a	a
sw3751A-ms98-a-0017	A.27	57.848875	57.978875		good	good
sw3751A-ms98-a-0017	A.27	57.978875	58.368875		idea	idea
sw3751A-ms98-a-0017	A.27	58.368875	58.368875	<INS>	Is	---
sw3751A-ms98-a-0017	A.27	58.368875	58.368875	<INS>	that	---
sw3751A-ms98-a-0017	A.29	58.368875	58.725625		[silence]	[silence]
sw3751A-ms98-a-0018	A.29	58.725625	59.737750		[silence]	[silence]
sw3751A-ms98-a-0019	A.29	59.737750	59.997750		[silence]	[silence]
sw3751A-ms98-a-0019	A.29	59.997750	60.267750		that	that
sw3751A-ms98-a-0019	A.29	60.267750	60.417750		through	through
sw3751A-ms98-a-0019	A.29	60.417750	60.467750		a	a
sw3751A-ms98-a-0019	A.29	60.467750	60.807750		VISA	Visa
sw3751A-ms98-a-0019	A.31	60.807750	61.497125		[silence]	[silence]
sw3751A-ms98-a-0020	A.31	61.497125	62.147125		[silence]	[silence]
sw3751A-ms98-a-0020	A.31	62.147125	62.537125		Uh-huh	uh-huh
sw3751A-ms98-a-0020	A.33	62.537125	63.186750		[silence]	[silence]
sw3751A-ms98-a-0021	A.33	63.186750	63.636750		[silence]	[silence]
sw3751A-ms98-a-0021	A.33	63.636750	63.976750		Huh	huh
sw3751A-ms98-a-0021	A.35	63.976750	64.500000		[silence]	[silence]
sw3751A-ms98-a-0022	A.35	64.500000	68.991125		[silence]	[silence]
sw3751A-ms98-a-0023	A.35	68.991125	69.601125		[silence]	[silence]
sw3751A-ms98-a-0023	A.35	69.601125	69.931125		Uh-huh	uh-huh
sw3751A-ms98-a-0023	A.37	69.931125	70.483875		[silence]	[silence]
sw3751A-ms98-a-0024	A.37	70.483875	75.982125		[silence]	[silence]
sw3751A-ms98-a-0025	A.37	75.982125	76.572125		[silence]	[silence]
sw3751A-ms98-a-0025	A.37	76.572125	77.252125		Yeah	yeah
sw3751A-ms98-a-0025	A.37	77.252125	77.770500		[silence]	[silence]
sw3751A-ms98-a-0026	A.37	77.770500	78.210500		[silence]	[silence]
sw3751A-ms98-a-0026	A.37	78.210500	78.280500	<DEL>	---	yeah
sw3751A-ms98-a-0026	A.37	78.280500	78.430500		That	that
sw3751A-ms98-a-0026	A.37	78.430500	78.490500		is	is
sw3751A-ms98-a-0026	A.37	78.490500	78.650500		my	my
sw3751A-ms98-a-0026	A.37	78.650500	79.090500		problem	problem
sw3751A-ms98-a-0026	A.37	79.090500	79.140500		I	i
sw3751A-ms98-a-0026	A.37	79.140500	79.350500		don't	don't
sw3751A-ms98-a-0026	A.37	79.350500	79.700500		try	try
sw3751A-ms98-a-0026	A.37	79.700500	79.930500		and	and
sw3751A-ms98-a-0026	A.37	79.930500	80.090500		pay	pay
sw3751A-ms98-a-0026	A.37	80.090500	80.250500		them	them
sw3751A-ms98-a-0026	A.37	80.250500	80.440500		off	off
sw3751A-ms98-a-0026	A.37	80.440500	80.510500		I	i
sw3751A-ms98-a-0026	A.37	80.510500	80.850500		pay	pay
sw3751A-ms98-a-0026	A.37	80.850500	81.090500		like	like
sw3751A-ms98-a-0026	A.37	81.090500	81.170500		the	the
sw3751A-ms98-a-0026	A.37	81.170500	81.830500		minimum	minimum
sw3751A-ms98-a-0026	A.39	81.830500	82.450500		[silence]	[silence]
sw3751A-ms98-a-0026	A.39	82.450500	82.660500	<DEL>	---	but
sw3751A-ms98-a-0026	A.39	82.660500	83.370500		[silence]	[silence]
sw3751A-ms98-a-0026	A.39	83.370500	83.450500		I	i
sw3751A-ms98-a-0026	A.39	83.450500	83.960500		know	know
sw3751A-ms98-a-0026	A.39	83.960500	84.070500		[silence]	[silence]
sw3751A-ms98-a-0026	A.39	84.070500	84.540500		[laughter]	[laughter]
sw3751A-ms98-a-0026	A.39	84.540500	84.630500		So	so
sw3751A-ms98-a-0026	A.39	84.630500	84.660500		I	i
sw3751A-ms98-a-0026	A.39	84.660500	84.780500		have	have
sw3751A-ms98-a-0026	A.39	84.780500	84.950500		got	got
sw3751A-ms98-a-0026	A.39	84.950500	85.340500		myself	myself
sw3751A-ms98-a-0026	A.41	85.340500	85.802875		[silence]	[silence]
sw3751A-ms98-a-0027	A.41	85.802875	86.252875		[silence]	[silence]
sw3751A-ms98-a-0027	A.41	86.252875	87.162875		Exactly	exactly
sw3751A-ms98-a-0027	A.41	87.162875	87.222875		[silence]	[silence]
sw3751A-ms98-a-0027	A.41	87.222875	87.252875		I	i
sw3751A-ms98-a-0027	A.41	87.252875	87.342875		have	have
sw3751A-ms98-a-0027	A.41	87.342875	87.502875		got	got
sw3751A-ms98-a-0027	A.41	87.502875	87.662875		that	that
sw3751A-ms98-a-0027	A.41	87.662875	87.772875		[silence]	[silence]
sw3751A-ms98-a-0027	A.41	87.772875	87.892875		is	is
sw3751A-ms98-a-0027	A.41	87.892875	87.942875		[silence]	[silence]
sw3751A-ms98-a-0027	A.41	87.942875	88.022875		why	why
sw3751A-ms98-a-0027	A.41	88.022875	88.052875		I	i
sw3751A-ms98-a-0027	A.41	88.052875	88.142875		have	have
sw3751A-ms98-a-0027	A.41	88.142875	88.262875		got	got
sw3751A-ms98-a-0027	A.41	88.262875	88.572875		myself	myself
sw3751A-ms98-a-0027	A.41	88.572875	88.692875		with	with
sw3751A-ms98-a-0027	A.41	88.692875	88.782875		all	all
sw3751A-ms98-a-0027	A.41	88.782875	88.902875		this	this
sw3751A-ms98-a-0027	A.41	88.902875	89.272875		trouble	trouble
sw3751A-ms98-a-0027	A.41	89.272875	89.662875		now	now
sw3751A-ms98-a-0027	A.41	89.662875	89.999750		[silence]	[silence]
sw3751A-ms98-a-0028	A.41	89.999750	90.319750		[silence]	[silence]
sw3751A-ms98-a-0028	A.41	90.319750	90.559750		But	but
sw3751A-ms98-a-0028	A.41	90.559750	90.609750		I	i
sw3751A-ms98-a-0028	A.41	90.609750	90.799750		pay	pay
sw3751A-ms98-a-0028	A.41	90.799750	91.089750		most	most
sw3751A-ms98-a-0028	A.41	91.089750	91.149750		of	of
sw3751A-ms98-a-0028	A.41	91.149750	91.279750		them	them
sw3751A-ms98-a-0028	A.41	91.279750	91.439750		on	on
sw3751A-ms98-a-0028	A.41	91.439750	92.049750		time	time
sw3751A-ms98-a-0028	A.41	92.049750	92.499750		[silence]	[silence]
sw3751A-ms98-a-0028	A.41	92.499750	92.589750		and	and
sw3751A-ms98-a-0028	A.41	92.589750	93.139750		everything	everything
sw3751A-ms98-a-0028	A.41	93.139750	93.229750		It	it
sw3751A-ms98-a-0028	A.41	93.229750	93.249750		[silence]	[silence]
sw3751A-ms98-a-0028	A.41	93.249750	93.309750		is	is
sw3751A-ms98-a-0028	A.41	93.309750	93.549750		just	just
sw3751A-ms98-a-0028	A.41	93.549750	93.749750		[silence]	[silence]
sw3751A-ms98-a-0028	A.41	93.749750	93.809750		the	the
sw3751A-ms98-a-0028	A.41	93.809750	93.899750		I	i
sw3751A-ms98-a-0028	A.41	93.899750	94.229750		always	always
sw3751A-ms98-a-0028	A.41	94.229750	94.549750		have	have
sw3751A-ms98-a-0028	A.41	94.549750	94.779750		them	them
sw3751A-ms98-a-0028	A.41	94.779750	95.245500		[silence]	[silence]
sw3751A-ms98-a-0029	A.41	95.245500	95.515500		[silence]	[silence]
sw3751A-ms98-a-0029	A.41	95.515500	95.845500		So	so
sw3751A-ms98-a-0029	A.41	95.845500	95.945500		it	it
sw3751A-ms98-a-0029	A.41	95.945500	96.005500		is	is
sw3751A-ms98-a-0029	A.41	96.005500	96.205500		kind	kind
sw3751A-ms98-a-0029	A.41	96.205500	96.265500		of	of
sw3751A-ms98-a-0029	A.41	96.265500	97.005500		strange	strange
sw3751A-ms98-a-0029	A.43	97.005500	97.462250		[silence]	[silence]
sw3751A-ms98-a-0030	A.43	97.462250	98.497500		[silence]	[silence]
sw3751A-ms98-a-0031	A.43	98.497500	99.067500		[silence]	[silence]
sw3751A-ms98-a-0031	A.43	99.067500	99.247500		Oh	oh
sw3751A-ms98-a-0031	A.43	99.247500	99.567500		yeah	yeah
sw3751A-ms98-a-0031	A.43	99.567500	99.687500		[silence]	[silence]
sw3751A-ms98-a-0031	A.43	99.687500	100.207500		Exactly	exactly
sw3751A-ms98-a-0031	A.43	100.207500	100.417500		like	like
sw3751A-ms98-a-0031	A.43	100.417500	100.497500		the	the
sw3751A-ms98-a-0031	A.43	100.497500	100.567500		[silence]	[silence]
sw3751A-ms98-a-0031	A.43	100.567500	101.227500		government	government
sw3751A-ms98-a-0031	A.45	101.227500	101.987500		[laughter]	[laughter]
sw3751A-ms98-a-0031	A.45	101.987500	102.167500		In	in
sw3751A-ms98-a-0031	A.47	102.167500	102.751125		[silence]	[silence]
sw3751A-ms98-a-0032	A.47	102.751125	103.241125		[silence]	[silence]
sw3751A-ms98-a-0032	A.47	103.241125	103.531125		In	in
sw3751A-ms98-a-0032	A.47	103.531125	103.821125		debt	debt
sw3751A-ms98-a-0032	A.49	103.821125	104.401125		[silence]	[silence]
sw3751A-ms98-a-0032	A.49	104.401125	104.651125	<DEL>	---	for
sw3751A-ms98-a-0032	A.49	104.651125	105.249625		[silence]	[silence]
sw3751A-ms98-a-0033	A.49	105.249625	108.275375		[silence]	[silence]
sw3751A-ms98-a-0034	A.49	108.275375	108.765375		[silence]	[silence]
sw3751A-ms98-a-0034	A.49	108.765375	109.255375	<DEL>	---	yeah
sw3751A-ms98-a-0034	A.49	109.255375	109.515375		[silence]	[silence]
sw3751A-ms98-a-0034	A.49	109.515375	109.925375		Yeah	yeah
sw3751A-ms98-a-0034	A.51	109.925375	110.784875		[silence]	[silence]
sw3751A-ms98-a-0035	A.51	110.784875	111.414875		[silence]	[silence]
sw3751A-ms98-a-0035	A.51	111.414875	111.614875		Have	have
sw3751A-ms98-a-0035	A.51	111.614875	111.694875		they	they
sw3751A-ms98-a-0035	A.51	111.694875	111.904875		put	put
sw3751A-ms98-a-0035	A.51	111.904875	111.984875		the	the
sw3751A-ms98-a-0035	A.51	111.984875	112.344875		cap	cap
sw3751A-ms98-a-0035	A.51	112.344875	112.464875		on	on
sw3751A-ms98-a-0035	A.51	112.464875	112.524875		the	the
sw3751A-ms98-a-0035	A.51	112.524875	112.884875		interest	interest
sw3751A-ms98-a-0035	A.51	112.884875	113.354875		rates	rates
sw3751A-ms98-a-0035	A.53	113.354875	113.760000		[silence]	[silence]
sw3751A-ms98-a-0036	A.53	113.760000	114.210000		[silence]	[silence]
sw3751A-ms98-a-0036	A.53	114.210000	114.290000		I	i
sw3751A-ms98-a-0036	A.53	114.290000	114.470000		didn't	didn't
sw3751A-ms98-a-0036	A.53	114.470000	114.570000		know	know
sw3751A-ms98-a-0036	A.53	114.570000	114.720000		if	if
sw3751A-ms98-a-0036	A.53	114.720000	114.820000		they	they
sw3751A-ms98-a-0036	A.53	114.820000	115.170000		actually	actually
sw3751A-ms98-a-0036	A.53	115.170000	115.360000		did	did
sw3751A-ms98-a-0036	A.53	115.360000	115.500000		that	that
sw3751A-ms98-a-0036	A.53	115.500000	115.560000		or	or
sw3751A-ms98-a-0036	A.53	115.560000	115.820000		not	not
sw3751A-ms98-a-0036	A.53	115.820000	116.070000		[silence]	[silence]
sw3751A-ms98-a-0036	A.53	116.070000	116.100000		I	i
sw3751A-ms98-a-0036	A.53	116.100000	116.220000		know	know
sw3751A-ms98-a-0036	A.53	116.220000	116.320000		they	they
sw3751A-ms98-a-0036	A.53	116.320000	116.450000		were	were
sw3751A-ms98-a-0036	A.53	116.450000	116.490000		[silence]	[silence]
sw3751A-ms98-a-0036	A.53	116.490000	116.630000		[noise]	[noise]
sw3751A-ms98-a-0036	A.53	116.630000	116.720000	<DEL>	---	i
sw3751A-ms98-a-0036	A.53	116.720000	116.870000	<DEL>	---	know
sw3751A-ms98-a-0036	A.53	116.870000	116.960000	<DEL>	---	they
sw3751A-ms98-a-0036	A.53	116.960000	117.070000	<DEL>	---	were
sw3751A-ms98-a-0036	A.53	117.070000	117.740000		considering	considering
sw3751A-ms98-a-0036	A.53	117.740000	117.870000		it	it
sw3751A-ms98-a-0036	A.55	117.870000	118.486500		[silence]	[silence]
sw3751A-ms98-a-0037	A.55	118.486500	124.456250		[silence]	[silence]
sw3751A-ms98-a-0038	A.55	124.456250	124.906250		[silence]	[silence]
sw3751A-ms98-a-0038	A.55	124.906250	125.576250		Uh-huh	uh-huh
sw3751A-ms98-a-0038	A.55	125.576250	125.756250		[silence]	[silence]
sw3751A-ms98-a-0038	A.55	125.756250	126.106250		Yeah	yeah
sw3751A-ms98-a-0038	A.57	126.106250	126.773875		[silence]	[silence]
sw3751A-ms98-a-0039	A.57	126.773875	127.273875		[silence]	[silence]
sw3751A-ms98-a-0039	A.57	127.273875	127.613875		Funny	funny
sw3751A-ms98-a-0039	A.57	127.613875	127.743875		how	how
sw3751A-ms98-a-0039	A.57	127.743875	127.923875		that	that
sw3751A-ms98-a-0039	A.57	127.923875	128.243875		works	works
sw3751A-ms98-a-0039	A.57	128.243875	128.543875		isn't	isn't
sw3751A-ms98-a-0039	A.57	128.543875	128.633875		it	it
sw3751A-ms98-a-0039	A.59	128.633875	128.673875		[silence]	[silence]
sw3751A-ms98-a-0039	A.59	128.673875	129.613875		[laughter]	[laughter]
sw3751A-ms98-a-0039	A.59	129.613875	129.737250		[silence]	[silence]
sw3751A-ms98-a-0040	A.59	129.737250	132.721500		[silence]	[silence]
sw3751A-ms98-a-0041	A.59	132.721500	133.261500		[silence]	[silence]
sw3751A-ms98-a-0041	A.59	133.261500	133.361500		I	i
sw3751A-ms98-a-0041	A.59	133.361500	133.511500		would	would
sw3751A-ms98-a-0041	A.59	133.511500	133.671500		be	be
sw3751A-ms98-a-0041	A.59	133.671500	134.171500		interested	interested
sw3751A-ms98-a-0041	A.59	134.171500	134.281500		to	to
sw3751A-ms98-a-0041	A.59	134.281500	134.721500		find	find
sw3751A-ms98-a-0041	A.59	134.721500	135.021500		out	out
sw3751A-ms98-a-0041	A.59	135.021500	135.281500		[silence]	[silence]
sw3751A-ms98-a-0041	A.59	135.281500	135.511500		how	how
sw3751A-ms98-a-0041	A.59	135.511500	135.841500		many	many
sw3751A-ms98-a-0041	A.59	135.841500	136.491500		people	people
sw3751A-ms98-a-0041	A.59	136.491500	137.331500		[silence]	[silence]
sw3751A-ms98-a-0041	A.59	137.331500	137.451500		or	or
sw3751A-ms98-a-0041	A.59	137.451500	137.631500		how	how
sw3751A-ms98-a-0041	A.59	137.631500	138.161500		much	much
sw3751A-ms98-a-0041	A.59	138.161500	138.441500		[silence]	[silence]
sw3751A-ms98-a-0041	A.59	138.441500	138.761500		uh	uh
sw3751A-ms98-a-0041	A.59	138.761500	139.121500		people	people
sw3751A-ms98-a-0041	A.59	139.121500	139.381500		use	use
sw3751A-ms98-a-0041	A.59	139.381500	139.791500		credit	credit
sw3751A-ms98-a-0041	A.59	139.791500	139.831500		[silence]	[silence]
sw3751A-ms98-a-0041	A.59	139.831500	140.141500		this	this
sw3751A-ms98-a-0041	A.59	140.141500	140.451500		year	year
sw3751A-ms98-a-0041	A.59	140.451500	140.821500		[silence]	[silence]
sw3751A-ms98-a-0041	A.59	140.821500	140.961500		Say	say
sw3751A-ms98-a-0041	A.59	140.961500	141.131500		in	in
sw3751A-ms98-a-0041	A.59	141.131500	141.491500		nineteen	nineteen
sw3751A-ms98-a-0041	A.59	141.491500	141.711500	<CONT>	ninety-two	ninety
sw3751A-ms98-a-0041	A.59	141.711500	141.961500	<CONT>	+++	two
sw3751A-ms98-a-0041	A.59	141.961500	142.131500		as	as
sw3751A-ms98-a-0041	A.59	142.131500	142.581500		opposed	opposed
sw3751A-ms98-a-0041	A.59	142.581500	142.891500		to	to
sw3751A-ms98-a-0041	A.59	142.891500	143.521500		nineteen	nineteen
sw3751A-ms98-a-0041	A.59	143.521500	143.911500		[silence]	[silence]
sw3751A-ms98-a-0041	A.59	143.911500	144.161500	<CONT>	ninety-one	ninety
sw3751A-ms98-a-0041	A.59	144.161500	144.501500	<CONT>	+++	one
sw3751A-ms98-a-0041	A.59	144.501500	144.681500		even	even
sw3751A-ms98-a-0041	A.59	144.681500	145.071500		nineteen	nineteen
sw3751A-ms98-a-0041	A.59	145.071500	145.541500		ninety	ninety
sw3751A-ms98-a-0041	A.59	145.541500	145.788000		[silence]	[silence]
sw3751A-ms98-a-0042	A.59	145.788000	145.978000		[silence]	[silence]
sw3751A-ms98-a-0042	A.59	145.978000	146.038000		I	i
sw3751A-ms98-a-0042	A.59	146.038000	146.318000		think	think
sw3751A-ms98-a-0042	A.59	146.318000	146.478000		[silence]	[silence]
sw3751A-ms98-a-0042	A.59	146.478000	146.538000		I	i
sw3751A-ms98-a-0042	A.59	146.538000	146.768000		think	think
sw3751A-ms98-a-0042	A.59	146.768000	146.888000		it	it
sw3751A-ms98-a-0042	A.59	146.888000	146.888000	<INS>	would	---
sw3751A-ms98-a-0042	A.59	146.888000	147.048000		be	be
sw3751A-ms98-a-0042	A.59	147.048000	147.548000		amazing	amazing
sw3751A-ms98-a-0042	A.59	147.548000	147.708000		how	how
sw3751A-ms98-a-0042	A.59	147.708000	147.948000		much	much
sw3751A-ms98-a-0042	A.59	147.948000	148.058000		[silence]	[silence]
sw3751A-ms98-a-0042	A.59	148.058000	148.248000		how	how
sw3751A-ms98-a-0042	A.59	148.248000	148.448000		many	many
sw3751A-ms98-a-0042	A.59	148.448000	148.708000		more	more
sw3751A-ms98-a-0042	A.59	148.708000	149.068000		people	people
sw3751A-ms98-a-0042	A.59	149.068000	149.378000		use	use
sw3751A-ms98-a-0042	A.59	149.378000	149.578000		it	it
sw3751A-ms98-a-0042	A.61	149.578000	150.264000		[silence]	[silence]
sw3751A-ms98-a-0043	A.61	150.264000	151.094000		[silence]	[silence]
sw3751A-ms98-a-0043	A.61	151.094000	151.464000		Because	because
sw3751A-ms98-a-0043	A.61	151.464000	151.534000		of	of
sw3751A-ms98-a-0043	A.61	151.534000	151.594000		the	the
sw3751A-ms98-a-0043	A.61	151.594000	152.174000		economy	economy
sw3751A-ms98-a-0043	A.63	152.174000	152.914000		[silence]	[silence]
sw3751A-ms98-a-0043	A.63	152.914000	153.194000		Yeah	yeah
sw3751A-ms98-a-0043	A.65	153.194000	153.760375		[silence]	[silence]
sw3751A-ms98-a-0044	A.65	153.760375	155.762750		[silence]	[silence]
sw3751A-ms98-a-0045	A.65	155.762750	156.232750		[silence]	[silence]
sw3751A-ms98-a-0045	A.65	156.232750	156.992750		Exactly	exactly
sw3751A-ms98-a-0045	A.65	156.992750	157.473250		[silence]	[silence]
sw3751A-ms98-a-0046	A.65	157.473250	157.783250		[silence]	[silence]
sw3751A-ms98-a-0046	A.65	157.783250	157.863250		I	i
sw3751A-ms98-a-0046	A.65	157.863250	157.963250		would	would
sw3751A-ms98-a-0046	A.65	157.963250	158.093250		be	be
sw3751A-ms98-a-0046	A.65	158.093250	158.383250		very	very
sw3751A-ms98-a-0046	A.65	158.383250	158.433250		I	i
sw3751A-ms98-a-0046	A.65	158.433250	158.533250		would	would
sw3751A-ms98-a-0046	A.65	158.533250	158.693250		like	like
sw3751A-ms98-a-0046	A.65	158.693250	158.793250		to	to
sw3751A-ms98-a-0046	A.65	158.793250	158.933250		see	see
sw3751A-ms98-a-0046	A.65	158.933250	159.093250		some	some
sw3751A-ms98-a-0046	A.65	159.093250	159.533250		numbers	numbers
sw3751A-ms98-a-0046	A.65	159.533250	159.703250		on	on
sw3751A-ms98-a-0046	A.65	159.703250	159.883250		that	that
sw3751A-ms98-a-0046	A.65	159.883250	159.943250		I	i
sw3751A-ms98-a-0046	A.65	159.943250	160.163250		think	think
sw3751A-ms98-a-0046	A.65	160.163250	160.303250		that	that
sw3751A-ms98-a-0046	A.65	160.303250	160.423250		would	would
sw3751A-ms98-a-0046	A.65	160.423250	160.593250		be	be
sw3751A-ms98-a-0046	A.65	160.593250	161.213250		interesting	interesting
sw3751A-ms98-a-0046	A.67	161.213250	161.740125		[silence]	[silence]
sw3751A-ms98-a-0047	A.67	161.740125	165.474750		[silence]	[silence]
sw3751A-ms98-a-0048	A.67	165.474750	166.064750		[silence]	[silence]
sw3751A-ms98-a-0048	A.67	166.064750	166.264750		Yeah	yeah
sw3751A-ms98-a-0048	A.67	166.264750	166.304750		I	i
sw3751A-ms98-a-0048	A.67	166.304750	166.524750		have	have
sw3751A-ms98-a-0048	A.67	166.524750	166.574750		a	a
sw3751A-ms98-a-0048	A.67	166.574750	166.854750		credit	credit
sw3751A-ms98-a-0048	A.67	166.854750	167.314750		union	union
sw3751A-ms98-a-0048	A.69	167.314750	167.701250		[silence]	[silence]
sw3751A-ms98-a-0049	A.69	167.701250	168.992500		[silence]	[silence]
sw3751A-ms98-a-0050	A.69	168.992500	169.452500		[silence]	[silence]
sw3751A-ms98-a-0050	A.69	169.452500	169.662500		Yeah	yeah
sw3751A-ms98-a-0050	A.69	169.662500	169.802500		they	they
sw3751A-ms98-a-0050	A.69	169.802500	170.032500		do	do
sw3751A-ms98-a-0050	A.69	170.032500	170.152500		[silence]	[silence]
sw3751A-ms98-a-0050	A.69	170.152500	170.432500		Uh-huh	uh-huh
sw3751A-ms98-a-0050	A.71	170.432500	170.788000		[silence]	[silence]
sw3751A-ms98-a-0051	A.71	170.788000	171.118000		[silence]	[silence]
sw3751A-ms98-a-0051	A.71	171.118000	171.378000		Yes	yes
sw3751A-ms98-a-0051	A.71	171.378000	171.448000		I	i
sw3751A-ms98-a-0051	A.71	171.448000	171.598000		do	do
sw3751A-ms98-a-0051	A.73	171.598000	173.368000		[laughter]	[laughter]
sw3751A-ms98-a-0051	A.73	173.368000	173.598000		Yes	yes
sw3751A-ms98-a-0051	A.73	173.598000	173.688000		I	i
sw3751A-ms98-a-0051	A.73	173.688000	173.908000		do	do
sw3751A-ms98-a-0051	A.73	173.908000	173.988000		a	a
sw3751A-ms98-a-0051	A.73	173.988000	174.348000		matter	matter
sw3751A-ms98-a-0051	A.73	174.348000	174.408000		of	of
sw3751A-ms98-a-0051	A.73	174.408000	174.738000		fact	fact
sw3751A-ms98-a-0051	A.75	174.738000	175.498500		[silence]	[silence]
sw3751A-ms98-a-0052	A.75	175.498500	176.018500		[silence]	[silence]
sw3751A-ms98-a-0052	A.75	176.018500	176.348500		Uh	uh
sw3751A-ms98-a-0052	A.75	176.348500	176.468500		I	i
sw3751A-ms98-a-0052	A.75	176.468500	176.658500		work	work
sw3751A-ms98-a-0052	A.75	176.658500	176.788500		for	for
sw3751A-ms98-a-0052	A.75	176.788500	177.068500		Channel	Channel
sw3751A-ms98-a-0052	A.75	177.068500	177.558500		six	six
sw3751A-ms98-a-0052	A.77	177.558500	177.620000		[silence]	[silence]
sw3751A-ms98-a-0053	A.77	177.620000	177.860000		[silence]	[silence]
sw3751A-ms98-a-0053	A.77	177.860000	178.090000		It's	it's
sw3751A-ms98-a-0053	A.77	178.090000	178.370000		it's	it's
sw3751A-ms98-a-0053	A.77	178.370000	178.460000		an	an
sw3751A-ms98-a-0053	A.77	178.460000	178.850000	<CONT>	N	NBC
sw3751A-ms98-a-0053	A.77	178.850000	178.850000	<CONT>	B	+++
sw3751A-ms98-a-0053	A.77	178.850000	178.850000	<CONT>	C	+++
sw3751A-ms98-a-0053	A.77	178.850000	179.340000		affiliate	affiliate
sw3751A-ms98-a-0053	A.77	179.340000	179.550000		down	down
sw3751A-ms98-a-0053	A.77	179.550000	179.870000		here	here
sw3751A-ms98-a-0053	A.79	179.870000	180.320500		[silence]	[silence]
sw3751A-ms98-a-0054	A.79	180.320500	181.500250		[silence]	[silence]
sw3751A-ms98-a-0055	A.79	181.500250	181.960250		[silence]	[silence]
sw3751A-ms98-a-0055	A.79	181.960250	182.130250		Oh	oh
sw3751A-ms98-a-0055	A.79	182.130250	182.390250		really	really
sw3751A-ms98-a-0055	A.81	182.390250	182.755000		[silence]	[silence]
sw3751A-ms98-a-0056	A.81	182.755000	183.205000		[silence]	[silence]
sw3751A-ms98-a-0056	A.81	183.205000	183.285000		Oh	oh
sw3751A-ms98-a-0056	A.81	183.285000	183.815000		okay	okay
sw3751A-ms98-a-0056	A.81	183.815000	184.155000		[silence]	[silence]
sw3751A-ms98-a-0056	A.81	184.155000	184.255000		Where	where
sw3751A-ms98-a-0056	A.81	184.255000	184.315000		do	do
sw3751A-ms98-a-0056	A.81	184.315000	184.425000		you	you
sw3751A-ms98-a-0056	A.81	184.425000	184.735000		work	work
sw3751A-ms98-a-0056	A.81	184.735000	184.795000		[silence]	[silence]
sw3751A-ms98-a-0056	A.81	184.795000	184.925000		What	what
sw3751A-ms98-a-0056	A.81	184.925000	185.015000		is	is
sw3751A-ms98-a-0056	A.81	185.015000	185.185000		your	your
sw3751A-ms98-a-0056	A.83	185.185000	185.746875		[silence]	[silence]
sw3751A-ms98-a-0057	A.83	185.746875	187.733125		[silence]	[silence]
sw3751A-ms98-a-0058	A.83	187.733125	188.363125		[silence]	[silence]
sw3751A-ms98-a-0058	A.83	188.363125	188.793125		Oh	oh
sw3751A-ms98-a-0058	A.83	188.793125	189.163125		[silence]	[silence]
sw3751A-ms98-a-0058	A.83	189.163125	189.583125		okay	okay
sw3751A-ms98-a-0058	A.85	189.583125	189.989125		[silence]	[silence]
sw3751A-ms98-a-0059	A.85	189.989125	193.360000		[silence]	[silence]
sw3751A-ms98-a-0060	A.85	193.360000	193.790000		[silence]	[silence]
sw3751A-ms98-a-0060	A.85	193.790000	193.910000		Oh	oh
sw3751A-ms98-a-0060	A.85	193.910000	194.110000		okay	okay
sw3751A-ms98-a-0060	A.87	194.110000	194.764625		[silence]	[silence]
sw3751A-ms98-a-0061	A.87	194.764625	195.104625		[silence]	[silence]
sw3751A-ms98-a-0061	A.87	195.104625	195.284625		So	so
sw3751A-ms98-a-0061	A.87	195.284625	195.404625		you	you
sw3751A-ms98-a-0061	A.87	195.404625	195.664625		probably	probably
sw3751A-ms98-a-0061	A.87	195.664625	195.964625		work	work
sw3751A-ms98-a-0061	A.87	195.964625	196.224625		with	with
sw3751A-ms98-a-0061	A.87	196.224625	196.604625		uh	uh
sw3751A-ms98-a-0061	A.87	196.604625	197.286125		[silence]	[silence]
sw3751A-ms98-a-0062	A.87	197.286125	198.493750		[silence]	[silence]
sw3751A-ms98-a-0063	A.87	198.493750	199.063750		[silence]	[silence]
sw3751A-ms98-a-0063	A.87	199.063750	199.443750		uh	uh
sw3751A-ms98-a-0063	A.87	199.443750	199.533750		what	what
sw3751A-ms98-a-0063	A.87	199.533750	199.613750		is	is
sw3751A-ms98-a-0063	A.87	199.613750	199.683750		the	the
sw3751A-ms98-a-0063	A.87	199.683750	199.723750		[silence]	[silence]
sw3751A-ms98-a-0063	A.87	199.723750	199.943750		boy	boy
sw3751A-ms98-a-0063	A.87	199.943750	200.113750		from	from
sw3751A-ms98-a-0063	A.87	200.113750	200.173750		[silence]	[silence]
sw3751A-ms98-a-0063	A.87	200.173750	200.493750		here	here
sw3751A-ms98-a-0063	A.87	200.493750	200.998000		[silence]	[silence]
sw3751A-ms98-a-0064	A.87	200.998000	201.418000		[silence]	[silence]
sw3751A-ms98-a-0064	A.87	201.418000	201.508000		You	you
sw3751A-ms98-a-0064	A.87	201.508000	201.608000		ever	ever
sw3751A-ms98-a-0064	A.87	201.608000	201.778000		work	work
sw3751A-ms98-a-0064	A.87	201.778000	201.908000		with	with
sw3751A-ms98-a-0064	A.87	201.908000	202.518000		Davis	Davis
sw3751A-ms98-a-0064	A.89	202.518000	202.987625		[silence]	[silence]
sw3751A-ms98-a-0065	A.89	202.987625	203.677625		[silence]	[silence]
sw3751A-ms98-a-0065	A.89	203.677625	204.027625		Davis	Davis
sw3751A-ms98-a-0065	A.89	204.027625	204.467625		Iron	Iron
sw3751A-ms98-a-0065	A.89	204.467625	204.857625		Work	Work
sw3751A-ms98-a-0065	A.89	204.857625	204.957625		[silence]	[silence]
sw3751A-ms98-a-0065	A.89	204.957625	205.257625		yeah	yeah
sw3751A-ms98-a-0065	A.91	205.257625	205.996000		[silence]	[silence]
sw3751A-ms98-a-0066	A.91	205.996000	206.566000		[silence]	[silence]
sw3751A-ms98-a-0066	A.91	206.566000	206.646000		Oh	oh
sw3751A-ms98-a-0066	A.91	206.646000	207.136000		okay	okay
sw3751A-ms98-a-0066	A.91	207.136000	207.676000		[silence]	[silence]
sw3751A-ms98-a-0066	A.91	207.676000	207.976000		And	and
sw3751A-ms98-a-0066	A.91	207.976000	208.266000		uh	uh
sw3751A-ms98-a-0066	A.91	208.266000	208.486000		what	what
sw3751A-ms98-a-0066	A.91	208.486000	208.716000		else	else
sw3751A-ms98-a-0066	A.93	208.716000	209.493250		[silence]	[silence]
sw3751A-ms98-a-0067	A.93	209.493250	209.923250		[silence]	[silence]
sw3751A-ms98-a-0067	A.93	209.923250	210.153250	<DEL>	---	yeah
sw3751A-ms98-a-0067	A.93	210.153250	210.363250		Well	well
sw3751A-ms98-a-0067	A.93	210.363250	210.443250		I	i
sw3751A-ms98-a-0067	A.93	210.443250	210.543250		[silence]	[silence]
sw3751A-ms98-a-0067	A.93	210.543250	210.713250		live	live
sw3751A-ms98-a-0067	A.93	210.713250	210.813250		[silence]	[silence]
sw3751A-ms98-a-0067	A.93	210.813250	211.203250		actually	actually
sw3751A-ms98-a-0067	A.93	211.203250	211.283250		in	in
sw3751A-ms98-a-0067	A.93	211.283250	211.713250		Hewett	Hewett
sw3751A-ms98-a-0067	A.95	211.713250	211.985750		[silence]	[silence]
sw3751A-ms98-a-0068	A.95	211.985750	212.475750		[silence]	[silence]
sw3751A-ms98-a-0068	A.95	212.475750	212.705750		Yeah	yeah
sw3751A-ms98-a-0068	A.95	212.705750	212.875750		right	right
sw3751A-ms98-a-0068	A.95	212.875750	213.405750		outside	outside
sw3751A-ms98-a-0068	A.97	213.405750	213.645750		So	so
sw3751A-ms98-a-0068	A.97	213.645750	213.795750		that	that
sw3751A-ms98-a-0068	A.97	213.795750	213.865750		is	is
sw3751A-ms98-a-0068	A.97	213.865750	213.995750		where	where
sw3751A-ms98-a-0068	A.97	213.995750	214.335750		Davis	Davis
sw3751A-ms98-a-0068	A.97	214.335750	214.575750		Iron	Iron
sw3751A-ms98-a-0068	A.97	214.575750	214.815750		Works	Works
sw3751A-ms98-a-0068	A.97	214.815750	214.855750		[silence]	[silence]
sw3751A-ms98-a-0068	A.97	214.855750	215.015750		is	is
sw3751A-ms98-a-0068	A.99	215.015750	215.495875		[silence]	[silence]
sw3751A-ms98-a-0069	A.99	215.495875	217.987500		[silence]	[silence]
sw3751A-ms98-a-0070	A.99	217.987500	218.487500		[silence]	[silence]
sw3751A-ms98-a-0070	A.99	218.487500	218.717500		[noise]	[noise]
sw3751A-ms98-a-0070	A.99	218.717500	219.147500		Uh	uh
sw3751A-ms98-a-0070	A.101	219.147500	219.995125		[silence]	[silence]
sw3751A-ms98-a-0071	A.101	219.995125	220.505125		[silence]	[silence]
sw3751A-ms98-a-0071	A.101	220.505125	220.565125		I	i
sw3751A-ms98-a-0071	A.101	220.565125	220.715125		don't	don't
sw3751A-ms98-a-0071	A.101	220.715125	220.835125		think	think
sw3751A-ms98-a-0071	A.101	220.835125	220.865125		I	i
sw3751A-ms98-a-0071	A.101	220.865125	220.955125		have	have
sw3751A-ms98-a-0071	A.101	220.955125	221.255125		seen	seen
sw3751A-ms98-a-0071	A.101	221.255125	221.495125		that	that
sw3751A-ms98-a-0071	A.101	221.495125	221.615125		one	one
sw3751A-ms98-a-0071	A.101	221.615125	221.645125		I	i
sw3751A-ms98-a-0071	A.101	221.645125	221.715125		am	am
sw3751A-ms98-a-0071	A.101	221.715125	221.885125		[silence]	[silence]
sw3751A-ms98-a-0071	A.101	221.885125	222.035125		sure	sure
sw3751A-ms98-a-0071	A.101	222.035125	222.135125		I	i
sw3751A-ms98-a-0071	A.101	222.135125	222.465125		pass	pass
sw3751A-ms98-a-0071	A.101	222.465125	222.675125		by	by
sw3751A-ms98-a-0071	A.101	222.675125	222.825125		it	it
sw3751A-ms98-a-0071	A.101	222.825125	222.885125		or	or
sw3751A-ms98-a-0071	A.101	222.885125	223.355125		something	something
sw3751A-ms98-a-0071	A.101	223.355125	223.465125		but	but
sw3751A-ms98-a-0071	A.101	223.465125	223.495125		I	i
sw3751A-ms98-a-0071	A.101	223.495125	223.615125		am	am
sw3751A-ms98-a-0071	A.101	223.615125	223.765125		not	not
sw3751A-ms98-a-0071	A.101	223.765125	224.115125		sure	sure
sw3751A-ms98-a-0071	A.103	224.115125	224.710125		[silence]	[silence]
sw3751A-ms98-a-0072	A.103	224.710125	229.776000		[silence]	[silence]
sw3751A-ms98-a-0073	A.103	229.776000	230.356000		[silence]	[silence]
sw3751A-ms98-a-0073	A.103	230.356000	230.766000		Huh	huh
sw3751A-ms98-a-0073	A.103	230.766000	230.866000		[silence]	[silence]
sw3751A-ms98-a-0073	A.103	230.866000	231.276000		Prime	Prime
sw3751A-ms98-a-0073	A.103	231.276000	231.646000		Air	Air
sw3751A-ms98-a-0073	A.105	231.646000	232.266375		[silence]	[silence]
sw3751A-ms98-a-0074	A.105	232.266375	235.263750		[silence]	[silence]
sw3751A-ms98-a-0075	A.105	235.263750	236.043750		[silence]	[silence]
sw3751A-ms98-a-0075	A.105	236.043750	236.153750		Oh	oh
sw3751A-ms98-a-0075	A.105	236.153750	236.553750		okay	okay
sw3751A-ms98-a-0075	A.107	236.553750	237.286750		[silence]	[silence]
sw3751A-ms98-a-0076	A.107	237.286750	239.289875		[silence]	[silence]
sw3751A-ms98-a-0077	A.107	239.289875	239.699875		[silence]	[silence]
sw3751A-ms98-a-0077	A.107	239.699875	240.069875		Okay	okay
sw3751A-ms98-a-0077	A.109	240.069875	240.495750		[silence]	[silence]
sw3751A-ms98-a-0078	A.109	240.495750	241.498250		[silence]	[silence]
sw3751A-ms98-a-0079	A.109	241.498250	242.028250		[silence]	[silence]
sw3751A-ms98-a-0079	A.109	242.028250	242.178250		Have	have
sw3751A-ms98-a-0079	A.109	242.178250	242.278250		you	you
sw3751A-ms98-a-0079	A.109	242.278250	242.408250		ever	ever
sw3751A-ms98-a-0079	A.109	242.408250	242.608250		been	been
sw3751A-ms98-a-0079	A.109	242.608250	242.668250		to	to
sw3751A-ms98-a-0079	A.109	242.668250	243.468250		Marlin	Marlin
sw3751A-ms98-a-0079	A.111	243.468250	244.245875		[silence]	[silence]
sw3751A-ms98-a-0080	A.111	244.245875	244.745875		[silence]	[silence]
sw3751A-ms98-a-0080	A.111	244.745875	244.905875		I	i
sw3751A-ms98-a-0080	A.111	244.905875	245.075875		think	think
sw3751A-ms98-a-0080	A.111	245.075875	245.165875		it	it
sw3751A-ms98-a-0080	A.111	245.165875	245.225875		is	is
sw3751A-ms98-a-0080	A.111	245.225875	245.615875		Marlin	Marlin
sw3751A-ms98-a-0080	A.111	245.615875	245.685875		or	or
sw3751A-ms98-a-0080	A.111	245.685875	246.065875		Mart	Mart
sw3751A-ms98-a-0080	A.111	246.065875	246.175875		They	they
sw3751A-ms98-a-0080	A.111	246.175875	246.475875		have	have
sw3751A-ms98-a-0080	A.111	246.475875	246.675875		uh	uh
sw3751A-ms98-a-0080	A.111	246.675875	247.494375		[silence]	[silence]
sw3751A-ms98-a-0081	A.111	247.494375	247.974375		[silence]	[silence]
sw3751A-ms98-a-0081	A.111	247.974375	248.034375		uh	uh
sw3751A-ms98-a-0081	A.111	248.034375	248.064375		a	a
sw3751A-ms98-a-0081	A.111	248.064375	248.364375		place	place
sw3751A-ms98-a-0081	A.111	248.364375	248.434375		I	i
sw3751A-ms98-a-0081	A.111	248.434375	248.644375		guess	guess
sw3751A-ms98-a-0081	A.111	248.644375	248.764375		that	that
sw3751A-ms98-a-0081	A.111	248.764375	248.874375		would	would
sw3751A-ms98-a-0081	A.111	248.874375	248.964375		be	be
sw3751A-ms98-a-0081	A.111	248.964375	249.344375		similar	similar
sw3751A-ms98-a-0081	A.111	249.344375	249.414375		to	to
sw3751A-ms98-a-0081	A.111	249.414375	249.774375		Prime	Prime
sw3751A-ms98-a-0081	A.111	249.774375	249.874375		Air	Air
sw3751A-ms98-a-0081	A.111	249.874375	249.934375		It	it
sw3751A-ms98-a-0081	A.111	249.934375	249.994375		is	is
sw3751A-ms98-a-0081	A.111	249.994375	250.284375		called	called
sw3751A-ms98-a-0081	A.111	250.284375	250.574375		H	H
sw3751A-ms98-a-0081	A.111	250.574375	250.824375		G	G
sw3751A-ms98-a-0081	A.111	250.824375	251.354375		H	H
sw3751A-ms98-a-0081	A.113	251.354375	251.554375		[silence]	[silence]
sw3751A-ms98-a-0081	A.113	251.554375	251.834375		or	or
sw3751A-ms98-a-0081	A.113	251.834375	252.184375		something	something
sw3751A-ms98-a-0081	A.113	252.184375	252.394375		like	like
sw3751A-ms98-a-0081	A.113	252.394375	252.614375		K	K
sw3751A-ms98-a-0081	A.113	252.614375	252.834375		G	G
sw3751A-ms98-a-0081	A.113	252.834375	253.234375		H	H
sw3751A-ms98-a-0081	A.113	253.234375	253.424375		or	or
sw3751A-ms98-a-0081	A.115	253.424375	254.002000		[silence]	[silence]
sw3751A-ms98-a-0082	A.115	254.002000	254.552000		[silence]	[silence]
sw3751A-ms98-a-0082	A.115	254.552000	254.622000		I	i
sw3751A-ms98-a-0082	A.115	254.622000	254.862000		can't	can't
sw3751A-ms98-a-0082	A.115	254.862000	255.072000		think	think
sw3751A-ms98-a-0082	A.115	255.072000	255.222000		of	of
sw3751A-ms98-a-0082	A.115	255.222000	255.222000	<INS>	it	---
sw3751A-ms98-a-0082	A.115	255.222000	255.292000		[silence]	[silence]
sw3751A-ms98-a-0082	A.115	255.292000	255.342000		I	i
sw3751A-ms98-a-0082	A.115	255.342000	255.592000		can't	can't
sw3751A-ms98-a-0082	A.115	255.592000	255.722000		think	think
sw3751A-ms98-a-0082	A.115	255.722000	255.782000		of	of
sw3751A-ms98-a-0082	A.115	255.782000	255.842000		the	the
sw3751A-ms98-a-0082	A.115	255.842000	256.182000		name	name
sw3751A-ms98-a-0082	A.117	256.182000	256.292000		[silence]	[silence]
sw3751A-ms98-a-0082	A.117	256.292000	256.542000		But	but
sw3751A-ms98-a-0082	A.119	256.542000	257.304125		[silence]	[silence]
sw3751A-ms98-a-0083	A.119	257.304125	257.814125		[silence]	[silence]
sw3751A-ms98-a-0083	A.119	257.814125	258.334125	<DEL>	---	uh-huh
sw3751A-ms98-a-0083	A.119	258.334125	258.498500		[silence]	[silence]
sw3751A-ms98-a-0084	A.119	258.498500	261.491500		[silence]	[silence]
sw3751A-ms98-a-0085	A.119	261.491500	262.001500		[silence]	[silence]
sw3751A-ms98-a-0085	A.119	262.001500	262.251500		Oh	oh
sw3751A-ms98-a-0085	A.119	262.251500	262.691500		yeah	yeah
sw3751A-ms98-a-0085	A.121	262.691500	263.479125		[silence]	[silence]
sw3751A-ms98-a-0086	A.121	263.479125	265.491875		[silence]	[silence]
sw3751A-ms98-a-0087	A.121	265.491875	265.871875		[silence]	[silence]
sw3751A-ms98-a-0087	A.121	265.871875	266.351875	<DEL>	---	uh-huh
sw3751A-ms98-a-0087	A.121	266.351875	267.003375		[silence]	[silence]
sw3751A-ms98-a-0088	A.121	267.003375	267.653375		[silence]	[silence]
sw3751A-ms98-a-0088	A.121	267.653375	268.013375	<DEL>	---	uh-huh
sw3751A-ms98-a-0088	A.121	268.013375	268.500875		[silence]	[silence]
sw3751A-ms98-a-0089	A.121	268.500875	270.488125		[silence]	[silence]
sw3751A-ms98-a-0090	A.121	270.488125	270.988125		[silence]	[silence]
sw3751A-ms98-a-0090	A.121	270.988125	271.528125		Yeah	yeah
sw3751A-ms98-a-0090	A.123	271.528125	271.987625		[silence]	[silence]
sw3751A-ms98-a-0091	A.123	271.987625	274.760625		[silence]	[silence]
sw3751A-ms98-a-0092	A.123	274.760625	275.390625		[silence]	[silence]
sw3751A-ms98-a-0092	A.123	275.390625	276.040625		Uh-huh	uh-huh
sw3751A-ms98-a-0092	A.123	276.040625	276.070625		[silence]	[silence]
sw3751A-ms98-a-0092	A.123	276.070625	276.290625		Oh	oh
sw3751A-ms98-a-0092	A.123	276.290625	276.590625		[silence]	[silence]
sw3751A-ms98-a-0092	A.123	276.590625	276.850625		I	i
sw3751A-ms98-a-0092	A.123	276.850625	277.040625		don't	don't
sw3751A-ms98-a-0092	A.123	277.040625	277.250625		like	like
sw3751A-ms98-a-0092	A.123	277.250625	277.410625		that	that
sw3751A-ms98-a-0092	A.123	277.410625	277.790625		drive	drive
sw3751A-ms98-a-0092	A.123	277.790625	277.840625		I	i
sw3751A-ms98-a-0092	A.123	277.840625	278.060625		make	make
sw3751A-ms98-a-0092	A.123	278.060625	278.200625		that	that
sw3751A-ms98-a-0092	A.123	278.200625	278.490625		drive	drive
sw3751A-ms98-a-0092	A.123	278.490625	278.920625		sometimes	sometimes
sw3751A-ms98-a-0092	A.123	278.920625	278.980625		we	we
sw3751A-ms98-a-0092	A.123	278.980625	279.100625		have	have
sw3751A-ms98-a-0092	A.123	279.100625	279.540625		stories	stories
sw3751A-ms98-a-0092	A.123	279.540625	279.740625		out	out
sw3751A-ms98-a-0092	A.123	279.740625	280.010625		there	there
sw3751A-ms98-a-0092	A.123	280.010625	280.280625		but	but
sw3751A-ms98-a-0092	A.123	280.280625	280.280625	<INS>	uh	---
sw3751A-ms98-a-0092	A.125	280.280625	280.700000		[silence]	[silence]
sw3751A-ms98-a-0093	A.125	280.700000	281.993125		[silence]	[silence]
sw3751A-ms98-a-0094	A.125	281.993125	283.703125		[silence]	[silence]
sw3751A-ms98-a-0094	A.125	283.703125	283.793125		Huh	huh
sw3751A-ms98-a-0094	A.127	283.793125	283.893125		[laughter]	[laughter]
sw3751A-ms98-a-0094	A.127	283.893125	284.133125		Oh	oh
sw3751A-ms98-a-0094	A.127	284.133125	284.503125		really	really
sw3751A-ms98-a-0094	A.127	284.503125	284.623125		I	i
sw3751A-ms98-a-0094	A.127	284.623125	285.033125		know	know
sw3751A-ms98-a-0094	A.129	285.033125	285.496875		[silence]	[silence]
sw3751A-ms98-a-0095	A.129	285.496875	286.505750		[silence]	[silence]
sw3751A-ms98-a-0096	A.129	286.505750	286.925750		[silence]	[silence]
sw3751A-ms98-a-0096	A.129	286.925750	287.355750		Oh	oh
sw3751A-ms98-a-0096	A.129	287.355750	287.585750		[silence]	[silence]
sw3751A-ms98-a-0096	A.129	287.585750	288.215750		goodness	goodness
sw3751A-ms98-a-0096	A.129	288.215750	288.275750		[silence]	[silence]
sw3751A-ms98-a-0096	A.129	288.275750	288.555750		They	they
sw3751A-ms98-a-0096	A.129	288.555750	288.925750		[silence]	[silence]
sw3751A-ms98-a-0096	A.129	288.925750	289.025750		they	they
sw3751A-ms98-a-0096	A.129	289.025750	289.095750		are	are
sw3751A-ms98-a-0096	A.129	289.095750	289.355750		bad	bad
sw3751A-ms98-a-0096	A.129	289.355750	289.475750		at	at
sw3751A-ms98-a-0096	A.129	289.475750	289.815750		Hewett	Hewett
sw3751A-ms98-a-0096	A.129	289.815750	290.145750		too	too
sw3751A-ms98-a-0096	A.129	290.145750	290.465750		[silence]	[silence]
sw3751A-ms98-a-0096	A.129	290.465750	290.705750		On	on
sw3751A-ms98-a-0096	A.129	290.705750	290.795750		[silence]	[silence]
sw3751A-ms98-a-0096	A.129	290.795750	291.035750	<CONT>	eighty-four	eighty
sw3751A-ms98-a-0096	A.131	291.035750	291.435750	<CONT>	+++	four
sw3751A-ms98-a-0096	A.131	291.435750	292.295750		[silence]	[silence]
sw3751A-ms98-a-0096	A.131	292.295750	292.415750		They	they
sw3751A-ms98-a-0096	A.131	292.415750	292.495750		are	are
sw3751A-ms98-a-0096	A.131	292.495750	292.725750		real	real
sw3751A-ms98-a-0096	A.131	292.725750	293.125750		bad	bad
sw3751A-ms98-a-0096	A.131	293.125750	293.215750		That	that
sw3751A-ms98-a-0096	A.131	293.215750	293.305750		is	is
sw3751A-ms98-a-0096	A.131	293.305750	293.395750		where	where
sw3751A-ms98-a-0096	A.131	293.395750	293.425750		I	i
sw3751A-ms98-a-0096	A.131	293.425750	293.555750		got	got
sw3751A-ms98-a-0096	A.131	293.555750	293.635750		my	my
sw3751A-ms98-a-0096	A.131	293.635750	293.975750		last	last
sw3751A-ms98-a-0096	A.131	293.975750	294.465750		ticket	ticket
sw3751A-ms98-a-0096	A.133	294.465750	294.759250		[silence]	[silence]
sw3751A-ms98-a-0097	A.133	294.759250	295.199250		[silence]	[silence]
sw3751A-ms98-a-0097	A.133	295.199250	295.499250		So	so
sw3751A-ms98-a-0097	A.133	295.499250	295.609250		of	of
sw3751A-ms98-a-0097	A.133	295.609250	295.809250		[silence]	[silence]
sw3751A-ms98-a-0097	A.133	295.809250	296.069250		course	course
sw3751A-ms98-a-0097	A.133	296.069250	296.139250		I	i
sw3751A-ms98-a-0097	A.133	296.139250	296.699250		[silence]	[silence]
sw3751A-ms98-a-0097	A.133	296.699250	296.949250		couldn't	couldn't
sw3751A-ms98-a-0097	A.133	296.949250	297.109250		pay	pay
sw3751A-ms98-a-0097	A.133	297.109250	297.299250		that	that
sw3751A-ms98-a-0097	A.133	297.299250	297.379250		on	on
sw3751A-ms98-a-0097	A.133	297.379250	297.409250		a	a
sw3751A-ms98-a-0097	A.133	297.409250	297.499250	<SUB>	credit	cre[dit]-
sw3751A-ms98-a-0097	A.133	297.499250	297.499250	<INS>	card	---
sw3751A-ms98-a-0097	A.133	297.499250	297.538000		[silence]	[silence]
