sw3830B-ms98-a-0001	B.2	0.000000	0.353250		[silence]	[silence]
sw3830B-ms98-a-0002	B.2	0.353250	0.576500		[silence]	[silence]
sw3830B-ms98-a-0002	B.2	0.576500	0.965500		Hello	hello
sw3830B-ms98-a-0002	B.4	0.965500	1.786250		[silence]	[silence]
sw3830B-ms98-a-0002	B.4	1.786250	2.181000		Fine	fine
sw3830B-ms98-a-0002	B.6	2.181000	2.642125		[silence]	[silence]
sw3830B-ms98-a-0003	B.6	2.642125	4.597625		[silence]	[silence]
sw3830B-ms98-a-0004	B.6	4.597625	5.087625		[silence]	[silence]
sw3830B-ms98-a-0004	B.6	5.087625	5.629125		Okay	okay
sw3830B-ms98-a-0004	B.6	5.629125	5.904125		[silence]	[silence]
sw3830B-ms98-a-0004	B.6	5.904125	6.008125		Let	let
sw3830B-ms98-a-0004	B.6	6.008125	6.127625		me	me
sw3830B-ms98-a-0004	B.6	6.127625	6.317625		ask	ask
sw3830B-ms98-a-0004	B.6	6.317625	6.427625		you	you
sw3830B-ms98-a-0004	B.6	6.427625	6.777625		something	something
sw3830B-ms98-a-0004	B.6	6.777625	6.927625		can	can
sw3830B-ms98-a-0004	B.6	6.927625	7.137625		I	i
sw3830B-ms98-a-0004	B.6	7.137625	7.257625		run	run
sw3830B-ms98-a-0004	B.6	7.257625	7.287625		a	a
sw3830B-ms98-a-0004	B.6	7.287625	7.437625		minute	minute
sw3830B-ms98-a-0004	B.6	7.437625	7.767625		and	and
sw3830B-ms98-a-0004	B.6	7.767625	7.937625		shut	shut
sw3830B-ms98-a-0004	B.6	7.937625	8.047625		my	my
sw3830B-ms98-a-0004	B.6	8.047625	8.487625		radio	radio
sw3830B-ms98-a-0004	B.6	8.487625	8.862375		off	off
sw3830B-ms98-a-0004	B.8	8.862375	9.295500		[silence]	[silence]
sw3830B-ms98-a-0004	B.8	9.295500	9.797625		Okay	okay
sw3830B-ms98-a-0004	B.10	9.797625	10.346625		[silence]	[silence]
sw3830B-ms98-a-0005	B.10	10.346625	20.388750		[silence]	[silence]
sw3830B-ms98-a-0006	B.10	20.388750	20.888750		[silence]	[silence]
sw3830B-ms98-a-0006	B.10	20.888750	21.445750		Okay	okay
sw3830B-ms98-a-0006	B.12	21.445750	22.390125		[silence]	[silence]
sw3830B-ms98-a-0007	B.12	22.390125	23.298375		[silence]	[silence]
sw3830B-ms98-a-0008	B.12	23.298375	23.967875		[silence]	[silence]
sw3830B-ms98-a-0008	B.12	23.967875	24.572750		Arlington	Arlington
sw3830B-ms98-a-0008	B.14	24.572750	24.998375		Arlington	Arlington
sw3830B-ms98-a-0008	B.14	24.998375	25.438375		Texas	Texas
sw3830B-ms98-a-0008	B.16	25.438375	26.088375		[silence]	[silence]
sw3830B-ms98-a-0008	B.16	26.088375	26.501625		Yes	yes
sw3830B-ms98-a-0008	B.18	26.501625	28.975500		[silence]	[silence]
sw3830B-ms98-a-0009	B.18	28.975500	31.601125		[silence]	[silence]
sw3830B-ms98-a-0010	B.18	31.601125	32.101125		[silence]	[silence]
sw3830B-ms98-a-0010	B.18	32.101125	32.631125		Yes	yes
sw3830B-ms98-a-0010	B.18	32.631125	32.891125		not	not
sw3830B-ms98-a-0010	B.18	32.891125	33.051125		[silence]	[silence]
sw3830B-ms98-a-0010	B.18	33.051125	33.211125		all	all
sw3830B-ms98-a-0010	B.18	33.211125	33.401125		good	good
sw3830B-ms98-a-0010	B.18	33.401125	33.691125		stuff	stuff
sw3830B-ms98-a-0010	B.20	33.691125	34.675500		[silence]	[silence]
sw3830B-ms98-a-0011	B.20	34.675500	35.675500		[silence]	[silence]
sw3830B-ms98-a-0011	B.20	35.675500	35.935500		No	no
sw3830B-ms98-a-0011	B.22	35.935500	36.185500		[silence]	[silence]
sw3830B-ms98-a-0011	B.22	36.185500	36.315500		No	no
sw3830B-ms98-a-0011	B.22	36.315500	36.415500		I'm	i'm
sw3830B-ms98-a-0011	B.22	36.415500	36.635500		not	not
sw3830B-ms98-a-0011	B.22	36.635500	37.135500		[silence]	[silence]
sw3830B-ms98-a-0011	B.22	37.135500	37.305500		not	not
sw3830B-ms98-a-0011	B.22	37.305500	37.655500		personally	personally
sw3830B-ms98-a-0011	@B.24	37.655500	38.310750		[silence]	[silence]
sw3830B-ms98-a-0012	@B.24	38.310750	42.175500		[silence]	[silence]
sw3830B-ms98-a-0013	@B.24	42.175500	42.475500		[silence]	[silence]
sw3830B-ms98-a-0013	@B.24	42.475500	42.685500		[noise]	[noise]
sw3830B-ms98-a-0013	@B.24	42.685500	42.855500		I'm	i'm
sw3830B-ms98-a-0013	@B.24	42.855500	43.035500		going	going
sw3830B-ms98-a-0013	@B.24	43.035500	43.145500		to	to
sw3830B-ms98-a-0013	@B.24	43.145500	43.395500		school	school
sw3830B-ms98-a-0013	@B.24	43.395500	43.595500		right	right
sw3830B-ms98-a-0013	@B.24	43.595500	43.891375		now	now
sw3830B-ms98-a-0013	B.26	43.891375	44.441250		[silence]	[silence]
sw3830B-ms98-a-0013	B.26	44.441250	44.552375		I	i
sw3830B-ms98-a-0013	B.26	44.552375	44.675500		can	can
sw3830B-ms98-a-0013	B.26	44.675500	44.855500		tell	tell
sw3830B-ms98-a-0013	B.26	44.855500	44.995500		you	you
sw3830B-ms98-a-0013	B.26	44.995500	45.255500		about	about
sw3830B-ms98-a-0013	B.26	45.255500	45.355500		my	my
sw3830B-ms98-a-0013	B.26	45.355500	45.725500		last	last
sw3830B-ms98-a-0013	B.26	45.725500	46.055500		job	job
sw3830B-ms98-a-0013	B.26	46.055500	46.225500		or	or
sw3830B-ms98-a-0013	B.28	46.225500	46.765500		[silence]	[silence]
sw3830B-ms98-a-0013	B.28	46.765500	47.225500		whatever	whatever
sw3830B-ms98-a-0013	B.28	47.225500	47.322500		you	you
sw3830B-ms98-a-0013	B.28	47.322500	47.461875		want	want
sw3830B-ms98-a-0013	B.28	47.461875	47.618625		to	to
sw3830B-ms98-a-0013	B.28	47.618625	47.957625		[silence]	[silence]
sw3830B-ms98-a-0013	B.28	47.957625	48.185500		talk	talk
sw3830B-ms98-a-0013	B.28	48.185500	48.485500		about	about
sw3830B-ms98-a-0013	B.28	48.485500	48.655500		that	that
sw3830B-ms98-a-0013	B.28	48.655500	48.745500		or	or
sw3830B-ms98-a-0013	B.28	48.745500	48.915500		my	my
sw3830B-ms98-a-0013	B.28	48.915500	49.285500		husband's	husband's
sw3830B-ms98-a-0013	B.28	49.285500	49.375500		or	or
sw3830B-ms98-a-0013	B.28	49.375500	49.555500		what	what
sw3830B-ms98-a-0013	B.28	49.555500	49.693875		I	i
sw3830B-ms98-a-0013	B.28	49.693875	49.912250		think	think
sw3830B-ms98-a-0013	B.30	49.912250	50.220500		[silence]	[silence]
sw3830B-ms98-a-0013	B.30	50.220500	50.324500		I've	i've
sw3830B-ms98-a-0013	B.30	50.324500	50.495500		got	got
sw3830B-ms98-a-0013	B.30	50.495500	50.535500		a	a
sw3830B-ms98-a-0013	B.30	50.535500	50.725500		lot	lot
sw3830B-ms98-a-0013	B.30	50.725500	50.845500		of	of
sw3830B-ms98-a-0013	B.32	50.845500	51.461625		[silence]	[silence]
sw3830B-ms98-a-0014	B.32	51.461625	52.061625		[silence]	[silence]
sw3830B-ms98-a-0014	B.32	52.061625	52.461625		Uh-huh	uh-huh
sw3830B-ms98-a-0014	B.34	52.461625	53.171625		[silence]	[silence]
sw3830B-ms98-a-0015	B.34	53.171625	59.395625		[silence]	[silence]
sw3830B-ms98-a-0016	B.34	59.395625	59.940000		[silence]	[silence]
sw3830B-ms98-a-0016	B.34	59.940000	60.264250		Yes	yes
sw3830B-ms98-a-0016	B.36	60.264250	61.615000		[silence]	[silence]
sw3830B-ms98-a-0016	B.36	61.615000	62.047375		Right	right
sw3830B-ms98-a-0016	B.38	62.047375	62.548375		[silence]	[silence]
sw3830B-ms98-a-0017	B.38	62.548375	64.493875		[silence]	[silence]
sw3830B-ms98-a-0018	B.38	64.493875	64.973875		[silence]	[silence]
sw3830B-ms98-a-0018	B.38	64.973875	65.213875		Yes	yes
sw3830B-ms98-a-0018	B.40	65.213875	65.706500		[silence]	[silence]
sw3830B-ms98-a-0019	B.40	65.706500	66.186500		[silence]	[silence]
sw3830B-ms98-a-0019	B.40	66.186500	66.421375		Yes	yes
sw3830B-ms98-a-0019	B.40	66.421375	66.682625		[silence]	[silence]
sw3830B-ms98-a-0019	B.40	66.682625	66.836500		I've	i've
sw3830B-ms98-a-0019	B.40	66.836500	67.026500		been	been
sw3830B-ms98-a-0019	B.40	67.026500	67.116500		in	in
sw3830B-ms98-a-0019	B.40	67.116500	67.246500		my	my
sw3830B-ms98-a-0019	B.40	67.246500	67.426500		own	own
sw3830B-ms98-a-0019	B.40	67.426500	67.866500		business	business
sw3830B-ms98-a-0019	B.40	67.866500	68.086500		Mary	Mary
sw3830B-ms98-a-0019	B.40	68.086500	68.386500		Kay	Kay
sw3830B-ms98-a-0019	B.40	68.386500	68.486500		in	in
sw3830B-ms98-a-0019	B.40	68.486500	68.706500		fact	fact
sw3830B-ms98-a-0019	B.40	68.706500	68.874375		I'm	i'm
sw3830B-ms98-a-0019	B.40	68.874375	68.995000		[silence]	[silence]
sw3830B-ms98-a-0019	B.40	68.995000	69.276500		selling	selling
sw3830B-ms98-a-0019	B.40	69.276500	69.356500	<SUB>	in	it
sw3830B-ms98-a-0019	B.40	69.356500	69.576500		out	out
sw3830B-ms98-a-0019	B.40	69.576500	69.846500		now	now
sw3830B-ms98-a-0019	B.40	69.846500	69.966500		to	to
sw3830B-ms98-a-0019	B.40	69.966500	70.106500		go	go
sw3830B-ms98-a-0019	B.40	70.106500	70.236500		to	to
sw3830B-ms98-a-0019	B.40	70.236500	70.486500		school	school
sw3830B-ms98-a-0019	B.40	70.486500	70.656500	<SUB>	full	for
sw3830B-ms98-a-0019	B.40	70.656500	70.748000	<SUB>	time	a
sw3830B-ms98-a-0019	B.40	70.748000	71.060625	<DEL>	---	turn
sw3830B-ms98-a-0019	B.40	71.060625	71.282250		and	and
sw3830B-ms98-a-0019	B.42	71.282250	71.670250		[silence]	[silence]
sw3830B-ms98-a-0019	B.42	71.670250	71.806500		I	i
sw3830B-ms98-a-0019	B.42	71.806500	72.206500		enjoyed	enjoyed
sw3830B-ms98-a-0019	B.42	72.206500	72.266500		the	the
sw3830B-ms98-a-0019	B.42	72.266500	72.716500		freedom	freedom
sw3830B-ms98-a-0019	B.42	72.716500	72.976500		of	of
sw3830B-ms98-a-0019	B.42	72.976500	73.396500		having	having
sw3830B-ms98-a-0019	B.42	73.396500	73.902250		[silence]	[silence]
sw3830B-ms98-a-0020	B.42	73.902250	74.312250		[silence]	[silence]
sw3830B-ms98-a-0020	B.42	74.312250	74.662875		that	that
sw3830B-ms98-a-0020	B.42	74.662875	74.934125		[silence]	[silence]
sw3830B-ms98-a-0020	B.42	74.934125	75.022250		you	you
sw3830B-ms98-a-0020	B.42	75.022250	75.222250		know	know
sw3830B-ms98-a-0020	B.42	75.222250	75.352250		go	go
sw3830B-ms98-a-0020	B.42	75.352250	75.452250		to	to
sw3830B-ms98-a-0020	B.42	75.452250	75.642250		work	work
sw3830B-ms98-a-0020	B.42	75.642250	75.762250		when	when
sw3830B-ms98-a-0020	B.42	75.762250	75.842250		I	i
sw3830B-ms98-a-0020	B.42	75.842250	76.272250		wanted	wanted
sw3830B-ms98-a-0020	B.42	76.272250	76.462250		to	to
sw3830B-ms98-a-0020	B.42	76.462250	76.562250	<SUB>	or	and
sw3830B-ms98-a-0020	B.42	76.562250	76.862250		not	not
sw3830B-ms98-a-0020	B.44	76.862250	77.112250		but	but
sw3830B-ms98-a-0020	B.44	77.112250	77.262250		you	you
sw3830B-ms98-a-0020	B.44	77.262250	77.452250		know	know
sw3830B-ms98-a-0020	B.44	77.452250	77.522250		the	the
sw3830B-ms98-a-0020	B.44	77.522250	78.062250		benefits	benefits
sw3830B-ms98-a-0020	B.44	78.062250	78.262250		weren't	weren't
sw3830B-ms98-a-0020	B.44	78.262250	78.674875		there	there
sw3830B-ms98-a-0020	B.46	78.674875	79.069625		[silence]	[silence]
sw3830B-ms98-a-0020	B.46	79.069625	79.396875		So	so
sw3830B-ms98-a-0020	B.48	79.396875	79.886500		[silence]	[silence]
sw3830B-ms98-a-0021	B.48	79.886500	84.085250		[silence]	[silence]
sw3830B-ms98-a-0022	B.48	84.085250	84.580375		[silence]	[silence]
sw3830B-ms98-a-0022	B.48	84.580375	84.715250		Oh	oh
sw3830B-ms98-a-0022	B.48	84.715250	84.869375		do	do
sw3830B-ms98-a-0022	B.48	84.869375	85.080250		you	you
sw3830B-ms98-a-0022	B.50	85.080250	85.297500		[silence]	[silence]
sw3830B-ms98-a-0022	B.50	85.297500	85.563500	<DEL>	---	yeah
sw3830B-ms98-a-0022	B.50	85.563500	86.159250		[silence]	[silence]
sw3830B-ms98-a-0023	B.50	86.159250	86.819250		[silence]	[silence]
sw3830B-ms98-a-0023	B.50	86.819250	87.169250		Uh-huh	uh-huh
sw3830B-ms98-a-0023	B.52	87.169250	87.678625		[silence]	[silence]
sw3830B-ms98-a-0024	B.52	87.678625	93.831375		[silence]	[silence]
sw3830B-ms98-a-0025	B.52	93.831375	94.356125		[silence]	[silence]
sw3830B-ms98-a-0025	B.52	94.356125	94.631375		Uh-huh	uh-huh
sw3830B-ms98-a-0025	B.54	94.631375	95.228875		[silence]	[silence]
sw3830B-ms98-a-0026	B.54	95.228875	98.990750		[silence]	[silence]
sw3830B-ms98-a-0027	B.54	98.990750	99.480750		[silence]	[silence]
sw3830B-ms98-a-0027	B.54	99.480750	99.734125		Yeah	yeah
sw3830B-ms98-a-0027	B.56	99.734125	100.346875		[silence]	[silence]
sw3830B-ms98-a-0028	B.56	100.346875	106.827250		[silence]	[silence]
sw3830B-ms98-a-0029	B.56	106.827250	107.354125		[silence]	[silence]
sw3830B-ms98-a-0029	B.56	107.354125	107.581750		Right	right
sw3830B-ms98-a-0029	B.58	107.581750	108.223125		[silence]	[silence]
sw3830B-ms98-a-0030	B.58	108.223125	108.876500		[silence]	[silence]
sw3830B-ms98-a-0030	B.58	108.876500	109.022125	<SUB>	Yeah	yep
sw3830B-ms98-a-0030	B.58	109.022125	109.222750		[silence]	[silence]
sw3830B-ms98-a-0030	B.58	109.222750	109.523125	<SUB>	uh-huh	um-hum
sw3830B-ms98-a-0030	B.60	109.523125	110.028500		[silence]	[silence]
sw3830B-ms98-a-0031	B.60	110.028500	113.774375		[silence]	[silence]
sw3830B-ms98-a-0032	B.60	113.774375	114.254375		[silence]	[silence]
sw3830B-ms98-a-0032	B.60	114.254375	114.435375		I	i
sw3830B-ms98-a-0032	B.60	114.435375	114.676625		think	think
sw3830B-ms98-a-0032	B.60	114.676625	115.134375		today	today
sw3830B-ms98-a-0032	B.60	115.134375	115.284375		the	the
sw3830B-ms98-a-0032	B.60	115.284375	115.514375		thing	thing
sw3830B-ms98-a-0032	B.60	115.514375	115.694375		that	that
sw3830B-ms98-a-0032	B.60	115.694375	116.014375		I	i
sw3830B-ms98-a-0032	B.60	116.014375	116.295125		uh	uh
sw3830B-ms98-a-0032	B.60	116.295125	116.761625		[silence]	[silence]
sw3830B-ms98-a-0033	B.60	116.761625	117.221625		[silence]	[silence]
sw3830B-ms98-a-0033	B.60	117.221625	117.541625		would	would
sw3830B-ms98-a-0033	B.60	117.541625	118.141625		appreciate	appreciate
sw3830B-ms98-a-0033	B.60	118.141625	118.221625		the	the
sw3830B-ms98-a-0033	B.60	118.221625	118.851625		most	most
sw3830B-ms98-a-0033	B.60	118.851625	119.121625		uh	uh
sw3830B-ms98-a-0033	B.60	119.121625	119.511625		because	because
sw3830B-ms98-a-0033	B.60	119.511625	119.651625		my	my
sw3830B-ms98-a-0033	B.60	119.651625	120.051625		husband	husband
sw3830B-ms98-a-0033	B.60	120.051625	120.281625		gets	gets
sw3830B-ms98-a-0033	B.62	120.281625	120.461625		his	his
sw3830B-ms98-a-0033	B.62	120.461625	120.901625		medical	medical
sw3830B-ms98-a-0033	B.62	120.901625	121.051625		through	through
sw3830B-ms98-a-0033	B.62	121.051625	121.181625		his	his
sw3830B-ms98-a-0033	B.62	121.181625	121.581625		company	company
sw3830B-ms98-a-0033	B.62	121.581625	121.721625		but	but
sw3830B-ms98-a-0033	B.62	121.721625	121.811625		we	we
sw3830B-ms98-a-0033	B.62	121.811625	122.011625		have	have
sw3830B-ms98-a-0033	B.64	122.011625	122.316500		to	to
sw3830B-ms98-a-0033	B.64	122.316500	122.704375		[silence]	[silence]
sw3830B-ms98-a-0033	B.64	122.704375	122.993125		pay	pay
sw3830B-ms98-a-0033	B.64	122.993125	123.221625		for	for
sw3830B-ms98-a-0033	B.64	123.221625	123.787875		mine	mine
sw3830B-ms98-a-0033	B.64	123.787875	124.123000		[silence]	[silence]
sw3830B-ms98-a-0034	B.64	124.123000	124.463000		[silence]	[silence]
sw3830B-ms98-a-0034	B.64	124.463000	124.623000		and	and
sw3830B-ms98-a-0034	B.64	124.623000	124.753000		we're	we're
sw3830B-ms98-a-0034	B.64	124.753000	124.863000		the	the
sw3830B-ms98-a-0034	B.64	124.863000	125.063000		only	only
sw3830B-ms98-a-0034	B.64	125.063000	125.243000		one	one
sw3830B-ms98-a-0034	B.64	125.243000	125.463000	<DEL>	---	that
sw3830B-ms98-a-0034	B.64	125.463000	125.613000		I'm	i'm
sw3830B-ms98-a-0034	B.64	125.613000	125.693000		the	the
sw3830B-ms98-a-0034	B.64	125.693000	125.853000		only	only
sw3830B-ms98-a-0034	B.64	125.853000	125.993000		one	one
sw3830B-ms98-a-0034	B.64	125.993000	126.203000		that's	that's
sw3830B-ms98-a-0034	B.64	126.203000	126.433000		being	being
sw3830B-ms98-a-0034	B.64	126.433000	127.103000		insured	insured
sw3830B-ms98-a-0034	B.64	127.103000	127.496500		[silence]	[silence]
sw3830B-ms98-a-0035	B.64	127.496500	127.900750		[silence]	[silence]
sw3830B-ms98-a-0035	B.64	127.900750	128.478375		and	and
sw3830B-ms98-a-0035	B.66	128.478375	128.994500		[silence]	[silence]
sw3830B-ms98-a-0035	B.66	128.994500	129.236500		and	and
sw3830B-ms98-a-0035	B.66	129.236500	129.356500		we	we
sw3830B-ms98-a-0035	B.66	129.356500	129.626500		pay	pay
sw3830B-ms98-a-0035	B.66	129.626500	129.736500		the	the
sw3830B-ms98-a-0035	B.66	129.736500	130.036500		same	same
sw3830B-ms98-a-0035	B.66	130.036500	130.506500		amount	amount
sw3830B-ms98-a-0035	B.66	130.506500	130.646500		that	that
sw3830B-ms98-a-0035	B.66	130.646500	131.106500		someone	someone
sw3830B-ms98-a-0035	B.66	131.106500	131.286500		over	over
sw3830B-ms98-a-0035	B.66	131.286500	131.426500		there	there
sw3830B-ms98-a-0035	B.66	131.426500	131.546500		that	that
sw3830B-ms98-a-0035	B.66	131.546500	131.726500		has	has
sw3830B-ms98-a-0035	B.66	131.726500	131.936500		four	four
sw3830B-ms98-a-0035	B.66	131.936500	132.376500		children	children
sw3830B-ms98-a-0035	B.66	132.376500	132.696500	<SUB>	has	have
sw3830B-ms98-a-0035	B.66	132.696500	132.786500		I	i
sw3830B-ms98-a-0035	B.66	132.786500	133.036750		mean	mean
sw3830B-ms98-a-0035	B.66	133.036750	133.338000		[silence]	[silence]
sw3830B-ms98-a-0035	B.66	133.338000	133.555750		so	[laughter-so]
sw3830B-ms98-a-0035	B.66	133.555750	133.714000		it's	[laughter-it's]
sw3830B-ms98-a-0035	B.66	133.714000	133.986500		kind	[laughter-kind]
sw3830B-ms98-a-0035	B.66	133.986500	134.128000		of	[laughter-of]
sw3830B-ms98-a-0035	B.68	134.128000	134.565000		[silence]	[silence]
sw3830B-ms98-a-0035	B.68	134.565000	134.726500		And	and
sw3830B-ms98-a-0035	B.68	134.726500	134.796500		I	i
sw3830B-ms98-a-0035	B.68	134.796500	135.126500		would	would
sw3830B-ms98-a-0035	B.68	135.126500	135.226500		I	i
sw3830B-ms98-a-0035	B.68	135.226500	135.566500		really	really
sw3830B-ms98-a-0035	B.68	135.566500	135.706500		and	and
sw3830B-ms98-a-0035	B.68	135.706500	135.766500		the	the
sw3830B-ms98-a-0035	B.68	135.766500	135.936500		way	way
sw3830B-ms98-a-0035	B.68	135.936500	136.376500		medical	medical
sw3830B-ms98-a-0035	B.68	136.376500	136.976500		expenses	expenses
sw3830B-ms98-a-0035	B.68	136.976500	137.366500		are	are
sw3830B-ms98-a-0035	B.70	137.366500	137.648125		[silence]	[silence]
sw3830B-ms98-a-0036	B.70	137.648125	137.958125		[silence]	[silence]
sw3830B-ms98-a-0036	B.70	137.958125	138.098125		I	i
sw3830B-ms98-a-0036	B.70	138.098125	138.318125		think	think
sw3830B-ms98-a-0036	B.70	138.318125	138.528125		that's	that's
sw3830B-ms98-a-0036	B.70	138.528125	138.888125		probably	probably
sw3830B-ms98-a-0036	B.70	138.888125	139.078125		one	one
sw3830B-ms98-a-0036	B.70	139.078125	139.168125		of	of
sw3830B-ms98-a-0036	B.70	139.168125	139.238125		the	the
sw3830B-ms98-a-0036	B.70	139.238125	139.864000		biggest	biggest
sw3830B-ms98-a-0036	B.72	139.864000	140.349000		[silence]	[silence]
sw3830B-ms98-a-0036	B.72	140.349000	141.178125		benefits	benefits
sw3830B-ms98-a-0036	B.74	141.178125	141.318125		to	to
sw3830B-ms98-a-0036	B.74	141.318125	141.440625		ha-	ha[ve]-
sw3830B-ms98-a-0036	B.74	141.440625	141.708000		you	you
sw3830B-ms98-a-0036	B.74	141.708000	141.988125		need	need
sw3830B-ms98-a-0036	B.74	141.988125	142.108125		to	to
sw3830B-ms98-a-0036	B.74	142.108125	142.553125		have	have
sw3830B-ms98-a-0036	B.76	142.553125	143.449375		[silence]	[silence]
sw3830B-ms98-a-0037	B.76	143.449375	144.299375		[silence]	[silence]
sw3830B-ms98-a-0037	B.76	144.299375	144.558125		Right	right
sw3830B-ms98-a-0037	B.78	144.558125	145.073500		[silence]	[silence]
sw3830B-ms98-a-0038	B.78	145.073500	157.946625		[silence]	[silence]
sw3830B-ms98-a-0039	B.78	157.946625	158.478375		[silence]	[silence]
sw3830B-ms98-a-0039	B.78	158.478375	158.626625		It's	it's
sw3830B-ms98-a-0039	B.78	158.626625	158.766625		out	out
sw3830B-ms98-a-0039	B.78	158.766625	158.916625		of	of
sw3830B-ms98-a-0039	B.78	158.916625	159.320750		sight	sight
sw3830B-ms98-a-0039	B.80	159.320750	160.047625		[silence]	[silence]
sw3830B-ms98-a-0039	B.80	160.047625	160.296625		Right	right
sw3830B-ms98-a-0039	B.80	160.296625	160.396625		[silence]	[silence]
sw3830B-ms98-a-0039	B.80	160.396625	160.536625		it's	it's
sw3830B-ms98-a-0039	B.80	160.536625	160.606625		out	out
sw3830B-ms98-a-0039	B.80	160.606625	160.696625		of	of
sw3830B-ms98-a-0039	B.80	160.696625	161.076375		sight	sight
sw3830B-ms98-a-0039	B.82	161.076375	161.654625		[silence]	[silence]
sw3830B-ms98-a-0040	B.82	161.654625	162.392875		[silence]	[silence]
sw3830B-ms98-a-0040	B.82	162.392875	162.604625		Even	even
sw3830B-ms98-a-0040	B.82	162.604625	162.744625		at	at
sw3830B-ms98-a-0040	B.82	162.744625	162.794625		a	a
sw3830B-ms98-a-0040	B.82	162.794625	163.124625		group	group
sw3830B-ms98-a-0040	B.82	163.124625	163.506875		rate	rate
sw3830B-ms98-a-0040	B.82	163.506875	163.890750		[silence]	[silence]
sw3830B-ms98-a-0040	B.82	163.890750	163.992500		I	i
sw3830B-ms98-a-0040	B.82	163.992500	164.214625		couldn't	couldn't
sw3830B-ms98-a-0040	B.82	164.214625	164.484625		believe	believe
sw3830B-ms98-a-0040	B.82	164.484625	164.644625		how	how
sw3830B-ms98-a-0040	B.82	164.644625	164.884625		much	much
sw3830B-ms98-a-0040	B.84	164.884625	165.024625		is	is
sw3830B-ms98-a-0040	B.84	165.024625	165.274625		our	our
sw3830B-ms98-a-0040	B.86	165.274625	165.809000		[silence]	[silence]
sw3830B-ms98-a-0041	B.86	165.809000	172.162375		[silence]	[silence]
sw3830B-ms98-a-0042	B.86	172.162375	172.642375		[silence]	[silence]
sw3830B-ms98-a-0042	B.86	172.642375	172.942375		Right	right
sw3830B-ms98-a-0042	B.86	172.942375	173.012375		it	it
sw3830B-ms98-a-0042	B.86	173.012375	173.222375		goes	goes
sw3830B-ms98-a-0042	B.86	173.222375	173.472375		up	up
sw3830B-ms98-a-0042	B.88	173.472375	174.505875		[silence]	[silence]
sw3830B-ms98-a-0042	B.88	174.505875	174.779750		Right	right
sw3830B-ms98-a-0042	B.90	174.779750	175.296750		[silence]	[silence]
sw3830B-ms98-a-0043	B.90	175.296750	186.802625		[silence]	[silence]
sw3830B-ms98-a-0044	B.90	186.802625	187.322625		[silence]	[silence]
sw3830B-ms98-a-0044	B.90	187.322625	187.602625	<SUB>	Uh-huh	um-hum
sw3830B-ms98-a-0044	B.92	187.602625	188.271000		[silence]	[silence]
sw3830B-ms98-a-0045	B.92	188.271000	194.782250		[silence]	[silence]
sw3830B-ms98-a-0046	B.92	194.782250	195.292250		[silence]	[silence]
sw3830B-ms98-a-0046	B.92	195.292250	195.763125		Right	right
sw3830B-ms98-a-0046	B.94	195.763125	196.160750		[silence]	[silence]
sw3830B-ms98-a-0047	B.94	196.160750	202.993125		[silence]	[silence]
sw3830B-ms98-a-0048	B.94	202.993125	203.493125		[silence]	[silence]
sw3830B-ms98-a-0048	B.94	203.493125	203.778250		Right	right
sw3830B-ms98-a-0048	B.96	203.778250	204.297875		[silence]	[silence]
sw3830B-ms98-a-0049	B.96	204.297875	208.141500		[silence]	[silence]
sw3830B-ms98-a-0050	B.96	208.141500	208.631500		[silence]	[silence]
sw3830B-ms98-a-0050	B.96	208.631500	208.851500		Right	right
sw3830B-ms98-a-0050	B.96	208.851500	209.001500		it's	it's
sw3830B-ms98-a-0050	B.96	209.001500	209.121500		going	going
sw3830B-ms98-a-0050	B.96	209.121500	209.221500		to	to
sw3830B-ms98-a-0050	B.96	209.221500	209.401500		hurt	hurt
sw3830B-ms98-a-0050	B.96	209.401500	209.491500		the	the
sw3830B-ms98-a-0050	B.96	209.491500	209.921500		city	city
sw3830B-ms98-a-0050	B.96	209.921500	210.401500		although	although
sw3830B-ms98-a-0050	B.96	210.401500	210.611500		uh	uh
sw3830B-ms98-a-0050	B.96	210.611500	210.851500		I	i
sw3830B-ms98-a-0050	B.96	210.851500	210.971500		will	will
sw3830B-ms98-a-0050	B.96	210.971500	211.401500		personally	personally
sw3830B-ms98-a-0050	B.96	211.401500	211.611500		tell	tell
sw3830B-ms98-a-0050	B.96	211.611500	211.741500		you	you
sw3830B-ms98-a-0050	B.96	211.741500	211.811500		I	i
sw3830B-ms98-a-0050	B.96	211.811500	212.001500		used	used
sw3830B-ms98-a-0050	B.96	212.001500	212.101500		to	to
sw3830B-ms98-a-0050	B.96	212.101500	212.321500		work	work
sw3830B-ms98-a-0050	B.96	212.321500	212.431500		at	at
sw3830B-ms98-a-0050	B.96	212.431500	212.491500		a	a
sw3830B-ms98-a-0050	B.96	212.491500	212.841500		bank	bank
sw3830B-ms98-a-0050	B.96	212.841500	212.961500		and	and
sw3830B-ms98-a-0050	B.96	212.961500	213.001500		I	i
sw3830B-ms98-a-0050	B.96	213.001500	213.171500		would	would
sw3830B-ms98-a-0050	B.96	213.171500	213.371500		see	see
sw3830B-ms98-a-0050	B.96	213.371500	213.531500		the	the
sw3830B-ms98-a-0050	B.96	213.531500	213.791500	<CONT>	G	GM
sw3830B-ms98-a-0050	B.96	213.791500	213.791500	<CONT>	M	+++
sw3830B-ms98-a-0050	B.96	213.791500	214.101500		people	people
sw3830B-ms98-a-0050	B.96	214.101500	214.281500		come	come
sw3830B-ms98-a-0050	B.96	214.281500	214.501500		in	in
sw3830B-ms98-a-0050	B.96	214.501500	214.651500		when	when
sw3830B-ms98-a-0050	B.96	214.651500	214.721500		they	they
sw3830B-ms98-a-0050	B.96	214.721500	214.856125		were	were
sw3830B-ms98-a-0050	B.96	214.856125	215.357125		[silence]	[silence]
sw3830B-ms98-a-0050	B.96	215.357125	215.411500		they	they
sw3830B-ms98-a-0050	B.96	215.411500	215.571500		would	would
sw3830B-ms98-a-0050	B.96	215.571500	215.811500		shut	shut
sw3830B-ms98-a-0050	B.96	215.811500	215.991500		down	down
sw3830B-ms98-a-0050	B.96	215.991500	216.091500		to	to
sw3830B-ms98-a-0050	B.96	216.091500	216.701500		retool	retool
sw3830B-ms98-a-0050	B.98	216.701500	216.976875		[silence]	[silence]
sw3830B-ms98-a-0051	B.98	216.976875	217.307500		[silence]	[silence]
sw3830B-ms98-a-0051	B.98	217.307500	217.438125		They	they
sw3830B-ms98-a-0051	B.98	217.438125	217.592750		were	were
sw3830B-ms98-a-0051	B.98	217.592750	217.886875		paid	paid
sw3830B-ms98-a-0051	B.98	217.886875	218.046875		that	that
sw3830B-ms98-a-0051	B.98	218.046875	218.286875		whole	whole
sw3830B-ms98-a-0051	B.98	218.286875	218.786875		time	time
sw3830B-ms98-a-0051	B.98	218.786875	219.166875		[silence]	[silence]
sw3830B-ms98-a-0051	B.98	219.166875	219.276875		and	and
sw3830B-ms98-a-0051	B.98	219.276875	219.326875		I	i
sw3830B-ms98-a-0051	B.98	219.326875	219.456875		don't	don't
sw3830B-ms98-a-0051	B.98	219.456875	219.536875		know	know
sw3830B-ms98-a-0051	B.98	219.536875	219.656875		if	if
sw3830B-ms98-a-0051	B.98	219.656875	219.746875		you're	you're
sw3830B-ms98-a-0051	B.98	219.746875	220.016875		aware	aware
sw3830B-ms98-a-0051	B.98	220.016875	220.126875		of	of
sw3830B-ms98-a-0051	B.98	220.126875	220.346875		this	this
sw3830B-ms98-a-0051	B.98	220.346875	220.595250	<SUB>	r-	ri[ght]-
sw3830B-ms98-a-0051	B.100	220.595250	220.708125		[silence]	[silence]
sw3830B-ms98-a-0051	B.100	220.708125	220.986875		Yes	yes
sw3830B-ms98-a-0051	B.100	220.986875	221.305875		[silence]	[silence]
sw3830B-ms98-a-0052	B.100	221.305875	221.661250		[silence]	[silence]
sw3830B-ms98-a-0052	B.100	221.661250	221.735875		they	they
sw3830B-ms98-a-0052	B.100	221.735875	221.995875		come	come
sw3830B-ms98-a-0052	B.100	221.995875	222.115875		in	in
sw3830B-ms98-a-0052	B.100	222.115875	222.345875		there	there
sw3830B-ms98-a-0052	B.100	222.345875	222.505875		just	just
sw3830B-ms98-a-0052	B.100	222.505875	222.605875		they	they
sw3830B-ms98-a-0052	B.100	222.605875	222.755875		go	go
sw3830B-ms98-a-0052	B.100	222.755875	222.935875		off	off
sw3830B-ms98-a-0052	B.100	222.935875	223.365875		fishing	fishing
sw3830B-ms98-a-0052	B.100	223.365875	223.495875		and	and
sw3830B-ms98-a-0052	B.100	223.495875	223.845875		stuff	stuff
sw3830B-ms98-a-0052	B.100	223.845875	224.005875		and	and
sw3830B-ms98-a-0052	B.100	224.005875	224.145875		come	come
sw3830B-ms98-a-0052	B.100	224.145875	224.305875		in	in
sw3830B-ms98-a-0052	B.100	224.305875	224.475875		and	and
sw3830B-ms98-a-0052	B.100	224.475875	224.726125		[silence]	[silence]
sw3830B-ms98-a-0053	B.100	224.726125	224.886125		[silence]	[silence]
sw3830B-ms98-a-0053	B.100	224.886125	225.066125		every	every
sw3830B-ms98-a-0053	B.100	225.066125	225.506125		Friday	Friday
sw3830B-ms98-a-0053	B.100	225.506125	225.766125		and	and
sw3830B-ms98-a-0053	B.100	225.766125	225.846125		go	go
sw3830B-ms98-a-0053	B.100	225.846125	225.906125		to	to
sw3830B-ms98-a-0053	B.100	225.906125	225.976125		the	the
sw3830B-ms98-a-0053	B.100	225.976125	226.296125		safety	safety
sw3830B-ms98-a-0053	B.100	226.296125	226.706125		deposit	deposit
sw3830B-ms98-a-0053	B.100	226.706125	226.866125		[silence]	[silence]
sw3830B-ms98-a-0053	B.100	226.866125	227.336125		box	box
sw3830B-ms98-a-0053	B.100	227.336125	227.466125		and	and
sw3830B-ms98-a-0053	B.100	227.466125	227.626125		I'm	i'm
sw3830B-ms98-a-0053	B.100	227.626125	227.906125		sitting	sitting
sw3830B-ms98-a-0053	B.100	227.906125	228.036125		there	there
sw3830B-ms98-a-0053	B.100	228.036125	228.356125		making	making
sw3830B-ms98-a-0053	B.100	228.356125	228.406125		a	a
sw3830B-ms98-a-0053	B.100	228.406125	228.666125		hundred	hundred
sw3830B-ms98-a-0053	B.100	228.666125	228.926125		dollars	dollars
sw3830B-ms98-a-0053	B.100	228.926125	229.006125		a	a
sw3830B-ms98-a-0053	B.100	229.006125	229.326125		week	week
sw3830B-ms98-a-0053	B.100	229.326125	229.396125		you	you
sw3830B-ms98-a-0053	B.100	229.396125	229.625625		know	know
sw3830B-ms98-a-0053	B.100	229.625625	230.201875		[silence]	[silence]
sw3830B-ms98-a-0053	B.100	230.201875	230.446125		and	and
sw3830B-ms98-a-0053	B.102	230.446125	230.446125	<INS>	And	---
sw3830B-ms98-a-0053	B.102	230.446125	230.576125		they	they
sw3830B-ms98-a-0053	B.102	230.576125	230.746125		had	had
sw3830B-ms98-a-0053	B.102	230.746125	230.926125		all	all
sw3830B-ms98-a-0053	B.102	230.926125	231.096125		these	these
sw3830B-ms98-a-0053	B.102	231.096125	231.246125		gr-	gr[eat]-
sw3830B-ms98-a-0053	B.102	231.246125	231.459000	<SUB>	I	i-
sw3830B-ms98-a-0053	B.102	231.459000	231.598375		[silence]	[silence]
sw3830B-ms98-a-0053	B.102	231.598375	231.746125		I	i
sw3830B-ms98-a-0053	B.102	231.746125	232.076125		really	really
sw3830B-ms98-a-0053	B.102	232.076125	232.546125		believe	believe
sw3830B-ms98-a-0053	B.102	232.546125	232.726125		they	they
sw3830B-ms98-a-0053	B.102	232.726125	232.906125		have	have
sw3830B-ms98-a-0053	B.102	232.906125	233.126125		done	done
sw3830B-ms98-a-0053	B.102	233.126125	233.316125		this	this
sw3830B-ms98-a-0053	B.102	233.316125	233.466125		to	to
sw3830B-ms98-a-0053	B.102	233.466125	234.106125		themselves	themselves
sw3830B-ms98-a-0053	B.102	234.106125	234.198250		[noise]	[noise]
sw3830B-ms98-a-0053	B.102	234.198250	234.374625		[silence]	[silence]
sw3830B-ms98-a-0054	B.102	234.374625	234.661000		[silence]	[silence]
sw3830B-ms98-a-0054	B.102	234.661000	234.794625		in	in
sw3830B-ms98-a-0054	B.102	234.794625	234.854625		a	a
sw3830B-ms98-a-0054	B.102	234.854625	235.164625		way	way
sw3830B-ms98-a-0054	B.102	235.164625	235.534625		because	because
sw3830B-ms98-a-0054	B.102	235.534625	235.614625		of	of
sw3830B-ms98-a-0054	B.102	235.614625	235.674625		the	the
sw3830B-ms98-a-0054	B.102	235.674625	236.084625		unions	unions
sw3830B-ms98-a-0054	B.102	236.084625	236.304625		being	being
sw3830B-ms98-a-0054	B.102	236.304625	236.544625		so	so
sw3830B-ms98-a-0054	B.102	236.544625	236.924625	<SUB>	stocked	strong
sw3830B-ms98-a-0054	B.104	236.924625	237.323875		[silence]	[silence]
sw3830B-ms98-a-0055	B.104	237.323875	237.713875		[silence]	[silence]
sw3830B-ms98-a-0055	B.104	237.713875	237.963875		And	and
sw3830B-ms98-a-0055	B.104	237.963875	238.183875		right	right
sw3830B-ms98-a-0055	B.104	238.183875	238.693875		now	now
sw3830B-ms98-a-0055	B.104	238.693875	239.053875	<SUB>	anybody's	anybody
sw3830B-ms98-a-0055	B.104	239.053875	239.263875		that's	that's
sw3830B-ms98-a-0055	B.104	239.263875	239.503875		laid	laid
sw3830B-ms98-a-0055	B.104	239.503875	239.673875		off	off
sw3830B-ms98-a-0055	B.104	239.673875	239.893875		from	from
sw3830B-ms98-a-0055	B.104	239.893875	240.253875	<CONT>	G	GM
sw3830B-ms98-a-0055	B.104	240.253875	240.253875	<CONT>	M	+++
sw3830B-ms98-a-0055	B.104	240.253875	240.483875		will	will
sw3830B-ms98-a-0055	B.104	240.483875	240.793875		have	have
sw3830B-ms98-a-0055	B.104	240.793875	240.923875		a	a
sw3830B-ms98-a-0055	B.104	240.923875	241.283500		full	full
sw3830B-ms98-a-0055	B.104	241.283500	241.690250		year's	year's
sw3830B-ms98-a-0055	B.104	241.690250	242.303875		paycheck	paycheck
sw3830B-ms98-a-0055	B.104	242.303875	242.674875		[silence]	[silence]
sw3830B-ms98-a-0056	B.104	242.674875	243.104875		[silence]	[silence]
sw3830B-ms98-a-0056	B.104	243.104875	243.198250		I	i
sw3830B-ms98-a-0056	B.104	243.198250	243.337125		just	just
sw3830B-ms98-a-0056	B.104	243.337125	243.514875		read	read
sw3830B-ms98-a-0056	B.104	243.514875	243.624875		this	this
sw3830B-ms98-a-0056	B.104	243.624875	243.684875		in	in
sw3830B-ms98-a-0056	B.104	243.684875	243.744875		the	the
sw3830B-ms98-a-0056	B.104	243.744875	244.104875		paper	paper
sw3830B-ms98-a-0056	B.104	244.104875	244.204875		the	the
sw3830B-ms98-a-0056	B.104	244.204875	244.354875		other	other
sw3830B-ms98-a-0056	B.104	244.354875	244.652625		day	day
sw3830B-ms98-a-0056	B.106	244.652625	245.172375		[silence]	[silence]
sw3830B-ms98-a-0056	B.106	245.172375	245.624875		Plus	plus
sw3830B-ms98-a-0056	B.106	245.624875	246.074875		probably	probably
sw3830B-ms98-a-0056	B.106	246.074875	246.214875		an	an
sw3830B-ms98-a-0056	B.106	246.214875	246.834875		additional	additional
sw3830B-ms98-a-0056	B.106	246.834875	247.174875		six	six
sw3830B-ms98-a-0056	B.106	247.174875	247.564875		months	months
sw3830B-ms98-a-0056	B.106	247.564875	247.954875		through	through
sw3830B-ms98-a-0056	B.106	247.954875	248.199375		the	the
sw3830B-ms98-a-0056	B.106	248.199375	248.756750		[silence]	[silence]
sw3830B-ms98-a-0056	B.106	248.756750	248.844875		the	the
sw3830B-ms98-a-0056	B.106	248.844875	249.284875		worker's	worker's
sw3830B-ms98-a-0056	B.106	249.284875	249.734875		stuff	stuff
sw3830B-ms98-a-0056	B.106	249.734875	249.864875		that	that
sw3830B-ms98-a-0056	B.106	249.864875	250.004875		they	they
sw3830B-ms98-a-0056	B.106	250.004875	250.444875		have	have
sw3830B-ms98-a-0056	B.106	250.444875	250.619750		at	at
sw3830B-ms98-a-0056	B.106	250.619750	251.100750		[silence]	[silence]
sw3830B-ms98-a-0057	B.106	251.100750	251.590750		[silence]	[silence]
sw3830B-ms98-a-0057	B.106	251.590750	251.966875		at	at
sw3830B-ms98-a-0057	B.106	251.966875	252.279500		uh	uh
sw3830B-ms98-a-0057	B.106	252.279500	252.460750		through	through
sw3830B-ms98-a-0057	B.106	252.460750	252.550750		the	the
sw3830B-ms98-a-0057	B.106	252.550750	253.112625		company	company
sw3830B-ms98-a-0057	B.106	253.112625	253.647375		[silence]	[silence]
sw3830B-ms98-a-0057	B.106	253.647375	253.904250		so	so
sw3830B-ms98-a-0057	B.106	253.904250	254.390125		[silence]	[silence]
sw3830B-ms98-a-0057	B.106	254.390125	254.590750		I'm	i'm
sw3830B-ms98-a-0057	B.106	254.590750	254.910750	<SUB>	sor-	so[rry]-
sw3830B-ms98-a-0057	B.106	254.910750	255.170750		you	you
sw3830B-ms98-a-0057	B.106	255.170750	255.230750		know	know
sw3830B-ms98-a-0057	B.106	255.230750	255.360750		I'm	i'm
sw3830B-ms98-a-0057	B.106	255.360750	255.660750		sorry	sorry
sw3830B-ms98-a-0057	B.106	255.660750	255.810750		it's	it's
sw3830B-ms98-a-0057	B.106	255.810750	256.170750		happening	happening
sw3830B-ms98-a-0057	B.108	256.170750	256.320750		because	because
sw3830B-ms98-a-0057	B.108	256.320750	256.410750		it's	it's
sw3830B-ms98-a-0057	B.108	256.410750	256.530750		going	going
sw3830B-ms98-a-0057	B.108	256.530750	256.600750		to	to
sw3830B-ms98-a-0057	B.108	256.600750	256.810750		hurt	hurt
sw3830B-ms98-a-0057	B.108	256.810750	256.910750		but	but
sw3830B-ms98-a-0057	B.108	256.910750	257.010750		I	i
sw3830B-ms98-a-0057	B.108	257.010750	257.210750		don't	don't
sw3830B-ms98-a-0057	B.108	257.210750	257.410750		feel	feel
sw3830B-ms98-a-0057	B.108	257.410750	257.520750		as	as
sw3830B-ms98-a-0057	B.108	257.520750	257.860750		sorry	sorry
sw3830B-ms98-a-0057	B.108	257.860750	258.010750		for	for
sw3830B-ms98-a-0057	B.108	258.010750	258.240750		them	them
sw3830B-ms98-a-0057	B.110	258.240750	258.400750		If	if
sw3830B-ms98-a-0057	B.110	258.400750	258.630750		my	my
sw3830B-ms98-a-0057	B.110	258.630750	258.970750		husband	husband
sw3830B-ms98-a-0057	B.112	258.970750	259.070750		were	were
sw3830B-ms98-a-0057	B.112	259.070750	259.350750		laid	laid
sw3830B-ms98-a-0057	B.112	259.350750	259.720750		off	off
sw3830B-ms98-a-0057	B.112	259.720750	260.090750		tomorrow	tomorrow
sw3830B-ms98-a-0057	B.112	260.090750	260.240750		we'd	we'd
sw3830B-ms98-a-0057	B.112	260.240750	260.390750		get	get
sw3830B-ms98-a-0057	B.112	260.390750	260.545750		one	one
sw3830B-ms98-a-0057	B.112	260.545750	260.764250		more	more
sw3830B-ms98-a-0057	B.112	260.764250	261.140750		check	check
sw3830B-ms98-a-0057	B.112	261.140750	261.260750		and	and
sw3830B-ms98-a-0057	B.112	261.260750	261.390750		that	that
sw3830B-ms98-a-0057	B.112	261.390750	261.540750		would	would
sw3830B-ms98-a-0057	B.112	261.540750	261.730750		be	be
sw3830B-ms98-a-0057	B.112	261.730750	262.069250		it	it
sw3830B-ms98-a-0057	B.114	262.069250	262.483500		[silence]	[silence]
sw3830B-ms98-a-0058	B.114	262.483500	266.391125		[silence]	[silence]
sw3830B-ms98-a-0059	B.114	266.391125	266.833625		[silence]	[silence]
sw3830B-ms98-a-0059	B.114	266.833625	267.202500		Yes	yes
sw3830B-ms98-a-0059	B.116	267.202500	267.584125		[silence]	[silence]
sw3830B-ms98-a-0059	B.116	267.584125	267.694125		Oh	oh
sw3830B-ms98-a-0059	B.116	267.694125	267.971125		yeah	yeah
sw3830B-ms98-a-0059	B.116	267.971125	268.071125		[silence]	[silence]
sw3830B-ms98-a-0059	B.116	268.071125	268.281125		that's	that's
sw3830B-ms98-a-0059	B.116	268.281125	268.681125		already	already
sw3830B-ms98-a-0059	B.118	268.681125	269.104125		hurting	hurting
sw3830B-ms98-a-0059	B.120	269.104125	269.327625		[silence]	[silence]
sw3830B-ms98-a-0059	B.120	269.327625	269.541125	<DEL>	---	yeah
sw3830B-ms98-a-0059	B.120	269.541125	270.050625		[silence]	[silence]
sw3830B-ms98-a-0060	B.120	270.050625	271.899375		[silence]	[silence]
sw3830B-ms98-a-0061	B.120	271.899375	272.359375		[silence]	[silence]
sw3830B-ms98-a-0061	B.120	272.359375	272.529375		But	but
sw3830B-ms98-a-0061	B.120	272.529375	272.629375		I	i
sw3830B-ms98-a-0061	B.120	272.629375	272.839375		think	think
sw3830B-ms98-a-0061	B.120	272.839375	273.089375		there's	there's
sw3830B-ms98-a-0061	B.120	273.089375	273.169375		a	a
sw3830B-ms98-a-0061	B.120	273.169375	273.639375		case	case
sw3830B-ms98-a-0061	B.122	273.639375	273.789375		where	where
sw3830B-ms98-a-0061	B.122	273.789375	274.269375		benefits	benefits
sw3830B-ms98-a-0061	B.122	274.269375	274.419375		have	have
sw3830B-ms98-a-0061	B.122	274.419375	274.809375		gotten	gotten
sw3830B-ms98-a-0061	B.122	274.809375	275.059375		[silence]	[silence]
sw3830B-ms98-a-0061	B.122	275.059375	275.349375		they	they
sw3830B-ms98-a-0061	B.122	275.349375	275.729375		voted	voted
sw3830B-ms98-a-0061	B.122	275.729375	275.859375		them	them_1
sw3830B-ms98-a-0061	B.122	275.859375	276.209375		in	in
sw3830B-ms98-a-0061	B.122	276.209375	276.379375		and	and
sw3830B-ms98-a-0061	B.122	276.379375	276.479375		they	they
sw3830B-ms98-a-0061	B.122	276.479375	276.769375		got	got
sw3830B-ms98-a-0061	B.122	276.769375	276.899375		[silence]	[silence]
sw3830B-ms98-a-0061	B.122	276.899375	277.059375		so	so
sw3830B-ms98-a-0061	B.122	277.059375	277.459375		good	good
sw3830B-ms98-a-0061	B.122	277.459375	277.499375		I	i
sw3830B-ms98-a-0061	B.122	277.499375	277.709375		mean	mean
sw3830B-ms98-a-0061	B.122	277.709375	277.879375		like	like
sw3830B-ms98-a-0061	B.122	277.879375	278.049375		two	two
sw3830B-ms98-a-0061	B.122	278.049375	278.429375		dollars	dollars
sw3830B-ms98-a-0061	B.122	278.429375	278.549375		for	for
sw3830B-ms98-a-0061	B.122	278.549375	278.599375		a	a
sw3830B-ms98-a-0061	B.122	278.599375	279.551875		prescription	prescription
sw3830B-ms98-a-0061	B.124	279.551875	279.884000		[silence]	[silence]
sw3830B-ms98-a-0061	B.124	279.884000	280.139375		no	no
sw3830B-ms98-a-0061	B.124	280.139375	280.769375		deductible	deductible
sw3830B-ms98-a-0061	B.124	280.769375	280.879375		on	on
sw3830B-ms98-a-0061	B.124	280.879375	280.949375		the	the
sw3830B-ms98-a-0061	B.124	280.949375	281.524875		medical	medical
sw3830B-ms98-a-0061	B.124	281.524875	281.713125		[silence]	[silence]
sw3830B-ms98-a-0061	B.124	281.713125	281.956625		all	all
sw3830B-ms98-a-0061	B.124	281.956625	282.219375		these	these
sw3830B-ms98-a-0061	B.124	282.219375	282.569375		things	things
sw3830B-ms98-a-0061	B.124	282.569375	282.669375		you	you
sw3830B-ms98-a-0061	B.124	282.669375	282.909375		know	know
sw3830B-ms98-a-0061	B.126	282.909375	283.357625		[silence]	[silence]
sw3830B-ms98-a-0062	B.126	283.357625	283.787625		[silence]	[silence]
sw3830B-ms98-a-0062	B.126	283.787625	283.967625		and	and
sw3830B-ms98-a-0062	B.126	283.967625	284.117625		it	it
sw3830B-ms98-a-0062	B.126	284.117625	284.447625		made	made
sw3830B-ms98-a-0062	B.126	284.447625	284.507625		the	the
sw3830B-ms98-a-0062	B.126	284.507625	284.977625		prices	prices
sw3830B-ms98-a-0062	B.126	284.977625	285.145250		of	of
sw3830B-ms98-a-0062	B.126	285.145250	285.427750		[silence]	[silence]
sw3830B-ms98-a-0062	B.126	285.427750	285.837625		cars	cars
sw3830B-ms98-a-0062	B.126	285.837625	286.047625		go	go
sw3830B-ms98-a-0062	B.126	286.047625	286.317625		up	up
sw3830B-ms98-a-0062	B.126	286.317625	286.742125		and	and
sw3830B-ms98-a-0062	B.128	286.742125	287.281000		[silence]	[silence]
sw3830B-ms98-a-0063	B.128	287.281000	287.801000		[silence]	[silence]
sw3830B-ms98-a-0063	B.128	287.801000	288.201000		and	and
sw3830B-ms98-a-0063	B.128	288.201000	288.311000		you	you
sw3830B-ms98-a-0063	B.128	288.311000	288.601000		know	know
sw3830B-ms98-a-0063	B.128	288.601000	288.826500		the	the
sw3830B-ms98-a-0063	B.128	288.826500	288.950750		[silence]	[silence]
sw3830B-ms98-a-0063	B.128	288.950750	289.139875		I	i
sw3830B-ms98-a-0063	B.128	289.139875	289.369625		we	we
sw3830B-ms98-a-0063	B.128	289.369625	289.471000		I	i
sw3830B-ms98-a-0063	B.128	289.471000	289.791000		believe	believe
sw3830B-ms98-a-0063	B.128	289.791000	289.911000		in	in
sw3830B-ms98-a-0063	B.128	289.911000	290.321000		unions	unions
sw3830B-ms98-a-0063	B.128	290.321000	290.491000		but	but
sw3830B-ms98-a-0063	B.128	290.491000	290.561000		they	they
sw3830B-ms98-a-0063	B.128	290.561000	290.801000		went	went
sw3830B-ms98-a-0063	B.128	290.801000	290.921000		too	too
sw3830B-ms98-a-0063	B.128	290.921000	291.381000		far	far
sw3830B-ms98-a-0063	B.130	291.381000	291.828750		[silence]	[silence]
sw3830B-ms98-a-0064	B.130	291.828750	293.079125		[silence]	[silence]
sw3830B-ms98-a-0065	B.130	293.079125	293.579125		[silence]	[silence]
sw3830B-ms98-a-0065	B.130	293.579125	293.664625		I	i
sw3830B-ms98-a-0065	B.130	293.664625	293.773000		mean	mean
sw3830B-ms98-a-0065	B.130	293.773000	293.958375		I	i
sw3830B-ms98-a-0065	B.130	293.958375	294.184750		can't	can't
sw3830B-ms98-a-0065	B.130	294.184750	294.369125		make	make
sw3830B-ms98-a-0065	B.130	294.369125	294.749125		eighteen	eighteen
sw3830B-ms98-a-0065	B.130	294.749125	295.029125		dollars	dollars
sw3830B-ms98-a-0065	B.130	295.029125	295.169125		an	an
sw3830B-ms98-a-0065	B.130	295.169125	295.519125		hour	hour
sw3830B-ms98-a-0065	B.132	295.519125	296.248375		[silence]	[silence]
sw3830B-ms98-a-0066	B.132	296.248375	296.948375		[silence]	[silence]
sw3830B-ms98-a-0066	B.132	296.948375	296.978375		I	i
sw3830B-ms98-a-0066	B.132	296.978375	297.138375		mean	mean
sw3830B-ms98-a-0066	B.132	297.138375	297.238375		I	i
sw3830B-ms98-a-0066	B.132	297.238375	297.478375		know	know
sw3830B-ms98-a-0066	B.132	297.478375	297.748375		someone	someone
sw3830B-ms98-a-0066	B.132	297.748375	297.938375		out	out
sw3830B-ms98-a-0066	B.132	297.938375	298.028375		here	here
sw3830B-ms98-a-0066	B.132	298.028375	298.118375		that	that
sw3830B-ms98-a-0066	B.132	298.118375	298.338375		makes	makes
sw3830B-ms98-a-0066	B.132	298.338375	298.678375		eighteen	eighteen
sw3830B-ms98-a-0066	B.132	298.678375	298.918375		dollars	dollars
sw3830B-ms98-a-0066	B.132	298.918375	299.058375		an	an
sw3830B-ms98-a-0066	B.132	299.058375	299.382875		hour	hour
sw3830B-ms98-a-0066	B.132	299.382875	299.522000		[silence]	[silence]
