sw3815B-ms98-a-0001	@B.2	0.000000	0.002500		[silence]	[silence]
sw3815B-ms98-a-0001	@B.2	0.002500	0.020000		[noise]	[noise]
sw3815B-ms98-a-0001	@B.2	0.020000	1.330625		[silence]	[silence]
sw3815B-ms98-a-0002	@B.2	1.330625	1.860250		[silence]	[silence]
sw3815B-ms98-a-0002	@B.2	1.860250	2.270625		Uh	uh
sw3815B-ms98-a-0002	@B.2	2.270625	2.540625		well	well
sw3815B-ms98-a-0002	@B.2	2.540625	2.770625		yeah	yeah
sw3815B-ms98-a-0002	@B.2	2.770625	2.860625		I	i
sw3815B-ms98-a-0002	@B.2	2.860625	3.220625		am	am
sw3815B-ms98-a-0002	@B.2	3.220625	3.360625		as	as
sw3815B-ms98-a-0002	@B.2	3.360625	3.390625		a	a
sw3815B-ms98-a-0002	@B.2	3.390625	3.580625		matter	matter
sw3815B-ms98-a-0002	@B.2	3.580625	3.640625		of	of
sw3815B-ms98-a-0002	@B.2	3.640625	4.181125		fact	fact
sw3815B-ms98-a-0002	@B.2	4.181125	4.523875		[noise]	[noise]
sw3815B-ms98-a-0002	@B.2	4.523875	4.710625		Well	well
sw3815B-ms98-a-0002	@B.2	4.710625	4.940625		act-	act[ually]-
sw3815B-ms98-a-0002	@B.2	4.940625	5.360625		actually	actually
sw3815B-ms98-a-0002	@B.2	5.360625	5.490625		I'm	i'm
sw3815B-ms98-a-0002	@B.2	5.490625	5.770625		looking	looking
sw3815B-ms98-a-0002	@B.2	5.770625	6.200625		for	for
sw3815B-ms98-a-0002	@B.2	6.200625	6.470625		another	another
sw3815B-ms98-a-0002	@B.2	6.470625	6.890625		car	car
sw3815B-ms98-a-0002	@B.2	6.890625	7.270625		but	but
sw3815B-ms98-a-0002	@B.2	7.270625	7.618125		uh	uh
sw3815B-ms98-a-0002	@B.2	7.618125	7.877875		[silence]	[silence]
sw3815B-ms98-a-0002	@B.2	7.877875	8.186750		uh	uh
sw3815B-ms98-a-0002	@B.2	8.186750	8.610625		new	new
sw3815B-ms98-a-0002	@B.2	8.610625	9.060625		probably	probably
sw3815B-ms98-a-0002	@B.2	9.060625	9.460000		not	not
sw3815B-ms98-a-0002	B.4	9.460000	9.920125		[silence]	[silence]
sw3815B-ms98-a-0003	B.4	9.920125	12.982875		[silence]	[silence]
sw3815B-ms98-a-0004	B.4	12.982875	13.439625		[silence]	[silence]
sw3815B-ms98-a-0004	B.4	13.439625	14.032875		Uh	uh
sw3815B-ms98-a-0004	B.4	14.032875	14.482875		sports	sports
sw3815B-ms98-a-0004	B.4	14.482875	14.957250		car	car
sw3815B-ms98-a-0004	B.6	14.957250	15.795000		[noise]	[noise]
sw3815B-ms98-a-0004	B.6	15.795000	16.680750		Uh	uh
sw3815B-ms98-a-0004	B.6	16.680750	17.285125		[silence]	[silence]
sw3815B-ms98-a-0004	B.6	17.285125	17.992875		usually	usually
sw3815B-ms98-a-0004	B.6	17.992875	18.132875		either	either
sw3815B-ms98-a-0004	B.6	18.132875	18.542875		black	black
sw3815B-ms98-a-0004	B.6	18.542875	18.682875		or	or
sw3815B-ms98-a-0004	B.6	18.682875	19.211000		red	red
sw3815B-ms98-a-0004	B.8	19.211000	19.742875		[noise]	[noise]
sw3815B-ms98-a-0004	B.8	19.742875	19.957625		[silence]	[silence]
sw3815B-ms98-a-0005	B.8	19.957625	20.752000		[silence]	[silence]
sw3815B-ms98-a-0005	B.8	20.752000	21.257625	<DEL>	---	a[nd]-
sw3815B-ms98-a-0005	B.8	21.257625	22.168000		And	and
sw3815B-ms98-a-0005	B.8	22.168000	22.375125		[silence]	[silence]
sw3815B-ms98-a-0005	B.8	22.375125	22.857625		electric	electric
sw3815B-ms98-a-0005	B.8	22.857625	23.477625		windows	windows
sw3815B-ms98-a-0005	B.8	23.477625	23.617625		and	and
sw3815B-ms98-a-0005	B.8	23.617625	23.927625		power	power
sw3815B-ms98-a-0005	B.8	23.927625	24.562500		locks	locks
sw3815B-ms98-a-0005	B.10	24.562500	26.795875		[laughter]	[laughter]
sw3815B-ms98-a-0005	B.10	26.795875	27.025000	<SUB>	Now	no
sw3815B-ms98-a-0005	B.12	27.025000	27.701750		[silence]	[silence]
sw3815B-ms98-a-0006	B.12	27.701750	28.441750		[silence]	[silence]
sw3815B-ms98-a-0006	B.12	28.441750	28.722000		Well	well
sw3815B-ms98-a-0006	B.12	28.722000	28.917750		[silence]	[silence]
sw3815B-ms98-a-0006	B.12	28.917750	29.001750	<DEL>	---	uh
sw3815B-ms98-a-0006	B.12	29.001750	29.381750		not	not
sw3815B-ms98-a-0006	B.12	29.381750	29.521750		so	so
sw3815B-ms98-a-0006	B.12	29.521750	29.914750		much	much
sw3815B-ms98-a-0006	B.12	29.914750	30.431750		that	that
sw3815B-ms98-a-0006	B.12	30.431750	30.761750		as	as
sw3815B-ms98-a-0006	B.12	30.761750	30.901750		it	it
sw3815B-ms98-a-0006	B.12	30.901750	31.295625		is	is
sw3815B-ms98-a-0006	B.12	31.295625	31.536625		[silence]	[silence]
sw3815B-ms98-a-0006	B.12	31.536625	31.721750		I've	i've
sw3815B-ms98-a-0006	B.12	31.721750	31.961750		had	had
sw3815B-ms98-a-0006	B.12	31.961750	32.161750		so	so
sw3815B-ms98-a-0006	B.12	32.161750	32.391750		many	many
sw3815B-ms98-a-0006	B.12	32.391750	33.071750		times	times
sw3815B-ms98-a-0006	B.12	33.071750	33.481750		when	when
sw3815B-ms98-a-0006	B.12	33.481750	33.779125		uh	uh
sw3815B-ms98-a-0006	B.12	33.779125	34.095500		[silence]	[silence]
sw3815B-ms98-a-0006	B.12	34.095500	34.748250		uh	uh
sw3815B-ms98-a-0006	B.12	34.748250	34.940375		[silence]	[silence]
sw3815B-ms98-a-0006	B.12	34.940375	35.091750		you	you
sw3815B-ms98-a-0006	B.12	35.091750	35.391750		know	know
sw3815B-ms98-a-0006	B.12	35.391750	35.461750	<DEL>	---	i-
sw3815B-ms98-a-0006	B.12	35.461750	35.961750		I'll	i'll
sw3815B-ms98-a-0006	B.12	35.961750	36.131750		have	have
sw3815B-ms98-a-0006	B.12	36.131750	36.211750		a	a
sw3815B-ms98-a-0006	B.12	36.211750	36.561750		friend	friend
sw3815B-ms98-a-0006	B.12	36.561750	36.841750		next	next
sw3815B-ms98-a-0006	B.12	36.841750	36.901750		to	to
sw3815B-ms98-a-0006	B.12	36.901750	37.101750		me	me
sw3815B-ms98-a-0006	B.12	37.101750	37.221750		or	or
sw3815B-ms98-a-0006	B.12	37.221750	37.261750		I	i
sw3815B-ms98-a-0006	B.12	37.261750	37.481750		see	see
sw3815B-ms98-a-0006	B.12	37.481750	38.116625		somebody	somebody
sw3815B-ms98-a-0006	B.12	38.116625	38.289250		[silence]	[silence]
sw3815B-ms98-a-0007	B.12	38.289250	38.459250		[silence]	[silence]
sw3815B-ms98-a-0007	B.12	38.459250	39.145125		uh	uh
sw3815B-ms98-a-0007	B.12	39.145125	39.479250		guy	guy
sw3815B-ms98-a-0007	B.12	39.479250	39.809250		broken	broken
sw3815B-ms98-a-0007	B.12	39.809250	40.019250		down	down
sw3815B-ms98-a-0007	B.12	40.019250	40.119250		on	on
sw3815B-ms98-a-0007	B.12	40.119250	40.179250		the	the
sw3815B-ms98-a-0007	B.12	40.179250	40.419250		side	side
sw3815B-ms98-a-0007	B.12	40.419250	40.509250		of	of
sw3815B-ms98-a-0007	B.12	40.509250	40.589250		the	the
sw3815B-ms98-a-0007	B.12	40.589250	40.929250		road	road
sw3815B-ms98-a-0007	B.12	40.929250	41.119250		and	and
sw3815B-ms98-a-0007	B.12	41.119250	41.299250		try	try
sw3815B-ms98-a-0007	B.12	41.299250	41.519250		to	to
sw3815B-ms98-a-0007	B.12	41.519250	41.769250		lean	lean
sw3815B-ms98-a-0007	B.12	41.769250	42.236875		over	over
sw3815B-ms98-a-0007	B.12	42.236875	42.481625		[silence]	[silence]
sw3815B-ms98-a-0007	B.12	42.481625	42.619250		and	and
sw3815B-ms98-a-0007	B.12	42.619250	42.809250		roll	roll
sw3815B-ms98-a-0007	B.12	42.809250	43.039250		down	down
sw3815B-ms98-a-0007	B.12	43.039250	43.109250		the	the
sw3815B-ms98-a-0007	B.12	43.109250	43.689500		window	window
sw3815B-ms98-a-0007	B.14	43.689500	44.232875		[silence]	[silence]
sw3815B-ms98-a-0008	B.14	44.232875	44.822875		[silence]	[silence]
sw3815B-ms98-a-0008	B.14	44.822875	44.922875		It	it
sw3815B-ms98-a-0008	B.14	44.922875	45.152875		is	is
sw3815B-ms98-a-0008	B.14	45.152875	45.432875		just	just
sw3815B-ms98-a-0008	B.14	45.432875	45.542875		a	a
sw3815B-ms98-a-0008	B.14	45.542875	45.922875		real	real
sw3815B-ms98-a-0008	B.14	45.922875	46.412875		pain	pain
sw3815B-ms98-a-0008	B.14	46.412875	46.749125		or	or
sw3815B-ms98-a-0008	B.14	46.749125	47.095625		[silence]	[silence]
sw3815B-ms98-a-0008	B.14	47.095625	47.142875		you	you
sw3815B-ms98-a-0008	B.14	47.142875	47.222875		know	know
sw3815B-ms98-a-0008	B.14	47.222875	47.342875		if	if
sw3815B-ms98-a-0008	B.14	47.342875	47.492875		I'm	i'm
sw3815B-ms98-a-0008	B.14	47.492875	47.882875		driving	driving
sw3815B-ms98-a-0008	B.14	47.882875	48.212875		along	along
sw3815B-ms98-a-0008	B.14	48.212875	48.302875		and	and
sw3815B-ms98-a-0008	B.14	48.302875	48.472875		there's	there's
sw3815B-ms98-a-0008	B.14	48.472875	48.862875		somebody	somebody
sw3815B-ms98-a-0008	B.14	48.862875	49.172875		next	next
sw3815B-ms98-a-0008	B.14	49.172875	49.242875		to	to
sw3815B-ms98-a-0008	B.14	49.242875	49.472875		me	me
sw3815B-ms98-a-0008	B.14	49.472875	49.687625		and	and
sw3815B-ms98-a-0008	B.14	49.687625	50.041625		[silence]	[silence]
sw3815B-ms98-a-0008	B.14	50.041625	50.671250		uh	uh
sw3815B-ms98-a-0008	B.14	50.671250	51.112875		somebody	somebody
sw3815B-ms98-a-0008	B.14	51.112875	51.242875		that	that
sw3815B-ms98-a-0008	B.14	51.242875	51.302875		I	i
sw3815B-ms98-a-0008	B.14	51.302875	51.532875		know	know
sw3815B-ms98-a-0008	B.14	51.532875	51.632875		and	and
sw3815B-ms98-a-0008	B.14	51.632875	51.692875		you	you
sw3815B-ms98-a-0008	B.14	51.692875	51.872875		try	try
sw3815B-ms98-a-0008	B.14	51.872875	51.992875		to	to
sw3815B-ms98-a-0008	B.14	51.992875	52.302875		talk	talk
sw3815B-ms98-a-0008	B.14	52.302875	52.462875		to	to
sw3815B-ms98-a-0008	B.14	52.462875	52.652875		them	them_1
sw3815B-ms98-a-0008	B.16	52.652875	52.924000		[silence]	[silence]
sw3815B-ms98-a-0008	B.16	52.924000	53.182875		it's	it's
sw3815B-ms98-a-0008	B.16	53.182875	53.352875		real	real
sw3815B-ms98-a-0008	B.16	53.352875	53.832875		difficult	difficult
sw3815B-ms98-a-0008	B.16	53.832875	53.912875		to	to
sw3815B-ms98-a-0008	B.16	53.912875	54.575375		drive	drive
sw3815B-ms98-a-0008	B.16	54.575375	54.872875		[silence]	[silence]
sw3815B-ms98-a-0008	B.16	54.872875	54.982875	<DEL>	---	r[each]-
sw3815B-ms98-a-0008	B.16	54.982875	55.382875		reach	reach
sw3815B-ms98-a-0008	B.16	55.382875	55.622875		over	over
sw3815B-ms98-a-0008	B.16	55.622875	55.712875		and	and
sw3815B-ms98-a-0008	B.16	55.712875	55.842875		try	try
sw3815B-ms98-a-0008	B.16	55.842875	55.932875		to	to
sw3815B-ms98-a-0008	B.16	55.932875	56.072875		roll	roll
sw3815B-ms98-a-0008	B.16	56.072875	56.232875		down	down
sw3815B-ms98-a-0008	B.16	56.232875	56.292875		the	the
sw3815B-ms98-a-0008	B.16	56.292875	56.739625		window	window
sw3815B-ms98-a-0008	B.18	56.739625	57.440875		[silence]	[silence]
sw3815B-ms98-a-0009	B.18	57.440875	58.160875		[silence]	[silence]
sw3815B-ms98-a-0009	B.18	58.160875	58.750875		And	and
sw3815B-ms98-a-0009	B.18	58.750875	59.091625		uh	uh
sw3815B-ms98-a-0009	B.18	59.091625	59.649125		[silence]	[silence]
sw3815B-ms98-a-0009	B.18	59.649125	60.177375		so	so
sw3815B-ms98-a-0009	B.18	60.177375	60.587875		[silence]	[silence]
sw3815B-ms98-a-0009	B.18	60.587875	60.840875		power	power
sw3815B-ms98-a-0009	B.18	60.840875	61.150875		locks	locks
sw3815B-ms98-a-0009	B.18	61.150875	61.240875	<DEL>	---	and
sw3815B-ms98-a-0009	B.18	61.240875	61.500875		power	power
sw3815B-ms98-a-0009	B.18	61.500875	62.110875		windows	windows
sw3815B-ms98-a-0009	B.18	62.110875	62.280875		are	are
sw3815B-ms98-a-0009	B.18	62.280875	62.737375		just	just
sw3815B-ms98-a-0009	B.18	62.737375	63.449250		[noise]	[noise]
sw3815B-ms98-a-0009	B.18	63.449250	63.690875		just	just
sw3815B-ms98-a-0009	B.18	63.690875	64.120875		things	things
sw3815B-ms98-a-0009	B.18	64.120875	64.470875		that	that
sw3815B-ms98-a-0009	B.18	64.470875	64.830000		uh	uh
sw3815B-ms98-a-0009	B.18	64.830000	65.346000		[silence]	[silence]
sw3815B-ms98-a-0009	B.18	65.346000	65.616375	<DEL>	---	uh
sw3815B-ms98-a-0009	B.18	65.616375	65.830875		just	just
sw3815B-ms98-a-0009	B.18	65.830875	66.180875		really	really
sw3815B-ms98-a-0009	B.18	66.180875	66.410875		help	help
sw3815B-ms98-a-0009	B.18	66.410875	66.460875		a	a
sw3815B-ms98-a-0009	B.18	66.460875	66.762250		lot	lot
sw3815B-ms98-a-0009	B.20	66.762250	68.296375		[laughter]	[laughter]
sw3815B-ms98-a-0009	B.20	68.296375	68.390875		What	what
sw3815B-ms98-a-0009	B.20	68.390875	68.630875		about	about
sw3815B-ms98-a-0009	B.20	68.630875	68.964875		you	you
sw3815B-ms98-a-0009	B.24	68.964875	69.457250		[silence]	[silence]
sw3815B-ms98-a-0010	B.24	69.457250	75.829875		[silence]	[silence]
sw3815B-ms98-a-0011	B.24	75.829875	76.327000		[silence]	[silence]
sw3815B-ms98-a-0011	B.24	76.327000	77.312625		[laughter]	[laughter]
sw3815B-ms98-a-0011	B.24	77.312625	77.329625		[silence]	[silence]
sw3815B-ms98-a-0012	B.24	77.329625	80.705750		[silence]	[silence]
sw3815B-ms98-a-0013	B.24	80.705750	81.214250		[silence]	[silence]
sw3815B-ms98-a-0013	B.24	81.214250	81.661875		Oh	oh
sw3815B-ms98-a-0013	B.26	81.661875	82.161250		[silence]	[silence]
sw3815B-ms98-a-0014	B.26	82.161250	87.468500		[silence]	[silence]
sw3815B-ms98-a-0015	B.26	87.468500	87.882625		[silence]	[silence]
sw3815B-ms98-a-0015	B.26	87.882625	88.380375		Sure	sure
sw3815B-ms98-a-0015	B.28	88.380375	88.829375		[silence]	[silence]
sw3815B-ms98-a-0016	B.28	88.829375	95.655500		[silence]	[silence]
sw3815B-ms98-a-0017	B.28	95.655500	96.165500		[silence]	[silence]
sw3815B-ms98-a-0017	B.28	96.165500	96.325500		Have	have
sw3815B-ms98-a-0017	B.28	96.325500	96.385500		you	you
sw3815B-ms98-a-0017	B.28	96.385500	96.545500		ever	ever
sw3815B-ms98-a-0017	B.28	96.545500	96.665500		had	had
sw3815B-ms98-a-0017	B.28	96.665500	96.725500		a	a
sw3815B-ms98-a-0017	B.28	96.725500	96.925500		car	car
sw3815B-ms98-a-0017	B.28	96.925500	97.065500		with	with
sw3815B-ms98-a-0017	B.28	97.065500	97.125500		an	an
sw3815B-ms98-a-0017	B.28	97.125500	97.275500		air	air
sw3815B-ms98-a-0017	B.28	97.275500	97.660375		bag	bag
sw3815B-ms98-a-0017	B.30	97.660375	98.592375		[silence]	[silence]
sw3815B-ms98-a-0018	B.30	98.592375	99.476500		[silence]	[silence]
sw3815B-ms98-a-0018	B.30	99.476500	99.992375		No	no
sw3815B-ms98-a-0018	B.32	99.992375	100.463625		[silence]	[silence]
sw3815B-ms98-a-0019	B.32	100.463625	104.104750		[silence]	[silence]
sw3815B-ms98-a-0020	B.32	104.104750	104.318125		[silence]	[silence]
sw3815B-ms98-a-0020	B.32	104.318125	104.613750		[noise]	[noise]
sw3815B-ms98-a-0020	B.32	104.613750	104.724750		Well	well
sw3815B-ms98-a-0020	B.32	104.724750	105.034750		it	it
sw3815B-ms98-a-0020	B.32	105.034750	105.184750		it	it
sw3815B-ms98-a-0020	B.32	105.184750	105.524750		see-	see[ms]-
sw3815B-ms98-a-0020	B.32	105.524750	105.734750		sure	sure
sw3815B-ms98-a-0020	B.32	105.734750	106.054750		seems	seems
sw3815B-ms98-a-0020	B.32	106.054750	106.194750		to	to
sw3815B-ms98-a-0020	B.32	106.194750	106.544750		save	save
sw3815B-ms98-a-0020	B.32	106.544750	107.134750		lives	lives
sw3815B-ms98-a-0020	B.32	107.134750	107.714750		and	and
sw3815B-ms98-a-0020	B.34	107.714750	108.109750		uh	uh
sw3815B-ms98-a-0020	B.34	108.109750	108.565500		[noise]	[noise]
sw3815B-ms98-a-0020	B.34	108.565500	108.837250		yeah	yeah
sw3815B-ms98-a-0020	B.34	108.837250	109.134750		[silence]	[silence]
sw3815B-ms98-a-0020	B.34	109.134750	109.224750		I	i
sw3815B-ms98-a-0020	B.34	109.224750	109.664750		actually	actually
sw3815B-ms98-a-0020	B.34	109.664750	109.714750		I	i
sw3815B-ms98-a-0020	B.34	109.714750	109.934750		like	like
sw3815B-ms98-a-0020	B.34	109.934750	110.024750		the	the
sw3815B-ms98-a-0020	B.34	110.024750	110.644750		anti-lock	antilock
sw3815B-ms98-a-0020	B.34	110.644750	111.254750		brakes	brakes
sw3815B-ms98-a-0020	B.36	111.254750	111.687625		[silence]	[silence]
sw3815B-ms98-a-0021	B.36	111.687625	113.022500		[silence]	[silence]
sw3815B-ms98-a-0022	B.36	113.022500	113.435125		[silence]	[silence]
sw3815B-ms98-a-0022	B.36	113.435125	114.082500		And	and
sw3815B-ms98-a-0022	B.36	114.082500	114.262500	<CONT>	I	i've
sw3815B-ms98-a-0022	B.36	114.262500	114.262500	<CONT>	have	+++
sw3815B-ms98-a-0022	B.36	114.262500	114.702500		never	never
sw3815B-ms98-a-0022	B.36	114.702500	114.842500		had	had
sw3815B-ms98-a-0022	B.36	114.842500	114.922500		a	a
sw3815B-ms98-a-0022	B.36	114.922500	115.462500		chance	chance
sw3815B-ms98-a-0022	B.36	115.462500	115.582500		to	to
sw3815B-ms98-a-0022	B.36	115.582500	115.622500		I	i
sw3815B-ms98-a-0022	B.36	115.622500	115.772500		have	have
sw3815B-ms98-a-0022	B.36	115.772500	115.882500		been	been
sw3815B-ms98-a-0022	B.36	115.882500	116.002500		in	in
sw3815B-ms98-a-0022	B.36	116.002500	116.352500		cars	cars
sw3815B-ms98-a-0022	B.36	116.352500	116.442500		that	that
sw3815B-ms98-a-0022	B.36	116.442500	116.532500		have	have
sw3815B-ms98-a-0022	B.36	116.532500	116.802500		had	had
sw3815B-ms98-a-0022	B.36	116.802500	116.982500		them	them
sw3815B-ms98-a-0022	B.36	116.982500	117.108000		but	but
sw3815B-ms98-a-0022	B.36	117.108000	117.545000		[noise]	[noise]
sw3815B-ms98-a-0022	B.36	117.545000	117.702500		I've	i've
sw3815B-ms98-a-0022	B.36	117.702500	118.072500		never	never
sw3815B-ms98-a-0022	B.36	118.072500	118.462500		tromped	tromped
sw3815B-ms98-a-0022	B.36	118.462500	118.542500		on	on
sw3815B-ms98-a-0022	B.36	118.542500	118.632500		the	the
sw3815B-ms98-a-0022	B.36	118.632500	119.032500		brakes	brakes
sw3815B-ms98-a-0022	B.36	119.032500	119.152500		to	to
sw3815B-ms98-a-0022	B.36	119.152500	119.632500		see	see
sw3815B-ms98-a-0022	B.36	119.632500	119.933750		uh	uh
sw3815B-ms98-a-0022	B.36	119.933750	120.310375		[silence]	[silence]
sw3815B-ms98-a-0022	B.36	120.310375	120.392500		you	you
sw3815B-ms98-a-0022	B.36	120.392500	120.512500		know	know
sw3815B-ms98-a-0022	B.36	120.512500	120.752500		on	on
sw3815B-ms98-a-0022	B.36	120.752500	121.042500		ice	ice
sw3815B-ms98-a-0022	B.36	121.042500	121.172500		or	or
sw3815B-ms98-a-0022	B.36	121.172500	121.602500		water	water
sw3815B-ms98-a-0022	B.36	121.602500	121.892500		just	just
sw3815B-ms98-a-0022	B.36	121.892500	121.952500		to	to
sw3815B-ms98-a-0022	B.36	121.952500	122.142500		see	see
sw3815B-ms98-a-0022	B.36	122.142500	122.272500		if	if
sw3815B-ms98-a-0022	B.36	122.272500	122.362500		they	they
sw3815B-ms98-a-0022	B.36	122.362500	122.732500		didn't	didn't
sw3815B-ms98-a-0022	B.36	122.732500	123.042500		lock	lock
sw3815B-ms98-a-0022	B.36	123.042500	123.362500		up	up
sw3815B-ms98-a-0022	B.38	123.362500	123.736000		[silence]	[silence]
sw3815B-ms98-a-0023	B.38	123.736000	125.022250		[silence]	[silence]
sw3815B-ms98-a-0024	B.38	125.022250	125.506375		[silence]	[silence]
sw3815B-ms98-a-0024	B.38	125.506375	125.882250		But	but
sw3815B-ms98-a-0024	B.38	125.882250	126.265500		uh	uh
sw3815B-ms98-a-0024	B.38	126.265500	126.826625		[silence]	[silence]
sw3815B-ms98-a-0024	B.38	126.826625	126.902250		you	you
sw3815B-ms98-a-0024	B.38	126.902250	127.122250		think	think
sw3815B-ms98-a-0024	B.38	127.122250	127.272250		you'd	you'd
sw3815B-ms98-a-0024	B.38	127.272250	127.592250		buy	buy
sw3815B-ms98-a-0024	B.38	127.592250	127.852250		uh	uh
sw3815B-ms98-a-0024	B.38	127.852250	127.932250		an	an
sw3815B-ms98-a-0024	B.38	127.932250	128.412250		American	American
sw3815B-ms98-a-0024	B.38	128.412250	128.802250		car	car
sw3815B-ms98-a-0024	B.38	128.802250	128.962250		or	or
sw3815B-ms98-a-0024	B.38	128.962250	129.022250		a	a
sw3815B-ms98-a-0024	B.38	129.022250	129.652250		European	European
sw3815B-ms98-a-0024	B.38	129.652250	129.762250		or	or
sw3815B-ms98-a-0024	B.38	129.762250	130.604875		Japanese	Japanese
sw3815B-ms98-a-0024	B.40	130.604875	130.949000		[silence]	[silence]
sw3815B-ms98-a-0025	B.40	130.949000	164.963875		[silence]	[silence]
sw3815B-ms98-a-0026	B.40	164.963875	164.982750		[silence]	[silence]
sw3815B-ms98-a-0026	B.40	164.982750	165.455750		[noise]	[noise]
sw3815B-ms98-a-0026	B.40	165.455750	165.623875		What	what
sw3815B-ms98-a-0026	B.40	165.623875	165.753875		was	was
sw3815B-ms98-a-0026	B.40	165.753875	166.125500		that	that
sw3815B-ms98-a-0026	B.42	166.125500	166.610750		[silence]	[silence]
sw3815B-ms98-a-0027	B.42	166.610750	171.016000		[silence]	[silence]
sw3815B-ms98-a-0028	B.42	171.016000	171.446000		[silence]	[silence]
sw3815B-ms98-a-0028	B.42	171.446000	171.858250		Huh	huh
sw3815B-ms98-a-0028	B.42	171.858250	172.001000		[silence]	[silence]
sw3815B-ms98-a-0028	B.42	172.001000	172.306000		stick	stick
sw3815B-ms98-a-0028	B.42	172.306000	172.706000		shift	shift
sw3815B-ms98-a-0028	B.42	172.706000	172.948125		huh	huh
sw3815B-ms98-a-0028	B.44	172.948125	173.554500		[silence]	[silence]
sw3815B-ms98-a-0028	B.44	173.554500	173.736000		Did	did
sw3815B-ms98-a-0028	B.44	173.736000	173.846000		it	it
sw3815B-ms98-a-0028	B.44	173.846000	174.236000		have	have
sw3815B-ms98-a-0028	B.44	174.236000	174.376000		what	what
sw3815B-ms98-a-0028	B.44	174.376000	174.436000		a	a
sw3815B-ms98-a-0028	B.44	174.436000	174.706000		three	three
sw3815B-ms98-a-0028	B.44	174.706000	175.086000		speed	speed
sw3815B-ms98-a-0028	B.44	175.086000	175.206000		or	or
sw3815B-ms98-a-0028	B.44	175.206000	175.246000		a	a
sw3815B-ms98-a-0028	B.44	175.246000	175.516000		four	four
sw3815B-ms98-a-0028	B.44	175.516000	176.072125		speed	speed
sw3815B-ms98-a-0028	B.46	176.072125	176.442625		[silence]	[silence]
sw3815B-ms98-a-0029	B.46	176.442625	186.336625		[silence]	[silence]
sw3815B-ms98-a-0030	B.46	186.336625	186.838750		[silence]	[silence]
sw3815B-ms98-a-0030	B.46	186.838750	187.590125		Wow	wow
sw3815B-ms98-a-0030	B.48	187.590125	187.998250		[silence]	[silence]
sw3815B-ms98-a-0031	B.48	187.998250	191.839375		[silence]	[silence]
sw3815B-ms98-a-0032	B.48	191.839375	191.884000		[silence]	[silence]
sw3815B-ms98-a-0032	B.48	191.884000	192.361875		[noise]	[noise]
sw3815B-ms98-a-0032	B.48	192.361875	192.469375		Well	well
sw3815B-ms98-a-0032	B.48	192.469375	193.241375		actually	actually
sw3815B-ms98-a-0032	B.48	193.241375	193.689375		I	i
sw3815B-ms98-a-0032	B.48	193.689375	194.039375		much	much
sw3815B-ms98-a-0032	B.48	194.039375	194.589375		prefer	prefer
sw3815B-ms98-a-0032	B.48	194.589375	194.759375		a	a
sw3815B-ms98-a-0032	B.48	194.759375	195.029375		stick	stick
sw3815B-ms98-a-0032	B.48	195.029375	195.610625		shift	shift
sw3815B-ms98-a-0032	B.48	195.610625	196.023625		[silence]	[silence]
sw3815B-ms98-a-0033	B.48	196.023625	196.626125		[silence]	[silence]
sw3815B-ms98-a-0033	B.48	196.626125	197.123625		and	and
sw3815B-ms98-a-0033	B.48	197.123625	197.363625		what	what
sw3815B-ms98-a-0033	B.48	197.363625	197.711625		I'm	i'm
sw3815B-ms98-a-0033	B.48	197.711625	197.983625		I'm	i'm
sw3815B-ms98-a-0033	B.48	197.983625	198.453625		curious	curious
sw3815B-ms98-a-0033	B.48	198.453625	198.608625	<SUB>	I	i-
sw3815B-ms98-a-0033	B.48	198.608625	198.864750		[silence]	[silence]
sw3815B-ms98-a-0033	B.48	198.864750	198.973625		I	i
sw3815B-ms98-a-0033	B.48	198.973625	199.113625		know	know
sw3815B-ms98-a-0033	B.48	199.113625	199.293625		why	why
sw3815B-ms98-a-0033	B.48	199.293625	199.493625		I	i
sw3815B-ms98-a-0033	B.48	199.493625	199.763625		love	love
sw3815B-ms98-a-0033	B.48	199.763625	199.813625		a	a
sw3815B-ms98-a-0033	B.48	199.813625	200.083625		stick	stick
sw3815B-ms98-a-0033	B.48	200.083625	200.363625		shift	shift
sw3815B-ms98-a-0033	B.48	200.363625	200.483625		Why	why
sw3815B-ms98-a-0033	B.48	200.483625	200.553625	<SUB>	d-	do
sw3815B-ms98-a-0033	B.48	200.553625	200.732875	<DEL>	---	you
sw3815B-ms98-a-0033	B.48	200.732875	201.068000		[laughter]	[laughter]
sw3815B-ms98-a-0033	B.48	201.068000	201.213625		why	why
sw3815B-ms98-a-0033	B.48	201.213625	201.403625		did	did
sw3815B-ms98-a-0033	B.48	201.403625	201.493625		you	you
sw3815B-ms98-a-0033	B.48	201.493625	201.793625		want	want
sw3815B-ms98-a-0033	B.48	201.793625	202.086375		one	one
sw3815B-ms98-a-0033	B.50	202.086375	202.357000		[silence]	[silence]
sw3815B-ms98-a-0033	B.50	202.357000	202.519875		[noise]	[noise]
sw3815B-ms98-a-0033	B.50	202.519875	202.584250		[silence]	[silence]
sw3815B-ms98-a-0034	B.50	202.584250	211.515500		[silence]	[silence]
sw3815B-ms98-a-0035	B.50	211.515500	212.026375		[silence]	[silence]
sw3815B-ms98-a-0035	B.50	212.026375	212.351375	<SUB>	Uh-huh	um-hum
sw3815B-ms98-a-0035	B.52	212.351375	213.027875		[silence]	[silence]
sw3815B-ms98-a-0036	B.52	213.027875	213.605375		[silence]	[silence]
sw3815B-ms98-a-0036	B.52	213.605375	213.787875		It's	it's
sw3815B-ms98-a-0036	B.52	213.787875	213.967875		hard	hard
sw3815B-ms98-a-0036	B.52	213.967875	214.037875		to	to
sw3815B-ms98-a-0036	B.52	214.037875	214.377875		find	find
sw3815B-ms98-a-0036	B.52	214.377875	214.637875		stick	stick
sw3815B-ms98-a-0036	B.52	214.637875	214.917875		shift	shift
sw3815B-ms98-a-0036	B.52	214.917875	215.257875		cars	cars
sw3815B-ms98-a-0036	B.52	215.257875	215.753750		anymore	anymore
sw3815B-ms98-a-0036	B.58	215.753750	216.212250		[silence]	[silence]
sw3815B-ms98-a-0037	B.58	216.212250	217.649625		[silence]	[silence]
sw3815B-ms98-a-0038	B.58	217.649625	217.769500		[silence]	[silence]
sw3815B-ms98-a-0038	B.58	217.769500	218.495875		[laughter]	[laughter]
sw3815B-ms98-a-0038	B.58	218.495875	218.975125		[silence]	[silence]
sw3815B-ms98-a-0039	B.58	218.975125	223.938375		[silence]	[silence]
sw3815B-ms98-a-0040	B.58	223.938375	224.437250		[silence]	[silence]
sw3815B-ms98-a-0040	B.58	224.437250	225.901875		[laughter]	[laughter]
sw3815B-ms98-a-0040	B.58	225.901875	226.368750		[silence]	[silence]
sw3815B-ms98-a-0041	B.58	226.368750	228.032000		[silence]	[silence]
sw3815B-ms98-a-0042	B.58	228.032000	228.525500		[silence]	[silence]
sw3815B-ms98-a-0042	B.58	228.525500	228.877375		Huh	huh
sw3815B-ms98-a-0042	B.58	228.877375	229.391500		[silence]	[silence]
sw3815B-ms98-a-0043	B.58	229.391500	229.882375		[silence]	[silence]
sw3815B-ms98-a-0043	B.58	229.882375	230.353750		yeah	yeah
sw3815B-ms98-a-0043	B.60	230.353750	230.825125		[silence]	[silence]
sw3815B-ms98-a-0043	B.60	230.825125	230.961500		No	no
sw3815B-ms98-a-0043	B.60	230.961500	231.011500		I	i
sw3815B-ms98-a-0043	B.60	231.011500	231.261500		mean	mean
sw3815B-ms98-a-0043	B.60	231.261500	231.621500		most	most
sw3815B-ms98-a-0043	B.60	231.621500	231.721500		of	of
sw3815B-ms98-a-0043	B.60	231.721500	231.961500		the	the
sw3815B-ms98-a-0043	B.60	231.961500	232.431500		sports	sports
sw3815B-ms98-a-0043	B.60	232.431500	232.961500		cars	cars
sw3815B-ms98-a-0043	B.60	232.961500	233.191500		are	are
sw3815B-ms98-a-0043	B.60	233.191500	233.501500		stick	stick
sw3815B-ms98-a-0043	B.60	233.501500	234.034000		shift	shift
sw3815B-ms98-a-0043	B.62	234.034000	234.314125		[silence]	[silence]
sw3815B-ms98-a-0044	B.62	234.314125	238.514500		[silence]	[silence]
sw3815B-ms98-a-0045	B.62	238.514500	239.001250		[silence]	[silence]
sw3815B-ms98-a-0045	B.62	239.001250	239.282125		Huh	huh
sw3815B-ms98-a-0045	B.64	239.282125	239.728000		[silence]	[silence]
sw3815B-ms98-a-0046	B.64	239.728000	243.992000		[silence]	[silence]
sw3815B-ms98-a-0047	B.64	243.992000	244.374625		[silence]	[silence]
sw3815B-ms98-a-0047	B.64	244.374625	244.760000		Huh	huh
sw3815B-ms98-a-0047	B.66	244.760000	245.239125		[silence]	[silence]
sw3815B-ms98-a-0048	B.66	245.239125	246.729000		[silence]	[silence]
sw3815B-ms98-a-0049	B.66	246.729000	247.221750		[silence]	[silence]
sw3815B-ms98-a-0049	B.66	247.221750	247.776000	<SUB>	Uh	um
sw3815B-ms98-a-0049	B.66	247.776000	248.359750		[silence]	[silence]
sw3815B-ms98-a-0049	B.66	248.359750	248.499000		I	i
sw3815B-ms98-a-0049	B.66	248.499000	248.789000		guess	guess
sw3815B-ms98-a-0049	B.66	248.789000	249.299000	<SUB>	I	i-
sw3815B-ms98-a-0049	B.66	249.299000	249.598625		I	i
sw3815B-ms98-a-0049	B.66	249.598625	249.959000		grew	grew
sw3815B-ms98-a-0049	B.66	249.959000	250.169000		up	up
sw3815B-ms98-a-0049	B.66	250.169000	250.379000		on	on
sw3815B-ms98-a-0049	B.66	250.379000	250.616125		it	it
sw3815B-ms98-a-0049	B.66	250.616125	250.943125		[silence]	[silence]
sw3815B-ms98-a-0049	B.66	250.943125	251.785750		and	and
sw3815B-ms98-a-0049	B.66	251.785750	252.318000		[silence]	[silence]
sw3815B-ms98-a-0049	B.66	252.318000	252.539000		it's	it's
sw3815B-ms98-a-0049	B.66	252.539000	252.975125		fun	fun
sw3815B-ms98-a-0049	B.66	252.975125	253.366750		[silence]	[silence]
sw3815B-ms98-a-0049	B.66	253.366750	253.699000		It's	it's
sw3815B-ms98-a-0049	B.66	253.699000	254.009000		it's	it's
sw3815B-ms98-a-0049	B.66	254.009000	254.129000		an	an
sw3815B-ms98-a-0049	B.66	254.129000	254.739000		enjoyable	enjoyable
sw3815B-ms98-a-0049	B.66	254.739000	255.009000		part	part
sw3815B-ms98-a-0049	B.66	255.009000	255.089000		of	of
sw3815B-ms98-a-0049	B.66	255.089000	255.794875		driving	driving
sw3815B-ms98-a-0049	B.66	255.794875	256.284500		[silence]	[silence]
sw3815B-ms98-a-0049	B.66	256.284500	256.782250		I	i
sw3815B-ms98-a-0049	B.66	256.782250	257.019500		do	do
sw3815B-ms98-a-0049	B.66	257.019500	257.369000		feel	feel
sw3815B-ms98-a-0049	B.66	257.369000	257.599000		like	like
sw3815B-ms98-a-0049	B.66	257.599000	257.709000		I	i
sw3815B-ms98-a-0049	B.66	257.709000	258.243875		have	have
sw3815B-ms98-a-0049	B.66	258.243875	258.582875		[silence]	[silence]
sw3815B-ms98-a-0049	B.66	258.582875	259.269375		uh	uh
sw3815B-ms98-a-0049	B.66	259.269375	259.510500		[silence]	[silence]
sw3815B-ms98-a-0049	B.66	259.510500	259.829000		more	more
sw3815B-ms98-a-0049	B.66	259.829000	260.734875		control	control
sw3815B-ms98-a-0049	B.68	260.734875	261.031625		[silence]	[silence]
sw3815B-ms98-a-0050	B.68	261.031625	261.392250		[silence]	[silence]
sw3815B-ms98-a-0050	B.68	261.392250	261.591625		over	over
sw3815B-ms98-a-0050	B.68	261.591625	261.671625		the	the
sw3815B-ms98-a-0050	B.68	261.671625	262.274000		car	car
sw3815B-ms98-a-0050	B.68	262.274000	262.713250		[silence]	[silence]
sw3815B-ms98-a-0050	B.68	262.713250	263.695750		and	and
sw3815B-ms98-a-0050	B.68	263.695750	264.293125		[silence]	[silence]
sw3815B-ms98-a-0050	B.68	264.293125	264.511625	<SUB>	it	i[t]-
sw3815B-ms98-a-0050	B.68	264.511625	264.971625		it	it
sw3815B-ms98-a-0050	B.68	264.971625	265.081625		to	to
sw3815B-ms98-a-0050	B.68	265.081625	265.311625		me	me
sw3815B-ms98-a-0050	B.68	265.311625	265.441625		it	it
sw3815B-ms98-a-0050	B.68	265.441625	265.641625		gives	gives
sw3815B-ms98-a-0050	B.68	265.641625	265.711625		me	me
sw3815B-ms98-a-0050	B.68	265.711625	265.931625		more	more
sw3815B-ms98-a-0050	B.68	265.931625	265.971625		a	a
sw3815B-ms98-a-0050	B.68	265.971625	266.171625		lot	lot
sw3815B-ms98-a-0050	B.68	266.171625	266.361625		more	more
sw3815B-ms98-a-0050	B.68	266.361625	266.881625		control	control
sw3815B-ms98-a-0050	B.68	266.881625	266.941625		in	in
sw3815B-ms98-a-0050	B.68	266.941625	267.001625	<DEL>	---	the
sw3815B-ms98-a-0050	B.68	267.001625	267.331625		snow	snow
sw3815B-ms98-a-0050	B.68	267.331625	267.431625		and	and
sw3815B-ms98-a-0050	B.68	267.431625	267.884250		ice	ice
sw3815B-ms98-a-0050	B.70	267.884250	268.174250		[silence]	[silence]
sw3815B-ms98-a-0050	B.70	268.174250	268.331625		and	and
sw3815B-ms98-a-0050	B.70	268.331625	268.661625		slick	slick
sw3815B-ms98-a-0050	B.70	268.661625	269.419625		conditions	conditions
sw3815B-ms98-a-0050	B.72	269.419625	269.649125		[silence]	[silence]
sw3815B-ms98-a-0051	B.72	269.649125	270.139125		[silence]	[silence]
sw3815B-ms98-a-0051	B.72	270.139125	270.758750		Uh	uh
sw3815B-ms98-a-0051	B.72	270.758750	271.274750		[silence]	[silence]
sw3815B-ms98-a-0051	B.72	271.274750	271.521750	<SUB>	it	i[t]-
sw3815B-ms98-a-0051	B.72	271.521750	272.286250		[silence]	[silence]
sw3815B-ms98-a-0051	B.72	272.286250	272.439125		i-	i[t]-
sw3815B-ms98-a-0051	B.72	272.439125	272.769125		it	it
sw3815B-ms98-a-0051	B.72	272.769125	273.449125		does	does
sw3815B-ms98-a-0051	B.72	273.449125	274.022625		uh	uh
sw3815B-ms98-a-0051	B.72	274.022625	274.493500		[silence]	[silence]
sw3815B-ms98-a-0051	B.72	274.493500	274.619125		I	i
sw3815B-ms98-a-0051	B.72	274.619125	274.789125		don't	don't
sw3815B-ms98-a-0051	B.72	274.789125	274.989125		know	know
sw3815B-ms98-a-0051	B.72	274.989125	275.189125		it	it
sw3815B-ms98-a-0051	B.72	275.189125	275.419125		it's	it's
sw3815B-ms98-a-0051	B.72	275.419125	275.689125		really	really
sw3815B-ms98-a-0051	B.72	275.689125	275.979125		more	more
sw3815B-ms98-a-0051	B.72	275.979125	276.379125		fun	fun
sw3815B-ms98-a-0051	B.72	276.379125	276.519125		than	than
sw3815B-ms98-a-0051	B.72	276.519125	276.909125		anything	anything
sw3815B-ms98-a-0051	B.72	276.909125	277.415125		else	else
sw3815B-ms98-a-0051	B.72	277.415125	277.765375		[silence]	[silence]
sw3815B-ms98-a-0051	B.72	277.765375	277.999125		As	as
sw3815B-ms98-a-0051	B.72	277.999125	278.209125		long	long
sw3815B-ms98-a-0051	B.72	278.209125	278.299125		as	as
sw3815B-ms98-a-0051	B.72	278.299125	278.399125		you're	you're
sw3815B-ms98-a-0051	B.72	278.399125	278.609125		not	not
sw3815B-ms98-a-0051	B.72	278.609125	278.939125		stuck	stuck
sw3815B-ms98-a-0051	B.72	278.939125	279.059125		in	in
sw3815B-ms98-a-0051	B.72	279.059125	279.309125		heavy	heavy
sw3815B-ms98-a-0051	B.72	279.309125	279.928000		traffic	traffic
sw3815B-ms98-a-0051	B.72	279.928000	280.218000		[silence]	[silence]
sw3815B-ms98-a-0051	B.72	280.218000	280.379125		it's	it's
sw3815B-ms98-a-0051	B.72	280.379125	280.765125		fun	fun
sw3815B-ms98-a-0051	B.74	280.765125	281.232500		[laughter]	[laughter]
sw3815B-ms98-a-0051	B.74	281.232500	281.285500		[silence]	[silence]
sw3815B-ms98-a-0052	B.74	281.285500	287.007000		[silence]	[silence]
sw3815B-ms98-a-0053	B.74	287.007000	287.510875		[silence]	[silence]
sw3815B-ms98-a-0053	B.74	287.510875	287.780625		Yeah	yeah
sw3815B-ms98-a-0053	B.74	287.780625	288.452875		[silence]	[silence]
sw3815B-ms98-a-0053	B.74	288.452875	288.717000		yeah	yeah
sw3815B-ms98-a-0053	B.76	288.717000	289.413250		[noise]	[noise]
sw3815B-ms98-a-0053	B.76	289.413250	289.809250		[silence]	[silence]
sw3815B-ms98-a-0054	B.76	289.809250	289.963750		[silence]	[silence]
sw3815B-ms98-a-0054	B.76	289.963750	290.254250		[noise]	[noise]
sw3815B-ms98-a-0054	B.76	290.254250	290.702125		Yeah	yeah
sw3815B-ms98-a-0054	B.76	290.702125	291.381875		[noise]	[noise]
sw3815B-ms98-a-0054	B.76	291.381875	291.899250		uh	uh
sw3815B-ms98-a-0054	B.76	291.899250	291.989250		of	of
sw3815B-ms98-a-0054	B.76	291.989250	292.219250		course	course
sw3815B-ms98-a-0054	B.76	292.219250	292.289250		I	i
sw3815B-ms98-a-0054	B.76	292.289250	292.509250		like	like
sw3815B-ms98-a-0054	B.76	292.509250	293.229250		gadgets	gadgets
sw3815B-ms98-a-0054	B.76	293.229250	293.545250		and	and
sw3815B-ms98-a-0054	B.76	293.545250	294.140250		[silence]	[silence]
sw3815B-ms98-a-0054	B.76	294.140250	294.659250		and	and
sw3815B-ms98-a-0054	B.76	294.659250	294.990375		uh	uh
sw3815B-ms98-a-0054	B.76	294.990375	295.370750		[silence]	[silence]
sw3815B-ms98-a-0054	B.76	295.370750	295.719250		fun	fun
sw3815B-ms98-a-0054	B.76	295.719250	296.213625		things	things
sw3815B-ms98-a-0054	B.78	296.213625	296.567375		on	on
sw3815B-ms98-a-0054	B.78	296.567375	296.839250	<DEL>	---	[laughter-on]
sw3815B-ms98-a-0054	B.78	296.839250	296.974250		the	[laughter-the]
sw3815B-ms98-a-0054	B.78	296.974250	297.959250		cars	[laughter-cars]
sw3815B-ms98-a-0054	B.78	297.959250	298.139250		which	which
sw3815B-ms98-a-0054	B.78	298.139250	298.209250		are	are
sw3815B-ms98-a-0054	B.78	298.209250	298.299250		all	all
sw3815B-ms98-a-0054	B.78	298.299250	298.369250		the	the
sw3815B-ms98-a-0054	B.78	298.369250	298.709250		things	things
sw3815B-ms98-a-0054	B.78	298.709250	299.099250		course	course
sw3815B-ms98-a-0054	B.78	299.099250	299.229125		the	the
sw3815B-ms98-a-0054	B.78	299.229125	299.283875		c-	c[ould]-
sw3815B-ms98-a-0054	B.78	299.283875	299.298000		[silence]	[silence]
