sw3965B-ms98-a-0001	B.1	0.000000	0.048250		[silence]	[silence]
sw3965B-ms98-a-0002	B.1	0.048250	0.287250		[silence]	[silence]
sw3965B-ms98-a-0002	B.1	0.287250	1.149875		Okay	okay
sw3965B-ms98-a-0002	B.3	1.149875	1.507000		[silence]	[silence]
sw3965B-ms98-a-0003	B.3	1.507000	2.920625		[silence]	[silence]
sw3965B-ms98-a-0004	B.3	2.920625	3.330625		[silence]	[silence]
sw3965B-ms98-a-0004	B.3	3.330625	3.430625		I	i
sw3965B-ms98-a-0004	B.3	3.430625	4.290625		do	do
sw3965B-ms98-a-0004	B.3	4.290625	4.500625		and	and
sw3965B-ms98-a-0004	B.3	4.500625	4.600625		I	i
sw3965B-ms98-a-0004	B.3	4.600625	4.900625		really	really
sw3965B-ms98-a-0004	B.3	4.900625	5.160625		love	love
sw3965B-ms98-a-0004	B.3	5.160625	5.469625		it	it
sw3965B-ms98-a-0004	B.3	5.469625	6.464375		Um	um
sw3965B-ms98-a-0004	B.5	6.464375	6.650125		[silence]	[silence]
sw3965B-ms98-a-0005	B.5	6.650125	8.707500		[silence]	[silence]
sw3965B-ms98-a-0006	B.5	8.707500	9.261125		[silence]	[silence]
sw3965B-ms98-a-0006	B.5	9.261125	9.837500		Uh-huh	uh-huh
sw3965B-ms98-a-0006	B.5	9.837500	9.867500		I	i
sw3965B-ms98-a-0006	B.5	9.867500	10.047500		do	do
sw3965B-ms98-a-0006	B.5	10.047500	10.197500		it	it
sw3965B-ms98-a-0006	B.5	10.197500	10.357500		for	for
sw3965B-ms98-a-0006	B.5	10.357500	10.387500		a	a
sw3965B-ms98-a-0006	B.5	10.387500	10.997500		hobby	hobby
sw3965B-ms98-a-0006	B.7	10.997500	11.507125		[silence]	[silence]
sw3965B-ms98-a-0007	B.7	11.507125	12.047125		[silence]	[silence]
sw3965B-ms98-a-0007	B.7	12.047125	12.837125		and	and
sw3965B-ms98-a-0007	B.7	12.837125	12.877125		I	i
sw3965B-ms98-a-0007	B.7	12.877125	13.147125		have	have
sw3965B-ms98-a-0007	B.7	13.147125	13.327125		my	my
sw3965B-ms98-a-0007	B.7	13.327125	13.977125		own	own
sw3965B-ms98-a-0007	B.7	13.977125	14.969625		equipment	equipment
sw3965B-ms98-a-0007	B.7	14.969625	15.597125		and	and
sw3965B-ms98-a-0007	B.7	15.597125	15.667125		I	i
sw3965B-ms98-a-0007	B.7	15.667125	15.892375		have	have
sw3965B-ms98-a-0007	B.7	15.892375	16.148375		[silence]	[silence]
sw3965B-ms98-a-0007	B.7	16.148375	16.207125		a	a
sw3965B-ms98-a-0007	B.7	16.207125	16.477125		jig	jig
sw3965B-ms98-a-0007	B.7	16.477125	16.777125		saw	saw
sw3965B-ms98-a-0007	B.7	16.777125	16.987125		and	and
sw3965B-ms98-a-0007	B.7	16.987125	17.087125		a	a
sw3965B-ms98-a-0007	B.7	17.087125	17.407125		scroll	scroll
sw3965B-ms98-a-0007	B.7	17.407125	17.777125		saw	saw
sw3965B-ms98-a-0007	B.7	17.777125	18.117125		and	and
sw3965B-ms98-a-0007	B.7	18.117125	18.796000		[silence]	[silence]
sw3965B-ms98-a-0008	B.7	18.796000	19.264500		[silence]	[silence]
sw3965B-ms98-a-0008	B.7	19.264500	19.516000		uh	uh
sw3965B-ms98-a-0008	B.7	19.516000	19.766000		in	in
sw3965B-ms98-a-0008	B.7	19.766000	19.846000		the	the
sw3965B-ms98-a-0008	B.7	19.846000	20.316000		process	process
sw3965B-ms98-a-0008	B.7	20.316000	20.386000		of	of
sw3965B-ms98-a-0008	B.7	20.386000	20.696000		getting	getting
sw3965B-ms98-a-0008	B.7	20.696000	20.776000		a	a
sw3965B-ms98-a-0008	B.7	20.776000	21.347000		router	router
sw3965B-ms98-a-0008	B.9	21.347000	21.877125		[silence]	[silence]
sw3965B-ms98-a-0009	B.9	21.877125	22.217500		[silence]	[silence]
sw3965B-ms98-a-0009	B.9	22.217500	22.657125		and	and
sw3965B-ms98-a-0009	B.9	22.657125	23.019375		so	so
sw3965B-ms98-a-0009	B.9	23.019375	23.527750		[silence]	[silence]
sw3965B-ms98-a-0009	B.9	23.527750	23.677125		I	i
sw3965B-ms98-a-0009	B.9	23.677125	23.927125		like	like
sw3965B-ms98-a-0009	B.9	23.927125	24.047125		to	to
sw3965B-ms98-a-0009	B.9	24.047125	24.511250		cut	cut
sw3965B-ms98-a-0009	B.9	24.511250	24.997125		out	out
sw3965B-ms98-a-0009	B.9	24.997125	25.361125		my	my
sw3965B-ms98-a-0009	B.9	25.361125	25.590875		[silence]	[silence]
sw3965B-ms98-a-0009	B.9	25.590875	25.827125		wood	wood
sw3965B-ms98-a-0009	B.9	25.827125	26.357125		and	and
sw3965B-ms98-a-0009	B.9	26.357125	26.567125		then	then
sw3965B-ms98-a-0009	B.9	26.567125	26.827125		tole	tole
sw3965B-ms98-a-0009	B.9	26.827125	27.117125		paint	paint
sw3965B-ms98-a-0009	B.9	27.117125	27.327125		on	on
sw3965B-ms98-a-0009	B.9	27.327125	27.674375		the	the
sw3965B-ms98-a-0009	B.9	27.674375	28.017125		items	items
sw3965B-ms98-a-0009	B.9	28.017125	28.157125		that	that
sw3965B-ms98-a-0009	B.9	28.157125	28.197125		I	i
sw3965B-ms98-a-0009	B.9	28.197125	28.567125		cut	cut
sw3965B-ms98-a-0009	B.9	28.567125	28.769875		out	out
sw3965B-ms98-a-0009	B.9	28.769875	29.335125		[silence]	[silence]
sw3965B-ms98-a-0010	B.9	29.335125	29.877875		[silence]	[silence]
sw3965B-ms98-a-0010	B.9	29.877875	30.155125		What	what
sw3965B-ms98-a-0010	B.9	30.155125	30.355125		kind	kind
sw3965B-ms98-a-0010	B.9	30.355125	30.445125		of	of
sw3965B-ms98-a-0010	B.9	30.445125	30.695125		things	things
sw3965B-ms98-a-0010	B.9	30.695125	30.755125		do	do
sw3965B-ms98-a-0010	B.9	30.755125	30.835125		you	you
sw3965B-ms98-a-0010	B.9	30.835125	31.005125		like	like
sw3965B-ms98-a-0010	B.9	31.005125	31.145125		to	to
sw3965B-ms98-a-0010	B.9	31.145125	31.285125		do	do
sw3965B-ms98-a-0010	B.9	31.285125	31.475125		with	with
sw3965B-ms98-a-0010	B.9	31.475125	31.909000		wood	wood
sw3965B-ms98-a-0010	B.11	31.909000	32.670625		[silence]	[silence]
sw3965B-ms98-a-0011	B.11	32.670625	34.722000		[silence]	[silence]
sw3965B-ms98-a-0012	B.11	34.722000	35.311625		[silence]	[silence]
sw3965B-ms98-a-0012	B.11	35.311625	35.757500		Uh-huh	uh-huh
sw3965B-ms98-a-0012	B.13	35.757500	36.280125		[silence]	[silence]
sw3965B-ms98-a-0013	B.13	36.280125	40.767125		[silence]	[silence]
sw3965B-ms98-a-0014	B.13	40.767125	41.150625		[silence]	[silence]
sw3965B-ms98-a-0014	B.13	41.150625	41.812625		Uh-huh	uh-huh
sw3965B-ms98-a-0014	B.15	41.812625	42.293500		[silence]	[silence]
sw3965B-ms98-a-0015	B.15	42.293500	46.081750		[silence]	[silence]
sw3965B-ms98-a-0016	B.15	46.081750	46.590750		[silence]	[silence]
sw3965B-ms98-a-0016	B.15	46.590750	47.085000		Uh-huh	uh-huh
sw3965B-ms98-a-0016	B.17	47.085000	47.579750		[silence]	[silence]
sw3965B-ms98-a-0017	B.17	47.579750	51.433125		[silence]	[silence]
sw3965B-ms98-a-0018	B.17	51.433125	51.761250		[silence]	[silence]
sw3965B-ms98-a-0018	B.17	51.761250	52.655375		Oh	oh
sw3965B-ms98-a-0018	B.19	52.655375	53.166875		[silence]	[silence]
sw3965B-ms98-a-0018	B.19	53.166875	53.802875		Yeah	yeah
sw3965B-ms98-a-0018	B.21	53.802875	54.164750		[silence]	[silence]
sw3965B-ms98-a-0019	B.21	54.164750	56.384375		[silence]	[silence]
sw3965B-ms98-a-0020	B.21	56.384375	56.810000		[silence]	[silence]
sw3965B-ms98-a-0020	B.21	56.810000	57.741875		Oh	oh
sw3965B-ms98-a-0020	B.23	57.741875	58.006125		[silence]	[silence]
sw3965B-ms98-a-0021	B.23	58.006125	58.733750		[silence]	[silence]
sw3965B-ms98-a-0021	B.23	58.733750	59.295250	<SUB>	Uh-huh	um-hum
sw3965B-ms98-a-0021	B.25	59.295250	59.830875		[silence]	[silence]
sw3965B-ms98-a-0022	B.25	59.830875	60.411875		[silence]	[silence]
sw3965B-ms98-a-0022	B.25	60.411875	61.205000	<SUB>	Uh-huh	um-hum
sw3965B-ms98-a-0022	B.27	61.205000	61.578375		[silence]	[silence]
sw3965B-ms98-a-0023	B.27	61.578375	66.928750		[silence]	[silence]
sw3965B-ms98-a-0024	B.27	66.928750	67.468375		[silence]	[silence]
sw3965B-ms98-a-0024	B.27	67.468375	68.160750		Uh-huh	uh-huh
sw3965B-ms98-a-0024	B.29	68.160750	68.630375		[silence]	[silence]
sw3965B-ms98-a-0025	B.29	68.630375	70.626125		[silence]	[silence]
sw3965B-ms98-a-0026	B.29	70.626125	71.027375		[silence]	[silence]
sw3965B-ms98-a-0026	B.29	71.027375	71.774875		Yes	yes
sw3965B-ms98-a-0026	B.31	71.774875	72.256250		[silence]	[silence]
sw3965B-ms98-a-0027	B.31	72.256250	74.088750		[silence]	[silence]
sw3965B-ms98-a-0028	B.31	74.088750	74.448625		[silence]	[silence]
sw3965B-ms98-a-0028	B.31	74.448625	74.708750		Oh	oh
sw3965B-ms98-a-0028	B.31	74.708750	74.888750		that	that
sw3965B-ms98-a-0028	B.31	74.888750	75.068750		is	is
sw3965B-ms98-a-0028	B.31	75.068750	75.830125		fun	fun
sw3965B-ms98-a-0028	B.33	75.830125	76.297500		[silence]	[silence]
sw3965B-ms98-a-0029	B.33	76.297500	78.038000		[silence]	[silence]
sw3965B-ms98-a-0030	B.33	78.038000	78.438000		[silence]	[silence]
sw3965B-ms98-a-0030	B.33	78.438000	78.953250	<SUB>	Uh-huh	um-hum
sw3965B-ms98-a-0030	B.35	78.953250	79.362250		[silence]	[silence]
sw3965B-ms98-a-0031	B.35	79.362250	83.110000		[silence]	[silence]
sw3965B-ms98-a-0032	B.35	83.110000	83.580375		[silence]	[silence]
sw3965B-ms98-a-0032	B.35	83.580375	84.059375		Uh-huh	uh-huh
sw3965B-ms98-a-0032	B.37	84.059375	84.476250		[silence]	[silence]
sw3965B-ms98-a-0033	B.37	84.476250	89.382375		[silence]	[silence]
sw3965B-ms98-a-0034	B.37	89.382375	89.901000		[silence]	[silence]
sw3965B-ms98-a-0034	B.37	89.901000	90.467125		Oh	oh
sw3965B-ms98-a-0034	B.39	90.467125	90.972500		[silence]	[silence]
sw3965B-ms98-a-0035	B.39	90.972500	91.616250		[silence]	[silence]
sw3965B-ms98-a-0035	B.39	91.616250	92.212500		Uh-huh	uh-huh
sw3965B-ms98-a-0035	B.39	92.212500	92.282500		the	the
sw3965B-ms98-a-0035	B.39	92.282500	92.954125		twine	twine
sw3965B-ms98-a-0035	B.41	92.954125	93.485000		[silence]	[silence]
sw3965B-ms98-a-0036	B.41	93.485000	94.123750		[silence]	[silence]
sw3965B-ms98-a-0036	B.41	94.123750	94.675000		Yeah	yeah
sw3965B-ms98-a-0036	B.41	94.675000	94.945000		those	those
sw3965B-ms98-a-0036	B.41	94.945000	95.035000		are	are
sw3965B-ms98-a-0036	B.41	95.035000	95.385000		so	so
sw3965B-ms98-a-0036	B.41	95.385000	95.809250		cute	cute
sw3965B-ms98-a-0036	B.43	95.809250	96.125625		[silence]	[silence]
sw3965B-ms98-a-0037	B.43	96.125625	98.633250		[silence]	[silence]
sw3965B-ms98-a-0038	B.43	98.633250	99.173250		[silence]	[silence]
sw3965B-ms98-a-0038	B.43	99.173250	99.354125		They	they
sw3965B-ms98-a-0038	B.43	99.354125	99.573250		are	are
sw3965B-ms98-a-0038	B.43	99.573250	99.863250		really	really
sw3965B-ms98-a-0038	B.43	99.863250	100.329750		cute	cute
sw3965B-ms98-a-0038	B.45	100.329750	100.709250		[silence]	[silence]
sw3965B-ms98-a-0039	B.45	100.709250	104.412625		[silence]	[silence]
sw3965B-ms98-a-0040	B.45	104.412625	104.657750		[silence]	[silence]
sw3965B-ms98-a-0040	B.45	104.657750	105.870875		[vocalized-noise]	[vocalized-noise]
sw3965B-ms98-a-0040	B.45	105.870875	106.213375		Oh	oh
sw3965B-ms98-a-0040	B.45	106.213375	106.414125		that	that
sw3965B-ms98-a-0040	B.45	106.414125	106.616000		is	is
sw3965B-ms98-a-0040	B.45	106.616000	106.988875		that	that
sw3965B-ms98-a-0040	B.45	106.988875	107.282625		sounds	sounds
sw3965B-ms98-a-0040	B.45	107.282625	107.652625		really	really
sw3965B-ms98-a-0040	B.45	107.652625	107.862625		fun	fun
sw3965B-ms98-a-0040	B.45	107.862625	107.972625	<DEL>	---	i
sw3965B-ms98-a-0040	B.45	107.972625	108.182625	<DEL>	---	love
sw3965B-ms98-a-0040	B.45	108.182625	108.475625	<DEL>	---	those
sw3965B-ms98-a-0040	B.45	108.475625	108.805875		well	well
sw3965B-ms98-a-0040	B.45	108.805875	109.220250		[silence]	[silence]
sw3965B-ms98-a-0040	B.45	109.220250	109.418500		they	they
sw3965B-ms98-a-0040	B.45	109.418500	109.862625		have	have
sw3965B-ms98-a-0040	B.45	109.862625	110.102625		[silence]	[silence]
sw3965B-ms98-a-0040	B.45	110.102625	110.132625		a	a
sw3965B-ms98-a-0040	B.45	110.132625	110.653625		really	really
sw3965B-ms98-a-0040	B.45	110.653625	111.079250		[silence]	[silence]
sw3965B-ms98-a-0040	B.45	111.079250	111.542625		fancy	fancy
sw3965B-ms98-a-0040	B.45	111.542625	112.092625		boutique	boutique
sw3965B-ms98-a-0040	B.45	112.092625	112.262625		out	out
sw3965B-ms98-a-0040	B.45	112.262625	112.482625		here	here
sw3965B-ms98-a-0040	B.45	112.482625	112.672625		in	in
sw3965B-ms98-a-0040	B.45	112.672625	113.122625		Ogden	Ogden
sw3965B-ms98-a-0040	B.45	113.122625	113.702125		Utah	Utah
sw3965B-ms98-a-0040	B.47	113.702125	113.903125		[silence]	[silence]
sw3965B-ms98-a-0041	B.47	113.903125	114.243125		[silence]	[silence]
sw3965B-ms98-a-0041	B.47	114.243125	114.603125		and	and
sw3965B-ms98-a-0041	B.47	114.603125	114.683125		I	i
sw3965B-ms98-a-0041	B.47	114.683125	114.954125		just	just
sw3965B-ms98-a-0041	B.47	114.954125	115.293125		[silence]	[silence]
sw3965B-ms98-a-0041	B.47	115.293125	115.553125		got	got
sw3965B-ms98-a-0041	B.47	115.553125	115.843125		back	back
sw3965B-ms98-a-0041	B.47	115.843125	116.053125		from	from
sw3965B-ms98-a-0041	B.47	116.053125	116.283125		that	that
sw3965B-ms98-a-0041	B.47	116.283125	117.007750		today	today
sw3965B-ms98-a-0041	B.47	117.007750	117.241250		[silence]	[silence]
sw3965B-ms98-a-0041	B.47	117.241250	117.343125		so	so
sw3965B-ms98-a-0041	B.47	117.343125	117.613125		if	if
sw3965B-ms98-a-0041	B.47	117.613125	117.723125		you	you
sw3965B-ms98-a-0041	B.47	117.723125	118.023125		could	could
sw3965B-ms98-a-0041	B.47	118.023125	118.303125		[silence]	[silence]
sw3965B-ms98-a-0041	B.47	118.303125	118.553125		get	get
sw3965B-ms98-a-0041	B.47	118.553125	118.693125		your	your
sw3965B-ms98-a-0041	B.47	118.693125	119.243125		projects	projects
sw3965B-ms98-a-0041	B.47	119.243125	119.523125		into	into
sw3965B-ms98-a-0041	B.47	119.523125	120.253125		boutiques	boutiques
sw3965B-ms98-a-0041	B.47	120.253125	120.423125		oh	oh
sw3965B-ms98-a-0041	B.47	120.423125	120.643125		they	they
sw3965B-ms98-a-0041	B.47	120.643125	120.753125		are	are
sw3965B-ms98-a-0041	B.47	120.753125	121.433125		wonderful	wonderful
sw3965B-ms98-a-0041	B.49	121.433125	122.009250		[silence]	[silence]
sw3965B-ms98-a-0042	B.49	122.009250	122.129250		[silence]	[silence]
sw3965B-ms98-a-0042	B.49	122.129250	122.259250		You	you
sw3965B-ms98-a-0042	B.49	122.259250	122.439250		could	could
sw3965B-ms98-a-0042	B.49	122.439250	122.719250		make	make
sw3965B-ms98-a-0042	B.49	122.719250	122.749250		a	a
sw3965B-ms98-a-0042	B.49	122.749250	123.009250		lot	lot
sw3965B-ms98-a-0042	B.49	123.009250	123.119250		of	of
sw3965B-ms98-a-0042	B.49	123.119250	123.545375		money	money
sw3965B-ms98-a-0042	B.49	123.545375	123.819250		from	from
sw3965B-ms98-a-0042	B.49	123.819250	124.251250		those	those
sw3965B-ms98-a-0042	B.51	124.251250	124.526625		[silence]	[silence]
sw3965B-ms98-a-0043	B.51	124.526625	131.123375		[silence]	[silence]
sw3965B-ms98-a-0044	B.51	131.123375	131.706625		[silence]	[silence]
sw3965B-ms98-a-0044	B.51	131.706625	132.133375		Uh	uh
sw3965B-ms98-a-0044	B.51	132.133375	132.663375		apparently	apparently
sw3965B-ms98-a-0044	B.51	132.663375	132.873375	<SUB>	like	with
sw3965B-ms98-a-0044	B.51	132.873375	133.133375		that	that
sw3965B-ms98-a-0044	B.51	133.133375	133.846500		boutique	boutique
sw3965B-ms98-a-0044	B.51	133.846500	134.166875		[silence]	[silence]
sw3965B-ms98-a-0044	B.51	134.166875	134.813375		um	um
sw3965B-ms98-a-0044	B.51	134.813375	134.973375		they	they
sw3965B-ms98-a-0044	B.51	134.973375	135.454750		take	take
sw3965B-ms98-a-0044	B.51	135.454750	136.076250		[silence]	[silence]
sw3965B-ms98-a-0044	B.51	136.076250	136.273375		oh	oh
sw3965B-ms98-a-0044	B.51	136.273375	136.533375		what	what
sw3965B-ms98-a-0044	B.51	136.533375	136.780000		was	was
sw3965B-ms98-a-0044	B.51	136.780000	136.978750		it	it
sw3965B-ms98-a-0044	B.51	136.978750	137.408625		[silence]	[silence]
sw3965B-ms98-a-0045	B.51	137.408625	138.494500		[silence]	[silence]
sw3965B-ms98-a-0046	B.51	138.494500	138.784500		[silence]	[silence]
sw3965B-ms98-a-0046	B.51	138.784500	139.184500		twenty	twenty
sw3965B-ms98-a-0046	B.51	139.184500	139.942875		percent	percent
sw3965B-ms98-a-0046	B.51	139.942875	140.297000		[silence]	[silence]
sw3965B-ms98-a-0046	B.51	140.297000	140.678250		of	of
sw3965B-ms98-a-0046	B.51	140.678250	141.017250		[silence]	[silence]
sw3965B-ms98-a-0046	B.51	141.017250	141.194500		the	the
sw3965B-ms98-a-0046	B.51	141.194500	141.874500		sell	sell
sw3965B-ms98-a-0046	B.51	141.874500	142.533000		price	price
sw3965B-ms98-a-0046	B.53	142.533000	142.751500		[silence]	[silence]
sw3965B-ms98-a-0046	B.53	142.751500	143.014500		You	you
sw3965B-ms98-a-0046	B.53	143.014500	143.184500		would	would
sw3965B-ms98-a-0046	B.53	143.184500	143.464500		put	put
sw3965B-ms98-a-0046	B.53	143.464500	143.644500		your	your
sw3965B-ms98-a-0046	B.53	143.644500	143.944500		sell	sell
sw3965B-ms98-a-0046	B.53	143.944500	144.544500		price	price
sw3965B-ms98-a-0046	B.55	144.544500	144.734875		[silence]	[silence]
sw3965B-ms98-a-0047	B.55	144.734875	145.379750		[silence]	[silence]
sw3965B-ms98-a-0047	B.55	145.379750	146.084375		uh	uh
sw3965B-ms98-a-0047	B.55	146.084375	146.354875		and	and
sw3965B-ms98-a-0047	B.55	146.354875	146.688750		then	then
sw3965B-ms98-a-0047	B.55	146.688750	146.937250		[silence]	[silence]
sw3965B-ms98-a-0047	B.55	146.937250	147.164875		they	they
sw3965B-ms98-a-0047	B.55	147.164875	147.334875		would	would
sw3965B-ms98-a-0047	B.55	147.334875	147.604875		take	take
sw3965B-ms98-a-0047	B.55	147.604875	147.824875		twenty	twenty
sw3965B-ms98-a-0047	B.55	147.824875	148.214875		percent	percent
sw3965B-ms98-a-0047	B.55	148.214875	148.424875		off	off
sw3965B-ms98-a-0047	B.55	148.424875	148.614875		of	of
sw3965B-ms98-a-0047	B.55	148.614875	149.151750		that	that
sw3965B-ms98-a-0047	B.57	149.151750	149.521000		[silence]	[silence]
sw3965B-ms98-a-0048	B.57	149.521000	149.975000		[silence]	[silence]
sw3965B-ms98-a-0048	B.57	149.975000	150.191000		at	at
sw3965B-ms98-a-0048	B.57	150.191000	150.261000		the	the
sw3965B-ms98-a-0048	B.57	150.261000	151.086000		counter	counter
sw3965B-ms98-a-0048	B.59	151.086000	151.466500		[silence]	[silence]
sw3965B-ms98-a-0048	B.59	151.466500	151.681000		And	and
sw3965B-ms98-a-0048	B.59	151.681000	151.861000		so	so
sw3965B-ms98-a-0048	B.59	151.861000	152.011000	<DEL>	---	and
sw3965B-ms98-a-0048	B.59	152.011000	152.400375		then	then
sw3965B-ms98-a-0048	B.59	152.400375	152.601000		at	at
sw3965B-ms98-a-0048	B.59	152.601000	152.720375		the	the
sw3965B-ms98-a-0048	B.59	152.720375	152.941000		end	end
sw3965B-ms98-a-0048	B.59	152.941000	153.071000		of	of
sw3965B-ms98-a-0048	B.59	153.071000	153.151000		the	the
sw3965B-ms98-a-0048	B.59	153.151000	153.721000		boutique	boutique
sw3965B-ms98-a-0048	B.59	153.721000	153.891000		which	which
sw3965B-ms98-a-0048	B.59	153.891000	154.221000		usually	usually
sw3965B-ms98-a-0048	B.59	154.221000	154.411000		runs	runs
sw3965B-ms98-a-0048	B.59	154.411000	154.521000		for	for
sw3965B-ms98-a-0048	B.59	154.521000	154.581000		a	a
sw3965B-ms98-a-0048	B.59	154.581000	154.951000		week	week
sw3965B-ms98-a-0048	B.59	154.951000	155.331125		[silence]	[silence]
sw3965B-ms98-a-0049	B.59	155.331125	155.441125		[silence]	[silence]
sw3965B-ms98-a-0049	B.59	155.441125	155.621125		then	then
sw3965B-ms98-a-0049	B.59	155.621125	155.771125		they	they
sw3965B-ms98-a-0049	B.59	155.771125	156.067250		give	give
sw3965B-ms98-a-0049	B.59	156.067250	156.509875		you	you
sw3965B-ms98-a-0049	B.59	156.509875	156.897750		[silence]	[silence]
sw3965B-ms98-a-0049	B.59	156.897750	157.198375		what	what
sw3965B-ms98-a-0049	B.59	157.198375	157.665375		[silence]	[silence]
sw3965B-ms98-a-0049	B.59	157.665375	157.801125		you	you
sw3965B-ms98-a-0049	B.59	157.801125	158.245625		earned	earned
sw3965B-ms98-a-0049	B.61	158.245625	159.213875		[laughter]	[laughter]
sw3965B-ms98-a-0049	B.61	159.213875	159.765375		[silence]	[silence]
sw3965B-ms98-a-0050	B.61	159.765375	159.925375		[silence]	[silence]
sw3965B-ms98-a-0050	B.61	159.925375	160.315375		So	so
sw3965B-ms98-a-0050	B.61	160.315375	160.605375		you	you
sw3965B-ms98-a-0050	B.61	160.605375	160.775375		have	have
sw3965B-ms98-a-0050	B.61	160.775375	160.915375		to	to
sw3965B-ms98-a-0050	B.61	160.915375	161.395375		decide	decide
sw3965B-ms98-a-0050	B.61	161.395375	161.525375		what	what
sw3965B-ms98-a-0050	B.61	161.525375	161.625375		your	your
sw3965B-ms98-a-0050	B.61	161.625375	162.035375		price	price
sw3965B-ms98-a-0050	B.61	162.035375	162.205375		is	is
sw3965B-ms98-a-0050	B.61	162.205375	162.465375		going	going
sw3965B-ms98-a-0050	B.61	162.465375	163.210875		to	to
sw3965B-ms98-a-0050	B.61	163.210875	163.210875		[silence]	[silence]
sw3965B-ms98-a-0050	B.61	163.210875	163.210875		be	be
sw3965B-ms98-a-0050	B.63	163.210875	163.975375		[silence]	[silence]
sw3965B-ms98-a-0050	B.63	163.975375	164.125375		and	and
sw3965B-ms98-a-0050	B.63	164.125375	164.485375		then	then
sw3965B-ms98-a-0050	B.63	164.485375	165.072875		[silence]	[silence]
sw3965B-ms98-a-0051	B.63	165.072875	165.610375		[silence]	[silence]
sw3965B-ms98-a-0051	B.63	165.610375	165.858125		up	up
sw3965B-ms98-a-0051	B.63	165.858125	166.234875		it	it
sw3965B-ms98-a-0051	B.63	166.234875	166.552875		twenty	twenty
sw3965B-ms98-a-0051	B.63	166.552875	167.082875		percent	percent
sw3965B-ms98-a-0051	B.63	167.082875	167.172875		so	so
sw3965B-ms98-a-0051	B.63	167.172875	167.322875		you	you
sw3965B-ms98-a-0051	B.63	167.322875	167.522875		can	can
sw3965B-ms98-a-0051	B.63	167.522875	167.774750		get	get
sw3965B-ms98-a-0051	B.63	167.774750	168.226750		[vocalized-noise]	[vocalized-noise]
sw3965B-ms98-a-0051	B.63	168.226750	168.492875		what	what
sw3965B-ms98-a-0051	B.63	168.492875	168.622875		you	you
sw3965B-ms98-a-0051	B.63	168.622875	168.952875		need	need
sw3965B-ms98-a-0051	B.63	168.952875	169.092875		out	out
sw3965B-ms98-a-0051	B.63	169.092875	169.232875		of	of
sw3965B-ms98-a-0051	B.63	169.232875	169.546250		it	it
sw3965B-ms98-a-0051	B.65	169.546250	169.893250		[silence]	[silence]
sw3965B-ms98-a-0052	B.65	169.893250	170.293250		[silence]	[silence]
sw3965B-ms98-a-0052	B.65	170.293250	170.483250		So	so
sw3965B-ms98-a-0052	B.65	170.483250	170.613250		if	if
sw3965B-ms98-a-0052	B.65	170.613250	170.673250		the	the
sw3965B-ms98-a-0052	B.65	170.673250	171.183750		customers	customers
sw3965B-ms98-a-0052	B.65	171.183750	171.313250		are	are
sw3965B-ms98-a-0052	B.65	171.313250	171.593250		willing	willing
sw3965B-ms98-a-0052	B.65	171.593250	171.663250		to	to
sw3965B-ms98-a-0052	B.65	171.663250	171.783250		pay	pay
sw3965B-ms98-a-0052	B.65	171.783250	172.163250		it	it
sw3965B-ms98-a-0052	B.65	172.163250	172.363250		then	then
sw3965B-ms98-a-0052	B.65	172.363250	172.473250		you	you
sw3965B-ms98-a-0052	B.65	172.473250	172.703250		get	get
sw3965B-ms98-a-0052	B.65	172.703250	172.743250		a	a
sw3965B-ms98-a-0052	B.65	172.743250	173.366375		profit	profit
sw3965B-ms98-a-0052	B.67	173.366375	173.729625		[silence]	[silence]
sw3965B-ms98-a-0053	B.67	173.729625	175.980250		[silence]	[silence]
sw3965B-ms98-a-0054	B.67	175.980250	176.500250		[silence]	[silence]
sw3965B-ms98-a-0054	B.67	176.500250	176.713125		They	they
sw3965B-ms98-a-0054	B.67	176.713125	177.313625		are	are
sw3965B-ms98-a-0054	B.69	177.313625	177.541625	<SUB>	I	i-
sw3965B-ms98-a-0054	B.69	177.541625	177.835375		[silence]	[silence]
sw3965B-ms98-a-0054	B.69	177.835375	177.930250		I	i
sw3965B-ms98-a-0054	B.69	177.930250	178.260250		have	have
sw3965B-ms98-a-0054	B.69	178.260250	178.480250		seen	seen
sw3965B-ms98-a-0054	B.69	178.480250	178.730250		those	those
sw3965B-ms98-a-0054	B.69	178.730250	178.890250		Those	those
sw3965B-ms98-a-0054	B.69	178.890250	179.574750		are	are
sw3965B-ms98-a-0054	B.69	179.574750	179.574750		[silence]	[silence]
sw3965B-ms98-a-0054	B.69	179.574750	179.574750		darling	darling
sw3965B-ms98-a-0054	B.71	179.574750	179.970000		[silence]	[silence]
sw3965B-ms98-a-0055	B.71	179.970000	183.263750		[silence]	[silence]
sw3965B-ms98-a-0056	B.71	183.263750	183.733750		[silence]	[silence]
sw3965B-ms98-a-0056	B.71	183.733750	184.109625	<SUB>	Uh-huh	um-hum
sw3965B-ms98-a-0056	B.73	184.109625	184.561875		[silence]	[silence]
sw3965B-ms98-a-0057	B.73	184.561875	189.721000		[silence]	[silence]
sw3965B-ms98-a-0058	B.73	189.721000	190.182375		[silence]	[silence]
sw3965B-ms98-a-0058	B.73	190.182375	190.617875	<DEL>	---	oh
sw3965B-ms98-a-0058	B.73	190.617875	190.781625		[silence]	[silence]
sw3965B-ms98-a-0059	B.73	190.781625	190.995000		[silence]	[silence]
sw3965B-ms98-a-0059	B.73	190.995000	191.735500		Oh	oh
sw3965B-ms98-a-0059	B.75	191.735500	191.946375		[silence]	[silence]
sw3965B-ms98-a-0060	B.75	191.946375	192.964625		[silence]	[silence]
sw3965B-ms98-a-0061	B.75	192.964625	193.251125		[silence]	[silence]
sw3965B-ms98-a-0061	B.75	193.251125	194.299875		Oh	oh
sw3965B-ms98-a-0061	B.75	194.299875	194.564500		[silence]	[silence]
sw3965B-ms98-a-0062	B.75	194.564500	195.034500		[silence]	[silence]
sw3965B-ms98-a-0062	B.75	195.034500	195.314500		that's	that's
sw3965B-ms98-a-0062	B.75	195.314500	195.414500		what	what
sw3965B-ms98-a-0062	B.75	195.414500	195.534500		I	i
sw3965B-ms98-a-0062	B.75	195.534500	195.824500		want	want
sw3965B-ms98-a-0062	B.75	195.824500	195.974500		is	is
sw3965B-ms98-a-0062	B.75	195.974500	196.084500		a	a
sw3965B-ms98-a-0062	B.75	196.084500	196.444500		Shop	Shop
sw3965B-ms98-a-0062	B.75	196.444500	196.824500		Smith	Smith
sw3965B-ms98-a-0062	B.77	196.824500	197.594500		[laughter]	[laughter]
sw3965B-ms98-a-0062	B.77	197.594500	197.874500		That's	that's
sw3965B-ms98-a-0062	B.77	197.874500	198.134500		my	my
sw3965B-ms98-a-0062	B.77	198.134500	198.614500	<SUB>	ul-	ultimate
sw3965B-ms98-a-0062	B.79	198.614500	199.265625		[laughter]	[laughter]
sw3965B-ms98-a-0062	B.79	199.265625	199.530250		[silence]	[silence]
sw3965B-ms98-a-0063	B.79	199.530250	199.971625		[silence]	[silence]
sw3965B-ms98-a-0063	B.79	199.971625	200.340250		Oh	oh
sw3965B-ms98-a-0063	B.79	200.340250	200.680250		does	does
sw3965B-ms98-a-0063	B.79	200.680250	201.080250		he	he
sw3965B-ms98-a-0063	B.79	201.080250	201.160250		Oh	oh
sw3965B-ms98-a-0063	B.79	201.160250	201.580250		that's	that's
sw3965B-ms98-a-0063	B.79	201.580250	201.770250		my	my
sw3965B-ms98-a-0063	B.79	201.770250	202.270250		ultimate	ultimate
sw3965B-ms98-a-0063	B.79	202.270250	202.710250		dream	dream
sw3965B-ms98-a-0063	B.81	202.710250	204.610250		[laughter]	[laughter]
sw3965B-ms98-a-0063	B.81	204.610250	204.950250		Oh	oh
sw3965B-ms98-a-0063	B.81	204.950250	205.300250		you're	you're
sw3965B-ms98-a-0063	B.81	205.300250	206.164125		lucky	lucky
sw3965B-ms98-a-0063	B.83	206.164125	206.622125		[silence]	[silence]
sw3965B-ms98-a-0064	B.83	206.622125	208.995875		[silence]	[silence]
sw3965B-ms98-a-0065	B.83	208.995875	209.457500		[silence]	[silence]
sw3965B-ms98-a-0065	B.83	209.457500	209.970875	<SUB>	Uh-huh	um-hum
sw3965B-ms98-a-0065	B.87	209.970875	210.283000		[silence]	[silence]
sw3965B-ms98-a-0066	B.87	210.283000	210.605750		[silence]	[silence]
sw3965B-ms98-a-0066	B.87	210.605750	211.773000		[noise]	[noise]
sw3965B-ms98-a-0066	B.87	211.773000	211.818500		[silence]	[silence]
sw3965B-ms98-a-0067	B.87	211.818500	212.858875		[silence]	[silence]
sw3965B-ms98-a-0068	B.87	212.858875	213.269375		[silence]	[silence]
sw3965B-ms98-a-0068	B.87	213.269375	213.428875	<DEL>	---	oh
sw3965B-ms98-a-0068	B.87	213.428875	213.830250	<DEL>	---	yeah
sw3965B-ms98-a-0068	B.87	213.830250	214.299250		[silence]	[silence]
sw3965B-ms98-a-0069	B.87	214.299250	214.822375		[silence]	[silence]
sw3965B-ms98-a-0069	B.87	214.822375	215.648875	<DEL>	---	oh
sw3965B-ms98-a-0069	B.87	215.648875	215.985125		[silence]	[silence]
sw3965B-ms98-a-0070	B.87	215.985125	217.546125		[silence]	[silence]
sw3965B-ms98-a-0071	B.87	217.546125	218.023375		[silence]	[silence]
sw3965B-ms98-a-0071	B.87	218.023375	218.796125	<DEL>	---	oh
sw3965B-ms98-a-0071	B.87	218.796125	219.276250		Uh-huh	uh-huh
sw3965B-ms98-a-0071	B.89	219.276250	219.634375		[silence]	[silence]
sw3965B-ms98-a-0072	B.89	219.634375	221.495250		[silence]	[silence]
sw3965B-ms98-a-0073	B.89	221.495250	221.968875		[silence]	[silence]
sw3965B-ms98-a-0073	B.89	221.968875	222.649375		Oh	oh
sw3965B-ms98-a-0073	B.91	222.649375	222.998500		[silence]	[silence]
sw3965B-ms98-a-0074	B.91	222.998500	224.630000		[silence]	[silence]
sw3965B-ms98-a-0075	B.91	224.630000	225.176875		[silence]	[silence]
sw3965B-ms98-a-0075	B.91	225.176875	225.460000		How	how
sw3965B-ms98-a-0075	B.91	225.460000	225.983875		fun	fun
sw3965B-ms98-a-0075	B.95	225.983875	226.433125		[silence]	[silence]
sw3965B-ms98-a-0076	B.95	226.433125	226.653125		[silence]	[silence]
sw3965B-ms98-a-0076	B.95	226.653125	228.063125		[noise]	[noise]
sw3965B-ms98-a-0076	B.95	228.063125	228.335625		[silence]	[silence]
sw3965B-ms98-a-0077	B.95	228.335625	229.776250		[silence]	[silence]
sw3965B-ms98-a-0078	B.95	229.776250	230.255875		[silence]	[silence]
sw3965B-ms98-a-0078	B.95	230.255875	230.686250		Oh	oh
sw3965B-ms98-a-0078	B.95	230.686250	230.866250		how	how
sw3965B-ms98-a-0078	B.95	230.866250	231.446250		nice	nice
sw3965B-ms98-a-0078	B.95	231.446250	231.926250		[laughter]	[laughter]
sw3965B-ms98-a-0078	B.95	231.926250	232.126250		I'm	i'm
sw3965B-ms98-a-0078	B.95	232.126250	232.496250		jealous	jealous
sw3965B-ms98-a-0078	B.97	232.496250	232.995000		[laughter]	[laughter]
sw3965B-ms98-a-0078	B.97	232.995000	233.094750		[silence]	[silence]
sw3965B-ms98-a-0079	B.97	233.094750	233.122875		[silence]	[silence]
sw3965B-ms98-a-0079	B.97	233.122875	233.245875		[noise]	[noise]
sw3965B-ms98-a-0079	B.97	233.245875	233.590125		[silence]	[silence]
sw3965B-ms98-a-0079	B.97	233.590125	233.793875		[noise]	[noise]
sw3965B-ms98-a-0079	B.97	233.793875	234.027500		[silence]	[silence]
sw3965B-ms98-a-0080	B.97	234.027500	234.527500		[silence]	[silence]
sw3965B-ms98-a-0080	B.97	234.527500	235.238500		Yes	yes
sw3965B-ms98-a-0080	B.99	235.238500	235.536625		[silence]	[silence]
sw3965B-ms98-a-0081	B.99	235.536625	238.720250		[silence]	[silence]
sw3965B-ms98-a-0082	B.99	238.720250	239.182125		[silence]	[silence]
sw3965B-ms98-a-0082	B.99	239.182125	239.900250	<SUB>	Uh-huh	um-hum
sw3965B-ms98-a-0082	B.101	239.900250	240.310125		[silence]	[silence]
sw3965B-ms98-a-0083	B.101	240.310125	246.118875		[silence]	[silence]
sw3965B-ms98-a-0084	B.101	246.118875	246.621875		[silence]	[silence]
sw3965B-ms98-a-0084	B.101	246.621875	247.058875		Uh-huh	uh-huh
sw3965B-ms98-a-0084	B.101	247.058875	248.808875		[laughter]	[laughter]
sw3965B-ms98-a-0084	B.101	248.808875	249.422750		Oh	oh
sw3965B-ms98-a-0084	B.103	249.422750	249.920500		[silence]	[silence]
sw3965B-ms98-a-0085	B.103	249.920500	254.983375		[silence]	[silence]
sw3965B-ms98-a-0086	B.103	254.983375	255.488375		[silence]	[silence]
sw3965B-ms98-a-0086	B.103	255.488375	256.147500		Uh-huh	uh-huh
sw3965B-ms98-a-0086	B.105	256.147500	256.418125		[silence]	[silence]
sw3965B-ms98-a-0087	B.105	256.418125	257.503625		[silence]	[silence]
sw3965B-ms98-a-0088	B.105	257.503625	257.939125		[silence]	[silence]
sw3965B-ms98-a-0088	B.105	257.939125	258.484625	<SUB>	No	oh
sw3965B-ms98-a-0088	B.107	258.484625	259.161500		[silence]	[silence]
sw3965B-ms98-a-0089	B.107	259.161500	259.939375		[silence]	[silence]
sw3965B-ms98-a-0089	B.107	259.939375	260.481875		Uh-huh	uh-huh
sw3965B-ms98-a-0089	B.109	260.481875	260.984375		[silence]	[silence]
sw3965B-ms98-a-0090	B.109	260.984375	261.384375		[silence]	[silence]
sw3965B-ms98-a-0090	B.109	261.384375	261.731375		Well	well
sw3965B-ms98-a-0090	B.109	261.731375	262.044375		how	how
sw3965B-ms98-a-0090	B.109	262.044375	262.284375		is	is
sw3965B-ms98-a-0090	B.109	262.284375	262.384375		the	the
sw3965B-ms98-a-0090	B.109	262.384375	262.964375		market	market
sw3965B-ms98-a-0090	B.109	262.964375	263.204375		for	for
sw3965B-ms98-a-0090	B.109	263.204375	263.484375		things	things
sw3965B-ms98-a-0090	B.109	263.484375	263.664375		like	like
sw3965B-ms98-a-0090	B.109	263.664375	263.814375		that	that
sw3965B-ms98-a-0090	B.109	263.814375	263.944375		in	in
sw3965B-ms98-a-0090	B.109	263.944375	264.757875		California	California
sw3965B-ms98-a-0090	B.111	264.757875	264.984625		[silence]	[silence]
sw3965B-ms98-a-0091	B.111	264.984625	265.089125		[silence]	[silence]
sw3965B-ms98-a-0091	B.111	265.089125	265.577750		[vocalized-noise]	[vocalized-noise]
sw3965B-ms98-a-0091	B.111	265.577750	266.052000		[silence]	[silence]
sw3965B-ms98-a-0092	B.111	266.052000	267.083500		[silence]	[silence]
sw3965B-ms98-a-0093	B.111	267.083500	267.513500		[silence]	[silence]
sw3965B-ms98-a-0093	B.111	267.513500	268.109875		Uh-huh	uh-huh
sw3965B-ms98-a-0093	B.113	268.109875	268.409000		[silence]	[silence]
sw3965B-ms98-a-0094	B.113	268.409000	269.801000		[silence]	[silence]
sw3965B-ms98-a-0095	B.113	269.801000	270.231000		[silence]	[silence]
sw3965B-ms98-a-0095	B.113	270.231000	270.673250		Uh-huh	uh-huh
sw3965B-ms98-a-0095	B.115	270.673250	271.120625		[silence]	[silence]
sw3965B-ms98-a-0096	B.115	271.120625	271.610625		[silence]	[silence]
sw3965B-ms98-a-0096	B.115	271.610625	272.098625		Uh-huh	uh-huh
sw3965B-ms98-a-0096	B.117	272.098625	272.473625		[silence]	[silence]
sw3965B-ms98-a-0097	B.117	272.473625	275.156375		[silence]	[silence]
sw3965B-ms98-a-0098	B.117	275.156375	275.628125		[silence]	[silence]
sw3965B-ms98-a-0098	B.117	275.628125	276.234500		Oh	oh
sw3965B-ms98-a-0098	B.119	276.234500	276.593750		[silence]	[silence]
sw3965B-ms98-a-0099	B.119	276.593750	278.060250		[silence]	[silence]
sw3965B-ms98-a-0100	B.119	278.060250	278.170250		[silence]	[silence]
sw3965B-ms98-a-0100	B.119	278.170250	278.665625	<DEL>	---	hum-um
sw3965B-ms98-a-0100	B.119	278.665625	278.994625		[silence]	[silence]
sw3965B-ms98-a-0101	B.119	278.994625	280.005625		[silence]	[silence]
sw3965B-ms98-a-0102	B.119	280.005625	280.376250		[silence]	[silence]
sw3965B-ms98-a-0102	B.119	280.376250	280.615625		They	they
sw3965B-ms98-a-0102	B.119	280.615625	280.865625		just	just
sw3965B-ms98-a-0102	B.119	280.865625	281.205625		snap	snap
sw3965B-ms98-a-0102	B.119	281.205625	281.375625		it	it
sw3965B-ms98-a-0102	B.119	281.375625	281.585625		right	right
sw3965B-ms98-a-0102	B.119	281.585625	281.925625		up	up
sw3965B-ms98-a-0102	B.119	281.925625	282.445625		huh	huh
sw3965B-ms98-a-0102	B.121	282.445625	282.846500		[silence]	[silence]
sw3965B-ms98-a-0103	B.121	282.846500	283.416375		[silence]	[silence]
sw3965B-ms98-a-0103	B.121	283.416375	284.143500		Oh	oh
sw3965B-ms98-a-0103	B.123	284.143500	284.693375		[silence]	[silence]
sw3965B-ms98-a-0104	B.123	284.693375	294.178500		[silence]	[silence]
sw3965B-ms98-a-0105	B.123	294.178500	294.619250		[silence]	[silence]
sw3965B-ms98-a-0105	B.123	294.619250	295.091625	<SUB>	Uh-huh	um-hum
sw3965B-ms98-a-0105	B.125	295.091625	295.515500		[silence]	[silence]
sw3965B-ms98-a-0106	B.125	295.515500	296.884125		[silence]	[silence]
sw3965B-ms98-a-0107	B.125	296.884125	297.341500		[silence]	[silence]
sw3965B-ms98-a-0107	B.125	297.341500	298.481750		Oh	oh
sw3965B-ms98-a-0107	B.125	298.481750	298.754000		[silence]	[silence]
