sw3983B-ms98-a-0001	@B.2	0.000000	0.001000		[silence]	[silence]
sw3983B-ms98-a-0001	@B.2	0.001000	0.009875		[noise]	[noise]
sw3983B-ms98-a-0001	@B.2	0.009875	0.524125		[silence]	[silence]
sw3983B-ms98-a-0002	@B.2	0.524125	6.048000		[silence]	[silence]
sw3983B-ms98-a-0003	@B.2	6.048000	6.333125		[silence]	[silence]
sw3983B-ms98-a-0003	@B.2	6.333125	6.458000		We	we
sw3983B-ms98-a-0003	@B.2	6.458000	6.668000		take	take
sw3983B-ms98-a-0003	@B.2	6.668000	7.255375		several	several
sw3983B-ms98-a-0003	@B.2	7.255375	7.718625		[silence]	[silence]
sw3983B-ms98-a-0003	@B.2	7.718625	7.858000		at	at
sw3983B-ms98-a-0003	@B.2	7.858000	8.261500		home	home
sw3983B-ms98-a-0003	@B.2	8.261500	8.441625	<SUB>	I	i-
sw3983B-ms98-a-0003	@B.2	8.441625	8.622375		[silence]	[silence]
sw3983B-ms98-a-0003	@B.2	8.622375	8.836125		I	i
sw3983B-ms98-a-0003	@B.2	8.836125	9.208000		take	take
sw3983B-ms98-a-0003	@B.2	9.208000	9.628000		um	um
sw3983B-ms98-a-0003	@B.2	9.628000	10.138000		SKIING	Skiing
sw3983B-ms98-a-0003	@B.2	10.138000	11.078000		MAGAZINE	Magazine
sw3983B-ms98-a-0003	@B.2	11.078000	11.318000		and	and
sw3983B-ms98-a-0003	@B.2	11.318000	11.368000		I	i
sw3983B-ms98-a-0003	@B.2	11.368000	11.818000		take	take
sw3983B-ms98-a-0003	@B.2	11.818000	12.088000		uh	uh
sw3983B-ms98-a-0003	@B.2	12.088000	13.070000		DISCOVER	Discover
sw3983B-ms98-a-0003	@B.2	13.070000	13.293375		[silence]	[silence]
sw3983B-ms98-a-0003	@B.2	13.293375	14.048000		magazine	Magazine
sw3983B-ms98-a-0003	@B.2	14.048000	14.188000		and	and
sw3983B-ms98-a-0003	@B.2	14.188000	14.758000		also	also
sw3983B-ms98-a-0003	@B.2	14.758000	15.015000		uh	uh
sw3983B-ms98-a-0003	@B.2	15.015000	15.580000		[silence]	[silence]
sw3983B-ms98-a-0003	@B.2	15.580000	16.138000	<CONT>	C	CD
sw3983B-ms98-a-0003	@B.2	16.138000	16.138000	<CONT>	D	+++
sw3983B-ms98-a-0003	@B.2	16.138000	16.348000		AND	and
sw3983B-ms98-a-0003	@B.2	16.348000	17.108000		STEREO	Stereo
sw3983B-ms98-a-0003	@B.2	17.108000	17.767375		REVIEW	Review
sw3983B-ms98-a-0003	B.4	17.767375	18.130000		[silence]	[silence]
sw3983B-ms98-a-0004	B.4	18.130000	19.148125		[silence]	[silence]
sw3983B-ms98-a-0005	B.4	19.148125	19.429375		[silence]	[silence]
sw3983B-ms98-a-0005	B.4	19.429375	19.648125		and	and
sw3983B-ms98-a-0005	B.4	19.648125	20.048125		NATIONAL	National
sw3983B-ms98-a-0005	B.4	20.048125	20.808125		GEOGRAPHIC	Geographic
sw3983B-ms98-a-0005	B.4	20.808125	20.913000		I	i
sw3983B-ms98-a-0005	B.4	20.913000	21.121000		think	think
sw3983B-ms98-a-0005	B.6	21.121000	21.360625		[silence]	[silence]
sw3983B-ms98-a-0006	B.6	21.360625	21.593625		[silence]	[silence]
sw3983B-ms98-a-0006	B.6	21.593625	21.870625		and	and
sw3983B-ms98-a-0006	B.6	21.870625	22.240625		BOYS	Boys
sw3983B-ms98-a-0006	B.6	22.240625	22.630625		LIFE	Life
sw3983B-ms98-a-0006	B.8	22.630625	26.814875		[laughter]	[laughter]
sw3983B-ms98-a-0006	B.8	26.814875	27.192875		[silence]	[silence]
sw3983B-ms98-a-0007	B.8	27.192875	35.355375		[silence]	[silence]
sw3983B-ms98-a-0008	B.8	35.355375	36.710875		[silence]	[silence]
sw3983B-ms98-a-0008	B.8	36.710875	37.041750		I	i
sw3983B-ms98-a-0008	B.8	37.041750	37.745375		presume	presume
sw3983B-ms98-a-0008	B.8	37.745375	37.895375		that	that
sw3983B-ms98-a-0008	B.8	37.895375	38.104250		I	i
sw3983B-ms98-a-0008	B.8	38.104250	38.575000		do	do
sw3983B-ms98-a-0008	B.10	38.575000	38.845750		[silence]	[silence]
sw3983B-ms98-a-0008	B.10	38.845750	39.732000		Uh	uh
sw3983B-ms98-a-0008	B.10	39.732000	39.976875		I	i
sw3983B-ms98-a-0008	B.10	39.976875	40.455375		suppose	suppose
sw3983B-ms98-a-0008	B.10	40.455375	40.615375		that	that
sw3983B-ms98-a-0008	B.10	40.615375	40.865375		puts	puts
sw3983B-ms98-a-0008	B.10	40.865375	41.025375		me	me
sw3983B-ms98-a-0008	B.10	41.025375	41.215375		on	on
sw3983B-ms98-a-0008	B.10	41.215375	41.539125		some	some
sw3983B-ms98-a-0008	B.10	41.539125	42.401750		[silence]	[silence]
sw3983B-ms98-a-0008	B.10	42.401750	42.835375		mailing	mailing
sw3983B-ms98-a-0008	B.10	42.835375	43.165375		lists	lists
sw3983B-ms98-a-0008	B.10	43.165375	43.305375		and	and
sw3983B-ms98-a-0008	B.10	43.305375	43.475375		so	so
sw3983B-ms98-a-0008	B.10	43.475375	43.745375		forth	forth
sw3983B-ms98-a-0008	B.10	43.745375	43.875375		because	because_1
sw3983B-ms98-a-0008	B.10	43.875375	43.965375		I	i
sw3983B-ms98-a-0008	B.10	43.965375	44.185375		do	do
sw3983B-ms98-a-0008	B.10	44.185375	44.395375		get	get
sw3983B-ms98-a-0008	B.10	44.395375	44.715375		things	things
sw3983B-ms98-a-0008	B.12	44.715375	45.055375		from	from
sw3983B-ms98-a-0008	B.12	45.055375	45.385375		ski	ski
sw3983B-ms98-a-0008	B.12	45.385375	46.305375		associations	associations
sw3983B-ms98-a-0008	B.12	46.305375	46.435375		and	and
sw3983B-ms98-a-0008	B.12	46.435375	47.010125		things	things
sw3983B-ms98-a-0008	B.12	47.010125	47.479000		[silence]	[silence]
sw3983B-ms98-a-0009	B.12	47.479000	47.939000		[silence]	[silence]
sw3983B-ms98-a-0009	B.12	47.939000	48.279125		uh	uh
sw3983B-ms98-a-0009	B.12	48.279125	48.434875		[silence]	[silence]
sw3983B-ms98-a-0009	B.12	48.434875	48.607500		at	at
sw3983B-ms98-a-0009	B.12	48.607500	48.999250		[silence]	[silence]
sw3983B-ms98-a-0009	B.12	48.999250	49.219000		during	during
sw3983B-ms98-a-0009	B.12	49.219000	49.279000		the	the
sw3983B-ms98-a-0009	B.12	49.279000	49.566375		year	year
sw3983B-ms98-a-0009	B.14	49.566375	50.134250		[silence]	[silence]
sw3983B-ms98-a-0010	B.14	50.134250	55.717875		[silence]	[silence]
sw3983B-ms98-a-0011	B.14	55.717875	55.917875		[silence]	[silence]
sw3983B-ms98-a-0011	B.14	55.917875	56.323250		[noise]	[noise]
sw3983B-ms98-a-0011	B.14	56.323250	56.729250		Uh	uh
sw3983B-ms98-a-0011	B.14	56.729250	56.974000		[silence]	[silence]
sw3983B-ms98-a-0011	B.14	56.974000	57.227875		not	not
sw3983B-ms98-a-0011	B.14	57.227875	57.447875		so	so
sw3983B-ms98-a-0011	B.14	57.447875	57.757875		much	much
sw3983B-ms98-a-0011	B.14	57.757875	58.050250		that	that
sw3983B-ms98-a-0011	B.14	58.050250	58.226125		I	i
sw3983B-ms98-a-0011	B.14	58.226125	58.361625		[silence]	[silence]
sw3983B-ms98-a-0011	B.14	58.361625	58.657875		uh	uh
sw3983B-ms98-a-0011	B.14	58.657875	58.907875		more	more
sw3983B-ms98-a-0011	B.14	58.907875	59.247875		likely	likely
sw3983B-ms98-a-0011	B.14	59.247875	59.347875		to	to
sw3983B-ms98-a-0011	B.14	59.347875	59.527875		see	see
sw3983B-ms98-a-0011	B.14	59.527875	59.757875		those	those
sw3983B-ms98-a-0011	B.14	59.757875	59.877875		at	at
sw3983B-ms98-a-0011	B.14	59.877875	59.917875		a	a
sw3983B-ms98-a-0011	B.14	59.917875	60.187875		ski	ski
sw3983B-ms98-a-0011	B.14	60.187875	60.497875		show	show
sw3983B-ms98-a-0011	B.14	60.497875	60.657875		or	or
sw3983B-ms98-a-0011	B.14	60.657875	61.127875		something	something
sw3983B-ms98-a-0011	B.14	61.127875	61.382250		but	but
sw3983B-ms98-a-0011	B.16	61.382250	61.796000		um	um
sw3983B-ms98-a-0011	B.16	61.796000	62.345500		[silence]	[silence]
sw3983B-ms98-a-0011	B.16	62.345500	62.430375		[noise]	[noise]
sw3983B-ms98-a-0011	B.16	62.430375	62.592250		I	i
sw3983B-ms98-a-0011	B.16	62.592250	62.777875		just	just
sw3983B-ms98-a-0011	B.16	62.777875	63.087875		enjoy	enjoy
sw3983B-ms98-a-0011	B.16	63.087875	63.457875		reading	reading
sw3983B-ms98-a-0011	B.16	63.457875	63.737875		about	about
sw3983B-ms98-a-0011	B.16	63.737875	63.887875		the	the
sw3983B-ms98-a-0011	B.16	63.887875	64.607875		resorts	resorts
sw3983B-ms98-a-0011	B.16	64.607875	65.117125		and	and
sw3983B-ms98-a-0011	B.16	65.117125	65.149750		[silence]	[silence]
sw3983B-ms98-a-0012	B.16	65.149750	65.541875		[silence]	[silence]
sw3983B-ms98-a-0012	B.16	65.541875	65.719750		where	where
sw3983B-ms98-a-0012	B.16	65.719750	65.849750		you	you
sw3983B-ms98-a-0012	B.16	65.849750	66.089750		can	can
sw3983B-ms98-a-0012	B.16	66.089750	66.599750		go	go
sw3983B-ms98-a-0012	B.16	66.599750	67.199750		and	and
sw3983B-ms98-a-0012	B.18	67.199750	67.577750		and	and
sw3983B-ms98-a-0012	B.18	67.577750	67.859750		new	new
sw3983B-ms98-a-0012	B.18	67.859750	68.369750		equipment	equipment
sw3983B-ms98-a-0012	B.18	68.369750	68.559750		that's	that's
sw3983B-ms98-a-0012	B.18	68.559750	68.809750		come	come
sw3983B-ms98-a-0012	B.18	68.809750	69.179750		out	out
sw3983B-ms98-a-0012	B.18	69.179750	69.455750		and	and
sw3983B-ms98-a-0012	B.18	69.455750	69.873750		[silence]	[silence]
sw3983B-ms98-a-0012	B.18	69.873750	70.119750		so	so
sw3983B-ms98-a-0012	B.18	70.119750	70.662875		forth	forth
sw3983B-ms98-a-0012	B.18	70.662875	71.246750		[silence]	[silence]
sw3983B-ms98-a-0012	B.18	71.246750	71.479750		Some	some
sw3983B-ms98-a-0012	B.18	71.479750	72.289750		fashions	fashions
sw3983B-ms98-a-0012	B.20	72.289750	72.529750		are	are
sw3983B-ms98-a-0012	B.20	72.529750	72.869750		always	always
sw3983B-ms98-a-0012	B.20	72.869750	72.979750		in	in
sw3983B-ms98-a-0012	B.20	72.979750	73.187250		there	there
sw3983B-ms98-a-0012	B.20	73.187250	73.469375		too	too
sw3983B-ms98-a-0012	B.22	73.469375	73.957875		[silence]	[silence]
sw3983B-ms98-a-0013	B.22	73.957875	80.798500		[silence]	[silence]
sw3983B-ms98-a-0014	B.22	80.798500	80.986750		[silence]	[silence]
sw3983B-ms98-a-0014	B.22	80.986750	81.334750		Probably	probably
sw3983B-ms98-a-0014	B.22	81.334750	81.945750		not	not
sw3983B-ms98-a-0014	B.22	81.945750	82.358500		Uh	uh
sw3983B-ms98-a-0014	B.22	82.358500	82.628500		we	we
sw3983B-ms98-a-0014	B.22	82.628500	82.858500		already	already
sw3983B-ms98-a-0014	B.22	82.858500	83.008500		knew	knew
sw3983B-ms98-a-0014	B.22	83.008500	83.138500		we	we
sw3983B-ms98-a-0014	B.22	83.138500	83.458500		wanted	wanted
sw3983B-ms98-a-0014	B.22	83.458500	83.518500		to	to
sw3983B-ms98-a-0014	B.22	83.518500	83.718500		take	take
sw3983B-ms98-a-0014	B.22	83.718500	83.938500		one	one
sw3983B-ms98-a-0014	B.22	83.938500	84.068500		and	and
sw3983B-ms98-a-0014	B.22	84.068500	84.168500		we	we
sw3983B-ms98-a-0014	B.22	84.168500	84.318500		just	just
sw3983B-ms98-a-0014	B.22	84.318500	84.608500		started	started
sw3983B-ms98-a-0014	B.22	84.608500	84.818500		looking	looking
sw3983B-ms98-a-0014	B.22	84.818500	85.413125		around	around
sw3983B-ms98-a-0014	B.22	85.413125	85.676500		[silence]	[silence]
sw3983B-ms98-a-0015	B.22	85.676500	85.960375		[silence]	[silence]
sw3983B-ms98-a-0015	B.22	85.960375	86.092250		I	i
sw3983B-ms98-a-0015	B.22	86.092250	86.226500		may	may
sw3983B-ms98-a-0015	B.22	86.226500	86.396500		have	have
sw3983B-ms98-a-0015	B.22	86.396500	86.946500		referred	referred
sw3983B-ms98-a-0015	B.22	86.946500	87.026500		to	to
sw3983B-ms98-a-0015	B.22	87.026500	87.146500		a	a
sw3983B-ms98-a-0015	B.22	87.146500	87.446500		couple	couple
sw3983B-ms98-a-0015	B.22	87.446500	87.536500		of	of
sw3983B-ms98-a-0015	B.22	87.536500	87.676500		them	them_1
sw3983B-ms98-a-0015	B.22	87.676500	87.888375		but	but
sw3983B-ms98-a-0015	B.22	87.888375	88.414125		we	we
sw3983B-ms98-a-0015	B.22	88.414125	88.813375		[silence]	[silence]
sw3983B-ms98-a-0015	B.22	88.813375	89.056500		went	went
sw3983B-ms98-a-0015	B.22	89.056500	89.156500		to	to
sw3983B-ms98-a-0015	B.22	89.156500	89.246500		the	the
sw3983B-ms98-a-0015	B.22	89.246500	89.486500		ski	ski
sw3983B-ms98-a-0015	B.22	89.486500	89.756500		show	show
sw3983B-ms98-a-0015	B.22	89.756500	89.846500		and	and
sw3983B-ms98-a-0015	B.22	89.846500	90.056500		looked	looked
sw3983B-ms98-a-0015	B.22	90.056500	90.146500		at	at
sw3983B-ms98-a-0015	B.22	90.146500	90.336500		all	all
sw3983B-ms98-a-0015	B.22	90.336500	90.456500		of	of
sw3983B-ms98-a-0015	B.22	90.456500	90.746000		the	the
sw3983B-ms98-a-0015	B.24	90.746000	91.344875		[silence]	[silence]
sw3983B-ms98-a-0015	B.24	91.344875	91.856500		resort	resort
sw3983B-ms98-a-0015	B.24	91.856500	92.396500		information	information
sw3983B-ms98-a-0015	B.24	92.396500	92.506500	<DEL>	---	and
sw3983B-ms98-a-0015	B.24	92.506500	92.706500		picked	picked
sw3983B-ms98-a-0015	B.24	92.706500	92.826500		up	up
sw3983B-ms98-a-0015	B.24	92.826500	92.876500		a	a
sw3983B-ms98-a-0015	B.24	92.876500	93.026500		lot	lot
sw3983B-ms98-a-0015	B.24	93.026500	93.086500		of	of
sw3983B-ms98-a-0015	B.24	93.086500	93.808625		brochures	brochures
sw3983B-ms98-a-0015	B.26	93.808625	94.227500		[silence]	[silence]
sw3983B-ms98-a-0016	B.26	94.227500	94.817500		[silence]	[silence]
sw3983B-ms98-a-0016	B.26	94.817500	94.927500		and	and
sw3983B-ms98-a-0016	B.26	94.927500	95.107500		just	just
sw3983B-ms98-a-0016	B.26	95.107500	95.477500		decided	decided
sw3983B-ms98-a-0016	B.26	95.477500	95.557500		to	to
sw3983B-ms98-a-0016	B.26	95.557500	95.677500		go	go
sw3983B-ms98-a-0016	B.26	95.677500	95.757500		to	to
sw3983B-ms98-a-0016	B.26	95.757500	96.177500		Crested	Crested
sw3983B-ms98-a-0016	B.26	96.177500	96.417500		Butte	Butte
sw3983B-ms98-a-0016	B.26	96.417500	96.537500		We	we
sw3983B-ms98-a-0016	B.26	96.537500	96.817500	<SUB>	haven't	hadn't
sw3983B-ms98-a-0016	B.26	96.817500	96.977500		been	been
sw3983B-ms98-a-0016	B.26	96.977500	97.127500		there	there
sw3983B-ms98-a-0016	B.26	97.127500	97.606250		before	before
sw3983B-ms98-a-0016	B.28	97.606250	98.301375		[silence]	[silence]
sw3983B-ms98-a-0017	B.28	98.301375	98.960250		[silence]	[silence]
sw3983B-ms98-a-0017	B.28	98.960250	99.074750	<DEL>	---	it's
sw3983B-ms98-a-0017	B.28	99.074750	99.221375		Kind	kind
sw3983B-ms98-a-0017	B.28	99.221375	99.291375		of	of
sw3983B-ms98-a-0017	B.28	99.291375	99.651375		away	away
sw3983B-ms98-a-0017	B.28	99.651375	99.861375		from	from
sw3983B-ms98-a-0017	B.28	99.861375	99.972250		the	the
sw3983B-ms98-a-0017	B.28	99.972250	100.441250		crowd	crowd
sw3983B-ms98-a-0017	B.30	100.441250	100.640875		[silence]	[silence]
sw3983B-ms98-a-0017	B.30	100.640875	100.961375	<SUB>	is	that's
sw3983B-ms98-a-0017	B.30	100.961375	101.081375		why	why
sw3983B-ms98-a-0017	B.30	101.081375	101.339625		we	we
sw3983B-ms98-a-0017	B.30	101.339625	101.661375		chose	chose
sw3983B-ms98-a-0017	B.30	101.661375	101.851375		that	that
sw3983B-ms98-a-0017	B.30	101.851375	102.081375		one	one
sw3983B-ms98-a-0017	B.30	102.081375	102.465750		It's	it's
sw3983B-ms98-a-0017	B.32	102.465750	103.064625		[silence]	[silence]
sw3983B-ms98-a-0017	B.32	103.064625	103.721375		supposedly	supposedly
sw3983B-ms98-a-0017	B.32	103.721375	103.931375		low	low
sw3983B-ms98-a-0017	B.32	103.931375	104.221375		lift	lift
sw3983B-ms98-a-0017	B.32	104.221375	104.708750		lines	lines
sw3983B-ms98-a-0017	B.32	104.708750	105.197875		[silence]	[silence]
sw3983B-ms98-a-0017	B.32	105.197875	105.276125		But	but
sw3983B-ms98-a-0017	B.32	105.276125	105.370250		I	i
sw3983B-ms98-a-0017	B.32	105.370250	105.521375		haven't	haven't
sw3983B-ms98-a-0017	B.32	105.521375	105.811375		skied	skied
sw3983B-ms98-a-0017	B.32	105.811375	106.211375		Utah	Utah
sw3983B-ms98-a-0017	B.32	106.211375	106.501375		yet	yet
sw3983B-ms98-a-0017	B.32	106.501375	106.631375		but	but
sw3983B-ms98-a-0017	B.32	106.631375	106.701375		I	i
sw3983B-ms98-a-0017	B.32	106.701375	107.031375		want	want
sw3983B-ms98-a-0017	B.32	107.031375	107.323000		to	to
sw3983B-ms98-a-0017	B.34	107.323000	107.323000	<INS>	I'd	---
sw3983B-ms98-a-0017	B.34	107.323000	107.739625		[silence]	[silence]
sw3983B-ms98-a-0018	B.34	107.739625	108.760500		[silence]	[silence]
sw3983B-ms98-a-0019	B.34	108.760500	109.130500		[silence]	[silence]
sw3983B-ms98-a-0019	B.34	109.130500	109.370500		like	like
sw3983B-ms98-a-0019	B.34	109.370500	109.490500		to	to
sw3983B-ms98-a-0019	B.34	109.490500	109.740500		go	go
sw3983B-ms98-a-0019	B.34	109.740500	109.961500		to	to
sw3983B-ms98-a-0019	B.34	109.961500	110.424750		[silence]	[silence]
sw3983B-ms98-a-0019	B.34	110.424750	111.090500		Sundance	Sundance
sw3983B-ms98-a-0019	B.34	111.090500	111.220500		and	and
sw3983B-ms98-a-0019	B.34	111.220500	111.480500		Park	Park
sw3983B-ms98-a-0019	B.34	111.480500	111.800500		City	City
sw3983B-ms98-a-0019	B.36	111.800500	111.970500		and	and
sw3983B-ms98-a-0019	B.36	111.970500	112.140500		some	some
sw3983B-ms98-a-0019	B.36	112.140500	112.210500		of	of
sw3983B-ms98-a-0019	B.36	112.210500	112.638250		those	those
sw3983B-ms98-a-0019	B.36	112.638250	112.830500		I	i
sw3983B-ms98-a-0019	B.36	112.830500	113.420500		understand	understand
sw3983B-ms98-a-0019	B.36	113.420500	113.600500		Deer	Deer
sw3983B-ms98-a-0019	B.36	113.600500	113.920500		Valley	Valley
sw3983B-ms98-a-0019	B.36	113.920500	114.110500		is	is
sw3983B-ms98-a-0019	B.36	114.110500	114.472250		nice	nice
sw3983B-ms98-a-0019	B.36	114.472250	114.769250		too	too
sw3983B-ms98-a-0019	B.38	114.769250	115.239375		[silence]	[silence]
sw3983B-ms98-a-0020	B.38	115.239375	119.661000		[silence]	[silence]
sw3983B-ms98-a-0021	B.38	119.661000	120.179125		[silence]	[silence]
sw3983B-ms98-a-0021	B.38	120.179125	120.261000		Well	well
sw3983B-ms98-a-0021	B.38	120.261000	120.331000		how	how
sw3983B-ms98-a-0021	B.38	120.331000	120.561000		about	about
sw3983B-ms98-a-0021	B.38	120.561000	120.701000		you	you
sw3983B-ms98-a-0021	B.38	120.701000	120.954250		what	what
sw3983B-ms98-a-0021	B.38	120.954250	121.131000		what	what
sw3983B-ms98-a-0021	B.38	121.131000	121.781000		magazines	magazines
sw3983B-ms98-a-0021	B.38	121.781000	121.891000		do	do
sw3983B-ms98-a-0021	B.38	121.891000	122.021000		you	you
sw3983B-ms98-a-0021	B.38	122.021000	122.181000		have	have
sw3983B-ms98-a-0021	B.38	122.181000	122.271000		at	at
sw3983B-ms98-a-0021	B.38	122.271000	122.494250		home	home
sw3983B-ms98-a-0021	B.40	122.494250	122.998375		[silence]	[silence]
sw3983B-ms98-a-0022	B.40	122.998375	143.160500		[silence]	[silence]
sw3983B-ms98-a-0023	B.40	143.160500	143.756875		[silence]	[silence]
sw3983B-ms98-a-0023	B.40	143.756875	144.105250		Oh	oh
sw3983B-ms98-a-0023	B.40	144.105250	144.674875		okay	okay
sw3983B-ms98-a-0023	B.42	144.674875	145.153875		[silence]	[silence]
sw3983B-ms98-a-0024	B.42	145.153875	150.372250		[silence]	[silence]
sw3983B-ms98-a-0025	B.42	150.372250	150.827125		[silence]	[silence]
sw3983B-ms98-a-0025	B.42	150.827125	150.962250		Does	does
sw3983B-ms98-a-0025	B.42	150.962250	151.072250		it	it
sw3983B-ms98-a-0025	B.42	151.072250	151.412250		have	have
sw3983B-ms98-a-0025	B.42	151.412250	151.668125		uh	uh
sw3983B-ms98-a-0025	B.42	151.668125	152.127625		[silence]	[silence]
sw3983B-ms98-a-0025	B.42	152.127625	152.582250		articles	articles
sw3983B-ms98-a-0025	B.42	152.582250	152.732250		on	on
sw3983B-ms98-a-0025	B.42	152.732250	152.962250		how	how
sw3983B-ms98-a-0025	B.42	152.962250	153.132250		to	to
sw3983B-ms98-a-0025	B.42	153.132250	153.342250		do	do
sw3983B-ms98-a-0025	B.42	153.342250	154.126500		things	things
sw3983B-ms98-a-0025	B.44	154.126500	154.412250		as	as
sw3983B-ms98-a-0025	B.44	154.412250	154.632250		well	well
sw3983B-ms98-a-0025	B.44	154.632250	154.732250		as	as
sw3983B-ms98-a-0025	B.44	154.732250	155.362250		equipment	equipment
sw3983B-ms98-a-0025	B.44	155.362250	155.532250		that	that
sw3983B-ms98-a-0025	B.44	155.532250	155.642250		you	you
sw3983B-ms98-a-0025	B.44	155.642250	155.812250		can	can
sw3983B-ms98-a-0025	B.44	155.812250	156.042250		buy	buy
sw3983B-ms98-a-0025	B.44	156.042250	156.242250		and	and
sw3983B-ms98-a-0025	B.44	156.242250	156.441000		so	so
sw3983B-ms98-a-0025	B.44	156.441000	156.688250		forth	forth
sw3983B-ms98-a-0025	B.46	156.688250	157.351875		[silence]	[silence]
sw3983B-ms98-a-0026	B.46	157.351875	182.092125		[silence]	[silence]
sw3983B-ms98-a-0027	B.46	182.092125	182.861125		[silence]	[silence]
sw3983B-ms98-a-0027	B.46	182.861125	183.042125		Well	well
sw3983B-ms98-a-0027	B.46	183.042125	183.252125		that's	that's
sw3983B-ms98-a-0027	B.46	183.252125	183.596375		good	good
sw3983B-ms98-a-0027	B.46	183.596375	183.892125		It's	it's
sw3983B-ms98-a-0027	B.46	183.892125	184.092125		good	good
sw3983B-ms98-a-0027	B.46	184.092125	184.172125		to	to
sw3983B-ms98-a-0027	B.46	184.172125	184.362125		get	get
sw3983B-ms98-a-0027	B.46	184.362125	184.692125		use	use
sw3983B-ms98-a-0027	B.46	184.692125	184.822125		out	out
sw3983B-ms98-a-0027	B.46	184.822125	184.922125		of	of
sw3983B-ms98-a-0027	B.46	184.922125	185.344625		one	one
sw3983B-ms98-a-0027	B.48	185.344625	186.037750		[silence]	[silence]
sw3983B-ms98-a-0028	B.48	186.037750	186.549750		[silence]	[silence]
sw3983B-ms98-a-0028	B.48	186.549750	187.364625		[noise]	[noise]
sw3983B-ms98-a-0028	B.48	187.364625	187.594375		I'm	i'm
sw3983B-ms98-a-0028	B.48	187.594375	187.817750		not	not
sw3983B-ms98-a-0028	B.48	187.817750	188.117750		sure	sure
sw3983B-ms98-a-0028	B.48	188.117750	188.347750		that	that
sw3983B-ms98-a-0028	B.48	188.347750	188.685875		um	um
sw3983B-ms98-a-0028	B.48	188.685875	189.274625		[silence]	[silence]
sw3983B-ms98-a-0028	B.48	189.274625	189.353750		in	in
sw3983B-ms98-a-0028	B.48	189.353750	189.467750		the	the
sw3983B-ms98-a-0028	B.48	189.467750	189.727750		case	case
sw3983B-ms98-a-0028	B.48	189.727750	189.797750		of	of
sw3983B-ms98-a-0028	B.48	189.797750	190.197750		NATIONAL	National
sw3983B-ms98-a-0028	B.48	190.197750	190.877750		GEOGRAPHIC	Geographic
sw3983B-ms98-a-0028	B.48	190.877750	190.937750		I	i
sw3983B-ms98-a-0028	B.48	190.937750	191.087750		mean	mean
sw3983B-ms98-a-0028	B.48	191.087750	191.177750		I	i
sw3983B-ms98-a-0028	B.48	191.177750	191.477750		read	read
sw3983B-ms98-a-0028	B.48	191.477750	191.787750		it	it
sw3983B-ms98-a-0028	B.48	191.787750	192.125875		but	but
sw3983B-ms98-a-0028	B.48	192.125875	192.694625		[silence]	[silence]
sw3983B-ms98-a-0028	B.48	192.694625	192.897750		then	then
sw3983B-ms98-a-0028	B.48	192.897750	193.057750		they	they
sw3983B-ms98-a-0028	B.48	193.057750	193.277750		just	just
sw3983B-ms98-a-0028	B.48	193.277750	193.467750		sort	sort
sw3983B-ms98-a-0028	B.48	193.467750	193.627750		of	of
sw3983B-ms98-a-0028	B.48	193.627750	193.967750		gather	gather
sw3983B-ms98-a-0028	B.48	193.967750	194.437750		dust	dust
sw3983B-ms98-a-0028	B.48	194.437750	194.587750		for	for
sw3983B-ms98-a-0028	B.48	194.587750	194.667750		a	a
sw3983B-ms98-a-0028	B.50	194.667750	194.967750		long	long
sw3983B-ms98-a-0028	B.50	194.967750	195.247750		period	period
sw3983B-ms98-a-0028	B.50	195.247750	195.307750		of	of
sw3983B-ms98-a-0028	B.50	195.307750	195.587750		time	time
sw3983B-ms98-a-0028	B.50	195.587750	195.788250		but	but
sw3983B-ms98-a-0028	B.50	195.788250	196.217750		then	then
sw3983B-ms98-a-0028	B.50	196.217750	196.747750		eventually	eventually
sw3983B-ms98-a-0028	B.50	196.747750	196.917750		there'll	there'll
sw3983B-ms98-a-0028	B.50	196.917750	197.057750		be	be
sw3983B-ms98-a-0028	B.50	197.057750	197.117750		a	a
sw3983B-ms98-a-0028	B.50	197.117750	197.507750		school	school
sw3983B-ms98-a-0028	B.50	197.507750	198.087750		project	project
sw3983B-ms98-a-0028	B.50	198.087750	198.167750		or	or
sw3983B-ms98-a-0028	B.50	198.167750	198.720625		something	something
sw3983B-ms98-a-0028	B.50	198.720625	199.170500		[silence]	[silence]
sw3983B-ms98-a-0029	B.50	199.170500	199.921625		[silence]	[silence]
sw3983B-ms98-a-0029	B.50	199.921625	200.330500		where	where
sw3983B-ms98-a-0029	B.50	200.330500	200.500500		my	my
sw3983B-ms98-a-0029	B.50	200.500500	200.780500		son	son
sw3983B-ms98-a-0029	B.50	200.780500	200.880500	<SUB>	will	-[wi]ll
sw3983B-ms98-a-0029	B.50	200.880500	201.110500		need	need
sw3983B-ms98-a-0029	B.50	201.110500	201.270500		to	to
sw3983B-ms98-a-0029	B.50	201.270500	201.670500		refer	refer
sw3983B-ms98-a-0029	B.50	201.670500	202.030500		back	back
sw3983B-ms98-a-0029	B.50	202.030500	202.476375		through	through
sw3983B-ms98-a-0029	B.50	202.476375	202.884250		[silence]	[silence]
sw3983B-ms98-a-0030	B.50	202.884250	203.400125		[silence]	[silence]
sw3983B-ms98-a-0030	B.50	203.400125	203.794250	<CONT>	forty-eight	forty
sw3983B-ms98-a-0030	B.50	203.794250	203.974250	<CONT>	+++	eight
sw3983B-ms98-a-0030	B.50	203.974250	204.264250		back	back
sw3983B-ms98-a-0030	B.50	204.264250	204.674250		issues	issues
sw3983B-ms98-a-0030	B.50	204.674250	204.794250		to	to
sw3983B-ms98-a-0030	B.50	204.794250	205.234250		find	find
sw3983B-ms98-a-0030	B.52	205.234250	205.324250		you	you
sw3983B-ms98-a-0030	B.52	205.324250	205.454250		know	know
sw3983B-ms98-a-0030	B.52	205.454250	206.054250		France	France
sw3983B-ms98-a-0030	B.52	206.054250	206.204250		or	or
sw3983B-ms98-a-0030	B.52	206.204250	206.714250		something	something
sw3983B-ms98-a-0030	B.52	206.714250	206.884250		or	or
sw3983B-ms98-a-0030	B.52	206.884250	207.224250		whatever	whatever
sw3983B-ms98-a-0030	B.52	207.224250	207.284250		it	it
sw3983B-ms98-a-0030	B.52	207.284250	207.444250		is	is
sw3983B-ms98-a-0030	B.54	207.444250	207.634250		he's	he's
sw3983B-ms98-a-0030	B.54	207.634250	207.964250		looking	looking
sw3983B-ms98-a-0030	B.54	207.964250	208.257500		for	for
sw3983B-ms98-a-0030	B.56	208.257500	208.943875		[silence]	[silence]
sw3983B-ms98-a-0031	B.56	208.943875	214.495000		[silence]	[silence]
sw3983B-ms98-a-0032	B.56	214.495000	215.482750		[silence]	[silence]
sw3983B-ms98-a-0032	B.56	215.482750	215.570375		I	i
sw3983B-ms98-a-0032	B.56	215.570375	215.695000		used	used
sw3983B-ms98-a-0032	B.56	215.695000	215.775000		to	to
sw3983B-ms98-a-0032	B.56	215.775000	216.005000		take	take
sw3983B-ms98-a-0032	B.56	216.005000	217.064500		SMITHSONIAN	Smithsonian
sw3983B-ms98-a-0032	B.58	217.064500	217.611875		[silence]	[silence]
sw3983B-ms98-a-0032	B.58	217.611875	217.845000		too	too
sw3983B-ms98-a-0032	B.58	217.845000	217.985000	<DEL>	---	and
sw3983B-ms98-a-0032	B.58	217.985000	218.015000		I	i
sw3983B-ms98-a-0032	B.58	218.015000	218.325000		liked	liked
sw3983B-ms98-a-0032	B.58	218.325000	218.505000		that	that
sw3983B-ms98-a-0032	B.58	218.505000	219.025000		magazine	magazine
sw3983B-ms98-a-0032	B.60	219.025000	219.155000		but	but
sw3983B-ms98-a-0032	B.60	219.155000	219.245000		it	it
sw3983B-ms98-a-0032	B.60	219.245000	219.525000		was	was
sw3983B-ms98-a-0032	B.60	219.525000	219.645000		I	i
sw3983B-ms98-a-0032	B.60	219.645000	219.825000		was	was
sw3983B-ms98-a-0032	B.60	219.825000	220.085000		just	just
sw3983B-ms98-a-0032	B.60	220.085000	220.285000		found	found
sw3983B-ms98-a-0032	B.60	220.285000	220.645000		myself	myself
sw3983B-ms98-a-0032	B.60	220.645000	220.864875		not	not
sw3983B-ms98-a-0032	B.60	220.864875	221.155000		[silence]	[silence]
sw3983B-ms98-a-0032	B.60	221.155000	221.405000		ever	ever
sw3983B-ms98-a-0032	B.60	221.405000	221.675000		getting	getting
sw3983B-ms98-a-0032	B.60	221.675000	221.955000		around	around
sw3983B-ms98-a-0032	B.60	221.955000	222.045000		to	to
sw3983B-ms98-a-0032	B.60	222.045000	222.425000		reading	reading
sw3983B-ms98-a-0032	B.60	222.425000	222.632875		it	it
sw3983B-ms98-a-0032	B.62	222.632875	223.374875		[silence]	[silence]
sw3983B-ms98-a-0032	B.62	223.374875	223.435000		You	you
sw3983B-ms98-a-0032	B.62	223.435000	223.585000		get	get
sw3983B-ms98-a-0032	B.62	223.585000	223.785000		so	so
sw3983B-ms98-a-0032	B.62	223.785000	224.115000		many	many
sw3983B-ms98-a-0032	B.62	224.115000	224.505000		coming	coming
sw3983B-ms98-a-0032	B.62	224.505000	224.845000		in	in
sw3983B-ms98-a-0032	B.62	224.845000	225.125000		and	and
sw3983B-ms98-a-0032	B.62	225.125000	225.521750		[silence]	[silence]
sw3983B-ms98-a-0033	B.62	225.521750	226.138750		[silence]	[silence]
sw3983B-ms98-a-0033	B.62	226.138750	226.251750		by	by
sw3983B-ms98-a-0033	B.62	226.251750	226.371750		the	the
sw3983B-ms98-a-0033	B.62	226.371750	226.621750		time	time
sw3983B-ms98-a-0033	B.62	226.621750	226.691750		the	the
sw3983B-ms98-a-0033	B.62	226.691750	226.971750		next	next
sw3983B-ms98-a-0033	B.62	226.971750	227.311750		round	round
sw3983B-ms98-a-0033	B.62	227.311750	227.531750		comes	comes
sw3983B-ms98-a-0033	B.62	227.531750	227.661750		in	in
sw3983B-ms98-a-0033	B.62	227.661750	227.811750		I'm	i'm
sw3983B-ms98-a-0033	B.62	227.811750	228.041750		still	still
sw3983B-ms98-a-0033	B.62	228.041750	228.241750		not	not
sw3983B-ms98-a-0033	B.62	228.241750	228.511750		through	through
sw3983B-ms98-a-0033	B.62	228.511750	228.880625		reading	reading
sw3983B-ms98-a-0033	B.62	228.880625	229.001125		the	[laughter-the]
sw3983B-ms98-a-0033	B.62	229.001125	229.410000		first	[laughter-first]
sw3983B-ms98-a-0033	B.62	229.410000	229.748625		round	[laughter-round]
sw3983B-ms98-a-0033	B.64	229.748625	230.585625		[silence]	[silence]
sw3983B-ms98-a-0034	B.64	230.585625	231.271500		[silence]	[silence]
sw3983B-ms98-a-0034	B.64	231.271500	231.495500	<DEL>	---	uh
sw3983B-ms98-a-0034	B.64	231.495500	231.695625	<DEL>	---	because_1
sw3983B-ms98-a-0034	B.64	231.695625	231.865625		Oh	oh
sw3983B-ms98-a-0034	B.64	231.865625	232.425625		SCIENTIFIC	Scientific
sw3983B-ms98-a-0034	B.64	232.425625	232.875625		AMERICAN	American
sw3983B-ms98-a-0034	B.64	232.875625	233.135625		comes	comes
sw3983B-ms98-a-0034	B.64	233.135625	233.205625		to	to
sw3983B-ms98-a-0034	B.64	233.205625	233.305625		our	our
sw3983B-ms98-a-0034	B.64	233.305625	233.575625		house	house
sw3983B-ms98-a-0034	B.64	233.575625	233.775625		too	too
sw3983B-ms98-a-0034	B.64	233.775625	233.805625		I	i
sw3983B-ms98-a-0034	B.64	233.805625	234.295625		forgot	forgot
sw3983B-ms98-a-0034	B.64	234.295625	234.295625	<INS>	and	---
sw3983B-ms98-a-0034	B.64	234.295625	234.635625		that's	that's
sw3983B-ms98-a-0034	B.66	234.635625	235.175625		mostly	mostly
sw3983B-ms98-a-0034	B.66	235.175625	235.365625		my	my
sw3983B-ms98-a-0034	B.66	235.365625	235.915625		son's	son's
sw3983B-ms98-a-0034	B.66	235.915625	236.129250		but	but
sw3983B-ms98-a-0034	B.68	236.129250	236.270000	<DEL>	---	he
sw3983B-ms98-a-0034	B.68	236.270000	236.526125		[silence]	[silence]
sw3983B-ms98-a-0034	B.68	236.526125	236.757250		but	but
sw3983B-ms98-a-0034	B.68	236.757250	236.945625		I	i
sw3983B-ms98-a-0034	B.68	236.945625	237.065625		do	do
sw3983B-ms98-a-0034	B.68	237.065625	237.242750		read	read
sw3983B-ms98-a-0034	B.68	237.242750	237.359500		it	it
sw3983B-ms98-a-0034	B.68	237.359500	237.996750		[silence]	[silence]
sw3983B-ms98-a-0034	B.68	237.996750	238.366000		too	too
sw3983B-ms98-a-0034	B.70	238.366000	238.463875		[silence]	[silence]
sw3983B-ms98-a-0034	B.70	238.463875	238.667625		And	and
sw3983B-ms98-a-0034	B.70	238.667625	239.046375	<DEL>	---	so
sw3983B-ms98-a-0034	B.70	239.046375	239.387750		[silence]	[silence]
sw3983B-ms98-a-0035	B.70	239.387750	240.262500		[silence]	[silence]
sw3983B-ms98-a-0035	B.70	240.262500	240.395375	<DEL>	---	and
sw3983B-ms98-a-0035	B.70	240.395375	240.507750		he	he
sw3983B-ms98-a-0035	B.70	240.507750	240.817750		takes	takes
sw3983B-ms98-a-0035	B.70	240.817750	241.337750		GAMES	Games
sw3983B-ms98-a-0035	B.70	241.337750	242.227625	<SUB>	MAGAZINE	Magazines
sw3983B-ms98-a-0035	B.72	242.227625	242.710125		[silence]	[silence]
sw3983B-ms98-a-0035	B.72	242.710125	243.204750	<DEL>	---	too
sw3983B-ms98-a-0035	B.72	243.204750	243.637750	<SUB>	GAME	Games
sw3983B-ms98-a-0035	B.72	243.637750	244.429875		MAGAZINE	Magazine
sw3983B-ms98-a-0035	B.72	244.429875	244.761750		[vocalized-noise]	[vocalized-noise]
sw3983B-ms98-a-0035	B.72	244.761750	244.987750		which	which
sw3983B-ms98-a-0035	B.72	244.987750	245.167750		has	has
sw3983B-ms98-a-0035	B.72	245.167750	245.697750		puzzles	puzzles
sw3983B-ms98-a-0035	B.72	245.697750	245.847750		and	and
sw3983B-ms98-a-0035	B.72	245.847750	246.157750		things	things
sw3983B-ms98-a-0035	B.74	246.157750	246.247750		that	that
sw3983B-ms98-a-0035	B.74	246.247750	246.307750		he	he
sw3983B-ms98-a-0035	B.74	246.307750	246.577750		likes	likes
sw3983B-ms98-a-0035	B.74	246.577750	246.687750		to	to
sw3983B-ms98-a-0035	B.74	246.687750	247.226750		solve	solve
sw3983B-ms98-a-0035	B.74	247.226750	247.597250		[silence]	[silence]
sw3983B-ms98-a-0036	B.74	247.597250	248.043875		[silence]	[silence]
sw3983B-ms98-a-0036	B.74	248.043875	248.128875		you	you
sw3983B-ms98-a-0036	B.74	248.128875	248.197250		know	know
sw3983B-ms98-a-0036	B.74	248.197250	248.927250		crosswords	crosswords
sw3983B-ms98-a-0036	B.74	248.927250	249.127250		and	and
sw3983B-ms98-a-0036	B.74	249.127250	249.676375		various	various
sw3983B-ms98-a-0036	B.74	249.676375	250.075625		[silence]	[silence]
sw3983B-ms98-a-0036	B.74	250.075625	250.507250		logic	logic
sw3983B-ms98-a-0036	B.74	250.507250	251.047250		puzzles	puzzles
sw3983B-ms98-a-0036	B.74	251.047250	251.217250		and	and
sw3983B-ms98-a-0036	B.74	251.217250	251.507250		things	things
sw3983B-ms98-a-0036	B.74	251.507250	251.687250		like	like
sw3983B-ms98-a-0036	B.74	251.687250	251.945125		that	that
sw3983B-ms98-a-0036	B.76	251.945125	252.080750		[silence]	[silence]
sw3983B-ms98-a-0036	B.76	252.080750	252.187250	<DEL>	---	and
sw3983B-ms98-a-0036	B.76	252.187250	252.277250		he	he
sw3983B-ms98-a-0036	B.76	252.277250	252.587250		likes	likes
sw3983B-ms98-a-0036	B.76	252.587250	252.797625	<DEL>	---	t[o]-
sw3983B-ms98-a-0036	B.76	252.797625	253.645125		[silence]	[silence]
sw3983B-ms98-a-0036	B.76	253.645125	253.737250		to	to
sw3983B-ms98-a-0036	B.76	253.737250	253.947250		try	try
sw3983B-ms98-a-0036	B.76	253.947250	254.287250		that	that
sw3983B-ms98-a-0036	B.76	254.287250	254.437250	<DEL>	---	and
sw3983B-ms98-a-0036	B.76	254.437250	254.724875		so	so
sw3983B-ms98-a-0036	B.76	254.724875	254.987875		[silence]	[silence]
sw3983B-ms98-a-0037	B.76	254.987875	256.017750		[silence]	[silence]
sw3983B-ms98-a-0038	B.76	256.017750	256.185500		[silence]	[silence]
sw3983B-ms98-a-0038	B.76	256.185500	256.400375		[noise]	[noise]
sw3983B-ms98-a-0038	B.76	256.400375	256.569875		He	he
sw3983B-ms98-a-0038	B.76	256.569875	257.037750		does	does
sw3983B-ms98-a-0038	B.76	257.037750	257.231000	<SUB>	uh	but
sw3983B-ms98-a-0038	B.76	257.231000	258.323250		[noise]	[noise]
sw3983B-ms98-a-0038	B.76	258.323250	258.537750		does	does
sw3983B-ms98-a-0038	B.76	258.537750	258.727750		get	get
sw3983B-ms98-a-0038	B.76	258.727750	258.797750		to	to
sw3983B-ms98-a-0038	B.76	258.797750	258.947750		be	be
sw3983B-ms98-a-0038	B.76	258.947750	259.017750		a	a
sw3983B-ms98-a-0038	B.76	259.017750	259.217750		lot	lot
sw3983B-ms98-a-0038	B.76	259.217750	259.287750		of	of
sw3983B-ms98-a-0038	B.76	259.287750	259.717750		paper	paper
sw3983B-ms98-a-0038	B.76	259.717750	259.927750		though	though
sw3983B-ms98-a-0038	B.76	259.927750	260.207750		after	after
sw3983B-ms98-a-0038	B.76	260.207750	260.277750		a	a
sw3983B-ms98-a-0038	B.76	260.277750	260.527750		while	while
sw3983B-ms98-a-0038	B.78	260.527750	261.631125		[laughter]	[laughter]
sw3983B-ms98-a-0038	B.78	261.631125	261.686500		if	if
sw3983B-ms98-a-0038	B.78	261.686500	261.717750		you	you
sw3983B-ms98-a-0038	B.78	261.717750	261.917750		don't	don't
sw3983B-ms98-a-0038	B.78	261.917750	262.097750		keep	keep
sw3983B-ms98-a-0038	B.78	262.097750	262.287750		them	them_1
sw3983B-ms98-a-0038	B.78	262.287750	262.607750		weeded	weeded
sw3983B-ms98-a-0038	B.78	262.607750	262.997750		out	out
sw3983B-ms98-a-0038	B.78	262.997750	263.197750		they	they
sw3983B-ms98-a-0038	B.78	263.197750	263.579500		almost	almost
sw3983B-ms98-a-0038	B.78	263.579500	263.696250		[silence]	[silence]
sw3983B-ms98-a-0038	B.78	263.696250	263.927750		take	take
sw3983B-ms98-a-0038	B.78	263.927750	264.247750		over	over
sw3983B-ms98-a-0038	B.80	264.247750	264.560625		[laughter]	[laughter]
sw3983B-ms98-a-0038	B.80	264.560625	264.982375		[silence]	[silence]
sw3983B-ms98-a-0039	B.80	264.982375	271.313500		[silence]	[silence]
sw3983B-ms98-a-0040	B.80	271.313500	271.883875		[silence]	[silence]
sw3983B-ms98-a-0040	B.80	271.883875	272.053750		Oh	oh
sw3983B-ms98-a-0040	B.80	272.053750	272.246500		yeah	yeah
sw3983B-ms98-a-0040	B.80	272.246500	272.373500		they're	they're
sw3983B-ms98-a-0040	B.80	272.373500	272.601375		just	just
sw3983B-ms98-a-0040	B.80	272.601375	272.737000		[silence]	[silence]
sw3983B-ms98-a-0040	B.80	272.737000	272.883500		kind	kind
sw3983B-ms98-a-0040	B.80	272.883500	272.953500		of	of
sw3983B-ms98-a-0040	B.80	272.953500	273.233500		getting	getting
sw3983B-ms98-a-0040	B.80	273.233500	273.743500		started	started
sw3983B-ms98-a-0040	B.80	273.743500	274.063500		now	now
sw3983B-ms98-a-0040	B.82	274.063500	274.265500	<DEL>	---	with
sw3983B-ms98-a-0040	B.82	274.265500	274.624375	<DEL>	---	there
sw3983B-ms98-a-0040	B.82	274.624375	274.956375		[silence]	[silence]
sw3983B-ms98-a-0041	B.82	274.956375	279.427250		[silence]	[silence]
sw3983B-ms98-a-0042	B.82	279.427250	279.908500		[silence]	[silence]
sw3983B-ms98-a-0042	B.82	279.908500	280.244375		Mine	mine
sw3983B-ms98-a-0042	B.82	280.244375	280.419750		is	is
sw3983B-ms98-a-0042	B.82	280.419750	280.491250		a	a
sw3983B-ms98-a-0042	B.82	280.491250	280.927250		senior	senior
sw3983B-ms98-a-0042	B.82	280.927250	281.057250		in	in
sw3983B-ms98-a-0042	B.82	281.057250	281.227250		high	high
sw3983B-ms98-a-0042	B.82	281.227250	281.587250		school	school
sw3983B-ms98-a-0042	B.82	281.587250	281.807250		so	so
sw3983B-ms98-a-0042	B.82	281.807250	282.170375		he's	he's
sw3983B-ms98-a-0042	B.82	282.170375	282.377250		we're	we're
sw3983B-ms98-a-0042	B.82	282.377250	282.557250		kind	kind
sw3983B-ms98-a-0042	B.82	282.557250	282.657250		of	of
sw3983B-ms98-a-0042	B.82	282.657250	282.827250		at	at
sw3983B-ms98-a-0042	B.82	282.827250	282.897250		the	the
sw3983B-ms98-a-0042	B.82	282.897250	283.097250		end	end
sw3983B-ms98-a-0042	B.82	283.097250	283.197250		of	of
sw3983B-ms98-a-0042	B.82	283.197250	283.360625		that	that
sw3983B-ms98-a-0042	B.82	283.360625	284.141375		trail	[laughter-trail]
sw3983B-ms98-a-0042	B.84	284.141375	284.273250		You're	you're
sw3983B-ms98-a-0042	B.84	284.273250	284.507250		just	just
sw3983B-ms98-a-0042	B.86	284.507250	284.677250		sort	sort
sw3983B-ms98-a-0042	B.86	284.677250	284.737250		of	of
sw3983B-ms98-a-0042	B.86	284.737250	285.297250		beginning	beginning
sw3983B-ms98-a-0042	B.88	285.297250	285.377250		to	to
sw3983B-ms98-a-0042	B.88	285.377250	285.597250		think	think
sw3983B-ms98-a-0042	B.88	285.597250	285.857250		about	about
sw3983B-ms98-a-0042	B.88	285.857250	286.137250		first	first
sw3983B-ms98-a-0042	B.88	286.137250	286.600750		grade	grade
sw3983B-ms98-a-0042	B.92	286.600750	287.925625		[laughter]	[laughter]
sw3983B-ms98-a-0042	B.92	287.925625	288.437625		[silence]	[silence]
sw3983B-ms98-a-0043	B.92	288.437625	292.065750		[silence]	[silence]
sw3983B-ms98-a-0044	B.92	292.065750	292.541250		[silence]	[silence]
sw3983B-ms98-a-0044	B.92	292.541250	292.741875		Oh	oh
sw3983B-ms98-a-0044	B.92	292.741875	293.025750		okay	okay
sw3983B-ms98-a-0044	B.92	293.025750	293.145750		so	so
sw3983B-ms98-a-0044	B.92	293.145750	293.235750	<SUB>	you	you've
sw3983B-ms98-a-0044	B.92	293.235750	293.395750		got	got
sw3983B-ms98-a-0044	B.92	293.395750	293.435750		a	a
sw3983B-ms98-a-0044	B.92	293.435750	293.615750		little	little
sw3983B-ms98-a-0044	B.92	293.615750	293.735750		bit	bit
sw3983B-ms98-a-0044	B.92	293.735750	293.815750		of	of
sw3983B-ms98-a-0044	B.92	293.815750	293.945750		a	a
sw3983B-ms98-a-0044	B.92	293.945750	294.315750		gap	gap
sw3983B-ms98-a-0044	B.92	294.315750	294.515750		there	there
sw3983B-ms98-a-0044	B.92	294.515750	294.955750		between	between
sw3983B-ms98-a-0044	B.92	294.955750	295.035750	<DEL>	---	the
sw3983B-ms98-a-0044	B.92	295.035750	295.265750	<DEL>	---	little
sw3983B-ms98-a-0044	B.92	295.265750	295.599375	<DEL>	---	ones
sw3983B-ms98-a-0044	B.92	295.599375	295.864750		[silence]	[silence]
sw3983B-ms98-a-0045	B.92	295.864750	298.562000		[silence]	[silence]
