sw4051A-ms98-a-0001	A.1	0.000000	0.000000		[silence]	[silence]
sw4051A-ms98-a-0001	A.1	0.000000	0.017250		[noise]	[noise]
sw4051A-ms98-a-0001	A.1	0.017250	0.448125		Okay	okay_1
sw4051A-ms98-a-0001	A.1	0.448125	0.570000		you	you
sw4051A-ms98-a-0001	A.1	0.570000	0.740000	<SUB>	want	wanna
sw4051A-ms98-a-0001	A.1	0.740000	0.740000	<INS>	to	---
sw4051A-ms98-a-0001	A.1	0.740000	1.383750		start	start
sw4051A-ms98-a-0001	A.3	1.383750	1.524000		[silence]	[silence]
sw4051A-ms98-a-0002	A.3	1.524000	28.597500		[silence]	[silence]
sw4051A-ms98-a-0003	A.3	28.597500	29.063500		[silence]	[silence]
sw4051A-ms98-a-0003	A.3	29.063500	29.527500		Uh-huh	uh-huh
sw4051A-ms98-a-0003	A.3	29.527500	29.878750		[silence]	[silence]
sw4051A-ms98-a-0004	A.3	29.878750	30.912250		[silence]	[silence]
sw4051A-ms98-a-0005	A.3	30.912250	31.300500		[silence]	[silence]
sw4051A-ms98-a-0005	A.3	31.300500	31.669500		Yeah	yeah
sw4051A-ms98-a-0005	A.3	31.669500	31.797875		[silence]	[silence]
sw4051A-ms98-a-0005	A.3	31.797875	32.182250	<DEL>	---	now
sw4051A-ms98-a-0005	A.3	32.182250	32.422250		that's	that's
sw4051A-ms98-a-0005	A.3	32.422250	32.722250		stuff	stuff
sw4051A-ms98-a-0005	A.3	32.722250	32.802250		we	we
sw4051A-ms98-a-0005	A.3	32.802250	33.042250		never	never
sw4051A-ms98-a-0005	A.3	33.042250	33.242250		even	even
sw4051A-ms98-a-0005	A.3	33.242250	33.512250		thought	thought
sw4051A-ms98-a-0005	A.3	33.512250	33.822250		about	about
sw4051A-ms98-a-0005	A.3	33.822250	34.002250		three	three
sw4051A-ms98-a-0005	A.3	34.002250	34.292250		years	years
sw4051A-ms98-a-0005	A.3	34.292250	34.766000		ago	ago
sw4051A-ms98-a-0005	A.5	34.766000	35.244250		[silence]	[silence]
sw4051A-ms98-a-0006	A.5	35.244250	61.082625		[silence]	[silence]
sw4051A-ms98-a-0007	A.5	61.082625	61.429250		[silence]	[silence]
sw4051A-ms98-a-0007	A.5	61.429250	61.798500	<SUB>	Um	uh-huh
sw4051A-ms98-a-0007	A.7	61.798500	62.053375	<DEL>	---	so
sw4051A-ms98-a-0007	A.7	62.053375	62.302625		Have	have
sw4051A-ms98-a-0007	A.7	62.302625	62.432625		they	they
sw4051A-ms98-a-0007	A.7	62.432625	62.772625		stopped	stopped
sw4051A-ms98-a-0007	A.7	62.772625	62.952625		that	that
sw4051A-ms98-a-0007	A.7	62.952625	63.462625		practice	practice
sw4051A-ms98-a-0007	A.7	63.462625	63.853250		now	now
sw4051A-ms98-a-0007	A.9	63.853250	64.329000		[silence]	[silence]
sw4051A-ms98-a-0008	A.9	64.329000	90.100000		[silence]	[silence]
sw4051A-ms98-a-0009	A.9	90.100000	90.713125		[silence]	[silence]
sw4051A-ms98-a-0009	A.9	90.713125	92.894125		[noise]	[noise]
sw4051A-ms98-a-0009	A.9	92.894125	92.980875		[silence]	[silence]
sw4051A-ms98-a-0010	A.9	92.980875	93.239875		[silence]	[silence]
sw4051A-ms98-a-0010	A.9	93.239875	93.559250		Yeah	yeah
sw4051A-ms98-a-0010	A.15	93.559250	93.559250	<INS>	Oh	---
sw4051A-ms98-a-0010	A.15	93.559250	93.744250		[silence]	[silence]
sw4051A-ms98-a-0010	A.15	93.744250	93.936000		yeah	yeah
sw4051A-ms98-a-0010	A.17	93.936000	94.122625		[silence]	[silence]
sw4051A-ms98-a-0011	A.17	94.122625	100.475750		[silence]	[silence]
sw4051A-ms98-a-0012	A.17	100.475750	101.191625		[silence]	[silence]
sw4051A-ms98-a-0012	A.17	101.191625	101.994625		[noise]	[noise]
sw4051A-ms98-a-0012	A.17	101.994625	102.427625		[silence]	[silence]
sw4051A-ms98-a-0013	A.17	102.427625	105.202750		[silence]	[silence]
sw4051A-ms98-a-0014	A.17	105.202750	105.567125		[silence]	[silence]
sw4051A-ms98-a-0014	A.17	105.567125	106.455750		[noise]	[noise]
sw4051A-ms98-a-0014	A.17	106.455750	106.842375		[silence]	[silence]
sw4051A-ms98-a-0015	A.17	106.842375	138.556875		[silence]	[silence]
sw4051A-ms98-a-0016	A.17	138.556875	138.956875		[silence]	[silence]
sw4051A-ms98-a-0016	A.17	138.956875	139.453250	<DEL>	---	oh
sw4051A-ms98-a-0016	A.17	139.453250	139.661250		[silence]	[silence]
sw4051A-ms98-a-0017	A.17	139.661250	152.683500		[silence]	[silence]
sw4051A-ms98-a-0018	A.17	152.683500	153.073500		[silence]	[silence]
sw4051A-ms98-a-0018	A.17	153.073500	153.546875		Uh-huh	uh-huh
sw4051A-ms98-a-0018	A.19	153.546875	153.832500		[silence]	[silence]
sw4051A-ms98-a-0019	A.19	153.832500	158.473250		[silence]	[silence]
sw4051A-ms98-a-0020	A.19	158.473250	158.919000		[silence]	[silence]
sw4051A-ms98-a-0020	A.19	158.919000	159.423000		Yeah	[laughter-yeah]
sw4051A-ms98-a-0020	A.19	159.423000	159.423000	<INS>	yeah	---
sw4051A-ms98-a-0020	A.21	159.423000	159.709500		[silence]	[silence]
sw4051A-ms98-a-0021	A.21	159.709500	184.177500		[silence]	[silence]
sw4051A-ms98-a-0022	A.21	184.177500	184.497500		[silence]	[silence]
sw4051A-ms98-a-0022	A.21	184.497500	185.030500		Uh-huh	uh-huh
sw4051A-ms98-a-0022	A.25	185.030500	185.290375		[silence]	[silence]
sw4051A-ms98-a-0023	A.25	185.290375	185.696375		[silence]	[silence]
sw4051A-ms98-a-0023	A.25	185.696375	186.350250		[laughter]	[laughter]
sw4051A-ms98-a-0023	A.25	186.350250	186.629500		[silence]	[silence]
sw4051A-ms98-a-0024	A.25	186.629500	207.479125		[silence]	[silence]
sw4051A-ms98-a-0025	A.25	207.479125	207.922500		[silence]	[silence]
sw4051A-ms98-a-0025	A.25	207.922500	208.414625		Um	um
sw4051A-ms98-a-0025	A.25	208.414625	208.565375		[silence]	[silence]
sw4051A-ms98-a-0025	A.25	208.565375	209.039625		yeah	yeah
sw4051A-ms98-a-0025	A.25	209.039625	209.465875		[silence]	[silence]
sw4051A-ms98-a-0026	A.25	209.465875	210.046875		[silence]	[silence]
sw4051A-ms98-a-0026	A.25	210.046875	210.285875		yeah	yeah
sw4051A-ms98-a-0026	A.25	210.285875	210.414375		I	i
sw4051A-ms98-a-0026	A.25	210.414375	210.625875		hate	hate
sw4051A-ms98-a-0026	A.25	210.625875	210.755875		to	to
sw4051A-ms98-a-0026	A.25	210.755875	210.965875		see	see
sw4051A-ms98-a-0026	A.25	210.965875	211.025875		a	a
sw4051A-ms98-a-0026	A.25	211.025875	211.355875		car	car
sw4051A-ms98-a-0026	A.25	211.355875	211.595875		going	going
sw4051A-ms98-a-0026	A.25	211.595875	211.815875		down	down
sw4051A-ms98-a-0026	A.25	211.815875	211.875875		the	the
sw4051A-ms98-a-0026	A.25	211.875875	212.305875		street	street
sw4051A-ms98-a-0026	A.25	212.305875	212.465875		or	or
sw4051A-ms98-a-0026	A.25	212.465875	212.715875		even	even
sw4051A-ms98-a-0026	A.25	212.715875	212.815875		a	a
sw4051A-ms98-a-0026	A.25	212.815875	213.215875		truck	truck
sw4051A-ms98-a-0026	A.25	213.215875	213.395250		or	or
sw4051A-ms98-a-0026	A.25	213.395250	213.715500		[silence]	[silence]
sw4051A-ms98-a-0026	A.25	213.715500	213.995875		bus	bus
sw4051A-ms98-a-0026	A.25	213.995875	214.105875		for	for
sw4051A-ms98-a-0026	A.25	214.105875	214.305875		that	that
sw4051A-ms98-a-0026	A.25	214.305875	214.715125		matter	matter
sw4051A-ms98-a-0026	A.25	214.715125	214.809375		[silence]	[silence]
sw4051A-ms98-a-0026	A.25	214.809375	215.029750	<DEL>	---	that
sw4051A-ms98-a-0026	A.25	215.029750	215.203000		[silence]	[silence]
sw4051A-ms98-a-0026	A.25	215.203000	215.465875		that's	that's
sw4051A-ms98-a-0026	A.25	215.465875	215.935875		putting	putting
sw4051A-ms98-a-0026	A.25	215.935875	216.145875		out	out
sw4051A-ms98-a-0026	A.25	216.145875	216.185875		a	a
sw4051A-ms98-a-0026	A.25	216.185875	216.395875		lot	lot
sw4051A-ms98-a-0026	A.25	216.395875	216.684000		of	of
sw4051A-ms98-a-0026	A.25	216.684000	216.887375		[silence]	[silence]
sw4051A-ms98-a-0026	A.25	216.887375	217.448500		dark	dark
sw4051A-ms98-a-0026	A.27	217.448500	217.771500		[silence]	[silence]
sw4051A-ms98-a-0027	A.27	217.771500	218.121500		[silence]	[silence]
sw4051A-ms98-a-0027	A.27	218.121500	218.671500		smoke	smoke
sw4051A-ms98-a-0027	A.27	218.671500	218.801500		and	and
sw4051A-ms98-a-0027	A.27	218.801500	218.871500		I	i
sw4051A-ms98-a-0027	A.27	218.871500	219.091500		know	know
sw4051A-ms98-a-0027	A.27	219.091500	219.311500		there's	there's
sw4051A-ms98-a-0027	A.27	219.311500	219.361500		a	a
sw4051A-ms98-a-0027	A.27	219.361500	219.581500		lot	lot
sw4051A-ms98-a-0027	A.27	219.581500	219.701500		of	of
sw4051A-ms98-a-0027	A.27	219.701500	220.191500		pollutants	pollutants
sw4051A-ms98-a-0027	A.27	220.191500	220.281500		we	we
sw4051A-ms98-a-0027	A.27	220.281500	220.551500		can't	can't
sw4051A-ms98-a-0027	A.27	220.551500	220.801500		even	even
sw4051A-ms98-a-0027	A.27	220.801500	221.091500		see	see
sw4051A-ms98-a-0027	A.27	221.091500	221.451500		coming	coming
sw4051A-ms98-a-0027	A.27	221.451500	221.581500		out	out
sw4051A-ms98-a-0027	A.27	221.581500	221.661500		of	of
sw4051A-ms98-a-0027	A.29	221.661500	222.171500		cars	cars
sw4051A-ms98-a-0027	A.29	222.171500	222.471500		but	but
sw4051A-ms98-a-0027	A.29	222.471500	222.841500		that	that
sw4051A-ms98-a-0027	A.29	222.841500	223.131500		that	that
sw4051A-ms98-a-0027	A.29	223.131500	223.631500		particular	particular
sw4051A-ms98-a-0027	A.29	223.631500	224.127875		bothers	bothers
sw4051A-ms98-a-0027	A.29	224.127875	224.301500		me	me
sw4051A-ms98-a-0027	A.31	224.301500	224.504125		[silence]	[silence]
sw4051A-ms98-a-0028	A.31	224.504125	227.755875		[silence]	[silence]
sw4051A-ms98-a-0029	A.31	227.755875	228.215875		[silence]	[silence]
sw4051A-ms98-a-0029	A.31	228.215875	228.672875		Uh-huh	uh-huh
sw4051A-ms98-a-0029	A.33	228.672875	228.996875		[silence]	[silence]
sw4051A-ms98-a-0030	A.33	228.996875	251.062875		[silence]	[silence]
sw4051A-ms98-a-0031	A.33	251.062875	251.499000		[silence]	[silence]
sw4051A-ms98-a-0031	A.33	251.499000	252.008250		Oh	oh
sw4051A-ms98-a-0031	A.35	252.008250	252.390750		[silence]	[silence]
sw4051A-ms98-a-0032	A.35	252.390750	262.489750		[silence]	[silence]
sw4051A-ms98-a-0033	A.35	262.489750	262.889750		[silence]	[silence]
sw4051A-ms98-a-0033	A.35	262.889750	263.295375	<SUB>	Uh-huh	um-hum
sw4051A-ms98-a-0033	A.37	263.295375	263.477750		[silence]	[silence]
sw4051A-ms98-a-0034	A.37	263.477750	267.993125		[silence]	[silence]
sw4051A-ms98-a-0035	A.37	267.993125	268.573125		[silence]	[silence]
sw4051A-ms98-a-0035	A.37	268.573125	269.001500		Yeah	yeah
sw4051A-ms98-a-0035	A.39	269.001500	269.479625		[silence]	[silence]
sw4051A-ms98-a-0036	A.39	269.479625	286.020750		[silence]	[silence]
sw4051A-ms98-a-0037	A.39	286.020750	286.450750		[silence]	[silence]
sw4051A-ms98-a-0037	A.39	286.450750	286.660750		Oh	oh
sw4051A-ms98-a-0037	A.39	286.660750	286.900500		I	i
sw4051A-ms98-a-0037	A.39	286.900500	287.345875		see	see
sw4051A-ms98-a-0037	A.41	287.345875	287.508375		[silence]	[silence]
sw4051A-ms98-a-0038	A.41	287.508375	294.084750		[silence]	[silence]
sw4051A-ms98-a-0039	A.41	294.084750	294.324750		[silence]	[silence]
sw4051A-ms98-a-0039	A.41	294.324750	294.795000	<SUB>	Uh-huh	um-hum
sw4051A-ms98-a-0039	A.43	294.795000	295.069500		[silence]	[silence]
sw4051A-ms98-a-0040	A.43	295.069500	295.369500		[silence]	[silence]
sw4051A-ms98-a-0040	A.43	295.369500	295.769500		Uh-huh	uh-huh
sw4051A-ms98-a-0040	A.43	295.769500	295.920000		[silence]	[silence]
sw4051A-ms98-a-0041	A.43	295.920000	299.522000		[silence]	[silence]
