sw4064B-ms98-a-0001	B.2	0.000000	0.003125		[silence]	[silence]
sw4064B-ms98-a-0001	B.2	0.003125	0.022125		[noise]	[noise]
sw4064B-ms98-a-0001	B.2	0.022125	1.675875		[silence]	[silence]
sw4064B-ms98-a-0002	B.2	1.675875	2.207125		[silence]	[silence]
sw4064B-ms98-a-0002	B.2	2.207125	2.445875		I	i
sw4064B-ms98-a-0002	B.2	2.445875	2.715875		feel	feel
sw4064B-ms98-a-0002	B.2	2.715875	3.035875		very	very
sw4064B-ms98-a-0002	B.2	3.035875	3.835875		uncomfortable	uncomfortable
sw4064B-ms98-a-0002	B.2	3.835875	4.005875		with	with
sw4064B-ms98-a-0002	B.2	4.005875	4.535875		trials	trials
sw4064B-ms98-a-0002	B.2	4.535875	4.735875		by	by
sw4064B-ms98-a-0002	B.2	4.735875	5.265875		juries	juries
sw4064B-ms98-a-0002	B.2	5.265875	6.081125		recently	recently
sw4064B-ms98-a-0002	B.2	6.081125	6.246875		[silence]	[silence]
sw4064B-ms98-a-0002	B.2	6.246875	6.819750		Uh	uh
sw4064B-ms98-a-0002	B.4	6.819750	7.422875		[silence]	[silence]
sw4064B-ms98-a-0003	B.4	7.422875	8.186625		[silence]	[silence]
sw4064B-ms98-a-0003	B.4	8.186625	8.462875		In	in
sw4064B-ms98-a-0003	B.4	8.462875	8.622875		that	that
sw4064B-ms98-a-0003	B.4	8.622875	8.782875		it	it
sw4064B-ms98-a-0003	B.4	8.782875	9.202875		seems	seems
sw4064B-ms98-a-0003	B.4	9.202875	9.302875		to	to
sw4064B-ms98-a-0003	B.4	9.302875	9.542875		me	me
sw4064B-ms98-a-0003	B.4	9.542875	9.542875	<INS>	that	---
sw4064B-ms98-a-0003	B.4	9.542875	9.772875	<CONT>	they	they're
sw4064B-ms98-a-0003	B.4	9.772875	9.772875	<CONT>	are	+++
sw4064B-ms98-a-0003	B.4	9.772875	10.282875		swayed	swayed
sw4064B-ms98-a-0003	B.4	10.282875	10.562875		more	more
sw4064B-ms98-a-0003	B.4	10.562875	10.802875		by	by
sw4064B-ms98-a-0003	B.4	10.802875	11.682875		emotion	emotion
sw4064B-ms98-a-0003	B.4	11.682875	12.252875		than	than
sw4064B-ms98-a-0003	B.4	12.252875	12.662625		uh	uh
sw4064B-ms98-a-0003	B.4	12.662625	13.122250		by	by
sw4064B-ms98-a-0003	B.4	13.122250	13.732875		evidence	evidence
sw4064B-ms98-a-0003	B.4	13.732875	13.962875		that's	that's
sw4064B-ms98-a-0003	B.4	13.962875	14.722625		presented	presented
sw4064B-ms98-a-0003	B.4	14.722625	15.083500		[silence]	[silence]
sw4064B-ms98-a-0004	B.4	15.083500	15.550125		[silence]	[silence]
sw4064B-ms98-a-0004	B.4	15.550125	15.821125		I	i
sw4064B-ms98-a-0004	B.4	15.821125	16.273500		have	have
sw4064B-ms98-a-0004	B.4	16.273500	16.523500		uh	uh
sw4064B-ms98-a-0004	B.4	16.523500	16.953500		very	very
sw4064B-ms98-a-0004	B.4	16.953500	17.361250		little	little
sw4064B-ms98-a-0004	B.4	17.361250	17.493125		[silence]	[silence]
sw4064B-ms98-a-0004	B.4	17.493125	18.043500		regard	regard
sw4064B-ms98-a-0004	B.4	18.043500	18.233500		for	for
sw4064B-ms98-a-0004	B.4	18.233500	18.333500		the	the
sw4064B-ms98-a-0004	B.4	18.333500	18.784250		law	law
sw4064B-ms98-a-0004	B.6	18.784250	19.061625		[silence]	[silence]
sw4064B-ms98-a-0005	B.6	19.061625	19.073375		[silence]	[silence]
sw4064B-ms98-a-0005	B.6	19.073375	19.810625		[laughter]	[laughter]
sw4064B-ms98-a-0005	B.6	19.810625	20.072000	<DEL>	---	that's
sw4064B-ms98-a-0005	B.6	20.072000	20.301750		[silence]	[silence]
sw4064B-ms98-a-0005	B.6	20.301750	20.861625		presently	presently
sw4064B-ms98-a-0005	B.6	20.861625	21.369875		practiced	practiced
sw4064B-ms98-a-0005	B.8	21.369875	22.591875		[laughter]	[laughter]
sw4064B-ms98-a-0005	B.8	22.591875	22.649125		[silence]	[silence]
sw4064B-ms98-a-0006	B.8	22.649125	26.067500		[silence]	[silence]
sw4064B-ms98-a-0007	B.8	26.067500	26.676625		[silence]	[silence]
sw4064B-ms98-a-0007	B.8	26.676625	26.847375		I	i
sw4064B-ms98-a-0007	B.8	26.847375	26.947500		was	was
sw4064B-ms98-a-0007	B.8	26.947500	27.297500		thinking	thinking
sw4064B-ms98-a-0007	B.8	27.297500	27.927500		primarily	primarily
sw4064B-ms98-a-0007	B.8	27.927500	28.417500		criminal	criminal
sw4064B-ms98-a-0007	B.8	28.417500	29.090500		cases	cases
sw4064B-ms98-a-0007	B.10	29.090500	29.474500		[silence]	[silence]
sw4064B-ms98-a-0008	B.10	29.474500	32.497500		[silence]	[silence]
sw4064B-ms98-a-0009	B.10	32.497500	33.069875		[silence]	[silence]
sw4064B-ms98-a-0009	B.10	33.069875	33.555750		Yes	yes
sw4064B-ms98-a-0009	B.12	33.555750	33.892125		[silence]	[silence]
sw4064B-ms98-a-0010	B.12	33.892125	34.232125		[silence]	[silence]
sw4064B-ms98-a-0010	B.12	34.232125	34.808750	<SUB>	Uh-huh	um-hum
sw4064B-ms98-a-0010	B.12	34.808750	35.516875		[silence]	[silence]
sw4064B-ms98-a-0010	B.12	35.516875	35.892125		That's	that's
sw4064B-ms98-a-0010	B.12	35.892125	35.962125		a	a
sw4064B-ms98-a-0010	B.12	35.962125	36.552125		concern	concern
sw4064B-ms98-a-0010	B.12	36.552125	36.682125		of	of
sw4064B-ms98-a-0010	B.12	36.682125	37.362500		mine	mine
sw4064B-ms98-a-0010	B.12	37.362500	37.452875		[silence]	[silence]
sw4064B-ms98-a-0010	B.12	37.452875	37.962375		Uh	uh
sw4064B-ms98-a-0010	B.12	37.962375	38.520125		[silence]	[silence]
sw4064B-ms98-a-0011	B.12	38.520125	39.048875		[silence]	[silence]
sw4064B-ms98-a-0011	B.12	39.048875	39.290125		I	i
sw4064B-ms98-a-0011	B.12	39.290125	39.540125		would	would
sw4064B-ms98-a-0011	B.12	39.540125	39.790125		feel	feel
sw4064B-ms98-a-0011	B.12	39.790125	40.030125		more	more
sw4064B-ms98-a-0011	B.12	40.030125	40.710125		comfortable	comfortable
sw4064B-ms98-a-0011	B.12	40.710125	40.860125		in	in
sw4064B-ms98-a-0011	B.12	40.860125	41.120125		many	many
sw4064B-ms98-a-0011	B.12	41.120125	41.660125		cases	cases
sw4064B-ms98-a-0011	B.12	41.660125	41.820125		I	i
sw4064B-ms98-a-0011	B.12	41.820125	42.160125		think	think
sw4064B-ms98-a-0011	B.12	42.160125	42.321750		with	with
sw4064B-ms98-a-0011	B.12	42.321750	42.404625		[silence]	[silence]
sw4064B-ms98-a-0011	B.12	42.404625	43.041375		judges	judges
sw4064B-ms98-a-0011	B.12	43.041375	43.551625		Uh	uh
sw4064B-ms98-a-0011	B.12	43.551625	44.402875		[silence]	[silence]
sw4064B-ms98-a-0011	B.12	44.402875	44.550125		you	you
sw4064B-ms98-a-0011	B.12	44.550125	44.680125		know	know
sw4064B-ms98-a-0011	B.12	44.680125	44.960125		doing	doing
sw4064B-ms98-a-0011	B.12	44.960125	45.020125		the	the
sw4064B-ms98-a-0011	B.12	45.020125	45.741125		sentencing	sentencing
sw4064B-ms98-a-0011	B.14	45.741125	46.335875		[silence]	[silence]
sw4064B-ms98-a-0012	B.14	46.335875	56.978375		[silence]	[silence]
sw4064B-ms98-a-0013	B.14	56.978375	57.551625		[silence]	[silence]
sw4064B-ms98-a-0013	B.14	57.551625	58.015875	<SUB>	Uh-huh	um-hum
sw4064B-ms98-a-0013	B.16	58.015875	58.476625		[silence]	[silence]
sw4064B-ms98-a-0014	B.16	58.476625	70.358750		[silence]	[silence]
sw4064B-ms98-a-0015	B.16	70.358750	70.645875		[silence]	[silence]
sw4064B-ms98-a-0015	B.16	70.645875	70.844875		Yeah	yeah
sw4064B-ms98-a-0015	B.16	70.844875	71.061625		my	my
sw4064B-ms98-a-0015	B.16	71.061625	71.558750		question	question
sw4064B-ms98-a-0015	B.16	71.558750	71.698750		I	i
sw4064B-ms98-a-0015	B.16	71.698750	72.028750		guess	guess
sw4064B-ms98-a-0015	B.16	72.028750	72.235750	<DEL>	---	is
sw4064B-ms98-a-0015	B.16	72.235750	72.408750		are	are
sw4064B-ms98-a-0015	B.16	72.408750	72.548750		they	they
sw4064B-ms98-a-0015	B.16	72.548750	72.908750		really	really
sw4064B-ms98-a-0015	B.16	72.908750	73.098750		your	your
sw4064B-ms98-a-0015	B.16	73.098750	73.905250		peers	peers
sw4064B-ms98-a-0015	B.18	73.905250	74.512125		[silence]	[silence]
sw4064B-ms98-a-0016	B.18	74.512125	75.332125		[silence]	[silence]
sw4064B-ms98-a-0016	B.18	75.332125	75.646250		Uh	uh
sw4064B-ms98-a-0016	B.20	75.646250	76.086625		[silence]	[silence]
sw4064B-ms98-a-0017	B.20	76.086625	77.359750		[silence]	[silence]
sw4064B-ms98-a-0018	B.20	77.359750	77.789750		[silence]	[silence]
sw4064B-ms98-a-0018	B.20	77.789750	78.218250		Uh	uh
sw4064B-ms98-a-0018	B.20	78.218250	78.588375		[silence]	[silence]
sw4064B-ms98-a-0018	B.20	78.588375	78.759750		too	too
sw4064B-ms98-a-0018	B.20	78.759750	79.209750		often	often
sw4064B-ms98-a-0018	B.20	79.209750	79.309750		I	i
sw4064B-ms98-a-0018	B.20	79.309750	79.709750		think	think
sw4064B-ms98-a-0018	B.20	79.709750	79.909750	<CONT>	they	they're
sw4064B-ms98-a-0018	B.20	79.909750	79.909750	<CONT>	are	+++
sw4064B-ms98-a-0018	B.20	79.909750	80.584500		not	not
sw4064B-ms98-a-0018	B.22	80.584500	81.194625		[silence]	[silence]
sw4064B-ms98-a-0018	B.22	81.194625	81.669750		and	and
sw4064B-ms98-a-0018	B.22	81.669750	82.054125		uh	uh
sw4064B-ms98-a-0018	B.22	82.054125	82.788625		[silence]	[silence]
sw4064B-ms98-a-0018	B.22	82.788625	83.049750		when	when
sw4064B-ms98-a-0018	B.22	83.049750	83.312375		you	you
sw4064B-ms98-a-0018	B.22	83.312375	83.589750	<DEL>	---	y[ou]-
sw4064B-ms98-a-0018	B.22	83.589750	83.799750		when	when
sw4064B-ms98-a-0018	B.22	83.799750	84.119750		you	you
sw4064B-ms98-a-0018	B.22	84.119750	84.413375		are	are
sw4064B-ms98-a-0018	B.22	84.413375	84.654375		[silence]	[silence]
sw4064B-ms98-a-0019	B.22	84.654375	84.909625		[silence]	[silence]
sw4064B-ms98-a-0019	B.22	84.909625	85.584375		selecting	selecting
sw4064B-ms98-a-0019	B.22	85.584375	85.644375		a	a
sw4064B-ms98-a-0019	B.22	85.644375	86.210000		jury	jury
sw4064B-ms98-a-0019	B.22	86.210000	86.266500		[silence]	[silence]
sw4064B-ms98-a-0019	B.22	86.266500	86.934375		and	and
sw4064B-ms98-a-0019	B.22	86.934375	87.334375	<CONT>	you	you're
sw4064B-ms98-a-0019	B.22	87.334375	87.334375	<CONT>	are	+++
sw4064B-ms98-a-0019	B.22	87.334375	87.724375		doing	doing
sw4064B-ms98-a-0019	B.22	87.724375	87.924375		it	it
sw4064B-ms98-a-0019	B.22	87.924375	88.952750		partially	partially
sw4064B-ms98-a-0019	B.22	88.952750	89.224375		if	if
sw4064B-ms98-a-0019	B.22	89.224375	89.484375		if	if
sw4064B-ms98-a-0019	B.22	89.484375	89.757250		not	not
sw4064B-ms98-a-0019	B.22	89.757250	89.889000		[silence]	[silence]
sw4064B-ms98-a-0019	B.22	89.889000	90.544375		entirely	entirely
sw4064B-ms98-a-0019	B.22	90.544375	90.714375		on	on
sw4064B-ms98-a-0019	B.22	90.714375	90.784375		the	the
sw4064B-ms98-a-0019	B.22	90.784375	91.364375		basis	basis
sw4064B-ms98-a-0019	B.22	91.364375	91.501250		of	of
sw4064B-ms98-a-0019	B.22	91.501250	91.724375		which	which
sw4064B-ms98-a-0019	B.22	91.724375	92.286875		color	color
sw4064B-ms98-a-0019	B.22	92.286875	92.451000		[silence]	[silence]
sw4064B-ms98-a-0019	B.22	92.451000	93.514375		representation	representation
sw4064B-ms98-a-0019	B.22	93.514375	93.664375		you	you
sw4064B-ms98-a-0019	B.22	93.664375	94.178875		have	have
sw4064B-ms98-a-0019	B.24	94.178875	94.278875		[silence]	[silence]
sw4064B-ms98-a-0020	B.24	94.278875	94.831875		[silence]	[silence]
sw4064B-ms98-a-0020	B.24	94.831875	94.918875		you	you
sw4064B-ms98-a-0020	B.24	94.918875	95.105375		know	know
sw4064B-ms98-a-0020	B.24	95.105375	95.173375		[silence]	[silence]
sw4064B-ms98-a-0020	B.24	95.173375	95.558875	<CONT>	that	that's
sw4064B-ms98-a-0020	B.24	95.558875	95.558875	<CONT>	is	+++
sw4064B-ms98-a-0020	B.24	95.558875	95.618875		a	a
sw4064B-ms98-a-0020	B.24	95.618875	96.008875		matter	matter
sw4064B-ms98-a-0020	B.24	96.008875	96.078875		of	of
sw4064B-ms98-a-0020	B.24	96.078875	96.698875		concern	concern
sw4064B-ms98-a-0020	B.24	96.698875	96.918875		to	to
sw4064B-ms98-a-0020	B.24	96.918875	97.088875		me	me
sw4064B-ms98-a-0020	B.24	97.088875	97.576000		too	too
sw4064B-ms98-a-0020	B.24	97.576000	98.585500		[silence]	[silence]
sw4064B-ms98-a-0020	B.24	98.585500	99.018875		Uh	uh
sw4064B-ms98-a-0020	B.24	99.018875	99.188875		I	i
sw4064B-ms98-a-0020	B.24	99.188875	99.619625		think	think
sw4064B-ms98-a-0020	B.24	99.619625	100.018875		that	that
sw4064B-ms98-a-0020	B.24	100.018875	100.235375		uh	uh
sw4064B-ms98-a-0020	B.24	100.235375	101.045125		[silence]	[silence]
sw4064B-ms98-a-0020	B.24	101.045125	101.368875		in	in
sw4064B-ms98-a-0020	B.24	101.368875	101.768875		such	such
sw4064B-ms98-a-0020	B.24	101.768875	102.527000		cases	cases
sw4064B-ms98-a-0020	B.24	102.527000	103.183125		[silence]	[silence]
sw4064B-ms98-a-0020	B.24	103.183125	103.499000		uh	uh
sw4064B-ms98-a-0020	B.24	103.499000	104.152875		[silence]	[silence]
sw4064B-ms98-a-0021	B.24	104.152875	104.724500		[silence]	[silence]
sw4064B-ms98-a-0021	B.24	104.724500	104.862875	<CONT>	they	they're
sw4064B-ms98-a-0021	B.24	104.862875	104.862875	<CONT>	are	+++
sw4064B-ms98-a-0021	B.24	104.862875	105.122875		not	not
sw4064B-ms98-a-0021	B.24	105.122875	105.382875		really	really
sw4064B-ms98-a-0021	B.24	105.382875	105.832875		looking	looking
sw4064B-ms98-a-0021	B.24	105.832875	106.293500		for	for
sw4064B-ms98-a-0021	B.24	106.293500	106.510500		[silence]	[silence]
sw4064B-ms98-a-0021	B.24	106.510500	107.322875		unbiased	unbiased
sw4064B-ms98-a-0021	B.24	107.322875	107.722875		people	people
sw4064B-ms98-a-0021	B.24	107.722875	107.942875		but	but
sw4064B-ms98-a-0021	B.24	107.942875	108.292875		rather	rather
sw4064B-ms98-a-0021	B.24	108.292875	108.512875		for	for
sw4064B-ms98-a-0021	B.24	108.512875	109.330250		biased	biased
sw4064B-ms98-a-0021	B.26	109.330250	110.441875		[silence]	[silence]
sw4064B-ms98-a-0022	B.26	110.441875	111.481875		[silence]	[silence]
sw4064B-ms98-a-0022	B.26	111.481875	111.885875		Uh	uh
sw4064B-ms98-a-0022	B.26	111.885875	112.032750		[silence]	[silence]
sw4064B-ms98-a-0022	B.26	112.032750	112.261875		now	now
sw4064B-ms98-a-0022	B.26	112.261875	112.311875		I	i
sw4064B-ms98-a-0022	B.26	112.311875	112.701875		happen	happen
sw4064B-ms98-a-0022	B.26	112.701875	112.811875		to	to
sw4064B-ms98-a-0022	B.26	112.811875	113.051875		know	know
sw4064B-ms98-a-0022	B.26	113.051875	113.511875		several	several
sw4064B-ms98-a-0022	B.26	113.511875	114.099875		judges	judges
sw4064B-ms98-a-0022	B.26	114.099875	114.381875		and	and
sw4064B-ms98-a-0022	B.26	114.381875	114.641875	<CONT>	there	there's
sw4064B-ms98-a-0022	B.26	114.641875	114.641875	<CONT>	is	+++
sw4064B-ms98-a-0022	B.26	114.641875	114.991875		one	one
sw4064B-ms98-a-0022	B.26	114.991875	115.131875		that	that
sw4064B-ms98-a-0022	B.26	115.131875	115.301875	<CONT>	I	i'd
sw4064B-ms98-a-0022	B.26	115.301875	115.301875	<CONT>	would	+++
sw4064B-ms98-a-0022	B.26	115.301875	115.571875		feel	feel
sw4064B-ms98-a-0022	B.26	115.571875	116.391875		uncomfortable	uncomfortable
sw4064B-ms98-a-0022	B.26	116.391875	116.631875		but	but
sw4064B-ms98-a-0022	B.26	116.631875	117.069000		has	has
sw4064B-ms98-a-0022	B.26	117.069000	117.069000	<INS>	me-	---
sw4064B-ms98-a-0022	B.26	117.069000	117.581250		[vocalized-noise]	[vocalized-noise]
sw4064B-ms98-a-0022	B.26	117.581250	118.027250		doing	doing
sw4064B-ms98-a-0022	B.26	118.027250	118.147750		[silence]	[silence]
sw4064B-ms98-a-0022	B.26	118.147750	118.982375		sentencing	sentencing
sw4064B-ms98-a-0022	B.26	118.982375	119.069000		[silence]	[silence]
sw4064B-ms98-a-0022	B.26	119.069000	119.501875		without	without
sw4064B-ms98-a-0022	B.26	119.501875	119.605500		the	the
sw4064B-ms98-a-0022	B.26	119.605500	119.994125		jury	jury
sw4064B-ms98-a-0022	B.28	119.994125	120.144000		[laughter]	[laughter]
sw4064B-ms98-a-0022	B.28	120.144000	120.279625		[silence]	[silence]
sw4064B-ms98-a-0023	B.28	120.279625	120.346125		[silence]	[silence]
sw4064B-ms98-a-0023	B.28	120.346125	121.150000		[laughter]	[laughter]
sw4064B-ms98-a-0023	B.28	121.150000	121.234500		[silence]	[silence]
sw4064B-ms98-a-0024	B.28	121.234500	121.253125		[silence]	[silence]
sw4064B-ms98-a-0024	B.28	121.253125	121.685750		[noise]	[noise]
sw4064B-ms98-a-0024	B.28	121.685750	121.894500	<CONT>	I	i'd
sw4064B-ms98-a-0024	B.28	121.894500	121.894500	<CONT>	would	+++
sw4064B-ms98-a-0024	B.28	121.894500	122.144500		feel	feel
sw4064B-ms98-a-0024	B.28	122.144500	122.174500		a	a
sw4064B-ms98-a-0024	B.28	122.174500	122.354500		little	little
sw4064B-ms98-a-0024	B.28	122.354500	122.534500		bit	bit
sw4064B-ms98-a-0024	B.28	122.534500	123.144500		uneasy	uneasy
sw4064B-ms98-a-0024	B.28	123.144500	123.518250		about	about
sw4064B-ms98-a-0024	B.30	123.518250	123.830750		[silence]	[silence]
sw4064B-ms98-a-0024	B.30	123.830750	124.259875		but	but
sw4064B-ms98-a-0024	B.30	124.259875	124.484500		the	the
sw4064B-ms98-a-0024	B.30	124.484500	124.684500		other	other
sw4064B-ms98-a-0024	B.30	124.684500	125.352625		two	two
sw4064B-ms98-a-0024	B.30	125.352625	125.544500		I	i
sw4064B-ms98-a-0024	B.30	125.544500	126.215625		feel	feel
sw4064B-ms98-a-0024	B.30	126.215625	126.294750		[silence]	[silence]
sw4064B-ms98-a-0024	B.30	126.294750	126.674500		uh	uh
sw4064B-ms98-a-0024	B.30	126.674500	127.174500		would	would
sw4064B-ms98-a-0024	B.30	127.174500	127.919125		give	give
sw4064B-ms98-a-0024	B.30	127.919125	128.155500		[silence]	[silence]
sw4064B-ms98-a-0024	B.30	128.155500	128.924750		either	either
sw4064B-ms98-a-0024	B.30	128.924750	129.285750		[silence]	[silence]
sw4064B-ms98-a-0025	B.30	129.285750	129.741500		[silence]	[silence]
sw4064B-ms98-a-0025	B.30	129.741500	129.855750		you	you
sw4064B-ms98-a-0025	B.30	129.855750	130.085750		know	know
sw4064B-ms98-a-0025	B.30	130.085750	130.252375		the	the
sw4064B-ms98-a-0025	B.30	130.252375	130.353500		[silence]	[silence]
sw4064B-ms98-a-0025	B.30	130.353500	130.526750	<DEL>	---	the
sw4064B-ms98-a-0025	B.30	130.526750	131.005750		plaintiff	plaintiff
sw4064B-ms98-a-0025	B.30	131.005750	131.195750		or	or
sw4064B-ms98-a-0025	B.30	131.195750	131.195750	<INS>	for	---
sw4064B-ms98-a-0025	B.30	131.195750	131.326125		the	the
sw4064B-ms98-a-0025	B.30	131.326125	132.114500		defendant	defendant
sw4064B-ms98-a-0025	B.30	132.114500	132.453875	<DEL>	---	uh
sw4064B-ms98-a-0025	B.30	132.453875	132.669375		the	the
sw4064B-ms98-a-0025	B.30	132.669375	132.735750	<DEL>	---	th[e]-
sw4064B-ms98-a-0025	B.30	132.735750	132.865750		the	the
sw4064B-ms98-a-0025	B.30	132.865750	133.215750		full	full
sw4064B-ms98-a-0025	B.30	133.215750	133.897750		benefit	benefit
sw4064B-ms98-a-0025	B.30	133.897750	134.045750		of	of
sw4064B-ms98-a-0025	B.30	134.045750	134.206375		the	the
sw4064B-ms98-a-0025	B.30	134.206375	134.561500		law	law
sw4064B-ms98-a-0025	B.32	134.561500	134.993000		[silence]	[silence]
sw4064B-ms98-a-0026	B.32	134.993000	135.470125		[silence]	[silence]
sw4064B-ms98-a-0026	B.32	135.470125	135.563250		And	and
sw4064B-ms98-a-0026	B.32	135.563250	135.693000		I	i
sw4064B-ms98-a-0026	B.32	135.693000	135.893000		guess	guess
sw4064B-ms98-a-0026	B.32	135.893000	136.173000		that's	that's
sw4064B-ms98-a-0026	B.32	136.173000	136.333000		what	what
sw4064B-ms98-a-0026	B.32	136.333000	136.413000		I	i
sw4064B-ms98-a-0026	B.32	136.413000	136.523000		am	am
sw4064B-ms98-a-0026	B.32	136.523000	137.141125		concerned	concerned
sw4064B-ms98-a-0026	B.32	137.141125	137.474750		with	with
sw4064B-ms98-a-0026	B.34	137.474750	137.933500		[silence]	[silence]
sw4064B-ms98-a-0027	B.34	137.933500	145.595875		[silence]	[silence]
sw4064B-ms98-a-0028	B.34	145.595875	146.117875		[silence]	[silence]
sw4064B-ms98-a-0028	B.34	146.117875	146.613750	<SUB>	Uh-huh	um-hum
sw4064B-ms98-a-0028	B.36	146.613750	147.149875		[silence]	[silence]
sw4064B-ms98-a-0029	B.36	147.149875	154.059750		[silence]	[silence]
sw4064B-ms98-a-0030	B.36	154.059750	154.568875		[silence]	[silence]
sw4064B-ms98-a-0030	B.36	154.568875	154.779750		This	this
sw4064B-ms98-a-0030	B.36	154.779750	154.939750		is	is
sw4064B-ms98-a-0030	B.36	154.939750	155.292375		very	very
sw4064B-ms98-a-0030	B.36	155.292375	155.633875		true	true
sw4064B-ms98-a-0030	B.38	155.633875	156.075500		[silence]	[silence]
sw4064B-ms98-a-0031	B.38	156.075500	168.226250		[silence]	[silence]
sw4064B-ms98-a-0032	B.38	168.226250	168.807250		[silence]	[silence]
sw4064B-ms98-a-0032	B.38	168.807250	169.303875	<SUB>	Uh-huh	um-hum
sw4064B-ms98-a-0032	B.40	169.303875	169.767125		[silence]	[silence]
sw4064B-ms98-a-0032	B.40	169.767125	170.316250	<SUB>	Uh-huh	um-hum
sw4064B-ms98-a-0032	B.42	170.316250	170.800000		[silence]	[silence]
sw4064B-ms98-a-0033	B.42	170.800000	184.595500		[silence]	[silence]
sw4064B-ms98-a-0034	B.42	184.595500	185.142125		[silence]	[silence]
sw4064B-ms98-a-0034	B.42	185.142125	185.419125		Yeah	yeah
sw4064B-ms98-a-0034	B.42	185.419125	185.600125		and	and
sw4064B-ms98-a-0034	B.42	185.600125	185.755500		you	you
sw4064B-ms98-a-0034	B.42	185.755500	186.075500		do	do
sw4064B-ms98-a-0034	B.42	186.075500	186.719625		see	see
sw4064B-ms98-a-0034	B.42	186.719625	186.934375		[silence]	[silence]
sw4064B-ms98-a-0034	B.42	186.934375	187.424625		such	such
sw4064B-ms98-a-0034	B.42	187.424625	188.189250		[silence]	[silence]
sw4064B-ms98-a-0034	B.42	188.189250	188.527625	<DEL>	---	un[even]-
sw4064B-ms98-a-0034	B.42	188.527625	189.225500		uneven	uneven
sw4064B-ms98-a-0034	B.42	189.225500	190.110875		sentencing	sentencing
sw4064B-ms98-a-0034	B.44	190.110875	190.314250		[silence]	[silence]
sw4064B-ms98-a-0034	B.44	190.314250	190.529875	<DEL>	---	uh
sw4064B-ms98-a-0034	B.44	190.529875	190.855500		you	you
sw4064B-ms98-a-0034	B.44	190.855500	191.209500		know	know
sw4064B-ms98-a-0034	B.44	191.209500	191.765500		evidence	evidence
sw4064B-ms98-a-0034	B.44	191.765500	191.905500		of	of
sw4064B-ms98-a-0034	B.44	191.905500	191.995500		it	it
sw4064B-ms98-a-0034	B.44	191.995500	192.095500		in	in
sw4064B-ms98-a-0034	B.44	192.095500	192.175500		the	the
sw4064B-ms98-a-0034	B.44	192.175500	193.075500		newspapers	newspapers
sw4064B-ms98-a-0034	B.44	193.075500	193.275500		and	and
sw4064B-ms98-a-0034	B.44	193.275500	193.635500		such	such
sw4064B-ms98-a-0034	B.44	193.635500	193.768500		I	i
sw4064B-ms98-a-0034	B.44	193.768500	194.108750		mean	mean
sw4064B-ms98-a-0034	B.46	194.108750	194.424125		[silence]	[silence]
sw4064B-ms98-a-0035	B.46	194.424125	194.592875		[silence]	[silence]
sw4064B-ms98-a-0035	B.46	194.592875	195.063875		where	where
sw4064B-ms98-a-0035	B.46	195.063875	195.324125		uh	uh
sw4064B-ms98-a-0035	B.46	195.324125	195.484125		it	it
sw4064B-ms98-a-0035	B.46	195.484125	195.664125		would	would
sw4064B-ms98-a-0035	B.46	195.664125	196.084125		appear	appear
sw4064B-ms98-a-0035	B.46	196.084125	196.264125	<DEL>	---	that
sw4064B-ms98-a-0035	B.46	196.264125	196.354125		the	the
sw4064B-ms98-a-0035	B.46	196.354125	196.864125		crimes	crimes
sw4064B-ms98-a-0035	B.46	196.864125	196.974125		were	were
sw4064B-ms98-a-0035	B.46	196.974125	197.244125		very	very
sw4064B-ms98-a-0035	B.46	197.244125	197.784125		similar	similar
sw4064B-ms98-a-0035	B.46	197.784125	198.104125		but	but
sw4064B-ms98-a-0035	B.46	198.104125	198.264125		one	one
sw4064B-ms98-a-0035	B.46	198.264125	198.894125		individual	individual
sw4064B-ms98-a-0035	B.46	198.894125	199.087000		got	got
sw4064B-ms98-a-0035	B.46	199.087000	199.218750		[silence]	[silence]
sw4064B-ms98-a-0035	B.46	199.218750	199.494125	<CONT>	twenty-five	twenty
sw4064B-ms98-a-0035	B.46	199.494125	199.864125	<CONT>	+++	five
sw4064B-ms98-a-0035	B.46	199.864125	200.294125		years	years
sw4064B-ms98-a-0035	B.46	200.294125	200.441000		and	and
sw4064B-ms98-a-0035	B.46	200.441000	200.554125		the	the
sw4064B-ms98-a-0035	B.46	200.554125	200.704125		other	other
sw4064B-ms98-a-0035	B.46	200.704125	200.894125		one	one
sw4064B-ms98-a-0035	B.46	200.894125	201.024125		was	was
sw4064B-ms98-a-0035	B.46	201.024125	201.494125		sentenced	sentenced
sw4064B-ms98-a-0035	B.46	201.494125	201.594125		to	to
sw4064B-ms98-a-0035	B.46	201.594125	202.004125		life	life
sw4064B-ms98-a-0035	B.46	202.004125	202.303125	<DEL>	---	for
sw4064B-ms98-a-0035	B.46	202.303125	202.600125	<SUB>	So	some[thing]-
sw4064B-ms98-a-0035	B.48	202.600125	202.814375		[silence]	[silence]
sw4064B-ms98-a-0036	B.48	202.814375	203.734375		[silence]	[silence]
sw4064B-ms98-a-0036	B.48	203.734375	204.191000		Uh	uh
sw4064B-ms98-a-0036	B.50	204.191000	204.568625		[silence]	[silence]
sw4064B-ms98-a-0037	B.50	204.568625	208.924000		[silence]	[silence]
sw4064B-ms98-a-0038	B.50	208.924000	209.418750		[silence]	[silence]
sw4064B-ms98-a-0038	B.50	209.418750	209.694000		Isn't	isn't
sw4064B-ms98-a-0038	B.50	209.694000	209.874000		that	that
sw4064B-ms98-a-0038	B.50	209.874000	209.954000		the	the
sw4064B-ms98-a-0038	B.50	209.954000	210.388125		truth	truth
sw4064B-ms98-a-0038	B.52	210.388125	211.094875		[laughter]	[laughter]
sw4064B-ms98-a-0038	B.52	211.094875	211.316750		[silence]	[silence]
sw4064B-ms98-a-0039	B.52	211.316750	211.775500		[silence]	[silence]
sw4064B-ms98-a-0039	B.52	211.775500	212.134000		[noise]	[noise]
sw4064B-ms98-a-0039	B.52	212.134000	212.286750		There	there
sw4064B-ms98-a-0039	B.52	212.286750	212.356750		are	are
sw4064B-ms98-a-0039	B.52	212.356750	212.866750		times	times
sw4064B-ms98-a-0039	B.52	212.866750	213.226750		when	when
sw4064B-ms98-a-0039	B.52	213.226750	213.486750		is	is
sw4064B-ms98-a-0039	B.52	213.486750	213.816750		it	it
sw4064B-ms98-a-0039	B.52	213.816750	214.161875		uh	uh
sw4064B-ms98-a-0039	B.52	214.161875	214.655500		[silence]	[silence]
sw4064B-ms98-a-0040	B.52	214.655500	215.174000		[silence]	[silence]
sw4064B-ms98-a-0040	B.52	215.174000	215.717125		oh	oh
sw4064B-ms98-a-0040	B.52	215.717125	215.901750		[silence]	[silence]
sw4064B-ms98-a-0040	B.52	215.901750	216.355500		goodness	goodness
sw4064B-ms98-a-0040	B.52	216.355500	216.555500		my	my
sw4064B-ms98-a-0040	B.52	216.555500	216.915500	<CONT>	mind	mind's
sw4064B-ms98-a-0040	B.52	216.915500	216.915500	<CONT>	has	+++
sw4064B-ms98-a-0040	B.52	216.915500	217.235500		gone	gone
sw4064B-ms98-a-0040	B.52	217.235500	217.605500		blank	blank
sw4064B-ms98-a-0040	B.52	217.605500	217.826875	<SUB>	it's	it
sw4064B-ms98-a-0040	B.52	217.826875	217.977625		[silence]	[silence]
sw4064B-ms98-a-0040	B.52	217.977625	218.275500		uh	uh
sw4064B-ms98-a-0040	B.52	218.275500	218.756250		Othello	Othello
sw4064B-ms98-a-0040	B.52	218.756250	219.192125		[silence]	[silence]
sw4064B-ms98-a-0041	B.52	219.192125	219.489250		[silence]	[silence]
sw4064B-ms98-a-0041	B.52	219.489250	219.672125		You	you
sw4064B-ms98-a-0041	B.52	219.672125	219.752125		know	know
sw4064B-ms98-a-0041	B.52	219.752125	219.862125		where	where
sw4064B-ms98-a-0041	B.52	219.862125	219.942125		he	he
sw4064B-ms98-a-0041	B.52	219.942125	220.172125		says	says
sw4064B-ms98-a-0041	B.52	220.172125	220.442125		kill	kill
sw4064B-ms98-a-0041	B.52	220.442125	220.602125		all	all
sw4064B-ms98-a-0041	B.52	220.602125	220.712750		the	the
sw4064B-ms98-a-0041	B.52	220.712750	221.388375		lawyers	[laughter-lawyers]
sw4064B-ms98-a-0041	B.54	221.388375	223.242125		[laughter]	[laughter]
sw4064B-ms98-a-0041	B.54	223.242125	223.462125		Every	every
sw4064B-ms98-a-0041	B.54	223.462125	223.622125		now	now
sw4064B-ms98-a-0041	B.54	223.622125	223.722125		and	and
sw4064B-ms98-a-0041	B.54	223.722125	223.852125		then	then
sw4064B-ms98-a-0041	B.54	223.852125	223.992125		one	one
sw4064B-ms98-a-0041	B.54	223.992125	224.132125		is	is
sw4064B-ms98-a-0041	B.54	224.132125	224.532125		tempted	tempted
sw4064B-ms98-a-0041	B.54	224.532125	224.612125		to	to
sw4064B-ms98-a-0041	B.54	224.612125	224.942125	<SUB>	see	feel
sw4064B-ms98-a-0041	B.54	224.942125	225.131250	<SUB>	what	that
sw4064B-ms98-a-0041	B.54	225.131250	225.422750	<SUB>	what	way
sw4064B-ms98-a-0041	B.56	225.422750	225.788250		[silence]	[silence]
sw4064B-ms98-a-0042	B.56	225.788250	226.096500		[silence]	[silence]
sw4064B-ms98-a-0042	B.56	226.096500	227.483625		[laughter]	[laughter]
sw4064B-ms98-a-0042	B.56	227.483625	227.768125		But	but
sw4064B-ms98-a-0042	B.56	227.768125	228.046875		[silence]	[silence]
sw4064B-ms98-a-0042	B.56	228.046875	228.314000		I	i
sw4064B-ms98-a-0042	B.56	228.314000	228.548250		it's	it's
sw4064B-ms98-a-0042	B.56	228.548250	228.868250		taken	taken
sw4064B-ms98-a-0042	B.56	228.868250	229.008250		me	me
sw4064B-ms98-a-0042	B.56	229.008250	229.068250		a	a
sw4064B-ms98-a-0042	B.56	229.068250	229.378250		long	long
sw4064B-ms98-a-0042	B.56	229.378250	229.668250		time	time
sw4064B-ms98-a-0042	B.56	229.668250	229.818250		to	to
sw4064B-ms98-a-0042	B.56	229.818250	230.712625		understand	understand
sw4064B-ms98-a-0042	B.56	230.712625	231.318250		that	that
sw4064B-ms98-a-0042	B.56	231.318250	231.543125		uh	uh
sw4064B-ms98-a-0042	B.56	231.543125	231.908500		[silence]	[silence]
sw4064B-ms98-a-0042	B.56	231.908500	232.522750		lawyers	lawyers
sw4064B-ms98-a-0042	B.56	232.522750	232.608250		are	are
sw4064B-ms98-a-0042	B.56	232.608250	233.318250		concerned	concerned
sw4064B-ms98-a-0042	B.56	233.318250	233.551500		with	with
sw4064B-ms98-a-0042	B.56	233.551500	233.658250		the	the
sw4064B-ms98-a-0042	B.56	233.658250	234.122625		law	law
sw4064B-ms98-a-0042	B.56	234.122625	234.348250		and	and
sw4064B-ms98-a-0042	B.56	234.348250	234.598250		not	not
sw4064B-ms98-a-0042	B.56	234.598250	234.916375		with	with
sw4064B-ms98-a-0042	B.56	234.916375	234.980375		[silence]	[silence]
sw4064B-ms98-a-0042	B.56	234.980375	235.890000		justice	justice
sw4064B-ms98-a-0042	B.58	235.890000	236.428250		as	as
sw4064B-ms98-a-0042	B.58	236.428250	236.688250		we	we
sw4064B-ms98-a-0042	B.58	236.688250	237.078250		think	think
sw4064B-ms98-a-0042	B.58	237.078250	237.512500		of	of
sw4064B-ms98-a-0042	B.58	237.512500	237.642125		[silence]	[silence]
sw4064B-ms98-a-0043	B.58	237.642125	238.173875		[silence]	[silence]
sw4064B-ms98-a-0043	B.58	238.173875	238.352125		you	you
sw4064B-ms98-a-0043	B.58	238.352125	238.502125		know	know
sw4064B-ms98-a-0043	B.58	238.502125	238.885125	<SUB>	as	am[ateur]-
sw4064B-ms98-a-0043	B.58	238.885125	239.249750		as	as
sw4064B-ms98-a-0043	B.60	239.249750	239.883750		[silence]	[silence]
sw4064B-ms98-a-0043	B.60	239.883750	240.602125		novices	novices
sw4064B-ms98-a-0043	B.60	240.602125	240.912125		tend	tend
sw4064B-ms98-a-0043	B.60	240.912125	240.972125		to	to
sw4064B-ms98-a-0043	B.60	240.972125	241.412125		think	think
sw4064B-ms98-a-0043	B.60	241.412125	241.652625		that	that
sw4064B-ms98-a-0043	B.60	241.652625	241.720375		[silence]	[silence]
sw4064B-ms98-a-0043	B.60	241.720375	242.002125		uh	uh
sw4064B-ms98-a-0043	B.60	242.002125	242.552125		attorneys	attorneys
sw4064B-ms98-a-0043	B.60	242.552125	242.882125		care	care
sw4064B-ms98-a-0043	B.60	242.882125	243.212125		about	about
sw4064B-ms98-a-0043	B.60	243.212125	243.855875		justice	justice
sw4064B-ms98-a-0043	B.62	243.855875	244.332125		[silence]	[silence]
sw4064B-ms98-a-0044	B.62	244.332125	251.445500		[silence]	[silence]
sw4064B-ms98-a-0045	B.62	251.445500	251.964125		[silence]	[silence]
sw4064B-ms98-a-0045	B.62	251.964125	252.449375	<SUB>	Uh-huh	um-hum
sw4064B-ms98-a-0045	B.64	252.449375	252.900375		[silence]	[silence]
sw4064B-ms98-a-0046	B.64	252.900375	258.373750		[silence]	[silence]
sw4064B-ms98-a-0047	B.64	258.373750	258.839750		[silence]	[silence]
sw4064B-ms98-a-0047	B.64	258.839750	259.093750		And	and
sw4064B-ms98-a-0047	B.66	259.093750	259.343750	<CONT>	they	they're
sw4064B-ms98-a-0047	B.66	259.343750	259.343750	<CONT>	are	+++
sw4064B-ms98-a-0047	B.66	259.343750	259.673750		very	very
sw4064B-ms98-a-0047	B.66	259.673750	260.403750		effective	effective
sw4064B-ms98-a-0047	B.66	260.403750	260.919250		too	too
sw4064B-ms98-a-0047	B.68	260.919250	261.175375		[silence]	[silence]
sw4064B-ms98-a-0047	B.68	261.175375	261.445250		Uh	uh
sw4064B-ms98-a-0047	B.68	261.445250	261.622375		[silence]	[silence]
sw4064B-ms98-a-0047	B.68	261.622375	262.158500		even	even
sw4064B-ms98-a-0047	B.68	262.158500	262.580375		[silence]	[silence]
sw4064B-ms98-a-0047	B.68	262.580375	262.975500	<CONT>	I	i've
sw4064B-ms98-a-0047	B.68	262.975500	262.975500	<CONT>	have	+++
sw4064B-ms98-a-0047	B.68	262.975500	263.227875		[silence]	[silence]
sw4064B-ms98-a-0047	B.68	263.227875	263.363750		been	been
sw4064B-ms98-a-0047	B.68	263.363750	264.033750		involved	involved
sw4064B-ms98-a-0047	B.68	264.033750	264.033750	<INS>	uh	---
sw4064B-ms98-a-0047	B.68	264.033750	264.033750	<INS>	just	---
sw4064B-ms98-a-0047	B.68	264.033750	265.394875		[vocalized-noise]	[vocalized-noise]
sw4064B-ms98-a-0047	B.68	265.394875	265.889250	<SUB>	sli-	sl[ightly]-
sw4064B-ms98-a-0047	B.68	265.889250	266.613750		slightly	slightly
sw4064B-ms98-a-0047	B.68	266.613750	266.753750		in	in
sw4064B-ms98-a-0047	B.68	266.753750	266.813750		a	a
sw4064B-ms98-a-0047	B.68	266.813750	267.223750		case	case
sw4064B-ms98-a-0047	B.68	267.223750	267.393750		where	where
sw4064B-ms98-a-0047	B.68	267.393750	267.483750		I	i
sw4064B-ms98-a-0047	B.68	267.483750	267.993750		know	know
sw4064B-ms98-a-0047	B.68	267.993750	268.083750		the	the
sw4064B-ms98-a-0047	B.68	268.083750	268.583750		person	person
sw4064B-ms98-a-0047	B.68	268.583750	268.753750		is	is
sw4064B-ms98-a-0047	B.68	268.753750	269.250125		guilty	guilty
sw4064B-ms98-a-0047	B.70	269.250125	270.131500		[silence]	[silence]
sw4064B-ms98-a-0047	B.70	270.131500	270.533750		but	but
sw4064B-ms98-a-0047	B.70	270.533750	270.663750		uh	uh
sw4064B-ms98-a-0047	B.70	270.663750	270.913750		his	his
sw4064B-ms98-a-0047	B.70	270.913750	271.413750		attorneys	attorneys
sw4064B-ms98-a-0047	B.70	271.413750	271.693750		gotten	gotten
sw4064B-ms98-a-0047	B.70	271.693750	271.843750		him	him
sw4064B-ms98-a-0047	B.70	271.843750	272.255000		off	off
sw4064B-ms98-a-0047	B.72	272.255000	272.706125		[silence]	[silence]
sw4064B-ms98-a-0048	B.72	272.706125	273.276125		[silence]	[silence]
sw4064B-ms98-a-0048	B.72	273.276125	273.672000		Uh	uh
sw4064B-ms98-a-0048	B.72	273.672000	274.187625		[silence]	[silence]
sw4064B-ms98-a-0048	B.72	274.187625	274.251625		the	the
sw4064B-ms98-a-0048	B.72	274.251625	274.546125		city	city
sw4064B-ms98-a-0048	B.72	274.546125	274.736125		has	has
sw4064B-ms98-a-0048	B.72	274.736125	275.106125		dropped	dropped
sw4064B-ms98-a-0048	B.72	275.106125	275.266125		their	their
sw4064B-ms98-a-0048	B.72	275.266125	275.836125		charges	charges
sw4064B-ms98-a-0048	B.72	275.836125	276.326125		against	against
sw4064B-ms98-a-0048	B.72	276.326125	276.476125		him	him
sw4064B-ms98-a-0048	B.72	276.476125	277.046125		because	because
sw4064B-ms98-a-0048	B.72	277.046125	277.366125		their	their
sw4064B-ms98-a-0048	B.72	277.366125	277.615750		[silence]	[silence]
sw4064B-ms98-a-0048	B.72	277.615750	277.702375		the	the
sw4064B-ms98-a-0048	B.72	277.702375	278.176125		attorney	attorney
sw4064B-ms98-a-0048	B.72	278.176125	278.346125		has	has
sw4064B-ms98-a-0048	B.72	278.346125	278.886125		presented	presented
sw4064B-ms98-a-0048	B.72	278.886125	279.359125		enough	enough
sw4064B-ms98-a-0048	B.72	279.359125	279.445750		[silence]	[silence]
sw4064B-ms98-a-0048	B.72	279.445750	279.936125		evidence	evidence
sw4064B-ms98-a-0048	B.72	279.936125	280.106125		of	of
sw4064B-ms98-a-0048	B.72	280.106125	280.586125		doubt	doubt
sw4064B-ms98-a-0048	B.72	280.586125	280.696125		to	to
sw4064B-ms98-a-0048	B.72	280.696125	281.322875		convince	convince
sw4064B-ms98-a-0048	B.72	281.322875	281.443375		the	the
sw4064B-ms98-a-0048	B.72	281.443375	281.948000		judge	judge
sw4064B-ms98-a-0048	B.72	281.948000	283.057625		[silence]	[silence]
sw4064B-ms98-a-0049	B.72	283.057625	283.637625		[silence]	[silence]
sw4064B-ms98-a-0049	B.72	283.637625	283.897625		So	so
sw4064B-ms98-a-0049	B.72	283.897625	284.037625		I	i
sw4064B-ms98-a-0049	B.72	284.037625	284.217625		don't	don't
sw4064B-ms98-a-0049	B.72	284.217625	284.564500		know	know
sw4064B-ms98-a-0049	B.72	284.564500	285.217375		[laughter]	[laughter]
sw4064B-ms98-a-0049	B.72	285.217375	285.807500		[silence]	[silence]
sw4064B-ms98-a-0049	B.72	285.807500	286.160500		[vocalized-noise]	[vocalized-noise]
sw4064B-ms98-a-0049	B.72	286.160500	287.132625		[silence]	[silence]
sw4064B-ms98-a-0050	B.72	287.132625	290.084500		[silence]	[silence]
sw4064B-ms98-a-0051	B.72	290.084500	290.604375		[silence]	[silence]
sw4064B-ms98-a-0051	B.72	290.604375	290.811625		[vocalized-noise]	[vocalized-noise]
sw4064B-ms98-a-0051	B.72	290.811625	291.314125		[silence]	[silence]
sw4064B-ms98-a-0052	B.72	291.314125	298.562000		[silence]	[silence]
