sw4056A-ms98-a-0001	A.1	0.000000	0.001000		[silence]	[silence]
sw4056A-ms98-a-0001	A.1	0.001000	0.010500		[noise]	[noise]
sw4056A-ms98-a-0001	A.1	0.010500	0.252125		[silence]	[silence]
sw4056A-ms98-a-0002	A.1	0.252125	0.425375		[silence]	[silence]
sw4056A-ms98-a-0002	A.1	0.425375	0.862125		Okay	okay
sw4056A-ms98-a-0002	A.1	0.862125	1.082125		should	should
sw4056A-ms98-a-0002	A.1	1.082125	1.444000		begin	begin
sw4056A-ms98-a-0002	A.3	1.444000	2.001500		[silence]	[silence]
sw4056A-ms98-a-0003	A.3	2.001500	2.524875		[silence]	[silence]
sw4056A-ms98-a-0003	A.3	2.524875	2.861500		Uh	uh
sw4056A-ms98-a-0003	A.3	2.861500	3.189125		[silence]	[silence]
sw4056A-ms98-a-0004	A.3	3.189125	3.546125		[silence]	[silence]
sw4056A-ms98-a-0004	A.3	3.546125	3.691750		I	i
sw4056A-ms98-a-0004	A.3	3.691750	3.769125		can	can
sw4056A-ms98-a-0004	A.3	3.769125	4.069125		begin	begin
sw4056A-ms98-a-0004	A.3	4.069125	4.379125		this	this
sw4056A-ms98-a-0004	A.3	4.379125	4.707750		um	um
sw4056A-ms98-a-0004	A.3	4.707750	4.818875		[silence]	[silence]
sw4056A-ms98-a-0004	A.3	4.818875	5.169125		basically	basically
sw4056A-ms98-a-0004	A.3	5.169125	5.239125		I	i
sw4056A-ms98-a-0004	A.3	5.239125	5.409125		work	work
sw4056A-ms98-a-0004	A.3	5.409125	5.609125		for	for
sw4056A-ms98-a-0004	A.3	5.609125	6.039125		Honeywell	Honeywell
sw4056A-ms98-a-0004	A.3	6.039125	6.109125		in	in
sw4056A-ms98-a-0004	A.3	6.109125	6.777125		Minneapolis	Minneapolis
sw4056A-ms98-a-0004	A.5	6.777125	7.051250		[silence]	[silence]
sw4056A-ms98-a-0005	A.5	7.051250	7.372500		[silence]	[silence]
sw4056A-ms98-a-0005	A.5	7.372500	7.731250		and	and
sw4056A-ms98-a-0005	A.5	7.731250	7.862625		the	the
sw4056A-ms98-a-0005	A.5	7.862625	8.024125		[silence]	[silence]
sw4056A-ms98-a-0005	A.5	8.024125	8.138750		the	the
sw4056A-ms98-a-0005	A.5	8.138750	8.501250		benefit	benefit
sw4056A-ms98-a-0005	A.5	8.501250	8.931250		program	program
sw4056A-ms98-a-0005	A.5	8.931250	9.041250		we	we
sw4056A-ms98-a-0005	A.5	9.041250	9.271250		have	have
sw4056A-ms98-a-0005	A.5	9.271250	9.521250		here	here
sw4056A-ms98-a-0005	A.5	9.521250	9.661250		is	is
sw4056A-ms98-a-0005	A.5	9.661250	9.891250		really	really
sw4056A-ms98-a-0005	A.5	9.891250	10.189625		quite	quite
sw4056A-ms98-a-0005	A.5	10.189625	10.473125		good	good
sw4056A-ms98-a-0005	A.5	10.473125	11.019375		[silence]	[silence]
sw4056A-ms98-a-0005	A.5	11.019375	11.261500		I'm	i'm
sw4056A-ms98-a-0005	A.5	11.261500	11.371250		[silence]	[silence]
sw4056A-ms98-a-0005	A.5	11.371250	11.531250		I'm	i'm
sw4056A-ms98-a-0005	A.5	11.531250	11.751250		pretty	pretty
sw4056A-ms98-a-0005	A.5	11.751250	12.161250		pleased	pleased
sw4056A-ms98-a-0005	A.5	12.161250	12.341250		with	with
sw4056A-ms98-a-0005	A.5	12.341250	12.443875		it	it
sw4056A-ms98-a-0005	A.5	12.443875	12.617125		[silence]	[silence]
sw4056A-ms98-a-0005	A.5	12.617125	12.721250		They	they
sw4056A-ms98-a-0005	A.5	12.721250	13.111250		cover	cover
sw4056A-ms98-a-0005	A.5	13.111250	13.481250		[silence]	[silence]
sw4056A-ms98-a-0005	A.5	13.481250	13.741250		uh	uh
sw4056A-ms98-a-0005	A.5	13.741250	13.931250		just	just
sw4056A-ms98-a-0005	A.5	13.931250	14.141250		about	about
sw4056A-ms98-a-0005	A.5	14.141250	14.621250		everything	everything
sw4056A-ms98-a-0005	A.5	14.621250	15.021250		vision	vision
sw4056A-ms98-a-0005	A.5	15.021250	15.431250		dental	dental
sw4056A-ms98-a-0005	A.5	15.431250	15.916750		medical	medical
sw4056A-ms98-a-0005	A.7	15.916750	16.156000		[silence]	[silence]
sw4056A-ms98-a-0006	A.7	16.156000	16.428125		[silence]	[silence]
sw4056A-ms98-a-0006	A.7	16.428125	16.746000		uh	uh
sw4056A-ms98-a-0006	A.7	16.746000	16.926000		you	you
sw4056A-ms98-a-0006	A.7	16.926000	17.186000		name	name
sw4056A-ms98-a-0006	A.7	17.186000	17.326000		it	it
sw4056A-ms98-a-0006	A.7	17.326000	17.936000		[silence]	[silence]
sw4056A-ms98-a-0006	A.7	17.936000	18.186000		and	and
sw4056A-ms98-a-0006	A.7	18.186000	18.346000		for	for
sw4056A-ms98-a-0006	A.7	18.346000	18.626000		me	me
sw4056A-ms98-a-0006	A.7	18.626000	18.826000		this	this
sw4056A-ms98-a-0006	A.7	18.826000	19.174500		is	is
sw4056A-ms98-a-0006	A.7	19.174500	19.226000		the	the
sw4056A-ms98-a-0006	A.7	19.226000	19.536000		first	first
sw4056A-ms98-a-0006	A.7	19.536000	19.766000		job	job
sw4056A-ms98-a-0006	A.7	19.766000	19.876000		I've	i've
sw4056A-ms98-a-0006	A.7	19.876000	20.156000		had	had
sw4056A-ms98-a-0006	A.7	20.156000	20.316000		where	where
sw4056A-ms98-a-0006	A.7	20.316000	20.466000		they've	they've
sw4056A-ms98-a-0006	A.7	20.466000	20.846000		covered	covered
sw4056A-ms98-a-0006	A.7	20.846000	21.006000		that	that
sw4056A-ms98-a-0006	A.7	21.006000	21.326000		much	much
sw4056A-ms98-a-0006	A.7	21.326000	21.496000		so	so
sw4056A-ms98-a-0006	A.7	21.496000	21.626000		I'm	i'm
sw4056A-ms98-a-0006	A.7	21.626000	21.846000		pretty	pretty
sw4056A-ms98-a-0006	A.7	21.846000	22.486000		satisfied	satisfied
sw4056A-ms98-a-0006	A.7	22.486000	23.079250		myself	myself
sw4056A-ms98-a-0006	A.9	23.079250	23.406250		[silence]	[silence]
sw4056A-ms98-a-0007	A.9	23.406250	23.828375		[silence]	[silence]
sw4056A-ms98-a-0007	A.9	23.828375	24.108500		Um	um
sw4056A-ms98-a-0007	A.9	24.108500	24.224000		[silence]	[silence]
sw4056A-ms98-a-0007	A.9	24.224000	24.346250		what's	what's
sw4056A-ms98-a-0007	A.9	24.346250	24.436250		your	your
sw4056A-ms98-a-0007	A.9	24.436250	25.042875		situation	situation
sw4056A-ms98-a-0007	A.11	25.042875	25.495875		[silence]	[silence]
sw4056A-ms98-a-0008	A.11	25.495875	26.889625		[silence]	[silence]
sw4056A-ms98-a-0009	A.11	26.889625	27.262000		[silence]	[silence]
sw4056A-ms98-a-0009	A.11	27.262000	27.529000		Oh	oh
sw4056A-ms98-a-0009	A.13	27.529000	27.988250		[silence]	[silence]
sw4056A-ms98-a-0010	A.13	27.988250	39.183750		[silence]	[silence]
sw4056A-ms98-a-0011	A.13	39.183750	39.681125		[silence]	[silence]
sw4056A-ms98-a-0011	A.13	39.681125	39.953750	<SUB>	Uh-huh	um-hum
sw4056A-ms98-a-0011	A.15	39.953750	40.500375		[silence]	[silence]
sw4056A-ms98-a-0012	A.15	40.500375	41.048875		[silence]	[silence]
sw4056A-ms98-a-0012	A.15	41.048875	41.100375		Are	are
sw4056A-ms98-a-0012	A.15	41.100375	41.250375		you	you
sw4056A-ms98-a-0012	A.15	41.250375	41.290375		a	a
sw4056A-ms98-a-0012	A.15	41.290375	41.760375		professor	professor
sw4056A-ms98-a-0012	A.15	41.760375	41.973125		there	there
sw4056A-ms98-a-0012	A.17	41.973125	42.414000		[silence]	[silence]
sw4056A-ms98-a-0013	A.17	42.414000	50.476625		[silence]	[silence]
sw4056A-ms98-a-0014	A.17	50.476625	50.892500		[silence]	[silence]
sw4056A-ms98-a-0014	A.17	50.892500	51.125000		Oh	oh
sw4056A-ms98-a-0014	A.17	51.125000	51.229250		I	i
sw4056A-ms98-a-0014	A.17	51.229250	51.524375		see	see
sw4056A-ms98-a-0014	A.17	51.524375	52.158000		[silence]	[silence]
sw4056A-ms98-a-0014	A.17	52.158000	52.589625		okay	okay
sw4056A-ms98-a-0014	A.19	52.589625	52.980000		[silence]	[silence]
sw4056A-ms98-a-0015	A.19	52.980000	63.005000		[silence]	[silence]
sw4056A-ms98-a-0016	A.19	63.005000	63.552750		[silence]	[silence]
sw4056A-ms98-a-0016	A.19	63.552750	63.704375		Oh	oh
sw4056A-ms98-a-0016	A.19	63.704375	63.888375		no	no
sw4056A-ms98-a-0016	A.19	63.888375	64.335750		doubt	doubt
sw4056A-ms98-a-0016	A.21	64.335750	65.161875		[laughter]	[laughter]
sw4056A-ms98-a-0016	A.21	65.161875	65.472125		[silence]	[silence]
sw4056A-ms98-a-0017	A.21	65.472125	73.704875		[silence]	[silence]
sw4056A-ms98-a-0018	A.21	73.704875	74.091000		[silence]	[silence]
sw4056A-ms98-a-0018	A.21	74.091000	74.492500		Right	right
sw4056A-ms98-a-0018	A.21	74.492500	74.820750		[silence]	[silence]
sw4056A-ms98-a-0018	A.21	74.820750	74.914875	<SUB>	Well	oh
sw4056A-ms98-a-0018	A.21	74.914875	75.124875		that's	that's
sw4056A-ms98-a-0018	A.21	75.124875	75.459625		good	good
sw4056A-ms98-a-0018	A.23	75.459625	75.911625		[silence]	[silence]
sw4056A-ms98-a-0018	A.23	75.911625	75.984875		Yeah	yeah
sw4056A-ms98-a-0018	A.23	75.984875	76.184875		that's	that's
sw4056A-ms98-a-0018	A.23	76.184875	76.294875		one	one
sw4056A-ms98-a-0018	A.23	76.294875	76.354875		of	of
sw4056A-ms98-a-0018	A.23	76.354875	76.424875		the	the
sw4056A-ms98-a-0018	A.23	76.424875	76.724875		things	things
sw4056A-ms98-a-0018	A.23	76.724875	76.784875		I	i
sw4056A-ms98-a-0018	A.23	76.784875	77.034875		guess	guess
sw4056A-ms98-a-0018	A.23	77.034875	77.104875		I	i
sw4056A-ms98-a-0018	A.23	77.104875	77.304875		would	would
sw4056A-ms98-a-0018	A.23	77.304875	77.654875		change	change
sw4056A-ms98-a-0018	A.23	77.654875	77.924875		about	about
sw4056A-ms98-a-0018	A.23	77.924875	78.511375		Honeywell	Honeywell
sw4056A-ms98-a-0018	A.23	78.511375	78.684625		[silence]	[silence]
sw4056A-ms98-a-0018	A.23	78.684625	79.084000		is	is
sw4056A-ms98-a-0018	A.23	79.084000	79.454875		uh	uh
sw4056A-ms98-a-0018	A.23	79.454875	79.674500		[silence]	[silence]
sw4056A-ms98-a-0019	A.23	79.674500	80.694750		[silence]	[silence]
sw4056A-ms98-a-0020	A.23	80.694750	80.984625		[silence]	[silence]
sw4056A-ms98-a-0020	A.23	80.984625	81.110000		I	i
sw4056A-ms98-a-0020	A.23	81.110000	81.294750		used	used
sw4056A-ms98-a-0020	A.23	81.294750	81.394750		to	to
sw4056A-ms98-a-0020	A.23	81.394750	81.591875		work	work
sw4056A-ms98-a-0020	A.23	81.591875	81.719000		with	with
sw4056A-ms98-a-0020	A.23	81.719000	81.834750		the	the
sw4056A-ms98-a-0020	A.23	81.834750	82.014750		Army	Army
sw4056A-ms98-a-0020	A.23	82.014750	82.474750		Research	Research
sw4056A-ms98-a-0020	A.23	82.474750	83.024750		Institute	Institute
sw4056A-ms98-a-0020	A.23	83.024750	83.154750		and	and
sw4056A-ms98-a-0020	A.23	83.154750	83.594750		being	being
sw4056A-ms98-a-0020	A.23	83.594750	84.054750		a	a
sw4056A-ms98-a-0020	A.23	84.054750	84.264750		uh	uh
sw4056A-ms98-a-0020	A.23	84.264750	84.707625		[silence]	[silence]
sw4056A-ms98-a-0021	A.23	84.707625	85.046250		[silence]	[silence]
sw4056A-ms98-a-0021	A.23	85.046250	85.228000		a	a
sw4056A-ms98-a-0021	A.23	85.228000	85.334500		[silence]	[silence]
sw4056A-ms98-a-0021	A.23	85.334500	85.697625		government	government
sw4056A-ms98-a-0021	A.23	85.697625	86.457625		organization	organization
sw4056A-ms98-a-0021	A.23	86.457625	86.557625		you	you
sw4056A-ms98-a-0021	A.23	86.557625	86.767625		got	got
sw4056A-ms98-a-0021	A.23	86.767625	86.967625		quite	quite
sw4056A-ms98-a-0021	A.23	86.967625	87.007625		a	a
sw4056A-ms98-a-0021	A.23	87.007625	87.187625		few	few
sw4056A-ms98-a-0021	A.23	87.187625	87.617625		holidays	holidays
sw4056A-ms98-a-0021	A.23	87.617625	87.987625		off	off
sw4056A-ms98-a-0021	A.25	87.987625	88.149875		[silence]	[silence]
sw4056A-ms98-a-0022	A.25	88.149875	88.540125		[silence]	[silence]
sw4056A-ms98-a-0022	A.25	88.540125	88.669875		But	but
sw4056A-ms98-a-0022	A.25	88.669875	88.979875		here	here
sw4056A-ms98-a-0022	A.25	88.979875	89.129875		you	you
sw4056A-ms98-a-0022	A.25	89.129875	89.359875		don't	don't
sw4056A-ms98-a-0022	A.25	89.359875	89.559875		get	get
sw4056A-ms98-a-0022	A.25	89.559875	89.979875		that	that
sw4056A-ms98-a-0022	A.25	89.979875	90.139875		You	you
sw4056A-ms98-a-0022	A.25	90.139875	90.439875		maybe	maybe
sw4056A-ms98-a-0022	A.25	90.439875	90.636500		get	get
sw4056A-ms98-a-0022	A.25	90.636500	90.742000		[silence]	[silence]
sw4056A-ms98-a-0022	A.25	90.742000	90.869875		two	two
sw4056A-ms98-a-0022	A.25	90.869875	91.009875		or	or
sw4056A-ms98-a-0022	A.25	91.009875	91.264000		three	three
sw4056A-ms98-a-0022	A.25	91.264000	91.375500		a	a
sw4056A-ms98-a-0022	A.25	91.375500	91.723375		year	year
sw4056A-ms98-a-0022	A.27	91.723375	91.996875		[silence]	[silence]
sw4056A-ms98-a-0023	A.27	91.996875	92.228875		[silence]	[silence]
sw4056A-ms98-a-0023	A.27	92.228875	92.446875		So	so
sw4056A-ms98-a-0023	A.27	92.446875	92.616875		it's	it's
sw4056A-ms98-a-0023	A.27	92.616875	93.036875		really	really
sw4056A-ms98-a-0023	A.27	93.036875	93.386875		unless	unless
sw4056A-ms98-a-0023	A.27	93.386875	93.704750		you	you
sw4056A-ms98-a-0023	A.27	93.704750	93.802750		[silence]	[silence]
sw4056A-ms98-a-0023	A.27	93.802750	94.066875		unless	unless
sw4056A-ms98-a-0023	A.27	94.066875	94.126875		you	you
sw4056A-ms98-a-0023	A.27	94.126875	94.236875		have	have
sw4056A-ms98-a-0023	A.27	94.236875	94.376875		some	some
sw4056A-ms98-a-0023	A.27	94.376875	94.906875		vacation	vacation
sw4056A-ms98-a-0023	A.27	94.906875	95.216875		time	time
sw4056A-ms98-a-0023	A.27	95.216875	95.316875		or	or
sw4056A-ms98-a-0023	A.27	95.316875	95.586875		some	some
sw4056A-ms98-a-0023	A.27	95.586875	96.156875		some	some
sw4056A-ms98-a-0023	A.27	96.156875	96.426875		sick	sick
sw4056A-ms98-a-0023	A.27	96.426875	96.706875		leave	leave
sw4056A-ms98-a-0023	A.27	96.706875	96.806875		or	or
sw4056A-ms98-a-0023	A.27	96.806875	97.317125		whatever	whatever
sw4056A-ms98-a-0023	A.27	97.317125	97.539250		[silence]	[silence]
sw4056A-ms98-a-0023	A.27	97.539250	98.006250		um	um
sw4056A-ms98-a-0023	A.27	98.006250	98.575000		[silence]	[silence]
sw4056A-ms98-a-0023	A.27	98.575000	98.626875		you	you
sw4056A-ms98-a-0023	A.27	98.626875	98.826875		kind	kind
sw4056A-ms98-a-0023	A.27	98.826875	98.896875		of	of
sw4056A-ms98-a-0023	A.27	98.896875	99.026875		have	have
sw4056A-ms98-a-0023	A.27	99.026875	99.146875		to	to
sw4056A-ms98-a-0023	A.27	99.146875	99.536875		finagle	finagle
sw4056A-ms98-a-0023	A.27	99.536875	99.726875		your	your
sw4056A-ms98-a-0023	A.27	99.726875	99.896875		way	way
sw4056A-ms98-a-0023	A.27	99.896875	100.246875		around	around
sw4056A-ms98-a-0023	A.27	100.246875	100.336875		to	to
sw4056A-ms98-a-0023	A.27	100.336875	100.536875		get	get
sw4056A-ms98-a-0023	A.27	100.536875	100.786875		that	that
sw4056A-ms98-a-0023	A.27	100.786875	101.210625		time	time
sw4056A-ms98-a-0023	A.29	101.210625	101.485625		So	so
sw4056A-ms98-a-0023	A.29	101.485625	101.510875		[silence]	[silence]
sw4056A-ms98-a-0024	A.29	101.510875	102.080125		[silence]	[silence]
sw4056A-ms98-a-0024	A.29	102.080125	102.315500		that's	that's
sw4056A-ms98-a-0024	A.29	102.315500	102.412125		[silence]	[silence]
sw4056A-ms98-a-0024	A.29	102.412125	102.580875		that's	that's
sw4056A-ms98-a-0024	A.29	102.580875	102.740875		kind	kind
sw4056A-ms98-a-0024	A.29	102.740875	102.830875		of	of
sw4056A-ms98-a-0024	A.29	102.830875	102.890875		a	a
sw4056A-ms98-a-0024	A.29	102.890875	103.440875		drawback	drawback
sw4056A-ms98-a-0024	A.29	103.440875	103.530875		I	i
sw4056A-ms98-a-0024	A.29	103.530875	103.908625		think	think
sw4056A-ms98-a-0024	A.29	103.908625	104.680750		[silence]	[silence]
sw4056A-ms98-a-0024	A.29	104.680750	105.040875		But	but
sw4056A-ms98-a-0024	A.29	105.040875	105.230875		uh	uh
sw4056A-ms98-a-0024	A.29	105.230875	105.900875		[silence]	[silence]
sw4056A-ms98-a-0024	A.29	105.900875	105.978750		I	i
sw4056A-ms98-a-0024	A.29	105.978750	106.100875		don't	don't
sw4056A-ms98-a-0024	A.29	106.100875	106.385500		know	know
sw4056A-ms98-a-0024	A.29	106.385500	106.781000		[silence]	[silence]
sw4056A-ms98-a-0024	A.29	106.781000	106.980875		What	what
sw4056A-ms98-a-0024	A.29	106.980875	107.050875		do	do
sw4056A-ms98-a-0024	A.29	107.050875	107.160875		you	you
sw4056A-ms98-a-0024	A.29	107.160875	107.630875		consider	consider
sw4056A-ms98-a-0024	A.29	107.630875	107.940875		most	most
sw4056A-ms98-a-0024	A.29	107.940875	108.350875		important	important
sw4056A-ms98-a-0024	A.29	108.350875	108.440875		you	you
sw4056A-ms98-a-0024	A.29	108.440875	108.776250		think	think
sw4056A-ms98-a-0024	A.29	108.776250	109.488125		[silence]	[silence]
sw4056A-ms98-a-0024	A.29	109.488125	109.610875		in	in
sw4056A-ms98-a-0024	A.29	109.610875	109.990875		terms	terms
sw4056A-ms98-a-0024	A.29	109.990875	110.210875		of	of
sw4056A-ms98-a-0024	A.29	110.210875	110.350875		of	of
sw4056A-ms98-a-0024	A.29	110.350875	110.470875		the	the
sw4056A-ms98-a-0024	A.29	110.470875	110.800875		different	different
sw4056A-ms98-a-0024	A.29	110.800875	111.354375		benefits	benefits
sw4056A-ms98-a-0024	A.31	111.354375	111.581250		[silence]	[silence]
sw4056A-ms98-a-0025	A.31	111.581250	119.349250		[silence]	[silence]
sw4056A-ms98-a-0026	A.31	119.349250	119.752875		[silence]	[silence]
sw4056A-ms98-a-0026	A.31	119.752875	119.998125	<SUB>	Uh-huh	um-hum
sw4056A-ms98-a-0026	A.33	119.998125	120.068500		[silence]	[silence]
sw4056A-ms98-a-0027	A.33	120.068500	125.167000		[silence]	[silence]
sw4056A-ms98-a-0028	A.33	125.167000	125.612250		[silence]	[silence]
sw4056A-ms98-a-0028	A.33	125.612250	125.822375		Yeah	yeah
sw4056A-ms98-a-0028	A.35	125.822375	126.271875		[silence]	[silence]
sw4056A-ms98-a-0029	A.35	126.271875	135.000000		[silence]	[silence]
sw4056A-ms98-a-0030	A.35	135.000000	135.495125		[silence]	[silence]
sw4056A-ms98-a-0030	A.35	135.495125	135.580000		Yeah	yeah
sw4056A-ms98-a-0030	A.35	135.580000	135.637875		I	i
sw4056A-ms98-a-0030	A.35	135.637875	135.760000		don't	don't
sw4056A-ms98-a-0030	A.35	135.760000	135.830000		know	know
sw4056A-ms98-a-0030	A.35	135.830000	135.920000		if	if
sw4056A-ms98-a-0030	A.35	135.920000	136.020000		you	you
sw4056A-ms98-a-0030	A.35	136.020000	136.270000		saw	saw
sw4056A-ms98-a-0030	A.35	136.270000	136.415000		on	on
sw4056A-ms98-a-0030	A.35	136.415000	136.693750		TWENTY	Twenty
sw4056A-ms98-a-0030	A.35	136.693750	136.960000		TWENTY	Twenty
sw4056A-ms98-a-0030	A.35	136.960000	137.080000		the	the
sw4056A-ms98-a-0030	A.35	137.080000	137.210000		other	other
sw4056A-ms98-a-0030	A.35	137.210000	137.476875		night	night
sw4056A-ms98-a-0030	A.35	137.476875	138.023125		[silence]	[silence]
sw4056A-ms98-a-0030	A.35	138.023125	138.350000		they	they
sw4056A-ms98-a-0030	A.35	138.350000	138.680000		uh	uh
sw4056A-ms98-a-0030	A.35	138.680000	138.880000		they	they
sw4056A-ms98-a-0030	A.35	138.880000	139.330000		basically	basically
sw4056A-ms98-a-0030	A.35	139.330000	139.910875		reviewed	reviewed
sw4056A-ms98-a-0030	A.35	139.910875	140.340375		Oregon's	Oregon's
sw4056A-ms98-a-0030	A.35	140.340375	140.758625		plan	plan
sw4056A-ms98-a-0030	A.37	140.758625	140.856500		[silence]	[silence]
sw4056A-ms98-a-0030	A.37	140.856500	140.966125		or	or
sw4056A-ms98-a-0030	A.37	140.966125	141.135625		The	The
sw4056A-ms98-a-0030	A.37	141.135625	141.490000		Oregon	Oregon
sw4056A-ms98-a-0030	A.37	141.490000	141.878500		Plan	Plan
sw4056A-ms98-a-0030	A.39	141.878500	142.285375		[silence]	[silence]
sw4056A-ms98-a-0030	A.39	142.285375	142.596375		toward	toward
sw4056A-ms98-a-0030	A.39	142.596375	142.750750		[silence]	[silence]
sw4056A-ms98-a-0030	A.39	142.750750	142.920000		uh	uh
sw4056A-ms98-a-0030	A.39	142.920000	143.580000		nationalizing	nationalizing
sw4056A-ms98-a-0030	A.39	143.580000	143.790000		health	health
sw4056A-ms98-a-0030	A.39	143.790000	144.070000		care	care
sw4056A-ms98-a-0030	A.39	144.070000	144.190000		and	and
sw4056A-ms98-a-0030	A.39	144.190000	144.320000		that	that
sw4056A-ms98-a-0030	A.39	144.320000	144.490000		kind	kind
sw4056A-ms98-a-0030	A.39	144.490000	144.570000		of	of
sw4056A-ms98-a-0030	A.39	144.570000	144.812375		thing	thing
sw4056A-ms98-a-0030	A.39	144.812375	145.154500		[silence]	[silence]
sw4056A-ms98-a-0031	A.39	145.154500	145.379250		[silence]	[silence]
sw4056A-ms98-a-0031	A.39	145.379250	145.454500		It's	it's
sw4056A-ms98-a-0031	A.39	145.454500	145.594500		kind	kind
sw4056A-ms98-a-0031	A.39	145.594500	145.664500		of	of
sw4056A-ms98-a-0031	A.39	145.664500	145.744500		an	an
sw4056A-ms98-a-0031	A.39	145.744500	146.194500		interesting	interesting
sw4056A-ms98-a-0031	A.39	146.194500	146.504500		plan	plan
sw4056A-ms98-a-0031	A.39	146.504500	146.634500		It's	it's
sw4056A-ms98-a-0031	A.39	146.634500	146.784500		kind	kind
sw4056A-ms98-a-0031	A.39	146.784500	146.844500		of	of
sw4056A-ms98-a-0031	A.39	146.844500	147.254500		cold	cold
sw4056A-ms98-a-0031	A.39	147.254500	147.524500		though	though
sw4056A-ms98-a-0031	A.39	147.524500	147.694500		They've	they've
sw4056A-ms98-a-0031	A.39	147.694500	148.174500		essentially	essentially
sw4056A-ms98-a-0031	A.39	148.174500	148.334500		made	made
sw4056A-ms98-a-0031	A.39	148.334500	148.434500		up	up
sw4056A-ms98-a-0031	A.39	148.434500	148.484500		a	a
sw4056A-ms98-a-0031	A.39	148.484500	148.904500		list	list
sw4056A-ms98-a-0031	A.39	148.904500	149.174500		of	of
sw4056A-ms98-a-0031	A.39	149.174500	149.494500		uh	uh
sw4056A-ms98-a-0031	A.39	149.494500	149.932000		[silence]	[silence]
sw4056A-ms98-a-0032	A.39	149.932000	150.395875		[silence]	[silence]
sw4056A-ms98-a-0032	A.39	150.395875	150.814125		oh	oh
sw4056A-ms98-a-0032	A.39	150.814125	151.164375		[silence]	[silence]
sw4056A-ms98-a-0032	A.39	151.164375	151.332000		all	all
sw4056A-ms98-a-0032	A.39	151.332000	151.412000		the	the
sw4056A-ms98-a-0032	A.39	151.412000	152.002000		different	different
sw4056A-ms98-a-0032	A.39	152.002000	152.392000		uh	uh
sw4056A-ms98-a-0032	A.39	152.392000	152.751000		[silence]	[silence]
sw4056A-ms98-a-0033	A.39	152.751000	153.175875		[silence]	[silence]
sw4056A-ms98-a-0033	A.39	153.175875	153.461000	<DEL>	---	med[ical]-
sw4056A-ms98-a-0033	A.39	153.461000	153.811000		medical	medical
sw4056A-ms98-a-0033	A.39	153.811000	154.321000		maladies	maladies
sw4056A-ms98-a-0033	A.39	154.321000	154.441000		that	that
sw4056A-ms98-a-0033	A.39	154.441000	154.541000		you	you
sw4056A-ms98-a-0033	A.39	154.541000	154.721000		can	can
sw4056A-ms98-a-0033	A.39	154.721000	155.040375		have	have
sw4056A-ms98-a-0033	A.41	155.040375	155.379000		[silence]	[silence]
sw4056A-ms98-a-0034	A.41	155.379000	155.719000		[silence]	[silence]
sw4056A-ms98-a-0034	A.41	155.719000	155.829000		and	and
sw4056A-ms98-a-0034	A.41	155.829000	155.919000	<SUB>	then	they
sw4056A-ms98-a-0034	A.41	155.919000	156.409000		basically	basically
sw4056A-ms98-a-0034	A.41	156.409000	156.549000		made	made
sw4056A-ms98-a-0034	A.41	156.549000	156.619000		a	a
sw4056A-ms98-a-0034	A.41	156.619000	157.289000		cutoff	cutoff
sw4056A-ms98-a-0034	A.41	157.289000	157.599000		about	about
sw4056A-ms98-a-0034	A.41	157.599000	157.909000		six	six
sw4056A-ms98-a-0034	A.41	157.909000	158.119000		hundred	hundred
sw4056A-ms98-a-0034	A.41	158.119000	158.221625		and	and
sw4056A-ms98-a-0034	A.41	158.221625	158.398625	<CONT>	eighty-seven	eighty
sw4056A-ms98-a-0034	A.41	158.398625	158.849000	<CONT>	+++	seven
sw4056A-ms98-a-0034	A.41	158.849000	159.039000		and	and
sw4056A-ms98-a-0034	A.41	159.039000	159.499000		below	below
sw4056A-ms98-a-0034	A.41	159.499000	159.699000		will	will
sw4056A-ms98-a-0034	A.41	159.699000	159.969000		not	not
sw4056A-ms98-a-0034	A.41	159.969000	160.069000		be	be
sw4056A-ms98-a-0034	A.41	160.069000	160.479000		covered	covered
sw4056A-ms98-a-0034	A.41	160.479000	160.814000		by	by
sw4056A-ms98-a-0034	A.41	160.814000	161.168000		[silence]	[silence]
sw4056A-ms98-a-0034	A.41	161.168000	161.499000		by	by
sw4056A-ms98-a-0034	A.41	161.499000	161.719000		uh	uh
sw4056A-ms98-a-0034	A.41	161.719000	162.799000		subsidized	subsidized
sw4056A-ms98-a-0034	A.41	162.799000	163.039000		health	health
sw4056A-ms98-a-0034	A.41	163.039000	163.369000		care	care
sw4056A-ms98-a-0034	A.41	163.369000	163.639000		and	and
sw4056A-ms98-a-0034	A.41	163.639000	163.984250	<DEL>	---	and
sw4056A-ms98-a-0034	A.41	163.984250	164.119000		[silence]	[silence]
sw4056A-ms98-a-0034	A.41	164.119000	164.179000		the	the
sw4056A-ms98-a-0034	A.41	164.179000	164.439000		ones	ones
sw4056A-ms98-a-0034	A.41	164.439000	164.819000		above	above
sw4056A-ms98-a-0034	A.41	164.819000	165.209000		would	would
sw4056A-ms98-a-0034	A.43	165.209000	165.380000		[silence]	[silence]
sw4056A-ms98-a-0035	A.43	165.380000	165.804375		[silence]	[silence]
sw4056A-ms98-a-0035	A.43	165.804375	165.920000		So	so
sw4056A-ms98-a-0035	A.43	165.920000	166.030000		it's	it's
sw4056A-ms98-a-0035	A.43	166.030000	166.250000		kind	kind
sw4056A-ms98-a-0035	A.43	166.250000	166.340000		of	of
sw4056A-ms98-a-0035	A.43	166.340000	166.490000		like	like
sw4056A-ms98-a-0035	A.43	166.490000	166.820000		drawing	drawing
sw4056A-ms98-a-0035	A.43	166.820000	167.000000		this	this
sw4056A-ms98-a-0035	A.43	167.000000	167.470000		line	line
sw4056A-ms98-a-0035	A.43	167.470000	167.710000		and	and
sw4056A-ms98-a-0035	A.43	167.710000	168.020000		and	and
sw4056A-ms98-a-0035	A.43	168.020000	168.150000		if	if
sw4056A-ms98-a-0035	A.43	168.150000	168.260000		you	you
sw4056A-ms98-a-0035	A.43	168.260000	168.460000		have	have
sw4056A-ms98-a-0035	A.43	168.460000	168.571625		it	it
sw4056A-ms98-a-0035	A.43	168.571625	168.673375		[silence]	[silence]
sw4056A-ms98-a-0035	A.43	168.673375	168.950000		great	great
sw4056A-ms98-a-0035	A.43	168.950000	169.090000		if	if
sw4056A-ms98-a-0035	A.43	169.090000	169.170000		you	you
sw4056A-ms98-a-0035	A.43	169.170000	169.470000		don't	don't
sw4056A-ms98-a-0035	A.43	169.470000	169.640000		[silence]	[silence]
sw4056A-ms98-a-0035	A.43	169.640000	169.760000		you're	you're
sw4056A-ms98-a-0035	A.43	169.760000	170.030000		kind	kind
sw4056A-ms98-a-0035	A.43	170.030000	170.110000		of	of
sw4056A-ms98-a-0035	A.43	170.110000	170.170000		out	out
sw4056A-ms98-a-0035	A.43	170.170000	170.310000		of	of
sw4056A-ms98-a-0035	A.43	170.310000	170.616250		luck	luck
sw4056A-ms98-a-0035	A.45	170.616250	170.998875		[silence]	[silence]
sw4056A-ms98-a-0036	A.45	170.998875	171.407250		[silence]	[silence]
sw4056A-ms98-a-0036	A.45	171.407250	171.683000		but	but
sw4056A-ms98-a-0036	A.45	171.683000	171.973125		um	um
sw4056A-ms98-a-0036	A.45	171.973125	172.270750		[silence]	[silence]
sw4056A-ms98-a-0036	A.45	172.270750	172.359625		it	it
sw4056A-ms98-a-0036	A.45	172.359625	172.441250		[vocalized-noise]	[vocalized-noise]
sw4056A-ms98-a-0036	A.45	172.441250	172.609000		was	was
sw4056A-ms98-a-0036	A.45	172.609000	172.609000	<INS>	kind	---
sw4056A-ms98-a-0036	A.45	172.609000	172.609000	<INS>	of	---
sw4056A-ms98-a-0036	A.45	172.609000	172.674375		an	an
sw4056A-ms98-a-0036	A.45	172.674375	173.058875		interesting	interesting
sw4056A-ms98-a-0036	A.45	173.058875	173.408875		show	show
sw4056A-ms98-a-0036	A.47	173.408875	173.568625		[silence]	[silence]
sw4056A-ms98-a-0037	A.47	173.568625	173.758875		[silence]	[silence]
sw4056A-ms98-a-0037	A.47	173.758875	173.844750		I	i
sw4056A-ms98-a-0037	A.47	173.844750	174.028625		think	think
sw4056A-ms98-a-0037	A.47	174.028625	174.158625		you're	you're
sw4056A-ms98-a-0037	A.47	174.158625	174.446875		right	right
sw4056A-ms98-a-0037	A.47	174.446875	174.548625		[silence]	[silence]
sw4056A-ms98-a-0037	A.47	174.548625	174.635125		I	i
sw4056A-ms98-a-0037	A.47	174.635125	174.848625		think	think
sw4056A-ms98-a-0037	A.47	174.848625	175.088625		health	health
sw4056A-ms98-a-0037	A.47	175.088625	175.358625		care	care
sw4056A-ms98-a-0037	A.47	175.358625	175.428625		is	is
sw4056A-ms98-a-0037	A.47	175.428625	175.758625		probably	probably
sw4056A-ms98-a-0037	A.47	175.758625	175.878625		the	the
sw4056A-ms98-a-0037	A.47	175.878625	176.058625		the	the
sw4056A-ms98-a-0037	A.47	176.058625	176.358625		most	most
sw4056A-ms98-a-0037	A.47	176.358625	176.803375		pressing	pressing
sw4056A-ms98-a-0037	A.49	176.803375	177.157750		[silence]	[silence]
sw4056A-ms98-a-0038	A.49	177.157750	177.477750		[silence]	[silence]
sw4056A-ms98-a-0038	A.49	177.477750	177.712375		uh	uh
sw4056A-ms98-a-0038	A.49	177.712375	177.828125		the	the
sw4056A-ms98-a-0038	A.49	177.828125	178.217750		pressing	pressing
sw4056A-ms98-a-0038	A.49	178.217750	178.543625		one	one
sw4056A-ms98-a-0038	A.49	178.543625	179.022000		[silence]	[silence]
sw4056A-ms98-a-0038	A.49	179.022000	179.147750		but	but
sw4056A-ms98-a-0038	A.49	179.147750	179.257750		I'll	i'll
sw4056A-ms98-a-0038	A.49	179.257750	179.457750		tell	tell
sw4056A-ms98-a-0038	A.49	179.457750	179.567750		you	you
sw4056A-ms98-a-0038	A.49	179.567750	179.757750	<SUB>	I	i-
sw4056A-ms98-a-0038	A.49	179.757750	179.917750	<DEL>	---	i-
sw4056A-ms98-a-0038	A.49	179.917750	180.185125		[silence]	[silence]
sw4056A-ms98-a-0038	A.49	180.185125	180.296750		I	i
sw4056A-ms98-a-0038	A.49	180.296750	180.507750		don't	don't
sw4056A-ms98-a-0038	A.49	180.507750	180.757750		mind	mind
sw4056A-ms98-a-0038	A.49	180.757750	181.047750		having	having
sw4056A-ms98-a-0038	A.49	181.047750	181.437750		dental	dental
sw4056A-ms98-a-0038	A.49	181.437750	181.707750		[silence]	[silence]
sw4056A-ms98-a-0038	A.49	181.707750	181.817750		you	you
sw4056A-ms98-a-0038	A.49	181.817750	182.144625		know	know
sw4056A-ms98-a-0038	A.49	182.144625	182.403500		[silence]	[silence]
sw4056A-ms98-a-0038	A.49	182.403500	182.711375	<DEL>	---	uh
sw4056A-ms98-a-0038	A.49	182.711375	183.223625		sometimes	sometimes
sw4056A-ms98-a-0038	A.49	183.223625	183.497750		dental	dental
sw4056A-ms98-a-0038	A.49	183.497750	183.857750		costs	costs
sw4056A-ms98-a-0038	A.49	183.857750	184.047750		can	can
sw4056A-ms98-a-0038	A.49	184.047750	184.316375		be	be
sw4056A-ms98-a-0038	A.49	184.316375	184.694125		[silence]	[silence]
sw4056A-ms98-a-0039	A.49	184.694125	185.084125		[silence]	[silence]
sw4056A-ms98-a-0039	A.49	185.084125	185.409125		um	um
sw4056A-ms98-a-0039	A.49	185.409125	185.769750		[silence]	[silence]
sw4056A-ms98-a-0040	A.49	185.769750	186.203125		[silence]	[silence]
sw4056A-ms98-a-0040	A.49	186.203125	186.389750		just	just
sw4056A-ms98-a-0040	A.49	186.389750	186.619750		about	about
sw4056A-ms98-a-0040	A.49	186.619750	186.689750		as	as
sw4056A-ms98-a-0040	A.49	186.689750	187.269750		expensive	expensive
sw4056A-ms98-a-0040	A.49	187.269750	187.409750		if	if
sw4056A-ms98-a-0040	A.49	187.409750	187.609750		not	not
sw4056A-ms98-a-0040	A.49	187.609750	187.985375		more	more
sw4056A-ms98-a-0040	A.49	187.985375	188.546500		[silence]	[silence]
sw4056A-ms98-a-0040	A.49	188.546500	188.719750		and	and
sw4056A-ms98-a-0040	A.49	188.719750	188.779750		I	i
sw4056A-ms98-a-0040	A.49	188.779750	189.122625		know	know
sw4056A-ms98-a-0040	A.49	189.122625	189.751625		[silence]	[silence]
sw4056A-ms98-a-0040	A.49	189.751625	190.389750		historically	historically
sw4056A-ms98-a-0040	A.49	190.389750	190.459750		a	a
sw4056A-ms98-a-0040	A.49	190.459750	190.669750		lot	lot
sw4056A-ms98-a-0040	A.49	190.669750	190.739750		of	of
sw4056A-ms98-a-0040	A.49	190.739750	191.189750		companies	companies
sw4056A-ms98-a-0040	A.49	191.189750	191.269750		I	i
sw4056A-ms98-a-0040	A.49	191.269750	191.539750		think	think
sw4056A-ms98-a-0040	A.49	191.539750	191.919750		carried	carried
sw4056A-ms98-a-0040	A.49	191.919750	192.269750		dental	dental
sw4056A-ms98-a-0040	A.49	192.269750	192.389750		as	as
sw4056A-ms98-a-0040	A.49	192.389750	192.479750		a	a
sw4056A-ms98-a-0040	A.49	192.479750	192.899750		rider	rider
sw4056A-ms98-a-0040	A.49	192.899750	193.189750		along	along
sw4056A-ms98-a-0040	A.49	193.189750	193.329750		with	with
sw4056A-ms98-a-0040	A.49	193.329750	193.409750		the	the
sw4056A-ms98-a-0040	A.49	193.409750	193.887750		medical	medical
sw4056A-ms98-a-0040	A.51	193.887750	194.158500		[silence]	[silence]
sw4056A-ms98-a-0041	A.51	194.158500	194.444500		[silence]	[silence]
sw4056A-ms98-a-0041	A.51	194.444500	194.548500		but	but
sw4056A-ms98-a-0041	A.51	194.548500	194.658500		I'm	i'm
sw4056A-ms98-a-0041	A.51	194.658500	194.858500		not	not
sw4056A-ms98-a-0041	A.51	194.858500	195.108500		sure	sure
sw4056A-ms98-a-0041	A.51	195.108500	195.422625		that's	that's
sw4056A-ms98-a-0041	A.51	195.422625	195.525375		[silence]	[silence]
sw4056A-ms98-a-0041	A.51	195.525375	195.838000		that's	that's
sw4056A-ms98-a-0041	A.51	195.838000	196.318500		widely	widely
sw4056A-ms98-a-0041	A.51	196.318500	196.678500		followed	followed
sw4056A-ms98-a-0041	A.51	196.678500	196.838500		any	any
sw4056A-ms98-a-0041	A.51	196.838500	197.252750		more	more
sw4056A-ms98-a-0041	A.51	197.252750	197.900625		[silence]	[silence]
sw4056A-ms98-a-0041	A.51	197.900625	197.978500		I'm	i'm
sw4056A-ms98-a-0041	A.51	197.978500	198.148500		not	not
sw4056A-ms98-a-0041	A.51	198.148500	198.468500		sure	sure
sw4056A-ms98-a-0041	A.51	198.468500	198.591125		how	how
sw4056A-ms98-a-0041	A.51	198.591125	198.832125		[silence]	[silence]
sw4056A-ms98-a-0041	A.51	198.832125	199.018500		how	how
sw4056A-ms98-a-0041	A.51	199.018500	199.328500		does	does
sw4056A-ms98-a-0041	A.51	199.328500	199.657250		uh	uh
sw4056A-ms98-a-0041	A.51	199.657250	199.977375		[silence]	[silence]
sw4056A-ms98-a-0041	A.51	199.977375	200.398500		University	University
sw4056A-ms98-a-0041	A.51	200.398500	200.468500		of	of
sw4056A-ms98-a-0041	A.51	200.468500	200.558500		New	New
sw4056A-ms98-a-0041	A.51	200.558500	201.008500		Hampshire	Hampshire
sw4056A-ms98-a-0041	A.51	201.008500	201.258500		handle	handle
sw4056A-ms98-a-0041	A.51	201.258500	201.328500		it	it
sw4056A-ms98-a-0041	A.53	201.328500	201.821250		[silence]	[silence]
sw4056A-ms98-a-0042	A.53	201.821250	213.305000		[silence]	[silence]
sw4056A-ms98-a-0043	A.53	213.305000	213.739500		[silence]	[silence]
sw4056A-ms98-a-0043	A.53	213.739500	214.019625		Um	um
sw4056A-ms98-a-0043	A.55	214.019625	214.383000		[silence]	[silence]
sw4056A-ms98-a-0044	A.55	214.383000	221.650500		[silence]	[silence]
sw4056A-ms98-a-0045	A.55	221.650500	222.189750		[silence]	[silence]
sw4056A-ms98-a-0045	A.55	222.189750	222.477750		Great	great
sw4056A-ms98-a-0045	A.57	222.477750	223.000375		[silence]	[silence]
sw4056A-ms98-a-0046	A.57	223.000375	225.610375		[silence]	[silence]
sw4056A-ms98-a-0047	A.57	225.610375	226.080375		[silence]	[silence]
sw4056A-ms98-a-0047	A.57	226.080375	226.290875		Is	is
sw4056A-ms98-a-0047	A.57	226.290875	226.670375		that	that
sw4056A-ms98-a-0047	A.57	226.670375	226.930375		uh	uh
sw4056A-ms98-a-0047	A.57	226.930375	227.026500		let	let
sw4056A-ms98-a-0047	A.57	227.026500	227.324000		[silence]	[silence]
sw4056A-ms98-a-0047	A.57	227.324000	227.470375		me	me
sw4056A-ms98-a-0047	A.57	227.470375	227.830375		interrupt	interrupt
sw4056A-ms98-a-0047	A.57	227.830375	227.920375		is	is
sw4056A-ms98-a-0047	A.57	227.920375	228.090375		that	that
sw4056A-ms98-a-0047	A.57	228.090375	228.180375		the	the
sw4056A-ms98-a-0047	A.57	228.180375	228.500375		same	same
sw4056A-ms98-a-0047	A.57	228.500375	228.670375		for	for
sw4056A-ms98-a-0047	A.57	228.670375	229.170375		both	both
sw4056A-ms98-a-0047	A.57	229.170375	229.549750		uh	uh
sw4056A-ms98-a-0047	A.57	229.549750	229.993375		[silence]	[silence]
sw4056A-ms98-a-0048	A.57	229.993375	230.339250		[silence]	[silence]
sw4056A-ms98-a-0048	A.57	230.339250	230.983375		professors	professors
sw4056A-ms98-a-0048	A.57	230.983375	231.263375		and	and
sw4056A-ms98-a-0048	A.57	231.263375	231.363375		and	and
sw4056A-ms98-a-0048	A.57	231.363375	231.673375		also	also
sw4056A-ms98-a-0048	A.57	231.673375	232.193375		staff	staff
sw4056A-ms98-a-0048	A.57	232.193375	232.283375		and	and
sw4056A-ms98-a-0048	A.57	232.283375	232.943375		administration	administration
sw4056A-ms98-a-0048	A.57	232.943375	233.033375		is	is
sw4056A-ms98-a-0048	A.57	233.033375	233.202125		that	that
sw4056A-ms98-a-0048	A.57	233.202125	233.485625		[silence]	[silence]
sw4056A-ms98-a-0048	A.57	233.485625	234.094875		generally	generally
sw4056A-ms98-a-0048	A.57	234.094875	234.475375		across	across
sw4056A-ms98-a-0048	A.57	234.475375	234.583375		the	the
sw4056A-ms98-a-0048	A.57	234.583375	234.843375		board	board
sw4056A-ms98-a-0048	A.57	234.843375	234.923375		do	do
sw4056A-ms98-a-0048	A.57	234.923375	234.983375		you	you
sw4056A-ms98-a-0048	A.57	234.983375	235.393375		think	think
sw4056A-ms98-a-0048	A.57	235.393375	235.653375		or	or
sw4056A-ms98-a-0048	A.59	235.653375	236.217750		[silence]	[silence]
sw4056A-ms98-a-0049	A.59	236.217750	246.627125		[silence]	[silence]
sw4056A-ms98-a-0050	A.59	246.627125	247.087125		[silence]	[silence]
sw4056A-ms98-a-0050	A.59	247.087125	247.314750		Right	right
sw4056A-ms98-a-0050	A.61	247.314750	247.801125		[silence]	[silence]
sw4056A-ms98-a-0051	A.61	247.801125	250.172250		[silence]	[silence]
sw4056A-ms98-a-0052	A.61	250.172250	250.492250		[silence]	[silence]
sw4056A-ms98-a-0052	A.61	250.492250	250.780375	<SUB>	Uh-huh	um-hum
sw4056A-ms98-a-0052	A.63	250.780375	251.141875		[silence]	[silence]
sw4056A-ms98-a-0053	A.63	251.141875	256.339250		[silence]	[silence]
sw4056A-ms98-a-0054	A.63	256.339250	256.636875		[silence]	[silence]
sw4056A-ms98-a-0054	A.63	256.636875	256.899250		Uh-huh	uh-huh
sw4056A-ms98-a-0054	A.65	256.899250	257.212375		[silence]	[silence]
sw4056A-ms98-a-0055	A.65	257.212375	261.843125		[silence]	[silence]
sw4056A-ms98-a-0056	A.65	261.843125	262.298000		[silence]	[silence]
sw4056A-ms98-a-0056	A.65	262.298000	262.533125		Oh	oh
sw4056A-ms98-a-0056	A.65	262.533125	262.869000		okay	okay
sw4056A-ms98-a-0056	A.67	262.869000	263.321375		[silence]	[silence]
sw4056A-ms98-a-0057	A.67	263.321375	268.426750		[silence]	[silence]
sw4056A-ms98-a-0058	A.67	268.426750	268.777250		[silence]	[silence]
sw4056A-ms98-a-0058	A.67	268.777250	269.005625		Right	right
sw4056A-ms98-a-0058	A.69	269.005625	269.490250		[silence]	[silence]
sw4056A-ms98-a-0059	A.69	269.490250	271.615375		[silence]	[silence]
sw4056A-ms98-a-0060	A.69	271.615375	272.079500		[silence]	[silence]
sw4056A-ms98-a-0060	A.69	272.079500	272.155375		Yeah	yeah
sw4056A-ms98-a-0060	A.69	272.155375	272.235375		I'm	i'm
sw4056A-ms98-a-0060	A.69	272.235375	272.425375		kind	kind
sw4056A-ms98-a-0060	A.69	272.425375	272.485375		of	of
sw4056A-ms98-a-0060	A.69	272.485375	272.935375		interested	interested
sw4056A-ms98-a-0060	A.69	272.935375	273.125375		because	because_1
sw4056A-ms98-a-0060	A.69	273.125375	273.325375		I'm	i'm
sw4056A-ms98-a-0060	A.69	273.325375	273.916500		actually	actually
sw4056A-ms98-a-0060	A.69	273.916500	274.296875		[silence]	[silence]
sw4056A-ms98-a-0060	A.69	274.296875	274.575375		that's	that's
sw4056A-ms98-a-0060	A.69	274.575375	274.675375		the	the
sw4056A-ms98-a-0060	A.69	274.675375	274.945375		route	route
sw4056A-ms98-a-0060	A.69	274.945375	275.055375		I'd	i'd
sw4056A-ms98-a-0060	A.69	275.055375	275.245375		like	like
sw4056A-ms98-a-0060	A.69	275.245375	275.345375		to	to
sw4056A-ms98-a-0060	A.69	275.345375	275.645375		take	take
sw4056A-ms98-a-0060	A.69	275.645375	275.775375		when	when
sw4056A-ms98-a-0060	A.69	275.775375	275.835375		I	i
sw4056A-ms98-a-0060	A.69	275.835375	276.195375		finally	finally
sw4056A-ms98-a-0060	A.69	276.195375	276.315375		get	get
sw4056A-ms98-a-0060	A.69	276.315375	276.415375		my	my
sw4056A-ms98-a-0060	A.69	276.415375	276.905375		degree	degree
sw4056A-ms98-a-0060	A.71	276.905375	277.093000		[silence]	[silence]
sw4056A-ms98-a-0061	A.71	277.093000	277.318125		[silence]	[silence]
sw4056A-ms98-a-0061	A.71	277.318125	277.493000		is	is
sw4056A-ms98-a-0061	A.71	277.493000	277.833000		to	to
sw4056A-ms98-a-0061	A.71	277.833000	277.943000		uh	uh
sw4056A-ms98-a-0061	A.71	277.943000	278.113000		is	is
sw4056A-ms98-a-0061	A.71	278.113000	278.223000		to	to
sw4056A-ms98-a-0061	A.71	278.223000	278.513000		teach	teach
sw4056A-ms98-a-0061	A.71	278.513000	278.643000		in	in
sw4056A-ms98-a-0061	A.71	278.643000	278.643000	<INS>	a	---
sw4056A-ms98-a-0061	A.71	278.643000	279.374750		university	university
sw4056A-ms98-a-0061	A.73	279.374750	279.630375		[silence]	[silence]
sw4056A-ms98-a-0062	A.73	279.630375	279.921125		[silence]	[silence]
sw4056A-ms98-a-0062	A.73	279.921125	280.010375		I'm	i'm
sw4056A-ms98-a-0062	A.73	280.010375	280.100375		a	a
sw4056A-ms98-a-0062	A.73	280.100375	280.480375		doctoral	doctoral
sw4056A-ms98-a-0062	A.73	280.480375	280.790375		student	student
sw4056A-ms98-a-0062	A.73	280.790375	280.920375		in	in
sw4056A-ms98-a-0062	A.73	280.920375	281.330375		Florida	Florida
sw4056A-ms98-a-0062	A.73	281.330375	281.550375		right	right
sw4056A-ms98-a-0062	A.73	281.550375	281.821375		now	now
sw4056A-ms98-a-0062	A.75	281.821375	282.152750		[silence]	[silence]
sw4056A-ms98-a-0063	A.75	282.152750	282.493500		[silence]	[silence]
sw4056A-ms98-a-0063	A.75	282.493500	282.802750		but	but
sw4056A-ms98-a-0063	A.75	282.802750	283.115875	<SUB>	uh	um
sw4056A-ms98-a-0063	A.75	283.115875	283.373000		[silence]	[silence]
sw4056A-ms98-a-0064	A.75	283.373000	283.796125		[silence]	[silence]
sw4056A-ms98-a-0064	A.75	283.796125	283.993000		yeah	yeah
sw4056A-ms98-a-0064	A.75	283.993000	284.243000		that's	that's
sw4056A-ms98-a-0064	A.75	284.243000	284.483000		that's	that's
sw4056A-ms98-a-0064	A.75	284.483000	284.973000		interesting	interesting
sw4056A-ms98-a-0064	A.75	284.973000	285.163000		That's	that's
sw4056A-ms98-a-0064	A.75	285.163000	285.283000		one	one
sw4056A-ms98-a-0064	A.75	285.283000	285.343000		of	of
sw4056A-ms98-a-0064	A.75	285.343000	285.413000		the	the
sw4056A-ms98-a-0064	A.75	285.413000	285.693000		things	things
sw4056A-ms98-a-0064	A.75	285.693000	285.783000		I'd	i'd
sw4056A-ms98-a-0064	A.75	285.783000	285.923000		like	like
sw4056A-ms98-a-0064	A.75	285.923000	286.013000		to	to
sw4056A-ms98-a-0064	A.75	286.013000	286.223000		think	think
sw4056A-ms98-a-0064	A.75	286.223000	286.543000		about	about
sw4056A-ms98-a-0064	A.75	286.543000	286.723000		is	is
sw4056A-ms98-a-0064	A.75	286.723000	286.893000		in	in
sw4056A-ms98-a-0064	A.75	286.893000	287.033000		[silence]	[silence]
sw4056A-ms98-a-0064	A.75	287.033000	287.143000		what	what
sw4056A-ms98-a-0064	A.75	287.143000	287.293000		kind	kind
sw4056A-ms98-a-0064	A.75	287.293000	287.353000		of	of
sw4056A-ms98-a-0064	A.75	287.353000	287.803000		benefits	benefits
sw4056A-ms98-a-0064	A.75	287.803000	287.893000		they	they
sw4056A-ms98-a-0064	A.75	287.893000	288.153000		would	would
sw4056A-ms98-a-0064	A.75	288.153000	288.359500		uh	uh
sw4056A-ms98-a-0064	A.75	288.359500	288.529000		[silence]	[silence]
sw4056A-ms98-a-0064	A.75	288.529000	288.593000		they	they
sw4056A-ms98-a-0064	A.75	288.593000	288.733000		would	would
sw4056A-ms98-a-0064	A.75	288.733000	289.093000		cover	cover
sw4056A-ms98-a-0064	A.75	289.093000	289.243000		and	and
sw4056A-ms98-a-0064	A.75	289.243000	289.463000		things	things
sw4056A-ms98-a-0064	A.75	289.463000	289.590625		like	like
sw4056A-ms98-a-0064	A.75	289.590625	289.697625		[silence]	[silence]
sw4056A-ms98-a-0064	A.75	289.697625	290.096250		that	that
sw4056A-ms98-a-0064	A.77	290.096250	290.471625		[silence]	[silence]
sw4056A-ms98-a-0065	A.77	290.471625	295.645250		[silence]	[silence]
sw4056A-ms98-a-0066	A.77	295.645250	296.147875		[silence]	[silence]
sw4056A-ms98-a-0066	A.77	296.147875	296.295250		Oh	oh
sw4056A-ms98-a-0066	A.77	296.295250	296.355250		is	is
sw4056A-ms98-a-0066	A.77	296.355250	296.475250		that	that
sw4056A-ms98-a-0066	A.77	296.475250	296.711125		right	right
sw4056A-ms98-a-0066	A.77	296.711125	297.260625		[silence]	[silence]
sw4056A-ms98-a-0067	A.77	297.260625	299.170000		[silence]	[silence]
