sw4008B-ms98-a-0001	B.2	0.000000	0.040000		[silence]	[silence]
sw4008B-ms98-a-0001	B.2	0.040000	1.150000		[noise]	[noise]
sw4008B-ms98-a-0001	B.2	1.150000	1.234750		[silence]	[silence]
sw4008B-ms98-a-0002	B.2	1.234750	1.724750		[silence]	[silence]
sw4008B-ms98-a-0002	B.2	1.724750	2.114750		Yes	yes
sw4008B-ms98-a-0002	B.2	2.114750	2.234750		I	i
sw4008B-ms98-a-0002	B.2	2.234750	2.464750		have	have
sw4008B-ms98-a-0002	B.2	2.464750	2.792250		a	a
sw4008B-ms98-a-0002	B.2	2.792250	3.172625		[silence]	[silence]
sw4008B-ms98-a-0002	B.2	3.172625	3.744750		Macintosh	Macintosh
sw4008B-ms98-a-0002	B.2	3.744750	4.044750	<CONT>	S	SE
sw4008B-ms98-a-0002	B.2	4.044750	4.044750	<CONT>	E	+++
sw4008B-ms98-a-0002	B.2	4.044750	4.434750		thirty	thirty
sw4008B-ms98-a-0002	B.4	4.434750	4.920125		[silence]	[silence]
sw4008B-ms98-a-0003	B.4	4.920125	10.608500		[silence]	[silence]
sw4008B-ms98-a-0004	B.4	10.608500	11.159125		[silence]	[silence]
sw4008B-ms98-a-0004	B.4	11.159125	11.489625	<SUB>	Uh-huh	um-hum
sw4008B-ms98-a-0004	B.6	11.489625	12.066000		[silence]	[silence]
sw4008B-ms98-a-0005	B.6	12.066000	17.250000		[silence]	[silence]
sw4008B-ms98-a-0006	B.6	17.250000	17.800000		[silence]	[silence]
sw4008B-ms98-a-0006	B.6	17.800000	17.920000		What	what
sw4008B-ms98-a-0006	B.6	17.920000	17.980000		do	do
sw4008B-ms98-a-0006	B.6	17.980000	18.050000		you	you
sw4008B-ms98-a-0006	B.6	18.050000	18.220000		use	use
sw4008B-ms98-a-0006	B.6	18.220000	18.400000		yours	yours
sw4008B-ms98-a-0006	B.6	18.400000	18.610000		for	for
sw4008B-ms98-a-0006	B.6	18.610000	19.054500		mostly	mostly
sw4008B-ms98-a-0006	B.8	19.054500	20.483250		[silence]	[silence]
sw4008B-ms98-a-0007	B.8	20.483250	26.379125		[silence]	[silence]
sw4008B-ms98-a-0008	B.8	26.379125	26.869125		[silence]	[silence]
sw4008B-ms98-a-0008	B.8	26.869125	27.119125		Uh-huh	uh-huh
sw4008B-ms98-a-0008	B.10	27.119125	27.596500		[silence]	[silence]
sw4008B-ms98-a-0009	B.10	27.596500	36.909000		[silence]	[silence]
sw4008B-ms98-a-0010	B.10	36.909000	37.337500		[silence]	[silence]
sw4008B-ms98-a-0010	B.10	37.337500	37.529000		Well	well
sw4008B-ms98-a-0010	B.10	37.529000	37.579000		I	i
sw4008B-ms98-a-0010	B.10	37.579000	37.759000		do	do
sw4008B-ms98-a-0010	B.10	37.759000	37.789000		a	a
sw4008B-ms98-a-0010	B.10	37.789000	37.939000		lot	lot
sw4008B-ms98-a-0010	B.10	37.939000	38.019000		of	of
sw4008B-ms98-a-0010	B.10	38.019000	38.209000		word	word
sw4008B-ms98-a-0010	B.10	38.209000	38.819000		processing	processing
sw4008B-ms98-a-0010	B.10	38.819000	38.929000		and	and
sw4008B-ms98-a-0010	B.10	38.929000	39.219000	<CONT>	spreadsheets	spread
sw4008B-ms98-a-0010	B.10	39.219000	39.549000	<CONT>	+++	sheets
sw4008B-ms98-a-0010	B.10	39.549000	39.649000		and	and
sw4008B-ms98-a-0010	B.10	39.649000	39.859000		data	data
sw4008B-ms98-a-0010	B.10	39.859000	40.259000		base	base
sw4008B-ms98-a-0010	B.10	40.259000	40.519000		and	and
sw4008B-ms98-a-0010	B.10	40.519000	40.677125		uh	uh
sw4008B-ms98-a-0010	B.10	40.677125	41.309875		[silence]	[silence]
sw4008B-ms98-a-0010	B.10	41.309875	41.489000		about	about
sw4008B-ms98-a-0010	B.10	41.489000	41.549000		the	the
sw4008B-ms98-a-0010	B.10	41.549000	41.679000		only	only
sw4008B-ms98-a-0010	B.10	41.679000	41.859000		thing	thing
sw4008B-ms98-a-0010	B.10	41.859000	41.929000		I	i
sw4008B-ms98-a-0010	B.10	41.929000	42.139250		am	am
sw4008B-ms98-a-0010	B.10	42.139250	42.293625		[silence]	[silence]
sw4008B-ms98-a-0010	B.10	42.293625	42.669000		uh	uh
sw4008B-ms98-a-0010	B.10	42.669000	42.779000		I'm	i'm
sw4008B-ms98-a-0010	B.10	42.779000	42.949000		just	just
sw4008B-ms98-a-0010	B.10	42.949000	43.259000		starting	starting
sw4008B-ms98-a-0010	B.10	43.259000	43.319000		to	to
sw4008B-ms98-a-0010	B.10	43.319000	43.502000		get	get
sw4008B-ms98-a-0010	B.10	43.502000	43.754375	<DEL>	---	in
sw4008B-ms98-a-0010	B.10	43.754375	44.209875		into	into
sw4008B-ms98-a-0010	B.10	44.209875	44.501375		uh	uh
sw4008B-ms98-a-0010	B.10	44.501375	45.519500		[silence]	[silence]
sw4008B-ms98-a-0010	B.10	45.519500	45.571375		a	a
sw4008B-ms98-a-0010	B.10	45.571375	45.620250		little	little
sw4008B-ms98-a-0010	B.10	45.620250	45.729000		bit	bit
sw4008B-ms98-a-0010	B.10	45.729000	45.879000		more	more
sw4008B-ms98-a-0010	B.10	45.879000	46.679000		communications	communications
sw4008B-ms98-a-0010	B.10	46.679000	46.879000		now	now
sw4008B-ms98-a-0010	B.10	46.879000	47.019000		I've	i've
sw4008B-ms98-a-0010	B.10	47.019000	47.395875		just	just
sw4008B-ms98-a-0010	B.10	47.395875	47.587875	<DEL>	---	uh
sw4008B-ms98-a-0010	B.10	47.587875	47.879000		today	today
sw4008B-ms98-a-0010	B.10	47.879000	48.199000		ordered	ordered
sw4008B-ms98-a-0010	B.10	48.199000	48.239000		a	a
sw4008B-ms98-a-0010	B.10	48.239000	48.599000		fax	fax
sw4008B-ms98-a-0010	B.10	48.599000	48.979000		modem	modem
sw4008B-ms98-a-0010	B.10	48.979000	49.179000		so	so
sw4008B-ms98-a-0010	B.10	49.179000	49.269000		I'll	i'll
sw4008B-ms98-a-0010	B.10	49.269000	49.409000		be	be
sw4008B-ms98-a-0010	B.10	49.409000	49.589000		able	able
sw4008B-ms98-a-0010	B.10	49.589000	49.753625		to	to
sw4008B-ms98-a-0010	B.12	49.753625	50.178625		[silence]	[silence]
sw4008B-ms98-a-0011	B.12	50.178625	50.488625		[silence]	[silence]
sw4008B-ms98-a-0011	B.12	50.488625	50.608625		send	send
sw4008B-ms98-a-0011	B.12	50.608625	50.718625		and	and
sw4008B-ms98-a-0011	B.12	50.718625	51.038625		receive	receive
sw4008B-ms98-a-0011	B.12	51.038625	51.578625		faxes	faxes
sw4008B-ms98-a-0011	B.12	51.578625	51.738625		right	right
sw4008B-ms98-a-0011	B.12	51.738625	51.868625		over	over
sw4008B-ms98-a-0011	B.12	51.868625	51.988625		there	there
sw4008B-ms98-a-0011	B.12	51.988625	52.308625		without	without
sw4008B-ms98-a-0011	B.12	52.308625	52.638625		using	using
sw4008B-ms98-a-0011	B.12	52.638625	52.738625		you	you
sw4008B-ms98-a-0011	B.12	52.738625	52.918625		know	know
sw4008B-ms98-a-0011	B.12	52.918625	53.008625		you	you
sw4008B-ms98-a-0011	B.12	53.008625	53.128625		don't	don't
sw4008B-ms98-a-0011	B.12	53.128625	53.218625		have	have
sw4008B-ms98-a-0011	B.12	53.218625	53.298625		to	to
sw4008B-ms98-a-0011	B.12	53.298625	53.428625		make	make
sw4008B-ms98-a-0011	B.12	53.428625	53.468625		a	a
sw4008B-ms98-a-0011	B.12	53.468625	53.688625		hard	hard
sw4008B-ms98-a-0011	B.12	53.688625	53.988625		copy	copy
sw4008B-ms98-a-0011	B.12	53.988625	54.148625		that	that
sw4008B-ms98-a-0011	B.12	54.148625	54.348625		way	way
sw4008B-ms98-a-0011	B.14	54.348625	55.119125		[silence]	[silence]
sw4008B-ms98-a-0012	B.14	55.119125	56.179125		[silence]	[silence]
sw4008B-ms98-a-0012	B.14	56.179125	56.439125		Uh	uh
sw4008B-ms98-a-0012	B.14	56.439125	56.539125		are	are
sw4008B-ms98-a-0012	B.14	56.539125	56.599125		you	you
sw4008B-ms98-a-0012	B.14	56.599125	56.929125		using	using
sw4008B-ms98-a-0012	B.14	56.929125	57.446250		windows	windows
sw4008B-ms98-a-0012	B.16	57.446250	58.350125		[silence]	[silence]
sw4008B-ms98-a-0013	B.16	58.350125	62.749875		[silence]	[silence]
sw4008B-ms98-a-0014	B.16	62.749875	63.289875		[silence]	[silence]
sw4008B-ms98-a-0014	B.16	63.289875	63.599875		Uh-huh	uh-huh
sw4008B-ms98-a-0014	B.18	63.599875	64.104875		[silence]	[silence]
sw4008B-ms98-a-0015	B.18	64.104875	66.516000		[silence]	[silence]
sw4008B-ms98-a-0016	B.18	66.516000	67.012125		[silence]	[silence]
sw4008B-ms98-a-0016	B.18	67.012125	67.316250		Uh-huh	uh-huh
sw4008B-ms98-a-0016	B.18	67.316250	68.184125		[silence]	[silence]
sw4008B-ms98-a-0016	B.18	68.184125	68.306000		Well	well
sw4008B-ms98-a-0016	B.18	68.306000	68.406000		it's	it's
sw4008B-ms98-a-0016	B.18	68.406000	68.566000		getting	getting
sw4008B-ms98-a-0016	B.18	68.566000	68.626000		to	to
sw4008B-ms98-a-0016	B.18	68.626000	68.696000		be	be
sw4008B-ms98-a-0016	B.18	68.696000	68.886000		more	more
sw4008B-ms98-a-0016	B.18	68.886000	68.976000		and	and
sw4008B-ms98-a-0016	B.18	68.976000	69.106000		more	more
sw4008B-ms98-a-0016	B.18	69.106000	69.306000		like	like
sw4008B-ms98-a-0016	B.18	69.306000	69.386750		a	a
sw4008B-ms98-a-0016	B.18	69.386750	70.044875		Macintosh	Macintosh
sw4008B-ms98-a-0016	B.20	70.044875	70.639250		[laughter]	[laughter]
sw4008B-ms98-a-0016	B.20	70.639250	71.263375		[silence]	[silence]
sw4008B-ms98-a-0017	B.20	71.263375	80.232750		[silence]	[silence]
sw4008B-ms98-a-0018	B.20	80.232750	80.841750		[silence]	[silence]
sw4008B-ms98-a-0018	B.20	80.841750	81.167250	<SUB>	Uh-huh	um-hum
sw4008B-ms98-a-0018	B.22	81.167250	82.545500		[silence]	[silence]
sw4008B-ms98-a-0018	B.22	82.545500	82.662750		Well	well
sw4008B-ms98-a-0018	B.22	82.662750	82.732750		the	the
sw4008B-ms98-a-0018	B.22	82.732750	82.902750		one	one
sw4008B-ms98-a-0018	B.22	82.902750	83.112750		thing	thing
sw4008B-ms98-a-0018	B.22	83.112750	83.172750		I	i
sw4008B-ms98-a-0018	B.22	83.172750	83.402750		used	used
sw4008B-ms98-a-0018	B.22	83.402750	83.562750		to	to
sw4008B-ms98-a-0018	B.22	83.562750	83.962750		use	use
sw4008B-ms98-a-0018	B.22	83.962750	84.170125		a	a
sw4008B-ms98-a-0018	B.22	84.170125	84.170125	<INS>	uh	---
sw4008B-ms98-a-0018	B.22	84.170125	84.528000		[silence]	[silence]
sw4008B-ms98-a-0018	B.22	84.528000	84.662125		I've	i've
sw4008B-ms98-a-0018	B.22	84.662125	84.852750		never	never
sw4008B-ms98-a-0018	B.22	84.852750	85.022750		used	used
sw4008B-ms98-a-0018	B.22	85.022750	85.132750		an	an
sw4008B-ms98-a-0018	B.22	85.132750	85.542750	<CONT>	I	IBM
sw4008B-ms98-a-0018	B.22	85.542750	85.542750	<CONT>	B	+++
sw4008B-ms98-a-0018	B.22	85.542750	85.542750	<CONT>	M	+++
sw4008B-ms98-a-0018	B.22	85.542750	85.932750		actually	actually
sw4008B-ms98-a-0018	B.22	85.932750	85.962750		I	i
sw4008B-ms98-a-0018	B.22	85.962750	86.162750		used	used
sw4008B-ms98-a-0018	B.22	86.162750	86.232750		to	to
sw4008B-ms98-a-0018	B.22	86.232750	86.512750		use	use
sw4008B-ms98-a-0018	B.22	86.512750	86.733625		a	a
sw4008B-ms98-a-0018	B.22	86.733625	87.287250		[silence]	[silence]
sw4008B-ms98-a-0018	B.22	87.287250	87.462750		just	just
sw4008B-ms98-a-0018	B.22	87.462750	87.532750		an	an
sw4008B-ms98-a-0018	B.22	87.532750	87.772750		Apple	Apple
sw4008B-ms98-a-0018	B.22	87.772750	88.082750		two	two
sw4008B-ms98-a-0018	B.22	88.082750	88.392750		E	E
sw4008B-ms98-a-0018	B.22	88.392750	88.542750		which	which
sw4008B-ms98-a-0018	B.22	88.542750	88.602750		of	of
sw4008B-ms98-a-0018	B.22	88.602750	88.872750		course	course
sw4008B-ms98-a-0018	B.22	88.872750	89.117250		is	is
sw4008B-ms98-a-0018	B.24	89.117250	89.678500		[silence]	[silence]
sw4008B-ms98-a-0018	B.24	89.678500	89.832750		looks	looks
sw4008B-ms98-a-0018	B.24	89.832750	90.032750		pretty	pretty
sw4008B-ms98-a-0018	B.24	90.032750	90.492750		primitive	primitive
sw4008B-ms98-a-0018	B.24	90.492750	90.742750		now	now
sw4008B-ms98-a-0018	B.26	90.742750	91.501250		[silence]	[silence]
sw4008B-ms98-a-0019	B.26	91.501250	94.833375		[silence]	[silence]
sw4008B-ms98-a-0020	B.26	94.833375	95.353375		[silence]	[silence]
sw4008B-ms98-a-0020	B.26	95.353375	95.483375		But	but
sw4008B-ms98-a-0020	B.26	95.483375	95.563375		I	i
sw4008B-ms98-a-0020	B.26	95.563375	95.763375		don't	don't
sw4008B-ms98-a-0020	B.26	95.763375	95.943375		have	have
sw4008B-ms98-a-0020	B.26	95.943375	96.283375		any	any
sw4008B-ms98-a-0020	B.26	96.283375	96.461500		uh	uh
sw4008B-ms98-a-0020	B.26	96.461500	97.060375		[silence]	[silence]
sw4008B-ms98-a-0020	B.26	97.060375	97.243375		any	any
sw4008B-ms98-a-0020	B.26	97.243375	97.443375		real	real
sw4008B-ms98-a-0020	B.26	97.443375	97.973375		programming	programming
sw4008B-ms98-a-0020	B.26	97.973375	98.613375		capabilities	capabilities
sw4008B-ms98-a-0020	B.26	98.613375	98.743375		on	on
sw4008B-ms98-a-0020	B.26	98.743375	99.053375		my	my
sw4008B-ms98-a-0020	B.26	99.053375	99.143375		uh	uh
sw4008B-ms98-a-0020	B.26	99.143375	99.443375		Mac	Mac
sw4008B-ms98-a-0020	B.26	99.443375	99.643375		right	right
sw4008B-ms98-a-0020	B.26	99.643375	99.783375		now	now
sw4008B-ms98-a-0020	B.28	99.783375	99.853375		I	i
sw4008B-ms98-a-0020	B.28	99.853375	100.113375		don't	don't
sw4008B-ms98-a-0020	B.28	100.113375	100.363375		have	have
sw4008B-ms98-a-0020	B.28	100.363375	100.603125		uh	uh
sw4008B-ms98-a-0020	B.28	100.603125	101.040125		[silence]	[silence]
sw4008B-ms98-a-0020	B.28	101.040125	101.193375		any	any
sw4008B-ms98-a-0020	B.28	101.193375	101.874875		compilers	compilers
sw4008B-ms98-a-0020	B.30	101.874875	102.314000		[silence]	[silence]
sw4008B-ms98-a-0021	B.30	102.314000	102.814000		[silence]	[silence]
sw4008B-ms98-a-0021	B.30	102.814000	103.164000		so	so
sw4008B-ms98-a-0021	B.30	103.164000	103.394000		I'm	i'm
sw4008B-ms98-a-0021	B.30	103.394000	103.585875		uh	uh
sw4008B-ms98-a-0021	B.32	103.585875	103.967375		[silence]	[silence]
sw4008B-ms98-a-0021	B.32	103.967375	104.922500		[noise]	[noise]
sw4008B-ms98-a-0021	B.32	104.922500	105.219875	<DEL>	---	wa[nting]-
sw4008B-ms98-a-0021	B.32	105.219875	105.562250		[silence]	[silence]
sw4008B-ms98-a-0022	B.32	105.562250	108.965625		[silence]	[silence]
sw4008B-ms98-a-0023	B.32	108.965625	109.495625		[silence]	[silence]
sw4008B-ms98-a-0023	B.32	109.495625	109.575625		I	i
sw4008B-ms98-a-0023	B.32	109.575625	109.745625		use	use
sw4008B-ms98-a-0023	B.32	109.745625	109.815625		it	it
sw4008B-ms98-a-0023	B.32	109.815625	109.895625		in	in
sw4008B-ms98-a-0023	B.32	109.895625	110.025625		my	my
sw4008B-ms98-a-0023	B.32	110.025625	110.475625		business	business
sw4008B-ms98-a-0023	B.34	110.475625	111.619125		[silence]	[silence]
sw4008B-ms98-a-0024	B.34	111.619125	112.479125		[silence]	[silence]
sw4008B-ms98-a-0024	B.34	112.479125	112.789125		I	i
sw4008B-ms98-a-0024	B.34	112.789125	113.114625		uh	uh
sw4008B-ms98-a-0024	B.34	113.114625	113.325500		[silence]	[silence]
sw4008B-ms98-a-0024	B.34	113.325500	113.579125		do	do
sw4008B-ms98-a-0024	B.34	113.579125	113.838250		uh	uh
sw4008B-ms98-a-0024	B.34	113.838250	114.918750		[silence]	[silence]
sw4008B-ms98-a-0024	B.34	114.918750	115.759125		consultation	consultation
sw4008B-ms98-a-0024	B.34	115.759125	116.048000		and	and
sw4008B-ms98-a-0024	B.34	116.048000	116.198625		[silence]	[silence]
sw4008B-ms98-a-0024	B.34	116.198625	116.399125		and	and
sw4008B-ms98-a-0024	B.34	116.399125	116.849125		testing	testing
sw4008B-ms98-a-0024	B.34	116.849125	116.939125		of	of
sw4008B-ms98-a-0024	B.34	116.939125	117.159125		various	various
sw4008B-ms98-a-0024	B.34	117.159125	117.549125		kinds	kinds
sw4008B-ms98-a-0024	B.34	117.549125	117.979125		for	for
sw4008B-ms98-a-0024	B.34	117.979125	118.179125		uh	uh
sw4008B-ms98-a-0024	B.34	118.179125	118.359125		[silence]	[silence]
sw4008B-ms98-a-0024	B.34	118.359125	118.669125		English	English
sw4008B-ms98-a-0024	B.34	118.669125	118.769125		as	as
sw4008B-ms98-a-0024	B.34	118.769125	118.819125		a	a
sw4008B-ms98-a-0024	B.34	118.819125	119.089125		second	second
sw4008B-ms98-a-0024	B.34	119.089125	119.399125		language	language
sw4008B-ms98-a-0024	B.34	119.399125	119.889125		programs	programs
sw4008B-ms98-a-0024	B.36	119.889125	120.404125		[silence]	[silence]
sw4008B-ms98-a-0025	B.36	120.404125	143.458750		[silence]	[silence]
sw4008B-ms98-a-0026	B.36	143.458750	144.265000		[silence]	[silence]
sw4008B-ms98-a-0026	B.36	144.265000	144.528750		That's	that's
sw4008B-ms98-a-0026	B.36	144.528750	144.698750		uh	uh
sw4008B-ms98-a-0026	B.36	144.698750	145.238750		exactly	exactly
sw4008B-ms98-a-0026	B.36	145.238750	145.518750		what	what
sw4008B-ms98-a-0026	B.36	145.518750	145.708750		yeah	yeah
sw4008B-ms98-a-0026	B.36	145.708750	145.938750		that's	that's
sw4008B-ms98-a-0026	B.36	145.938750	145.998750		the	the
sw4008B-ms98-a-0026	B.36	145.998750	146.228750		kind	kind
sw4008B-ms98-a-0026	B.36	146.228750	146.308750		of	of
sw4008B-ms98-a-0026	B.36	146.308750	146.478750		thing	thing
sw4008B-ms98-a-0026	B.36	146.478750	146.578750		I'm	i'm
sw4008B-ms98-a-0026	B.36	146.578750	146.888750		working	working
sw4008B-ms98-a-0026	B.36	146.888750	147.048750		with	with
sw4008B-ms98-a-0026	B.36	147.048750	147.548750		exactly	exactly
sw4008B-ms98-a-0026	B.38	147.548750	147.677875		[silence]	[silence]
sw4008B-ms98-a-0026	B.38	147.677875	147.760750		You	you
sw4008B-ms98-a-0026	B.38	147.760750	147.998750		seem	seem
sw4008B-ms98-a-0026	B.38	147.998750	148.078750		to	to
sw4008B-ms98-a-0026	B.38	148.078750	148.338750		be	be
sw4008B-ms98-a-0026	B.38	148.338750	148.458750		uh	uh
sw4008B-ms98-a-0026	B.38	148.458750	148.698750		better	better
sw4008B-ms98-a-0026	B.38	148.698750	149.068750		informed	informed
sw4008B-ms98-a-0026	B.38	149.068750	149.168750		than	than
sw4008B-ms98-a-0026	B.38	149.168750	149.248750		the	the
sw4008B-ms98-a-0026	B.38	149.248750	149.488750		average	average
sw4008B-ms98-a-0026	B.38	149.488750	149.778750		person	person
sw4008B-ms98-a-0026	B.38	149.778750	149.878750		on	on
sw4008B-ms98-a-0026	B.38	149.878750	150.134625		that	that
sw4008B-ms98-a-0026	B.40	150.134625	150.636500		[silence]	[silence]
sw4008B-ms98-a-0027	B.40	150.636500	164.471625		[silence]	[silence]
sw4008B-ms98-a-0028	B.40	164.471625	165.221625		[silence]	[silence]
sw4008B-ms98-a-0028	B.40	165.221625	165.554500	<SUB>	Uh-huh	um-hum
sw4008B-ms98-a-0028	B.42	165.554500	166.213375		[silence]	[silence]
sw4008B-ms98-a-0029	B.42	166.213375	172.225375		[silence]	[silence]
sw4008B-ms98-a-0030	B.42	172.225375	172.835375		[silence]	[silence]
sw4008B-ms98-a-0030	B.42	172.835375	173.030500		Right	right
sw4008B-ms98-a-0030	B.42	173.030500	173.263000		[silence]	[silence]
sw4008B-ms98-a-0030	B.42	173.263000	173.375375		Well	well
sw4008B-ms98-a-0030	B.42	173.375375	173.545375		now	now
sw4008B-ms98-a-0030	B.42	173.545375	173.845375		we	we
sw4008B-ms98-a-0030	B.42	173.845375	174.169375		uh	uh
sw4008B-ms98-a-0030	B.42	174.169375	174.444250		[silence]	[silence]
sw4008B-ms98-a-0030	B.42	174.444250	174.585375		what	what
sw4008B-ms98-a-0030	B.42	174.585375	174.645375		I	i
sw4008B-ms98-a-0030	B.42	174.645375	174.865375		use	use
sw4008B-ms98-a-0030	B.42	174.865375	174.935375		a	a
sw4008B-ms98-a-0030	B.42	174.935375	175.355375		computer	computer
sw4008B-ms98-a-0030	B.42	175.355375	175.615375		for	for
sw4008B-ms98-a-0030	B.42	175.615375	175.735375		is	is
sw4008B-ms98-a-0030	B.42	175.735375	175.865375		to	to
sw4008B-ms98-a-0030	B.42	175.865375	176.145375		write	write
sw4008B-ms98-a-0030	B.42	176.145375	176.935375		materials	materials
sw4008B-ms98-a-0030	B.42	176.935375	177.136625		that	that
sw4008B-ms98-a-0030	B.44	177.136625	177.374000		[silence]	[silence]
sw4008B-ms98-a-0030	B.44	177.374000	177.595375		are	are
sw4008B-ms98-a-0030	B.44	177.595375	177.895375		later	later
sw4008B-ms98-a-0030	B.44	177.895375	178.345375		printed	printed
sw4008B-ms98-a-0030	B.44	178.345375	178.596625		though	though
sw4008B-ms98-a-0030	B.44	178.596625	178.999625		[silence]	[silence]
sw4008B-ms98-a-0030	B.44	178.999625	179.285375		Most	most
sw4008B-ms98-a-0030	B.44	179.285375	179.405375		of	of
sw4008B-ms98-a-0030	B.44	179.405375	179.485375		the	the
sw4008B-ms98-a-0030	B.44	179.485375	179.745375		stuff	stuff
sw4008B-ms98-a-0030	B.44	179.745375	179.855375		that	that
sw4008B-ms98-a-0030	B.44	179.855375	179.935375		I	i
sw4008B-ms98-a-0030	B.44	179.935375	180.145375		do	do
sw4008B-ms98-a-0030	B.44	180.145375	180.325375		is	is
sw4008B-ms98-a-0030	B.44	180.325375	180.825375		not	not
sw4008B-ms98-a-0030	B.44	180.825375	181.045375		uh	uh
sw4008B-ms98-a-0030	B.44	181.045375	181.745375		interactive	interactive
sw4008B-ms98-a-0030	B.46	181.745375	182.186750		[silence]	[silence]
sw4008B-ms98-a-0031	B.46	182.186750	182.776750		[silence]	[silence]
sw4008B-ms98-a-0031	B.46	182.776750	182.936750		and	and
sw4008B-ms98-a-0031	B.46	182.936750	183.026750	<DEL>	---	then
sw4008B-ms98-a-0031	B.46	183.026750	183.086750		I	i
sw4008B-ms98-a-0031	B.46	183.086750	183.316750		use	use
sw4008B-ms98-a-0031	B.46	183.316750	183.416750		it	it
sw4008B-ms98-a-0031	B.46	183.416750	183.546750		for	for
sw4008B-ms98-a-0031	B.46	183.546750	183.846750	<SUB>	t-	te[sting]-
sw4008B-ms98-a-0031	B.46	183.846750	183.986750		uh	uh
sw4008B-ms98-a-0031	B.46	183.986750	184.256750		data	data
sw4008B-ms98-a-0031	B.46	184.256750	184.846750		analysis	analysis
sw4008B-ms98-a-0031	B.46	184.846750	184.966750		on	on
sw4008B-ms98-a-0031	B.46	184.966750	185.376750		testing	testing
sw4008B-ms98-a-0031	B.46	185.376750	185.696750		[silence]	[silence]
sw4008B-ms98-a-0031	B.46	185.696750	185.980250		so	so
sw4008B-ms98-a-0031	B.48	185.980250	186.616000		[silence]	[silence]
sw4008B-ms98-a-0032	B.48	186.616000	188.518375		[silence]	[silence]
sw4008B-ms98-a-0033	B.48	188.518375	189.081125		[silence]	[silence]
sw4008B-ms98-a-0033	B.48	189.081125	189.458375		Well	well
sw4008B-ms98-a-0033	B.48	189.458375	189.778375		just	just
sw4008B-ms98-a-0033	B.48	189.778375	190.118375		actually	actually
sw4008B-ms98-a-0033	B.48	190.118375	190.498375		just	just
sw4008B-ms98-a-0033	B.48	190.498375	190.954375		uh	uh
sw4008B-ms98-a-0033	B.48	190.954375	191.342375		[silence]	[silence]
sw4008B-ms98-a-0033	B.48	191.342375	191.678375		item	item
sw4008B-ms98-a-0033	B.48	191.678375	192.158375		analysis	analysis
sw4008B-ms98-a-0033	B.48	192.158375	192.708375		statistical	statistical
sw4008B-ms98-a-0033	B.48	192.708375	193.228375		analysis	analysis
sw4008B-ms98-a-0033	B.48	193.228375	193.328375		of	of
sw4008B-ms98-a-0033	B.48	193.328375	193.388375		the	the
sw4008B-ms98-a-0033	B.48	193.388375	193.868375		tests	tests
sw4008B-ms98-a-0033	B.48	193.868375	194.048375		uh	uh
sw4008B-ms98-a-0033	B.50	194.048375	194.085625		[silence]	[silence]
sw4008B-ms98-a-0034	B.50	194.085625	194.805625		[silence]	[silence]
sw4008B-ms98-a-0034	B.50	194.805625	194.875625		You	you
sw4008B-ms98-a-0034	B.50	194.875625	194.945625		know	know
sw4008B-ms98-a-0034	B.50	194.945625	195.075625		when	when
sw4008B-ms98-a-0034	B.50	195.075625	195.335625		you	you
sw4008B-ms98-a-0034	B.50	195.335625	195.485625	<DEL>	---	when
sw4008B-ms98-a-0034	B.50	195.485625	195.545625	<DEL>	---	you
sw4008B-ms98-a-0034	B.50	195.545625	195.735625		write	write
sw4008B-ms98-a-0034	B.50	195.735625	195.775625		a	a
sw4008B-ms98-a-0034	B.50	195.775625	196.195625		test	test
sw4008B-ms98-a-0034	B.50	196.195625	196.265625		you	you
sw4008B-ms98-a-0034	B.50	196.265625	196.475625		have	have
sw4008B-ms98-a-0034	B.50	196.475625	196.796750		to	to
sw4008B-ms98-a-0034	B.50	196.796750	197.866500		[silence]	[silence]
sw4008B-ms98-a-0034	B.50	197.866500	198.015625		look	look
sw4008B-ms98-a-0034	B.50	198.015625	198.109500		at	at
sw4008B-ms98-a-0034	B.50	198.109500	198.365625		[silence]	[silence]
sw4008B-ms98-a-0034	B.50	198.365625	198.535625		some	some
sw4008B-ms98-a-0034	B.50	198.535625	198.765625		data	data
sw4008B-ms98-a-0034	B.50	198.765625	199.015625		from	from
sw4008B-ms98-a-0034	B.50	199.015625	199.085625		it	it
sw4008B-ms98-a-0034	B.50	199.085625	199.195625		and	and
sw4008B-ms98-a-0034	B.50	199.195625	199.365625		see	see
sw4008B-ms98-a-0034	B.50	199.365625	199.505625		how	how
sw4008B-ms98-a-0034	B.50	199.505625	199.575625		the	the
sw4008B-ms98-a-0034	B.50	199.575625	199.865625		different	different
sw4008B-ms98-a-0034	B.50	199.865625	200.385625		questions	questions
sw4008B-ms98-a-0034	B.50	200.385625	200.465625		are	are
sw4008B-ms98-a-0034	B.50	200.465625	201.005625		performing	performing
sw4008B-ms98-a-0034	B.52	201.005625	201.339125		[silence]	[silence]
sw4008B-ms98-a-0035	B.52	201.339125	201.449125		[silence]	[silence]
sw4008B-ms98-a-0035	B.52	201.449125	201.769125		and	and
sw4008B-ms98-a-0035	B.52	201.769125	201.959125		find	find
sw4008B-ms98-a-0035	B.52	201.959125	202.049125		out	out
sw4008B-ms98-a-0035	B.52	202.049125	202.209125		which	which
sw4008B-ms98-a-0035	B.52	202.209125	202.409125		ones	ones
sw4008B-ms98-a-0035	B.52	202.409125	202.469125		are	are
sw4008B-ms98-a-0035	B.52	202.469125	203.119125		discriminating	discriminating
sw4008B-ms98-a-0035	B.52	203.119125	203.349125		well	well
sw4008B-ms98-a-0035	B.52	203.349125	203.449125		and	and
sw4008B-ms98-a-0035	B.52	203.449125	203.629125		which	which
sw4008B-ms98-a-0035	B.52	203.629125	203.839125		ones	ones
sw4008B-ms98-a-0035	B.52	203.839125	204.169125		aren't	aren't
sw4008B-ms98-a-0035	B.54	204.169125	204.579125		[silence]	[silence]
sw4008B-ms98-a-0035	B.54	204.579125	204.799125		find	find
sw4008B-ms98-a-0035	B.54	204.799125	204.869125		out	out
sw4008B-ms98-a-0035	B.54	204.869125	205.009125		how	how
sw4008B-ms98-a-0035	B.54	205.009125	205.569125		reliable	reliable
sw4008B-ms98-a-0035	B.54	205.569125	205.629125		the	the
sw4008B-ms98-a-0035	B.54	205.629125	205.979125		test	test
sw4008B-ms98-a-0035	B.54	205.979125	206.339125		is	is
sw4008B-ms98-a-0035	B.54	206.339125	206.419125		you	you
sw4008B-ms98-a-0035	B.54	206.419125	206.599125		try	try
sw4008B-ms98-a-0035	B.54	206.599125	207.059125		correlate	correlate
sw4008B-ms98-a-0035	B.54	207.059125	207.139125		it	it
sw4008B-ms98-a-0035	B.54	207.139125	207.309125		with	with
sw4008B-ms98-a-0035	B.54	207.309125	207.469125		other	other
sw4008B-ms98-a-0035	B.54	207.469125	207.869125		tests	tests
sw4008B-ms98-a-0035	B.54	207.869125	207.979125		and	and
sw4008B-ms98-a-0035	B.54	207.979125	208.169125		things	things
sw4008B-ms98-a-0035	B.54	208.169125	208.229125		of	of
sw4008B-ms98-a-0035	B.54	208.229125	208.389125		that	that
sw4008B-ms98-a-0035	B.54	208.389125	208.689125		sort	sort
sw4008B-ms98-a-0035	B.54	208.689125	208.799125		So	so
sw4008B-ms98-a-0035	B.54	208.799125	209.037125		it's	it's
sw4008B-ms98-a-0035	B.54	209.037125	209.666125		[silence]	[silence]
sw4008B-ms98-a-0035	B.54	209.666125	210.009125		involves	involves
sw4008B-ms98-a-0035	B.54	210.009125	210.049125		a	a
sw4008B-ms98-a-0035	B.54	210.049125	210.209125		lot	lot
sw4008B-ms98-a-0035	B.54	210.209125	210.269125		of	of
sw4008B-ms98-a-0035	B.54	210.269125	210.569125	<CONT>	spreadsheet	spread
sw4008B-ms98-a-0035	B.54	210.569125	210.749125	<CONT>	+++	sheet
sw4008B-ms98-a-0035	B.54	210.749125	211.149125		use	use
sw4008B-ms98-a-0035	B.56	211.149125	211.814000		[silence]	[silence]
sw4008B-ms98-a-0036	B.56	211.814000	217.413500		[silence]	[silence]
sw4008B-ms98-a-0037	B.56	217.413500	218.559250		[silence]	[silence]
sw4008B-ms98-a-0037	B.56	218.559250	218.713500		Well	well
sw4008B-ms98-a-0037	B.56	218.713500	218.753500		I	i
sw4008B-ms98-a-0037	B.56	218.753500	218.873500		was	was
sw4008B-ms98-a-0037	B.56	218.873500	219.073500		doing	doing
sw4008B-ms98-a-0037	B.56	219.073500	219.213500		some	some
sw4008B-ms98-a-0037	B.56	219.213500	219.283500		of	of
sw4008B-ms98-a-0037	B.56	219.283500	219.353500		the	the
sw4008B-ms98-a-0037	B.56	219.353500	219.653500		same	same
sw4008B-ms98-a-0037	B.56	219.653500	220.053500		stuff	stuff
sw4008B-ms98-a-0037	B.56	220.053500	220.163500		but	but
sw4008B-ms98-a-0037	B.56	220.163500	220.363500		doing	doing
sw4008B-ms98-a-0037	B.56	220.363500	220.443500		it	it
sw4008B-ms98-a-0037	B.56	220.443500	220.593500		more	more
sw4008B-ms98-a-0037	B.56	220.593500	221.263500		slowly	slowly
sw4008B-ms98-a-0037	B.58	221.263500	221.913500		[laughter]	[laughter]
sw4008B-ms98-a-0037	B.58	221.913500	222.023500		and	and
sw4008B-ms98-a-0037	B.58	222.023500	222.123500		with	with
sw4008B-ms98-a-0037	B.58	222.123500	222.493500		smaller	smaller
sw4008B-ms98-a-0037	B.58	222.493500	222.963500		files	files
sw4008B-ms98-a-0037	B.58	222.963500	224.263500		[laughter]	[laughter]
sw4008B-ms98-a-0037	B.58	224.263500	224.336250		I	i
sw4008B-ms98-a-0037	B.58	224.336250	224.535875		can't	can't
sw4008B-ms98-a-0037	B.58	224.535875	224.803500		believe	believe
sw4008B-ms98-a-0037	B.58	224.803500	224.863500		you	you
sw4008B-ms98-a-0037	B.58	224.863500	224.963500		know	know
sw4008B-ms98-a-0037	B.58	224.963500	225.103500		I've	i've
sw4008B-ms98-a-0037	B.58	225.103500	225.453500		got	got
sw4008B-ms98-a-0037	B.58	225.453500	225.743500		uh	uh
sw4008B-ms98-a-0037	B.58	225.743500	225.983125		[silence]	[silence]
sw4008B-ms98-a-0038	B.58	225.983125	226.578500		[silence]	[silence]
sw4008B-ms98-a-0038	B.58	226.578500	227.083125		five	five
sw4008B-ms98-a-0038	B.58	227.083125	227.503125		uh	uh
sw4008B-ms98-a-0038	B.58	227.503125	228.113125		megabytes	megabytes
sw4008B-ms98-a-0038	B.58	228.113125	228.263125		on	on
sw4008B-ms98-a-0038	B.58	228.263125	228.473125		this	this
sw4008B-ms98-a-0038	B.58	228.473125	228.603125		one	one
sw4008B-ms98-a-0038	B.58	228.603125	228.915750		now	now
sw4008B-ms98-a-0038	B.60	228.915750	229.160500		[silence]	[silence]
sw4008B-ms98-a-0038	B.60	229.160500	229.623125		and	and
sw4008B-ms98-a-0038	B.60	229.623125	229.753125		on	on
sw4008B-ms98-a-0038	B.60	229.753125	229.933125		my	my
sw4008B-ms98-a-0038	B.60	229.933125	230.333125		two	two
sw4008B-ms98-a-0038	B.60	230.333125	230.573125		E	E
sw4008B-ms98-a-0038	B.60	230.573125	230.673125		I	i
sw4008B-ms98-a-0038	B.60	230.673125	230.993125		had	had
sw4008B-ms98-a-0038	B.60	230.993125	231.043125		a	a
sw4008B-ms98-a-0038	B.60	231.043125	231.283125		hundred	hundred
sw4008B-ms98-a-0038	B.60	231.283125	231.563125	<CONT>	twenty-eight	twenty
sw4008B-ms98-a-0038	B.60	231.563125	231.707125	<CONT>	+++	eight
sw4008B-ms98-a-0038	B.60	231.707125	231.906750		[silence]	[silence]
sw4008B-ms98-a-0038	B.60	231.906750	232.350750		K	K
sw4008B-ms98-a-0038	B.62	232.350750	232.734625		[silence]	[silence]
sw4008B-ms98-a-0038	B.62	232.734625	233.193875		[laughter]	[laughter]
sw4008B-ms98-a-0038	B.62	233.193875	233.502625		[silence]	[silence]
sw4008B-ms98-a-0039	B.62	233.502625	238.877125		[silence]	[silence]
sw4008B-ms98-a-0040	B.62	238.877125	239.328750		[silence]	[silence]
sw4008B-ms98-a-0040	B.62	239.328750	239.712500		[noise]	[noise]
sw4008B-ms98-a-0040	B.62	239.712500	240.209250		[silence]	[silence]
sw4008B-ms98-a-0041	B.62	240.209250	242.469250		[silence]	[silence]
sw4008B-ms98-a-0042	B.62	242.469250	242.949250		[silence]	[silence]
sw4008B-ms98-a-0042	B.62	242.949250	243.279875		Yeah	yeah
sw4008B-ms98-a-0042	B.64	243.279875	243.812375		[silence]	[silence]
sw4008B-ms98-a-0043	B.64	243.812375	249.375875		[silence]	[silence]
sw4008B-ms98-a-0044	B.64	249.375875	249.935250		[silence]	[silence]
sw4008B-ms98-a-0044	B.64	249.935250	250.055875		Oh	oh
sw4008B-ms98-a-0044	B.64	250.055875	250.195875		the	the
sw4008B-ms98-a-0044	B.64	250.195875	250.490125		old	old
sw4008B-ms98-a-0044	B.66	250.490125	251.213250		[silence]	[silence]
sw4008B-ms98-a-0045	B.66	251.213250	252.062125		[silence]	[silence]
sw4008B-ms98-a-0045	B.66	252.062125	252.183250		the	the
sw4008B-ms98-a-0045	B.66	252.183250	252.393250		old	old
sw4008B-ms98-a-0045	B.66	252.393250	253.043250		Apple	Apple
sw4008B-ms98-a-0045	B.66	253.043250	253.366125		uh	uh
sw4008B-ms98-a-0045	B.66	253.366125	254.093000		[silence]	[silence]
sw4008B-ms98-a-0045	B.66	254.093000	254.253250		the	the
sw4008B-ms98-a-0045	B.66	254.253250	254.473250		the	the
sw4008B-ms98-a-0045	B.66	254.473250	254.593250	<DEL>	---	the
sw4008B-ms98-a-0045	B.66	254.593250	254.983250		original	original
sw4008B-ms98-a-0045	B.66	254.983250	255.263250		Apple	Apple
sw4008B-ms98-a-0045	B.66	255.263250	255.413250		had	had
sw4008B-ms98-a-0045	B.66	255.413250	255.583250		[silence]	[silence]
sw4008B-ms98-a-0045	B.66	255.583250	255.813250		what	what
sw4008B-ms98-a-0045	B.66	255.813250	255.933250		yeah	yeah
sw4008B-ms98-a-0045	B.66	255.933250	256.303250	<CONT>	forty-eight	forty
sw4008B-ms98-a-0045	B.66	256.303250	256.453250	<CONT>	+++	eight
sw4008B-ms98-a-0045	B.66	256.453250	256.483250		I	i
sw4008B-ms98-a-0045	B.66	256.483250	256.763250		guess	guess
sw4008B-ms98-a-0045	B.66	256.763250	256.993250		didn't	didn't
sw4008B-ms98-a-0045	B.66	256.993250	257.143250		it	it
sw4008B-ms98-a-0045	B.70	257.143250	257.715000		[silence]	[silence]
sw4008B-ms98-a-0046	B.70	257.715000	258.444000		[silence]	[silence]
sw4008B-ms98-a-0046	B.70	258.444000	258.969750		[noise]	[noise]
sw4008B-ms98-a-0046	B.70	258.969750	259.427750		[silence]	[silence]
sw4008B-ms98-a-0047	B.70	259.427750	261.334125		[silence]	[silence]
sw4008B-ms98-a-0048	B.70	261.334125	261.814125		[silence]	[silence]
sw4008B-ms98-a-0048	B.70	261.814125	262.114125		My	my
sw4008B-ms98-a-0048	B.70	262.114125	262.494125		goodness	goodness
sw4008B-ms98-a-0048	B.72	262.494125	263.243250		[silence]	[silence]
sw4008B-ms98-a-0049	B.72	263.243250	267.585875		[silence]	[silence]
sw4008B-ms98-a-0050	B.72	267.585875	268.064125		[silence]	[silence]
sw4008B-ms98-a-0050	B.72	268.064125	268.345875		Uh-huh	uh-huh
sw4008B-ms98-a-0050	B.74	268.345875	268.932375		[laughter]	[laughter]
sw4008B-ms98-a-0050	B.74	268.932375	269.338750		[silence]	[silence]
sw4008B-ms98-a-0051	B.74	269.338750	269.776375		[silence]	[silence]
sw4008B-ms98-a-0051	B.74	269.776375	270.164250		[noise]	[noise]
sw4008B-ms98-a-0051	B.74	270.164250	270.659125		[silence]	[silence]
sw4008B-ms98-a-0052	B.74	270.659125	278.036000		[silence]	[silence]
sw4008B-ms98-a-0053	B.74	278.036000	278.539000		[silence]	[silence]
sw4008B-ms98-a-0053	B.74	278.539000	278.872375	<SUB>	Uh-huh	um-hum
sw4008B-ms98-a-0053	B.76	278.872375	279.339750		[silence]	[silence]
sw4008B-ms98-a-0054	B.76	279.339750	283.347250		[silence]	[silence]
sw4008B-ms98-a-0055	B.76	283.347250	284.135000		[silence]	[silence]
sw4008B-ms98-a-0055	B.76	284.135000	284.247250		Well	well
sw4008B-ms98-a-0055	B.76	284.247250	284.307250		the	the
sw4008B-ms98-a-0055	B.76	284.307250	284.657250	<SUB>	S	SE
sw4008B-ms98-a-0055	B.76	284.657250	284.657250	<INS>	P	---
sw4008B-ms98-a-0055	B.76	284.657250	284.977250		thirty	thirty
sw4008B-ms98-a-0055	B.76	284.977250	285.227250		goes	goes
sw4008B-ms98-a-0055	B.76	285.227250	285.377250		up	up
sw4008B-ms98-a-0055	B.76	285.377250	285.497250		to	to
sw4008B-ms98-a-0055	B.76	285.497250	285.966500		eight	eight
sw4008B-ms98-a-0055	B.78	285.966500	286.309625		[silence]	[silence]
sw4008B-ms98-a-0056	B.78	286.309625	286.595625		[silence]	[silence]
sw4008B-ms98-a-0056	B.78	286.595625	286.679625		but	but
sw4008B-ms98-a-0056	B.78	286.679625	286.759625		I	i
sw4008B-ms98-a-0056	B.78	286.759625	287.039625		haven't	haven't
sw4008B-ms98-a-0056	B.78	287.039625	287.429625		upgraded	upgraded
sw4008B-ms98-a-0056	B.78	287.429625	287.529625		it	it
sw4008B-ms98-a-0056	B.78	287.529625	287.749625		quite	quite
sw4008B-ms98-a-0056	B.78	287.749625	287.919625		that	that
sw4008B-ms98-a-0056	B.78	287.919625	288.219625		far	far
sw4008B-ms98-a-0056	B.78	288.219625	288.479625		yet	yet
sw4008B-ms98-a-0056	B.78	288.479625	289.062500		[silence]	[silence]
sw4008B-ms98-a-0056	B.78	289.062500	289.107625		I	i
sw4008B-ms98-a-0056	B.78	289.107625	289.215250		think	think
sw4008B-ms98-a-0056	B.78	289.215250	289.579625		probably	probably
sw4008B-ms98-a-0056	B.78	289.579625	289.719625		when	when
sw4008B-ms98-a-0056	B.78	289.719625	289.769625		I	i
sw4008B-ms98-a-0056	B.78	289.769625	289.954250		get	get
sw4008B-ms98-a-0056	B.78	289.954250	290.357250		system	system
sw4008B-ms98-a-0056	B.78	290.357250	290.739625		seven	seven
sw4008B-ms98-a-0056	B.78	290.739625	290.809625		I	i
sw4008B-ms98-a-0056	B.78	290.809625	290.929625		may	may
sw4008B-ms98-a-0056	B.78	290.929625	291.149625		have	have
sw4008B-ms98-a-0056	B.78	291.149625	291.269625		to	to
sw4008B-ms98-a-0056	B.78	291.269625	291.439625		do	do
sw4008B-ms98-a-0056	B.78	291.439625	291.709625		that	that
sw4008B-ms98-a-0056	B.78	291.709625	291.959625		and	and
sw4008B-ms98-a-0056	B.78	291.959625	292.119625		and	and
sw4008B-ms98-a-0056	B.78	292.119625	292.239625		get	get
sw4008B-ms98-a-0056	B.78	292.239625	292.676250		another	another
sw4008B-ms98-a-0056	B.78	292.676250	292.909750		[silence]	[silence]
sw4008B-ms98-a-0056	B.78	292.909750	293.279625		possibly	possibly
sw4008B-ms98-a-0056	B.78	293.279625	293.509625		another	another
sw4008B-ms98-a-0056	B.78	293.509625	293.739625		hard	hard
sw4008B-ms98-a-0056	B.78	293.739625	294.069625		disk	disk
sw4008B-ms98-a-0056	B.78	294.069625	294.129625		I	i
sw4008B-ms98-a-0056	B.78	294.129625	294.289625		don't	don't
sw4008B-ms98-a-0056	B.78	294.289625	294.530875		know	know
sw4008B-ms98-a-0056	B.78	294.530875	294.862375		[silence]	[silence]
sw4008B-ms98-a-0056	B.78	294.862375	294.939625		They	they
sw4008B-ms98-a-0056	B.78	294.939625	295.159625		say	say
sw4008B-ms98-a-0056	B.78	295.159625	295.373375		that	that
sw4008B-ms98-a-0056	B.78	295.373375	295.610625		[silence]	[silence]
sw4008B-ms98-a-0056	B.78	295.610625	295.959625		system	system
sw4008B-ms98-a-0056	B.78	295.959625	296.209625		seven	seven
sw4008B-ms98-a-0056	B.78	296.209625	296.459625		uses	uses
sw4008B-ms98-a-0056	B.78	296.459625	296.499625		a	a
sw4008B-ms98-a-0056	B.78	296.499625	296.629625		lot	lot
sw4008B-ms98-a-0056	B.78	296.629625	296.689625		of	of
sw4008B-ms98-a-0056	B.78	296.689625	297.009625		memory	memory
sw4008B-ms98-a-0056	B.78	297.009625	297.450625		[silence]	[silence]
sw4008B-ms98-a-0057	B.78	297.450625	299.618000		[silence]	[silence]
