sw4092A-ms98-a-0001	A.1	0.000000	0.001250		[silence]	[silence]
sw4092A-ms98-a-0001	A.1	0.001250	0.010125		[noise]	[noise]
sw4092A-ms98-a-0001	A.1	0.010125	0.230000		music	music
sw4092A-ms98-a-0001	A.1	0.230000	0.290000		do	do
sw4092A-ms98-a-0001	A.1	0.290000	0.370000		you	you
sw4092A-ms98-a-0001	A.1	0.370000	0.546125		like	like
sw4092A-ms98-a-0001	A.3	0.546125	0.676000		[silence]	[silence]
sw4092A-ms98-a-0002	A.3	0.676000	7.286250		[silence]	[silence]
sw4092A-ms98-a-0003	A.3	7.286250	7.763750		[silence]	[silence]
sw4092A-ms98-a-0003	A.3	7.763750	8.053500	<SUB>	Uh-huh	um-hum
sw4092A-ms98-a-0003	A.5	8.053500	8.524625		[silence]	[silence]
sw4092A-ms98-a-0004	A.5	8.524625	15.113750		[silence]	[silence]
sw4092A-ms98-a-0005	A.5	15.113750	15.646625		[silence]	[silence]
sw4092A-ms98-a-0005	A.5	15.646625	15.999375	<SUB>	Uh-huh	um-hum
sw4092A-ms98-a-0005	A.7	15.999375	16.131625		[silence]	[silence]
sw4092A-ms98-a-0006	A.7	16.131625	17.165875		[silence]	[silence]
sw4092A-ms98-a-0007	A.7	17.165875	17.406375		[silence]	[silence]
sw4092A-ms98-a-0007	A.7	17.406375	17.535875	<CONT>	I	i'm
sw4092A-ms98-a-0007	A.7	17.535875	17.535875	<CONT>	am	+++
sw4092A-ms98-a-0007	A.7	17.535875	17.695875		more	more
sw4092A-ms98-a-0007	A.7	17.695875	17.835875		into	into
sw4092A-ms98-a-0007	A.7	17.835875	18.075875		rock	rock
sw4092A-ms98-a-0007	A.7	18.075875	18.195875		and	and
sw4092A-ms98-a-0007	A.7	18.195875	18.375875		roll	roll
sw4092A-ms98-a-0007	A.7	18.375875	18.882625		myself	myself
sw4092A-ms98-a-0007	A.9	18.882625	19.387250		[silence]	[silence]
sw4092A-ms98-a-0008	A.9	19.387250	27.928500		[silence]	[silence]
sw4092A-ms98-a-0009	A.9	27.928500	28.455375		[silence]	[silence]
sw4092A-ms98-a-0009	A.9	28.455375	28.653625	<SUB>	Uh-huh	um-hum
sw4092A-ms98-a-0009	A.11	28.653625	28.960750		[silence]	[silence]
sw4092A-ms98-a-0010	A.11	28.960750	30.383625		[silence]	[silence]
sw4092A-ms98-a-0011	A.11	30.383625	30.821750		[silence]	[silence]
sw4092A-ms98-a-0011	A.11	30.821750	31.100625	<SUB>	Uh-huh	um-hum
sw4092A-ms98-a-0011	A.13	31.100625	31.496875		[silence]	[silence]
sw4092A-ms98-a-0012	A.13	31.496875	33.613625		[silence]	[silence]
sw4092A-ms98-a-0013	A.13	33.613625	34.096125		[silence]	[silence]
sw4092A-ms98-a-0013	A.13	34.096125	34.363250	<SUB>	Uh-huh	um-hum
sw4092A-ms98-a-0013	A.15	34.363250	34.845375		[silence]	[silence]
sw4092A-ms98-a-0014	A.15	34.845375	36.745750		[silence]	[silence]
sw4092A-ms98-a-0015	A.15	36.745750	36.821125		[silence]	[silence]
sw4092A-ms98-a-0015	A.15	36.821125	36.869125		Do	do
sw4092A-ms98-a-0015	A.15	36.869125	36.928750		you	you
sw4092A-ms98-a-0015	A.15	36.928750	37.045750		like	like
sw4092A-ms98-a-0015	A.15	37.045750	37.165750		any	any
sw4092A-ms98-a-0015	A.15	37.165750	37.716750		bluegrass	bluegrass
sw4092A-ms98-a-0015	A.17	37.716750	38.101375		[silence]	[silence]
sw4092A-ms98-a-0016	A.17	38.101375	41.036500		[silence]	[silence]
sw4092A-ms98-a-0017	A.17	41.036500	41.372750		[silence]	[silence]
sw4092A-ms98-a-0017	A.17	41.372750	41.607000		[laughter]	[laughter]
sw4092A-ms98-a-0017	A.17	41.607000	41.618000		[silence]	[silence]
sw4092A-ms98-a-0018	A.17	41.618000	41.708000		[silence]	[silence]
sw4092A-ms98-a-0018	A.17	41.708000	42.032625		Oh	oh
sw4092A-ms98-a-0018	A.19	42.032625	42.404250		[silence]	[silence]
sw4092A-ms98-a-0018	A.19	42.404250	42.521000		Well	well
sw4092A-ms98-a-0018	A.19	42.521000	42.545125		at	at
sw4092A-ms98-a-0018	A.19	42.545125	42.678500		least	least
sw4092A-ms98-a-0018	A.19	42.678500	42.806125		your	your
sw4092A-ms98-a-0018	A.21	42.806125	43.264500		[silence]	[silence]
sw4092A-ms98-a-0019	A.21	43.264500	45.264500		[silence]	[silence]
sw4092A-ms98-a-0020	A.21	45.264500	45.390500		[silence]	[silence]
sw4092A-ms98-a-0020	A.21	45.390500	45.564500		Not	not
sw4092A-ms98-a-0020	A.21	45.564500	45.894625		really	really
sw4092A-ms98-a-0020	A.25	45.894625	45.894625	<INS>	Yeah	---
sw4092A-ms98-a-0020	A.27	45.894625	46.828625		[laughter]	[laughter]
sw4092A-ms98-a-0020	A.27	46.828625	46.914125		[silence]	[silence]
sw4092A-ms98-a-0021	A.27	46.914125	47.418375		[silence]	[silence]
sw4092A-ms98-a-0021	A.27	47.418375	48.054125		[laughter]	[laughter]
sw4092A-ms98-a-0021	A.27	48.054125	48.854250		[silence]	[silence]
sw4092A-ms98-a-0022	A.27	48.854250	49.288000		[silence]	[silence]
sw4092A-ms98-a-0022	A.27	49.288000	50.578875		[laughter]	[laughter]
sw4092A-ms98-a-0022	A.27	50.578875	51.663375		[silence]	[silence]
sw4092A-ms98-a-0023	A.27	51.663375	51.813375		[silence]	[silence]
sw4092A-ms98-a-0023	A.27	51.813375	52.405750		Um	um
sw4092A-ms98-a-0023	A.29	52.405750	52.405750	<INS>	Uh	---
sw4092A-ms98-a-0023	A.29	52.405750	52.796125		[silence]	[silence]
sw4092A-ms98-a-0024	A.29	52.796125	54.035125		[silence]	[silence]
sw4092A-ms98-a-0025	A.29	54.035125	54.373750		[silence]	[silence]
sw4092A-ms98-a-0025	A.29	54.373750	54.515125		we'll	we'll
sw4092A-ms98-a-0025	A.29	54.515125	54.645125		have	have
sw4092A-ms98-a-0025	A.29	54.645125	54.955125		to	to
sw4092A-ms98-a-0025	A.29	54.955125	55.239625	<SUB>	uh	um
sw4092A-ms98-a-0025	A.31	55.239625	55.773875		[silence]	[silence]
sw4092A-ms98-a-0026	A.31	55.773875	56.459000		[silence]	[silence]
sw4092A-ms98-a-0026	A.31	56.459000	56.529375		I	i
sw4092A-ms98-a-0026	A.31	56.529375	56.583875		have	have
sw4092A-ms98-a-0026	A.31	56.583875	56.613875		a	a
sw4092A-ms98-a-0026	A.31	56.613875	56.713875		lot	lot
sw4092A-ms98-a-0026	A.31	56.713875	56.813875		of	of
sw4092A-ms98-a-0026	A.31	56.813875	57.163875		friends	friends
sw4092A-ms98-a-0026	A.31	57.163875	57.293875		that	that
sw4092A-ms98-a-0026	A.31	57.293875	57.463875		like	like
sw4092A-ms98-a-0026	A.31	57.463875	57.773875		country	country
sw4092A-ms98-a-0026	A.31	57.773875	58.089375		music	music
sw4092A-ms98-a-0026	A.33	58.089375	58.855750		[laughter]	[laughter]
sw4092A-ms98-a-0026	A.33	58.855750	59.198625		[silence]	[silence]
sw4092A-ms98-a-0027	A.33	59.198625	63.988750		[silence]	[silence]
sw4092A-ms98-a-0028	A.33	63.988750	64.401750		[silence]	[silence]
sw4092A-ms98-a-0028	A.33	64.401750	64.608750		No	no
sw4092A-ms98-a-0028	A.33	64.608750	64.708750		I'm	i'm
sw4092A-ms98-a-0028	A.33	64.708750	64.978000		more	more
sw4092A-ms98-a-0028	A.33	64.978000	65.558750		into	into
sw4092A-ms98-a-0028	A.33	65.558750	65.979000	<SUB>	uh	um
sw4092A-ms98-a-0028	A.33	65.979000	66.223750		[silence]	[silence]
sw4092A-ms98-a-0028	A.33	66.223750	66.518750		older	older
sw4092A-ms98-a-0028	A.33	66.518750	66.788750		rock	rock
sw4092A-ms98-a-0028	A.33	66.788750	67.048750		like	like
sw4092A-ms98-a-0028	A.33	67.048750	67.118750	<DEL>	---	psy[chedelic]-
sw4092A-ms98-a-0028	A.33	67.118750	67.208750		the	the
sw4092A-ms98-a-0028	A.33	67.208750	67.748500		psychedelic	psychedelic
sw4092A-ms98-a-0028	A.33	67.748500	68.056625		[silence]	[silence]
sw4092A-ms98-a-0029	A.33	68.056625	68.429625		[silence]	[silence]
sw4092A-ms98-a-0029	A.33	68.429625	68.825375		era	era
sw4092A-ms98-a-0029	A.33	68.825375	69.106625		like	like
sw4092A-ms98-a-0029	A.33	69.106625	69.361375		uh	uh
sw4092A-ms98-a-0029	A.35	69.361375	69.632750		[silence]	[silence]
sw4092A-ms98-a-0030	A.35	69.632750	69.797375		[silence]	[silence]
sw4092A-ms98-a-0030	A.35	69.797375	70.279500		Se-	se[venties]-
sw4092A-ms98-a-0030	A.35	70.279500	70.442750		late	late
sw4092A-ms98-a-0030	A.35	70.442750	70.832750		sixties	sixties
sw4092A-ms98-a-0030	A.35	70.832750	71.522750		seventies	seventies
sw4092A-ms98-a-0030	A.35	71.522750	71.832750	<SUB>	uh	um
sw4092A-ms98-a-0030	A.37	71.832750	72.132750		Greatful	Greatful
sw4092A-ms98-a-0030	A.37	72.132750	72.432750		Dead	Dead
sw4092A-ms98-a-0030	A.37	72.432750	72.802750		Crosby	Crosby
sw4092A-ms98-a-0030	A.37	72.802750	73.072750		Stills	Stills
sw4092A-ms98-a-0030	A.37	73.072750	73.162750		and	and
sw4092A-ms98-a-0030	A.37	73.162750	73.595875		Nash	Nash
sw4092A-ms98-a-0030	A.39	73.595875	73.595875	<INS>	What	---
sw4092A-ms98-a-0030	A.43	73.595875	73.961875		[silence]	[silence]
sw4092A-ms98-a-0031	A.43	73.961875	75.093875		[silence]	[silence]
sw4092A-ms98-a-0032	A.43	75.093875	75.409750		[silence]	[silence]
sw4092A-ms98-a-0032	A.43	75.409750	75.602500		[laughter]	[laughter]
sw4092A-ms98-a-0032	A.43	75.602500	75.754250		[silence]	[silence]
sw4092A-ms98-a-0033	A.43	75.754250	75.786000		[silence]	[silence]
sw4092A-ms98-a-0033	A.43	75.786000	81.198500		[laughter]	[laughter]
sw4092A-ms98-a-0033	A.43	81.198500	81.367625		[silence]	[silence]
sw4092A-ms98-a-0034	A.43	81.367625	83.946125		[silence]	[silence]
sw4092A-ms98-a-0035	A.43	83.946125	84.406125		[silence]	[silence]
sw4092A-ms98-a-0035	A.43	84.406125	84.508375		Oh	oh
sw4092A-ms98-a-0035	A.43	84.508375	84.686125		I've	i've
sw4092A-ms98-a-0035	A.43	84.686125	84.906125		heard	heard
sw4092A-ms98-a-0035	A.43	84.906125	84.946125		a	a
sw4092A-ms98-a-0035	A.43	84.946125	85.186125		little	little
sw4092A-ms98-a-0035	A.43	85.186125	85.316125		bit	bit
sw4092A-ms98-a-0035	A.43	85.316125	85.456125		of	of
sw4092A-ms98-a-0035	A.43	85.456125	85.557250		it	it
sw4092A-ms98-a-0035	A.43	85.557250	85.847875		[silence]	[silence]
sw4092A-ms98-a-0035	A.43	85.847875	86.056125		I've	i've
sw4092A-ms98-a-0035	A.43	86.056125	86.263250	<SUB>	just	ju[st]-
sw4092A-ms98-a-0035	A.45	86.263250	86.663000		[silence]	[silence]
sw4092A-ms98-a-0036	A.45	86.663000	91.190375		[silence]	[silence]
sw4092A-ms98-a-0037	A.45	91.190375	91.670375		[silence]	[silence]
sw4092A-ms98-a-0037	A.45	91.670375	92.240375		Uh	uh
sw4092A-ms98-a-0037	A.45	92.240375	92.510375		now	now
sw4092A-ms98-a-0037	A.45	92.510375	92.600375		I've	i've
sw4092A-ms98-a-0037	A.45	92.600375	92.850375		heard	heard
sw4092A-ms98-a-0037	A.45	92.850375	93.159375		of	of
sw4092A-ms98-a-0037	A.45	93.159375	93.434375		[silence]	[silence]
sw4092A-ms98-a-0037	A.45	93.434375	94.058500		Striper	Striper
sw4092A-ms98-a-0037	A.45	94.058500	94.393875		[silence]	[silence]
sw4092A-ms98-a-0038	A.45	94.393875	94.703875		[silence]	[silence]
sw4092A-ms98-a-0038	A.45	94.703875	94.824875	<SUB>	So	it's
sw4092A-ms98-a-0038	A.45	94.824875	94.978500	<DEL>	---	li[ke]-
sw4092A-ms98-a-0038	A.45	94.978500	95.113875		the	the
sw4092A-ms98-a-0038	A.45	95.113875	95.293875		only	only
sw4092A-ms98-a-0038	A.45	95.293875	95.413875		one	one
sw4092A-ms98-a-0038	A.45	95.413875	95.491250		I	i
sw4092A-ms98-a-0038	A.45	95.491250	95.667500		can	can
sw4092A-ms98-a-0038	A.47	95.667500	95.824375		[silence]	[silence]
sw4092A-ms98-a-0039	A.47	95.824375	96.902000		[silence]	[silence]
sw4092A-ms98-a-0040	A.47	96.902000	97.012000		[silence]	[silence]
sw4092A-ms98-a-0040	A.47	97.012000	97.285500	<SUB>	Uh-huh	um-hum
sw4092A-ms98-a-0040	A.49	97.285500	97.979500		[silence]	[silence]
sw4092A-ms98-a-0041	A.49	97.979500	98.730125		[silence]	[silence]
sw4092A-ms98-a-0041	A.49	98.730125	99.020875	<SUB>	Uh-huh	um-hum
sw4092A-ms98-a-0041	A.51	99.020875	99.649750		[silence]	[silence]
sw4092A-ms98-a-0042	A.51	99.649750	100.189750		[silence]	[silence]
sw4092A-ms98-a-0042	A.51	100.189750	100.639750	<SUB>	Uh	um
sw4092A-ms98-a-0042	A.51	100.639750	100.729750	<SUB>	the	i've
sw4092A-ms98-a-0042	A.51	100.729750	100.899750	<SUB>	first	heard
sw4092A-ms98-a-0042	A.51	100.899750	101.019750	<SUB>	of	some
sw4092A-ms98-a-0042	A.51	101.019750	101.219750		Amy	Amy
sw4092A-ms98-a-0042	A.51	101.219750	101.534500		Grant	Grant
sw4092A-ms98-a-0042	A.51	101.534500	101.911250		[silence]	[silence]
sw4092A-ms98-a-0042	A.51	101.911250	102.269750		before	before
sw4092A-ms98-a-0042	A.53	102.269750	102.469750	<DEL>	---	she
sw4092A-ms98-a-0042	A.53	102.469750	102.729750		was	was
sw4092A-ms98-a-0042	A.53	102.729750	102.889750		you	you
sw4092A-ms98-a-0042	A.53	102.889750	102.949750		know	know
sw4092A-ms98-a-0042	A.53	102.949750	103.189750		became	became
sw4092A-ms98-a-0042	A.53	103.189750	103.359750		more	more
sw4092A-ms98-a-0042	A.53	103.359750	103.999750		mainstream	mainstream
sw4092A-ms98-a-0042	A.53	103.999750	104.229750		top	top
sw4092A-ms98-a-0042	A.53	104.229750	104.631625		forty	forty
sw4092A-ms98-a-0042	A.55	104.631625	105.013875		[silence]	[silence]
sw4092A-ms98-a-0043	A.55	105.013875	107.968375		[silence]	[silence]
sw4092A-ms98-a-0044	A.55	107.968375	108.398375		[silence]	[silence]
sw4092A-ms98-a-0044	A.55	108.398375	108.695375	<SUB>	Uh-huh	um-hum
sw4092A-ms98-a-0044	A.57	108.695375	109.166000		[silence]	[silence]
sw4092A-ms98-a-0045	A.57	109.166000	111.077250		[silence]	[silence]
sw4092A-ms98-a-0046	A.57	111.077250	111.530750		[silence]	[silence]
sw4092A-ms98-a-0046	A.57	111.530750	112.187250	<SUB>	Uh	um
sw4092A-ms98-a-0046	A.59	112.187250	112.561375		[silence]	[silence]
sw4092A-ms98-a-0047	A.59	112.561375	114.700625		[silence]	[silence]
sw4092A-ms98-a-0048	A.59	114.700625	115.288250		[silence]	[silence]
sw4092A-ms98-a-0048	A.59	115.288250	115.370625		I've	i've
sw4092A-ms98-a-0048	A.59	115.370625	115.540625		never	never
sw4092A-ms98-a-0048	A.59	115.540625	115.790625		actually	actually
sw4092A-ms98-a-0048	A.59	115.790625	115.980625		seen	seen
sw4092A-ms98-a-0048	A.59	115.980625	116.080625		her	her
sw4092A-ms98-a-0048	A.59	116.080625	116.140625		in	in
sw4092A-ms98-a-0048	A.59	116.140625	116.580625		concert	concert
sw4092A-ms98-a-0048	A.59	116.580625	116.610625		I	i
sw4092A-ms98-a-0048	A.59	116.610625	116.850625		imagine	imagine
sw4092A-ms98-a-0048	A.59	116.850625	116.950625		that	that
sw4092A-ms98-a-0048	A.59	116.950625	117.040625		she	she
sw4092A-ms98-a-0048	A.59	117.040625	117.230625		puts	puts
sw4092A-ms98-a-0048	A.59	117.230625	117.340625		on	on
sw4092A-ms98-a-0048	A.59	117.340625	117.370625		a	a
sw4092A-ms98-a-0048	A.59	117.370625	117.530625		pretty	pretty
sw4092A-ms98-a-0048	A.59	117.530625	117.670625		good	good
sw4092A-ms98-a-0048	A.59	117.670625	118.045125		show	show
sw4092A-ms98-a-0048	A.61	118.045125	118.466625		[silence]	[silence]
sw4092A-ms98-a-0049	A.61	118.466625	119.103000		[silence]	[silence]
sw4092A-ms98-a-0049	A.61	119.103000	119.333000	<SUB>	Uh-huh	um-hum
sw4092A-ms98-a-0049	A.63	119.333000	119.608125		[silence]	[silence]
sw4092A-ms98-a-0050	A.63	119.608125	123.248625		[silence]	[silence]
sw4092A-ms98-a-0051	A.63	123.248625	123.639875		[silence]	[silence]
sw4092A-ms98-a-0051	A.63	123.639875	123.982125	<SUB>	Uh-huh	um-hum
sw4092A-ms98-a-0051	A.63	123.982125	124.330625		[silence]	[silence]
sw4092A-ms98-a-0052	A.63	124.330625	124.761750		[silence]	[silence]
sw4092A-ms98-a-0052	A.63	124.761750	125.227875	<SUB>	Uh	um
sw4092A-ms98-a-0052	A.65	125.227875	125.552250		[silence]	[silence]
sw4092A-ms98-a-0053	A.65	125.552250	126.614500		[silence]	[silence]
sw4092A-ms98-a-0054	A.65	126.614500	126.950375		[silence]	[silence]
sw4092A-ms98-a-0054	A.65	126.950375	127.118250		I	i
sw4092A-ms98-a-0054	A.65	127.118250	127.252875		like	like
sw4092A-ms98-a-0054	A.65	127.252875	127.464500		some	some
sw4092A-ms98-a-0054	A.65	127.464500	127.774500		country	country
sw4092A-ms98-a-0054	A.65	127.774500	128.186375		music	music
sw4092A-ms98-a-0054	A.65	128.186375	128.404500	<DEL>	---	uh
sw4092A-ms98-a-0054	A.65	128.404500	128.544500		It's	it's
sw4092A-ms98-a-0054	A.65	128.544500	128.704500		just	just
sw4092A-ms98-a-0054	A.65	128.704500	128.854500		that	that
sw4092A-ms98-a-0054	A.65	128.854500	128.884500		I	i
sw4092A-ms98-a-0054	A.65	128.884500	129.024500		like	like
sw4092A-ms98-a-0054	A.65	129.024500	129.424500		finding	finding
sw4092A-ms98-a-0054	A.65	129.424500	129.494500		a	a
sw4092A-ms98-a-0054	A.65	129.494500	129.694500		lot	lot
sw4092A-ms98-a-0054	A.65	129.694500	129.804500		of	of
sw4092A-ms98-a-0054	A.65	129.804500	130.104375		it's	it's
sw4092A-ms98-a-0054	A.67	130.104375	130.122000		[silence]	[silence]
sw4092A-ms98-a-0055	A.67	130.122000	132.519375		[silence]	[silence]
sw4092A-ms98-a-0056	A.67	132.519375	133.037250		[silence]	[silence]
sw4092A-ms98-a-0056	A.67	133.037250	133.450375		Yeah	[laughter-yeah]
sw4092A-ms98-a-0056	A.69	133.450375	134.898500		[laughter]	[laughter]
sw4092A-ms98-a-0056	A.69	134.898500	135.209375		Mama	mama
sw4092A-ms98-a-0056	A.69	135.209375	135.409375		got	got
sw4092A-ms98-a-0056	A.69	135.409375	135.559375		run	run
sw4092A-ms98-a-0056	A.69	135.559375	135.839375		over	over
sw4092A-ms98-a-0056	A.69	135.839375	136.009375		by	by
sw4092A-ms98-a-0056	A.69	136.009375	136.089375		the	the
sw4092A-ms98-a-0056	A.69	136.089375	136.728875		train	train
sw4092A-ms98-a-0056	A.71	136.728875	137.344875		[laughter]	[laughter]
sw4092A-ms98-a-0056	A.71	137.344875	137.867125		[silence]	[silence]
sw4092A-ms98-a-0057	A.71	137.867125	138.461125		[silence]	[silence]
sw4092A-ms98-a-0057	A.71	138.461125	138.688250	<SUB>	Uh-huh	um-hum
sw4092A-ms98-a-0057	A.73	138.688250	139.048500		[silence]	[silence]
sw4092A-ms98-a-0058	A.73	139.048500	140.255250		[silence]	[silence]
sw4092A-ms98-a-0059	A.73	140.255250	140.676500		[silence]	[silence]
sw4092A-ms98-a-0059	A.73	140.676500	140.967000	<SUB>	Uh-huh	um-hum
sw4092A-ms98-a-0059	A.75	140.967000	141.451250		[silence]	[silence]
sw4092A-ms98-a-0060	A.75	141.451250	143.379750		[silence]	[silence]
sw4092A-ms98-a-0061	A.75	143.379750	143.739500		[silence]	[silence]
sw4092A-ms98-a-0061	A.75	143.739500	143.829750		Like	like
sw4092A-ms98-a-0061	A.75	143.829750	144.069750		Garth	Garth
sw4092A-ms98-a-0061	A.75	144.069750	144.561250		Brooks	Brooks
sw4092A-ms98-a-0061	A.77	144.561250	144.839250		[silence]	[silence]
sw4092A-ms98-a-0062	A.77	144.839250	145.967750		[silence]	[silence]
sw4092A-ms98-a-0063	A.77	145.967750	146.537750		[silence]	[silence]
sw4092A-ms98-a-0063	A.77	146.537750	146.757750		Reba	Reba
sw4092A-ms98-a-0063	A.77	146.757750	147.358625	<SUB>	MacIntyre	McIntyre
sw4092A-ms98-a-0063	A.79	147.358625	147.650375		[silence]	[silence]
sw4092A-ms98-a-0064	A.79	147.650375	149.942875		[silence]	[silence]
sw4092A-ms98-a-0065	A.79	149.942875	150.146000		[silence]	[silence]
sw4092A-ms98-a-0065	A.79	150.146000	150.247625	<DEL>	---	hm
sw4092A-ms98-a-0065	A.79	150.247625	150.487750		[silence]	[silence]
sw4092A-ms98-a-0066	A.79	150.487750	151.558125		[silence]	[silence]
sw4092A-ms98-a-0067	A.79	151.558125	152.039625		[silence]	[silence]
sw4092A-ms98-a-0067	A.79	152.039625	152.118125		You	you
sw4092A-ms98-a-0067	A.79	152.118125	152.238125		don't	don't
sw4092A-ms98-a-0067	A.79	152.238125	152.338125		like	like
sw4092A-ms98-a-0067	A.79	152.338125	152.705625		Patsy	Patsy
sw4092A-ms98-a-0067	A.79	152.705625	153.177750		Cline	Cline
sw4092A-ms98-a-0067	A.81	153.177750	153.619250		[silence]	[silence]
sw4092A-ms98-a-0068	A.81	153.619250	154.009250		[silence]	[silence]
sw4092A-ms98-a-0068	A.81	154.009250	154.099250		You	you
sw4092A-ms98-a-0068	A.81	154.099250	154.229250		don't	don't
sw4092A-ms98-a-0068	A.81	154.229250	154.359250		like	like
sw4092A-ms98-a-0068	A.81	154.359250	154.686500		Patsy	Patsy
sw4092A-ms98-a-0068	A.81	154.686500	155.039250		Cline	Cline
sw4092A-ms98-a-0068	A.85	155.039250	155.495750		[silence]	[silence]
sw4092A-ms98-a-0069	A.85	155.495750	157.871250		[silence]	[silence]
sw4092A-ms98-a-0070	A.85	157.871250	158.103250		[silence]	[silence]
sw4092A-ms98-a-0070	A.85	158.103250	158.769250		[laughter]	[laughter]
sw4092A-ms98-a-0070	A.85	158.769250	159.356750		[silence]	[silence]
sw4092A-ms98-a-0071	A.85	159.356750	166.688125		[silence]	[silence]
sw4092A-ms98-a-0072	A.85	166.688125	167.188750		[silence]	[silence]
sw4092A-ms98-a-0072	A.85	167.188750	167.678125	<SUB>	Uh	um
sw4092A-ms98-a-0072	A.85	167.678125	167.908125	<SUB>	yeah	yes
sw4092A-ms98-a-0072	A.85	167.908125	168.158125		actually	actually
sw4092A-ms98-a-0072	A.85	168.158125	168.188125		I	i
sw4092A-ms98-a-0072	A.85	168.188125	168.338125	<DEL>	---	went
sw4092A-ms98-a-0072	A.85	168.338125	168.398125	<DEL>	---	to
sw4092A-ms98-a-0072	A.85	168.398125	168.568125		just	just
sw4092A-ms98-a-0072	A.85	168.568125	168.688125		went	went
sw4092A-ms98-a-0072	A.85	168.688125	168.748125		to	to
sw4092A-ms98-a-0072	A.85	168.748125	168.868125	<DEL>	---	just
sw4092A-ms98-a-0072	A.85	168.868125	168.928125		see	see
sw4092A-ms98-a-0072	A.85	168.928125	168.988125		the	the
sw4092A-ms98-a-0072	A.85	168.988125	169.248125		Greatful	Greatful
sw4092A-ms98-a-0072	A.85	169.248125	169.668125		Dead	Dead
sw4092A-ms98-a-0072	A.85	169.668125	170.056250		about	about
sw4092A-ms98-a-0072	A.85	170.056250	170.629000		[silence]	[silence]
sw4092A-ms98-a-0072	A.85	170.629000	170.674250		I	i
sw4092A-ms98-a-0072	A.85	170.674250	170.788125		guess	guess
sw4092A-ms98-a-0072	A.85	170.788125	170.938125		about	about
sw4092A-ms98-a-0072	A.85	170.938125	170.978125		a	a
sw4092A-ms98-a-0072	A.85	170.978125	171.168125		week	week
sw4092A-ms98-a-0072	A.85	171.168125	171.493250		ago	ago
sw4092A-ms98-a-0072	A.87	171.493250	171.811875		[silence]	[silence]
sw4092A-ms98-a-0073	A.87	171.811875	175.079875		[silence]	[silence]
sw4092A-ms98-a-0074	A.87	175.079875	175.359875		[silence]	[silence]
sw4092A-ms98-a-0074	A.87	175.359875	175.549875		No	no
sw4092A-ms98-a-0074	A.87	175.549875	175.689875		they're	they're
sw4092A-ms98-a-0074	A.87	175.689875	175.949875	<DEL>	---	s[till]-
sw4092A-ms98-a-0074	A.87	175.949875	176.069875	<CONT>	they	they're
sw4092A-ms98-a-0074	A.87	176.069875	176.069875	<CONT>	are	+++
sw4092A-ms98-a-0074	A.87	176.069875	176.309875		still	still
sw4092A-ms98-a-0074	A.87	176.309875	176.459875		on	on
sw4092A-ms98-a-0074	A.87	176.459875	176.729875		tour	tour
sw4092A-ms98-a-0074	A.87	176.729875	176.879875	<CONT>	They	they've
sw4092A-ms98-a-0074	A.87	176.879875	176.879875	<CONT>	have	+++
sw4092A-ms98-a-0074	A.87	176.879875	177.059875		been	been
sw4092A-ms98-a-0074	A.87	177.059875	177.632000		touring	touring
sw4092A-ms98-a-0074	A.89	177.632000	177.982625		since	since
sw4092A-ms98-a-0074	A.89	177.982625	177.982625	<INS>	the	---
sw4092A-ms98-a-0074	A.89	177.982625	178.239875		late	late
sw4092A-ms98-a-0074	A.89	178.239875	178.796500		sixties	sixties
sw4092A-ms98-a-0074	A.91	178.796500	178.912125		[silence]	[silence]
sw4092A-ms98-a-0075	A.91	178.912125	181.665500		[silence]	[silence]
sw4092A-ms98-a-0076	A.91	181.665500	182.055500		[silence]	[silence]
sw4092A-ms98-a-0076	A.91	182.055500	182.365500		No	no
sw4092A-ms98-a-0076	A.93	182.365500	182.555500		They're	they're
sw4092A-ms98-a-0076	A.93	182.555500	182.665500	<DEL>	---	they're
sw4092A-ms98-a-0076	A.93	182.665500	182.885500		still	still
sw4092A-ms98-a-0076	A.93	182.885500	183.345500		together	together
sw4092A-ms98-a-0076	A.93	183.345500	183.586000		[silence]	[silence]
sw4092A-ms98-a-0077	A.93	183.586000	183.746000		[silence]	[silence]
sw4092A-ms98-a-0077	A.93	183.746000	183.836000		They're	they're
sw4092A-ms98-a-0077	A.93	183.836000	183.986000		still	still
sw4092A-ms98-a-0077	A.95	183.986000	184.206000		making	making
sw4092A-ms98-a-0077	A.95	184.206000	184.721500		albums	albums
sw4092A-ms98-a-0077	A.97	184.721500	184.895375		[silence]	[silence]
sw4092A-ms98-a-0078	A.97	184.895375	186.665125		[silence]	[silence]
sw4092A-ms98-a-0079	A.97	186.665125	186.800250		[silence]	[silence]
sw4092A-ms98-a-0079	A.97	186.800250	187.044000	<SUB>	Uh-huh	um-hum
sw4092A-ms98-a-0079	A.99	187.044000	187.208875		[silence]	[silence]
sw4092A-ms98-a-0080	A.99	187.208875	188.964875		[silence]	[silence]
sw4092A-ms98-a-0081	A.99	188.964875	189.442375		[silence]	[silence]
sw4092A-ms98-a-0081	A.99	189.442375	189.974375		Uh	uh
sw4092A-ms98-a-0081	A.101	189.974375	190.359250		[silence]	[silence]
sw4092A-ms98-a-0082	A.101	190.359250	192.845625		[silence]	[silence]
sw4092A-ms98-a-0083	A.101	192.845625	193.245125		[silence]	[silence]
sw4092A-ms98-a-0083	A.101	193.245125	193.415625		In	in
sw4092A-ms98-a-0083	A.101	193.415625	193.625625		fact	fact
sw4092A-ms98-a-0083	A.101	193.625625	193.655625		I	i
sw4092A-ms98-a-0083	A.101	193.655625	193.795625		mean	mean
sw4092A-ms98-a-0083	A.101	193.795625	193.915625		there	there
sw4092A-ms98-a-0083	A.101	193.915625	193.975625		are	are
sw4092A-ms98-a-0083	A.101	193.975625	194.185625		people	people
sw4092A-ms98-a-0083	A.101	194.185625	194.365625	<DEL>	---	that
sw4092A-ms98-a-0083	A.101	194.365625	194.535625		you	you
sw4092A-ms98-a-0083	A.101	194.535625	194.595625		know	know
sw4092A-ms98-a-0083	A.101	194.595625	194.595625	<INS>	that	---
sw4092A-ms98-a-0083	A.101	194.595625	195.015625		basically	basically
sw4092A-ms98-a-0083	A.101	195.015625	195.215625		just	just
sw4092A-ms98-a-0083	A.101	195.215625	195.545625		follow	follow
sw4092A-ms98-a-0083	A.101	195.545625	195.695625		them	them
sw4092A-ms98-a-0083	A.101	195.695625	196.115625		around	around
sw4092A-ms98-a-0083	A.101	196.115625	196.265625		from	from
sw4092A-ms98-a-0083	A.101	196.265625	196.545625		city	city
sw4092A-ms98-a-0083	A.101	196.545625	196.645625		to	to
sw4092A-ms98-a-0083	A.101	196.645625	197.024250		city	city
sw4092A-ms98-a-0083	A.103	197.024250	197.423500		[silence]	[silence]
sw4092A-ms98-a-0083	A.103	197.423500	197.565625		on	on
sw4092A-ms98-a-0083	A.103	197.565625	197.937625		tour	tour
sw4092A-ms98-a-0083	A.103	197.937625	198.620000		[silence]	[silence]
sw4092A-ms98-a-0084	A.103	198.620000	199.330000		[silence]	[silence]
sw4092A-ms98-a-0084	A.103	199.330000	199.630000		selling	selling
sw4092A-ms98-a-0084	A.103	199.630000	199.830000		tie	tie
sw4092A-ms98-a-0084	A.103	199.830000	200.130000	<SUB>	dye	dyes
sw4092A-ms98-a-0084	A.103	200.130000	200.250000		and	and
sw4092A-ms98-a-0084	A.103	200.250000	200.460000		things	things
sw4092A-ms98-a-0084	A.103	200.460000	200.650000		like	like
sw4092A-ms98-a-0084	A.103	200.650000	200.876625		that	that
sw4092A-ms98-a-0084	A.105	200.876625	201.527250		[silence]	[silence]
sw4092A-ms98-a-0085	A.105	201.527250	202.283000		[silence]	[silence]
sw4092A-ms98-a-0085	A.105	202.283000	202.809500	<SUB>	Uh	um
sw4092A-ms98-a-0085	A.107	202.809500	203.098125		[silence]	[silence]
sw4092A-ms98-a-0086	A.107	203.098125	205.862125		[silence]	[silence]
sw4092A-ms98-a-0087	A.107	205.862125	206.104875		[silence]	[silence]
sw4092A-ms98-a-0087	A.107	206.104875	206.346000		Yeah	yeah
sw4092A-ms98-a-0087	A.107	206.346000	206.476125		they're	they're
sw4092A-ms98-a-0087	A.107	206.476125	206.796375		[silence]	[silence]
sw4092A-ms98-a-0088	A.107	206.796375	207.086375		[silence]	[silence]
sw4092A-ms98-a-0088	A.107	207.086375	207.276375		they're	they're
sw4092A-ms98-a-0088	A.107	207.276375	207.472500		like	like
sw4092A-ms98-a-0088	A.107	207.472500	207.664750		[silence]	[silence]
sw4092A-ms98-a-0088	A.107	207.664750	207.826375		late	late
sw4092A-ms98-a-0088	A.107	207.826375	208.186375		forties	forties
sw4092A-ms98-a-0088	A.107	208.186375	208.376375		early	early
sw4092A-ms98-a-0088	A.107	208.376375	208.875250		fifties	fifties
sw4092A-ms98-a-0088	A.107	208.875250	209.150250		[silence]	[silence]
sw4092A-ms98-a-0088	A.107	209.150250	209.256375		but	but
sw4092A-ms98-a-0088	A.107	209.256375	209.336375		you	you
sw4092A-ms98-a-0088	A.107	209.336375	209.456375		know	know
sw4092A-ms98-a-0088	A.107	209.456375	209.646375		like	like
sw4092A-ms98-a-0088	A.107	209.646375	209.996375		whenever	whenever
sw4092A-ms98-a-0088	A.107	209.996375	210.136375		one	one
sw4092A-ms98-a-0088	A.107	210.136375	210.196375		of	of
sw4092A-ms98-a-0088	A.107	210.196375	210.346375		them	them
sw4092A-ms98-a-0088	A.107	210.346375	210.686375		dies	dies
sw4092A-ms98-a-0088	A.107	210.686375	210.926375		off	off
sw4092A-ms98-a-0088	A.107	210.926375	211.016375		they	they
sw4092A-ms98-a-0088	A.107	211.016375	211.136375		get	get
sw4092A-ms98-a-0088	A.107	211.136375	211.196375		a	a
sw4092A-ms98-a-0088	A.107	211.196375	211.797500		replacement	replacement
sw4092A-ms98-a-0088	A.111	211.797500	212.445875		[laughter]	[laughter]
sw4092A-ms98-a-0088	A.111	212.445875	212.529500		[silence]	[silence]
sw4092A-ms98-a-0089	A.111	212.529500	212.696250		[silence]	[silence]
sw4092A-ms98-a-0089	A.111	212.696250	213.515625		[vocalized-noise]	[vocalized-noise]
sw4092A-ms98-a-0089	A.111	213.515625	213.794250		[silence]	[silence]
sw4092A-ms98-a-0090	A.111	213.794250	214.340625		[silence]	[silence]
sw4092A-ms98-a-0090	A.111	214.340625	215.322750		[laughter]	[laughter]
sw4092A-ms98-a-0090	A.111	215.322750	215.497000		[silence]	[silence]
sw4092A-ms98-a-0091	A.111	215.497000	215.762750		[silence]	[silence]
sw4092A-ms98-a-0091	A.111	215.762750	215.867000	<DEL>	---	they
sw4092A-ms98-a-0091	A.111	215.867000	215.997000	<DEL>	---	seem
sw4092A-ms98-a-0091	A.111	215.997000	216.097000	<DEL>	---	to
sw4092A-ms98-a-0091	A.111	216.097000	216.242375	<DEL>	---	have
sw4092A-ms98-a-0091	A.111	216.242375	216.407000		You	you
sw4092A-ms98-a-0091	A.111	216.407000	216.487000		know	know
sw4092A-ms98-a-0091	A.111	216.487000	216.587000		they	they
sw4092A-ms98-a-0091	A.111	216.587000	216.777000		seem	seem
sw4092A-ms98-a-0091	A.111	216.777000	216.837000		to	to
sw4092A-ms98-a-0091	A.111	216.837000	216.927000		have	have
sw4092A-ms98-a-0091	A.111	216.927000	216.997000		a	a
sw4092A-ms98-a-0091	A.111	216.997000	217.197000		really	really
sw4092A-ms98-a-0091	A.111	217.197000	217.397000		bad	bad
sw4092A-ms98-a-0091	A.111	217.397000	217.597000		time	time
sw4092A-ms98-a-0091	A.111	217.597000	217.697000		with	with
sw4092A-ms98-a-0091	A.111	217.697000	218.137000		keyboard	keyboard
sw4092A-ms98-a-0091	A.111	218.137000	218.527000		players	players
sw4092A-ms98-a-0091	A.111	218.527000	218.647000		They	they
sw4092A-ms98-a-0091	A.111	218.647000	218.887000		keep	keep
sw4092A-ms98-a-0091	A.111	218.887000	219.077000		on	on
sw4092A-ms98-a-0091	A.111	219.077000	219.537000		dying	dying
sw4092A-ms98-a-0091	A.111	219.537000	219.637000		and	and
sw4092A-ms98-a-0091	A.111	219.637000	219.697000		they	they
sw4092A-ms98-a-0091	A.111	219.697000	219.957000		keep	keep
sw4092A-ms98-a-0091	A.111	219.957000	220.027000		on	on
sw4092A-ms98-a-0091	A.111	220.027000	220.617000		replacing	replacing
sw4092A-ms98-a-0091	A.111	220.617000	220.877000		them	them
sw4092A-ms98-a-0091	A.111	220.877000	221.072375		and	and
sw4092A-ms98-a-0091	A.111	221.072375	221.287000		[silence]	[silence]
sw4092A-ms98-a-0091	A.111	221.287000	221.357000		the	the
sw4092A-ms98-a-0091	A.111	221.357000	221.497000		new	new
sw4092A-ms98-a-0091	A.111	221.497000	221.707000		ones	ones
sw4092A-ms98-a-0091	A.111	221.707000	221.787000		in	in
sw4092A-ms98-a-0091	A.111	221.787000	221.917000	<SUB>	this	his
sw4092A-ms98-a-0091	A.111	221.917000	222.407000		thirties	thirties
sw4092A-ms98-a-0091	A.111	222.407000	222.608500		you	you
sw4092A-ms98-a-0091	A.111	222.608500	222.824875		know	know
sw4092A-ms98-a-0091	A.111	222.824875	223.068625		[silence]	[silence]
sw4092A-ms98-a-0092	A.111	223.068625	223.432625		[silence]	[silence]
sw4092A-ms98-a-0092	A.111	223.432625	223.652625		Uh	uh
sw4092A-ms98-a-0092	A.113	223.652625	224.049875		[silence]	[silence]
sw4092A-ms98-a-0093	A.113	224.049875	224.721125		[silence]	[silence]
sw4092A-ms98-a-0093	A.113	224.721125	225.079875		But	but
sw4092A-ms98-a-0093	A.113	225.079875	225.309875		uh	uh
sw4092A-ms98-a-0093	A.115	225.309875	225.712875		[silence]	[silence]
sw4092A-ms98-a-0094	A.115	225.712875	227.937750		[silence]	[silence]
sw4092A-ms98-a-0095	A.115	227.937750	228.114000		[silence]	[silence]
sw4092A-ms98-a-0095	A.115	228.114000	228.297125		Yeah	yeah
sw4092A-ms98-a-0095	A.115	228.297125	228.684625		[silence]	[silence]
sw4092A-ms98-a-0095	A.115	228.684625	228.797750		Well	well
sw4092A-ms98-a-0095	A.115	228.797750	228.897750		they	they
sw4092A-ms98-a-0095	A.115	228.897750	229.087750		don't	don't
sw4092A-ms98-a-0095	A.115	229.087750	229.317750		actually	actually
sw4092A-ms98-a-0095	A.115	229.317750	229.577750		look	look
sw4092A-ms98-a-0095	A.115	229.577750	229.757750		as	as
sw4092A-ms98-a-0095	A.115	229.757750	230.067750		rough	rough
sw4092A-ms98-a-0095	A.115	230.067750	230.247750		as	as
sw4092A-ms98-a-0095	A.115	230.247750	230.377750		the	the
sw4092A-ms98-a-0095	A.115	230.377750	230.737750		Rolling	Rolling
sw4092A-ms98-a-0095	A.115	230.737750	231.217750		Stones	Stones
sw4092A-ms98-a-0095	A.115	231.217750	231.315000	<SUB>	They	i
sw4092A-ms98-a-0095	A.115	231.315000	231.461375		just	just
sw4092A-ms98-a-0095	A.115	231.461375	231.676125		[silence]	[silence]
sw4092A-ms98-a-0095	A.115	231.676125	231.873250	<DEL>	---	i-
sw4092A-ms98-a-0095	A.115	231.873250	231.986250		I	i
sw4092A-ms98-a-0095	A.115	231.986250	232.037750		don't	don't
sw4092A-ms98-a-0095	A.115	232.037750	232.097750		know	know
sw4092A-ms98-a-0095	A.115	232.097750	232.177750		if	if
sw4092A-ms98-a-0095	A.115	232.177750	232.267750		you	you
sw4092A-ms98-a-0095	A.115	232.267750	232.467750		saw	saw
sw4092A-ms98-a-0095	A.115	232.467750	232.557750		the	the
sw4092A-ms98-a-0095	A.115	232.557750	232.827750		tour	tour
sw4092A-ms98-a-0095	A.115	232.827750	233.267750		posters	posters
sw4092A-ms98-a-0095	A.115	233.267750	233.347750	<SUB>	of	for
sw4092A-ms98-a-0095	A.115	233.347750	233.427750		the	the
sw4092A-ms98-a-0095	A.115	233.427750	233.787750		Rolling	Rolling
sw4092A-ms98-a-0095	A.115	233.787750	234.207750		Stones	Stones
sw4092A-ms98-a-0095	A.115	234.207750	234.327750		when	when
sw4092A-ms98-a-0095	A.115	234.327750	234.447750		they	they
sw4092A-ms98-a-0095	A.115	234.447750	234.777750		last	last
sw4092A-ms98-a-0095	A.115	234.777750	235.097750		toured	toured
sw4092A-ms98-a-0095	A.115	235.097750	235.217750		but	but
sw4092A-ms98-a-0095	A.115	235.217750	235.257750	<DEL>	---	i
sw4092A-ms98-a-0095	A.115	235.257750	235.407750	<DEL>	---	mean
sw4092A-ms98-a-0095	A.115	235.407750	235.597750		it	it
sw4092A-ms98-a-0095	A.115	235.597750	235.827750		looked	looked
sw4092A-ms98-a-0095	A.115	235.827750	236.067750		like	like
sw4092A-ms98-a-0095	A.115	236.067750	236.327750		leather	leather
sw4092A-ms98-a-0095	A.115	236.327750	236.557750		day	day
sw4092A-ms98-a-0095	A.115	236.557750	236.707750		at	at
sw4092A-ms98-a-0095	A.115	236.707750	236.827750		the	the
sw4092A-ms98-a-0095	A.115	236.827750	237.510625		geriatric	geriatric
sw4092A-ms98-a-0095	A.119	237.510625	238.745750		[laughter]	[laughter]
sw4092A-ms98-a-0095	A.119	238.745750	239.066125		[silence]	[silence]
sw4092A-ms98-a-0096	A.119	239.066125	240.433125		[silence]	[silence]
sw4092A-ms98-a-0096	A.119	240.433125	241.748375		[laughter]	[laughter]
sw4092A-ms98-a-0096	A.119	241.748375	241.821625		[silence]	[silence]
sw4092A-ms98-a-0097	A.119	241.821625	242.003500		[silence]	[silence]
sw4092A-ms98-a-0097	A.119	242.003500	242.161625		All	all
sw4092A-ms98-a-0097	A.119	242.161625	242.261625		their	their
sw4092A-ms98-a-0097	A.119	242.261625	242.651625		faces	faces
sw4092A-ms98-a-0097	A.119	242.651625	242.761625		were	were
sw4092A-ms98-a-0097	A.119	242.761625	242.911625		just	just
sw4092A-ms98-a-0097	A.119	242.911625	243.081625		all	all
sw4092A-ms98-a-0097	A.119	243.081625	243.621625		shriveled	shriveled
sw4092A-ms98-a-0097	A.121	243.621625	243.864625	<DEL>	---	and
sw4092A-ms98-a-0097	A.121	243.864625	244.064625		[silence]	[silence]
sw4092A-ms98-a-0098	A.121	244.064625	245.872875		[silence]	[silence]
sw4092A-ms98-a-0099	A.121	245.872875	246.372750		[silence]	[silence]
sw4092A-ms98-a-0099	A.121	246.372750	246.649500	<SUB>	Uh-huh	um-hum
sw4092A-ms98-a-0099	A.123	246.649500	247.167625		[silence]	[silence]
sw4092A-ms98-a-0100	A.123	247.167625	247.503750		[silence]	[silence]
sw4092A-ms98-a-0100	A.123	247.503750	247.577625		I	i
sw4092A-ms98-a-0100	A.123	247.577625	247.707625		mean	mean
sw4092A-ms98-a-0100	A.123	247.707625	247.767625		it	it
sw4092A-ms98-a-0100	A.123	247.767625	247.967625	<SUB>	just	jus[t]-
sw4092A-ms98-a-0100	A.123	247.967625	248.207625		just	just
sw4092A-ms98-a-0100	A.123	248.207625	248.417625		looked	looked
sw4092A-ms98-a-0100	A.123	248.417625	248.607625		like	like
sw4092A-ms98-a-0100	A.123	248.607625	248.747625	<DEL>	---	you
sw4092A-ms98-a-0100	A.123	248.747625	248.807625	<DEL>	---	know
sw4092A-ms98-a-0100	A.123	248.807625	248.927625		they	they
sw4092A-ms98-a-0100	A.125	248.927625	249.057625		got	got
sw4092A-ms98-a-0100	A.125	249.057625	249.087625		a	a
sw4092A-ms98-a-0100	A.125	249.087625	249.307625		bunch	bunch
sw4092A-ms98-a-0100	A.125	249.307625	249.367625		of	of
sw4092A-ms98-a-0100	A.125	249.367625	250.027625		retirees	retirees
sw4092A-ms98-a-0100	A.125	250.027625	250.147625		and	and
sw4092A-ms98-a-0100	A.125	250.147625	250.267625		put	put
sw4092A-ms98-a-0100	A.125	250.267625	250.337625		them	them_1
sw4092A-ms98-a-0100	A.125	250.337625	250.417625		in	in
sw4092A-ms98-a-0100	A.125	250.417625	250.687625		leather	leather
sw4092A-ms98-a-0100	A.125	250.687625	251.187625		jackets	jackets
sw4092A-ms98-a-0100	A.125	251.187625	251.317625		and	and
sw4092A-ms98-a-0100	A.125	251.317625	251.517625		blue	blue
sw4092A-ms98-a-0100	A.125	251.517625	251.994750		jeans	jeans
sw4092A-ms98-a-0100	A.127	251.994750	252.286375		[silence]	[silence]
sw4092A-ms98-a-0101	A.127	252.286375	259.601375		[silence]	[silence]
sw4092A-ms98-a-0102	A.127	259.601375	260.191375		[silence]	[silence]
sw4092A-ms98-a-0102	A.127	260.191375	260.461375		Well	well
sw4092A-ms98-a-0102	A.127	260.461375	260.769750		uh	uh
sw4092A-ms98-a-0102	A.131	260.769750	260.769750	<INS>	Actually	---
sw4092A-ms98-a-0102	A.131	260.769750	260.977625		[silence]	[silence]
sw4092A-ms98-a-0103	A.131	260.977625	260.984375		[silence]	[silence]
sw4092A-ms98-a-0103	A.131	260.984375	264.150000		[laughter]	[laughter]
sw4092A-ms98-a-0103	A.131	264.150000	264.554125		[silence]	[silence]
sw4092A-ms98-a-0104	A.131	264.554125	272.251500		[silence]	[silence]
sw4092A-ms98-a-0105	A.131	272.251500	272.783875		[silence]	[silence]
sw4092A-ms98-a-0105	A.131	272.783875	273.267125		[vocalized-noise]	[vocalized-noise]
sw4092A-ms98-a-0105	A.131	273.267125	273.500625		I	i
sw4092A-ms98-a-0105	A.131	273.500625	273.871500		prefer	prefer
sw4092A-ms98-a-0105	A.131	273.871500	274.061500		my	my
sw4092A-ms98-a-0105	A.131	274.061500	274.221500		my	my
sw4092A-ms98-a-0105	A.131	274.221500	274.801500		performers	performers
sw4092A-ms98-a-0105	A.131	274.801500	274.901500		to	to
sw4092A-ms98-a-0105	A.131	274.901500	275.021500		be	be
sw4092A-ms98-a-0105	A.131	275.021500	275.281500		pretty	pretty
sw4092A-ms98-a-0105	A.131	275.281500	275.871500		sober	sober
sw4092A-ms98-a-0105	A.131	275.871500	275.991500		you	you
sw4092A-ms98-a-0105	A.131	275.991500	276.268500		know	know
sw4092A-ms98-a-0105	A.131	276.268500	276.491375		just	just
sw4092A-ms98-a-0105	A.131	276.491375	277.069500		[silence]	[silence]
sw4092A-ms98-a-0106	A.131	277.069500	277.815000		[silence]	[silence]
sw4092A-ms98-a-0106	A.131	277.815000	278.340250		uh	uh
sw4092A-ms98-a-0106	A.131	278.340250	278.549500		just	just
sw4092A-ms98-a-0106	A.131	278.549500	278.709500		so	so
sw4092A-ms98-a-0106	A.131	278.709500	278.869500		that	that
sw4092A-ms98-a-0106	A.131	278.869500	278.949500		you	you
sw4092A-ms98-a-0106	A.131	278.949500	279.164000		know	know
sw4092A-ms98-a-0106	A.131	279.164000	279.303125		that	that
sw4092A-ms98-a-0106	A.131	279.303125	279.679250		[silence]	[silence]
sw4092A-ms98-a-0107	A.131	279.679250	280.082625		[silence]	[silence]
sw4092A-ms98-a-0107	A.131	280.082625	280.209250		if	if
sw4092A-ms98-a-0107	A.131	280.209250	280.369250		they're	they're
sw4092A-ms98-a-0107	A.131	280.369250	280.889250		jamming	jamming
sw4092A-ms98-a-0107	A.131	280.889250	280.979250		you	you
sw4092A-ms98-a-0107	A.131	280.979250	281.199250		know	know
sw4092A-ms98-a-0107	A.131	281.199250	281.329250		that	that
sw4092A-ms98-a-0107	A.131	281.329250	281.419250		they	they
sw4092A-ms98-a-0107	A.131	281.419250	281.599250		don't	don't
sw4092A-ms98-a-0107	A.131	281.599250	281.819250		just	just
sw4092A-ms98-a-0107	A.131	281.819250	282.099250		lose	lose
sw4092A-ms98-a-0107	A.131	282.099250	282.699250		themselves	themselves
sw4092A-ms98-a-0107	A.131	282.699250	282.891375		and	and
sw4092A-ms98-a-0107	A.131	282.891375	283.286875		[silence]	[silence]
sw4092A-ms98-a-0107	A.131	283.286875	283.508375		you	you
sw4092A-ms98-a-0107	A.131	283.508375	283.689750		know	know
sw4092A-ms98-a-0107	A.131	283.689750	283.855375		[silence]	[silence]
sw4092A-ms98-a-0107	A.131	283.855375	283.979250		go	go
sw4092A-ms98-a-0107	A.131	283.979250	284.109250		into	into
sw4092A-ms98-a-0107	A.131	284.109250	284.359250	<CONT>	lala	la
sw4092A-ms98-a-0107	A.131	284.359250	284.654375	<CONT>	+++	la
sw4092A-ms98-a-0107	A.131	284.654375	285.042250		land	land
sw4092A-ms98-a-0107	A.133	285.042250	285.451625		[silence]	[silence]
sw4092A-ms98-a-0108	A.133	285.451625	285.810375		[silence]	[silence]
sw4092A-ms98-a-0108	A.133	285.810375	286.108375	<SUB>	Uh-huh	um-hum
sw4092A-ms98-a-0108	A.135	286.108375	286.492625		[silence]	[silence]
sw4092A-ms98-a-0109	A.135	286.492625	288.716250		[silence]	[silence]
sw4092A-ms98-a-0110	A.135	288.716250	289.079750		[silence]	[silence]
sw4092A-ms98-a-0110	A.135	289.079750	289.352750	<SUB>	Uh-huh	um-hum
sw4092A-ms98-a-0110	A.137	289.352750	289.737375		[silence]	[silence]
sw4092A-ms98-a-0111	A.137	289.737375	294.867500		[silence]	[silence]
sw4092A-ms98-a-0112	A.137	294.867500	294.997500		[silence]	[silence]
sw4092A-ms98-a-0112	A.137	294.997500	295.337500		So	so
sw4092A-ms98-a-0112	A.137	295.337500	295.754750	<SUB>	uh	um
sw4092A-ms98-a-0112	A.137	295.754750	295.916750		[silence]	[silence]
sw4092A-ms98-a-0112	A.137	295.916750	295.987500		have	have
sw4092A-ms98-a-0112	A.137	295.987500	296.067500		you	you
sw4092A-ms98-a-0112	A.137	296.067500	296.267500		seen	seen
sw4092A-ms98-a-0112	A.137	296.267500	296.367500		any	any
sw4092A-ms98-a-0112	A.137	296.367500	296.777500		concerts	concerts
sw4092A-ms98-a-0112	A.137	296.777500	297.041500		lately	lately
sw4092A-ms98-a-0112	A.137	297.041500	297.411750		[silence]	[silence]
sw4092A-ms98-a-0113	A.137	297.411750	299.938000		[silence]	[silence]
