sw4074A-ms98-a-0001	A.1	0.000000	0.000000	<INS>	-kay	---
sw4074A-ms98-a-0001	A.1	0.000000	0.058125		[silence]	[silence]
sw4074A-ms98-a-0002	A.1	0.058125	0.078125		[silence]	[silence]
sw4074A-ms98-a-0002	A.1	0.078125	0.657250		Dave	Dave
sw4074A-ms98-a-0002	A.1	0.657250	0.778875		What	what
sw4074A-ms98-a-0002	A.1	0.778875	0.958125		kind	kind
sw4074A-ms98-a-0002	A.1	0.958125	1.145750		of	of
sw4074A-ms98-a-0002	A.1	1.145750	1.488500		pets	pets
sw4074A-ms98-a-0002	A.1	1.488500	1.568125		do	do
sw4074A-ms98-a-0002	A.1	1.568125	1.678125		you	you
sw4074A-ms98-a-0002	A.1	1.678125	2.085875		have	have
sw4074A-ms98-a-0002	A.3	2.085875	2.643125		[silence]	[silence]
sw4074A-ms98-a-0003	A.3	2.643125	4.770000		[silence]	[silence]
sw4074A-ms98-a-0004	A.3	4.770000	5.230000		[silence]	[silence]
sw4074A-ms98-a-0004	A.3	5.230000	5.540000		One	one
sw4074A-ms98-a-0004	A.3	5.540000	6.000000		rotten	rotten
sw4074A-ms98-a-0004	A.3	6.000000	6.621500		cat	cat
sw4074A-ms98-a-0004	A.5	6.621500	7.026125		[silence]	[silence]
sw4074A-ms98-a-0005	A.5	7.026125	9.515625		[silence]	[silence]
sw4074A-ms98-a-0006	A.5	9.515625	9.785625		[silence]	[silence]
sw4074A-ms98-a-0006	A.5	9.785625	9.925750		I	i
sw4074A-ms98-a-0006	A.5	9.925750	10.131000		heard	heard
sw4074A-ms98-a-0006	A.5	10.131000	10.239875		a	a
sw4074A-ms98-a-0006	A.5	10.239875	10.625625		laugh	laugh
sw4074A-ms98-a-0006	A.5	10.625625	10.705625		in	in
sw4074A-ms98-a-0006	A.5	10.705625	10.785625		the	the
sw4074A-ms98-a-0006	A.5	10.785625	11.647000		background	background
sw4074A-ms98-a-0006	A.7	11.647000	12.008625		[silence]	[silence]
sw4074A-ms98-a-0007	A.7	12.008625	12.376000		[silence]	[silence]
sw4074A-ms98-a-0007	A.7	12.376000	12.574750		[noise]	[noise]
sw4074A-ms98-a-0007	A.7	12.574750	13.142750		[silence]	[silence]
sw4074A-ms98-a-0008	A.7	13.142750	13.646500		[silence]	[silence]
sw4074A-ms98-a-0008	A.7	13.646500	14.496750		[laughter]	[laughter]
sw4074A-ms98-a-0008	A.7	14.496750	14.729500		[silence]	[silence]
sw4074A-ms98-a-0009	A.7	14.729500	15.842875		[silence]	[silence]
sw4074A-ms98-a-0010	A.7	15.842875	15.972875		[silence]	[silence]
sw4074A-ms98-a-0010	A.7	15.972875	16.052875	<SUB>	Don't	oh
sw4074A-ms98-a-0010	A.7	16.052875	16.112875		you	you
sw4074A-ms98-a-0010	A.7	16.112875	16.232875	<DEL>	---	don't
sw4074A-ms98-a-0010	A.7	16.232875	16.382875		like	like
sw4074A-ms98-a-0010	A.7	16.382875	17.004750		cats	cats
sw4074A-ms98-a-0010	A.9	17.004750	17.429375		[silence]	[silence]
sw4074A-ms98-a-0011	A.9	17.429375	20.596375		[silence]	[silence]
sw4074A-ms98-a-0012	A.9	20.596375	21.105750		[silence]	[silence]
sw4074A-ms98-a-0012	A.9	21.105750	21.286375		Oh	oh
sw4074A-ms98-a-0012	A.9	21.286375	21.782250		yeah	yeah
sw4074A-ms98-a-0012	A.11	21.782250	22.165625		[silence]	[silence]
sw4074A-ms98-a-0013	A.11	22.165625	27.019500		[silence]	[silence]
sw4074A-ms98-a-0014	A.11	27.019500	27.353625		[silence]	[silence]
sw4074A-ms98-a-0014	A.11	27.353625	27.748875	<SUB>	That's	that
sw4074A-ms98-a-0014	A.11	27.748875	28.049500	<SUB>	odd	said
sw4074A-ms98-a-0014	A.11	28.049500	28.169500	<DEL>	---	what
sw4074A-ms98-a-0014	A.11	28.169500	28.369500	<DEL>	---	does
sw4074A-ms98-a-0014	A.11	28.369500	28.489500		How	how
sw4074A-ms98-a-0014	A.11	28.489500	28.599500		does	does
sw4074A-ms98-a-0014	A.11	28.599500	28.729500		he	he
sw4074A-ms98-a-0014	A.11	28.729500	29.019500		treat	treat
sw4074A-ms98-a-0014	A.11	29.019500	29.129500		the	the
sw4074A-ms98-a-0014	A.11	29.129500	29.269500		other	other
sw4074A-ms98-a-0014	A.11	29.269500	29.699500		people	people
sw4074A-ms98-a-0014	A.13	29.699500	30.092375		[silence]	[silence]
sw4074A-ms98-a-0015	A.13	30.092375	32.388375		[silence]	[silence]
sw4074A-ms98-a-0016	A.13	32.388375	32.908375		[silence]	[silence]
sw4074A-ms98-a-0016	A.13	32.908375	33.458375		Wow	wow
sw4074A-ms98-a-0016	A.15	33.458375	33.984875		[silence]	[silence]
sw4074A-ms98-a-0017	A.15	33.984875	47.983625		[silence]	[silence]
sw4074A-ms98-a-0018	A.15	47.983625	48.462375		[silence]	[silence]
sw4074A-ms98-a-0018	A.15	48.462375	49.593625		[laughter]	[laughter]
sw4074A-ms98-a-0018	A.15	49.593625	49.693625		Did	did
sw4074A-ms98-a-0018	A.15	49.693625	49.843625		he	he
sw4074A-ms98-a-0018	A.15	49.843625	50.153625		raise	raise
sw4074A-ms98-a-0018	A.15	50.153625	50.323625		him	him
sw4074A-ms98-a-0018	A.15	50.323625	50.433625		or	or
sw4074A-ms98-a-0018	A.15	50.433625	50.843625		something	something
sw4074A-ms98-a-0018	A.19	50.843625	51.291000		[silence]	[silence]
sw4074A-ms98-a-0019	A.19	51.291000	59.117000		[silence]	[silence]
sw4074A-ms98-a-0020	A.19	59.117000	59.596000		[silence]	[silence]
sw4074A-ms98-a-0020	A.19	59.596000	60.529125		[laughter]	[laughter]
sw4074A-ms98-a-0020	A.19	60.529125	60.801625		[silence]	[silence]
sw4074A-ms98-a-0021	A.19	60.801625	63.643625		[silence]	[silence]
sw4074A-ms98-a-0022	A.19	63.643625	64.103625		[silence]	[silence]
sw4074A-ms98-a-0022	A.19	64.103625	64.678625		Uh-huh	uh-huh
sw4074A-ms98-a-0022	A.21	64.678625	64.980750		[silence]	[silence]
sw4074A-ms98-a-0023	A.21	64.980750	68.569125		[silence]	[silence]
sw4074A-ms98-a-0024	A.21	68.569125	68.969125		[silence]	[silence]
sw4074A-ms98-a-0024	A.21	68.969125	69.229125		Huh	huh
sw4074A-ms98-a-0024	A.21	69.229125	69.439125		that's	that's
sw4074A-ms98-a-0024	A.21	69.439125	70.015625		interesting	interesting
sw4074A-ms98-a-0024	A.23	70.015625	70.381750		[silence]	[silence]
sw4074A-ms98-a-0025	A.23	70.381750	71.455875		[silence]	[silence]
sw4074A-ms98-a-0026	A.23	71.455875	71.721375		[silence]	[silence]
sw4074A-ms98-a-0026	A.23	71.721375	72.125875		Huh	huh
sw4074A-ms98-a-0026	A.23	72.125875	72.265875		We	we
sw4074A-ms98-a-0026	A.23	72.265875	72.415875		have	have
sw4074A-ms98-a-0026	A.23	72.415875	72.834250		a	a
sw4074A-ms98-a-0026	A.23	72.834250	73.192125		[silence]	[silence]
sw4074A-ms98-a-0026	A.23	73.192125	73.370000		a	a
sw4074A-ms98-a-0026	A.23	73.370000	74.208625		mutt	mutt
sw4074A-ms98-a-0026	A.25	74.208625	74.540125		[silence]	[silence]
sw4074A-ms98-a-0026	A.25	74.540125	74.724125		Well	well
sw4074A-ms98-a-0026	A.25	74.724125	74.936000		we	we
sw4074A-ms98-a-0026	A.25	74.936000	75.233500		[silence]	[silence]
sw4074A-ms98-a-0026	A.25	75.233500	75.415875		we	we
sw4074A-ms98-a-0026	A.25	75.415875	75.685875		named	named
sw4074A-ms98-a-0026	A.25	75.685875	75.815875		it	it
sw4074A-ms98-a-0026	A.25	75.815875	76.145875		Hooper	Hooper
sw4074A-ms98-a-0026	A.25	76.145875	76.425875		because	because
sw4074A-ms98-a-0026	A.25	76.425875	76.635875		that's	that's
sw4074A-ms98-a-0026	A.25	76.635875	76.765875		where	where
sw4074A-ms98-a-0026	A.25	76.765875	76.885875		we	we
sw4074A-ms98-a-0026	A.25	76.885875	77.075875		got	got
sw4074A-ms98-a-0026	A.25	77.075875	77.155875		it	it
sw4074A-ms98-a-0026	A.25	77.155875	77.600875		from	from
sw4074A-ms98-a-0026	A.27	77.600875	78.094500		[silence]	[silence]
sw4074A-ms98-a-0026	A.27	78.094500	79.115875		[laughter]	[laughter]
sw4074A-ms98-a-0026	A.27	79.115875	79.545875		Uh	uh
sw4074A-ms98-a-0026	A.27	79.545875	79.755875		some	some
sw4074A-ms98-a-0026	A.27	79.755875	80.156500		lady	lady
sw4074A-ms98-a-0026	A.27	80.156500	80.496375		[silence]	[silence]
sw4074A-ms98-a-0027	A.27	80.496375	80.886375		[silence]	[silence]
sw4074A-ms98-a-0027	A.27	80.886375	81.276375		she	she
sw4074A-ms98-a-0027	A.27	81.276375	81.589375		uh	uh
sw4074A-ms98-a-0027	A.27	81.589375	81.751375		[silence]	[silence]
sw4074A-ms98-a-0027	A.27	81.751375	81.796375		a	a
sw4074A-ms98-a-0027	A.27	81.796375	81.966375		lot	lot
sw4074A-ms98-a-0027	A.27	81.966375	82.032000		of	of
sw4074A-ms98-a-0027	A.27	82.032000	82.511500		people	people
sw4074A-ms98-a-0027	A.27	82.511500	82.733750		uh	uh
sw4074A-ms98-a-0027	A.27	82.733750	83.009375		[silence]	[silence]
sw4074A-ms98-a-0027	A.27	83.009375	83.540375		uh	uh
sw4074A-ms98-a-0027	A.27	83.540375	83.836375		drop	drop
sw4074A-ms98-a-0027	A.27	83.836375	84.036375		off	off
sw4074A-ms98-a-0027	A.27	84.036375	84.624000		abandoned	abandoned
sw4074A-ms98-a-0027	A.27	84.624000	84.778500		[silence]	[silence]
sw4074A-ms98-a-0027	A.27	84.778500	85.346375		abandoned	abandoned
sw4074A-ms98-a-0027	A.27	85.346375	85.706375		pets	pets
sw4074A-ms98-a-0027	A.27	85.706375	85.816375		at	at
sw4074A-ms98-a-0027	A.27	85.816375	85.926375		her	her
sw4074A-ms98-a-0027	A.27	85.926375	86.329500		house	house
sw4074A-ms98-a-0027	A.29	86.329500	86.597375		[silence]	[silence]
sw4074A-ms98-a-0028	A.29	86.597375	87.207375		[silence]	[silence]
sw4074A-ms98-a-0028	A.29	87.207375	87.360500		and	and
sw4074A-ms98-a-0028	A.29	87.360500	87.591000		she	she
sw4074A-ms98-a-0028	A.29	87.591000	87.827375	<SUB>	use	used
sw4074A-ms98-a-0028	A.29	87.827375	87.937375		to	to
sw4074A-ms98-a-0028	A.29	87.937375	88.097375		work	work
sw4074A-ms98-a-0028	A.29	88.097375	88.247375		for	for
sw4074A-ms98-a-0028	A.29	88.247375	88.287375		a	a
sw4074A-ms98-a-0028	A.29	88.287375	88.577375	<SUB>	veter-	veterin[arian]-
sw4074A-ms98-a-0028	A.29	88.577375	89.587375		veterinarian	veterinarian
sw4074A-ms98-a-0028	A.29	89.587375	89.767375		so	so
sw4074A-ms98-a-0028	A.29	89.767375	90.147375		she	she
sw4074A-ms98-a-0028	A.29	90.147375	90.387375		would	would
sw4074A-ms98-a-0028	A.29	90.387375	90.847375	<SUB>	spay-	spay
sw4074A-ms98-a-0028	A.29	90.847375	91.194000		uh	uh
sw4074A-ms98-a-0028	A.29	91.194000	91.353250		[silence]	[silence]
sw4074A-ms98-a-0028	A.29	91.353250	91.597375		neuter	neuter
sw4074A-ms98-a-0028	A.29	91.597375	91.847375		them	them
sw4074A-ms98-a-0028	A.31	91.847375	92.096375		[silence]	[silence]
sw4074A-ms98-a-0029	A.31	92.096375	92.536375		[silence]	[silence]
sw4074A-ms98-a-0029	A.31	92.536375	92.696375		give	give
sw4074A-ms98-a-0029	A.31	92.696375	92.756375		them	them_1
sw4074A-ms98-a-0029	A.31	92.756375	92.866375		all	all
sw4074A-ms98-a-0029	A.31	92.866375	92.966375		their	their
sw4074A-ms98-a-0029	A.31	92.966375	93.416375		shots	shots
sw4074A-ms98-a-0029	A.31	93.416375	93.804625		and	and
sw4074A-ms98-a-0029	A.31	93.804625	94.324500		[silence]	[silence]
sw4074A-ms98-a-0029	A.31	94.324500	94.446375		we	we
sw4074A-ms98-a-0029	A.31	94.446375	94.666375		saw	saw
sw4074A-ms98-a-0029	A.31	94.666375	94.766375		an	an
sw4074A-ms98-a-0029	A.31	94.766375	95.136375		ad	ad
sw4074A-ms98-a-0029	A.31	95.136375	95.396375		saying	saying
sw4074A-ms98-a-0029	A.31	95.396375	95.506375		it	it
sw4074A-ms98-a-0029	A.31	95.506375	95.626375		was	was
sw4074A-ms98-a-0029	A.31	95.626375	95.976375		free	free
sw4074A-ms98-a-0029	A.31	95.976375	96.126375		so	so
sw4074A-ms98-a-0029	A.31	96.126375	96.266375		we	we
sw4074A-ms98-a-0029	A.31	96.266375	96.436375		went	went
sw4074A-ms98-a-0029	A.31	96.436375	96.626375		down	down
sw4074A-ms98-a-0029	A.31	96.626375	96.816375		there	there
sw4074A-ms98-a-0029	A.31	96.816375	97.016375		and	and
sw4074A-ms98-a-0029	A.31	97.016375	97.516375		[silence]	[silence]
sw4074A-ms98-a-0029	A.31	97.516375	97.766375		picked	picked
sw4074A-ms98-a-0029	A.31	97.766375	97.846375		it	it
sw4074A-ms98-a-0029	A.31	97.846375	98.211375		up	up
sw4074A-ms98-a-0029	A.31	98.211375	98.542875		[silence]	[silence]
sw4074A-ms98-a-0029	A.31	98.542875	98.706375		and	and
sw4074A-ms98-a-0029	A.31	98.706375	98.826375		it's	it's
sw4074A-ms98-a-0029	A.31	98.826375	99.036375		been	been
sw4074A-ms98-a-0029	A.31	99.036375	99.126375		an	an
sw4074A-ms98-a-0029	A.31	99.126375	99.596375		excellent	excellent
sw4074A-ms98-a-0029	A.31	99.596375	100.038500		dog	dog
sw4074A-ms98-a-0029	A.31	100.038500	100.639375		[silence]	[silence]
sw4074A-ms98-a-0029	A.31	100.639375	100.748875		but	but
sw4074A-ms98-a-0029	A.31	100.748875	100.906125	<SUB>	it's	this
sw4074A-ms98-a-0029	A.31	100.906125	100.985250	<DEL>	---	is
sw4074A-ms98-a-0029	A.31	100.985250	101.066375		my	my
sw4074A-ms98-a-0029	A.31	101.066375	101.386375		first	first
sw4074A-ms98-a-0029	A.31	101.386375	101.616375		dog	dog
sw4074A-ms98-a-0029	A.31	101.616375	101.876375		I've	i've
sw4074A-ms98-a-0029	A.31	101.876375	102.066375	<DEL>	---	i've
sw4074A-ms98-a-0029	A.31	102.066375	102.542750		had	had
sw4074A-ms98-a-0029	A.31	102.542750	103.026125		[silence]	[silence]
sw4074A-ms98-a-0030	A.31	103.026125	103.774750		[silence]	[silence]
sw4074A-ms98-a-0030	A.31	103.774750	104.520375		and	and
sw4074A-ms98-a-0030	A.31	104.520375	104.671125		[silence]	[silence]
sw4074A-ms98-a-0030	A.31	104.671125	104.776125		we	we
sw4074A-ms98-a-0030	A.31	104.776125	104.986125		got	got
sw4074A-ms98-a-0030	A.31	104.986125	105.076125		it	it
sw4074A-ms98-a-0030	A.31	105.076125	105.582500		because	because
sw4074A-ms98-a-0030	A.31	105.582500	105.936500		[silence]	[silence]
sw4074A-ms98-a-0030	A.31	105.936500	106.076125	<DEL>	---	well
sw4074A-ms98-a-0030	A.31	106.076125	106.186125		my	my
sw4074A-ms98-a-0030	A.31	106.186125	106.496125		wife	wife
sw4074A-ms98-a-0030	A.31	106.496125	107.226125		stays	stays
sw4074A-ms98-a-0030	A.31	107.226125	107.446125		here	here
sw4074A-ms98-a-0030	A.31	107.446125	107.526250		at	at
sw4074A-ms98-a-0030	A.31	107.526250	107.854000		home	home
sw4074A-ms98-a-0030	A.31	107.854000	108.076125		[silence]	[silence]
sw4074A-ms98-a-0030	A.31	108.076125	108.516125		alone	alone
sw4074A-ms98-a-0030	A.33	108.516125	108.696125		while	while
sw4074A-ms98-a-0030	A.33	108.696125	108.736125		I	i
sw4074A-ms98-a-0030	A.33	108.736125	108.866125		go	go
sw4074A-ms98-a-0030	A.33	108.866125	108.963000		to	to
sw4074A-ms98-a-0030	A.33	108.963000	109.228500		work	work
sw4074A-ms98-a-0030	A.33	109.228500	109.596750		so	so
sw4074A-ms98-a-0030	A.33	109.596750	110.387000		[silence]	[silence]
sw4074A-ms98-a-0030	A.33	110.387000	110.616125		that's	that's
sw4074A-ms98-a-0030	A.33	110.616125	110.906125		mostly	mostly
sw4074A-ms98-a-0030	A.33	110.906125	111.066125		why	why
sw4074A-ms98-a-0030	A.33	111.066125	111.222125		we	we
sw4074A-ms98-a-0030	A.33	111.222125	111.387000		got	got
sw4074A-ms98-a-0030	A.33	111.387000	111.820375		it	it
sw4074A-ms98-a-0030	A.33	111.820375	112.426875		[silence]	[silence]
sw4074A-ms98-a-0030	A.33	112.426875	112.566125		To	to
sw4074A-ms98-a-0030	A.33	112.566125	112.826125		keep	keep
sw4074A-ms98-a-0030	A.33	112.826125	112.946125		her	her
sw4074A-ms98-a-0030	A.33	112.946125	113.356125		company	company
sw4074A-ms98-a-0030	A.33	113.356125	113.516125		while	while
sw4074A-ms98-a-0030	A.33	113.516125	113.636125	<CONT>	I	i'm
sw4074A-ms98-a-0030	A.33	113.636125	113.636125	<CONT>	am	+++
sw4074A-ms98-a-0030	A.33	113.636125	113.796125		[silence]	[silence]
sw4074A-ms98-a-0030	A.33	113.796125	114.056125		away	away
sw4074A-ms98-a-0030	A.33	114.056125	114.146125		at	at
sw4074A-ms98-a-0030	A.33	114.146125	114.572250		work	work
sw4074A-ms98-a-0030	A.35	114.572250	114.985875		[silence]	[silence]
sw4074A-ms98-a-0031	A.35	114.985875	117.659750		[silence]	[silence]
sw4074A-ms98-a-0032	A.35	117.659750	118.209750		[silence]	[silence]
sw4074A-ms98-a-0032	A.35	118.209750	118.609750	<SUB>	Uh	um
sw4074A-ms98-a-0032	A.35	118.609750	118.809750		yeah	yeah
sw4074A-ms98-a-0032	A.35	118.809750	119.009750		Right	right
sw4074A-ms98-a-0032	A.35	119.009750	119.209750		now	now
sw4074A-ms98-a-0032	A.35	119.209750	119.409750		it	it
sw4074A-ms98-a-0032	A.35	119.409750	119.519750		it	it
sw4074A-ms98-a-0032	A.35	119.519750	119.950625		is	is
sw4074A-ms98-a-0032	A.37	119.950625	120.413875		[silence]	[silence]
sw4074A-ms98-a-0032	A.37	120.413875	120.709750		It's	it's
sw4074A-ms98-a-0032	A.37	120.709750	120.929750		kind	kind
sw4074A-ms98-a-0032	A.37	120.929750	121.059750		of	of
sw4074A-ms98-a-0032	A.37	121.059750	121.239750		good	good
sw4074A-ms98-a-0032	A.37	121.239750	121.829750		training	training
sw4074A-ms98-a-0032	A.37	121.829750	121.869750		I	i
sw4074A-ms98-a-0032	A.37	121.869750	122.069750		mean	mean
sw4074A-ms98-a-0032	A.37	122.069750	122.199750	<CONT>	we	we've
sw4074A-ms98-a-0032	A.37	122.199750	122.199750	<CONT>	have	+++
sw4074A-ms98-a-0032	A.37	122.199750	122.349750		been	been
sw4074A-ms98-a-0032	A.37	122.349750	122.699750		trying	trying
sw4074A-ms98-a-0032	A.37	122.699750	122.829750		for	for
sw4074A-ms98-a-0032	A.37	122.829750	123.199750		kids	kids
sw4074A-ms98-a-0032	A.37	123.199750	123.414250		but	but
sw4074A-ms98-a-0032	A.39	123.414250	123.915125		[silence]	[silence]
sw4074A-ms98-a-0032	A.39	123.915125	124.109750		right	right
sw4074A-ms98-a-0032	A.39	124.109750	124.279750		now	now
sw4074A-ms98-a-0032	A.39	124.279750	124.389750		we	we
sw4074A-ms98-a-0032	A.39	124.389750	124.649750		haven't	haven't
sw4074A-ms98-a-0032	A.39	124.649750	124.819750		had	had
sw4074A-ms98-a-0032	A.39	124.819750	125.129750		any	any
sw4074A-ms98-a-0032	A.39	125.129750	125.359750		but	but
sw4074A-ms98-a-0032	A.39	125.359750	125.768875		[silence]	[silence]
sw4074A-ms98-a-0033	A.39	125.768875	126.218875		[silence]	[silence]
sw4074A-ms98-a-0033	A.39	126.218875	126.328875		it's	it's
sw4074A-ms98-a-0033	A.39	126.328875	126.558875		pretty	pretty
sw4074A-ms98-a-0033	A.39	126.558875	126.688875		good	good
sw4074A-ms98-a-0033	A.39	126.688875	127.068875		training	training
sw4074A-ms98-a-0033	A.39	127.068875	127.178875		I	i
sw4074A-ms98-a-0033	A.39	127.178875	127.846125		think	think
sw4074A-ms98-a-0033	A.39	127.846125	128.471875		[silence]	[silence]
sw4074A-ms98-a-0033	A.39	128.471875	128.603625	<SUB>	really	i
sw4074A-ms98-a-0033	A.39	128.603625	128.808875	<DEL>	---	mean
sw4074A-ms98-a-0033	A.39	128.808875	128.943875	<DEL>	---	it
sw4074A-ms98-a-0033	A.39	128.943875	129.177500		[silence]	[silence]
sw4074A-ms98-a-0033	A.39	129.177500	129.348875	<DEL>	---	it
sw4074A-ms98-a-0033	A.39	129.348875	129.648875		keeps	keeps
sw4074A-ms98-a-0033	A.39	129.648875	129.808875	<SUB>	her	us
sw4074A-ms98-a-0033	A.39	129.808875	129.918875		on	on
sw4074A-ms98-a-0033	A.39	129.918875	130.008875	<SUB>	her	our
sw4074A-ms98-a-0033	A.39	130.008875	130.508875		toes	toes
sw4074A-ms98-a-0033	A.41	130.508875	131.190750		[laughter]	[laughter]
sw4074A-ms98-a-0033	A.41	131.190750	131.572125		[silence]	[silence]
sw4074A-ms98-a-0034	A.41	131.572125	133.137750		[silence]	[silence]
sw4074A-ms98-a-0035	A.41	133.137750	133.617750		[silence]	[silence]
sw4074A-ms98-a-0035	A.41	133.617750	133.857750		Uh	uh
sw4074A-ms98-a-0035	A.41	133.857750	134.027750		my	my
sw4074A-ms98-a-0035	A.41	134.027750	134.407750		brother	brother
sw4074A-ms98-a-0035	A.41	134.407750	134.847750		has	has
sw4074A-ms98-a-0035	A.41	134.847750	135.206500	<SUB>	Uh	um
sw4074A-ms98-a-0035	A.41	135.206500	135.522875		[silence]	[silence]
sw4074A-ms98-a-0035	A.41	135.522875	135.667750		we	we
sw4074A-ms98-a-0035	A.41	135.667750	135.867750		didn't	didn't
sw4074A-ms98-a-0035	A.41	135.867750	136.047750		do	do
sw4074A-ms98-a-0035	A.41	136.047750	136.077750		a	a
sw4074A-ms98-a-0035	A.41	136.077750	136.307750		lot	lot
sw4074A-ms98-a-0035	A.41	136.307750	136.537750		with	with
sw4074A-ms98-a-0035	A.41	136.537750	136.787125		them	them_1
sw4074A-ms98-a-0035	A.41	136.787125	137.386000		[silence]	[silence]
sw4074A-ms98-a-0035	A.41	137.386000	137.747750	<SUB>	Uh	um
sw4074A-ms98-a-0035	A.41	137.747750	137.817750		I	i
sw4074A-ms98-a-0035	A.41	137.817750	138.047750		never	never
sw4074A-ms98-a-0035	A.41	138.047750	138.297750		felt	felt
sw4074A-ms98-a-0035	A.41	138.297750	138.427750	<DEL>	---	it
sw4074A-ms98-a-0035	A.41	138.427750	138.607750		like	like
sw4074A-ms98-a-0035	A.41	138.607750	138.677750		it	it
sw4074A-ms98-a-0035	A.41	138.677750	138.975750		was	was
sw4074A-ms98-a-0035	A.41	138.975750	139.149000		[silence]	[silence]
sw4074A-ms98-a-0035	A.41	139.149000	139.527750		mine	mine
sw4074A-ms98-a-0035	A.41	139.527750	139.627750		or	or
sw4074A-ms98-a-0035	A.41	139.627750	139.967750		anything	anything
sw4074A-ms98-a-0035	A.41	139.967750	140.027750		you	you
sw4074A-ms98-a-0035	A.41	140.027750	140.397750		couldn't	couldn't
sw4074A-ms98-a-0035	A.41	140.397750	140.517750		do	do
sw4074A-ms98-a-0035	A.41	140.517750	140.927250		anything	anything
sw4074A-ms98-a-0035	A.43	140.927250	141.408000		[silence]	[silence]
sw4074A-ms98-a-0036	A.43	141.408000	141.763500		[silence]	[silence]
sw4074A-ms98-a-0036	A.43	141.763500	142.130125		But	but
sw4074A-ms98-a-0036	A.43	142.130125	143.046625		[silence]	[silence]
sw4074A-ms98-a-0036	A.43	143.046625	143.204500		I	i
sw4074A-ms98-a-0036	A.43	143.204500	143.451375		mean	mean
sw4074A-ms98-a-0036	A.43	143.451375	143.632125		[silence]	[silence]
sw4074A-ms98-a-0036	A.43	143.632125	143.887500	<SUB>	that	it's
sw4074A-ms98-a-0036	A.43	143.887500	143.970250	<SUB>	did	a
sw4074A-ms98-a-0036	A.43	143.970250	144.108000	<SUB>	did	bit
sw4074A-ms98-a-0036	A.43	144.108000	144.318000		more	more
sw4074A-ms98-a-0036	A.43	144.318000	145.365750		responsibility	responsibility
sw4074A-ms98-a-0036	A.43	145.365750	146.014250		[silence]	[silence]
sw4074A-ms98-a-0037	A.43	146.014250	146.484250		[silence]	[silence]
sw4074A-ms98-a-0037	A.43	146.484250	146.714250		When	when
sw4074A-ms98-a-0037	A.43	146.714250	146.894250		it's	it's
sw4074A-ms98-a-0037	A.43	146.894250	147.194250		yours	yours
sw4074A-ms98-a-0037	A.43	147.194250	147.294250		and	and
sw4074A-ms98-a-0037	A.43	147.294250	147.444250		not	not
sw4074A-ms98-a-0037	A.43	147.444250	147.534250		your	your
sw4074A-ms98-a-0037	A.43	147.534250	148.147625	<SUB>	brothers	brother's
sw4074A-ms98-a-0037	A.45	148.147625	148.928000		[laughter]	[laughter]
sw4074A-ms98-a-0037	A.45	148.928000	149.678500		[silence]	[silence]
sw4074A-ms98-a-0038	A.45	149.678500	150.898750		[silence]	[silence]
sw4074A-ms98-a-0039	A.45	150.898750	151.358750		[silence]	[silence]
sw4074A-ms98-a-0039	A.45	151.358750	151.628750		But	but
sw4074A-ms98-a-0039	A.47	151.628750	152.124750		[silence]	[silence]
sw4074A-ms98-a-0040	A.47	152.124750	162.472500		[silence]	[silence]
sw4074A-ms98-a-0041	A.47	162.472500	163.042500		[silence]	[silence]
sw4074A-ms98-a-0041	A.47	163.042500	163.482500	<SUB>	Uh-huh	um-hum
sw4074A-ms98-a-0041	A.49	163.482500	163.986750		[silence]	[silence]
sw4074A-ms98-a-0042	A.49	163.986750	167.746375		[silence]	[silence]
sw4074A-ms98-a-0043	A.49	167.746375	168.276375		[silence]	[silence]
sw4074A-ms98-a-0043	A.49	168.276375	168.466375		That's	that's
sw4074A-ms98-a-0043	A.49	168.466375	168.556375		what	what
sw4074A-ms98-a-0043	A.49	168.556375	168.696375		we	we
sw4074A-ms98-a-0043	A.49	168.696375	168.966375		found	found
sw4074A-ms98-a-0043	A.49	168.966375	169.136375		Ours	ours
sw4074A-ms98-a-0043	A.49	169.136375	169.256375		is	is
sw4074A-ms98-a-0043	A.49	169.256375	169.436375		uh	uh
sw4074A-ms98-a-0043	A.49	169.436375	169.646375		like	like
sw4074A-ms98-a-0043	A.49	169.646375	169.946125		a	a
sw4074A-ms98-a-0043	A.49	169.946125	170.266375		[silence]	[silence]
sw4074A-ms98-a-0043	A.49	170.266375	171.193625		cockapoo	Cockapoo
sw4074A-ms98-a-0043	A.51	171.193625	171.633750		[silence]	[silence]
sw4074A-ms98-a-0043	A.51	171.633750	171.701625		I	i
sw4074A-ms98-a-0043	A.51	171.701625	171.826375		think	think
sw4074A-ms98-a-0043	A.51	171.826375	171.996375		it's	it's
sw4074A-ms98-a-0043	A.51	171.996375	172.216375		half	half
sw4074A-ms98-a-0043	A.51	172.216375	172.546375		cocker	Cocker
sw4074A-ms98-a-0043	A.51	172.546375	173.016375		spaniel	Spaniel
sw4074A-ms98-a-0043	A.51	173.016375	173.116375		and	and
sw4074A-ms98-a-0043	A.51	173.116375	173.246375		half	half
sw4074A-ms98-a-0043	A.51	173.246375	173.705625		poodle	Poodle
sw4074A-ms98-a-0043	A.53	173.705625	174.334625		[silence]	[silence]
sw4074A-ms98-a-0043	A.53	174.334625	174.626375		But	but
sw4074A-ms98-a-0043	A.53	174.626375	174.806375		[silence]	[silence]
sw4074A-ms98-a-0043	A.53	174.806375	175.036375		it's	it's
sw4074A-ms98-a-0043	A.53	175.036375	175.166375		a	a
sw4074A-ms98-a-0043	A.53	175.166375	175.446375		really	really
sw4074A-ms98-a-0043	A.53	175.446375	175.636375		good	good
sw4074A-ms98-a-0043	A.53	175.636375	176.222375		dog	dog
sw4074A-ms98-a-0043	A.55	176.222375	176.608500		[silence]	[silence]
sw4074A-ms98-a-0044	A.55	176.608500	177.081875		[silence]	[silence]
sw4074A-ms98-a-0044	A.55	177.081875	177.147750		I	i
sw4074A-ms98-a-0044	A.55	177.147750	177.209875		don't	don't
sw4074A-ms98-a-0044	A.55	177.209875	177.295250		know	know
sw4074A-ms98-a-0044	A.55	177.295250	177.408500		they	they
sw4074A-ms98-a-0044	A.55	177.408500	177.678500		seem	seem
sw4074A-ms98-a-0044	A.55	177.678500	177.788500		to	to
sw4074A-ms98-a-0044	A.55	177.788500	178.131750		be	be
sw4074A-ms98-a-0044	A.55	178.131750	178.610125		[silence]	[silence]
sw4074A-ms98-a-0044	A.55	178.610125	178.798500		I	i
sw4074A-ms98-a-0044	A.55	178.798500	179.089875		mean	mean
sw4074A-ms98-a-0044	A.55	179.089875	179.270625		[silence]	[silence]
sw4074A-ms98-a-0044	A.55	179.270625	179.668500		listen	listen
sw4074A-ms98-a-0044	A.55	179.668500	179.948500		better	better
sw4074A-ms98-a-0044	A.55	179.948500	180.018500		or	or
sw4074A-ms98-a-0044	A.55	180.018500	180.615375		something	something
sw4074A-ms98-a-0044	A.57	180.615375	181.278375		[silence]	[silence]
sw4074A-ms98-a-0044	A.57	181.278375	181.388500		Is	is
sw4074A-ms98-a-0044	A.57	181.388500	181.498500		your	your
sw4074A-ms98-a-0044	A.57	181.498500	181.778500		cat	cat
sw4074A-ms98-a-0044	A.57	181.778500	181.828500		a	a
sw4074A-ms98-a-0044	A.57	181.828500	182.558500		purebred	purebred
sw4074A-ms98-a-0044	A.61	182.558500	182.934500		[silence]	[silence]
sw4074A-ms98-a-0045	A.61	182.934500	186.881500		[silence]	[silence]
sw4074A-ms98-a-0046	A.61	186.881500	187.185250		[silence]	[silence]
sw4074A-ms98-a-0046	A.61	187.185250	188.611750		[laughter]	[laughter]
sw4074A-ms98-a-0046	A.61	188.611750	188.930625		[silence]	[silence]
sw4074A-ms98-a-0047	A.61	188.930625	192.389750		[silence]	[silence]
sw4074A-ms98-a-0048	A.61	192.389750	192.839750		[silence]	[silence]
sw4074A-ms98-a-0048	A.61	192.839750	193.358500		Uh-huh	uh-huh
sw4074A-ms98-a-0048	A.63	193.358500	193.849125		[silence]	[silence]
sw4074A-ms98-a-0049	A.63	193.849125	199.372125		[silence]	[silence]
sw4074A-ms98-a-0050	A.63	199.372125	199.892125		[silence]	[silence]
sw4074A-ms98-a-0050	A.63	199.892125	200.042125		Would	would
sw4074A-ms98-a-0050	A.63	200.042125	200.122125		you	you
sw4074A-ms98-a-0050	A.63	200.122125	200.292125		ever	ever
sw4074A-ms98-a-0050	A.63	200.292125	200.476250		want	want
sw4074A-ms98-a-0050	A.63	200.476250	200.570500		a	a
sw4074A-ms98-a-0050	A.63	200.570500	201.071125		dog	dog
sw4074A-ms98-a-0050	A.63	201.071125	201.199125		in	in
sw4074A-ms98-a-0050	A.63	201.199125	201.255500		the	the
sw4074A-ms98-a-0050	A.63	201.255500	201.709625		family	family
sw4074A-ms98-a-0050	A.65	201.709625	202.216125		[silence]	[silence]
sw4074A-ms98-a-0051	A.65	202.216125	213.863500		[silence]	[silence]
sw4074A-ms98-a-0052	A.65	213.863500	214.423500		[silence]	[silence]
sw4074A-ms98-a-0052	A.65	214.423500	214.933500	<SUB>	Uh-huh	um-hum
sw4074A-ms98-a-0052	A.67	214.933500	215.293250		[silence]	[silence]
sw4074A-ms98-a-0053	A.67	215.293250	220.585875		[silence]	[silence]
sw4074A-ms98-a-0054	A.67	220.585875	221.105875		[silence]	[silence]
sw4074A-ms98-a-0054	A.67	221.105875	221.325875		Oh	oh
sw4074A-ms98-a-0054	A.67	221.325875	221.724625		yeah	yeah
sw4074A-ms98-a-0054	A.69	221.724625	222.064250		[silence]	[silence]
sw4074A-ms98-a-0055	A.69	222.064250	232.914375		[silence]	[silence]
sw4074A-ms98-a-0056	A.69	232.914375	233.304375		[silence]	[silence]
sw4074A-ms98-a-0056	A.69	233.304375	233.974375	<SUB>	Uh-huh	um-hum
sw4074A-ms98-a-0056	A.71	233.974375	234.342125		[silence]	[silence]
sw4074A-ms98-a-0057	A.71	234.342125	249.081125		[silence]	[silence]
sw4074A-ms98-a-0058	A.71	249.081125	249.621125		[silence]	[silence]
sw4074A-ms98-a-0058	A.71	249.621125	249.949875		Oh	oh
sw4074A-ms98-a-0058	A.71	249.949875	250.311375		yeah	yeah
sw4074A-ms98-a-0058	A.73	250.311375	250.629125		[silence]	[silence]
sw4074A-ms98-a-0059	A.73	250.629125	259.990250		[silence]	[silence]
sw4074A-ms98-a-0060	A.73	259.990250	260.520250		[silence]	[silence]
sw4074A-ms98-a-0060	A.73	260.520250	261.000250	<SUB>	Uh-huh	um-hum
sw4074A-ms98-a-0060	A.75	261.000250	261.383375		[silence]	[silence]
sw4074A-ms98-a-0061	A.75	261.383375	269.901125		[silence]	[silence]
sw4074A-ms98-a-0062	A.75	269.901125	270.421125		[silence]	[silence]
sw4074A-ms98-a-0062	A.75	270.421125	270.851125	<SUB>	Uh-huh	um-hum
sw4074A-ms98-a-0062	A.77	270.851125	271.497000		[silence]	[silence]
sw4074A-ms98-a-0063	A.77	271.497000	287.299625		[silence]	[silence]
sw4074A-ms98-a-0064	A.77	287.299625	287.929625		[silence]	[silence]
sw4074A-ms98-a-0064	A.77	287.929625	288.398625	<SUB>	Uh-huh	um-hum
sw4074A-ms98-a-0064	A.79	288.398625	288.919250		[silence]	[silence]
sw4074A-ms98-a-0065	A.79	288.919250	292.253375		[silence]	[silence]
sw4074A-ms98-a-0066	A.79	292.253375	292.763375		[silence]	[silence]
sw4074A-ms98-a-0066	A.79	292.763375	293.399625		Wow	wow
sw4074A-ms98-a-0066	A.81	293.399625	293.771625		[silence]	[silence]
sw4074A-ms98-a-0067	A.81	293.771625	297.052625		[silence]	[silence]
sw4074A-ms98-a-0068	A.81	297.052625	297.592625		[silence]	[silence]
sw4074A-ms98-a-0068	A.81	297.592625	297.710375	<SUB>	He	they
sw4074A-ms98-a-0068	A.81	297.710375	297.911875		just	just
sw4074A-ms98-a-0068	A.81	297.911875	298.032625	<SUB>	needed	need
sw4074A-ms98-a-0068	A.81	298.032625	298.082625		a	a
sw4074A-ms98-a-0068	A.81	298.082625	298.252625		lot	lot
sw4074A-ms98-a-0068	A.81	298.252625	298.332625		of	of
sw4074A-ms98-a-0068	A.81	298.332625	298.626000	<SUB>	time	ti[me]-
