sw4177B-ms98-a-0001	B.2	0.000000	0.050000		[silence]	[silence]
sw4177B-ms98-a-0001	B.2	0.050000	0.420000		[noise]	[noise]
sw4177B-ms98-a-0001	B.2	0.420000	0.533750		[silence]	[silence]
sw4177B-ms98-a-0002	B.2	0.533750	5.396250		[silence]	[silence]
sw4177B-ms98-a-0003	B.2	5.396250	5.526250		[silence]	[silence]
sw4177B-ms98-a-0003	B.2	5.526250	5.991500		Uh	uh
sw4177B-ms98-a-0003	B.2	5.991500	6.169250		[silence]	[silence]
sw4177B-ms98-a-0003	B.2	6.169250	6.546250		actually	actually
sw4177B-ms98-a-0003	B.2	6.546250	6.736250		no	no
sw4177B-ms98-a-0003	B.2	6.736250	7.106250		because	because_1
sw4177B-ms98-a-0003	B.2	7.106250	7.276250		because	because_1
sw4177B-ms98-a-0003	B.2	7.276250	7.406250		I'm	i'm
sw4177B-ms98-a-0003	B.2	7.406250	7.506250		in	in
sw4177B-ms98-a-0003	B.2	7.506250	7.856250		school	school
sw4177B-ms98-a-0003	B.2	7.856250	8.045250	<SUB>	I	i-
sw4177B-ms98-a-0003	B.2	8.045250	8.212750		[silence]	[silence]
sw4177B-ms98-a-0003	B.2	8.212750	8.371000		I	i
sw4177B-ms98-a-0003	B.2	8.371000	8.526250		kind	kind
sw4177B-ms98-a-0003	B.2	8.526250	8.860000		of	of
sw4177B-ms98-a-0003	B.2	8.860000	9.142500		[silence]	[silence]
sw4177B-ms98-a-0003	B.2	9.142500	9.344500		miss	miss
sw4177B-ms98-a-0003	B.2	9.344500	9.496250		out	out
sw4177B-ms98-a-0003	B.2	9.496250	9.677500		on	on
sw4177B-ms98-a-0003	B.2	9.677500	9.956250		[silence]	[silence]
sw4177B-ms98-a-0003	B.2	9.956250	10.246250		most	most
sw4177B-ms98-a-0003	B.2	10.246250	10.336250		of	of
sw4177B-ms98-a-0003	B.2	10.336250	10.396250		the	the
sw4177B-ms98-a-0003	B.2	10.396250	10.596250		current	current
sw4177B-ms98-a-0003	B.2	10.596250	10.976250		events	events
sw4177B-ms98-a-0003	B.2	10.976250	11.036250		I	i
sw4177B-ms98-a-0003	B.2	11.036250	11.274000		just	just
sw4177B-ms98-a-0003	B.2	11.274000	11.473625		[silence]	[silence]
sw4177B-ms98-a-0003	B.2	11.473625	11.956250		catch	catch
sw4177B-ms98-a-0003	B.2	11.956250	12.086250		the	the
sw4177B-ms98-a-0003	B.2	12.086250	12.416250		major	major
sw4177B-ms98-a-0003	B.2	12.416250	12.616250		ones	ones
sw4177B-ms98-a-0003	B.2	12.616250	12.806250		off	off
sw4177B-ms98-a-0003	B.2	12.806250	12.886250		the	the
sw4177B-ms98-a-0003	B.2	12.886250	13.286250		news	news
sw4177B-ms98-a-0003	B.2	13.286250	13.558875		or	or
sw4177B-ms98-a-0003	B.2	13.558875	13.845125		[silence]	[silence]
sw4177B-ms98-a-0003	B.2	13.845125	13.936250		if	if
sw4177B-ms98-a-0003	B.2	13.936250	14.156250		someone	someone
sw4177B-ms98-a-0003	B.2	14.156250	14.376250		starts	starts
sw4177B-ms98-a-0003	B.2	14.376250	14.436250		to	to
sw4177B-ms98-a-0003	B.2	14.436250	14.706250		talk	talk
sw4177B-ms98-a-0003	B.2	14.706250	14.976250		about	about
sw4177B-ms98-a-0003	B.2	14.976250	15.067500		it	it
sw4177B-ms98-a-0003	B.4	15.067500	15.508125		[silence]	[silence]
sw4177B-ms98-a-0004	B.4	15.508125	17.871250		[silence]	[silence]
sw4177B-ms98-a-0005	B.4	17.871250	18.441250		[silence]	[silence]
sw4177B-ms98-a-0005	B.4	18.441250	18.911500		Uh	uh
sw4177B-ms98-a-0005	B.4	18.911500	19.251000		[silence]	[silence]
sw4177B-ms98-a-0005	B.4	19.251000	19.357875	<DEL>	---	i-
sw4177B-ms98-a-0005	B.4	19.357875	19.727000		[silence]	[silence]
sw4177B-ms98-a-0005	B.4	19.727000	19.771250		I	i
sw4177B-ms98-a-0005	B.4	19.771250	19.961250		don't	don't
sw4177B-ms98-a-0005	B.4	19.961250	20.151250		watch	watch
sw4177B-ms98-a-0005	B.4	20.151250	20.211250		a	a
sw4177B-ms98-a-0005	B.4	20.211250	20.461250		lot	lot
sw4177B-ms98-a-0005	B.4	20.461250	20.561250		of	of
sw4177B-ms98-a-0005	B.4	20.561250	20.666500		it	it
sw4177B-ms98-a-0005	B.4	20.666500	20.787000		[silence]	[silence]
sw4177B-ms98-a-0005	B.4	20.787000	20.851250		but	but
sw4177B-ms98-a-0005	B.4	20.851250	21.071250		that's	that's
sw4177B-ms98-a-0005	B.4	21.071250	21.141250		the	the
sw4177B-ms98-a-0005	B.4	21.141250	21.273750		on-	on[ly]-
sw4177B-ms98-a-0005	B.4	21.273750	21.575125		[silence]	[silence]
sw4177B-ms98-a-0005	B.4	21.575125	21.961250		basically	basically
sw4177B-ms98-a-0005	B.4	21.961250	22.151250		that's	that's
sw4177B-ms98-a-0005	B.4	22.151250	22.281250		my	my
sw4177B-ms98-a-0005	B.4	22.281250	22.501250		only	only
sw4177B-ms98-a-0005	B.4	22.501250	22.831250		major	major
sw4177B-ms98-a-0005	B.4	22.831250	23.161250		source	source
sw4177B-ms98-a-0005	B.4	23.161250	23.241250		of	of
sw4177B-ms98-a-0005	B.4	23.241250	23.810375		information	information
sw4177B-ms98-a-0005	B.6	23.810375	24.088500		[silence]	[silence]
sw4177B-ms98-a-0006	B.6	24.088500	24.588500		[silence]	[silence]
sw4177B-ms98-a-0006	B.6	24.588500	24.688500		What	what
sw4177B-ms98-a-0006	B.6	24.688500	24.968500		about	about
sw4177B-ms98-a-0006	B.6	24.968500	25.058500		what	what
sw4177B-ms98-a-0006	B.6	25.058500	25.228500		about	about
sw4177B-ms98-a-0006	B.6	25.228500	25.498500		you	you
sw4177B-ms98-a-0006	B.8	25.498500	25.997375		[silence]	[silence]
sw4177B-ms98-a-0007	B.8	25.997375	54.689125		[silence]	[silence]
sw4177B-ms98-a-0008	B.8	54.689125	55.219125		[silence]	[silence]
sw4177B-ms98-a-0008	B.8	55.219125	55.529125		Yeah	yeah
sw4177B-ms98-a-0008	B.10	55.529125	55.988500		[silence]	[silence]
sw4177B-ms98-a-0009	B.10	55.988500	70.469250		[silence]	[silence]
sw4177B-ms98-a-0010	B.10	70.469250	71.009250		[silence]	[silence]
sw4177B-ms98-a-0010	B.10	71.009250	71.439250	<DEL>	---	uh
sw4177B-ms98-a-0010	B.10	71.439250	71.736250		[silence]	[silence]
sw4177B-ms98-a-0011	B.10	71.736250	78.380250		[silence]	[silence]
sw4177B-ms98-a-0012	B.10	78.380250	78.779125		[silence]	[silence]
sw4177B-ms98-a-0012	B.10	78.779125	78.860250		And	and
sw4177B-ms98-a-0012	B.10	78.860250	79.040250		it's	it's
sw4177B-ms98-a-0012	B.10	79.040250	79.220250		more	more
sw4177B-ms98-a-0012	B.10	79.220250	79.360250		in	in
sw4177B-ms98-a-0012	B.10	79.360250	79.780250		depth	depth
sw4177B-ms98-a-0012	B.12	79.780250	80.053750		[silence]	[silence]
sw4177B-ms98-a-0013	B.12	80.053750	94.153500		[silence]	[silence]
sw4177B-ms98-a-0014	B.12	94.153500	94.662875		[silence]	[silence]
sw4177B-ms98-a-0014	B.12	94.662875	95.013500		Yeah	yeah
sw4177B-ms98-a-0014	B.14	95.013500	95.482500		[silence]	[silence]
sw4177B-ms98-a-0015	B.14	95.482500	99.180250		[silence]	[silence]
sw4177B-ms98-a-0016	B.14	99.180250	99.730250		[silence]	[silence]
sw4177B-ms98-a-0016	B.14	99.730250	99.870250		I	i
sw4177B-ms98-a-0016	B.14	99.870250	100.030250		know	know
sw4177B-ms98-a-0016	B.14	100.030250	100.120250	<DEL>	---	it
sw4177B-ms98-a-0016	B.14	100.120250	100.230250	<SUB>	where	when
sw4177B-ms98-a-0016	B.14	100.230250	100.320250		they're	they're
sw4177B-ms98-a-0016	B.14	100.320250	100.490250		just	just
sw4177B-ms98-a-0016	B.14	100.490250	100.660250		trying	trying
sw4177B-ms98-a-0016	B.14	100.660250	100.720250		to	to
sw4177B-ms98-a-0016	B.14	100.720250	101.000250		fill	fill
sw4177B-ms98-a-0016	B.14	101.000250	101.220250		in	in
sw4177B-ms98-a-0016	B.16	101.220250	101.629000		[silence]	[silence]
sw4177B-ms98-a-0017	B.16	101.629000	105.203750		[silence]	[silence]
sw4177B-ms98-a-0018	B.16	105.203750	105.724750		[silence]	[silence]
sw4177B-ms98-a-0018	B.16	105.724750	106.150250		Yeah	yeah
sw4177B-ms98-a-0018	B.18	106.150250	106.502375		[silence]	[silence]
sw4177B-ms98-a-0019	B.18	106.502375	110.554500		[silence]	[silence]
sw4177B-ms98-a-0020	B.18	110.554500	111.014500		[silence]	[silence]
sw4177B-ms98-a-0020	B.18	111.014500	111.194500		I	i
sw4177B-ms98-a-0020	B.18	111.194500	111.324500		know	know
sw4177B-ms98-a-0020	B.18	111.324500	111.440875		I	i
sw4177B-ms98-a-0020	B.18	111.440875	111.738375		do	do
sw4177B-ms98-a-0020	B.18	111.738375	111.824500		I	i
sw4177B-ms98-a-0020	B.18	111.824500	111.944500		do	do
sw4177B-ms98-a-0020	B.18	111.944500	112.294500		too	too
sw4177B-ms98-a-0020	B.20	112.294500	112.805750		[silence]	[silence]
sw4177B-ms98-a-0021	B.20	112.805750	117.323875		[silence]	[silence]
sw4177B-ms98-a-0022	B.20	117.323875	117.843875		[silence]	[silence]
sw4177B-ms98-a-0022	B.20	117.843875	117.923875		Yeah	yeah
sw4177B-ms98-a-0022	B.20	117.923875	118.053875		you	you
sw4177B-ms98-a-0022	B.20	118.053875	118.303000		may	may
sw4177B-ms98-a-0022	B.20	118.303000	118.419750		[silence]	[silence]
sw4177B-ms98-a-0022	B.20	118.419750	118.793375		find	find
sw4177B-ms98-a-0022	B.20	118.793375	119.098125		one	one
sw4177B-ms98-a-0022	B.20	119.098125	119.350875		little	little
sw4177B-ms98-a-0022	B.20	119.350875	119.782250		[silence]	[silence]
sw4177B-ms98-a-0023	B.20	119.782250	120.172250		[silence]	[silence]
sw4177B-ms98-a-0023	B.20	120.172250	120.583250		uh	uh
sw4177B-ms98-a-0023	B.20	120.583250	121.076625		[silence]	[silence]
sw4177B-ms98-a-0023	B.20	121.076625	121.292250		news	news
sw4177B-ms98-a-0023	B.20	121.292250	121.522250		item	item
sw4177B-ms98-a-0023	B.20	121.522250	122.042250		interesting	interesting
sw4177B-ms98-a-0023	B.20	122.042250	122.122250		so	so
sw4177B-ms98-a-0023	B.20	122.122250	122.182250		you	you
sw4177B-ms98-a-0023	B.20	122.182250	122.272250		have	have
sw4177B-ms98-a-0023	B.20	122.272250	122.402250		to	to
sw4177B-ms98-a-0023	B.20	122.402250	122.732250		wait	wait
sw4177B-ms98-a-0023	B.20	122.732250	122.962250		twenty	twenty
sw4177B-ms98-a-0023	B.20	122.962250	123.322250		minutes	minutes
sw4177B-ms98-a-0023	B.20	123.322250	123.512250		to	to
sw4177B-ms98-a-0023	B.20	123.512250	123.712250		[silence]	[silence]
sw4177B-ms98-a-0023	B.20	123.712250	123.802250		to	to
sw4177B-ms98-a-0023	B.20	123.802250	124.012250		hear	hear
sw4177B-ms98-a-0023	B.20	124.012250	124.302250		about	about
sw4177B-ms98-a-0023	B.20	124.302250	124.397625		it	it
sw4177B-ms98-a-0023	B.22	124.397625	124.800625		[silence]	[silence]
sw4177B-ms98-a-0024	B.22	124.800625	130.476000		[silence]	[silence]
sw4177B-ms98-a-0025	B.22	130.476000	130.715375		[silence]	[silence]
sw4177B-ms98-a-0025	B.22	130.715375	131.046000		[noise]	[noise]
sw4177B-ms98-a-0025	B.22	131.046000	131.176000		Yeah	yeah
sw4177B-ms98-a-0025	B.22	131.176000	131.496000		actually	actually
sw4177B-ms98-a-0025	B.22	131.496000	131.586000		y-	y[ou]-
sw4177B-ms98-a-0025	B.22	131.586000	131.746000		you	you
sw4177B-ms98-a-0025	B.22	131.746000	132.026000		mention	mention
sw4177B-ms98-a-0025	B.22	132.026000	132.446000		NEWSWEEK	Newsweek
sw4177B-ms98-a-0025	B.22	132.446000	132.726000	<SUB>	I	i-
sw4177B-ms98-a-0025	B.22	132.726000	132.896000	<SUB>	I	i-
sw4177B-ms98-a-0025	B.22	132.896000	133.086000		[silence]	[silence]
sw4177B-ms98-a-0025	B.22	133.086000	133.178250		I	i
sw4177B-ms98-a-0025	B.22	133.178250	133.325125		do	do
sw4177B-ms98-a-0025	B.22	133.325125	133.606000		like	like
sw4177B-ms98-a-0025	B.22	133.606000	133.911375		uh	uh
sw4177B-ms98-a-0025	B.22	133.911375	134.058250		[silence]	[silence]
sw4177B-ms98-a-0025	B.22	134.058250	134.426000	<CONT>	U	US
sw4177B-ms98-a-0025	B.22	134.426000	134.426000	<CONT>	S	+++
sw4177B-ms98-a-0025	B.22	134.426000	134.616000		NEWS	News
sw4177B-ms98-a-0025	B.22	134.616000	134.766000		AND	and
sw4177B-ms98-a-0025	B.22	134.766000	134.956000		WORLD	World
sw4177B-ms98-a-0025	B.22	134.956000	135.436000		REPORT	Report
sw4177B-ms98-a-0025	B.22	135.436000	135.636000		[silence]	[silence]
sw4177B-ms98-a-0025	B.22	135.636000	135.745250		I	i
sw4177B-ms98-a-0025	B.22	135.745250	135.865750		don't	don't
sw4177B-ms98-a-0025	B.22	135.865750	135.956000		get	get
sw4177B-ms98-a-0025	B.22	135.956000	136.036000		to	to
sw4177B-ms98-a-0025	B.22	136.036000	136.146000		read	read
sw4177B-ms98-a-0025	B.22	136.146000	136.216000		it	it
sw4177B-ms98-a-0025	B.22	136.216000	136.316000		as	as
sw4177B-ms98-a-0025	B.22	136.316000	136.486000		much	much
sw4177B-ms98-a-0025	B.22	136.486000	136.586000		as	as
sw4177B-ms98-a-0025	B.22	136.586000	136.656000		I	i
sw4177B-ms98-a-0025	B.22	136.656000	136.936000		like	like
sw4177B-ms98-a-0025	B.22	136.936000	137.106000		but	but
sw4177B-ms98-a-0025	B.22	137.106000	137.746000		[silence]	[silence]
sw4177B-ms98-a-0025	B.22	137.746000	137.996000		that's	that's
sw4177B-ms98-a-0025	B.22	137.996000	138.076000		I	i
sw4177B-ms98-a-0025	B.22	138.076000	138.246000		think	think
sw4177B-ms98-a-0025	B.22	138.246000	138.396000		that's	that's
sw4177B-ms98-a-0025	B.22	138.396000	138.446000		a	a
sw4177B-ms98-a-0025	B.22	138.446000	138.556000		good	good
sw4177B-ms98-a-0025	B.22	138.556000	139.024000		magazine	magazine
sw4177B-ms98-a-0025	B.24	139.024000	139.583625		[silence]	[silence]
sw4177B-ms98-a-0026	B.24	139.583625	146.658375		[silence]	[silence]
sw4177B-ms98-a-0027	B.24	146.658375	147.368375		[silence]	[silence]
sw4177B-ms98-a-0027	B.24	147.368375	147.538375	<DEL>	---	yeah
sw4177B-ms98-a-0027	B.24	147.538375	147.889625		[silence]	[silence]
sw4177B-ms98-a-0028	B.24	147.889625	154.736250		[silence]	[silence]
sw4177B-ms98-a-0029	B.24	154.736250	155.356250		[silence]	[silence]
sw4177B-ms98-a-0029	B.24	155.356250	155.611250	<DEL>	---	oh
sw4177B-ms98-a-0029	B.24	155.611250	155.805875		[silence]	[silence]
sw4177B-ms98-a-0029	B.24	155.805875	156.016875		Well	well
sw4177B-ms98-a-0029	B.26	156.016875	156.186250		right	right
sw4177B-ms98-a-0029	B.26	156.186250	156.366250		now	now
sw4177B-ms98-a-0029	B.26	156.366250	156.534750	<DEL>	---	i'm
sw4177B-ms98-a-0029	B.26	156.534750	156.945375		[silence]	[silence]
sw4177B-ms98-a-0029	B.26	156.945375	157.116250		trying	trying
sw4177B-ms98-a-0029	B.26	157.116250	157.176250		to	to
sw4177B-ms98-a-0029	B.26	157.176250	157.386250		keep	keep
sw4177B-ms98-a-0029	B.26	157.386250	157.786250		abreast	abreast
sw4177B-ms98-a-0029	B.26	157.786250	157.936250		of	of
sw4177B-ms98-a-0029	B.26	157.936250	158.210000		uh	uh
sw4177B-ms98-a-0029	B.26	158.210000	158.624250		[silence]	[silence]
sw4177B-ms98-a-0029	B.26	158.624250	158.756250		what's	what's
sw4177B-ms98-a-0029	B.26	158.756250	159.006250		going	going
sw4177B-ms98-a-0029	B.26	159.006250	159.116250		on	on
sw4177B-ms98-a-0029	B.26	159.116250	159.196250		in	in
sw4177B-ms98-a-0029	B.26	159.196250	159.676250		Europe	Europe
sw4177B-ms98-a-0029	B.26	159.676250	159.913875		[silence]	[silence]
sw4177B-ms98-a-0030	B.26	159.913875	160.235875		[silence]	[silence]
sw4177B-ms98-a-0030	B.26	160.235875	160.273875		you	you
sw4177B-ms98-a-0030	B.26	160.273875	160.336125		know	know
sw4177B-ms98-a-0030	B.26	160.336125	160.459250		with	with
sw4177B-ms98-a-0030	B.26	160.459250	160.593875		all	all
sw4177B-ms98-a-0030	B.26	160.593875	160.814250		the	the
sw4177B-ms98-a-0030	B.26	160.814250	161.499750		[silence]	[silence]
sw4177B-ms98-a-0030	B.26	161.499750	161.603875	<DEL>	---	uh
sw4177B-ms98-a-0030	B.26	161.603875	162.453875	<CONT>	U	USSR's
sw4177B-ms98-a-0030	B.26	162.453875	162.453875	<CONT>	S	+++
sw4177B-ms98-a-0030	B.26	162.453875	162.453875	<CONT>	S	+++
sw4177B-ms98-a-0030	B.26	162.453875	162.453875	<CONT>	R's	+++
sw4177B-ms98-a-0030	B.26	162.453875	163.093875		satellites	satellites
sw4177B-ms98-a-0030	B.26	163.093875	163.473875		breaking	breaking
sw4177B-ms98-a-0030	B.26	163.473875	163.963875		off	off
sw4177B-ms98-a-0030	B.26	163.963875	164.073875	<DEL>	---	and
sw4177B-ms98-a-0030	B.26	164.073875	164.283875		trying	trying
sw4177B-ms98-a-0030	B.26	164.283875	164.343875		to	to
sw4177B-ms98-a-0030	B.26	164.343875	164.583875		become	become
sw4177B-ms98-a-0030	B.26	164.583875	165.138875		independent	independent
sw4177B-ms98-a-0030	B.26	165.138875	165.364875		[silence]	[silence]
sw4177B-ms98-a-0030	B.26	165.364875	165.480250		and	and
sw4177B-ms98-a-0030	B.26	165.480250	165.632500	<DEL>	---	then
sw4177B-ms98-a-0030	B.26	165.632500	165.771875		you	you
sw4177B-ms98-a-0030	B.26	165.771875	165.951250		know	know
sw4177B-ms98-a-0030	B.26	165.951250	166.512375		[silence]	[silence]
sw4177B-ms98-a-0030	B.26	166.512375	167.023875		European	European
sw4177B-ms98-a-0030	B.26	167.023875	167.393875		community	community
sw4177B-ms98-a-0030	B.26	167.393875	167.663875		coming	coming
sw4177B-ms98-a-0030	B.26	167.663875	168.083875		together	together
sw4177B-ms98-a-0030	B.28	168.083875	168.563625		[silence]	[silence]
sw4177B-ms98-a-0031	B.28	168.563625	169.023625		[silence]	[silence]
sw4177B-ms98-a-0031	B.28	169.023625	169.203625		That's	that's
sw4177B-ms98-a-0031	B.28	169.203625	169.323625	<SUB>	going	gonna
sw4177B-ms98-a-0031	B.28	169.323625	169.323625	<INS>	to	---
sw4177B-ms98-a-0031	B.28	169.323625	169.673625		affect	affect
sw4177B-ms98-a-0031	B.28	169.673625	169.873625		our	our
sw4177B-ms98-a-0031	B.28	169.873625	170.057875		uh	uh
sw4177B-ms98-a-0031	B.28	170.057875	170.189750		[silence]	[silence]
sw4177B-ms98-a-0031	B.28	170.189750	170.553625		economy	economy
sw4177B-ms98-a-0031	B.28	170.553625	170.813625		quite	quite
sw4177B-ms98-a-0031	B.28	170.813625	170.863625		a	a
sw4177B-ms98-a-0031	B.28	170.863625	171.114125		bit	bit
sw4177B-ms98-a-0031	B.30	171.114125	171.640875		[silence]	[silence]
sw4177B-ms98-a-0032	B.30	171.640875	178.869500		[silence]	[silence]
sw4177B-ms98-a-0033	B.30	178.869500	179.288500		[silence]	[silence]
sw4177B-ms98-a-0033	B.30	179.288500	179.510000		[vocalized-noise]	[vocalized-noise]
sw4177B-ms98-a-0033	B.30	179.510000	179.774000		[silence]	[silence]
sw4177B-ms98-a-0034	B.30	179.774000	183.229375		[silence]	[silence]
sw4177B-ms98-a-0035	B.30	183.229375	183.719375		[silence]	[silence]
sw4177B-ms98-a-0035	B.30	183.719375	183.824000		Oh	oh
sw4177B-ms98-a-0035	B.30	183.824000	184.038875		yeah	yeah
sw4177B-ms98-a-0035	B.32	184.038875	184.459375	<DEL>	---	definitely
sw4177B-ms98-a-0035	B.32	184.459375	184.792375		[silence]	[silence]
sw4177B-ms98-a-0036	B.32	184.792375	185.202375		[silence]	[silence]
sw4177B-ms98-a-0036	B.32	185.202375	185.429875		Yeah	yeah
sw4177B-ms98-a-0036	B.34	185.429875	186.010125		[silence]	[silence]
sw4177B-ms98-a-0037	B.34	186.010125	187.997750		[silence]	[silence]
sw4177B-ms98-a-0038	B.34	187.997750	188.577750		[silence]	[silence]
sw4177B-ms98-a-0038	B.34	188.577750	188.717750		I'm	i'm
sw4177B-ms98-a-0038	B.34	188.717750	188.817750		[silence]	[silence]
sw4177B-ms98-a-0038	B.34	188.817750	188.917750		I'm	i'm
sw4177B-ms98-a-0038	B.34	188.917750	189.207750		pretty	pretty
sw4177B-ms98-a-0038	B.34	189.207750	189.467750		sure	sure
sw4177B-ms98-a-0038	B.34	189.467750	189.567750		it	it
sw4177B-ms98-a-0038	B.34	189.567750	189.777750		is	is
sw4177B-ms98-a-0038	B.34	189.777750	189.987750		because	because_1
sw4177B-ms98-a-0038	B.34	189.987750	190.151875		uh	uh
sw4177B-ms98-a-0038	B.36	190.151875	190.610000		[silence]	[silence]
sw4177B-ms98-a-0039	B.36	190.610000	191.003375		[silence]	[silence]
sw4177B-ms98-a-0039	B.36	191.003375	191.408250		once	once
sw4177B-ms98-a-0039	B.36	191.408250	191.525750		[silence]	[silence]
sw4177B-ms98-a-0039	B.36	191.525750	191.770000		once	once
sw4177B-ms98-a-0039	B.36	191.770000	192.033875		Europe	Europe
sw4177B-ms98-a-0039	B.36	192.033875	192.233500		[silence]	[silence]
sw4177B-ms98-a-0039	B.36	192.233500	192.520000		becomes	becomes
sw4177B-ms98-a-0039	B.36	192.520000	193.068000		unified	unified
sw4177B-ms98-a-0039	B.36	193.068000	193.835625		[silence]	[silence]
sw4177B-ms98-a-0040	B.36	193.835625	194.265625		[silence]	[silence]
sw4177B-ms98-a-0040	B.36	194.265625	194.565625		and	and
sw4177B-ms98-a-0040	B.36	194.565625	194.725625		uh	uh
sw4177B-ms98-a-0040	B.36	194.725625	194.895625		[silence]	[silence]
sw4177B-ms98-a-0040	B.36	194.895625	195.079000		their	their
sw4177B-ms98-a-0040	B.36	195.079000	195.587500		[silence]	[silence]
sw4177B-ms98-a-0040	B.36	195.587500	196.055625		economy	economy
sw4177B-ms98-a-0040	B.36	196.055625	196.405625		becomes	becomes
sw4177B-ms98-a-0040	B.36	196.405625	196.687250		one	one
sw4177B-ms98-a-0040	B.36	196.687250	196.939625		big	big
sw4177B-ms98-a-0040	B.36	196.939625	197.421500		economy	economy
sw4177B-ms98-a-0040	B.36	197.421500	197.906125		[silence]	[silence]
sw4177B-ms98-a-0041	B.36	197.906125	198.196125		[silence]	[silence]
sw4177B-ms98-a-0041	B.36	198.196125	198.366125		we're	we're
sw4177B-ms98-a-0041	B.36	198.366125	198.536125	<SUB>	going	gonna
sw4177B-ms98-a-0041	B.36	198.536125	198.536125	<INS>	to	---
sw4177B-ms98-a-0041	B.36	198.536125	198.776125		be	be
sw4177B-ms98-a-0041	B.36	198.776125	198.976125		uh	uh
sw4177B-ms98-a-0041	B.36	198.976125	199.447750		[silence]	[silence]
sw4177B-ms98-a-0042	B.36	199.447750	199.757750		[silence]	[silence]
sw4177B-ms98-a-0042	B.36	199.757750	200.077750		kind	kind
sw4177B-ms98-a-0042	B.36	200.077750	200.157750		of	of
sw4177B-ms98-a-0042	B.36	200.157750	200.445125		hurting	hurting
sw4177B-ms98-a-0042	B.38	200.445125	200.626875		[silence]	[silence]
sw4177B-ms98-a-0042	B.38	200.626875	201.378250		[laughter]	[laughter]
sw4177B-ms98-a-0042	B.38	201.378250	201.605125		[silence]	[silence]
sw4177B-ms98-a-0043	B.38	201.605125	209.463250		[silence]	[silence]
sw4177B-ms98-a-0044	B.38	209.463250	209.881875		[silence]	[silence]
sw4177B-ms98-a-0044	B.38	209.881875	210.103250		Yeah	yeah
sw4177B-ms98-a-0044	B.38	210.103250	210.603250		definitely	definitely
sw4177B-ms98-a-0044	B.40	210.603250	211.036375		[silence]	[silence]
sw4177B-ms98-a-0045	B.40	211.036375	221.865375		[silence]	[silence]
sw4177B-ms98-a-0046	B.40	221.865375	222.275375		[silence]	[silence]
sw4177B-ms98-a-0046	B.40	222.275375	222.355375		Oh	oh
sw4177B-ms98-a-0046	B.40	222.355375	222.505375		yeah	yeah
sw4177B-ms98-a-0046	B.42	222.505375	222.635375		so	so
sw4177B-ms98-a-0046	B.42	222.635375	222.725375		they	they
sw4177B-ms98-a-0046	B.42	222.725375	222.835375		have	have
sw4177B-ms98-a-0046	B.42	222.835375	222.905375		a	a
sw4177B-ms98-a-0046	B.42	222.905375	223.425375	<CONT>	toe	toehold
sw4177B-ms98-a-0046	B.42	223.425375	223.425375	<CONT>	hold	+++
sw4177B-ms98-a-0046	B.42	223.425375	223.475375	<SUB>	I	a
sw4177B-ms98-a-0046	B.42	223.475375	223.635375		good	good
sw4177B-ms98-a-0046	B.42	223.635375	224.085375	<CONT>	toe	toehold
sw4177B-ms98-a-0046	B.42	224.085375	224.085375	<CONT>	hold	+++
sw4177B-ms98-a-0046	B.44	224.085375	224.453500		[silence]	[silence]
sw4177B-ms98-a-0047	B.44	224.453500	229.968750		[silence]	[silence]
sw4177B-ms98-a-0048	B.44	229.968750	230.414750		[silence]	[silence]
sw4177B-ms98-a-0048	B.44	230.414750	230.548750		Yeah	yeah
sw4177B-ms98-a-0048	B.44	230.548750	230.798750		because	because_1
sw4177B-ms98-a-0048	B.44	230.798750	231.030750		[silence]	[silence]
sw4177B-ms98-a-0049	B.44	231.030750	231.455750		[silence]	[silence]
sw4177B-ms98-a-0049	B.44	231.455750	231.700750		when	when
sw4177B-ms98-a-0049	B.44	231.700750	231.880750		they	they
sw4177B-ms98-a-0049	B.44	231.880750	232.260750		first	first
sw4177B-ms98-a-0049	B.44	232.260750	232.460750		start	start
sw4177B-ms98-a-0049	B.44	232.460750	232.690750		off	off
sw4177B-ms98-a-0049	B.44	232.690750	232.810750		they're	they're
sw4177B-ms98-a-0049	B.44	232.810750	232.940750		going	going
sw4177B-ms98-a-0049	B.44	232.940750	233.000750		to	to
sw4177B-ms98-a-0049	B.44	233.000750	233.060750		be	be
sw4177B-ms98-a-0049	B.44	233.060750	233.390750		highly	highly
sw4177B-ms98-a-0049	B.44	233.390750	234.150750		protectionist	protectionist
sw4177B-ms98-a-0049	B.44	234.150750	234.457500		[silence]	[silence]
sw4177B-ms98-a-0050	B.44	234.457500	234.857500		[silence]	[silence]
sw4177B-ms98-a-0050	B.44	234.857500	235.273500		so	so
sw4177B-ms98-a-0050	B.46	235.273500	235.785750		[silence]	[silence]
sw4177B-ms98-a-0051	B.46	235.785750	236.290125		[silence]	[silence]
sw4177B-ms98-a-0051	B.46	236.290125	236.695750		Yeah	yeah
sw4177B-ms98-a-0051	B.48	236.695750	237.111375		[silence]	[silence]
sw4177B-ms98-a-0052	B.48	237.111375	242.531500		[silence]	[silence]
sw4177B-ms98-a-0053	B.48	242.531500	243.036500		[silence]	[silence]
sw4177B-ms98-a-0053	B.48	243.036500	243.468000		Yeah	yeah
sw4177B-ms98-a-0053	B.50	243.468000	243.903875		[silence]	[silence]
sw4177B-ms98-a-0054	B.50	243.903875	252.510375		[silence]	[silence]
sw4177B-ms98-a-0055	B.50	252.510375	252.950375		[silence]	[silence]
sw4177B-ms98-a-0055	B.50	252.950375	253.320750		Uh-huh	uh-huh
sw4177B-ms98-a-0055	B.52	253.320750	253.790625		[silence]	[silence]
sw4177B-ms98-a-0056	B.52	253.790625	257.403625		[silence]	[silence]
sw4177B-ms98-a-0057	B.52	257.403625	257.804125		[silence]	[silence]
sw4177B-ms98-a-0057	B.52	257.804125	257.975375		Yeah	yeah
sw4177B-ms98-a-0057	B.52	257.975375	258.168125	<SUB>	I	i-
sw4177B-ms98-a-0057	B.52	258.168125	258.296125		I	i
sw4177B-ms98-a-0057	B.52	258.296125	258.383625		can	can
sw4177B-ms98-a-0057	B.52	258.383625	258.693625		understand	understand
sw4177B-ms98-a-0057	B.52	258.693625	258.783625		their	their
sw4177B-ms98-a-0057	B.52	258.783625	259.143625		viewpoint	viewpoint
sw4177B-ms98-a-0057	B.52	259.143625	259.233625		they're	they're
sw4177B-ms98-a-0057	B.52	259.233625	259.543625		just	just
sw4177B-ms98-a-0057	B.52	259.543625	259.673625		[silence]	[silence]
sw4177B-ms98-a-0057	B.52	259.673625	259.909625		they're	they're
sw4177B-ms98-a-0057	B.52	259.909625	260.297625		[silence]	[silence]
sw4177B-ms98-a-0057	B.52	260.297625	260.743625		starting	starting
sw4177B-ms98-a-0057	B.52	260.743625	260.953625		off	off
sw4177B-ms98-a-0057	B.52	260.953625	261.043625	<DEL>	---	and
sw4177B-ms98-a-0057	B.52	261.043625	261.133625		their	their
sw4177B-ms98-a-0057	B.52	261.133625	261.503625		economy's	economy's
sw4177B-ms98-a-0057	B.52	261.503625	261.533625		a	a
sw4177B-ms98-a-0057	B.52	261.533625	261.733625		little	little
sw4177B-ms98-a-0057	B.52	261.733625	261.913625		bit	bit
sw4177B-ms98-a-0057	B.52	261.913625	262.193625		weak	weak
sw4177B-ms98-a-0057	B.52	262.193625	262.323625		so	so
sw4177B-ms98-a-0057	B.52	262.323625	262.435000	<SUB>	you	they
sw4177B-ms98-a-0057	B.52	262.435000	262.623375		want	want
sw4177B-ms98-a-0057	B.52	262.623375	262.795375		to	to
sw4177B-ms98-a-0057	B.54	262.795375	263.326500		[silence]	[silence]
sw4177B-ms98-a-0057	B.54	263.326500	263.423625		get	get
sw4177B-ms98-a-0057	B.54	263.423625	264.013625		established	established
sw4177B-ms98-a-0057	B.54	264.013625	264.353625		before	before
sw4177B-ms98-a-0057	B.54	264.353625	264.593625		they	they
sw4177B-ms98-a-0057	B.56	264.593625	265.049375		[silence]	[silence]
sw4177B-ms98-a-0058	B.56	265.049375	265.520000		[silence]	[silence]
sw4177B-ms98-a-0058	B.56	265.520000	265.629375		com-	com[pete]-
sw4177B-ms98-a-0058	B.58	265.629375	266.160125		[silence]	[silence]
sw4177B-ms98-a-0059	B.58	266.160125	266.673250		[silence]	[silence]
sw4177B-ms98-a-0059	B.58	266.673250	267.056875		Yeah	yeah
sw4177B-ms98-a-0059	B.58	267.056875	267.251250		[silence]	[silence]
sw4177B-ms98-a-0059	B.58	267.251250	267.730125		totally	totally
sw4177B-ms98-a-0059	B.60	267.730125	268.072375		[silence]	[silence]
sw4177B-ms98-a-0060	B.60	268.072375	273.716250		[silence]	[silence]
sw4177B-ms98-a-0061	B.60	273.716250	273.856250		[silence]	[silence]
sw4177B-ms98-a-0061	B.60	273.856250	274.256250		Actually	actually
sw4177B-ms98-a-0061	B.60	274.256250	274.356250		I'm	i'm
sw4177B-ms98-a-0061	B.60	274.356250	274.556250		not	not
sw4177B-ms98-a-0061	B.60	274.556250	274.776250		really	really
sw4177B-ms98-a-0061	B.60	274.776250	274.946250		into	into
sw4177B-ms98-a-0061	B.60	274.946250	275.316250		sports	sports
sw4177B-ms98-a-0061	B.60	275.316250	275.416250		My	my
sw4177B-ms98-a-0061	B.60	275.416250	275.786250		roommates	roommates
sw4177B-ms98-a-0061	B.60	275.786250	275.966250		are	are
sw4177B-ms98-a-0061	B.60	275.966250	276.106250		so	so
sw4177B-ms98-a-0061	B.60	276.106250	276.626250		unfortunately	unfortunately
sw4177B-ms98-a-0061	B.60	276.626250	276.656250		I	i
sw4177B-ms98-a-0061	B.60	276.656250	276.777625	<DEL>	---	am
sw4177B-ms98-a-0061	B.60	276.777625	277.037500		[silence]	[silence]
sw4177B-ms98-a-0061	B.60	277.037500	277.276250		forced	forced
sw4177B-ms98-a-0061	B.60	277.276250	277.356250		to	to
sw4177B-ms98-a-0061	B.60	277.356250	277.636250		watch	watch
sw4177B-ms98-a-0061	B.60	277.636250	277.896250		quite	quite
sw4177B-ms98-a-0061	B.60	277.896250	277.926250		a	a
sw4177B-ms98-a-0061	B.60	277.926250	278.046250		bit	bit
sw4177B-ms98-a-0061	B.60	278.046250	278.116250		of	of
sw4177B-ms98-a-0061	B.60	278.116250	278.626250		sports	sports
sw4177B-ms98-a-0061	B.64	278.626250	279.030125		[silence]	[silence]
sw4177B-ms98-a-0062	B.64	279.030125	279.508500		[silence]	[silence]
sw4177B-ms98-a-0062	B.64	279.508500	280.356625		[laughter]	[laughter]
sw4177B-ms98-a-0062	B.64	280.356625	281.164500		[silence]	[silence]
sw4177B-ms98-a-0063	B.64	281.164500	281.964500		[silence]	[silence]
sw4177B-ms98-a-0063	B.64	281.964500	282.288250		Yeah	yeah
sw4177B-ms98-a-0063	B.64	282.288250	282.416375		[silence]	[silence]
sw4177B-ms98-a-0063	B.64	282.416375	282.458750		we	we
sw4177B-ms98-a-0063	B.64	282.458750	282.526625		have	have
sw4177B-ms98-a-0063	B.64	282.526625	282.891250		to	to
sw4177B-ms98-a-0063	B.64	282.891250	283.437500		[vocalized-noise]	[vocalized-noise]
sw4177B-ms98-a-0063	B.64	283.437500	283.684500		fight	fight
sw4177B-ms98-a-0063	B.64	283.684500	283.844500		over	over
sw4177B-ms98-a-0063	B.64	283.844500	283.924500		the	the
sw4177B-ms98-a-0063	B.64	283.924500	284.144500		remote	remote
sw4177B-ms98-a-0063	B.64	284.144500	284.554500		control	control
sw4177B-ms98-a-0063	B.64	284.554500	285.077000		[silence]	[silence]
sw4177B-ms98-a-0064	B.64	285.077000	288.550000		[silence]	[silence]
sw4177B-ms98-a-0065	B.64	288.550000	289.122000		[silence]	[silence]
sw4177B-ms98-a-0065	B.64	289.122000	289.914125		[laughter]	[laughter]
sw4177B-ms98-a-0065	B.64	289.914125	290.497125		[silence]	[silence]
sw4177B-ms98-a-0066	B.64	290.497125	294.553875		[silence]	[silence]
sw4177B-ms98-a-0067	B.64	294.553875	294.995500		[silence]	[silence]
sw4177B-ms98-a-0067	B.64	294.995500	295.995375		[laughter]	[laughter]
sw4177B-ms98-a-0067	B.64	295.995375	296.429875		[silence]	[silence]
sw4177B-ms98-a-0068	B.64	296.429875	298.626000		[silence]	[silence]
