sw4168B-ms98-a-0001	B.2	0.000000	0.001000		[silence]	[silence]
sw4168B-ms98-a-0001	B.2	0.001000	0.008750		[noise]	[noise]
sw4168B-ms98-a-0001	B.2	0.008750	0.513000		[silence]	[silence]
sw4168B-ms98-a-0002	B.2	0.513000	1.248250		[silence]	[silence]
sw4168B-ms98-a-0002	B.2	1.248250	1.603000		Okay	okay
sw4168B-ms98-a-0002	B.2	1.603000	1.820000	<SUB>	I	i-
sw4168B-ms98-a-0002	B.2	1.820000	1.906625		I	i
sw4168B-ms98-a-0002	B.2	1.906625	2.073000		think	think
sw4168B-ms98-a-0002	B.2	2.073000	2.183000		we're	we're
sw4168B-ms98-a-0002	B.2	2.183000	2.523000		started	started
sw4168B-ms98-a-0002	B.2	2.523000	2.801500		now	now
sw4168B-ms98-a-0002	B.4	2.801500	3.216875		[silence]	[silence]
sw4168B-ms98-a-0003	B.4	3.216875	3.598500		[silence]	[silence]
sw4168B-ms98-a-0003	B.4	3.598500	3.976875		Uh	uh
sw4168B-ms98-a-0003	B.4	3.976875	4.206875		do	do
sw4168B-ms98-a-0003	B.4	4.206875	4.266875		you	you
sw4168B-ms98-a-0003	B.4	4.266875	4.426875	<SUB>	want	wanna
sw4168B-ms98-a-0003	B.4	4.426875	4.426875	<INS>	to	---
sw4168B-ms98-a-0003	B.4	4.426875	4.546875		go	go
sw4168B-ms98-a-0003	B.4	4.546875	4.676875		ahead	ahead
sw4168B-ms98-a-0003	B.4	4.676875	4.766875		and	and
sw4168B-ms98-a-0003	B.4	4.766875	5.038125		start	start
sw4168B-ms98-a-0003	B.8	5.038125	5.550625		[silence]	[silence]
sw4168B-ms98-a-0004	B.8	5.550625	17.497250		[silence]	[silence]
sw4168B-ms98-a-0005	B.8	17.497250	17.991000		[silence]	[silence]
sw4168B-ms98-a-0005	B.8	17.991000	18.037250		Well	well
sw4168B-ms98-a-0005	B.8	18.037250	18.137250		you	you
sw4168B-ms98-a-0005	B.8	18.137250	18.287250		like	like
sw4168B-ms98-a-0005	B.8	18.287250	18.697250		classical	classical
sw4168B-ms98-a-0005	B.8	18.697250	19.037250		music	music
sw4168B-ms98-a-0005	B.10	19.037250	19.505625		[silence]	[silence]
sw4168B-ms98-a-0006	B.10	19.505625	20.000750		[silence]	[silence]
sw4168B-ms98-a-0006	B.10	20.000750	20.399750		Uh	uh
sw4168B-ms98-a-0006	B.10	20.399750	20.602250		[silence]	[silence]
sw4168B-ms98-a-0006	B.10	20.602250	20.719000		I	i
sw4168B-ms98-a-0006	B.10	20.719000	20.905625		like	like
sw4168B-ms98-a-0006	B.10	20.905625	21.355625		classical	classical
sw4168B-ms98-a-0006	B.10	21.355625	22.032750		music	music
sw4168B-ms98-a-0006	B.10	22.032750	22.175625		I	i
sw4168B-ms98-a-0006	B.10	22.175625	22.615625		like	like
sw4168B-ms98-a-0006	B.10	22.615625	22.835625		rock	rock
sw4168B-ms98-a-0006	B.10	22.835625	22.965625		and	and
sw4168B-ms98-a-0006	B.10	22.965625	23.379625		roll	roll
sw4168B-ms98-a-0006	B.12	23.379625	24.008125		[silence]	[silence]
sw4168B-ms98-a-0006	B.12	24.008125	24.081500		I	i
sw4168B-ms98-a-0006	B.12	24.081500	24.175625		like	like
sw4168B-ms98-a-0006	B.12	24.175625	24.515625		country	country
sw4168B-ms98-a-0006	B.12	24.515625	24.625625		and	and
sw4168B-ms98-a-0006	B.12	24.625625	25.067750		western	western
sw4168B-ms98-a-0006	B.14	25.067750	25.546875		[silence]	[silence]
sw4168B-ms98-a-0007	B.14	25.546875	26.142000		[silence]	[silence]
sw4168B-ms98-a-0007	B.14	26.142000	26.591125		Uh	uh
sw4168B-ms98-a-0007	B.14	26.591125	26.872125		I	i
sw4168B-ms98-a-0007	B.14	26.872125	27.003875		I	i
sw4168B-ms98-a-0007	B.14	27.003875	27.186875		like	like
sw4168B-ms98-a-0007	B.14	27.186875	27.326875		all	all
sw4168B-ms98-a-0007	B.14	27.326875	27.756875		kinds	kinds
sw4168B-ms98-a-0007	B.14	27.756875	27.796875		I	i
sw4168B-ms98-a-0007	B.14	27.796875	28.041000		like	like
sw4168B-ms98-a-0007	B.14	28.041000	28.196875		I	i
sw4168B-ms98-a-0007	B.14	28.196875	28.466875		like	like
sw4168B-ms98-a-0007	B.14	28.466875	28.756875		different	different
sw4168B-ms98-a-0007	B.14	28.756875	29.036875		things	things
sw4168B-ms98-a-0007	B.14	29.036875	29.266875		about	about
sw4168B-ms98-a-0007	B.14	29.266875	29.426875		each	each
sw4168B-ms98-a-0007	B.14	29.426875	29.596875		one	one
sw4168B-ms98-a-0007	B.14	29.596875	29.696875		of	of
sw4168B-ms98-a-0007	B.14	29.696875	29.803500		them	them_1
sw4168B-ms98-a-0007	B.16	29.803500	30.237500		[silence]	[silence]
sw4168B-ms98-a-0008	B.16	30.237500	33.884375		[silence]	[silence]
sw4168B-ms98-a-0009	B.16	33.884375	34.386125		[silence]	[silence]
sw4168B-ms98-a-0009	B.16	34.386125	34.444375		Oh	oh
sw4168B-ms98-a-0009	B.16	34.444375	34.574375		you	you
sw4168B-ms98-a-0009	B.16	34.574375	34.774375		don't	don't
sw4168B-ms98-a-0009	B.16	34.774375	34.944375		like	like
sw4168B-ms98-a-0009	B.16	34.944375	35.412375		country	country
sw4168B-ms98-a-0009	B.18	35.412375	35.889750		[silence]	[silence]
sw4168B-ms98-a-0010	B.18	35.889750	39.352500		[silence]	[silence]
sw4168B-ms98-a-0011	B.18	39.352500	39.870625		[silence]	[silence]
sw4168B-ms98-a-0011	B.18	39.870625	40.162125		The	the
sw4168B-ms98-a-0011	B.18	40.162125	40.727125		[silence]	[silence]
sw4168B-ms98-a-0011	B.18	40.727125	40.792500		the	the
sw4168B-ms98-a-0011	B.18	40.792500	40.912500		kind	kind
sw4168B-ms98-a-0011	B.18	40.912500	41.022500		of	of
sw4168B-ms98-a-0011	B.18	41.022500	41.312500		country	country
sw4168B-ms98-a-0011	B.18	41.312500	41.352500		I	i
sw4168B-ms98-a-0011	B.18	41.352500	41.562500		like	like
sw4168B-ms98-a-0011	B.18	41.562500	41.732500		is	is
sw4168B-ms98-a-0011	B.18	41.732500	41.922500		kind	kind
sw4168B-ms98-a-0011	B.18	41.922500	42.032500		of	of
sw4168B-ms98-a-0011	B.18	42.032500	42.092500		the	the
sw4168B-ms98-a-0011	B.18	42.092500	42.352500		older	older
sw4168B-ms98-a-0011	B.18	42.352500	42.662500		country	country
sw4168B-ms98-a-0011	B.18	42.662500	43.175250		music	music
sw4168B-ms98-a-0011	B.20	43.175250	43.423875		[silence]	[silence]
sw4168B-ms98-a-0011	B.20	43.423875	43.622500		Not	not
sw4168B-ms98-a-0011	B.20	43.622500	43.949250		the	the
sw4168B-ms98-a-0011	B.20	43.949250	44.130000		[silence]	[silence]
sw4168B-ms98-a-0011	B.20	44.130000	44.262500		not	not
sw4168B-ms98-a-0011	B.20	44.262500	44.322500		the	the
sw4168B-ms98-a-0011	B.20	44.322500	44.542500		kind	kind
sw4168B-ms98-a-0011	B.20	44.542500	44.692500		like	like
sw4168B-ms98-a-0011	B.20	44.692500	44.982500		Kenny	Kenny
sw4168B-ms98-a-0011	B.20	44.982500	45.402500	<SUB>	Rodgers	Rogers
sw4168B-ms98-a-0011	B.20	45.402500	45.542500		and	and
sw4168B-ms98-a-0011	B.20	45.542500	45.772500		stuff	stuff
sw4168B-ms98-a-0011	B.20	45.772500	45.922500		like	like
sw4168B-ms98-a-0011	B.20	45.922500	46.072500		that	that
sw4168B-ms98-a-0011	B.22	46.072500	46.382500		That's	that's
sw4168B-ms98-a-0011	B.22	46.382500	46.753875		uh	uh
sw4168B-ms98-a-0011	B.22	46.753875	47.209125		[silence]	[silence]
sw4168B-ms98-a-0012	B.22	47.209125	47.709500		[silence]	[silence]
sw4168B-ms98-a-0012	B.22	47.709500	47.829125		that's	that's
sw4168B-ms98-a-0012	B.22	47.829125	47.879125		a	a
sw4168B-ms98-a-0012	B.22	47.879125	48.039125		little	little
sw4168B-ms98-a-0012	B.22	48.039125	48.269125		bit	bit
sw4168B-ms98-a-0012	B.22	48.269125	48.729125		to	to
sw4168B-ms98-a-0012	B.22	48.729125	49.089125		uh	uh
sw4168B-ms98-a-0012	B.22	49.089125	49.450750		[silence]	[silence]
sw4168B-ms98-a-0012	B.22	49.450750	49.599125	<DEL>	---	it
sw4168B-ms98-a-0012	B.22	49.599125	49.739125		it's	it's
sw4168B-ms98-a-0012	B.22	49.739125	49.829125	<SUB>	such	like
sw4168B-ms98-a-0012	B.22	49.829125	49.919125		they're	they're
sw4168B-ms98-a-0012	B.22	49.919125	50.069125		trying	trying
sw4168B-ms98-a-0012	B.22	50.069125	50.129125		to	to
sw4168B-ms98-a-0012	B.22	50.129125	50.249125		make	make
sw4168B-ms98-a-0012	B.22	50.249125	50.359125		it	it
sw4168B-ms98-a-0012	B.22	50.359125	50.439125		too	too
sw4168B-ms98-a-0012	B.22	50.439125	50.559125		much	much
sw4168B-ms98-a-0012	B.22	50.559125	50.629125		of	of
sw4168B-ms98-a-0012	B.22	50.629125	50.699125		a	a
sw4168B-ms98-a-0012	B.22	50.699125	51.279125		crossover	crossover
sw4168B-ms98-a-0012	B.22	51.279125	51.489125		thing	thing
sw4168B-ms98-a-0012	B.22	51.489125	51.549125		you	you
sw4168B-ms98-a-0012	B.22	51.549125	51.629125		know	know
sw4168B-ms98-a-0012	B.22	51.629125	51.739125		what	what
sw4168B-ms98-a-0012	B.22	51.739125	51.805000		I	i
sw4168B-ms98-a-0012	B.22	51.805000	52.079875		mean	mean
sw4168B-ms98-a-0012	B.24	52.079875	52.572125		[silence]	[silence]
sw4168B-ms98-a-0013	B.24	52.572125	53.639375		[silence]	[silence]
sw4168B-ms98-a-0014	B.24	53.639375	54.121125		[silence]	[silence]
sw4168B-ms98-a-0014	B.24	54.121125	54.189375		Oh	oh
sw4168B-ms98-a-0014	B.24	54.189375	54.379375		like	like
sw4168B-ms98-a-0014	B.24	54.379375	54.599375		like	like
sw4168B-ms98-a-0014	B.24	54.599375	54.809375		Hank	Hank
sw4168B-ms98-a-0014	B.24	54.809375	55.378500		Williams	Williams
sw4168B-ms98-a-0014	B.24	55.378500	55.585625		[silence]	[silence]
sw4168B-ms98-a-0014	B.24	55.585625	55.719375		Like	like
sw4168B-ms98-a-0014	B.24	55.719375	55.809375		the	the
sw4168B-ms98-a-0014	B.24	55.809375	55.999375		old	old
sw4168B-ms98-a-0014	B.24	55.999375	56.189375		Hank	Hank
sw4168B-ms98-a-0014	B.24	56.189375	56.549375		Williams	Williams
sw4168B-ms98-a-0014	B.24	56.549375	56.629375	<SUB>	Even	e[ven]-
sw4168B-ms98-a-0014	B.24	56.629375	56.909375		even	even
sw4168B-ms98-a-0014	B.24	56.909375	57.089375		Hank	Hank
sw4168B-ms98-a-0014	B.26	57.089375	57.359375		Williams	Williams
sw4168B-ms98-a-0014	B.26	57.359375	57.659375		Junior	Junior
sw4168B-ms98-a-0014	B.26	57.659375	57.749375		is	is
sw4168B-ms98-a-0014	B.26	57.749375	57.929375		real	real
sw4168B-ms98-a-0014	B.26	57.929375	58.149375		good	good
sw4168B-ms98-a-0014	B.26	58.149375	58.725125		stuff	stuff
sw4168B-ms98-a-0014	B.26	58.725125	58.789125		The	the
sw4168B-ms98-a-0014	B.26	58.789125	59.059375		kind	kind
sw4168B-ms98-a-0014	B.26	59.059375	59.249375		that	that
sw4168B-ms98-a-0014	B.28	59.249375	59.613250		uh	uh
sw4168B-ms98-a-0014	B.28	59.613250	59.995125		[silence]	[silence]
sw4168B-ms98-a-0015	B.28	59.995125	60.415875		[silence]	[silence]
sw4168B-ms98-a-0015	B.28	60.415875	60.525125		this	this
sw4168B-ms98-a-0015	B.28	60.525125	60.655125		stuff	stuff
sw4168B-ms98-a-0015	B.30	60.655125	60.805125		makes	makes
sw4168B-ms98-a-0015	B.30	60.805125	60.865125		you	you
sw4168B-ms98-a-0015	B.30	60.865125	61.195125		cry	cry
sw4168B-ms98-a-0015	B.30	61.195125	61.335125		it	it
sw4168B-ms98-a-0015	B.30	61.335125	61.565125		sounds	sounds
sw4168B-ms98-a-0015	B.30	61.565125	61.655125		so	so
sw4168B-ms98-a-0015	B.30	61.655125	62.042125		sad	sad
sw4168B-ms98-a-0015	B.30	62.042125	63.365125		[laughter]	[laughter]
sw4168B-ms98-a-0015	B.30	63.365125	63.415125		I	i
sw4168B-ms98-a-0015	B.30	63.415125	63.545125		mean	mean
sw4168B-ms98-a-0015	B.30	63.545125	63.647500		you	you
sw4168B-ms98-a-0015	B.30	63.647500	63.647500	<INS>	d-	---
sw4168B-ms98-a-0015	B.32	63.647500	63.836875		[vocalized-noise]	[vocalized-noise]
sw4168B-ms98-a-0015	B.32	63.836875	64.222750		[silence]	[silence]
sw4168B-ms98-a-0016	B.32	64.222750	64.655250		[silence]	[silence]
sw4168B-ms98-a-0016	B.32	64.655250	65.002750		Yeah	yeah
sw4168B-ms98-a-0016	B.32	65.002750	65.202750	<SUB>	Som-	so[metimes]-
sw4168B-ms98-a-0016	B.32	65.202750	65.712750		sometimes	sometimes
sw4168B-ms98-a-0016	B.32	65.712750	65.772750		I	i
sw4168B-ms98-a-0016	B.32	65.772750	66.002750		do	do
sw4168B-ms98-a-0016	B.32	66.002750	66.032750		I	i
sw4168B-ms98-a-0016	B.32	66.032750	66.162750		mean	mean
sw4168B-ms98-a-0016	B.32	66.162750	66.322750		not	not
sw4168B-ms98-a-0016	B.32	66.322750	66.502750		all	all
sw4168B-ms98-a-0016	B.32	66.502750	66.617750		the	the
sw4168B-ms98-a-0016	B.32	66.617750	66.896750		time	time
sw4168B-ms98-a-0016	B.36	66.896750	67.384125		[silence]	[silence]
sw4168B-ms98-a-0017	B.36	67.384125	67.888500		[silence]	[silence]
sw4168B-ms98-a-0017	B.36	67.888500	68.627500		[laughter]	[laughter]
sw4168B-ms98-a-0017	B.36	68.627500	69.090125		[silence]	[silence]
sw4168B-ms98-a-0018	B.36	69.090125	73.367250		[silence]	[silence]
sw4168B-ms98-a-0019	B.36	73.367250	73.816625		[silence]	[silence]
sw4168B-ms98-a-0019	B.36	73.816625	74.287250		Yes	yes
sw4168B-ms98-a-0019	B.36	74.287250	74.417250		And	and
sw4168B-ms98-a-0019	B.36	74.417250	74.622875		I	i
sw4168B-ms98-a-0019	B.38	74.622875	75.080750		[silence]	[silence]
sw4168B-ms98-a-0020	B.38	75.080750	76.096500		[silence]	[silence]
sw4168B-ms98-a-0021	B.38	76.096500	76.514000		[silence]	[silence]
sw4168B-ms98-a-0021	B.38	76.514000	76.756500	<SUB>	I	i-
sw4168B-ms98-a-0021	B.38	76.756500	77.016500		I	i
sw4168B-ms98-a-0021	B.38	77.016500	77.186500		do	do
sw4168B-ms98-a-0021	B.38	77.186500	77.386500		too	too
sw4168B-ms98-a-0021	B.38	77.386500	77.466500		I	i
sw4168B-ms98-a-0021	B.38	77.466500	77.686500		also	also
sw4168B-ms98-a-0021	B.38	77.686500	77.876500		like	like
sw4168B-ms98-a-0021	B.38	77.876500	78.495875		jazz	jazz
sw4168B-ms98-a-0021	B.40	78.495875	78.815750		[silence]	[silence]
sw4168B-ms98-a-0022	B.40	78.815750	86.730625		[silence]	[silence]
sw4168B-ms98-a-0023	B.40	86.730625	87.288125		[silence]	[silence]
sw4168B-ms98-a-0023	B.40	87.288125	87.630625		Yeah	yeah
sw4168B-ms98-a-0023	B.40	87.630625	87.942500		You're	you're
sw4168B-ms98-a-0023	B.40	87.942500	88.100625		you're	you're
sw4168B-ms98-a-0023	B.40	88.100625	88.280625		about	about
sw4168B-ms98-a-0023	B.40	88.280625	88.440625		like	like
sw4168B-ms98-a-0023	B.40	88.440625	88.570625		I	i
sw4168B-ms98-a-0023	B.40	88.570625	88.680625		am	am
sw4168B-ms98-a-0023	B.40	88.680625	88.890625		then	then
sw4168B-ms98-a-0023	B.40	88.890625	89.241625	<DEL>	---	uh
sw4168B-ms98-a-0023	B.40	89.241625	89.505250		[silence]	[silence]
sw4168B-ms98-a-0023	B.40	89.505250	89.654125	<SUB>	I	i-
sw4168B-ms98-a-0023	B.40	89.654125	89.823625		[silence]	[silence]
sw4168B-ms98-a-0023	B.40	89.823625	89.922875		I	i
sw4168B-ms98-a-0023	B.40	89.922875	90.220625		can't	can't
sw4168B-ms98-a-0023	B.42	90.220625	90.410625		watch	watch
sw4168B-ms98-a-0023	B.42	90.410625	90.890625	<CONT>	M	MTV
sw4168B-ms98-a-0023	B.42	90.890625	90.890625	<CONT>	T	+++
sw4168B-ms98-a-0023	B.42	90.890625	90.890625	<CONT>	V	+++
sw4168B-ms98-a-0023	B.42	90.890625	91.180625		anymore	anymore
sw4168B-ms98-a-0023	B.42	91.180625	91.220625		I	i
sw4168B-ms98-a-0023	B.42	91.220625	91.350625		used	used
sw4168B-ms98-a-0023	B.42	91.350625	91.430625		to	to
sw4168B-ms98-a-0023	B.42	91.430625	91.630625		love	love
sw4168B-ms98-a-0023	B.42	91.630625	92.269375	<CONT>	M	MTV
sw4168B-ms98-a-0023	B.42	92.269375	92.269375	<CONT>	T	+++
sw4168B-ms98-a-0023	B.42	92.269375	92.269375	<CONT>	V	+++
sw4168B-ms98-a-0023	B.44	92.269375	92.665750		[silence]	[silence]
sw4168B-ms98-a-0024	B.44	92.665750	93.102750		[silence]	[silence]
sw4168B-ms98-a-0024	B.44	93.102750	93.215750		And	and
sw4168B-ms98-a-0024	B.44	93.215750	93.245750		I	i
sw4168B-ms98-a-0024	B.44	93.245750	93.490625		can	can
sw4168B-ms98-a-0024	B.44	93.490625	93.565750		I	i
sw4168B-ms98-a-0024	B.44	93.565750	93.735750		can	can
sw4168B-ms98-a-0024	B.44	93.735750	93.985750		barely	barely
sw4168B-ms98-a-0024	B.44	93.985750	94.255750		watch	watch
sw4168B-ms98-a-0024	B.44	94.255750	94.595750		anymore	anymore
sw4168B-ms98-a-0024	B.44	94.595750	94.945750		because	because
sw4168B-ms98-a-0024	B.44	94.945750	95.105750		uh	uh
sw4168B-ms98-a-0024	B.44	95.105750	95.225750		they	they
sw4168B-ms98-a-0024	B.44	95.225750	95.385750		have	have
sw4168B-ms98-a-0024	B.44	95.385750	95.585750		this	this
sw4168B-ms98-a-0024	B.44	95.585750	95.765750		heavy	heavy
sw4168B-ms98-a-0024	B.44	95.765750	96.045750		metal	metal
sw4168B-ms98-a-0024	B.44	96.045750	96.295750		stuff	stuff
sw4168B-ms98-a-0024	B.44	96.295750	96.435750		on	on
sw4168B-ms98-a-0024	B.44	96.435750	96.545750		there	there
sw4168B-ms98-a-0024	B.44	96.545750	96.645750		and	and
sw4168B-ms98-a-0024	B.44	96.645750	96.790000		and	and
sw4168B-ms98-a-0024	B.44	96.790000	96.915750		I	i
sw4168B-ms98-a-0024	B.44	96.915750	97.185750		can't	can't
sw4168B-ms98-a-0024	B.44	97.185750	97.355750		even	even
sw4168B-ms98-a-0024	B.44	97.355750	97.642000		[vocalized-noise]	[vocalized-noise]
sw4168B-ms98-a-0024	B.44	97.642000	97.735750		you	you
sw4168B-ms98-a-0024	B.44	97.735750	97.885750		know	know
sw4168B-ms98-a-0024	B.44	97.885750	97.935750		I	i
sw4168B-ms98-a-0024	B.44	97.935750	98.195750		can't	can't
sw4168B-ms98-a-0024	B.44	98.195750	98.395750		like	like
sw4168B-ms98-a-0024	B.44	98.395750	98.747500		that	that
sw4168B-ms98-a-0024	B.46	98.747500	99.342625		[silence]	[silence]
sw4168B-ms98-a-0024	B.46	99.342625	99.485750		And	and
sw4168B-ms98-a-0024	B.46	99.485750	99.785750		and	and
sw4168B-ms98-a-0024	B.46	99.785750	99.845750		I	i
sw4168B-ms98-a-0024	B.46	99.845750	100.195750		liked	liked
sw4168B-ms98-a-0024	B.46	100.195750	100.365750		uh	uh
sw4168B-ms98-a-0024	B.46	100.365750	101.095750		Aerosmith	Aerosmith
sw4168B-ms98-a-0024	B.46	101.095750	101.387000		and	and
sw4168B-ms98-a-0024	B.48	101.387000	101.541500		[silence]	[silence]
sw4168B-ms98-a-0024	B.48	101.541500	101.705750		Led	Led
sw4168B-ms98-a-0024	B.48	101.705750	102.315750	<SUB>	Zepplin	Zeppelin
sw4168B-ms98-a-0024	B.48	102.315750	102.645750		and	and
sw4168B-ms98-a-0024	B.48	102.645750	103.007375		uh	uh
sw4168B-ms98-a-0024	B.50	103.007375	103.359875		[silence]	[silence]
sw4168B-ms98-a-0025	B.50	103.359875	103.794250		[silence]	[silence]
sw4168B-ms98-a-0025	B.50	103.794250	103.919875		you	you
sw4168B-ms98-a-0025	B.50	103.919875	104.179875		know	know
sw4168B-ms98-a-0025	B.50	104.179875	104.419875		and	and
sw4168B-ms98-a-0025	B.50	104.419875	104.749375		uh	uh
sw4168B-ms98-a-0025	B.50	104.749375	105.019875		jeez	jeez
sw4168B-ms98-a-0025	B.50	105.019875	105.159875		who	who
sw4168B-ms98-a-0025	B.50	105.159875	105.329875		else	else
sw4168B-ms98-a-0025	B.50	105.329875	105.439875		is	is
sw4168B-ms98-a-0025	B.50	105.439875	105.649875	<SUB>	there	that
sw4168B-ms98-a-0025	B.50	105.649875	105.933000	<DEL>	---	uh
sw4168B-ms98-a-0025	B.50	105.933000	106.199875		Van	Van
sw4168B-ms98-a-0025	B.50	106.199875	106.603125		Halen	Halen
sw4168B-ms98-a-0025	B.52	106.603125	107.134250		[silence]	[silence]
sw4168B-ms98-a-0025	B.52	107.134250	107.239875		Now	now
sw4168B-ms98-a-0025	B.52	107.239875	107.316250		I	i
sw4168B-ms98-a-0025	B.52	107.316250	107.568625		like	like
sw4168B-ms98-a-0025	B.52	107.568625	107.619875		I	i
sw4168B-ms98-a-0025	B.52	107.619875	107.819875		like	like
sw4168B-ms98-a-0025	B.52	107.819875	108.029875		groups	groups
sw4168B-ms98-a-0025	B.52	108.029875	108.209875		like	like
sw4168B-ms98-a-0025	B.52	108.209875	108.469875		that	that
sw4168B-ms98-a-0025	B.52	108.469875	108.569875		But	but
sw4168B-ms98-a-0025	B.52	108.569875	108.669875		when	when
sw4168B-ms98-a-0025	B.52	108.669875	108.779875		you	you
sw4168B-ms98-a-0025	B.52	108.779875	108.909250		get	get
sw4168B-ms98-a-0025	B.52	108.909250	109.046000		[silence]	[silence]
sw4168B-ms98-a-0025	B.52	109.046000	109.393500		uh	uh
sw4168B-ms98-a-0025	B.52	109.393500	109.639250		[silence]	[silence]
sw4168B-ms98-a-0026	B.52	109.639250	110.054500		[silence]	[silence]
sw4168B-ms98-a-0026	B.52	110.054500	110.139250	<SUB>	I	i-
sw4168B-ms98-a-0026	B.52	110.139250	110.409250		I	i
sw4168B-ms98-a-0026	B.52	110.409250	110.549250		even	even
sw4168B-ms98-a-0026	B.52	110.549250	110.709250		like	like
sw4168B-ms98-a-0026	B.52	110.709250	110.899250		Guns	Guns
sw4168B-ms98-a-0026	B.52	110.899250	111.009250		and	and
sw4168B-ms98-a-0026	B.52	111.009250	111.359250		Roses	Roses
sw4168B-ms98-a-0026	B.52	111.359250	111.549250		some	some
sw4168B-ms98-a-0026	B.52	111.549250	111.619250		of	of
sw4168B-ms98-a-0026	B.52	111.619250	111.739250		their	their
sw4168B-ms98-a-0026	B.52	111.739250	112.192500		stuff	stuff
sw4168B-ms98-a-0026	B.54	112.192500	112.577250		[silence]	[silence]
sw4168B-ms98-a-0027	B.54	112.577250	113.005625		[silence]	[silence]
sw4168B-ms98-a-0027	B.54	113.005625	113.307250		But	but
sw4168B-ms98-a-0027	B.54	113.307250	113.692500		uh	uh
sw4168B-ms98-a-0027	B.54	113.692500	113.880875		[silence]	[silence]
sw4168B-ms98-a-0027	B.54	113.880875	113.967250	<DEL>	---	yeah
sw4168B-ms98-a-0027	B.54	113.967250	114.177250		some	some
sw4168B-ms98-a-0027	B.54	114.177250	114.237250		of	of
sw4168B-ms98-a-0027	B.54	114.237250	114.377250		these	these
sw4168B-ms98-a-0027	B.54	114.377250	114.607250		groups	groups
sw4168B-ms98-a-0027	B.54	114.607250	114.877250		now	now
sw4168B-ms98-a-0027	B.54	114.877250	115.017250		like	like
sw4168B-ms98-a-0027	B.54	115.017250	115.665500		Slaughter	Slaughter
sw4168B-ms98-a-0027	B.56	115.665500	116.631125		[laughter]	[laughter]
sw4168B-ms98-a-0027	B.56	116.631125	117.358750		[silence]	[silence]
sw4168B-ms98-a-0028	B.56	117.358750	118.128875		[silence]	[silence]
sw4168B-ms98-a-0028	B.56	118.128875	118.348750		Some	some
sw4168B-ms98-a-0028	B.56	118.348750	118.478750		of	of
sw4168B-ms98-a-0028	B.56	118.478750	118.538750		them	them_1
sw4168B-ms98-a-0028	B.56	118.538750	118.618750		are	are
sw4168B-ms98-a-0028	B.56	118.618750	118.778750		just	just
sw4168B-ms98-a-0028	B.56	118.778750	118.998750		really	really
sw4168B-ms98-a-0028	B.56	118.998750	119.168750		rough	rough
sw4168B-ms98-a-0028	B.56	119.168750	119.356500		So	so
sw4168B-ms98-a-0028	B.56	119.356500	119.597500		[silence]	[silence]
sw4168B-ms98-a-0028	B.56	119.597500	119.708750		so	so
sw4168B-ms98-a-0028	B.56	119.708750	119.788750		you	you
sw4168B-ms98-a-0028	B.56	119.788750	119.948750		went	went
sw4168B-ms98-a-0028	B.56	119.948750	120.028750		to	to
sw4168B-ms98-a-0028	B.56	120.028750	120.378750		school	school
sw4168B-ms98-a-0028	B.56	120.378750	120.608750		then	then
sw4168B-ms98-a-0028	B.56	120.608750	120.958750		in	in
sw4168B-ms98-a-0028	B.56	120.958750	121.278875		[silence]	[silence]
sw4168B-ms98-a-0028	B.56	121.278875	121.480875		I'm	i'm
sw4168B-ms98-a-0028	B.56	121.480875	122.078750		surprised	surprised
sw4168B-ms98-a-0028	B.56	122.078750	122.168750		you	you
sw4168B-ms98-a-0028	B.56	122.168750	122.358750		didn't	didn't
sw4168B-ms98-a-0028	B.56	122.358750	122.448750		go	go
sw4168B-ms98-a-0028	B.56	122.448750	122.686750		to	to
sw4168B-ms98-a-0028	B.56	122.686750	122.777250		to	to
sw4168B-ms98-a-0028	B.56	122.777250	122.888750		any	any
sw4168B-ms98-a-0028	B.56	122.888750	123.113125		pa-	pa[rties]-
sw4168B-ms98-a-0028	B.56	123.113125	123.214875		[silence]	[silence]
sw4168B-ms98-a-0028	B.56	123.214875	123.458750		parties	parties
sw4168B-ms98-a-0028	B.56	123.458750	123.538750		or	or
sw4168B-ms98-a-0028	B.56	123.538750	123.778750		anything	anything
sw4168B-ms98-a-0028	B.56	123.778750	123.868750		where	where
sw4168B-ms98-a-0028	B.56	123.868750	123.928750		they	they
sw4168B-ms98-a-0028	B.56	123.928750	123.988750		were	were
sw4168B-ms98-a-0028	B.56	123.988750	124.178750		playing	playing
sw4168B-ms98-a-0028	B.56	124.178750	124.208750		a	a
sw4168B-ms98-a-0028	B.56	124.208750	124.388750		lot	lot
sw4168B-ms98-a-0028	B.56	124.388750	124.498750		of	of
sw4168B-ms98-a-0028	B.56	124.498750	124.788750		music	music
sw4168B-ms98-a-0028	B.56	124.788750	124.868750		or	or
sw4168B-ms98-a-0028	B.56	124.868750	125.238750		stuff	stuff
sw4168B-ms98-a-0028	B.56	125.238750	125.440625		or	or
sw4168B-ms98-a-0028	B.58	125.440625	125.866375		[silence]	[silence]
sw4168B-ms98-a-0029	B.58	125.866375	134.032500		[silence]	[silence]
sw4168B-ms98-a-0030	B.58	134.032500	134.522875		[silence]	[silence]
sw4168B-ms98-a-0030	B.58	134.522875	134.727250	<DEL>	---	oh
sw4168B-ms98-a-0030	B.58	134.727250	135.237625		Okay	okay
sw4168B-ms98-a-0030	B.60	135.237625	135.643375		[silence]	[silence]
sw4168B-ms98-a-0031	B.60	135.643375	142.930750		[silence]	[silence]
sw4168B-ms98-a-0032	B.60	142.930750	143.335875		[silence]	[silence]
sw4168B-ms98-a-0032	B.60	143.335875	143.550750		Oh	oh
sw4168B-ms98-a-0032	B.60	143.550750	143.770750		I	i
sw4168B-ms98-a-0032	B.60	143.770750	143.850750		see	see
sw4168B-ms98-a-0032	B.60	143.850750	144.020750		Are	are
sw4168B-ms98-a-0032	B.60	144.020750	144.130750		you	you
sw4168B-ms98-a-0032	B.60	144.130750	144.430750		married	married
sw4168B-ms98-a-0032	B.60	144.430750	144.530750		at	at
sw4168B-ms98-a-0032	B.60	144.530750	144.828750		all	all
sw4168B-ms98-a-0032	B.62	144.828750	145.157750		[silence]	[silence]
sw4168B-ms98-a-0033	B.62	145.157750	145.601625		[silence]	[silence]
sw4168B-ms98-a-0033	B.62	145.601625	145.857750	<DEL>	---	oh
sw4168B-ms98-a-0033	B.62	145.857750	146.579375		Okay	okay
sw4168B-ms98-a-0033	B.64	146.579375	147.083875		[silence]	[silence]
sw4168B-ms98-a-0034	B.64	147.083875	148.873000		[silence]	[silence]
sw4168B-ms98-a-0035	B.64	148.873000	149.375875		[silence]	[silence]
sw4168B-ms98-a-0035	B.64	149.375875	149.640625		Well	well
sw4168B-ms98-a-0035	B.64	149.640625	149.803000		how	how
sw4168B-ms98-a-0035	B.64	149.803000	149.943000		old	old
sw4168B-ms98-a-0035	B.64	149.943000	150.129250		are	are
sw4168B-ms98-a-0035	B.64	150.129250	150.315625		you	you
sw4168B-ms98-a-0035	B.66	150.315625	150.871625		[silence]	[silence]
sw4168B-ms98-a-0036	B.66	150.871625	151.550375		[silence]	[silence]
sw4168B-ms98-a-0036	B.66	151.550375	151.811625		Okay	okay
sw4168B-ms98-a-0036	B.66	151.811625	151.941625		So	so
sw4168B-ms98-a-0036	B.66	151.941625	152.131625		you	you
sw4168B-ms98-a-0036	B.66	152.131625	152.271625		you	you
sw4168B-ms98-a-0036	B.66	152.271625	152.421625		were	were
sw4168B-ms98-a-0036	B.66	152.421625	152.521625		out	out
sw4168B-ms98-a-0036	B.66	152.521625	152.615500		of	of
sw4168B-ms98-a-0036	B.66	152.615500	152.739875		s-	s[chool]-
sw4168B-ms98-a-0036	B.66	152.739875	152.911625		you	you
sw4168B-ms98-a-0036	B.66	152.911625	153.041625		went	went
sw4168B-ms98-a-0036	B.66	153.041625	153.111625		to	to
sw4168B-ms98-a-0036	B.66	153.111625	153.311625		school	school
sw4168B-ms98-a-0036	B.66	153.311625	153.391625		for	for
sw4168B-ms98-a-0036	B.66	153.391625	153.591625		awhile	awhile
sw4168B-ms98-a-0036	B.66	153.591625	153.691625	<SUB>	and	then
sw4168B-ms98-a-0036	B.66	153.691625	153.931625		quit	quit
sw4168B-ms98-a-0036	B.66	153.931625	154.031625		Then	then
sw4168B-ms98-a-0036	B.66	154.031625	154.171625		went	went
sw4168B-ms98-a-0036	B.66	154.171625	154.546125		back	back
sw4168B-ms98-a-0036	B.68	154.546125	154.925125		[silence]	[silence]
sw4168B-ms98-a-0037	B.68	154.925125	162.923500		[silence]	[silence]
sw4168B-ms98-a-0038	B.68	162.923500	163.391500		[silence]	[silence]
sw4168B-ms98-a-0038	B.68	163.391500	163.690500		Oh	oh
sw4168B-ms98-a-0038	B.68	163.690500	164.188625		okay	okay
sw4168B-ms98-a-0038	B.70	164.188625	164.956750		[silence]	[silence]
sw4168B-ms98-a-0038	B.70	164.956750	165.035625		[vocalized-noise]	[vocalized-noise]
sw4168B-ms98-a-0038	B.70	165.035625	165.478625		[silence]	[silence]
sw4168B-ms98-a-0039	B.70	165.478625	165.681625		[silence]	[silence]
sw4168B-ms98-a-0039	B.70	165.681625	165.888250		[noise]	[noise]
sw4168B-ms98-a-0039	B.70	165.888250	166.032750	<SUB>	Oh	well
sw4168B-ms98-a-0039	B.70	166.032750	166.268625		I'm	i'm
sw4168B-ms98-a-0039	B.70	166.268625	166.516750		uh	uh
sw4168B-ms98-a-0039	B.70	166.516750	166.848625	<CONT>	twenty-eight	twenty
sw4168B-ms98-a-0039	B.70	166.848625	167.113625	<CONT>	+++	eight
sw4168B-ms98-a-0039	B.70	167.113625	168.013750		[laughter]	[laughter]
sw4168B-ms98-a-0039	B.70	168.013750	168.096750		I	i
sw4168B-ms98-a-0039	B.70	168.096750	168.153250		was	was
sw4168B-ms98-a-0039	B.70	168.153250	168.301375		born	born
sw4168B-ms98-a-0039	B.70	168.301375	168.357875		in	in
sw4168B-ms98-a-0039	B.70	168.357875	168.638625	<CONT>	sixty-three	sixty
sw4168B-ms98-a-0039	B.70	168.638625	169.025125	<CONT>	+++	three
sw4168B-ms98-a-0039	B.70	169.025125	169.526125		[laughter]	[laughter]
sw4168B-ms98-a-0039	B.70	169.526125	169.628625	<DEL>	---	so
sw4168B-ms98-a-0039	B.70	169.628625	169.728625		I	i
sw4168B-ms98-a-0039	B.70	169.728625	169.878625		guess	guess
sw4168B-ms98-a-0039	B.70	169.878625	169.968625		we're	we're
sw4168B-ms98-a-0039	B.72	169.968625	170.028625		the	the
sw4168B-ms98-a-0039	B.72	170.028625	170.318625		same	same
sw4168B-ms98-a-0039	B.72	170.318625	170.538625		age	age
sw4168B-ms98-a-0039	B.72	170.538625	170.678625		then	then
sw4168B-ms98-a-0039	B.74	170.678625	170.849250	<DEL>	---	huh
sw4168B-ms98-a-0039	B.74	170.849250	171.419875		[silence]	[silence]
sw4168B-ms98-a-0040	B.74	171.419875	179.103125		[silence]	[silence]
sw4168B-ms98-a-0041	B.74	179.103125	179.612250		[silence]	[silence]
sw4168B-ms98-a-0041	B.74	179.612250	179.783125		Oh	oh
sw4168B-ms98-a-0041	B.74	179.783125	179.984750		rea-	rea[lly]-
sw4168B-ms98-a-0041	B.74	179.984750	180.195750		Were	were
sw4168B-ms98-a-0041	B.74	180.195750	180.358750		they	they
sw4168B-ms98-a-0041	B.74	180.358750	181.032375		religious	religious
sw4168B-ms98-a-0041	B.76	181.032375	181.340875		[silence]	[silence]
sw4168B-ms98-a-0042	B.76	181.340875	181.755500		[silence]	[silence]
sw4168B-ms98-a-0042	B.76	181.755500	182.058000	<SUB>	uh	ah
sw4168B-ms98-a-0042	B.76	182.058000	182.245500		I	i
sw4168B-ms98-a-0042	B.76	182.245500	182.755375		see	see
sw4168B-ms98-a-0042	B.76	182.755375	182.951875		I	i
sw4168B-ms98-a-0042	B.78	182.951875	183.399375		[silence]	[silence]
sw4168B-ms98-a-0043	B.78	183.399375	190.087875		[silence]	[silence]
sw4168B-ms98-a-0044	B.78	190.087875	190.430375		[silence]	[silence]
sw4168B-ms98-a-0044	B.78	190.430375	190.576000	<DEL>	---	see
sw4168B-ms98-a-0044	B.78	190.576000	190.695375	<DEL>	---	my
sw4168B-ms98-a-0044	B.78	190.695375	190.945500		[silence]	[silence]
sw4168B-ms98-a-0044	B.78	190.945500	191.167875		My	my
sw4168B-ms98-a-0044	B.78	191.167875	191.557875		parents	parents
sw4168B-ms98-a-0044	B.78	191.557875	191.617875		were	were
sw4168B-ms98-a-0044	B.78	191.617875	191.867875		very	very
sw4168B-ms98-a-0044	B.78	191.867875	192.207875		musical	musical
sw4168B-ms98-a-0044	B.78	192.207875	192.347875		My	my
sw4168B-ms98-a-0044	B.78	192.347875	192.667875		mother	mother
sw4168B-ms98-a-0044	B.78	192.667875	192.837875		had	had
sw4168B-ms98-a-0044	B.80	192.837875	192.917875		a	a
sw4168B-ms98-a-0044	B.80	192.917875	193.307875		piano	piano
sw4168B-ms98-a-0044	B.82	193.307875	193.437875		in	in
sw4168B-ms98-a-0044	B.82	193.437875	193.789250		the	the
sw4168B-ms98-a-0044	B.82	193.789250	194.220875		[silence]	[silence]
sw4168B-ms98-a-0044	B.82	194.220875	194.311000		in	in
sw4168B-ms98-a-0044	B.82	194.311000	194.379000		the	the
sw4168B-ms98-a-0044	B.82	194.379000	194.900625		house	house
sw4168B-ms98-a-0044	B.82	194.900625	195.134375		[silence]	[silence]
sw4168B-ms98-a-0045	B.82	195.134375	195.416125		[silence]	[silence]
sw4168B-ms98-a-0045	B.82	195.416125	195.504375		My	my
sw4168B-ms98-a-0045	B.82	195.504375	195.864375		father	father
sw4168B-ms98-a-0045	B.82	195.864375	196.274375		likes	likes
sw4168B-ms98-a-0045	B.82	196.274375	196.584375		uh	uh
sw4168B-ms98-a-0045	B.82	196.584375	196.884375		country	country
sw4168B-ms98-a-0045	B.82	196.884375	197.234375		western	western
sw4168B-ms98-a-0045	B.82	197.234375	197.669750		music	music
sw4168B-ms98-a-0045	B.84	197.669750	197.832625		[silence]	[silence]
sw4168B-ms98-a-0046	B.84	197.832625	198.064625		[silence]	[silence]
sw4168B-ms98-a-0046	B.84	198.064625	198.232625		He's	he's
sw4168B-ms98-a-0046	B.84	198.232625	198.615625		from	from
sw4168B-ms98-a-0046	B.84	198.615625	198.832625		uh	uh
sw4168B-ms98-a-0046	B.84	198.832625	199.062625		West	West
sw4168B-ms98-a-0046	B.84	199.062625	199.572625		Virginia	Virginia
sw4168B-ms98-a-0046	B.84	199.572625	199.742625		So	so
sw4168B-ms98-a-0046	B.84	199.742625	199.922625		that's	that's
sw4168B-ms98-a-0046	B.84	199.922625	200.012625		what	what
sw4168B-ms98-a-0046	B.84	200.012625	200.092625		he	he
sw4168B-ms98-a-0046	B.84	200.092625	200.232625		grew	grew
sw4168B-ms98-a-0046	B.84	200.232625	200.312625		up	up
sw4168B-ms98-a-0046	B.84	200.312625	200.632625		listening	listening
sw4168B-ms98-a-0046	B.84	200.632625	200.842000		to	to
sw4168B-ms98-a-0046	B.86	200.842000	201.011500		And	and
sw4168B-ms98-a-0046	B.86	201.011500	201.500375		[silence]	[silence]
sw4168B-ms98-a-0046	B.86	201.500375	201.612625		he's	he's
sw4168B-ms98-a-0046	B.86	201.612625	201.812625		always	always
sw4168B-ms98-a-0046	B.86	201.812625	202.032625		liked	liked
sw4168B-ms98-a-0046	B.86	202.032625	202.152625		it	it
sw4168B-ms98-a-0046	B.86	202.152625	202.462625		and	and
sw4168B-ms98-a-0046	B.86	202.462625	202.657250		and	and
sw4168B-ms98-a-0046	B.86	202.657250	202.742625		you	you
sw4168B-ms98-a-0046	B.86	202.742625	202.812625		know	know
sw4168B-ms98-a-0046	B.86	202.812625	203.158625		he's	he's
sw4168B-ms98-a-0046	B.86	203.158625	203.640750		[silence]	[silence]
sw4168B-ms98-a-0046	B.86	203.640750	203.842625		probably	probably
sw4168B-ms98-a-0046	B.86	203.842625	204.002625		about	about
sw4168B-ms98-a-0046	B.86	204.002625	204.222625	<CONT>	fifty-three	fifty
sw4168B-ms98-a-0046	B.86	204.222625	204.372625	<CONT>	+++	three
sw4168B-ms98-a-0046	B.86	204.372625	204.542625		years	years
sw4168B-ms98-a-0046	B.86	204.542625	204.682625		old	old
sw4168B-ms98-a-0046	B.86	204.682625	204.812625		now	now
sw4168B-ms98-a-0046	B.86	204.812625	204.912625		so	so
sw4168B-ms98-a-0046	B.86	204.912625	205.012625		he	he
sw4168B-ms98-a-0046	B.86	205.012625	205.172625		grew	grew
sw4168B-ms98-a-0046	B.86	205.172625	205.292625		up	up
sw4168B-ms98-a-0046	B.86	205.292625	205.432625		like	like
sw4168B-ms98-a-0046	B.86	205.432625	205.492625		in	in
sw4168B-ms98-a-0046	B.86	205.492625	205.552625		the	the
sw4168B-ms98-a-0046	B.86	205.552625	205.792625		late	late
sw4168B-ms98-a-0046	B.86	205.792625	206.382625		fifties	fifties
sw4168B-ms98-a-0046	B.86	206.382625	206.577750		and	and
sw4168B-ms98-a-0046	B.88	206.577750	206.846250		[silence]	[silence]
sw4168B-ms98-a-0047	B.88	206.846250	207.074125		[silence]	[silence]
sw4168B-ms98-a-0047	B.88	207.074125	207.116250		you	you
sw4168B-ms98-a-0047	B.88	207.116250	207.176250		know	know
sw4168B-ms98-a-0047	B.88	207.176250	207.266250		when	when
sw4168B-ms98-a-0047	B.88	207.266250	207.336250		they	they
sw4168B-ms98-a-0047	B.88	207.336250	207.476250		had	had
sw4168B-ms98-a-0047	B.88	207.476250	207.639625		that	that
sw4168B-ms98-a-0047	B.88	207.639625	208.001250		[silence]	[silence]
sw4168B-ms98-a-0047	B.88	208.001250	208.056250		the	the
sw4168B-ms98-a-0047	B.88	208.056250	208.276250		Elvis	Elvis
sw4168B-ms98-a-0047	B.88	208.276250	208.566250		Presley	Presley
sw4168B-ms98-a-0047	B.88	208.566250	208.826250		music	music
sw4168B-ms98-a-0047	B.88	208.826250	208.926250		and	and
sw4168B-ms98-a-0047	B.88	208.926250	209.056250		stuff	stuff
sw4168B-ms98-a-0047	B.88	209.056250	209.206250		like	like
sw4168B-ms98-a-0047	B.88	209.206250	209.426250		that	that
sw4168B-ms98-a-0047	B.90	209.426250	209.636250		And	and
sw4168B-ms98-a-0047	B.90	209.636250	209.706250	<DEL>	---	the
sw4168B-ms98-a-0047	B.90	209.706250	209.796250	<DEL>	---	and
sw4168B-ms98-a-0047	B.90	209.796250	209.956250		that	that
sw4168B-ms98-a-0047	B.90	209.956250	210.126250		kind	kind
sw4168B-ms98-a-0047	B.90	210.126250	210.196250		of	of
sw4168B-ms98-a-0047	B.90	210.196250	210.376250		rock	rock
sw4168B-ms98-a-0047	B.90	210.376250	210.476250		and	and
sw4168B-ms98-a-0047	B.90	210.476250	210.616250		roll	roll
sw4168B-ms98-a-0047	B.90	210.616250	210.776250		so	so
sw4168B-ms98-a-0047	B.90	210.776250	210.876250		he	he
sw4168B-ms98-a-0047	B.90	210.876250	211.136250		likes	likes
sw4168B-ms98-a-0047	B.90	211.136250	211.386250		that	that
sw4168B-ms98-a-0047	B.90	211.386250	211.552125		And	and
sw4168B-ms98-a-0047	B.90	211.552125	212.022875		[silence]	[silence]
sw4168B-ms98-a-0047	B.90	212.022875	212.096250		my	my
sw4168B-ms98-a-0047	B.90	212.096250	212.346250		mom	mom
sw4168B-ms98-a-0047	B.90	212.346250	212.566250		always	always
sw4168B-ms98-a-0047	B.90	212.566250	212.716250		liked	liked
sw4168B-ms98-a-0047	B.90	212.716250	212.816250		that	that
sw4168B-ms98-a-0047	B.90	212.816250	212.946250		kind	kind
sw4168B-ms98-a-0047	B.90	212.946250	213.036250		of	of
sw4168B-ms98-a-0047	B.90	213.036250	213.246250		stuff	stuff
sw4168B-ms98-a-0047	B.90	213.246250	213.316250		My	my
sw4168B-ms98-a-0047	B.90	213.316250	213.606250		mom	mom
sw4168B-ms98-a-0047	B.90	213.606250	213.896250		likes	likes
sw4168B-ms98-a-0047	B.90	213.896250	214.166250		like	like
sw4168B-ms98-a-0047	B.90	214.166250	214.416250		uh	uh
sw4168B-ms98-a-0047	B.90	214.416250	214.816250		Doris	Doris
sw4168B-ms98-a-0047	B.90	214.816250	215.297750		Day	Day
sw4168B-ms98-a-0047	B.90	215.297750	215.523250		[silence]	[silence]
sw4168B-ms98-a-0048	B.90	215.523250	215.923250		[silence]	[silence]
sw4168B-ms98-a-0048	B.90	215.923250	215.983250		you	you
sw4168B-ms98-a-0048	B.90	215.983250	216.075375		know	know
sw4168B-ms98-a-0048	B.92	216.075375	216.307000		[silence]	[silence]
sw4168B-ms98-a-0048	B.92	216.307000	216.563250		She	she
sw4168B-ms98-a-0048	B.92	216.563250	216.763250		always	always
sw4168B-ms98-a-0048	B.92	216.763250	216.913250		had	had
sw4168B-ms98-a-0048	B.92	216.913250	217.143250		those	those
sw4168B-ms98-a-0048	B.92	217.143250	217.303250		these	these
sw4168B-ms98-a-0048	B.92	217.303250	217.493250		old	old
sw4168B-ms98-a-0048	B.92	217.493250	217.753250		Doris	Doris
sw4168B-ms98-a-0048	B.92	217.753250	217.923250		Day	Day
sw4168B-ms98-a-0048	B.92	217.923250	218.253250		records	records
sw4168B-ms98-a-0048	B.92	218.253250	218.343250		and	and
sw4168B-ms98-a-0048	B.92	218.343250	218.583250		stuff	stuff
sw4168B-ms98-a-0048	B.92	218.583250	218.723250		like	like
sw4168B-ms98-a-0048	B.92	218.723250	218.883250		that	that
sw4168B-ms98-a-0048	B.92	218.883250	219.149500		though	though
sw4168B-ms98-a-0048	B.94	219.149500	219.507375		[silence]	[silence]
sw4168B-ms98-a-0048	B.94	219.507375	219.593250		So	so
sw4168B-ms98-a-0048	B.94	219.593250	219.683250		you	you
sw4168B-ms98-a-0048	B.94	219.683250	219.763250		know	know
sw4168B-ms98-a-0048	B.94	219.763250	219.853250	<DEL>	---	i-
sw4168B-ms98-a-0048	B.94	219.853250	219.973250		I	i
sw4168B-ms98-a-0048	B.94	219.973250	220.193250		grew	grew
sw4168B-ms98-a-0048	B.94	220.193250	220.323250		up	up
sw4168B-ms98-a-0048	B.94	220.323250	220.633250		listening	listening
sw4168B-ms98-a-0048	B.94	220.633250	220.693250		to	to
sw4168B-ms98-a-0048	B.94	220.693250	220.833250		that	that
sw4168B-ms98-a-0048	B.94	220.833250	221.063250		stuff	stuff
sw4168B-ms98-a-0048	B.96	221.063250	221.293250		But	but
sw4168B-ms98-a-0048	B.96	221.293250	221.488375		uh	uh
sw4168B-ms98-a-0048	B.96	221.488375	221.896125		[silence]	[silence]
sw4168B-ms98-a-0049	B.96	221.896125	222.218000		[silence]	[silence]
sw4168B-ms98-a-0049	B.96	222.218000	222.299000		I	i
sw4168B-ms98-a-0049	B.96	222.299000	222.386125		could	could
sw4168B-ms98-a-0049	B.96	222.386125	222.546125		see	see
sw4168B-ms98-a-0049	B.96	222.546125	222.726125		why	why
sw4168B-ms98-a-0049	B.96	222.726125	222.946125		you	you
sw4168B-ms98-a-0049	B.96	222.946125	223.256125		went	went
sw4168B-ms98-a-0049	B.96	223.256125	223.559125		uh	uh
sw4168B-ms98-a-0049	B.96	223.559125	224.210750		[silence]	[silence]
sw4168B-ms98-a-0049	B.96	224.210750	224.306125		you	you
sw4168B-ms98-a-0049	B.96	224.306125	224.386125		know	know
sw4168B-ms98-a-0049	B.96	224.386125	224.466125		I	i
sw4168B-ms98-a-0049	B.96	224.466125	224.628000		could	could
sw4168B-ms98-a-0049	B.96	224.628000	224.716125		see	see
sw4168B-ms98-a-0049	B.96	224.716125	224.826125		why	why
sw4168B-ms98-a-0049	B.96	224.826125	225.036125		you	you
sw4168B-ms98-a-0049	B.96	225.036125	225.116125		were	were
sw4168B-ms98-a-0049	B.96	225.116125	225.326125		kind	kind
sw4168B-ms98-a-0049	B.96	225.326125	225.386125		of	of
sw4168B-ms98-a-0049	B.96	225.386125	225.731125		sheltered	sheltered
sw4168B-ms98-a-0049	B.98	225.731125	225.938375		I	[laughter-i]
sw4168B-ms98-a-0049	B.98	225.938375	226.256125		guess	[laughter-guess]
sw4168B-ms98-a-0049	B.98	226.256125	226.457500		from	from
sw4168B-ms98-a-0049	B.98	226.457500	226.713625		[silence]	[silence]
sw4168B-ms98-a-0049	B.98	226.713625	226.846125		from	from
sw4168B-ms98-a-0049	B.98	226.846125	227.401000		music	music
sw4168B-ms98-a-0049	B.100	227.401000	227.856375		[silence]	[silence]
sw4168B-ms98-a-0050	B.100	227.856375	229.051375		[silence]	[silence]
sw4168B-ms98-a-0051	B.100	229.051375	229.555500		[silence]	[silence]
sw4168B-ms98-a-0051	B.100	229.555500	229.911250		Oh	oh
sw4168B-ms98-a-0051	B.100	229.911250	230.433250		okay	okay
sw4168B-ms98-a-0051	B.102	230.433250	230.945750		[silence]	[silence]
sw4168B-ms98-a-0052	B.102	230.945750	235.546625		[silence]	[silence]
sw4168B-ms98-a-0053	B.102	235.546625	236.055125		[silence]	[silence]
sw4168B-ms98-a-0053	B.102	236.055125	236.221750		Oh	oh
sw4168B-ms98-a-0053	B.102	236.221750	236.642250		okay	okay
sw4168B-ms98-a-0053	B.104	236.642250	237.046625		[silence]	[silence]
sw4168B-ms98-a-0054	B.104	237.046625	238.633125		[silence]	[silence]
sw4168B-ms98-a-0055	B.104	238.633125	239.055250		[silence]	[silence]
sw4168B-ms98-a-0055	B.104	239.055250	239.323125		Yeah	yeah
sw4168B-ms98-a-0055	B.104	239.323125	239.663125		so	so
sw4168B-ms98-a-0055	B.104	239.663125	239.793125		do	do
sw4168B-ms98-a-0055	B.104	239.793125	240.102875		I	i
sw4168B-ms98-a-0055	B.106	240.102875	240.554875		[silence]	[silence]
sw4168B-ms98-a-0055	B.106	240.554875	240.793125	<DEL>	---	d[o]-
sw4168B-ms98-a-0055	B.106	240.793125	240.853125		Do	do
sw4168B-ms98-a-0055	B.106	240.853125	240.993125		you	you
sw4168B-ms98-a-0055	B.106	240.993125	241.324125		like	like
sw4168B-ms98-a-0055	B.106	241.324125	241.728500		uh	uh
sw4168B-ms98-a-0055	B.106	241.728500	241.935625		[silence]	[silence]
sw4168B-ms98-a-0055	B.106	241.935625	242.129750		like	like
sw4168B-ms98-a-0055	B.106	242.129750	242.295500		V-	V[an]-
sw4168B-ms98-a-0055	B.106	242.295500	242.683125		Van	Van
sw4168B-ms98-a-0055	B.106	242.683125	242.943125		Halen	Halen
sw4168B-ms98-a-0055	B.106	242.943125	243.003125		or	or
sw4168B-ms98-a-0055	B.106	243.003125	243.213125		anything	anything
sw4168B-ms98-a-0055	B.106	243.213125	243.343125		like	like
sw4168B-ms98-a-0055	B.106	243.343125	243.553125		that	that
sw4168B-ms98-a-0055	B.106	243.553125	243.742250		Or	or
sw4168B-ms98-a-0055	B.106	243.742250	243.919250		[silence]	[silence]
sw4168B-ms98-a-0055	B.106	243.919250	244.023125		how	how
sw4168B-ms98-a-0055	B.106	244.023125	244.173125		about	about
sw4168B-ms98-a-0055	B.106	244.173125	244.433125	<SUB>	Brian	Bryan
sw4168B-ms98-a-0055	B.106	244.433125	244.880625		Adams	Adams
sw4168B-ms98-a-0055	B.108	244.880625	245.404375		[silence]	[silence]
sw4168B-ms98-a-0056	B.108	245.404375	246.647250		[silence]	[silence]
sw4168B-ms98-a-0057	B.108	246.647250	247.105250		[silence]	[silence]
sw4168B-ms98-a-0057	B.108	247.105250	247.277250		It	it
sw4168B-ms98-a-0057	B.108	247.277250	247.413000		it	it
sw4168B-ms98-a-0057	B.110	247.413000	247.929000		[silence]	[silence]
sw4168B-ms98-a-0057	B.110	247.929000	248.117250	<SUB>	Th-	it
sw4168B-ms98-a-0057	B.110	248.117250	248.290375		THIS	this
sw4168B-ms98-a-0057	B.110	248.290375	248.537250	<DEL>	---	uh
sw4168B-ms98-a-0057	B.110	248.537250	248.735500		LOVE	Love
sw4168B-ms98-a-0057	B.110	248.735500	248.977250		CUTS	Cuts
sw4168B-ms98-a-0057	B.110	248.977250	249.097250		LIKE	Like
sw4168B-ms98-a-0057	B.110	249.097250	249.167250		A	a
sw4168B-ms98-a-0057	B.110	249.167250	249.799375		KNIFE	Knife
sw4168B-ms98-a-0057	B.112	249.799375	250.292750		[silence]	[silence]
sw4168B-ms98-a-0057	B.112	250.292750	250.417250		Uh	uh
sw4168B-ms98-a-0057	B.112	250.417250	250.707250		SUMMER	Summer
sw4168B-ms98-a-0057	B.112	250.707250	250.777250		OF	of
sw4168B-ms98-a-0057	B.112	250.777250	251.621125		SIXTY-NINE	69
sw4168B-ms98-a-0057	B.114	251.621125	252.053875		[silence]	[silence]
sw4168B-ms98-a-0058	B.114	252.053875	253.716375		[silence]	[silence]
sw4168B-ms98-a-0059	B.114	253.716375	254.227750		[silence]	[silence]
sw4168B-ms98-a-0059	B.114	254.227750	254.436375		Yeah	yeah
sw4168B-ms98-a-0059	B.114	254.436375	254.526375		He	he
sw4168B-ms98-a-0059	B.114	254.526375	254.816375		sings	sings
sw4168B-ms98-a-0059	B.114	254.816375	254.996375		that	that
sw4168B-ms98-a-0059	B.116	254.996375	255.146375		He's	he's
sw4168B-ms98-a-0059	B.116	255.146375	255.256375		he's	he's
sw4168B-ms98-a-0059	B.116	255.256375	255.376375		from	from
sw4168B-ms98-a-0059	B.116	255.376375	255.869875		Canada	Canada
sw4168B-ms98-a-0059	B.118	255.869875	255.869875	<INS>	The	---
sw4168B-ms98-a-0059	B.118	255.869875	256.309875		[silence]	[silence]
sw4168B-ms98-a-0060	B.118	256.309875	258.648875		[silence]	[silence]
sw4168B-ms98-a-0061	B.118	258.648875	259.195000		[silence]	[silence]
sw4168B-ms98-a-0061	B.118	259.195000	259.488875		titles	titles
sw4168B-ms98-a-0061	B.118	259.488875	259.588875		and	and
sw4168B-ms98-a-0061	B.118	259.588875	260.028875		artists	artists
sw4168B-ms98-a-0061	B.120	260.028875	260.181625	<DEL>	---	yeah
sw4168B-ms98-a-0061	B.120	260.181625	260.356000		[silence]	[silence]
sw4168B-ms98-a-0062	B.120	260.356000	262.218375		[silence]	[silence]
sw4168B-ms98-a-0063	B.120	262.218375	262.766750		[silence]	[silence]
sw4168B-ms98-a-0063	B.120	262.766750	262.878375		Well	well
sw4168B-ms98-a-0063	B.120	262.878375	263.158375		do	do
sw4168B-ms98-a-0063	B.122	263.158375	263.258375		do	do
sw4168B-ms98-a-0063	B.122	263.258375	263.338375		you	you
sw4168B-ms98-a-0063	B.122	263.338375	263.716625		watch	watch
sw4168B-ms98-a-0063	B.122	263.716625	264.108375		music	music
sw4168B-ms98-a-0063	B.122	264.108375	264.528375		television	television
sw4168B-ms98-a-0063	B.122	264.528375	264.888375	<CONT>	M	MTV
sw4168B-ms98-a-0063	B.122	264.888375	264.888375	<CONT>	T	+++
sw4168B-ms98-a-0063	B.122	264.888375	264.888375	<CONT>	V	+++
sw4168B-ms98-a-0063	B.122	264.888375	264.998375		at	at
sw4168B-ms98-a-0063	B.122	264.998375	265.218375		all	all
sw4168B-ms98-a-0063	B.122	265.218375	265.388375		Or	or
sw4168B-ms98-a-0063	B.122	265.388375	266.194750	<CONT>	V	VH1
sw4168B-ms98-a-0063	B.122	266.194750	266.194750	<CONT>	H	+++
sw4168B-ms98-a-0063	B.122	266.194750	266.194750	<CONT>	One	+++
sw4168B-ms98-a-0063	B.122	266.194750	266.518750		[silence]	[silence]
sw4168B-ms98-a-0064	B.122	266.518750	267.530500		[silence]	[silence]
sw4168B-ms98-a-0065	B.122	267.530500	268.039875		[silence]	[silence]
sw4168B-ms98-a-0065	B.122	268.039875	268.146375	<DEL>	---	oh
sw4168B-ms98-a-0065	B.124	268.146375	268.586625		Okay	okay
sw4168B-ms98-a-0065	B.126	268.586625	268.955750		[silence]	[silence]
sw4168B-ms98-a-0065	B.126	268.955750	269.040500	<SUB>	D-	yeah
sw4168B-ms98-a-0065	B.126	269.040500	269.220500		do	do
sw4168B-ms98-a-0065	B.126	269.220500	269.310500		do	do
sw4168B-ms98-a-0065	B.126	269.310500	269.400500		you	you
sw4168B-ms98-a-0065	B.126	269.400500	269.540500		get	get
sw4168B-ms98-a-0065	B.126	269.540500	269.913375		cable	cable
sw4168B-ms98-a-0065	B.128	269.913375	270.602875		[silence]	[silence]
sw4168B-ms98-a-0066	B.128	270.602875	271.409625		[silence]	[silence]
sw4168B-ms98-a-0066	B.128	271.409625	271.564500		Oh	oh
sw4168B-ms98-a-0066	B.128	271.564500	271.816875		okay	okay
sw4168B-ms98-a-0066	B.128	271.816875	272.126875		That's	that's
sw4168B-ms98-a-0066	B.128	272.126875	272.502875		that's	that's
sw4168B-ms98-a-0066	B.130	272.502875	272.622875		you	you
sw4168B-ms98-a-0066	B.130	272.622875	272.712875		have	have
sw4168B-ms98-a-0066	B.130	272.712875	272.772875		to	to
sw4168B-ms98-a-0066	B.130	272.772875	272.922875		get	get
sw4168B-ms98-a-0066	B.130	272.922875	273.182875		cable	cable
sw4168B-ms98-a-0066	B.130	273.182875	273.242875		to	to
sw4168B-ms98-a-0066	B.130	273.242875	273.382875		get	get
sw4168B-ms98-a-0066	B.130	273.382875	273.522875		those	those
sw4168B-ms98-a-0066	B.130	273.522875	273.892875		stations	stations
sw4168B-ms98-a-0066	B.130	273.892875	274.370250		anyhow	anyhow
sw4168B-ms98-a-0066	B.132	274.370250	274.813875		[silence]	[silence]
sw4168B-ms98-a-0067	B.132	274.813875	275.307250		[silence]	[silence]
sw4168B-ms98-a-0067	B.132	275.307250	275.493875		But	but
sw4168B-ms98-a-0067	B.132	275.493875	275.775625		uh	uh
sw4168B-ms98-a-0067	B.132	275.775625	275.880875		[silence]	[silence]
sw4168B-ms98-a-0067	B.132	275.880875	276.083875		yeah	yeah
sw4168B-ms98-a-0067	B.132	276.083875	276.238250		I	i
sw4168B-ms98-a-0067	B.132	276.238250	276.533875		like	like
sw4168B-ms98-a-0067	B.132	276.533875	276.623875		to	to
sw4168B-ms98-a-0067	B.132	276.623875	276.893875		watch	watch
sw4168B-ms98-a-0067	B.132	276.893875	277.083875		rock	rock
sw4168B-ms98-a-0067	B.132	277.083875	277.203875		and	and
sw4168B-ms98-a-0067	B.132	277.203875	277.343875		roll	roll
sw4168B-ms98-a-0067	B.132	277.343875	277.813875		videos	videos
sw4168B-ms98-a-0067	B.132	277.813875	278.103875		and	and
sw4168B-ms98-a-0067	B.132	278.103875	278.263875		any	any
sw4168B-ms98-a-0067	B.132	278.263875	278.393875		kind	kind
sw4168B-ms98-a-0067	B.132	278.393875	278.473875		of	of
sw4168B-ms98-a-0067	B.132	278.473875	278.723875		videos	videos
sw4168B-ms98-a-0067	B.134	278.723875	278.753875		I	i
sw4168B-ms98-a-0067	B.134	278.753875	278.913875		like	like
sw4168B-ms98-a-0067	B.134	278.913875	279.193875		watching	watching
sw4168B-ms98-a-0067	B.134	279.193875	279.313875		that	that
sw4168B-ms98-a-0067	B.134	279.313875	279.463875		kind	kind
sw4168B-ms98-a-0067	B.134	279.463875	279.578125		of	of
sw4168B-ms98-a-0067	B.134	279.578125	279.773875		thing	thing
sw4168B-ms98-a-0067	B.134	279.773875	279.928125		It's	it's
sw4168B-ms98-a-0067	B.136	279.928125	280.338500		[silence]	[silence]
sw4168B-ms98-a-0068	B.136	280.338500	286.020250		[silence]	[silence]
sw4168B-ms98-a-0069	B.136	286.020250	286.553500		[silence]	[silence]
sw4168B-ms98-a-0069	B.136	286.553500	286.810250		No	no
sw4168B-ms98-a-0069	B.136	286.810250	286.880250		I	i
sw4168B-ms98-a-0069	B.136	286.880250	287.140250		haven't	haven't
sw4168B-ms98-a-0069	B.136	287.140250	287.250250		heard	heard
sw4168B-ms98-a-0069	B.136	287.250250	287.487125		her	her
sw4168B-ms98-a-0069	B.138	287.487125	287.900750		[silence]	[silence]
sw4168B-ms98-a-0070	B.138	287.900750	289.075250		[silence]	[silence]
sw4168B-ms98-a-0071	B.138	289.075250	289.469000		[silence]	[silence]
sw4168B-ms98-a-0071	B.138	289.469000	289.675250		Oh	oh
sw4168B-ms98-a-0071	B.138	289.675250	290.167500		okay	okay
sw4168B-ms98-a-0071	B.140	290.167500	290.783875		[silence]	[silence]
sw4168B-ms98-a-0072	B.140	290.783875	295.535125		[silence]	[silence]
sw4168B-ms98-a-0073	B.140	295.535125	296.001500		[silence]	[silence]
sw4168B-ms98-a-0073	B.140	296.001500	296.245125		Oh	oh
sw4168B-ms98-a-0073	B.140	296.245125	296.582875		really	really
sw4168B-ms98-a-0073	B.140	296.582875	297.000250		[silence]	[silence]
sw4168B-ms98-a-0074	B.140	297.000250	298.082000		[silence]	[silence]
