sw4129A-ms98-a-0001	A.1	0.000000	0.013500		[silence]	[silence]
sw4129A-ms98-a-0001	A.1	0.013500	0.060000		[noise]	[noise]
sw4129A-ms98-a-0001	A.1	0.060000	0.180000		Okay	okay_1
sw4129A-ms98-a-0001	A.1	0.180000	0.390000		so	so
sw4129A-ms98-a-0001	A.1	0.390000	0.540000		what	what
sw4129A-ms98-a-0001	A.1	0.540000	0.648375		are	are
sw4129A-ms98-a-0001	A.1	0.648375	0.847125		[silence]	[silence]
sw4129A-ms98-a-0001	A.1	0.847125	0.950000		what	what
sw4129A-ms98-a-0001	A.1	0.950000	1.010000		are	are
sw4129A-ms98-a-0001	A.1	1.010000	1.160000		your	your
sw4129A-ms98-a-0001	A.1	1.160000	1.566250		views	views
sw4129A-ms98-a-0001	A.1	1.566250	1.890125		[silence]	[silence]
sw4129A-ms98-a-0001	A.1	1.890125	1.950000	<DEL>	---	o[n]-
sw4129A-ms98-a-0001	A.1	1.950000	2.060000		on	on
sw4129A-ms98-a-0001	A.1	2.060000	2.400000		capital	capital
sw4129A-ms98-a-0001	A.1	2.400000	2.893750		punishment	punishment
sw4129A-ms98-a-0001	A.3	2.893750	3.394750		[silence]	[silence]
sw4129A-ms98-a-0002	A.3	3.394750	18.106250		[silence]	[silence]
sw4129A-ms98-a-0003	A.3	18.106250	18.617625		[silence]	[silence]
sw4129A-ms98-a-0003	A.3	18.617625	19.005375		Yes	yes
sw4129A-ms98-a-0003	A.5	19.005375	19.387875		[silence]	[silence]
sw4129A-ms98-a-0004	A.5	19.387875	23.566500		[silence]	[silence]
sw4129A-ms98-a-0005	A.5	23.566500	24.041750		[silence]	[silence]
sw4129A-ms98-a-0005	A.5	24.041750	24.226500		So	so
sw4129A-ms98-a-0005	A.5	24.226500	24.286500		are	are
sw4129A-ms98-a-0005	A.5	24.286500	24.396500		they	they
sw4129A-ms98-a-0005	A.5	24.396500	24.866500		currently	currently
sw4129A-ms98-a-0005	A.5	24.866500	25.556500		practicing	practicing
sw4129A-ms98-a-0005	A.5	25.556500	25.886500		capital	capital
sw4129A-ms98-a-0005	A.5	25.886500	26.316500		punishment	punishment
sw4129A-ms98-a-0005	A.7	26.316500	26.376500		in	in
sw4129A-ms98-a-0005	A.7	26.376500	26.476500		your	your
sw4129A-ms98-a-0005	A.7	26.476500	26.795500		state	state
sw4129A-ms98-a-0005	A.9	26.795500	27.303375		[silence]	[silence]
sw4129A-ms98-a-0006	A.9	27.303375	37.891625		[silence]	[silence]
sw4129A-ms98-a-0007	A.9	37.891625	38.340125		[silence]	[silence]
sw4129A-ms98-a-0007	A.9	38.340125	38.774000		Yes	yes
sw4129A-ms98-a-0007	A.9	38.774000	39.116750		[silence]	[silence]
sw4129A-ms98-a-0007	A.9	39.116750	39.451625		that's	that's
sw4129A-ms98-a-0007	A.9	39.451625	39.781625		similar	similar
sw4129A-ms98-a-0007	A.9	39.781625	40.232500		to	to
sw4129A-ms98-a-0007	A.9	40.232500	40.731625		Georgia	Georgia
sw4129A-ms98-a-0007	A.11	40.731625	40.965750		[silence]	[silence]
sw4129A-ms98-a-0007	A.11	40.965750	41.178375	<DEL>	---	uh
sw4129A-ms98-a-0007	A.11	41.178375	41.535250		[silence]	[silence]
sw4129A-ms98-a-0008	A.11	41.535250	50.868875		[silence]	[silence]
sw4129A-ms98-a-0009	A.11	50.868875	51.362000		[silence]	[silence]
sw4129A-ms98-a-0009	A.11	51.362000	51.528875		That's	that's
sw4129A-ms98-a-0009	A.11	51.528875	51.888875		probably	probably
sw4129A-ms98-a-0009	A.11	51.888875	52.118875		true	true
sw4129A-ms98-a-0009	A.11	52.118875	52.689625		considering	considering
sw4129A-ms98-a-0009	A.13	52.689625	53.304000		[silence]	[silence]
sw4129A-ms98-a-0010	A.13	53.304000	54.002375		[silence]	[silence]
sw4129A-ms98-a-0010	A.13	54.002375	54.520625		Yes	yes
sw4129A-ms98-a-0010	A.15	54.520625	55.038750		[silence]	[silence]
sw4129A-ms98-a-0010	A.15	55.038750	55.430500		Yes	yes
sw4129A-ms98-a-0010	A.15	55.430500	56.014000		[silence]	[silence]
sw4129A-ms98-a-0010	A.15	56.014000	56.234000	<SUB>	uh	um
sw4129A-ms98-a-0010	A.15	56.234000	56.314000		I	i
sw4129A-ms98-a-0010	A.15	56.314000	56.714750		guess	guess
sw4129A-ms98-a-0010	A.15	56.714750	57.264625		[silence]	[silence]
sw4129A-ms98-a-0010	A.15	57.264625	57.384000		in	in
sw4129A-ms98-a-0010	A.15	57.384000	57.434000		a	a
sw4129A-ms98-a-0010	A.15	57.434000	57.764000		way	way
sw4129A-ms98-a-0010	A.15	57.764000	57.954000		that	that
sw4129A-ms98-a-0010	A.15	57.954000	58.314000		[silence]	[silence]
sw4129A-ms98-a-0010	A.15	58.314000	58.464000		it	it
sw4129A-ms98-a-0010	A.15	58.464000	58.594000		[silence]	[silence]
sw4129A-ms98-a-0010	A.15	58.594000	58.724000		it	it
sw4129A-ms98-a-0010	A.15	58.724000	58.934000		kind	kind
sw4129A-ms98-a-0010	A.15	58.934000	59.014000		of	of
sw4129A-ms98-a-0010	A.15	59.014000	59.394000		defeats	defeats
sw4129A-ms98-a-0010	A.15	59.394000	59.496125		the	the
sw4129A-ms98-a-0010	A.15	59.496125	59.953375		purpose	purpose
sw4129A-ms98-a-0010	A.15	59.953375	60.107750		of	of
sw4129A-ms98-a-0010	A.15	60.107750	60.354000		having	having
sw4129A-ms98-a-0010	A.15	60.354000	60.694000		capital	capital
sw4129A-ms98-a-0010	A.15	60.694000	61.244000		punishment	punishment
sw4129A-ms98-a-0010	A.15	61.244000	61.502375		if	if
sw4129A-ms98-a-0010	A.17	61.502375	62.017000		[silence]	[silence]
sw4129A-ms98-a-0011	A.17	62.017000	67.026375		[silence]	[silence]
sw4129A-ms98-a-0012	A.17	67.026375	67.522875		[silence]	[silence]
sw4129A-ms98-a-0012	A.17	67.522875	67.883875		Yes	yes
sw4129A-ms98-a-0012	A.19	67.883875	68.235625		[silence]	[silence]
sw4129A-ms98-a-0013	A.19	68.235625	69.241875		[silence]	[silence]
sw4129A-ms98-a-0014	A.19	69.241875	69.821875		[silence]	[silence]
sw4129A-ms98-a-0014	A.19	69.821875	70.001875		Right	right
sw4129A-ms98-a-0014	A.19	70.001875	70.111875		that	that
sw4129A-ms98-a-0014	A.19	70.111875	70.216375		would	would
sw4129A-ms98-a-0014	A.19	70.216375	70.337875		be	be
sw4129A-ms98-a-0014	A.19	70.337875	70.650500		the	the
sw4129A-ms98-a-0014	A.19	70.650500	71.151875		intent	intent
sw4129A-ms98-a-0014	A.19	71.151875	71.311875		of	of
sw4129A-ms98-a-0014	A.19	71.311875	71.437625		it	it
sw4129A-ms98-a-0014	A.21	71.437625	71.884000		[silence]	[silence]
sw4129A-ms98-a-0015	A.21	71.884000	74.996875		[silence]	[silence]
sw4129A-ms98-a-0016	A.21	74.996875	75.506250		[silence]	[silence]
sw4129A-ms98-a-0016	A.21	75.506250	75.646875		Well	well
sw4129A-ms98-a-0016	A.21	75.646875	75.706875		I	i
sw4129A-ms98-a-0016	A.21	75.706875	75.986875		think	think
sw4129A-ms98-a-0016	A.21	75.986875	76.076875		it	it
sw4129A-ms98-a-0016	A.21	76.076875	76.326875		would	would
sw4129A-ms98-a-0016	A.21	76.326875	76.466875		be	be
sw4129A-ms98-a-0016	A.21	76.466875	76.686875		more	more
sw4129A-ms98-a-0016	A.21	76.686875	77.406875		successful	successful
sw4129A-ms98-a-0016	A.21	77.406875	77.656875		if	if
sw4129A-ms98-a-0016	A.21	77.656875	77.746875		it	it
sw4129A-ms98-a-0016	A.21	77.746875	77.956875		was	was
sw4129A-ms98-a-0016	A.21	77.956875	78.529625		applied	applied
sw4129A-ms98-a-0016	A.21	78.529625	78.970500		[silence]	[silence]
sw4129A-ms98-a-0017	A.21	78.970500	79.474875		[silence]	[silence]
sw4129A-ms98-a-0017	A.21	79.474875	79.620500		in	in
sw4129A-ms98-a-0017	A.21	79.620500	79.780500		a	a
sw4129A-ms98-a-0017	A.21	79.780500	80.020500		more	more
sw4129A-ms98-a-0017	A.21	80.020500	80.530500		expedient	expedient
sw4129A-ms98-a-0017	A.21	80.530500	80.850500		manner	manner
sw4129A-ms98-a-0017	A.21	80.850500	80.980500		if	if
sw4129A-ms98-a-0017	A.21	80.980500	81.100500		there	there
sw4129A-ms98-a-0017	A.21	81.100500	81.310500		weren't	weren't
sw4129A-ms98-a-0017	A.21	81.310500	81.450500		so	so
sw4129A-ms98-a-0017	A.21	81.450500	81.680500		many	many
sw4129A-ms98-a-0017	A.23	81.680500	82.319250		appeals	appeals
sw4129A-ms98-a-0017	A.25	82.319250	82.726000		[silence]	[silence]
sw4129A-ms98-a-0017	A.25	82.726000	82.974750		Yeah	yeah
sw4129A-ms98-a-0017	A.25	82.974750	83.080500		[silence]	[silence]
sw4129A-ms98-a-0017	A.25	83.080500	83.416125		if	if
sw4129A-ms98-a-0017	A.25	83.416125	83.864375		[silence]	[silence]
sw4129A-ms98-a-0017	A.25	83.864375	84.130500		if	if
sw4129A-ms98-a-0017	A.25	84.130500	84.259125		the	the
sw4129A-ms98-a-0017	A.25	84.259125	84.670500		person	person
sw4129A-ms98-a-0017	A.25	84.670500	84.950500		who's	who's
sw4129A-ms98-a-0017	A.25	84.950500	85.100500	<SUB>	going	gonna
sw4129A-ms98-a-0017	A.25	85.100500	85.100500	<INS>	to	---
sw4129A-ms98-a-0017	A.25	85.100500	85.380500		commit	commit
sw4129A-ms98-a-0017	A.25	85.380500	85.440500		the	the
sw4129A-ms98-a-0017	A.25	85.440500	85.740500		crime	crime
sw4129A-ms98-a-0017	A.27	85.740500	85.980500		knew	knew
sw4129A-ms98-a-0017	A.27	85.980500	86.130500		that	that
sw4129A-ms98-a-0017	A.27	86.130500	86.240500		they	they
sw4129A-ms98-a-0017	A.27	86.240500	86.350500		were	were
sw4129A-ms98-a-0017	A.27	86.350500	86.631750	<SUB>	going	gonna
sw4129A-ms98-a-0017	A.27	86.631750	86.631750	<INS>	to	---
sw4129A-ms98-a-0017	A.27	86.631750	86.974500		[silence]	[silence]
sw4129A-ms98-a-0017	A.27	86.974500	87.040500		be	be
sw4129A-ms98-a-0017	A.27	87.040500	87.450500		punished	punished
sw4129A-ms98-a-0017	A.27	87.450500	87.880500		severely	severely
sw4129A-ms98-a-0017	A.27	87.880500	88.320500		possibly	possibly
sw4129A-ms98-a-0017	A.27	88.320500	88.680500		capital	capital
sw4129A-ms98-a-0017	A.27	88.680500	89.208500		punishment	punishment
sw4129A-ms98-a-0017	A.29	89.208500	89.484625		[silence]	[silence]
sw4129A-ms98-a-0018	A.29	89.484625	90.498875		[silence]	[silence]
sw4129A-ms98-a-0019	A.29	90.498875	90.978000		[silence]	[silence]
sw4129A-ms98-a-0019	A.29	90.978000	91.338875		Uh	uh
sw4129A-ms98-a-0019	A.29	91.338875	91.608875		I'm	i'm
sw4129A-ms98-a-0019	A.29	91.608875	91.758875		a	a
sw4129A-ms98-a-0019	A.29	91.758875	92.218875		research	research
sw4129A-ms98-a-0019	A.29	92.218875	92.648875		engineer	engineer
sw4129A-ms98-a-0019	A.29	92.648875	92.698875		I	i
sw4129A-ms98-a-0019	A.29	92.698875	92.988875		work	work
sw4129A-ms98-a-0019	A.29	92.988875	93.248875		uh	uh
sw4129A-ms98-a-0019	A.29	93.248875	93.478875		f-	f[or]-
sw4129A-ms98-a-0019	A.29	93.478875	93.778875		with	with
sw4129A-ms98-a-0019	A.29	93.778875	94.068875		Georgia	Georgia
sw4129A-ms98-a-0019	A.29	94.068875	94.484625		Tech	Tech
sw4129A-ms98-a-0019	A.31	94.484625	94.917500		[silence]	[silence]
sw4129A-ms98-a-0020	A.31	94.917500	96.579250		[silence]	[silence]
sw4129A-ms98-a-0021	A.31	96.579250	97.056875		[silence]	[silence]
sw4129A-ms98-a-0021	A.31	97.056875	97.347000		Um	um
sw4129A-ms98-a-0021	A.33	97.347000	97.711625		[silence]	[silence]
sw4129A-ms98-a-0022	A.33	97.711625	98.738250		[silence]	[silence]
sw4129A-ms98-a-0023	A.33	98.738250	99.138250		[silence]	[silence]
sw4129A-ms98-a-0023	A.33	99.138250	99.504875		Yes	yes
sw4129A-ms98-a-0023	A.35	99.504875	99.974375		[silence]	[silence]
sw4129A-ms98-a-0024	A.35	99.974375	111.359125		[silence]	[silence]
sw4129A-ms98-a-0025	A.35	111.359125	111.897250		[silence]	[silence]
sw4129A-ms98-a-0025	A.35	111.897250	112.059125	<SUB>	Um	hum
sw4129A-ms98-a-0025	A.37	112.059125	112.580375		[silence]	[silence]
sw4129A-ms98-a-0026	A.37	112.580375	125.012500		[silence]	[silence]
sw4129A-ms98-a-0027	A.37	125.012500	125.512500		[silence]	[silence]
sw4129A-ms98-a-0027	A.37	125.512500	125.822000	<SUB>	Uh-huh	um-hum
sw4129A-ms98-a-0027	A.39	125.822000	126.298750		[silence]	[silence]
sw4129A-ms98-a-0028	A.39	126.298750	134.014625		[silence]	[silence]
sw4129A-ms98-a-0029	A.39	134.014625	134.504625		[silence]	[silence]
sw4129A-ms98-a-0029	A.39	134.504625	134.672250		Um	um
sw4129A-ms98-a-0029	A.39	134.672250	134.812625		[silence]	[silence]
sw4129A-ms98-a-0029	A.39	134.812625	135.004625		that's	that's
sw4129A-ms98-a-0029	A.39	135.004625	135.394625		probably	probably
sw4129A-ms98-a-0029	A.39	135.394625	135.654625		true	true
sw4129A-ms98-a-0029	A.39	135.654625	135.764625		but	but
sw4129A-ms98-a-0029	A.39	135.764625	135.834625		I	i
sw4129A-ms98-a-0029	A.39	135.834625	136.094625		guess	guess
sw4129A-ms98-a-0029	A.41	136.094625	136.489625		[silence]	[silence]
sw4129A-ms98-a-0030	A.41	136.489625	137.037500		[silence]	[silence]
sw4129A-ms98-a-0030	A.41	137.037500	137.189625		there's	there's
sw4129A-ms98-a-0030	A.41	137.189625	137.409625		other	other
sw4129A-ms98-a-0030	A.41	137.409625	137.889625		factors	factors
sw4129A-ms98-a-0030	A.41	137.889625	138.071500		that	that
sw4129A-ms98-a-0030	A.43	138.071500	138.625125		[silence]	[silence]
sw4129A-ms98-a-0030	A.43	138.625125	138.769625		But	but
sw4129A-ms98-a-0030	A.43	138.769625	138.919625	<SUB>	p-	pu[mping]-
sw4129A-ms98-a-0030	A.43	138.919625	139.180500	<SUB>	p-	pu[mping]-
sw4129A-ms98-a-0030	A.43	139.180500	139.449625		pumping	pumping
sw4129A-ms98-a-0030	A.43	139.449625	139.569625		more	more
sw4129A-ms98-a-0030	A.43	139.569625	139.759625		money	money
sw4129A-ms98-a-0030	A.43	139.759625	139.879625		into	into
sw4129A-ms98-a-0030	A.43	139.879625	139.939625		the	the
sw4129A-ms98-a-0030	A.43	139.939625	140.239625		school	school
sw4129A-ms98-a-0030	A.43	140.239625	140.609625		system	system
sw4129A-ms98-a-0030	A.43	140.609625	140.749625		is	is
sw4129A-ms98-a-0030	A.43	140.749625	140.829625		a	a
sw4129A-ms98-a-0030	A.45	140.829625	141.039625		good	good
sw4129A-ms98-a-0030	A.45	141.039625	141.369625		thing	thing
sw4129A-ms98-a-0030	A.45	141.369625	141.592375		but	but
sw4129A-ms98-a-0030	A.45	141.592375	141.856000		[silence]	[silence]
sw4129A-ms98-a-0030	A.45	141.856000	141.989625		it's	it's
sw4129A-ms98-a-0030	A.45	141.989625	142.129625		not	not
sw4129A-ms98-a-0030	A.45	142.129625	142.320625	<SUB>	going	gonna
sw4129A-ms98-a-0030	A.45	142.320625	142.320625	<INS>	to	---
sw4129A-ms98-a-0030	A.47	142.320625	143.023375		[silence]	[silence]
sw4129A-ms98-a-0031	A.47	143.023375	143.848875		[silence]	[silence]
sw4129A-ms98-a-0031	A.47	143.848875	143.953375		Oh	oh
sw4129A-ms98-a-0031	A.47	143.953375	144.063375		I	i
sw4129A-ms98-a-0031	A.47	144.063375	144.363375		see	see
sw4129A-ms98-a-0031	A.49	144.363375	144.855250		[silence]	[silence]
sw4129A-ms98-a-0032	A.49	144.855250	163.613625		[silence]	[silence]
sw4129A-ms98-a-0033	A.49	163.613625	164.093500		[silence]	[silence]
sw4129A-ms98-a-0033	A.49	164.093500	164.422500	<SUB>	Uh-huh	um-hum
sw4129A-ms98-a-0033	A.51	164.422500	164.896375		[silence]	[silence]
sw4129A-ms98-a-0034	A.51	164.896375	169.208875		[silence]	[silence]
sw4129A-ms98-a-0035	A.51	169.208875	169.718000		[silence]	[silence]
sw4129A-ms98-a-0035	A.51	169.718000	169.942000		Um	um
sw4129A-ms98-a-0035	A.53	169.942000	170.410375		[silence]	[silence]
sw4129A-ms98-a-0036	A.53	170.410375	175.635875		[silence]	[silence]
sw4129A-ms98-a-0037	A.53	175.635875	176.035875		[silence]	[silence]
sw4129A-ms98-a-0037	A.53	176.035875	176.205875		So	so
sw4129A-ms98-a-0037	A.53	176.205875	176.375875		that's	that's
sw4129A-ms98-a-0037	A.53	176.375875	176.435875		a	a
sw4129A-ms98-a-0037	A.53	176.435875	176.845875		difficult	difficult
sw4129A-ms98-a-0037	A.53	176.845875	177.510750		situation	situation
sw4129A-ms98-a-0037	A.55	177.510750	178.003250		[silence]	[silence]
sw4129A-ms98-a-0038	A.55	178.003250	185.651875		[silence]	[silence]
sw4129A-ms98-a-0039	A.55	185.651875	186.171875		[silence]	[silence]
sw4129A-ms98-a-0039	A.55	186.171875	186.385750		Um	um
sw4129A-ms98-a-0039	A.57	186.385750	186.917125		[silence]	[silence]
sw4129A-ms98-a-0040	A.57	186.917125	199.879500		[silence]	[silence]
sw4129A-ms98-a-0041	A.57	199.879500	200.367500		[silence]	[silence]
sw4129A-ms98-a-0041	A.57	200.367500	200.668500	<SUB>	Uh-huh	um-hum
sw4129A-ms98-a-0041	A.59	200.668500	201.145625		[silence]	[silence]
sw4129A-ms98-a-0042	A.59	201.145625	209.440500		[silence]	[silence]
sw4129A-ms98-a-0043	A.59	209.440500	209.913000		[silence]	[silence]
sw4129A-ms98-a-0043	A.59	209.913000	210.246000	<SUB>	Uh-huh	um-hum
sw4129A-ms98-a-0043	A.61	210.246000	210.717000		[silence]	[silence]
sw4129A-ms98-a-0044	A.61	210.717000	212.497875		[silence]	[silence]
sw4129A-ms98-a-0045	A.61	212.497875	212.969250		[silence]	[silence]
sw4129A-ms98-a-0045	A.61	212.969250	213.177875		Well	well
sw4129A-ms98-a-0045	A.61	213.177875	213.437875		that's	that's
sw4129A-ms98-a-0045	A.61	213.437875	213.797875		probably	probably
sw4129A-ms98-a-0045	A.61	213.797875	214.123500		true	true
sw4129A-ms98-a-0045	A.61	214.123500	214.223250		[silence]	[silence]
sw4129A-ms98-a-0045	A.61	214.223250	214.529125	<SUB>	W-	wh[at]-
sw4129A-ms98-a-0045	A.63	214.529125	214.993625		[silence]	[silence]
sw4129A-ms98-a-0046	A.63	214.993625	219.867500		[silence]	[silence]
sw4129A-ms98-a-0047	A.63	219.867500	220.383125		[silence]	[silence]
sw4129A-ms98-a-0047	A.63	220.383125	220.543250	<SUB>	Um	hum
sw4129A-ms98-a-0047	A.63	220.543250	220.916625		[silence]	[silence]
sw4129A-ms98-a-0048	A.63	220.916625	221.917750		[silence]	[silence]
sw4129A-ms98-a-0049	A.63	221.917750	222.205000		[silence]	[silence]
sw4129A-ms98-a-0049	A.63	222.205000	222.347750		yeah	yeah
sw4129A-ms98-a-0049	A.63	222.347750	222.557750		I	i
sw4129A-ms98-a-0049	A.63	222.557750	222.757750		guess	guess
sw4129A-ms98-a-0049	A.63	222.757750	222.957750		that's	that's
sw4129A-ms98-a-0049	A.63	222.957750	223.137750		not	not
sw4129A-ms98-a-0049	A.63	223.137750	223.247750		an	an
sw4129A-ms98-a-0049	A.63	223.247750	223.467750		easy	easy
sw4129A-ms98-a-0049	A.63	223.467750	224.013000		solution	solution
sw4129A-ms98-a-0049	A.63	224.013000	224.239000		[silence]	[silence]
sw4129A-ms98-a-0049	A.63	224.239000	224.437750		There's	there's
sw4129A-ms98-a-0049	A.63	224.437750	224.627750		there's	there's
sw4129A-ms98-a-0049	A.63	224.627750	224.797750		no	no
sw4129A-ms98-a-0049	A.63	224.797750	225.027750		easy	easy
sw4129A-ms98-a-0049	A.65	225.027750	225.477750		solution	solution
sw4129A-ms98-a-0049	A.65	225.477750	225.647750		for	for
sw4129A-ms98-a-0049	A.65	225.647750	225.837750		that	that
sw4129A-ms98-a-0049	A.67	225.837750	226.289250		[silence]	[silence]
sw4129A-ms98-a-0050	A.67	226.289250	232.847000		[silence]	[silence]
sw4129A-ms98-a-0051	A.67	232.847000	233.307000		[silence]	[silence]
sw4129A-ms98-a-0051	A.67	233.307000	233.635125	<SUB>	Uh-huh	um-hum
sw4129A-ms98-a-0051	A.71	233.635125	234.110000		[silence]	[silence]
sw4129A-ms98-a-0052	A.71	234.110000	241.659375		[silence]	[silence]
sw4129A-ms98-a-0053	A.71	241.659375	242.266000		[silence]	[silence]
sw4129A-ms98-a-0053	A.71	242.266000	243.341500		[laughter]	[laughter]
sw4129A-ms98-a-0053	A.71	243.341500	243.521125		[silence]	[silence]
sw4129A-ms98-a-0054	A.71	243.521125	243.902750		[silence]	[silence]
sw4129A-ms98-a-0054	A.71	243.902750	244.091125		I'm	i'm
sw4129A-ms98-a-0054	A.71	244.091125	244.351125		sure	sure
sw4129A-ms98-a-0054	A.71	244.351125	244.431125		it	it
sw4129A-ms98-a-0054	A.71	244.431125	244.811125		is	is
sw4129A-ms98-a-0054	A.71	244.811125	245.063250		yeah	yeah
sw4129A-ms98-a-0054	A.73	245.063250	245.508250		[silence]	[silence]
sw4129A-ms98-a-0055	A.73	245.508250	247.057875		[silence]	[silence]
sw4129A-ms98-a-0056	A.73	247.057875	247.564625		[silence]	[silence]
sw4129A-ms98-a-0056	A.73	247.564625	247.751750	<SUB>	Um	hum
sw4129A-ms98-a-0056	A.73	247.751750	247.943125		[silence]	[silence]
sw4129A-ms98-a-0056	A.73	247.943125	248.197875		yeah	yeah
sw4129A-ms98-a-0056	A.73	248.197875	248.227875		I	i
sw4129A-ms98-a-0056	A.73	248.227875	248.517875		don't	don't
sw4129A-ms98-a-0056	A.73	248.517875	248.573250		I	i
sw4129A-ms98-a-0056	A.73	248.573250	248.757875		don't	don't
sw4129A-ms98-a-0056	A.73	248.757875	249.157875		certainly	certainly
sw4129A-ms98-a-0056	A.73	249.157875	249.497875		capital	capital
sw4129A-ms98-a-0056	A.73	249.497875	249.947875		punishment	punishment
sw4129A-ms98-a-0056	A.73	249.947875	250.127875		isn't	isn't
sw4129A-ms98-a-0056	A.75	250.127875	250.287875	<SUB>	going	gonna
sw4129A-ms98-a-0056	A.75	250.287875	250.287875	<INS>	to	---
sw4129A-ms98-a-0056	A.75	250.287875	250.587875		solve	solve
sw4129A-ms98-a-0056	A.75	250.587875	250.627875		a	a
sw4129A-ms98-a-0056	A.75	250.627875	250.777875		lot	lot
sw4129A-ms98-a-0056	A.75	250.777875	250.847875		of	of
sw4129A-ms98-a-0056	A.75	250.847875	251.417875		problems	problems
sw4129A-ms98-a-0056	A.75	251.417875	251.587750		but	but
sw4129A-ms98-a-0056	A.77	251.587750	252.380125		[silence]	[silence]
sw4129A-ms98-a-0057	A.77	252.380125	253.220125		[silence]	[silence]
sw4129A-ms98-a-0057	A.77	253.220125	253.610125		Uh	uh
sw4129A-ms98-a-0057	A.79	253.610125	254.290125		[silence]	[silence]
sw4129A-ms98-a-0058	A.79	254.290125	254.900125		[silence]	[silence]
sw4129A-ms98-a-0058	A.79	254.900125	255.090250		I	i
sw4129A-ms98-a-0058	A.79	255.090250	255.280125		guess	guess
sw4129A-ms98-a-0058	A.79	255.280125	255.410125		I	i
sw4129A-ms98-a-0058	A.79	255.410125	255.600125		am	am
sw4129A-ms98-a-0058	A.81	255.600125	255.740125		for	for
sw4129A-ms98-a-0058	A.81	255.740125	256.080125		certain	certain
sw4129A-ms98-a-0058	A.81	256.080125	256.290125		cri-	cri[mes]-
sw4129A-ms98-a-0058	A.83	256.290125	256.730125		yeah	yeah
sw4129A-ms98-a-0058	A.83	256.730125	256.890125		in	in
sw4129A-ms98-a-0058	A.83	256.890125	257.190125		certain	certain
sw4129A-ms98-a-0058	A.83	257.190125	257.810375		crimes	crimes
sw4129A-ms98-a-0058	A.85	257.810375	258.296250		[silence]	[silence]
sw4129A-ms98-a-0059	A.85	258.296250	259.928500		[silence]	[silence]
sw4129A-ms98-a-0060	A.85	259.928500	260.308500		[silence]	[silence]
sw4129A-ms98-a-0060	A.85	260.308500	260.993375	<SUB>	Uh	um
sw4129A-ms98-a-0060	A.85	260.993375	261.226875		[silence]	[silence]
sw4129A-ms98-a-0060	A.85	261.226875	261.978500		premeditated	premeditated
sw4129A-ms98-a-0060	A.85	261.978500	262.468500		murder	murder
sw4129A-ms98-a-0060	A.87	262.468500	262.931000		[silence]	[silence]
sw4129A-ms98-a-0061	A.87	262.931000	263.555375		[silence]	[silence]
sw4129A-ms98-a-0061	A.87	263.555375	263.881000		Crimes	crimes
sw4129A-ms98-a-0061	A.87	263.881000	263.991000		of	of
sw4129A-ms98-a-0061	A.87	263.991000	264.201000		that	that
sw4129A-ms98-a-0061	A.87	264.201000	264.571000		nature	nature
sw4129A-ms98-a-0061	A.87	264.571000	264.621000		I	i
sw4129A-ms98-a-0061	A.87	264.621000	265.125625		think	think
sw4129A-ms98-a-0061	A.87	265.125625	265.660500		[silence]	[silence]
sw4129A-ms98-a-0061	A.87	265.660500	265.911000		should	should
sw4129A-ms98-a-0061	A.87	265.911000	266.511875		definitely	definitely
sw4129A-ms98-a-0061	A.87	266.511875	267.065500		[silence]	[silence]
sw4129A-ms98-a-0061	A.87	267.065500	267.271000		any	any
sw4129A-ms98-a-0061	A.87	267.271000	267.681000		mass	mass
sw4129A-ms98-a-0061	A.87	267.681000	268.101000		murderer	murderer
sw4129A-ms98-a-0061	A.87	268.101000	268.391000		type	type
sw4129A-ms98-a-0061	A.87	268.391000	268.998750		individual	individual
sw4129A-ms98-a-0061	A.89	268.998750	269.449625		[silence]	[silence]
sw4129A-ms98-a-0062	A.89	269.449625	276.799125		[silence]	[silence]
sw4129A-ms98-a-0063	A.89	276.799125	277.269125		[silence]	[silence]
sw4129A-ms98-a-0063	A.89	277.269125	277.490375	<SUB>	Um	hum
sw4129A-ms98-a-0063	A.91	277.490375	278.030875		[silence]	[silence]
sw4129A-ms98-a-0064	A.91	278.030875	280.061750		[silence]	[silence]
sw4129A-ms98-a-0065	A.91	280.061750	280.581750		[silence]	[silence]
sw4129A-ms98-a-0065	A.91	280.581750	280.936750	<SUB>	Uh-huh	um-hum
sw4129A-ms98-a-0065	A.91	280.936750	281.398250		[silence]	[silence]
sw4129A-ms98-a-0066	A.91	281.398250	283.584125		[silence]	[silence]
sw4129A-ms98-a-0067	A.91	283.584125	284.097250		[silence]	[silence]
sw4129A-ms98-a-0067	A.91	284.097250	284.204125		Well	well
sw4129A-ms98-a-0067	A.91	284.204125	284.314125		you	you
sw4129A-ms98-a-0067	A.91	284.314125	284.494125		always	always
sw4129A-ms98-a-0067	A.91	284.494125	284.654125		have	have
sw4129A-ms98-a-0067	A.91	284.654125	285.340375		castration	[laughter-castration]
sw4129A-ms98-a-0067	A.93	285.340375	285.825750		[silence]	[silence]
sw4129A-ms98-a-0068	A.93	285.825750	287.513625		[silence]	[silence]
sw4129A-ms98-a-0069	A.93	287.513625	287.966625		[silence]	[silence]
sw4129A-ms98-a-0069	A.93	287.966625	288.387000		Yes	yes
sw4129A-ms98-a-0069	A.93	288.387000	288.586750		[silence]	[silence]
sw4129A-ms98-a-0069	A.93	288.586750	288.693000		I	i
sw4129A-ms98-a-0069	A.93	288.693000	288.848000		read	read
sw4129A-ms98-a-0069	A.93	288.848000	289.103625		about	about
sw4129A-ms98-a-0069	A.93	289.103625	289.453625		that	that
sw4129A-ms98-a-0069	A.95	289.453625	289.619250		[silence]	[silence]
sw4129A-ms98-a-0070	A.95	289.619250	289.902000		[silence]	[silence]
sw4129A-ms98-a-0070	A.95	289.902000	290.499250		[laughter]	[laughter]
sw4129A-ms98-a-0070	A.95	290.499250	290.691500		[silence]	[silence]
sw4129A-ms98-a-0071	A.95	290.691500	293.672875		[silence]	[silence]
sw4129A-ms98-a-0072	A.95	293.672875	294.172250		[silence]	[silence]
sw4129A-ms98-a-0072	A.95	294.172250	294.516250	<SUB>	Uh-huh	um-hum
sw4129A-ms98-a-0072	A.95	294.516250	294.977375		[silence]	[silence]
sw4129A-ms98-a-0073	A.95	294.977375	298.850000		[silence]	[silence]
