sw4364A-ms98-a-0001	A.1	0.000000	0.000000		[silence]	[silence]
sw4364A-ms98-a-0001	A.1	0.000000	0.023250		[noise]	[noise]
sw4364A-ms98-a-0001	A.1	0.023250	0.471250		[silence]	[silence]
sw4364A-ms98-a-0001	A.1	0.471250	0.647000		So	so
sw4364A-ms98-a-0001	A.1	0.647000	0.690000		do	do
sw4364A-ms98-a-0001	A.1	0.690000	0.803000		you	you
sw4364A-ms98-a-0001	A.1	0.803000	0.979000		[silence]	[silence]
sw4364A-ms98-a-0001	A.1	0.979000	1.220000		your	your
sw4364A-ms98-a-0001	A.1	1.220000	1.800000		privacy	privacy
sw4364A-ms98-a-0001	A.1	1.800000	2.050000		being	being
sw4364A-ms98-a-0001	A.1	2.050000	2.560000		invaded	invaded
sw4364A-ms98-a-0001	A.1	2.560000	2.620000		at	at
sw4364A-ms98-a-0001	A.1	2.620000	2.793250		any	any
sw4364A-ms98-a-0001	A.1	2.793250	2.846250		[silence]	[silence]
sw4364A-ms98-a-0001	A.1	2.846250	3.158250		time	time
sw4364A-ms98-a-0001	A.3	3.158250	3.158250	<INS>	Well	---
sw4364A-ms98-a-0001	A.3	3.158250	3.158250	<INS>	yo-	---
sw4364A-ms98-a-0001	A.5	3.158250	3.665875		[silence]	[silence]
sw4364A-ms98-a-0002	A.5	3.665875	22.309625		[silence]	[silence]
sw4364A-ms98-a-0003	A.5	22.309625	22.873625		[silence]	[silence]
sw4364A-ms98-a-0003	A.5	22.873625	23.235125		[vocalized-noise]	[vocalized-noise]
sw4364A-ms98-a-0003	A.5	23.235125	23.735625		[silence]	[silence]
sw4364A-ms98-a-0004	A.5	23.735625	25.919500		[silence]	[silence]
sw4364A-ms98-a-0005	A.5	25.919500	26.439500		[silence]	[silence]
sw4364A-ms98-a-0005	A.5	26.439500	26.790125		Right	right
sw4364A-ms98-a-0005	A.7	26.790125	27.301250		[silence]	[silence]
sw4364A-ms98-a-0006	A.7	27.301250	53.069750		[silence]	[silence]
sw4364A-ms98-a-0007	A.7	53.069750	53.569750		[silence]	[silence]
sw4364A-ms98-a-0007	A.7	53.569750	53.840875	<SUB>	Yeah	yep
sw4364A-ms98-a-0007	A.7	53.840875	54.473375		[silence]	[silence]
sw4364A-ms98-a-0008	A.7	54.473375	55.013375		[silence]	[silence]
sw4364A-ms98-a-0008	A.7	55.013375	55.271250	<SUB>	Yeah	yep
sw4364A-ms98-a-0008	A.7	55.271250	55.393000		[silence]	[silence]
sw4364A-ms98-a-0008	A.7	55.393000	55.613375	<SUB>	Now	there's
sw4364A-ms98-a-0008	A.7	55.613375	55.643375	<SUB>	th-	a
sw4364A-ms98-a-0008	A.7	55.643375	55.843375	<DEL>	---	lot
sw4364A-ms98-a-0008	A.7	55.843375	56.133375		that	that
sw4364A-ms98-a-0008	A.7	56.133375	56.285000	<SUB>	y-	you
sw4364A-ms98-a-0008	A.7	56.285000	56.285000	<INS>	s-	---
sw4364A-ms98-a-0008	A.7	56.285000	56.433375		[silence]	[silence]
sw4364A-ms98-a-0008	A.7	56.433375	56.533375		you	you
sw4364A-ms98-a-0008	A.7	56.533375	56.803375		can	can
sw4364A-ms98-a-0008	A.7	56.803375	57.164750		still	still
sw4364A-ms98-a-0008	A.7	57.164750	57.383375		yeah	yeah
sw4364A-ms98-a-0008	A.7	57.383375	57.473375	<CONT>	I've	i
sw4364A-ms98-a-0008	A.7	57.473375	57.683375	<CONT>	+++	have
sw4364A-ms98-a-0008	A.7	57.683375	57.933375		always	always
sw4364A-ms98-a-0008	A.7	57.933375	58.123375		done	done
sw4364A-ms98-a-0008	A.7	58.123375	58.253375		that	that
sw4364A-ms98-a-0008	A.7	58.253375	58.458875		I	i
sw4364A-ms98-a-0008	A.7	58.458875	58.916250		started	started
sw4364A-ms98-a-0008	A.7	58.916250	58.993375		[silence]	[silence]
sw4364A-ms98-a-0008	A.7	58.993375	59.183375		once	once
sw4364A-ms98-a-0008	A.7	59.183375	59.263375		I	i
sw4364A-ms98-a-0008	A.7	59.263375	59.583375		found	found
sw4364A-ms98-a-0008	A.7	59.583375	59.783375		out	out
sw4364A-ms98-a-0008	A.7	59.783375	59.963375		that	that
sw4364A-ms98-a-0008	A.7	59.963375	60.283375		that's	that's
sw4364A-ms98-a-0008	A.7	60.283375	60.631500		really	really
sw4364A-ms98-a-0008	A.7	60.631500	61.171250		[silence]	[silence]
sw4364A-ms98-a-0009	A.7	61.171250	61.709875		[silence]	[silence]
sw4364A-ms98-a-0009	A.7	61.709875	61.981250		not	not
sw4364A-ms98-a-0009	A.7	61.981250	62.691250		necessary	necessary
sw4364A-ms98-a-0009	A.7	62.691250	62.751250		or	or
sw4364A-ms98-a-0009	A.7	62.751250	63.301250		legal	legal
sw4364A-ms98-a-0009	A.7	63.301250	63.581250		then	then
sw4364A-ms98-a-0009	A.7	63.581250	63.821250		I	i
sw4364A-ms98-a-0009	A.7	63.821250	64.051250		just	just
sw4364A-ms98-a-0009	A.7	64.051250	64.756750		refuse	refuse
sw4364A-ms98-a-0009	A.7	64.756750	64.828375		[silence]	[silence]
sw4364A-ms98-a-0009	A.7	64.828375	65.061250		and	and
sw4364A-ms98-a-0009	A.7	65.061250	65.166750		I	i
sw4364A-ms98-a-0009	A.7	65.166750	65.371250		say	say
sw4364A-ms98-a-0009	A.7	65.371250	65.541250		what	what
sw4364A-ms98-a-0009	A.7	65.541250	65.601250		are	are
sw4364A-ms98-a-0009	A.7	65.601250	65.661250		you	you
sw4364A-ms98-a-0009	A.7	65.661250	65.801250	<SUB>	going	gonna
sw4364A-ms98-a-0009	A.7	65.801250	65.801250	<INS>	to	---
sw4364A-ms98-a-0009	A.7	65.801250	66.101250		do	do
sw4364A-ms98-a-0009	A.7	66.101250	66.742375		[silence]	[silence]
sw4364A-ms98-a-0010	A.7	66.742375	67.231125		[silence]	[silence]
sw4364A-ms98-a-0010	A.7	67.231125	67.302375		You	you
sw4364A-ms98-a-0010	A.7	67.302375	67.478500	<SUB>	going	gonna
sw4364A-ms98-a-0010	A.7	67.478500	67.478500	<INS>	to	---
sw4364A-ms98-a-0010	A.7	67.478500	67.782375		say	say
sw4364A-ms98-a-0010	A.7	67.782375	67.882375		you	you
sw4364A-ms98-a-0010	A.7	67.882375	68.032375		don't	don't
sw4364A-ms98-a-0010	A.7	68.032375	68.182375	<SUB>	want	wanna
sw4364A-ms98-a-0010	A.7	68.182375	68.182375	<INS>	to	---
sw4364A-ms98-a-0010	A.7	68.182375	68.262375		[silence]	[silence]
sw4364A-ms98-a-0010	A.7	68.262375	68.442375		sell	sell
sw4364A-ms98-a-0010	A.7	68.442375	68.552375		me	me
sw4364A-ms98-a-0010	A.7	68.552375	68.722375		this	this
sw4364A-ms98-a-0010	A.7	68.722375	69.242375		product	product
sw4364A-ms98-a-0010	A.7	69.242375	69.422375		then	then
sw4364A-ms98-a-0010	A.9	69.422375	69.662375		that's	that's
sw4364A-ms98-a-0010	A.9	69.662375	70.002375		fine	fine
sw4364A-ms98-a-0010	A.9	70.002375	70.152375		I'll	i'll
sw4364A-ms98-a-0010	A.9	70.152375	70.586625		just	just
sw4364A-ms98-a-0010	A.9	70.586625	70.646875		[silence]	[silence]
sw4364A-ms98-a-0010	A.9	70.646875	70.832375		buy	buy
sw4364A-ms98-a-0010	A.9	70.832375	70.982375		it	it
sw4364A-ms98-a-0010	A.9	70.982375	71.282375		somewhere	somewhere
sw4364A-ms98-a-0010	A.9	71.282375	71.612375		else	else
sw4364A-ms98-a-0010	A.9	71.612375	71.772375		or	or
sw4364A-ms98-a-0010	A.9	71.772375	71.996625		not	not
sw4364A-ms98-a-0010	A.9	71.996625	72.060750		[silence]	[silence]
sw4364A-ms98-a-0010	A.9	72.060750	72.232375		buy	buy
sw4364A-ms98-a-0010	A.9	72.232375	72.352375		it	it
sw4364A-ms98-a-0010	A.9	72.352375	72.462375		at	at
sw4364A-ms98-a-0010	A.9	72.462375	72.723125		all	all
sw4364A-ms98-a-0010	A.9	72.723125	73.248875		[silence]	[silence]
sw4364A-ms98-a-0011	A.9	73.248875	73.759750		[silence]	[silence]
sw4364A-ms98-a-0011	A.9	73.759750	73.948875		And	and
sw4364A-ms98-a-0011	A.9	73.948875	74.208250		then	then
sw4364A-ms98-a-0011	A.9	74.208250	74.298875		[silence]	[silence]
sw4364A-ms98-a-0011	A.9	74.298875	74.888875		ultimately	ultimately
sw4364A-ms98-a-0011	A.9	74.888875	75.058875		they	they
sw4364A-ms98-a-0011	A.9	75.058875	75.559375		say	say
sw4364A-ms98-a-0011	A.9	75.559375	75.694875		[silence]	[silence]
sw4364A-ms98-a-0011	A.9	75.694875	75.908875		no	no
sw4364A-ms98-a-0011	A.9	75.908875	76.008875		you	you
sw4364A-ms98-a-0011	A.9	76.008875	76.148875		don't	don't
sw4364A-ms98-a-0011	A.9	76.148875	76.348875		have	have
sw4364A-ms98-a-0011	A.9	76.348875	76.458875		to	to
sw4364A-ms98-a-0011	A.9	76.458875	76.608875		put	put
sw4364A-ms98-a-0011	A.9	76.608875	76.728875		it	it
sw4364A-ms98-a-0011	A.9	76.728875	77.039125		down	down
sw4364A-ms98-a-0011	A.9	77.039125	77.592375		[laughter]	[laughter]
sw4364A-ms98-a-0011	A.9	77.592375	77.946750		[silence]	[silence]
sw4364A-ms98-a-0012	A.9	77.946750	78.112375		[silence]	[silence]
sw4364A-ms98-a-0012	A.9	78.112375	78.386750		But	but
sw4364A-ms98-a-0012	A.9	78.386750	78.716750		uh	uh
sw4364A-ms98-a-0012	A.9	78.716750	79.026750		really	really
sw4364A-ms98-a-0012	A.9	79.026750	79.266750		it's	it's
sw4364A-ms98-a-0012	A.9	79.266750	79.496750		part	part
sw4364A-ms98-a-0012	A.9	79.496750	79.606750		of	of
sw4364A-ms98-a-0012	A.9	79.606750	79.816750		this	this
sw4364A-ms98-a-0012	A.9	79.816750	80.516750		compliance	compliance
sw4364A-ms98-a-0012	A.9	80.516750	80.897625		thing	thing
sw4364A-ms98-a-0012	A.11	80.897625	81.476125		[silence]	[silence]
sw4364A-ms98-a-0013	A.11	81.476125	82.195750		[silence]	[silence]
sw4364A-ms98-a-0013	A.11	82.195750	82.526125		Uh	uh
sw4364A-ms98-a-0013	A.11	82.526125	82.636125		the	the
sw4364A-ms98-a-0013	A.11	82.636125	82.816125		thing	thing
sw4364A-ms98-a-0013	A.11	82.816125	82.996125		I	i
sw4364A-ms98-a-0013	A.11	82.996125	83.216125		don't	don't
sw4364A-ms98-a-0013	A.11	83.216125	83.576125		like	like
sw4364A-ms98-a-0013	A.11	83.576125	83.636125		I	i
sw4364A-ms98-a-0013	A.11	83.636125	83.826125		know	know
sw4364A-ms98-a-0013	A.11	83.826125	84.016125		that	that
sw4364A-ms98-a-0013	A.11	84.016125	84.376125		certain	certain
sw4364A-ms98-a-0013	A.11	84.376125	84.986125		states	states
sw4364A-ms98-a-0013	A.11	84.986125	85.534000		actually	actually
sw4364A-ms98-a-0013	A.11	85.534000	86.026125		sell	sell
sw4364A-ms98-a-0013	A.11	86.026125	86.386125		their	their
sw4364A-ms98-a-0013	A.11	86.386125	86.738375		uh	uh
sw4364A-ms98-a-0013	A.11	86.738375	86.843875		[silence]	[silence]
sw4364A-ms98-a-0013	A.11	86.843875	87.266125		their	their
sw4364A-ms98-a-0013	A.11	87.266125	87.786125		lists	lists
sw4364A-ms98-a-0013	A.11	87.786125	88.176125		like	like
sw4364A-ms98-a-0013	A.11	88.176125	88.466125		uh	uh
sw4364A-ms98-a-0013	A.11	88.466125	88.776125		motor	motor
sw4364A-ms98-a-0013	A.11	88.776125	89.506125		vehicles	vehicles
sw4364A-ms98-a-0013	A.13	89.506125	89.556375		[silence]	[silence]
sw4364A-ms98-a-0014	A.13	89.556375	90.572250		[silence]	[silence]
sw4364A-ms98-a-0015	A.13	90.572250	90.822125		[silence]	[silence]
sw4364A-ms98-a-0015	A.13	90.822125	91.062250		That	that
sw4364A-ms98-a-0015	A.13	91.062250	91.362250		really	really
sw4364A-ms98-a-0015	A.13	91.362250	91.712250		burns	burns
sw4364A-ms98-a-0015	A.13	91.712250	91.932250		me	me
sw4364A-ms98-a-0015	A.13	91.932250	92.724375		because	because
sw4364A-ms98-a-0015	A.13	92.724375	93.107000		[silence]	[silence]
sw4364A-ms98-a-0016	A.13	93.107000	93.527000		[silence]	[silence]
sw4364A-ms98-a-0016	A.13	93.527000	93.717000		hey	hey
sw4364A-ms98-a-0016	A.13	93.717000	94.077000		you're	you're
sw4364A-ms98-a-0016	A.13	94.077000	94.877000		required	required
sw4364A-ms98-a-0016	A.13	94.877000	95.037000		You	you
sw4364A-ms98-a-0016	A.13	95.037000	95.277000		have	have
sw4364A-ms98-a-0016	A.13	95.277000	95.407000		to	to
sw4364A-ms98-a-0016	A.13	95.407000	95.597000		do	do
sw4364A-ms98-a-0016	A.13	95.597000	96.099125		that	that
sw4364A-ms98-a-0016	A.15	96.099125	96.544875		[silence]	[silence]
sw4364A-ms98-a-0017	A.15	96.544875	97.079250		[silence]	[silence]
sw4364A-ms98-a-0017	A.15	97.079250	97.723250		And	and
sw4364A-ms98-a-0017	A.15	97.723250	98.257000		[silence]	[silence]
sw4364A-ms98-a-0018	A.15	98.257000	98.759375		[silence]	[silence]
sw4364A-ms98-a-0018	A.15	98.759375	99.327000		nowhere	nowhere
sw4364A-ms98-a-0018	A.15	99.327000	99.507000		does	does
sw4364A-ms98-a-0018	A.15	99.507000	99.705500		it	it
sw4364A-ms98-a-0018	A.15	99.705500	99.957000		say	say
sw4364A-ms98-a-0018	A.15	99.957000	100.127000		you	you
sw4364A-ms98-a-0018	A.15	100.127000	100.306250	<SUB>	h-	ha[ve]-
sw4364A-ms98-a-0018	A.15	100.306250	100.359000		[silence]	[silence]
sw4364A-ms98-a-0018	A.15	100.359000	100.697000		asks	asks
sw4364A-ms98-a-0018	A.15	100.697000	100.807000		you	you
sw4364A-ms98-a-0018	A.15	100.807000	101.017000		whether	whether
sw4364A-ms98-a-0018	A.15	101.017000	101.147000		you	you
sw4364A-ms98-a-0018	A.15	101.147000	101.297000		have	have
sw4364A-ms98-a-0018	A.15	101.297000	101.737000		permission	permission
sw4364A-ms98-a-0018	A.15	101.737000	101.887000		or	or
sw4364A-ms98-a-0018	A.15	101.887000	102.197000		not	not
sw4364A-ms98-a-0018	A.15	102.197000	102.837000		[silence]	[silence]
sw4364A-ms98-a-0018	A.15	102.837000	103.012875		to	to
sw4364A-ms98-a-0018	A.15	103.012875	103.387000		sell	sell
sw4364A-ms98-a-0018	A.15	103.387000	103.587000		your	your
sw4364A-ms98-a-0018	A.15	103.587000	103.997000		name	name
sw4364A-ms98-a-0018	A.15	103.997000	104.397000		or	or
sw4364A-ms98-a-0018	A.15	104.397000	105.152250		information	information
sw4364A-ms98-a-0018	A.15	105.152250	105.337000		[silence]	[silence]
sw4364A-ms98-a-0018	A.15	105.337000	105.847000		regarding	regarding
sw4364A-ms98-a-0018	A.15	105.847000	106.087000		that	that
sw4364A-ms98-a-0018	A.15	106.087000	106.137000		[silence]	[silence]
sw4364A-ms98-a-0018	A.15	106.137000	106.637000		to	to
sw4364A-ms98-a-0018	A.15	106.637000	107.184625		anyone	anyone
sw4364A-ms98-a-0018	A.17	107.184625	107.558375		[silence]	[silence]
sw4364A-ms98-a-0019	A.17	107.558375	107.963500		[silence]	[silence]
sw4364A-ms98-a-0019	A.17	107.963500	108.224250		And	and
sw4364A-ms98-a-0019	A.17	108.224250	108.425750		I	i
sw4364A-ms98-a-0019	A.17	108.425750	108.678375		think	think
sw4364A-ms98-a-0019	A.17	108.678375	109.120000	<SUB>	that	that's
sw4364A-ms98-a-0019	A.17	109.120000	109.304500		[silence]	[silence]
sw4364A-ms98-a-0019	A.17	109.304500	109.538375		it	it
sw4364A-ms98-a-0019	A.17	109.538375	109.778375		it's	it's
sw4364A-ms98-a-0019	A.17	109.778375	110.088375		one	one
sw4364A-ms98-a-0019	A.17	110.088375	110.424750		thing	thing
sw4364A-ms98-a-0019	A.17	110.424750	110.424750	<INS>	f-	---
sw4364A-ms98-a-0019	A.17	110.424750	110.424750	<INS>	to	---
sw4364A-ms98-a-0019	A.17	110.424750	110.424750	<INS>	uh	---
sw4364A-ms98-a-0019	A.17	110.424750	110.537750		[silence]	[silence]
sw4364A-ms98-a-0019	A.17	110.537750	111.545375		[vocalized-noise]	[vocalized-noise]
sw4364A-ms98-a-0019	A.17	111.545375	112.318625		voluntarily	voluntarily
sw4364A-ms98-a-0019	A.17	112.318625	112.548375		give	give
sw4364A-ms98-a-0019	A.17	112.548375	112.718375		it	it
sw4364A-ms98-a-0019	A.17	112.718375	112.978375		because	because
sw4364A-ms98-a-0019	A.17	112.978375	113.218375		someone	someone
sw4364A-ms98-a-0019	A.17	113.218375	113.538375		asks	asks
sw4364A-ms98-a-0019	A.17	113.538375	113.608375		You	you
sw4364A-ms98-a-0019	A.17	113.608375	113.738375		can	can
sw4364A-ms98-a-0019	A.17	113.738375	113.988375		always	always
sw4364A-ms98-a-0019	A.17	113.988375	114.498375		refuse	refuse
sw4364A-ms98-a-0019	A.17	114.498375	114.698375		but	but
sw4364A-ms98-a-0019	A.17	114.698375	114.818375		it's	it's
sw4364A-ms98-a-0019	A.17	114.818375	115.128375		another	another
sw4364A-ms98-a-0019	A.17	115.128375	115.468375		thing	thing
sw4364A-ms98-a-0019	A.17	115.468375	115.759250		where	where
sw4364A-ms98-a-0019	A.17	115.759250	116.226250		[silence]	[silence]
sw4364A-ms98-a-0019	A.17	116.226250	116.498375		it's	it's
sw4364A-ms98-a-0019	A.17	116.498375	117.028375		required	required
sw4364A-ms98-a-0019	A.17	117.028375	117.218375		by	by
sw4364A-ms98-a-0019	A.17	117.218375	117.598375		law	law
sw4364A-ms98-a-0019	A.17	117.598375	117.698375		and	and
sw4364A-ms98-a-0019	A.17	117.698375	117.808375		then	then
sw4364A-ms98-a-0019	A.17	117.808375	117.938375		they	they
sw4364A-ms98-a-0019	A.17	117.938375	118.058375		go	go
sw4364A-ms98-a-0019	A.17	118.058375	118.368375		ahead	ahead
sw4364A-ms98-a-0019	A.17	118.368375	118.468375		and	and
sw4364A-ms98-a-0019	A.17	118.468375	118.698375		take	take
sw4364A-ms98-a-0019	A.17	118.698375	118.868375		that	that
sw4364A-ms98-a-0019	A.17	118.868375	119.388375		information	information
sw4364A-ms98-a-0019	A.17	119.388375	119.521125		and	and
sw4364A-ms98-a-0019	A.17	119.521125	119.748375		sell	sell
sw4364A-ms98-a-0019	A.17	119.748375	119.828375		it	it
sw4364A-ms98-a-0019	A.17	119.828375	119.918375		to	to
sw4364A-ms98-a-0019	A.17	119.918375	120.343375		somebody	somebody
sw4364A-ms98-a-0019	A.19	120.343375	120.582750		[silence]	[silence]
sw4364A-ms98-a-0020	A.19	120.582750	121.600000		[silence]	[silence]
sw4364A-ms98-a-0021	A.19	121.600000	121.953875		[silence]	[silence]
sw4364A-ms98-a-0021	A.19	121.953875	122.030000		You	you
sw4364A-ms98-a-0021	A.19	122.030000	122.110000		know	know
sw4364A-ms98-a-0021	A.19	122.110000	122.140000		I	i
sw4364A-ms98-a-0021	A.19	122.140000	122.280000		don't	don't
sw4364A-ms98-a-0021	A.19	122.280000	122.433625		think	think
sw4364A-ms98-a-0021	A.19	122.433625	122.731125		[silence]	[silence]
sw4364A-ms98-a-0021	A.19	122.731125	122.790000		I	i
sw4364A-ms98-a-0021	A.19	122.790000	122.940000		don't	don't
sw4364A-ms98-a-0021	A.19	122.940000	123.060000		think	think
sw4364A-ms98-a-0021	A.19	123.060000	123.130000		they	they
sw4364A-ms98-a-0021	A.19	123.130000	123.250000		have	have
sw4364A-ms98-a-0021	A.19	123.250000	123.320000		the	the
sw4364A-ms98-a-0021	A.19	123.320000	123.520000		right	right
sw4364A-ms98-a-0021	A.19	123.520000	123.600000		to	to
sw4364A-ms98-a-0021	A.19	123.600000	123.740000		do	do
sw4364A-ms98-a-0021	A.19	123.740000	124.056625		that	that
sw4364A-ms98-a-0021	A.25	124.056625	124.996125		[silence]	[silence]
sw4364A-ms98-a-0022	A.25	124.996125	181.563000		[silence]	[silence]
sw4364A-ms98-a-0023	A.25	181.563000	181.993000		[silence]	[silence]
sw4364A-ms98-a-0023	A.25	181.993000	182.163000		Well	well
sw4364A-ms98-a-0023	A.25	182.163000	182.433000		that's	that's
sw4364A-ms98-a-0023	A.25	182.433000	182.823000		easy	easy
sw4364A-ms98-a-0023	A.25	182.823000	183.193000		Whenever	whenever
sw4364A-ms98-a-0023	A.25	183.193000	183.481375		you	you
sw4364A-ms98-a-0023	A.25	183.481375	183.560375		[silence]	[silence]
sw4364A-ms98-a-0023	A.25	183.560375	183.973000		donate	donate
sw4364A-ms98-a-0023	A.25	183.973000	184.293000		money	money
sw4364A-ms98-a-0023	A.25	184.293000	184.423000		to	to
sw4364A-ms98-a-0023	A.25	184.423000	184.973250		someone	someone
sw4364A-ms98-a-0023	A.27	184.973250	185.333125		[silence]	[silence]
sw4364A-ms98-a-0024	A.27	185.333125	185.763000		[silence]	[silence]
sw4364A-ms98-a-0024	A.27	185.763000	185.923125		They	they
sw4364A-ms98-a-0024	A.27	185.923125	186.373125		you	you
sw4364A-ms98-a-0024	A.27	186.373125	187.017500		become	become
sw4364A-ms98-a-0024	A.27	187.017500	187.353125		[laughter]	[laughter]
sw4364A-ms98-a-0024	A.27	187.353125	187.613125		put	put
sw4364A-ms98-a-0024	A.27	187.613125	187.763125		on	on
sw4364A-ms98-a-0024	A.27	187.763125	188.233125		something	something
sw4364A-ms98-a-0024	A.27	188.233125	188.443125		like	like
sw4364A-ms98-a-0024	A.27	188.443125	188.599000		a	a
sw4364A-ms98-a-0024	A.27	188.599000	188.963125		sucker	sucker
sw4364A-ms98-a-0024	A.27	188.963125	189.293125		list	list
sw4364A-ms98-a-0024	A.27	189.293125	189.413125		and	and
sw4364A-ms98-a-0024	A.27	189.413125	189.513125		you	you
sw4364A-ms98-a-0024	A.27	189.513125	189.783125		start	start
sw4364A-ms98-a-0024	A.27	189.783125	190.073125		getting	getting
sw4364A-ms98-a-0024	A.27	190.073125	190.493125		millions	millions
sw4364A-ms98-a-0024	A.27	190.493125	190.624000		of	of
sw4364A-ms98-a-0024	A.27	190.624000	190.694000		[silence]	[silence]
sw4364A-ms98-a-0024	A.27	190.694000	191.183125		calls	calls
sw4364A-ms98-a-0024	A.27	191.183125	191.312375		or	or
sw4364A-ms98-a-0024	A.29	191.312375	191.589125		[silence]	[silence]
sw4364A-ms98-a-0025	A.29	191.589125	191.975625		[silence]	[silence]
sw4364A-ms98-a-0025	A.29	191.975625	193.052625		solicitations	solicitations
sw4364A-ms98-a-0025	A.29	193.052625	193.535750		[silence]	[silence]
sw4364A-ms98-a-0025	A.29	193.535750	193.629625		And	and
sw4364A-ms98-a-0025	A.29	193.629625	193.767375		then	then
sw4364A-ms98-a-0025	A.29	193.767375	193.874875		you	you
sw4364A-ms98-a-0025	A.29	193.874875	194.058250	<SUB>	s-	st[art]-
sw4364A-ms98-a-0025	A.29	194.058250	194.058250	<INS>	y-	---
sw4364A-ms98-a-0025	A.29	194.058250	194.058250	<INS>	y-	---
sw4364A-ms98-a-0025	A.29	194.058250	194.909125		[vocalized-noise]	[vocalized-noise]
sw4364A-ms98-a-0025	A.29	194.909125	195.089125		it	it
sw4364A-ms98-a-0025	A.29	195.089125	195.139125		[silence]	[silence]
sw4364A-ms98-a-0025	A.29	195.139125	195.339125		kind	kind
sw4364A-ms98-a-0025	A.29	195.339125	195.419125		of	of
sw4364A-ms98-a-0025	A.29	195.419125	195.829125		makes	makes
sw4364A-ms98-a-0025	A.29	195.829125	195.969125		you	you
sw4364A-ms98-a-0025	A.29	195.969125	196.249125		feel	feel
sw4364A-ms98-a-0025	A.29	196.249125	196.659125	<DEL>	---	deeded
sw4364A-ms98-a-0025	A.29	196.659125	197.079125		from	from
sw4364A-ms98-a-0025	A.29	197.079125	197.319125		doing	doing
sw4364A-ms98-a-0025	A.29	197.319125	197.449125		it	it
sw4364A-ms98-a-0025	A.29	197.449125	197.959125		again	again
sw4364A-ms98-a-0025	A.31	197.959125	198.039125		[silence]	[silence]
sw4364A-ms98-a-0025	A.31	198.039125	198.329125		Like	like
sw4364A-ms98-a-0025	A.31	198.329125	198.479125		uh	uh
sw4364A-ms98-a-0025	A.31	198.479125	198.929125		National	National
sw4364A-ms98-a-0025	A.31	198.929125	199.239125		Public	Public
sw4364A-ms98-a-0025	A.31	199.239125	199.899125		Radio	Radio
sw4364A-ms98-a-0025	A.31	199.899125	200.179125		or	or
sw4364A-ms98-a-0025	A.31	200.179125	200.580750		[silence]	[silence]
sw4364A-ms98-a-0026	A.31	200.580750	200.946500		[silence]	[silence]
sw4364A-ms98-a-0026	A.31	200.946500	201.130750		any	any
sw4364A-ms98-a-0026	A.31	201.130750	201.190750		of	of
sw4364A-ms98-a-0026	A.31	201.190750	201.424250		these	these
sw4364A-ms98-a-0026	A.31	201.424250	201.531125		[silence]	[silence]
sw4364A-ms98-a-0026	A.31	201.531125	201.631000		the	the
sw4364A-ms98-a-0026	A.31	201.631000	202.061000		public	public
sw4364A-ms98-a-0026	A.31	202.061000	202.223000		[silence]	[silence]
sw4364A-ms98-a-0026	A.31	202.223000	202.530750		uh	uh
sw4364A-ms98-a-0026	A.31	202.530750	203.210750		stations	stations
sw4364A-ms98-a-0026	A.31	203.210750	203.320750		you	you
sw4364A-ms98-a-0026	A.31	203.320750	203.570750		know	know
sw4364A-ms98-a-0026	A.33	203.570750	203.716250	<SUB>	I	i-
sw4364A-ms98-a-0026	A.33	203.716250	203.791500		[silence]	[silence]
sw4364A-ms98-a-0026	A.33	203.791500	203.900750	<SUB>	I	i-
sw4364A-ms98-a-0026	A.33	203.900750	204.080750		[silence]	[silence]
sw4364A-ms98-a-0026	A.33	204.080750	204.389250	<SUB>	I	i-
sw4364A-ms98-a-0026	A.33	204.389250	204.788500		[silence]	[silence]
sw4364A-ms98-a-0026	A.33	204.788500	204.900750		I	i
sw4364A-ms98-a-0026	A.33	204.900750	205.140750		think	think
sw4364A-ms98-a-0026	A.33	205.140750	205.404750		I	i
sw4364A-ms98-a-0026	A.33	205.404750	205.532875		[silence]	[silence]
sw4364A-ms98-a-0026	A.33	205.532875	205.870750		sent	sent
sw4364A-ms98-a-0026	A.33	205.870750	206.020750		in	in
sw4364A-ms98-a-0026	A.33	206.020750	206.206250		in	in
sw4364A-ms98-a-0026	A.33	206.206250	206.334250		[silence]	[silence]
sw4364A-ms98-a-0026	A.33	206.334250	206.720750		money	money
sw4364A-ms98-a-0026	A.33	206.720750	207.050750		for	for
sw4364A-ms98-a-0026	A.33	207.050750	207.050750	<INS>	f-	---
sw4364A-ms98-a-0026	A.33	207.050750	207.589375		[silence]	[silence]
sw4364A-ms98-a-0027	A.33	207.589375	208.158000		[silence]	[silence]
sw4364A-ms98-a-0027	A.33	208.158000	208.927250		once	once
sw4364A-ms98-a-0027	A.33	208.927250	209.325500		[silence]	[silence]
sw4364A-ms98-a-0028	A.33	209.325500	209.770250		[silence]	[silence]
sw4364A-ms98-a-0028	A.33	209.770250	210.105500		to	to
sw4364A-ms98-a-0028	A.33	210.105500	210.631875		uh	uh
sw4364A-ms98-a-0028	A.33	210.631875	210.854125		[silence]	[silence]
sw4364A-ms98-a-0028	A.33	210.854125	211.085500		to	to
sw4364A-ms98-a-0028	A.33	211.085500	211.595500		public	public
sw4364A-ms98-a-0028	A.33	211.595500	212.020750		uh	uh
sw4364A-ms98-a-0028	A.33	212.020750	212.227875		[silence]	[silence]
sw4364A-ms98-a-0028	A.33	212.227875	212.845875	<CONT>	T	TV
sw4364A-ms98-a-0028	A.33	212.845875	212.845875	<CONT>	V	+++
sw4364A-ms98-a-0028	A.35	212.845875	213.534375		[silence]	[silence]
sw4364A-ms98-a-0029	A.35	213.534375	214.108125		[silence]	[silence]
sw4364A-ms98-a-0029	A.35	214.108125	214.624375		And	and
sw4364A-ms98-a-0029	A.35	214.624375	214.844375		I	i
sw4364A-ms98-a-0029	A.35	214.844375	215.414375		started	started
sw4364A-ms98-a-0029	A.35	215.414375	215.704375		getting	getting
sw4364A-ms98-a-0029	A.35	215.704375	216.214375		calls	calls
sw4364A-ms98-a-0029	A.35	216.214375	216.374375		from	from
sw4364A-ms98-a-0029	A.35	216.374375	216.564375		all	all
sw4364A-ms98-a-0029	A.35	216.564375	216.974375		sorts	sorts
sw4364A-ms98-a-0029	A.35	216.974375	217.214375		of	of
sw4364A-ms98-a-0029	A.35	217.214375	218.134375		diseases	diseases
sw4364A-ms98-a-0029	A.35	218.134375	218.497750		and	and
sw4364A-ms98-a-0029	A.35	218.497750	218.623875		[silence]	[silence]
sw4364A-ms98-a-0029	A.35	218.623875	219.734375		syndromes	syndromes
sw4364A-ms98-a-0029	A.35	219.734375	220.124375		and	and
sw4364A-ms98-a-0029	A.37	220.124375	220.346625		[silence]	[silence]
sw4364A-ms98-a-0029	A.37	220.346625	220.844375		everything	everything
sw4364A-ms98-a-0029	A.37	220.844375	220.924375		you	you
sw4364A-ms98-a-0029	A.37	220.924375	221.054375		could	could
sw4364A-ms98-a-0029	A.37	221.054375	221.584375		imagine	imagine
sw4364A-ms98-a-0029	A.37	221.584375	221.644375		I	i
sw4364A-ms98-a-0029	A.37	221.644375	221.834375		it's	it's
sw4364A-ms98-a-0029	A.37	221.834375	222.035625		like	like
sw4364A-ms98-a-0029	A.37	222.035625	222.263375		[silence]	[silence]
sw4364A-ms98-a-0030	A.37	222.263375	222.563125		[silence]	[silence]
sw4364A-ms98-a-0030	A.37	222.563125	222.663375		and	and
sw4364A-ms98-a-0030	A.37	222.663375	222.773375		it	it
sw4364A-ms98-a-0030	A.37	222.773375	223.023375		just	just
sw4364A-ms98-a-0030	A.37	223.023375	223.531875		started	started
sw4364A-ms98-a-0030	A.37	223.531875	223.840750		[silence]	[silence]
sw4364A-ms98-a-0030	A.37	223.840750	224.263375		soon	soon
sw4364A-ms98-a-0030	A.37	224.263375	224.613375		after	after
sw4364A-ms98-a-0030	A.37	224.613375	224.703375		I	i
sw4364A-ms98-a-0030	A.37	224.703375	224.923375		had	had
sw4364A-ms98-a-0030	A.37	224.923375	225.203375		done	done
sw4364A-ms98-a-0030	A.37	225.203375	225.443375		that	that
sw4364A-ms98-a-0030	A.37	225.443375	226.083375	<SUB>	one	once
sw4364A-ms98-a-0030	A.39	226.083375	226.232250		And	and
sw4364A-ms98-a-0030	A.39	226.232250	226.403375		I	i
sw4364A-ms98-a-0030	A.39	226.403375	226.633375		just	just
sw4364A-ms98-a-0030	A.39	226.633375	226.850125		said	said
sw4364A-ms98-a-0030	A.39	226.850125	226.917875		[silence]	[silence]
sw4364A-ms98-a-0030	A.39	226.917875	227.103375		this	this
sw4364A-ms98-a-0030	A.39	227.103375	227.371375		is	is
sw4364A-ms98-a-0030	A.39	227.371375	227.461750		[silence]	[silence]
sw4364A-ms98-a-0030	A.39	227.461750	227.563375		this	this
sw4364A-ms98-a-0030	A.39	227.563375	227.673375		is	is
sw4364A-ms98-a-0030	A.39	227.673375	228.265875		terrible	terrible
sw4364A-ms98-a-0030	A.39	228.265875	228.666375		[silence]	[silence]
sw4364A-ms98-a-0031	A.39	228.666375	229.126375		[silence]	[silence]
sw4364A-ms98-a-0031	A.39	229.126375	229.547875	<SUB>	Uh	um
sw4364A-ms98-a-0031	A.39	229.547875	230.166375		and	and
sw4364A-ms98-a-0031	A.39	230.166375	230.466375		that's	that's
sw4364A-ms98-a-0031	A.39	230.466375	230.796375		also	also
sw4364A-ms98-a-0031	A.39	230.796375	231.336375		happened	happened
sw4364A-ms98-a-0031	A.39	231.336375	231.466375		to	to
sw4364A-ms98-a-0031	A.39	231.466375	231.676375		me	me
sw4364A-ms98-a-0031	A.39	231.676375	232.218000		where	where
sw4364A-ms98-a-0031	A.39	232.218000	232.346375	<DEL>	---	as
sw4364A-ms98-a-0031	A.39	232.346375	232.605625		I've	i've
sw4364A-ms98-a-0031	A.39	232.605625	232.696000		[silence]	[silence]
sw4364A-ms98-a-0031	A.39	232.696000	232.936375		given	given
sw4364A-ms98-a-0031	A.39	232.936375	233.226625		money	money
sw4364A-ms98-a-0031	A.39	233.226625	233.305625		[silence]	[silence]
sw4364A-ms98-a-0031	A.39	233.305625	233.636375		to	to
sw4364A-ms98-a-0031	A.39	233.636375	233.866375		my	my
sw4364A-ms98-a-0031	A.39	233.866375	234.106375		old	old
sw4364A-ms98-a-0031	A.39	234.106375	234.426375		Alma	Alma
sw4364A-ms98-a-0031	A.39	234.426375	234.706375		Mater	Mater
sw4364A-ms98-a-0031	A.39	234.706375	234.826375		in	in
sw4364A-ms98-a-0031	A.39	234.826375	235.497125		college	college
sw4364A-ms98-a-0031	A.41	235.497125	235.874625		[silence]	[silence]
sw4364A-ms98-a-0032	A.41	235.874625	236.364625		[silence]	[silence]
sw4364A-ms98-a-0032	A.41	236.364625	237.064625		And	and
sw4364A-ms98-a-0032	A.41	237.064625	237.264625		uh	uh
sw4364A-ms98-a-0032	A.41	237.264625	237.454625		it's	it's
sw4364A-ms98-a-0032	A.41	237.454625	237.704625		one	one
sw4364A-ms98-a-0032	A.41	237.704625	237.991250		thing	thing
sw4364A-ms98-a-0032	A.41	237.991250	238.047750		[silence]	[silence]
sw4364A-ms98-a-0032	A.41	238.047750	238.214625		they	they
sw4364A-ms98-a-0032	A.41	238.214625	238.484625		don't	don't
sw4364A-ms98-a-0032	A.41	238.484625	238.824625		sell	sell
sw4364A-ms98-a-0032	A.41	238.824625	238.924625		the	the
sw4364A-ms98-a-0032	A.41	238.924625	239.304625		list	list
sw4364A-ms98-a-0032	A.41	239.304625	239.414625		But	but
sw4364A-ms98-a-0032	A.41	239.414625	239.474625		the	the
sw4364A-ms98-a-0032	A.41	239.474625	239.664625		thing	thing
sw4364A-ms98-a-0032	A.41	239.664625	239.804625		that	that
sw4364A-ms98-a-0032	A.41	239.804625	240.114625		makes	makes
sw4364A-ms98-a-0032	A.41	240.114625	240.174625		me	me
sw4364A-ms98-a-0032	A.41	240.174625	240.534625		mad	mad
sw4364A-ms98-a-0032	A.41	240.534625	240.759875		is	is
sw4364A-ms98-a-0032	A.41	240.759875	240.934625		[silence]	[silence]
sw4364A-ms98-a-0032	A.41	240.934625	241.360250		uh	uh
sw4364A-ms98-a-0032	A.41	241.360250	242.010625		[silence]	[silence]
sw4364A-ms98-a-0033	A.41	242.010625	242.435500		[silence]	[silence]
sw4364A-ms98-a-0033	A.41	242.435500	242.570625		then	then
sw4364A-ms98-a-0033	A.41	242.570625	242.660625		they	they
sw4364A-ms98-a-0033	A.41	242.660625	243.000625		start	start
sw4364A-ms98-a-0033	A.41	243.000625	243.530625		getting	getting
sw4364A-ms98-a-0033	A.41	243.530625	243.890625		uh	uh
sw4364A-ms98-a-0033	A.41	243.890625	243.940625		[silence]	[silence]
sw4364A-ms98-a-0033	A.41	243.940625	244.180625		other	other
sw4364A-ms98-a-0033	A.41	244.180625	244.630625		people	people
sw4364A-ms98-a-0033	A.41	244.630625	244.758750	<SUB>	th-	to
sw4364A-ms98-a-0033	A.41	244.758750	244.845375		[silence]	[silence]
sw4364A-ms98-a-0033	A.41	244.845375	245.010625		the	the
sw4364A-ms98-a-0033	A.41	245.010625	245.420625		people	people
sw4364A-ms98-a-0033	A.41	245.420625	245.560625		do	do
sw4364A-ms98-a-0033	A.41	245.560625	245.770625		these	these
sw4364A-ms98-a-0033	A.41	245.770625	246.670625		phonathons	{phonathons}
sw4364A-ms98-a-0033	A.43	246.670625	246.760625		and	and
sw4364A-ms98-a-0033	A.43	246.760625	246.840625		they	they
sw4364A-ms98-a-0033	A.43	246.840625	247.200625		call	call
sw4364A-ms98-a-0033	A.43	247.200625	247.360625		you	you
sw4364A-ms98-a-0033	A.43	247.360625	247.584000		up	up
sw4364A-ms98-a-0033	A.43	247.584000	247.906875		[silence]	[silence]
sw4364A-ms98-a-0034	A.43	247.906875	248.247000		[silence]	[silence]
sw4364A-ms98-a-0034	A.43	248.247000	248.766875		and	and
sw4364A-ms98-a-0034	A.43	248.766875	248.946875		they	they
sw4364A-ms98-a-0034	A.43	248.946875	249.476875		actually	actually
sw4364A-ms98-a-0034	A.43	249.476875	249.766875		happen	happen
sw4364A-ms98-a-0034	A.43	249.766875	249.856875		to	to
sw4364A-ms98-a-0034	A.43	249.856875	250.186875		be	be
sw4364A-ms98-a-0034	A.43	250.186875	250.756875		people	people
sw4364A-ms98-a-0034	A.43	250.756875	250.936875		who	who
sw4364A-ms98-a-0034	A.43	250.936875	251.249000		are	are
sw4364A-ms98-a-0034	A.43	251.249000	251.305500		[silence]	[silence]
sw4364A-ms98-a-0034	A.43	251.305500	251.766875		graduated	graduated
sw4364A-ms98-a-0034	A.43	251.766875	251.826875		in	in
sw4364A-ms98-a-0034	A.43	251.826875	251.926875		your	your
sw4364A-ms98-a-0034	A.43	251.926875	252.396875		class	class
sw4364A-ms98-a-0034	A.43	252.396875	252.466875		or	or
sw4364A-ms98-a-0034	A.43	252.466875	252.916875		something	something
sw4364A-ms98-a-0034	A.43	252.916875	253.078625		like	like
sw4364A-ms98-a-0034	A.43	253.078625	253.157750		[silence]	[silence]
sw4364A-ms98-a-0034	A.43	253.157750	253.413500		that	that
sw4364A-ms98-a-0034	A.43	253.413500	254.083875		[silence]	[silence]
sw4364A-ms98-a-0034	A.43	254.083875	254.246875		And	and
sw4364A-ms98-a-0034	A.43	254.246875	254.246875	<INS>	and	---
sw4364A-ms98-a-0034	A.43	254.246875	254.416875		they	they
sw4364A-ms98-a-0034	A.43	254.416875	254.736875		say	say
sw4364A-ms98-a-0034	A.43	254.736875	254.956875		oh	oh
sw4364A-ms98-a-0034	A.43	254.956875	255.245000		we	we
sw4364A-ms98-a-0034	A.43	255.245000	255.305250		[silence]	[silence]
sw4364A-ms98-a-0034	A.43	255.305250	255.485625		we	we
sw4364A-ms98-a-0034	A.43	255.485625	255.836875		know	know
sw4364A-ms98-a-0034	A.43	255.836875	256.326000		you	you
sw4364A-ms98-a-0034	A.43	256.326000	256.717750		You	you
sw4364A-ms98-a-0034	A.43	256.717750	257.266875		uh	uh
sw4364A-ms98-a-0034	A.43	257.266875	257.766875		had	had
sw4364A-ms98-a-0034	A.43	257.766875	257.866875		uh	uh
sw4364A-ms98-a-0034	A.43	257.866875	258.566875		contributed	contributed
sw4364A-ms98-a-0034	A.43	258.566875	258.766875		x	X
sw4364A-ms98-a-0034	A.43	258.766875	259.166875		amount	amount
sw4364A-ms98-a-0034	A.43	259.166875	259.526875		last	last
sw4364A-ms98-a-0034	A.43	259.526875	259.776875		year	year
sw4364A-ms98-a-0034	A.43	259.776875	259.946875		Can	can
sw4364A-ms98-a-0034	A.43	259.946875	260.046875		you	you
sw4364A-ms98-a-0034	A.43	260.046875	260.226875		do	do
sw4364A-ms98-a-0034	A.43	260.226875	260.586875		better	better
sw4364A-ms98-a-0034	A.43	260.586875	260.916875		this	this
sw4364A-ms98-a-0034	A.43	260.916875	261.267375		year	year
sw4364A-ms98-a-0034	A.43	261.267375	261.615125		[silence]	[silence]
sw4364A-ms98-a-0035	A.43	261.615125	261.945000		[silence]	[silence]
sw4364A-ms98-a-0035	A.43	261.945000	262.155125		And	and
sw4364A-ms98-a-0035	A.43	262.155125	262.225125		you	you
sw4364A-ms98-a-0035	A.43	262.225125	262.305125		know	know
sw4364A-ms98-a-0035	A.43	262.305125	262.601375		like	like
sw4364A-ms98-a-0035	A.43	262.601375	262.902750		[silence]	[silence]
sw4364A-ms98-a-0035	A.43	262.902750	263.190875		hold	hold
sw4364A-ms98-a-0035	A.43	263.190875	263.435125		on	on
sw4364A-ms98-a-0035	A.43	263.435125	263.725125		here	here
sw4364A-ms98-a-0035	A.45	263.725125	263.909625		[silence]	[silence]
sw4364A-ms98-a-0035	A.45	263.909625	264.159625		Who	who
sw4364A-ms98-a-0035	A.45	264.159625	264.649250		[silence]	[silence]
sw4364A-ms98-a-0035	A.45	264.649250	264.805125		how	how
sw4364A-ms98-a-0035	A.45	264.805125	264.885125		do	do
sw4364A-ms98-a-0035	A.45	264.885125	265.005125		you	you
sw4364A-ms98-a-0035	A.45	265.005125	265.275125		know	know
sw4364A-ms98-a-0035	A.45	265.275125	265.515125		that	that
sw4364A-ms98-a-0035	A.45	265.515125	265.912125		Why	why
sw4364A-ms98-a-0035	A.45	265.912125	265.983625		[silence]	[silence]
sw4364A-ms98-a-0035	A.45	265.983625	266.325125		why	why
sw4364A-ms98-a-0035	A.45	266.325125	266.515125		you	you
sw4364A-ms98-a-0035	A.45	266.515125	266.805125		even	even
sw4364A-ms98-a-0035	A.45	266.805125	267.125125		telling	telling
sw4364A-ms98-a-0035	A.45	267.125125	267.255125		me	me
sw4364A-ms98-a-0035	A.45	267.255125	267.537000		this	this
sw4364A-ms98-a-0035	A.45	267.537000	267.766500		[silence]	[silence]
sw4364A-ms98-a-0036	A.45	267.766500	268.113125		[silence]	[silence]
sw4364A-ms98-a-0036	A.45	268.113125	268.216500		Is	is
sw4364A-ms98-a-0036	A.45	268.216500	268.326500		it	it
sw4364A-ms98-a-0036	A.45	268.326500	268.576500		any	any
sw4364A-ms98-a-0036	A.45	268.576500	268.636500		of	of
sw4364A-ms98-a-0036	A.45	268.636500	268.866500		your	your
sw4364A-ms98-a-0036	A.45	268.866500	269.426500		business	business
sw4364A-ms98-a-0036	A.45	269.426500	269.566500		I	i
sw4364A-ms98-a-0036	A.45	269.566500	269.786500		mean	mean
sw4364A-ms98-a-0036	A.45	269.786500	269.986500		it's	it's
sw4364A-ms98-a-0036	A.45	269.986500	270.266500		one	one
sw4364A-ms98-a-0036	A.45	270.266500	270.736500		thing	thing
sw4364A-ms98-a-0036	A.45	270.736500	270.836500		[silence]	[silence]
sw4364A-ms98-a-0036	A.45	270.836500	271.126500		that	that
sw4364A-ms98-a-0036	A.45	271.126500	271.364625		I	i
sw4364A-ms98-a-0036	A.45	271.364625	271.506500		and	and
sw4364A-ms98-a-0036	A.45	271.506500	271.618250		the	the
sw4364A-ms98-a-0036	A.45	271.618250	272.066500	<SUB>	college	colleges
sw4364A-ms98-a-0036	A.45	272.066500	272.360750		knows	knows
sw4364A-ms98-a-0036	A.45	272.360750	272.462500		[silence]	[silence]
sw4364A-ms98-a-0036	A.45	272.462500	272.646500		that	that
sw4364A-ms98-a-0036	A.45	272.646500	272.946500		that's	that's
sw4364A-ms98-a-0036	A.47	272.946500	273.186500		just	just
sw4364A-ms98-a-0036	A.47	273.186500	273.366500		our	our
sw4364A-ms98-a-0036	A.47	273.366500	273.676500		business	business
sw4364A-ms98-a-0036	A.47	273.676500	273.846500		There's	there's
sw4364A-ms98-a-0036	A.47	273.846500	274.026500		no	no
sw4364A-ms98-a-0036	A.47	274.026500	274.326500		need	need
sw4364A-ms98-a-0036	A.47	274.326500	274.636500		for	for
sw4364A-ms98-a-0036	A.47	274.636500	274.986500		someone	someone
sw4364A-ms98-a-0036	A.49	274.986500	275.126500	<CONT>	who	who's
sw4364A-ms98-a-0036	A.49	275.126500	275.126500	<CONT>	is	+++
sw4364A-ms98-a-0036	A.49	275.126500	275.676500		soliciting	soliciting
sw4364A-ms98-a-0036	A.49	275.676500	275.816500		should	should
sw4364A-ms98-a-0036	A.49	275.816500	276.026500		know	know
sw4364A-ms98-a-0036	A.49	276.026500	276.096500	<SUB>	at	it
sw4364A-ms98-a-0036	A.49	276.096500	276.389750		all	all
sw4364A-ms98-a-0036	A.49	276.389750	276.760125		[silence]	[silence]
sw4364A-ms98-a-0037	A.49	276.760125	277.145750		[silence]	[silence]
sw4364A-ms98-a-0037	A.49	277.145750	277.530125		Just	just
sw4364A-ms98-a-0037	A.49	277.530125	277.780125		uh	uh
sw4364A-ms98-a-0037	A.49	277.780125	277.820125		[silence]	[silence]
sw4364A-ms98-a-0037	A.49	277.820125	277.960125		and	and
sw4364A-ms98-a-0037	A.49	277.960125	278.130125		that	that
sw4364A-ms98-a-0037	A.49	278.130125	278.360125		was	was
sw4364A-ms98-a-0037	A.49	278.360125	278.630125		very	very
sw4364A-ms98-a-0037	A.49	278.630125	279.190125		offensive	offensive
sw4364A-ms98-a-0037	A.49	279.190125	279.594000		too	too
sw4364A-ms98-a-0037	A.49	279.594000	279.594000	<INS>	I	---
sw4364A-ms98-a-0037	A.49	279.594000	279.594000	<INS>	and	---
sw4364A-ms98-a-0037	A.49	279.594000	279.594000	<INS>	so	---
sw4364A-ms98-a-0037	A.51	279.594000	279.917250		[silence]	[silence]
sw4364A-ms98-a-0038	A.51	279.917250	280.968125		[silence]	[silence]
sw4364A-ms98-a-0039	A.51	280.968125	281.377875		[silence]	[silence]
sw4364A-ms98-a-0039	A.51	281.377875	281.520375		[vocalized-noise]	[vocalized-noise]
sw4364A-ms98-a-0039	A.51	281.520375	282.019125		[silence]	[silence]
sw4364A-ms98-a-0040	A.51	282.019125	284.314125		[silence]	[silence]
sw4364A-ms98-a-0041	A.51	284.314125	284.820625		[silence]	[silence]
sw4364A-ms98-a-0041	A.51	284.820625	285.194125		Uh-huh	uh-huh
sw4364A-ms98-a-0041	A.53	285.194125	285.641125		[silence]	[silence]
sw4364A-ms98-a-0042	A.53	285.641125	286.670250		[silence]	[silence]
sw4364A-ms98-a-0043	A.53	286.670250	287.143500		[silence]	[silence]
sw4364A-ms98-a-0043	A.53	287.143500	287.511250		Right	right
sw4364A-ms98-a-0043	A.53	287.511250	288.404875		[silence]	[silence]
sw4364A-ms98-a-0044	A.53	288.404875	298.850000		[silence]	[silence]
