sw4334A-ms98-a-0001	A.1	0.000000	0.016625		[silence]	[silence]
sw4334A-ms98-a-0001	A.1	0.016625	0.200000		Type	type
sw4334A-ms98-a-0001	A.1	0.200000	0.280000		of	of
sw4334A-ms98-a-0001	A.1	0.280000	0.570000		music	music
sw4334A-ms98-a-0001	A.1	0.570000	0.680000		is	is
sw4334A-ms98-a-0001	A.1	0.680000	0.850000		hot	hot
sw4334A-ms98-a-0001	A.1	0.850000	1.060000		down	down
sw4334A-ms98-a-0001	A.1	1.060000	1.120000		in	in
sw4334A-ms98-a-0001	A.1	1.120000	1.600000		Texas	Texas
sw4334A-ms98-a-0001	A.3	1.600000	1.978375		[silence]	[silence]
sw4334A-ms98-a-0002	A.3	1.978375	13.874250		[silence]	[silence]
sw4334A-ms98-a-0003	A.3	13.874250	14.474250		[silence]	[silence]
sw4334A-ms98-a-0003	A.3	14.474250	14.694250		Oh	oh
sw4334A-ms98-a-0003	A.3	14.694250	15.004875		okay	okay
sw4334A-ms98-a-0003	@A.5	15.004875	15.129250		[silence]	[silence]
sw4334A-ms98-a-0003	@A.5	15.129250	15.512625		[noise]	[noise]
sw4334A-ms98-a-0003	@A.5	15.512625	16.017875		[silence]	[silence]
sw4334A-ms98-a-0004	@A.5	16.017875	16.757750		[silence]	[silence]
sw4334A-ms98-a-0004	@A.5	16.757750	16.957875		Uh	uh
sw4334A-ms98-a-0004	@A.5	16.957875	17.317875		mostly	mostly
sw4334A-ms98-a-0004	@A.5	17.317875	17.597875		folk	folk
sw4334A-ms98-a-0004	@A.5	17.597875	18.013375		music	music
sw4334A-ms98-a-0004	A.7	18.013375	18.717625		[silence]	[silence]
sw4334A-ms98-a-0005	A.7	18.717625	19.235500		[silence]	[silence]
sw4334A-ms98-a-0005	A.7	19.235500	19.377625		Yeah	yeah
sw4334A-ms98-a-0005	A.7	19.377625	19.440875		I	i
sw4334A-ms98-a-0005	A.7	19.440875	19.595875		find	find
sw4334A-ms98-a-0005	A.7	19.595875	20.047625		myself	myself
sw4334A-ms98-a-0005	A.7	20.047625	20.237625		uh	uh
sw4334A-ms98-a-0005	A.7	20.237625	20.537625		listening	listening
sw4334A-ms98-a-0005	A.7	20.537625	20.607625		to	to
sw4334A-ms98-a-0005	A.7	20.607625	20.637625		a	a
sw4334A-ms98-a-0005	A.7	20.637625	20.877625		lot	lot
sw4334A-ms98-a-0005	A.7	20.877625	21.107625		of	of
sw4334A-ms98-a-0005	A.7	21.107625	21.482625		uh	uh
sw4334A-ms98-a-0005	A.7	21.482625	22.085250		[silence]	[silence]
sw4334A-ms98-a-0005	A.7	22.085250	22.755625		uh	uh
sw4334A-ms98-a-0005	A.7	22.755625	23.038125		either	either
sw4334A-ms98-a-0005	A.7	23.038125	23.237875		old	old
sw4334A-ms98-a-0005	A.7	23.237875	23.606750		timer	timer
sw4334A-ms98-a-0005	A.7	23.606750	23.704750		or	or
sw4334A-ms98-a-0005	A.7	23.704750	23.827625		New	New
sw4334A-ms98-a-0005	A.7	23.827625	24.367625		England	England
sw4334A-ms98-a-0005	A.7	24.367625	24.677875		uh	uh
sw4334A-ms98-a-0005	A.7	24.677875	24.983000		[silence]	[silence]
sw4334A-ms98-a-0005	A.7	24.983000	25.257625		dance	dance
sw4334A-ms98-a-0005	A.7	25.257625	25.787625		bands	bands
sw4334A-ms98-a-0005	A.7	25.787625	25.907625		as	as
sw4334A-ms98-a-0005	A.7	25.907625	26.187625		well	well
sw4334A-ms98-a-0005	A.7	26.187625	26.397625		as	as
sw4334A-ms98-a-0005	A.7	26.397625	26.607625		uh	uh
sw4334A-ms98-a-0005	A.7	26.607625	26.823625		just	just
sw4334A-ms98-a-0005	A.7	26.823625	27.711000		[silence]	[silence]
sw4334A-ms98-a-0005	A.7	27.711000	27.907625		more	more
sw4334A-ms98-a-0005	A.7	27.907625	28.417625		popular	popular
sw4334A-ms98-a-0005	A.7	28.417625	28.687625		folk	folk
sw4334A-ms98-a-0005	A.7	28.687625	29.155875		music	music
sw4334A-ms98-a-0005	A.7	29.155875	29.467625		and	and
sw4334A-ms98-a-0005	A.7	29.467625	30.167625		[silence]	[silence]
sw4334A-ms98-a-0005	A.7	30.167625	30.307625		new	new
sw4334A-ms98-a-0005	A.7	30.307625	30.687625		artists	artists
sw4334A-ms98-a-0005	A.7	30.687625	30.967625		coming	coming
sw4334A-ms98-a-0005	A.7	30.967625	31.247625		up	up
sw4334A-ms98-a-0005	A.9	31.247625	31.754750		[silence]	[silence]
sw4334A-ms98-a-0006	A.9	31.754750	34.686125		[silence]	[silence]
sw4334A-ms98-a-0007	A.9	34.686125	35.283875		[silence]	[silence]
sw4334A-ms98-a-0007	A.9	35.283875	35.745125		Okay	okay
sw4334A-ms98-a-0007	A.11	35.745125	36.251250		[silence]	[silence]
sw4334A-ms98-a-0008	A.11	36.251250	44.241500		[silence]	[silence]
sw4334A-ms98-a-0009	A.11	44.241500	44.777500		[silence]	[silence]
sw4334A-ms98-a-0009	A.11	44.777500	45.072125		Uh-huh	uh-huh
sw4334A-ms98-a-0009	A.13	45.072125	45.636625		[silence]	[silence]
sw4334A-ms98-a-0010	A.13	45.636625	48.443250		[silence]	[silence]
sw4334A-ms98-a-0011	A.13	48.443250	48.973250		[silence]	[silence]
sw4334A-ms98-a-0011	A.13	48.973250	49.073250		Yeah	yeah
sw4334A-ms98-a-0011	A.13	49.073250	49.223250		what	what
sw4334A-ms98-a-0011	A.13	49.223250	49.469750		about	about
sw4334A-ms98-a-0011	A.13	49.469750	49.571500		[silence]	[silence]
sw4334A-ms98-a-0011	A.13	49.571500	49.933250		uh	uh
sw4334A-ms98-a-0011	A.13	49.933250	50.363250		classic	classic
sw4334A-ms98-a-0011	A.13	50.363250	50.613250		rock	rock
sw4334A-ms98-a-0011	A.13	50.613250	50.853250		type	type
sw4334A-ms98-a-0011	A.13	50.853250	51.324750		stations	stations
sw4334A-ms98-a-0011	A.15	51.324750	51.726500		[silence]	[silence]
sw4334A-ms98-a-0012	A.15	51.726500	54.305125		[silence]	[silence]
sw4334A-ms98-a-0013	A.15	54.305125	54.845125		[silence]	[silence]
sw4334A-ms98-a-0013	A.15	54.845125	55.045125		Oh	oh
sw4334A-ms98-a-0013	A.15	55.045125	55.325375		okay	okay
sw4334A-ms98-a-0013	A.17	55.325375	55.787750		[silence]	[silence]
sw4334A-ms98-a-0014	A.17	55.787750	60.853875		[silence]	[silence]
sw4334A-ms98-a-0015	A.17	60.853875	61.343875		[silence]	[silence]
sw4334A-ms98-a-0015	A.17	61.343875	61.468125		So	so
sw4334A-ms98-a-0015	A.17	61.468125	61.673875		some	some
sw4334A-ms98-a-0015	A.19	61.673875	61.823875		some	some
sw4334A-ms98-a-0015	A.19	61.823875	61.883875		of	of
sw4334A-ms98-a-0015	A.19	61.883875	62.013875		the	the
sw4334A-ms98-a-0015	A.19	62.013875	62.333875		older	older
sw4334A-ms98-a-0015	A.19	62.333875	62.683875		Eagles	Eagles
sw4334A-ms98-a-0015	A.19	62.683875	62.963875		stuff	stuff
sw4334A-ms98-a-0015	A.19	62.963875	63.107125		was	was
sw4334A-ms98-a-0015	A.19	63.107125	63.355250		good	good
sw4334A-ms98-a-0015	A.21	63.355250	63.686750		[silence]	[silence]
sw4334A-ms98-a-0016	A.21	63.686750	64.096750		[silence]	[silence]
sw4334A-ms98-a-0016	A.21	64.096750	64.261000		I	i
sw4334A-ms98-a-0016	A.21	64.261000	64.388000		I	i
sw4334A-ms98-a-0016	A.21	64.388000	64.586750		didn't	didn't
sw4334A-ms98-a-0016	A.21	64.586750	64.916750		like	like
sw4334A-ms98-a-0016	A.21	64.916750	65.239875		uh	uh
sw4334A-ms98-a-0016	A.21	65.239875	65.262500		[silence]	[silence]
sw4334A-ms98-a-0016	A.21	65.262500	65.366750		they	they
sw4334A-ms98-a-0016	A.21	65.366750	65.636750		started	started
sw4334A-ms98-a-0016	A.21	65.636750	65.846750		getting	getting
sw4334A-ms98-a-0016	A.21	65.846750	65.896750		a	a
sw4334A-ms98-a-0016	A.21	65.896750	66.146750		little	little
sw4334A-ms98-a-0016	A.21	66.146750	66.666750		more	more
sw4334A-ms98-a-0016	A.21	66.666750	67.280500		[silence]	[silence]
sw4334A-ms98-a-0017	A.21	67.280500	67.931750		[silence]	[silence]
sw4334A-ms98-a-0017	A.21	67.931750	67.980500		you	you
sw4334A-ms98-a-0017	A.21	67.980500	68.040500		know	know
sw4334A-ms98-a-0017	A.21	68.040500	68.120500		the	the
sw4334A-ms98-a-0017	A.21	68.120500	68.360500		type	type
sw4334A-ms98-a-0017	A.21	68.360500	68.440500		of	of
sw4334A-ms98-a-0017	A.21	68.440500	68.760500		music	music
sw4334A-ms98-a-0017	A.21	68.760500	68.830125	<DEL>	---	a[t]-
sw4334A-ms98-a-0017	A.21	68.830125	69.248250		[silence]	[silence]
sw4334A-ms98-a-0017	A.21	69.248250	69.500500		at	at
sw4334A-ms98-a-0017	A.21	69.500500	69.730500		least	least
sw4334A-ms98-a-0017	A.21	69.730500	69.800500		to	to
sw4334A-ms98-a-0017	A.21	69.800500	69.960500		me	me
sw4334A-ms98-a-0017	A.21	69.960500	70.130500		it's	it's
sw4334A-ms98-a-0017	A.21	70.130500	70.274500		uh	uh
sw4334A-ms98-a-0017	A.21	70.274500	70.460500		[silence]	[silence]
sw4334A-ms98-a-0017	A.21	70.460500	70.680500		sounds	sounds
sw4334A-ms98-a-0017	A.21	70.680500	70.820500		like	like
sw4334A-ms98-a-0017	A.21	70.820500	70.960500		it's	it's
sw4334A-ms98-a-0017	A.21	70.960500	71.140500		only	only
sw4334A-ms98-a-0017	A.21	71.140500	71.450500		sounds	sounds
sw4334A-ms98-a-0017	A.21	71.450500	71.570500		good	good
sw4334A-ms98-a-0017	A.21	71.570500	71.630500		at	at
sw4334A-ms98-a-0017	A.21	71.630500	71.690500		a	a
sw4334A-ms98-a-0017	A.21	71.690500	71.850500		high	high
sw4334A-ms98-a-0017	A.21	71.850500	72.290500		volumes	volumes
sw4334A-ms98-a-0017	A.21	72.290500	72.390500		and	and
sw4334A-ms98-a-0017	A.21	72.390500	72.440500		I	i
sw4334A-ms98-a-0017	A.21	72.440500	72.580500		don't	don't
sw4334A-ms98-a-0017	A.21	72.580500	72.750500		like	like
sw4334A-ms98-a-0017	A.21	72.750500	73.060500		listening	listening
sw4334A-ms98-a-0017	A.21	73.060500	73.140500		at	at
sw4334A-ms98-a-0017	A.21	73.140500	73.300500		high	high
sw4334A-ms98-a-0017	A.21	73.300500	73.815125		volumes	volumes
sw4334A-ms98-a-0017	A.23	73.815125	74.229000		[silence]	[silence]
sw4334A-ms98-a-0018	A.23	74.229000	74.729625		[silence]	[silence]
sw4334A-ms98-a-0018	A.23	74.729625	74.979000		But	but
sw4334A-ms98-a-0018	A.23	74.979000	75.412500		uh	uh
sw4334A-ms98-a-0018	A.23	75.412500	75.899000		[silence]	[silence]
sw4334A-ms98-a-0018	A.23	75.899000	76.059000		some	some
sw4334A-ms98-a-0018	A.23	76.059000	76.129000		of	of
sw4334A-ms98-a-0018	A.23	76.129000	76.299000		their	their
sw4334A-ms98-a-0018	A.23	76.299000	76.709000		older	older
sw4334A-ms98-a-0018	A.23	76.709000	76.852625		s-	s[tuff]-
sw4334A-ms98-a-0018	A.23	76.852625	77.210500		[silence]	[silence]
sw4334A-ms98-a-0018	A.23	77.210500	77.529000		stuff	stuff
sw4334A-ms98-a-0018	A.23	77.529000	77.779000		was	was
sw4334A-ms98-a-0018	A.23	77.779000	78.036875		uh	uh
sw4334A-ms98-a-0018	A.23	78.036875	78.198875		[silence]	[silence]
sw4334A-ms98-a-0018	A.23	78.198875	78.239000		you	you
sw4334A-ms98-a-0018	A.23	78.239000	78.309000		know	know
sw4334A-ms98-a-0018	A.23	78.309000	78.519000		quite	quite
sw4334A-ms98-a-0018	A.23	78.519000	78.949000		enjoyable	enjoyable
sw4334A-ms98-a-0018	A.23	78.949000	79.049000		to	to
sw4334A-ms98-a-0018	A.23	79.049000	79.271375		me	me
sw4334A-ms98-a-0018	A.25	79.271375	79.943500		[silence]	[silence]
sw4334A-ms98-a-0019	A.25	79.943500	80.614750		[silence]	[silence]
sw4334A-ms98-a-0019	A.25	80.614750	80.663500		You	you
sw4334A-ms98-a-0019	A.25	80.663500	80.733500		know	know
sw4334A-ms98-a-0019	A.25	80.733500	80.940250		Ho-	Ho[tel]-
sw4334A-ms98-a-0019	A.25	80.940250	80.985500		[silence]	[silence]
sw4334A-ms98-a-0019	A.25	80.985500	81.353500		Hotel	Hotel
sw4334A-ms98-a-0019	A.25	81.353500	81.963500		California	California
sw4334A-ms98-a-0019	A.25	81.963500	82.143500		and	and
sw4334A-ms98-a-0019	A.25	82.143500	82.313500		that	that
sw4334A-ms98-a-0019	A.25	82.313500	82.613000		era	era
sw4334A-ms98-a-0019	A.27	82.613000	83.127250		[silence]	[silence]
sw4334A-ms98-a-0020	A.27	83.127250	86.094375		[silence]	[silence]
sw4334A-ms98-a-0021	A.27	86.094375	86.574375		[silence]	[silence]
sw4334A-ms98-a-0021	A.27	86.574375	86.784625		Yeah	yeah
sw4334A-ms98-a-0021	A.29	86.784625	87.371500		[silence]	[silence]
sw4334A-ms98-a-0022	A.29	87.371500	94.493875		[silence]	[silence]
sw4334A-ms98-a-0023	A.29	94.493875	95.055000		[silence]	[silence]
sw4334A-ms98-a-0023	A.29	95.055000	95.203875		Well	well
sw4334A-ms98-a-0023	A.29	95.203875	95.433875		down	down
sw4334A-ms98-a-0023	A.29	95.433875	95.513875		in	in
sw4334A-ms98-a-0023	A.29	95.513875	95.943875		Texas	Texas
sw4334A-ms98-a-0023	A.29	95.943875	96.082000		uh	uh
sw4334A-ms98-a-0023	A.29	96.082000	96.143875		[silence]	[silence]
sw4334A-ms98-a-0023	A.29	96.143875	96.223875		you	you
sw4334A-ms98-a-0023	A.29	96.223875	96.323875		know	know
sw4334A-ms98-a-0023	A.29	96.323875	96.643875		little	little
sw4334A-ms98-a-0023	A.29	96.643875	96.973875		listen	listen
sw4334A-ms98-a-0023	A.29	96.973875	97.033875		to	to
sw4334A-ms98-a-0023	A.29	97.033875	97.063875		a	a
sw4334A-ms98-a-0023	A.29	97.063875	97.293875		little	little
sw4334A-ms98-a-0023	A.29	97.293875	97.663875		country	country
sw4334A-ms98-a-0023	A.29	97.663875	97.833875		every	every
sw4334A-ms98-a-0023	A.29	97.833875	97.993875		now	now
sw4334A-ms98-a-0023	A.29	97.993875	98.083875		and	and
sw4334A-ms98-a-0023	A.29	98.083875	98.263875		then	then
sw4334A-ms98-a-0023	A.31	98.263875	98.964375		[silence]	[silence]
sw4334A-ms98-a-0024	A.31	98.964375	99.704375		[silence]	[silence]
sw4334A-ms98-a-0024	A.31	99.704375	99.818875		I'm	i'm
sw4334A-ms98-a-0024	A.31	99.818875	99.889500		[silence]	[silence]
sw4334A-ms98-a-0024	A.31	99.889500	100.053750	<DEL>	---	s[ure]-
sw4334A-ms98-a-0024	A.31	100.053750	100.114375		[silence]	[silence]
sw4334A-ms98-a-0024	A.31	100.114375	100.224375	<DEL>	---	i'm
sw4334A-ms98-a-0024	A.31	100.224375	100.394375		sure	sure
sw4334A-ms98-a-0024	A.31	100.394375	100.574375		there's	there's
sw4334A-ms98-a-0024	A.31	100.574375	100.624375		a	a
sw4334A-ms98-a-0024	A.31	100.624375	100.774375		lot	lot
sw4334A-ms98-a-0024	A.31	100.774375	100.844375		of	of
sw4334A-ms98-a-0024	A.31	100.844375	101.034375		that	that
sw4334A-ms98-a-0024	A.31	101.034375	101.244375		down	down
sw4334A-ms98-a-0024	A.31	101.244375	101.486375		there	there
sw4334A-ms98-a-0024	A.35	101.486375	101.972875		[silence]	[silence]
sw4334A-ms98-a-0025	A.35	101.972875	103.600750		[silence]	[silence]
sw4334A-ms98-a-0026	A.35	103.600750	104.057000		[silence]	[silence]
sw4334A-ms98-a-0026	A.35	104.057000	104.797750		[laughter]	[laughter]
sw4334A-ms98-a-0026	A.35	104.797750	105.184125		[silence]	[silence]
sw4334A-ms98-a-0027	A.35	105.184125	108.974500		[silence]	[silence]
sw4334A-ms98-a-0028	A.35	108.974500	109.492875		[silence]	[silence]
sw4334A-ms98-a-0028	A.35	109.492875	109.629500		Well	well
sw4334A-ms98-a-0028	A.35	109.629500	109.766000		there	there
sw4334A-ms98-a-0028	A.35	109.766000	109.967500		there's	there's
sw4334A-ms98-a-0028	A.35	109.967500	110.027875		a	a
sw4334A-ms98-a-0028	A.35	110.027875	110.424500		Conway	Conway
sw4334A-ms98-a-0028	A.35	110.424500	110.730000		Twitty	Twitty
sw4334A-ms98-a-0028	A.35	110.730000	110.775250		[silence]	[silence]
sw4334A-ms98-a-0028	A.35	110.775250	111.251500		twang	twang
sw4334A-ms98-a-0028	A.35	111.251500	111.285375		[silence]	[silence]
sw4334A-ms98-a-0028	A.35	111.285375	111.434500		then	then
sw4334A-ms98-a-0028	A.35	111.434500	111.634500		there's	there's
sw4334A-ms98-a-0028	A.35	111.634500	111.679750		[silence]	[silence]
sw4334A-ms98-a-0028	A.35	111.679750	111.930250		the	the
sw4334A-ms98-a-0028	A.35	111.930250	112.177375		uh	uh
sw4334A-ms98-a-0028	A.35	112.177375	112.484500		Dolly	Dolly
sw4334A-ms98-a-0028	A.35	112.484500	113.071000		Parton	Parton
sw4334A-ms98-a-0028	A.35	113.071000	113.861875		[silence]	[silence]
sw4334A-ms98-a-0028	A.35	113.861875	114.508500		uh	uh
sw4334A-ms98-a-0028	A.35	114.508500	115.774125		[silence]	[silence]
sw4334A-ms98-a-0028	A.35	115.774125	116.314500		Hollywood	Hollywood
sw4334A-ms98-a-0028	A.35	116.314500	116.774500		sound	sound
sw4334A-ms98-a-0028	A.37	116.774500	117.010875	<DEL>	---	type
sw4334A-ms98-a-0028	A.37	117.010875	117.492250		[silence]	[silence]
sw4334A-ms98-a-0029	A.37	117.492250	119.450000		[silence]	[silence]
sw4334A-ms98-a-0030	A.37	119.450000	120.016500		[silence]	[silence]
sw4334A-ms98-a-0030	A.37	120.016500	120.236125		Yeah	yeah
sw4334A-ms98-a-0030	A.39	120.236125	120.750000		[silence]	[silence]
sw4334A-ms98-a-0031	A.39	120.750000	128.551375		[silence]	[silence]
sw4334A-ms98-a-0032	A.39	128.551375	128.891375		[silence]	[silence]
sw4334A-ms98-a-0032	A.39	128.891375	129.001375		Yeah	yeah
sw4334A-ms98-a-0032	A.39	129.001375	129.088375		I	i
sw4334A-ms98-a-0032	A.39	129.088375	129.231375		think	think
sw4334A-ms98-a-0032	A.39	129.231375	129.391375		some	some
sw4334A-ms98-a-0032	A.39	129.391375	129.481375		of	of
sw4334A-ms98-a-0032	A.39	129.481375	129.711875		them	them
sw4334A-ms98-a-0032	A.39	129.711875	129.790875		[silence]	[silence]
sw4334A-ms98-a-0032	A.39	129.790875	129.891375		the	the
sw4334A-ms98-a-0032	A.39	129.891375	130.221375		artists	artists
sw4334A-ms98-a-0032	A.39	130.221375	130.291375		are	are
sw4334A-ms98-a-0032	A.39	130.291375	130.631375		even	even
sw4334A-ms98-a-0032	A.39	130.631375	130.701375		uh	uh
sw4334A-ms98-a-0032	A.39	130.701375	130.971375		hitting	hitting
sw4334A-ms98-a-0032	A.39	130.971375	131.031375		the	the
sw4334A-ms98-a-0032	A.39	131.031375	131.311375		pop	pop
sw4334A-ms98-a-0032	A.39	131.311375	131.784750		charts	charts
sw4334A-ms98-a-0032	A.41	131.784750	132.318500		[silence]	[silence]
sw4334A-ms98-a-0033	A.41	132.318500	150.958750		[silence]	[silence]
sw4334A-ms98-a-0034	A.41	150.958750	151.597750		[silence]	[silence]
sw4334A-ms98-a-0034	A.41	151.597750	151.958625		Hey	hey
sw4334A-ms98-a-0034	A.41	151.958625	152.089625		[silence]	[silence]
sw4334A-ms98-a-0034	A.41	152.089625	152.259125		I	i
sw4334A-ms98-a-0034	A.41	152.259125	152.421125		I	i
sw4334A-ms98-a-0034	A.41	152.421125	152.579250		[silence]	[silence]
sw4334A-ms98-a-0034	A.41	152.579250	152.735500		I	i
sw4334A-ms98-a-0034	A.41	152.735500	152.888750		think	think
sw4334A-ms98-a-0034	A.41	152.888750	153.148750		most	most
sw4334A-ms98-a-0034	A.41	153.148750	153.508750		artists	artists
sw4334A-ms98-a-0034	A.41	153.508750	153.598750		are	are
sw4334A-ms98-a-0034	A.41	153.598750	153.826875		in	in
sw4334A-ms98-a-0034	A.41	153.826875	153.883375		[silence]	[silence]
sw4334A-ms98-a-0034	A.41	153.883375	153.998750		to	to
sw4334A-ms98-a-0034	A.41	153.998750	154.208750		make	make
sw4334A-ms98-a-0034	A.41	154.208750	154.238750		a	a
sw4334A-ms98-a-0034	A.41	154.238750	154.408750		few	few
sw4334A-ms98-a-0034	A.41	154.408750	154.838125		bucks	bucks
sw4334A-ms98-a-0034	A.43	154.838125	155.177875		[silence]	[silence]
sw4334A-ms98-a-0035	A.43	155.177875	155.633625		[silence]	[silence]
sw4334A-ms98-a-0035	A.43	155.633625	155.757875		But	but
sw4334A-ms98-a-0035	A.43	155.757875	155.877875		they're	they're
sw4334A-ms98-a-0035	A.43	155.877875	156.087875		not	not
sw4334A-ms98-a-0035	A.43	156.087875	156.187875		in	in
sw4334A-ms98-a-0035	A.43	156.187875	156.317875		it	it
sw4334A-ms98-a-0035	A.43	156.317875	156.437875		to	to
sw4334A-ms98-a-0035	A.43	156.437875	156.657875		say	say
sw4334A-ms98-a-0035	A.43	156.657875	157.037875		anything	anything
sw4334A-ms98-a-0035	A.43	157.037875	157.127875		or	or
sw4334A-ms98-a-0035	A.43	157.127875	157.297875		give	give
sw4334A-ms98-a-0035	A.43	157.297875	157.367875		a	a
sw4334A-ms98-a-0035	A.43	157.367875	157.727875		message	message
sw4334A-ms98-a-0035	A.45	157.727875	157.917875		which	which
sw4334A-ms98-a-0035	A.45	157.917875	158.067875		is	is
sw4334A-ms98-a-0035	A.45	158.067875	158.197875		what	what
sw4334A-ms98-a-0035	A.45	158.197875	158.277875		they	they
sw4334A-ms98-a-0035	A.45	158.277875	158.367875		were	were
sw4334A-ms98-a-0035	A.45	158.367875	158.617875	<SUB>	do-	do
sw4334A-ms98-a-0035	A.45	158.617875	158.837000		late	late
sw4334A-ms98-a-0035	A.45	158.837000	158.947875		[silence]	[silence]
sw4334A-ms98-a-0035	A.45	158.947875	159.117875		late	late
sw4334A-ms98-a-0035	A.45	159.117875	159.507875		sixties	sixties
sw4334A-ms98-a-0035	A.45	159.507875	159.767875		early	early
sw4334A-ms98-a-0035	A.45	159.767875	160.237875		seventies	seventies
sw4334A-ms98-a-0035	A.45	160.237875	160.377875		they	they
sw4334A-ms98-a-0035	A.45	160.377875	160.682125		were	were
sw4334A-ms98-a-0035	A.47	160.682125	160.817875		[silence]	[silence]
sw4334A-ms98-a-0035	A.47	160.817875	160.907875		they	they
sw4334A-ms98-a-0035	A.47	160.907875	160.997875		were	were
sw4334A-ms98-a-0035	A.47	160.997875	161.317875		definitely	definitely
sw4334A-ms98-a-0035	A.47	161.317875	161.727875		pushing	pushing
sw4334A-ms98-a-0035	A.47	161.727875	161.787875		a	a
sw4334A-ms98-a-0035	A.47	161.787875	162.327875		message	message
sw4334A-ms98-a-0035	A.49	162.327875	162.809250		[silence]	[silence]
sw4334A-ms98-a-0036	A.49	162.809250	166.716375		[silence]	[silence]
sw4334A-ms98-a-0037	A.49	166.716375	167.257125		[silence]	[silence]
sw4334A-ms98-a-0037	A.49	167.257125	167.456375		Yeah	yeah
sw4334A-ms98-a-0037	A.49	167.456375	167.596375	<SUB>	I	and
sw4334A-ms98-a-0037	A.49	167.596375	167.656375		I	i
sw4334A-ms98-a-0037	A.49	167.656375	167.796375		don't	don't
sw4334A-ms98-a-0037	A.49	167.796375	167.856375		I	i
sw4334A-ms98-a-0037	A.49	167.856375	167.986375		don't	don't
sw4334A-ms98-a-0037	A.49	167.986375	168.176375		think	think
sw4334A-ms98-a-0037	A.49	168.176375	168.366375		Gun	gun
sw4334A-ms98-a-0037	A.49	168.366375	168.616375		at	at
sw4334A-ms98-a-0037	A.49	168.616375	168.866375		least	least
sw4334A-ms98-a-0037	A.49	168.866375	168.956375		to	to
sw4334A-ms98-a-0037	A.49	168.956375	169.176375		my	my
sw4334A-ms98-a-0037	A.49	169.176375	169.476375		mind	mind
sw4334A-ms98-a-0037	A.49	169.476375	169.686375		Guns	Guns
sw4334A-ms98-a-0037	A.49	169.686375	169.806375		and	and
sw4334A-ms98-a-0037	A.49	169.806375	170.146375		Roses	Roses
sw4334A-ms98-a-0037	A.49	170.146375	170.396375		doesn't	doesn't
sw4334A-ms98-a-0037	A.49	170.396375	170.539500		have	have
sw4334A-ms98-a-0037	A.49	170.539500	170.577125		[silence]	[silence]
sw4334A-ms98-a-0037	A.49	170.577125	170.676375		too	too
sw4334A-ms98-a-0037	A.49	170.676375	170.906375		much	much
sw4334A-ms98-a-0037	A.49	170.906375	170.966375		of	of
sw4334A-ms98-a-0037	A.49	170.966375	171.006375		a	a
sw4334A-ms98-a-0037	A.49	171.006375	171.396375		message	message
sw4334A-ms98-a-0037	A.49	171.396375	171.496375		too	too
sw4334A-ms98-a-0037	A.49	171.496375	171.726375		much	much
sw4334A-ms98-a-0037	A.49	171.726375	171.826375		to	to
sw4334A-ms98-a-0037	A.49	171.826375	172.139750		say	say
sw4334A-ms98-a-0037	A.51	172.139750	172.576500		[silence]	[silence]
sw4334A-ms98-a-0038	A.51	172.576500	180.626625		[silence]	[silence]
sw4334A-ms98-a-0039	A.51	180.626625	181.121750		[silence]	[silence]
sw4334A-ms98-a-0039	A.51	181.121750	181.446375		Uh-huh	uh-huh
sw4334A-ms98-a-0039	A.53	181.446375	181.945125		[silence]	[silence]
sw4334A-ms98-a-0040	A.53	181.945125	193.573125		[silence]	[silence]
sw4334A-ms98-a-0041	A.53	193.573125	194.093125		[silence]	[silence]
sw4334A-ms98-a-0041	A.53	194.093125	194.364000		Right	right
sw4334A-ms98-a-0041	A.55	194.364000	194.864250		[silence]	[silence]
sw4334A-ms98-a-0042	A.55	194.864250	198.173500		[silence]	[silence]
sw4334A-ms98-a-0043	A.55	198.173500	198.756500		[silence]	[silence]
sw4334A-ms98-a-0043	A.55	198.756500	198.980500		Right	right
sw4334A-ms98-a-0043	A.57	198.980500	199.479750		[silence]	[silence]
sw4334A-ms98-a-0044	A.57	199.479750	202.571250		[silence]	[silence]
sw4334A-ms98-a-0045	A.57	202.571250	203.084375		[silence]	[silence]
sw4334A-ms98-a-0045	A.57	203.084375	203.412500		Uh-huh	uh-huh
sw4334A-ms98-a-0045	A.59	203.412500	203.930375		[laughter]	[laughter]
sw4334A-ms98-a-0045	A.59	203.930375	203.967125		[silence]	[silence]
sw4334A-ms98-a-0046	A.59	203.967125	206.275875		[silence]	[silence]
sw4334A-ms98-a-0047	A.59	206.275875	206.847125		[silence]	[silence]
sw4334A-ms98-a-0047	A.59	206.847125	207.005875		Yeah	yeah
sw4334A-ms98-a-0047	A.59	207.005875	207.175125		i-	i[t]-
sw4334A-ms98-a-0047	A.59	207.175125	207.206375		[silence]	[silence]
sw4334A-ms98-a-0047	A.59	207.206375	207.375875		i-	i[t]-
sw4334A-ms98-a-0047	A.59	207.375875	207.639500		it's	it's
sw4334A-ms98-a-0047	A.59	207.639500	207.677250		[silence]	[silence]
sw4334A-ms98-a-0047	A.59	207.677250	207.993500		the	the
sw4334A-ms98-a-0047	A.59	207.993500	208.227000		[silence]	[silence]
sw4334A-ms98-a-0047	A.59	208.227000	208.655875		artist	artist
sw4334A-ms98-a-0047	A.59	208.655875	208.885875		not	not
sw4334A-ms98-a-0047	A.59	208.885875	208.945875		the	the
sw4334A-ms98-a-0047	A.59	208.945875	209.431125		merit	merit
sw4334A-ms98-a-0047	A.61	209.431125	209.901000		[silence]	[silence]
sw4334A-ms98-a-0048	A.61	209.901000	217.233375		[silence]	[silence]
sw4334A-ms98-a-0049	A.61	217.233375	217.778875		[silence]	[silence]
sw4334A-ms98-a-0049	A.61	217.778875	218.010500		Yeah	yeah
sw4334A-ms98-a-0049	A.63	218.010500	218.515000		[silence]	[silence]
sw4334A-ms98-a-0050	A.63	218.515000	221.404625		[silence]	[silence]
sw4334A-ms98-a-0051	A.63	221.404625	221.941375		[silence]	[silence]
sw4334A-ms98-a-0051	A.63	221.941375	222.024625		Well	well
sw4334A-ms98-a-0051	A.63	222.024625	222.064625		I	i
sw4334A-ms98-a-0051	A.63	222.064625	222.194625		don't	don't
sw4334A-ms98-a-0051	A.63	222.194625	222.294625		know	know
sw4334A-ms98-a-0051	A.63	222.294625	222.374625		I	i
sw4334A-ms98-a-0051	A.63	222.374625	222.544625		know	know
sw4334A-ms98-a-0051	A.63	222.544625	222.684625		for	for
sw4334A-ms98-a-0051	A.63	222.684625	223.174625		myself	myself
sw4334A-ms98-a-0051	A.63	223.174625	223.488625		that	that
sw4334A-ms98-a-0051	A.63	223.488625	223.821500		uh	uh
sw4334A-ms98-a-0051	A.63	223.821500	223.945750		[silence]	[silence]
sw4334A-ms98-a-0051	A.63	223.945750	224.024625		for	for
sw4334A-ms98-a-0051	A.63	224.024625	224.084625		the	the
sw4334A-ms98-a-0051	A.63	224.084625	224.314625		most	most
sw4334A-ms98-a-0051	A.63	224.314625	224.484625		part	part
sw4334A-ms98-a-0051	A.63	224.484625	224.514625		I	i
sw4334A-ms98-a-0051	A.63	224.514625	224.644625		don't	don't
sw4334A-ms98-a-0051	A.63	224.644625	224.764625		know	know
sw4334A-ms98-a-0051	A.63	224.764625	224.974625		which	which
sw4334A-ms98-a-0051	A.63	224.974625	225.324625		artist	artist
sw4334A-ms98-a-0051	A.63	225.324625	225.434625		is	is
sw4334A-ms98-a-0051	A.63	225.434625	225.764625		which	which
sw4334A-ms98-a-0051	A.63	225.764625	226.044500		so	so
sw4334A-ms98-a-0051	A.63	226.044500	226.424875		[silence]	[silence]
sw4334A-ms98-a-0051	A.63	226.424875	226.484625		I	i
sw4334A-ms98-a-0051	A.63	226.484625	226.734625		listen	listen
sw4334A-ms98-a-0051	A.63	226.734625	226.824625		to	to
sw4334A-ms98-a-0051	A.63	226.824625	226.874625		a	a
sw4334A-ms98-a-0051	A.63	226.874625	227.134625		song	song
sw4334A-ms98-a-0051	A.63	227.134625	227.324625		I	i
sw4334A-ms98-a-0051	A.63	227.324625	227.414625		either	either
sw4334A-ms98-a-0051	A.63	227.414625	227.614625		like	like
sw4334A-ms98-a-0051	A.63	227.614625	227.694625		the	the
sw4334A-ms98-a-0051	A.63	227.694625	227.934625		song	song
sw4334A-ms98-a-0051	A.63	227.934625	227.994625		or	or
sw4334A-ms98-a-0051	A.63	227.994625	228.044625		I	i
sw4334A-ms98-a-0051	A.63	228.044625	228.254625		don't	don't
sw4334A-ms98-a-0051	A.63	228.254625	228.454625		like	like
sw4334A-ms98-a-0051	A.63	228.454625	228.534625		it	it
sw4334A-ms98-a-0051	A.65	228.534625	228.624625		and	and
sw4334A-ms98-a-0051	A.65	228.624625	228.831000		then	then
sw4334A-ms98-a-0051	A.65	228.831000	229.139875		[silence]	[silence]
sw4334A-ms98-a-0051	A.65	229.139875	229.244625		if	if
sw4334A-ms98-a-0051	A.65	229.244625	229.324625		I	i
sw4334A-ms98-a-0051	A.65	229.324625	229.564625		really	really
sw4334A-ms98-a-0051	A.65	229.564625	229.744625		like	like
sw4334A-ms98-a-0051	A.65	229.744625	229.814625		the	the
sw4334A-ms98-a-0051	A.65	229.814625	230.054625		song	song
sw4334A-ms98-a-0051	A.65	230.054625	230.454625		eventually	eventually
sw4334A-ms98-a-0051	A.65	230.454625	230.544625		I'll	i'll
sw4334A-ms98-a-0051	A.65	230.544625	230.794625		figure	figure
sw4334A-ms98-a-0051	A.65	230.794625	230.954625		out	out
sw4334A-ms98-a-0051	A.65	230.954625	231.074625		who	who
sw4334A-ms98-a-0051	A.65	231.074625	231.204625		it	it
sw4334A-ms98-a-0051	A.65	231.204625	231.663875		was	was
sw4334A-ms98-a-0051	A.67	231.663875	232.433375		[silence]	[silence]
sw4334A-ms98-a-0052	A.67	232.433375	244.000000		[silence]	[silence]
sw4334A-ms98-a-0053	A.67	244.000000	244.560000		[silence]	[silence]
sw4334A-ms98-a-0053	A.67	244.560000	244.650000		Well	well
sw4334A-ms98-a-0053	A.67	244.650000	244.730000		you	you
sw4334A-ms98-a-0053	A.67	244.730000	244.870000		have	have
sw4334A-ms98-a-0053	A.67	244.870000	244.980000		to	to
sw4334A-ms98-a-0053	A.67	244.980000	245.240000		figure	figure
sw4334A-ms98-a-0053	A.67	245.240000	245.390000		out	out
sw4334A-ms98-a-0053	A.67	245.390000	245.410000		[silence]	[silence]
sw4334A-ms98-a-0053	A.67	245.410000	245.630000		what	what
sw4334A-ms98-a-0053	A.67	245.630000	245.720000		to	to
sw4334A-ms98-a-0053	A.67	245.720000	246.123875		buy	buy
sw4334A-ms98-a-0053	A.67	246.123875	246.417625		[silence]	[silence]
sw4334A-ms98-a-0053	A.67	246.417625	246.500000		or	or
sw4334A-ms98-a-0053	A.67	246.500000	246.570000		do	do
sw4334A-ms98-a-0053	A.67	246.570000	246.650000		you	you
sw4334A-ms98-a-0053	A.67	246.650000	246.900000		just	just
sw4334A-ms98-a-0053	A.67	246.900000	247.120000		buy	buy
sw4334A-ms98-a-0053	A.67	247.120000	247.410000		along	along
sw4334A-ms98-a-0053	A.67	247.410000	247.470000		the	the
sw4334A-ms98-a-0053	A.67	247.470000	247.720000		same	same
sw4334A-ms98-a-0053	A.67	247.720000	248.120000		artist	artist
sw4334A-ms98-a-0053	A.69	248.120000	248.230000	<DEL>	---	an[d]-
sw4334A-ms98-a-0053	A.69	248.230000	248.462750		[silence]	[silence]
sw4334A-ms98-a-0054	A.69	248.462750	253.862875		[silence]	[silence]
sw4334A-ms98-a-0055	A.69	253.862875	254.436625		[silence]	[silence]
sw4334A-ms98-a-0055	A.69	254.436625	254.631625		Yeah	yeah
sw4334A-ms98-a-0055	A.71	254.631625	255.150000		[silence]	[silence]
sw4334A-ms98-a-0056	A.71	255.150000	258.065250		[silence]	[silence]
sw4334A-ms98-a-0057	A.71	258.065250	258.569375		[silence]	[silence]
sw4334A-ms98-a-0057	A.71	258.569375	258.705250		Yeah	yeah
sw4334A-ms98-a-0057	A.71	258.705250	258.805250		so	so
sw4334A-ms98-a-0057	A.71	258.805250	258.925250		you	you
sw4334A-ms98-a-0057	A.71	258.925250	259.115250		keep	keep
sw4334A-ms98-a-0057	A.71	259.115250	259.375250		buying	buying
sw4334A-ms98-a-0057	A.71	259.375250	259.435250		the	the
sw4334A-ms98-a-0057	A.71	259.435250	259.665250		same	same
sw4334A-ms98-a-0057	A.71	259.665250	259.975250		artists	artists
sw4334A-ms98-a-0057	A.71	259.975250	260.145250		until	until
sw4334A-ms98-a-0057	A.71	260.145250	260.235250		you	you
sw4334A-ms98-a-0057	A.71	260.235250	260.415250		don't	don't
sw4334A-ms98-a-0057	A.71	260.415250	260.575250		like	like
sw4334A-ms98-a-0057	A.71	260.575250	260.655250		an	an
sw4334A-ms98-a-0057	A.71	260.655250	260.965250		album	album
sw4334A-ms98-a-0057	A.71	260.965250	261.095250		then	then
sw4334A-ms98-a-0057	A.71	261.095250	261.175250		you	you
sw4334A-ms98-a-0057	A.71	261.175250	261.548125		stop	stop
sw4334A-ms98-a-0057	A.73	261.548125	261.910000		[silence]	[silence]
sw4334A-ms98-a-0058	A.73	261.910000	267.672250		[silence]	[silence]
sw4334A-ms98-a-0059	A.73	267.672250	268.312250		[silence]	[silence]
sw4334A-ms98-a-0059	A.73	268.312250	268.492250		Yeah	yeah
sw4334A-ms98-a-0059	A.75	268.492250	269.539750		[silence]	[silence]
sw4334A-ms98-a-0060	A.75	269.539750	276.075625		[silence]	[silence]
sw4334A-ms98-a-0061	A.75	276.075625	276.654000		[silence]	[silence]
sw4334A-ms98-a-0061	A.75	276.654000	276.735625		Yeah	yeah
sw4334A-ms98-a-0061	A.75	276.735625	276.855625		see	see
sw4334A-ms98-a-0061	A.75	276.855625	277.005625		that's	that's
sw4334A-ms98-a-0061	A.75	277.005625	277.125625		one	one
sw4334A-ms98-a-0061	A.75	277.125625	277.255625		thing	thing
sw4334A-ms98-a-0061	A.75	277.255625	277.325625		I	i
sw4334A-ms98-a-0061	A.75	277.325625	277.495625		like	like
sw4334A-ms98-a-0061	A.75	277.495625	277.712000		about	about
sw4334A-ms98-a-0061	A.75	277.712000	277.974875		the	the
sw4334A-ms98-a-0061	A.75	277.974875	278.091625		uh	uh
sw4334A-ms98-a-0061	A.75	278.091625	278.275625		some	some
sw4334A-ms98-a-0061	A.75	278.275625	278.335625		of	of
sw4334A-ms98-a-0061	A.75	278.335625	278.395625		the	the
sw4334A-ms98-a-0061	A.75	278.395625	278.635625		folk	folk
sw4334A-ms98-a-0061	A.75	278.635625	278.935625		music	music
sw4334A-ms98-a-0061	A.75	278.935625	279.394750		scenes	scenes
sw4334A-ms98-a-0061	A.75	279.394750	279.515625		[silence]	[silence]
sw4334A-ms98-a-0061	A.75	279.515625	279.575625		you	you
sw4334A-ms98-a-0061	A.75	279.575625	279.635625		know	know
sw4334A-ms98-a-0061	A.75	279.635625	279.826250		there's	there's
sw4334A-ms98-a-0061	A.75	279.826250	280.018375		a	a
sw4334A-ms98-a-0061	A.75	280.018375	280.305625		couple	couple
sw4334A-ms98-a-0061	A.75	280.305625	280.435625		of	of
sw4334A-ms98-a-0061	A.75	280.435625	280.805625		nice	nice
sw4334A-ms98-a-0061	A.75	280.805625	281.152000		uh	uh
sw4334A-ms98-a-0061	A.75	281.152000	281.385625		[silence]	[silence]
sw4334A-ms98-a-0061	A.75	281.385625	281.665625		small	small
sw4334A-ms98-a-0061	A.75	281.665625	282.055625		coffee	coffee
sw4334A-ms98-a-0061	A.75	282.055625	282.475625		houses	houses
sw4334A-ms98-a-0061	A.75	282.475625	282.635625		up	up
sw4334A-ms98-a-0061	A.75	282.635625	282.695625		in	in
sw4334A-ms98-a-0061	A.75	282.695625	282.835625		New	New
sw4334A-ms98-a-0061	A.75	282.835625	283.315625		Jersey	Jersey
sw4334A-ms98-a-0061	A.77	283.315625	283.769000		[silence]	[silence]
sw4334A-ms98-a-0062	A.77	283.769000	284.095250		[silence]	[silence]
sw4334A-ms98-a-0062	A.77	284.095250	284.709000		And	and
sw4334A-ms98-a-0062	A.77	284.709000	284.869000		it's	it's
sw4334A-ms98-a-0062	A.77	284.869000	285.049000		very	very
sw4334A-ms98-a-0062	A.77	285.049000	285.309000		nice	nice
sw4334A-ms98-a-0062	A.77	285.309000	285.379000		you	you
sw4334A-ms98-a-0062	A.77	285.379000	285.569000		go	go
sw4334A-ms98-a-0062	A.77	285.569000	285.769000		into	into
sw4334A-ms98-a-0062	A.77	285.769000	285.839000		the	the
sw4334A-ms98-a-0062	A.77	285.839000	286.199000		coffee	coffee
sw4334A-ms98-a-0062	A.77	286.199000	286.519000		house	house
sw4334A-ms98-a-0062	A.77	286.519000	286.739000		and	and
sw4334A-ms98-a-0062	A.77	286.739000	286.809000		you	you
sw4334A-ms98-a-0062	A.77	286.809000	286.869000		know	know
sw4334A-ms98-a-0062	A.77	286.869000	286.929000		an	an
sw4334A-ms98-a-0062	A.77	286.929000	287.239000		artist	artist
sw4334A-ms98-a-0062	A.77	287.239000	287.339000		is	is
sw4334A-ms98-a-0062	A.77	287.339000	287.539000		there	there
sw4334A-ms98-a-0062	A.77	287.539000	287.699000		and	and
sw4334A-ms98-a-0062	A.77	287.699000	287.959000		very	very
sw4334A-ms98-a-0062	A.77	287.959000	288.209000		often	often
sw4334A-ms98-a-0062	A.77	288.209000	288.309000		the	the
sw4334A-ms98-a-0062	A.77	288.309000	288.549000		artist	artist
sw4334A-ms98-a-0062	A.77	288.549000	288.639000		will	will
sw4334A-ms98-a-0062	A.77	288.639000	288.829000		have	have
sw4334A-ms98-a-0062	A.77	288.829000	288.899000		a	a
sw4334A-ms98-a-0062	A.77	288.899000	289.025500		d-	d[emo]-
sw4334A-ms98-a-0062	A.77	289.025500	289.255250		[silence]	[silence]
sw4334A-ms98-a-0062	A.77	289.255250	289.339000		an	an
sw4334A-ms98-a-0062	A.77	289.339000	289.759000		album	album
sw4334A-ms98-a-0062	A.77	289.759000	290.123750		[silence]	[silence]
sw4334A-ms98-a-0063	A.77	290.123750	290.648500		[silence]	[silence]
sw4334A-ms98-a-0063	A.77	290.648500	291.003750		and	and
sw4334A-ms98-a-0063	A.77	291.003750	291.133750		so	so
sw4334A-ms98-a-0063	A.77	291.133750	291.223750		if	if
sw4334A-ms98-a-0063	A.77	291.223750	291.303750		you	you
sw4334A-ms98-a-0063	A.77	291.303750	291.523750		like	like
sw4334A-ms98-a-0063	A.77	291.523750	291.593750		the	the
sw4334A-ms98-a-0063	A.77	291.593750	291.813750		artist	artist
sw4334A-ms98-a-0063	A.77	291.813750	291.883750		you	you
sw4334A-ms98-a-0063	A.77	291.883750	292.055750		buy	buy
sw4334A-ms98-a-0063	A.77	292.055750	292.113125		the	the
sw4334A-ms98-a-0063	A.77	292.113125	292.463750		album	album
sw4334A-ms98-a-0063	A.79	292.463750	292.808625		[silence]	[silence]
sw4334A-ms98-a-0064	A.79	292.808625	293.087875		[silence]	[silence]
sw4334A-ms98-a-0064	A.79	293.087875	293.178625		So	so
sw4334A-ms98-a-0064	A.79	293.178625	293.361375		you	you
sw4334A-ms98-a-0064	A.79	293.361375	293.487500		[silence]	[silence]
sw4334A-ms98-a-0064	A.79	293.487500	293.828625		definitely	definitely
sw4334A-ms98-a-0064	A.79	293.828625	293.958625		get	get
sw4334A-ms98-a-0064	A.79	293.958625	294.048625		to	to
sw4334A-ms98-a-0064	A.79	294.048625	294.308625		try	try
sw4334A-ms98-a-0064	A.79	294.308625	294.588625		before	before
sw4334A-ms98-a-0064	A.79	294.588625	294.688625		you	you
sw4334A-ms98-a-0064	A.79	294.688625	295.025000		buy	buy
sw4334A-ms98-a-0064	A.81	295.025000	295.472250		[silence]	[silence]
sw4334A-ms98-a-0065	A.81	295.472250	296.692375		[silence]	[silence]
sw4334A-ms98-a-0066	A.81	296.692375	297.130375		[silence]	[silence]
sw4334A-ms98-a-0066	A.81	297.130375	297.292375	<SUB>	You	though
sw4334A-ms98-a-0066	A.81	297.292375	297.292375	<INS>	know	---
sw4334A-ms98-a-0066	A.81	297.292375	297.382375		it	it
sw4334A-ms98-a-0066	A.81	297.382375	297.472375		[silence]	[silence]
sw4334A-ms98-a-0066	A.81	297.472375	297.682375		you	you
sw4334A-ms98-a-0066	A.81	297.682375	297.742375		[silence]	[silence]
sw4334A-ms98-a-0066	A.81	297.742375	297.872375		you	you
sw4334A-ms98-a-0066	A.81	297.872375	298.032375		[silence]	[silence]
sw4334A-ms98-a-0066	A.81	298.032375	298.152375		you	you
sw4334A-ms98-a-0066	A.81	298.152375	298.342375		don't	don't
sw4334A-ms98-a-0066	A.81	298.342375	298.719000		always	always
sw4334A-ms98-a-0066	A.81	298.719000	299.010750		quite	quite
sw4334A-ms98-a-0066	A.81	299.010750	299.085125		[silence]	[silence]
sw4334A-ms98-a-0066	A.81	299.085125	299.252375		get	get
sw4334A-ms98-a-0066	A.81	299.252375	299.382375		it	it
sw4334A-ms98-a-0066	A.81	299.382375	299.596875		right	right
sw4334A-ms98-a-0066	A.81	299.596875	299.618000		[silence]	[silence]
