sw4316A-ms98-a-0001	A.1	0.000000	0.006875		[silence]	[silence]
sw4316A-ms98-a-0002	A.1	0.006875	0.026875		[silence]	[silence]
sw4316A-ms98-a-0002	A.1	0.026875	0.086875		Do	do
sw4316A-ms98-a-0002	A.1	0.086875	0.146875		you	you
sw4316A-ms98-a-0002	A.1	0.146875	0.326875		think	think
sw4316A-ms98-a-0002	A.1	0.326875	0.426875		that	that
sw4316A-ms98-a-0002	A.1	0.426875	0.596875		there's	there's
sw4316A-ms98-a-0002	A.1	0.596875	0.776875		any	any
sw4316A-ms98-a-0002	A.1	0.776875	0.986875		way	way
sw4316A-ms98-a-0002	A.1	0.986875	1.286875		that	that
sw4316A-ms98-a-0002	A.1	1.286875	1.566875		uh	uh
sw4316A-ms98-a-0002	A.1	1.566875	1.666875		or	or
sw4316A-ms98-a-0002	A.1	1.666875	1.766875		do	do
sw4316A-ms98-a-0002	A.1	1.766875	1.826875		you	you
sw4316A-ms98-a-0002	A.1	1.826875	1.966875		think	think
sw4316A-ms98-a-0002	A.1	1.966875	2.086875		there's	there's
sw4316A-ms98-a-0002	A.1	2.086875	2.216875		too	too
sw4316A-ms98-a-0002	A.1	2.216875	2.406875		much	much
sw4316A-ms98-a-0002	A.1	2.406875	2.716875		crime	crime
sw4316A-ms98-a-0002	A.1	2.716875	2.936875		now	now
sw4316A-ms98-a-0002	A.1	2.936875	2.976875		I	i
sw4316A-ms98-a-0002	A.1	2.976875	3.089875		mean	mean
sw4316A-ms98-a-0002	A.1	3.089875	3.169000		I	i
sw4316A-ms98-a-0002	A.1	3.169000	3.404125		guess	guess
sw4316A-ms98-a-0002	A.3	3.404125	3.844750		[silence]	[silence]
sw4316A-ms98-a-0002	A.3	3.844750	4.056875		any	any
sw4316A-ms98-a-0002	A.3	4.056875	4.386875		crime	crime
sw4316A-ms98-a-0002	A.3	4.386875	4.506875		is	is
sw4316A-ms98-a-0002	A.3	4.506875	4.656875		too	too
sw4316A-ms98-a-0002	A.3	4.656875	5.056875		much	much
sw4316A-ms98-a-0002	A.3	5.056875	5.196875		but	but
sw4316A-ms98-a-0002	A.5	5.196875	5.453500		It's	it's
sw4316A-ms98-a-0002	A.5	5.453500	6.186875		[silence]	[silence]
sw4316A-ms98-a-0002	A.5	6.186875	6.306875		out	out
sw4316A-ms98-a-0002	A.5	6.306875	6.366875		of	of
sw4316A-ms98-a-0002	A.5	6.366875	6.896875		control	control
sw4316A-ms98-a-0002	A.7	6.896875	7.442000		[silence]	[silence]
sw4316A-ms98-a-0003	A.7	7.442000	41.376000		[silence]	[silence]
sw4316A-ms98-a-0004	A.7	41.376000	41.876000		[silence]	[silence]
sw4316A-ms98-a-0004	A.7	41.876000	42.256000		Really	really
sw4316A-ms98-a-0004	A.9	42.256000	42.886250		[silence]	[silence]
sw4316A-ms98-a-0005	A.9	42.886250	43.206750		[silence]	[silence]
sw4316A-ms98-a-0005	A.9	43.206750	43.290000		I	i
sw4316A-ms98-a-0005	A.9	43.290000	43.356250		would	would
sw4316A-ms98-a-0005	A.9	43.356250	43.486250		not	not
sw4316A-ms98-a-0005	A.9	43.486250	43.656250		of	of
sw4316A-ms98-a-0005	A.9	43.656250	43.836250	<DEL>	---	i
sw4316A-ms98-a-0005	A.9	43.836250	44.126250		okay	okay_1
sw4316A-ms98-a-0005	A.9	44.126250	44.176250		I	i
sw4316A-ms98-a-0005	A.9	44.176250	44.366250	<CONT>	would	wouldn't
sw4316A-ms98-a-0005	A.9	44.366250	44.366250	<CONT>	not	+++
sw4316A-ms98-a-0005	A.9	44.366250	44.466250		have	have
sw4316A-ms98-a-0005	A.9	44.466250	44.676250		guessed	guessed
sw4316A-ms98-a-0005	A.9	44.676250	44.794000		that	that
sw4316A-ms98-a-0005	A.9	44.794000	44.899500		in	in
sw4316A-ms98-a-0005	A.9	44.899500	45.256250		Seattle	Seattle
sw4316A-ms98-a-0005	A.11	45.256250	46.191750		[silence]	[silence]
sw4316A-ms98-a-0006	A.11	46.191750	47.191750		[silence]	[silence]
sw4316A-ms98-a-0006	A.11	47.191750	47.579000		Yeah	yeah
sw4316A-ms98-a-0006	A.13	47.579000	47.902875		[silence]	[silence]
sw4316A-ms98-a-0006	A.13	47.902875	47.997750	<SUB>	You	i
sw4316A-ms98-a-0006	A.13	47.997750	48.202125		know	know
sw4316A-ms98-a-0006	A.15	48.202125	48.694000		[silence]	[silence]
sw4316A-ms98-a-0007	A.15	48.694000	55.289375		[silence]	[silence]
sw4316A-ms98-a-0008	A.15	55.289375	55.839375		[silence]	[silence]
sw4316A-ms98-a-0008	A.15	55.839375	55.935250		Yeah	yeah
sw4316A-ms98-a-0008	A.15	55.935250	56.002125		I	i
sw4316A-ms98-a-0008	A.15	56.002125	56.402125		wonder	wonder
sw4316A-ms98-a-0008	A.15	56.402125	56.469375		I	i
sw4316A-ms98-a-0008	A.15	56.469375	56.908625		mean	mean
sw4316A-ms98-a-0008	A.15	56.908625	57.038625		[silence]	[silence]
sw4316A-ms98-a-0008	A.15	57.038625	57.117625		I	i
sw4316A-ms98-a-0008	A.15	57.117625	57.573750		wonder	wonder
sw4316A-ms98-a-0008	A.15	57.573750	57.777125		[silence]	[silence]
sw4316A-ms98-a-0008	A.15	57.777125	57.894625		[vocalized-noise]	[vocalized-noise]
sw4316A-ms98-a-0008	A.15	57.894625	58.267500		what	what
sw4316A-ms98-a-0008	A.15	58.267500	58.733875		[silence]	[silence]
sw4316A-ms98-a-0009	A.15	58.733875	59.223875		[silence]	[silence]
sw4316A-ms98-a-0009	A.15	59.223875	59.573875		what	what
sw4316A-ms98-a-0009	A.15	59.573875	60.126750		really	really
sw4316A-ms98-a-0009	A.15	60.126750	60.230000		[silence]	[silence]
sw4316A-ms98-a-0009	A.15	60.230000	60.429625		is	is
sw4316A-ms98-a-0009	A.15	60.429625	60.573875		the	the
sw4316A-ms98-a-0009	A.15	60.573875	60.883875		answer	answer
sw4316A-ms98-a-0009	A.15	60.883875	60.933875		I	i
sw4316A-ms98-a-0009	A.15	60.933875	61.171250		mean	mean
sw4316A-ms98-a-0009	A.15	61.171250	61.506500		[silence]	[silence]
sw4316A-ms98-a-0009	A.15	61.506500	61.618125		it	it
sw4316A-ms98-a-0009	A.15	61.618125	61.843875		seems	seems
sw4316A-ms98-a-0009	A.15	61.843875	62.023875		like	like
sw4316A-ms98-a-0009	A.15	62.023875	62.187875		our	our
sw4316A-ms98-a-0009	A.15	62.187875	62.300875		[silence]	[silence]
sw4316A-ms98-a-0009	A.15	62.300875	62.552875		our	our
sw4316A-ms98-a-0009	A.15	62.552875	62.750125		the	the
sw4316A-ms98-a-0009	A.15	62.750125	62.987375		[silence]	[silence]
sw4316A-ms98-a-0009	A.15	62.987375	63.323875		prison	prison
sw4316A-ms98-a-0009	A.15	63.323875	63.933875		systems	systems
sw4316A-ms98-a-0009	A.15	63.933875	64.153875		[silence]	[silence]
sw4316A-ms98-a-0009	A.15	64.153875	64.273875		we	we
sw4316A-ms98-a-0009	A.15	64.273875	64.543875		can't	can't
sw4316A-ms98-a-0009	A.15	64.543875	64.673875		seem	seem
sw4316A-ms98-a-0009	A.15	64.673875	64.733875		to	to
sw4316A-ms98-a-0009	A.15	64.733875	65.173875		decide	decide
sw4316A-ms98-a-0009	A.15	65.173875	65.413875		whether	whether
sw4316A-ms98-a-0009	A.15	65.413875	65.493875		or	or
sw4316A-ms98-a-0009	A.15	65.493875	65.713875		not	not
sw4316A-ms98-a-0009	A.15	65.713875	65.993875		it's	it's
sw4316A-ms98-a-0009	A.15	65.993875	66.043875		a	a
sw4316A-ms98-a-0009	A.15	66.043875	66.513875		reform	reform
sw4316A-ms98-a-0009	A.15	66.513875	66.973875		system	system
sw4316A-ms98-a-0009	A.15	66.973875	67.103875		or	or
sw4316A-ms98-a-0009	A.15	67.103875	67.143875	<DEL>	---	a
sw4316A-ms98-a-0009	A.15	67.143875	67.493875		penal	penal
sw4316A-ms98-a-0009	A.15	67.493875	67.953875		system	system
sw4316A-ms98-a-0009	A.17	67.953875	68.473000		[silence]	[silence]
sw4316A-ms98-a-0010	A.17	68.473000	70.235750		[silence]	[silence]
sw4316A-ms98-a-0011	A.17	70.235750	70.715750		[silence]	[silence]
sw4316A-ms98-a-0011	A.17	70.715750	71.095750		Yeah	yeah
sw4316A-ms98-a-0011	A.19	71.095750	71.603625		[silence]	[silence]
sw4316A-ms98-a-0012	A.19	71.603625	76.599750		[silence]	[silence]
sw4316A-ms98-a-0013	A.19	76.599750	77.099750		[silence]	[silence]
sw4316A-ms98-a-0013	A.19	77.099750	77.339750		But	but
sw4316A-ms98-a-0013	A.19	77.339750	77.609750		but	but
sw4316A-ms98-a-0013	A.19	77.609750	77.669750		the	the
sw4316A-ms98-a-0013	A.19	77.669750	77.989750		problem	problem
sw4316A-ms98-a-0013	A.19	77.989750	78.079750		is	is
sw4316A-ms98-a-0013	A.19	78.079750	78.199750	<SUB>	is	th[at]-
sw4316A-ms98-a-0013	A.19	78.199750	78.389750		that	that
sw4316A-ms98-a-0013	A.19	78.389750	78.699750		we	we
sw4316A-ms98-a-0013	A.19	78.699750	78.829750		we	we
sw4316A-ms98-a-0013	A.19	78.829750	79.039750		only	only
sw4316A-ms98-a-0013	A.19	79.039750	79.319750		have	have
sw4316A-ms98-a-0013	A.19	79.319750	79.469750		but	but
sw4316A-ms98-a-0013	A.19	79.469750	79.599750		so	so
sw4316A-ms98-a-0013	A.19	79.599750	79.889750		much	much
sw4316A-ms98-a-0013	A.19	79.889750	80.329750		room	room
sw4316A-ms98-a-0013	A.19	80.329750	80.489750		and	and
sw4316A-ms98-a-0013	A.19	80.489750	80.659750		we	we
sw4316A-ms98-a-0013	A.19	80.659750	80.779750		we	we
sw4316A-ms98-a-0013	A.19	80.779750	80.919750		try	try
sw4316A-ms98-a-0013	A.19	80.919750	80.999750		to	to
sw4316A-ms98-a-0013	A.19	80.999750	81.219750		put	put
sw4316A-ms98-a-0013	A.19	81.219750	81.459750		aside	aside
sw4316A-ms98-a-0013	A.19	81.459750	81.539750		in	in
sw4316A-ms98-a-0013	A.19	81.539750	81.609750		the	the
sw4316A-ms98-a-0013	A.19	81.609750	82.109750		warehouse	warehouse
sw4316A-ms98-a-0013	A.19	82.109750	82.209750		and	and
sw4316A-ms98-a-0013	A.19	82.209750	82.299750		all	all
sw4316A-ms98-a-0013	A.19	82.299750	82.399750		we	we
sw4316A-ms98-a-0013	A.19	82.399750	82.559750		do	do
sw4316A-ms98-a-0013	A.19	82.559750	82.749750		is	is
sw4316A-ms98-a-0013	A.19	82.749750	82.939750		just	just
sw4316A-ms98-a-0013	A.19	82.939750	83.219750		[silence]	[silence]
sw4316A-ms98-a-0013	A.19	83.219750	83.719750		displace	displace
sw4316A-ms98-a-0013	A.19	83.719750	83.919750		other	other
sw4316A-ms98-a-0013	A.19	83.919750	84.279750		people	people
sw4316A-ms98-a-0013	A.19	84.279750	84.489750		which	which
sw4316A-ms98-a-0013	A.19	84.489750	84.659750		come	come
sw4316A-ms98-a-0013	A.19	84.659750	84.849750		back	back
sw4316A-ms98-a-0013	A.19	84.849750	84.989750		into	into
sw4316A-ms98-a-0013	A.19	84.989750	85.499750		society	society
sw4316A-ms98-a-0013	A.19	85.499750	85.669750		and	and
sw4316A-ms98-a-0013	A.21	85.669750	86.199750		[silence]	[silence]
sw4316A-ms98-a-0013	A.21	86.199750	86.419750		commit	commit
sw4316A-ms98-a-0013	A.21	86.419750	86.819750		crimes	crimes
sw4316A-ms98-a-0013	A.21	86.819750	87.099750		and	and
sw4316A-ms98-a-0013	A.23	87.099750	87.923500		[silence]	[silence]
sw4316A-ms98-a-0014	A.23	87.923500	88.663500		[silence]	[silence]
sw4316A-ms98-a-0014	A.23	88.663500	88.913500		So	so
sw4316A-ms98-a-0014	A.23	88.913500	89.153500		it's	it's
sw4316A-ms98-a-0014	A.23	89.153500	89.433500		uh	uh
sw4316A-ms98-a-0014	A.25	89.433500	89.963750		[silence]	[silence]
sw4316A-ms98-a-0015	A.25	89.963750	95.220375		[silence]	[silence]
sw4316A-ms98-a-0016	A.25	95.220375	95.700375		[silence]	[silence]
sw4316A-ms98-a-0016	A.25	95.700375	95.810375		I	i
sw4316A-ms98-a-0016	A.25	95.810375	96.030375		get	get
sw4316A-ms98-a-0016	A.25	96.030375	96.120375		the	the
sw4316A-ms98-a-0016	A.25	96.120375	96.370375		feeling	feeling
sw4316A-ms98-a-0016	A.25	96.370375	96.460375		that	that
sw4316A-ms98-a-0016	A.25	96.460375	96.500375		a	a
sw4316A-ms98-a-0016	A.25	96.500375	96.670375		lot	lot
sw4316A-ms98-a-0016	A.25	96.670375	96.730375		of	of
sw4316A-ms98-a-0016	A.25	96.730375	96.960375		people	people
sw4316A-ms98-a-0016	A.25	96.960375	97.280375		have	have
sw4316A-ms98-a-0016	A.25	97.280375	97.400375		I'm	i'm
sw4316A-ms98-a-0016	A.25	97.400375	97.580375		not	not
sw4316A-ms98-a-0016	A.25	97.580375	97.920375		convinced	convinced
sw4316A-ms98-a-0016	A.25	97.920375	98.032250		that	that
sw4316A-ms98-a-0016	A.25	98.032250	98.189500		I	i
sw4316A-ms98-a-0016	A.25	98.189500	98.665000		have	have
sw4316A-ms98-a-0016	A.27	98.665000	99.026750		[silence]	[silence]
sw4316A-ms98-a-0017	A.27	99.026750	99.426750		[silence]	[silence]
sw4316A-ms98-a-0017	A.27	99.426750	99.882250	<SUB>	Uh	um
sw4316A-ms98-a-0017	A.27	99.882250	100.124000		[silence]	[silence]
sw4316A-ms98-a-0017	A.27	100.124000	100.437250		see	see
sw4316A-ms98-a-0017	A.27	100.437250	100.493750		I	i
sw4316A-ms98-a-0017	A.27	100.493750	100.636750		mean	mean
sw4316A-ms98-a-0017	A.27	100.636750	100.726750		my	my
sw4316A-ms98-a-0017	A.27	100.726750	100.976750		mom	mom
sw4316A-ms98-a-0017	A.27	100.976750	101.186750		taught	taught
sw4316A-ms98-a-0017	A.27	101.186750	101.446750		English	English
sw4316A-ms98-a-0017	A.27	101.446750	101.526750		as	as
sw4316A-ms98-a-0017	A.27	101.526750	101.596750		a	a
sw4316A-ms98-a-0017	A.27	101.596750	101.849625		second	second
sw4316A-ms98-a-0017	A.27	101.849625	102.489875		language	language
sw4316A-ms98-a-0017	A.27	102.489875	102.586750	<DEL>	---	a[nd]-
sw4316A-ms98-a-0017	A.27	102.586750	102.916750		and	and
sw4316A-ms98-a-0017	A.27	102.916750	103.366750		[silence]	[silence]
sw4316A-ms98-a-0017	A.27	103.366750	103.556750		and	and
sw4316A-ms98-a-0017	A.27	103.556750	103.646750		she	she
sw4316A-ms98-a-0017	A.27	103.646750	103.776750		was	was
sw4316A-ms98-a-0017	A.27	103.776750	104.076750		dealing	dealing
sw4316A-ms98-a-0017	A.27	104.076750	104.446750		mostly	mostly
sw4316A-ms98-a-0017	A.27	104.446750	104.566750		with	with
sw4316A-ms98-a-0017	A.27	104.566750	104.876750		people	people
sw4316A-ms98-a-0017	A.27	104.876750	104.966750		that	that
sw4316A-ms98-a-0017	A.27	104.966750	105.303375		were	were
sw4316A-ms98-a-0017	A.27	105.303375	105.423875		[silence]	[silence]
sw4316A-ms98-a-0017	A.27	105.423875	105.586750		were	were
sw4316A-ms98-a-0017	A.27	105.586750	105.696750		in	in
sw4316A-ms98-a-0017	A.27	105.696750	105.866750		on	on
sw4316A-ms98-a-0017	A.27	105.866750	106.136750		drug	drug
sw4316A-ms98-a-0017	A.27	106.136750	106.622625		crimes	crimes
sw4316A-ms98-a-0017	A.27	106.622625	107.131000		[silence]	[silence]
sw4316A-ms98-a-0017	A.27	107.131000	107.621375		and	and
sw4316A-ms98-a-0017	A.27	107.621375	108.122250		[silence]	[silence]
sw4316A-ms98-a-0017	A.27	108.122250	108.495875	<SUB>	uh	um
sw4316A-ms98-a-0017	A.29	108.495875	108.996875		[silence]	[silence]
sw4316A-ms98-a-0018	A.29	108.996875	109.536875		[silence]	[silence]
sw4316A-ms98-a-0018	A.29	109.536875	109.756875		Yes	yes
sw4316A-ms98-a-0018	A.31	109.756875	110.036875		[silence]	[silence]
sw4316A-ms98-a-0018	A.31	110.036875	110.126875		In	in
sw4316A-ms98-a-0018	A.31	110.126875	110.306875		a	a
sw4316A-ms98-a-0018	A.33	110.306875	110.416875		in	in
sw4316A-ms98-a-0018	A.33	110.416875	110.446875		a	a
sw4316A-ms98-a-0018	A.33	110.446875	110.806875		maximum	maximum
sw4316A-ms98-a-0018	A.33	110.806875	111.076875		security	security
sw4316A-ms98-a-0018	A.33	111.076875	111.596875		prison	prison
sw4316A-ms98-a-0018	A.33	111.596875	111.766875		down	down
sw4316A-ms98-a-0018	A.33	111.766875	111.866875		in	in
sw4316A-ms98-a-0018	A.33	111.866875	112.086875		central	central
sw4316A-ms98-a-0018	A.33	112.086875	112.505000		Virginia	Virginia
sw4316A-ms98-a-0018	A.35	112.505000	113.201750		[silence]	[silence]
sw4316A-ms98-a-0018	A.35	113.201750	113.828500		And	and
sw4316A-ms98-a-0018	A.35	113.828500	113.956625		[silence]	[silence]
sw4316A-ms98-a-0018	A.35	113.956625	114.056875		the	the
sw4316A-ms98-a-0018	A.35	114.056875	114.406875		problem	problem
sw4316A-ms98-a-0018	A.35	114.406875	114.576875		she	she
sw4316A-ms98-a-0018	A.35	114.576875	114.836875		had	had
sw4316A-ms98-a-0018	A.35	114.836875	114.936875		was	was
sw4316A-ms98-a-0018	A.35	114.936875	115.116875		not	not
sw4316A-ms98-a-0018	A.35	115.116875	115.226875		with	with
sw4316A-ms98-a-0018	A.35	115.226875	115.286875		the	the
sw4316A-ms98-a-0018	A.35	115.286875	115.829375		inmates	inmates
sw4316A-ms98-a-0018	A.35	115.829375	116.108125		[silence]	[silence]
sw4316A-ms98-a-0018	A.35	116.108125	116.196875		at	at
sw4316A-ms98-a-0018	A.35	116.196875	116.494875		all	all
sw4316A-ms98-a-0018	A.35	116.494875	117.108875		[silence]	[silence]
sw4316A-ms98-a-0018	A.35	117.108875	117.356875		The	the
sw4316A-ms98-a-0018	A.35	117.356875	117.446875		the	the
sw4316A-ms98-a-0018	A.35	117.446875	117.696875		people	people
sw4316A-ms98-a-0018	A.35	117.696875	117.836875		that	that
sw4316A-ms98-a-0018	A.35	117.836875	117.936875		she	she
sw4316A-ms98-a-0018	A.35	117.936875	118.026875		had	had
sw4316A-ms98-a-0018	A.35	118.026875	118.086875		the	the
sw4316A-ms98-a-0018	A.35	118.086875	118.296875		most	most
sw4316A-ms98-a-0018	A.35	118.296875	118.676875		problems	problems
sw4316A-ms98-a-0018	A.35	118.676875	119.166875		with	with
sw4316A-ms98-a-0018	A.35	119.166875	119.376875		were	were
sw4316A-ms98-a-0018	A.35	119.376875	119.436875		the	the
sw4316A-ms98-a-0018	A.35	119.436875	119.606875		people	people
sw4316A-ms98-a-0018	A.35	119.606875	119.696875		that	that
sw4316A-ms98-a-0018	A.35	119.696875	119.836875		ran	ran
sw4316A-ms98-a-0018	A.35	119.836875	119.896875		the	the
sw4316A-ms98-a-0018	A.35	119.896875	120.385750		prison	prison
sw4316A-ms98-a-0018	A.37	120.385750	120.630500		[silence]	[silence]
sw4316A-ms98-a-0018	A.37	120.630500	120.725625		I	i
sw4316A-ms98-a-0018	A.37	120.725625	121.033500		mean	mean
sw4316A-ms98-a-0018	A.39	121.033500	121.925250		[silence]	[silence]
sw4316A-ms98-a-0019	A.39	121.925250	122.865250		[silence]	[silence]
sw4316A-ms98-a-0019	A.39	122.865250	123.025250		It	it
sw4316A-ms98-a-0019	A.39	123.025250	123.265250		was	was
sw4316A-ms98-a-0019	A.39	123.265250	123.335250		it	it
sw4316A-ms98-a-0019	A.39	123.335250	123.516375		was	was
sw4316A-ms98-a-0019	A.39	123.516375	123.595500		I	i
sw4316A-ms98-a-0019	A.39	123.595500	123.755250		mean	mean
sw4316A-ms98-a-0019	A.39	123.755250	123.915250		they	they
sw4316A-ms98-a-0019	A.39	123.915250	124.005250		they	they
sw4316A-ms98-a-0019	A.39	124.005250	124.227375		put	put
sw4316A-ms98-a-0019	A.39	124.227375	124.641500		her	her
sw4316A-ms98-a-0019	A.39	124.641500	124.758250		I	i
sw4316A-ms98-a-0019	A.39	124.758250	124.835250		mean	mean
sw4316A-ms98-a-0019	A.39	124.835250	124.915250		I	i
sw4316A-ms98-a-0019	A.39	124.915250	125.315250		didn't	didn't
sw4316A-ms98-a-0019	A.39	125.315250	125.765250		obviously	obviously
sw4316A-ms98-a-0019	A.39	125.765250	125.765250	<INS>	I	---
sw4316A-ms98-a-0019	A.39	125.765250	126.015250		didn't	didn't
sw4316A-ms98-a-0019	A.39	126.015250	126.095250		see	see
sw4316A-ms98-a-0019	A.39	126.095250	126.165250		the	the
sw4316A-ms98-a-0019	A.39	126.165250	126.727375		classroom	classroom
sw4316A-ms98-a-0019	A.39	126.727375	127.202000		[silence]	[silence]
sw4316A-ms98-a-0019	A.39	127.202000	127.325250	<SUB>	uh	u[m]-
sw4316A-ms98-a-0019	A.39	127.325250	127.575250	<DEL>	---	um
sw4316A-ms98-a-0019	A.39	127.575250	127.755250		[silence]	[silence]
sw4316A-ms98-a-0019	A.39	127.755250	128.135250		and	[laughter-and]
sw4316A-ms98-a-0019	A.39	128.135250	128.495250		hopefully	hopefully
sw4316A-ms98-a-0019	A.39	128.495250	128.685250		never	never
sw4316A-ms98-a-0019	A.39	128.685250	128.925250		will	will
sw4316A-ms98-a-0019	A.39	128.925250	129.183250		[silence]	[silence]
sw4316A-ms98-a-0020	A.39	129.183250	129.393250		[silence]	[silence]
sw4316A-ms98-a-0020	A.39	129.393250	129.573250		but	but
sw4316A-ms98-a-0020	A.39	129.573250	129.953875		uh	uh
sw4316A-ms98-a-0020	A.41	129.953875	130.335500		[silence]	[silence]
sw4316A-ms98-a-0020	A.41	130.335500	130.573250		they	they
sw4316A-ms98-a-0020	A.41	130.573250	130.743250		they	they
sw4316A-ms98-a-0020	A.41	130.743250	130.913250		put	put
sw4316A-ms98-a-0020	A.41	130.913250	130.974625		her	her
sw4316A-ms98-a-0020	A.41	130.974625	131.053750		at	at
sw4316A-ms98-a-0020	A.41	131.053750	131.183250		the	the
sw4316A-ms98-a-0020	A.41	131.183250	131.382875		end	end
sw4316A-ms98-a-0020	A.41	131.382875	131.453250		of	of
sw4316A-ms98-a-0020	A.41	131.453250	131.553250		a	a
sw4316A-ms98-a-0020	A.41	131.553250	132.283250		hallway	hallway
sw4316A-ms98-a-0020	A.41	132.283250	132.393250		there	there
sw4316A-ms98-a-0020	A.41	132.393250	132.463250		were	were
sw4316A-ms98-a-0020	A.41	132.463250	132.673250		no	no
sw4316A-ms98-a-0020	A.41	132.673250	132.823250		other	other
sw4316A-ms98-a-0020	A.41	132.823250	133.233250		classes	classes
sw4316A-ms98-a-0020	A.41	133.233250	133.433250		going	going
sw4316A-ms98-a-0020	A.41	133.433250	133.573250		on	on
sw4316A-ms98-a-0020	A.41	133.573250	133.657375		at	at
sw4316A-ms98-a-0020	A.41	133.657375	133.762750		the	the
sw4316A-ms98-a-0020	A.41	133.762750	134.205750		time	time
sw4316A-ms98-a-0020	A.41	134.205750	134.544750		[silence]	[silence]
sw4316A-ms98-a-0020	A.41	134.544750	134.703250		and	and
sw4316A-ms98-a-0020	A.41	134.703250	134.773250		they	they
sw4316A-ms98-a-0020	A.41	134.773250	135.173250		refused	refused
sw4316A-ms98-a-0020	A.41	135.173250	135.253250		to	to
sw4316A-ms98-a-0020	A.41	135.253250	135.373250		let	let
sw4316A-ms98-a-0020	A.41	135.373250	135.443250		her	her
sw4316A-ms98-a-0020	A.41	135.443250	135.623250		wear	wear
sw4316A-ms98-a-0020	A.41	135.623250	135.663250		a	a
sw4316A-ms98-a-0020	A.41	135.663250	135.943250		body	body
sw4316A-ms98-a-0020	A.41	135.943250	136.053250	<SUB>	al-	a[larm]-
sw4316A-ms98-a-0020	A.41	136.053250	136.223250		[silence]	[silence]
sw4316A-ms98-a-0020	A.41	136.223250	136.393250		a	a
sw4316A-ms98-a-0020	A.41	136.393250	136.653250		body	body
sw4316A-ms98-a-0020	A.41	136.653250	137.133250		alarm	alarm
sw4316A-ms98-a-0020	A.43	137.133250	137.466000		[silence]	[silence]
sw4316A-ms98-a-0021	A.43	137.466000	137.876000		[silence]	[silence]
sw4316A-ms98-a-0021	A.43	137.876000	138.196875		Which	which
sw4316A-ms98-a-0021	A.43	138.196875	138.346375		[silence]	[silence]
sw4316A-ms98-a-0021	A.43	138.346375	138.406000	<SUB>	and	i
sw4316A-ms98-a-0021	A.43	138.406000	138.526000	<DEL>	---	know
sw4316A-ms98-a-0021	A.43	138.526000	138.576000		I	i
sw4316A-ms98-a-0021	A.43	138.576000	138.716000		don't	don't
sw4316A-ms98-a-0021	A.43	138.716000	138.776000		know	know
sw4316A-ms98-a-0021	A.43	138.776000	139.026000		exactly	exactly
sw4316A-ms98-a-0021	A.43	139.026000	139.126000		what	what
sw4316A-ms98-a-0021	A.43	139.126000	139.246000		that	that
sw4316A-ms98-a-0021	A.43	139.246000	139.416000		is	is
sw4316A-ms98-a-0021	A.43	139.416000	139.526000		but	but
sw4316A-ms98-a-0021	A.43	139.526000	139.606000		I	i
sw4316A-ms98-a-0021	A.43	139.606000	139.866000		just	just
sw4316A-ms98-a-0021	A.43	139.866000	140.106000		assume	assume
sw4316A-ms98-a-0021	A.43	140.106000	140.216000	<SUB>	it	it's
sw4316A-ms98-a-0021	A.43	140.216000	140.216000	<INS>	was	---
sw4316A-ms98-a-0021	A.43	140.216000	140.466000		something	something
sw4316A-ms98-a-0021	A.43	140.466000	140.616000		that	that
sw4316A-ms98-a-0021	A.43	140.616000	140.706000		she	she
sw4316A-ms98-a-0021	A.43	140.706000	140.911000		could	could
sw4316A-ms98-a-0021	A.43	140.911000	141.125750		[silence]	[silence]
sw4316A-ms98-a-0021	A.43	141.125750	141.316000		hit	hit
sw4316A-ms98-a-0021	A.43	141.316000	141.816000		immediately	immediately
sw4316A-ms98-a-0021	A.43	141.816000	142.126000		and	and
sw4316A-ms98-a-0021	A.43	142.126000	142.556000		and	and
sw4316A-ms98-a-0021	A.43	142.556000	142.866000		really	really
sw4316A-ms98-a-0021	A.43	142.866000	143.116000		annoy	annoy
sw4316A-ms98-a-0021	A.43	143.116000	143.156000		a	a
sw4316A-ms98-a-0021	A.43	143.156000	143.296000		lot	lot
sw4316A-ms98-a-0021	A.43	143.296000	143.356000		of	of
sw4316A-ms98-a-0021	A.43	143.356000	143.631375		people	people
sw4316A-ms98-a-0021	A.45	143.631375	144.033250		[silence]	[silence]
sw4316A-ms98-a-0022	A.45	144.033250	144.373250		[silence]	[silence]
sw4316A-ms98-a-0022	A.45	144.373250	144.633250		But	but
sw4316A-ms98-a-0022	A.45	144.633250	144.983250		uh	uh
sw4316A-ms98-a-0022	A.45	144.983250	145.556125		[silence]	[silence]
sw4316A-ms98-a-0023	A.45	145.556125	145.834875		[silence]	[silence]
sw4316A-ms98-a-0023	A.45	145.834875	145.919250		[vocalized-noise]	[vocalized-noise]
sw4316A-ms98-a-0023	A.45	145.919250	146.233375		[silence]	[silence]
sw4316A-ms98-a-0023	A.45	146.233375	146.336125		you	you
sw4316A-ms98-a-0023	A.45	146.336125	146.596625		know	know
sw4316A-ms98-a-0023	A.47	146.596625	146.679500		[silence]	[silence]
sw4316A-ms98-a-0023	A.47	146.679500	146.810250	<DEL>	---	i-
sw4316A-ms98-a-0023	A.47	146.810250	146.934500		[silence]	[silence]
sw4316A-ms98-a-0023	A.47	146.934500	147.276125	<DEL>	---	i'd
sw4316A-ms98-a-0023	A.47	147.276125	147.382375	<DEL>	---	ge[t]-
sw4316A-ms98-a-0023	A.47	147.382375	148.147125		[silence]	[silence]
sw4316A-ms98-a-0024	A.47	148.147125	148.697125		[silence]	[silence]
sw4316A-ms98-a-0024	A.47	148.697125	148.967125		No	no
sw4316A-ms98-a-0024	A.47	148.967125	149.107125		she	she
sw4316A-ms98-a-0024	A.47	149.107125	149.454625		didn't	didn't
sw4316A-ms98-a-0024	A.47	149.454625	149.616625		[silence]	[silence]
sw4316A-ms98-a-0024	A.47	149.616625	149.717125		She	she
sw4316A-ms98-a-0024	A.47	149.717125	150.017125		didn't	didn't
sw4316A-ms98-a-0024	A.47	150.017125	150.187125		she	she
sw4316A-ms98-a-0024	A.47	150.187125	150.337125		she	she
sw4316A-ms98-a-0024	A.47	150.337125	150.537125		felt	felt
sw4316A-ms98-a-0024	A.47	150.537125	150.797125		fine	fine
sw4316A-ms98-a-0024	A.47	150.797125	150.887125		for	for
sw4316A-ms98-a-0024	A.47	150.887125	150.947125		the	the
sw4316A-ms98-a-0024	A.47	150.947125	151.207125		first	first
sw4316A-ms98-a-0024	A.47	151.207125	151.397125		year	year
sw4316A-ms98-a-0024	A.47	151.397125	151.507125		when	when
sw4316A-ms98-a-0024	A.47	151.507125	151.637125		she	she
sw4316A-ms98-a-0024	A.47	151.637125	151.777125		had	had
sw4316A-ms98-a-0024	A.47	151.777125	151.857125		her	her
sw4316A-ms98-a-0024	A.47	151.857125	152.077125		first	first
sw4316A-ms98-a-0024	A.47	152.077125	152.177125		set	set
sw4316A-ms98-a-0024	A.47	152.177125	152.237125		of	of
sw4316A-ms98-a-0024	A.47	152.237125	152.517125		inmates	inmates
sw4316A-ms98-a-0024	A.47	152.517125	152.624500		and	and
sw4316A-ms98-a-0024	A.47	152.624500	152.918250		then	then
sw4316A-ms98-a-0024	A.47	152.918250	153.197125		later	later
sw4316A-ms98-a-0024	A.47	153.197125	153.568250		on	on
sw4316A-ms98-a-0024	A.47	153.568250	153.929875		[silence]	[silence]
sw4316A-ms98-a-0024	A.47	153.929875	154.047125		the	the
sw4316A-ms98-a-0024	A.47	154.047125	154.628125		uh	uh
sw4316A-ms98-a-0024	A.47	154.628125	154.921875		[silence]	[silence]
sw4316A-ms98-a-0024	A.47	154.921875	155.108750		the	the
sw4316A-ms98-a-0024	A.47	155.108750	155.557125		administration	administration
sw4316A-ms98-a-0024	A.47	155.557125	155.707125		kept	kept
sw4316A-ms98-a-0024	A.47	155.707125	155.927125		getting	getting
sw4316A-ms98-a-0024	A.47	155.927125	156.347125		worse	worse
sw4316A-ms98-a-0024	A.47	156.347125	157.077125		and	and
sw4316A-ms98-a-0024	A.47	157.077125	157.418375		uh	uh
sw4316A-ms98-a-0024	A.47	157.418375	157.731000		[silence]	[silence]
sw4316A-ms98-a-0024	A.47	157.731000	157.907125		she	she
sw4316A-ms98-a-0024	A.47	157.907125	158.067125		got	got
sw4316A-ms98-a-0024	A.47	158.067125	158.117125		a	a
sw4316A-ms98-a-0024	A.47	158.117125	158.327125		couple	couple
sw4316A-ms98-a-0024	A.47	158.327125	158.397125		of	of
sw4316A-ms98-a-0024	A.47	158.397125	158.707125		inmates	inmates
sw4316A-ms98-a-0024	A.47	158.707125	158.887125		that	that
sw4316A-ms98-a-0024	A.47	158.887125	159.027125		she	she
sw4316A-ms98-a-0024	A.47	159.027125	159.487125		wasn't	wasn't
sw4316A-ms98-a-0024	A.47	159.487125	159.557125		she	she
sw4316A-ms98-a-0024	A.47	159.557125	159.747125		didn't	didn't
sw4316A-ms98-a-0024	A.47	159.747125	159.837125		feel	feel
sw4316A-ms98-a-0024	A.47	159.837125	160.017125		quite	quite
sw4316A-ms98-a-0024	A.47	160.017125	160.087125		as	as
sw4316A-ms98-a-0024	A.47	160.087125	160.477125		comfortable	comfortable
sw4316A-ms98-a-0024	A.47	160.477125	160.767125		around	around
sw4316A-ms98-a-0024	A.49	160.767125	161.223500		[silence]	[silence]
sw4316A-ms98-a-0025	A.49	161.223500	161.663500		[silence]	[silence]
sw4316A-ms98-a-0025	A.49	161.663500	161.863500		But	but
sw4316A-ms98-a-0025	A.49	161.863500	162.033500		well	well
sw4316A-ms98-a-0025	A.49	162.033500	162.203500		she	she
sw4316A-ms98-a-0025	A.49	162.203500	162.303500		had	had
sw4316A-ms98-a-0025	A.49	162.303500	162.613500		decided	decided
sw4316A-ms98-a-0025	A.49	162.613500	162.703500		that	that
sw4316A-ms98-a-0025	A.49	162.703500	162.763500		it	it
sw4316A-ms98-a-0025	A.49	162.763500	162.953500		was	was
sw4316A-ms98-a-0025	A.49	162.953500	163.073500		when	when
sw4316A-ms98-a-0025	A.49	163.073500	163.153500		we	we
sw4316A-ms98-a-0025	A.49	163.153500	163.293500		came	came
sw4316A-ms98-a-0025	A.49	163.293500	163.453500		back	back
sw4316A-ms98-a-0025	A.49	163.453500	163.523500		to	to
sw4316A-ms98-a-0025	A.49	163.523500	163.583500		the	the
sw4316A-ms98-a-0025	A.49	163.583500	163.893500		States	states
sw4316A-ms98-a-0025	A.49	163.893500	163.983500		she	she
sw4316A-ms98-a-0025	A.49	163.983500	164.293500		decided	decided
sw4316A-ms98-a-0025	A.49	164.293500	164.383500		that	that
sw4316A-ms98-a-0025	A.49	164.383500	164.443500		it	it
sw4316A-ms98-a-0025	A.49	164.443500	164.573500		was	was
sw4316A-ms98-a-0025	A.49	164.573500	165.196750		too	too
sw4316A-ms98-a-0025	A.49	165.196750	165.935000		[silence]	[silence]
sw4316A-ms98-a-0025	A.49	165.935000	166.063500		she	she
sw4316A-ms98-a-0025	A.49	166.063500	166.333500		didn't	didn't
sw4316A-ms98-a-0025	A.49	166.333500	166.493500		feel	feel
sw4316A-ms98-a-0025	A.49	166.493500	166.603500		that	that
sw4316A-ms98-a-0025	A.49	166.603500	166.863500		public	public
sw4316A-ms98-a-0025	A.49	166.863500	167.233500		schools	schools
sw4316A-ms98-a-0025	A.49	167.233500	167.513500		were	were
sw4316A-ms98-a-0025	A.49	167.513500	167.513500	<INS>	s-	---
sw4316A-ms98-a-0025	A.49	167.513500	167.593500		were	were
sw4316A-ms98-a-0025	A.49	167.593500	167.963500		safe	safe
sw4316A-ms98-a-0025	A.49	167.963500	168.233500		[silence]	[silence]
sw4316A-ms98-a-0025	A.49	168.233500	168.403500		so	so
sw4316A-ms98-a-0025	A.49	168.403500	168.643500		next	next
sw4316A-ms98-a-0025	A.49	168.643500	168.773500		thing	thing
sw4316A-ms98-a-0025	A.49	168.773500	168.843500		you	you
sw4316A-ms98-a-0025	A.49	168.843500	168.953500		know	know
sw4316A-ms98-a-0025	A.49	168.953500	169.113500		she's	she's
sw4316A-ms98-a-0025	A.49	169.113500	169.423500		teaching	teaching
sw4316A-ms98-a-0025	A.49	169.423500	169.493500		in	in
sw4316A-ms98-a-0025	A.49	169.493500	169.523500		a	a
sw4316A-ms98-a-0025	A.49	169.523500	169.903500		maximum	maximum
sw4316A-ms98-a-0025	A.49	169.903500	170.203500		security	security
sw4316A-ms98-a-0025	A.49	170.203500	170.553500		prison	prison
sw4316A-ms98-a-0025	A.51	170.553500	171.392000		[silence]	[silence]
sw4316A-ms98-a-0026	A.51	171.392000	172.154750		[silence]	[silence]
sw4316A-ms98-a-0026	A.51	172.154750	172.359375		But	but
sw4316A-ms98-a-0026	A.51	172.359375	172.685500		uh	uh
sw4316A-ms98-a-0026	A.53	172.685500	173.145250		[silence]	[silence]
sw4316A-ms98-a-0027	A.53	173.145250	175.128750		[silence]	[silence]
sw4316A-ms98-a-0028	A.53	175.128750	175.648750		[silence]	[silence]
sw4316A-ms98-a-0028	A.53	175.648750	176.088875		Yeah	yeah
sw4316A-ms98-a-0028	A.53	176.088875	176.488125		[silence]	[silence]
sw4316A-ms98-a-0028	A.53	176.488125	176.658750		But	but
sw4316A-ms98-a-0028	A.53	176.658750	176.788750		but	but
sw4316A-ms98-a-0028	A.53	176.788750	176.848750		the	the
sw4316A-ms98-a-0028	A.53	176.848750	177.138750		point	point
sw4316A-ms98-a-0028	A.53	177.138750	177.258750	<SUB>	that	there
sw4316A-ms98-a-0028	A.53	177.258750	177.428750		was	was
sw4316A-ms98-a-0028	A.53	177.428750	177.578750	<DEL>	---	is
sw4316A-ms98-a-0028	A.53	177.578750	177.748750		that	that
sw4316A-ms98-a-0028	A.53	177.748750	177.938750		it	it
sw4316A-ms98-a-0028	A.53	177.938750	178.098750		[silence]	[silence]
sw4316A-ms98-a-0028	A.53	178.098750	178.228750		you	you
sw4316A-ms98-a-0028	A.53	178.228750	178.388750		know	know
sw4316A-ms98-a-0028	A.53	178.388750	178.528750		you	you
sw4316A-ms98-a-0028	A.53	178.528750	178.884625		said	said
sw4316A-ms98-a-0028	A.53	178.884625	179.268875		[silence]	[silence]
sw4316A-ms98-a-0028	A.53	179.268875	179.508750		that	that
sw4316A-ms98-a-0028	A.53	179.508750	179.848750		[silence]	[silence]
sw4316A-ms98-a-0028	A.53	179.848750	180.358750		perhaps	perhaps
sw4316A-ms98-a-0028	A.53	180.358750	180.598750		uh	uh
sw4316A-ms98-a-0028	A.53	180.598750	180.928750		people	people
sw4316A-ms98-a-0028	A.53	180.928750	181.088750		have	have
sw4316A-ms98-a-0028	A.53	181.088750	181.348750		given	given
sw4316A-ms98-a-0028	A.53	181.348750	181.679875		up	up
sw4316A-ms98-a-0028	A.53	181.679875	182.086625		[silence]	[silence]
sw4316A-ms98-a-0028	A.53	182.086625	182.188750		the	the
sw4316A-ms98-a-0028	A.53	182.188750	182.458750		thought	thought
sw4316A-ms98-a-0028	A.53	182.458750	182.598750		that	that
sw4316A-ms98-a-0028	A.53	182.598750	183.218750		rehabilitation's	rehabilitation's
sw4316A-ms98-a-0028	A.53	183.218750	183.718750		possible	possible
sw4316A-ms98-a-0028	A.53	183.718750	183.858750		and	and
sw4316A-ms98-a-0028	A.53	183.858750	183.978750		and	and
sw4316A-ms98-a-0028	A.53	183.978750	184.231625		I'm	i'm
sw4316A-ms98-a-0028	A.53	184.231625	184.386000		[silence]	[silence]
sw4316A-ms98-a-0028	A.53	184.386000	184.598750		I'm	i'm
sw4316A-ms98-a-0028	A.53	184.598750	185.188750		thinking	thinking
sw4316A-ms98-a-0028	A.53	185.188750	185.318750		that	that
sw4316A-ms98-a-0028	A.53	185.318750	185.458750		it's	it's
sw4316A-ms98-a-0028	A.53	185.458750	185.628750		even	even
sw4316A-ms98-a-0028	A.53	185.628750	185.688750		to	to
sw4316A-ms98-a-0028	A.53	185.688750	185.758750		the	the
sw4316A-ms98-a-0028	A.53	185.758750	186.078750		point	point
sw4316A-ms98-a-0028	A.53	186.078750	186.208750		that	that
sw4316A-ms98-a-0028	A.53	186.208750	186.278750		the	the
sw4316A-ms98-a-0028	A.53	186.278750	186.588750		people	people
sw4316A-ms98-a-0028	A.53	186.588750	186.772750		in	in
sw4316A-ms98-a-0028	A.53	186.772750	186.964750		[silence]	[silence]
sw4316A-ms98-a-0028	A.53	186.964750	187.158750		that	that
sw4316A-ms98-a-0028	A.53	187.158750	187.358750		run	run
sw4316A-ms98-a-0028	A.53	187.358750	187.418750		the	the
sw4316A-ms98-a-0028	A.53	187.418750	187.878750		system	system
sw4316A-ms98-a-0028	A.53	187.878750	188.058750		have	have
sw4316A-ms98-a-0028	A.53	188.058750	188.328750		given	given
sw4316A-ms98-a-0028	A.53	188.328750	188.508750		up	up
sw4316A-ms98-a-0028	A.53	188.508750	188.678750		on	on
sw4316A-ms98-a-0028	A.53	188.678750	188.848750		it	it
sw4316A-ms98-a-0028	A.55	188.848750	189.384125		[silence]	[silence]
sw4316A-ms98-a-0029	A.55	189.384125	195.327125		[silence]	[silence]
sw4316A-ms98-a-0030	A.55	195.327125	195.887125		[silence]	[silence]
sw4316A-ms98-a-0030	A.55	195.887125	196.437125	<SUB>	Uh	um-hum
sw4316A-ms98-a-0030	A.57	196.437125	196.808625		[silence]	[silence]
sw4316A-ms98-a-0031	A.57	196.808625	207.301375		[silence]	[silence]
sw4316A-ms98-a-0032	A.57	207.301375	207.801375		[silence]	[silence]
sw4316A-ms98-a-0032	A.57	207.801375	207.971375		But	but
sw4316A-ms98-a-0032	A.57	207.971375	208.278125		getting	getting
sw4316A-ms98-a-0032	A.57	208.278125	208.379875		I	i
sw4316A-ms98-a-0032	A.57	208.379875	208.671375		mean	mean
sw4316A-ms98-a-0032	A.57	208.671375	209.941375		[vocalized-noise]	[vocalized-noise]
sw4316A-ms98-a-0032	A.57	209.941375	210.282875		well	well
sw4316A-ms98-a-0032	A.57	210.282875	210.471250		[silence]	[silence]
sw4316A-ms98-a-0032	A.57	210.471250	210.621375		see	see
sw4316A-ms98-a-0032	A.57	210.621375	210.701375		I	i
sw4316A-ms98-a-0032	A.57	210.701375	210.861375		always	always
sw4316A-ms98-a-0032	A.57	210.861375	211.021375		have	have
sw4316A-ms98-a-0032	A.57	211.021375	211.351375		problems	problems
sw4316A-ms98-a-0032	A.57	211.351375	211.861375		because	because
sw4316A-ms98-a-0032	A.57	211.861375	212.071375		because	because
sw4316A-ms98-a-0032	A.57	212.071375	212.121375		I	i
sw4316A-ms98-a-0032	A.57	212.121375	212.241375		can	can
sw4316A-ms98-a-0032	A.57	212.241375	212.401375		never	never
sw4316A-ms98-a-0032	A.57	212.401375	212.691375		decide	decide
sw4316A-ms98-a-0032	A.57	212.691375	212.851375		whether	whether
sw4316A-ms98-a-0032	A.57	212.851375	212.911375		or	or
sw4316A-ms98-a-0032	A.57	212.911375	213.111375		not	not
sw4316A-ms98-a-0032	A.57	213.111375	213.301375		I'm	i'm
sw4316A-ms98-a-0032	A.57	213.301375	213.381375		I'm	i'm
sw4316A-ms98-a-0032	A.57	213.381375	213.591375		supposed	supposed
sw4316A-ms98-a-0032	A.57	213.591375	213.651375		to	to
sw4316A-ms98-a-0032	A.57	213.651375	213.711375		be	be
sw4316A-ms98-a-0032	A.57	213.711375	213.741375		a	a
sw4316A-ms98-a-0032	A.57	213.741375	214.351375		conservative	conservative
sw4316A-ms98-a-0032	A.57	214.351375	214.611375		or	or
sw4316A-ms98-a-0032	A.57	214.611375	214.711375		or	or
sw4316A-ms98-a-0032	A.57	214.711375	214.741375		a	a
sw4316A-ms98-a-0032	A.57	214.741375	215.304875		liberal	liberal
sw4316A-ms98-a-0032	A.57	215.304875	215.506625		but	but
sw4316A-ms98-a-0032	A.59	215.506625	215.883000		[silence]	[silence]
sw4316A-ms98-a-0033	A.59	215.883000	216.353000		[silence]	[silence]
sw4316A-ms98-a-0033	A.59	216.353000	216.600625		But	but
sw4316A-ms98-a-0033	A.59	216.600625	216.752250		I	i
sw4316A-ms98-a-0033	A.59	216.752250	217.101875	<SUB>	keep	kee[p]-
sw4316A-ms98-a-0033	A.61	217.101875	217.432000		[silence]	[silence]
sw4316A-ms98-a-0034	A.61	217.432000	217.792000		[silence]	[silence]
sw4316A-ms98-a-0034	A.61	217.792000	217.912000		I	i
sw4316A-ms98-a-0034	A.61	217.912000	218.192000		keep	keep
sw4316A-ms98-a-0034	A.61	218.192000	218.522000		thinking	thinking
sw4316A-ms98-a-0034	A.61	218.522000	218.642000		that	that
sw4316A-ms98-a-0034	A.61	218.642000	218.802000		there's	there's
sw4316A-ms98-a-0034	A.61	218.802000	218.982000		got	got
sw4316A-ms98-a-0034	A.61	218.982000	219.052000		to	to
sw4316A-ms98-a-0034	A.61	219.052000	219.142000		be	be
sw4316A-ms98-a-0034	A.61	219.142000	219.442000		some	some
sw4316A-ms98-a-0034	A.61	219.442000	219.652000		way	way
sw4316A-ms98-a-0034	A.61	219.652000	219.902000		that	that
sw4316A-ms98-a-0034	A.61	219.902000	220.042000		that	that
sw4316A-ms98-a-0034	A.61	220.042000	220.082000		a	a
sw4316A-ms98-a-0034	A.61	220.082000	220.312000		lot	lot
sw4316A-ms98-a-0034	A.61	220.312000	220.432000		of	of
sw4316A-ms98-a-0034	A.61	220.432000	220.742000		this	this
sw4316A-ms98-a-0034	A.61	220.742000	221.311750		is	is
sw4316A-ms98-a-0034	A.61	221.311750	221.751750		[silence]	[silence]
sw4316A-ms98-a-0035	A.61	221.751750	222.391750		[silence]	[silence]
sw4316A-ms98-a-0035	A.61	222.391750	223.231750		circumstances	circumstances
sw4316A-ms98-a-0035	A.61	223.231750	223.271750		I	i
sw4316A-ms98-a-0035	A.61	223.271750	223.391750		mean	mean
sw4316A-ms98-a-0035	A.61	223.391750	223.421750		I	i
sw4316A-ms98-a-0035	A.61	223.421750	223.661750		can't	can't
sw4316A-ms98-a-0035	A.61	223.661750	223.801750		help	help
sw4316A-ms98-a-0035	A.61	223.801750	223.911750		but	but
sw4316A-ms98-a-0035	A.61	223.911750	224.171750		wonder	wonder
sw4316A-ms98-a-0035	A.61	224.171750	224.481750		if	if
sw4316A-ms98-a-0035	A.61	224.481750	224.641750		if	if
sw4316A-ms98-a-0035	A.61	224.641750	224.751750		I	i
sw4316A-ms98-a-0035	A.61	224.751750	225.001750		grew	grew
sw4316A-ms98-a-0035	A.61	225.001750	225.271000		up	up
sw4316A-ms98-a-0035	A.61	225.271000	225.365125		[silence]	[silence]
sw4316A-ms98-a-0035	A.61	225.365125	226.221750		without	without
sw4316A-ms98-a-0035	A.61	226.221750	226.251750		a	a
sw4316A-ms98-a-0035	A.61	226.251750	226.991750		father	father
sw4316A-ms98-a-0035	A.61	226.991750	227.121750		on	on
sw4316A-ms98-a-0035	A.61	227.121750	227.181750		the	the
sw4316A-ms98-a-0035	A.61	227.181750	227.881750		streets	streets
sw4316A-ms98-a-0035	A.61	227.881750	228.461750		and	and
sw4316A-ms98-a-0035	A.63	228.461750	228.801750		[silence]	[silence]
sw4316A-ms98-a-0035	A.63	228.801750	228.921750		with	with
sw4316A-ms98-a-0035	A.63	228.921750	229.121750		like	like
sw4316A-ms98-a-0035	A.63	229.121750	229.351750		little	little
sw4316A-ms98-a-0035	A.63	229.351750	229.441750		or	or
sw4316A-ms98-a-0035	A.63	229.441750	229.561750		no	no
sw4316A-ms98-a-0035	A.63	229.561750	230.071750		money	money
sw4316A-ms98-a-0035	A.63	230.071750	230.381750		wouldn't	wouldn't
sw4316A-ms98-a-0035	A.65	230.381750	230.591750		wouldn't	wouldn't
sw4316A-ms98-a-0035	A.65	230.591750	230.701750		I	i
sw4316A-ms98-a-0035	A.65	230.701750	230.821750		be	be
sw4316A-ms98-a-0035	A.65	230.821750	230.901750		in	in
sw4316A-ms98-a-0035	A.65	230.901750	231.271750		prison	prison
sw4316A-ms98-a-0035	A.65	231.271750	231.361750		at	at
sw4316A-ms98-a-0035	A.65	231.361750	231.481750		this	this
sw4316A-ms98-a-0035	A.65	231.481750	231.661750		point	point
sw4316A-ms98-a-0035	A.67	231.661750	231.721750	<DEL>	---	or
sw4316A-ms98-a-0035	A.67	231.721750	232.143125	<DEL>	---	another
sw4316A-ms98-a-0035	A.67	232.143125	232.648500		[silence]	[silence]
sw4316A-ms98-a-0036	A.67	232.648500	236.036750		[silence]	[silence]
sw4316A-ms98-a-0037	A.67	236.036750	236.509000		[silence]	[silence]
sw4316A-ms98-a-0037	A.67	236.509000	236.672750		I	i
sw4316A-ms98-a-0037	A.67	236.672750	237.018375		mean	mean
sw4316A-ms98-a-0037	A.67	237.018375	237.608125		[silence]	[silence]
sw4316A-ms98-a-0037	A.67	237.608125	237.676750		I	i
sw4316A-ms98-a-0037	A.67	237.676750	237.770875		don't	don't
sw4316A-ms98-a-0037	A.67	237.770875	238.029750		know	know
sw4316A-ms98-a-0037	A.69	238.029750	238.346125		[silence]	[silence]
sw4316A-ms98-a-0037	A.69	238.346125	238.419000	<DEL>	---	i
sw4316A-ms98-a-0037	A.69	238.419000	238.469500	<DEL>	---	don't
sw4316A-ms98-a-0037	A.69	238.469500	238.530875	<DEL>	---	know
sw4316A-ms98-a-0037	A.69	238.530875	239.128500		[silence]	[silence]
sw4316A-ms98-a-0038	A.69	239.128500	249.232375		[silence]	[silence]
sw4316A-ms98-a-0039	A.69	249.232375	249.702375		[silence]	[silence]
sw4316A-ms98-a-0039	A.69	249.702375	249.802375	<SUB>	We've	we
sw4316A-ms98-a-0039	A.69	249.802375	250.002375		got	got
sw4316A-ms98-a-0039	A.69	250.002375	250.572375		methadone	methadone
sw4316A-ms98-a-0039	A.69	250.572375	251.142375		programs	programs
sw4316A-ms98-a-0039	A.69	251.142375	251.342375		where	where
sw4316A-ms98-a-0039	A.69	251.342375	251.582375		[silence]	[silence]
sw4316A-ms98-a-0039	A.69	251.582375	251.822375		people	people
sw4316A-ms98-a-0039	A.69	251.822375	251.912375		who	who
sw4316A-ms98-a-0039	A.69	251.912375	252.382375		desperately	desperately
sw4316A-ms98-a-0039	A.69	252.382375	252.652375	<SUB>	want	wanna
sw4316A-ms98-a-0039	A.69	252.652375	252.652375	<INS>	to	---
sw4316A-ms98-a-0039	A.69	252.652375	252.792375		get	get
sw4316A-ms98-a-0039	A.69	252.792375	253.002375		off	off
sw4316A-ms98-a-0039	A.69	253.002375	253.576375		drugs	drugs
sw4316A-ms98-a-0039	A.69	253.576375	253.794875		[silence]	[silence]
sw4316A-ms98-a-0039	A.69	253.794875	254.032375		can't	can't
sw4316A-ms98-a-0039	A.71	254.032375	254.132375		get	get
sw4316A-ms98-a-0039	A.71	254.132375	254.302375		onto	onto
sw4316A-ms98-a-0039	A.71	254.302375	254.362375		the	the
sw4316A-ms98-a-0039	A.71	254.362375	254.972375		program	program
sw4316A-ms98-a-0039	A.73	254.972375	255.414875		[silence]	[silence]
sw4316A-ms98-a-0040	A.73	255.414875	259.915500		[silence]	[silence]
sw4316A-ms98-a-0041	A.73	259.915500	260.425500		[silence]	[silence]
sw4316A-ms98-a-0041	A.73	260.425500	260.545500		I	i
sw4316A-ms98-a-0041	A.73	260.545500	260.825500		don't	don't
sw4316A-ms98-a-0041	A.73	260.825500	260.885500		I	i
sw4316A-ms98-a-0041	A.73	260.885500	261.005500		don't	don't
sw4316A-ms98-a-0041	A.73	261.005500	261.255500		remember	remember
sw4316A-ms98-a-0041	A.73	261.255500	261.545500		the	the
sw4316A-ms98-a-0041	A.73	261.545500	261.615500		the	the
sw4316A-ms98-a-0041	A.73	261.615500	261.945500		gentleman's	gentleman's
sw4316A-ms98-a-0041	A.73	261.945500	262.275500		name	name
sw4316A-ms98-a-0041	A.73	262.275500	262.405500		but	but
sw4316A-ms98-a-0041	A.73	262.405500	262.655500	<SUB>	the	there's
sw4316A-ms98-a-0041	A.73	262.655500	262.745500		[silence]	[silence]
sw4316A-ms98-a-0041	A.73	262.745500	262.927125		the	the
sw4316A-ms98-a-0041	A.73	262.927125	263.092875		uh	uh
sw4316A-ms98-a-0041	A.73	263.092875	263.175500		the	the
sw4316A-ms98-a-0041	A.73	263.175500	263.425500		mayor	mayor
sw4316A-ms98-a-0041	A.73	263.425500	263.505500		of	of
sw4316A-ms98-a-0041	A.73	263.505500	263.985500		Baltimore	Baltimore
sw4316A-ms98-a-0041	A.73	263.985500	264.135500		is	is
sw4316A-ms98-a-0041	A.73	264.135500	264.385500		a	a
sw4316A-ms98-a-0041	A.73	264.385500	264.465500		is	is
sw4316A-ms98-a-0041	A.73	264.465500	264.525500		a	a
sw4316A-ms98-a-0041	A.73	264.525500	264.765500		Rhodes	Rhodes
sw4316A-ms98-a-0041	A.73	264.765500	265.202000		Scholar	Scholar
sw4316A-ms98-a-0041	A.73	265.202000	265.951625		[silence]	[silence]
sw4316A-ms98-a-0041	A.73	265.951625	266.245500		and	and
sw4316A-ms98-a-0041	A.73	266.245500	266.385500		what	what
sw4316A-ms98-a-0041	A.73	266.385500	266.755500		he	he
sw4316A-ms98-a-0041	A.75	266.755500	267.281125		[silence]	[silence]
sw4316A-ms98-a-0042	A.75	267.281125	269.538125		[silence]	[silence]
sw4316A-ms98-a-0043	A.75	269.538125	270.028125		[silence]	[silence]
sw4316A-ms98-a-0043	A.75	270.028125	270.178125		Well	well
sw4316A-ms98-a-0043	A.75	270.178125	270.318125		what	what
sw4316A-ms98-a-0043	A.75	270.318125	270.418125		he	he
sw4316A-ms98-a-0043	A.75	270.418125	270.588125		wants	wants
sw4316A-ms98-a-0043	A.75	270.588125	270.668125		to	to
sw4316A-ms98-a-0043	A.75	270.668125	270.878125		do	do
sw4316A-ms98-a-0043	A.75	270.878125	271.078125		is	is
sw4316A-ms98-a-0043	A.75	271.078125	271.288125		take	take
sw4316A-ms98-a-0043	A.75	271.288125	271.438125		all	all
sw4316A-ms98-a-0043	A.75	271.438125	271.498125		the	the
sw4316A-ms98-a-0043	A.75	271.498125	271.838125		money	money
sw4316A-ms98-a-0043	A.75	271.838125	272.218625		that	that
sw4316A-ms98-a-0043	A.75	272.218625	272.301500		[silence]	[silence]
sw4316A-ms98-a-0043	A.75	272.301500	272.538125	<SUB>	uh	um
sw4316A-ms98-a-0043	A.75	272.538125	272.718125		he	he
sw4316A-ms98-a-0043	A.75	272.718125	273.068125		gets	gets
sw4316A-ms98-a-0043	A.75	273.068125	273.288125		for	for
sw4316A-ms98-a-0043	A.75	273.288125	273.478125		drug	drug
sw4316A-ms98-a-0043	A.75	273.478125	274.131250		enforcement	enforcement
sw4316A-ms98-a-0043	A.75	274.131250	274.741500		[silence]	[silence]
sw4316A-ms98-a-0043	A.75	274.741500	275.078125		and	and
sw4316A-ms98-a-0043	A.75	275.078125	275.198125		use	use
sw4316A-ms98-a-0043	A.75	275.198125	275.278125		it	it
sw4316A-ms98-a-0043	A.75	275.278125	275.352250		[silence]	[silence]
sw4316A-ms98-a-0043	A.75	275.352250	276.033875		for	for
sw4316A-ms98-a-0043	A.75	276.033875	276.258125		uh	uh
sw4316A-ms98-a-0043	A.75	276.258125	276.468125		drug	drug
sw4316A-ms98-a-0043	A.75	276.468125	277.104625		education	education
sw4316A-ms98-a-0043	A.77	277.104625	277.763125		[silence]	[silence]
sw4316A-ms98-a-0044	A.77	277.763125	278.413125		[silence]	[silence]
sw4316A-ms98-a-0044	A.77	278.413125	278.633125		And	and
sw4316A-ms98-a-0044	A.77	278.633125	279.053125		basically	basically
sw4316A-ms98-a-0044	A.77	279.053125	279.413125		just	just
sw4316A-ms98-a-0044	A.77	279.413125	279.695375		just	just
sw4316A-ms98-a-0044	A.77	279.695375	280.441125		[silence]	[silence]
sw4316A-ms98-a-0044	A.77	280.441125	281.053125		attack	attack
sw4316A-ms98-a-0044	A.77	281.053125	281.183125		the	the
sw4316A-ms98-a-0044	A.77	281.183125	281.873625		problem	problem
sw4316A-ms98-a-0044	A.77	281.873625	281.960250		[silence]	[silence]
sw4316A-ms98-a-0044	A.77	281.960250	282.103125		at	at
sw4316A-ms98-a-0044	A.77	282.103125	282.173125		the	the
sw4316A-ms98-a-0044	A.77	282.173125	282.673125		demand	demand
sw4316A-ms98-a-0044	A.77	282.673125	283.143125		side	side
sw4316A-ms98-a-0044	A.79	283.143125	283.415875		[silence]	[silence]
sw4316A-ms98-a-0045	A.79	283.415875	283.622250		[silence]	[silence]
sw4316A-ms98-a-0045	A.79	283.622250	283.855875		Stop	stop
sw4316A-ms98-a-0045	A.79	283.855875	284.045875		trying	trying
sw4316A-ms98-a-0045	A.79	284.045875	284.105875		to	to
sw4316A-ms98-a-0045	A.79	284.105875	284.385875		attack	attack
sw4316A-ms98-a-0045	A.79	284.385875	284.825875		supply	supply
sw4316A-ms98-a-0045	A.79	284.825875	285.144375		because	because
sw4316A-ms98-a-0045	A.79	285.144375	285.588875		[silence]	[silence]
sw4316A-ms98-a-0045	A.79	285.588875	285.855875		which	which
sw4316A-ms98-a-0045	A.79	285.855875	286.045875		which	which
sw4316A-ms98-a-0045	A.79	286.045875	286.165875		to	to
sw4316A-ms98-a-0045	A.79	286.165875	286.295875		some	some
sw4316A-ms98-a-0045	A.79	286.295875	286.615875		extent	extent
sw4316A-ms98-a-0045	A.79	286.615875	286.845875		makes	makes
sw4316A-ms98-a-0045	A.79	286.845875	287.355875		sense	sense
sw4316A-ms98-a-0045	A.79	287.355875	287.695875		and	and
sw4316A-ms98-a-0045	A.79	287.695875	287.765875		to	to
sw4316A-ms98-a-0045	A.79	287.765875	287.895875		some	some
sw4316A-ms98-a-0045	A.79	287.895875	288.187750		extent	extent
sw4316A-ms98-a-0045	A.79	288.187750	288.681250		doesn't	doesn't
sw4316A-ms98-a-0045	A.79	288.681250	288.755875		I	i
sw4316A-ms98-a-0045	A.79	288.755875	289.145875		mean	mean
sw4316A-ms98-a-0045	A.79	289.145875	289.665875		Switzerland	Switzerland
sw4316A-ms98-a-0045	A.79	289.665875	289.955875		tried	tried
sw4316A-ms98-a-0045	A.79	289.955875	290.126375		the	the
sw4316A-ms98-a-0045	A.79	290.126375	290.243125		the	the
sw4316A-ms98-a-0045	A.79	290.243125	290.515875		grand	grand
sw4316A-ms98-a-0045	A.79	290.515875	291.285875		experiment	experiment
sw4316A-ms98-a-0045	A.79	291.285875	291.815875		and	and
sw4316A-ms98-a-0045	A.79	291.815875	291.905875		you	you
sw4316A-ms98-a-0045	A.79	291.905875	292.025875		know	know
sw4316A-ms98-a-0045	A.79	292.025875	292.155875		they	they
sw4316A-ms98-a-0045	A.79	292.155875	292.345875		had	had
sw4316A-ms98-a-0045	A.79	292.345875	292.485875		this	this
sw4316A-ms98-a-0045	A.79	292.485875	292.895875		park	park
sw4316A-ms98-a-0045	A.79	292.895875	293.095875		where	where
sw4316A-ms98-a-0045	A.79	293.095875	293.241750		they	they
sw4316A-ms98-a-0045	A.79	293.241750	293.671125		were	were
sw4316A-ms98-a-0045	A.79	293.671125	293.945875		letting	letting
sw4316A-ms98-a-0045	A.79	293.945875	294.295875		anybody	anybody
sw4316A-ms98-a-0045	A.79	294.295875	294.485875		use	use
sw4316A-ms98-a-0045	A.79	294.485875	294.935875		drugs	drugs
sw4316A-ms98-a-0045	A.79	294.935875	295.075875		as	as
sw4316A-ms98-a-0045	A.79	295.075875	295.225875		long	long
sw4316A-ms98-a-0045	A.79	295.225875	295.295875		as	as
sw4316A-ms98-a-0045	A.79	295.295875	295.430000		they	they
sw4316A-ms98-a-0045	A.79	295.430000	295.550500		[silence]	[silence]
sw4316A-ms98-a-0045	A.79	295.550500	295.825875		stayed	stayed
sw4316A-ms98-a-0045	A.79	295.825875	295.905875		in	in
sw4316A-ms98-a-0045	A.79	295.905875	295.965875		the	the
sw4316A-ms98-a-0045	A.79	295.965875	296.353750		park	park
sw4316A-ms98-a-0045	A.79	296.353750	296.952625		[silence]	[silence]
sw4316A-ms98-a-0045	A.79	296.952625	297.358250		and	and
sw4316A-ms98-a-0045	A.79	297.358250	297.378000		[silence]	[silence]
