sw4345A-ms98-a-0001	A.2	0.000000	0.050000		[silence]	[silence]
sw4345A-ms98-a-0001	A.2	0.050000	0.280000		[noise]	[noise]
sw4345A-ms98-a-0001	A.2	0.280000	0.534250		[silence]	[silence]
sw4345A-ms98-a-0002	A.2	0.534250	32.344625		[silence]	[silence]
sw4345A-ms98-a-0003	A.2	32.344625	32.764625		[silence]	[silence]
sw4345A-ms98-a-0003	A.2	32.764625	33.114625		No	no
sw4345A-ms98-a-0003	A.2	33.114625	33.314625		we	we
sw4345A-ms98-a-0003	A.2	33.314625	33.524625		don't	don't
sw4345A-ms98-a-0003	A.2	33.524625	33.844625		have	have
sw4345A-ms98-a-0003	A.2	33.844625	33.934625		the	the
sw4345A-ms98-a-0003	A.2	33.934625	34.194625		uh	uh
sw4345A-ms98-a-0003	A.2	34.194625	34.534625		national	national
sw4345A-ms98-a-0003	A.2	34.534625	34.844625		public	public
sw4345A-ms98-a-0003	A.2	34.844625	35.304625		radio	radio
sw4345A-ms98-a-0003	A.2	35.304625	35.534625		in	in
sw4345A-ms98-a-0003	A.2	35.534625	35.644625		[silence]	[silence]
sw4345A-ms98-a-0003	A.2	35.644625	35.794625		in	in
sw4345A-ms98-a-0003	A.2	35.794625	35.974625		my	my
sw4345A-ms98-a-0003	A.2	35.974625	36.459875		area	area
sw4345A-ms98-a-0003	A.4	36.459875	36.625625		[silence]	[silence]
sw4345A-ms98-a-0003	A.4	36.625625	36.734625		I	i
sw4345A-ms98-a-0003	A.4	36.734625	37.094625		can	can
sw4345A-ms98-a-0003	A.4	37.094625	37.424625		hear	hear
sw4345A-ms98-a-0003	A.4	37.424625	37.523875		it	it
sw4345A-ms98-a-0003	A.4	37.523875	37.628750		at	at
sw4345A-ms98-a-0003	A.4	37.628750	37.749250		[silence]	[silence]
sw4345A-ms98-a-0003	A.4	37.749250	38.029500		the	the
sw4345A-ms98-a-0003	A.4	38.029500	38.412375	<SUB>	uh	um
sw4345A-ms98-a-0003	A.4	38.412375	38.731375		[silence]	[silence]
sw4345A-ms98-a-0004	A.4	38.731375	39.031375		[silence]	[silence]
sw4345A-ms98-a-0004	A.4	39.031375	39.460000		uh	uh
sw4345A-ms98-a-0004	A.4	39.460000	39.614625		[silence]	[silence]
sw4345A-ms98-a-0004	A.4	39.614625	39.751375		oh	oh
sw4345A-ms98-a-0004	A.4	39.751375	39.831375		the	the
sw4345A-ms98-a-0004	A.4	39.831375	40.271375		college	college
sw4345A-ms98-a-0004	A.4	40.271375	40.631375		town	town
sw4345A-ms98-a-0004	A.4	40.631375	41.161375		nearby	nearby
sw4345A-ms98-a-0004	A.4	41.161375	41.311375		when	when
sw4345A-ms98-a-0004	A.4	41.311375	41.411375		I'm	i'm
sw4345A-ms98-a-0004	A.4	41.411375	41.511375		in	in
sw4345A-ms98-a-0004	A.4	41.511375	42.171375		Stillwater	Stillwater
sw4345A-ms98-a-0004	A.4	42.171375	42.411375		which	which
sw4345A-ms98-a-0004	A.4	42.411375	42.699875		is	is
sw4345A-ms98-a-0004	A.4	42.699875	43.121750		[silence]	[silence]
sw4345A-ms98-a-0004	A.4	43.121750	43.311375		about	about
sw4345A-ms98-a-0004	A.4	43.311375	43.411375		an	an
sw4345A-ms98-a-0004	A.4	43.411375	43.691375		hour	hour
sw4345A-ms98-a-0004	A.4	43.691375	44.146750		away	away
sw4345A-ms98-a-0004	A.4	44.146750	44.381375		but	but
sw4345A-ms98-a-0004	A.4	44.381375	44.580500		the	the
sw4345A-ms98-a-0004	A.4	44.580500	44.697250		[silence]	[silence]
sw4345A-ms98-a-0004	A.4	44.697250	45.031375	<CONT>	F	FM
sw4345A-ms98-a-0004	A.4	45.031375	45.031375	<CONT>	M	+++
sw4345A-ms98-a-0004	A.4	45.031375	45.361375		signal	signal
sw4345A-ms98-a-0004	A.4	45.361375	45.711375		doesn't	doesn't
sw4345A-ms98-a-0004	A.4	45.711375	45.981375		reach	reach
sw4345A-ms98-a-0004	A.4	45.981375	46.201375		this	this
sw4345A-ms98-a-0004	A.4	46.201375	46.591375		far	far
sw4345A-ms98-a-0004	A.6	46.591375	46.947875		[silence]	[silence]
sw4345A-ms98-a-0005	A.6	46.947875	47.437875		[silence]	[silence]
sw4345A-ms98-a-0005	A.6	47.437875	47.657875		Uh	uh
sw4345A-ms98-a-0005	A.6	47.657875	47.747875	<SUB>	I'll	i
sw4345A-ms98-a-0005	A.6	47.747875	48.067875		listen	listen
sw4345A-ms98-a-0005	A.6	48.067875	48.177875		to	to
sw4345A-ms98-a-0005	A.6	48.177875	48.837875		shortwave	shortwave
sw4345A-ms98-a-0005	A.6	48.837875	49.137875		quite	quite
sw4345A-ms98-a-0005	A.6	49.137875	49.187875		a	a
sw4345A-ms98-a-0005	A.6	49.187875	49.665500		bit	bit
sw4345A-ms98-a-0005	A.6	49.665500	49.831250		It	it
sw4345A-ms98-a-0005	A.6	49.831250	50.027875		gives	gives
sw4345A-ms98-a-0005	A.6	50.027875	50.177875		you	you
sw4345A-ms98-a-0005	A.6	50.177875	50.247875		a	a
sw4345A-ms98-a-0005	A.6	50.247875	50.407875		whole	whole
sw4345A-ms98-a-0005	A.6	50.407875	50.807875		different	different
sw4345A-ms98-a-0005	A.6	50.807875	51.680000		perspective	perspective
sw4345A-ms98-a-0005	A.6	51.680000	51.781625		[silence]	[silence]
sw4345A-ms98-a-0005	A.6	51.781625	51.947875		on	on
sw4345A-ms98-a-0005	A.6	51.947875	52.054875		the	the
sw4345A-ms98-a-0005	A.6	52.054875	52.582125		news	news
sw4345A-ms98-a-0005	A.6	52.582125	52.867875		uh	uh
sw4345A-ms98-a-0005	A.6	52.867875	53.037875		when	when
sw4345A-ms98-a-0005	A.6	53.037875	53.157875		you	you
sw4345A-ms98-a-0005	A.6	53.157875	53.367875		hear	hear
sw4345A-ms98-a-0005	A.6	53.367875	53.480375		it	it
sw4345A-ms98-a-0005	A.6	53.480375	53.755250		[silence]	[silence]
sw4345A-ms98-a-0005	A.6	53.755250	53.937875		from	from
sw4345A-ms98-a-0005	A.6	53.937875	54.107875		say	say
sw4345A-ms98-a-0005	A.6	54.107875	54.147875		a	a
sw4345A-ms98-a-0005	A.6	54.147875	54.876500		European	European
sw4345A-ms98-a-0005	A.8	54.876500	55.476000		[silence]	[silence]
sw4345A-ms98-a-0005	A.8	55.476000	55.687000		point	point
sw4345A-ms98-a-0005	A.8	55.687000	55.781250		of	of
sw4345A-ms98-a-0005	A.8	55.781250	56.097875		view	view
sw4345A-ms98-a-0005	A.8	56.097875	56.507875		or	or
sw4345A-ms98-a-0005	A.8	56.507875	56.717875		from	from
sw4345A-ms98-a-0005	A.8	56.717875	56.777875		the	the
sw4345A-ms98-a-0005	A.8	56.777875	57.345250		country	country
sw4345A-ms98-a-0005	A.8	57.345250	57.593625		[silence]	[silence]
sw4345A-ms98-a-0005	A.8	57.593625	57.717875		of	of
sw4345A-ms98-a-0005	A.8	57.717875	58.154125		origin	origin
sw4345A-ms98-a-0005	A.8	58.154125	58.471625		[silence]	[silence]
sw4345A-ms98-a-0006	A.8	58.471625	59.001625		[silence]	[silence]
sw4345A-ms98-a-0006	A.8	59.001625	59.391625		Uh	uh
sw4345A-ms98-a-0006	A.8	59.391625	59.491625		I	i
sw4345A-ms98-a-0006	A.8	59.491625	59.731625		agree	agree
sw4345A-ms98-a-0006	A.8	59.731625	59.901625		with	with
sw4345A-ms98-a-0006	A.8	59.901625	59.981625		you	you
sw4345A-ms98-a-0006	A.8	59.981625	60.241625		too	too
sw4345A-ms98-a-0006	A.8	60.241625	60.484250		on	on
sw4345A-ms98-a-0006	A.8	60.484250	60.656875		the	the
sw4345A-ms98-a-0006	A.8	60.656875	60.931375	<SUB>	uh	um
sw4345A-ms98-a-0006	A.8	60.931375	61.575625		[silence]	[silence]
sw4345A-ms98-a-0007	A.8	61.575625	62.105625		[silence]	[silence]
sw4345A-ms98-a-0007	A.8	62.105625	62.516750		uh	uh
sw4345A-ms98-a-0007	A.8	62.516750	62.844250		[silence]	[silence]
sw4345A-ms98-a-0007	A.8	62.844250	62.949750		the	the
sw4345A-ms98-a-0007	A.8	62.949750	63.369750		cable	cable
sw4345A-ms98-a-0007	A.8	63.369750	63.479000		[silence]	[silence]
sw4345A-ms98-a-0007	A.8	63.479000	63.895625		channel	channel
sw4345A-ms98-a-0007	A.8	63.895625	64.595625	<CONT>	C	CNN
sw4345A-ms98-a-0007	A.8	64.595625	64.595625	<CONT>	N	+++
sw4345A-ms98-a-0007	A.8	64.595625	64.595625	<CONT>	N	+++
sw4345A-ms98-a-0007	A.8	64.595625	64.715625		and	and
sw4345A-ms98-a-0007	A.8	64.715625	65.145625		HEADLINE	Headline
sw4345A-ms98-a-0007	A.8	65.145625	65.696000		NEWS	News
sw4345A-ms98-a-0007	A.8	65.696000	65.913125		[silence]	[silence]
sw4345A-ms98-a-0008	A.8	65.913125	66.423125		[silence]	[silence]
sw4345A-ms98-a-0008	A.8	66.423125	66.973125	<SUB>	Uh	um
sw4345A-ms98-a-0008	A.8	66.973125	67.173125		[silence]	[silence]
sw4345A-ms98-a-0008	A.8	67.173125	67.303125		I'm	i'm
sw4345A-ms98-a-0008	A.8	67.303125	67.623125		not	not
sw4345A-ms98-a-0008	A.8	67.623125	67.803125		too	too
sw4345A-ms98-a-0008	A.8	67.803125	68.423250		satisfied	satisfied
sw4345A-ms98-a-0008	A.8	68.423250	68.615375		with	with
sw4345A-ms98-a-0008	A.8	68.615375	68.763125		our	our
sw4345A-ms98-a-0008	A.8	68.763125	69.349500		local	local
sw4345A-ms98-a-0008	A.8	69.349500	69.586875		[silence]	[silence]
sw4345A-ms98-a-0008	A.8	69.586875	70.292000		newspaper	newspaper
sw4345A-ms98-a-0008	A.10	70.292000	70.502875		[silence]	[silence]
sw4345A-ms98-a-0008	A.10	70.502875	70.703125		uh	uh
sw4345A-ms98-a-0008	A.10	70.703125	70.943125		which	which
sw4345A-ms98-a-0008	A.10	70.943125	71.083125		is	is
sw4345A-ms98-a-0008	A.10	71.083125	71.213125		[silence]	[silence]
sw4345A-ms98-a-0008	A.10	71.213125	71.344875		why	why
sw4345A-ms98-a-0008	A.10	71.344875	71.431500		I	i
sw4345A-ms98-a-0008	A.10	71.431500	71.683125		rely	rely
sw4345A-ms98-a-0008	A.10	71.683125	71.773125		on	on
sw4345A-ms98-a-0008	A.10	71.773125	72.433125		shortwave	shortwave
sw4345A-ms98-a-0008	A.10	72.433125	72.663125		and	and
sw4345A-ms98-a-0008	A.10	72.663125	73.213125		[silence]	[silence]
sw4345A-ms98-a-0008	A.10	73.213125	73.303125		and	and
sw4345A-ms98-a-0008	A.10	73.303125	73.403125		then	then
sw4345A-ms98-a-0008	A.10	73.403125	73.508000		the	the
sw4345A-ms98-a-0008	A.10	73.508000	73.895875		cable	cable
sw4345A-ms98-a-0008	A.12	73.895875	73.895875	<INS>	cable	---
sw4345A-ms98-a-0008	A.12	73.895875	74.237500		[silence]	[silence]
sw4345A-ms98-a-0008	A.12	74.237500	74.826000	<CONT>	C	CNN
sw4345A-ms98-a-0008	A.12	74.826000	74.826000	<CONT>	N	+++
sw4345A-ms98-a-0008	A.12	74.826000	74.826000	<CONT>	N	+++
sw4345A-ms98-a-0008	A.14	74.826000	75.421500		[silence]	[silence]
sw4345A-ms98-a-0009	A.14	75.421500	96.628750		[silence]	[silence]
sw4345A-ms98-a-0010	A.14	96.628750	96.968750		[silence]	[silence]
sw4345A-ms98-a-0010	A.14	96.968750	97.118750		I	i
sw4345A-ms98-a-0010	A.14	97.118750	97.268750		think	think
sw4345A-ms98-a-0010	A.14	97.268750	97.308750		a	a
sw4345A-ms98-a-0010	A.14	97.308750	97.528750		lot	lot
sw4345A-ms98-a-0010	A.14	97.528750	97.628750		of	of
sw4345A-ms98-a-0010	A.14	97.628750	97.748750		it	it
sw4345A-ms98-a-0010	A.14	97.748750	98.018750		is	is
sw4345A-ms98-a-0010	A.14	98.018750	98.631875		just	just
sw4345A-ms98-a-0010	A.14	98.631875	99.151750	<SUB>	uh	um
sw4345A-ms98-a-0010	A.14	99.151750	99.359125		[silence]	[silence]
sw4345A-ms98-a-0010	A.14	99.359125	99.460750		the	the
sw4345A-ms98-a-0010	A.14	99.460750	99.733250		fact	fact
sw4345A-ms98-a-0010	A.14	99.733250	99.902875		that	that
sw4345A-ms98-a-0010	A.14	99.902875	100.607250		[silence]	[silence]
sw4345A-ms98-a-0010	A.14	100.607250	100.758750		in	in
sw4345A-ms98-a-0010	A.14	100.758750	100.818750		the	the
sw4345A-ms98-a-0010	A.14	100.818750	101.578750	<CONT>	U	US
sw4345A-ms98-a-0010	A.14	101.578750	101.578750	<CONT>	S	+++
sw4345A-ms98-a-0010	A.14	101.578750	101.768750		you're	you're
sw4345A-ms98-a-0010	A.14	101.768750	101.988750		so	so
sw4345A-ms98-a-0010	A.14	101.988750	102.258750		far	far
sw4345A-ms98-a-0010	A.14	102.258750	103.007875		removed	removed
sw4345A-ms98-a-0010	A.14	103.007875	103.245125		[silence]	[silence]
sw4345A-ms98-a-0010	A.14	103.245125	103.378750		uh	uh
sw4345A-ms98-a-0010	A.14	103.378750	103.568750		in	in
sw4345A-ms98-a-0010	A.14	103.568750	103.608750		a	a
sw4345A-ms98-a-0010	A.14	103.608750	103.778750		lot	lot
sw4345A-ms98-a-0010	A.14	103.778750	103.848750		of	of
sw4345A-ms98-a-0010	A.14	103.848750	104.308750		cases	cases
sw4345A-ms98-a-0010	A.14	104.308750	104.787750		from	from
sw4345A-ms98-a-0010	A.14	104.787750	104.949625		[silence]	[silence]
sw4345A-ms98-a-0010	A.14	104.949625	105.128750		say	say
sw4345A-ms98-a-0010	A.14	105.128750	105.958750		conflicts	conflicts
sw4345A-ms98-a-0010	A.14	105.958750	106.310125		or	or
sw4345A-ms98-a-0010	A.14	106.310125	106.678750		[silence]	[silence]
sw4345A-ms98-a-0011	A.14	106.678750	107.070125		[silence]	[silence]
sw4345A-ms98-a-0011	A.14	107.070125	107.298125		or	or
sw4345A-ms98-a-0011	A.14	107.298125	107.458750		it's	it's
sw4345A-ms98-a-0011	A.14	107.458750	107.608750		not	not
sw4345A-ms98-a-0011	A.14	107.608750	107.888750		happening	happening
sw4345A-ms98-a-0011	A.14	107.888750	107.948750		in	in
sw4345A-ms98-a-0011	A.14	107.948750	108.068750		your	your
sw4345A-ms98-a-0011	A.14	108.068750	108.969000		backyard	backyard
sw4345A-ms98-a-0011	A.16	108.969000	109.259000		[silence]	[silence]
sw4345A-ms98-a-0011	A.16	109.259000	109.528750		so	so
sw4345A-ms98-a-0011	A.16	109.528750	109.848750		it's	it's
sw4345A-ms98-a-0011	A.16	109.848750	110.038750		it's	it's
sw4345A-ms98-a-0011	A.16	110.038750	110.268750		more	more
sw4345A-ms98-a-0011	A.16	110.268750	110.388750		of	of
sw4345A-ms98-a-0011	A.16	110.388750	110.643250		a	a
sw4345A-ms98-a-0011	A.16	110.643250	111.145250		[silence]	[silence]
sw4345A-ms98-a-0012	A.16	111.145250	111.565250		[silence]	[silence]
sw4345A-ms98-a-0012	A.16	111.565250	111.685250		it's	it's
sw4345A-ms98-a-0012	A.16	111.685250	111.825250		not	not
sw4345A-ms98-a-0012	A.16	111.825250	111.935250		as	as
sw4345A-ms98-a-0012	A.16	111.935250	111.995250		a	a
sw4345A-ms98-a-0012	A.16	111.995250	112.695250		personal	personal
sw4345A-ms98-a-0012	A.16	112.695250	112.875250		[silence]	[silence]
sw4345A-ms98-a-0012	A.16	112.875250	113.115250		uh	uh
sw4345A-ms98-a-0012	A.16	113.115250	113.335250		the	the
sw4345A-ms98-a-0012	A.16	113.335250	113.555250		news	news
sw4345A-ms98-a-0012	A.16	113.555250	113.795250		isn't	isn't
sw4345A-ms98-a-0012	A.16	113.795250	113.885250		as	as
sw4345A-ms98-a-0012	A.16	113.885250	114.499750		personal	personal
sw4345A-ms98-a-0012	A.16	114.499750	115.114250		[silence]	[silence]
sw4345A-ms98-a-0012	A.16	115.114250	115.237500		in	in
sw4345A-ms98-a-0012	A.16	115.237500	115.375250		what	what
sw4345A-ms98-a-0012	A.16	115.375250	115.475250		we	we
sw4345A-ms98-a-0012	A.16	115.475250	115.875250		receive	receive
sw4345A-ms98-a-0012	A.16	115.875250	116.575250		domestically	domestically
sw4345A-ms98-a-0012	A.16	116.575250	116.715250		than	than
sw4345A-ms98-a-0012	A.16	116.715250	116.925250		[silence]	[silence]
sw4345A-ms98-a-0012	A.16	116.925250	117.085250		than	than
sw4345A-ms98-a-0012	A.16	117.085250	117.365250		what's	what's
sw4345A-ms98-a-0012	A.16	117.365250	117.555250		on	on
sw4345A-ms98-a-0012	A.16	117.555250	117.615250	<DEL>	---	the
sw4345A-ms98-a-0012	A.16	117.615250	118.282125		shortwave	shortwave
sw4345A-ms98-a-0012	A.16	118.282125	119.007000		It's	it's
sw4345A-ms98-a-0012	A.16	119.007000	119.105000		[silence]	[silence]
sw4345A-ms98-a-0012	A.16	119.105000	119.705250	<CONT>	B	BBC
sw4345A-ms98-a-0012	A.16	119.705250	119.705250	<CONT>	B	+++
sw4345A-ms98-a-0012	A.16	119.705250	119.705250	<CONT>	C	+++
sw4345A-ms98-a-0012	A.16	119.705250	120.065250		is	is
sw4345A-ms98-a-0012	A.16	120.065250	120.485250	<SUB>	uh	um
sw4345A-ms98-a-0012	A.16	120.485250	121.133500		[silence]	[silence]
sw4345A-ms98-a-0013	A.16	121.133500	121.923500		[silence]	[silence]
sw4345A-ms98-a-0013	A.16	121.923500	122.321250		oh	oh
sw4345A-ms98-a-0013	A.16	122.321250	122.626375		[silence]	[silence]
sw4345A-ms98-a-0013	A.16	122.626375	122.666375		I	i
sw4345A-ms98-a-0013	A.16	122.666375	122.793500		don't	don't
sw4345A-ms98-a-0013	A.16	122.793500	122.893500		know	know
sw4345A-ms98-a-0013	A.16	122.893500	122.983500		the	the
sw4345A-ms98-a-0013	A.16	122.983500	123.193500		right	right
sw4345A-ms98-a-0013	A.16	123.193500	123.593500		word	word
sw4345A-ms98-a-0013	A.16	123.593500	123.925125		is	is
sw4345A-ms98-a-0013	A.16	123.925125	124.090875		[silence]	[silence]
sw4345A-ms98-a-0013	A.16	124.090875	124.313500		is	is
sw4345A-ms98-a-0013	A.16	124.313500	124.993500		almost	almost
sw4345A-ms98-a-0013	A.16	124.993500	125.343250	<SUB>	uh	um
sw4345A-ms98-a-0013	A.16	125.343250	125.642500		[silence]	[silence]
sw4345A-ms98-a-0014	A.16	125.642500	126.232500		[silence]	[silence]
sw4345A-ms98-a-0014	A.16	126.232500	126.322500		they	they
sw4345A-ms98-a-0014	A.16	126.322500	126.609250		almost	almost
sw4345A-ms98-a-0014	A.16	126.609250	127.095125		[silence]	[silence]
sw4345A-ms98-a-0014	A.16	127.095125	127.322500		take	take
sw4345A-ms98-a-0014	A.16	127.322500	127.502500		all	all
sw4345A-ms98-a-0014	A.16	127.502500	128.022500		emotions	emotions
sw4345A-ms98-a-0014	A.16	128.022500	128.212500		out	out
sw4345A-ms98-a-0014	A.16	128.212500	128.322500		of	of
sw4345A-ms98-a-0014	A.16	128.322500	128.452500		it	it
sw4345A-ms98-a-0014	A.16	128.452500	128.562500		[silence]	[silence]
sw4345A-ms98-a-0014	A.16	128.562500	128.672500		when	when
sw4345A-ms98-a-0014	A.16	128.672500	128.752500		they	they
sw4345A-ms98-a-0014	A.18	128.752500	129.162500		report	report
sw4345A-ms98-a-0014	A.18	129.162500	129.322500		it	it
sw4345A-ms98-a-0014	A.18	129.322500	129.689875		[silence]	[silence]
sw4345A-ms98-a-0015	A.18	129.689875	130.109875		[silence]	[silence]
sw4345A-ms98-a-0015	A.18	130.109875	130.457750		and	and
sw4345A-ms98-a-0015	A.18	130.457750	130.579375		it	it
sw4345A-ms98-a-0015	A.18	130.579375	130.897125		just	just
sw4345A-ms98-a-0015	A.18	130.897125	131.326500		[silence]	[silence]
sw4345A-ms98-a-0015	A.18	131.326500	131.419875		they	they
sw4345A-ms98-a-0015	A.18	131.419875	131.649875		seem	seem
sw4345A-ms98-a-0015	A.18	131.649875	131.749875		to	to
sw4345A-ms98-a-0015	A.18	131.749875	131.929875		give	give
sw4345A-ms98-a-0015	A.18	131.929875	132.229875		more	more
sw4345A-ms98-a-0015	A.18	132.229875	132.229875	<INS>	of	---
sw4345A-ms98-a-0015	A.18	132.229875	132.479875		just	just
sw4345A-ms98-a-0015	A.18	132.479875	132.549875		the	the
sw4345A-ms98-a-0015	A.18	132.549875	133.069875		facts	facts
sw4345A-ms98-a-0015	A.18	133.069875	133.189875		than	than
sw4345A-ms98-a-0015	A.18	133.189875	133.892625		opinions	opinions
sw4345A-ms98-a-0015	A.20	133.892625	133.929875		[silence]	[silence]
sw4345A-ms98-a-0016	A.20	133.929875	143.542875		[silence]	[silence]
sw4345A-ms98-a-0017	A.20	143.542875	143.782875		[silence]	[silence]
sw4345A-ms98-a-0017	A.20	143.782875	144.072875		Uh	uh
sw4345A-ms98-a-0017	A.20	144.072875	144.282875		very	very
sw4345A-ms98-a-0017	A.20	144.282875	144.492875		much	much
sw4345A-ms98-a-0017	A.20	144.492875	144.779750		so	so
sw4345A-ms98-a-0017	A.20	144.779750	145.450250		[silence]	[silence]
sw4345A-ms98-a-0017	A.20	145.450250	145.622875		very	very
sw4345A-ms98-a-0017	A.20	145.622875	145.872875		much	much
sw4345A-ms98-a-0017	A.20	145.872875	146.092875		so	so
sw4345A-ms98-a-0017	A.20	146.092875	146.182875		and	and
sw4345A-ms98-a-0017	A.20	146.182875	146.252875	<SUB>	I	i-
sw4345A-ms98-a-0017	A.20	146.252875	146.362875		I	i
sw4345A-ms98-a-0017	A.20	146.362875	146.512875		think	think
sw4345A-ms98-a-0017	A.20	146.512875	146.552875		a	a
sw4345A-ms98-a-0017	A.20	146.552875	146.802875		lot	lot
sw4345A-ms98-a-0017	A.20	146.802875	146.912875		of	of
sw4345A-ms98-a-0017	A.20	146.912875	147.042875		it	it
sw4345A-ms98-a-0017	A.20	147.042875	147.412875		is	is
sw4345A-ms98-a-0017	A.20	147.412875	147.947125	<SUB>	uh	um
sw4345A-ms98-a-0017	A.20	147.947125	148.208875		[silence]	[silence]
sw4345A-ms98-a-0018	A.20	148.208875	148.758875		[silence]	[silence]
sw4345A-ms98-a-0018	A.20	148.758875	149.188875		especially	especially
sw4345A-ms98-a-0018	A.20	149.188875	149.648875	<CONT>	T	TV
sw4345A-ms98-a-0018	A.20	149.648875	149.648875	<CONT>	V	+++
sw4345A-ms98-a-0018	A.20	149.648875	150.093875		news	news
sw4345A-ms98-a-0018	A.20	150.093875	150.604000		[silence]	[silence]
sw4345A-ms98-a-0019	A.20	150.604000	151.119000		[silence]	[silence]
sw4345A-ms98-a-0019	A.20	151.119000	151.258625		they	they
sw4345A-ms98-a-0019	A.20	151.258625	151.454000		don't	don't
sw4345A-ms98-a-0019	A.20	151.454000	151.644000		really	really
sw4345A-ms98-a-0019	A.20	151.644000	151.824000		have	have
sw4345A-ms98-a-0019	A.20	151.824000	151.933250		the	the
sw4345A-ms98-a-0019	A.20	151.933250	152.468125		time	time
sw4345A-ms98-a-0019	A.20	152.468125	152.575875		and	and
sw4345A-ms98-a-0019	A.20	152.575875	152.621000		a	a
sw4345A-ms98-a-0019	A.20	152.621000	152.784000		lot	lot
sw4345A-ms98-a-0019	A.20	152.784000	152.884000		of	of
sw4345A-ms98-a-0019	A.20	152.884000	152.994000		them	them_1
sw4345A-ms98-a-0019	A.20	152.994000	153.226500		don't	don't
sw4345A-ms98-a-0019	A.20	153.226500	153.452500		have	have
sw4345A-ms98-a-0019	A.20	153.452500	153.594000		the	the
sw4345A-ms98-a-0019	A.20	153.594000	154.334000		education	education
sw4345A-ms98-a-0019	A.20	154.334000	154.514000		[silence]	[silence]
sw4345A-ms98-a-0019	A.20	154.514000	154.624000		and	and
sw4345A-ms98-a-0019	A.20	154.624000	154.684000		the	the
sw4345A-ms98-a-0019	A.20	154.684000	155.384000		background	background
sw4345A-ms98-a-0019	A.20	155.384000	155.948625		[silence]	[silence]
sw4345A-ms98-a-0019	A.20	155.948625	156.544875		to	to
sw4345A-ms98-a-0019	A.22	156.544875	156.733125		[silence]	[silence]
sw4345A-ms98-a-0019	A.22	156.733125	157.185750	<SUB>	uh	um
sw4345A-ms98-a-0019	A.22	157.185750	157.685375		[silence]	[silence]
sw4345A-ms98-a-0020	A.22	157.685375	158.043000		[silence]	[silence]
sw4345A-ms98-a-0020	A.22	158.043000	158.553500		oh	oh
sw4345A-ms98-a-0020	A.22	158.553500	159.151000		[silence]	[silence]
sw4345A-ms98-a-0020	A.22	159.151000	159.255375		to	to
sw4345A-ms98-a-0020	A.22	159.255375	159.631250		really	really
sw4345A-ms98-a-0020	A.22	159.631250	160.143500		[silence]	[silence]
sw4345A-ms98-a-0020	A.22	160.143500	160.675375		decipher	decipher
sw4345A-ms98-a-0020	A.22	160.675375	160.775375		the	the
sw4345A-ms98-a-0020	A.22	160.775375	161.155375		news	news
sw4345A-ms98-a-0020	A.22	161.155375	161.255375		and	and
sw4345A-ms98-a-0020	A.22	161.255375	161.405375		to	to
sw4345A-ms98-a-0020	A.22	161.405375	161.675375		really	really
sw4345A-ms98-a-0020	A.22	161.675375	162.175375		explain	explain
sw4345A-ms98-a-0020	A.22	162.175375	162.395875		it	it
sw4345A-ms98-a-0020	A.22	162.395875	162.490000		I	i
sw4345A-ms98-a-0020	A.22	162.490000	162.675375		mean	mean
sw4345A-ms98-a-0020	A.22	162.675375	162.745375		I	i
sw4345A-ms98-a-0020	A.22	162.745375	162.855375		you	you
sw4345A-ms98-a-0020	A.22	162.855375	162.935375		know	know
sw4345A-ms98-a-0020	A.22	162.935375	163.005375		I	i
sw4345A-ms98-a-0020	A.22	163.005375	163.155375		think	think
sw4345A-ms98-a-0020	A.22	163.155375	163.285375		it's	it's
sw4345A-ms98-a-0020	A.22	163.285375	163.695375		important	important
sw4345A-ms98-a-0020	A.22	163.695375	163.755375		to	to
sw4345A-ms98-a-0020	A.22	163.755375	164.290500		interpret	interpret
sw4345A-ms98-a-0020	A.22	164.290500	164.388375		it	it
sw4345A-ms98-a-0020	A.22	164.388375	164.735375		[silence]	[silence]
sw4345A-ms98-a-0020	A.22	164.735375	164.845375		but	but
sw4345A-ms98-a-0020	A.22	164.845375	164.905375		a	a
sw4345A-ms98-a-0020	A.22	164.905375	165.065375		lot	lot
sw4345A-ms98-a-0020	A.22	165.065375	165.145375		of	of
sw4345A-ms98-a-0020	A.22	165.145375	165.415375		times	times
sw4345A-ms98-a-0020	A.22	165.415375	165.475375		the	the
sw4345A-ms98-a-0020	A.22	165.475375	165.815375		person	person
sw4345A-ms98-a-0020	A.22	165.815375	166.075375		doesn't	doesn't
sw4345A-ms98-a-0020	A.22	166.075375	166.175375		have	have
sw4345A-ms98-a-0020	A.22	166.175375	166.255375		the	the
sw4345A-ms98-a-0020	A.22	166.255375	166.895375		experience	experience
sw4345A-ms98-a-0020	A.22	166.895375	167.265625		to	to
sw4345A-ms98-a-0020	A.22	167.265625	167.585750		[silence]	[silence]
sw4345A-ms98-a-0020	A.22	167.585750	167.712500		to	to
sw4345A-ms98-a-0020	A.22	167.712500	167.845375		do	do
sw4345A-ms98-a-0020	A.22	167.845375	167.915375		the	the
sw4345A-ms98-a-0020	A.22	167.915375	168.525375		interpreting	interpreting
sw4345A-ms98-a-0020	A.24	168.525375	169.102000		[silence]	[silence]
sw4345A-ms98-a-0021	A.24	169.102000	183.329625		[silence]	[silence]
sw4345A-ms98-a-0022	A.24	183.329625	183.639625		[silence]	[silence]
sw4345A-ms98-a-0022	A.24	183.639625	183.927500		Oh	oh
sw4345A-ms98-a-0022	A.24	183.927500	184.023500		I	i
sw4345A-ms98-a-0022	A.24	184.023500	184.209625		like	like
sw4345A-ms98-a-0022	A.24	184.209625	184.289625		the	the
sw4345A-ms98-a-0022	A.24	184.289625	184.689625		straight	straight
sw4345A-ms98-a-0022	A.24	184.689625	185.259625		reporting	reporting
sw4345A-ms98-a-0022	A.24	185.259625	185.479625		[silence]	[silence]
sw4345A-ms98-a-0022	A.24	185.479625	185.905125	<SUB>	Uh	um
sw4345A-ms98-a-0022	A.24	185.905125	186.470125		[silence]	[silence]
sw4345A-ms98-a-0022	A.24	186.470125	186.619625		and	and
sw4345A-ms98-a-0022	A.24	186.619625	186.719625		then	then
sw4345A-ms98-a-0022	A.24	186.719625	186.789625	<SUB>	I	i-
sw4345A-ms98-a-0022	A.24	186.789625	186.989625		I	i
sw4345A-ms98-a-0022	A.24	186.989625	187.189625		hope	hope
sw4345A-ms98-a-0022	A.24	187.189625	187.279625		to	to
sw4345A-ms98-a-0022	A.24	187.279625	187.379625		be	be
sw4345A-ms98-a-0022	A.24	187.379625	187.539625		able	able
sw4345A-ms98-a-0022	A.24	187.539625	187.803875		to	to
sw4345A-ms98-a-0022	A.24	187.803875	187.924375		[silence]	[silence]
sw4345A-ms98-a-0022	A.24	187.924375	188.159625		form	form
sw4345A-ms98-a-0022	A.24	188.159625	188.329625		my	my
sw4345A-ms98-a-0022	A.24	188.329625	188.479625		own	own
sw4345A-ms98-a-0022	A.24	188.479625	188.939625		opinion	opinion
sw4345A-ms98-a-0022	A.24	188.939625	189.119625		of	of
sw4345A-ms98-a-0022	A.24	189.119625	189.309625		it	it
sw4345A-ms98-a-0022	A.24	189.309625	189.619625		It's	it's
sw4345A-ms98-a-0022	A.24	189.619625	189.819625		it's	it's
sw4345A-ms98-a-0022	A.24	189.819625	190.039625		nice	nice
sw4345A-ms98-a-0022	A.24	190.039625	190.139625		to	to
sw4345A-ms98-a-0022	A.24	190.139625	190.409625		hear	hear
sw4345A-ms98-a-0022	A.24	190.409625	191.049625		someone's	someone's
sw4345A-ms98-a-0022	A.24	191.049625	191.769625		interpretation	interpretation
sw4345A-ms98-a-0022	A.24	191.769625	191.939625		of	of
sw4345A-ms98-a-0022	A.24	191.939625	192.150750		it	it
sw4345A-ms98-a-0022	A.26	192.150750	192.432875		[silence]	[silence]
sw4345A-ms98-a-0023	A.26	192.432875	192.742875		[silence]	[silence]
sw4345A-ms98-a-0023	A.26	192.742875	193.178000	<SUB>	uh	um
sw4345A-ms98-a-0023	A.26	193.178000	193.420875		[silence]	[silence]
sw4345A-ms98-a-0023	A.26	193.420875	193.500000		I	i
sw4345A-ms98-a-0023	A.26	193.500000	193.662875		always	always
sw4345A-ms98-a-0023	A.26	193.662875	193.812875		think	think
sw4345A-ms98-a-0023	A.26	193.812875	193.952875		it's	it's
sw4345A-ms98-a-0023	A.26	193.952875	194.472875		humorous	humorous
sw4345A-ms98-a-0023	A.26	194.472875	194.776125		when	when
sw4345A-ms98-a-0023	A.26	194.776125	195.341125		[silence]	[silence]
sw4345A-ms98-a-0023	A.26	195.341125	195.472875		when	when
sw4345A-ms98-a-0023	A.26	195.472875	195.532875		the	the
sw4345A-ms98-a-0023	A.26	195.532875	196.069000		President	President
sw4345A-ms98-a-0023	A.26	196.069000	196.302500		[silence]	[silence]
sw4345A-ms98-a-0023	A.26	196.302500	196.572875		gives	gives
sw4345A-ms98-a-0023	A.26	196.572875	196.632875		the	the
sw4345A-ms98-a-0023	A.26	196.632875	196.902875		State	State
sw4345A-ms98-a-0023	A.26	196.902875	196.962875		of	of
sw4345A-ms98-a-0023	A.26	196.962875	197.022875		the	the
sw4345A-ms98-a-0023	A.26	197.022875	197.442875		Union	Union
sw4345A-ms98-a-0023	A.26	197.442875	197.637750		and	and
sw4345A-ms98-a-0023	A.26	197.637750	197.881250		[silence]	[silence]
sw4345A-ms98-a-0023	A.26	197.881250	197.979250		uh	uh
sw4345A-ms98-a-0023	A.26	197.979250	198.162875		for	for
sw4345A-ms98-a-0023	A.26	198.162875	198.462875		thirty	thirty
sw4345A-ms98-a-0023	A.26	198.462875	198.882875		minutes	minutes
sw4345A-ms98-a-0023	A.26	198.882875	199.022875		and	and
sw4345A-ms98-a-0023	A.26	199.022875	199.152875		then	then
sw4345A-ms98-a-0023	A.26	199.152875	199.292875		for	for
sw4345A-ms98-a-0023	A.26	199.292875	199.362875		an	an
sw4345A-ms98-a-0023	A.26	199.362875	199.552875		hour	hour
sw4345A-ms98-a-0023	A.26	199.552875	199.642875		and	and
sw4345A-ms98-a-0023	A.26	199.642875	199.672875		a	a
sw4345A-ms98-a-0023	A.26	199.672875	200.178875		half	half
sw4345A-ms98-a-0023	A.26	200.178875	200.766500		[silence]	[silence]
sw4345A-ms98-a-0023	A.26	200.766500	200.922875		you	you
sw4345A-ms98-a-0023	A.26	200.922875	201.132875		hear	hear
sw4345A-ms98-a-0023	A.26	201.132875	201.452875		different	different
sw4345A-ms98-a-0023	A.26	201.452875	202.192875		commentators	commentators
sw4345A-ms98-a-0023	A.26	202.192875	202.682875		explaining	explaining
sw4345A-ms98-a-0023	A.26	202.682875	202.812875		what	what
sw4345A-ms98-a-0023	A.26	202.812875	202.952875		you	you
sw4345A-ms98-a-0023	A.26	202.952875	203.212875		just	just
sw4345A-ms98-a-0023	A.26	203.212875	203.622875		heard	heard
sw4345A-ms98-a-0023	A.28	203.622875	204.034875		[silence]	[silence]
sw4345A-ms98-a-0024	A.28	204.034875	204.244875		[silence]	[silence]
sw4345A-ms98-a-0024	A.28	204.244875	204.454875		And	and
sw4345A-ms98-a-0024	A.28	204.454875	204.534875		a	a
sw4345A-ms98-a-0024	A.28	204.534875	204.674875		lot	lot
sw4345A-ms98-a-0024	A.28	204.674875	204.734875		of	of
sw4345A-ms98-a-0024	A.28	204.734875	204.944875	<SUB>	time	times
sw4345A-ms98-a-0024	A.28	204.944875	205.064875		I	i
sw4345A-ms98-a-0024	A.28	205.064875	205.264875		don't	don't
sw4345A-ms98-a-0024	A.28	205.264875	205.494875		hear	hear
sw4345A-ms98-a-0024	A.28	205.494875	206.044875		exactly	[laughter-exactly]
sw4345A-ms98-a-0024	A.28	206.044875	206.214875		what	what
sw4345A-ms98-a-0024	A.28	206.214875	206.511625		they	they
sw4345A-ms98-a-0024	A.28	206.511625	206.598250		[silence]	[silence]
sw4345A-ms98-a-0024	A.28	206.598250	206.734875		what	what
sw4345A-ms98-a-0024	A.28	206.734875	206.874875		they	they
sw4345A-ms98-a-0024	A.28	206.874875	207.144875		write	write
sw4345A-ms98-a-0024	A.28	207.144875	207.390750		into	into
sw4345A-ms98-a-0024	A.28	207.390750	207.690000		it	it
sw4345A-ms98-a-0024	A.30	207.690000	207.989125		[silence]	[silence]
sw4345A-ms98-a-0025	A.30	207.989125	209.140875		[silence]	[silence]
sw4345A-ms98-a-0026	A.30	209.140875	209.450875		[silence]	[silence]
sw4345A-ms98-a-0026	A.30	209.450875	209.800875		So	so
sw4345A-ms98-a-0026	A.30	209.800875	210.010875		I	i
sw4345A-ms98-a-0026	A.30	210.010875	210.470875		overall	overall
sw4345A-ms98-a-0026	A.30	210.470875	210.520875		I	i
sw4345A-ms98-a-0026	A.30	210.520875	210.710875		think	think
sw4345A-ms98-a-0026	A.30	210.710875	210.760875		I	i
sw4345A-ms98-a-0026	A.30	210.760875	210.940875		would	would
sw4345A-ms98-a-0026	A.30	210.940875	211.230875		rather	rather
sw4345A-ms98-a-0026	A.30	211.230875	211.660750		hear	hear
sw4345A-ms98-a-0026	A.30	211.660750	211.965875		[silence]	[silence]
sw4345A-ms98-a-0026	A.30	211.965875	212.171000		just	just
sw4345A-ms98-a-0026	A.30	212.171000	212.310375		[silence]	[silence]
sw4345A-ms98-a-0026	A.30	212.310375	212.680875		straight	straight
sw4345A-ms98-a-0026	A.30	212.680875	213.202375		reporting	reporting
sw4345A-ms98-a-0026	A.34	213.202375	213.503250		[silence]	[silence]
sw4345A-ms98-a-0027	A.34	213.503250	283.588125		[silence]	[silence]
sw4345A-ms98-a-0028	A.34	283.588125	284.468125		[silence]	[silence]
sw4345A-ms98-a-0028	A.34	284.468125	284.798125		Yeah	yeah
sw4345A-ms98-a-0028	A.34	284.798125	285.020000	<SUB>	I	i-
sw4345A-ms98-a-0028	A.34	285.020000	285.227125		I	i
sw4345A-ms98-a-0028	A.34	285.227125	285.588125		think	think
sw4345A-ms98-a-0028	A.34	285.588125	286.178125		people	people
sw4345A-ms98-a-0028	A.34	286.178125	286.486250		are	are
sw4345A-ms98-a-0028	A.34	286.486250	286.572875		[silence]	[silence]
sw4345A-ms98-a-0028	A.34	286.572875	286.848125		people	people
sw4345A-ms98-a-0028	A.34	286.848125	287.098125		have	have
sw4345A-ms98-a-0028	A.34	287.098125	287.288125		that	that
sw4345A-ms98-a-0028	A.34	287.288125	287.768125		opinion	opinion
sw4345A-ms98-a-0028	A.34	287.768125	288.008125		They	they
sw4345A-ms98-a-0028	A.34	288.008125	288.118125		they	they
sw4345A-ms98-a-0028	A.34	288.118125	288.378125	<SUB>	want	wanna
sw4345A-ms98-a-0028	A.34	288.378125	288.378125	<INS>	to	---
sw4345A-ms98-a-0028	A.34	288.378125	288.658125		sit	sit
sw4345A-ms98-a-0028	A.34	288.658125	288.998125		down	down
sw4345A-ms98-a-0028	A.34	288.998125	289.098125		in	in
sw4345A-ms98-a-0028	A.34	289.098125	289.298125		front	front
sw4345A-ms98-a-0028	A.34	289.298125	289.358125		of	of
sw4345A-ms98-a-0028	A.34	289.358125	289.418125		the	the
sw4345A-ms98-a-0028	A.34	289.418125	290.208125		TV	TV
sw4345A-ms98-a-0028	A.34	290.208125	290.678125		and	and
sw4345A-ms98-a-0028	A.34	290.678125	290.899625	<SUB>	uh	um
sw4345A-ms98-a-0028	A.34	290.899625	291.016500		[silence]	[silence]
sw4345A-ms98-a-0028	A.34	291.016500	291.300250		or	or
sw4345A-ms98-a-0028	A.34	291.300250	291.748000		[silence]	[silence]
sw4345A-ms98-a-0028	A.34	291.748000	292.000375		at	at
sw4345A-ms98-a-0028	A.34	292.000375	292.158125		a	a
sw4345A-ms98-a-0028	A.34	292.158125	292.288125		read	read
sw4345A-ms98-a-0028	A.34	292.288125	292.328125		a	a
sw4345A-ms98-a-0028	A.34	292.328125	293.059375		magazine	magazine
sw4345A-ms98-a-0028	A.34	293.059375	293.375750		[silence]	[silence]
sw4345A-ms98-a-0028	A.34	293.375750	293.508125		or	or
sw4345A-ms98-a-0028	A.34	293.508125	293.958125	<CONT>	U	USA
sw4345A-ms98-a-0028	A.34	293.958125	293.958125	<CONT>	S	+++
sw4345A-ms98-a-0028	A.34	293.958125	293.958125	<CONT>	A	+++
sw4345A-ms98-a-0028	A.34	293.958125	294.408125		TODAY	Today
sw4345A-ms98-a-0028	A.34	294.408125	294.528125		and	and
sw4345A-ms98-a-0028	A.34	294.528125	294.708125		read	read
sw4345A-ms98-a-0028	A.34	294.708125	294.808125		in	in
sw4345A-ms98-a-0028	A.34	294.808125	295.078125		four	four
sw4345A-ms98-a-0028	A.34	295.078125	295.930375		paragraphs	paragraphs
sw4345A-ms98-a-0028	A.34	295.930375	296.338750		[silence]	[silence]
sw4345A-ms98-a-0029	A.34	296.338750	296.758750		[silence]	[silence]
sw4345A-ms98-a-0029	A.34	296.758750	297.287500		uh	uh
sw4345A-ms98-a-0029	A.34	297.287500	297.607625		[silence]	[silence]
sw4345A-ms98-a-0029	A.34	297.607625	297.818750		and	and
sw4345A-ms98-a-0029	A.34	297.818750	297.978750		and	and
sw4345A-ms98-a-0029	A.34	297.978750	298.268750		find	find
sw4345A-ms98-a-0029	A.34	298.268750	298.448750		out	out
sw4345A-ms98-a-0029	A.34	298.448750	298.672750	<SUB>	every-	every
sw4345A-ms98-a-0029	A.34	298.672750	298.690000		[silence]	[silence]
