sw4617B-ms98-a-0001	B.2	0.000000	0.000625		[silence]	[silence]
sw4617B-ms98-a-0001	B.2	0.000625	0.050750		[noise]	[noise]
sw4617B-ms98-a-0001	B.2	0.050750	0.067125		[silence]	[silence]
sw4617B-ms98-a-0002	B.2	0.067125	0.607125		[silence]	[silence]
sw4617B-ms98-a-0002	B.2	0.607125	0.704250	<DEL>	---	well
sw4617B-ms98-a-0002	B.2	0.704250	0.744875		I	i
sw4617B-ms98-a-0002	B.2	0.744875	1.010000		say	say
sw4617B-ms98-a-0002	B.2	1.010000	1.297875	<SUB>	they	the
sw4617B-ms98-a-0002	B.2	1.297875	1.618500		uh	uh
sw4617B-ms98-a-0002	B.2	1.618500	1.979750		[silence]	[silence]
sw4617B-ms98-a-0003	B.2	1.979750	2.304375		[silence]	[silence]
sw4617B-ms98-a-0003	B.2	2.304375	2.529500		probably	probably
sw4617B-ms98-a-0003	B.2	2.529500	2.589750		the	the
sw4617B-ms98-a-0003	B.2	2.589750	2.869750		best	best
sw4617B-ms98-a-0003	B.2	2.869750	3.049750	<SUB>	things	thing
sw4617B-ms98-a-0003	B.2	3.049750	3.109750		to	to
sw4617B-ms98-a-0003	B.2	3.109750	3.309750		do	do
sw4617B-ms98-a-0003	B.2	3.309750	3.589750		is	is
sw4617B-ms98-a-0003	B.2	3.589750	3.969750		is	is
sw4617B-ms98-a-0003	B.2	3.969750	4.840500		[silence]	[silence]
sw4617B-ms98-a-0004	B.2	4.840500	5.190500		[silence]	[silence]
sw4617B-ms98-a-0004	B.2	5.190500	5.410500		tie	tie
sw4617B-ms98-a-0004	B.2	5.410500	5.540500		them	them
sw4617B-ms98-a-0004	B.2	5.540500	5.690500		with	with
sw4617B-ms98-a-0004	B.2	5.690500	5.760500		a	a
sw4617B-ms98-a-0004	B.2	5.760500	6.030500		rope	rope
sw4617B-ms98-a-0004	B.2	6.030500	6.140500		and	and
sw4617B-ms98-a-0004	B.2	6.140500	6.280500		throw	throw
sw4617B-ms98-a-0004	B.2	6.280500	6.410500		them	them
sw4617B-ms98-a-0004	B.2	6.410500	6.480500		in	in
sw4617B-ms98-a-0004	B.2	6.480500	6.540500		the	the
sw4617B-ms98-a-0004	B.2	6.540500	6.980500		water	water
sw4617B-ms98-a-0004	B.2	6.980500	7.290500		if	if
sw4617B-ms98-a-0004	B.2	7.290500	7.480500		they	they
sw4617B-ms98-a-0004	B.2	7.480500	8.024375		sink	sink
sw4617B-ms98-a-0004	B.4	8.024375	8.604500		[laughter]	[laughter]
sw4617B-ms98-a-0004	B.4	8.604500	8.860500		they're	they're
sw4617B-ms98-a-0004	B.4	8.860500	9.240500		innocent	innocent
sw4617B-ms98-a-0004	B.4	9.240500	9.510500		right	right
sw4617B-ms98-a-0004	B.6	9.510500	13.227750		[laughter]	[laughter]
sw4617B-ms98-a-0004	B.6	13.227750	13.299125		[silence]	[silence]
sw4617B-ms98-a-0005	B.6	13.299125	13.429375		[silence]	[silence]
sw4617B-ms98-a-0005	B.6	13.429375	13.784125		Yeah	yeah
sw4617B-ms98-a-0005	B.6	13.784125	14.257250		[silence]	[silence]
sw4617B-ms98-a-0005	B.6	14.257250	14.978250		Uh	uh
sw4617B-ms98-a-0005	B.6	14.978250	15.307250		so	so
sw4617B-ms98-a-0005	B.6	15.307250	15.496750		uh	uh
sw4617B-ms98-a-0005	B.6	15.496750	15.653875		[silence]	[silence]
sw4617B-ms98-a-0006	B.6	15.653875	16.073875		[silence]	[silence]
sw4617B-ms98-a-0006	B.6	16.073875	16.163875		how	how
sw4617B-ms98-a-0006	B.6	16.163875	16.233875		do	do
sw4617B-ms98-a-0006	B.6	16.233875	16.463875		you	you
sw4617B-ms98-a-0006	B.6	16.463875	16.563875		how	how
sw4617B-ms98-a-0006	B.6	16.563875	16.673875		do	do
sw4617B-ms98-a-0006	B.6	16.673875	16.753875		you	you
sw4617B-ms98-a-0006	B.6	16.753875	16.943875		feel	feel
sw4617B-ms98-a-0006	B.6	16.943875	17.093875		Th-	th[at's]-
sw4617B-ms98-a-0006	B.6	17.093875	17.436375		that's	that's
sw4617B-ms98-a-0006	B.6	17.436375	17.718875		[silence]	[silence]
sw4617B-ms98-a-0006	B.6	17.718875	18.003875		of	of
sw4617B-ms98-a-0006	B.6	18.003875	18.223875		course	course
sw4617B-ms98-a-0006	B.6	18.223875	18.413875		being	being
sw4617B-ms98-a-0006	B.6	18.413875	19.097125		facetious	facetious
sw4617B-ms98-a-0006	B.6	19.097125	19.344000		but	but
sw4617B-ms98-a-0006	B.10	19.344000	19.556625		[silence]	[silence]
sw4617B-ms98-a-0007	B.10	19.556625	20.196250		[silence]	[silence]
sw4617B-ms98-a-0007	B.10	20.196250	20.429125	<DEL>	---	yeah
sw4617B-ms98-a-0007	B.10	20.429125	21.121875		[silence]	[silence]
sw4617B-ms98-a-0008	B.10	21.121875	21.442625		[silence]	[silence]
sw4617B-ms98-a-0008	B.10	21.442625	22.107250		[laughter]	[laughter]
sw4617B-ms98-a-0008	B.10	22.107250	22.670000		[silence]	[silence]
sw4617B-ms98-a-0009	B.10	22.670000	31.765000		[silence]	[silence]
sw4617B-ms98-a-0010	B.10	31.765000	32.110250		[silence]	[silence]
sw4617B-ms98-a-0010	B.10	32.110250	32.500125	<SUB>	Uh-huh	um-hum
sw4617B-ms98-a-0010	B.14	32.500125	32.710125		[silence]	[silence]
sw4617B-ms98-a-0011	B.14	32.710125	41.278250		[silence]	[silence]
sw4617B-ms98-a-0012	B.14	41.278250	41.587375		[silence]	[silence]
sw4617B-ms98-a-0012	B.14	41.587375	41.931875		Uh-huh	uh-huh
sw4617B-ms98-a-0012	B.16	41.931875	42.133125		[silence]	[silence]
sw4617B-ms98-a-0013	B.16	42.133125	43.355500		[silence]	[silence]
sw4617B-ms98-a-0014	B.16	43.355500	43.438625		[silence]	[silence]
sw4617B-ms98-a-0014	B.16	43.438625	43.669875		[noise]	[noise]
sw4617B-ms98-a-0014	B.16	43.669875	44.735375		[silence]	[silence]
sw4617B-ms98-a-0015	B.16	44.735375	55.099375		[silence]	[silence]
sw4617B-ms98-a-0016	B.16	55.099375	55.330625		[silence]	[silence]
sw4617B-ms98-a-0016	B.16	55.330625	55.606125	<SUB>	Uh-huh	um-hum
sw4617B-ms98-a-0016	B.18	55.606125	55.699375		And	and
sw4617B-ms98-a-0016	B.18	55.699375	55.759375		I	i
sw4617B-ms98-a-0016	B.18	55.759375	55.979375		guess	guess
sw4617B-ms98-a-0016	B.18	55.979375	56.239375		also	also
sw4617B-ms98-a-0016	B.18	56.239375	56.359375		what	what
sw4617B-ms98-a-0016	B.18	56.359375	56.449375		the	the
sw4617B-ms98-a-0016	B.18	56.449375	56.969375		system	system
sw4617B-ms98-a-0016	B.18	56.969375	57.089375		will	will
sw4617B-ms98-a-0016	B.18	57.089375	57.609875		absorb	absorb
sw4617B-ms98-a-0016	B.20	57.609875	58.064750		[silence]	[silence]
sw4617B-ms98-a-0017	B.20	58.064750	58.404750		[silence]	[silence]
sw4617B-ms98-a-0017	B.20	58.404750	58.534750	<DEL>	---	they're
sw4617B-ms98-a-0017	B.20	58.534750	58.804750		Probably	probably
sw4617B-ms98-a-0017	B.20	58.804750	58.954750		more	more
sw4617B-ms98-a-0017	B.20	58.954750	59.264750		tuned	tuned
sw4617B-ms98-a-0017	B.20	59.264750	59.444750		in	in
sw4617B-ms98-a-0017	B.20	59.444750	59.504750		to	to
sw4617B-ms98-a-0017	B.20	59.504750	59.825625		that	that
sw4617B-ms98-a-0017	B.20	59.825625	60.303875		[silence]	[silence]
sw4617B-ms98-a-0017	B.20	60.303875	60.694750		Possibly	possibly
sw4617B-ms98-a-0017	B.20	60.694750	61.024750		though	though
sw4617B-ms98-a-0017	B.20	61.024750	61.244750		on	on
sw4617B-ms98-a-0017	B.20	61.244750	61.670375	<SUB>	uh	um
sw4617B-ms98-a-0017	B.20	61.670375	62.015750		[silence]	[silence]
sw4617B-ms98-a-0018	B.20	62.015750	62.381750		[silence]	[silence]
sw4617B-ms98-a-0018	B.20	62.381750	62.800625		capital	capital
sw4617B-ms98-a-0018	B.20	62.800625	63.435750		cases	cases
sw4617B-ms98-a-0018	B.20	63.435750	63.625750		like	like
sw4617B-ms98-a-0018	B.20	63.625750	63.825750		maybe	maybe
sw4617B-ms98-a-0018	B.20	63.825750	64.035750		the	the
sw4617B-ms98-a-0018	B.20	64.035750	64.280875		death	death
sw4617B-ms98-a-0018	B.20	64.280875	64.841250		penalty	penalty
sw4617B-ms98-a-0018	B.22	64.841250	65.144125		[silence]	[silence]
sw4617B-ms98-a-0019	B.22	65.144125	65.994875		[silence]	[silence]
sw4617B-ms98-a-0019	B.22	65.994875	66.788125		uh	uh
sw4617B-ms98-a-0019	B.22	66.788125	67.121875		[silence]	[silence]
sw4617B-ms98-a-0019	B.22	67.121875	67.244125		I'm	i'm
sw4617B-ms98-a-0019	B.22	67.244125	67.484125		kind	kind
sw4617B-ms98-a-0019	B.22	67.484125	67.544125		of	of
sw4617B-ms98-a-0019	B.22	67.544125	68.044125		undecided	undecided
sw4617B-ms98-a-0019	B.22	68.044125	68.154125		on	on
sw4617B-ms98-a-0019	B.22	68.154125	68.334125		that	that
sw4617B-ms98-a-0019	B.22	68.334125	68.624125		whether	whether
sw4617B-ms98-a-0019	B.22	68.624125	68.774125		the	the
sw4617B-ms98-a-0019	B.22	68.774125	69.084125		judge	judge
sw4617B-ms98-a-0019	B.22	69.084125	69.184125		should	should
sw4617B-ms98-a-0019	B.22	69.184125	69.304125		have	have
sw4617B-ms98-a-0019	B.22	69.304125	69.384125		the	the
sw4617B-ms98-a-0019	B.22	69.384125	69.854125		sole	sole
sw4617B-ms98-a-0019	B.22	69.854125	70.220500		[silence]	[silence]
sw4617B-ms98-a-0020	B.22	70.220500	70.580500		[silence]	[silence]
sw4617B-ms98-a-0020	B.22	70.580500	70.650500		I	i
sw4617B-ms98-a-0020	B.22	70.650500	70.770500		mean	mean
sw4617B-ms98-a-0020	B.22	70.770500	70.830500		he	he
sw4617B-ms98-a-0020	B.22	70.830500	70.970500		could	could
sw4617B-ms98-a-0020	B.22	70.970500	71.230500		have	have
sw4617B-ms98-a-0020	B.22	71.230500	71.370500		like	like
sw4617B-ms98-a-0020	B.22	71.370500	71.430500		a	a
sw4617B-ms98-a-0020	B.22	71.430500	71.810500		personal	personal
sw4617B-ms98-a-0020	B.22	71.810500	72.330500		prejudice	prejudice
sw4617B-ms98-a-0020	B.22	72.330500	72.390500		You	you
sw4617B-ms98-a-0020	B.22	72.390500	72.470500		know	know
sw4617B-ms98-a-0020	B.22	72.470500	72.880500		judges	judges
sw4617B-ms98-a-0020	B.22	72.880500	72.978500		are	are
sw4617B-ms98-a-0020	B.22	72.978500	73.426875		people	people
sw4617B-ms98-a-0020	B.22	73.426875	73.983750		[silence]	[silence]
sw4617B-ms98-a-0021	B.22	73.983750	74.653750		[silence]	[silence]
sw4617B-ms98-a-0021	B.22	74.653750	74.853750		like	like
sw4617B-ms98-a-0021	B.22	74.853750	75.193750		everybody	everybody
sw4617B-ms98-a-0021	B.22	75.193750	75.483750		else	else
sw4617B-ms98-a-0021	B.24	75.483750	75.783750		[silence]	[silence]
sw4617B-ms98-a-0021	B.24	75.783750	75.993750		even	even
sw4617B-ms98-a-0021	B.24	75.993750	76.113750		though	though
sw4617B-ms98-a-0021	B.24	76.113750	76.305375		they're	they're
sw4617B-ms98-a-0021	B.24	76.305375	76.471125		[silence]	[silence]
sw4617B-ms98-a-0021	B.24	76.471125	76.593750		they're	they're
sw4617B-ms98-a-0021	B.24	76.593750	76.853750		supposed	supposed
sw4617B-ms98-a-0021	B.24	76.853750	76.913750		to	to
sw4617B-ms98-a-0021	B.24	76.913750	76.983750		be	be
sw4617B-ms98-a-0021	B.24	76.983750	77.483750		impartial	impartial
sw4617B-ms98-a-0021	B.24	77.483750	77.693750		but	but
sw4617B-ms98-a-0021	B.24	77.693750	78.087625		[silence]	[silence]
sw4617B-ms98-a-0022	B.24	78.087625	78.684250		[silence]	[silence]
sw4617B-ms98-a-0022	B.24	78.684250	79.093250		maybe	maybe
sw4617B-ms98-a-0022	B.24	79.093250	79.346625		uh	uh
sw4617B-ms98-a-0022	B.26	79.346625	79.867625		[silence]	[silence]
sw4617B-ms98-a-0023	B.26	79.867625	85.718250		[silence]	[silence]
sw4617B-ms98-a-0024	B.26	85.718250	86.038250		[silence]	[silence]
sw4617B-ms98-a-0024	B.26	86.038250	86.178875	<SUB>	I	i-
sw4617B-ms98-a-0024	B.26	86.178875	86.295500		[silence]	[silence]
sw4617B-ms98-a-0024	B.26	86.295500	86.490250		I	i
sw4617B-ms98-a-0024	B.26	86.490250	86.707375		think	think
sw4617B-ms98-a-0024	B.26	86.707375	87.064000		that's	that's
sw4617B-ms98-a-0024	B.26	87.064000	87.226000		[silence]	[silence]
sw4617B-ms98-a-0024	B.26	87.226000	87.283250	<SUB>	I	i-
sw4617B-ms98-a-0024	B.26	87.283250	87.398250		think	think
sw4617B-ms98-a-0024	B.26	87.398250	87.558250		that's	that's
sw4617B-ms98-a-0024	B.26	87.558250	87.618250		the	the
sw4617B-ms98-a-0024	B.26	87.618250	87.778250		way	way
sw4617B-ms98-a-0024	B.26	87.778250	87.858250		it	it
sw4617B-ms98-a-0024	B.26	87.858250	88.310500		is	is
sw4617B-ms98-a-0024	B.28	88.310500	88.717250		[silence]	[silence]
sw4617B-ms98-a-0024	B.28	88.717250	89.078250		Uh	uh
sw4617B-ms98-a-0024	B.28	89.078250	89.288250		whether	whether
sw4617B-ms98-a-0024	B.28	89.288250	89.624875		they	they
sw4617B-ms98-a-0024	B.28	89.624875	89.798250		[silence]	[silence]
sw4617B-ms98-a-0024	B.28	89.798250	89.898250		they	they
sw4617B-ms98-a-0024	B.28	89.898250	90.348250		decide	decide
sw4617B-ms98-a-0024	B.28	90.348250	90.468250		whether	whether
sw4617B-ms98-a-0024	B.28	90.468250	90.538250		or	or
sw4617B-ms98-a-0024	B.28	90.538250	90.778250		not	not
sw4617B-ms98-a-0024	B.28	90.778250	91.008250		they	they
sw4617B-ms98-a-0024	B.28	91.008250	91.204000		uh	uh
sw4617B-ms98-a-0024	B.28	91.204000	91.791750		[silence]	[silence]
sw4617B-ms98-a-0025	B.28	91.791750	92.431750		[silence]	[silence]
sw4617B-ms98-a-0025	B.28	92.431750	92.821750	<SUB>	the	uh
sw4617B-ms98-a-0025	B.28	92.821750	93.197250		[silence]	[silence]
sw4617B-ms98-a-0026	B.28	93.197250	94.254250		[silence]	[silence]
sw4617B-ms98-a-0027	B.28	94.254250	94.604250		[silence]	[silence]
sw4617B-ms98-a-0027	B.28	94.604250	95.144250		accused	accused
sw4617B-ms98-a-0027	B.28	95.144250	95.204250		or	or
sw4617B-ms98-a-0027	B.28	95.204250	95.424250		whatever	whatever
sw4617B-ms98-a-0027	B.28	95.424250	95.624250		would	would
sw4617B-ms98-a-0027	B.28	95.624250	95.864250		get	get
sw4617B-ms98-a-0027	B.28	95.864250	96.116500		the	the
sw4617B-ms98-a-0027	B.28	96.116500	96.366500		uh	uh
sw4617B-ms98-a-0027	B.28	96.366500	96.637750		[silence]	[silence]
sw4617B-ms98-a-0027	B.28	96.637750	96.764250		get	get
sw4617B-ms98-a-0027	B.28	96.764250	96.854250		the	the
sw4617B-ms98-a-0027	B.28	96.854250	97.084250		death	death
sw4617B-ms98-a-0027	B.28	97.084250	97.484250		penalty	penalty
sw4617B-ms98-a-0027	B.28	97.484250	97.953750		[silence]	[silence]
sw4617B-ms98-a-0028	B.28	97.953750	98.419250		[silence]	[silence]
sw4617B-ms98-a-0028	B.28	98.419250	98.477750		Do	do
sw4617B-ms98-a-0028	B.28	98.477750	98.543750		they	they
sw4617B-ms98-a-0028	B.28	98.543750	98.693750		have	have
sw4617B-ms98-a-0028	B.28	98.693750	98.763750		a	a
sw4617B-ms98-a-0028	B.28	98.763750	98.923750		death	death
sw4617B-ms98-a-0028	B.28	98.923750	99.163750		penalty	penalty
sw4617B-ms98-a-0028	B.28	99.163750	99.223750		in	in
sw4617B-ms98-a-0028	B.28	99.223750	99.873750		California	California
sw4617B-ms98-a-0028	B.30	99.873750	100.139250		[silence]	[silence]
sw4617B-ms98-a-0029	B.30	100.139250	100.816125		[silence]	[silence]
sw4617B-ms98-a-0029	B.30	100.816125	101.037250		Yeah	yeah
sw4617B-ms98-a-0029	B.32	101.037250	101.337375		[silence]	[silence]
sw4617B-ms98-a-0030	B.32	101.337375	104.354250		[silence]	[silence]
sw4617B-ms98-a-0031	B.32	104.354250	104.544250		[silence]	[silence]
sw4617B-ms98-a-0031	B.32	104.544250	104.954250	<SUB>	Uh-huh	um-hum
sw4617B-ms98-a-0031	B.34	104.954250	105.361250		[silence]	[silence]
sw4617B-ms98-a-0032	B.34	105.361250	108.291875		[silence]	[silence]
sw4617B-ms98-a-0033	B.34	108.291875	108.601875		[silence]	[silence]
sw4617B-ms98-a-0033	B.34	108.601875	108.939625		Yeah	yeah
sw4617B-ms98-a-0033	B.36	108.939625	109.043250		[noise]	[noise]
sw4617B-ms98-a-0033	B.36	109.043250	109.667625		[silence]	[silence]
sw4617B-ms98-a-0034	B.36	109.667625	115.044250		[silence]	[silence]
sw4617B-ms98-a-0035	B.36	115.044250	115.421375		[silence]	[silence]
sw4617B-ms98-a-0035	B.36	115.421375	115.747625	<SUB>	Uh-huh	um-hum
sw4617B-ms98-a-0035	B.40	115.747625	116.126875		[silence]	[silence]
sw4617B-ms98-a-0036	B.40	116.126875	122.467750		[silence]	[silence]
sw4617B-ms98-a-0037	B.40	122.467750	122.837750		[silence]	[silence]
sw4617B-ms98-a-0037	B.40	122.837750	123.237750		Yeah	yeah
sw4617B-ms98-a-0037	B.40	123.237750	123.458125		I	i
sw4617B-ms98-a-0037	B.40	123.458125	123.582375		[silence]	[silence]
sw4617B-ms98-a-0037	B.40	123.582375	123.897750		something	something
sw4617B-ms98-a-0037	B.40	123.897750	124.017750		like	like
sw4617B-ms98-a-0037	B.40	124.017750	124.267750		that	that
sw4617B-ms98-a-0037	B.40	124.267750	124.377750		I've	i've
sw4617B-ms98-a-0037	B.40	124.377750	124.567750		got	got
sw4617B-ms98-a-0037	B.40	124.567750	124.647750		no	no
sw4617B-ms98-a-0037	B.40	124.647750	124.947750		problem	problem
sw4617B-ms98-a-0037	B.40	124.947750	125.057750		with	with
sw4617B-ms98-a-0037	B.40	125.057750	125.147750	<SUB>	it	them_1
sw4617B-ms98-a-0037	B.40	125.147750	125.563250		[silence]	[silence]
sw4617B-ms98-a-0038	B.40	125.563250	126.007625		[silence]	[silence]
sw4617B-ms98-a-0038	B.40	126.007625	126.385500	<SUB>	Uh	um
sw4617B-ms98-a-0038	B.42	126.385500	126.665750		[silence]	[silence]
sw4617B-ms98-a-0039	B.42	126.665750	127.035750		[silence]	[silence]
sw4617B-ms98-a-0039	B.42	127.035750	127.145750		I	i
sw4617B-ms98-a-0039	B.42	127.145750	127.335750		guess	guess
sw4617B-ms98-a-0039	B.42	127.335750	127.395750		the	the
sw4617B-ms98-a-0039	B.42	127.395750	127.515750		way	way
sw4617B-ms98-a-0039	B.42	127.515750	127.615750		I	i
sw4617B-ms98-a-0039	B.42	127.615750	127.845750		think	think
sw4617B-ms98-a-0039	B.42	127.845750	128.135750		about	about
sw4617B-ms98-a-0039	B.42	128.135750	128.205750		it	it
sw4617B-ms98-a-0039	B.42	128.205750	128.467750		is	is
sw4617B-ms98-a-0039	B.42	128.467750	128.785875		[silence]	[silence]
sw4617B-ms98-a-0040	B.42	128.785875	129.790875		[silence]	[silence]
sw4617B-ms98-a-0041	B.42	129.790875	130.029750		[silence]	[silence]
sw4617B-ms98-a-0041	B.42	130.029750	130.471375		not	not
sw4617B-ms98-a-0041	B.42	130.471375	130.600875		it	it
sw4617B-ms98-a-0041	B.42	130.600875	131.040875		shouldn't	shouldn't
sw4617B-ms98-a-0041	B.42	131.040875	131.420875		necessarily	necessarily
sw4617B-ms98-a-0041	B.42	131.420875	131.560875		be	be
sw4617B-ms98-a-0041	B.42	131.560875	131.840875		thought	thought
sw4617B-ms98-a-0041	B.42	131.840875	132.000875		of	of
sw4617B-ms98-a-0041	B.42	132.000875	132.250875		as	as
sw4617B-ms98-a-0041	B.42	132.250875	132.980875		revenge	revenge
sw4617B-ms98-a-0041	B.42	132.980875	133.140875		It's	it's
sw4617B-ms98-a-0041	B.42	133.140875	133.400875		just	just
sw4617B-ms98-a-0041	B.42	133.400875	133.700875		like	like
sw4617B-ms98-a-0041	B.42	133.700875	133.860875		if	if
sw4617B-ms98-a-0041	B.42	133.860875	133.990875		you've	you've
sw4617B-ms98-a-0041	B.42	133.990875	134.210875		got	got
sw4617B-ms98-a-0041	B.42	134.210875	134.370875		like	like
sw4617B-ms98-a-0041	B.42	134.370875	134.510875		a	a
sw4617B-ms98-a-0041	B.42	134.510875	134.890875		dog	dog
sw4617B-ms98-a-0041	B.42	134.890875	135.050875		that's	that's
sw4617B-ms98-a-0041	B.42	135.050875	135.350875		running	running
sw4617B-ms98-a-0041	B.42	135.350875	135.700875		wild	wild
sw4617B-ms98-a-0041	B.42	135.700875	135.790875		and	and
sw4617B-ms98-a-0041	B.42	135.790875	136.070875		biting	biting
sw4617B-ms98-a-0041	B.42	136.070875	136.442750		people	people
sw4617B-ms98-a-0041	B.44	136.442750	137.034625		[silence]	[silence]
sw4617B-ms98-a-0041	B.44	137.034625	137.190500		[noise]	[noise]
sw4617B-ms98-a-0041	B.44	137.190500	137.435375		[silence]	[silence]
sw4617B-ms98-a-0041	B.44	137.435375	137.590875		put	put
sw4617B-ms98-a-0041	B.44	137.590875	137.670875		it	it
sw4617B-ms98-a-0041	B.44	137.670875	137.740875		to	to
sw4617B-ms98-a-0041	B.44	137.740875	138.120875		sleep	sleep
sw4617B-ms98-a-0041	B.44	138.120875	138.200875		you	you
sw4617B-ms98-a-0041	B.44	138.200875	138.340875		know	know
sw4617B-ms98-a-0041	B.44	138.340875	138.540875		Just	just
sw4617B-ms98-a-0041	B.44	138.540875	138.660875		get	get
sw4617B-ms98-a-0041	B.44	138.660875	138.760875		it	it
sw4617B-ms98-a-0041	B.44	138.760875	139.060875		out	out
sw4617B-ms98-a-0041	B.44	139.060875	139.180875		you	you
sw4617B-ms98-a-0041	B.44	139.180875	139.388750		know	know
sw4617B-ms98-a-0041	B.44	139.388750	139.501750		[silence]	[silence]
sw4617B-ms98-a-0041	B.44	139.501750	139.710875		it's	it's
sw4617B-ms98-a-0041	B.44	139.710875	139.938500		not	not
sw4617B-ms98-a-0041	B.44	139.938500	140.156875		[silence]	[silence]
sw4617B-ms98-a-0041	B.44	140.156875	140.440875		able	able
sw4617B-ms98-a-0041	B.44	140.440875	140.500875		to	to
sw4617B-ms98-a-0041	B.44	140.500875	140.680875		fit	fit
sw4617B-ms98-a-0041	B.44	140.680875	140.901500		in	in
sw4617B-ms98-a-0041	B.44	140.901500	140.983500		you	you
sw4617B-ms98-a-0041	B.44	140.983500	141.145375		know	know
sw4617B-ms98-a-0041	B.46	141.145375	141.340625		[silence]	[silence]
sw4617B-ms98-a-0042	B.46	141.340625	142.687375		[silence]	[silence]
sw4617B-ms98-a-0043	B.46	142.687375	142.857375		[silence]	[silence]
sw4617B-ms98-a-0043	B.46	142.857375	143.172375		Yeah	yeah
sw4617B-ms98-a-0043	B.46	143.172375	143.430250		[silence]	[silence]
sw4617B-ms98-a-0043	B.46	143.430250	143.677375		Yeah	yeah
sw4617B-ms98-a-0043	B.46	143.677375	144.167375		exactly	exactly
sw4617B-ms98-a-0043	B.46	144.167375	144.639500		[silence]	[silence]
sw4617B-ms98-a-0044	B.46	144.639500	145.129500		[silence]	[silence]
sw4617B-ms98-a-0044	B.46	145.129500	145.599500	<SUB>	Uh	um
sw4617B-ms98-a-0044	B.46	145.599500	145.828500		[silence]	[silence]
sw4617B-ms98-a-0045	B.46	145.828500	146.203250		[silence]	[silence]
sw4617B-ms98-a-0045	B.46	146.203250	146.308875		I	i
sw4617B-ms98-a-0045	B.46	146.308875	146.578500		guess	guess
sw4617B-ms98-a-0045	B.48	146.578500	147.164125		[silence]	[silence]
sw4617B-ms98-a-0046	B.48	147.164125	147.754125		[silence]	[silence]
sw4617B-ms98-a-0046	B.48	147.754125	147.934125		kind	kind
sw4617B-ms98-a-0046	B.48	147.934125	147.994125		of	of
sw4617B-ms98-a-0046	B.48	147.994125	148.054125		the	the
sw4617B-ms98-a-0046	B.48	148.054125	148.164125		way	way
sw4617B-ms98-a-0046	B.48	148.164125	148.264125		I	i
sw4617B-ms98-a-0046	B.48	148.264125	148.564125		think	think
sw4617B-ms98-a-0046	B.48	148.564125	148.784125		about	about
sw4617B-ms98-a-0046	B.48	148.784125	148.844125		it	it
sw4617B-ms98-a-0046	B.48	148.844125	149.264125		also	also
sw4617B-ms98-a-0046	B.48	149.264125	149.414125		is	is
sw4617B-ms98-a-0046	B.48	149.414125	149.588750		they	they
sw4617B-ms98-a-0046	B.48	149.588750	149.918250		just	just
sw4617B-ms98-a-0046	B.48	149.918250	150.360625		[silence]	[silence]
sw4617B-ms98-a-0047	B.48	150.360625	150.590625		[silence]	[silence]
sw4617B-ms98-a-0047	B.48	150.590625	150.720625		if	if
sw4617B-ms98-a-0047	B.48	150.720625	151.080625		somebody	somebody
sw4617B-ms98-a-0047	B.48	151.080625	151.290625		gets	gets
sw4617B-ms98-a-0047	B.48	151.290625	151.350625		the	the
sw4617B-ms98-a-0047	B.48	151.350625	151.640625		death	death
sw4617B-ms98-a-0047	B.48	151.640625	152.053250		penalty	penalty
sw4617B-ms98-a-0047	B.48	152.053250	152.335750		they're	they're
sw4617B-ms98-a-0047	B.48	152.335750	152.720625		[silence]	[silence]
sw4617B-ms98-a-0047	B.48	152.720625	152.900625		they're	they're
sw4617B-ms98-a-0047	B.48	152.900625	153.220625		judged	judged
sw4617B-ms98-a-0047	B.48	153.220625	153.670625		guilty	guilty
sw4617B-ms98-a-0047	B.48	153.670625	153.880625		they	they
sw4617B-ms98-a-0047	B.48	153.880625	154.030625		got	got
sw4617B-ms98-a-0047	B.48	154.030625	154.140625		the	the
sw4617B-ms98-a-0047	B.48	154.140625	154.360625		death	death
sw4617B-ms98-a-0047	B.48	154.360625	154.716000		penalty	penalty
sw4617B-ms98-a-0047	B.48	154.716000	155.108250		[silence]	[silence]
sw4617B-ms98-a-0048	B.48	155.108250	155.493375		[silence]	[silence]
sw4617B-ms98-a-0048	B.48	155.493375	155.586875		they	they
sw4617B-ms98-a-0048	B.48	155.586875	155.748250		should	should
sw4617B-ms98-a-0048	B.48	155.748250	155.888250		have	have
sw4617B-ms98-a-0048	B.48	155.888250	156.128250		one	one
sw4617B-ms98-a-0048	B.48	156.128250	156.659750		year	year
sw4617B-ms98-a-0048	B.48	156.659750	156.870625		[silence]	[silence]
sw4617B-ms98-a-0048	B.48	156.870625	157.078250		and	and
sw4617B-ms98-a-0048	B.48	157.078250	157.238250		one	one
sw4617B-ms98-a-0048	B.48	157.238250	157.658250		appeal	appeal
sw4617B-ms98-a-0048	B.48	157.658250	157.968250		Cover	cover
sw4617B-ms98-a-0048	B.48	157.968250	158.088250		all	all
sw4617B-ms98-a-0048	B.48	158.088250	158.178250		their	their
sw4617B-ms98-a-0048	B.48	158.178250	158.508250		bases	bases
sw4617B-ms98-a-0048	B.48	158.508250	158.598250		with	with
sw4617B-ms98-a-0048	B.48	158.598250	158.698250		one	one
sw4617B-ms98-a-0048	B.48	158.698250	159.098250		appeal	appeal
sw4617B-ms98-a-0048	B.48	159.098250	159.188250		and	and
sw4617B-ms98-a-0048	B.48	159.188250	159.298250		if	if
sw4617B-ms98-a-0048	B.48	159.298250	159.580500		not	not
sw4617B-ms98-a-0048	B.48	159.580500	159.995875		[silence]	[silence]
sw4617B-ms98-a-0049	B.48	159.995875	160.355875		[silence]	[silence]
sw4617B-ms98-a-0049	B.48	160.355875	160.415875		you	you
sw4617B-ms98-a-0049	B.48	160.415875	160.525875		know	know
sw4617B-ms98-a-0049	B.48	160.525875	160.705875		don't	don't
sw4617B-ms98-a-0049	B.48	160.705875	160.815875		[silence]	[silence]
sw4617B-ms98-a-0049	B.48	160.815875	161.015875		don't	don't
sw4617B-ms98-a-0049	B.48	161.015875	161.125875		let	let
sw4617B-ms98-a-0049	B.48	161.125875	161.215875		them	them
sw4617B-ms98-a-0049	B.48	161.215875	161.375875		sit	sit
sw4617B-ms98-a-0049	B.48	161.375875	161.475875		up	up
sw4617B-ms98-a-0049	B.48	161.475875	161.575875		there	there
sw4617B-ms98-a-0049	B.48	161.575875	161.675875		on	on
sw4617B-ms98-a-0049	B.48	161.675875	161.895875		death	death
sw4617B-ms98-a-0049	B.48	161.895875	162.085875		row	row
sw4617B-ms98-a-0049	B.48	162.085875	162.265875		for	for
sw4617B-ms98-a-0049	B.48	162.265875	162.664500		[silence]	[silence]
sw4617B-ms98-a-0049	B.48	162.664500	162.717125		you	you
sw4617B-ms98-a-0049	B.48	162.717125	162.825875		know	know
sw4617B-ms98-a-0049	B.48	162.825875	162.845875		[laughter]	[laughter]
sw4617B-ms98-a-0049	B.48	162.845875	163.335875		fifteen	fifteen
sw4617B-ms98-a-0049	B.48	163.335875	163.742875		years	years
sw4617B-ms98-a-0049	B.50	163.742875	163.943000		[silence]	[silence]
sw4617B-ms98-a-0050	B.50	163.943000	167.522375		[silence]	[silence]
sw4617B-ms98-a-0051	B.50	167.522375	167.782375		[silence]	[silence]
sw4617B-ms98-a-0051	B.50	167.782375	168.142375		Uh-huh	uh-huh
sw4617B-ms98-a-0051	B.50	168.142375	168.545500		[silence]	[silence]
sw4617B-ms98-a-0052	B.50	168.545500	169.554125		[silence]	[silence]
sw4617B-ms98-a-0053	B.50	169.554125	169.894125		[silence]	[silence]
sw4617B-ms98-a-0053	B.50	169.894125	170.094125		Yeah	yeah
sw4617B-ms98-a-0053	B.50	170.094125	170.404125	<SUB>	that	that's
sw4617B-ms98-a-0053	B.52	170.404125	170.523000	<DEL>	---	a
sw4617B-ms98-a-0053	B.52	170.523000	170.993000		[silence]	[silence]
sw4617B-ms98-a-0054	B.52	170.993000	173.916500		[silence]	[silence]
sw4617B-ms98-a-0055	B.52	173.916500	174.826500		[silence]	[silence]
sw4617B-ms98-a-0055	B.52	174.826500	175.036500		Yeah	yeah
sw4617B-ms98-a-0055	B.52	175.036500	175.296500		Oh	oh
sw4617B-ms98-a-0055	B.52	175.296500	175.420500		I'm	i'm
sw4617B-ms98-a-0055	B.52	175.420500	175.608750		[silence]	[silence]
sw4617B-ms98-a-0055	B.52	175.608750	175.746500	<DEL>	---	i'm
sw4617B-ms98-a-0055	B.52	175.746500	176.104375		sure	sure
sw4617B-ms98-a-0055	B.54	176.104375	176.686375		[silence]	[silence]
sw4617B-ms98-a-0056	B.54	176.686375	177.193750		[silence]	[silence]
sw4617B-ms98-a-0056	B.54	177.193750	177.491625		Yeah	yeah
sw4617B-ms98-a-0056	B.56	177.491625	178.150750		[silence]	[silence]
sw4617B-ms98-a-0057	B.56	178.150750	178.712500		[silence]	[silence]
sw4617B-ms98-a-0057	B.56	178.712500	178.985750		[noise]	[noise]
sw4617B-ms98-a-0057	B.56	178.985750	179.519125		[silence]	[silence]
sw4617B-ms98-a-0058	B.56	179.519125	185.427250		[silence]	[silence]
sw4617B-ms98-a-0059	B.56	185.427250	185.819750		[silence]	[silence]
sw4617B-ms98-a-0059	B.56	185.819750	186.221000	<SUB>	Uh-huh	um-hum
sw4617B-ms98-a-0059	B.58	186.221000	186.578750		[silence]	[silence]
sw4617B-ms98-a-0060	B.58	186.578750	193.601250		[silence]	[silence]
sw4617B-ms98-a-0061	B.58	193.601250	193.870125		[silence]	[silence]
sw4617B-ms98-a-0061	B.58	193.870125	193.994250	<DEL>	---	i-
sw4617B-ms98-a-0061	B.58	193.994250	194.199375		[silence]	[silence]
sw4617B-ms98-a-0061	B.58	194.199375	194.330375		I	i
sw4617B-ms98-a-0061	B.58	194.330375	194.555000		believe	believe
sw4617B-ms98-a-0061	B.58	194.555000	194.687500		it	it
sw4617B-ms98-a-0061	B.58	194.687500	194.906000		is	is
sw4617B-ms98-a-0061	B.60	194.906000	195.001250		in	in
sw4617B-ms98-a-0061	B.60	195.001250	195.437750		capital	capital
sw4617B-ms98-a-0061	B.60	195.437750	195.584750		I	i
sw4617B-ms98-a-0061	B.60	195.584750	195.891250		think	think
sw4617B-ms98-a-0061	B.60	195.891250	196.071250		in	in
sw4617B-ms98-a-0061	B.60	196.071250	196.341250		like	like
sw4617B-ms98-a-0061	B.60	196.341250	196.569250		uh	uh
sw4617B-ms98-a-0061	B.60	196.569250	197.266000		[silence]	[silence]
sw4617B-ms98-a-0061	B.60	197.266000	197.541250		lesser	lesser
sw4617B-ms98-a-0061	B.60	197.541250	197.961250		cases	cases
sw4617B-ms98-a-0061	B.60	197.961250	198.421250		it's	it's
sw4617B-ms98-a-0061	B.60	198.421250	198.961250		[silence]	[silence]
sw4617B-ms98-a-0061	B.60	198.961250	199.121250		like	like
sw4617B-ms98-a-0061	B.60	199.121250	199.361250		ten	ten
sw4617B-ms98-a-0061	B.60	199.361250	199.441250		out	out
sw4617B-ms98-a-0061	B.60	199.441250	199.531250		of	of
sw4617B-ms98-a-0061	B.60	199.531250	199.951250		twelve	twelve
sw4617B-ms98-a-0061	B.60	199.951250	200.211250		or	or
sw4617B-ms98-a-0061	B.60	200.211250	200.651250		five	five
sw4617B-ms98-a-0061	B.60	200.651250	200.721250		out	out
sw4617B-ms98-a-0061	B.60	200.721250	200.791250		of	of
sw4617B-ms98-a-0061	B.60	200.791250	201.191250		six	six
sw4617B-ms98-a-0061	B.60	201.191250	201.538500		whatever	whatever
sw4617B-ms98-a-0061	B.62	201.538500	202.209250		[silence]	[silence]
sw4617B-ms98-a-0062	B.62	202.209250	202.519250		[silence]	[silence]
sw4617B-ms98-a-0062	B.62	202.519250	202.799250	<CONT>	How	however
sw4617B-ms98-a-0062	B.62	202.799250	202.799250	<CONT>	ever	+++
sw4617B-ms98-a-0062	B.62	202.799250	202.959250		many	many
sw4617B-ms98-a-0062	B.62	202.959250	203.139250		is	is
sw4617B-ms98-a-0062	B.62	203.139250	203.299250		on	on
sw4617B-ms98-a-0062	B.62	203.299250	203.629250		sitting	sitting
sw4617B-ms98-a-0062	B.62	203.629250	203.769250		on	on
sw4617B-ms98-a-0062	B.62	203.769250	203.819250		a	a
sw4617B-ms98-a-0062	B.62	203.819250	204.269250		jury	jury
sw4617B-ms98-a-0062	B.62	204.269250	204.635000		[silence]	[silence]
sw4617B-ms98-a-0063	B.62	204.635000	204.995000		[silence]	[silence]
sw4617B-ms98-a-0063	B.62	204.995000	205.135750	<SUB>	I	i-
sw4617B-ms98-a-0063	B.62	205.135750	205.135750	<INS>	t-	---
sw4617B-ms98-a-0063	B.62	205.135750	205.255875		[silence]	[silence]
sw4617B-ms98-a-0063	B.62	205.255875	205.355000		I	i
sw4617B-ms98-a-0063	B.62	205.355000	205.655000		believe	believe
sw4617B-ms98-a-0063	B.62	205.655000	205.825000		that's	that's
sw4617B-ms98-a-0063	B.62	205.825000	205.885000		the	the
sw4617B-ms98-a-0063	B.62	205.885000	205.945000		way	way
sw4617B-ms98-a-0063	B.62	205.945000	206.005000		it	it
sw4617B-ms98-a-0063	B.62	206.005000	206.075000		is	is
sw4617B-ms98-a-0063	B.62	206.075000	206.185000		But	but
sw4617B-ms98-a-0063	B.62	206.185000	206.275000		I'm	i'm
sw4617B-ms98-a-0063	B.62	206.275000	206.465000		pretty	pretty
sw4617B-ms98-a-0063	B.62	206.465000	206.755000		sure	sure
sw4617B-ms98-a-0063	B.62	206.755000	206.980000		you're	you're
sw4617B-ms98-a-0063	B.62	206.980000	207.311500		correct	correct
sw4617B-ms98-a-0063	B.62	207.311500	207.465000		on	on
sw4617B-ms98-a-0063	B.62	207.465000	207.835000		capital	capital
sw4617B-ms98-a-0063	B.62	207.835000	208.360875		cases	cases
sw4617B-ms98-a-0063	B.62	208.360875	208.890125		[silence]	[silence]
sw4617B-ms98-a-0064	B.62	208.890125	209.500375		[silence]	[silence]
sw4617B-ms98-a-0064	B.62	209.500375	210.148750	<SUB>	Uh	um
sw4617B-ms98-a-0064	B.64	210.148750	210.336750		[silence]	[silence]
sw4617B-ms98-a-0065	B.64	210.336750	214.533500		[silence]	[silence]
sw4617B-ms98-a-0066	B.64	214.533500	214.733500		[silence]	[silence]
sw4617B-ms98-a-0066	B.64	214.733500	215.093500		Uh-huh	uh-huh
sw4617B-ms98-a-0066	B.66	215.093500	215.623750		[silence]	[silence]
sw4617B-ms98-a-0067	B.66	215.623750	220.576375		[silence]	[silence]
sw4617B-ms98-a-0068	B.66	220.576375	221.066375		[silence]	[silence]
sw4617B-ms98-a-0068	B.66	221.066375	221.386375		Yeah	yeah
sw4617B-ms98-a-0068	B.70	221.386375	221.679500		[silence]	[silence]
sw4617B-ms98-a-0069	B.70	221.679500	226.001875		[silence]	[silence]
sw4617B-ms98-a-0070	B.70	226.001875	226.380750		[silence]	[silence]
sw4617B-ms98-a-0070	B.70	226.380750	226.642375		Oh	oh
sw4617B-ms98-a-0070	B.70	226.642375	226.961875		no	no
sw4617B-ms98-a-0070	B.74	226.961875	227.199375		[silence]	[silence]
sw4617B-ms98-a-0071	B.74	227.199375	227.809750		[silence]	[silence]
sw4617B-ms98-a-0071	B.74	227.809750	230.966125		[laughter]	[laughter]
sw4617B-ms98-a-0071	B.74	230.966125	231.152250		[silence]	[silence]
sw4617B-ms98-a-0072	B.74	231.152250	231.192250		[silence]	[silence]
sw4617B-ms98-a-0072	B.74	231.192250	231.672250		[laughter]	[laughter]
sw4617B-ms98-a-0072	B.74	231.672250	231.772250		I'm	i'm
sw4617B-ms98-a-0072	B.74	231.772250	231.962250		telling	telling
sw4617B-ms98-a-0072	B.74	231.962250	232.144750		you	you
sw4617B-ms98-a-0072	B.74	232.144750	232.359875		[silence]	[silence]
sw4617B-ms98-a-0073	B.74	232.359875	232.497750		[silence]	[silence]
sw4617B-ms98-a-0073	B.74	232.497750	232.681500		go	go
sw4617B-ms98-a-0073	B.74	232.681500	232.889875		one	one
sw4617B-ms98-a-0073	B.74	232.889875	233.009875		way	way
sw4617B-ms98-a-0073	B.74	233.009875	233.119875		or	or
sw4617B-ms98-a-0073	B.74	233.119875	233.219875		the	the
sw4617B-ms98-a-0073	B.74	233.219875	233.479875		other	other
sw4617B-ms98-a-0073	B.74	233.479875	233.779875		That	that
sw4617B-ms98-a-0073	B.74	233.779875	234.029875		that's	that's
sw4617B-ms98-a-0073	B.74	234.029875	234.349875		probably	probably
sw4617B-ms98-a-0073	B.74	234.349875	234.409875		an	an
sw4617B-ms98-a-0073	B.74	234.409875	234.909875		expensive	expensive
sw4617B-ms98-a-0073	B.74	234.909875	235.419875		trial	trial
sw4617B-ms98-a-0073	B.74	235.419875	235.613750		[silence]	[silence]
sw4617B-ms98-a-0074	B.74	235.613750	236.170000		[silence]	[silence]
sw4617B-ms98-a-0074	B.74	236.170000	236.405375		Uh	uh
sw4617B-ms98-a-0074	B.76	236.405375	237.236625		[silence]	[silence]
sw4617B-ms98-a-0075	B.76	237.236625	237.754000		[silence]	[silence]
sw4617B-ms98-a-0075	B.76	237.754000	238.054500		Yeah	yeah
sw4617B-ms98-a-0075	B.76	238.054500	238.566625		Probably	probably
sw4617B-ms98-a-0075	B.78	238.566625	238.972625		[silence]	[silence]
sw4617B-ms98-a-0076	B.78	238.972625	239.312625		[silence]	[silence]
sw4617B-ms98-a-0076	B.78	239.312625	239.482625		Yeah	yeah
sw4617B-ms98-a-0076	B.78	239.482625	239.482625	<INS>	Probably	---
sw4617B-ms98-a-0076	B.78	239.482625	239.482625	<INS>	You	---
sw4617B-ms98-a-0076	B.78	239.482625	239.482625	<INS>	know	---
sw4617B-ms98-a-0076	B.78	239.482625	239.752625		I'm	i'm
sw4617B-ms98-a-0076	B.78	239.752625	239.822625	<SUB>	not	i'm
sw4617B-ms98-a-0076	B.78	239.822625	239.982625		sure	sure
sw4617B-ms98-a-0076	B.78	239.982625	240.152625		there's	there's
sw4617B-ms98-a-0076	B.78	240.152625	240.202625		a	a
sw4617B-ms98-a-0076	B.78	240.202625	240.562625		number	number
sw4617B-ms98-a-0076	B.78	240.562625	240.702625		It's	it's
sw4617B-ms98-a-0076	B.78	240.702625	240.942625		probably	probably
sw4617B-ms98-a-0076	B.78	240.942625	241.142625		like	like
sw4617B-ms98-a-0076	B.78	241.142625	241.532625		[silence]	[silence]
sw4617B-ms98-a-0076	B.78	241.532625	241.822625		thirty	thirty
sw4617B-ms98-a-0076	B.78	241.822625	242.082625		forty	forty
sw4617B-ms98-a-0076	B.78	242.082625	242.462625		thousand	[laughter-thousand]
sw4617B-ms98-a-0076	B.78	242.462625	242.722625		dollars	dollars
sw4617B-ms98-a-0076	B.78	242.722625	242.802625		a	a
sw4617B-ms98-a-0076	B.78	242.802625	243.135750		day	day
sw4617B-ms98-a-0076	B.78	243.135750	243.357250		you	you
sw4617B-ms98-a-0076	B.78	243.357250	243.521625		know	know
sw4617B-ms98-a-0076	B.78	243.521625	244.018750		[silence]	[silence]
sw4617B-ms98-a-0077	B.78	244.018750	244.478750		[silence]	[silence]
sw4617B-ms98-a-0077	B.78	244.478750	244.688750		worth	worth
sw4617B-ms98-a-0077	B.78	244.688750	244.926000		of	of
sw4617B-ms98-a-0077	B.78	244.926000	245.246125		[silence]	[silence]
sw4617B-ms98-a-0077	B.78	245.246125	245.488750		all	all
sw4617B-ms98-a-0077	B.78	245.488750	245.718750		the	the
sw4617B-ms98-a-0077	B.78	245.718750	246.129625		[silence]	[silence]
sw4617B-ms98-a-0078	B.78	246.129625	246.639625		[silence]	[silence]
sw4617B-ms98-a-0078	B.78	246.639625	246.859625	<SUB>	free	food
sw4617B-ms98-a-0078	B.78	246.859625	247.069625		for	for
sw4617B-ms98-a-0078	B.78	247.069625	247.307875		all	all
sw4617B-ms98-a-0078	B.80	247.307875	247.570875		[silence]	[silence]
sw4617B-ms98-a-0079	B.80	247.570875	250.131375		[silence]	[silence]
sw4617B-ms98-a-0080	B.80	250.131375	250.279125		[silence]	[silence]
sw4617B-ms98-a-0080	B.80	250.279125	251.046125		[laughter]	[laughter]
sw4617B-ms98-a-0080	B.80	251.046125	251.285125		[silence]	[silence]
sw4617B-ms98-a-0081	B.80	251.285125	251.383625		[silence]	[silence]
sw4617B-ms98-a-0081	B.80	251.383625	251.910625		Yeah	yeah
sw4617B-ms98-a-0081	B.80	251.910625	252.353000		[silence]	[silence]
sw4617B-ms98-a-0082	B.80	252.353000	252.823000		[silence]	[silence]
sw4617B-ms98-a-0082	B.80	252.823000	253.303250		[laughter]	[laughter]
sw4617B-ms98-a-0082	B.80	253.303250	253.724125		[silence]	[silence]
sw4617B-ms98-a-0083	B.80	253.724125	253.914125		[silence]	[silence]
sw4617B-ms98-a-0083	B.80	253.914125	254.114125		Yeah	yeah
sw4617B-ms98-a-0083	B.80	254.114125	254.437875		that's	that's
sw4617B-ms98-a-0083	B.80	254.437875	254.889875		[silence]	[silence]
sw4617B-ms98-a-0083	B.80	254.889875	255.034125		that's	that's
sw4617B-ms98-a-0083	B.80	255.034125	255.264125		been	been
sw4617B-ms98-a-0083	B.80	255.264125	255.394125		so	so
sw4617B-ms98-a-0083	B.80	255.394125	255.644125		long	long
sw4617B-ms98-a-0083	B.80	255.644125	255.784125		I've	i've
sw4617B-ms98-a-0083	B.80	255.784125	256.073250		prac-	prac[tically]-
sw4617B-ms98-a-0083	B.80	256.073250	256.208875		[silence]	[silence]
sw4617B-ms98-a-0083	B.80	256.208875	256.564125		practically	practically
sw4617B-ms98-a-0083	B.80	256.564125	256.904125		forgot	forgot
sw4617B-ms98-a-0083	B.80	256.904125	256.994125		who	who
sw4617B-ms98-a-0083	B.80	256.994125	257.524125		Noriega	Noriega
sw4617B-ms98-a-0083	B.80	257.524125	257.824125		was	was
sw4617B-ms98-a-0083	B.80	257.824125	257.980625		you	you
sw4617B-ms98-a-0083	B.80	257.980625	258.185875		know	know
sw4617B-ms98-a-0083	B.82	258.185875	259.599500		[silence]	[silence]
sw4617B-ms98-a-0084	B.82	259.599500	259.909500		[silence]	[silence]
sw4617B-ms98-a-0084	B.82	259.909500	260.069500		That	that
sw4617B-ms98-a-0084	B.82	260.069500	260.259500		has	has
sw4617B-ms98-a-0084	B.82	260.259500	260.449500		been	been
sw4617B-ms98-a-0084	B.82	260.449500	260.739500		going	going
sw4617B-ms98-a-0084	B.82	260.739500	261.049500		on	on
sw4617B-ms98-a-0084	B.82	261.049500	261.784875		[silence]	[silence]
sw4617B-ms98-a-0085	B.82	261.784875	262.654875		[silence]	[silence]
sw4617B-ms98-a-0085	B.82	262.654875	262.924875		My	my
sw4617B-ms98-a-0085	B.82	262.924875	263.093625		uh	uh
sw4617B-ms98-a-0085	B.82	263.093625	263.455125		cousin	cousin
sw4617B-ms98-a-0085	B.82	263.455125	263.584875		is	is
sw4617B-ms98-a-0085	B.82	263.584875	263.674875		a	a
sw4617B-ms98-a-0085	B.82	263.674875	264.154875	<CONT>	F	FBI
sw4617B-ms98-a-0085	B.82	264.154875	264.154875	<CONT>	B	+++
sw4617B-ms98-a-0085	B.82	264.154875	264.154875	<CONT>	I	+++
sw4617B-ms98-a-0085	B.82	264.154875	264.454875		agent	agent
sw4617B-ms98-a-0085	B.82	264.454875	264.684875		down	down
sw4617B-ms98-a-0085	B.82	264.684875	264.774875		in	in
sw4617B-ms98-a-0085	B.82	264.774875	265.231875		Miami	Miami
sw4617B-ms98-a-0085	B.84	265.231875	265.824375		[silence]	[silence]
sw4617B-ms98-a-0086	B.84	265.824375	266.054375		[silence]	[silence]
sw4617B-ms98-a-0086	B.84	266.054375	266.223000		Yeah	yeah
sw4617B-ms98-a-0086	B.84	266.223000	266.366000		So	so
sw4617B-ms98-a-0086	B.84	266.366000	266.614375		she	she
sw4617B-ms98-a-0086	B.84	266.614375	266.634375		[laughter]	[laughter]
sw4617B-ms98-a-0086	B.84	266.634375	267.104375		follows	follows
sw4617B-ms98-a-0086	B.84	267.104375	267.334375		that	that
sw4617B-ms98-a-0086	B.84	267.334375	267.714375		stuff	stuff
sw4617B-ms98-a-0086	B.84	267.714375	267.974375		pretty	pretty
sw4617B-ms98-a-0086	B.84	267.974375	268.470250		closely	closely
sw4617B-ms98-a-0086	B.84	268.470250	269.087875		[silence]	[silence]
sw4617B-ms98-a-0087	B.84	269.087875	269.677875		[silence]	[silence]
sw4617B-ms98-a-0087	B.84	269.677875	269.767875		But	but
sw4617B-ms98-a-0087	B.84	269.767875	270.080875		uh	uh
sw4617B-ms98-a-0087	B.86	270.080875	270.165125		[noise]	[noise]
sw4617B-ms98-a-0087	B.86	270.165125	270.669875		[silence]	[silence]
sw4617B-ms98-a-0087	B.86	270.669875	270.927875		Yeah	yeah
sw4617B-ms98-a-0087	B.86	270.927875	271.197875		she's	she's
sw4617B-ms98-a-0087	B.86	271.197875	271.437875		not	not
sw4617B-ms98-a-0087	B.86	271.437875	271.877875		involved	involved
sw4617B-ms98-a-0087	B.86	271.877875	271.967875		in	in
sw4617B-ms98-a-0087	B.86	271.967875	272.210375		that	that
sw4617B-ms98-a-0087	B.86	272.210375	272.545625		[silence]	[silence]
sw4617B-ms98-a-0087	B.86	272.545625	272.757875		that	that
sw4617B-ms98-a-0087	B.86	272.757875	273.116000		case	case
sw4617B-ms98-a-0087	B.86	273.116000	273.116000	<INS>	But	---
sw4617B-ms98-a-0087	B.86	273.116000	273.498750		[silence]	[silence]
sw4617B-ms98-a-0088	B.86	273.498750	274.580875		[silence]	[silence]
sw4617B-ms98-a-0089	B.86	274.580875	274.725875		[silence]	[silence]
sw4617B-ms98-a-0089	B.86	274.725875	274.911375		she	she
sw4617B-ms98-a-0089	B.86	274.911375	275.169375	<SUB>	does	doesn't
sw4617B-ms98-a-0089	B.88	275.169375	275.476250		[silence]	[silence]
sw4617B-ms98-a-0090	B.88	275.476250	276.999000		[silence]	[silence]
sw4617B-ms98-a-0091	B.88	276.999000	277.089000		[silence]	[silence]
sw4617B-ms98-a-0091	B.88	277.089000	277.309000		No	no
sw4617B-ms98-a-0091	B.88	277.309000	277.378125		I	i
sw4617B-ms98-a-0091	B.88	277.378125	277.745250		haven't	haven't
sw4617B-ms98-a-0091	B.88	277.745250	277.889000		[silence]	[silence]
sw4617B-ms98-a-0091	B.88	277.889000	277.949000		I	i
sw4617B-ms98-a-0091	B.88	277.949000	278.209000		never	never
sw4617B-ms98-a-0091	B.88	278.209000	278.459000		have	have
sw4617B-ms98-a-0091	B.88	278.459000	278.569000		My	my
sw4617B-ms98-a-0091	B.88	278.569000	278.929000		wife	wife
sw4617B-ms98-a-0091	B.88	278.929000	279.239000		has	has
sw4617B-ms98-a-0091	B.88	279.239000	279.619000		but	but
sw4617B-ms98-a-0091	B.88	279.619000	279.744750	<SUB>	I	i-
sw4617B-ms98-a-0091	B.88	279.744750	279.815750		I	i
sw4617B-ms98-a-0091	B.88	279.815750	280.149000		haven't	haven't
sw4617B-ms98-a-0091	B.90	280.149000	280.675625		[silence]	[silence]
sw4617B-ms98-a-0092	B.90	280.675625	281.240750		[silence]	[silence]
sw4617B-ms98-a-0092	B.90	281.240750	281.377250		[noise]	[noise]
sw4617B-ms98-a-0092	B.90	281.377250	281.710500		[silence]	[silence]
sw4617B-ms98-a-0093	B.90	281.710500	283.568000		[silence]	[silence]
sw4617B-ms98-a-0094	B.90	283.568000	283.899375		[silence]	[silence]
sw4617B-ms98-a-0094	B.90	283.899375	284.033500		[noise]	[noise]
sw4617B-ms98-a-0094	B.90	284.033500	284.556625		[silence]	[silence]
sw4617B-ms98-a-0095	B.90	284.556625	285.534625		[silence]	[silence]
sw4617B-ms98-a-0096	B.90	285.534625	285.914625		[silence]	[silence]
sw4617B-ms98-a-0096	B.90	285.914625	286.224625		Uh-huh	uh-huh
sw4617B-ms98-a-0096	B.92	286.224625	286.684625		[silence]	[silence]
sw4617B-ms98-a-0097	B.92	286.684625	289.365000		[silence]	[silence]
sw4617B-ms98-a-0098	B.92	289.365000	289.745000		[silence]	[silence]
sw4617B-ms98-a-0098	B.92	289.745000	290.085000		Uh-huh	uh-huh
sw4617B-ms98-a-0098	B.96	290.085000	290.486625		[silence]	[silence]
sw4617B-ms98-a-0099	B.96	290.486625	298.356625		[silence]	[silence]
sw4617B-ms98-a-0100	B.96	298.356625	298.651000		[silence]	[silence]
sw4617B-ms98-a-0100	B.96	298.651000	298.782000	<SUB>	Uh-huh	oh
sw4617B-ms98-a-0100	B.96	298.782000	298.786000		[silence]	[silence]
