sw4618B-ms98-a-0001	B.2	0.000000	0.050000		[silence]	[silence]
sw4618B-ms98-a-0001	B.2	0.050000	0.320000		[noise]	[noise]
sw4618B-ms98-a-0001	B.2	0.320000	0.529375		[silence]	[silence]
sw4618B-ms98-a-0002	B.2	0.529375	1.129375		[silence]	[silence]
sw4618B-ms98-a-0002	B.2	1.129375	1.776125		Uh	uh
sw4618B-ms98-a-0002	B.2	1.776125	1.866500		have	have
sw4618B-ms98-a-0002	B.2	1.866500	1.929375		you	you
sw4618B-ms98-a-0002	B.2	1.929375	2.069375	<SUB>	every	ever
sw4618B-ms98-a-0002	B.2	2.069375	2.219375		been	been
sw4618B-ms98-a-0002	B.2	2.219375	2.735375		tested	tested
sw4618B-ms98-a-0002	B.2	2.735375	3.221250		[silence]	[silence]
sw4618B-ms98-a-0002	B.2	3.221250	3.499375		for	for
sw4618B-ms98-a-0002	B.2	3.499375	3.529375		a	a
sw4618B-ms98-a-0002	B.2	3.529375	3.709375		new	new
sw4618B-ms98-a-0002	B.2	3.709375	4.009375		job	job
sw4618B-ms98-a-0002	B.2	4.009375	4.079375		or	or
sw4618B-ms98-a-0002	B.2	4.079375	4.526875		anything	anything
sw4618B-ms98-a-0002	B.4	4.526875	5.038500		[silence]	[silence]
sw4618B-ms98-a-0003	B.4	5.038500	19.918250		[silence]	[silence]
sw4618B-ms98-a-0004	B.4	19.918250	20.478250		[silence]	[silence]
sw4618B-ms98-a-0004	B.4	20.478250	20.748250		So	so
sw4618B-ms98-a-0004	B.4	20.748250	20.948250		it's	it's
sw4618B-ms98-a-0004	B.4	20.948250	21.198250		just	just
sw4618B-ms98-a-0004	B.4	21.198250	21.428250		sort	sort
sw4618B-ms98-a-0004	B.4	21.428250	21.738250		of	of
sw4618B-ms98-a-0004	B.4	21.738250	22.126875	<SUB>	uh	um
sw4618B-ms98-a-0004	B.4	22.126875	23.038375		[silence]	[silence]
sw4618B-ms98-a-0004	B.4	23.038375	23.168250		they	they
sw4618B-ms98-a-0004	B.4	23.168250	23.568250		can	can
sw4618B-ms98-a-0004	B.4	23.568250	23.788750		if	if
sw4618B-ms98-a-0004	B.4	23.788750	23.890375		[silence]	[silence]
sw4618B-ms98-a-0004	B.4	23.890375	24.298000		they	they
sw4618B-ms98-a-0004	B.6	24.298000	24.966125		[silence]	[silence]
sw4618B-ms98-a-0005	B.6	24.966125	25.716125		[silence]	[silence]
sw4618B-ms98-a-0005	B.6	25.716125	25.806125	<DEL>	---	y[eah]-
sw4618B-ms98-a-0005	B.6	25.806125	25.916125		Oh	oh
sw4618B-ms98-a-0005	B.6	25.916125	26.414125		okay	okay
sw4618B-ms98-a-0005	B.8	26.414125	26.909000		[silence]	[silence]
sw4618B-ms98-a-0006	B.8	26.909000	30.282375		[silence]	[silence]
sw4618B-ms98-a-0007	B.8	30.282375	30.772500		[silence]	[silence]
sw4618B-ms98-a-0007	B.8	30.772500	31.227250	<SUB>	Uh	um
sw4618B-ms98-a-0007	B.8	31.227250	31.713125		[silence]	[silence]
sw4618B-ms98-a-0007	B.8	31.713125	32.025750		not	not
sw4618B-ms98-a-0007	B.8	32.025750	32.492375		really	really
sw4618B-ms98-a-0007	B.8	32.492375	32.875875		but	but
sw4618B-ms98-a-0007	B.8	32.875875	33.825000		[silence]	[silence]
sw4618B-ms98-a-0007	B.8	33.825000	33.982375		I've	i've
sw4618B-ms98-a-0007	B.8	33.982375	34.212375		always	always
sw4618B-ms98-a-0007	B.8	34.212375	34.542375		worked	worked
sw4618B-ms98-a-0007	B.8	34.542375	34.652375		on	on
sw4618B-ms98-a-0007	B.8	34.652375	34.702375		a	a
sw4618B-ms98-a-0007	B.8	34.702375	35.222375		university	university
sw4618B-ms98-a-0007	B.8	35.222375	35.472375		level	level
sw4618B-ms98-a-0007	B.8	35.472375	35.642375		but	but
sw4618B-ms98-a-0007	B.8	35.642375	35.692375		a	a
sw4618B-ms98-a-0007	B.8	35.692375	35.922375		lot	lot
sw4618B-ms98-a-0007	B.8	35.922375	36.022375		of	of
sw4618B-ms98-a-0007	B.8	36.022375	36.174375		my	my
sw4618B-ms98-a-0007	B.8	36.174375	36.788375		friends	friends
sw4618B-ms98-a-0007	B.8	36.788375	37.282375		[silence]	[silence]
sw4618B-ms98-a-0007	B.8	37.282375	37.492375		had	had
sw4618B-ms98-a-0007	B.8	37.492375	37.582375		to	to
sw4618B-ms98-a-0007	B.8	37.582375	37.682375		be	be
sw4618B-ms98-a-0007	B.8	37.682375	38.142375		tested	tested
sw4618B-ms98-a-0007	B.8	38.142375	38.622375		before	before
sw4618B-ms98-a-0007	B.8	38.622375	38.762375		they	they
sw4618B-ms98-a-0007	B.8	38.762375	38.952375		got	got
sw4618B-ms98-a-0007	B.8	38.952375	39.232375		summer	summer
sw4618B-ms98-a-0007	B.8	39.232375	39.652375		jobs	jobs
sw4618B-ms98-a-0007	B.8	39.652375	39.812375		and	and
sw4618B-ms98-a-0007	B.8	39.812375	40.222375		stuff	stuff
sw4618B-ms98-a-0007	B.10	40.222375	40.642750		[silence]	[silence]
sw4618B-ms98-a-0008	B.10	40.642750	43.470750		[silence]	[silence]
sw4618B-ms98-a-0009	B.10	43.470750	44.094250		[silence]	[silence]
sw4618B-ms98-a-0009	B.10	44.094250	44.647750	<SUB>	Uh	um
sw4618B-ms98-a-0009	B.10	44.647750	44.806125		I	i
sw4618B-ms98-a-0009	B.10	44.806125	45.102875		don't	don't
sw4618B-ms98-a-0009	B.10	45.102875	45.623375		[silence]	[silence]
sw4618B-ms98-a-0010	B.10	45.623375	46.153375		[silence]	[silence]
sw4618B-ms98-a-0010	B.10	46.153375	46.275875		I	i
sw4618B-ms98-a-0010	B.10	46.275875	46.406375		don't	don't
sw4618B-ms98-a-0010	B.10	46.406375	46.583375		think	think
sw4618B-ms98-a-0010	B.10	46.583375	46.683375		they're	they're
sw4618B-ms98-a-0010	B.10	46.683375	46.903375		very	very
sw4618B-ms98-a-0010	B.10	46.903375	47.603375		accurate	accurate
sw4618B-ms98-a-0010	B.10	47.603375	47.873375		because	because_1
sw4618B-ms98-a-0010	B.10	47.873375	47.983375		I	i
sw4618B-ms98-a-0010	B.10	47.983375	48.203375		mean	mean
sw4618B-ms98-a-0010	B.10	48.203375	48.283375		I	i
sw4618B-ms98-a-0010	B.10	48.283375	48.573375		know	know
sw4618B-ms98-a-0010	B.10	48.573375	48.743375		their	their
sw4618B-ms98-a-0010	B.10	48.743375	49.413375		lifestyles	lifestyles
sw4618B-ms98-a-0010	B.10	49.413375	49.893375		changed	changed
sw4618B-ms98-a-0010	B.10	49.893375	50.063375		p-	p[rior]-
sw4618B-ms98-a-0010	B.10	50.063375	50.553375		prior	prior
sw4618B-ms98-a-0010	B.10	50.553375	50.823375		to	to
sw4618B-ms98-a-0010	B.10	50.823375	50.893375		the	the
sw4618B-ms98-a-0010	B.10	50.893375	51.183375		drug	drug
sw4618B-ms98-a-0010	B.10	51.183375	51.453375		test	test
sw4618B-ms98-a-0010	B.10	51.453375	51.543375		and	and
sw4618B-ms98-a-0010	B.10	51.543375	51.603375		I	i
sw4618B-ms98-a-0010	B.10	51.603375	51.773375		know	know
sw4618B-ms98-a-0010	B.10	51.773375	51.883375		they	they
sw4618B-ms98-a-0010	B.10	51.883375	52.263375		changed	changed
sw4618B-ms98-a-0010	B.10	52.263375	53.023375		afterwards	afterwards
sw4618B-ms98-a-0010	B.12	53.023375	53.314875		[silence]	[silence]
sw4618B-ms98-a-0011	B.12	53.314875	68.221250		[silence]	[silence]
sw4618B-ms98-a-0012	B.12	68.221250	68.721250		[silence]	[silence]
sw4618B-ms98-a-0012	B.12	68.721250	68.911250		Yeah	yeah
sw4618B-ms98-a-0012	B.12	68.911250	69.081250	<SUB>	I	i-
sw4618B-ms98-a-0012	B.12	69.081250	69.271250		I	i
sw4618B-ms98-a-0012	B.12	69.271250	69.461250		had	had
sw4618B-ms98-a-0012	B.12	69.461250	69.511250		a	a
sw4618B-ms98-a-0012	B.12	69.511250	70.103875		friend	friend
sw4618B-ms98-a-0012	B.12	70.103875	70.369000		[silence]	[silence]
sw4618B-ms98-a-0013	B.12	70.369000	70.799000		[silence]	[silence]
sw4618B-ms98-a-0013	B.12	70.799000	71.099000		it	it
sw4618B-ms98-a-0013	B.12	71.099000	71.459000		didn't	didn't
sw4618B-ms98-a-0013	B.12	71.459000	71.729000		cause	cause
sw4618B-ms98-a-0013	B.12	71.729000	71.789000		her	her
sw4618B-ms98-a-0013	B.12	71.789000	71.939000		any	any
sw4618B-ms98-a-0013	B.12	71.939000	72.329000		problems	problems
sw4618B-ms98-a-0013	B.12	72.329000	72.449000		with	with
sw4618B-ms98-a-0013	B.12	72.449000	72.559000		her	her
sw4618B-ms98-a-0013	B.12	72.559000	72.948250		job	job
sw4618B-ms98-a-0013	B.12	72.948250	73.053625		[silence]	[silence]
sw4618B-ms98-a-0013	B.12	73.053625	73.304125		but	but
sw4618B-ms98-a-0013	B.12	73.304125	73.793750		[silence]	[silence]
sw4618B-ms98-a-0013	B.12	73.793750	73.929000		it	it
sw4618B-ms98-a-0013	B.12	73.929000	74.239000		came	came
sw4618B-ms98-a-0013	B.12	74.239000	74.519000		back	back
sw4618B-ms98-a-0013	B.12	74.519000	74.669000		that	that
sw4618B-ms98-a-0013	B.12	74.669000	74.759000		she	she
sw4618B-ms98-a-0013	B.12	74.759000	75.139000		tested	tested
sw4618B-ms98-a-0013	B.12	75.139000	75.679000		positive	positive
sw4618B-ms98-a-0013	B.12	75.679000	75.919000		for	for
sw4618B-ms98-a-0013	B.12	75.919000	76.451625		using	using
sw4618B-ms98-a-0013	B.12	76.451625	76.862125		[silence]	[silence]
sw4618B-ms98-a-0013	B.12	76.862125	76.960750		a	a
sw4618B-ms98-a-0013	B.12	76.960750	77.951125		hallucinogen	hallucinogen
sw4618B-ms98-a-0013	B.14	77.951125	78.355750		[silence]	[silence]
sw4618B-ms98-a-0014	B.14	78.355750	78.824125		[silence]	[silence]
sw4618B-ms98-a-0014	B.14	78.824125	79.089500		But	but
sw4618B-ms98-a-0014	B.14	79.089500	79.379750		[silence]	[silence]
sw4618B-ms98-a-0014	B.14	79.379750	79.655750		what	what
sw4618B-ms98-a-0014	B.14	79.655750	79.755750		it	it
sw4618B-ms98-a-0014	B.14	79.755750	80.015750		was	was
sw4618B-ms98-a-0014	B.14	80.015750	80.175750		was	was
sw4618B-ms98-a-0014	B.14	80.175750	80.355750		she	she
sw4618B-ms98-a-0014	B.14	80.355750	80.485750		had	had
sw4618B-ms98-a-0014	B.14	80.485750	80.665750		been	been
sw4618B-ms98-a-0014	B.14	80.665750	80.855750		u-	u[sing]-
sw4618B-ms98-a-0014	B.14	80.855750	81.035750		she	she
sw4618B-ms98-a-0014	B.14	81.035750	81.165750		had	had
sw4618B-ms98-a-0014	B.14	81.165750	81.355750		been	been
sw4618B-ms98-a-0014	B.14	81.355750	81.605750	<SUB>	uh	um
sw4618B-ms98-a-0014	B.14	81.605750	81.725750		in	in
sw4618B-ms98-a-0014	B.14	81.725750	81.805750		the	the
sw4618B-ms98-a-0014	B.14	81.805750	82.315750		jungle	jungle
sw4618B-ms98-a-0014	B.14	82.315750	82.495750		and	and
sw4618B-ms98-a-0014	B.14	82.495750	82.575750		it	it
sw4618B-ms98-a-0014	B.14	82.575750	82.745750		was	was
sw4618B-ms98-a-0014	B.14	82.745750	82.935750		some	some
sw4618B-ms98-a-0014	B.14	82.935750	83.375750		Malaria	Malaria
sw4618B-ms98-a-0014	B.14	83.375750	84.068750		medication	medication
sw4618B-ms98-a-0014	B.14	84.068750	84.679000		[silence]	[silence]
sw4618B-ms98-a-0014	B.14	84.679000	84.805750		and	and
sw4618B-ms98-a-0014	B.14	84.805750	84.905750		she	she
sw4618B-ms98-a-0014	B.14	84.905750	85.235750		tested	tested
sw4618B-ms98-a-0014	B.14	85.235750	85.605750		positive	positive
sw4618B-ms98-a-0014	B.14	85.605750	85.785750		for	for
sw4618B-ms98-a-0014	B.14	85.785750	86.133000		that	that
sw4618B-ms98-a-0014	B.16	86.133000	86.577125		[silence]	[silence]
sw4618B-ms98-a-0015	B.16	86.577125	110.544000		[silence]	[silence]
sw4618B-ms98-a-0016	B.16	110.544000	111.054000		[silence]	[silence]
sw4618B-ms98-a-0016	B.16	111.054000	111.254000		See	see
sw4618B-ms98-a-0016	B.16	111.254000	111.444000		I	i
sw4618B-ms98-a-0016	B.16	111.444000	111.834000		always	always
sw4618B-ms98-a-0016	B.16	111.834000	111.964000		I	i
sw4618B-ms98-a-0016	B.16	111.964000	112.344000		thought	thought
sw4618B-ms98-a-0016	B.16	112.344000	112.464000		they	they
sw4618B-ms98-a-0016	B.16	112.464000	112.654000		got	got
sw4618B-ms98-a-0016	B.16	112.654000	112.774000		you	you
sw4618B-ms98-a-0016	B.16	112.774000	112.984000		got	got
sw4618B-ms98-a-0016	B.16	112.984000	113.304000		called	called
sw4618B-ms98-a-0016	B.16	113.304000	113.774000		back	back
sw4618B-ms98-a-0016	B.16	113.774000	113.914000		if	if
sw4618B-ms98-a-0016	B.16	113.914000	114.004000		you	you
sw4618B-ms98-a-0016	B.16	114.004000	114.414000		tested	tested
sw4618B-ms98-a-0016	B.16	114.414000	114.924000		positive	positive
sw4618B-ms98-a-0016	B.16	114.924000	115.064000		for	for
sw4618B-ms98-a-0016	B.16	115.064000	115.254000		more	more
sw4618B-ms98-a-0016	B.16	115.254000	115.774000	<SUB>	tests	test
sw4618B-ms98-a-0016	B.18	115.774000	116.046250		[silence]	[silence]
sw4618B-ms98-a-0017	B.18	116.046250	124.967000		[silence]	[silence]
sw4618B-ms98-a-0018	B.18	124.967000	125.377000		[silence]	[silence]
sw4618B-ms98-a-0018	B.18	125.377000	125.727625		How	how
sw4618B-ms98-a-0018	B.18	125.727625	125.942250		[silence]	[silence]
sw4618B-ms98-a-0018	B.18	125.942250	126.081625	<DEL>	---	uh
sw4618B-ms98-a-0018	B.18	126.081625	126.187000		do	do
sw4618B-ms98-a-0018	B.18	126.187000	126.247000		you	you
sw4618B-ms98-a-0018	B.18	126.247000	126.617000		know	know
sw4618B-ms98-a-0018	B.18	126.617000	126.897000		how	how
sw4618B-ms98-a-0018	B.18	126.897000	127.247000		wrong	wrong
sw4618B-ms98-a-0018	B.18	127.247000	127.437000		they	they
sw4618B-ms98-a-0018	B.18	127.437000	127.669500		are	are
sw4618B-ms98-a-0018	B.18	127.669500	128.034750		[silence]	[silence]
sw4618B-ms98-a-0018	B.18	128.034750	128.147000		Are	are
sw4618B-ms98-a-0018	B.18	128.147000	128.427000		they	they
sw4618B-ms98-a-0018	B.18	128.427000	128.533375		I	i
sw4618B-ms98-a-0018	B.18	128.533375	128.849750		mean	mean
sw4618B-ms98-a-0018	B.18	128.849750	129.309625		[silence]	[silence]
sw4618B-ms98-a-0018	B.18	129.309625	129.445250		is	is
sw4618B-ms98-a-0018	B.18	129.445250	129.577000		there	there
sw4618B-ms98-a-0018	B.18	129.577000	129.617000		a	a
sw4618B-ms98-a-0018	B.18	129.617000	130.017000		margin	margin
sw4618B-ms98-a-0018	B.18	130.017000	130.117000		of	of
sw4618B-ms98-a-0018	B.18	130.117000	130.527000		error	error
sw4618B-ms98-a-0018	B.20	130.527000	130.994250		[silence]	[silence]
sw4618B-ms98-a-0019	B.20	130.994250	144.043375		[silence]	[silence]
sw4618B-ms98-a-0020	B.20	144.043375	144.525500		[silence]	[silence]
sw4618B-ms98-a-0020	B.20	144.525500	144.941000		Yeah	yeah
sw4618B-ms98-a-0020	B.22	144.941000	145.304375		[silence]	[silence]
sw4618B-ms98-a-0021	B.22	145.304375	151.067375		[silence]	[silence]
sw4618B-ms98-a-0022	B.22	151.067375	151.651875		[silence]	[silence]
sw4618B-ms98-a-0022	B.22	151.651875	152.000500		Uh-huh	uh-huh
sw4618B-ms98-a-0022	B.24	152.000500	152.524625		[silence]	[silence]
sw4618B-ms98-a-0023	B.24	152.524625	174.135750		[silence]	[silence]
sw4618B-ms98-a-0024	B.24	174.135750	174.635750		[silence]	[silence]
sw4618B-ms98-a-0024	B.24	174.635750	175.115750		Yeah	yeah
sw4618B-ms98-a-0024	B.26	175.115750	175.496750		[silence]	[silence]
sw4618B-ms98-a-0025	B.26	175.496750	178.983125		[silence]	[silence]
sw4618B-ms98-a-0026	B.26	178.983125	179.423125		[silence]	[silence]
sw4618B-ms98-a-0026	B.26	179.423125	179.853125		Yeah	yeah
sw4618B-ms98-a-0026	B.28	179.853125	179.968375		And	and
sw4618B-ms98-a-0026	B.28	179.968375	180.111500		I	i
sw4618B-ms98-a-0026	B.28	180.111500	180.453125		[silence]	[silence]
sw4618B-ms98-a-0026	B.28	180.453125	180.643125		I'm	i'm
sw4618B-ms98-a-0026	B.28	180.643125	180.813125		not	not
sw4618B-ms98-a-0026	B.28	180.813125	180.993125		so	so
sw4618B-ms98-a-0026	B.28	180.993125	181.457375		sure	sure
sw4618B-ms98-a-0026	B.28	181.457375	181.600500		[silence]	[silence]
sw4618B-ms98-a-0026	B.28	181.600500	181.993125	<CONT>	they	they're
sw4618B-ms98-a-0026	B.28	181.993125	181.993125	<CONT>	are	+++
sw4618B-ms98-a-0026	B.28	181.993125	182.243125		that	that
sw4618B-ms98-a-0026	B.28	182.243125	182.811000		needed	needed
sw4618B-ms98-a-0026	B.30	182.811000	183.541625		[silence]	[silence]
sw4618B-ms98-a-0026	B.30	183.541625	183.690625		I	i
sw4618B-ms98-a-0026	B.30	183.690625	184.023125		mean	mean
sw4618B-ms98-a-0026	B.32	184.023125	184.471125		[silence]	[silence]
sw4618B-ms98-a-0027	B.32	184.471125	196.918375		[silence]	[silence]
sw4618B-ms98-a-0028	B.32	196.918375	197.558375		[silence]	[silence]
sw4618B-ms98-a-0028	B.32	197.558375	197.724000		Ye-	ye[ah]-
sw4618B-ms98-a-0028	B.32	197.724000	197.885125		if	if
sw4618B-ms98-a-0028	B.32	197.885125	198.058375		you're	you're
sw4618B-ms98-a-0028	B.32	198.058375	198.438375		using	using
sw4618B-ms98-a-0028	B.32	198.438375	198.691500		it	it
sw4618B-ms98-a-0028	B.32	198.691500	199.010125		[silence]	[silence]
sw4618B-ms98-a-0029	B.32	199.010125	199.460125		[silence]	[silence]
sw4618B-ms98-a-0029	B.32	199.460125	199.860125		while	while
sw4618B-ms98-a-0029	B.32	199.860125	199.980125		at	at
sw4618B-ms98-a-0029	B.32	199.980125	200.050125		a	a
sw4618B-ms98-a-0029	B.32	200.050125	200.470125		job	job
sw4618B-ms98-a-0029	B.32	200.470125	200.540125		I	i
sw4618B-ms98-a-0029	B.32	200.540125	200.720125		can	can
sw4618B-ms98-a-0029	B.32	200.720125	200.850125		see	see
sw4618B-ms98-a-0029	B.32	200.850125	200.910125		a	a
sw4618B-ms98-a-0029	B.32	200.910125	201.470125		problem	problem
sw4618B-ms98-a-0029	B.34	201.470125	202.020125		[silence]	[silence]
sw4618B-ms98-a-0029	B.34	202.020125	202.200125		But	but
sw4618B-ms98-a-0029	B.34	202.200125	202.350125		[silence]	[silence]
sw4618B-ms98-a-0029	B.34	202.350125	202.490125		the	the
sw4618B-ms98-a-0029	B.34	202.490125	203.070125		occasional	occasional
sw4618B-ms98-a-0029	B.34	203.070125	203.759500		person	person
sw4618B-ms98-a-0029	B.34	203.759500	204.414875		[silence]	[silence]
sw4618B-ms98-a-0029	B.34	204.414875	204.560125		then	then
sw4618B-ms98-a-0029	B.34	204.560125	204.720125		it's	it's
sw4618B-ms98-a-0029	B.34	204.720125	205.150125		almost	almost
sw4618B-ms98-a-0029	B.34	205.150125	205.370125		like	like
sw4618B-ms98-a-0029	B.34	205.370125	205.700125		[silence]	[silence]
sw4618B-ms98-a-0029	B.34	205.700125	205.870125		it's	it's
sw4618B-ms98-a-0029	B.34	205.870125	206.170125		almost	almost
sw4618B-ms98-a-0029	B.34	206.170125	206.230125		an	an
sw4618B-ms98-a-0029	B.34	206.230125	206.790125		infringement	infringement
sw4618B-ms98-a-0029	B.34	206.790125	206.880125		of	of
sw4618B-ms98-a-0029	B.34	206.880125	206.990125		your	your
sw4618B-ms98-a-0029	B.34	206.990125	207.675125		privacy	privacy
sw4618B-ms98-a-0029	B.36	207.675125	208.241875		[silence]	[silence]
sw4618B-ms98-a-0030	B.36	208.241875	218.697125		[silence]	[silence]
sw4618B-ms98-a-0031	B.36	218.697125	219.215250		[silence]	[silence]
sw4618B-ms98-a-0031	B.36	219.215250	219.642000		Yeah	yeah
sw4618B-ms98-a-0031	B.38	219.642000	220.007125		[silence]	[silence]
sw4618B-ms98-a-0032	B.38	220.007125	232.142375		[silence]	[silence]
sw4618B-ms98-a-0033	B.38	232.142375	232.660625		[silence]	[silence]
sw4618B-ms98-a-0033	B.38	232.660625	233.106750		Yeah	yeah
sw4618B-ms98-a-0033	B.40	233.106750	233.511500		[silence]	[silence]
sw4618B-ms98-a-0034	B.40	233.511500	239.596875		[silence]	[silence]
sw4618B-ms98-a-0035	B.40	239.596875	240.086875		[silence]	[silence]
sw4618B-ms98-a-0035	B.40	240.086875	240.556875		Yeah	yeah
sw4618B-ms98-a-0035	B.42	240.556875	241.021625		[silence]	[silence]
sw4618B-ms98-a-0036	B.42	241.021625	257.499375		[silence]	[silence]
sw4618B-ms98-a-0037	B.42	257.499375	257.969375		[silence]	[silence]
sw4618B-ms98-a-0037	B.42	257.969375	258.089375		And	and
sw4618B-ms98-a-0037	B.42	258.089375	258.289375		it	it
sw4618B-ms98-a-0037	B.42	258.289375	258.459375		it's	it's
sw4618B-ms98-a-0037	B.42	258.459375	258.709375		like	like
sw4618B-ms98-a-0037	B.42	258.709375	258.809375		it	it
sw4618B-ms98-a-0037	B.42	258.809375	259.049375		seems	seems
sw4618B-ms98-a-0037	B.42	259.049375	259.229375		like	like
sw4618B-ms98-a-0037	B.42	259.229375	259.449375		now	now
sw4618B-ms98-a-0037	B.42	259.449375	259.579375		they	they
sw4618B-ms98-a-0037	B.42	259.579375	259.849375		have	have
sw4618B-ms98-a-0037	B.42	259.849375	259.969375		[silence]	[silence]
sw4618B-ms98-a-0037	B.42	259.969375	260.378250	<SUB>	tests	[trests/tests]
sw4618B-ms98-a-0037	B.42	260.378250	260.809000		[silence]	[silence]
sw4618B-ms98-a-0037	B.42	260.809000	260.903125		I	i
sw4618B-ms98-a-0037	B.42	260.903125	261.069375		guess	guess
sw4618B-ms98-a-0037	B.42	261.069375	261.159375		they	they
sw4618B-ms98-a-0037	B.42	261.159375	261.289375		can	can
sw4618B-ms98-a-0037	B.42	261.289375	261.619375		test	test
sw4618B-ms98-a-0037	B.42	261.619375	261.729375		your	your
sw4618B-ms98-a-0037	B.42	261.729375	261.989375		hair	hair
sw4618B-ms98-a-0037	B.42	261.989375	262.109375		and	and
sw4618B-ms98-a-0037	B.42	262.109375	262.219375		they	they
sw4618B-ms98-a-0037	B.42	262.219375	262.389375		can	can
sw4618B-ms98-a-0037	B.42	262.389375	262.853375		find	find
sw4618B-ms98-a-0037	B.42	262.853375	263.508750		[silence]	[silence]
sw4618B-ms98-a-0037	B.42	263.508750	263.699375		out	out
sw4618B-ms98-a-0037	B.42	263.699375	263.849375		if	if
sw4618B-ms98-a-0037	B.42	263.849375	264.009375		you	you
sw4618B-ms98-a-0037	B.42	264.009375	264.399375		use	use
sw4618B-ms98-a-0037	B.42	264.399375	265.108125		drugs	drugs
sw4618B-ms98-a-0037	B.44	265.108125	265.484750		[silence]	[silence]
sw4618B-ms98-a-0037	B.44	265.484750	265.649375		up	up
sw4618B-ms98-a-0037	B.44	265.649375	265.739375		to	to
sw4618B-ms98-a-0037	B.44	265.739375	266.109375		several	several
sw4618B-ms98-a-0037	B.44	266.109375	266.419375		years	years
sw4618B-ms98-a-0037	B.44	266.419375	266.799375		ago	ago
sw4618B-ms98-a-0037	B.46	266.799375	267.338750		[silence]	[silence]
sw4618B-ms98-a-0038	B.46	267.338750	269.146750		[silence]	[silence]
sw4618B-ms98-a-0039	B.46	269.146750	269.536750		[silence]	[silence]
sw4618B-ms98-a-0039	B.46	269.536750	270.206750		So	so
sw4618B-ms98-a-0039	B.48	270.206750	270.563625		[silence]	[silence]
sw4618B-ms98-a-0040	B.48	270.563625	274.073250		[silence]	[silence]
sw4618B-ms98-a-0041	B.48	274.073250	274.551375		[silence]	[silence]
sw4618B-ms98-a-0041	B.48	274.551375	274.750375		I	i
sw4618B-ms98-a-0041	B.48	274.750375	275.153250		know	know
sw4618B-ms98-a-0041	B.50	275.153250	275.540875		[silence]	[silence]
sw4618B-ms98-a-0042	B.50	275.540875	288.319750		[silence]	[silence]
sw4618B-ms98-a-0043	B.50	288.319750	288.749750		[silence]	[silence]
sw4618B-ms98-a-0043	B.50	288.749750	289.060000		Yeah	yeah
sw4618B-ms98-a-0043	B.50	289.060000	289.222375		There's	there's
sw4618B-ms98-a-0043	B.50	289.222375	289.289750		a	a
sw4618B-ms98-a-0043	B.50	289.289750	289.459750		lot	lot
sw4618B-ms98-a-0043	B.50	289.459750	289.529750		of	of
sw4618B-ms98-a-0043	B.50	289.529750	289.789750		things	things
sw4618B-ms98-a-0043	B.50	289.789750	289.859750		you	you
sw4618B-ms98-a-0043	B.50	289.859750	290.029750		do	do
sw4618B-ms98-a-0043	B.50	290.029750	290.139000		as	as
sw4618B-ms98-a-0043	B.50	290.139000	290.236875		a	a
sw4618B-ms98-a-0043	B.50	290.236875	290.569750		kid	kid
sw4618B-ms98-a-0043	B.50	290.569750	290.898375		that	that
sw4618B-ms98-a-0043	B.52	290.898375	291.229875		[silence]	[silence]
sw4618B-ms98-a-0043	B.52	291.229875	291.349750		you	you
sw4618B-ms98-a-0043	B.52	291.349750	291.649750		wouldn't	wouldn't
sw4618B-ms98-a-0043	B.52	291.649750	291.799750		do	do
sw4618B-ms98-a-0043	B.52	291.799750	291.929750		as	as
sw4618B-ms98-a-0043	B.52	291.929750	292.019750		an	an
sw4618B-ms98-a-0043	B.52	292.019750	292.559750		adult	adult
sw4618B-ms98-a-0043	B.52	292.559750	292.837750		but	but
sw4618B-ms98-a-0043	B.54	292.837750	293.384625		[silence]	[silence]
sw4618B-ms98-a-0044	B.54	293.384625	294.028750		[silence]	[silence]
sw4618B-ms98-a-0044	B.54	294.028750	294.146250		you	you
sw4618B-ms98-a-0044	B.54	294.146250	294.394625		can't	can't
sw4618B-ms98-a-0044	B.54	294.394625	294.484625		say	say
sw4618B-ms98-a-0044	B.54	294.484625	294.604625		it	it
sw4618B-ms98-a-0044	B.54	294.604625	294.734625		was	was
sw4618B-ms98-a-0044	B.54	294.734625	295.004625		wrong	wrong
sw4618B-ms98-a-0044	B.54	295.004625	295.104625		at	at
sw4618B-ms98-a-0044	B.54	295.104625	295.194625		the	the
sw4618B-ms98-a-0044	B.54	295.194625	295.764750		time	time
sw4618B-ms98-a-0044	B.54	295.764750	296.273250		[silence]	[silence]
sw4618B-ms98-a-0045	B.54	296.273250	298.530000		[silence]	[silence]
