sw4633B-ms98-a-0001	B.1	0.000000	0.000000		[silence]	[silence]
sw4633B-ms98-a-0001	B.1	0.000000	0.013250		[noise]	[noise]
sw4633B-ms98-a-0001	B.1	0.013250	0.038500		How	how
sw4633B-ms98-a-0001	B.1	0.038500	0.134750		many	many
sw4633B-ms98-a-0001	B.1	0.134750	0.520000		children	children
sw4633B-ms98-a-0001	B.1	0.520000	0.590000		do	do
sw4633B-ms98-a-0001	B.1	0.590000	0.680000		you	you
sw4633B-ms98-a-0001	B.1	0.680000	0.860000		have	have
sw4633B-ms98-a-0001	B.1	0.860000	0.990375		now	now
sw4633B-ms98-a-0001	B.3	0.990375	1.607875		[silence]	[silence]
sw4633B-ms98-a-0002	B.3	1.607875	2.213000		[silence]	[silence]
sw4633B-ms98-a-0002	B.3	2.213000	2.347875		You	you
sw4633B-ms98-a-0002	B.3	2.347875	2.517875		have	have
sw4633B-ms98-a-0002	B.3	2.517875	2.923750		five	five
sw4633B-ms98-a-0002	B.5	2.923750	3.398375		[silence]	[silence]
sw4633B-ms98-a-0002	B.5	3.398375	3.517875		Well	well
sw4633B-ms98-a-0002	B.5	3.517875	3.717875		you	you
sw4633B-ms98-a-0002	B.5	3.717875	3.967875		do	do
sw4633B-ms98-a-0002	B.5	3.967875	4.137875		have	have
sw4633B-ms98-a-0002	B.5	4.137875	4.187875		a	a
sw4633B-ms98-a-0002	B.5	4.187875	4.387875		hard	hard
sw4633B-ms98-a-0002	B.5	4.387875	4.637875		time	time
sw4633B-ms98-a-0002	B.5	4.637875	5.027875		finding	finding
sw4633B-ms98-a-0002	B.5	5.027875	5.347875		time	time
sw4633B-ms98-a-0002	B.5	5.347875	5.497875		then	then
sw4633B-ms98-a-0002	B.5	5.497875	5.677875		don't	don't
sw4633B-ms98-a-0002	B.5	5.677875	5.770125		you	you
sw4633B-ms98-a-0002	B.7	5.770125	6.218625		[silence]	[silence]
sw4633B-ms98-a-0003	B.7	6.218625	13.740000		[silence]	[silence]
sw4633B-ms98-a-0004	B.7	13.740000	14.250000		[silence]	[silence]
sw4633B-ms98-a-0004	B.7	14.250000	14.540000	<SUB>	Uh-huh	um-hum
sw4633B-ms98-a-0004	B.7	14.540000	14.710000		[silence]	[silence]
sw4633B-ms98-a-0004	B.7	14.710000	14.820000		You	you
sw4633B-ms98-a-0004	B.7	14.820000	15.110000		sound	sound
sw4633B-ms98-a-0004	B.7	15.110000	15.230000		so	so
sw4633B-ms98-a-0004	B.7	15.230000	15.750000		young	young
sw4633B-ms98-a-0004	B.9	15.750000	15.750000	<INS>	All	---
sw4633B-ms98-a-0004	B.9	15.750000	15.750000	<INS>	right	---
sw4633B-ms98-a-0004	B.9	15.750000	16.227125		[silence]	[silence]
sw4633B-ms98-a-0005	B.9	16.227125	17.702125		[silence]	[silence]
sw4633B-ms98-a-0006	B.9	17.702125	18.192375		[silence]	[silence]
sw4633B-ms98-a-0006	B.9	18.192375	19.752125		[laughter]	[laughter]
sw4633B-ms98-a-0006	B.9	19.752125	19.882125		To	to
sw4633B-ms98-a-0006	B.9	19.882125	20.132125		have	have
sw4633B-ms98-a-0006	B.9	20.132125	20.312125		them	them_1
sw4633B-ms98-a-0006	B.9	20.312125	20.560750		uh	uh
sw4633B-ms98-a-0006	B.11	20.560750	21.255750		[silence]	[silence]
sw4633B-ms98-a-0007	B.11	21.255750	21.962750		[silence]	[silence]
sw4633B-ms98-a-0007	B.11	21.962750	22.845750		[laughter]	[laughter]
sw4633B-ms98-a-0007	B.11	22.845750	22.915750		I	i
sw4633B-ms98-a-0007	B.11	22.915750	23.105750		think	think
sw4633B-ms98-a-0007	B.11	23.105750	23.195750		you're	you're
sw4633B-ms98-a-0007	B.11	23.195750	23.385750		doing	doing
sw4633B-ms98-a-0007	B.11	23.385750	23.435750		a	a
sw4633B-ms98-a-0007	B.11	23.435750	23.645750		good	good
sw4633B-ms98-a-0007	B.11	23.645750	23.959375		job	job
sw4633B-ms98-a-0007	B.13	23.959375	24.238125		[silence]	[silence]
sw4633B-ms98-a-0007	B.13	24.238125	24.375750		I	i
sw4633B-ms98-a-0007	B.13	24.375750	24.575750		just	just
sw4633B-ms98-a-0007	B.13	24.575750	24.785750		have	have
sw4633B-ms98-a-0007	B.13	24.785750	25.085750		one	one
sw4633B-ms98-a-0007	B.13	25.085750	25.575750		child	child
sw4633B-ms98-a-0007	B.15	25.575750	25.903000		[silence]	[silence]
sw4633B-ms98-a-0008	B.15	25.903000	26.270375		[silence]	[silence]
sw4633B-ms98-a-0008	B.15	26.270375	26.503000		And	and
sw4633B-ms98-a-0008	B.15	26.503000	26.690250		uh	uh
sw4633B-ms98-a-0008	B.15	26.690250	27.179875		[silence]	[silence]
sw4633B-ms98-a-0008	B.15	27.179875	27.343000		I	i
sw4633B-ms98-a-0008	B.15	27.343000	27.583000		don't	don't
sw4633B-ms98-a-0008	B.15	27.583000	27.973000		think	think
sw4633B-ms98-a-0008	B.15	27.973000	28.300250	<SUB>	uh	um
sw4633B-ms98-a-0008	B.15	28.300250	28.691875		[silence]	[silence]
sw4633B-ms98-a-0008	B.15	28.691875	28.893000		well	well
sw4633B-ms98-a-0008	B.15	28.893000	29.033000		there's	there's
sw4633B-ms98-a-0008	B.15	29.033000	29.203000		not	not
sw4633B-ms98-a-0008	B.15	29.203000	29.363000		much	much
sw4633B-ms98-a-0008	B.15	29.363000	29.463000		I	i
sw4633B-ms98-a-0008	B.15	29.463000	29.603000		can	can
sw4633B-ms98-a-0008	B.15	29.603000	29.703000		do	do
sw4633B-ms98-a-0008	B.15	29.703000	29.973000		about	about
sw4633B-ms98-a-0008	B.15	29.973000	30.043000		it	it
sw4633B-ms98-a-0008	B.15	30.043000	30.238625		My	my
sw4633B-ms98-a-0008	B.15	30.238625	30.310250		[silence]	[silence]
sw4633B-ms98-a-0008	B.15	30.310250	30.693000		[noise]	[noise]
sw4633B-ms98-a-0008	B.15	30.693000	30.793000		my	my
sw4633B-ms98-a-0008	B.15	30.793000	31.123000		wife	wife
sw4633B-ms98-a-0008	B.15	31.123000	31.263000		and	and
sw4633B-ms98-a-0008	B.15	31.263000	31.293000		I	i
sw4633B-ms98-a-0008	B.15	31.293000	31.622250		are	are
sw4633B-ms98-a-0008	B.15	31.622250	32.187250		[silence]	[silence]
sw4633B-ms98-a-0008	B.15	32.187250	32.486875	<SUB>	u-	uh
sw4633B-ms98-a-0008	B.15	32.486875	32.807000		[silence]	[silence]
sw4633B-ms98-a-0008	B.15	32.807000	32.963000		in	in
sw4633B-ms98-a-0008	B.15	32.963000	33.143000		our	our
sw4633B-ms98-a-0008	B.15	33.143000	33.693000		forties	forties
sw4633B-ms98-a-0008	B.15	33.693000	33.813000		you	you
sw4633B-ms98-a-0008	B.15	33.813000	34.026750		know	know
sw4633B-ms98-a-0008	B.15	34.026750	34.224250		[silence]	[silence]
sw4633B-ms98-a-0008	B.15	34.224250	34.523000		so	so
sw4633B-ms98-a-0008	B.15	34.523000	34.672250		uh	uh
sw4633B-ms98-a-0008	B.17	34.672250	34.829500		[silence]	[silence]
sw4633B-ms98-a-0009	B.17	34.829500	35.243625		[silence]	[silence]
sw4633B-ms98-a-0009	B.17	35.243625	35.369500		but	but
sw4633B-ms98-a-0009	B.17	35.369500	35.529500		it's	it's
sw4633B-ms98-a-0009	B.17	35.529500	35.759500		hard	hard
sw4633B-ms98-a-0009	B.17	35.759500	35.859500		to	to
sw4633B-ms98-a-0009	B.17	35.859500	36.139500		raise	raise
sw4633B-ms98-a-0009	B.17	36.139500	36.379500		one	one
sw4633B-ms98-a-0009	B.17	36.379500	36.719500		child	child
sw4633B-ms98-a-0009	B.17	36.719500	37.019500		without	without
sw4633B-ms98-a-0009	B.17	37.019500	37.257625		them	them
sw4633B-ms98-a-0009	B.17	37.257625	37.302875		[silence]	[silence]
sw4633B-ms98-a-0009	B.17	37.302875	37.719500		thinking	thinking
sw4633B-ms98-a-0009	B.17	37.719500	37.949500		they're	they're
sw4633B-ms98-a-0009	B.17	37.949500	38.204375		the	the
sw4633B-ms98-a-0009	B.17	38.204375	38.950125		[silence]	[silence]
sw4633B-ms98-a-0009	B.17	38.950125	39.109500		they're	they're
sw4633B-ms98-a-0009	B.17	39.109500	39.179500		the	the
sw4633B-ms98-a-0009	B.17	39.179500	39.589500		pivot	pivot
sw4633B-ms98-a-0009	B.17	39.589500	39.869500		point	point
sw4633B-ms98-a-0009	B.17	39.869500	39.929500		of	of
sw4633B-ms98-a-0009	B.17	39.929500	39.989500		the	the
sw4633B-ms98-a-0009	B.17	39.989500	40.745375		universe	universe
sw4633B-ms98-a-0009	B.19	40.745375	41.208500		[silence]	[silence]
sw4633B-ms98-a-0010	B.19	41.208500	49.347625		[silence]	[silence]
sw4633B-ms98-a-0011	B.19	49.347625	49.798375		[silence]	[silence]
sw4633B-ms98-a-0011	B.19	49.798375	50.167625		Yeah	yeah
sw4633B-ms98-a-0011	B.21	50.167625	50.207625		[silence]	[silence]
sw4633B-ms98-a-0011	B.21	50.207625	50.585000		[noise]	[noise]
sw4633B-ms98-a-0011	B.21	50.585000	50.940875		[silence]	[silence]
sw4633B-ms98-a-0012	B.21	50.940875	58.471125		[silence]	[silence]
sw4633B-ms98-a-0013	B.21	58.471125	58.963250		[silence]	[silence]
sw4633B-ms98-a-0013	B.21	58.963250	59.421125	<SUB>	Uh-huh	um-hum
sw4633B-ms98-a-0013	B.21	59.421125	59.521125		I	i
sw4633B-ms98-a-0013	B.21	59.521125	59.651125		have	have
sw4633B-ms98-a-0013	B.21	59.651125	59.681125		a	a
sw4633B-ms98-a-0013	B.21	59.681125	59.971125		younger	younger
sw4633B-ms98-a-0013	B.21	59.971125	60.261125		brother	brother
sw4633B-ms98-a-0013	B.21	60.261125	60.521125		like	like
sw4633B-ms98-a-0013	B.21	60.521125	60.751125		that	that
sw4633B-ms98-a-0013	B.21	60.751125	60.960750		I'm	i'm
sw4633B-ms98-a-0013	B.21	60.960750	61.409000		[silence]	[silence]
sw4633B-ms98-a-0013	B.21	61.409000	61.531125		in	in
sw4633B-ms98-a-0013	B.21	61.531125	61.681125		my	my
sw4633B-ms98-a-0013	B.21	61.681125	62.141125		forties	forties
sw4633B-ms98-a-0013	B.21	62.141125	62.269375		like	like
sw4633B-ms98-a-0013	B.21	62.269375	62.333375		I	i
sw4633B-ms98-a-0013	B.21	62.333375	62.541125		say	say
sw4633B-ms98-a-0013	B.21	62.541125	62.631125		and	and
sw4633B-ms98-a-0013	B.21	62.631125	62.661125		I	i
sw4633B-ms98-a-0013	B.21	62.661125	62.851125		have	have
sw4633B-ms98-a-0013	B.21	62.851125	63.001125		a	a
sw4633B-ms98-a-0013	B.21	63.001125	63.371125		brother	brother
sw4633B-ms98-a-0013	B.21	63.371125	63.451125		in	in
sw4633B-ms98-a-0013	B.21	63.451125	63.571125		his	his
sw4633B-ms98-a-0013	B.21	63.571125	64.170875		twenties	twenties
sw4633B-ms98-a-0013	B.23	64.170875	64.739625		[silence]	[silence]
sw4633B-ms98-a-0013	B.23	64.739625	64.901125		And	and
sw4633B-ms98-a-0013	B.23	64.901125	64.981125		I	i
sw4633B-ms98-a-0013	B.23	64.981125	65.233000		was	was
sw4633B-ms98-a-0013	B.23	65.233000	65.291125		[silence]	[silence]
sw4633B-ms98-a-0013	B.23	65.291125	65.431125		I	i
sw4633B-ms98-a-0013	B.23	65.431125	65.851125		was	was
sw4633B-ms98-a-0013	B.23	65.851125	65.941125		the	the
sw4633B-ms98-a-0013	B.23	65.941125	66.550875		youngest	youngest
sw4633B-ms98-a-0013	B.25	66.550875	66.827625		[silence]	[silence]
sw4633B-ms98-a-0014	B.25	66.827625	67.217625		[silence]	[silence]
sw4633B-ms98-a-0014	B.25	67.217625	67.407625		So	so
sw4633B-ms98-a-0014	B.25	67.407625	67.517625		I	i
sw4633B-ms98-a-0014	B.25	67.517625	68.037625		understand	understand
sw4633B-ms98-a-0014	B.25	68.037625	68.147625		how	how
sw4633B-ms98-a-0014	B.25	68.147625	68.337625		that	that
sw4633B-ms98-a-0014	B.25	68.337625	68.477625		worked	worked
sw4633B-ms98-a-0014	B.25	68.477625	68.717625		And	and
sw4633B-ms98-a-0014	B.25	68.717625	68.817625		he	he
sw4633B-ms98-a-0014	B.25	68.817625	68.967625		was	was
sw4633B-ms98-a-0014	B.25	68.967625	69.387625		treated	treated
sw4633B-ms98-a-0014	B.25	69.387625	69.597625		like	like
sw4633B-ms98-a-0014	B.25	69.597625	69.727625		he	he
sw4633B-ms98-a-0014	B.25	69.727625	69.917625		had	had
sw4633B-ms98-a-0014	B.25	69.917625	69.997625		[silence]	[silence]
sw4633B-ms98-a-0014	B.25	69.997625	70.297625		five	five
sw4633B-ms98-a-0014	B.25	70.297625	70.747625		fathers	fathers
sw4633B-ms98-a-0014	B.25	70.747625	70.807625		or	or
sw4633B-ms98-a-0014	B.25	70.807625	71.273750		something	something
sw4633B-ms98-a-0014	B.27	71.273750	71.825625		[silence]	[silence]
sw4633B-ms98-a-0015	B.27	71.825625	79.820125		[silence]	[silence]
sw4633B-ms98-a-0016	B.27	79.820125	80.309250		[silence]	[silence]
sw4633B-ms98-a-0016	B.27	80.309250	80.719375		Yeah	yeah
sw4633B-ms98-a-0016	B.29	80.719375	81.199000		[silence]	[silence]
sw4633B-ms98-a-0017	B.29	81.199000	89.034375		[silence]	[silence]
sw4633B-ms98-a-0018	B.29	89.034375	89.055500		[silence]	[silence]
sw4633B-ms98-a-0018	B.29	89.055500	89.360875		[noise]	[noise]
sw4633B-ms98-a-0018	B.29	89.360875	89.524375		Did	did
sw4633B-ms98-a-0018	B.29	89.524375	89.895750	<CONT>	you	y'all
sw4633B-ms98-a-0018	B.29	89.895750	89.895750	<CONT>	all	+++
sw4633B-ms98-a-0018	B.29	89.895750	90.070250		[silence]	[silence]
sw4633B-ms98-a-0018	B.29	90.070250	90.204375		do	do
sw4633B-ms98-a-0018	B.29	90.204375	90.234375		a	a
sw4633B-ms98-a-0018	B.29	90.234375	90.414375		lot	lot
sw4633B-ms98-a-0018	B.29	90.414375	90.494375		of	of
sw4633B-ms98-a-0018	B.29	90.494375	91.074375		organized	organized
sw4633B-ms98-a-0018	B.29	91.074375	91.354375		things	things
sw4633B-ms98-a-0018	B.29	91.354375	91.644375		like	like
sw4633B-ms98-a-0018	B.29	91.644375	91.924625		uh	uh
sw4633B-ms98-a-0018	B.29	91.924625	92.114375		[silence]	[silence]
sw4633B-ms98-a-0018	B.29	92.114375	92.334375		Little	Little
sw4633B-ms98-a-0018	B.29	92.334375	92.884375		League	League
sw4633B-ms98-a-0018	B.29	92.884375	93.117250		uh	uh
sw4633B-ms98-a-0018	B.29	93.117250	93.304375		[silence]	[silence]
sw4633B-ms98-a-0018	B.29	93.304375	93.854375		soccer	soccer
sw4633B-ms98-a-0018	B.31	93.854375	93.957375	<DEL>	---	an[d]-
sw4633B-ms98-a-0018	B.31	93.957375	94.421750		[silence]	[silence]
sw4633B-ms98-a-0019	B.31	94.421750	104.929500		[silence]	[silence]
sw4633B-ms98-a-0020	B.31	104.929500	105.440375		[silence]	[silence]
sw4633B-ms98-a-0020	B.31	105.440375	105.746500		Uh-huh	uh-huh
sw4633B-ms98-a-0020	B.33	105.746500	106.237250		[silence]	[silence]
sw4633B-ms98-a-0021	B.33	106.237250	111.958625		[silence]	[silence]
sw4633B-ms98-a-0022	B.33	111.958625	112.458625		[silence]	[silence]
sw4633B-ms98-a-0022	B.33	112.458625	112.778625	<SUB>	Uh-huh	um-hum
sw4633B-ms98-a-0022	B.35	112.778625	113.261375		[silence]	[silence]
sw4633B-ms98-a-0023	B.35	113.261375	118.939625		[silence]	[silence]
sw4633B-ms98-a-0024	B.35	118.939625	119.409625		[silence]	[silence]
sw4633B-ms98-a-0024	B.35	119.409625	119.856875		Yeah	yeah
sw4633B-ms98-a-0024	B.37	119.856875	120.346750		[silence]	[silence]
sw4633B-ms98-a-0025	B.37	120.346750	129.095125		[silence]	[silence]
sw4633B-ms98-a-0026	B.37	129.095125	129.478375		[silence]	[silence]
sw4633B-ms98-a-0026	B.37	129.478375	129.625125		You	you
sw4633B-ms98-a-0026	B.37	129.625125	129.745125		know	know
sw4633B-ms98-a-0026	B.37	129.745125	129.835125		I	i
sw4633B-ms98-a-0026	B.37	129.835125	130.115125		think	think
sw4633B-ms98-a-0026	B.37	130.115125	130.395125		that's	that's
sw4633B-ms98-a-0026	B.37	130.395125	131.095125		probably	probably
sw4633B-ms98-a-0026	B.37	131.095125	131.777000		true	true
sw4633B-ms98-a-0026	B.37	131.777000	131.852250		[silence]	[silence]
sw4633B-ms98-a-0026	B.37	131.852250	132.135125		The	the
sw4633B-ms98-a-0026	B.37	132.135125	132.755125		[noise]	[noise]
sw4633B-ms98-a-0026	B.37	132.755125	132.935125		if	if
sw4633B-ms98-a-0026	B.37	132.935125	133.025125		you	you
sw4633B-ms98-a-0026	B.37	133.025125	133.255125		have	have
sw4633B-ms98-a-0026	B.37	133.255125	133.695125		one	one
sw4633B-ms98-a-0026	B.37	133.695125	134.185125		child	child
sw4633B-ms98-a-0026	B.37	134.185125	134.413125		or	or
sw4633B-ms98-a-0026	B.37	134.413125	134.492250		[silence]	[silence]
sw4633B-ms98-a-0026	B.37	134.492250	134.999750		fewer	fewer
sw4633B-ms98-a-0026	B.37	134.999750	135.478125		[silence]	[silence]
sw4633B-ms98-a-0026	B.37	135.478125	135.725125		you	you
sw4633B-ms98-a-0026	B.37	135.725125	135.905125		get	get
sw4633B-ms98-a-0026	B.37	135.905125	136.395125		involved	involved
sw4633B-ms98-a-0026	B.37	136.395125	136.505125		in	in
sw4633B-ms98-a-0026	B.37	136.505125	137.371125		organized	organized
sw4633B-ms98-a-0026	B.37	137.371125	137.862750		[silence]	[silence]
sw4633B-ms98-a-0026	B.37	137.862750	138.455125		events	events
sw4633B-ms98-a-0026	B.37	138.455125	138.565125		or	or
sw4633B-ms98-a-0026	B.39	138.565125	139.265125		activities	activities
sw4633B-ms98-a-0026	B.39	139.265125	139.375125		and	and
sw4633B-ms98-a-0026	B.39	139.375125	139.475125		if	if
sw4633B-ms98-a-0026	B.39	139.475125	139.545125		you	you
sw4633B-ms98-a-0026	B.39	139.545125	139.735125		have	have
sw4633B-ms98-a-0026	B.39	139.735125	139.849375		a	a
sw4633B-ms98-a-0026	B.39	139.849375	139.955125		[silence]	[silence]
sw4633B-ms98-a-0026	B.39	139.955125	140.472875		large	large
sw4633B-ms98-a-0026	B.39	140.472875	140.725250		[silence]	[silence]
sw4633B-ms98-a-0026	B.39	140.725250	141.045125		number	number
sw4633B-ms98-a-0026	B.39	141.045125	141.105125		of	of
sw4633B-ms98-a-0026	B.39	141.105125	141.674750		children	children
sw4633B-ms98-a-0026	B.39	141.674750	141.806875		or	or
sw4633B-ms98-a-0026	B.39	141.806875	142.217500		[silence]	[silence]
sw4633B-ms98-a-0026	B.39	142.217500	142.385125		then	then
sw4633B-ms98-a-0026	B.39	142.385125	142.505125		you	you
sw4633B-ms98-a-0026	B.39	142.505125	142.885125		don't	don't
sw4633B-ms98-a-0026	B.41	142.885125	143.696875		[silence]	[silence]
sw4633B-ms98-a-0027	B.41	143.696875	144.638125		[silence]	[silence]
sw4633B-ms98-a-0027	B.41	144.638125	144.966875		No	no
sw4633B-ms98-a-0027	B.41	144.966875	145.116875		you	you
sw4633B-ms98-a-0027	B.41	145.116875	145.296875	<SUB>	ca-	c[an't]-
sw4633B-ms98-a-0027	B.41	145.296875	145.506875		and	and
sw4633B-ms98-a-0027	B.41	145.506875	145.666875		there's	there's
sw4633B-ms98-a-0027	B.41	145.666875	145.806875		not	not
sw4633B-ms98-a-0027	B.41	145.806875	146.036875		enough	enough
sw4633B-ms98-a-0027	B.41	146.036875	146.546875		time	time
sw4633B-ms98-a-0027	B.41	146.546875	146.716875	<SUB>	uh	um
sw4633B-ms98-a-0027	B.43	146.716875	147.216875		[silence]	[silence]
sw4633B-ms98-a-0027	B.43	147.216875	147.386875		like	like
sw4633B-ms98-a-0027	B.43	147.386875	147.556875		my	my
sw4633B-ms98-a-0027	B.43	147.556875	148.016875		son	son
sw4633B-ms98-a-0027	B.43	148.016875	148.106875		is	is
sw4633B-ms98-a-0027	B.43	148.106875	148.376000		in	in
sw4633B-ms98-a-0027	B.43	148.376000	148.539875		[silence]	[silence]
sw4633B-ms98-a-0027	B.43	148.539875	148.869625		uh	uh
sw4633B-ms98-a-0027	B.43	148.869625	149.135000		[silence]	[silence]
sw4633B-ms98-a-0027	B.43	149.135000	149.357250		Little	Little
sw4633B-ms98-a-0027	B.43	149.357250	149.626875		League	League
sw4633B-ms98-a-0027	B.43	149.626875	149.846875		this	this
sw4633B-ms98-a-0027	B.43	149.846875	150.206875		year	year
sw4633B-ms98-a-0027	B.43	150.206875	150.356875		He's	he's
sw4633B-ms98-a-0027	B.43	150.356875	150.926875		ten	ten
sw4633B-ms98-a-0027	B.43	150.926875	151.359625		[silence]	[silence]
sw4633B-ms98-a-0028	B.43	151.359625	151.853375		[silence]	[silence]
sw4633B-ms98-a-0028	B.43	151.853375	152.089625		And	and
sw4633B-ms98-a-0028	B.43	152.089625	152.189625		they	they
sw4633B-ms98-a-0028	B.43	152.189625	152.709625		practice	practice
sw4633B-ms98-a-0028	B.43	152.709625	152.929625		three	three
sw4633B-ms98-a-0028	B.43	152.929625	153.299625		times	times
sw4633B-ms98-a-0028	B.43	153.299625	153.379625		a	a
sw4633B-ms98-a-0028	B.43	153.379625	153.779625		week	week
sw4633B-ms98-a-0028	B.43	153.779625	153.889625		and	and
sw4633B-ms98-a-0028	B.43	153.889625	153.959625		they	they
sw4633B-ms98-a-0028	B.43	153.959625	154.149625		have	have
sw4633B-ms98-a-0028	B.43	154.149625	154.229625		a	a
sw4633B-ms98-a-0028	B.43	154.229625	154.849625		game	game
sw4633B-ms98-a-0028	B.43	154.849625	155.039625		and	and
sw4633B-ms98-a-0028	B.43	155.039625	155.349625		[silence]	[silence]
sw4633B-ms98-a-0028	B.43	155.349625	155.489625		it's	it's
sw4633B-ms98-a-0028	B.43	155.489625	155.856875		just	just
sw4633B-ms98-a-0028	B.43	155.856875	156.099625		[silence]	[silence]
sw4633B-ms98-a-0028	B.43	156.099625	156.439625		uh	uh
sw4633B-ms98-a-0028	B.43	156.439625	156.539625		[silence]	[silence]
sw4633B-ms98-a-0028	B.43	156.539625	156.759625		if	if
sw4633B-ms98-a-0028	B.43	156.759625	156.959625		there	there
sw4633B-ms98-a-0028	B.43	156.959625	157.188875		were	were
sw4633B-ms98-a-0028	B.43	157.188875	157.269625		[silence]	[silence]
sw4633B-ms98-a-0028	B.43	157.269625	157.479625		more	more
sw4633B-ms98-a-0028	B.43	157.479625	157.649625		than	than
sw4633B-ms98-a-0028	B.43	157.649625	157.839625		one	one
sw4633B-ms98-a-0028	B.43	157.839625	158.199625		child	child
sw4633B-ms98-a-0028	B.43	158.199625	158.289625		I	i
sw4633B-ms98-a-0028	B.43	158.289625	158.479625		don't	don't
sw4633B-ms98-a-0028	B.43	158.479625	158.780250		know	know
sw4633B-ms98-a-0028	B.43	158.780250	158.889625		[silence]	[silence]
sw4633B-ms98-a-0028	B.43	158.889625	159.138750	<SUB>	the-	there
sw4633B-ms98-a-0028	B.43	159.138750	159.339625		[silence]	[silence]
sw4633B-ms98-a-0028	B.43	159.339625	159.509625		there	there
sw4633B-ms98-a-0028	B.43	159.509625	159.649625		would	would
sw4633B-ms98-a-0028	B.43	159.649625	159.779625		be	be
sw4633B-ms98-a-0028	B.43	159.779625	159.919625		no	no
sw4633B-ms98-a-0028	B.43	159.919625	160.059625		way	way
sw4633B-ms98-a-0028	B.43	160.059625	160.159625		to	to
sw4633B-ms98-a-0028	B.43	160.159625	160.339625		do	do
sw4633B-ms98-a-0028	B.43	160.339625	160.516000		it	it
sw4633B-ms98-a-0028	B.45	160.516000	160.850375		[silence]	[silence]
sw4633B-ms98-a-0029	B.45	160.850375	161.200625		[silence]	[silence]
sw4633B-ms98-a-0029	B.45	161.200625	161.280375		You	you
sw4633B-ms98-a-0029	B.45	161.280375	161.380375		know	know
sw4633B-ms98-a-0029	B.45	161.380375	161.590375		one	one
sw4633B-ms98-a-0029	B.45	161.590375	161.960375		parent	parent
sw4633B-ms98-a-0029	B.45	161.960375	162.120375		go	go
sw4633B-ms98-a-0029	B.45	162.120375	162.190375	<DEL>	---	in
sw4633B-ms98-a-0029	B.45	162.190375	162.390375		one	one
sw4633B-ms98-a-0029	B.45	162.390375	162.900375		direction	direction
sw4633B-ms98-a-0029	B.45	162.900375	163.040375		and	and
sw4633B-ms98-a-0029	B.45	163.040375	163.190375		I'd	i'd
sw4633B-ms98-a-0029	B.45	163.190375	163.360375		have	have
sw4633B-ms98-a-0029	B.45	163.360375	163.450375		to	to
sw4633B-ms98-a-0029	B.45	163.450375	163.670375		go	go
sw4633B-ms98-a-0029	B.45	163.670375	163.740375		in	in
sw4633B-ms98-a-0029	B.45	163.740375	163.810375		the	the
sw4633B-ms98-a-0029	B.45	163.810375	164.220375		other	other
sw4633B-ms98-a-0029	B.45	164.220375	164.334625		and	and
sw4633B-ms98-a-0029	B.47	164.334625	164.842875		[silence]	[silence]
sw4633B-ms98-a-0030	B.47	164.842875	165.374375		[silence]	[silence]
sw4633B-ms98-a-0030	B.47	165.374375	165.572875		we	we
sw4633B-ms98-a-0030	B.47	165.572875	165.672875		could	could
sw4633B-ms98-a-0030	B.47	165.672875	165.882875		only	only
sw4633B-ms98-a-0030	B.47	165.882875	166.212875		cover	cover
sw4633B-ms98-a-0030	B.47	166.212875	166.492875		two	two
sw4633B-ms98-a-0030	B.47	166.492875	166.602875		at	at
sw4633B-ms98-a-0030	B.47	166.602875	166.990500		that	that
sw4633B-ms98-a-0030	B.49	166.990500	167.502375		[silence]	[silence]
sw4633B-ms98-a-0031	B.49	167.502375	177.272875		[silence]	[silence]
sw4633B-ms98-a-0032	B.49	177.272875	177.792875		[silence]	[silence]
sw4633B-ms98-a-0032	B.49	177.792875	178.236750	<SUB>	Uh-huh	um-hum
sw4633B-ms98-a-0032	B.51	178.236750	178.710875		[silence]	[silence]
sw4633B-ms98-a-0033	B.51	178.710875	197.022250		[silence]	[silence]
sw4633B-ms98-a-0034	B.51	197.022250	197.532250		[silence]	[silence]
sw4633B-ms98-a-0034	B.51	197.532250	197.952250	<SUB>	Uh-huh	um-hum
sw4633B-ms98-a-0034	B.55	197.952250	198.546125		[noise]	[noise]
sw4633B-ms98-a-0034	B.55	198.546125	198.748250		[silence]	[silence]
sw4633B-ms98-a-0035	B.55	198.748250	208.541375		[silence]	[silence]
sw4633B-ms98-a-0036	B.55	208.541375	208.991000		[silence]	[silence]
sw4633B-ms98-a-0036	B.55	208.991000	209.261375		I	i
sw4633B-ms98-a-0036	B.55	209.261375	209.581375		don't	don't
sw4633B-ms98-a-0036	B.55	209.581375	210.049375		think	think
sw4633B-ms98-a-0036	B.55	210.049375	210.105875		[silence]	[silence]
sw4633B-ms98-a-0036	B.55	210.105875	210.674125		although	although
sw4633B-ms98-a-0036	B.55	210.674125	210.674125	<INS>	i-	---
sw4633B-ms98-a-0036	B.55	210.674125	210.674125	<INS>	i-	---
sw4633B-ms98-a-0036	B.55	210.674125	211.649750		[vocalized-noise]	[vocalized-noise]
sw4633B-ms98-a-0036	B.55	211.649750	211.846625		I	i
sw4633B-ms98-a-0036	B.55	211.846625	212.101375		think	think
sw4633B-ms98-a-0036	B.55	212.101375	212.395500		a	a
sw4633B-ms98-a-0036	B.55	212.395500	212.760875		[silence]	[silence]
sw4633B-ms98-a-0036	B.55	212.760875	212.981375		a	a
sw4633B-ms98-a-0036	B.55	212.981375	213.221375		more	more
sw4633B-ms98-a-0036	B.55	213.221375	213.381375		than	than
sw4633B-ms98-a-0036	B.55	213.381375	213.561375		one	one
sw4633B-ms98-a-0036	B.55	213.561375	213.831375		child	child
sw4633B-ms98-a-0036	B.55	213.831375	214.161375		probably	probably
sw4633B-ms98-a-0036	B.55	214.161375	214.271375		[silence]	[silence]
sw4633B-ms98-a-0036	B.55	214.271375	214.731500		three	three
sw4633B-ms98-a-0036	B.55	214.731500	215.017750		[silence]	[silence]
sw4633B-ms98-a-0036	B.55	215.017750	215.411375		children	children
sw4633B-ms98-a-0036	B.55	215.411375	215.521375		is	is
sw4633B-ms98-a-0036	B.55	215.521375	215.951375		probably	probably
sw4633B-ms98-a-0036	B.55	215.951375	216.081375		the	the
sw4633B-ms98-a-0036	B.55	216.081375	216.551375		ideal	ideal
sw4633B-ms98-a-0036	B.55	216.551375	216.681375		to	to
sw4633B-ms98-a-0036	B.55	216.681375	217.061375		me	me
sw4633B-ms98-a-0036	B.55	217.061375	217.432125		[silence]	[silence]
sw4633B-ms98-a-0037	B.55	217.432125	217.795625		[silence]	[silence]
sw4633B-ms98-a-0037	B.55	217.795625	217.902125		but	but
sw4633B-ms98-a-0037	B.55	217.902125	218.082125		I'm	i'm
sw4633B-ms98-a-0037	B.55	218.082125	218.292125		not	not
sw4633B-ms98-a-0037	B.55	218.292125	218.472125		sure	sure
sw4633B-ms98-a-0037	B.55	218.472125	218.542125		I	i
sw4633B-ms98-a-0037	B.55	218.542125	218.682125		could	could
sw4633B-ms98-a-0037	B.55	218.682125	219.052125		afford	afford
sw4633B-ms98-a-0037	B.55	219.052125	219.292125		three	three
sw4633B-ms98-a-0037	B.55	219.292125	219.382125		I	i
sw4633B-ms98-a-0037	B.55	219.382125	219.652125		most	most
sw4633B-ms98-a-0037	B.55	219.652125	219.932125		certainly	certainly
sw4633B-ms98-a-0037	B.55	219.932125	220.192125		couldn't	couldn't
sw4633B-ms98-a-0037	B.55	220.192125	220.642125		educate	educate
sw4633B-ms98-a-0037	B.55	220.642125	220.922750		three	three
sw4633B-ms98-a-0037	B.57	220.922750	221.261750		[silence]	[silence]
sw4633B-ms98-a-0037	B.57	221.261750	221.312125		[noise]	[noise]
sw4633B-ms98-a-0037	B.57	221.312125	221.432125		I	i
sw4633B-ms98-a-0037	B.57	221.432125	221.592125		don't	don't
sw4633B-ms98-a-0037	B.57	221.592125	221.702125		know	know
sw4633B-ms98-a-0037	B.57	221.702125	221.862125		how	how
sw4633B-ms98-a-0037	B.57	221.862125	222.138625		my	my
sw4633B-ms98-a-0037	B.57	222.138625	222.349625		[silence]	[silence]
sw4633B-ms98-a-0037	B.57	222.349625	222.542125		my	my
sw4633B-ms98-a-0037	B.57	222.542125	223.032125		parents	parents
sw4633B-ms98-a-0037	B.57	223.032125	223.292125		did	did
sw4633B-ms98-a-0037	B.57	223.292125	223.416500		it	it
sw4633B-ms98-a-0037	B.59	223.416500	223.838500		[silence]	[silence]
sw4633B-ms98-a-0038	B.59	223.838500	224.268500		[silence]	[silence]
sw4633B-ms98-a-0038	B.59	224.268500	224.298500		I	i
sw4633B-ms98-a-0038	B.59	224.298500	224.428500		mean	mean
sw4633B-ms98-a-0038	B.59	224.428500	224.588500		there	there
sw4633B-ms98-a-0038	B.59	224.588500	224.708500		were	were
sw4633B-ms98-a-0038	B.59	224.708500	225.128500		five	five
sw4633B-ms98-a-0038	B.59	225.128500	225.248500		of	of
sw4633B-ms98-a-0038	B.59	225.248500	225.774625		us	us
sw4633B-ms98-a-0038	B.59	225.774625	225.774625	<INS>	and	---
sw4633B-ms98-a-0038	B.59	225.774625	226.799125		[silence]	[silence]
sw4633B-ms98-a-0038	B.59	226.799125	226.958500		I	i
sw4633B-ms98-a-0038	B.59	226.958500	227.138500		don't	don't
sw4633B-ms98-a-0038	B.59	227.138500	227.598500		recall	recall
sw4633B-ms98-a-0038	B.59	227.598500	227.688500		you	you
sw4633B-ms98-a-0038	B.59	227.688500	227.898500		know	know
sw4633B-ms98-a-0038	B.59	227.898500	228.558500		wanting	wanting
sw4633B-ms98-a-0038	B.59	228.558500	229.088500		anything	anything
sw4633B-ms98-a-0038	B.59	229.088500	229.228500		in	in
sw4633B-ms98-a-0038	B.59	229.228500	229.854250		particular	particular
sw4633B-ms98-a-0038	B.59	229.854250	230.407875		[silence]	[silence]
sw4633B-ms98-a-0038	B.59	230.407875	230.789750		Uh	uh
sw4633B-ms98-a-0038	B.59	230.789750	231.731375		[silence]	[silence]
sw4633B-ms98-a-0038	B.59	231.731375	231.838500		but	but
sw4633B-ms98-a-0038	B.59	231.838500	231.998500		I	i
sw4633B-ms98-a-0038	B.59	231.998500	232.168500		don't	don't
sw4633B-ms98-a-0038	B.59	232.168500	232.298500		know	know
sw4633B-ms98-a-0038	B.59	232.298500	232.583875		how	how
sw4633B-ms98-a-0038	B.59	232.583875	232.772125		[silence]	[silence]
sw4633B-ms98-a-0038	B.59	232.772125	232.898500		my	my
sw4633B-ms98-a-0038	B.59	232.898500	233.258500		father	father
sw4633B-ms98-a-0038	B.59	233.258500	233.558500		did	did
sw4633B-ms98-a-0038	B.59	233.558500	233.668500		it	it
sw4633B-ms98-a-0038	B.59	233.668500	233.768500		He	he
sw4633B-ms98-a-0038	B.59	233.768500	234.048500		worked	worked
sw4633B-ms98-a-0038	B.59	234.048500	234.118500		at	at
sw4633B-ms98-a-0038	B.59	234.118500	234.168500		a	a
sw4633B-ms98-a-0038	B.59	234.168500	234.468500		truck	truck
sw4633B-ms98-a-0038	B.59	234.468500	234.838500		line	line
sw4633B-ms98-a-0038	B.59	234.838500	234.961125		and	and
sw4633B-ms98-a-0038	B.59	234.961125	235.657125		[silence]	[silence]
sw4633B-ms98-a-0039	B.59	235.657125	236.390000		[silence]	[silence]
sw4633B-ms98-a-0039	B.59	236.390000	236.547125		he	he
sw4633B-ms98-a-0039	B.59	236.547125	236.727125		just	just
sw4633B-ms98-a-0039	B.59	236.727125	236.927125		didn't	didn't
sw4633B-ms98-a-0039	B.59	236.927125	237.087125		make	make
sw4633B-ms98-a-0039	B.59	237.087125	237.277125		that	that
sw4633B-ms98-a-0039	B.59	237.277125	237.477125		kind	kind
sw4633B-ms98-a-0039	B.59	237.477125	237.547125		of	of
sw4633B-ms98-a-0039	B.59	237.547125	237.827125		money	money
sw4633B-ms98-a-0039	B.59	237.827125	238.007125		with	with
sw4633B-ms98-a-0039	B.59	238.007125	238.377125		five	five
sw4633B-ms98-a-0039	B.59	238.377125	238.899875		children	children
sw4633B-ms98-a-0039	B.59	238.899875	239.080625		[silence]	[silence]
sw4633B-ms98-a-0039	B.59	239.080625	239.197125		But	but
sw4633B-ms98-a-0039	B.59	239.197125	239.317125		we	we
sw4633B-ms98-a-0039	B.59	239.317125	239.497125		did	did
sw4633B-ms98-a-0039	B.59	239.497125	239.807125		okay	okay
sw4633B-ms98-a-0039	B.59	239.807125	239.907125		We	we
sw4633B-ms98-a-0039	B.59	239.907125	240.007125		had	had
sw4633B-ms98-a-0039	B.59	240.007125	240.057125		a	a
sw4633B-ms98-a-0039	B.59	240.057125	240.387125		house	house
sw4633B-ms98-a-0039	B.59	240.387125	240.487125		and	and
sw4633B-ms98-a-0039	B.59	240.487125	240.517125		a	a
sw4633B-ms98-a-0039	B.59	240.517125	240.747125		home	home
sw4633B-ms98-a-0039	B.59	240.747125	241.007500		and	and
sw4633B-ms98-a-0039	B.59	241.007500	241.195750		[silence]	[silence]
sw4633B-ms98-a-0039	B.59	241.195750	241.387125		but	but
sw4633B-ms98-a-0039	B.59	241.387125	241.832500		now	now
sw4633B-ms98-a-0039	B.59	241.832500	242.533125		[silence]	[silence]
sw4633B-ms98-a-0039	B.59	242.533125	242.637125		my	my
sw4633B-ms98-a-0039	B.59	242.637125	243.047125		wife	wife
sw4633B-ms98-a-0039	B.59	243.047125	243.157125		and	and
sw4633B-ms98-a-0039	B.59	243.157125	243.267125		I	i
sw4633B-ms98-a-0039	B.59	243.267125	243.617125		both	both
sw4633B-ms98-a-0039	B.59	243.617125	243.957125		work	work
sw4633B-ms98-a-0039	B.59	243.957125	244.267125		[silence]	[silence]
sw4633B-ms98-a-0039	B.59	244.267125	244.427125		and	and
sw4633B-ms98-a-0039	B.59	244.427125	244.537125		we	we
sw4633B-ms98-a-0039	B.59	244.537125	244.787125		don't	don't
sw4633B-ms98-a-0039	B.59	244.787125	244.877125		I	i
sw4633B-ms98-a-0039	B.59	244.877125	245.097125		don't	don't
sw4633B-ms98-a-0039	B.59	245.097125	245.347125		believe	believe
sw4633B-ms98-a-0039	B.59	245.347125	245.467125		we	we
sw4633B-ms98-a-0039	B.59	245.467125	245.677125		have	have
sw4633B-ms98-a-0039	B.59	245.677125	245.797125		as	as
sw4633B-ms98-a-0039	B.59	245.797125	246.087125		much	much
sw4633B-ms98-a-0039	B.59	246.087125	246.340125		as	as
sw4633B-ms98-a-0039	B.59	246.340125	246.438000		[silence]	[silence]
sw4633B-ms98-a-0039	B.59	246.438000	246.597125		my	my
sw4633B-ms98-a-0039	B.59	246.597125	247.027125		parents	parents
sw4633B-ms98-a-0039	B.59	247.027125	247.324250		did	did
sw4633B-ms98-a-0039	B.59	247.324250	247.676875		[silence]	[silence]
sw4633B-ms98-a-0040	B.59	247.676875	248.104000		[silence]	[silence]
sw4633B-ms98-a-0040	B.59	248.104000	248.206875		and	and
sw4633B-ms98-a-0040	B.59	248.206875	248.316875		we	we
sw4633B-ms98-a-0040	B.59	248.316875	248.516875		only	only
sw4633B-ms98-a-0040	B.59	248.516875	248.686875		have	have
sw4633B-ms98-a-0040	B.59	248.686875	248.946875		one	one
sw4633B-ms98-a-0040	B.59	248.946875	249.411625		child	child
sw4633B-ms98-a-0040	B.61	249.411625	249.918750		[silence]	[silence]
sw4633B-ms98-a-0041	B.61	249.918750	250.468750		[silence]	[silence]
sw4633B-ms98-a-0041	B.61	250.468750	250.790875	<SUB>	Uh-huh	um-hum
sw4633B-ms98-a-0041	B.63	250.790875	251.192125		[silence]	[silence]
sw4633B-ms98-a-0042	B.63	251.192125	253.851875		[silence]	[silence]
sw4633B-ms98-a-0043	B.63	253.851875	254.348250		[silence]	[silence]
sw4633B-ms98-a-0043	B.63	254.348250	254.592625	<SUB>	Huh	um
sw4633B-ms98-a-0043	B.65	254.592625	254.628500		[silence]	[silence]
sw4633B-ms98-a-0043	B.65	254.628500	254.848750		[noise]	[noise]
sw4633B-ms98-a-0043	B.65	254.848750	255.319500		[silence]	[silence]
sw4633B-ms98-a-0044	B.65	255.319500	258.384875		[silence]	[silence]
sw4633B-ms98-a-0045	B.65	258.384875	258.882625		[silence]	[silence]
sw4633B-ms98-a-0045	B.65	258.882625	259.524875	<CONT>	Atlanta	Atlanta's
sw4633B-ms98-a-0045	B.65	259.524875	259.524875	<CONT>	is	+++
sw4633B-ms98-a-0045	B.65	259.524875	260.022375		horrible	horrible
sw4633B-ms98-a-0045	B.67	260.022375	260.798250		[silence]	[silence]
sw4633B-ms98-a-0045	B.67	260.798250	261.214875		Yes	yes
sw4633B-ms98-a-0045	B.67	261.214875	261.564875		Ha-	ha[ve]-
sw4633B-ms98-a-0045	B.67	261.564875	261.744875		we	we
sw4633B-ms98-a-0045	B.67	261.744875	261.924875		have	have
sw4633B-ms98-a-0045	B.67	261.924875	262.004875		a	a
sw4633B-ms98-a-0045	B.67	262.004875	262.324875		lot	lot
sw4633B-ms98-a-0045	B.67	262.324875	262.586000		of	of
sw4633B-ms98-a-0045	B.67	262.586000	263.022875		[silence]	[silence]
sw4633B-ms98-a-0045	B.67	263.022875	263.334875		people	people
sw4633B-ms98-a-0045	B.67	263.334875	263.704875		moving	moving
sw4633B-ms98-a-0045	B.67	263.704875	263.924875		here	here
sw4633B-ms98-a-0045	B.67	263.924875	264.184875		from	from
sw4633B-ms98-a-0045	B.67	264.184875	264.934875		[silence]	[silence]
sw4633B-ms98-a-0045	B.67	264.934875	265.604875		Boston	Boston
sw4633B-ms98-a-0045	B.67	265.604875	265.824875		and	and
sw4633B-ms98-a-0045	B.67	265.824875	266.304875		[silence]	[silence]
sw4633B-ms98-a-0045	B.67	266.304875	266.484875		and	and
sw4633B-ms98-a-0045	B.67	266.484875	266.814875		different	different
sw4633B-ms98-a-0045	B.67	266.814875	267.324875		areas	areas
sw4633B-ms98-a-0045	B.67	267.324875	267.684875		[silence]	[silence]
sw4633B-ms98-a-0045	B.67	267.684875	267.834875		and	and
sw4633B-ms98-a-0045	B.67	267.834875	268.024875		from	from
sw4633B-ms98-a-0045	B.67	268.024875	268.504875		talking	talking
sw4633B-ms98-a-0045	B.67	268.504875	268.594875		to	to
sw4633B-ms98-a-0045	B.67	268.594875	268.944875		them	them
sw4633B-ms98-a-0045	B.67	268.944875	269.104875		they're	they're
sw4633B-ms98-a-0045	B.67	269.104875	269.680625		shocked	shocked
sw4633B-ms98-a-0045	B.69	269.680625	270.148750		[silence]	[silence]
sw4633B-ms98-a-0046	B.69	270.148750	270.768750		[silence]	[silence]
sw4633B-ms98-a-0046	B.69	270.768750	270.997125		Wha-	wha[t]-
sw4633B-ms98-a-0046	B.69	270.997125	271.078875		[silence]	[silence]
sw4633B-ms98-a-0046	B.69	271.078875	271.498750		and	and
sw4633B-ms98-a-0046	B.69	271.498750	271.708750		they	they
sw4633B-ms98-a-0046	B.69	271.708750	272.178750		you	you
sw4633B-ms98-a-0046	B.69	272.178750	272.308750		know	know
sw4633B-ms98-a-0046	B.69	272.308750	272.448750		the	the
sw4633B-ms98-a-0046	B.69	272.448750	272.948750		housing	housing
sw4633B-ms98-a-0046	B.69	272.948750	272.948750	<INS>	is	---
sw4633B-ms98-a-0046	B.69	272.948750	273.177000		so	so
sw4633B-ms98-a-0046	B.69	273.177000	273.233500		[silence]	[silence]
sw4633B-ms98-a-0046	B.69	273.233500	273.734750		cheap	cheap
sw4633B-ms98-a-0046	B.71	273.734750	274.115250		[silence]	[silence]
sw4633B-ms98-a-0046	B.71	274.115250	274.328750		in	in
sw4633B-ms98-a-0046	B.71	274.328750	274.948750		comparison	comparison
sw4633B-ms98-a-0046	B.71	274.948750	275.038750		to	to
sw4633B-ms98-a-0046	B.71	275.038750	275.538750		Boston	Boston
sw4633B-ms98-a-0046	B.73	275.538750	275.838750		[silence]	[silence]
sw4633B-ms98-a-0046	B.73	275.838750	275.988750		that	that
sw4633B-ms98-a-0046	B.73	275.988750	276.158750		they	they
sw4633B-ms98-a-0046	B.73	276.158750	276.568750		jump	jump
sw4633B-ms98-a-0046	B.73	276.568750	276.788750		on	on
sw4633B-ms98-a-0046	B.73	276.788750	276.898750		it	it
sw4633B-ms98-a-0046	B.73	276.898750	277.028750		They	they
sw4633B-ms98-a-0046	B.73	277.028750	277.348750		sell	sell
sw4633B-ms98-a-0046	B.73	277.348750	277.478750		their	their
sw4633B-ms98-a-0046	B.73	277.478750	277.898750		house	house
sw4633B-ms98-a-0046	B.73	277.898750	278.028750		they	they
sw4633B-ms98-a-0046	B.73	278.028750	278.428750		stash	stash
sw4633B-ms98-a-0046	B.73	278.428750	278.843000		away	away
sw4633B-ms98-a-0046	B.73	278.843000	279.072750		[silence]	[silence]
sw4633B-ms98-a-0046	B.73	279.072750	279.185000		a	a
sw4633B-ms98-a-0046	B.73	279.185000	279.275500		[silence]	[silence]
sw4633B-ms98-a-0046	B.73	279.275500	279.488750		good	good
sw4633B-ms98-a-0046	B.73	279.488750	279.648750		bit	bit
sw4633B-ms98-a-0046	B.73	279.648750	279.708750		of	of
sw4633B-ms98-a-0046	B.73	279.708750	280.117875		money	money
sw4633B-ms98-a-0046	B.73	280.117875	280.348875		[silence]	[silence]
sw4633B-ms98-a-0047	B.73	280.348875	280.640375		[silence]	[silence]
sw4633B-ms98-a-0047	B.73	280.640375	280.838875		and	and
sw4633B-ms98-a-0047	B.73	280.838875	281.158875		come	come
sw4633B-ms98-a-0047	B.73	281.158875	281.438875		down	down
sw4633B-ms98-a-0047	B.73	281.438875	281.588875		here	here
sw4633B-ms98-a-0047	B.73	281.588875	281.678875		and	and
sw4633B-ms98-a-0047	B.73	281.678875	281.738875		I	i
sw4633B-ms98-a-0047	B.73	281.738875	282.028875		work	work
sw4633B-ms98-a-0047	B.73	282.028875	282.168875		with	with
sw4633B-ms98-a-0047	B.73	282.168875	282.198875		a	a
sw4633B-ms98-a-0047	B.73	282.198875	282.488875		lot	lot
sw4633B-ms98-a-0047	B.73	282.488875	282.668875		of	of
sw4633B-ms98-a-0047	B.73	282.668875	282.858875		them	them_1
sw4633B-ms98-a-0047	B.73	282.858875	283.031750		they	they
sw4633B-ms98-a-0047	B.73	283.031750	283.186125		[silence]	[silence]
sw4633B-ms98-a-0047	B.73	283.186125	283.348875		they	they
sw4633B-ms98-a-0047	B.73	283.348875	283.668875		think	think
sw4633B-ms98-a-0047	B.73	283.668875	283.881500		they	they
sw4633B-ms98-a-0047	B.73	283.881500	284.190375		[silence]	[silence]
sw4633B-ms98-a-0047	B.73	284.190375	284.388875	<CONT>	they	they've
sw4633B-ms98-a-0047	B.73	284.388875	284.388875	<CONT>	have	+++
sw4633B-ms98-a-0047	B.73	284.388875	284.642000		really	really
sw4633B-ms98-a-0047	B.73	284.642000	284.679750		[silence]	[silence]
sw4633B-ms98-a-0047	B.73	284.679750	284.918875		done	done
sw4633B-ms98-a-0047	B.73	284.918875	285.358875		something	something
sw4633B-ms98-a-0047	B.73	285.358875	285.518875		Then	then
sw4633B-ms98-a-0047	B.73	285.518875	285.618875		when	when
sw4633B-ms98-a-0047	B.73	285.618875	285.728875		they	they
sw4633B-ms98-a-0047	B.73	285.728875	285.928875		get	get
sw4633B-ms98-a-0047	B.73	285.928875	286.148875		down	down
sw4633B-ms98-a-0047	B.73	286.148875	286.338875		here	here
sw4633B-ms98-a-0047	B.73	286.338875	286.458875		they	they
sw4633B-ms98-a-0047	B.73	286.458875	286.938875		realize	realize
sw4633B-ms98-a-0047	B.73	286.938875	287.028875		the	the
sw4633B-ms98-a-0047	B.73	287.028875	287.428875		cost	cost
sw4633B-ms98-a-0047	B.73	287.428875	287.488875		of	of
sw4633B-ms98-a-0047	B.73	287.488875	287.768875		living	living
sw4633B-ms98-a-0047	B.73	287.768875	287.878875		is	is
sw4633B-ms98-a-0047	B.73	287.878875	288.629125		outrageous	outrageous
sw4633B-ms98-a-0047	B.75	288.629125	288.860250		[silence]	[silence]
sw4633B-ms98-a-0048	B.75	288.860250	289.245375		[silence]	[silence]
sw4633B-ms98-a-0048	B.75	289.245375	289.750250		compared	compared
sw4633B-ms98-a-0048	B.75	289.750250	289.893125		to	to
sw4633B-ms98-a-0048	B.75	289.893125	290.642625		[silence]	[silence]
sw4633B-ms98-a-0048	B.75	290.642625	290.780250		to	to
sw4633B-ms98-a-0048	B.75	290.780250	290.940250		where	where
sw4633B-ms98-a-0048	B.75	290.940250	291.070250		they	they
sw4633B-ms98-a-0048	B.75	291.070250	291.410250		came	came
sw4633B-ms98-a-0048	B.75	291.410250	291.770250		from	from
sw4633B-ms98-a-0048	B.77	291.770250	291.940250		The	the
sw4633B-ms98-a-0048	B.77	291.940250	292.470250	<CONT>	housing	housing's
sw4633B-ms98-a-0048	B.77	292.470250	292.470250	<CONT>	is	+++
sw4633B-ms98-a-0048	B.77	292.470250	292.830250		cheaper	cheaper
sw4633B-ms98-a-0048	B.77	292.830250	292.980250		but	but
sw4633B-ms98-a-0048	B.77	292.980250	293.210250		that's	that's
sw4633B-ms98-a-0048	B.77	293.210250	293.590250		about	about
sw4633B-ms98-a-0048	B.77	293.590250	294.045750		it	it
sw4633B-ms98-a-0048	B.77	294.045750	294.536250		[silence]	[silence]
sw4633B-ms98-a-0049	B.77	294.536250	298.306000		[silence]	[silence]
