sw4796A-ms98-a-0001	A.1	0.000000	0.004000		[silence]	[silence]
sw4796A-ms98-a-0001	A.1	0.004000	0.016125		[noise]	[noise]
sw4796A-ms98-a-0001	A.1	0.016125	0.190000	<SUB>	Okay	-[o]kay
sw4796A-ms98-a-0001	A.1	0.190000	0.500000		Randall	Randall
sw4796A-ms98-a-0001	A.1	0.500000	0.752625		uh	uh
sw4796A-ms98-a-0001	A.1	0.752625	1.050750		[silence]	[silence]
sw4796A-ms98-a-0001	A.1	1.050750	1.380000		uh	uh
sw4796A-ms98-a-0001	A.1	1.380000	1.820000		do	do
sw4796A-ms98-a-0001	A.1	1.820000	1.930000		you	you
sw4796A-ms98-a-0001	A.1	1.930000	2.090000		have	have
sw4796A-ms98-a-0001	A.1	2.090000	2.330000		any	any
sw4796A-ms98-a-0001	A.1	2.330000	2.740000		special	special
sw4796A-ms98-a-0001	A.1	2.740000	3.200000		interest	interest
sw4796A-ms98-a-0001	A.1	3.200000	3.420000		in	in
sw4796A-ms98-a-0001	A.1	3.420000	3.560000		uh	uh
sw4796A-ms98-a-0001	A.1	3.560000	3.880000		space	space
sw4796A-ms98-a-0001	A.1	3.880000	4.138375		flight	flight
sw4796A-ms98-a-0001	A.3	4.138375	4.643875		[silence]	[silence]
sw4796A-ms98-a-0002	A.3	4.643875	12.824125		[silence]	[silence]
sw4796A-ms98-a-0003	A.3	12.824125	13.254125		[silence]	[silence]
sw4796A-ms98-a-0003	A.3	13.254125	13.633500		Uh-huh	uh-huh
sw4796A-ms98-a-0003	A.5	13.633500	13.862250		[silence]	[silence]
sw4796A-ms98-a-0004	A.5	13.862250	13.866250		[silence]	[silence]
sw4796A-ms98-a-0004	A.5	13.866250	14.565375		[laughter]	[laughter]
sw4796A-ms98-a-0004	A.5	14.565375	14.935125		[silence]	[silence]
sw4796A-ms98-a-0005	A.5	14.935125	21.352875		[silence]	[silence]
sw4796A-ms98-a-0006	A.5	21.352875	21.742875		[silence]	[silence]
sw4796A-ms98-a-0006	A.5	21.742875	22.046375	<SUB>	Uh-huh	um-hum
sw4796A-ms98-a-0006	A.7	22.046375	22.337500		[silence]	[silence]
sw4796A-ms98-a-0007	A.7	22.337500	23.460250		[silence]	[silence]
sw4796A-ms98-a-0008	A.7	23.460250	23.692750		[silence]	[silence]
sw4796A-ms98-a-0008	A.7	23.692750	24.069375		Yeah	yeah
sw4796A-ms98-a-0008	A.9	24.069375	24.553000		[silence]	[silence]
sw4796A-ms98-a-0009	A.9	24.553000	35.125125		[silence]	[silence]
sw4796A-ms98-a-0010	A.9	35.125125	35.638250		[silence]	[silence]
sw4796A-ms98-a-0010	A.9	35.638250	35.915125	<SUB>	Uh-huh	um-hum
sw4796A-ms98-a-0010	A.11	35.915125	36.394000		[silence]	[silence]
sw4796A-ms98-a-0011	A.11	36.394000	43.943750		[silence]	[silence]
sw4796A-ms98-a-0012	A.11	43.943750	44.337375		[silence]	[silence]
sw4796A-ms98-a-0012	A.11	44.337375	44.641000	<SUB>	Uh-huh	um-hum
sw4796A-ms98-a-0012	A.13	44.641000	45.138125		[silence]	[silence]
sw4796A-ms98-a-0013	A.13	45.138125	47.212875		[silence]	[silence]
sw4796A-ms98-a-0014	A.13	47.212875	47.685000		[silence]	[silence]
sw4796A-ms98-a-0014	A.13	47.685000	48.489625		[laughter]	[laughter]
sw4796A-ms98-a-0014	A.13	48.489625	48.622875		What	what
sw4796A-ms98-a-0014	A.13	48.622875	48.692875		do	do
sw4796A-ms98-a-0014	A.13	48.692875	48.802875		you	you
sw4796A-ms98-a-0014	A.13	48.802875	48.974125		do	do
sw4796A-ms98-a-0014	A.13	48.974125	49.247125		now	now
sw4796A-ms98-a-0014	A.15	49.247125	49.437625		[silence]	[silence]
sw4796A-ms98-a-0015	A.15	49.437625	50.572875		[silence]	[silence]
sw4796A-ms98-a-0016	A.15	50.572875	50.991500		[silence]	[silence]
sw4796A-ms98-a-0016	A.15	50.991500	51.279375		Oh	oh
sw4796A-ms98-a-0016	A.17	51.279375	51.949875		[silence]	[silence]
sw4796A-ms98-a-0017	A.17	51.949875	53.030000		[silence]	[silence]
sw4796A-ms98-a-0018	A.17	53.030000	53.475375		[silence]	[silence]
sw4796A-ms98-a-0018	A.17	53.475375	55.449625		Yeah	[laughter-yeah]
sw4796A-ms98-a-0018	A.17	55.449625	55.468375		[silence]	[silence]
sw4796A-ms98-a-0019	A.17	55.468375	55.543250		[silence]	[silence]
sw4796A-ms98-a-0019	A.17	55.543250	55.668375		To	to
sw4796A-ms98-a-0019	A.17	55.668375	55.958375		bad	bad
sw4796A-ms98-a-0019	A.17	55.958375	56.103750	<SUB>	huh	uh
sw4796A-ms98-a-0019	A.21	56.103750	57.606250		[laughter]	[laughter]
sw4796A-ms98-a-0019	A.21	57.606250	58.081375		[silence]	[silence]
sw4796A-ms98-a-0020	A.21	58.081375	59.123750		[silence]	[silence]
sw4796A-ms98-a-0021	A.21	59.123750	59.562250		[silence]	[silence]
sw4796A-ms98-a-0021	A.21	59.562250	62.462250		[laughter]	[laughter]
sw4796A-ms98-a-0021	A.21	62.462250	62.879625		[silence]	[silence]
sw4796A-ms98-a-0022	A.21	62.879625	71.277875		[silence]	[silence]
sw4796A-ms98-a-0023	A.21	71.277875	71.771000		[silence]	[silence]
sw4796A-ms98-a-0023	A.21	71.771000	72.092625	<SUB>	Uh-huh	um-hum
sw4796A-ms98-a-0023	A.21	72.092625	72.418125		[silence]	[silence]
sw4796A-ms98-a-0023	A.21	72.418125	72.725875	<SUB>	uh-huh	um-hum
sw4796A-ms98-a-0023	A.23	72.725875	73.151500		[silence]	[silence]
sw4796A-ms98-a-0024	A.23	73.151500	74.653375		[silence]	[silence]
sw4796A-ms98-a-0025	A.23	74.653375	75.155375		[silence]	[silence]
sw4796A-ms98-a-0025	A.23	75.155375	75.435875	<SUB>	Uh-huh	um-hum
sw4796A-ms98-a-0025	A.25	75.435875	75.922750		[silence]	[silence]
sw4796A-ms98-a-0026	A.25	75.922750	77.546125		[silence]	[silence]
sw4796A-ms98-a-0027	A.25	77.546125	78.037750		[silence]	[silence]
sw4796A-ms98-a-0027	A.25	78.037750	78.304125		Well	well
sw4796A-ms98-a-0027	A.25	78.304125	78.570375		uh	uh
sw4796A-ms98-a-0027	A.25	78.570375	78.717250	<SUB>	yo-	yeah
sw4796A-ms98-a-0027	A.25	78.717250	78.953500		I	i
sw4796A-ms98-a-0027	A.25	78.953500	79.217250		[silence]	[silence]
sw4796A-ms98-a-0027	A.25	79.217250	79.468125		uh	uh
sw4796A-ms98-a-0027	A.25	79.468125	79.696125		[vocalized-noise]	[vocalized-noise]
sw4796A-ms98-a-0027	A.25	79.696125	80.124750		I'm	i'm
sw4796A-ms98-a-0027	A.25	80.124750	80.527750		[silence]	[silence]
sw4796A-ms98-a-0027	A.25	80.527750	80.676125		kind	kind
sw4796A-ms98-a-0027	A.25	80.676125	80.756125		of	of
sw4796A-ms98-a-0027	A.25	80.756125	81.096125		young	young
sw4796A-ms98-a-0027	A.25	81.096125	81.216125		I'm	i'm
sw4796A-ms98-a-0027	A.25	81.216125	81.408000		only	only
sw4796A-ms98-a-0027	A.25	81.408000	81.696125	<CONT>	twenty-two	twenty
sw4796A-ms98-a-0027	A.25	81.696125	82.016125	<CONT>	+++	two
sw4796A-ms98-a-0027	A.25	82.016125	82.166125		and	and
sw4796A-ms98-a-0027	A.25	82.166125	82.546125		so	so
sw4796A-ms98-a-0027	A.25	82.546125	82.873375		uh	uh
sw4796A-ms98-a-0027	A.25	82.873375	83.387500		[silence]	[silence]
sw4796A-ms98-a-0028	A.25	83.387500	83.614000		[silence]	[silence]
sw4796A-ms98-a-0028	A.25	83.614000	83.996750		[noise]	[noise]
sw4796A-ms98-a-0028	A.25	83.996750	84.607250		uh	uh
sw4796A-ms98-a-0028	A.25	84.607250	85.324500		[silence]	[silence]
sw4796A-ms98-a-0028	A.25	85.324500	85.447500		I'm	i'm
sw4796A-ms98-a-0028	A.25	85.447500	85.737875		not	not
sw4796A-ms98-a-0028	A.25	85.737875	85.922375		[silence]	[silence]
sw4796A-ms98-a-0028	A.25	85.922375	86.157500		you	you
sw4796A-ms98-a-0028	A.25	86.157500	86.371500		know	know
sw4796A-ms98-a-0028	A.25	86.371500	86.642625		[silence]	[silence]
sw4796A-ms98-a-0028	A.25	86.642625	86.777500		there's	there's
sw4796A-ms98-a-0028	A.25	86.777500	86.837500		a	a
sw4796A-ms98-a-0028	A.25	86.837500	87.077500		lot	lot
sw4796A-ms98-a-0028	A.25	87.077500	87.207500		that's	that's
sw4796A-ms98-a-0028	A.25	87.207500	87.637500		happened	happened
sw4796A-ms98-a-0028	A.25	87.637500	87.737500		in	in
sw4796A-ms98-a-0028	A.25	87.737500	87.937500		my	my
sw4796A-ms98-a-0028	A.25	87.937500	88.417500		lifetime	lifetime
sw4796A-ms98-a-0028	A.25	88.417500	88.537500		as	as
sw4796A-ms98-a-0028	A.25	88.537500	88.837500		far	far
sw4796A-ms98-a-0028	A.25	88.837500	89.107500		as	as
sw4796A-ms98-a-0028	A.25	89.107500	89.404500		uh	uh
sw4796A-ms98-a-0028	A.25	89.404500	89.517500		you	you
sw4796A-ms98-a-0028	A.25	89.517500	89.607500		know	know
sw4796A-ms98-a-0028	A.25	89.607500	89.737500		with	with
sw4796A-ms98-a-0028	A.25	89.737500	89.817500		the	the
sw4796A-ms98-a-0028	A.25	89.817500	90.167500		space	space
sw4796A-ms98-a-0028	A.25	90.167500	90.507500		shuttle	shuttle
sw4796A-ms98-a-0028	A.25	90.507500	90.647500		and	and
sw4796A-ms98-a-0028	A.25	90.647500	90.922750		all	all
sw4796A-ms98-a-0028	A.25	90.922750	91.409625		[silence]	[silence]
sw4796A-ms98-a-0029	A.25	91.409625	91.896875		[silence]	[silence]
sw4796A-ms98-a-0029	A.25	91.896875	92.439250		Although	although
sw4796A-ms98-a-0029	A.25	92.439250	92.925125		[silence]	[silence]
sw4796A-ms98-a-0029	A.25	92.925125	93.359625		plans	plans
sw4796A-ms98-a-0029	A.25	93.359625	93.779625		to	to
sw4796A-ms98-a-0029	A.25	93.779625	93.919625		uh	uh
sw4796A-ms98-a-0029	A.25	93.919625	94.029625		go	go
sw4796A-ms98-a-0029	A.25	94.029625	94.199625		to	to
sw4796A-ms98-a-0029	A.25	94.199625	94.429625		other	other
sw4796A-ms98-a-0029	A.25	94.429625	94.929625		planets	planets
sw4796A-ms98-a-0029	A.25	94.929625	95.182875		have	have
sw4796A-ms98-a-0029	A.25	95.182875	95.669625		somewhat	somewhat
sw4796A-ms98-a-0029	A.25	95.669625	95.869625		been	been
sw4796A-ms98-a-0029	A.25	95.869625	96.409625		thwarted	thwarted
sw4796A-ms98-a-0029	A.25	96.409625	96.489625		in	in
sw4796A-ms98-a-0029	A.25	96.489625	97.089625		comparison	comparison
sw4796A-ms98-a-0029	A.25	97.089625	97.389250		to	to
sw4796A-ms98-a-0029	A.25	97.389250	97.673375		uh	uh
sw4796A-ms98-a-0029	A.25	97.673375	97.891375		[silence]	[silence]
sw4796A-ms98-a-0029	A.25	97.891375	97.996875		the	the
sw4796A-ms98-a-0029	A.25	97.996875	98.568250		sixties	sixties
sw4796A-ms98-a-0029	A.27	98.568250	98.993375		[silence]	[silence]
sw4796A-ms98-a-0030	A.27	98.993375	99.294375		[silence]	[silence]
sw4796A-ms98-a-0030	A.27	99.294375	99.700000	<SUB>	Uh	um
sw4796A-ms98-a-0030	A.27	99.700000	100.393000		[silence]	[silence]
sw4796A-ms98-a-0030	A.27	100.393000	100.743375		although	although
sw4796A-ms98-a-0030	A.27	100.743375	100.893375		I	i
sw4796A-ms98-a-0030	A.27	100.893375	101.213375		have	have
sw4796A-ms98-a-0030	A.27	101.213375	101.654125		a	a
sw4796A-ms98-a-0030	A.27	101.654125	101.947875		[noise]	[noise]
sw4796A-ms98-a-0030	A.27	101.947875	102.143375	<SUB>	I	i-
sw4796A-ms98-a-0030	A.27	102.143375	102.273375		I	i
sw4796A-ms98-a-0030	A.27	102.273375	102.503375		kind	kind
sw4796A-ms98-a-0030	A.27	102.503375	102.593375		of	of
sw4796A-ms98-a-0030	A.27	102.593375	103.050125		wonder	wonder
sw4796A-ms98-a-0030	A.27	103.050125	103.904500		[vocalized-noise]	[vocalized-noise]
sw4796A-ms98-a-0030	A.27	103.904500	104.079000		[silence]	[silence]
sw4796A-ms98-a-0031	A.27	104.079000	104.369500		[silence]	[silence]
sw4796A-ms98-a-0031	A.27	104.369500	104.773500		uh	uh
sw4796A-ms98-a-0031	A.27	104.773500	105.243125		if	if
sw4796A-ms98-a-0031	A.27	105.243125	105.628375		[silence]	[silence]
sw4796A-ms98-a-0032	A.27	105.628375	106.025500		[silence]	[silence]
sw4796A-ms98-a-0032	A.27	106.025500	106.454125		some	some
sw4796A-ms98-a-0032	A.27	106.454125	106.548125		[silence]	[silence]
sw4796A-ms98-a-0032	A.27	106.548125	106.698375		if	if
sw4796A-ms98-a-0032	A.27	106.698375	106.798375		it	it
sw4796A-ms98-a-0032	A.27	106.798375	106.928375		were	were
sw4796A-ms98-a-0032	A.27	106.928375	107.458375		possible	possible
sw4796A-ms98-a-0032	A.27	107.458375	107.628375		to	to
sw4796A-ms98-a-0032	A.27	107.628375	108.085250		market	market
sw4796A-ms98-a-0032	A.27	108.085250	108.605125		[silence]	[silence]
sw4796A-ms98-a-0032	A.27	108.605125	109.032875		some	some
sw4796A-ms98-a-0032	A.27	109.032875	109.258375		uh	uh
sw4796A-ms98-a-0032	A.27	109.258375	109.578375		form	form
sw4796A-ms98-a-0032	A.27	109.578375	109.792625		of	of
sw4796A-ms98-a-0032	A.27	109.792625	110.395250		[silence]	[silence]
sw4796A-ms98-a-0032	A.27	110.395250	110.858375		uh	uh
sw4796A-ms98-a-0032	A.27	110.858375	111.198375		space	space
sw4796A-ms98-a-0032	A.27	111.198375	112.032250		technology	technology
sw4796A-ms98-a-0032	A.27	112.032250	112.280875		[silence]	[silence]
sw4796A-ms98-a-0032	A.27	112.280875	112.388375		you	you
sw4796A-ms98-a-0032	A.27	112.388375	112.528375		know	know
sw4796A-ms98-a-0032	A.27	112.528375	112.808375		to	to
sw4796A-ms98-a-0032	A.27	112.808375	113.028125		uh	uh
sw4796A-ms98-a-0032	A.27	113.028125	113.604500		[silence]	[silence]
sw4796A-ms98-a-0033	A.27	113.604500	114.006625		[silence]	[silence]
sw4796A-ms98-a-0033	A.27	114.006625	114.444500		uh	uh
sw4796A-ms98-a-0033	A.27	114.444500	114.584500		to	to
sw4796A-ms98-a-0033	A.27	114.584500	114.754500		make	make
sw4796A-ms98-a-0033	A.27	114.754500	114.834500		it	it
sw4796A-ms98-a-0033	A.27	114.834500	115.396375		equitable	equitable
sw4796A-ms98-a-0033	A.27	115.396375	115.953750		[silence]	[silence]
sw4796A-ms98-a-0033	A.27	115.953750	116.148250		it	it
sw4796A-ms98-a-0033	A.27	116.148250	116.374500		might	might
sw4796A-ms98-a-0033	A.27	116.374500	116.615625		[silence]	[silence]
sw4796A-ms98-a-0033	A.27	116.615625	117.034500		severely	severely
sw4796A-ms98-a-0033	A.27	117.034500	117.234500		help	help
sw4796A-ms98-a-0033	A.27	117.234500	117.314500		the	the
sw4796A-ms98-a-0033	A.27	117.314500	117.894500		economy	economy
sw4796A-ms98-a-0033	A.27	117.894500	118.014500		you	you
sw4796A-ms98-a-0033	A.27	118.014500	118.154500		know	know
sw4796A-ms98-a-0033	A.27	118.154500	118.254500		in	in
sw4796A-ms98-a-0033	A.27	118.254500	118.454750		the	the
sw4796A-ms98-a-0033	A.27	118.454750	118.695750		[silence]	[silence]
sw4796A-ms98-a-0033	A.27	118.695750	118.968125		in	in
sw4796A-ms98-a-0033	A.27	118.968125	119.202750		the	the
sw4796A-ms98-a-0033	A.27	119.202750	119.563375		[silence]	[silence]
sw4796A-ms98-a-0034	A.27	119.563375	120.260375		[silence]	[silence]
sw4796A-ms98-a-0034	A.27	120.260375	121.035875		uh	uh
sw4796A-ms98-a-0034	A.27	121.035875	121.523375		respect	respect
sw4796A-ms98-a-0034	A.27	121.523375	121.682875		that	that
sw4796A-ms98-a-0034	A.27	121.682875	122.752625		[noise]	[noise]
sw4796A-ms98-a-0034	A.27	122.752625	122.873375		you	you
sw4796A-ms98-a-0034	A.27	122.873375	123.003375		know	know
sw4796A-ms98-a-0034	A.27	123.003375	123.250875		there's	there's
sw4796A-ms98-a-0034	A.27	123.250875	123.612375		[silence]	[silence]
sw4796A-ms98-a-0034	A.27	123.612375	123.903375		endless	endless
sw4796A-ms98-a-0034	A.27	123.903375	124.293375		amounts	amounts
sw4796A-ms98-a-0034	A.27	124.293375	124.532375		of	of
sw4796A-ms98-a-0034	A.27	124.532375	124.743375		[silence]	[silence]
sw4796A-ms98-a-0034	A.27	124.743375	125.283375		research	research
sw4796A-ms98-a-0034	A.27	125.283375	125.373375		to	to
sw4796A-ms98-a-0034	A.27	125.373375	125.503375		be	be
sw4796A-ms98-a-0034	A.27	125.503375	125.823375		done	done
sw4796A-ms98-a-0034	A.27	125.823375	126.113375		Endless	endless
sw4796A-ms98-a-0034	A.27	126.113375	126.473375		amounts	amounts
sw4796A-ms98-a-0034	A.27	126.473375	126.678875		of	of
sw4796A-ms98-a-0034	A.27	126.678875	127.306125		[silence]	[silence]
sw4796A-ms98-a-0034	A.27	127.306125	128.083375		resources	resources
sw4796A-ms98-a-0034	A.27	128.083375	128.337875		and	and
sw4796A-ms98-a-0034	A.29	128.337875	128.857625		[silence]	[silence]
sw4796A-ms98-a-0034	A.29	128.857625	129.053375		and	and
sw4796A-ms98-a-0034	A.29	129.053375	129.253375	<CONT>	whatnot	what
sw4796A-ms98-a-0034	A.29	129.253375	129.383375	<CONT>	+++	not
sw4796A-ms98-a-0034	A.29	129.383375	129.443375		it	it
sw4796A-ms98-a-0034	A.29	129.443375	129.553375		would	would
sw4796A-ms98-a-0034	A.29	129.553375	129.673375		be	be
sw4796A-ms98-a-0034	A.29	129.673375	130.023375		great	great
sw4796A-ms98-a-0034	A.31	130.023375	130.227625		if	if
sw4796A-ms98-a-0034	A.31	130.227625	130.453375		we	we
sw4796A-ms98-a-0034	A.31	130.453375	130.583375		could	could
sw4796A-ms98-a-0034	A.31	130.583375	130.933375		find	find
sw4796A-ms98-a-0034	A.31	130.933375	131.213375		some	some
sw4796A-ms98-a-0034	A.31	131.213375	131.383375		way	way
sw4796A-ms98-a-0034	A.31	131.383375	131.683375		to	to
sw4796A-ms98-a-0034	A.31	131.683375	132.023375		to	to
sw4796A-ms98-a-0034	A.31	132.023375	132.103375		uh	uh
sw4796A-ms98-a-0034	A.31	132.103375	132.373375		use	use
sw4796A-ms98-a-0034	A.31	132.373375	132.553375		that	that
sw4796A-ms98-a-0034	A.31	132.553375	132.663375		to	to
sw4796A-ms98-a-0034	A.31	132.663375	132.903375		boost	boost
sw4796A-ms98-a-0034	A.31	132.903375	132.973375		the	the
sw4796A-ms98-a-0034	A.31	132.973375	133.640125		economy	economy
sw4796A-ms98-a-0034	A.33	133.640125	134.106875		[silence]	[silence]
sw4796A-ms98-a-0035	A.33	134.106875	151.128375		[silence]	[silence]
sw4796A-ms98-a-0036	A.33	151.128375	151.627750		[silence]	[silence]
sw4796A-ms98-a-0036	A.33	151.627750	152.000625	<SUB>	Uh-huh	um-hum
sw4796A-ms98-a-0036	A.35	152.000625	152.495375		[silence]	[silence]
sw4796A-ms98-a-0037	A.35	152.495375	165.006250		[silence]	[silence]
sw4796A-ms98-a-0038	A.35	165.006250	165.509375		[silence]	[silence]
sw4796A-ms98-a-0038	A.35	165.509375	166.146250		Exactly	exactly
sw4796A-ms98-a-0038	A.37	166.146250	166.589375		[silence]	[silence]
sw4796A-ms98-a-0039	A.37	166.589375	168.501750		[silence]	[silence]
sw4796A-ms98-a-0040	A.37	168.501750	169.007000		[silence]	[silence]
sw4796A-ms98-a-0040	A.37	169.007000	169.322000	<SUB>	Uh-huh	um-hum
sw4796A-ms98-a-0040	A.39	169.322000	170.193375		[silence]	[silence]
sw4796A-ms98-a-0041	A.39	170.193375	171.063250		[silence]	[silence]
sw4796A-ms98-a-0041	A.39	171.063250	171.333125	<SUB>	Uh-huh	um-hum
sw4796A-ms98-a-0041	A.41	171.333125	171.808125		[silence]	[silence]
sw4796A-ms98-a-0042	A.41	171.808125	192.879250		[silence]	[silence]
sw4796A-ms98-a-0043	A.41	192.879250	193.380625		[silence]	[silence]
sw4796A-ms98-a-0043	A.41	193.380625	193.737750		Right	right
sw4796A-ms98-a-0043	A.41	193.737750	193.996875		[silence]	[silence]
sw4796A-ms98-a-0043	A.41	193.996875	194.139250		Yeah	yeah
sw4796A-ms98-a-0043	A.41	194.139250	194.229250		It	it
sw4796A-ms98-a-0043	A.41	194.229250	194.469250		seems	seems
sw4796A-ms98-a-0043	A.41	194.469250	194.719250		like	like
sw4796A-ms98-a-0043	A.41	194.719250	194.977000		uh	uh
sw4796A-ms98-a-0043	A.41	194.977000	195.267500		[silence]	[silence]
sw4796A-ms98-a-0043	A.41	195.267500	195.448250		there's	there's
sw4796A-ms98-a-0043	A.41	195.448250	195.609250	<DEL>	---	uh
sw4796A-ms98-a-0043	A.41	195.609250	195.709250		so	so
sw4796A-ms98-a-0043	A.41	195.709250	195.819250		you're	you're
sw4796A-ms98-a-0043	A.41	195.819250	196.099250		talking	talking
sw4796A-ms98-a-0043	A.41	196.099250	196.289250		about	about
sw4796A-ms98-a-0043	A.41	196.289250	196.679250		positive	positive
sw4796A-ms98-a-0043	A.41	196.679250	196.889250		side	side
sw4796A-ms98-a-0043	A.41	196.889250	197.249250		effects	effects
sw4796A-ms98-a-0043	A.41	197.249250	197.506375		then	then
sw4796A-ms98-a-0043	A.43	197.506375	197.973375		[silence]	[silence]
sw4796A-ms98-a-0043	A.43	197.973375	198.309250		Okay	okay
sw4796A-ms98-a-0043	A.43	198.309250	198.449250		I	i
sw4796A-ms98-a-0043	A.43	198.449250	198.867000		understand	understand
sw4796A-ms98-a-0043	A.45	198.867000	199.434875		[silence]	[silence]
sw4796A-ms98-a-0044	A.45	199.434875	199.813250		[silence]	[silence]
sw4796A-ms98-a-0044	A.45	199.813250	200.226750		Sure	sure
sw4796A-ms98-a-0044	A.45	200.226750	200.436500	<DEL>	---	th[at]-
sw4796A-ms98-a-0044	A.45	200.436500	200.594875		that	that
sw4796A-ms98-a-0044	A.45	200.594875	200.764875		makes	makes
sw4796A-ms98-a-0044	A.45	200.764875	200.824875		a	a
sw4796A-ms98-a-0044	A.45	200.824875	200.964875		lot	lot
sw4796A-ms98-a-0044	A.45	200.964875	201.034875		of	of
sw4796A-ms98-a-0044	A.45	201.034875	201.445625		sense	sense
sw4796A-ms98-a-0044	A.47	201.445625	201.940250		[silence]	[silence]
sw4796A-ms98-a-0045	A.47	201.940250	206.216375		[silence]	[silence]
sw4796A-ms98-a-0046	A.47	206.216375	206.726375		[silence]	[silence]
sw4796A-ms98-a-0046	A.47	206.726375	207.018125	<SUB>	Uh-huh	um-hum
sw4796A-ms98-a-0046	A.49	207.018125	207.491750		[silence]	[silence]
sw4796A-ms98-a-0047	A.49	207.491750	210.888125		[silence]	[silence]
sw4796A-ms98-a-0048	A.49	210.888125	211.394875		[silence]	[silence]
sw4796A-ms98-a-0048	A.49	211.394875	211.618875		Yeah	yeah
sw4796A-ms98-a-0048	A.51	211.618875	212.432750		[silence]	[silence]
sw4796A-ms98-a-0049	A.51	212.432750	213.202500		[silence]	[silence]
sw4796A-ms98-a-0049	A.51	213.202500	213.495375		Yeah	yeah
sw4796A-ms98-a-0049	A.53	213.495375	214.003000		[silence]	[silence]
sw4796A-ms98-a-0050	A.53	214.003000	227.115875		[silence]	[silence]
sw4796A-ms98-a-0051	A.53	227.115875	227.610625		[silence]	[silence]
sw4796A-ms98-a-0051	A.53	227.610625	227.845875		Right	right
sw4796A-ms98-a-0051	A.53	227.845875	228.434875		exactly	exactly
sw4796A-ms98-a-0051	A.55	228.434875	228.882000		[silence]	[silence]
sw4796A-ms98-a-0052	A.55	228.882000	243.805750		[silence]	[silence]
sw4796A-ms98-a-0053	A.55	243.805750	244.300875		[silence]	[silence]
sw4796A-ms98-a-0053	A.55	244.300875	244.622875	<SUB>	Uh-huh	um-hum
sw4796A-ms98-a-0053	A.57	244.622875	245.064750		[silence]	[silence]
sw4796A-ms98-a-0054	A.57	245.064750	249.496875		[silence]	[silence]
sw4796A-ms98-a-0055	A.57	249.496875	249.995125		[silence]	[silence]
sw4796A-ms98-a-0055	A.57	249.995125	250.276875	<SUB>	Uh-huh	um-hum
sw4796A-ms98-a-0055	A.59	250.276875	250.739000		[silence]	[silence]
sw4796A-ms98-a-0056	A.59	250.739000	258.849000		[silence]	[silence]
sw4796A-ms98-a-0057	A.59	258.849000	259.339000		[silence]	[silence]
sw4796A-ms98-a-0057	A.59	259.339000	259.699000		Right	right
sw4796A-ms98-a-0057	A.61	259.699000	260.198625		[silence]	[silence]
sw4796A-ms98-a-0058	A.61	260.198625	263.083625		[silence]	[silence]
sw4796A-ms98-a-0059	A.61	263.083625	263.582500		[silence]	[silence]
sw4796A-ms98-a-0059	A.61	263.582500	263.895875	<SUB>	Uh-huh	um-hum
sw4796A-ms98-a-0059	A.63	263.895875	264.375875		[silence]	[silence]
sw4796A-ms98-a-0060	A.63	264.375875	267.912500		[silence]	[silence]
sw4796A-ms98-a-0061	A.63	267.912500	268.420375		[silence]	[silence]
sw4796A-ms98-a-0061	A.63	268.420375	269.449000		Exactly	[laughter-exactly]
sw4796A-ms98-a-0061	A.63	269.449000	269.510625		[silence]	[silence]
sw4796A-ms98-a-0062	A.63	269.510625	269.731250		[silence]	[silence]
sw4796A-ms98-a-0062	A.63	269.731250	269.930625		Least	least
sw4796A-ms98-a-0062	A.63	269.930625	270.222750	<SUB>	not	nothing
sw4796A-ms98-a-0062	A.65	270.222750	270.681375		[silence]	[silence]
sw4796A-ms98-a-0063	A.65	270.681375	276.784250		[silence]	[silence]
sw4796A-ms98-a-0064	A.65	276.784250	277.294250		[silence]	[silence]
sw4796A-ms98-a-0064	A.65	277.294250	277.573500		Yeah	yeah
sw4796A-ms98-a-0064	A.67	277.573500	278.062500		[silence]	[silence]
sw4796A-ms98-a-0065	A.67	278.062500	281.221000		[silence]	[silence]
sw4796A-ms98-a-0066	A.67	281.221000	281.725375		[silence]	[silence]
sw4796A-ms98-a-0066	A.67	281.725375	281.981625		Right	right
sw4796A-ms98-a-0066	A.69	281.981625	282.228250		[silence]	[silence]
sw4796A-ms98-a-0066	A.69	282.228250	282.411000		Now	now
sw4796A-ms98-a-0066	A.69	282.411000	282.791000		we're	we're
sw4796A-ms98-a-0066	A.69	282.791000	283.093500		done	done
sw4796A-ms98-a-0066	A.73	283.093500	283.567750		[silence]	[silence]
sw4796A-ms98-a-0067	A.73	283.567750	283.808000		[silence]	[silence]
sw4796A-ms98-a-0067	A.73	283.808000	284.484625		[laughter]	[laughter]
sw4796A-ms98-a-0067	A.73	284.484625	284.692625		[silence]	[silence]
sw4796A-ms98-a-0068	A.73	284.692625	287.732250		[silence]	[silence]
sw4796A-ms98-a-0069	A.73	287.732250	288.324875		[silence]	[silence]
sw4796A-ms98-a-0069	A.73	288.324875	288.681750		Yeah	yeah
sw4796A-ms98-a-0069	A.73	288.681750	289.270500		[silence]	[silence]
sw4796A-ms98-a-0069	A.73	289.270500	289.425000		I	i
sw4796A-ms98-a-0069	A.73	289.425000	289.612250		think	think
sw4796A-ms98-a-0069	A.73	289.612250	289.742250		you're	you're
sw4796A-ms98-a-0069	A.73	289.742250	290.032250		right	right
sw4796A-ms98-a-0069	A.75	290.032250	290.494250		[silence]	[silence]
sw4796A-ms98-a-0070	A.75	290.494250	294.978750		[silence]	[silence]
sw4796A-ms98-a-0071	A.75	294.978750	295.456625		[silence]	[silence]
sw4796A-ms98-a-0071	A.75	295.456625	295.688750		I	i
sw4796A-ms98-a-0071	A.75	295.688750	295.868750		would	would
sw4796A-ms98-a-0071	A.75	295.868750	296.156625		too	too
sw4796A-ms98-a-0071	A.75	296.156625	296.292250		[silence]	[silence]
sw4796A-ms98-a-0071	A.75	296.292250	296.448000		I'd	i'd
sw4796A-ms98-a-0071	A.75	296.448000	296.933875		[silence]	[silence]
sw4796A-ms98-a-0071	A.75	296.933875	297.148750		I'd	i'd
sw4796A-ms98-a-0071	A.75	297.148750	297.367000		uh	uh
sw4796A-ms98-a-0071	A.75	297.367000	297.488750	<DEL>	---	it
sw4796A-ms98-a-0071	A.75	297.488750	297.688750		was	was
sw4796A-ms98-a-0071	A.75	297.688750	297.778750		it	it
sw4796A-ms98-a-0071	A.75	297.778750	297.978750		John	John
sw4796A-ms98-a-0071	A.75	297.978750	298.268750		Denver	Denver
sw4796A-ms98-a-0071	A.75	298.268750	298.428750		that	that
sw4796A-ms98-a-0071	A.75	298.428750	298.668750		that	that
sw4796A-ms98-a-0071	A.75	298.668750	298.908750		tried	tried
sw4796A-ms98-a-0071	A.75	298.908750	299.228750		to	to
sw4796A-ms98-a-0071	A.75	299.228750	299.458750		buy	buy
sw4796A-ms98-a-0071	A.75	299.458750	299.598750		his	his
sw4796A-ms98-a-0071	A.75	299.598750	299.808750		way	way
sw4796A-ms98-a-0071	A.75	299.808750	299.918750		on	on
sw4796A-ms98-a-0071	A.75	299.918750	299.988750		to	to
sw4796A-ms98-a-0071	A.75	299.988750	300.048750		the	the
sw4796A-ms98-a-0071	A.75	300.048750	300.338750		space	space
sw4796A-ms98-a-0071	A.75	300.338750	300.463250	<SUB>	shuttle	shutt[le]-
sw4796A-ms98-a-0071	A.75	300.463250	300.482000		[silence]	[silence]
