sw4733B-ms98-a-0001	B.2	0.000000	0.290000		[silence]	[silence]
sw4733B-ms98-a-0001	B.2	0.290000	1.270000		[noise]	[noise]
sw4733B-ms98-a-0001	B.2	1.270000	1.560000		Uh	uh
sw4733B-ms98-a-0001	B.2	1.560000	1.720000		do	do
sw4733B-ms98-a-0001	B.2	1.720000	1.810000		you	you
sw4733B-ms98-a-0001	B.2	1.810000	2.010000		have	have
sw4733B-ms98-a-0001	B.2	2.010000	2.493125		children	children
sw4733B-ms98-a-0001	B.2	2.493125	2.609875		[silence]	[silence]
sw4733B-ms98-a-0001	B.2	2.609875	2.787125		in	in
sw4733B-ms98-a-0001	B.2	2.787125	3.112375		school	school
sw4733B-ms98-a-0001	B.4	3.112375	3.492875		[silence]	[silence]
sw4733B-ms98-a-0001	B.4	3.492875	4.001375	<SUB>	Uh	um
sw4733B-ms98-a-0001	B.4	4.001375	4.702000		[silence]	[silence]
sw4733B-ms98-a-0001	B.4	4.702000	4.914000		I	i
sw4733B-ms98-a-0001	B.4	4.914000	5.219125		have	have
sw4733B-ms98-a-0001	B.4	5.219125	5.600000		two	two
sw4733B-ms98-a-0001	B.4	5.600000	5.740000		that	that
sw4733B-ms98-a-0001	B.4	5.740000	6.127000		are	are
sw4733B-ms98-a-0001	B.4	6.127000	6.585250		uh	uh
sw4733B-ms98-a-0001	B.4	6.585250	6.811250		[silence]	[silence]
sw4733B-ms98-a-0001	B.4	6.811250	7.100000		now	now
sw4733B-ms98-a-0001	B.4	7.100000	7.280000		just	just
sw4733B-ms98-a-0001	B.4	7.280000	7.420000		about	about_1
sw4733B-ms98-a-0001	B.4	7.420000	7.580000		ready	ready
sw4733B-ms98-a-0001	B.4	7.580000	7.640000		to	to
sw4733B-ms98-a-0001	B.4	7.640000	7.990000		graduate	graduate
sw4733B-ms98-a-0001	B.4	7.990000	8.110000		from	from
sw4733B-ms98-a-0001	B.4	8.110000	8.480000		college	college
sw4733B-ms98-a-0001	B.6	8.480000	8.620000		but	but
sw4733B-ms98-a-0001	B.6	8.620000	8.650000		I	i
sw4733B-ms98-a-0001	B.6	8.650000	8.840000		also	also
sw4733B-ms98-a-0001	B.6	8.840000	8.980000		have	have
sw4733B-ms98-a-0001	B.6	8.980000	9.200000		two	two
sw4733B-ms98-a-0001	B.6	9.200000	9.310000		that	that
sw4733B-ms98-a-0001	B.6	9.310000	9.390000		are	are
sw4733B-ms98-a-0001	B.6	9.390000	9.650000		just	just
sw4733B-ms98-a-0001	B.6	9.650000	10.239250		entering	entering
sw4733B-ms98-a-0001	B.6	10.239250	10.344750		[silence]	[silence]
sw4733B-ms98-a-0001	B.6	10.344750	10.787500		school	school
sw4733B-ms98-a-0001	B.6	10.787500	11.122625		[silence]	[silence]
sw4733B-ms98-a-0001	B.6	11.122625	11.405875	<SUB>	Uh	um
sw4733B-ms98-a-0001	B.8	11.405875	12.092750		[silence]	[silence]
sw4733B-ms98-a-0002	B.8	12.092750	12.822750		[silence]	[silence]
sw4733B-ms98-a-0002	B.8	12.822750	13.342750		Uh	uh
sw4733B-ms98-a-0002	B.8	13.342750	13.736250		well	well
sw4733B-ms98-a-0002	B.10	13.736250	13.760875	<DEL>	---	uh
sw4733B-ms98-a-0002	B.10	13.760875	14.383625		[silence]	[silence]
sw4733B-ms98-a-0003	B.10	14.383625	15.073625		[silence]	[silence]
sw4733B-ms98-a-0003	B.10	15.073625	15.283625		I	i
sw4733B-ms98-a-0003	B.10	15.283625	15.543625		think	think
sw4733B-ms98-a-0003	B.10	15.543625	15.673625		they're	they're
sw4733B-ms98-a-0003	B.10	15.673625	15.893625		just	just
sw4733B-ms98-a-0003	B.10	15.893625	16.333625		pushing	pushing
sw4733B-ms98-a-0003	B.10	16.333625	16.528500		them	them
sw4733B-ms98-a-0003	B.10	16.528500	16.807250		[silence]	[silence]
sw4733B-ms98-a-0003	B.10	16.807250	17.203625		mu-	mu[ch]-
sw4733B-ms98-a-0003	B.10	17.203625	17.733625		entirely	entirely
sw4733B-ms98-a-0003	B.10	17.733625	17.913625		to	to
sw4733B-ms98-a-0003	B.10	17.913625	18.603625		fast	fast
sw4733B-ms98-a-0003	B.12	18.603625	19.213875		[silence]	[silence]
sw4733B-ms98-a-0004	B.12	19.213875	19.903875		[silence]	[silence]
sw4733B-ms98-a-0004	B.12	19.903875	20.443250	<SUB>	Uh	um
sw4733B-ms98-a-0004	B.12	20.443250	20.783875		well	well
sw4733B-ms98-a-0004	B.12	20.783875	20.873875		it	it
sw4733B-ms98-a-0004	B.12	20.873875	21.163875		seems	seems
sw4733B-ms98-a-0004	B.12	21.163875	21.253875		to	to
sw4733B-ms98-a-0004	B.12	21.253875	21.493875		me	me
sw4733B-ms98-a-0004	B.12	21.493875	21.603875		that	that
sw4733B-ms98-a-0004	B.12	21.603875	22.522125		kindergarten	kindergarten
sw4733B-ms98-a-0004	B.12	22.522125	22.763875		is	is
sw4733B-ms98-a-0004	B.12	22.763875	23.163875		now	now
sw4733B-ms98-a-0004	B.12	23.163875	23.283875		the	the
sw4733B-ms98-a-0004	B.12	23.283875	23.753875		equivalent	equivalent
sw4733B-ms98-a-0004	B.12	23.753875	23.813875		of	of
sw4733B-ms98-a-0004	B.12	23.813875	24.173875		first	first
sw4733B-ms98-a-0004	B.12	24.173875	24.686875		grade	grade
sw4733B-ms98-a-0004	B.14	24.686875	24.848875		[silence]	[silence]
sw4733B-ms98-a-0004	B.14	24.848875	25.023875		My	my
sw4733B-ms98-a-0004	B.14	25.023875	25.393875		son	son
sw4733B-ms98-a-0004	B.14	25.393875	25.593875		leaves	leaves
sw4733B-ms98-a-0004	B.14	25.593875	25.673875		the	the
sw4733B-ms98-a-0004	B.14	25.673875	25.913875		house	house
sw4733B-ms98-a-0004	B.14	25.913875	26.003875		at	at
sw4733B-ms98-a-0004	B.14	26.003875	26.293875		seven	seven
sw4733B-ms98-a-0004	B.14	26.293875	26.593875		thirty	thirty
sw4733B-ms98-a-0004	B.14	26.593875	26.713875		and	and
sw4733B-ms98-a-0004	B.14	26.713875	26.973875		doesn't	doesn't
sw4733B-ms98-a-0004	B.14	26.973875	27.113875		get	get
sw4733B-ms98-a-0004	B.14	27.113875	27.313875		home	home
sw4733B-ms98-a-0004	B.14	27.313875	27.633875		until	until
sw4733B-ms98-a-0004	B.14	27.633875	27.853875		three	three
sw4733B-ms98-a-0004	B.14	27.853875	28.494750		o'clock	o'clock
sw4733B-ms98-a-0004	B.16	28.494750	28.885625		[silence]	[silence]
sw4733B-ms98-a-0005	B.16	28.885625	29.264750		[silence]	[silence]
sw4733B-ms98-a-0005	B.16	29.264750	29.348000		And	and
sw4733B-ms98-a-0005	B.16	29.348000	29.428250		I	i
sw4733B-ms98-a-0005	B.16	29.428250	29.575625		think	think
sw4733B-ms98-a-0005	B.16	29.575625	29.735625		that's	that's
sw4733B-ms98-a-0005	B.16	29.735625	29.895625		such	such
sw4733B-ms98-a-0005	B.16	29.895625	29.955625		a	a
sw4733B-ms98-a-0005	B.16	29.955625	30.275625		long	long
sw4733B-ms98-a-0005	B.16	30.275625	30.595625		day	day
sw4733B-ms98-a-0005	B.16	30.595625	31.026500		for	for
sw4733B-ms98-a-0005	B.16	31.026500	31.262375		[silence]	[silence]
sw4733B-ms98-a-0005	B.16	31.262375	31.375000		a	a
sw4733B-ms98-a-0005	B.16	31.375000	32.189250		kindergartner	kindergartner
sw4733B-ms98-a-0005	B.18	32.189250	32.787875		[silence]	[silence]
sw4733B-ms98-a-0006	B.18	32.787875	33.453625		[silence]	[silence]
sw4733B-ms98-a-0006	B.18	33.453625	33.867875		And	and
sw4733B-ms98-a-0006	B.18	33.867875	33.957875		uh	uh
sw4733B-ms98-a-0006	B.18	33.957875	34.107875		I	i
sw4733B-ms98-a-0006	B.18	34.107875	34.257875		have	have
sw4733B-ms98-a-0006	B.18	34.257875	34.337875		a	a
sw4733B-ms98-a-0006	B.18	34.337875	35.197750		preschooler	preschooler
sw4733B-ms98-a-0006	B.18	35.197750	35.653250		[silence]	[silence]
sw4733B-ms98-a-0006	B.18	35.653250	36.244000	<SUB>	Uh	um
sw4733B-ms98-a-0006	B.18	36.244000	36.624500		[silence]	[silence]
sw4733B-ms98-a-0006	B.18	36.624500	36.717875		I	i
sw4733B-ms98-a-0006	B.18	36.717875	36.837875		was	was
sw4733B-ms98-a-0006	B.18	36.837875	37.077875		told	told
sw4733B-ms98-a-0006	B.18	37.077875	37.207875		by	by
sw4733B-ms98-a-0006	B.18	37.207875	37.347875		her	her
sw4733B-ms98-a-0006	B.18	37.347875	37.747875		preschool	preschool
sw4733B-ms98-a-0006	B.18	37.747875	38.037875		teacher	teacher
sw4733B-ms98-a-0006	B.18	38.037875	38.177875		that	that
sw4733B-ms98-a-0006	B.18	38.177875	38.367875		she	she
sw4733B-ms98-a-0006	B.18	38.367875	38.627875		thought	thought
sw4733B-ms98-a-0006	B.18	38.627875	38.887875		maybe	maybe
sw4733B-ms98-a-0006	B.18	38.887875	39.027875		she	she
sw4733B-ms98-a-0006	B.18	39.027875	39.227250		was	was
sw4733B-ms98-a-0006	B.18	39.227250	39.447875		to	to
sw4733B-ms98-a-0006	B.18	39.447875	40.097875		immature	immature
sw4733B-ms98-a-0006	B.18	40.097875	40.207875		for	for
sw4733B-ms98-a-0006	B.18	40.207875	40.898250		kindergarten	kindergarten
sw4733B-ms98-a-0006	B.18	40.898250	41.052625		[silence]	[silence]
sw4733B-ms98-a-0006	B.18	41.052625	41.197875		and	and
sw4733B-ms98-a-0006	B.18	41.197875	41.335125		I	i
sw4733B-ms98-a-0006	B.18	41.335125	41.640250		thought	thought
sw4733B-ms98-a-0006	B.18	41.640250	42.077875		[silence]	[silence]
sw4733B-ms98-a-0006	B.18	42.077875	42.217875		well	well
sw4733B-ms98-a-0006	B.18	42.217875	42.557875		how	how
sw4733B-ms98-a-0006	B.18	42.557875	43.117875		mature	mature
sw4733B-ms98-a-0006	B.18	43.117875	43.187875		do	do
sw4733B-ms98-a-0006	B.18	43.187875	43.317875		you	you
sw4733B-ms98-a-0006	B.18	43.317875	43.547875		have	have
sw4733B-ms98-a-0006	B.18	43.547875	43.667875		to	to
sw4733B-ms98-a-0006	B.18	43.667875	43.918375		be	be
sw4733B-ms98-a-0006	B.20	43.918375	45.295875		[laughter]	[laughter]
sw4733B-ms98-a-0006	B.20	45.295875	45.922375		[silence]	[silence]
sw4733B-ms98-a-0007	B.20	45.922375	46.429375		[silence]	[silence]
sw4733B-ms98-a-0007	B.20	46.429375	47.082375		[laughter]	[laughter]
sw4733B-ms98-a-0007	B.20	47.082375	47.397750		And	and
sw4733B-ms98-a-0007	B.20	47.397750	47.571000		uh	uh
sw4733B-ms98-a-0007	B.20	47.571000	47.719875		there	there
sw4733B-ms98-a-0007	B.20	47.719875	47.889375		is	is
sw4733B-ms98-a-0007	B.20	47.889375	48.052375		a	a
sw4733B-ms98-a-0007	B.20	48.052375	48.152375		do	do
sw4733B-ms98-a-0007	B.20	48.152375	48.252375		you	you
sw4733B-ms98-a-0007	B.20	48.252375	48.492375		have	have
sw4733B-ms98-a-0007	B.20	48.492375	48.562375		the	the
sw4733B-ms98-a-0007	B.20	48.562375	49.202375		standardized	standardized
sw4733B-ms98-a-0007	B.20	49.202375	49.632375		testing	testing
sw4733B-ms98-a-0007	B.20	49.632375	50.022375		now	now
sw4733B-ms98-a-0007	B.22	50.022375	50.700500		[silence]	[silence]
sw4733B-ms98-a-0008	B.22	50.700500	56.346625		[silence]	[silence]
sw4733B-ms98-a-0009	B.22	56.346625	56.836625		[silence]	[silence]
sw4733B-ms98-a-0009	B.22	56.836625	57.206625		Yeah	yeah
sw4733B-ms98-a-0009	B.24	57.206625	57.744750		[silence]	[silence]
sw4733B-ms98-a-0010	B.24	57.744750	61.574875		[silence]	[silence]
sw4733B-ms98-a-0011	B.24	61.574875	62.054875		[silence]	[silence]
sw4733B-ms98-a-0011	B.24	62.054875	62.510875		No	no
sw4733B-ms98-a-0011	B.26	62.510875	62.958875		[silence]	[silence]
sw4733B-ms98-a-0012	B.26	62.958875	66.877125		[silence]	[silence]
sw4733B-ms98-a-0013	B.26	66.877125	67.363750		[silence]	[silence]
sw4733B-ms98-a-0013	B.26	67.363750	67.715875	<SUB>	Uh-huh	um-hum
sw4733B-ms98-a-0013	B.28	67.715875	68.206875		[silence]	[silence]
sw4733B-ms98-a-0014	B.28	68.206875	72.844375		[silence]	[silence]
sw4733B-ms98-a-0015	B.28	72.844375	73.324625		[silence]	[silence]
sw4733B-ms98-a-0015	B.28	73.324625	73.794375		Oh	oh
sw4733B-ms98-a-0015	B.30	73.794375	74.266750		[silence]	[silence]
sw4733B-ms98-a-0016	B.30	74.266750	75.390125		[silence]	[silence]
sw4733B-ms98-a-0017	B.30	75.390125	75.893125		[silence]	[silence]
sw4733B-ms98-a-0017	B.30	75.893125	76.220125		Yeah	yeah
sw4733B-ms98-a-0017	B.34	76.220125	76.712625		[silence]	[silence]
sw4733B-ms98-a-0018	B.34	76.712625	84.116500		[silence]	[silence]
sw4733B-ms98-a-0019	B.34	84.116500	84.616500		[silence]	[silence]
sw4733B-ms98-a-0019	B.34	84.616500	85.014125		Yeah	yeah
sw4733B-ms98-a-0019	B.40	85.014125	85.146000		[silence]	[silence]
sw4733B-ms98-a-0020	B.40	85.146000	90.020375		[silence]	[silence]
sw4733B-ms98-a-0021	B.40	90.020375	90.483875		[silence]	[silence]
sw4733B-ms98-a-0021	B.40	90.483875	92.384000		[laughter]	[laughter]
sw4733B-ms98-a-0021	B.40	92.384000	92.869125		[silence]	[silence]
sw4733B-ms98-a-0022	B.40	92.869125	93.747625		[silence]	[silence]
sw4733B-ms98-a-0022	B.40	93.747625	94.389125	<DEL>	---	[laughter-yeah]
sw4733B-ms98-a-0022	B.40	94.389125	94.549125	<CONT>	you	you'd
sw4733B-ms98-a-0022	B.40	94.549125	94.549125	<CONT>	would	+++
sw4733B-ms98-a-0022	B.40	94.549125	94.699125		like	like
sw4733B-ms98-a-0022	B.40	94.699125	94.769125		to	to
sw4733B-ms98-a-0022	B.40	94.769125	94.899125		know	know
sw4733B-ms98-a-0022	B.40	94.899125	95.059125		what	what
sw4733B-ms98-a-0022	B.40	95.059125	95.179125		they're	they're
sw4733B-ms98-a-0022	B.40	95.179125	95.588250		doing	doing
sw4733B-ms98-a-0022	B.40	95.588250	96.025000		right	right
sw4733B-ms98-a-0022	B.42	96.025000	98.027750		[laughter]	[laughter]
sw4733B-ms98-a-0022	B.42	98.027750	98.416625		[silence]	[silence]
sw4733B-ms98-a-0023	B.42	98.416625	102.607375		[silence]	[silence]
sw4733B-ms98-a-0024	B.42	102.607375	103.083750		[silence]	[silence]
sw4733B-ms98-a-0024	B.42	103.083750	103.407375		Oh	oh
sw4733B-ms98-a-0024	B.42	103.407375	103.845250		me	me
sw4733B-ms98-a-0024	B.42	103.845250	104.048625		[silence]	[silence]
sw4733B-ms98-a-0024	B.42	104.048625	104.157375		Well	well
sw4733B-ms98-a-0024	B.42	104.157375	104.267375		that	that
sw4733B-ms98-a-0024	B.42	104.267375	104.457375		makes	makes
sw4733B-ms98-a-0024	B.42	104.457375	104.517375		it	it
sw4733B-ms98-a-0024	B.42	104.517375	104.777375		hard	hard
sw4733B-ms98-a-0024	B.42	104.777375	104.907375		for	for
sw4733B-ms98-a-0024	B.42	104.907375	105.157375		you	you
sw4733B-ms98-a-0024	B.42	105.157375	105.517375		doesn't	doesn't
sw4733B-ms98-a-0024	B.42	105.517375	105.737375		it	it
sw4733B-ms98-a-0024	B.44	105.737375	106.275125		[silence]	[silence]
sw4733B-ms98-a-0025	B.44	106.275125	110.194250		[silence]	[silence]
sw4733B-ms98-a-0026	B.44	110.194250	110.525875		[silence]	[silence]
sw4733B-ms98-a-0026	B.44	110.525875	110.724250		Oh	oh
sw4733B-ms98-a-0026	B.44	110.724250	111.316875		me	me
sw4733B-ms98-a-0026	B.48	111.316875	111.486625		[silence]	[silence]
sw4733B-ms98-a-0027	B.48	111.486625	113.493875		[silence]	[silence]
sw4733B-ms98-a-0028	B.48	113.493875	113.867625		[silence]	[silence]
sw4733B-ms98-a-0028	B.48	113.867625	114.419750		Yeah	yeah
sw4733B-ms98-a-0028	B.50	114.419750	115.052500		[silence]	[silence]
sw4733B-ms98-a-0028	B.50	115.052500	115.203875		It's	it's
sw4733B-ms98-a-0028	B.50	115.203875	115.423875		hard	hard
sw4733B-ms98-a-0028	B.50	115.423875	115.483875		to	to
sw4733B-ms98-a-0028	B.50	115.483875	115.823875		explain	explain
sw4733B-ms98-a-0028	B.50	115.823875	115.923875		to	to
sw4733B-ms98-a-0028	B.50	115.923875	116.103875		them	them
sw4733B-ms98-a-0028	B.50	116.103875	116.293875		why	why
sw4733B-ms98-a-0028	B.50	116.293875	116.443875		you	you
sw4733B-ms98-a-0028	B.50	116.443875	117.072250		can't	can't
sw4733B-ms98-a-0028	B.54	117.072250	117.571375		[silence]	[silence]
sw4733B-ms98-a-0029	B.54	117.571375	125.769125		[silence]	[silence]
sw4733B-ms98-a-0030	B.54	125.769125	126.269125		[silence]	[silence]
sw4733B-ms98-a-0030	B.54	126.269125	126.659125		Right	right
sw4733B-ms98-a-0030	B.60	126.659125	127.149500		[silence]	[silence]
sw4733B-ms98-a-0031	B.60	127.149500	134.544875		[silence]	[silence]
sw4733B-ms98-a-0032	B.60	134.544875	134.999875		[silence]	[silence]
sw4733B-ms98-a-0032	B.60	134.999875	135.284875		Oh	oh
sw4733B-ms98-a-0032	B.60	135.284875	135.704875		dear	dear
sw4733B-ms98-a-0032	B.62	135.704875	135.891625		[silence]	[silence]
sw4733B-ms98-a-0033	B.62	135.891625	143.021375		[silence]	[silence]
sw4733B-ms98-a-0034	B.62	143.021375	143.519625		[silence]	[silence]
sw4733B-ms98-a-0034	B.62	143.519625	144.090750		Right	right
sw4733B-ms98-a-0034	B.64	144.090750	144.550375		[silence]	[silence]
sw4733B-ms98-a-0035	B.64	144.550375	151.454500		[silence]	[silence]
sw4733B-ms98-a-0036	B.64	151.454500	151.944500		[silence]	[silence]
sw4733B-ms98-a-0036	B.64	151.944500	152.274500		Right	right
sw4733B-ms98-a-0036	B.66	152.274500	152.758000		[silence]	[silence]
sw4733B-ms98-a-0037	B.66	152.758000	158.559750		[silence]	[silence]
sw4733B-ms98-a-0038	B.66	158.559750	159.048375		[silence]	[silence]
sw4733B-ms98-a-0038	B.66	159.048375	159.469750		[noise]	[noise]
sw4733B-ms98-a-0038	B.66	159.469750	159.589750		How	how
sw4733B-ms98-a-0038	B.66	159.589750	159.749750		about	about_1
sw4733B-ms98-a-0038	B.66	159.749750	159.809750		the	the
sw4733B-ms98-a-0038	B.66	159.809750	160.289750		kids	kids
sw4733B-ms98-a-0038	B.66	160.289750	160.409750		How	how
sw4733B-ms98-a-0038	B.66	160.409750	160.519750		are	are
sw4733B-ms98-a-0038	B.66	160.519750	160.639750		they	they
sw4733B-ms98-a-0038	B.66	160.639750	161.059750		coping	coping
sw4733B-ms98-a-0038	B.66	161.059750	161.269750		with	with
sw4733B-ms98-a-0038	B.66	161.269750	161.653625		it	it
sw4733B-ms98-a-0038	B.68	161.653625	162.043125		[silence]	[silence]
sw4733B-ms98-a-0039	B.68	162.043125	165.817000		[silence]	[silence]
sw4733B-ms98-a-0040	B.68	165.817000	166.267000		[silence]	[silence]
sw4733B-ms98-a-0040	B.68	166.267000	166.962250	<SUB>	Huh	hum
sw4733B-ms98-a-0040	B.72	166.962250	167.151750		[silence]	[silence]
sw4733B-ms98-a-0041	B.72	167.151750	173.250625		[silence]	[silence]
sw4733B-ms98-a-0042	B.72	173.250625	173.740625		[silence]	[silence]
sw4733B-ms98-a-0042	B.72	173.740625	174.370625		Right	right
sw4733B-ms98-a-0042	B.74	174.370625	174.766375		[silence]	[silence]
sw4733B-ms98-a-0043	B.74	174.766375	176.045125		[silence]	[silence]
sw4733B-ms98-a-0044	B.74	176.045125	176.525125		[silence]	[silence]
sw4733B-ms98-a-0044	B.74	176.525125	176.914625		Yeah	yeah
sw4733B-ms98-a-0044	B.74	176.914625	177.031625		[silence]	[silence]
sw4733B-ms98-a-0044	B.74	177.031625	177.385125		Rather	rather
sw4733B-ms98-a-0044	B.74	177.385125	177.654625		than	than
sw4733B-ms98-a-0044	B.76	177.654625	178.593875		anticipating	anticipating
sw4733B-ms98-a-0044	B.78	178.593875	178.995250		[silence]	[silence]
sw4733B-ms98-a-0045	B.78	178.995250	197.083500		[silence]	[silence]
sw4733B-ms98-a-0046	B.78	197.083500	197.575250		[silence]	[silence]
sw4733B-ms98-a-0046	B.78	197.575250	197.833500		Oh	oh
sw4733B-ms98-a-0046	B.78	197.833500	197.913500		it	it
sw4733B-ms98-a-0046	B.78	197.913500	198.401000		is	is
sw4733B-ms98-a-0046	B.80	198.401000	198.887250		[silence]	[silence]
sw4733B-ms98-a-0047	B.80	198.887250	201.176125		[silence]	[silence]
sw4733B-ms98-a-0048	B.80	201.176125	201.646125		[silence]	[silence]
sw4733B-ms98-a-0048	B.80	201.646125	201.926125		That's	that's
sw4733B-ms98-a-0048	B.80	201.926125	202.476125		right	right
sw4733B-ms98-a-0048	B.82	202.476125	203.179000		[silence]	[silence]
sw4733B-ms98-a-0049	B.82	203.179000	203.899000		[silence]	[silence]
sw4733B-ms98-a-0049	B.82	203.899000	204.049000		My	my
sw4733B-ms98-a-0049	B.82	204.049000	204.349000		son	son
sw4733B-ms98-a-0049	B.82	204.349000	204.639000		said	said
sw4733B-ms98-a-0049	B.82	204.639000	204.809000		that	that
sw4733B-ms98-a-0049	B.82	204.809000	205.039000		came	came
sw4733B-ms98-a-0049	B.82	205.039000	205.189000		home	home
sw4733B-ms98-a-0049	B.82	205.189000	205.279000		and	and
sw4733B-ms98-a-0049	B.82	205.279000	205.409000		he	he
sw4733B-ms98-a-0049	B.82	205.409000	205.737750		said	said
sw4733B-ms98-a-0049	B.82	205.737750	206.016500		[silence]	[silence]
sw4733B-ms98-a-0049	B.82	206.016500	206.162875		he	he
sw4733B-ms98-a-0049	B.82	206.162875	206.347500		said	said
sw4733B-ms98-a-0049	B.82	206.347500	206.609000		Mom	mom
sw4733B-ms98-a-0049	B.82	206.609000	206.749000		all	all
sw4733B-ms98-a-0049	B.82	206.749000	206.869000		we	we
sw4733B-ms98-a-0049	B.82	206.869000	207.039000		do	do
sw4733B-ms98-a-0049	B.82	207.039000	207.229000		is	is
sw4733B-ms98-a-0049	B.82	207.229000	207.945250		work	work
sw4733B-ms98-a-0049	B.84	207.945250	208.506500		[silence]	[silence]
sw4733B-ms98-a-0049	B.84	208.506500	208.599000		We	we
sw4733B-ms98-a-0049	B.84	208.599000	208.999000		hardly	hardly
sw4733B-ms98-a-0049	B.84	208.999000	209.209000		ever	ever
sw4733B-ms98-a-0049	B.84	209.209000	209.810500		play	play
sw4733B-ms98-a-0049	B.84	209.810500	210.029125		[silence]	[silence]
sw4733B-ms98-a-0049	B.84	210.029125	210.464000		and	and
sw4733B-ms98-a-0049	B.86	210.464000	210.851875		[silence]	[silence]
sw4733B-ms98-a-0050	B.86	210.851875	215.408500		[silence]	[silence]
sw4733B-ms98-a-0051	B.86	215.408500	215.874125		[silence]	[silence]
sw4733B-ms98-a-0051	B.86	215.874125	216.108500		Oh	oh
sw4733B-ms98-a-0051	B.86	216.108500	216.638250		likewise	likewise
sw4733B-ms98-a-0051	B.88	216.638250	217.112625		[silence]	[silence]
sw4733B-ms98-a-0052	B.88	217.112625	220.548000		[silence]	[silence]
sw4733B-ms98-a-0053	B.88	220.548000	221.028000		[silence]	[silence]
sw4733B-ms98-a-0053	B.88	221.028000	221.688000		Right	right
sw4733B-ms98-a-0053	B.90	221.688000	222.150625		[silence]	[silence]
sw4733B-ms98-a-0054	B.90	222.150625	224.386000		[silence]	[silence]
sw4733B-ms98-a-0055	B.90	224.386000	224.876000		[silence]	[silence]
sw4733B-ms98-a-0055	B.90	224.876000	225.106000		Wouldn't	wouldn't
sw4733B-ms98-a-0055	B.90	225.106000	225.276000		that	that
sw4733B-ms98-a-0055	B.90	225.276000	225.406000		be	be
sw4733B-ms98-a-0055	B.90	225.406000	225.896000		great	great
sw4733B-ms98-a-0055	B.92	225.896000	226.365750		[silence]	[silence]
sw4733B-ms98-a-0056	B.92	226.365750	228.071500		[silence]	[silence]
sw4733B-ms98-a-0057	B.92	228.071500	228.551500		[silence]	[silence]
sw4733B-ms98-a-0057	B.92	228.551500	229.115625	<SUB>	Uh-huh	um-hum
sw4733B-ms98-a-0057	B.94	229.115625	229.522500		[silence]	[silence]
sw4733B-ms98-a-0058	B.94	229.522500	230.547750		[silence]	[silence]
sw4733B-ms98-a-0059	B.94	230.547750	231.027750		[silence]	[silence]
sw4733B-ms98-a-0059	B.94	231.027750	231.637750		Right	right
sw4733B-ms98-a-0059	B.96	231.637750	232.067750		[silence]	[silence]
sw4733B-ms98-a-0060	B.96	232.067750	248.950875		[silence]	[silence]
sw4733B-ms98-a-0061	B.96	248.950875	249.620875		[silence]	[silence]
sw4733B-ms98-a-0061	B.96	249.620875	249.806625		Is	is
sw4733B-ms98-a-0061	B.96	249.806625	250.080875		that	that
sw4733B-ms98-a-0061	B.96	250.080875	250.622250		right	right
sw4733B-ms98-a-0061	B.98	250.622250	251.039250		[silence]	[silence]
sw4733B-ms98-a-0061	B.98	251.039250	251.670875		[noise]	[noise]
sw4733B-ms98-a-0061	B.98	251.670875	251.890875		Oh	oh
sw4733B-ms98-a-0061	B.98	251.890875	252.110875		my	my
sw4733B-ms98-a-0061	B.98	252.110875	252.790875		gosh	gosh
sw4733B-ms98-a-0061	B.100	252.790875	253.296125		[silence]	[silence]
sw4733B-ms98-a-0062	B.100	253.296125	254.297250		[silence]	[silence]
sw4733B-ms98-a-0063	B.100	254.297250	254.781375		[silence]	[silence]
sw4733B-ms98-a-0063	B.100	254.781375	255.017250		Oh	oh
sw4733B-ms98-a-0063	B.100	255.017250	255.317250		my	my
sw4733B-ms98-a-0063	B.100	255.317250	255.962625		gosh	gosh
sw4733B-ms98-a-0063	B.102	255.962625	256.827000		[silence]	[silence]
sw4733B-ms98-a-0064	B.102	256.827000	257.740375		[silence]	[silence]
sw4733B-ms98-a-0064	B.102	257.740375	258.047000		Well	well
sw4733B-ms98-a-0064	B.102	258.047000	258.157000		for	for
sw4733B-ms98-a-0064	B.102	258.157000	258.577000		example	example
sw4733B-ms98-a-0064	B.102	258.577000	258.637000		in	in
sw4733B-ms98-a-0064	B.102	258.637000	258.747000		my	my
sw4733B-ms98-a-0064	B.102	258.747000	259.027000		son's	son's
sw4733B-ms98-a-0064	B.102	259.027000	259.517000		kindergarten	kindergarten
sw4733B-ms98-a-0064	B.102	259.517000	259.677000		They're	they're
sw4733B-ms98-a-0064	B.102	259.677000	259.897000		really	really
sw4733B-ms98-a-0064	B.102	259.897000	260.573875		finished	finished
sw4733B-ms98-a-0064	B.102	260.573875	260.892000		at	at
sw4733B-ms98-a-0064	B.102	260.892000	261.099250		[silence]	[silence]
sw4733B-ms98-a-0064	B.102	261.099250	261.397000		lunch	lunch
sw4733B-ms98-a-0064	B.102	261.397000	261.749000		time	time
sw4733B-ms98-a-0064	B.102	261.749000	262.246250		[silence]	[silence]
sw4733B-ms98-a-0064	B.102	262.246250	262.517000		After	after
sw4733B-ms98-a-0064	B.102	262.517000	262.877000		lunch	lunch
sw4733B-ms98-a-0064	B.102	262.877000	263.037000		they	they
sw4733B-ms98-a-0064	B.102	263.037000	263.297000		have	have
sw4733B-ms98-a-0064	B.102	263.297000	263.707000		some	some
sw4733B-ms98-a-0064	B.102	263.707000	264.003125		uh	uh
sw4733B-ms98-a-0064	B.102	264.003125	264.388625		[silence]	[silence]
sw4733B-ms98-a-0065	B.102	264.388625	264.878625		[silence]	[silence]
sw4733B-ms98-a-0065	B.102	264.878625	264.978625		[noise]	[noise]
sw4733B-ms98-a-0065	B.102	264.978625	265.048625		I'm	i'm
sw4733B-ms98-a-0065	B.102	265.048625	265.238625		trying	trying
sw4733B-ms98-a-0065	B.102	265.238625	265.298625		to	to
sw4733B-ms98-a-0065	B.102	265.298625	265.428625		think	think
sw4733B-ms98-a-0065	B.102	265.428625	265.518625		if	if
sw4733B-ms98-a-0065	B.102	265.518625	265.628625		they	they
sw4733B-ms98-a-0065	B.102	265.628625	265.868625		have	have
sw4733B-ms98-a-0065	B.102	265.868625	266.308625		recess	recess
sw4733B-ms98-a-0065	B.102	266.308625	266.588625		after	after
sw4733B-ms98-a-0065	B.102	266.588625	267.009375		lunch	lunch
sw4733B-ms98-a-0065	B.102	267.009375	267.138625		and	and
sw4733B-ms98-a-0065	B.102	267.138625	267.258625		then	then
sw4733B-ms98-a-0065	B.102	267.258625	267.348625		they	they
sw4733B-ms98-a-0065	B.102	267.348625	267.528625		have	have
sw4733B-ms98-a-0065	B.102	267.528625	268.141250		naps	naps
sw4733B-ms98-a-0065	B.102	268.141250	268.416250		[silence]	[silence]
sw4733B-ms98-a-0065	B.102	268.416250	268.568625		or	or
sw4733B-ms98-a-0065	B.102	268.568625	268.888625		rest	rest
sw4733B-ms98-a-0065	B.102	268.888625	269.428000		period	period
sw4733B-ms98-a-0065	B.104	269.428000	269.718500		[silence]	[silence]
sw4733B-ms98-a-0066	B.104	269.718500	270.178500		[silence]	[silence]
sw4733B-ms98-a-0066	B.104	270.178500	270.508500		And	and
sw4733B-ms98-a-0066	B.104	270.508500	270.814500		uh	uh
sw4733B-ms98-a-0066	B.104	270.814500	271.307500		[silence]	[silence]
sw4733B-ms98-a-0067	B.104	271.307500	271.789625		[silence]	[silence]
sw4733B-ms98-a-0067	B.104	271.789625	271.964500		I	i
sw4733B-ms98-a-0067	B.104	271.964500	272.138875		think	think
sw4733B-ms98-a-0067	B.104	272.138875	272.327500		either	either
sw4733B-ms98-a-0067	B.104	272.327500	272.567500		send	send
sw4733B-ms98-a-0067	B.104	272.567500	272.657500		them	them_1
sw4733B-ms98-a-0067	B.104	272.657500	272.987500		home	home
sw4733B-ms98-a-0067	B.104	272.987500	273.157500		or	or
sw4733B-ms98-a-0067	B.104	273.157500	273.317500		do	do
sw4733B-ms98-a-0067	B.104	273.317500	273.817500		something	something
sw4733B-ms98-a-0067	B.106	273.817500	274.784875		[silence]	[silence]
sw4733B-ms98-a-0068	B.106	274.784875	275.524875		[silence]	[silence]
sw4733B-ms98-a-0068	B.106	275.524875	275.654875		a	a
sw4733B-ms98-a-0068	B.106	275.654875	275.834875		little	little
sw4733B-ms98-a-0068	B.106	275.834875	276.014875		more	more
sw4733B-ms98-a-0068	B.106	276.014875	276.474875		interesting	interesting
sw4733B-ms98-a-0068	B.106	276.474875	276.735750		I	i
sw4733B-ms98-a-0068	B.106	276.735750	277.203250		agree	agree
sw4733B-ms98-a-0068	B.108	277.203250	277.642500		[silence]	[silence]
sw4733B-ms98-a-0069	B.108	277.642500	280.299875		[silence]	[silence]
sw4733B-ms98-a-0070	B.108	280.299875	280.790125		[silence]	[silence]
sw4733B-ms98-a-0070	B.108	280.790125	280.939875		I	i
sw4733B-ms98-a-0070	B.108	280.939875	281.169875		wouldn't	wouldn't
sw4733B-ms98-a-0070	B.108	281.169875	281.259875		be	be
sw4733B-ms98-a-0070	B.108	281.259875	282.079875		surprised	surprised
sw4733B-ms98-a-0070	B.110	282.079875	282.814250		[silence]	[silence]
sw4733B-ms98-a-0071	B.110	282.814250	283.584250		[silence]	[silence]
sw4733B-ms98-a-0071	B.110	283.584250	283.762000		I	i
sw4733B-ms98-a-0071	B.110	283.762000	283.964250		doubt	doubt
sw4733B-ms98-a-0071	B.110	283.964250	284.074250		if	if
sw4733B-ms98-a-0071	B.110	284.074250	284.214250		they	they
sw4733B-ms98-a-0071	B.110	284.214250	284.354250		would	would
sw4733B-ms98-a-0071	B.110	284.354250	284.694250		say	say
sw4733B-ms98-a-0071	B.110	284.694250	284.814250	<DEL>	---	that
sw4733B-ms98-a-0071	B.110	284.814250	284.874250		it	it
sw4733B-ms98-a-0071	B.110	284.874250	285.014250		was	was
sw4733B-ms98-a-0071	B.110	285.014250	285.204250		too	too
sw4733B-ms98-a-0071	B.110	285.204250	285.434250		long	long
sw4733B-ms98-a-0071	B.112	285.434250	286.904250		[laughter]	[laughter]
sw4733B-ms98-a-0071	B.112	286.904250	287.502125		[silence]	[silence]
sw4733B-ms98-a-0072	B.112	287.502125	289.827000		[silence]	[silence]
sw4733B-ms98-a-0073	B.112	289.827000	290.507000		[silence]	[silence]
sw4733B-ms98-a-0073	B.112	290.507000	290.897500	<SUB>	Uh	um
sw4733B-ms98-a-0073	B.112	290.897500	291.077000		do	do
sw4733B-ms98-a-0073	B.112	291.077000	291.267000		you	you
sw4733B-ms98-a-0073	B.112	291.267000	291.596125		have	have
sw4733B-ms98-a-0073	B.112	291.596125	292.037000		the	the
sw4733B-ms98-a-0073	B.112	292.037000	292.487000		before	before
sw4733B-ms98-a-0073	B.112	292.487000	292.827000		school	school
sw4733B-ms98-a-0073	B.112	292.827000	293.317000		care	care
sw4733B-ms98-a-0073	B.114	293.317000	293.407000		at	at
sw4733B-ms98-a-0073	B.114	293.407000	293.577000		your	your
sw4733B-ms98-a-0073	B.114	293.577000	294.004750		school	school
sw4733B-ms98-a-0073	B.114	294.004750	294.155500		[silence]	[silence]
sw4733B-ms98-a-0073	B.114	294.155500	294.327000		and	and
sw4733B-ms98-a-0073	B.114	294.327000	294.437000		the	the
sw4733B-ms98-a-0073	B.114	294.437000	294.727000		after	after
sw4733B-ms98-a-0073	B.114	294.727000	295.060250		school	school
sw4733B-ms98-a-0073	B.114	295.060250	295.435750		care	care
sw4733B-ms98-a-0073	B.114	295.435750	295.882875		[silence]	[silence]
sw4733B-ms98-a-0074	B.114	295.882875	298.530000		[silence]	[silence]
