sw4799B-ms98-a-0001	B.2	0.000000	0.280000		[silence]	[silence]
sw4799B-ms98-a-0001	B.2	0.280000	0.900000		[noise]	[noise]
sw4799B-ms98-a-0001	B.2	0.900000	1.076875		[silence]	[silence]
sw4799B-ms98-a-0002	B.2	1.076875	7.143125		[silence]	[silence]
sw4799B-ms98-a-0003	B.2	7.143125	7.603125		[silence]	[silence]
sw4799B-ms98-a-0003	B.2	7.603125	7.853125	<SUB>	They're	that's
sw4799B-ms98-a-0003	B.2	7.853125	8.013125		not	not
sw4799B-ms98-a-0003	B.2	8.013125	8.233125		quite	quite
sw4799B-ms98-a-0003	B.2	8.233125	8.673125		elderly	elderly
sw4799B-ms98-a-0003	B.2	8.673125	8.868375		huh	huh
sw4799B-ms98-a-0003	B.4	8.868375	9.064625		[silence]	[silence]
sw4799B-ms98-a-0004	B.4	9.064625	9.270250		[silence]	[silence]
sw4799B-ms98-a-0004	B.4	9.270250	9.796625		[laughter]	[laughter]
sw4799B-ms98-a-0004	B.4	9.796625	10.264250		[silence]	[silence]
sw4799B-ms98-a-0005	B.4	10.264250	15.068875		[silence]	[silence]
sw4799B-ms98-a-0006	B.4	15.068875	15.578875		[silence]	[silence]
sw4799B-ms98-a-0006	B.4	15.578875	15.918875		Uh-huh	uh-huh
sw4799B-ms98-a-0006	B.6	15.918875	16.407250		[silence]	[silence]
sw4799B-ms98-a-0007	B.6	16.407250	18.913000		[silence]	[silence]
sw4799B-ms98-a-0008	B.6	18.913000	19.243000		[silence]	[silence]
sw4799B-ms98-a-0008	B.6	19.243000	19.693000	<SUB>	Uh	um
sw4799B-ms98-a-0008	B.6	19.693000	19.983000		[silence]	[silence]
sw4799B-ms98-a-0008	B.6	19.983000	20.173000		not	not
sw4799B-ms98-a-0008	B.6	20.173000	20.273000		for	for
sw4799B-ms98-a-0008	B.6	20.273000	20.403000		my	my
sw4799B-ms98-a-0008	B.6	20.403000	20.973000		parents	parents
sw4799B-ms98-a-0008	B.6	20.973000	21.123000		But	but
sw4799B-ms98-a-0008	B.6	21.123000	21.413000	<SUB>	I	i-
sw4799B-ms98-a-0008	B.6	21.413000	21.543000		I	i
sw4799B-ms98-a-0008	B.6	21.543000	21.703000		was	was
sw4799B-ms98-a-0008	B.6	21.703000	22.244625		around	around
sw4799B-ms98-a-0008	B.6	22.244625	22.323750		[silence]	[silence]
sw4799B-ms98-a-0008	B.6	22.323750	22.583000		uh	uh
sw4799B-ms98-a-0008	B.6	22.583000	22.793000		two	two
sw4799B-ms98-a-0008	B.6	22.793000	23.003000		sets	sets
sw4799B-ms98-a-0008	B.6	23.003000	23.073000		of	of
sw4799B-ms98-a-0008	B.6	23.073000	23.763250		grandparents	grandparents
sw4799B-ms98-a-0008	B.6	23.763250	24.086250		[silence]	[silence]
sw4799B-ms98-a-0009	B.6	24.086250	24.646250		[silence]	[silence]
sw4799B-ms98-a-0009	B.6	24.646250	25.136250	<SUB>	uh	um
sw4799B-ms98-a-0009	B.6	25.136250	25.726250		[silence]	[silence]
sw4799B-ms98-a-0009	B.6	25.726250	25.996250		quite	quite
sw4799B-ms98-a-0009	B.6	25.996250	26.036250		a	a
sw4799B-ms98-a-0009	B.6	26.036250	26.316250		bit	bit
sw4799B-ms98-a-0009	B.8	26.316250	26.466250		we	we
sw4799B-ms98-a-0009	B.8	26.466250	27.106250		[silence]	[silence]
sw4799B-ms98-a-0009	B.8	27.106250	27.326250		we	we
sw4799B-ms98-a-0009	B.8	27.326250	27.636250		put	put
sw4799B-ms98-a-0009	B.8	27.636250	27.996250		one	one
sw4799B-ms98-a-0009	B.8	27.996250	28.056250		I	i
sw4799B-ms98-a-0009	B.8	28.056250	28.226250		put	put
sw4799B-ms98-a-0009	B.8	28.226250	28.386250		one	one
sw4799B-ms98-a-0009	B.8	28.386250	29.163625		grandfather	grandfather
sw4799B-ms98-a-0009	B.8	29.163625	29.593000		[silence]	[silence]
sw4799B-ms98-a-0009	B.8	29.593000	29.926250		in	in
sw4799B-ms98-a-0009	B.8	29.926250	30.311625		[silence]	[silence]
sw4799B-ms98-a-0009	B.8	30.311625	30.398250		a	a
sw4799B-ms98-a-0009	B.8	30.398250	30.636250		rest	rest
sw4799B-ms98-a-0009	B.8	30.636250	30.956250		home	home
sw4799B-ms98-a-0009	B.10	30.956250	31.404625		[silence]	[silence]
sw4799B-ms98-a-0010	B.10	31.404625	31.894625		[silence]	[silence]
sw4799B-ms98-a-0010	B.10	31.894625	32.584625		and	and
sw4799B-ms98-a-0010	B.10	32.584625	33.175375		[silence]	[silence]
sw4799B-ms98-a-0011	B.10	33.175375	33.645375		[silence]	[silence]
sw4799B-ms98-a-0011	B.10	33.645375	33.795375		that	that
sw4799B-ms98-a-0011	B.10	33.795375	34.054375		killed	killed
sw4799B-ms98-a-0011	B.10	34.054375	34.319250		him	him
sw4799B-ms98-a-0011	B.12	34.319250	35.825375		[laughter]	[laughter]
sw4799B-ms98-a-0011	B.12	35.825375	36.065375		Well	well
sw4799B-ms98-a-0011	B.12	36.065375	36.452500		yeah	yeah
sw4799B-ms98-a-0011	B.12	36.452500	36.972250		[silence]	[silence]
sw4799B-ms98-a-0011	B.12	36.972250	37.235375		kind	kind
sw4799B-ms98-a-0011	B.12	37.235375	37.315375		of	of
sw4799B-ms98-a-0011	B.12	37.315375	37.495375		Well	well
sw4799B-ms98-a-0011	B.12	37.495375	37.615375		there	there
sw4799B-ms98-a-0011	B.12	37.615375	37.725375		was	was
sw4799B-ms98-a-0011	B.12	37.725375	37.885375		some	some
sw4799B-ms98-a-0011	B.12	37.885375	38.075375		other	other
sw4799B-ms98-a-0011	B.12	38.075375	38.335375		things	things
sw4799B-ms98-a-0011	B.12	38.335375	38.845375		involved	involved
sw4799B-ms98-a-0011	B.12	38.845375	39.025375		but	but
sw4799B-ms98-a-0011	B.12	39.025375	39.565375		[silence]	[silence]
sw4799B-ms98-a-0011	B.12	39.565375	39.809875		it	it
sw4799B-ms98-a-0011	B.12	39.809875	40.220500		[silence]	[silence]
sw4799B-ms98-a-0011	B.12	40.220500	40.685375		before	before
sw4799B-ms98-a-0011	B.12	40.685375	40.815375		he	he
sw4799B-ms98-a-0011	B.12	40.815375	40.955375		was	was
sw4799B-ms98-a-0011	B.12	40.955375	41.195375		really	really
sw4799B-ms98-a-0011	B.12	41.195375	41.875625		active	active
sw4799B-ms98-a-0011	B.12	41.875625	42.667625		[silence]	[silence]
sw4799B-ms98-a-0011	B.12	42.667625	43.458750		and	and
sw4799B-ms98-a-0011	B.12	43.458750	43.992750		[silence]	[silence]
sw4799B-ms98-a-0012	B.12	43.992750	44.575625		[silence]	[silence]
sw4799B-ms98-a-0012	B.12	44.575625	45.039375		the	the
sw4799B-ms98-a-0012	B.12	45.039375	45.692750		[silence]	[silence]
sw4799B-ms98-a-0012	B.12	45.692750	45.822750		there	there
sw4799B-ms98-a-0012	B.12	45.822750	45.962750		was	was
sw4799B-ms98-a-0012	B.12	45.962750	46.242750		some	some
sw4799B-ms98-a-0012	B.12	46.242750	46.312750		you	you
sw4799B-ms98-a-0012	B.12	46.312750	46.422750		know	know
sw4799B-ms98-a-0012	B.12	46.422750	46.622750		he	he
sw4799B-ms98-a-0012	B.12	46.622750	46.802750		[silence]	[silence]
sw4799B-ms98-a-0012	B.12	46.802750	46.942750	<DEL>	---	lo[st]-
sw4799B-ms98-a-0012	B.12	46.942750	47.222750		lost	lost
sw4799B-ms98-a-0012	B.12	47.222750	47.352750		his	his
sw4799B-ms98-a-0012	B.12	47.352750	47.712750		drivers	drivers
sw4799B-ms98-a-0012	B.12	47.712750	48.152750		license	license
sw4799B-ms98-a-0012	B.12	48.152750	48.422750		and	and
sw4799B-ms98-a-0012	B.12	48.422750	48.996625		[silence]	[silence]
sw4799B-ms98-a-0012	B.12	48.996625	49.256500	<SUB>	I	uh
sw4799B-ms98-a-0012	B.12	49.256500	49.482750		couldn't	couldn't
sw4799B-ms98-a-0012	B.12	49.482750	49.592750		get	get
sw4799B-ms98-a-0012	B.12	49.592750	50.052750		around	around
sw4799B-ms98-a-0012	B.12	50.052750	50.272750		and	and
sw4799B-ms98-a-0012	B.12	50.272750	50.682750		[silence]	[silence]
sw4799B-ms98-a-0012	B.12	50.682750	51.111125		wasn't	wasn't
sw4799B-ms98-a-0012	B.12	51.111125	51.416250		[silence]	[silence]
sw4799B-ms98-a-0012	B.12	51.416250	51.652750		able	able
sw4799B-ms98-a-0012	B.12	51.652750	51.782750		to	to
sw4799B-ms98-a-0012	B.12	51.782750	51.952750		do	do
sw4799B-ms98-a-0012	B.12	51.952750	52.122750		some	some
sw4799B-ms98-a-0012	B.12	52.122750	52.462750		things	things
sw4799B-ms98-a-0012	B.12	52.462750	52.682750		and	and
sw4799B-ms98-a-0012	B.12	52.682750	53.262750		so	so
sw4799B-ms98-a-0012	B.12	53.262750	53.342750		we	we
sw4799B-ms98-a-0012	B.12	53.342750	53.512750		ended	ended
sw4799B-ms98-a-0012	B.12	53.512750	53.572750		up	up
sw4799B-ms98-a-0012	B.12	53.572750	53.722750		just	just
sw4799B-ms98-a-0012	B.12	53.722750	53.952750		having	having
sw4799B-ms98-a-0012	B.12	53.952750	54.022750		to	to
sw4799B-ms98-a-0012	B.12	54.022750	54.222750		put	put
sw4799B-ms98-a-0012	B.12	54.222750	54.362750		him	him
sw4799B-ms98-a-0012	B.12	54.362750	54.472750		in	in
sw4799B-ms98-a-0012	B.12	54.472750	54.522750		a	a
sw4799B-ms98-a-0012	B.12	54.522750	54.792750		rest	rest
sw4799B-ms98-a-0012	B.12	54.792750	55.062750		home	home
sw4799B-ms98-a-0012	B.14	55.062750	55.493875		[silence]	[silence]
sw4799B-ms98-a-0013	B.14	55.493875	55.963875		[silence]	[silence]
sw4799B-ms98-a-0013	B.14	55.963875	56.393875		And	and
sw4799B-ms98-a-0013	B.14	56.393875	56.513875		he	he
sw4799B-ms98-a-0013	B.14	56.513875	56.713875		just	just
sw4799B-ms98-a-0013	B.14	56.713875	56.883875		kind	kind
sw4799B-ms98-a-0013	B.14	56.883875	56.943875		of	of
sw4799B-ms98-a-0013	B.14	56.943875	57.213875		became	became
sw4799B-ms98-a-0013	B.14	57.213875	57.243875		a	a
sw4799B-ms98-a-0013	B.14	57.243875	57.843875		vegetable	vegetable
sw4799B-ms98-a-0013	B.14	57.843875	57.933875		and	and
sw4799B-ms98-a-0013	B.14	57.933875	58.303875		died	died
sw4799B-ms98-a-0013	B.16	58.303875	58.976875		[silence]	[silence]
sw4799B-ms98-a-0014	B.16	58.976875	59.505750		[silence]	[silence]
sw4799B-ms98-a-0014	B.16	59.505750	59.991500		So	so
sw4799B-ms98-a-0014	B.18	59.991500	60.496875		[silence]	[silence]
sw4799B-ms98-a-0014	B.18	60.496875	60.666875		but	but
sw4799B-ms98-a-0014	B.18	60.666875	60.786875		that	that
sw4799B-ms98-a-0014	B.18	60.786875	60.896875		was	was
sw4799B-ms98-a-0014	B.18	60.896875	60.946875		a	a
sw4799B-ms98-a-0014	B.18	60.946875	61.146875		long	long
sw4799B-ms98-a-0014	B.18	61.146875	61.386875		time	time
sw4799B-ms98-a-0014	B.18	61.386875	61.606875		ago	ago
sw4799B-ms98-a-0014	B.20	61.606875	62.216875		[silence]	[silence]
sw4799B-ms98-a-0014	B.20	62.216875	62.446875		That	that
sw4799B-ms98-a-0014	B.20	62.446875	62.836875		was	was
sw4799B-ms98-a-0014	B.20	62.836875	63.194750		uh	uh
sw4799B-ms98-a-0014	B.20	63.194750	63.417000		[silence]	[silence]
sw4799B-ms98-a-0014	B.20	63.417000	63.796875		back	back
sw4799B-ms98-a-0014	B.20	63.796875	63.936875		in	in
sw4799B-ms98-a-0014	B.20	63.936875	64.056875		[silence]	[silence]
sw4799B-ms98-a-0014	B.20	64.056875	64.236875		like	like
sw4799B-ms98-a-0014	B.20	64.236875	64.606875	<CONT>	seventy-three	seventy
sw4799B-ms98-a-0014	B.22	64.606875	65.046875	<CONT>	+++	three
sw4799B-ms98-a-0014	B.22	65.046875	65.536250		[silence]	[silence]
sw4799B-ms98-a-0015	B.22	65.536250	66.106250		[silence]	[silence]
sw4799B-ms98-a-0015	B.22	66.106250	66.625875		So	so
sw4799B-ms98-a-0015	B.22	66.625875	67.096750		[silence]	[silence]
sw4799B-ms98-a-0015	B.22	67.096750	67.556250	<SUB>	uh	um
sw4799B-ms98-a-0015	B.22	67.556250	68.393500		[silence]	[silence]
sw4799B-ms98-a-0015	B.22	68.393500	68.484000		I	i
sw4799B-ms98-a-0015	B.22	68.484000	68.636250		think	think
sw4799B-ms98-a-0015	B.22	68.636250	68.696250		the	the
sw4799B-ms98-a-0015	B.22	68.696250	68.836250		way	way
sw4799B-ms98-a-0015	B.22	68.836250	68.956250		they	they
sw4799B-ms98-a-0015	B.22	68.956250	69.146250		did	did
sw4799B-ms98-a-0015	B.22	69.146250	69.406250		things	things
sw4799B-ms98-a-0015	B.22	69.406250	69.516250		were	were
sw4799B-ms98-a-0015	B.22	69.516250	69.556250		a	a
sw4799B-ms98-a-0015	B.22	69.556250	69.746250		lot	lot
sw4799B-ms98-a-0015	B.22	69.746250	70.086250		different	different
sw4799B-ms98-a-0015	B.22	70.086250	70.326250		back	back
sw4799B-ms98-a-0015	B.22	70.326250	70.566250		then	then
sw4799B-ms98-a-0015	B.24	70.566250	71.446375		[silence]	[silence]
sw4799B-ms98-a-0016	B.24	71.446375	71.876375		[silence]	[silence]
sw4799B-ms98-a-0016	B.24	71.876375	72.316375		And	and
sw4799B-ms98-a-0016	B.24	72.316375	72.556375		uh	uh
sw4799B-ms98-a-0016	B.24	72.556375	73.124250		[silence]	[silence]
sw4799B-ms98-a-0017	B.24	73.124250	73.684250		[silence]	[silence]
sw4799B-ms98-a-0017	B.24	73.684250	73.954250		my	my
sw4799B-ms98-a-0017	B.24	73.954250	74.444250		grandmother	grandmother
sw4799B-ms98-a-0017	B.24	74.444250	74.715375		his	his
sw4799B-ms98-a-0017	B.24	74.715375	74.963875		[silence]	[silence]
sw4799B-ms98-a-0017	B.24	74.963875	75.194250		his	his
sw4799B-ms98-a-0017	B.24	75.194250	75.614250		wife	wife
sw4799B-ms98-a-0017	B.26	75.614250	76.434250		[silence]	[silence]
sw4799B-ms98-a-0017	B.26	76.434250	76.874250		uh	uh
sw4799B-ms98-a-0017	B.26	76.874250	77.144250		[silence]	[silence]
sw4799B-ms98-a-0017	B.26	77.144250	77.324250		we	we
sw4799B-ms98-a-0017	B.26	77.324250	77.820750		also	also
sw4799B-ms98-a-0017	B.26	77.820750	78.660750		[silence]	[silence]
sw4799B-ms98-a-0017	B.26	78.660750	78.864250		put	put
sw4799B-ms98-a-0017	B.26	78.864250	79.054250		her	her
sw4799B-ms98-a-0017	B.26	79.054250	79.144250		in	in
sw4799B-ms98-a-0017	B.26	79.144250	79.214250		a	a
sw4799B-ms98-a-0017	B.26	79.214250	79.454250		rest	rest
sw4799B-ms98-a-0017	B.26	79.454250	79.524250		[silence]	[silence]
sw4799B-ms98-a-0017	B.26	79.524250	79.856750		home	home
sw4799B-ms98-a-0017	B.26	79.856750	80.203250		[silence]	[silence]
sw4799B-ms98-a-0017	B.26	80.203250	80.344250		She	she
sw4799B-ms98-a-0017	B.26	80.344250	80.444250		was	was
sw4799B-ms98-a-0017	B.26	80.444250	80.574250		in	in
sw4799B-ms98-a-0017	B.26	80.574250	80.634250		a	a
sw4799B-ms98-a-0017	B.26	80.634250	80.884250		rest	rest
sw4799B-ms98-a-0017	B.26	80.884250	81.114250		home	home
sw4799B-ms98-a-0017	B.26	81.114250	81.204250		and	and
sw4799B-ms98-a-0017	B.26	81.204250	81.354250		then	then
sw4799B-ms98-a-0017	B.26	81.354250	81.514250		she	she
sw4799B-ms98-a-0017	B.26	81.514250	81.694250		was	was
sw4799B-ms98-a-0017	B.26	81.694250	81.964250		back	back
sw4799B-ms98-a-0017	B.26	81.964250	82.194250		out	out
sw4799B-ms98-a-0017	B.26	82.194250	82.494250		because	because
sw4799B-ms98-a-0017	B.26	82.494250	82.614250		she	she
sw4799B-ms98-a-0017	B.26	82.614250	82.834250		didn't	didn't
sw4799B-ms98-a-0017	B.26	82.834250	83.024250		really	really
sw4799B-ms98-a-0017	B.26	83.024250	83.194250		need	need
sw4799B-ms98-a-0017	B.26	83.194250	83.264250		to	to
sw4799B-ms98-a-0017	B.26	83.264250	83.414250		be	be
sw4799B-ms98-a-0017	B.26	83.414250	83.714250		there	there
sw4799B-ms98-a-0017	B.26	83.714250	84.337750		[silence]	[silence]
sw4799B-ms98-a-0018	B.26	84.337750	84.587750		[silence]	[silence]
sw4799B-ms98-a-0018	B.26	84.587750	85.007750		and	and
sw4799B-ms98-a-0018	B.26	85.007750	85.227750		uh	uh
sw4799B-ms98-a-0018	B.26	85.227750	85.697750		had	had
sw4799B-ms98-a-0018	B.26	85.697750	85.727750		a	a
sw4799B-ms98-a-0018	B.26	85.727750	86.167750		physical	physical
sw4799B-ms98-a-0018	B.26	86.167750	86.357750		[silence]	[silence]
sw4799B-ms98-a-0018	B.26	86.357750	86.497750		had	had
sw4799B-ms98-a-0018	B.26	86.497750	86.557750		a	a
sw4799B-ms98-a-0018	B.26	86.557750	86.787750		good	good
sw4799B-ms98-a-0018	B.26	86.787750	87.187750		physical	physical
sw4799B-ms98-a-0018	B.26	87.187750	87.717750		therapist	therapist
sw4799B-ms98-a-0018	B.26	87.717750	87.817750		at	at
sw4799B-ms98-a-0018	B.26	87.817750	88.007750		that	that
sw4799B-ms98-a-0018	B.26	88.007750	88.347750		place	place
sw4799B-ms98-a-0018	B.26	88.347750	88.686500		[silence]	[silence]
sw4799B-ms98-a-0019	B.26	88.686500	89.036500		[silence]	[silence]
sw4799B-ms98-a-0019	B.26	89.036500	89.196500		and	and
sw4799B-ms98-a-0019	B.28	89.196500	89.306500		they	they
sw4799B-ms98-a-0019	B.28	89.306500	89.596500		worked	worked
sw4799B-ms98-a-0019	B.28	89.596500	89.756500		with	with
sw4799B-ms98-a-0019	B.28	89.756500	90.066500		her	her
sw4799B-ms98-a-0019	B.28	90.066500	90.570250		and	and
sw4799B-ms98-a-0019	B.28	90.570250	91.121500		[silence]	[silence]
sw4799B-ms98-a-0020	B.28	91.121500	91.581500		[silence]	[silence]
sw4799B-ms98-a-0020	B.28	91.581500	91.771500		got	got
sw4799B-ms98-a-0020	B.28	91.771500	91.891500		her	her
sw4799B-ms98-a-0020	B.28	91.891500	92.411500		walking	walking
sw4799B-ms98-a-0020	B.28	92.411500	92.891500		and	and
sw4799B-ms98-a-0020	B.28	92.891500	93.011500		got	got
sw4799B-ms98-a-0020	B.28	93.011500	93.091500		her	her
sw4799B-ms98-a-0020	B.28	93.091500	93.211500		ta-	ta[king]-
sw4799B-ms98-a-0020	B.28	93.211500	93.431500		kind	kind
sw4799B-ms98-a-0020	B.28	93.431500	93.501500		of	of
sw4799B-ms98-a-0020	B.28	93.501500	93.691500		taking	taking
sw4799B-ms98-a-0020	B.28	93.691500	93.851500		care	care
sw4799B-ms98-a-0020	B.28	93.851500	93.921500		of	of
sw4799B-ms98-a-0020	B.28	93.921500	94.311500		herself	herself
sw4799B-ms98-a-0020	B.28	94.311500	94.411500		and	and
sw4799B-ms98-a-0020	B.28	94.411500	94.531500		so	so
sw4799B-ms98-a-0020	B.30	94.531500	94.691500		she	she
sw4799B-ms98-a-0020	B.30	94.691500	94.801500		was	was
sw4799B-ms98-a-0020	B.30	94.801500	95.031500		able	able
sw4799B-ms98-a-0020	B.30	95.031500	95.101500		to	to
sw4799B-ms98-a-0020	B.30	95.101500	95.331500		come	come
sw4799B-ms98-a-0020	B.30	95.331500	95.611500		back	back
sw4799B-ms98-a-0020	B.30	95.611500	96.011500		home	home
sw4799B-ms98-a-0020	B.30	96.011500	96.479375		[silence]	[silence]
sw4799B-ms98-a-0021	B.30	96.479375	96.919375		[silence]	[silence]
sw4799B-ms98-a-0021	B.30	96.919375	97.591625		and	and
sw4799B-ms98-a-0021	B.32	97.591625	98.039875		[silence]	[silence]
sw4799B-ms98-a-0021	B.32	98.039875	98.429375		then	then
sw4799B-ms98-a-0021	B.32	98.429375	98.569375		she	she
sw4799B-ms98-a-0021	B.32	98.569375	98.669375		had	had
sw4799B-ms98-a-0021	B.32	98.669375	98.749375		to	to
sw4799B-ms98-a-0021	B.32	98.749375	98.839375		go	go
sw4799B-ms98-a-0021	B.32	98.839375	99.149375		back	back
sw4799B-ms98-a-0021	B.32	99.149375	99.592875		in	in
sw4799B-ms98-a-0021	B.32	99.592875	100.041125		[silence]	[silence]
sw4799B-ms98-a-0021	B.32	100.041125	100.159375		a	a
sw4799B-ms98-a-0021	B.32	100.159375	100.459375		couple	couple
sw4799B-ms98-a-0021	B.32	100.459375	100.599375		of	of
sw4799B-ms98-a-0021	B.32	100.599375	100.919375		times	times
sw4799B-ms98-a-0021	B.32	100.919375	101.314625		[silence]	[silence]
sw4799B-ms98-a-0022	B.32	101.314625	101.694625		[silence]	[silence]
sw4799B-ms98-a-0022	B.32	101.694625	101.824625		but	but
sw4799B-ms98-a-0022	B.32	101.824625	102.134625		mostly	mostly
sw4799B-ms98-a-0022	B.32	102.134625	102.194625		it	it
sw4799B-ms98-a-0022	B.32	102.194625	102.304625		was	was
sw4799B-ms98-a-0022	B.32	102.304625	102.494625		just	just
sw4799B-ms98-a-0022	B.32	102.494625	102.794625		because	because
sw4799B-ms98-a-0022	B.32	102.794625	103.034625		she	she
sw4799B-ms98-a-0022	B.32	103.034625	103.294625		kind	kind
sw4799B-ms98-a-0022	B.32	103.294625	103.364625		of	of
sw4799B-ms98-a-0022	B.32	103.364625	103.544625		gave	gave
sw4799B-ms98-a-0022	B.32	103.544625	103.834625		up	up
sw4799B-ms98-a-0022	B.34	103.834625	104.346375		[silence]	[silence]
sw4799B-ms98-a-0023	B.34	104.346375	104.846375		[silence]	[silence]
sw4799B-ms98-a-0023	B.34	104.846375	105.346375		And	and
sw4799B-ms98-a-0023	B.34	105.346375	105.486375		they	they
sw4799B-ms98-a-0023	B.34	105.486375	105.646375		got	got
sw4799B-ms98-a-0023	B.34	105.646375	105.756375		her	her
sw4799B-ms98-a-0023	B.34	105.756375	105.996375		going	going
sw4799B-ms98-a-0023	B.34	105.996375	106.286375		again	again
sw4799B-ms98-a-0023	B.36	106.286375	106.997750		[silence]	[silence]
sw4799B-ms98-a-0024	B.36	106.997750	107.657750		[silence]	[silence]
sw4799B-ms98-a-0024	B.36	107.657750	107.737750		So	so
sw4799B-ms98-a-0024	B.36	107.737750	107.787750		I	i
sw4799B-ms98-a-0024	B.36	107.787750	107.987750		guess	guess
sw4799B-ms98-a-0024	B.36	107.987750	108.107750		as	as
sw4799B-ms98-a-0024	B.36	108.107750	108.347750		far	far
sw4799B-ms98-a-0024	B.36	108.347750	108.477750		as	as
sw4799B-ms98-a-0024	B.36	108.477750	108.932750		looking	looking
sw4799B-ms98-a-0024	B.36	108.932750	109.264250		[silence]	[silence]
sw4799B-ms98-a-0024	B.36	109.264250	109.347750	<DEL>	---	and
sw4799B-ms98-a-0024	B.36	109.347750	109.467750		I	i
sw4799B-ms98-a-0024	B.36	109.467750	109.727750		said	said
sw4799B-ms98-a-0024	B.36	109.727750	109.957750	<DEL>	---	the
sw4799B-ms98-a-0024	B.36	109.957750	110.087750		as	as
sw4799B-ms98-a-0024	B.36	110.087750	110.387750		what	what
sw4799B-ms98-a-0024	B.36	110.387750	110.517750		you're	you're
sw4799B-ms98-a-0024	B.36	110.517750	110.817750		looking	looking
sw4799B-ms98-a-0024	B.36	110.817750	110.947750		for	for
sw4799B-ms98-a-0024	B.36	110.947750	111.027750		I	i
sw4799B-ms98-a-0024	B.36	111.027750	111.217750		think	think
sw4799B-ms98-a-0024	B.36	111.217750	111.287750		you	you
sw4799B-ms98-a-0024	B.36	111.287750	111.397750		need	need
sw4799B-ms98-a-0024	B.36	111.397750	111.477750		to	to
sw4799B-ms98-a-0024	B.36	111.477750	111.627750		look	look
sw4799B-ms98-a-0024	B.36	111.627750	111.757750		for	for
sw4799B-ms98-a-0024	B.36	111.757750	111.837750		an	an
sw4799B-ms98-a-0024	B.36	111.837750	112.337750		active	active
sw4799B-ms98-a-0024	B.36	112.337750	112.706500		[silence]	[silence]
sw4799B-ms98-a-0025	B.36	112.706500	113.166500		[silence]	[silence]
sw4799B-ms98-a-0025	B.36	113.166500	113.636500		uh	uh
sw4799B-ms98-a-0025	B.36	113.636500	113.636500	<INS>	an	---
sw4799B-ms98-a-0025	B.36	113.636500	114.113625		[silence]	[silence]
sw4799B-ms98-a-0026	B.36	114.113625	115.285875		[silence]	[silence]
sw4799B-ms98-a-0027	B.36	115.285875	115.735875		[silence]	[silence]
sw4799B-ms98-a-0027	B.36	115.735875	116.435875		[vocalized-noise]	[vocalized-noise]
sw4799B-ms98-a-0027	B.36	116.435875	117.453125		interactive	interactive
sw4799B-ms98-a-0027	B.36	117.453125	117.798875		[silence]	[silence]
sw4799B-ms98-a-0027	B.36	117.798875	118.335875		staff	staff
sw4799B-ms98-a-0027	B.38	118.335875	118.717625		[silence]	[silence]
sw4799B-ms98-a-0028	B.38	118.717625	119.740000		[silence]	[silence]
sw4799B-ms98-a-0029	B.38	119.740000	120.160000		[silence]	[silence]
sw4799B-ms98-a-0029	B.38	120.160000	120.530000		Somebody	somebody
sw4799B-ms98-a-0029	B.38	120.530000	120.830000	<CONT>	who	who's
sw4799B-ms98-a-0029	B.38	120.830000	120.830000	<CONT>	is	+++
sw4799B-ms98-a-0029	B.38	120.830000	121.350000		[silence]	[silence]
sw4799B-ms98-a-0029	B.38	121.350000	121.720000		willing	willing
sw4799B-ms98-a-0029	B.38	121.720000	121.900000		to	to
sw4799B-ms98-a-0029	B.38	121.900000	122.110000		work	work
sw4799B-ms98-a-0029	B.38	122.110000	122.370000		with	with
sw4799B-ms98-a-0029	B.38	122.370000	122.490000		uh	uh
sw4799B-ms98-a-0029	B.38	122.490000	122.820000		[silence]	[silence]
sw4799B-ms98-a-0029	B.38	122.820000	122.910000		you	you
sw4799B-ms98-a-0029	B.38	122.910000	123.000000		know	know
sw4799B-ms98-a-0029	B.38	123.000000	123.230000		work	work
sw4799B-ms98-a-0029	B.38	123.230000	123.400000		with	with
sw4799B-ms98-a-0029	B.38	123.400000	123.440000		a	a
sw4799B-ms98-a-0029	B.38	123.440000	123.960000		patients	patients
sw4799B-ms98-a-0029	B.38	123.960000	124.090000		and	and
sw4799B-ms98-a-0029	B.38	124.090000	124.320375		do	do
sw4799B-ms98-a-0029	B.40	124.320375	124.957000		[silence]	[silence]
sw4799B-ms98-a-0029	B.40	124.957000	125.200000		do	do
sw4799B-ms98-a-0029	B.40	125.200000	125.450000		things	things
sw4799B-ms98-a-0029	B.40	125.450000	125.630000		with	with
sw4799B-ms98-a-0029	B.40	125.630000	125.720000		them	them_1
sw4799B-ms98-a-0029	B.40	125.720000	125.830000		and	and
sw4799B-ms98-a-0029	B.40	125.830000	126.020000		treat	treat
sw4799B-ms98-a-0029	B.40	126.020000	126.180000		them	them_1
sw4799B-ms98-a-0029	B.40	126.180000	126.830000		[silence]	[silence]
sw4799B-ms98-a-0029	B.40	126.830000	127.050000		treat	treat
sw4799B-ms98-a-0029	B.40	127.050000	127.180000	<DEL>	---	them_1
sw4799B-ms98-a-0029	B.40	127.180000	127.380000		like	like
sw4799B-ms98-a-0029	B.40	127.380000	127.608625	<SUB>	they're	that
sw4799B-ms98-a-0029	B.42	127.608625	128.029375		[silence]	[silence]
sw4799B-ms98-a-0030	B.42	128.029375	129.579375		[silence]	[silence]
sw4799B-ms98-a-0030	B.42	129.579375	129.854875		It	it
sw4799B-ms98-a-0030	B.42	129.854875	130.058250		it	it
sw4799B-ms98-a-0030	B.42	130.058250	130.379375		is	is
sw4799B-ms98-a-0030	B.44	130.379375	131.009375		[laughter]	[laughter]
sw4799B-ms98-a-0030	B.44	131.009375	131.156000		[silence]	[silence]
sw4799B-ms98-a-0031	B.44	131.156000	131.326000		[silence]	[silence]
sw4799B-ms98-a-0031	B.44	131.326000	131.516000		It	it
sw4799B-ms98-a-0031	B.44	131.516000	131.656000		is	is
sw4799B-ms98-a-0031	B.44	131.656000	132.386000		expensive	expensive
sw4799B-ms98-a-0031	B.46	132.386000	133.057750		[silence]	[silence]
sw4799B-ms98-a-0032	B.46	133.057750	133.637750		[silence]	[silence]
sw4799B-ms98-a-0032	B.46	133.637750	133.887750	<DEL>	---	what
sw4799B-ms98-a-0032	B.46	133.887750	134.512125		[silence]	[silence]
sw4799B-ms98-a-0033	B.46	134.512125	136.213000		[silence]	[silence]
sw4799B-ms98-a-0034	B.46	136.213000	136.613000		[silence]	[silence]
sw4799B-ms98-a-0034	B.46	136.613000	136.893000		Uh-huh	uh-huh
sw4799B-ms98-a-0034	B.48	136.893000	137.414625		[silence]	[silence]
sw4799B-ms98-a-0035	B.48	137.414625	142.155500		[silence]	[silence]
sw4799B-ms98-a-0036	B.48	142.155500	142.635500		[silence]	[silence]
sw4799B-ms98-a-0036	B.48	142.635500	142.925500		Oh	oh
sw4799B-ms98-a-0036	B.48	142.925500	143.327250		uh-huh	uh-huh
sw4799B-ms98-a-0036	B.50	143.327250	143.809125		[silence]	[silence]
sw4799B-ms98-a-0037	B.50	143.809125	148.521750		[silence]	[silence]
sw4799B-ms98-a-0038	B.50	148.521750	148.921750		[silence]	[silence]
sw4799B-ms98-a-0038	B.50	148.921750	149.561750	<SUB>	Uh-huh	um-hum
sw4799B-ms98-a-0038	B.52	149.561750	149.853875		[silence]	[silence]
sw4799B-ms98-a-0039	B.52	149.853875	161.578500		[silence]	[silence]
sw4799B-ms98-a-0040	B.52	161.578500	162.058500		[silence]	[silence]
sw4799B-ms98-a-0040	B.52	162.058500	162.368500		Uh-huh	uh-huh
sw4799B-ms98-a-0040	B.54	162.368500	162.905500		[silence]	[silence]
sw4799B-ms98-a-0041	B.54	162.905500	164.023125		[silence]	[silence]
sw4799B-ms98-a-0042	B.54	164.023125	164.515750		[silence]	[silence]
sw4799B-ms98-a-0042	B.54	164.515750	164.953125		When	when
sw4799B-ms98-a-0042	B.54	164.953125	165.143125		she	she
sw4799B-ms98-a-0042	B.54	165.143125	165.323125		can't	can't
sw4799B-ms98-a-0042	B.54	165.323125	165.463125		take	take
sw4799B-ms98-a-0042	B.54	165.463125	165.623125		care	care
sw4799B-ms98-a-0042	B.54	165.623125	165.683125		of	of
sw4799B-ms98-a-0042	B.54	165.683125	166.103125		herself	herself
sw4799B-ms98-a-0042	B.56	166.103125	166.301125		[silence]	[silence]
sw4799B-ms98-a-0043	B.56	166.301125	173.202625		[silence]	[silence]
sw4799B-ms98-a-0044	B.56	173.202625	173.692625		[silence]	[silence]
sw4799B-ms98-a-0044	B.56	173.692625	174.034250	<SUB>	Uh-huh	um-hum
sw4799B-ms98-a-0044	B.58	174.034250	174.735375		[silence]	[silence]
sw4799B-ms98-a-0044	B.58	174.735375	174.895375		Now	now
sw4799B-ms98-a-0044	B.60	174.895375	175.129875	<DEL>	---	th[at]-
sw4799B-ms98-a-0044	B.60	175.129875	175.582500		[silence]	[silence]
sw4799B-ms98-a-0045	B.60	175.582500	179.676375		[silence]	[silence]
sw4799B-ms98-a-0046	B.60	179.676375	180.016375		[silence]	[silence]
sw4799B-ms98-a-0046	B.60	180.016375	180.486375		Uh-huh	uh-huh
sw4799B-ms98-a-0046	B.60	180.486375	181.170625		[silence]	[silence]
sw4799B-ms98-a-0047	B.60	181.170625	181.620625		[silence]	[silence]
sw4799B-ms98-a-0047	B.60	181.620625	182.050625		Does	does
sw4799B-ms98-a-0047	B.60	182.050625	182.210625		she	she
sw4799B-ms98-a-0047	B.60	182.210625	182.490625		have	have
sw4799B-ms98-a-0047	B.60	182.490625	182.770625		a	a
sw4799B-ms98-a-0047	B.60	182.770625	182.900625		is	is
sw4799B-ms98-a-0047	B.60	182.900625	183.130625		it	it
sw4799B-ms98-a-0047	B.60	183.130625	183.300625		like	like
sw4799B-ms98-a-0047	B.60	183.300625	183.430625		a	a
sw4799B-ms98-a-0047	B.60	183.430625	184.100625		kitchenette	kitchenette
sw4799B-ms98-a-0047	B.60	184.100625	184.550625		[silence]	[silence]
sw4799B-ms98-a-0047	B.60	184.550625	184.820625		type	type
sw4799B-ms98-a-0047	B.60	184.820625	185.360625		apartment	apartment
sw4799B-ms98-a-0047	B.60	185.360625	185.510625		where	where
sw4799B-ms98-a-0047	B.60	185.510625	185.650625		she	she
sw4799B-ms98-a-0047	B.60	185.650625	186.070625		can	can
sw4799B-ms98-a-0047	B.60	186.070625	186.340625		fix	fix
sw4799B-ms98-a-0047	B.60	186.340625	186.450625		her	her
sw4799B-ms98-a-0047	B.60	186.450625	186.620625		own	own
sw4799B-ms98-a-0047	B.60	186.620625	186.820625		food	food
sw4799B-ms98-a-0047	B.60	186.820625	186.920625		if	if
sw4799B-ms98-a-0047	B.60	186.920625	187.070625		she	she
sw4799B-ms98-a-0047	B.60	187.070625	187.350625		wants	wants
sw4799B-ms98-a-0047	B.60	187.350625	187.530625		to	to
sw4799B-ms98-a-0047	B.62	187.530625	187.870625		or	or
sw4799B-ms98-a-0047	B.62	187.870625	187.960625		she	she
sw4799B-ms98-a-0047	B.62	187.960625	188.140625		can	can
sw4799B-ms98-a-0047	B.62	188.140625	188.270625		go	go
sw4799B-ms98-a-0047	B.62	188.270625	188.480625		down	down
sw4799B-ms98-a-0047	B.62	188.480625	188.590625		to	to
sw4799B-ms98-a-0047	B.62	188.590625	188.698500		the	the
sw4799B-ms98-a-0047	B.62	188.698500	189.393375		cafeteria	cafeteria
sw4799B-ms98-a-0047	B.64	189.393375	189.893375		[silence]	[silence]
sw4799B-ms98-a-0048	B.64	189.893375	196.726750		[silence]	[silence]
sw4799B-ms98-a-0049	B.64	196.726750	197.206750		[silence]	[silence]
sw4799B-ms98-a-0049	B.64	197.206750	197.526750		Uh-huh	uh-huh
sw4799B-ms98-a-0049	B.66	197.526750	197.526750	<INS>	In	---
sw4799B-ms98-a-0049	B.66	197.526750	198.399000		[silence]	[silence]
sw4799B-ms98-a-0050	B.66	198.399000	199.239000		[silence]	[silence]
sw4799B-ms98-a-0050	B.66	199.239000	199.609000		fact	fact
sw4799B-ms98-a-0050	B.66	199.609000	199.941750		I	i
sw4799B-ms98-a-0050	B.68	199.941750	200.409125		[silence]	[silence]
sw4799B-ms98-a-0051	B.68	200.409125	206.727250		[silence]	[silence]
sw4799B-ms98-a-0052	B.68	206.727250	207.217250		[silence]	[silence]
sw4799B-ms98-a-0052	B.68	207.217250	207.497250		Uh-huh	uh-huh
sw4799B-ms98-a-0052	B.70	207.497250	208.212875		[silence]	[silence]
sw4799B-ms98-a-0053	B.70	208.212875	208.902875		[silence]	[silence]
sw4799B-ms98-a-0053	B.70	208.902875	209.019750		Yeah	yeah
sw4799B-ms98-a-0053	B.70	209.019750	209.223250	<SUB>	I	i-
sw4799B-ms98-a-0053	B.70	209.223250	209.442875		I	i
sw4799B-ms98-a-0053	B.70	209.442875	209.712875		really	really
sw4799B-ms98-a-0053	B.70	209.712875	209.992875		like	like
sw4799B-ms98-a-0053	B.70	209.992875	210.192875		that	that
sw4799B-ms98-a-0053	B.70	210.192875	210.762875		concept	concept
sw4799B-ms98-a-0053	B.72	210.762875	210.982875		They've	they've
sw4799B-ms98-a-0053	B.72	210.982875	211.352875		[silence]	[silence]
sw4799B-ms98-a-0053	B.72	211.352875	211.472875		they	they
sw4799B-ms98-a-0053	B.72	211.472875	211.772875		have	have
sw4799B-ms98-a-0053	B.72	211.772875	211.872875		a	a
sw4799B-ms98-a-0053	B.72	211.872875	212.132875		few	few
sw4799B-ms98-a-0053	B.72	212.132875	212.222875		of	of
sw4799B-ms98-a-0053	B.72	212.222875	212.422875		those	those
sw4799B-ms98-a-0053	B.72	212.422875	213.022875		[silence]	[silence]
sw4799B-ms98-a-0053	B.72	213.022875	213.142875		well	well
sw4799B-ms98-a-0053	B.72	213.142875	213.362875		quite	quite
sw4799B-ms98-a-0053	B.72	213.362875	213.392875		a	a
sw4799B-ms98-a-0053	B.72	213.392875	213.522875		few	few
sw4799B-ms98-a-0053	B.72	213.522875	213.592875		of	of
sw4799B-ms98-a-0053	B.72	213.592875	213.762875		those	those
sw4799B-ms98-a-0053	B.72	213.762875	214.172875		places	places
sw4799B-ms98-a-0053	B.72	214.172875	214.352875		like	like
sw4799B-ms98-a-0053	B.72	214.352875	214.542875		that	that
sw4799B-ms98-a-0053	B.72	214.542875	214.682875		here	here
sw4799B-ms98-a-0053	B.72	214.682875	214.792875		in	in
sw4799B-ms98-a-0053	B.72	214.792875	215.250875		Utah	Utah
sw4799B-ms98-a-0053	B.72	215.250875	215.670125		and	and
sw4799B-ms98-a-0053	B.72	215.670125	216.061625		[silence]	[silence]
sw4799B-ms98-a-0053	B.72	216.061625	216.450500	<DEL>	---	uh
sw4799B-ms98-a-0053	B.72	216.450500	216.680250		[silence]	[silence]
sw4799B-ms98-a-0053	B.72	216.680250	216.822875		you	you
sw4799B-ms98-a-0053	B.72	216.822875	216.972875		know	know
sw4799B-ms98-a-0053	B.72	216.972875	217.239250	<DEL>	---	i
sw4799B-ms98-a-0053	B.72	217.239250	217.835375		[silence]	[silence]
sw4799B-ms98-a-0054	B.72	217.835375	218.465375		[silence]	[silence]
sw4799B-ms98-a-0054	B.72	218.465375	218.845375		couples	couples
sw4799B-ms98-a-0054	B.72	218.845375	219.185375		can	can
sw4799B-ms98-a-0054	B.72	219.185375	219.255375		you	you
sw4799B-ms98-a-0054	B.72	219.255375	219.355375		know	know
sw4799B-ms98-a-0054	B.72	219.355375	219.635375		husband	husband
sw4799B-ms98-a-0054	B.72	219.635375	219.755375		and	and
sw4799B-ms98-a-0054	B.72	219.755375	220.045375		wife	wife
sw4799B-ms98-a-0054	B.72	220.045375	220.295375		can	can
sw4799B-ms98-a-0054	B.72	220.295375	220.415375		[silence]	[silence]
sw4799B-ms98-a-0054	B.72	220.415375	220.615375		can	can
sw4799B-ms98-a-0054	B.72	220.615375	220.795375		live	live
sw4799B-ms98-a-0054	B.72	220.795375	220.975375		there	there
sw4799B-ms98-a-0054	B.72	220.975375	221.315375		too	too
sw4799B-ms98-a-0054	B.72	221.315375	221.725375		or	or
sw4799B-ms98-a-0054	B.72	221.725375	222.515375		[silence]	[silence]
sw4799B-ms98-a-0054	B.72	222.515375	222.665375		or	or
sw4799B-ms98-a-0054	B.72	222.665375	223.205375		whatever	whatever
sw4799B-ms98-a-0054	B.72	223.205375	223.295375		I	i
sw4799B-ms98-a-0054	B.72	223.295375	223.603250		and	and
sw4799B-ms98-a-0054	B.72	223.603250	224.172000		[silence]	[silence]
sw4799B-ms98-a-0054	B.72	224.172000	224.545375	<DEL>	---	an[d]-
sw4799B-ms98-a-0054	B.72	224.545375	224.885375		and	and
sw4799B-ms98-a-0054	B.72	224.885375	224.975375		then	then
sw4799B-ms98-a-0054	B.72	224.975375	225.165375		and	and
sw4799B-ms98-a-0054	B.72	225.165375	225.345375		yet	yet
sw4799B-ms98-a-0054	B.72	225.345375	225.475375		they	they
sw4799B-ms98-a-0054	B.72	225.475375	225.785375		have	have
sw4799B-ms98-a-0054	B.72	225.785375	225.955375		their	their
sw4799B-ms98-a-0054	B.72	225.955375	226.215375		[silence]	[silence]
sw4799B-ms98-a-0054	B.72	226.215375	226.335375		their	their
sw4799B-ms98-a-0054	B.72	226.335375	226.925375		friendships	friendships
sw4799B-ms98-a-0054	B.72	226.925375	227.015375		and	and
sw4799B-ms98-a-0054	B.72	227.015375	227.725375		relationships	relationships
sw4799B-ms98-a-0054	B.72	227.725375	227.725375	<INS>	and	---
sw4799B-ms98-a-0054	B.72	227.725375	227.915375		[silence]	[silence]
sw4799B-ms98-a-0054	B.72	227.915375	228.185375		the	the
sw4799B-ms98-a-0054	B.72	228.185375	228.574625		[noise]	[noise]
sw4799B-ms98-a-0054	B.72	228.574625	228.809000		[silence]	[silence]
sw4799B-ms98-a-0055	B.72	228.809000	229.229000		[silence]	[silence]
sw4799B-ms98-a-0055	B.72	229.229000	229.319000		you	you
sw4799B-ms98-a-0055	B.72	229.319000	229.429000		know	know
sw4799B-ms98-a-0055	B.72	229.429000	229.569000		of	of
sw4799B-ms98-a-0055	B.72	229.569000	229.829000		getting	getting
sw4799B-ms98-a-0055	B.72	229.829000	230.169000		together	together
sw4799B-ms98-a-0055	B.72	230.169000	230.269000		and	and
sw4799B-ms98-a-0055	B.72	230.269000	230.509000		eating	eating
sw4799B-ms98-a-0055	B.72	230.509000	230.919000		together	together
sw4799B-ms98-a-0055	B.72	230.919000	231.039000		and	and
sw4799B-ms98-a-0055	B.72	231.039000	231.179000		all	all
sw4799B-ms98-a-0055	B.72	231.179000	231.299000		of	of
sw4799B-ms98-a-0055	B.72	231.299000	231.539000		that	that
sw4799B-ms98-a-0055	B.74	231.539000	232.386875		[silence]	[silence]
sw4799B-ms98-a-0056	B.74	232.386875	233.190125		[silence]	[silence]
sw4799B-ms98-a-0056	B.74	233.190125	233.434875	<SUB>	I	i-
sw4799B-ms98-a-0056	B.74	233.434875	233.939625		[silence]	[silence]
sw4799B-ms98-a-0056	B.74	233.939625	234.026875		I	i
sw4799B-ms98-a-0056	B.74	234.026875	234.186875		think	think
sw4799B-ms98-a-0056	B.74	234.186875	234.276875		it	it
sw4799B-ms98-a-0056	B.74	234.276875	234.496875		really	really
sw4799B-ms98-a-0056	B.74	234.496875	235.076875		takes	takes
sw4799B-ms98-a-0056	B.74	235.076875	235.471000	<SUB>	uh	um
sw4799B-ms98-a-0056	B.74	235.471000	236.444875		[silence]	[silence]
sw4799B-ms98-a-0057	B.74	236.444875	237.184875		[silence]	[silence]
sw4799B-ms98-a-0057	B.74	237.184875	237.374875	<DEL>	---	y[ou]-
sw4799B-ms98-a-0057	B.74	237.374875	237.474875		you	you
sw4799B-ms98-a-0057	B.74	237.474875	237.728000		know	know
sw4799B-ms98-a-0057	B.74	237.728000	238.240250		[silence]	[silence]
sw4799B-ms98-a-0057	B.74	238.240250	238.624875		looking	looking
sw4799B-ms98-a-0057	B.74	238.624875	238.794875		more	more
sw4799B-ms98-a-0057	B.74	238.794875	238.884875		at	at
sw4799B-ms98-a-0057	B.74	238.884875	238.944875		the	the
sw4799B-ms98-a-0057	B.74	238.944875	239.364875		people	people
sw4799B-ms98-a-0057	B.74	239.364875	239.584875		than	than
sw4799B-ms98-a-0057	B.74	239.584875	239.904875		even	even
sw4799B-ms98-a-0057	B.74	239.904875	240.184875		really	really
sw4799B-ms98-a-0057	B.74	240.184875	240.264875		the	the
sw4799B-ms98-a-0057	B.74	240.264875	240.944875		facilities	facilities
sw4799B-ms98-a-0057	B.76	240.944875	241.397375		[silence]	[silence]
sw4799B-ms98-a-0058	B.76	241.397375	245.038500		[silence]	[silence]
sw4799B-ms98-a-0059	B.76	245.038500	245.518500		[silence]	[silence]
sw4799B-ms98-a-0059	B.76	245.518500	245.778500		Uh-huh	uh-huh
sw4799B-ms98-a-0059	B.78	245.778500	246.284500		[silence]	[silence]
sw4799B-ms98-a-0060	B.78	246.284500	262.290000		[silence]	[silence]
sw4799B-ms98-a-0061	B.78	262.290000	262.790000		[silence]	[silence]
sw4799B-ms98-a-0061	B.78	262.790000	263.070000	<DEL>	---	um-hum
sw4799B-ms98-a-0061	B.78	263.070000	263.551250		[silence]	[silence]
sw4799B-ms98-a-0062	B.78	263.551250	268.696875		[silence]	[silence]
sw4799B-ms98-a-0063	B.78	268.696875	269.196875		[silence]	[silence]
sw4799B-ms98-a-0063	B.78	269.196875	269.586875		Yeah	yeah
sw4799B-ms98-a-0063	B.80	269.586875	270.040000		[silence]	[silence]
sw4799B-ms98-a-0064	B.80	270.040000	272.962625		[silence]	[silence]
sw4799B-ms98-a-0065	B.80	272.962625	273.452625		[silence]	[silence]
sw4799B-ms98-a-0065	B.80	273.452625	273.762875	<SUB>	Yes	yeah
sw4799B-ms98-a-0065	B.82	273.762875	274.231000		[silence]	[silence]
sw4799B-ms98-a-0066	B.82	274.231000	276.089625		[silence]	[silence]
sw4799B-ms98-a-0067	B.82	276.089625	276.549625		[silence]	[silence]
sw4799B-ms98-a-0067	B.82	276.549625	276.659625		Well	well
sw4799B-ms98-a-0067	B.82	276.659625	276.819625	<SUB>	I	i-
sw4799B-ms98-a-0067	B.82	276.819625	277.019625		I	i
sw4799B-ms98-a-0067	B.82	277.019625	277.379625		think	think
sw4799B-ms98-a-0067	B.82	277.379625	277.629625		that	that
sw4799B-ms98-a-0067	B.82	277.629625	277.909625		that's	that's
sw4799B-ms98-a-0067	B.82	277.909625	277.999625		the	the
sw4799B-ms98-a-0067	B.82	277.999625	278.229625		thing	thing
sw4799B-ms98-a-0067	B.82	278.229625	278.379625		that's	that's
sw4799B-ms98-a-0067	B.82	278.379625	278.439625		a	a
sw4799B-ms98-a-0067	B.82	278.439625	278.729625		little	little
sw4799B-ms98-a-0067	B.82	278.729625	278.939625		bit	bit
sw4799B-ms98-a-0067	B.82	278.939625	279.199625		[silence]	[silence]
sw4799B-ms98-a-0067	B.82	279.199625	279.709625		scary	scary
sw4799B-ms98-a-0067	B.82	279.709625	279.799625		[silence]	[silence]
sw4799B-ms98-a-0067	B.82	279.799625	279.869625		you	you
sw4799B-ms98-a-0067	B.82	279.869625	280.029625		know	know
sw4799B-ms98-a-0067	B.82	280.029625	280.059625		a	a
sw4799B-ms98-a-0067	B.82	280.059625	280.259625		little	little
sw4799B-ms98-a-0067	B.82	280.259625	280.419625		bit	bit
sw4799B-ms98-a-0067	B.82	280.419625	280.659625		tough	tough
sw4799B-ms98-a-0067	B.82	280.659625	280.929625		about	about
sw4799B-ms98-a-0067	B.82	280.929625	281.239625		putting	putting
sw4799B-ms98-a-0067	B.82	281.239625	281.429625		them	them
sw4799B-ms98-a-0067	B.82	281.429625	281.499625		in	in
sw4799B-ms98-a-0067	B.82	281.499625	281.569625		a	a
sw4799B-ms98-a-0067	B.82	281.569625	281.809625		rest	rest
sw4799B-ms98-a-0067	B.82	281.809625	281.979625		home	home
sw4799B-ms98-a-0067	B.82	281.979625	282.159625		is	is
sw4799B-ms98-a-0067	B.82	282.159625	282.567250		it's	it's
sw4799B-ms98-a-0067	B.82	282.567250	283.038000		[silence]	[silence]
sw4799B-ms98-a-0067	B.82	283.038000	283.309625		it's	it's
sw4799B-ms98-a-0067	B.82	283.309625	283.679625		almost	almost
sw4799B-ms98-a-0067	B.82	283.679625	283.889625		like	like
sw4799B-ms98-a-0067	B.82	283.889625	284.179625		that	that
sw4799B-ms98-a-0067	B.82	284.179625	284.539625		[silence]	[silence]
sw4799B-ms98-a-0067	B.82	284.539625	284.609625		you	you
sw4799B-ms98-a-0067	B.82	284.609625	284.719625		know	know
sw4799B-ms98-a-0067	B.82	284.719625	284.849625		they	they
sw4799B-ms98-a-0067	B.82	284.849625	284.989625		say	say
sw4799B-ms98-a-0067	B.82	284.989625	285.239625		putting	putting
sw4799B-ms98-a-0067	B.82	285.239625	285.369625		them	them_1
sw4799B-ms98-a-0067	B.82	285.369625	285.509625		out	out
sw4799B-ms98-a-0067	B.82	285.509625	285.609625		to	to
sw4799B-ms98-a-0067	B.82	285.609625	286.229625		pasture	pasture
sw4799B-ms98-a-0067	B.82	286.229625	286.599250		[silence]	[silence]
sw4799B-ms98-a-0068	B.82	286.599250	287.029250		[silence]	[silence]
sw4799B-ms98-a-0068	B.82	287.029250	287.509250		and	and
sw4799B-ms98-a-0068	B.82	287.509250	287.889250		[silence]	[silence]
sw4799B-ms98-a-0068	B.82	287.889250	288.319250		some	some
sw4799B-ms98-a-0068	B.82	288.319250	288.549250		some	some
sw4799B-ms98-a-0068	B.82	288.549250	288.679250		of	of
sw4799B-ms98-a-0068	B.82	288.679250	288.749250		the	the
sw4799B-ms98-a-0068	B.82	288.749250	289.299250		people	people
sw4799B-ms98-a-0068	B.82	289.299250	289.449250		[silence]	[silence]
sw4799B-ms98-a-0068	B.82	289.449250	289.569250		that	that
sw4799B-ms98-a-0068	B.82	289.569250	289.679250		were	were
sw4799B-ms98-a-0068	B.82	289.679250	289.859250		there	there
sw4799B-ms98-a-0068	B.82	289.859250	290.009250		with	with
sw4799B-ms98-a-0068	B.82	290.009250	290.129250		my	my
sw4799B-ms98-a-0068	B.82	290.129250	290.689250		grandmother	grandmother
sw4799B-ms98-a-0068	B.82	290.689250	290.849250		were	were
sw4799B-ms98-a-0068	B.82	290.849250	291.149250		really	really
sw4799B-ms98-a-0068	B.82	291.149250	291.639250		active	active
sw4799B-ms98-a-0068	B.84	291.639250	292.259250		[silence]	[silence]
sw4799B-ms98-a-0068	B.84	292.259250	292.449250		They	they
sw4799B-ms98-a-0068	B.84	292.449250	292.689250		they	they
sw4799B-ms98-a-0068	B.84	292.689250	293.069250		wanted	wanted
sw4799B-ms98-a-0068	B.84	293.069250	293.189250		to	to
sw4799B-ms98-a-0068	B.84	293.189250	293.339250		do	do
sw4799B-ms98-a-0068	B.84	293.339250	293.579250		things	things
sw4799B-ms98-a-0068	B.84	293.579250	293.689250		They	they
sw4799B-ms98-a-0068	B.84	293.689250	293.919250		didn't	didn't
sw4799B-ms98-a-0068	B.84	293.919250	293.999250		you	you
sw4799B-ms98-a-0068	B.84	293.999250	294.109250		know	know
sw4799B-ms98-a-0068	B.84	294.109250	294.219250		they	they
sw4799B-ms98-a-0068	B.84	294.219250	294.399250		didn't	didn't
sw4799B-ms98-a-0068	B.84	294.399250	294.589250	<SUB>	want	wanna
sw4799B-ms98-a-0068	B.84	294.589250	294.589250	<INS>	to	---
sw4799B-ms98-a-0068	B.84	294.589250	294.679250		go	go
sw4799B-ms98-a-0068	B.84	294.679250	294.889250		down	down
sw4799B-ms98-a-0068	B.84	294.889250	294.979250		and	and
sw4799B-ms98-a-0068	B.84	294.979250	295.129250		play	play
sw4799B-ms98-a-0068	B.84	295.129250	295.649250		bingo	bingo
sw4799B-ms98-a-0068	B.84	295.649250	295.949250		or	or
sw4799B-ms98-a-0068	B.84	295.949250	296.589250		[silence]	[silence]
sw4799B-ms98-a-0068	B.84	296.589250	296.989250	<SUB>	uh	um
sw4799B-ms98-a-0068	B.84	296.989250	297.561500		[silence]	[silence]
sw4799B-ms98-a-0069	B.84	297.561500	298.071500		[silence]	[silence]
sw4799B-ms98-a-0069	B.84	298.071500	298.151500		you	you
sw4799B-ms98-a-0069	B.84	298.151500	298.251500		know	know
sw4799B-ms98-a-0069	B.84	298.251500	298.471500		play	play
sw4799B-ms98-a-0069	B.84	298.471500	298.601500		with	with
sw4799B-ms98-a-0069	B.84	298.601500	298.661500		the	the
sw4799B-ms98-a-0069	B.84	298.661500	298.894750	<SUB>	oranges	yarn
sw4799B-ms98-a-0069	B.84	298.894750	298.914000		[silence]	[silence]
