sw4840A-ms98-a-0001	A.1	0.000000	0.007250		[silence]	[silence]
sw4840A-ms98-a-0001	A.1	0.007250	0.019250		[noise]	[noise]
sw4840A-ms98-a-0001	A.1	0.019250	0.628750		Okay	okay
sw4840A-ms98-a-0001	A.1	0.628750	0.930000		uh	uh
sw4840A-ms98-a-0001	A.1	0.930000	1.833875		[laughter]	[laughter]
sw4840A-ms98-a-0001	A.1	1.833875	2.425250		[silence]	[silence]
sw4840A-ms98-a-0002	A.1	2.425250	2.522250		[silence]	[silence]
sw4840A-ms98-a-0002	A.1	2.522250	2.905250		well	well
sw4840A-ms98-a-0002	A.1	2.905250	3.025250		we	we
sw4840A-ms98-a-0002	A.1	3.025250	3.185250		just	just
sw4840A-ms98-a-0002	A.1	3.185250	3.355250		got	got
sw4840A-ms98-a-0002	A.1	3.355250	3.473375		our	our
sw4840A-ms98-a-0002	A.1	3.473375	3.877125		income	income
sw4840A-ms98-a-0002	A.1	3.877125	4.165250		tax	tax
sw4840A-ms98-a-0002	A.1	4.165250	4.475250		return	return
sw4840A-ms98-a-0002	A.1	4.475250	4.565250		and	and
sw4840A-ms98-a-0002	A.1	4.565250	4.685250		I'm	i'm
sw4840A-ms98-a-0002	A.1	4.685250	5.135250		perfectly	perfectly
sw4840A-ms98-a-0002	A.1	5.135250	5.395250		happy	happy
sw4840A-ms98-a-0002	A.1	5.395250	5.515250		What	what
sw4840A-ms98-a-0002	A.1	5.515250	5.745250		about	about
sw4840A-ms98-a-0002	A.1	5.745250	6.115250		you	you
sw4840A-ms98-a-0002	A.3	6.115250	7.899375		[laughter]	[laughter]
sw4840A-ms98-a-0002	A.3	7.899375	8.298125		[silence]	[silence]
sw4840A-ms98-a-0003	A.3	8.298125	10.903250		[silence]	[silence]
sw4840A-ms98-a-0004	A.3	10.903250	11.398375		[silence]	[silence]
sw4840A-ms98-a-0004	A.3	11.398375	11.766000		Uh-huh	uh-huh
sw4840A-ms98-a-0004	A.5	11.766000	12.373125		[silence]	[silence]
sw4840A-ms98-a-0005	A.5	12.373125	13.007250		[silence]	[silence]
sw4840A-ms98-a-0005	A.5	13.007250	13.410750		Uh-huh	uh-huh
sw4840A-ms98-a-0005	A.7	13.410750	13.897625		[silence]	[silence]
sw4840A-ms98-a-0006	A.7	13.897625	16.754875		[silence]	[silence]
sw4840A-ms98-a-0007	A.7	16.754875	17.266000		[silence]	[silence]
sw4840A-ms98-a-0007	A.7	17.266000	17.693125		Yeah	yeah
sw4840A-ms98-a-0007	A.9	17.693125	18.205125		[silence]	[silence]
sw4840A-ms98-a-0008	A.9	18.205125	19.375000		[silence]	[silence]
sw4840A-ms98-a-0009	A.9	19.375000	19.890875		[silence]	[silence]
sw4840A-ms98-a-0009	A.9	19.890875	20.258250		Yeah	yeah
sw4840A-ms98-a-0009	A.11	20.258250	20.641875		[silence]	[silence]
sw4840A-ms98-a-0010	A.11	20.641875	21.680875		[silence]	[silence]
sw4840A-ms98-a-0011	A.11	21.680875	22.152125		[silence]	[silence]
sw4840A-ms98-a-0011	A.11	22.152125	22.300875		But	but
sw4840A-ms98-a-0011	A.11	22.300875	22.450875		as	as
sw4840A-ms98-a-0011	A.11	22.450875	22.780875		far	far
sw4840A-ms98-a-0011	A.11	22.780875	22.950875		as	as
sw4840A-ms98-a-0011	A.11	22.950875	23.290875		writing	writing
sw4840A-ms98-a-0011	A.11	23.290875	23.680875		checks	checks
sw4840A-ms98-a-0011	A.11	23.680875	23.830875		out	out
sw4840A-ms98-a-0011	A.11	23.830875	23.960875		and	and
sw4840A-ms98-a-0011	A.11	23.960875	24.240875		paying	paying
sw4840A-ms98-a-0011	A.11	24.240875	24.720875		taxes	taxes
sw4840A-ms98-a-0011	A.11	24.720875	24.856375		I	i
sw4840A-ms98-a-0011	A.11	24.856375	25.080875		think	think
sw4840A-ms98-a-0011	A.11	25.080875	25.240875		it's	it's
sw4840A-ms98-a-0011	A.11	25.240875	25.561500		pretty	pretty
sw4840A-ms98-a-0011	A.11	25.561500	25.980875		high	high
sw4840A-ms98-a-0011	A.11	25.980875	26.120875		But	but
sw4840A-ms98-a-0011	A.11	26.120875	26.346250		I	i
sw4840A-ms98-a-0011	A.11	26.346250	26.470500		[silence]	[silence]
sw4840A-ms98-a-0011	A.11	26.470500	26.650875		I'm	i'm
sw4840A-ms98-a-0011	A.11	26.650875	26.829125	<DEL>	---	uh
sw4840A-ms98-a-0011	A.11	26.829125	26.940875		you	you
sw4840A-ms98-a-0011	A.11	26.940875	27.170875		know	know
sw4840A-ms98-a-0011	A.11	27.170875	27.394000		I	i
sw4840A-ms98-a-0011	A.11	27.394000	27.584500		I	i
sw4840A-ms98-a-0011	A.11	27.584500	27.810250		guess	guess
sw4840A-ms98-a-0011	A.11	27.810250	28.080500	<SUB>	it's	that's
sw4840A-ms98-a-0011	A.11	28.080500	28.327250		[silence]	[silence]
sw4840A-ms98-a-0011	A.11	28.327250	28.460875		where	where
sw4840A-ms98-a-0011	A.11	28.460875	28.570875		we	we
sw4840A-ms98-a-0011	A.11	28.570875	28.710875		have	have
sw4840A-ms98-a-0011	A.11	28.710875	28.860875		to	to
sw4840A-ms98-a-0011	A.11	28.860875	29.170875		be	be
sw4840A-ms98-a-0011	A.11	29.170875	29.340875		where	where
sw4840A-ms98-a-0011	A.11	29.340875	29.500875		it	it
sw4840A-ms98-a-0011	A.11	29.500875	29.595000		we	we
sw4840A-ms98-a-0011	A.11	29.595000	29.750875		have	have
sw4840A-ms98-a-0011	A.11	29.750875	29.899500		to	to
sw4840A-ms98-a-0011	A.11	29.899500	30.532250		[silence]	[silence]
sw4840A-ms98-a-0011	A.11	30.532250	30.730875		keep	keep
sw4840A-ms98-a-0011	A.11	30.730875	31.140875		raising	raising
sw4840A-ms98-a-0011	A.11	31.140875	31.324625		them	them_1
sw4840A-ms98-a-0011	A.11	31.324625	31.664500		for	for
sw4840A-ms98-a-0011	A.11	31.664500	32.467500		[silence]	[silence]
sw4840A-ms98-a-0011	A.11	32.467500	32.640875		to	to
sw4840A-ms98-a-0011	A.11	32.640875	32.850875		keep	keep
sw4840A-ms98-a-0011	A.11	32.850875	33.040875		some	some
sw4840A-ms98-a-0011	A.11	33.040875	33.150875		of	of
sw4840A-ms98-a-0011	A.11	33.150875	33.210875		the	the
sw4840A-ms98-a-0011	A.11	33.210875	33.700875		things	things
sw4840A-ms98-a-0011	A.11	33.700875	33.877875		that	that
sw4840A-ms98-a-0011	A.11	33.877875	34.150875		[silence]	[silence]
sw4840A-ms98-a-0011	A.11	34.150875	34.340875		that	that
sw4840A-ms98-a-0011	A.11	34.340875	34.455875		we	we
sw4840A-ms98-a-0011	A.11	34.455875	34.933500		have	have
sw4840A-ms98-a-0011	A.11	34.933500	35.095750		and	and
sw4840A-ms98-a-0011	A.13	35.095750	35.836875		[silence]	[silence]
sw4840A-ms98-a-0012	A.13	35.836875	41.168875		[silence]	[silence]
sw4840A-ms98-a-0013	A.13	41.168875	41.626875		[silence]	[silence]
sw4840A-ms98-a-0013	A.13	41.626875	41.798875		It's	it's
sw4840A-ms98-a-0013	A.13	41.798875	42.018875		just	just
sw4840A-ms98-a-0013	A.13	42.018875	42.398875		scary	scary
sw4840A-ms98-a-0013	A.13	42.398875	42.628875		though	though
sw4840A-ms98-a-0013	A.13	42.628875	43.088875		about	about
sw4840A-ms98-a-0013	A.13	43.088875	43.168875		you	you
sw4840A-ms98-a-0013	A.13	43.168875	43.513000		know	know
sw4840A-ms98-a-0013	A.13	43.513000	44.209750		[silence]	[silence]
sw4840A-ms98-a-0013	A.13	44.209750	44.388875		How	how
sw4840A-ms98-a-0013	A.13	44.388875	44.846250		high	high
sw4840A-ms98-a-0013	A.13	44.846250	45.222875		[silence]	[silence]
sw4840A-ms98-a-0013	A.13	45.222875	45.308875		are	are
sw4840A-ms98-a-0013	A.13	45.308875	45.438875		the	the
sw4840A-ms98-a-0013	A.13	45.438875	45.738875		taxes	taxes
sw4840A-ms98-a-0013	A.13	45.738875	45.908875	<SUB>	going	gonna
sw4840A-ms98-a-0013	A.13	45.908875	45.908875	<INS>	to	---
sw4840A-ms98-a-0013	A.13	45.908875	46.303500		be	be
sw4840A-ms98-a-0013	A.13	46.303500	46.428875		when	when
sw4840A-ms98-a-0013	A.13	46.428875	46.618125		my	my
sw4840A-ms98-a-0013	A.13	46.618125	47.138250		children	children
sw4840A-ms98-a-0013	A.13	47.138250	47.258875		are	are
sw4840A-ms98-a-0013	A.13	47.258875	47.438875		my	my
sw4840A-ms98-a-0013	A.13	47.438875	47.951625		age	age
sw4840A-ms98-a-0013	A.15	47.951625	48.216750		[silence]	[silence]
sw4840A-ms98-a-0014	A.15	48.216750	48.538750		[silence]	[silence]
sw4840A-ms98-a-0014	A.15	48.538750	48.606750		You	you
sw4840A-ms98-a-0014	A.15	48.606750	48.716750		know	know
sw4840A-ms98-a-0014	A.15	48.716750	48.966750		that	that
sw4840A-ms98-a-0014	A.15	48.966750	49.252125		that's	that's
sw4840A-ms98-a-0014	A.15	49.252125	49.470500		[silence]	[silence]
sw4840A-ms98-a-0014	A.15	49.470500	49.676750		that's	that's
sw4840A-ms98-a-0014	A.15	49.676750	50.096750		scary	scary
sw4840A-ms98-a-0014	A.15	50.096750	50.346750		too	too
sw4840A-ms98-a-0014	A.17	50.346750	50.436750		Because	because_1
sw4840A-ms98-a-0014	A.17	50.436750	51.156750		it's	it's
sw4840A-ms98-a-0014	A.17	51.156750	51.316750		not	not
sw4840A-ms98-a-0014	A.17	51.316750	51.656750		anything	anything
sw4840A-ms98-a-0014	A.17	51.656750	51.846750		like	like
sw4840A-ms98-a-0014	A.17	51.846750	51.936750		the	the
sw4840A-ms98-a-0014	A.17	51.936750	52.046750		way	way
sw4840A-ms98-a-0014	A.17	52.046750	52.196750		it	it
sw4840A-ms98-a-0014	A.17	52.196750	52.486750		was	was
sw4840A-ms98-a-0014	A.17	52.486750	52.560750		when	when
sw4840A-ms98-a-0014	A.17	52.560750	52.696750		I	i
sw4840A-ms98-a-0014	A.17	52.696750	52.916750		was	was
sw4840A-ms98-a-0014	A.17	52.916750	53.306625		young	young
sw4840A-ms98-a-0014	A.17	53.306625	53.903625		[silence]	[silence]
sw4840A-ms98-a-0014	A.17	53.903625	54.136750		and	and
sw4840A-ms98-a-0014	A.17	54.136750	54.566750		small	small
sw4840A-ms98-a-0014	A.17	54.566750	55.016750		and	and
sw4840A-ms98-a-0014	A.17	55.016750	55.046750		a	a
sw4840A-ms98-a-0014	A.17	55.046750	55.378375		child	child
sw4840A-ms98-a-0014	A.17	55.378375	55.872750		[silence]	[silence]
sw4840A-ms98-a-0014	A.17	55.872750	56.171500		So	so
sw4840A-ms98-a-0014	A.17	56.171500	56.583250		[silence]	[silence]
sw4840A-ms98-a-0015	A.17	56.583250	56.989125		[silence]	[silence]
sw4840A-ms98-a-0015	A.17	56.989125	57.043250		you	you
sw4840A-ms98-a-0015	A.17	57.043250	57.103250		know	know
sw4840A-ms98-a-0015	A.17	57.103250	57.243250		that	that
sw4840A-ms98-a-0015	A.17	57.243250	57.493250		that's	that's
sw4840A-ms98-a-0015	A.17	57.493250	57.533250		a	a
sw4840A-ms98-a-0015	A.17	57.533250	57.953250		scary	scary
sw4840A-ms98-a-0015	A.17	57.953250	58.213250		part	part
sw4840A-ms98-a-0015	A.17	58.213250	58.513250		too	too
sw4840A-ms98-a-0015	A.17	58.513250	58.603250		that	that
sw4840A-ms98-a-0015	A.17	58.603250	58.778375		you	you
sw4840A-ms98-a-0015	A.17	58.778375	58.893250		have	have
sw4840A-ms98-a-0015	A.17	58.893250	59.023250		to	to
sw4840A-ms98-a-0015	A.17	59.023250	59.273250		think	think
sw4840A-ms98-a-0015	A.17	59.273250	59.542625		about	about
sw4840A-ms98-a-0015	A.21	59.542625	59.898750		[silence]	[silence]
sw4840A-ms98-a-0016	A.21	59.898750	60.382625		[silence]	[silence]
sw4840A-ms98-a-0016	A.21	60.382625	61.054125		[noise]	[noise]
sw4840A-ms98-a-0016	A.21	61.054125	61.575250		[silence]	[silence]
sw4840A-ms98-a-0017	A.21	61.575250	67.312125		[silence]	[silence]
sw4840A-ms98-a-0018	A.21	67.312125	68.249250		[silence]	[silence]
sw4840A-ms98-a-0018	A.21	68.249250	68.722875	<SUB>	Uh-huh	um-hum
sw4840A-ms98-a-0018	A.23	68.722875	69.032125		[silence]	[silence]
sw4840A-ms98-a-0019	A.23	69.032125	72.998625		[silence]	[silence]
sw4840A-ms98-a-0020	A.23	72.998625	73.505500		[silence]	[silence]
sw4840A-ms98-a-0020	A.23	73.505500	73.871875		Yeah	yeah
sw4840A-ms98-a-0020	A.25	73.871875	74.238875		[silence]	[silence]
sw4840A-ms98-a-0021	A.25	74.238875	79.123250		[silence]	[silence]
sw4840A-ms98-a-0022	A.25	79.123250	79.961750		[silence]	[silence]
sw4840A-ms98-a-0022	A.25	79.961750	80.308250		Yeah	yeah
sw4840A-ms98-a-0022	A.27	80.308250	80.484875		[silence]	[silence]
sw4840A-ms98-a-0023	A.27	80.484875	98.779000		[silence]	[silence]
sw4840A-ms98-a-0024	A.27	98.779000	99.292500		[silence]	[silence]
sw4840A-ms98-a-0024	A.27	99.292500	99.771125	<SUB>	Uh-huh	um-hum
sw4840A-ms98-a-0024	A.29	99.771125	100.211625		[silence]	[silence]
sw4840A-ms98-a-0025	A.29	100.211625	104.589250		[silence]	[silence]
sw4840A-ms98-a-0026	A.29	104.589250	105.114250		[silence]	[silence]
sw4840A-ms98-a-0026	A.29	105.114250	105.319250		Yeah	yeah
sw4840A-ms98-a-0026	A.29	105.319250	105.419250		and	and
sw4840A-ms98-a-0026	A.29	105.419250	105.579250		then	then
sw4840A-ms98-a-0026	A.29	105.579250	105.699250		you	you
sw4840A-ms98-a-0026	A.29	105.699250	105.977000		find	find
sw4840A-ms98-a-0026	A.29	105.977000	106.119250		out	out
sw4840A-ms98-a-0026	A.29	106.119250	106.289250		about	about
sw4840A-ms98-a-0026	A.29	106.289250	106.399250		all	all
sw4840A-ms98-a-0026	A.29	106.399250	106.682625		these	these
sw4840A-ms98-a-0026	A.29	106.682625	107.009250		things	things
sw4840A-ms98-a-0026	A.29	107.009250	107.301125		about	about
sw4840A-ms98-a-0026	A.29	107.301125	107.839750		[silence]	[silence]
sw4840A-ms98-a-0026	A.29	107.839750	107.939250		are	are
sw4840A-ms98-a-0026	A.29	107.939250	108.049250		your	your
sw4840A-ms98-a-0026	A.29	108.049250	108.878000		taxes	taxes
sw4840A-ms98-a-0026	A.29	108.878000	109.394375		[silence]	[silence]
sw4840A-ms98-a-0026	A.29	109.394375	109.489250		you	you
sw4840A-ms98-a-0026	A.29	109.489250	109.609250		know	know
sw4840A-ms98-a-0026	A.29	109.609250	109.709250	<DEL>	---	the
sw4840A-ms98-a-0026	A.29	109.709250	110.326375		taxpayers	taxpayers
sw4840A-ms98-a-0026	A.29	110.326375	110.431625		are	are
sw4840A-ms98-a-0026	A.29	110.431625	110.612375	<DEL>	---	your
sw4840A-ms98-a-0026	A.29	110.612375	110.687375	<DEL>	---	m[oney]-
sw4840A-ms98-a-0026	A.29	110.687375	110.789250		is	is
sw4840A-ms98-a-0026	A.29	110.789250	110.909250		your	your
sw4840A-ms98-a-0026	A.29	110.909250	111.079250		money	money
sw4840A-ms98-a-0026	A.29	111.079250	111.319250		going	going
sw4840A-ms98-a-0026	A.29	111.319250	111.399250		to	to
sw4840A-ms98-a-0026	A.29	111.399250	111.499250		where	where
sw4840A-ms98-a-0026	A.29	111.499250	111.609250		you	you
sw4840A-ms98-a-0026	A.29	111.609250	111.799250		want	want
sw4840A-ms98-a-0026	A.29	111.799250	111.879250		it	it
sw4840A-ms98-a-0026	A.29	111.879250	111.989250		to	to
sw4840A-ms98-a-0026	A.29	111.989250	112.309250		go	go
sw4840A-ms98-a-0026	A.29	112.309250	112.390625		and	and
sw4840A-ms98-a-0026	A.29	112.390625	113.144000		[silence]	[silence]
sw4840A-ms98-a-0026	A.29	113.144000	113.288750		There's	there's
sw4840A-ms98-a-0026	A.29	113.288750	113.480875	<SUB>	going	gonna
sw4840A-ms98-a-0026	A.29	113.480875	113.480875	<INS>	to	---
sw4840A-ms98-a-0026	A.29	113.480875	113.549250	<DEL>	---	be
sw4840A-ms98-a-0026	A.29	113.549250	113.639250		a	a
sw4840A-ms98-a-0026	A.29	113.639250	114.079250		special	special
sw4840A-ms98-a-0026	A.29	114.079250	114.329250		this	this
sw4840A-ms98-a-0026	A.29	114.329250	114.499250		week	week
sw4840A-ms98-a-0026	A.29	114.499250	114.623750		I	i
sw4840A-ms98-a-0026	A.29	114.623750	114.733000		I	i
sw4840A-ms98-a-0026	A.29	114.733000	115.154875		can't	can't
sw4840A-ms98-a-0026	A.29	115.154875	115.211375		I	i
sw4840A-ms98-a-0026	A.29	115.211375	115.299250		can't	can't
sw4840A-ms98-a-0026	A.29	115.299250	115.509250	<DEL>	---	remember
sw4840A-ms98-a-0026	A.29	115.509250	115.639250		if	if
sw4840A-ms98-a-0026	A.29	115.639250	115.829250		it's	it's
sw4840A-ms98-a-0026	A.29	115.829250	116.179250		TWENTY	Twenty
sw4840A-ms98-a-0026	A.29	116.179250	116.579250		TWENTY	Twenty
sw4840A-ms98-a-0026	A.29	116.579250	116.680875		or	or
sw4840A-ms98-a-0026	A.29	116.680875	117.377750		[silence]	[silence]
sw4840A-ms98-a-0026	A.29	117.377750	117.479250		one	one
sw4840A-ms98-a-0026	A.29	117.479250	117.569250		of	of
sw4840A-ms98-a-0026	A.29	117.569250	117.739250		those	those
sw4840A-ms98-a-0026	A.29	117.739250	118.149250		things	things
sw4840A-ms98-a-0026	A.29	118.149250	118.520875		where	where
sw4840A-ms98-a-0026	A.29	118.520875	118.869250	<SUB>	uh	um
sw4840A-ms98-a-0026	A.29	118.869250	119.367875		[silence]	[silence]
sw4840A-ms98-a-0027	A.29	119.367875	119.934500		[silence]	[silence]
sw4840A-ms98-a-0027	A.29	119.934500	119.984250		I	i
sw4840A-ms98-a-0027	A.29	119.984250	120.107875		think	think
sw4840A-ms98-a-0027	A.29	120.107875	120.227875		it's	it's
sw4840A-ms98-a-0027	A.29	120.227875	120.357875		one	one
sw4840A-ms98-a-0027	A.29	120.357875	120.417875		of	of
sw4840A-ms98-a-0027	A.29	120.417875	120.477875		the	the
sw4840A-ms98-a-0027	A.29	120.477875	120.727875		local	local
sw4840A-ms98-a-0027	A.29	120.727875	121.097875		news	news
sw4840A-ms98-a-0027	A.29	121.097875	121.137875		I	i
sw4840A-ms98-a-0027	A.29	121.137875	121.337875		think	think
sw4840A-ms98-a-0027	A.29	121.337875	121.427875		they're	they're
sw4840A-ms98-a-0027	A.29	121.427875	121.607875		having	having
sw4840A-ms98-a-0027	A.29	121.607875	121.757875	<DEL>	---	an
sw4840A-ms98-a-0027	A.29	121.757875	121.865750		a	a
sw4840A-ms98-a-0027	A.29	121.865750	122.497875		documentary	documentary
sw4840A-ms98-a-0027	A.29	122.497875	122.767875		Something	something
sw4840A-ms98-a-0027	A.29	122.767875	122.987875		about	about
sw4840A-ms98-a-0027	A.29	122.987875	123.177875		that	that
sw4840A-ms98-a-0027	A.29	123.177875	123.376500		About	about
sw4840A-ms98-a-0027	A.29	123.376500	123.915125		[silence]	[silence]
sw4840A-ms98-a-0027	A.29	123.915125	124.140500	<SUB>	their	they're
sw4840A-ms98-a-0027	A.29	124.140500	124.449375		[silence]	[silence]
sw4840A-ms98-a-0027	A.29	124.449375	124.816625		trying	trying
sw4840A-ms98-a-0027	A.29	124.816625	125.121000		to	to
sw4840A-ms98-a-0027	A.29	125.121000	125.482500		[silence]	[silence]
sw4840A-ms98-a-0027	A.29	125.482500	125.777000		catch	catch
sw4840A-ms98-a-0027	A.29	125.777000	125.957875		some	some
sw4840A-ms98-a-0027	A.29	125.957875	126.437875		people	people
sw4840A-ms98-a-0027	A.29	126.437875	126.703125	<SUB>	that	about
sw4840A-ms98-a-0027	A.29	126.703125	127.233625		[silence]	[silence]
sw4840A-ms98-a-0028	A.29	127.233625	127.786500		[silence]	[silence]
sw4840A-ms98-a-0028	A.29	127.786500	127.973625		not	not
sw4840A-ms98-a-0028	A.29	127.973625	128.293625		spending	spending
sw4840A-ms98-a-0028	A.29	128.293625	128.403625		your	your
sw4840A-ms98-a-0028	A.29	128.403625	129.293625		tax	tax
sw4840A-ms98-a-0028	A.29	129.293625	129.353625	<DEL>	---	p[ay]-
sw4840A-ms98-a-0028	A.29	129.353625	129.683625		monies	monies
sw4840A-ms98-a-0028	A.29	129.683625	130.023625		right	right
sw4840A-ms98-a-0028	A.29	130.023625	130.293625		and	and
sw4840A-ms98-a-0028	A.29	130.293625	130.723625		fraud	fraud
sw4840A-ms98-a-0028	A.29	130.723625	130.823625		and	and
sw4840A-ms98-a-0028	A.29	130.823625	130.973625		that	that
sw4840A-ms98-a-0028	A.29	130.973625	131.193625		kind	kind
sw4840A-ms98-a-0028	A.29	131.193625	131.353625		of	of
sw4840A-ms98-a-0028	A.29	131.353625	131.573625		thing	thing
sw4840A-ms98-a-0028	A.29	131.573625	131.753625		you	you
sw4840A-ms98-a-0028	A.29	131.753625	131.853625		know	know
sw4840A-ms98-a-0028	A.29	131.853625	131.943625		and	and
sw4840A-ms98-a-0028	A.29	131.943625	132.183625		that's	that's
sw4840A-ms98-a-0028	A.29	132.183625	132.313625		kind	kind
sw4840A-ms98-a-0028	A.29	132.313625	132.383625		of	of
sw4840A-ms98-a-0028	A.29	132.383625	132.790500		scary	scary
sw4840A-ms98-a-0028	A.29	132.790500	133.222375		too	too
sw4840A-ms98-a-0028	A.31	133.222375	133.958875		[silence]	[silence]
sw4840A-ms98-a-0029	A.31	133.958875	134.527750		[silence]	[silence]
sw4840A-ms98-a-0029	A.31	134.527750	134.740875		And	and
sw4840A-ms98-a-0029	A.31	134.740875	135.019250		uh	uh
sw4840A-ms98-a-0029	A.31	135.019250	135.360125		[silence]	[silence]
sw4840A-ms98-a-0029	A.31	135.360125	135.428875		so	so
sw4840A-ms98-a-0029	A.31	135.428875	135.528875		that	that
sw4840A-ms98-a-0029	A.31	135.528875	135.618875		would	would
sw4840A-ms98-a-0029	A.31	135.618875	135.728875		be	be
sw4840A-ms98-a-0029	A.31	135.728875	136.358875		interesting	interesting
sw4840A-ms98-a-0029	A.31	136.358875	136.418875		to	to
sw4840A-ms98-a-0029	A.31	136.418875	136.568875		see	see
sw4840A-ms98-a-0029	A.31	136.568875	136.598875		I	i
sw4840A-ms98-a-0029	A.31	136.598875	136.838875		wanted	wanted
sw4840A-ms98-a-0029	A.31	136.838875	136.898875		to	to
sw4840A-ms98-a-0029	A.31	136.898875	137.088875		see	see
sw4840A-ms98-a-0029	A.31	137.088875	137.338875		that	that
sw4840A-ms98-a-0029	A.31	137.338875	137.722875		program	program
sw4840A-ms98-a-0029	A.33	137.722875	137.722875	<INS>	Oh	---
sw4840A-ms98-a-0029	A.33	137.722875	138.037500		[silence]	[silence]
sw4840A-ms98-a-0030	A.33	138.037500	149.999375		[silence]	[silence]
sw4840A-ms98-a-0031	A.33	149.999375	150.509125		[silence]	[silence]
sw4840A-ms98-a-0031	A.33	150.509125	150.717500		I	i
sw4840A-ms98-a-0031	A.33	150.717500	151.007000		know	[laughter-know]
sw4840A-ms98-a-0031	A.35	151.007000	151.506625		[silence]	[silence]
sw4840A-ms98-a-0032	A.35	151.506625	152.641250		[silence]	[silence]
sw4840A-ms98-a-0033	A.35	152.641250	153.150000		[silence]	[silence]
sw4840A-ms98-a-0033	A.35	153.150000	153.562875		Yeah	yeah
sw4840A-ms98-a-0033	A.41	153.562875	154.013750		[silence]	[silence]
sw4840A-ms98-a-0034	A.41	154.013750	160.489875		[silence]	[silence]
sw4840A-ms98-a-0035	A.41	160.489875	161.014750		[silence]	[silence]
sw4840A-ms98-a-0035	A.41	161.014750	161.486750	<SUB>	Uh-huh	um-hum
sw4840A-ms98-a-0035	A.43	161.486750	162.028875		[silence]	[silence]
sw4840A-ms98-a-0036	A.43	162.028875	164.943250		[silence]	[silence]
sw4840A-ms98-a-0037	A.43	164.943250	165.449750		[silence]	[silence]
sw4840A-ms98-a-0037	A.43	165.449750	165.913250	<DEL>	---	um-hum
sw4840A-ms98-a-0037	A.43	165.913250	166.395875		[silence]	[silence]
sw4840A-ms98-a-0038	A.43	166.395875	169.558500		[silence]	[silence]
sw4840A-ms98-a-0039	A.43	169.558500	169.979375		[silence]	[silence]
sw4840A-ms98-a-0039	A.43	169.979375	170.644375		Yeah	yeah
sw4840A-ms98-a-0039	A.45	170.644375	171.851500		[laughter]	[laughter]
sw4840A-ms98-a-0039	A.45	171.851500	172.317875		[silence]	[silence]
sw4840A-ms98-a-0040	A.45	172.317875	187.707625		[silence]	[silence]
sw4840A-ms98-a-0041	A.45	187.707625	188.234625		[silence]	[silence]
sw4840A-ms98-a-0041	A.45	188.234625	188.593375	<SUB>	Uh-huh	um-hum
sw4840A-ms98-a-0041	A.47	188.593375	189.064000		[silence]	[silence]
sw4840A-ms98-a-0042	A.47	189.064000	191.414375		[silence]	[silence]
sw4840A-ms98-a-0043	A.47	191.414375	191.949250		[silence]	[silence]
sw4840A-ms98-a-0043	A.47	191.949250	192.310250		Yeah	yeah
sw4840A-ms98-a-0043	A.49	192.310250	192.797250		[silence]	[silence]
sw4840A-ms98-a-0044	A.49	192.797250	208.366875		[silence]	[silence]
sw4840A-ms98-a-0045	A.49	208.366875	208.878000		[silence]	[silence]
sw4840A-ms98-a-0045	A.49	208.878000	209.221250	<SUB>	Uh-huh	um-hum
sw4840A-ms98-a-0045	A.51	209.221250	209.714375		[silence]	[silence]
sw4840A-ms98-a-0046	A.51	209.714375	218.620250		[silence]	[silence]
sw4840A-ms98-a-0047	A.51	218.620250	219.196625		[silence]	[silence]
sw4840A-ms98-a-0047	A.51	219.196625	219.402625	<SUB>	Huh	hm
sw4840A-ms98-a-0047	A.51	219.402625	219.879625		[silence]	[silence]
sw4840A-ms98-a-0048	A.51	219.879625	220.421375		[silence]	[silence]
sw4840A-ms98-a-0048	A.51	220.421375	220.670125		Well	well
sw4840A-ms98-a-0048	A.51	220.670125	221.125000		[silence]	[silence]
sw4840A-ms98-a-0049	A.51	221.125000	221.590625		[silence]	[silence]
sw4840A-ms98-a-0049	A.51	221.590625	221.715000		you	you
sw4840A-ms98-a-0049	A.51	221.715000	221.885000		sure	sure
sw4840A-ms98-a-0049	A.51	221.885000	221.955000		do	do
sw4840A-ms98-a-0049	A.51	221.955000	222.085000		know	know
sw4840A-ms98-a-0049	A.51	222.085000	222.190125		a	a
sw4840A-ms98-a-0049	A.51	222.190125	222.329375	<SUB>	l-	lo[t]-
sw4840A-ms98-a-0049	A.51	222.329375	222.555000	<DEL>	---	know
sw4840A-ms98-a-0049	A.51	222.555000	222.613625		a	a
sw4840A-ms98-a-0049	A.51	222.613625	222.849875		lot	lot
sw4840A-ms98-a-0049	A.53	222.849875	224.126875		[laughter]	[laughter]
sw4840A-ms98-a-0049	A.53	224.126875	224.687500		[silence]	[silence]
sw4840A-ms98-a-0050	A.53	224.687500	225.247000		[silence]	[silence]
sw4840A-ms98-a-0050	A.53	225.247000	225.500250		Yeah	yeah
sw4840A-ms98-a-0050	A.53	225.500250	226.199750		[silence]	[silence]
sw4840A-ms98-a-0050	A.53	226.199750	226.458750		yeah	yeah
sw4840A-ms98-a-0050	A.55	226.458750	226.974250		[silence]	[silence]
sw4840A-ms98-a-0051	A.55	226.974250	237.543625		[silence]	[silence]
sw4840A-ms98-a-0052	A.55	237.543625	238.059125		[silence]	[silence]
sw4840A-ms98-a-0052	A.55	238.059125	238.611875	<SUB>	Uh-huh	um-hum
sw4840A-ms98-a-0052	A.57	238.611875	239.038125		[silence]	[silence]
sw4840A-ms98-a-0053	A.57	239.038125	242.331750		[silence]	[silence]
sw4840A-ms98-a-0054	A.57	242.331750	242.841125		[silence]	[silence]
sw4840A-ms98-a-0054	A.57	242.841125	243.231625		Yeah	yeah
sw4840A-ms98-a-0054	A.57	243.231625	243.734875		[silence]	[silence]
sw4840A-ms98-a-0055	A.57	243.734875	244.276000		[silence]	[silence]
sw4840A-ms98-a-0055	A.57	244.276000	244.535125		yeah	yeah
sw4840A-ms98-a-0055	A.57	244.535125	245.090750		[silence]	[silence]
sw4840A-ms98-a-0056	A.57	245.090750	245.444000		[silence]	[silence]
sw4840A-ms98-a-0056	A.57	245.444000	245.680750		That's	that's
sw4840A-ms98-a-0056	A.57	245.680750	246.078250		true	true
sw4840A-ms98-a-0056	A.59	246.078250	246.719000		[silence]	[silence]
sw4840A-ms98-a-0057	A.59	246.719000	247.398125		[silence]	[silence]
sw4840A-ms98-a-0057	A.59	247.398125	247.519000		What	what
sw4840A-ms98-a-0057	A.59	247.519000	247.579000		do	do
sw4840A-ms98-a-0057	A.59	247.579000	247.639000		you	you
sw4840A-ms98-a-0057	A.59	247.639000	247.829000		think	think
sw4840A-ms98-a-0057	A.59	247.829000	248.119000		about	about
sw4840A-ms98-a-0057	A.59	248.119000	248.299000		these	these
sw4840A-ms98-a-0057	A.59	248.299000	248.659000		items	items
sw4840A-ms98-a-0057	A.59	248.659000	248.779000		that	that
sw4840A-ms98-a-0057	A.59	248.779000	248.839000		are	are
sw4840A-ms98-a-0057	A.59	248.839000	249.019000	<SUB>	going	gonna
sw4840A-ms98-a-0057	A.59	249.019000	249.019000	<INS>	to	---
sw4840A-ms98-a-0057	A.59	249.019000	249.358375		be	be
sw4840A-ms98-a-0057	A.59	249.358375	249.749625	<SUB>	uh	um
sw4840A-ms98-a-0057	A.59	249.749625	250.060375		[silence]	[silence]
sw4840A-ms98-a-0057	A.59	250.060375	250.419000		taxed	taxed
sw4840A-ms98-a-0057	A.59	250.419000	250.649000		even	even
sw4840A-ms98-a-0057	A.59	250.649000	251.009000		more	more
sw4840A-ms98-a-0057	A.59	251.009000	251.389000		Like	like
sw4840A-ms98-a-0057	A.59	251.389000	251.602250	<SUB>	uh	um
sw4840A-ms98-a-0057	A.59	251.602250	252.289000		tobacco	tobacco
sw4840A-ms98-a-0057	A.59	252.289000	252.419000		and	and
sw4840A-ms98-a-0057	A.59	252.419000	252.549000		that	that
sw4840A-ms98-a-0057	A.59	252.549000	252.739000		kind	kind
sw4840A-ms98-a-0057	A.59	252.739000	252.849000		of	of
sw4840A-ms98-a-0057	A.59	252.849000	253.117375		thing	thing
sw4840A-ms98-a-0057	A.61	253.117375	253.593875		[silence]	[silence]
sw4840A-ms98-a-0058	A.61	253.593875	262.685250		[silence]	[silence]
sw4840A-ms98-a-0059	A.61	262.685250	263.203125		[silence]	[silence]
sw4840A-ms98-a-0059	A.61	263.203125	263.515250	<SUB>	Uh-huh	um-hum
sw4840A-ms98-a-0059	@@A.63	263.515250	264.001750		[silence]	[silence]
sw4840A-ms98-a-0060	@@A.63	264.001750	270.137875		[silence]	[silence]
sw4840A-ms98-a-0061	@@A.63	270.137875	270.662250		[silence]	[silence]
sw4840A-ms98-a-0061	@@A.63	270.662250	271.018500	<SUB>	Uh-huh	um-hum
sw4840A-ms98-a-0061	A.65	271.018500	271.481375		[silence]	[silence]
sw4840A-ms98-a-0062	A.65	271.481375	273.234875		[silence]	[silence]
sw4840A-ms98-a-0063	A.65	273.234875	273.742500		[silence]	[silence]
sw4840A-ms98-a-0063	A.65	273.742500	274.087000	<DEL>	---	um-hum
sw4840A-ms98-a-0063	A.65	274.087000	274.589250		[silence]	[silence]
sw4840A-ms98-a-0064	A.65	274.589250	280.603000		[silence]	[silence]
sw4840A-ms98-a-0065	A.65	280.603000	281.121625		[silence]	[silence]
sw4840A-ms98-a-0065	A.65	281.121625	281.682250		Yeah	yeah
sw4840A-ms98-a-0065	A.67	281.682250	282.380500		[silence]	[silence]
sw4840A-ms98-a-0066	A.67	282.380500	283.118125		[silence]	[silence]
sw4840A-ms98-a-0066	A.67	283.118125	283.530375		Right	right
sw4840A-ms98-a-0066	A.69	283.530375	284.000000		[silence]	[silence]
sw4840A-ms98-a-0067	A.69	284.000000	297.132125		[silence]	[silence]
sw4840A-ms98-a-0068	A.69	297.132125	297.391750		[silence]	[silence]
sw4840A-ms98-a-0068	A.69	297.391750	297.602125		Oh	oh
sw4840A-ms98-a-0068	A.69	297.602125	298.072875		really	really
sw4840A-ms98-a-0068	A.69	298.072875	298.850000		[silence]	[silence]
