sw4890A-ms98-a-0001	A.1	0.000000	0.000000		[silence]	[silence]
sw4890A-ms98-a-0001	A.1	0.000000	0.006500		[noise]	[noise]
sw4890A-ms98-a-0001	A.1	0.006500	0.204875		[silence]	[silence]
sw4890A-ms98-a-0002	A.1	0.204875	0.423625		[silence]	[silence]
sw4890A-ms98-a-0002	A.1	0.423625	0.652500		Uh	uh
sw4890A-ms98-a-0002	A.1	0.652500	0.814875		with	with
sw4890A-ms98-a-0002	A.1	0.814875	1.324875		regard	regard
sw4890A-ms98-a-0002	A.1	1.324875	1.614875		to	to
sw4890A-ms98-a-0002	A.1	1.614875	1.824875		uh	uh
sw4890A-ms98-a-0002	A.1	1.824875	2.105375		to	to
sw4890A-ms98-a-0002	A.1	2.105375	2.214625		[silence]	[silence]
sw4890A-ms98-a-0002	A.1	2.214625	2.654375		jury	jury
sw4890A-ms98-a-0002	A.1	2.654375	2.707125		[silence]	[silence]
sw4890A-ms98-a-0002	A.1	2.707125	3.314875		trials	trials
sw4890A-ms98-a-0002	A.1	3.314875	3.475500		I	i
sw4890A-ms98-a-0002	A.1	3.475500	3.539500		[silence]	[silence]
sw4890A-ms98-a-0002	A.1	3.539500	3.634875		you	you
sw4890A-ms98-a-0002	A.1	3.634875	3.754875		know	know
sw4890A-ms98-a-0002	A.1	3.754875	3.964875	<SUB>	I	i-
sw4890A-ms98-a-0002	A.1	3.964875	4.124875		I	i
sw4890A-ms98-a-0002	A.1	4.124875	4.484875		really	really
sw4890A-ms98-a-0002	A.1	4.484875	4.844875		feel	feel
sw4890A-ms98-a-0002	A.1	4.844875	4.954875		as	as
sw4890A-ms98-a-0002	A.1	4.954875	5.220875		though	though
sw4890A-ms98-a-0002	A.1	5.220875	5.567375		[silence]	[silence]
sw4890A-ms98-a-0002	A.1	5.567375	5.760625		uh	uh
sw4890A-ms98-a-0002	A.1	5.760625	5.805750		[silence]	[silence]
sw4890A-ms98-a-0002	A.1	5.805750	6.054875		jury	jury
sw4890A-ms98-a-0002	A.1	6.054875	6.614875		trials	trials
sw4890A-ms98-a-0002	A.1	6.614875	6.893375		are	are
sw4890A-ms98-a-0002	A.1	6.893375	7.281375		[silence]	[silence]
sw4890A-ms98-a-0002	A.1	7.281375	7.669500		are	are
sw4890A-ms98-a-0002	A.1	7.669500	7.775000		[silence]	[silence]
sw4890A-ms98-a-0002	A.1	7.775000	8.316750		uh	uh
sw4890A-ms98-a-0002	A.1	8.316750	8.448625		[silence]	[silence]
sw4890A-ms98-a-0002	A.1	8.448625	8.824875		whatever	whatever
sw4890A-ms98-a-0002	A.1	8.824875	9.334875		system	system
sw4890A-ms98-a-0002	A.1	9.334875	9.674875		has	has
sw4890A-ms98-a-0002	A.1	9.674875	10.213875		been	been
sw4890A-ms98-a-0002	A.1	10.213875	10.375875		[silence]	[silence]
sw4890A-ms98-a-0002	A.1	10.375875	10.579250		been	been
sw4890A-ms98-a-0002	A.1	10.579250	11.124875		used	used
sw4890A-ms98-a-0002	A.1	11.124875	11.824875		historically	historically
sw4890A-ms98-a-0002	A.1	11.824875	11.974625		in	in
sw4890A-ms98-a-0002	A.1	11.974625	12.400250		[silence]	[silence]
sw4890A-ms98-a-0002	A.1	12.400250	12.934875		particular	particular
sw4890A-ms98-a-0002	A.1	12.934875	13.665875		jurisdiction	jurisdiction
sw4890A-ms98-a-0002	A.1	13.665875	14.072625		[silence]	[silence]
sw4890A-ms98-a-0003	A.1	14.072625	14.309625		[silence]	[silence]
sw4890A-ms98-a-0003	A.1	14.309625	14.370000		you	you
sw4890A-ms98-a-0003	A.1	14.370000	14.485500		know	know
sw4890A-ms98-a-0003	A.1	14.485500	14.762625		is	is
sw4890A-ms98-a-0003	A.1	14.762625	15.142625		really	really
sw4890A-ms98-a-0003	A.1	15.142625	15.324250		the	the
sw4890A-ms98-a-0003	A.1	15.324250	15.369500		[silence]	[silence]
sw4890A-ms98-a-0003	A.1	15.369500	15.569500		the	the
sw4890A-ms98-a-0003	A.1	15.569500	15.626000		[silence]	[silence]
sw4890A-ms98-a-0003	A.1	15.626000	15.962625		only	only
sw4890A-ms98-a-0003	A.1	15.962625	16.512625		kinds	kinds
sw4890A-ms98-a-0003	A.1	16.512625	16.622625		of	of
sw4890A-ms98-a-0003	A.1	16.622625	16.942625		things	things
sw4890A-ms98-a-0003	A.1	16.942625	17.082625		that	that
sw4890A-ms98-a-0003	A.1	17.082625	17.222625		you	you
sw4890A-ms98-a-0003	A.1	17.222625	17.382625		can	can
sw4890A-ms98-a-0003	A.1	17.382625	17.722625		use	use
sw4890A-ms98-a-0003	A.1	17.722625	18.542625		Because	because
sw4890A-ms98-a-0003	A.1	18.542625	18.722625		the	the
sw4890A-ms98-a-0003	A.1	18.722625	18.852625		the	the
sw4890A-ms98-a-0003	A.1	18.852625	19.792625		jurisprudence	jurisprudence
sw4890A-ms98-a-0003	A.1	19.792625	19.968125		is	is
sw4890A-ms98-a-0003	A.1	19.968125	20.032125		[silence]	[silence]
sw4890A-ms98-a-0003	A.1	20.032125	20.152625		you	you
sw4890A-ms98-a-0003	A.1	20.152625	20.232625		know	know
sw4890A-ms98-a-0003	A.1	20.232625	20.618750		based	based
sw4890A-ms98-a-0003	A.1	20.618750	20.965250		on	on
sw4890A-ms98-a-0003	A.1	20.965250	21.492625		on	on
sw4890A-ms98-a-0003	A.1	21.492625	21.774875		uh	uh
sw4890A-ms98-a-0003	A.1	21.774875	21.929250		[silence]	[silence]
sw4890A-ms98-a-0003	A.1	21.929250	22.002625		you	you
sw4890A-ms98-a-0003	A.1	22.002625	22.092625		know	know
sw4890A-ms98-a-0003	A.1	22.092625	22.202625		on	on
sw4890A-ms98-a-0003	A.1	22.202625	22.914000		accumulated	accumulated
sw4890A-ms98-a-0003	A.1	22.914000	22.914000	<INS>	n-	---
sw4890A-ms98-a-0003	A.1	22.914000	23.143750		[vocalized-noise]	[vocalized-noise]
sw4890A-ms98-a-0003	A.1	23.143750	23.452625		body	body
sw4890A-ms98-a-0003	A.1	23.452625	23.612625		of	of
sw4890A-ms98-a-0003	A.1	23.612625	23.932625		law	law
sw4890A-ms98-a-0003	A.1	23.932625	24.169625		[silence]	[silence]
sw4890A-ms98-a-0004	A.1	24.169625	24.427000		[silence]	[silence]
sw4890A-ms98-a-0004	A.1	24.427000	24.635000		And	and
sw4890A-ms98-a-0004	A.1	24.635000	25.029625		if	if
sw4890A-ms98-a-0004	A.1	25.029625	25.189625		[silence]	[silence]
sw4890A-ms98-a-0004	A.1	25.189625	25.369625		if	if
sw4890A-ms98-a-0004	A.1	25.369625	25.489625		you	you
sw4890A-ms98-a-0004	A.1	25.489625	25.699625		have	have
sw4890A-ms98-a-0004	A.1	25.699625	25.769625		a	a
sw4890A-ms98-a-0004	A.1	25.769625	26.449625		situation	situation
sw4890A-ms98-a-0004	A.1	26.449625	26.669625		where	where
sw4890A-ms98-a-0004	A.1	26.669625	26.829625		you	you
sw4890A-ms98-a-0004	A.1	26.829625	27.199625		change	change
sw4890A-ms98-a-0004	A.1	27.199625	27.439625		that	that
sw4890A-ms98-a-0004	A.1	27.439625	27.749625		body	body
sw4890A-ms98-a-0004	A.1	27.749625	27.879625		of	of
sw4890A-ms98-a-0004	A.1	27.879625	28.139375		law	law
sw4890A-ms98-a-0004	A.1	28.139375	28.583875		[silence]	[silence]
sw4890A-ms98-a-0004	A.1	28.583875	28.839625		then	then
sw4890A-ms98-a-0004	A.1	28.839625	29.159750		[silence]	[silence]
sw4890A-ms98-a-0004	A.1	29.159750	29.399625		all	all
sw4890A-ms98-a-0004	A.1	29.399625	29.459625		of	of
sw4890A-ms98-a-0004	A.1	29.459625	29.979625		sudden	sudden
sw4890A-ms98-a-0004	A.1	29.979625	30.189625		they	they
sw4890A-ms98-a-0004	A.1	30.189625	30.324000		they	they
sw4890A-ms98-a-0004	A.1	30.324000	30.760875		start	start
sw4890A-ms98-a-0004	A.1	30.760875	30.945500		they	they
sw4890A-ms98-a-0004	A.1	30.945500	31.069625		could	could
sw4890A-ms98-a-0004	A.1	31.069625	31.319625		start	start
sw4890A-ms98-a-0004	A.1	31.319625	31.549625		going	going
sw4890A-ms98-a-0004	A.1	31.549625	31.819625		back	back
sw4890A-ms98-a-0004	A.1	31.819625	31.939625		and	and
sw4890A-ms98-a-0004	A.1	31.939625	32.249625		digging	digging
sw4890A-ms98-a-0004	A.1	32.249625	32.379625		up	up
sw4890A-ms98-a-0004	A.1	32.379625	32.569625		all	all
sw4890A-ms98-a-0004	A.1	32.569625	32.809625		these	these
sw4890A-ms98-a-0004	A.1	32.809625	33.414250		cases	cases
sw4890A-ms98-a-0004	A.1	33.414250	33.631875		[silence]	[silence]
sw4890A-ms98-a-0005	A.1	33.631875	33.861875		[silence]	[silence]
sw4890A-ms98-a-0005	A.1	33.861875	34.131875		that	that
sw4890A-ms98-a-0005	A.1	34.131875	34.321875		uh	uh
sw4890A-ms98-a-0005	A.1	34.321875	34.506500		that	that
sw4890A-ms98-a-0005	A.1	34.506500	34.568375		[silence]	[silence]
sw4890A-ms98-a-0005	A.1	34.568375	34.791875		would	would
sw4890A-ms98-a-0005	A.1	34.791875	35.111875		be	be
sw4890A-ms98-a-0005	A.1	35.111875	35.621875		handled	handled
sw4890A-ms98-a-0005	A.1	35.621875	36.206750		differently	differently
sw4890A-ms98-a-0005	A.1	36.206750	36.621000		[silence]	[silence]
sw4890A-ms98-a-0005	A.1	36.621000	36.751875		were	were
sw4890A-ms98-a-0005	A.3	36.751875	36.911875		they	they
sw4890A-ms98-a-0005	A.3	36.911875	37.291875		judged	judged
sw4890A-ms98-a-0005	A.3	37.291875	37.451875		by	by
sw4890A-ms98-a-0005	A.3	37.451875	37.881875		today's	today's
sw4890A-ms98-a-0005	A.3	37.881875	38.326000		standards	standards
sw4890A-ms98-a-0005	A.3	38.326000	38.534500		So	so
sw4890A-ms98-a-0005	A.3	38.534500	38.805750		[silence]	[silence]
sw4890A-ms98-a-0005	A.3	38.805750	38.941875	<SUB>	I	i-
sw4890A-ms98-a-0005	A.3	38.941875	39.071875		I	i
sw4890A-ms98-a-0005	A.3	39.071875	39.301875		really	really
sw4890A-ms98-a-0005	A.3	39.301875	39.511875		don't	don't
sw4890A-ms98-a-0005	A.3	39.511875	39.721875		think	think
sw4890A-ms98-a-0005	A.3	39.721875	40.101875		it	it
sw4890A-ms98-a-0005	A.3	40.101875	40.131875	<DEL>	---	th[ey]-
sw4890A-ms98-a-0005	A.3	40.131875	40.221875		they	they
sw4890A-ms98-a-0005	A.3	40.221875	40.411875		can	can
sw4890A-ms98-a-0005	A.3	40.411875	40.681875		really	really
sw4890A-ms98-a-0005	A.3	40.681875	40.861875		do	do
sw4890A-ms98-a-0005	A.3	40.861875	41.111875		much	much
sw4890A-ms98-a-0005	A.3	41.111875	41.191875		of	of
sw4890A-ms98-a-0005	A.3	41.191875	41.541875		anything	anything
sw4890A-ms98-a-0005	A.3	41.541875	41.631875		to	to
sw4890A-ms98-a-0005	A.3	41.631875	41.941875		change	change
sw4890A-ms98-a-0005	A.3	41.941875	42.053500		it	it
sw4890A-ms98-a-0005	A.3	42.053500	42.170375		[silence]	[silence]
sw4890A-ms98-a-0005	A.3	42.170375	42.261875		What	what
sw4890A-ms98-a-0005	A.3	42.261875	42.321875		do	do
sw4890A-ms98-a-0005	A.3	42.321875	42.411875		you	you
sw4890A-ms98-a-0005	A.3	42.411875	42.762375		think	think
sw4890A-ms98-a-0005	A.7	42.762375	43.124000		[silence]	[silence]
sw4890A-ms98-a-0006	A.7	43.124000	75.994500		[silence]	[silence]
sw4890A-ms98-a-0007	A.7	75.994500	76.492500		[silence]	[silence]
sw4890A-ms98-a-0007	A.7	76.492500	76.687125		Well	well
sw4890A-ms98-a-0007	A.7	76.687125	76.991000		won't	won't
sw4890A-ms98-a-0007	A.7	76.991000	77.240250		[silence]	[silence]
sw4890A-ms98-a-0007	A.7	77.240250	77.436125		well	well
sw4890A-ms98-a-0007	A.7	77.436125	77.774500		maybe	maybe
sw4890A-ms98-a-0007	A.7	77.774500	77.905500		they	they
sw4890A-ms98-a-0007	A.7	77.905500	78.255750		used	used
sw4890A-ms98-a-0007	A.7	78.255750	78.344500		a	a
sw4890A-ms98-a-0007	A.7	78.344500	78.504500		little	little
sw4890A-ms98-a-0007	A.7	78.504500	78.704500		bit	bit
sw4890A-ms98-a-0007	A.7	78.704500	78.794500		too	too
sw4890A-ms98-a-0007	A.7	78.794500	79.084500		much	much
sw4890A-ms98-a-0007	A.7	79.084500	79.524500		force	force
sw4890A-ms98-a-0007	A.7	79.524500	79.634500		with	with
sw4890A-ms98-a-0007	A.7	79.634500	79.944500		stuff	stuff
sw4890A-ms98-a-0007	A.7	79.944500	80.164500		like	like
sw4890A-ms98-a-0007	A.7	80.164500	80.434500		that	that
sw4890A-ms98-a-0007	A.7	80.434500	80.594500		but	but
sw4890A-ms98-a-0007	A.7	80.594500	80.870125		then	then
sw4890A-ms98-a-0007	A.9	80.870125	81.491500		[silence]	[silence]
sw4890A-ms98-a-0007	A.9	81.491500	81.841750		then	then
sw4890A-ms98-a-0007	A.9	81.841750	81.984500		you	you
sw4890A-ms98-a-0007	A.9	81.984500	82.164500		know	know
sw4890A-ms98-a-0007	A.9	82.164500	82.394500		the	the
sw4890A-ms98-a-0007	A.9	82.394500	82.834500		defense	defense
sw4890A-ms98-a-0007	A.9	82.834500	83.218000		lawyer	lawyer
sw4890A-ms98-a-0007	A.9	83.218000	83.323500		[silence]	[silence]
sw4890A-ms98-a-0007	A.9	83.323500	83.854500		addressed	addressed
sw4890A-ms98-a-0007	A.9	83.854500	84.114500		each	each
sw4890A-ms98-a-0007	A.9	84.114500	84.214500		and	and
sw4890A-ms98-a-0007	A.9	84.214500	84.424500		every	every
sw4890A-ms98-a-0007	A.9	84.424500	84.604500		one	one
sw4890A-ms98-a-0007	A.9	84.604500	84.684500		of	of
sw4890A-ms98-a-0007	A.9	84.684500	84.884500		those	those
sw4890A-ms98-a-0007	A.9	84.884500	85.404500		blows	blows
sw4890A-ms98-a-0007	A.9	85.404500	85.969000		apparently	apparently
sw4890A-ms98-a-0007	A.9	85.969000	86.380625		[silence]	[silence]
sw4890A-ms98-a-0008	A.9	86.380625	86.808625		[silence]	[silence]
sw4890A-ms98-a-0008	A.9	86.808625	87.239000		and	and
sw4890A-ms98-a-0008	A.9	87.239000	87.370625		you	you
sw4890A-ms98-a-0008	A.9	87.370625	87.610625		know	know
sw4890A-ms98-a-0008	A.9	87.610625	87.710625		the	the
sw4890A-ms98-a-0008	A.11	87.710625	87.970625		other	other
sw4890A-ms98-a-0008	A.11	87.970625	88.190625		two	two
sw4890A-ms98-a-0008	A.11	88.190625	88.500625		guys	guys
sw4890A-ms98-a-0008	A.11	88.500625	88.680625		sat	sat
sw4890A-ms98-a-0008	A.11	88.680625	88.820625		in	in
sw4890A-ms98-a-0008	A.11	88.820625	88.890625		the	the
sw4890A-ms98-a-0008	A.11	88.890625	89.401375		car	car
sw4890A-ms98-a-0008	A.13	89.401375	89.730500		[silence]	[silence]
sw4890A-ms98-a-0009	A.13	89.730500	90.168875		[silence]	[silence]
sw4890A-ms98-a-0009	A.13	90.168875	90.223125		and	and
sw4890A-ms98-a-0009	A.13	90.223125	90.310500		they	they
sw4890A-ms98-a-0009	A.13	90.310500	90.520500		didn't	didn't
sw4890A-ms98-a-0009	A.13	90.520500	90.690500		get	get
sw4890A-ms98-a-0009	A.13	90.690500	90.890500		beat	beat
sw4890A-ms98-a-0009	A.13	90.890500	91.084750		up	up
sw4890A-ms98-a-0009	A.15	91.084750	91.538625		[silence]	[silence]
sw4890A-ms98-a-0010	A.15	91.538625	92.007750		[silence]	[silence]
sw4890A-ms98-a-0010	A.15	92.007750	92.117500		You	you
sw4890A-ms98-a-0010	A.15	92.117500	92.298625		know	know
sw4890A-ms98-a-0010	A.15	92.298625	92.648625		Rodney	Rodney
sw4890A-ms98-a-0010	A.15	92.648625	92.908625		got	got
sw4890A-ms98-a-0010	A.15	92.908625	93.158625		beat	beat
sw4890A-ms98-a-0010	A.15	93.158625	93.358625		up	up
sw4890A-ms98-a-0010	A.15	93.358625	93.748625		because	because
sw4890A-ms98-a-0010	A.15	93.748625	94.011875		he	he
sw4890A-ms98-a-0010	A.15	94.011875	94.512875		[silence]	[silence]
sw4890A-ms98-a-0010	A.15	94.512875	94.678625		he	he
sw4890A-ms98-a-0010	A.15	94.678625	94.848625		you	you
sw4890A-ms98-a-0010	A.15	94.848625	95.046875		know	know
sw4890A-ms98-a-0010	A.15	95.046875	95.555375		[silence]	[silence]
sw4890A-ms98-a-0010	A.15	95.555375	95.758625		he	he
sw4890A-ms98-a-0010	A.15	95.758625	96.036125		pur-	pur[poses]-
sw4890A-ms98-a-0010	A.15	96.036125	96.073750		[silence]	[silence]
sw4890A-ms98-a-0010	A.15	96.073750	96.418625		you	you
sw4890A-ms98-a-0010	A.15	96.418625	96.508625		know	know
sw4890A-ms98-a-0010	A.15	96.508625	96.688625		he	he
sw4890A-ms98-a-0010	A.15	96.688625	97.068625		involved	involved
sw4890A-ms98-a-0010	A.15	97.068625	97.528625		himself	himself
sw4890A-ms98-a-0010	A.15	97.528625	97.658625		in	in
sw4890A-ms98-a-0010	A.15	97.658625	97.928625		some	some
sw4890A-ms98-a-0010	A.15	97.928625	98.248625		sub	sub
sw4890A-ms98-a-0010	A.15	98.248625	99.148625		self-destructive	self-destructive
sw4890A-ms98-a-0010	A.15	99.148625	99.688625		behavior	behavior
sw4890A-ms98-a-0010	A.17	99.688625	100.196750		[silence]	[silence]
sw4890A-ms98-a-0011	A.17	100.196750	100.464625		[silence]	[silence]
sw4890A-ms98-a-0011	A.17	100.464625	100.774625		And	and
sw4890A-ms98-a-0011	A.17	100.774625	100.962125		uh	uh
sw4890A-ms98-a-0011	A.17	100.962125	101.637875		[silence]	[silence]
sw4890A-ms98-a-0011	A.17	101.637875	102.003250	<SUB>	uh	um
sw4890A-ms98-a-0011	A.17	102.003250	102.516000		[silence]	[silence]
sw4890A-ms98-a-0012	A.17	102.516000	103.041625		[silence]	[silence]
sw4890A-ms98-a-0012	A.17	103.041625	103.265250		just	just
sw4890A-ms98-a-0012	A.17	103.265250	103.476000		like	like
sw4890A-ms98-a-0012	A.17	103.476000	103.546000		the	the
sw4890A-ms98-a-0012	A.17	103.546000	103.896000		burning	burning
sw4890A-ms98-a-0012	A.17	103.896000	103.996000		and	and
sw4890A-ms98-a-0012	A.17	103.996000	104.331875		looting	looting
sw4890A-ms98-a-0012	A.19	104.331875	104.738625		[silence]	[silence]
sw4890A-ms98-a-0012	A.19	104.738625	105.006000		is	is
sw4890A-ms98-a-0012	A.19	105.006000	105.776000		self-destruct	self-destruct
sw4890A-ms98-a-0012	A.19	105.776000	106.166000		Everybody	everybody
sw4890A-ms98-a-0012	A.21	106.166000	106.356000		says	says
sw4890A-ms98-a-0012	A.21	106.356000	106.606000		well	well
sw4890A-ms98-a-0012	A.21	106.606000	106.786000		this	this
sw4890A-ms98-a-0012	A.21	106.786000	106.916000		is	is
sw4890A-ms98-a-0012	A.21	106.916000	107.006000		the	the
sw4890A-ms98-a-0012	A.21	107.006000	107.466000		nineties	nineties
sw4890A-ms98-a-0012	A.21	107.466000	107.566000		and	and
sw4890A-ms98-a-0012	A.21	107.566000	107.686000		they're	they're
sw4890A-ms98-a-0012	A.21	107.686000	107.866000	<SUB>	going	gonna
sw4890A-ms98-a-0012	A.21	107.866000	107.866000	<INS>	to	---
sw4890A-ms98-a-0012	A.21	107.866000	108.376000		rebuild	rebuild
sw4890A-ms98-a-0012	A.21	108.376000	108.476000		and	and
sw4890A-ms98-a-0012	A.21	108.476000	108.626000		it'll	it'll
sw4890A-ms98-a-0012	A.21	108.626000	108.726000		be	be
sw4890A-ms98-a-0012	A.21	108.726000	108.936000		even	even
sw4890A-ms98-a-0012	A.21	108.936000	109.283000		better	better
sw4890A-ms98-a-0012	A.21	109.283000	109.567500		[silence]	[silence]
sw4890A-ms98-a-0013	A.21	109.567500	109.841875		[silence]	[silence]
sw4890A-ms98-a-0013	A.21	109.841875	110.159000		Hey	hey
sw4890A-ms98-a-0013	A.21	110.159000	110.637000		[silence]	[silence]
sw4890A-ms98-a-0013	A.21	110.637000	110.837500		what	what
sw4890A-ms98-a-0013	A.21	110.837500	110.897500		do	do
sw4890A-ms98-a-0013	A.21	110.897500	111.007500		you	you
sw4890A-ms98-a-0013	A.21	111.007500	111.283250		think	think
sw4890A-ms98-a-0013	A.21	111.283250	111.409500		[silence]	[silence]
sw4890A-ms98-a-0013	A.21	111.409500	111.517500		you	you
sw4890A-ms98-a-0013	A.21	111.517500	111.627375		know	know
sw4890A-ms98-a-0013	A.21	111.627375	111.951250		some	some
sw4890A-ms98-a-0013	A.21	111.951250	112.267500		some	some
sw4890A-ms98-a-0013	A.21	112.267500	112.537500		black	black
sw4890A-ms98-a-0013	A.21	112.537500	112.717500		guy	guy
sw4890A-ms98-a-0013	A.21	112.717500	112.857500		with	with
sw4890A-ms98-a-0013	A.21	112.857500	113.287500		capital	capital
sw4890A-ms98-a-0013	A.21	113.287500	113.397500		is	is
sw4890A-ms98-a-0013	A.21	113.397500	113.567500	<SUB>	going	gonna
sw4890A-ms98-a-0013	A.21	113.567500	113.567500	<INS>	to	---
sw4890A-ms98-a-0013	A.21	113.567500	113.747500		come	come
sw4890A-ms98-a-0013	A.21	113.747500	113.867500		in	in
sw4890A-ms98-a-0013	A.21	113.867500	114.017500		and	and
sw4890A-ms98-a-0013	A.21	114.017500	114.397500		invest	invest
sw4890A-ms98-a-0013	A.21	114.397500	114.487500		in	in
sw4890A-ms98-a-0013	A.21	114.487500	114.677500		that	that
sw4890A-ms98-a-0013	A.21	114.677500	115.028250		area	area
sw4890A-ms98-a-0013	A.23	115.028250	115.320625		[silence]	[silence]
sw4890A-ms98-a-0014	A.23	115.320625	115.596875		[silence]	[silence]
sw4890A-ms98-a-0014	A.23	115.596875	115.717125		With	with
sw4890A-ms98-a-0014	A.23	115.717125	116.170625		everybody	everybody
sw4890A-ms98-a-0014	A.23	116.170625	116.300625		with	with
sw4890A-ms98-a-0014	A.23	116.300625	116.470625		that	that
sw4890A-ms98-a-0014	A.23	116.470625	116.907625	<CONT>	mind	mindset
sw4890A-ms98-a-0014	A.23	116.907625	116.907625	<CONT>	set	+++
sw4890A-ms98-a-0014	A.23	116.907625	117.416125		[silence]	[silence]
sw4890A-ms98-a-0014	A.23	117.416125	117.580625		They	they
sw4890A-ms98-a-0014	A.23	117.580625	117.950625		they're	they're
sw4890A-ms98-a-0014	A.25	117.950625	118.070625		they're	they're
sw4890A-ms98-a-0014	A.25	118.070625	118.299250	<SUB>	going	gonna
sw4890A-ms98-a-0014	A.25	118.299250	118.299250	<INS>	to	---
sw4890A-ms98-a-0014	A.25	118.299250	118.675875		[silence]	[silence]
sw4890A-ms98-a-0014	A.25	118.675875	118.840625		that	that
sw4890A-ms98-a-0014	A.25	118.840625	119.210625		whole	whole
sw4890A-ms98-a-0014	A.25	119.210625	119.510625		area	area
sw4890A-ms98-a-0014	A.25	119.510625	119.610625		is	is
sw4890A-ms98-a-0014	A.25	119.610625	119.810625	<SUB>	going	gonna
sw4890A-ms98-a-0014	A.25	119.810625	119.810625	<INS>	to	---
sw4890A-ms98-a-0014	A.25	119.810625	119.940625		be	be
sw4890A-ms98-a-0014	A.25	119.940625	120.340625		turned	turned
sw4890A-ms98-a-0014	A.25	120.340625	120.748625		into	into
sw4890A-ms98-a-0014	A.25	120.748625	121.124875		[silence]	[silence]
sw4890A-ms98-a-0014	A.25	121.124875	121.970625		residential	residential
sw4890A-ms98-a-0014	A.25	121.970625	122.491375		ghetto	ghetto
sw4890A-ms98-a-0014	A.25	122.491375	123.022375		[silence]	[silence]
sw4890A-ms98-a-0014	A.25	123.022375	123.120625		you	you
sw4890A-ms98-a-0014	A.25	123.120625	123.270625		know	know
sw4890A-ms98-a-0014	A.25	123.270625	123.580625		and	and
sw4890A-ms98-a-0014	A.25	123.580625	123.610625	<DEL>	---	a[nd]-
sw4890A-ms98-a-0014	A.25	123.610625	123.820625		you	you
sw4890A-ms98-a-0014	A.25	123.820625	124.040625		might	might
sw4890A-ms98-a-0014	A.25	124.040625	124.250625		even	even
sw4890A-ms98-a-0014	A.25	124.250625	124.410625		be	be
sw4890A-ms98-a-0014	A.25	124.410625	124.600625		able	able
sw4890A-ms98-a-0014	A.25	124.600625	124.830625		to	to
sw4890A-ms98-a-0014	A.25	124.830625	124.950625		to	to
sw4890A-ms98-a-0014	A.25	124.950625	125.200625		use	use
sw4890A-ms98-a-0014	A.25	125.200625	125.320625		it	it
sw4890A-ms98-a-0014	A.25	125.320625	125.590625		for	for
sw4890A-ms98-a-0014	A.25	125.590625	125.810625		for	for
sw4890A-ms98-a-0014	A.25	125.810625	125.870625		a	a
sw4890A-ms98-a-0014	A.25	125.870625	126.430625		bombing	bombing
sw4890A-ms98-a-0014	A.25	126.430625	126.730625		test	test
sw4890A-ms98-a-0014	A.25	126.730625	126.992750		site	site
sw4890A-ms98-a-0014	A.25	126.992750	127.035125		[silence]	[silence]
sw4890A-ms98-a-0014	A.25	127.035125	127.150625		you	you
sw4890A-ms98-a-0014	A.25	127.150625	127.378250		know	know
sw4890A-ms98-a-0014	A.27	127.378250	127.886500		[silence]	[silence]
sw4890A-ms98-a-0015	A.27	127.886500	145.615500		[silence]	[silence]
sw4890A-ms98-a-0016	A.27	145.615500	146.116125		[silence]	[silence]
sw4890A-ms98-a-0016	A.27	146.116125	146.510000		Well	well
sw4890A-ms98-a-0016	A.27	146.510000	146.680375		e-	e[verybody's]-
sw4890A-ms98-a-0016	A.27	146.680375	147.215500	<CONT>	everybody	everybody's
sw4890A-ms98-a-0016	A.27	147.215500	147.215500	<CONT>	is	+++
sw4890A-ms98-a-0016	A.27	147.215500	147.575500		saying	saying
sw4890A-ms98-a-0016	A.27	147.575500	147.725500		this	this
sw4890A-ms98-a-0016	A.27	147.725500	147.855500		is	is
sw4890A-ms98-a-0016	A.27	147.855500	148.095500	<SUB>	going	gonna
sw4890A-ms98-a-0016	A.27	148.095500	148.095500	<INS>	to	---
sw4890A-ms98-a-0016	A.27	148.095500	148.265500		be	be
sw4890A-ms98-a-0016	A.27	148.265500	148.335500		a	a
sw4890A-ms98-a-0016	A.27	148.335500	148.565500		new	new
sw4890A-ms98-a-0016	A.27	148.565500	148.905500		era	era
sw4890A-ms98-a-0016	A.27	148.905500	148.905500	<INS>	and	---
sw4890A-ms98-a-0016	A.27	148.905500	149.015500		we're	we're
sw4890A-ms98-a-0016	A.27	149.015500	149.235500	<SUB>	going	gonna
sw4890A-ms98-a-0016	A.27	149.235500	149.235500	<INS>	to	---
sw4890A-ms98-a-0016	A.27	149.235500	149.875500		reexamine	reexamine
sw4890A-ms98-a-0016	A.27	149.875500	150.025500		this	this
sw4890A-ms98-a-0016	A.27	150.025500	150.264250		thing	thing
sw4890A-ms98-a-0016	A.27	150.264250	150.582125		[silence]	[silence]
sw4890A-ms98-a-0017	A.27	150.582125	150.865125		[silence]	[silence]
sw4890A-ms98-a-0017	A.27	150.865125	151.173375		Hey	hey
sw4890A-ms98-a-0017	A.27	151.173375	151.434375		[silence]	[silence]
sw4890A-ms98-a-0017	A.27	151.434375	151.502125		the	the
sw4890A-ms98-a-0017	A.27	151.502125	151.742125	<SUB>	b-	bu[nch]-
sw4890A-ms98-a-0017	A.27	151.742125	151.872125		the	the
sw4890A-ms98-a-0017	A.27	151.872125	152.392125		average	average
sw4890A-ms98-a-0017	A.27	152.392125	152.962125		person	person
sw4890A-ms98-a-0017	A.27	152.962125	153.082125		is	is
sw4890A-ms98-a-0017	A.27	153.082125	153.282125	<SUB>	going	gonna
sw4890A-ms98-a-0017	A.27	153.282125	153.282125	<INS>	to	---
sw4890A-ms98-a-0017	A.27	153.282125	153.512125		take	take
sw4890A-ms98-a-0017	A.27	153.512125	153.552125		a	a
sw4890A-ms98-a-0017	A.27	153.552125	153.782125		look	look
sw4890A-ms98-a-0017	A.27	153.782125	153.872125		at	at
sw4890A-ms98-a-0017	A.27	153.872125	154.232125		that	that
sw4890A-ms98-a-0017	A.27	154.232125	154.432125		and	and
sw4890A-ms98-a-0017	A.27	154.432125	154.797500		say	say
sw4890A-ms98-a-0017	A.27	154.797500	155.273750		[silence]	[silence]
sw4890A-ms98-a-0017	A.27	155.273750	156.112125		suspicions	suspicions
sw4890A-ms98-a-0017	A.27	156.112125	156.871750		confirmed	confirmed
sw4890A-ms98-a-0017	A.27	156.871750	157.409000		[silence]	[silence]
sw4890A-ms98-a-0017	A.27	157.409000	157.572125		They're	they're
sw4890A-ms98-a-0017	A.27	157.572125	157.632125		a	a
sw4890A-ms98-a-0017	A.27	157.632125	157.932125		bunch	bunch
sw4890A-ms98-a-0017	A.27	157.932125	157.992125		of	of
sw4890A-ms98-a-0017	A.27	157.992125	158.651625		animals	animals
sw4890A-ms98-a-0017	A.27	158.651625	158.995875		[silence]	[silence]
sw4890A-ms98-a-0018	A.27	158.995875	159.327250		[silence]	[silence]
sw4890A-ms98-a-0018	A.27	159.327250	159.395875		you	you
sw4890A-ms98-a-0018	A.27	159.395875	159.535875		know	know
sw4890A-ms98-a-0018	A.27	159.535875	159.835875		How	how
sw4890A-ms98-a-0018	A.27	159.835875	160.015875		can	can
sw4890A-ms98-a-0018	A.27	160.015875	160.155875		you	you
sw4890A-ms98-a-0018	A.27	160.155875	160.555875		really	really
sw4890A-ms98-a-0018	A.27	160.555875	161.055875		deal	deal
sw4890A-ms98-a-0018	A.27	161.055875	161.225875		with	with
sw4890A-ms98-a-0018	A.27	161.225875	161.315875		an	an
sw4890A-ms98-a-0018	A.27	161.315875	161.965875		environment	environment
sw4890A-ms98-a-0018	A.27	161.965875	162.257250		where	where
sw4890A-ms98-a-0018	A.27	162.257250	162.543500		[silence]	[silence]
sw4890A-ms98-a-0018	A.27	162.543500	162.645875		you're	you're
sw4890A-ms98-a-0018	A.27	162.645875	162.835875	<SUB>	going	gonna
sw4890A-ms98-a-0018	A.27	162.835875	162.835875	<INS>	to	---
sw4890A-ms98-a-0018	A.27	162.835875	163.225875		lose	lose
sw4890A-ms98-a-0018	A.27	163.225875	163.734750		everything	everything
sw4890A-ms98-a-0018	A.27	163.734750	164.216750		[silence]	[silence]
sw4890A-ms98-a-0019	A.27	164.216750	164.603375		[silence]	[silence]
sw4890A-ms98-a-0019	A.27	164.603375	165.016750		Forty	forty
sw4890A-ms98-a-0019	A.27	165.016750	165.588125		deaths	deaths
sw4890A-ms98-a-0019	A.27	165.588125	165.799000		[silence]	[silence]
sw4890A-ms98-a-0019	A.27	165.799000	165.886750		I	i
sw4890A-ms98-a-0019	A.27	165.886750	166.116750		mean	mean
sw4890A-ms98-a-0019	A.27	166.116750	166.276750		there	there
sw4890A-ms98-a-0019	A.27	166.276750	166.366750		are	are
sw4890A-ms98-a-0019	A.27	166.366750	166.776750		forty	forty
sw4890A-ms98-a-0019	A.27	166.776750	167.226750		people	people
sw4890A-ms98-a-0019	A.29	167.226750	167.346750		that	that
sw4890A-ms98-a-0019	A.29	167.346750	167.436750		are	are
sw4890A-ms98-a-0019	A.29	167.436750	167.796750		dead	dead
sw4890A-ms98-a-0019	A.29	167.796750	167.956750		as	as
sw4890A-ms98-a-0019	A.29	167.956750	168.016750		a	a
sw4890A-ms98-a-0019	A.29	168.016750	168.386750		result	result
sw4890A-ms98-a-0019	A.29	168.386750	168.496750		of	of
sw4890A-ms98-a-0019	A.29	168.496750	168.746625		that	that
sw4890A-ms98-a-0019	A.31	168.746625	169.340750		[silence]	[silence]
sw4890A-ms98-a-0020	A.31	169.340750	169.935875		[silence]	[silence]
sw4890A-ms98-a-0020	A.31	169.935875	170.140750		And	and
sw4890A-ms98-a-0020	A.31	170.140750	170.350750		I'm	i'm
sw4890A-ms98-a-0020	A.31	170.350750	170.670750		just	just
sw4890A-ms98-a-0020	A.31	170.670750	170.910750		trying	trying
sw4890A-ms98-a-0020	A.31	170.910750	171.079000		to	to
sw4890A-ms98-a-0020	A.31	171.079000	171.150500		[silence]	[silence]
sw4890A-ms98-a-0020	A.31	171.150500	171.775125		determine	determine
sw4890A-ms98-a-0020	A.31	171.775125	172.119750		[silence]	[silence]
sw4890A-ms98-a-0020	A.31	172.119750	172.170750		you	you
sw4890A-ms98-a-0020	A.31	172.170750	172.230750		know	know
sw4890A-ms98-a-0020	A.31	172.230750	172.470750		how	how
sw4890A-ms98-a-0020	A.31	172.470750	172.640750		you	you
sw4890A-ms98-a-0020	A.31	172.640750	173.550750		address	address
sw4890A-ms98-a-0020	A.31	173.550750	173.650750	<DEL>	---	and
sw4890A-ms98-a-0020	A.31	173.650750	173.760750		how	how
sw4890A-ms98-a-0020	A.31	173.760750	173.910750		you	you
sw4890A-ms98-a-0020	A.31	173.910750	174.418500		weigh	weigh
sw4890A-ms98-a-0020	A.31	174.418500	174.663250		[silence]	[silence]
sw4890A-ms98-a-0020	A.31	174.663250	174.730750		you	you
sw4890A-ms98-a-0020	A.31	174.730750	174.850750		know	know
sw4890A-ms98-a-0020	A.31	174.850750	175.301625		Rodney	Rodney
sw4890A-ms98-a-0020	A.31	175.301625	175.693250		getting	getting
sw4890A-ms98-a-0020	A.31	175.693250	176.070750		getting	getting
sw4890A-ms98-a-0020	A.31	176.070750	176.180750		the	the
sw4890A-ms98-a-0020	A.31	176.180750	176.370750	<DEL>	---	the
sw4890A-ms98-a-0020	A.31	176.370750	176.610750		hell	hell
sw4890A-ms98-a-0020	A.31	176.610750	176.820750		beat	beat
sw4890A-ms98-a-0020	A.31	176.820750	177.020750		out	out
sw4890A-ms98-a-0020	A.31	177.020750	177.080750		of	of
sw4890A-ms98-a-0020	A.31	177.080750	177.265625		him	him
sw4890A-ms98-a-0020	A.31	177.265625	177.604625		[silence]	[silence]
sw4890A-ms98-a-0020	A.31	177.604625	178.170750		against	against
sw4890A-ms98-a-0020	A.31	178.170750	178.310750		you	you
sw4890A-ms98-a-0020	A.31	178.310750	178.450750		know	know
sw4890A-ms98-a-0020	A.31	178.450750	179.019125		forty	forty
sw4890A-ms98-a-0020	A.31	179.019125	179.472500		deaths	deaths
sw4890A-ms98-a-0020	A.33	179.472500	179.751375		[silence]	[silence]
sw4890A-ms98-a-0021	A.33	179.751375	180.768625		[silence]	[silence]
sw4890A-ms98-a-0022	A.33	180.768625	181.115625		[silence]	[silence]
sw4890A-ms98-a-0022	A.33	181.115625	181.310625		Yeah	yeah
sw4890A-ms98-a-0022	A.33	181.310625	181.498625		And	and
sw4890A-ms98-a-0022	A.33	181.498625	181.708625		there's	there's
sw4890A-ms98-a-0022	A.33	181.708625	182.078625		no	no
sw4890A-ms98-a-0022	A.33	182.078625	182.517125		other	other
sw4890A-ms98-a-0022	A.33	182.517125	182.890000		[silence]	[silence]
sw4890A-ms98-a-0022	A.33	182.890000	183.018625	<DEL>	---	i
sw4890A-ms98-a-0022	A.33	183.018625	183.238625		I'm	i'm
sw4890A-ms98-a-0022	A.33	183.238625	183.518625		not	not
sw4890A-ms98-a-0022	A.33	183.518625	183.718625		su-	su[re]-
sw4890A-ms98-a-0022	A.33	183.718625	184.408625		exactly	exactly
sw4890A-ms98-a-0022	A.33	184.408625	184.992750		sure	sure
sw4890A-ms98-a-0022	A.33	184.992750	185.700750		[silence]	[silence]
sw4890A-ms98-a-0022	A.33	185.700750	186.388000		uh	uh
sw4890A-ms98-a-0022	A.33	186.388000	186.493500		[silence]	[silence]
sw4890A-ms98-a-0022	A.33	186.493500	186.738625		what	what
sw4890A-ms98-a-0022	A.33	186.738625	186.818625		the	the
sw4890A-ms98-a-0022	A.33	186.818625	187.618625		circumstances	circumstances
sw4890A-ms98-a-0022	A.33	187.618625	188.128625		surrounding	surrounding
sw4890A-ms98-a-0022	A.33	188.128625	188.218625		the	the
sw4890A-ms98-a-0022	A.33	188.218625	188.679125		deaths	deaths
sw4890A-ms98-a-0022	A.33	188.679125	188.890875		[silence]	[silence]
sw4890A-ms98-a-0023	A.33	188.890875	189.112375		[silence]	[silence]
sw4890A-ms98-a-0023	A.33	189.112375	189.250125		And	and
sw4890A-ms98-a-0023	A.33	189.250125	189.496000		I'm	i'm
sw4890A-ms98-a-0023	A.33	189.496000	189.705250		[silence]	[silence]
sw4890A-ms98-a-0023	A.33	189.705250	190.180875		very	very
sw4890A-ms98-a-0023	A.33	190.180875	190.656250		upset	upset
sw4890A-ms98-a-0023	A.33	190.656250	190.829500		[silence]	[silence]
sw4890A-ms98-a-0023	A.33	190.829500	190.970875		that	that
sw4890A-ms98-a-0023	A.33	190.970875	191.060875		the	the
sw4890A-ms98-a-0023	A.33	191.060875	191.330875		news	news
sw4890A-ms98-a-0023	A.33	191.330875	191.790875		media	media
sw4890A-ms98-a-0023	A.33	191.790875	192.070875		has	has
sw4890A-ms98-a-0023	A.33	192.070875	192.320875		not	not
sw4890A-ms98-a-0023	A.33	192.320875	193.072000		identified	identified
sw4890A-ms98-a-0023	A.33	193.072000	193.456125		[silence]	[silence]
sw4890A-ms98-a-0023	A.33	193.456125	193.700875		those	those
sw4890A-ms98-a-0023	A.33	193.700875	194.159250		deaths	deaths
sw4890A-ms98-a-0023	A.35	194.159250	194.526500		[silence]	[silence]
sw4890A-ms98-a-0023	A.35	194.526500	194.840875		and	and
sw4890A-ms98-a-0023	A.35	194.840875	195.020875		and	and
sw4890A-ms98-a-0023	A.35	195.020875	195.470875		pursued	pursued
sw4890A-ms98-a-0023	A.35	195.470875	195.602250		it	it
sw4890A-ms98-a-0023	A.35	195.602250	195.820750		[silence]	[silence]
sw4890A-ms98-a-0023	A.35	195.820750	195.940875		you	you
sw4890A-ms98-a-0023	A.35	195.940875	196.050875		know	know
sw4890A-ms98-a-0023	A.35	196.050875	196.410875		because	because
sw4890A-ms98-a-0023	A.35	196.410875	196.660875		I'm	i'm
sw4890A-ms98-a-0023	A.35	196.660875	197.259000		interested	interested
sw4890A-ms98-a-0023	A.35	197.259000	197.597875		[silence]	[silence]
sw4890A-ms98-a-0023	A.35	197.597875	197.680875		in	in
sw4890A-ms98-a-0023	A.35	197.680875	197.760875		the	the
sw4890A-ms98-a-0023	A.35	197.760875	198.570875		circumstances	circumstances
sw4890A-ms98-a-0023	A.35	198.570875	199.040875		surrounding	surrounding
sw4890A-ms98-a-0023	A.35	199.040875	199.260875		this	this
sw4890A-ms98-a-0023	A.35	199.260875	199.491375		thing	thing
sw4890A-ms98-a-0023	A.37	199.491375	199.835750		[silence]	[silence]
sw4890A-ms98-a-0024	A.37	199.835750	200.173625		[silence]	[silence]
sw4890A-ms98-a-0024	A.37	200.173625	200.315750		Is	is
sw4890A-ms98-a-0024	A.37	200.315750	200.425750		it	it
sw4890A-ms98-a-0024	A.37	200.425750	200.465750		a	a
sw4890A-ms98-a-0024	A.37	200.465750	200.835750		looter	looter
sw4890A-ms98-a-0024	A.37	200.835750	200.955750		that	that
sw4890A-ms98-a-0024	A.37	200.955750	201.175750		got	got
sw4890A-ms98-a-0024	A.37	201.175750	201.505750		shot	shot
sw4890A-ms98-a-0024	A.37	201.505750	201.645750		by	by
sw4890A-ms98-a-0024	A.37	201.645750	201.705750		a	a
sw4890A-ms98-a-0024	A.37	201.705750	201.995750		store	store
sw4890A-ms98-a-0024	A.37	201.995750	202.272625		owner	owner
sw4890A-ms98-a-0024	A.37	202.272625	202.747500		[silence]	[silence]
sw4890A-ms98-a-0025	A.37	202.747500	203.267500		[silence]	[silence]
sw4890A-ms98-a-0025	A.37	203.267500	203.477500		I	i
sw4890A-ms98-a-0025	A.37	203.477500	203.617500		you	you
sw4890A-ms98-a-0025	A.37	203.617500	203.786000		know	know
sw4890A-ms98-a-0025	A.37	203.786000	204.026375		no	no
sw4890A-ms98-a-0025	A.37	204.026375	204.461250		tears	tears
sw4890A-ms98-a-0025	A.39	204.461250	204.947250		[silence]	[silence]
sw4890A-ms98-a-0026	A.39	204.947250	208.116750		[silence]	[silence]
sw4890A-ms98-a-0027	A.39	208.116750	208.629875		[silence]	[silence]
sw4890A-ms98-a-0027	A.39	208.629875	208.961875		Yeah	yeah
sw4890A-ms98-a-0027	A.39	208.961875	209.136750		[silence]	[silence]
sw4890A-ms98-a-0027	A.39	209.136750	209.336750		And	and
sw4890A-ms98-a-0027	A.41	209.336750	209.536750		and	and
sw4890A-ms98-a-0027	A.41	209.536750	209.856750		so	so
sw4890A-ms98-a-0027	A.41	209.856750	210.117125		I	i
sw4890A-ms98-a-0027	A.41	210.117125	210.286750		but	but
sw4890A-ms98-a-0027	A.41	210.286750	210.466750		I	i
sw4890A-ms98-a-0027	A.43	210.466750	210.656750		I	i
sw4890A-ms98-a-0027	A.43	210.656750	211.236750		suspect	suspect
sw4890A-ms98-a-0027	A.43	211.236750	211.266750		a	a
sw4890A-ms98-a-0027	A.43	211.266750	211.626750		number	number
sw4890A-ms98-a-0027	A.43	211.626750	211.726750		of	of
sw4890A-ms98-a-0027	A.43	211.726750	211.846500		them	them_1
sw4890A-ms98-a-0027	A.43	211.846500	212.279625		[silence]	[silence]
sw4890A-ms98-a-0027	A.43	212.279625	212.346750		You	you
sw4890A-ms98-a-0027	A.43	212.346750	212.406750		know	know
sw4890A-ms98-a-0027	A.43	212.406750	212.596750		you	you
sw4890A-ms98-a-0027	A.43	212.596750	212.726750		you	you
sw4890A-ms98-a-0027	A.43	212.726750	213.026750		see	see
sw4890A-ms98-a-0027	A.43	213.026750	213.586750		film	film
sw4890A-ms98-a-0027	A.43	213.586750	213.749875		of	of
sw4890A-ms98-a-0027	A.43	213.749875	213.798875		[silence]	[silence]
sw4890A-ms98-a-0027	A.43	213.798875	214.056750		people	people
sw4890A-ms98-a-0027	A.43	214.056750	214.276750		being	being
sw4890A-ms98-a-0027	A.43	214.276750	214.526750		pulled	pulled
sw4890A-ms98-a-0027	A.43	214.526750	214.646750		out	out
sw4890A-ms98-a-0027	A.43	214.646750	214.726750		of	of
sw4890A-ms98-a-0027	A.43	214.726750	214.786750		a	a
sw4890A-ms98-a-0027	A.43	214.786750	215.206750		car	car
sw4890A-ms98-a-0027	A.43	215.206750	215.476750		and	and
sw4890A-ms98-a-0027	A.43	215.476750	215.920500		shot	shot
sw4890A-ms98-a-0027	A.43	215.920500	216.203000		[silence]	[silence]
sw4890A-ms98-a-0027	A.43	216.203000	216.306750		you	you
sw4890A-ms98-a-0027	A.43	216.306750	216.526750		know	know
sw4890A-ms98-a-0027	A.43	216.526750	216.636750		in	in
sw4890A-ms98-a-0027	A.43	216.636750	216.836750		in	in
sw4890A-ms98-a-0027	A.43	216.836750	216.896750		the	the
sw4890A-ms98-a-0027	A.43	216.896750	217.329875		street	street
sw4890A-ms98-a-0027	A.45	217.329875	217.745500		[silence]	[silence]
sw4890A-ms98-a-0028	A.45	217.745500	218.185250		[silence]	[silence]
sw4890A-ms98-a-0028	A.45	218.185250	218.435500		And	and
sw4890A-ms98-a-0028	A.45	218.435500	218.755500		and	and
sw4890A-ms98-a-0028	A.45	218.755500	218.995500		my	my
sw4890A-ms98-a-0028	A.45	218.995500	219.575500		reaction	reaction
sw4890A-ms98-a-0028	A.45	219.575500	219.785500		is	is
sw4890A-ms98-a-0028	A.45	219.785500	219.945500		I	i
sw4890A-ms98-a-0028	A.45	219.945500	220.245500	<CONT>	would	would've
sw4890A-ms98-a-0028	A.45	220.245500	220.245500	<CONT>	have	+++
sw4890A-ms98-a-0028	A.45	220.245500	220.375500		run	run
sw4890A-ms98-a-0028	A.45	220.375500	220.585500		over	over
sw4890A-ms98-a-0028	A.45	220.585500	220.915500		fifty	fifty
sw4890A-ms98-a-0028	A.45	220.915500	221.331000		people	people
sw4890A-ms98-a-0028	A.45	221.331000	221.387500		[silence]	[silence]
sw4890A-ms98-a-0028	A.45	221.387500	221.645500		before	before
sw4890A-ms98-a-0028	A.45	221.645500	221.985500		rather	rather
sw4890A-ms98-a-0028	A.45	221.985500	222.125500		than	than
sw4890A-ms98-a-0028	A.45	222.125500	222.565375		stop	stop
sw4890A-ms98-a-0028	A.45	222.565375	222.996000		[silence]	[silence]
sw4890A-ms98-a-0029	A.45	222.996000	223.455875		[silence]	[silence]
sw4890A-ms98-a-0029	A.45	223.455875	223.746000		And	and
sw4890A-ms98-a-0029	A.45	223.746000	223.876000		uh	uh
sw4890A-ms98-a-0029	A.45	223.876000	224.126000		and	and
sw4890A-ms98-a-0029	A.45	224.126000	224.256000	<SUB>	there	th[ere]-
sw4890A-ms98-a-0029	A.45	224.256000	224.406000		there	there
sw4890A-ms98-a-0029	A.45	224.406000	224.606000	<CONT>	would	would've
sw4890A-ms98-a-0029	A.45	224.606000	224.606000	<CONT>	have	+++
sw4890A-ms98-a-0029	A.45	224.606000	224.776000		been	been
sw4890A-ms98-a-0029	A.45	224.776000	225.036000		just	just
sw4890A-ms98-a-0029	A.45	225.036000	225.186000	<DEL>	---	uh
sw4890A-ms98-a-0029	A.45	225.186000	225.456000		nothing	nothing
sw4890A-ms98-a-0029	A.45	225.456000	225.656000		but	but
sw4890A-ms98-a-0029	A.45	225.656000	226.082875		carnage	carnage
sw4890A-ms98-a-0029	A.45	226.082875	226.534875		after	after
sw4890A-ms98-a-0029	A.45	226.534875	226.970625		after	after
sw4890A-ms98-a-0029	A.45	226.970625	226.970625	<INS>	after	---
sw4890A-ms98-a-0029	A.47	226.970625	227.343500		[silence]	[silence]
sw4890A-ms98-a-0029	A.47	227.343500	227.486000		if	if
sw4890A-ms98-a-0029	A.47	227.486000	227.676000		I'd	i'd
sw4890A-ms98-a-0029	A.47	227.676000	227.806000		been	been
sw4890A-ms98-a-0029	A.47	227.806000	227.916000		at	at
sw4890A-ms98-a-0029	A.47	227.916000	227.986000		the	the
sw4890A-ms98-a-0029	A.47	227.986000	228.299250		wheel	wheel
sw4890A-ms98-a-0029	A.47	228.299250	228.815250		[silence]	[silence]
sw4890A-ms98-a-0029	A.47	228.815250	228.946000		No	no
sw4890A-ms98-a-0029	A.47	228.946000	229.176000		one	one
sw4890A-ms98-a-0029	A.49	229.176000	229.356000	<CONT>	would	would've
sw4890A-ms98-a-0029	A.49	229.356000	229.356000	<CONT>	have	+++
sw4890A-ms98-a-0029	A.49	229.356000	229.696000		stopped	stopped
sw4890A-ms98-a-0029	A.49	229.696000	229.876000		me	me
sw4890A-ms98-a-0029	@@A.51	229.876000	230.378875		[silence]	[silence]
sw4890A-ms98-a-0030	@@A.51	230.378875	246.094750		[silence]	[silence]
sw4890A-ms98-a-0031	@@A.51	246.094750	246.614750		[silence]	[silence]
sw4890A-ms98-a-0031	@@A.51	246.614750	246.774750		Right	right
sw4890A-ms98-a-0031	@@A.51	246.774750	247.004750		I'm	i'm
sw4890A-ms98-a-0031	@@A.51	247.004750	247.404750		inside	inside
sw4890A-ms98-a-0031	@@A.51	247.404750	247.474750		the	the
sw4890A-ms98-a-0031	@@A.51	247.474750	248.005375		beltway	beltway
sw4890A-ms98-a-0031	A.53	248.005375	248.496000		[silence]	[silence]
sw4890A-ms98-a-0032	A.53	248.496000	248.936000		[silence]	[silence]
sw4890A-ms98-a-0032	A.53	248.936000	249.046000		You	you
sw4890A-ms98-a-0032	A.53	249.046000	249.186000		know	know
sw4890A-ms98-a-0032	A.53	249.186000	249.356000		how	how
sw4890A-ms98-a-0032	A.53	249.356000	249.836000		capital	capital
sw4890A-ms98-a-0032	A.53	249.836000	250.156000		gang	gang
sw4890A-ms98-a-0032	A.53	250.156000	250.286000		they	they
sw4890A-ms98-a-0032	A.53	250.286000	250.536000		always	always
sw4890A-ms98-a-0032	A.53	250.536000	250.901375		say	say
sw4890A-ms98-a-0032	A.53	250.901375	251.074625		[silence]	[silence]
sw4890A-ms98-a-0032	A.53	251.074625	251.316125		well	well
sw4890A-ms98-a-0032	A.53	251.316125	251.553375		[silence]	[silence]
sw4890A-ms98-a-0032	A.53	251.553375	251.916000		inside	inside
sw4890A-ms98-a-0032	A.53	251.916000	251.986000		the	the
sw4890A-ms98-a-0032	A.53	251.986000	252.556000		beltway	beltway
sw4890A-ms98-a-0032	A.53	252.556000	252.910125		[silence]	[silence]
sw4890A-ms98-a-0032	A.53	252.910125	253.056000		they	they
sw4890A-ms98-a-0032	A.53	253.056000	253.326000		think	think
sw4890A-ms98-a-0032	A.53	253.326000	253.536000		thus	thus
sw4890A-ms98-a-0032	A.53	253.536000	253.666000		and	and
sw4890A-ms98-a-0032	A.53	253.666000	253.856000		so	so
sw4890A-ms98-a-0032	A.53	253.856000	253.956000		and	and
sw4890A-ms98-a-0032	A.53	253.956000	253.986000		I	i
sw4890A-ms98-a-0032	A.53	253.986000	254.186000		say	say
sw4890A-ms98-a-0032	A.53	254.186000	254.376000		well	well
sw4890A-ms98-a-0032	A.53	254.376000	254.516000		wait	wait
sw4890A-ms98-a-0032	A.53	254.516000	254.566000		a	a
sw4890A-ms98-a-0032	A.53	254.566000	254.866000		minute	minute
sw4890A-ms98-a-0032	A.53	254.866000	255.016000		I'm	i'm
sw4890A-ms98-a-0032	A.53	255.016000	255.366000		inside	inside
sw4890A-ms98-a-0032	A.53	255.366000	255.426000		the	the
sw4890A-ms98-a-0032	A.53	255.426000	255.806000		beltway	beltway
sw4890A-ms98-a-0032	A.53	255.806000	255.936000		and	and
sw4890A-ms98-a-0032	A.53	255.936000	256.031625		I	i
sw4890A-ms98-a-0032	A.53	256.031625	256.212375		don't	don't
sw4890A-ms98-a-0032	A.53	256.212375	256.422125		think	think
sw4890A-ms98-a-0032	A.53	256.422125	256.593750		like	like
sw4890A-ms98-a-0032	A.53	256.593750	256.818750		that	that
sw4890A-ms98-a-0032	A.55	256.818750	257.419750		[silence]	[silence]
sw4890A-ms98-a-0033	A.55	257.419750	258.034250		[silence]	[silence]
sw4890A-ms98-a-0033	A.55	258.034250	258.159750		I'm	i'm
sw4890A-ms98-a-0033	A.55	258.159750	258.229750		a	a
sw4890A-ms98-a-0033	A.55	258.229750	258.629750		government	government
sw4890A-ms98-a-0033	A.55	258.629750	259.244125		employee	employee
sw4890A-ms98-a-0033	A.57	259.244125	259.698000		[silence]	[silence]
sw4890A-ms98-a-0034	A.57	259.698000	261.488875		[silence]	[silence]
sw4890A-ms98-a-0035	A.57	261.488875	261.975625		[silence]	[silence]
sw4890A-ms98-a-0035	A.57	261.975625	262.158875		I'm	i'm
sw4890A-ms98-a-0035	A.57	262.158875	262.348875		with	with
sw4890A-ms98-a-0035	A.57	262.348875	262.408875		the	the
sw4890A-ms98-a-0035	A.57	262.408875	262.994750	<CONT>	F	FBI
sw4890A-ms98-a-0035	A.57	262.994750	262.994750	<CONT>	B	+++
sw4890A-ms98-a-0035	A.57	262.994750	262.994750	<CONT>	I	+++
sw4890A-ms98-a-0035	A.59	262.994750	263.494500		[silence]	[silence]
sw4890A-ms98-a-0036	A.59	263.494500	265.105125		[silence]	[silence]
sw4890A-ms98-a-0037	A.59	265.105125	265.613500		[silence]	[silence]
sw4890A-ms98-a-0037	A.59	265.613500	265.970500		Yes	yes
sw4890A-ms98-a-0037	A.59	265.970500	266.195125		An-	an[d]-
sw4890A-ms98-a-0037	A.59	266.195125	266.455125		and	and
sw4890A-ms98-a-0037	A.59	266.455125	266.775125		so	so
sw4890A-ms98-a-0037	A.59	266.775125	267.002500	<SUB>	uh	um
sw4890A-ms98-a-0037	A.59	267.002500	267.297875		[silence]	[silence]
sw4890A-ms98-a-0038	A.59	267.297875	267.437625		[silence]	[silence]
sw4890A-ms98-a-0038	A.59	267.437625	267.727875		uh	uh
sw4890A-ms98-a-0038	A.59	267.727875	267.977875		and	and
sw4890A-ms98-a-0038	A.59	267.977875	268.177875		and	and
sw4890A-ms98-a-0038	A.59	268.177875	268.247875		the	the
sw4890A-ms98-a-0038	A.59	268.247875	268.607875		reason	reason
sw4890A-ms98-a-0038	A.59	268.607875	268.797875		I'm	i'm
sw4890A-ms98-a-0038	A.59	268.797875	269.197875		doing	doing
sw4890A-ms98-a-0038	A.59	269.197875	269.397875		this	this
sw4890A-ms98-a-0038	A.59	269.397875	269.677875		whole	whole
sw4890A-ms98-a-0038	A.59	269.677875	269.957875		thing	thing
sw4890A-ms98-a-0038	A.59	269.957875	270.087875		is	is
sw4890A-ms98-a-0038	A.59	270.087875	270.632750		because	because
sw4890A-ms98-a-0038	A.59	270.632750	271.043250		[silence]	[silence]
sw4890A-ms98-a-0038	A.59	271.043250	271.087875	<DEL>	---	you
sw4890A-ms98-a-0038	A.59	271.087875	271.317875	<DEL>	---	know
sw4890A-ms98-a-0038	A.59	271.317875	271.617250		Rick	Rick
sw4890A-ms98-a-0038	A.61	271.617250	271.764125		[silence]	[silence]
sw4890A-ms98-a-0038	A.61	271.764125	271.877875	<SUB>	whose	who
sw4890A-ms98-a-0038	A.61	271.877875	271.957875	<DEL>	---	is
sw4890A-ms98-a-0038	A.61	271.957875	272.207875		another	another
sw4890A-ms98-a-0038	A.61	272.207875	272.557875		government	government
sw4890A-ms98-a-0038	A.61	272.557875	273.057875		employee	employee
sw4890A-ms98-a-0038	A.61	273.057875	273.607875		[silence]	[silence]
sw4890A-ms98-a-0038	A.61	273.607875	274.010500		wanted	wanted
sw4890A-ms98-a-0038	A.61	274.010500	274.093250		[silence]	[silence]
sw4890A-ms98-a-0038	A.61	274.093250	274.197500		a	a
sw4890A-ms98-a-0038	A.61	274.197500	274.537875		spe-	spee[ch]-
sw4890A-ms98-a-0038	A.61	274.537875	274.987875		segments	segments
sw4890A-ms98-a-0038	A.61	274.987875	275.057875		of	of
sw4890A-ms98-a-0038	A.61	275.057875	275.227875		my	my
sw4890A-ms98-a-0038	A.61	275.227875	275.825000		speech	speech
sw4890A-ms98-a-0038	A.63	275.825000	276.310875		[silence]	[silence]
sw4890A-ms98-a-0038	A.63	276.310875	276.627875		that	that
sw4890A-ms98-a-0038	A.65	276.627875	276.727875	<SUB>	that	uh
sw4890A-ms98-a-0038	A.65	276.727875	276.947875		were	were
sw4890A-ms98-a-0038	A.65	276.947875	277.378500		done	done
sw4890A-ms98-a-0038	A.65	277.378500	277.480125		[silence]	[silence]
sw4890A-ms98-a-0038	A.65	277.480125	277.557875		a	a
sw4890A-ms98-a-0038	A.65	277.557875	277.787875		year	year
sw4890A-ms98-a-0038	A.65	277.787875	278.087875		ago	ago
sw4890A-ms98-a-0038	A.65	278.087875	278.177875		and	and
sw4890A-ms98-a-0038	A.65	278.177875	278.237875		he	he
sw4890A-ms98-a-0038	A.65	278.237875	278.577875		wanted	wanted
sw4890A-ms98-a-0038	A.65	278.577875	278.847875		another	another
sw4890A-ms98-a-0038	A.65	278.847875	279.370000		collection	collection
sw4890A-ms98-a-0038	A.65	279.370000	279.483000		[silence]	[silence]
sw4890A-ms98-a-0038	A.65	279.483000	279.607875		a	a
sw4890A-ms98-a-0038	A.65	279.607875	279.797875		year	year
sw4890A-ms98-a-0038	A.65	279.797875	280.105875		later	later
sw4890A-ms98-a-0038	A.67	280.105875	280.548500		[silence]	[silence]
sw4890A-ms98-a-0039	A.67	280.548500	280.970625		[silence]	[silence]
sw4890A-ms98-a-0039	A.67	280.970625	281.098500		And	and
sw4890A-ms98-a-0039	A.67	281.098500	281.248500		so	so
sw4890A-ms98-a-0039	A.67	281.248500	281.418500		this	this
sw4890A-ms98-a-0039	A.67	281.418500	281.508500		is	is
sw4890A-ms98-a-0039	A.67	281.508500	281.678500		my	my
sw4890A-ms98-a-0039	A.67	281.678500	282.147875		seventh	seventh
sw4890A-ms98-a-0039	A.67	282.147875	282.626250		call	call
sw4890A-ms98-a-0039	A.67	282.626250	282.843375		A	a
sw4890A-ms98-a-0039	A.67	282.843375	283.078500		year	year
sw4890A-ms98-a-0039	A.67	283.078500	283.318500		ago	ago
sw4890A-ms98-a-0039	A.67	283.318500	283.368500		I	i
sw4890A-ms98-a-0039	A.67	283.368500	283.538500		did	did
sw4890A-ms98-a-0039	A.67	283.538500	283.918500		eleven	eleven
sw4890A-ms98-a-0039	A.67	283.918500	284.359500		calls	calls
sw4890A-ms98-a-0039	A.69	284.359500	285.131875		[silence]	[silence]
sw4890A-ms98-a-0040	A.69	285.131875	285.885000		[silence]	[silence]
sw4890A-ms98-a-0040	A.69	285.885000	286.044375		And	and
sw4890A-ms98-a-0040	A.69	286.044375	286.332625		so	so
sw4890A-ms98-a-0040	A.69	286.332625	286.775250		[silence]	[silence]
sw4890A-ms98-a-0040	A.69	286.775250	287.230500		that's	that's
sw4890A-ms98-a-0040	A.69	287.230500	287.524500		that's	that's
sw4890A-ms98-a-0040	A.69	287.524500	287.901875		why	why
sw4890A-ms98-a-0040	A.69	287.901875	288.094250		uh	uh
sw4890A-ms98-a-0040	A.69	288.094250	288.638875		[silence]	[silence]
sw4890A-ms98-a-0041	A.69	288.638875	289.238875		[silence]	[silence]
sw4890A-ms98-a-0041	A.69	289.238875	289.548875		uh	uh
sw4890A-ms98-a-0041	A.69	289.548875	289.868875	<DEL>	---	tha[t's]-
sw4890A-ms98-a-0041	A.69	289.868875	290.178875		that's	that's
sw4890A-ms98-a-0041	A.69	290.178875	290.348875		why	why
sw4890A-ms98-a-0041	A.69	290.348875	290.648875		I'm	i'm
sw4890A-ms98-a-0041	A.69	290.648875	291.288875		religiously	religiously
sw4890A-ms98-a-0041	A.69	291.288875	291.538875		getting	getting
sw4890A-ms98-a-0041	A.69	291.538875	291.658875		on	on
sw4890A-ms98-a-0041	A.69	291.658875	291.718875		the	the
sw4890A-ms98-a-0041	A.69	291.718875	292.157875		phone	phone
sw4890A-ms98-a-0041	A.69	292.157875	292.429000		[silence]	[silence]
sw4890A-ms98-a-0041	A.69	292.429000	292.738875		because	because
sw4890A-ms98-a-0041	A.69	292.738875	292.878875		I	i
sw4890A-ms98-a-0041	A.69	292.878875	293.148875		have	have
sw4890A-ms98-a-0041	A.69	293.148875	293.228875		a	a
sw4890A-ms98-a-0041	A.69	293.228875	293.795875		unique	unique
sw4890A-ms98-a-0041	A.69	293.795875	294.240250		[silence]	[silence]
sw4890A-ms98-a-0041	A.69	294.240250	294.438875		you	you
sw4890A-ms98-a-0041	A.69	294.438875	294.619875		know	know
sw4890A-ms98-a-0041	A.69	294.619875	294.748000		[silence]	[silence]
sw4890A-ms98-a-0041	A.69	294.748000	294.868875		I	i
sw4890A-ms98-a-0041	A.69	294.868875	295.068875		have	have
sw4890A-ms98-a-0041	A.69	295.068875	295.098875		a	a
sw4890A-ms98-a-0041	A.69	295.098875	295.538875		unique	unique
sw4890A-ms98-a-0041	A.69	295.538875	296.238875		situation	situation
sw4890A-ms98-a-0041	A.69	296.238875	296.489875		here	here
sw4890A-ms98-a-0041	A.69	296.489875	296.892875		[silence]	[silence]
sw4890A-ms98-a-0041	A.69	296.892875	297.018875		in	in
sw4890A-ms98-a-0041	A.69	297.018875	297.194750		that	that
sw4890A-ms98-a-0041	A.69	297.194750	297.484750		[silence]	[silence]
sw4890A-ms98-a-0041	A.69	297.484750	297.618875		if	if
sw4890A-ms98-a-0041	A.69	297.618875	297.698875		I	i
sw4890A-ms98-a-0041	A.69	297.698875	297.958875		don't	don't
sw4890A-ms98-a-0041	A.69	297.958875	298.558250		participate	participate
sw4890A-ms98-a-0041	A.69	298.558250	298.562000		[silence]	[silence]
