sw4927B-ms98-a-0001	B.2	0.000000	0.009875		[silence]	[silence]
sw4927B-ms98-a-0001	B.2	0.009875	0.139625		[noise]	[noise]
sw4927B-ms98-a-0001	B.2	0.139625	0.139625		Okay	okay
sw4927B-ms98-a-0001	B.2	0.139625	0.701750		[silence]	[silence]
sw4927B-ms98-a-0001	B.2	0.701750	0.919250		Uh	uh
sw4927B-ms98-a-0001	B.2	0.919250	1.590000		mandatory	mandatory
sw4927B-ms98-a-0001	B.2	1.590000	2.200000		service	service
sw4927B-ms98-a-0001	B.2	2.200000	2.440000		Yeah	yeah
sw4927B-ms98-a-0001	B.2	2.440000	2.671250		I	i
sw4927B-ms98-a-0001	B.2	2.671250	2.870000		[silence]	[silence]
sw4927B-ms98-a-0001	B.2	2.870000	3.161375		don't	don't
sw4927B-ms98-a-0001	B.2	3.161375	3.420000		think	think
sw4927B-ms98-a-0001	B.2	3.420000	3.600000		it's	it's
sw4927B-ms98-a-0001	B.2	3.600000	3.650000		a	a
sw4927B-ms98-a-0001	B.2	3.650000	3.920000		good	good
sw4927B-ms98-a-0001	B.2	3.920000	4.716250		idea	idea
sw4927B-ms98-a-0001	B.2	4.716250	4.966875		[silence]	[silence]
sw4927B-ms98-a-0002	B.2	4.966875	5.236875		[silence]	[silence]
sw4927B-ms98-a-0002	B.2	5.236875	5.446875		uh	uh
sw4927B-ms98-a-0002	B.2	5.446875	5.806875		because	because
sw4927B-ms98-a-0002	B.2	5.806875	5.936875		we'd	we'd
sw4927B-ms98-a-0002	B.2	5.936875	6.086875		have	have
sw4927B-ms98-a-0002	B.2	6.086875	6.216875		to	to
sw4927B-ms98-a-0002	B.2	6.216875	6.606875		change	change
sw4927B-ms98-a-0002	B.2	6.606875	6.666875		the	the
sw4927B-ms98-a-0002	B.2	6.666875	7.576875		constitution	Constitution
sw4927B-ms98-a-0002	B.2	7.576875	7.758125		to	to
sw4927B-ms98-a-0002	B.2	7.758125	8.025625		[vocalized-noise]	[vocalized-noise]
sw4927B-ms98-a-0002	B.2	8.025625	8.492750		to	to
sw4927B-ms98-a-0002	B.2	8.492750	8.666000		uh	uh
sw4927B-ms98-a-0002	B.2	8.666000	9.227750		allow	allow
sw4927B-ms98-a-0002	B.2	9.227750	9.566750		[silence]	[silence]
sw4927B-ms98-a-0002	B.2	9.566750	9.756875		uh	uh
sw4927B-ms98-a-0002	B.2	9.756875	10.536875		involuntary	involuntary
sw4927B-ms98-a-0002	B.2	10.536875	11.426875		servitude	servitude
sw4927B-ms98-a-0002	B.2	11.426875	11.676750		uh	uh
sw4927B-ms98-a-0002	B.2	11.676750	12.076000		[silence]	[silence]
sw4927B-ms98-a-0002	B.2	12.076000	12.386875		in	in
sw4927B-ms98-a-0002	B.2	12.386875	12.786875		service	service
sw4927B-ms98-a-0002	B.2	12.786875	12.916875		to	to
sw4927B-ms98-a-0002	B.2	12.916875	12.996875		the	the
sw4927B-ms98-a-0002	B.2	12.996875	13.601750		government	government
sw4927B-ms98-a-0002	B.2	13.601750	13.761375		[silence]	[silence]
sw4927B-ms98-a-0003	B.2	13.761375	14.089875		[silence]	[silence]
sw4927B-ms98-a-0003	B.2	14.089875	14.287250		And	and
sw4927B-ms98-a-0003	B.2	14.287250	14.421375		I'm	i'm
sw4927B-ms98-a-0003	B.2	14.421375	14.661375		not	not
sw4927B-ms98-a-0003	B.2	14.661375	14.991375		sure	sure
sw4927B-ms98-a-0003	B.2	14.991375	15.235250		that	that
sw4927B-ms98-a-0003	B.2	15.235250	15.521500		[silence]	[silence]
sw4927B-ms98-a-0003	B.2	15.521500	15.661375		we	we
sw4927B-ms98-a-0003	B.2	15.661375	15.881375		could	could
sw4927B-ms98-a-0003	B.4	15.881375	16.051375		do	do
sw4927B-ms98-a-0003	B.4	16.051375	16.301375		that	that
sw4927B-ms98-a-0003	B.4	16.301375	16.391375		in	in
sw4927B-ms98-a-0003	B.4	16.391375	16.651375		such	such
sw4927B-ms98-a-0003	B.4	16.651375	16.741375		a	a
sw4927B-ms98-a-0003	B.4	16.741375	17.124625		way	way
sw4927B-ms98-a-0003	B.4	17.124625	17.670750		[silence]	[silence]
sw4927B-ms98-a-0003	B.4	17.670750	18.021375		that	that
sw4927B-ms98-a-0003	B.4	18.021375	18.341375		we	we
sw4927B-ms98-a-0003	B.4	18.341375	18.591375		could	could
sw4927B-ms98-a-0003	B.4	18.591375	18.911375		avoid	avoid
sw4927B-ms98-a-0003	B.4	18.911375	19.241375		winding	winding
sw4927B-ms98-a-0003	B.4	19.241375	19.381375		up	up
sw4927B-ms98-a-0003	B.4	19.381375	19.441375		a	a
sw4927B-ms98-a-0003	B.4	19.441375	19.731375		slave	slave
sw4927B-ms98-a-0003	B.4	19.731375	20.069000		state	state
sw4927B-ms98-a-0003	B.6	20.069000	20.898250		[silence]	[silence]
sw4927B-ms98-a-0004	B.6	20.898250	21.661000		[silence]	[silence]
sw4927B-ms98-a-0004	B.6	21.661000	21.958250		It's	it's
sw4927B-ms98-a-0004	B.6	21.958250	22.108250		I	i
sw4927B-ms98-a-0004	B.6	22.108250	22.388250		like	like
sw4927B-ms98-a-0004	B.6	22.388250	22.568250		the	the
sw4927B-ms98-a-0004	B.8	22.568250	23.028500		idea	idea
sw4927B-ms98-a-0004	B.10	23.028500	23.838625		[silence]	[silence]
sw4927B-ms98-a-0005	B.10	23.838625	24.680250		[silence]	[silence]
sw4927B-ms98-a-0005	B.10	24.680250	25.070500		Well	well
sw4927B-ms98-a-0005	B.10	25.070500	25.198625		[silence]	[silence]
sw4927B-ms98-a-0005	B.10	25.198625	25.506625		[noise]	[noise]
sw4927B-ms98-a-0005	B.10	25.506625	26.033875		[silence]	[silence]
sw4927B-ms98-a-0005	B.10	26.033875	26.108625		I	i
sw4927B-ms98-a-0005	B.10	26.108625	26.308625		like	like
sw4927B-ms98-a-0005	B.10	26.308625	26.418625		the	the
sw4927B-ms98-a-0005	B.10	26.418625	26.628625		idea	idea
sw4927B-ms98-a-0005	B.10	26.628625	26.688625		of	of
sw4927B-ms98-a-0005	B.10	26.688625	27.440250	<SUB>	volunteer	volun[tary]-
sw4927B-ms98-a-0005	B.10	27.440250	28.068625		voluntary	voluntary
sw4927B-ms98-a-0005	B.10	28.068625	28.596000		support	support
sw4927B-ms98-a-0005	B.12	28.596000	28.946250		[silence]	[silence]
sw4927B-ms98-a-0005	B.12	28.946250	28.986500		I	i
sw4927B-ms98-a-0005	B.12	28.986500	29.088625		mean	mean
sw4927B-ms98-a-0005	B.12	29.088625	29.178625		they	they
sw4927B-ms98-a-0005	B.12	29.178625	29.418625		might	might
sw4927B-ms98-a-0005	B.12	29.418625	29.538625		be	be
sw4927B-ms98-a-0005	B.12	29.538625	29.808625		able	able
sw4927B-ms98-a-0005	B.12	29.808625	30.214750		to	to
sw4927B-ms98-a-0005	B.12	30.214750	30.428625		ah	ah
sw4927B-ms98-a-0005	B.12	30.428625	30.698625		say	say
sw4927B-ms98-a-0005	B.12	30.698625	30.838625		that	that
sw4927B-ms98-a-0005	B.12	30.838625	31.198625		anyone	anyone
sw4927B-ms98-a-0005	B.12	31.198625	31.328625		who	who
sw4927B-ms98-a-0005	B.12	31.328625	31.718625		does	does
sw4927B-ms98-a-0005	B.12	31.718625	32.106000		that	that
sw4927B-ms98-a-0005	B.12	32.106000	32.452500		[silence]	[silence]
sw4927B-ms98-a-0005	B.12	32.452500	32.708625		uh	uh
sw4927B-ms98-a-0005	B.12	32.708625	32.998625		gets	gets
sw4927B-ms98-a-0005	B.12	32.998625	33.398625		certain	certain
sw4927B-ms98-a-0005	B.12	33.398625	34.028625		benefits	benefits
sw4927B-ms98-a-0005	B.12	34.028625	34.310250		that	that
sw4927B-ms98-a-0005	B.12	34.310250	34.961875		[noise]	[noise]
sw4927B-ms98-a-0005	B.12	34.961875	35.088625		would	would
sw4927B-ms98-a-0005	B.12	35.088625	35.288625		not	not
sw4927B-ms98-a-0005	B.12	35.288625	35.438625		be	be
sw4927B-ms98-a-0005	B.12	35.438625	35.908625		available	available
sw4927B-ms98-a-0005	B.12	35.908625	36.028625		to	to
sw4927B-ms98-a-0005	B.12	36.028625	36.328625		someone	someone
sw4927B-ms98-a-0005	B.12	36.328625	36.418625		who	who
sw4927B-ms98-a-0005	B.12	36.418625	36.718625		didn't	didn't
sw4927B-ms98-a-0005	B.12	36.718625	36.858625		do	do
sw4927B-ms98-a-0005	B.12	36.858625	37.042375		it	it
sw4927B-ms98-a-0005	B.12	37.042375	37.275125		[silence]	[silence]
sw4927B-ms98-a-0006	B.12	37.275125	37.613000		[silence]	[silence]
sw4927B-ms98-a-0006	B.12	37.613000	37.775125		But	but
sw4927B-ms98-a-0006	B.12	37.775125	37.865125		to	to
sw4927B-ms98-a-0006	B.12	37.865125	38.265125		use	use
sw4927B-ms98-a-0006	B.12	38.265125	39.019375		force	force
sw4927B-ms98-a-0006	B.12	39.019375	39.611125		[silence]	[silence]
sw4927B-ms98-a-0006	B.12	39.611125	40.065750	<SUB>	uh	um
sw4927B-ms98-a-0006	B.12	40.065750	40.973500		[silence]	[silence]
sw4927B-ms98-a-0006	B.12	40.973500	41.405125		really	really
sw4927B-ms98-a-0006	B.12	41.405125	41.705125		sets	sets
sw4927B-ms98-a-0006	B.12	41.705125	41.872625		us	us
sw4927B-ms98-a-0006	B.12	41.872625	42.127000		a	a
sw4927B-ms98-a-0006	B.12	42.127000	42.292750		a	a
sw4927B-ms98-a-0006	B.12	42.292750	42.525125	<SUB>	i-	it
sw4927B-ms98-a-0006	B.12	42.525125	42.794500	<SUB>	i-	it
sw4927B-ms98-a-0006	B.12	42.794500	43.385125		essentially	essentially
sw4927B-ms98-a-0006	B.12	43.385125	43.735125		says	says
sw4927B-ms98-a-0006	B.12	43.735125	44.008375		that	that
sw4927B-ms98-a-0006	B.12	44.008375	44.245125		your	your
sw4927B-ms98-a-0006	B.12	44.245125	45.137500		body	body
sw4927B-ms98-a-0006	B.12	45.137500	45.375125		there's	there's
sw4927B-ms98-a-0006	B.12	45.375125	45.445125		a	a
sw4927B-ms98-a-0006	B.12	45.445125	45.815125		title	title
sw4927B-ms98-a-0006	B.12	45.815125	45.935125		to	to
sw4927B-ms98-a-0006	B.12	45.935125	46.085125		your	your
sw4927B-ms98-a-0006	B.12	46.085125	46.405125		body	body
sw4927B-ms98-a-0006	B.12	46.405125	46.515125		and	and
sw4927B-ms98-a-0006	B.12	46.515125	46.675125		that	that
sw4927B-ms98-a-0006	B.12	46.675125	46.975125		title	title
sw4927B-ms98-a-0006	B.12	46.975125	47.385125		belongs	belongs
sw4927B-ms98-a-0006	B.12	47.385125	47.525125		to	to
sw4927B-ms98-a-0006	B.12	47.525125	47.585125		the	the
sw4927B-ms98-a-0006	B.12	47.585125	48.045125		government	government
sw4927B-ms98-a-0006	B.14	48.045125	48.165125		And	and
sw4927B-ms98-a-0006	B.14	48.165125	48.275125		you	you
sw4927B-ms98-a-0006	B.14	48.275125	48.405125		are	are
sw4927B-ms98-a-0006	B.14	48.405125	48.775125		not	not
sw4927B-ms98-a-0006	B.14	48.775125	48.825125		a	a
sw4927B-ms98-a-0006	B.14	48.825125	49.065125		free	free
sw4927B-ms98-a-0006	B.14	49.065125	49.545125		American	American
sw4927B-ms98-a-0006	B.16	49.545125	49.991000		citizen	citizen
sw4927B-ms98-a-0006	B.18	49.991000	50.531500		[silence]	[silence]
sw4927B-ms98-a-0007	B.18	50.531500	51.121375		[silence]	[silence]
sw4927B-ms98-a-0007	B.18	51.121375	51.215500		The	the
sw4927B-ms98-a-0007	B.18	51.215500	51.511500		idea	idea
sw4927B-ms98-a-0007	B.18	51.511500	51.951500		itself	itself
sw4927B-ms98-a-0007	B.18	51.951500	52.059625		of	of
sw4927B-ms98-a-0007	B.18	52.059625	52.471500		service	service
sw4927B-ms98-a-0007	B.18	52.471500	52.601500		is	is
sw4927B-ms98-a-0007	B.18	52.601500	53.004250		good	good
sw4927B-ms98-a-0007	B.18	53.004250	53.172375		[silence]	[silence]
sw4927B-ms98-a-0008	B.18	53.172375	53.423375		[silence]	[silence]
sw4927B-ms98-a-0008	B.18	53.423375	53.762375		and	and
sw4927B-ms98-a-0008	B.18	53.762375	53.932375		when	when
sw4927B-ms98-a-0008	B.18	53.932375	54.312375		someone	someone
sw4927B-ms98-a-0008	B.18	54.312375	54.628625		is	is
sw4927B-ms98-a-0008	B.18	54.628625	54.978875		[silence]	[silence]
sw4927B-ms98-a-0008	B.18	54.978875	55.316750		say	say
sw4927B-ms98-a-0008	B.18	55.316750	55.542375		out	out
sw4927B-ms98-a-0008	B.18	55.542375	55.642375		of	of
sw4927B-ms98-a-0008	B.18	55.642375	55.822375		high	high
sw4927B-ms98-a-0008	B.18	55.822375	56.442375		school	school
sw4927B-ms98-a-0008	B.18	56.442375	56.742375		and	and
sw4927B-ms98-a-0008	B.18	56.742375	56.912375		not	not
sw4927B-ms98-a-0008	B.18	56.912375	57.112375		sure	sure
sw4927B-ms98-a-0008	B.18	57.112375	57.362375		about	about
sw4927B-ms98-a-0008	B.18	57.362375	57.802375		college	college
sw4927B-ms98-a-0008	B.18	57.802375	57.912375		or	or
sw4927B-ms98-a-0008	B.18	57.912375	57.982375		out	out
sw4927B-ms98-a-0008	B.18	57.982375	58.052375		of	of
sw4927B-ms98-a-0008	B.18	58.052375	58.442375		college	college
sw4927B-ms98-a-0008	B.18	58.442375	58.532375		and	and
sw4927B-ms98-a-0008	B.18	58.532375	58.692375		not	not
sw4927B-ms98-a-0008	B.18	58.692375	58.862375		ready	ready
sw4927B-ms98-a-0008	B.18	58.862375	58.952375		to	to
sw4927B-ms98-a-0008	B.18	58.952375	59.122375		go	go
sw4927B-ms98-a-0008	B.18	59.122375	59.422375		into	into
sw4927B-ms98-a-0008	B.18	59.422375	59.472375		a	a
sw4927B-ms98-a-0008	B.18	59.472375	59.992375		career	career
sw4927B-ms98-a-0008	B.18	59.992375	60.122375		and	and
sw4927B-ms98-a-0008	B.18	60.122375	60.303250		they're	they're
sw4927B-ms98-a-0008	B.18	60.303250	60.755250		[silence]	[silence]
sw4927B-ms98-a-0008	B.18	60.755250	61.060750		not	not
sw4927B-ms98-a-0008	B.18	61.060750	61.442375		committed	committed
sw4927B-ms98-a-0008	B.18	61.442375	61.542375		to	to
sw4927B-ms98-a-0008	B.18	61.542375	61.802375		huge	huge
sw4927B-ms98-a-0008	B.18	61.802375	62.162375		amounts	amounts
sw4927B-ms98-a-0008	B.18	62.162375	62.292375		of	of
sw4927B-ms98-a-0008	B.18	62.292375	62.582375		debt	debt
sw4927B-ms98-a-0008	B.18	62.582375	62.932375		that's	that's
sw4927B-ms98-a-0008	B.18	62.932375	63.012375		the	the
sw4927B-ms98-a-0008	B.18	63.012375	63.392375		best	best
sw4927B-ms98-a-0008	B.18	63.392375	63.880000		time	time
sw4927B-ms98-a-0008	B.18	63.880000	64.173875		[silence]	[silence]
sw4927B-ms98-a-0008	B.18	64.173875	64.262375		to	to
sw4927B-ms98-a-0008	B.18	64.262375	64.382375		be	be
sw4927B-ms98-a-0008	B.18	64.382375	64.562375		able	able
sw4927B-ms98-a-0008	B.18	64.562375	64.692375		to	to
sw4927B-ms98-a-0008	B.18	64.692375	64.822375		do	do
sw4927B-ms98-a-0008	B.18	64.822375	65.102375		work	work
sw4927B-ms98-a-0008	B.18	65.102375	65.192375		that	that
sw4927B-ms98-a-0008	B.18	65.192375	65.482375		doesn't	doesn't
sw4927B-ms98-a-0008	B.18	65.482375	65.632375		pay	pay
sw4927B-ms98-a-0008	B.18	65.632375	65.872375		very	very
sw4927B-ms98-a-0008	B.18	65.872375	66.198000		well	well
sw4927B-ms98-a-0008	B.20	66.198000	66.735125		[silence]	[silence]
sw4927B-ms98-a-0009	B.20	66.735125	70.743375		[silence]	[silence]
sw4927B-ms98-a-0010	B.20	70.743375	71.235625		[silence]	[silence]
sw4927B-ms98-a-0010	B.20	71.235625	71.726125		Yeah	yeah
sw4927B-ms98-a-0010	B.20	71.726125	71.929500		[silence]	[silence]
sw4927B-ms98-a-0010	B.20	71.929500	72.203375		Unless	unless
sw4927B-ms98-a-0010	B.20	72.203375	72.273375		it	it
sw4927B-ms98-a-0010	B.20	72.273375	72.363375		were	were
sw4927B-ms98-a-0010	B.20	72.363375	72.673375		tied	tied
sw4927B-ms98-a-0010	B.22	72.673375	73.206000		directly	directly
sw4927B-ms98-a-0010	B.24	73.206000	74.035000		[silence]	[silence]
sw4927B-ms98-a-0011	B.24	74.035000	74.937625		[silence]	[silence]
sw4927B-ms98-a-0011	B.24	74.937625	74.975000		You	you
sw4927B-ms98-a-0011	B.24	74.975000	75.085000		know	know
sw4927B-ms98-a-0011	B.24	75.085000	75.155000		if	if
sw4927B-ms98-a-0011	B.24	75.155000	75.435000		someone	someone
sw4927B-ms98-a-0011	B.24	75.435000	75.535000		were	were
sw4927B-ms98-a-0011	B.24	75.535000	76.105000		studying	studying
sw4927B-ms98-a-0011	B.24	76.105000	76.705000		something	something
sw4927B-ms98-a-0011	B.24	76.705000	76.775000	<DEL>	---	uh
sw4927B-ms98-a-0011	B.24	76.775000	76.965000	<DEL>	---	let's
sw4927B-ms98-a-0011	B.24	76.965000	77.142375	<DEL>	---	say
sw4927B-ms98-a-0011	B.24	77.142375	77.364625		[silence]	[silence]
sw4927B-ms98-a-0011	B.24	77.364625	77.515000		take	take
sw4927B-ms98-a-0011	B.24	77.515000	77.878125		something	something
sw4927B-ms98-a-0011	B.24	77.878125	78.425000		obscure	obscure
sw4927B-ms98-a-0011	B.24	78.425000	78.735000		Somebody	somebody
sw4927B-ms98-a-0011	B.24	78.735000	78.875000		was	was
sw4927B-ms98-a-0011	B.24	78.875000	79.295000		studying	studying
sw4927B-ms98-a-0011	B.24	79.295000	80.128375		economics	economics
sw4927B-ms98-a-0011	B.24	80.128375	80.530750		[silence]	[silence]
sw4927B-ms98-a-0011	B.24	80.530750	80.595000		the	the
sw4927B-ms98-a-0011	B.24	80.595000	80.865000		State	State
sw4927B-ms98-a-0011	B.24	80.865000	81.435000		Department	Department
sw4927B-ms98-a-0011	B.24	81.435000	81.795000		could	could
sw4927B-ms98-a-0011	B.24	81.795000	82.105000		offer	offer
sw4927B-ms98-a-0011	B.24	82.105000	82.215000		to	to
sw4927B-ms98-a-0011	B.24	82.215000	82.465000		send	send
sw4927B-ms98-a-0011	B.24	82.465000	82.565000		them	them
sw4927B-ms98-a-0011	B.24	82.565000	82.645000		to	to
sw4927B-ms98-a-0011	B.24	82.645000	82.735000		the	the
sw4927B-ms98-a-0011	B.24	82.735000	83.195000		Soviet	Soviet
sw4927B-ms98-a-0011	B.24	83.195000	83.565000		Union	Union
sw4927B-ms98-a-0011	B.24	83.565000	83.685000		for	for
sw4927B-ms98-a-0011	B.24	83.685000	83.925000		two	two
sw4927B-ms98-a-0011	B.24	83.925000	84.265000		years	years
sw4927B-ms98-a-0011	B.24	84.265000	84.365000		to	to
sw4927B-ms98-a-0011	B.24	84.365000	84.625000		teach	teach
sw4927B-ms98-a-0011	B.24	84.625000	84.725000		them	them_1
sw4927B-ms98-a-0011	B.24	84.725000	84.795000		how	how
sw4927B-ms98-a-0011	B.24	84.795000	84.915000		to	to
sw4927B-ms98-a-0011	B.24	84.915000	85.065000		run	run
sw4927B-ms98-a-0011	B.24	85.065000	85.165000		their	their
sw4927B-ms98-a-0011	B.24	85.165000	85.623875		country	country
sw4927B-ms98-a-0011	B.26	85.623875	86.047000		[silence]	[silence]
sw4927B-ms98-a-0012	B.26	86.047000	86.537125		[silence]	[silence]
sw4927B-ms98-a-0012	B.26	86.537125	87.577000		[laughter]	[laughter]
sw4927B-ms98-a-0012	B.26	87.577000	87.727000		As	as
sw4927B-ms98-a-0012	B.26	87.727000	87.827000		an	an
sw4927B-ms98-a-0012	B.26	87.827000	88.297000		extreme	extreme
sw4927B-ms98-a-0012	B.26	88.297000	88.887000		example	example
sw4927B-ms98-a-0012	B.26	88.887000	89.115750		right	right
sw4927B-ms98-a-0012	B.28	89.115750	89.644625		[silence]	[silence]
sw4927B-ms98-a-0013	B.28	89.644625	90.714875		[silence]	[silence]
sw4927B-ms98-a-0014	B.28	90.714875	91.228875		[silence]	[silence]
sw4927B-ms98-a-0014	B.28	91.228875	91.354875		But	but
sw4927B-ms98-a-0014	B.28	91.354875	91.504875		in	in
sw4927B-ms98-a-0014	B.28	91.504875	92.064875		reality	reality
sw4927B-ms98-a-0014	B.28	92.064875	92.094875		I	i
sw4927B-ms98-a-0014	B.28	92.094875	92.754875		think	think
sw4927B-ms98-a-0014	B.28	92.754875	92.894875		what	what
sw4927B-ms98-a-0014	B.28	92.894875	92.984875		you	you
sw4927B-ms98-a-0014	B.28	92.984875	93.114875		would	would
sw4927B-ms98-a-0014	B.28	93.114875	93.394875		wind	wind
sw4927B-ms98-a-0014	B.28	93.394875	93.584875		up	up
sw4927B-ms98-a-0014	B.28	93.584875	93.734875		with	with
sw4927B-ms98-a-0014	B.28	93.734875	93.874875		is	is
sw4927B-ms98-a-0014	B.28	93.874875	93.934875		a	a
sw4927B-ms98-a-0014	B.28	93.934875	94.434875		political	political
sw4927B-ms98-a-0014	B.28	94.434875	94.954875		football	football
sw4927B-ms98-a-0014	B.28	94.954875	95.064875		where	where
sw4927B-ms98-a-0014	B.28	95.064875	95.174875		they	they
sw4927B-ms98-a-0014	B.28	95.174875	95.364875		would	would
sw4927B-ms98-a-0014	B.28	95.364875	95.584875		see	see
sw4927B-ms98-a-0014	B.28	95.584875	95.764875		all	all
sw4927B-ms98-a-0014	B.28	95.764875	95.944875		these	these
sw4927B-ms98-a-0014	B.28	95.944875	96.254875		body	body
sw4927B-ms98-a-0014	B.28	96.254875	96.694875		counts	counts
sw4927B-ms98-a-0014	B.28	96.694875	96.814875		that	that
sw4927B-ms98-a-0014	B.28	96.814875	96.914875		they	they
sw4927B-ms98-a-0014	B.28	96.914875	97.074875		can	can
sw4927B-ms98-a-0014	B.28	97.074875	97.404875		use	use
sw4927B-ms98-a-0014	B.28	97.404875	97.704875		to	to
sw4927B-ms98-a-0014	B.28	97.704875	97.844875		for	for
sw4927B-ms98-a-0014	B.28	97.844875	98.054875		their	their
sw4927B-ms98-a-0014	B.28	98.054875	98.254875		own	own
sw4927B-ms98-a-0014	B.28	98.254875	98.584875		will	will
sw4927B-ms98-a-0014	B.28	98.584875	98.694875		and	and
sw4927B-ms98-a-0014	B.28	98.694875	98.764875		I	i
sw4927B-ms98-a-0014	B.28	98.764875	98.964875		just	just
sw4927B-ms98-a-0014	B.28	98.964875	99.144875		don't	don't
sw4927B-ms98-a-0014	B.28	99.144875	99.284875		think	think
sw4927B-ms98-a-0014	B.28	99.284875	99.374875		it	it
sw4927B-ms98-a-0014	B.28	99.374875	99.494875		would	would
sw4927B-ms98-a-0014	B.28	99.494875	99.817500		work	work
sw4927B-ms98-a-0014	B.30	99.817500	100.227500		[silence]	[silence]
sw4927B-ms98-a-0015	B.30	100.227500	107.365500		[silence]	[silence]
sw4927B-ms98-a-0016	B.30	107.365500	107.912875		[silence]	[silence]
sw4927B-ms98-a-0016	B.30	107.912875	108.155500		Well	well
sw4927B-ms98-a-0016	B.30	108.155500	108.265500		they're	they're
sw4927B-ms98-a-0016	B.30	108.265500	108.635500		not	not
sw4927B-ms98-a-0016	B.30	108.635500	108.825500		It's	it's
sw4927B-ms98-a-0016	B.30	108.825500	109.005500		been	been
sw4927B-ms98-a-0016	B.30	109.005500	109.825500		suggested	suggested
sw4927B-ms98-a-0016	B.32	109.825500	109.975500		And	and
sw4927B-ms98-a-0016	B.32	109.975500	110.105500		it's	it's
sw4927B-ms98-a-0016	B.32	110.105500	110.265500		sort	sort
sw4927B-ms98-a-0016	B.32	110.265500	110.325500		of	of
sw4927B-ms98-a-0016	B.32	110.325500	110.385500		a	a
sw4927B-ms98-a-0016	B.32	110.385500	110.785500		topic	topic
sw4927B-ms98-a-0016	B.32	110.785500	110.905500		of	of
sw4927B-ms98-a-0016	B.32	110.905500	111.277625		debate	debate
sw4927B-ms98-a-0016	B.34	111.277625	111.692000		[silence]	[silence]
sw4927B-ms98-a-0016	B.34	111.692000	111.855500		Every	every
sw4927B-ms98-a-0016	B.34	111.855500	112.055500		time	time
sw4927B-ms98-a-0016	B.34	112.055500	112.165500		it	it
sw4927B-ms98-a-0016	B.34	112.165500	112.425500		comes	comes
sw4927B-ms98-a-0016	B.34	112.425500	112.575500		up	up
sw4927B-ms98-a-0016	B.34	112.575500	112.730000		[silence]	[silence]
sw4927B-ms98-a-0016	B.34	112.730000	112.880875		it	it
sw4927B-ms98-a-0016	B.34	112.880875	112.997625		[silence]	[silence]
sw4927B-ms98-a-0016	B.34	112.997625	113.275500		gets	gets
sw4927B-ms98-a-0016	B.34	113.275500	113.635500		voted	voted
sw4927B-ms98-a-0016	B.34	113.635500	114.080125		down	down
sw4927B-ms98-a-0016	B.34	114.080125	114.453125		[silence]	[silence]
sw4927B-ms98-a-0016	B.34	114.453125	114.765500		The	the
sw4927B-ms98-a-0016	B.34	114.765500	114.795500	<DEL>	---	uh
sw4927B-ms98-a-0016	B.34	114.795500	115.115500		people	people
sw4927B-ms98-a-0016	B.34	115.115500	115.285500		who	who
sw4927B-ms98-a-0016	B.34	115.285500	115.425500		are	are
sw4927B-ms98-a-0016	B.34	115.425500	116.285500		promilitary	pro-military
sw4927B-ms98-a-0016	B.34	116.285500	116.675500		oppose	oppose
sw4927B-ms98-a-0016	B.34	116.675500	116.845500	<DEL>	---	it
sw4927B-ms98-a-0016	B.34	116.845500	117.125500		because	because
sw4927B-ms98-a-0016	B.34	117.125500	117.235500		they	they
sw4927B-ms98-a-0016	B.34	117.235500	117.445500		don't	don't
sw4927B-ms98-a-0016	B.34	117.445500	117.655500		want	want
sw4927B-ms98-a-0016	B.34	117.655500	117.935500		people	people
sw4927B-ms98-a-0016	B.34	117.935500	118.005500		to	to
sw4927B-ms98-a-0016	B.34	118.005500	118.175500		have	have
sw4927B-ms98-a-0016	B.34	118.175500	118.265500		the	the
sw4927B-ms98-a-0016	B.34	118.265500	118.525500		right	right
sw4927B-ms98-a-0016	B.34	118.525500	118.625500		to	to
sw4927B-ms98-a-0016	B.34	118.625500	118.925500		opt	opt
sw4927B-ms98-a-0016	B.34	118.925500	119.105500		out	out
sw4927B-ms98-a-0016	B.34	119.105500	119.215500		of	of
sw4927B-ms98-a-0016	B.34	119.215500	119.285500		the	the
sw4927B-ms98-a-0016	B.34	119.285500	119.835500		military	military
sw4927B-ms98-a-0016	B.34	119.835500	120.035500		into	into
sw4927B-ms98-a-0016	B.34	120.035500	120.405500		something	something
sw4927B-ms98-a-0016	B.34	120.405500	120.874875		else	else
sw4927B-ms98-a-0016	B.36	120.874875	121.147750		[silence]	[silence]
sw4927B-ms98-a-0017	B.36	121.147750	121.576625		[silence]	[silence]
sw4927B-ms98-a-0017	B.36	121.576625	121.897750		And	and
sw4927B-ms98-a-0017	B.36	121.897750	121.957750		the	the
sw4927B-ms98-a-0017	B.36	121.957750	122.417750		people	people
sw4927B-ms98-a-0017	B.36	122.417750	122.677750		who	who
sw4927B-ms98-a-0017	B.36	122.677750	122.827750		are	are
sw4927B-ms98-a-0017	B.36	122.827750	123.917750		proconstitution	pro-constitution
sw4927B-ms98-a-0017	B.36	123.917750	124.277750		oppose	oppose
sw4927B-ms98-a-0017	B.36	124.277750	124.417750		it	it
sw4927B-ms98-a-0017	B.36	124.417750	124.507750		on	on
sw4927B-ms98-a-0017	B.36	124.507750	124.567750		the	the
sw4927B-ms98-a-0017	B.36	124.567750	124.947750		grounds	grounds
sw4927B-ms98-a-0017	B.36	124.947750	125.067750		that	that
sw4927B-ms98-a-0017	B.36	125.067750	125.127750		the	the
sw4927B-ms98-a-0017	B.36	125.127750	125.477750		government	government
sw4927B-ms98-a-0017	B.36	125.477750	125.777750		shouldn't	shouldn't
sw4927B-ms98-a-0017	B.36	125.777750	125.947750		even	even
sw4927B-ms98-a-0017	B.36	125.947750	126.107750		have	have
sw4927B-ms98-a-0017	B.36	126.107750	126.207750		the	the
sw4927B-ms98-a-0017	B.36	126.207750	126.437750		right	right
sw4927B-ms98-a-0017	B.36	126.437750	126.577750		to	to
sw4927B-ms98-a-0017	B.36	126.577750	126.937750		enforce	enforce
sw4927B-ms98-a-0017	B.36	126.937750	127.007750		you	you
sw4927B-ms98-a-0017	B.36	127.007750	127.137750		to	to
sw4927B-ms98-a-0017	B.36	127.137750	127.387750		join	join
sw4927B-ms98-a-0017	B.36	127.387750	127.447750		the	the
sw4927B-ms98-a-0017	B.36	127.447750	128.025125		military	military
sw4927B-ms98-a-0017	B.36	128.025125	128.375375		[silence]	[silence]
sw4927B-ms98-a-0017	B.36	128.375375	128.637750		unless	unless
sw4927B-ms98-a-0017	B.38	128.637750	128.697750		the	the
sw4927B-ms98-a-0017	B.38	128.697750	129.137750		United	United
sw4927B-ms98-a-0017	B.38	129.137750	129.457750		States	States
sw4927B-ms98-a-0017	B.38	129.457750	129.557750		is	is
sw4927B-ms98-a-0017	B.38	129.557750	130.007750		actually	actually
sw4927B-ms98-a-0017	B.38	130.007750	130.257750		under	under
sw4927B-ms98-a-0017	B.38	130.257750	130.788250		attack	attack
sw4927B-ms98-a-0017	B.40	130.788250	131.606125		[silence]	[silence]
sw4927B-ms98-a-0018	B.40	131.606125	132.348875		[silence]	[silence]
sw4927B-ms98-a-0018	B.40	132.348875	132.794375		[noise]	[noise]
sw4927B-ms98-a-0018	B.40	132.794375	132.997250		[silence]	[silence]
sw4927B-ms98-a-0018	B.40	132.997250	133.444500		So	so
sw4927B-ms98-a-0018	B.40	133.444500	134.116125		mostly	mostly
sw4927B-ms98-a-0018	B.40	134.116125	134.406125		it's	it's
sw4927B-ms98-a-0018	B.40	134.406125	134.596125		just	just
sw4927B-ms98-a-0018	B.40	134.596125	134.786125		kind	kind
sw4927B-ms98-a-0018	B.40	134.786125	134.866125		of	of
sw4927B-ms98-a-0018	B.40	134.866125	134.986125		one	one
sw4927B-ms98-a-0018	B.40	134.986125	135.056125		of	of
sw4927B-ms98-a-0018	B.40	135.056125	135.256125		those	those
sw4927B-ms98-a-0018	B.40	135.256125	135.526125		things	things
sw4927B-ms98-a-0018	B.40	135.526125	135.695500		that	that
sw4927B-ms98-a-0018	B.40	135.695500	136.016125		goes	goes
sw4927B-ms98-a-0018	B.40	136.016125	136.418375		away	away
sw4927B-ms98-a-0018	B.42	136.418375	137.942375		[noise]	[noise]
sw4927B-ms98-a-0018	B.42	137.942375	138.236875		Ah	ah
sw4927B-ms98-a-0018	B.42	138.236875	138.462875		They've	they've
sw4927B-ms98-a-0018	B.42	138.462875	138.574000		got	got
sw4927B-ms98-a-0018	B.42	138.574000	138.656750		a	a
sw4927B-ms98-a-0018	B.42	138.656750	139.046125		noisy	noisy
sw4927B-ms98-a-0018	B.42	139.046125	139.488750		line	line
sw4927B-ms98-a-0018	B.44	139.488750	141.494250		[silence]	[silence]
sw4927B-ms98-a-0019	B.44	141.494250	142.070375		[silence]	[silence]
sw4927B-ms98-a-0019	B.44	142.070375	142.539250		Yeah	[laughter-yeah]
sw4927B-ms98-a-0019	B.44	142.539250	142.904625		[silence]	[silence]
sw4927B-ms98-a-0019	B.44	142.904625	143.104250		Well	well
sw4927B-ms98-a-0019	B.44	143.104250	143.194250		it's	it's
sw4927B-ms98-a-0019	B.44	143.194250	143.484250		somewhere	somewhere
sw4927B-ms98-a-0019	B.44	143.484250	143.814250		between	between
sw4927B-ms98-a-0019	B.44	143.814250	143.954250		here	here
sw4927B-ms98-a-0019	B.44	143.954250	144.084250		and	and
sw4927B-ms98-a-0019	B.44	144.084250	144.338000		there	there
sw4927B-ms98-a-0019	B.46	144.338000	144.939000		[silence]	[silence]
sw4927B-ms98-a-0020	B.46	144.939000	147.342125		[silence]	[silence]
sw4927B-ms98-a-0021	B.46	147.342125	147.911000		[silence]	[silence]
sw4927B-ms98-a-0021	B.46	147.911000	148.062125		Uh	uh
sw4927B-ms98-a-0021	B.46	148.062125	148.232125		oh	oh
sw4927B-ms98-a-0021	B.46	148.232125	148.712125		eighteen	eighteen
sw4927B-ms98-a-0021	B.46	148.712125	148.772125		The	the
sw4927B-ms98-a-0021	B.46	148.772125	149.152125		draft	draft
sw4927B-ms98-a-0021	B.46	149.152125	149.477500		age	age
sw4927B-ms98-a-0021	B.48	149.477500	150.562000		[silence]	[silence]
sw4927B-ms98-a-0021	B.48	150.562000	150.804125		Yeah	yeah
sw4927B-ms98-a-0021	B.50	150.804125	152.344125		[noise]	[noise]
sw4927B-ms98-a-0021	B.50	152.344125	152.647125		Wait	wait
sw4927B-ms98-a-0021	B.50	152.647125	152.745875		a	a
sw4927B-ms98-a-0021	B.50	152.745875	153.083000	<DEL>	---	min[ute]-
sw4927B-ms98-a-0021	B.50	153.083000	153.471000		yeah	yeah
sw4927B-ms98-a-0021	B.50	153.471000	154.020125		[noise]	[noise]
sw4927B-ms98-a-0021	B.50	154.020125	154.110500		Let	let
sw4927B-ms98-a-0021	B.50	154.110500	154.253375		me	me
sw4927B-ms98-a-0021	B.50	154.253375	154.461875		see	see
sw4927B-ms98-a-0021	B.50	154.461875	154.461875		[silence]	[silence]
sw4927B-ms98-a-0021	B.50	154.461875	154.502125		if	if
sw4927B-ms98-a-0021	B.50	154.502125	154.582125		I	i
sw4927B-ms98-a-0021	B.50	154.582125	154.752125		can	can
sw4927B-ms98-a-0021	B.50	154.752125	154.902125		get	get
sw4927B-ms98-a-0021	B.50	154.902125	155.062125		on	on
sw4927B-ms98-a-0021	B.50	155.062125	155.112125		a	a
sw4927B-ms98-a-0021	B.50	155.112125	155.532125		cleaner	cleaner
sw4927B-ms98-a-0021	B.50	155.532125	155.976375		line	line
sw4927B-ms98-a-0021	B.50	155.976375	156.530125		[silence]	[silence]
sw4927B-ms98-a-0021	B.50	156.530125	156.634250		If	if
sw4927B-ms98-a-0021	B.50	156.634250	156.872125		it's	it's
sw4927B-ms98-a-0021	B.50	156.872125	157.205000		my	my
sw4927B-ms98-a-0021	B.50	157.205000	157.799125		line	line
sw4927B-ms98-a-0021	B.50	157.799125	158.122000	<SUB>	uh	um
sw4927B-ms98-a-0021	B.52	158.122000	158.618250		[noise]	[noise]
sw4927B-ms98-a-0021	B.52	158.618250	159.040125		[silence]	[silence]
sw4927B-ms98-a-0022	B.52	159.040125	159.603375		[silence]	[silence]
sw4927B-ms98-a-0022	B.52	159.603375	159.865125		[noise]	[noise]
sw4927B-ms98-a-0022	B.52	159.865125	160.426750		[silence]	[silence]
sw4927B-ms98-a-0022	B.52	160.426750	160.600125		Yeah	yeah
sw4927B-ms98-a-0022	B.52	160.600125	160.710125		it	it
sw4927B-ms98-a-0022	B.52	160.710125	160.830125		is	is
sw4927B-ms98-a-0022	B.52	160.830125	160.990125		my	my
sw4927B-ms98-a-0022	B.52	160.990125	161.200125		line	line
sw4927B-ms98-a-0022	B.52	161.200125	161.270125		I	i
sw4927B-ms98-a-0022	B.52	161.270125	161.400125		was	was
sw4927B-ms98-a-0022	B.52	161.400125	161.490125		on	on
sw4927B-ms98-a-0022	B.52	161.490125	161.550125		a	a
sw4927B-ms98-a-0022	B.52	161.550125	161.850125		radio	radio
sw4927B-ms98-a-0022	B.52	161.850125	162.142625		phone	phone
sw4927B-ms98-a-0022	B.54	162.142625	162.578375		[silence]	[silence]
sw4927B-ms98-a-0023	B.54	162.578375	163.036500		[silence]	[silence]
sw4927B-ms98-a-0023	B.54	163.036500	163.258375		All	all
sw4927B-ms98-a-0023	B.54	163.258375	163.438375		right	right
sw4927B-ms98-a-0023	B.54	163.438375	163.628375		That's	that's
sw4927B-ms98-a-0023	B.54	163.628375	163.920875		better	better
sw4927B-ms98-a-0023	B.54	163.920875	164.828500		[silence]	[silence]
sw4927B-ms98-a-0023	B.54	164.828500	165.018375		Yeah	yeah
sw4927B-ms98-a-0023	B.54	165.018375	165.158375	<SUB>	now	no
sw4927B-ms98-a-0023	B.54	165.158375	165.418375	<SUB>	their	there
sw4927B-ms98-a-0023	B.54	165.418375	165.658375		they	they
sw4927B-ms98-a-0023	B.54	165.658375	165.768375		they	they
sw4927B-ms98-a-0023	B.54	165.768375	166.088375		figure	figure
sw4927B-ms98-a-0023	B.54	166.088375	166.432125		that	that
sw4927B-ms98-a-0023	B.54	166.432125	166.714625		[silence]	[silence]
sw4927B-ms98-a-0023	B.54	166.714625	166.828375		they	they
sw4927B-ms98-a-0023	B.54	166.828375	167.218375		can	can
sw4927B-ms98-a-0023	B.54	167.218375	167.548375		draft	draft
sw4927B-ms98-a-0023	B.54	167.548375	167.688375		you	you
sw4927B-ms98-a-0023	B.54	167.688375	167.798375		at	at
sw4927B-ms98-a-0023	B.54	167.798375	168.358375		eighteen	eighteen
sw4927B-ms98-a-0023	B.54	168.358375	168.468375	<DEL>	---	age
sw4927B-ms98-a-0023	B.54	168.468375	168.528375		They	they
sw4927B-ms98-a-0023	B.54	168.528375	168.808375		usually	usually
sw4927B-ms98-a-0023	B.54	168.808375	169.097500		do	do
sw4927B-ms98-a-0023	B.54	169.097500	169.404000		draft	draft
sw4927B-ms98-a-0023	B.54	169.404000	169.578375		you	you
sw4927B-ms98-a-0023	B.54	169.578375	169.708375		at	at
sw4927B-ms98-a-0023	B.54	169.708375	170.383875		nineteen	nineteen
sw4927B-ms98-a-0023	B.54	170.383875	170.975875		[silence]	[silence]
sw4927B-ms98-a-0023	B.54	170.975875	171.378375		And	and
sw4927B-ms98-a-0023	B.54	171.378375	171.658375		that's	that's
sw4927B-ms98-a-0023	B.54	171.658375	171.728375		the	the
sw4927B-ms98-a-0023	B.56	171.728375	172.008375		age	age
sw4927B-ms98-a-0023	B.56	172.008375	172.138375		they're	they're
sw4927B-ms98-a-0023	B.56	172.138375	172.378375		looking	looking
sw4927B-ms98-a-0023	B.56	172.378375	172.565625		at	at
sw4927B-ms98-a-0023	B.58	172.565625	173.456375		[silence]	[silence]
sw4927B-ms98-a-0024	B.58	173.456375	174.361875		[silence]	[silence]
sw4927B-ms98-a-0024	B.58	174.361875	174.546375		And	and
sw4927B-ms98-a-0024	B.58	174.546375	174.616375		of	of
sw4927B-ms98-a-0024	B.58	174.616375	174.866375		course	course
sw4927B-ms98-a-0024	B.58	174.866375	175.056375		they're	they're
sw4927B-ms98-a-0024	B.58	175.056375	175.296375		this	this
sw4927B-ms98-a-0024	B.58	175.296375	175.426375		one	one
sw4927B-ms98-a-0024	B.58	175.426375	175.566375		the	the
sw4927B-ms98-a-0024	B.58	175.566375	175.906375		women	women
sw4927B-ms98-a-0024	B.58	175.906375	176.066375		would	would
sw4927B-ms98-a-0024	B.58	176.066375	176.226375		be	be
sw4927B-ms98-a-0024	B.58	176.226375	176.586375		equally	equally
sw4927B-ms98-a-0024	B.58	176.586375	177.092000		grabbed	grabbed
sw4927B-ms98-a-0024	B.58	177.092000	177.215875		and	and
sw4927B-ms98-a-0024	B.58	177.215875	177.728125		[silence]	[silence]
sw4927B-ms98-a-0024	B.58	177.728125	177.947000		they're	they're
sw4927B-ms98-a-0024	B.58	177.947000	178.376375		almost	almost
sw4927B-ms98-a-0024	B.58	178.376375	178.466375		on	on
sw4927B-ms98-a-0024	B.58	178.466375	178.546375		the	the
sw4927B-ms98-a-0024	B.58	178.546375	178.886375		verge	verge
sw4927B-ms98-a-0024	B.58	178.886375	178.966375		of	of
sw4927B-ms98-a-0024	B.58	178.966375	179.306375		saying	saying
sw4927B-ms98-a-0024	B.58	179.306375	179.426375		that	that
sw4927B-ms98-a-0024	B.58	179.426375	179.643375		you	you
sw4927B-ms98-a-0024	B.58	179.643375	179.786375		if	if
sw4927B-ms98-a-0024	B.58	179.786375	179.906375		you're	you're
sw4927B-ms98-a-0024	B.58	179.906375	180.136375	<SUB>	going	gonna
sw4927B-ms98-a-0024	B.58	180.136375	180.136375	<INS>	to	---
sw4927B-ms98-a-0024	B.58	180.136375	180.426375		draft	draft
sw4927B-ms98-a-0024	B.58	180.426375	180.596375		men	men
sw4927B-ms98-a-0024	B.58	180.596375	180.686375		you're	you're
sw4927B-ms98-a-0024	B.58	180.686375	180.836375	<SUB>	going	gonna
sw4927B-ms98-a-0024	B.58	180.836375	180.836375	<INS>	to	---
sw4927B-ms98-a-0024	B.58	180.836375	180.986375		have	have
sw4927B-ms98-a-0024	B.58	180.986375	181.116375		to	to
sw4927B-ms98-a-0024	B.58	181.116375	181.466375		draft	draft
sw4927B-ms98-a-0024	B.58	181.466375	181.756375		women	women
sw4927B-ms98-a-0024	B.58	181.756375	181.846375		And	and
sw4927B-ms98-a-0024	B.58	181.846375	181.936375		you're	you're
sw4927B-ms98-a-0024	B.58	181.936375	182.096375	<SUB>	going	gonna
sw4927B-ms98-a-0024	B.58	182.096375	182.096375	<INS>	to	---
sw4927B-ms98-a-0024	B.58	182.096375	182.216375		have	have
sw4927B-ms98-a-0024	B.58	182.216375	182.336375		to	to
sw4927B-ms98-a-0024	B.58	182.336375	182.486375		put	put
sw4927B-ms98-a-0024	B.58	182.486375	182.576375		them	them_1
sw4927B-ms98-a-0024	B.58	182.576375	182.676375		in	in
sw4927B-ms98-a-0024	B.58	182.676375	182.876375		front	front
sw4927B-ms98-a-0024	B.58	182.876375	182.946375		of	of
sw4927B-ms98-a-0024	B.58	182.946375	183.006375		the	the
sw4927B-ms98-a-0024	B.58	183.006375	183.386375		guns	guns
sw4927B-ms98-a-0024	B.58	183.386375	183.656375		just	just
sw4927B-ms98-a-0024	B.58	183.656375	183.751250		the	the
sw4927B-ms98-a-0024	B.58	183.751250	184.132875		same	same
sw4927B-ms98-a-0024	B.60	184.132875	184.607750		[silence]	[silence]
sw4927B-ms98-a-0025	B.60	184.607750	185.112500		[silence]	[silence]
sw4927B-ms98-a-0025	B.60	185.112500	185.527750		So	so
sw4927B-ms98-a-0025	B.60	185.527750	185.737750		uh	uh
sw4927B-ms98-a-0025	B.60	185.737750	185.877750		if	if
sw4927B-ms98-a-0025	B.60	185.877750	186.057750		you're	you're
sw4927B-ms98-a-0025	B.60	186.057750	186.297750		near	near
sw4927B-ms98-a-0025	B.60	186.297750	186.487750		that	that
sw4927B-ms98-a-0025	B.60	186.487750	186.867750		age	age
sw4927B-ms98-a-0025	B.60	186.867750	187.037750		or	or
sw4927B-ms98-a-0025	B.60	187.037750	187.177750		you	you
sw4927B-ms98-a-0025	B.60	187.177750	187.387750		know	know
sw4927B-ms98-a-0025	B.60	187.387750	187.787750		somebody	somebody
sw4927B-ms98-a-0025	B.60	187.787750	187.907750		who	who
sw4927B-ms98-a-0025	B.60	187.907750	188.367750		is	is
sw4927B-ms98-a-0025	B.62	188.367750	188.545250		uh	uh
sw4927B-ms98-a-0025	B.62	188.545250	188.895500		[silence]	[silence]
sw4927B-ms98-a-0025	B.62	188.895500	188.937750		you	you
sw4927B-ms98-a-0025	B.62	188.937750	189.007750		know	know
sw4927B-ms98-a-0025	B.62	189.007750	189.157750		be	be
sw4927B-ms98-a-0025	B.62	189.157750	189.447750		aware	aware
sw4927B-ms98-a-0025	B.62	189.447750	189.527750		of	of
sw4927B-ms98-a-0025	B.62	189.527750	189.767125		that	that
sw4927B-ms98-a-0025	B.64	189.767125	190.269875		[silence]	[silence]
sw4927B-ms98-a-0026	B.64	190.269875	192.835625		[silence]	[silence]
sw4927B-ms98-a-0027	B.64	192.835625	193.359750		[silence]	[silence]
sw4927B-ms98-a-0027	B.64	193.359750	194.033750		Yeah	[laughter-yeah]
sw4927B-ms98-a-0027	B.66	194.033750	194.523375		[silence]	[silence]
sw4927B-ms98-a-0028	B.66	194.523375	196.233375		[silence]	[silence]
sw4927B-ms98-a-0029	B.66	196.233375	196.790625		[silence]	[silence]
sw4927B-ms98-a-0029	B.66	196.790625	196.953375		Oh	oh
sw4927B-ms98-a-0029	B.66	196.953375	197.349750		okay	okay
sw4927B-ms98-a-0029	B.68	197.349750	198.166125		[silence]	[silence]
sw4927B-ms98-a-0030	B.68	198.166125	198.976250		[silence]	[silence]
sw4927B-ms98-a-0030	B.68	198.976250	199.237000		Yep	yep
sw4927B-ms98-a-0030	B.68	199.237000	199.662625		[silence]	[silence]
sw4927B-ms98-a-0030	B.68	199.662625	199.786125		And	and
sw4927B-ms98-a-0030	B.68	199.786125	199.856125		you	you
sw4927B-ms98-a-0030	B.68	199.856125	199.986125		don't	don't
sw4927B-ms98-a-0030	B.68	199.986125	200.146125		want	want
sw4927B-ms98-a-0030	B.68	200.146125	200.306125		them	them
sw4927B-ms98-a-0030	B.68	200.306125	200.526125		sent	sent
sw4927B-ms98-a-0030	B.68	200.526125	200.676125		off	off
sw4927B-ms98-a-0030	B.68	200.676125	200.776125		to	to
sw4927B-ms98-a-0030	B.68	200.776125	200.866125		the	the
sw4927B-ms98-a-0030	B.68	200.866125	201.166125		Middle	Middle
sw4927B-ms98-a-0030	B.68	201.166125	201.486125		East	East
sw4927B-ms98-a-0030	B.68	201.486125	201.576125		to	to
sw4927B-ms98-a-0030	B.70	201.576125	201.806875		help	help
sw4927B-ms98-a-0030	B.70	201.806875	202.216125		defend	defend
sw4927B-ms98-a-0030	B.70	202.216125	202.496125		Bush	Bush
sw4927B-ms98-a-0030	B.70	202.496125	202.746125		from	from
sw4927B-ms98-a-0030	B.70	202.746125	203.286125		Saddam	Saddam
sw4927B-ms98-a-0030	B.70	203.286125	203.556125		after	after
sw4927B-ms98-a-0030	B.70	203.556125	203.879875		Bush	Bush
sw4927B-ms98-a-0030	B.70	203.879875	204.218875		[silence]	[silence]
sw4927B-ms98-a-0030	B.70	204.218875	204.406125		gets	gets
sw4927B-ms98-a-0030	B.70	204.406125	204.626125		done	done
sw4927B-ms98-a-0030	B.70	204.626125	205.006125		arming	arming
sw4927B-ms98-a-0030	B.70	205.006125	205.278625		him	him
sw4927B-ms98-a-0030	B.72	205.278625	205.830375		[silence]	[silence]
sw4927B-ms98-a-0031	B.72	205.830375	206.338625		[silence]	[silence]
sw4927B-ms98-a-0031	B.72	206.338625	206.710375		You	[laughter-you]
sw4927B-ms98-a-0031	B.72	206.710375	206.880375		know	[laughter-know]
sw4927B-ms98-a-0031	B.72	206.880375	207.000375		we	we
sw4927B-ms98-a-0031	B.72	207.000375	207.210375		only	only
sw4927B-ms98-a-0031	B.72	207.210375	207.450375		find	find
sw4927B-ms98-a-0031	B.72	207.450375	207.580375		out	out
sw4927B-ms98-a-0031	B.72	207.580375	207.860375		about	about
sw4927B-ms98-a-0031	B.72	207.860375	208.090375		that	that
sw4927B-ms98-a-0031	B.72	208.090375	208.120375		a	a
sw4927B-ms98-a-0031	B.72	208.120375	208.400375		year	year
sw4927B-ms98-a-0031	B.72	208.400375	208.660375		after	after
sw4927B-ms98-a-0031	B.72	208.660375	208.770375		the	the
sw4927B-ms98-a-0031	B.72	208.770375	209.164250		fact	fact
sw4927B-ms98-a-0031	B.74	209.164250	209.827125		[silence]	[silence]
sw4927B-ms98-a-0032	B.74	209.827125	210.515875		[silence]	[silence]
sw4927B-ms98-a-0032	B.74	210.515875	210.797125		So	so
sw4927B-ms98-a-0032	B.74	210.797125	210.987125		it's	it's
sw4927B-ms98-a-0032	B.74	210.987125	211.237125		another	another
sw4927B-ms98-a-0032	B.74	211.237125	211.592125		thing	thing
sw4927B-ms98-a-0032	B.74	211.592125	211.867125		[silence]	[silence]
sw4927B-ms98-a-0032	B.74	211.867125	212.087125		When	when
sw4927B-ms98-a-0032	B.74	212.087125	212.267125		in	in
sw4927B-ms98-a-0032	B.74	212.267125	212.618625		doubt	doubt
sw4927B-ms98-a-0032	B.74	212.618625	212.878500		[silence]	[silence]
sw4927B-ms98-a-0032	B.74	212.878500	213.097125		don't	don't
sw4927B-ms98-a-0032	B.74	213.097125	213.457125		trust	trust
sw4927B-ms98-a-0032	B.74	213.457125	213.517125		the	the
sw4927B-ms98-a-0032	B.74	213.517125	214.058625		government	government
sw4927B-ms98-a-0032	B.74	214.058625	214.216875		[silence]	[silence]
sw4927B-ms98-a-0032	B.74	214.216875	214.367125		at	at
sw4927B-ms98-a-0032	B.74	214.367125	214.847125		all	all
sw4927B-ms98-a-0032	B.74	214.847125	215.091000		It's	[laughter-it's]
sw4927B-ms98-a-0032	B.74	215.091000	215.387125		really	really
sw4927B-ms98-a-0032	B.74	215.387125	215.657125		reached	reached
sw4927B-ms98-a-0032	B.76	215.657125	215.847125		that	that
sw4927B-ms98-a-0032	B.76	215.847125	216.171250		point	point
sw4927B-ms98-a-0032	@@B.78	216.171250	217.147375		[silence]	[silence]
sw4927B-ms98-a-0033	@@B.78	217.147375	218.103875		[silence]	[silence]
sw4927B-ms98-a-0033	@@B.78	218.103875	218.197375		Hey	hey
sw4927B-ms98-a-0033	@@B.78	218.197375	218.357375		you're	you're
sw4927B-ms98-a-0033	@@B.78	218.357375	218.467375		in	in
sw4927B-ms98-a-0033	@@B.78	218.467375	218.803625		Perot	Perot
sw4927B-ms98-a-0033	@@B.78	218.803625	219.267875		country	country
sw4927B-ms98-a-0033	@@B.78	219.267875	219.934500		[silence]	[silence]
sw4927B-ms98-a-0033	@@B.78	219.934500	220.275250		I'm	i'm
sw4927B-ms98-a-0033	@@B.78	220.275250	220.737375		really	really
sw4927B-ms98-a-0033	@@B.78	220.737375	221.217375		thinking	thinking
sw4927B-ms98-a-0033	@@B.78	221.217375	221.387375		that	that
sw4927B-ms98-a-0033	@@B.78	221.387375	221.557375		this	this
sw4927B-ms98-a-0033	@@B.78	221.557375	221.777375		guy	guy
sw4927B-ms98-a-0033	@@B.78	221.777375	221.967375		might	might
sw4927B-ms98-a-0033	@@B.78	221.967375	222.097375		be	be
sw4927B-ms98-a-0033	@@B.78	222.097375	222.307375		good	good
sw4927B-ms98-a-0033	@@B.78	222.307375	222.567375		for	for
sw4927B-ms98-a-0033	@@B.78	222.567375	222.850625		us	us
sw4927B-ms98-a-0033	B.80	222.850625	223.464500		[silence]	[silence]
sw4927B-ms98-a-0034	B.80	223.464500	224.220125		[silence]	[silence]
sw4927B-ms98-a-0034	B.80	224.220125	224.374500		I've	i've
sw4927B-ms98-a-0034	B.80	224.374500	224.600500		been	been
sw4927B-ms98-a-0034	B.80	224.600500	224.960250		[silence]	[silence]
sw4927B-ms98-a-0034	B.80	224.960250	225.110875	<SUB>	I-	it
sw4927B-ms98-a-0034	B.80	225.110875	225.264500		it	it
sw4927B-ms98-a-0034	B.80	225.264500	225.614500		seemed	seemed
sw4927B-ms98-a-0034	B.80	225.614500	226.104500		dangerous	dangerous
sw4927B-ms98-a-0034	B.80	226.104500	226.204500		I	i
sw4927B-ms98-a-0034	B.80	226.204500	226.424500		thought	thought
sw4927B-ms98-a-0034	B.80	226.424500	226.564500		is	is
sw4927B-ms98-a-0034	B.80	226.564500	226.624500		the	the
sw4927B-ms98-a-0034	B.80	226.624500	226.894500		guy	guy
sw4927B-ms98-a-0034	B.80	226.894500	226.934500		a	a
sw4927B-ms98-a-0034	B.80	226.934500	227.455875		closet	closet
sw4927B-ms98-a-0034	B.80	227.455875	228.054500		fascist	fascist
sw4927B-ms98-a-0034	B.80	228.054500	228.154500		And	and
sw4927B-ms98-a-0034	B.80	228.154500	228.264500		then	then
sw4927B-ms98-a-0034	B.80	228.264500	228.334500		I	i
sw4927B-ms98-a-0034	B.80	228.334500	228.634500		find	find
sw4927B-ms98-a-0034	B.80	228.634500	228.804500		out	out
sw4927B-ms98-a-0034	B.80	228.804500	228.904500		that	that
sw4927B-ms98-a-0034	B.80	228.904500	229.014500		he	he
sw4927B-ms98-a-0034	B.80	229.014500	229.314500		helped	helped
sw4927B-ms98-a-0034	B.80	229.314500	229.514500		rid	rid
sw4927B-ms98-a-0034	B.80	229.514500	229.584500		the	the
sw4927B-ms98-a-0034	B.80	229.584500	229.964500		United	United
sw4927B-ms98-a-0034	B.80	229.964500	230.294500		States	States
sw4927B-ms98-a-0034	B.80	230.294500	230.374500		of	of
sw4927B-ms98-a-0034	B.80	230.374500	230.434500		the	the
sw4927B-ms98-a-0034	B.80	230.434500	231.128375		gablers	Gablers
sw4927B-ms98-a-0034	B.82	231.128375	231.654625		[silence]	[silence]
sw4927B-ms98-a-0035	B.82	231.654625	236.530500		[silence]	[silence]
sw4927B-ms98-a-0036	B.82	236.530500	237.037250		[silence]	[silence]
sw4927B-ms98-a-0036	B.82	237.037250	237.413625		Yeah	yeah
sw4927B-ms98-a-0036	B.84	237.413625	237.413625	<INS>	Okay	---
sw4927B-ms98-a-0036	B.84	237.413625	237.948625		[silence]	[silence]
sw4927B-ms98-a-0037	B.84	237.948625	239.785250		[silence]	[silence]
sw4927B-ms98-a-0038	B.84	239.785250	240.270125		[silence]	[silence]
sw4927B-ms98-a-0038	B.84	240.270125	240.461250		[vocalized-noise]	[vocalized-noise]
sw4927B-ms98-a-0038	B.84	240.461250	240.732375		[silence]	[silence]
sw4927B-ms98-a-0038	B.84	240.732375	240.835250		Well	well
sw4927B-ms98-a-0038	B.84	240.835250	240.935250		I'm	i'm
sw4927B-ms98-a-0038	B.84	240.935250	240.995250		in	in
sw4927B-ms98-a-0038	B.84	240.995250	241.055250		the	the
sw4927B-ms98-a-0038	B.84	241.055250	241.425250		computer	computer
sw4927B-ms98-a-0038	B.84	241.425250	241.685250		biz	biz
sw4927B-ms98-a-0038	B.84	241.685250	242.035250		too	too
sw4927B-ms98-a-0038	B.84	242.035250	242.365250		so	so
sw4927B-ms98-a-0038	B.84	242.365250	242.455250		I	i
sw4927B-ms98-a-0038	B.84	242.455250	242.585250		know	know
sw4927B-ms98-a-0038	B.84	242.585250	242.705250		he's	he's
sw4927B-ms98-a-0038	B.84	242.705250	242.895250		well	well
sw4927B-ms98-a-0038	B.84	242.895250	243.115250		known	known
sw4927B-ms98-a-0038	B.84	243.115250	243.205250		in	in
sw4927B-ms98-a-0038	B.84	243.205250	243.265250		the	the
sw4927B-ms98-a-0038	B.84	243.265250	243.840375		industry	industry
sw4927B-ms98-a-0038	B.86	243.840375	244.627625		[silence]	[silence]
sw4927B-ms98-a-0038	B.86	244.627625	244.945250		They	they
sw4927B-ms98-a-0038	B.86	244.945250	245.075250		uh	uh
sw4927B-ms98-a-0038	B.86	245.075250	245.375250	<SUB>	I	i-
sw4927B-ms98-a-0038	B.86	245.375250	245.555250		I	i
sw4927B-ms98-a-0038	B.86	245.555250	245.775250		have	have
sw4927B-ms98-a-0038	B.86	245.775250	246.045250		high	high
sw4927B-ms98-a-0038	B.86	246.045250	246.415250		hopes	hopes
sw4927B-ms98-a-0038	B.86	246.415250	246.635250		for	for
sw4927B-ms98-a-0038	B.86	246.635250	246.735250		him	him
sw4927B-ms98-a-0038	B.86	246.735250	246.865250		And	and
sw4927B-ms98-a-0038	B.86	246.865250	246.895250		I	i
sw4927B-ms98-a-0038	B.86	246.895250	247.135250		think	think
sw4927B-ms98-a-0038	B.86	247.135250	247.385250		that	that
sw4927B-ms98-a-0038	B.86	247.385250	247.465250		you	you
sw4927B-ms98-a-0038	B.86	247.465250	247.733375		know	[laughter-know]
sw4927B-ms98-a-0038	B.86	247.733375	247.936750		[silence]	[silence]
sw4927B-ms98-a-0038	B.86	247.936750	248.041875		if	if
sw4927B-ms98-a-0038	B.86	248.041875	248.195250		he	he
sw4927B-ms98-a-0038	B.86	248.195250	248.315250		could	could
sw4927B-ms98-a-0038	B.86	248.315250	248.445250		get	get
sw4927B-ms98-a-0038	B.86	248.445250	248.765250		people	people
sw4927B-ms98-a-0038	B.86	248.765250	249.725250		interested	interested
sw4927B-ms98-a-0038	B.86	249.725250	249.935250		and	and
sw4927B-ms98-a-0038	B.86	249.935250	250.525250		encouraged	encouraged
sw4927B-ms98-a-0038	B.86	250.525250	250.625250		and	and
sw4927B-ms98-a-0038	B.86	250.625250	250.705250		to	to
sw4927B-ms98-a-0038	B.86	250.705250	250.935250		believe	believe
sw4927B-ms98-a-0038	B.86	250.935250	251.025250		that	that
sw4927B-ms98-a-0038	B.86	251.025250	251.085250		the	the
sw4927B-ms98-a-0038	B.86	251.085250	251.325250		government	government
sw4927B-ms98-a-0038	B.86	251.325250	251.455250		was	was
sw4927B-ms98-a-0038	B.86	251.455250	251.855250		actually	actually
sw4927B-ms98-a-0038	B.86	251.855250	252.035250		for	for
sw4927B-ms98-a-0038	B.86	252.035250	252.405250		us	us
sw4927B-ms98-a-0038	B.86	252.405250	252.545250		then	then
sw4927B-ms98-a-0038	B.86	252.545250	252.705250		I'm	i'm
sw4927B-ms98-a-0038	B.86	252.705250	252.995250		for	for
sw4927B-ms98-a-0038	B.86	252.995250	253.137875		him	him
sw4927B-ms98-a-0038	B.88	253.137875	253.509750		[silence]	[silence]
sw4927B-ms98-a-0039	B.88	253.509750	253.951625		[silence]	[silence]
sw4927B-ms98-a-0039	B.88	253.951625	254.029750		I	i
sw4927B-ms98-a-0039	B.88	254.029750	254.159750		mean	mean
sw4927B-ms98-a-0039	B.88	254.159750	254.229750		in	in
sw4927B-ms98-a-0039	B.88	254.229750	254.299750		the	the
sw4927B-ms98-a-0039	B.88	254.299750	254.799750		Democratic	Democratic
sw4927B-ms98-a-0039	B.88	254.799750	255.259750		primary	primary
sw4927B-ms98-a-0039	B.88	255.259750	255.359750		I'm	i'm
sw4927B-ms98-a-0039	B.88	255.359750	255.519750	<SUB>	going	gonna
sw4927B-ms98-a-0039	B.88	255.519750	255.519750	<INS>	to	---
sw4927B-ms98-a-0039	B.88	255.519750	255.769750		vote	vote
sw4927B-ms98-a-0039	B.88	255.769750	255.859750		for	for
sw4927B-ms98-a-0039	B.88	255.859750	256.259750		Brown	Brown
sw4927B-ms98-a-0039	B.88	256.259750	256.409750		just	just
sw4927B-ms98-a-0039	B.88	256.409750	256.549750		because	because_1
sw4927B-ms98-a-0039	B.88	256.549750	256.609750		I	i
sw4927B-ms98-a-0039	B.88	256.609750	256.769750		kind	kind
sw4927B-ms98-a-0039	B.88	256.769750	256.869750		of	of
sw4927B-ms98-a-0039	B.88	256.869750	257.039750		like	like
sw4927B-ms98-a-0039	B.88	257.039750	257.422125		Brown	Brown
sw4927B-ms98-a-0039	B.88	257.422125	257.768625		[silence]	[silence]
sw4927B-ms98-a-0039	B.88	257.768625	257.879750		and	and
sw4927B-ms98-a-0039	B.88	257.879750	258.009750		his	his
sw4927B-ms98-a-0039	B.88	258.009750	258.549750		attitude	attitude
sw4927B-ms98-a-0039	B.88	258.549750	258.749750		But	but
sw4927B-ms98-a-0039	B.88	258.749750	258.979750		when	when
sw4927B-ms98-a-0039	B.88	258.979750	259.246750		uh	uh
sw4927B-ms98-a-0039	B.88	259.246750	259.369750		when	when
sw4927B-ms98-a-0039	B.88	259.369750	259.469750		it	it
sw4927B-ms98-a-0039	B.88	259.469750	259.749750		really	really
sw4927B-ms98-a-0039	B.88	259.749750	260.059750		comes	comes
sw4927B-ms98-a-0039	B.88	260.059750	260.309750		down	down
sw4927B-ms98-a-0039	B.88	260.309750	260.409750		in	in
sw4927B-ms98-a-0039	B.88	260.409750	260.479750		the	the
sw4927B-ms98-a-0039	B.88	260.479750	260.929750		fall	fall
sw4927B-ms98-a-0039	B.88	260.929750	260.959750		I	i
sw4927B-ms98-a-0039	B.88	260.959750	261.139750		think	think
sw4927B-ms98-a-0039	B.88	261.139750	261.239750		I	i
sw4927B-ms98-a-0039	B.88	261.239750	261.399750		know	know
sw4927B-ms98-a-0039	B.88	261.399750	261.549750		where	where
sw4927B-ms98-a-0039	B.88	261.549750	261.659750		it's	it's
sw4927B-ms98-a-0039	B.88	261.659750	261.839750	<SUB>	going	gonna
sw4927B-ms98-a-0039	B.88	261.839750	261.839750	<INS>	to	---
sw4927B-ms98-a-0039	B.88	261.839750	262.124750		go	go
sw4927B-ms98-a-0039	B.90	262.124750	262.682875		[silence]	[silence]
sw4927B-ms98-a-0040	B.90	262.682875	268.404875		[silence]	[silence]
sw4927B-ms98-a-0041	B.90	268.404875	268.782000		[silence]	[silence]
sw4927B-ms98-a-0041	B.90	268.782000	269.181125	<SUB>	Uh-huh	um-hum
sw4927B-ms98-a-0041	B.92	269.181125	269.663250		[silence]	[silence]
sw4927B-ms98-a-0042	B.92	269.663250	271.821500		[silence]	[silence]
sw4927B-ms98-a-0043	B.92	271.821500	272.343000		[silence]	[silence]
sw4927B-ms98-a-0043	B.92	272.343000	272.881750		Yeah	[laughter-yeah]
sw4927B-ms98-a-0043	B.94	272.881750	273.322500		[silence]	[silence]
sw4927B-ms98-a-0044	B.94	273.322500	273.834125		[silence]	[silence]
sw4927B-ms98-a-0044	B.94	273.834125	273.872500		You	you
sw4927B-ms98-a-0044	B.94	273.872500	273.992500		know	know
sw4927B-ms98-a-0044	B.94	273.992500	274.188125	<SUB>	th-	this
sw4927B-ms98-a-0044	B.96	274.188125	274.733250		[silence]	[silence]
sw4927B-ms98-a-0045	B.96	274.733250	277.576750		[silence]	[silence]
sw4927B-ms98-a-0046	B.96	277.576750	278.141250		[silence]	[silence]
sw4927B-ms98-a-0046	B.96	278.141250	278.436750		Yeah	yeah
sw4927B-ms98-a-0046	B.96	278.436750	278.566750		I'm	i'm
sw4927B-ms98-a-0046	B.96	278.566750	278.656750		an	an
sw4927B-ms98-a-0046	B.96	278.656750	278.846750		end	end
sw4927B-ms98-a-0046	B.96	278.846750	279.286750		user	user
sw4927B-ms98-a-0046	B.96	279.286750	279.326750		I	i
sw4927B-ms98-a-0046	B.96	279.326750	279.596750		teach	teach
sw4927B-ms98-a-0046	B.96	279.596750	279.876750		people	people
sw4927B-ms98-a-0046	B.96	279.876750	279.966750		how	how
sw4927B-ms98-a-0046	B.96	279.966750	280.036750		to	to
sw4927B-ms98-a-0046	B.96	280.036750	280.306750		use	use
sw4927B-ms98-a-0046	B.96	280.306750	281.226750		MacIntoshes	Macintoshes
sw4927B-ms98-a-0046	B.96	281.226750	281.366750		and	and
sw4927B-ms98-a-0046	B.96	281.366750	281.436750		how	how
sw4927B-ms98-a-0046	B.96	281.436750	281.526750		to	to
sw4927B-ms98-a-0046	B.96	281.526750	281.706750		buy	buy
sw4927B-ms98-a-0046	B.96	281.706750	282.406750		equipment	equipment
sw4927B-ms98-a-0046	B.96	282.406750	282.705375		and	and
sw4927B-ms98-a-0046	B.96	282.705375	283.059375		[silence]	[silence]
sw4927B-ms98-a-0046	B.96	283.059375	283.436750		desktop	desktop
sw4927B-ms98-a-0046	B.96	283.436750	283.946750		publishing	publishing
sw4927B-ms98-a-0046	B.96	283.946750	284.416750		magazine	magazine
sw4927B-ms98-a-0046	B.96	284.416750	284.926750		production	production
sw4927B-ms98-a-0046	B.96	284.926750	285.046750		and	and
sw4927B-ms98-a-0046	B.96	285.046750	285.286750		things	things
sw4927B-ms98-a-0046	B.96	285.286750	285.676750		related	related
sw4927B-ms98-a-0046	B.96	285.676750	285.826750		to	to
sw4927B-ms98-a-0046	B.96	285.826750	286.118375		that	that
sw4927B-ms98-a-0046	B.98	286.118375	286.622125		[silence]	[silence]
sw4927B-ms98-a-0047	B.98	286.622125	289.922375		[silence]	[silence]
sw4927B-ms98-a-0048	B.98	289.922375	290.461000		[silence]	[silence]
sw4927B-ms98-a-0048	B.98	290.461000	290.710625		Uh-huh	uh-huh
sw4927B-ms98-a-0048	B.100	290.710625	291.262750		[silence]	[silence]
sw4927B-ms98-a-0049	B.100	291.262750	293.731250		[silence]	[silence]
sw4927B-ms98-a-0050	B.100	293.731250	294.272000		[silence]	[silence]
sw4927B-ms98-a-0050	B.100	294.272000	294.441250		Oh	oh
sw4927B-ms98-a-0050	B.100	294.441250	294.796625		yeah	yeah
sw4927B-ms98-a-0050	B.100	294.796625	295.083875		[silence]	[silence]
sw4927B-ms98-a-0050	B.100	295.083875	295.181250		Oh	oh
sw4927B-ms98-a-0050	B.100	295.181250	295.411250		that's	that's
sw4927B-ms98-a-0050	B.100	295.411250	295.571250		their	their
sw4927B-ms98-a-0050	B.100	295.571250	296.041250		project	project
sw4927B-ms98-a-0050	B.100	296.041250	296.231250		too	too
sw4927B-ms98-a-0050	B.100	296.231250	296.451250		isn't	isn't
sw4927B-ms98-a-0050	B.100	296.451250	296.511250		it	it
sw4927B-ms98-a-0050	B.100	296.511250	296.601250		I	i
sw4927B-ms98-a-0050	B.100	296.601250	296.821250		found	found
sw4927B-ms98-a-0050	B.100	296.821250	297.011250		about	about
sw4927B-ms98-a-0050	B.100	297.011250	297.091250		it	it
sw4927B-ms98-a-0050	B.100	297.091250	297.171250		on	on
sw4927B-ms98-a-0050	B.100	297.171250	297.261250		the	the
sw4927B-ms98-a-0050	B.100	297.261250	297.689875		network	network
sw4927B-ms98-a-0050	B.100	297.689875	297.858000		[silence]	[silence]
