sw4905A-ms98-a-0001	A.1	0.000000	0.000000		[silence]	[silence]
sw4905A-ms98-a-0001	A.1	0.000000	0.017625		[noise]	[noise]
sw4905A-ms98-a-0001	A.1	0.017625	0.619750		Okay	okay
sw4905A-ms98-a-0001	A.1	0.619750	0.938500		[noise]	[noise]
sw4905A-ms98-a-0001	A.1	0.938500	1.850000		Uh	uh
sw4905A-ms98-a-0001	A.1	1.850000	2.225375		I	i
sw4905A-ms98-a-0001	A.1	2.225375	2.410000		just	just
sw4905A-ms98-a-0001	A.1	2.410000	2.984625		currently	currently
sw4905A-ms98-a-0001	A.1	2.984625	3.441875		[silence]	[silence]
sw4905A-ms98-a-0002	A.1	3.441875	3.826625		[silence]	[silence]
sw4905A-ms98-a-0002	A.1	3.826625	4.071875		quit	quit
sw4905A-ms98-a-0002	A.1	4.071875	4.181875		my	my
sw4905A-ms98-a-0002	A.1	4.181875	4.756000		job	job
sw4905A-ms98-a-0002	A.1	4.756000	4.922000		[silence]	[silence]
sw4905A-ms98-a-0002	A.1	4.922000	5.167000		and	and
sw4905A-ms98-a-0002	A.1	5.167000	5.607750		so	so
sw4905A-ms98-a-0002	A.1	5.607750	5.781250		[silence]	[silence]
sw4905A-ms98-a-0003	A.1	5.781250	5.902625		[silence]	[silence]
sw4905A-ms98-a-0003	A.1	5.902625	6.192375		[laughter]	[laughter]
sw4905A-ms98-a-0003	A.1	6.192375	6.820750		[silence]	[silence]
sw4905A-ms98-a-0004	A.1	6.820750	7.074375		[silence]	[silence]
sw4905A-ms98-a-0004	A.1	7.074375	7.181750		I	i
sw4905A-ms98-a-0004	A.1	7.181750	7.350750		really	really
sw4905A-ms98-a-0004	A.1	7.350750	7.510750		don't	don't
sw4905A-ms98-a-0004	A.1	7.510750	7.680750		receive	receive
sw4905A-ms98-a-0004	A.1	7.680750	7.970750		any	any
sw4905A-ms98-a-0004	A.1	7.970750	8.420750		benefits	benefits
sw4905A-ms98-a-0004	A.1	8.420750	8.573125		right	right
sw4905A-ms98-a-0004	A.1	8.573125	8.869500		now	now
sw4905A-ms98-a-0004	A.3	8.869500	9.419875		[laughter]	[laughter]
sw4905A-ms98-a-0004	A.3	9.419875	9.541750		[silence]	[silence]
sw4905A-ms98-a-0005	A.3	9.541750	9.662500		[silence]	[silence]
sw4905A-ms98-a-0005	A.3	9.662500	9.947375		[laughter]	[laughter]
sw4905A-ms98-a-0005	A.3	9.947375	10.499000		[silence]	[silence]
sw4905A-ms98-a-0006	A.3	10.499000	10.729375		[silence]	[silence]
sw4905A-ms98-a-0006	A.3	10.729375	10.969875		But	but
sw4905A-ms98-a-0006	A.3	10.969875	11.069000		my	my
sw4905A-ms98-a-0006	A.3	11.069000	11.539000		husband	husband
sw4905A-ms98-a-0006	A.3	11.539000	11.971875		does	does
sw4905A-ms98-a-0006	A.3	11.971875	12.175250		[silence]	[silence]
sw4905A-ms98-a-0006	A.3	12.175250	12.691625		and	and
sw4905A-ms98-a-0006	A.3	12.691625	13.111250	<SUB>	uh	um
sw4905A-ms98-a-0006	A.3	13.111250	13.374250		[silence]	[silence]
sw4905A-ms98-a-0007	A.3	13.374250	13.911875		[silence]	[silence]
sw4905A-ms98-a-0007	A.3	13.911875	14.065125		I	i
sw4905A-ms98-a-0007	A.3	14.065125	14.234250		think	think
sw4905A-ms98-a-0007	A.3	14.234250	14.384250		one	one
sw4905A-ms98-a-0007	A.3	14.384250	14.504250		of	of
sw4905A-ms98-a-0007	A.3	14.504250	14.854250		the	the
sw4905A-ms98-a-0007	A.3	14.854250	15.213000	<SUB>	uh	um
sw4905A-ms98-a-0007	A.3	15.213000	15.879750		[silence]	[silence]
sw4905A-ms98-a-0007	A.3	15.879750	16.045250		my	my
sw4905A-ms98-a-0007	A.3	16.045250	16.280750		first	first
sw4905A-ms98-a-0007	A.3	16.280750	16.382500		of	of
sw4905A-ms98-a-0007	A.3	16.382500	16.605125		all	all
sw4905A-ms98-a-0007	A.3	16.605125	16.763375		[silence]	[silence]
sw4905A-ms98-a-0007	A.3	16.763375	17.054250		always	always
sw4905A-ms98-a-0007	A.3	17.054250	17.494250		salary	salary
sw4905A-ms98-a-0007	A.3	17.494250	17.604250		and	and
sw4905A-ms98-a-0007	A.3	17.604250	18.054250	<SUB>	se-	second
sw4905A-ms98-a-0007	A.3	18.054250	18.114250		the	the
sw4905A-ms98-a-0007	A.3	18.114250	18.534250		second	second
sw4905A-ms98-a-0007	A.3	18.534250	18.858500		thing	thing
sw4905A-ms98-a-0007	A.3	18.858500	19.510125		[silence]	[silence]
sw4905A-ms98-a-0007	A.3	19.510125	20.075000		is	is
sw4905A-ms98-a-0007	A.3	20.075000	20.534375	<SUB>	uh	um
sw4905A-ms98-a-0007	A.3	20.534375	20.822000		[silence]	[silence]
sw4905A-ms98-a-0007	A.3	20.822000	21.051750		because	because
sw4905A-ms98-a-0007	A.3	21.051750	21.114250		we	we
sw4905A-ms98-a-0007	A.3	21.114250	21.284250		have	have
sw4905A-ms98-a-0007	A.3	21.284250	21.754250		children	children
sw4905A-ms98-a-0007	A.3	21.754250	21.924250		so	so
sw4905A-ms98-a-0007	A.3	21.924250	22.085000	<CONT>	it	it'd
sw4905A-ms98-a-0007	A.3	22.085000	22.085000	<CONT>	would	+++
sw4905A-ms98-a-0007	A.3	22.085000	22.446250		be	be
sw4905A-ms98-a-0007	A.3	22.446250	22.856875	<SUB>	uh	um
sw4905A-ms98-a-0007	A.3	22.856875	23.133750		[silence]	[silence]
sw4905A-ms98-a-0008	A.3	23.133750	23.426375		[silence]	[silence]
sw4905A-ms98-a-0008	A.3	23.426375	23.702625		health	health
sw4905A-ms98-a-0008	A.3	23.702625	23.927000		[silence]	[silence]
sw4905A-ms98-a-0008	A.3	23.927000	24.433750		benefits	benefits
sw4905A-ms98-a-0008	A.3	24.433750	24.543750		and	and
sw4905A-ms98-a-0008	A.3	24.543750	24.893750		medical	medical
sw4905A-ms98-a-0008	A.3	24.893750	25.643750		benefits	benefits
sw4905A-ms98-a-0008	A.3	25.643750	26.205625		and	and
sw4905A-ms98-a-0008	A.5	26.205625	26.874250		[silence]	[silence]
sw4905A-ms98-a-0008	A.5	26.874250	27.242500		and	and
sw4905A-ms98-a-0008	A.5	27.242500	27.543750	<SUB>	uh	um
sw4905A-ms98-a-0008	A.5	27.543750	27.777375		[silence]	[silence]
sw4905A-ms98-a-0008	A.5	27.777375	27.953750		right	right
sw4905A-ms98-a-0008	A.5	27.953750	28.113750		now	now
sw4905A-ms98-a-0008	A.5	28.113750	28.253750		we	we
sw4905A-ms98-a-0008	A.5	28.253750	28.557000		have	have
sw4905A-ms98-a-0008	A.5	28.557000	29.129125		[silence]	[silence]
sw4905A-ms98-a-0009	A.5	29.129125	29.766625		[silence]	[silence]
sw4905A-ms98-a-0009	A.5	29.766625	30.282125		probably	probably
sw4905A-ms98-a-0009	A.5	30.282125	30.430500		[silence]	[silence]
sw4905A-ms98-a-0009	A.5	30.430500	30.577375		some	some
sw4905A-ms98-a-0009	A.5	30.577375	31.049125		excellent	excellent
sw4905A-ms98-a-0009	A.5	31.049125	31.519125		benefits	benefits
sw4905A-ms98-a-0009	A.5	31.519125	31.669125		right	right
sw4905A-ms98-a-0009	A.5	31.669125	32.039125		now	now
sw4905A-ms98-a-0009	A.5	32.039125	32.683125		[silence]	[silence]
sw4905A-ms98-a-0009	A.5	32.683125	32.800625		We	we
sw4905A-ms98-a-0009	A.5	32.800625	32.946500		have	have
sw4905A-ms98-a-0009	A.5	32.946500	33.161250		with	with
sw4905A-ms98-a-0009	A.5	33.161250	33.694000		Aetna	Aetna
sw4905A-ms98-a-0009	A.5	33.694000	34.029250		[silence]	[silence]
sw4905A-ms98-a-0009	A.5	34.029250	34.286875		and	and
sw4905A-ms98-a-0009	A.5	34.286875	34.509875		uh	uh
sw4905A-ms98-a-0009	A.5	34.509875	34.702000		[silence]	[silence]
sw4905A-ms98-a-0009	A.5	34.702000	34.786750		I	i
sw4905A-ms98-a-0009	A.5	34.786750	34.866875		don't	don't
sw4905A-ms98-a-0009	A.5	34.866875	34.938375		know	know
sw4905A-ms98-a-0009	A.5	34.938375	34.969125		if	if
sw4905A-ms98-a-0009	A.5	34.969125	35.069125		you're	you're
sw4905A-ms98-a-0009	A.5	35.069125	35.409125		familiar	familiar
sw4905A-ms98-a-0009	A.5	35.409125	35.549125		with	with
sw4905A-ms98-a-0009	A.5	35.549125	35.769125		them	them
sw4905A-ms98-a-0009	A.5	35.769125	35.961250		but	but
sw4905A-ms98-a-0009	A.5	35.961250	36.413250		[silence]	[silence]
sw4905A-ms98-a-0009	A.5	36.413250	36.549125		we're	we're
sw4905A-ms98-a-0009	A.5	36.549125	36.709125		real	real
sw4905A-ms98-a-0009	A.5	36.709125	37.059125		happy	happy
sw4905A-ms98-a-0009	A.5	37.059125	37.249125		with	with
sw4905A-ms98-a-0009	A.5	37.249125	37.502000		them	them
sw4905A-ms98-a-0009	A.7	37.502000	37.859375		[silence]	[silence]
sw4905A-ms98-a-0010	A.7	37.859375	74.817375		[silence]	[silence]
sw4905A-ms98-a-0011	A.7	74.817375	75.322875		[silence]	[silence]
sw4905A-ms98-a-0011	A.7	75.322875	75.770625	<SUB>	Uh-huh	um-hum
sw4905A-ms98-a-0011	A.9	75.770625	76.152875		[silence]	[silence]
sw4905A-ms98-a-0012	A.9	76.152875	79.653875		[silence]	[silence]
sw4905A-ms98-a-0013	A.9	79.653875	80.160500		[silence]	[silence]
sw4905A-ms98-a-0013	A.9	80.160500	80.474375		Yeah	yeah
sw4905A-ms98-a-0013	A.11	80.474375	80.966250		[silence]	[silence]
sw4905A-ms98-a-0014	A.11	80.966250	92.314750		[silence]	[silence]
sw4905A-ms98-a-0015	A.11	92.314750	92.830125		[silence]	[silence]
sw4905A-ms98-a-0015	A.11	92.830125	93.251875	<SUB>	Uh-huh	um-hum
sw4905A-ms98-a-0015	A.13	93.251875	93.697000		[silence]	[silence]
sw4905A-ms98-a-0016	A.13	93.697000	96.498250		[silence]	[silence]
sw4905A-ms98-a-0017	A.13	96.498250	97.001375		[silence]	[silence]
sw4905A-ms98-a-0017	A.13	97.001375	97.579125		Yeah	yeah
sw4905A-ms98-a-0017	A.13	97.579125	97.872875		[silence]	[silence]
sw4905A-ms98-a-0017	A.13	97.872875	98.264125		Yeah	yeah
sw4905A-ms98-a-0017	A.17	98.264125	98.743250		[silence]	[silence]
sw4905A-ms98-a-0018	A.17	98.743250	103.833875		[silence]	[silence]
sw4905A-ms98-a-0019	A.17	103.833875	104.305250		[silence]	[silence]
sw4905A-ms98-a-0019	A.17	104.305250	104.681250		Yeah	yeah
sw4905A-ms98-a-0019	A.19	104.681250	105.249125		[silence]	[silence]
sw4905A-ms98-a-0020	A.19	105.249125	105.854750		[silence]	[silence]
sw4905A-ms98-a-0020	A.19	105.854750	106.336250	<SUB>	Huh	hm
sw4905A-ms98-a-0020	A.21	106.336250	106.627375		[silence]	[silence]
sw4905A-ms98-a-0021	A.21	106.627375	109.132625		[silence]	[silence]
sw4905A-ms98-a-0022	A.21	109.132625	109.633625		[silence]	[silence]
sw4905A-ms98-a-0022	A.21	109.633625	110.131375	<DEL>	---	right
sw4905A-ms98-a-0022	A.21	110.131375	110.627250		[silence]	[silence]
sw4905A-ms98-a-0023	A.21	110.627250	111.239250		[silence]	[silence]
sw4905A-ms98-a-0023	A.21	111.239250	111.538000		Right	right
sw4905A-ms98-a-0023	A.23	111.538000	111.916875		[silence]	[silence]
sw4905A-ms98-a-0024	A.23	111.916875	115.556875		[silence]	[silence]
sw4905A-ms98-a-0025	A.23	115.556875	116.059250		[silence]	[silence]
sw4905A-ms98-a-0025	A.23	116.059250	116.472500		Yeah	yeah
sw4905A-ms98-a-0025	A.25	116.472500	116.918000		[silence]	[silence]
sw4905A-ms98-a-0026	A.25	116.918000	119.881500		[silence]	[silence]
sw4905A-ms98-a-0027	A.25	119.881500	120.406875		[silence]	[silence]
sw4905A-ms98-a-0027	A.25	120.406875	120.787750	<SUB>	Uh-huh	um-hum
sw4905A-ms98-a-0027	A.27	120.787750	121.276250		[silence]	[silence]
sw4905A-ms98-a-0028	A.27	121.276250	129.499625		[silence]	[silence]
sw4905A-ms98-a-0029	A.27	129.499625	129.984625		[silence]	[silence]
sw4905A-ms98-a-0029	A.27	129.984625	130.652875		Yeah	yeah
sw4905A-ms98-a-0029	A.29	130.652875	131.120000		[silence]	[silence]
sw4905A-ms98-a-0030	A.29	131.120000	132.212875		[silence]	[silence]
sw4905A-ms98-a-0031	A.29	132.212875	132.683625		[silence]	[silence]
sw4905A-ms98-a-0031	A.29	132.683625	133.111875		Yeah	yeah
sw4905A-ms98-a-0031	A.31	133.111875	133.573125		[silence]	[silence]
sw4905A-ms98-a-0032	A.31	133.573125	134.954125		[silence]	[silence]
sw4905A-ms98-a-0033	A.31	134.954125	135.420125		[silence]	[silence]
sw4905A-ms98-a-0033	A.31	135.420125	135.755875		Right	right
sw4905A-ms98-a-0033	A.31	135.755875	136.277250		[silence]	[silence]
sw4905A-ms98-a-0034	A.31	136.277250	136.409375		[silence]	[silence]
sw4905A-ms98-a-0034	A.31	136.409375	136.735000	<SUB>	Uh	um
sw4905A-ms98-a-0034	A.31	136.735000	136.985875		and	and
sw4905A-ms98-a-0034	A.31	136.985875	137.218875		and	and
sw4905A-ms98-a-0034	A.31	137.218875	137.237250		and	and
sw4905A-ms98-a-0034	A.31	137.237250	137.537250		another	another
sw4905A-ms98-a-0034	A.31	137.537250	137.687250		good	good
sw4905A-ms98-a-0034	A.31	137.687250	137.987250		thing	thing
sw4905A-ms98-a-0034	A.31	137.987250	138.257250		is	is
sw4905A-ms98-a-0034	A.31	138.257250	138.467250		with	with
sw4905A-ms98-a-0034	A.31	138.467250	138.537250		the	the
sw4905A-ms98-a-0034	A.31	138.537250	138.767250		health	health
sw4905A-ms98-a-0034	A.31	138.767250	139.447250		benefits	benefits
sw4905A-ms98-a-0034	A.31	139.447250	139.577250		when	when
sw4905A-ms98-a-0034	A.31	139.577250	139.757250		they	they
sw4905A-ms98-a-0034	A.31	139.757250	140.037250		give	give
sw4905A-ms98-a-0034	A.31	140.037250	140.536875		you	you
sw4905A-ms98-a-0034	A.31	140.536875	141.075500		[silence]	[silence]
sw4905A-ms98-a-0034	A.31	141.075500	141.347250		more	more
sw4905A-ms98-a-0034	A.31	141.347250	141.717250		than	than
sw4905A-ms98-a-0034	A.31	141.717250	141.972125		two	two
sw4905A-ms98-a-0034	A.31	141.972125	142.541625		choices	choices
sw4905A-ms98-a-0034	A.31	142.541625	142.854250		[laughter]	[laughter]
sw4905A-ms98-a-0034	A.31	142.854250	143.145250		[silence]	[silence]
sw4905A-ms98-a-0035	A.31	143.145250	143.280750		[silence]	[silence]
sw4905A-ms98-a-0035	A.31	143.280750	143.411750	<SUB>	on	and
sw4905A-ms98-a-0035	A.31	143.411750	143.505250		who	who
sw4905A-ms98-a-0035	A.31	143.505250	143.605250		to	to
sw4905A-ms98-a-0035	A.31	143.605250	143.825250		go	go
sw4905A-ms98-a-0035	A.31	143.825250	144.052250		with	with
sw4905A-ms98-a-0035	A.33	144.052250	144.443500		[silence]	[silence]
sw4905A-ms98-a-0036	A.33	144.443500	144.782375		[silence]	[silence]
sw4905A-ms98-a-0036	A.33	144.782375	144.946125		And	and
sw4905A-ms98-a-0036	A.33	144.946125	145.153500		that	that
sw4905A-ms98-a-0036	A.33	145.153500	145.383500		really	really
sw4905A-ms98-a-0036	A.33	145.383500	145.673500		helped	helped
sw4905A-ms98-a-0036	A.33	145.673500	145.853500		us	us
sw4905A-ms98-a-0036	A.33	145.853500	145.987625		out	out
sw4905A-ms98-a-0036	A.33	145.987625	146.051625		a	a
sw4905A-ms98-a-0036	A.33	146.051625	146.393500		great	great
sw4905A-ms98-a-0036	A.33	146.393500	146.775500		deal	deal
sw4905A-ms98-a-0036	A.33	146.775500	147.277500		[silence]	[silence]
sw4905A-ms98-a-0037	A.33	147.277500	147.672875		[silence]	[silence]
sw4905A-ms98-a-0037	A.33	147.672875	148.161875		So	so
sw4905A-ms98-a-0037	A.33	148.161875	148.715625		[silence]	[silence]
sw4905A-ms98-a-0038	A.33	148.715625	149.313000		[silence]	[silence]
sw4905A-ms98-a-0038	A.33	149.313000	149.472625		But	but
sw4905A-ms98-a-0038	A.33	149.472625	149.595625		my	my
sw4905A-ms98-a-0038	A.33	149.595625	149.905625		husband	husband
sw4905A-ms98-a-0038	A.33	149.905625	150.085625		does	does
sw4905A-ms98-a-0038	A.33	150.085625	150.235625		get	get
sw4905A-ms98-a-0038	A.33	150.235625	150.875625		vacation	vacation
sw4905A-ms98-a-0038	A.33	150.875625	151.094375		and	and
sw4905A-ms98-a-0038	A.33	151.094375	151.546375		[silence]	[silence]
sw4905A-ms98-a-0038	A.33	151.546375	151.757875		it's	it's
sw4905A-ms98-a-0038	A.33	151.757875	151.935625		worked	worked
sw4905A-ms98-a-0038	A.33	151.935625	152.015625		out	out
sw4905A-ms98-a-0038	A.33	152.015625	152.195625		really	really
sw4905A-ms98-a-0038	A.33	152.195625	152.345625		good	good
sw4905A-ms98-a-0038	A.33	152.345625	152.555625		for	for
sw4905A-ms98-a-0038	A.33	152.555625	152.925625		us	us
sw4905A-ms98-a-0038	A.33	152.925625	153.452250		too	too
sw4905A-ms98-a-0038	A.35	153.452250	153.698250		[silence]	[silence]
sw4905A-ms98-a-0039	A.35	153.698250	154.181875		[silence]	[silence]
sw4905A-ms98-a-0039	A.35	154.181875	154.475750		So	so
sw4905A-ms98-a-0039	A.35	154.475750	156.783000		[noise]	[noise]
sw4905A-ms98-a-0039	A.35	156.783000	156.977750		But	but
sw4905A-ms98-a-0039	A.37	156.977750	157.442250		[silence]	[silence]
sw4905A-ms98-a-0040	A.37	157.442250	159.708000		[silence]	[silence]
sw4905A-ms98-a-0041	A.37	159.708000	160.306375		[silence]	[silence]
sw4905A-ms98-a-0041	A.37	160.306375	160.928500		Yeah	yeah
sw4905A-ms98-a-0041	A.39	160.928500	161.288750		[silence]	[silence]
sw4905A-ms98-a-0042	A.39	161.288750	163.250125		[silence]	[silence]
sw4905A-ms98-a-0043	A.39	163.250125	163.757625		[silence]	[silence]
sw4905A-ms98-a-0043	A.39	163.757625	164.160375	<SUB>	Uh-huh	um-hum
sw4905A-ms98-a-0043	A.41	164.160375	164.639125		[silence]	[silence]
sw4905A-ms98-a-0044	A.41	164.639125	167.495750		[silence]	[silence]
sw4905A-ms98-a-0045	A.41	167.495750	167.967750		[silence]	[silence]
sw4905A-ms98-a-0045	A.41	167.967750	168.344250		Uh-huh	uh-huh
sw4905A-ms98-a-0045	A.43	168.344250	168.828750		[silence]	[silence]
sw4905A-ms98-a-0046	A.43	168.828750	180.676125		[silence]	[silence]
sw4905A-ms98-a-0047	A.43	180.676125	181.077375		[silence]	[silence]
sw4905A-ms98-a-0047	A.43	181.077375	181.179750		Well	well
sw4905A-ms98-a-0047	A.43	181.179750	181.406125		that's	that's
sw4905A-ms98-a-0047	A.43	181.406125	181.626125		great	great
sw4905A-ms98-a-0047	A.43	181.626125	181.726125		that	that
sw4905A-ms98-a-0047	A.43	181.726125	181.856125	<CONT>	you	y'all
sw4905A-ms98-a-0047	A.43	181.856125	181.856125	<CONT>	all	+++
sw4905A-ms98-a-0047	A.43	181.856125	181.986125		can	can
sw4905A-ms98-a-0047	A.43	181.986125	182.129625		work	work
sw4905A-ms98-a-0047	A.43	182.129625	182.287875		that	that
sw4905A-ms98-a-0047	A.43	182.287875	182.586125		out	out
sw4905A-ms98-a-0047	A.43	182.586125	182.816125		That's	that's
sw4905A-ms98-a-0047	A.43	182.816125	183.134875		really	really
sw4905A-ms98-a-0047	A.43	183.134875	183.435375		good	good
sw4905A-ms98-a-0047	A.45	183.435375	183.881125		[silence]	[silence]
sw4905A-ms98-a-0048	A.45	183.881125	185.854625		[silence]	[silence]
sw4905A-ms98-a-0049	A.45	185.854625	186.377250		[silence]	[silence]
sw4905A-ms98-a-0049	A.45	186.377250	186.888375		Right	right
sw4905A-ms98-a-0049	A.47	186.888375	187.379375		[silence]	[silence]
sw4905A-ms98-a-0050	A.47	187.379375	189.413125		[silence]	[silence]
sw4905A-ms98-a-0051	A.47	189.413125	189.911500		[silence]	[silence]
sw4905A-ms98-a-0051	A.47	189.911500	190.464625	<SUB>	Uh-huh	um-hum
sw4905A-ms98-a-0051	A.49	190.464625	190.899875		[silence]	[silence]
sw4905A-ms98-a-0052	A.49	190.899875	200.269500		[silence]	[silence]
sw4905A-ms98-a-0053	A.49	200.269500	201.121500		[silence]	[silence]
sw4905A-ms98-a-0053	A.49	201.121500	201.472750	<DEL>	---	yeah
sw4905A-ms98-a-0053	A.49	201.472750	202.354375		[silence]	[silence]
sw4905A-ms98-a-0054	A.49	202.354375	203.979125		[silence]	[silence]
sw4905A-ms98-a-0055	A.49	203.979125	204.592500		[silence]	[silence]
sw4905A-ms98-a-0055	A.49	204.592500	204.931125	<DEL>	---	yeah
sw4905A-ms98-a-0055	A.49	204.931125	204.931125	<INS>	Yeah	---
sw4905A-ms98-a-0055	A.51	204.931125	206.094125		[silence]	[silence]
sw4905A-ms98-a-0056	A.51	206.094125	206.991250		[silence]	[silence]
sw4905A-ms98-a-0056	A.51	206.991250	207.510625		[laughter]	[laughter]
sw4905A-ms98-a-0056	A.51	207.510625	208.183500		[silence]	[silence]
sw4905A-ms98-a-0057	A.51	208.183500	208.302625		[silence]	[silence]
sw4905A-ms98-a-0057	A.51	208.302625	208.673500		Yeah	yeah
sw4905A-ms98-a-0057	A.51	208.673500	208.813500		It's	it's
sw4905A-ms98-a-0057	A.51	208.813500	208.923500	<SUB>	the	that
sw4905A-ms98-a-0057	A.51	208.923500	209.113500		same	same
sw4905A-ms98-a-0057	A.51	209.113500	209.233500		with	with
sw4905A-ms98-a-0057	A.51	209.233500	209.353500		my	my
sw4905A-ms98-a-0057	A.51	209.353500	209.753500		husband	husband
sw4905A-ms98-a-0057	A.51	209.753500	209.913500		cause	because_1
sw4905A-ms98-a-0057	A.51	209.913500	210.093500		he's	he's
sw4905A-ms98-a-0057	A.51	210.093500	210.293500		got	got
sw4905A-ms98-a-0057	A.51	210.293500	210.483500		pretty	pretty
sw4905A-ms98-a-0057	A.51	210.483500	210.943500		flexible	flexible
sw4905A-ms98-a-0057	A.51	210.943500	211.483500		hours	hours
sw4905A-ms98-a-0057	A.51	211.483500	211.872250		if	if
sw4905A-ms98-a-0057	A.51	211.872250	212.173750		[silence]	[silence]
sw4905A-ms98-a-0058	A.51	212.173750	212.590250		[silence]	[silence]
sw4905A-ms98-a-0058	A.51	212.590250	212.675250		as	as
sw4905A-ms98-a-0058	A.51	212.675250	212.873750		long	long
sw4905A-ms98-a-0058	A.51	212.873750	212.963750		as	as
sw4905A-ms98-a-0058	A.51	212.963750	213.073750		he	he
sw4905A-ms98-a-0058	A.51	213.073750	213.413750		puts	puts
sw4905A-ms98-a-0058	A.51	213.413750	213.873750		in	in
sw4905A-ms98-a-0058	A.51	213.873750	214.058375		[silence]	[silence]
sw4905A-ms98-a-0058	A.51	214.058375	214.192250		the	the
sw4905A-ms98-a-0058	A.51	214.192250	214.463750		hours	hours
sw4905A-ms98-a-0058	A.51	214.463750	214.593750		he	he
sw4905A-ms98-a-0058	A.51	214.593750	214.763750		needs	needs
sw4905A-ms98-a-0058	A.51	214.763750	214.893750		to	to
sw4905A-ms98-a-0058	A.51	214.893750	215.183750		do	do
sw4905A-ms98-a-0058	A.53	215.183750	215.393750	<DEL>	---	with
sw4905A-ms98-a-0058	A.53	215.393750	215.722375	<DEL>	---	that's
sw4905A-ms98-a-0058	A.53	215.722375	216.179125		[silence]	[silence]
sw4905A-ms98-a-0059	A.53	216.179125	216.699375		[silence]	[silence]
sw4905A-ms98-a-0059	A.53	216.699375	216.855500		Worked	worked
sw4905A-ms98-a-0059	A.53	216.855500	217.029125		out	out
sw4905A-ms98-a-0059	A.53	217.029125	217.229125		really	really
sw4905A-ms98-a-0059	A.53	217.229125	217.429125		well	well
sw4905A-ms98-a-0059	A.53	217.429125	217.642125		for	for
sw4905A-ms98-a-0059	A.53	217.642125	217.929125		us	us
sw4905A-ms98-a-0059	A.53	217.929125	218.340500		too	too
sw4905A-ms98-a-0059	A.55	218.340500	218.556000		[silence]	[silence]
sw4905A-ms98-a-0060	A.55	218.556000	219.561500		[silence]	[silence]
sw4905A-ms98-a-0061	A.55	219.561500	219.893875		[silence]	[silence]
sw4905A-ms98-a-0061	A.55	219.893875	220.155875	<SUB>	Uh	um
sw4905A-ms98-a-0061	A.55	220.155875	220.849625		[silence]	[silence]
sw4905A-ms98-a-0062	A.55	220.849625	221.638250		[silence]	[silence]
sw4905A-ms98-a-0062	A.55	221.638250	221.726625		Well	well
sw4905A-ms98-a-0062	A.55	221.726625	221.809625		is	is
sw4905A-ms98-a-0062	A.55	221.809625	221.899625		there	there
sw4905A-ms98-a-0062	A.55	221.899625	222.219625		anything	anything
sw4905A-ms98-a-0062	A.55	222.219625	222.619625		else	else
sw4905A-ms98-a-0062	A.55	222.619625	222.749625		that	that
sw4905A-ms98-a-0062	A.55	222.749625	222.829625		you	you
sw4905A-ms98-a-0062	A.55	222.829625	222.999625		look	look
sw4905A-ms98-a-0062	A.55	222.999625	223.423375		for	for
sw4905A-ms98-a-0062	A.55	223.423375	223.662375		or	or
sw4905A-ms98-a-0062	A.57	223.662375	224.271750		[silence]	[silence]
sw4905A-ms98-a-0063	A.57	224.271750	224.851125		[silence]	[silence]
sw4905A-ms98-a-0063	A.57	224.851125	225.058375	<SUB>	You've	you
sw4905A-ms98-a-0063	A.57	225.058375	225.261750		hit	hit
sw4905A-ms98-a-0063	A.57	225.261750	225.552000		pretty	pretty
sw4905A-ms98-a-0063	A.57	225.552000	225.729000		[silence]	[silence]
sw4905A-ms98-a-0063	A.57	225.729000	225.941750	<SUB>	you've	you
sw4905A-ms98-a-0063	A.57	225.941750	226.051750		put	put
sw4905A-ms98-a-0063	A.57	226.051750	226.112125		a	a
sw4905A-ms98-a-0063	A.57	226.112125	226.240250		lot	lot
sw4905A-ms98-a-0063	A.57	226.240250	226.381750		of	of
sw4905A-ms98-a-0063	A.57	226.381750	226.441750		the	the
sw4905A-ms98-a-0063	A.57	226.441750	226.631750		main	main
sw4905A-ms98-a-0063	A.57	226.631750	226.991750		points	points
sw4905A-ms98-a-0063	A.57	226.991750	227.250375		in	in
sw4905A-ms98-a-0063	A.59	227.250375	227.756250		[silence]	[silence]
sw4905A-ms98-a-0064	A.59	227.756250	235.423875		[silence]	[silence]
sw4905A-ms98-a-0065	A.59	235.423875	235.832375		[silence]	[silence]
sw4905A-ms98-a-0065	A.59	235.832375	236.458250	<SUB>	Uh-huh	um-hum
sw4905A-ms98-a-0065	A.61	236.458250	236.962375		[silence]	[silence]
sw4905A-ms98-a-0066	A.61	236.962375	249.410625		[silence]	[silence]
sw4905A-ms98-a-0067	A.61	249.410625	249.925000		[silence]	[silence]
sw4905A-ms98-a-0067	A.61	249.925000	250.378250		Yeah	yeah
sw4905A-ms98-a-0067	A.63	250.378250	250.762625		[silence]	[silence]
sw4905A-ms98-a-0068	A.63	250.762625	257.150625		[silence]	[silence]
sw4905A-ms98-a-0069	A.63	257.150625	257.667625		[silence]	[silence]
sw4905A-ms98-a-0069	A.63	257.667625	258.029375		Yeah	yeah
sw4905A-ms98-a-0069	A.65	258.029375	258.502875		[silence]	[silence]
sw4905A-ms98-a-0070	A.65	258.502875	279.193000		[silence]	[silence]
sw4905A-ms98-a-0071	A.65	279.193000	279.699250		[silence]	[silence]
sw4905A-ms98-a-0071	A.65	279.699250	280.339250	<SUB>	Uh-huh	um-hum
sw4905A-ms98-a-0071	A.67	280.339250	280.729250		[silence]	[silence]
sw4905A-ms98-a-0072	A.67	280.729250	282.672125		[silence]	[silence]
sw4905A-ms98-a-0073	A.67	282.672125	283.183625		[silence]	[silence]
sw4905A-ms98-a-0073	A.67	283.183625	283.596000	<SUB>	Uh-huh	um-hum
sw4905A-ms98-a-0073	A.69	283.596000	284.094000		[silence]	[silence]
sw4905A-ms98-a-0074	A.69	284.094000	292.836500		[silence]	[silence]
sw4905A-ms98-a-0075	A.69	292.836500	293.334250		[silence]	[silence]
sw4905A-ms98-a-0075	A.69	293.334250	293.732750	<DEL>	---	yeah
sw4905A-ms98-a-0075	A.69	293.732750	294.220250		[silence]	[silence]
sw4905A-ms98-a-0076	A.69	294.220250	294.736125		[silence]	[silence]
sw4905A-ms98-a-0076	A.69	294.736125	295.078250		Yeah	yeah
sw4905A-ms98-a-0076	A.69	295.078250	295.685125		[silence]	[silence]
sw4905A-ms98-a-0077	A.69	295.685125	296.297500		[silence]	[silence]
sw4905A-ms98-a-0077	A.69	296.297500	296.469500		And	and
sw4905A-ms98-a-0077	A.69	296.469500	296.685125		that	that
sw4905A-ms98-a-0077	A.69	296.685125	296.982250		does	does
sw4905A-ms98-a-0077	A.69	296.982250	297.339000		make	make
sw4905A-ms98-a-0077	A.69	297.339000	297.339000	<INS>	a	---
sw4905A-ms98-a-0077	A.69	297.339000	297.615125		wan-	wan[t]-
sw4905A-ms98-a-0077	A.69	297.615125	297.655125		a	a
sw4905A-ms98-a-0077	A.69	297.655125	298.045125		person	person
sw4905A-ms98-a-0077	A.69	298.045125	298.200500		want	want
sw4905A-ms98-a-0077	A.69	298.200500	298.345125		to	to
sw4905A-ms98-a-0077	A.69	298.345125	298.545000		stay	stay
sw4905A-ms98-a-0077	A.69	298.545000	298.562000		[silence]	[silence]
