swda_filename,ptb_basename,conversation_no,transcript_index,act_tag,caller,utterance_index,subutterance_index,text,pos,trees,ptb_treenumbers
sw04utt/sw_0417_3237.utt,3/sw3237,3237,0,o,A,1,1,"Okay,  /","[ Okay/UH ] ,/,","(INTJ (UH Okay) (, ,) (-DFL- E_S))",1
sw04utt/sw_0417_3237.utt,3/sw3237,3237,1,qy^d,A,1,2,{C so } you said that you live in Coppell. /,so/UH [ you/PRP ] said/VBD that/IN  [ you/PRP ] live/VBP in/IN  [ Coppell/NNP ] ./.,(S (RB so) (NP-SBJ (PRP you)) (VP (VBD said) (SBAR (IN that) (S (NP-SBJ (PRP you)) (VP (VBP live) (PP-LOC (IN in) (NP (NNP Coppell))))))) (. .) (-DFL- E_S)),2
sw04utt/sw_0417_3237.utt,3/sw3237,3237,2,ny,B,2,1,Uh-huh. /,[ Uh-huh/UH ] ./.,(INTJ (UH Uh-huh) (. .) (-DFL- E_S)),4
sw04utt/sw_0417_3237.utt,3/sw3237,3237,3,qw,A,3,1,{C So } what is your house like? /,So/UH  [ what/WP ] is/VBZ  [ your/PRP$ house/NN ] like/IN ?/.,(SBARQ (RB So) (WHNP-1 (WP what)) (SQ (VBZ is) (NP-SBJ (PRP$ your) (NN house)) (PP-PRD (IN like) (NP (-NONE- *T*-1)))) (. ?) (-DFL- E_S)),6
sw04utt/sw_0417_3237.utt,3/sw3237,3237,4,sd,B,4,1,"It's a two bedroom, two baths duplex. /","[ It/PRP ] 's/BES  [ a/DT two/CD bedroom/NN ] ,/,  [ two/CD baths/NNS ] duplex/NN ./.","(S (NP-SBJ (PRP It)) (VP (BES 's) (NP-PRD (DT a) (CD two) (NN bedroom) (, ,) (CD two) (NNS baths) (NN duplex))) (. .) (-DFL- E_S))",8
sw04utt/sw_0417_3237.utt,3/sw3237,3237,5,ba,A,5,1,"{F Oh, } {D well } that's neat, /","Oh/UH ,/, well/UH  [ that/DT ] 's/BES neat/JJ  ,/,","(S (INTJ (UH Oh)) (, ,) (INTJ (UH well)) (NP-SBJ (DT that)) (VP (BES 's) (ADJP-PRD (JJ neat))) (, ,) (-DFL- E_S))",10
sw04utt/sw_0417_3237.utt,3/sw3237,3237,6,sd,B,6,1,Brick --,[ Brick/NN ] --/:,"(NP-UNF (NN Brick) (CC and) (, ,) (INTJ (UH uh)) (, ,) (-DFL- N_S))",12
sw04utt/sw_0417_3237.utt,3/sw3237,3237,7,b,A,7,1,Uh-huh -- /,[ Uh-huh/UH ] --/:,(INTJ (UH Uh-huh) (-DFL- E_S)),14
sw04utt/sw_0417_3237.utt,3/sw3237,3237,8,+,B,8,1,"-- and, {F uh, } -/","--/: and/CC ,/,  [ uh/UH ] ,/,","(NP-UNF (NN Brick) (CC and) (, ,) (INTJ (UH uh)) (, ,) (-DFL- N_S))",12
sw04utt/sw_0417_3237.utt,3/sw3237,3237,9,qr,A,9,1,-- is it one you're renting or buying? /,--/: is/VBZ  [ it/PRP ] [ one/CD ] [ you/PRP ] 're/VBP renting/VBG or/CC buying/VBG ?/.,(SQ (VBZ is) (NP-SBJ (PRP it)) (NP-PRD (NP (CD one)) (SBAR (WHNP-1 (-NONE- 0)) (S (NP-SBJ (PRP you)) (VP (VBP 're) (VP (VBG renting) (CC or) (VBG buying) (NP (-NONE- *T*-1))))))) (. ?) (-DFL- E_S)),17
sw04utt/sw_0417_3237.utt,3/sw3237,3237,10,nn,B,10,1,"No,  /","No/UH ,/,","(INTJ (UH No) (, ,) (-DFL- E_S))",19
sw04utt/sw_0417_3237.utt,3/sw3237,3237,11,sd^e,B,10,2,"we own it,  /","[ we/PRP ] own/VBP  [ it/PRP ] ,/,","(S (NP-SBJ (PRP we)) (VP (VBP own) (NP (PRP it))) (, ,) (-DFL- E_S))",20
sw04utt/sw_0417_3237.utt,3/sw3237,3237,12,%,B,10,3,"yeah,  /","yeah/UH ,/,","(INTJ (UH yeah) (, ,) (-DFL- E_S))",21
sw04utt/sw_0417_3237.utt,3/sw3237,3237,13,%,B,10,4,"{D well, } our side <laughter>. -/","well/UH ,/,  [ our/PRP$ side/NN ] ./.","(FRAG (INTJ (UH well)) (, ,) (NP (PRP$ our) (NN side)) (. .) (-DFL- N_S))",22
sw04utt/sw_0417_3237.utt,3/sw3237,3237,14,b,A,11,1,"Yeah,  /","Yeah/UH ,/,","(INTJ (UH Yeah) (, ,) (-DFL- E_S))",24
sw04utt/sw_0417_3237.utt,3/sw3237,3237,15,b^r,A,11,2,"yeah,  /","yeah/UH ,/,","(INTJ (UH yeah) (, ,) (-DFL- E_S))",21
sw04utt/sw_0417_3237.utt,3/sw3237,3237,16,sv,A,11,3,{D well } that's kind of neat that you can --,well/UH that/DT  [ 's/BES kind/RB ] of/RB  [ neat/JJ ] that/IN  [ you/PRP ] can/MD --/:,"(S (INTJ (UH well)) (NP-SBJ (DT that)) (VP (BES 's) (ADVP (RB kind) (RB of)) (ADJP-PRD (JJ neat)) (SBAR-TPC (IN that) (S (EDITED (S (NP-SBJ (PRP you)) (VP-UNF (MD can)))) (SBAR-ADV (RB even) (IN though) (S (NP-SBJ (PRP it)) (VP (BES 's) (NP-PRD (DT a) (NN duplex))))) (, ,) (NP-SBJ (PRP you)) (VP (MD can) (ADVP (RB still)) (VP (VB buy)))))) (. .) (-DFL- E_S))",26
sw04utt/sw_0417_3237.utt,3/sw3237,3237,17,b,B,12,1,"Uh-huh,  /","[ Uh-huh/UH ] ,/,","(INTJ (UH Uh-huh) (, ,) (-DFL- E_S))",28
sw04utt/sw_0417_3237.utt,3/sw3237,3237,18,b^r,B,12,2,uh-huh. /,[ uh-huh/UH ] ./.,(INTJ (UH uh-huh) (. .) (-DFL- E_S)),29
sw04utt/sw_0417_3237.utt,3/sw3237,3237,19,+,A,13,1,"-- even though it's a duplex, you can still buy.  /","--/: even/RB though/IN  [ it/PRP ] 's/BES  [ a/DT duplex/NN ] ,/,  [ you/PRP ] can/MD still/RB buy/VB ./.","(S (INTJ (UH well)) (NP-SBJ (DT that)) (VP (BES 's) (ADVP (RB kind) (RB of)) (ADJP-PRD (JJ neat)) (SBAR-TPC (IN that) (S (EDITED (S (NP-SBJ (PRP you)) (VP-UNF (MD can)))) (SBAR-ADV (RB even) (IN though) (S (NP-SBJ (PRP it)) (VP (BES 's) (NP-PRD (DT a) (NN duplex))))) (, ,) (NP-SBJ (PRP you)) (VP (MD can) (ADVP (RB still)) (VP (VB buy)))))) (. .) (-DFL- E_S))",26
sw04utt/sw_0417_3237.utt,3/sw3237,3237,20,ba,A,13,2,That's good. /,[ That/DT ] 's/BES good/JJ ./.,(S (NP-SBJ (DT That)) (VP (BES 's) (ADJP-PRD (JJ good))) (. .) (-DFL- E_S)),31
sw04utt/sw_0417_3237.utt,3/sw3237,3237,21,b,B,14,1,"Uh-huh,  /","[ Uh-huh/UH ] ,/,","(INTJ (UH Uh-huh) (, ,) (-DFL- E_S))",28
sw04utt/sw_0417_3237.utt,3/sw3237,3237,22,b,B,14,2,yeah. /,yeah/UH ./.,(INTJ (UH yeah) (. .) (-DFL- E_S)),34
sw04utt/sw_0417_3237.utt,3/sw3237,3237,23,qy,A,15,1,Do you have any children? /,Do/VBP  [ you/PRP ] have/VB  [ any/DT children/NNS ] ?/.,(SQ (VBP Do) (NP-SBJ (PRP you)) (VP (VB have) (NP (DT any) (NNS children))) (. ?) (-DFL- E_S)),36
sw04utt/sw_0417_3237.utt,3/sw3237,3237,24,nn,B,16,1,"No,  /","No/UH ,/,","(INTJ (UH No) (, ,) (-DFL- E_S))",19
sw04utt/sw_0417_3237.utt,3/sw3237,3237,25,nn,B,16,2,huh-uh.  /,[ huh-uh/UH ] ./.,(INTJ (RM (-DFL- \[)) (UH huh-uh) (. .) (-DFL- E_S)),39
sw04utt/sw_0417_3237.utt,3/sw3237,3237,26,qy,B,16,3,Do you? /,Do/VBP  [ you/PRP ] ?/.,(SQ (VBP Do) (NP-SBJ (PRP you)) (. ?) (-DFL- E_S)),40
sw04utt/sw_0417_3237.utt,3/sw3237,3237,27,ny,A,17,1,"Yes,  /","Yes/UH ,/,","(INTJ (UH Yes) (, ,) (-DFL- E_S))",42
sw04utt/sw_0417_3237.utt,3/sw3237,3237,28,sd^e,A,17,2,"I have two children,  /","[ I/PRP ] have/VBP  [ two/CD children/NNS ] ,/,","(S (NP-SBJ (PRP I)) (VP (VBP have) (NP (CD two) (NNS children))) (, ,) (-DFL- E_S))",43
sw04utt/sw_0417_3237.utt,3/sw3237,3237,29,sd,A,17,3,{C and } our home is really too small for us right now <laughter>. /,and/CC  [ our/PRP$ home/NN ] is/VBZ really/RB too/RB small/JJ for/IN  [ us/PRP ] right/RB now/RB ./.,(S (CC and) (NP-SBJ (PRP$ our) (NN home)) (VP (VBZ is) (ADVP (RB really)) (ADJP-PRD (RB too) (JJ small) (PP (IN for) (NP (PRP us)))) (ADVP-TMP (RB right) (RB now))) (. .) (-DFL- E_S)),44
sw04utt/sw_0417_3237.utt,3/sw3237,3237,30,sd,B,18,1,"<Laughter> Ours is, too. /","[ Ours/PRP$ ] is/VBZ ,/, too/RB ./.","(S (NP-SBJ (PRP$ Ours)) (VP (VBZ is) (ADJP-PRD (-NONE- *?*)) (, ,) (ADVP (RB too))) (. .) (-DFL- E_S))",46
sw04utt/sw_0417_3237.utt,3/sw3237.pos,3237,31,x,A,19,1,<Laughter>.,./.,,
sw04utt/sw_0417_3237.utt,3/sw3237,3237,32,sd,B,20,1,We outgrew it when we moved in. /,[ We/PRP ] outgrew/VBD  [ it/PRP ] when/WRB  [ we/PRP ] moved/VBD in/IN ./.,(S (NP-SBJ (PRP We)) (VP (VBD outgrew) (NP (PRP it)) (SBAR-TMP (WHADVP-1 (WRB when)) (S (NP-SBJ (PRP we)) (VP (VBD moved) (ADVP-DIR (IN in)) (ADVP-TMP (-NONE- *T*-1)))))) (. .) (-DFL- E_S)),49
sw04utt/sw_0417_3237.utt,3/sw3237,3237,33,b,A,21,1,"Yeah, /","Yeah/UH ,/,","(INTJ (UH Yeah) (, ,) (-DFL- E_S))",24
sw04utt/sw_0417_3237.utt,3/sw3237.pos,3237,34,x,B,22,1,<Laughter>.,./.,,
sw04utt/sw_0417_3237.utt,3/sw3237,3237,35,sd,A,23,1,we moved from an apartment --,[ we/PRP ] moved/VBD from/IN  [ an/DT apartment/NN ] --/:,"(S (NP-SBJ (PRP we)) (VP (VBD moved) (PP-DIR (IN from) (NP (NP (DT an) (NN apartment)) (SBAR (WHNP-1 (WDT that)) (S (NP-SBJ (-NONE- *T*-1)) (VP (VBD was) (ADJP-PRD (RB really) (JJ small)))))))) (, ,) (-DFL- E_S))",54
sw04utt/sw_0417_3237.utt,3/sw3237,3237,36,b,B,24,1,Uh-huh. /,[ Uh-huh/UH ] ./.,(INTJ (UH Uh-huh) (. .) (-DFL- E_S)),56
sw04utt/sw_0417_3237.utt,3/sw3237,3237,37,+,A,25,1,"-- that was really small,  /","--/:  [ that/WDT ] was/VBD really/RB  [ small/JJ ] ,/,","(S (NP-SBJ (PRP we)) (VP (VBD moved) (PP-DIR (IN from) (NP (NP (DT an) (NN apartment)) (SBAR (WHNP-1 (WDT that)) (S (NP-SBJ (-NONE- *T*-1)) (VP (VBD was) (ADJP-PRD (RB really) (JJ small)))))))) (, ,) (-DFL- E_S))",54
sw04utt/sw_0417_3237.utt,3/sw3237,3237,38,sd,A,25,2,{C and } at the time we just had a little baby that was five months old -- /,and/CC at/IN  [ the/DT time/NN ] [ we/PRP ] just/RB had/VBD  [ a/DT little/JJ baby/NN ] [ that/WDT ] was/VBD  [ five/CD months/NNS ] old/JJ --/:,(S (CC and) (PP-TMP (IN at) (NP (DT the) (NN time))) (NP-SBJ (PRP we)) (ADVP (RB just)) (VP (VBD had) (NP (NP (DT a) (JJ little) (NN baby)) (SBAR (WHNP-1 (WDT that)) (S (NP-SBJ (-NONE- *T*-1)) (VP (VBD was) (ADJP-PRD (NP-ADV (CD five) (NNS months)) (JJ old))))))) (-DFL- E_S)),58
sw04utt/sw_0417_3237.utt,3/sw3237,3237,39,b,B,26,1,Uh-huh. /,[ Uh-huh/UH ] ./.,(INTJ (UH Uh-huh) (. .) (-DFL- E_S)),56
sw04utt/sw_0417_3237.utt,3/sw3237,3237,40,sd,A,27,1,"-- {C so } we moved into this house in Garland,  /","--/: so/RB  [ we/PRP ] moved/VBD into/IN  [ this/DT house/NN ] in/IN  [ Garland/NNP ] ,/,","(S (RB so) (NP-SBJ (PRP we)) (VP (VBD moved) (PP-DIR (IN into) (NP (NP (DT this) (NN house)) (PP-LOC (IN in) (NP (NNP Garland)))))) (, ,) (-DFL- E_S))",62
sw04utt/sw_0417_3237.utt,3/sw3237,3237,41,sd,A,27,2,it's in one of the older areas of town -- /,[ it/PRP ] 's/BES in/IN  [ one/CD ] of/IN  [ the/DT older/JJR areas/NNS ] of/IN  [ town/NN ] --/:,(S (NP-SBJ (PRP it)) (VP (BES 's) (PP-LOC-PRD (IN in) (NP (NP (CD one)) (PP (IN of) (NP (NP (DT the) (JJR older) (NNS areas)) (PP (IN of) (NP (NN town)))))))) (-DFL- E_S)),63
sw04utt/sw_0417_3237.utt,3/sw3237,3237,42,b,B,28,1,Uh-huh. /,[ Uh-huh/UH ] ./.,(INTJ (UH Uh-huh) (. .) (-DFL- E_S)),56
sw04utt/sw_0417_3237.utt,3/sw3237,3237,43,sd,A,29,1,-- {C and } one thing I really like is it has big trees everywhere -- /,--/: and/CC  [ one/CD thing/NN ] [ I/PRP ] really/RB like/VBP is/VBZ  [ it/PRP ] has/VBZ  [ big/JJ trees/NNS ] everywhere/RB --/:,(S (CC and) (NP-SBJ (NP (CD one) (NN thing)) (SBAR (WHNP-1 (-NONE- 0)) (S (NP-SBJ (PRP I)) (ADVP (RB really)) (VP (VBP like) (NP (-NONE- *T*-1)))))) (VP (VBZ is) (SBAR-PRD (-NONE- 0) (S (NP-SBJ (PRP it)) (VP (VBZ has) (NP (JJ big) (NNS trees)) (ADVP-LOC (RB everywhere)))))) (-DFL- E_S)),67
sw04utt/sw_0417_3237.utt,3/sw3237,3237,44,b,B,30,1,Uh-huh. /,[ Uh-huh/UH ] ./.,(INTJ (UH Uh-huh) (. .) (-DFL- E_S)),56
sw04utt/sw_0417_3237.utt,3/sw3237,3237,45,sd,A,31,1,"-- {D you know, } lots of shade and squirrels and birds and --","--/:  [ you/PRP ] know/VBP ,/,  [ lots/NNS ] of/IN  [ shade/NN ] and/CC  [ squirrels/NNS ] and/CC  [ birds/NNS ] and/CC --/:","(FRAG (PRN (S (NP-SBJ (PRP you)) (VP (VBP know))) (, ,)) (NP (NP (NNS lots)) (PP (IN of) (NP (NN shade) (CC and) (NNS squirrels) (CC and) (NNS birds)))) (CC and) (ADJP (RB real) (JJ pretty)) (, ,) (-DFL- E_S))",71
sw04utt/sw_0417_3237.utt,3/sw3237,3237,46,b,B,32,1,{F Um. } /,Um/UH ./.,(INTJ (UH Um) (. .) (-DFL- E_S)),73
sw04utt/sw_0417_3237.utt,3/sw3237,3237,47,+,A,33,1,"-- real pretty,  /","--/: real/RB pretty/JJ ,/,","(FRAG (PRN (S (NP-SBJ (PRP you)) (VP (VBP know))) (, ,)) (NP (NP (NNS lots)) (PP (IN of) (NP (NN shade) (CC and) (NNS squirrels) (CC and) (NNS birds)))) (CC and) (ADJP (RB real) (JJ pretty)) (, ,) (-DFL- E_S))",71
sw04utt/sw_0417_3237.utt,3/sw3237,3237,48,sd,A,33,2,"{C but } [ the, +  the ] house is real small -- /","but/CC  [ the/DT ] ,/,  [ the/DT house/NN ] is/VBZ real/RB small/JJ --/:","(S (CC but) (EDITED (RM (-DFL- \[)) (NP-SBJ-UNF (DT the)) (, ,) (IP (-DFL- \+))) (NP-SBJ (DT the) (RS (-DFL- \])) (NN house)) (VP (VBZ is) (ADJP-PRD (RB real) (JJ small))) (-DFL- E_S))",75
sw04utt/sw_0417_3237.utt,3/sw3237,3237,49,b,B,34,1,Yeah. /,Yeah/UH ./.,(INTJ (UH Yeah) (. .) (-DFL- E_S)),77
sw04utt/sw_0417_3237.utt,3/sw3237,3237,50,sd,A,35,1,-- it has less than a thousand square feet -- /,--/:  [ it/PRP ] has/VBZ less/JJR than/IN  [ a/DT thousand/CD square/NN feet/NNS ] --/:,(S (NP-SBJ (PRP it)) (VP (VBZ has) (NP (QP (JJR less) (IN than) (DT a) (CD thousand)) (NN square) (NNS feet))) (-DFL- E_S)),79
sw04utt/sw_0417_3237.utt,3/sw3237,3237,51,ba,B,36,1,"{F Oh, } wow. /","Oh/UH ,/, wow/UH ./.","(INTJ (INTJ (UH Oh)) (, ,) (INTJ (UH wow)) (. .) (-DFL- E_S))",81
sw04utt/sw_0417_3237.utt,3/sw3237,3237,52,b,A,37,1,"-- yeah,  /","--/: yeah/UH ,/,","(INTJ (UH yeah) (, ,) (-DFL- E_S))",83
sw04utt/sw_0417_3237.utt,3/sw3237,3237,53,sd,A,37,2,it's real little. /,[ it/PRP ] 's/BES real/RB little/JJ ./.,(S (NP-SBJ (PRP it)) (VP (BES 's) (ADJP-PRD (RB real) (JJ little))) (. .) (-DFL- E_S)),84
sw04utt/sw_0417_3237.utt,3/sw3237,3237,54,bf,B,38,1,<Laughter> You all are cramped <laughter>. /,[ You/PRP ] [ all/DT ] are/VBP cramped/JJ ./.,(S (NP-SBJ (PRP You) (DT all)) (VP (VBP are) (ADJP-PRD (JJ cramped))) (. .) (-DFL- E_S)),86
sw04utt/sw_0417_3237.utt,3/sw3237,3237,55,aa,A,39,1,"Yeah,  /","Yeah/UH ,/,","(INTJ (UH Yeah) (, ,) (-DFL- E_S))",88
sw04utt/sw_0417_3237.utt,3/sw3237,3237,56,sd,A,39,2,"{C and } now I have a daughter,  /","and/CC now/RB  [ I/PRP ] have/VBP  [ a/DT daughter/NN ] ,/,","(S (CC and) (ADVP-TMP (RB now)) (NP-SBJ (PRP I)) (VP (VBP have) (NP (DT a) (NN daughter))) (, ,) (-DFL- E_S))",89
sw04utt/sw_0417_3237.utt,3/sw3237,3237,57,%,A,39,3,"now my, - /","now/RB  [ my/PRP$ ] ,/,","(S (ADVP-TMP (RB now)) (EDITED (NP-SBJ-UNF (PRP$ my)) (, ,)) (-DFL- N_S) (NP-SBJ (NP (DT the) (CD one)) (SBAR (WHNP-1 (WDT that)) (S (NP-SBJ (-NONE- *T*-1)) (VP (VBD was) (ADJP-PRD (NP-ADV (CD five) (NNS months)) (JJ old)))))) (VP (VBZ is) (ADJP-PRD (NP-ADV (CD seven) (NNS years)) (JJ old))) (-DFL- E_S))",90
sw04utt/sw_0417_3237.utt,3/sw3237,3237,58,sd,A,39,4,the one that was five months old is seven years old -- /,[ the/DT one/CD ] [ that/WDT ] was/VBD  [ five/CD months/NNS ] old/JJ is/VBZ  [ seven/CD years/NNS ] old/JJ --/:,"(S (ADVP-TMP (RB now)) (EDITED (NP-SBJ-UNF (PRP$ my)) (, ,)) (-DFL- N_S) (NP-SBJ (NP (DT the) (CD one)) (SBAR (WHNP-1 (WDT that)) (S (NP-SBJ (-NONE- *T*-1)) (VP (VBD was) (ADJP-PRD (NP-ADV (CD five) (NNS months)) (JJ old)))))) (VP (VBZ is) (ADJP-PRD (NP-ADV (CD seven) (NNS years)) (JJ old))) (-DFL- E_S))",90
sw04utt/sw_0417_3237.utt,3/sw3237,3237,59,b,B,40,1,Uh-huh. /,[ Uh-huh/UH ] ./.,(INTJ (UH Uh-huh) (. .) (-DFL- E_S)),65
sw04utt/sw_0417_3237.utt,3/sw3237,3237,60,sd,A,41,1,"-- {C and } [ the one, + I have another one ]  that's three and a half --","--/: and/CC  [ the/DT one/NN ] ,/,  [ I/PRP ] have/VBP  [ another/DT ] [ one/NN ] [ that/WDT ] 's/BES  [ three/CD ] and/CC  [ a/DT half/NN ] --/:","(S (CC and) (EDITED (RM (-DFL- \[)) (NP-SBJ-UNF (DT the) (NN one)) (, ,) (IP (-DFL- \+))) (NP-SBJ (PRP I)) (VP (VP (VBP have) (NP (NP (DT another) (NN one)) (RS (-DFL- \])) (SBAR (WHNP-1 (WDT that)) (S (NP-SBJ (-NONE- *T*-1)) (VP (BES 's) (NP-PRD (QP (CD three) (CC and) (DT a) (NN half)))))))) (CC and) (VP (VBP have) (NP (NP (PDT all) (DT these) (NNS clothes) (, ,) (CC and) (NNS toys) (CC and) (NN stuff)) (SBAR (WHNP-4 (WDT that)) (S (NP-SBJ-2 (PRP we)) (VP (VBP 're) (ADVP (RB just)) (VP (VBG trying) (S (NP-SBJ (-NONE- *-2)) (VP (TO to) (VP (VB find) (NP (NP (NNS places)) (SBAR (WHADVP-3 (-NONE- 0)) (S (NP-SBJ (-NONE- *)) (VP (TO to) (VP (VB put) (NP (-NONE- *T*-4)) (ADVP-PUT (-NONE- *T*-3))))))))))))))))) (, ,) (-DFL- E_S))",94
sw04utt/sw_0417_3237.utt,3/sw3237,3237,61,b,B,42,1,Uh-huh. /,[ Uh-huh/UH ] ./.,(INTJ (UH Uh-huh) (. .) (-DFL- E_S)),69
sw04utt/sw_0417_3237.utt,3/sw3237,3237,62,+,A,43,1,"-- and have all these clothes, and <laughter> --","--/: and/CC have/VBP  [ all/PDT these/DT clothes/NNS ] ,/, and/CC --/:","(S (CC and) (EDITED (RM (-DFL- \[)) (NP-SBJ-UNF (DT the) (NN one)) (, ,) (IP (-DFL- \+))) (NP-SBJ (PRP I)) (VP (VP (VBP have) (NP (NP (DT another) (NN one)) (RS (-DFL- \])) (SBAR (WHNP-1 (WDT that)) (S (NP-SBJ (-NONE- *T*-1)) (VP (BES 's) (NP-PRD (QP (CD three) (CC and) (DT a) (NN half)))))))) (CC and) (VP (VBP have) (NP (NP (PDT all) (DT these) (NNS clothes) (, ,) (CC and) (NNS toys) (CC and) (NN stuff)) (SBAR (WHNP-4 (WDT that)) (S (NP-SBJ-2 (PRP we)) (VP (VBP 're) (ADVP (RB just)) (VP (VBG trying) (S (NP-SBJ (-NONE- *-2)) (VP (TO to) (VP (VB find) (NP (NP (NNS places)) (SBAR (WHADVP-3 (-NONE- 0)) (S (NP-SBJ (-NONE- *)) (VP (TO to) (VP (VB put) (NP (-NONE- *T*-4)) (ADVP-PUT (-NONE- *T*-3))))))))))))))))) (, ,) (-DFL- E_S))",94
sw04utt/sw_0417_3237.utt,3/sw3237,3237,63,b,B,44,1,Oh. /,Oh/UH ./.,(INTJ (UH Oh) (. .) (-DFL- E_S)),99
sw04utt/sw_0417_3237.utt,3/sw3237,3237,64,+,A,45,1,"-- toys and stuff that we're just trying to find places to put, /","--/:  [ toys/NNS ] and/CC  [ stuff/NN ] that/WDT  [ we/PRP ] 're/VBP just/RB trying/VBG to/TO find/VB  [ places/NNS ] to/TO put/VB ,/,","(S (CC and) (EDITED (RM (-DFL- \[)) (NP-SBJ-UNF (DT the) (NN one)) (, ,) (IP (-DFL- \+))) (NP-SBJ (PRP I)) (VP (VP (VBP have) (NP (NP (DT another) (NN one)) (RS (-DFL- \])) (SBAR (WHNP-1 (WDT that)) (S (NP-SBJ (-NONE- *T*-1)) (VP (BES 's) (NP-PRD (QP (CD three) (CC and) (DT a) (NN half)))))))) (CC and) (VP (VBP have) (NP (NP (PDT all) (DT these) (NNS clothes) (, ,) (CC and) (NNS toys) (CC and) (NN stuff)) (SBAR (WHNP-4 (WDT that)) (S (NP-SBJ-2 (PRP we)) (VP (VBP 're) (ADVP (RB just)) (VP (VBG trying) (S (NP-SBJ (-NONE- *-2)) (VP (TO to) (VP (VB find) (NP (NP (NNS places)) (SBAR (WHADVP-3 (-NONE- 0)) (S (NP-SBJ (-NONE- *)) (VP (TO to) (VP (VB put) (NP (-NONE- *T*-4)) (ADVP-PUT (-NONE- *T*-3))))))))))))))))) (, ,) (-DFL- E_S))",94
sw04utt/sw_0417_3237.utt,3/sw3237,3237,65,b,B,46,1,"Uh-huh,  /","[ Uh-huh/UH ] ,/,","(INTJ (UH Uh-huh) (, ,) (-DFL- E_S))",102
sw04utt/sw_0417_3237.utt,3/sw3237,3237,66,qw,B,46,2,how many bedrooms is it? /,how/WRB  [ many/JJ bedrooms/NNS ] is/VBZ  [ it/PRP ] ?/.,(SBARQ (WHNP-1 (WHADJP (WRB how) (JJ many)) (NNS bedrooms)) (SQ (VBZ is) (NP-SBJ (PRP it)) (NP-PRD (-NONE- *T*-1))) (. ?) (-DFL- E_S)),103
sw04utt/sw_0417_3237.utt,3/sw3237,3237,67,nd,A,47,1,"{D Well, } they advertised it as a three bedroom house --","Well/UH ,/,  [ they/PRP ] advertised/VBD  [ it/PRP ] as/IN  [ a/DT three/CD bedroom/NN house/NN ] --/:","(S (INTJ (UH Well)) (, ,) (NP-SBJ (PRP they)) (VP (VBD advertised) (NP (PRP it)) (PP (IN as) (NP (DT a) (CD three) (NN bedroom) (NN house))) (SBAR-PRP (IN because) (S (NP-SBJ (PRP it)) (VP (VBZ has) (NP (DT a) (ADJP (VBN built) (RP on)) (NN addition) (NN room))))) (PRN (, ,) (S (NP-SBJ (PRP you)) (VP (VBP know))))) (-DFL- E_S))",105
sw04utt/sw_0417_3237.utt,3/sw3237,3237,68,b,B,48,1,Uh-huh /,[ Uh-huh/UH ],(INTJ (UH Uh-huh) (-DFL- E_S)),107
sw04utt/sw_0417_3237.utt,3/sw3237,3237,69,+,A,49,1,"-- because it has a built on addition room, {D you know } -- /","--/: because/IN  [ it/PRP ] has/VBZ  [ a/DT ] built/VBN on/RP  [ addition/NN room/NN ] ,/,  [ you/PRP ] know/VBP --/:","(S (INTJ (UH Well)) (, ,) (NP-SBJ (PRP they)) (VP (VBD advertised) (NP (PRP it)) (PP (IN as) (NP (DT a) (CD three) (NN bedroom) (NN house))) (SBAR-PRP (IN because) (S (NP-SBJ (PRP it)) (VP (VBZ has) (NP (DT a) (ADJP (VBN built) (RP on)) (NN addition) (NN room))))) (PRN (, ,) (S (NP-SBJ (PRP you)) (VP (VBP know))))) (-DFL- E_S))",105
sw04utt/sw_0417_3237.utt,3/sw3237,3237,70,b,B,50,1,Uh-huh. /,[ Uh-huh/UH ] ./.,(INTJ (UH Uh-huh) (. .) (-DFL- E_S)),92
sw04utt/sw_0417_3237.utt,3/sw3237,3237,71,sd,A,51,1,-- {C but } the room that's built on doesn't have a closet -- /,--/: but/CC  [ the/DT room/NN ] [ that/WDT ] 's/BES built/VBN on/RP does/VBZ n't/RB have/VB  [ a/DT closet/NN ] --/:,(S (CC but) (NP-SBJ (NP (DT the) (NN room)) (SBAR (WHNP-1 (WDT that)) (S (NP-SBJ (-NONE- *T*-1)) (VP (BES 's) (ADJP-PRD (VBN built) (RP on)))))) (VP (VBZ does) (RB n't) (VP (VB have) (NP (DT a) (NN closet)))) (-DFL- E_S)),112
sw04utt/sw_0417_3237.utt,3/sw3237,3237,72,bk,B,52,1,Oh. /,Oh/UH ./.,(INTJ (UH Oh) (. .) (-DFL- E_S)),99
sw04utt/sw_0417_3237.utt,3/sw3237,3237,73,sd,A,53,1,"-- {C so, }  {F um, } the people that lived here before us did use it for a bedroom -- /","--/: so/RB ,/, um/UH ,/,  [ the/DT people/NNS ] [ that/WDT ] lived/VBD here/RB before/IN  [ us/PRP ] did/VBD use/VB  [ it/PRP ] for/IN  [ a/DT bedroom/NN ] --/:","(S (RB so) (, ,) (INTJ (UH um)) (, ,) (NP-SBJ (NP (DT the) (NNS people)) (SBAR (WHNP-1 (WDT that)) (S (NP-SBJ (-NONE- *T*-1)) (VP (VBD lived) (ADVP-LOC (RB here)) (PP-TMP (IN before) (NP (PRP us))))))) (VP (VBD did) (VP (VB use) (NP (PRP it)) (PP (IN for) (NP (DT a) (NN bedroom))))) (-DFL- E_S))",116
sw04utt/sw_0417_3237.utt,3/sw3237,3237,74,b,B,54,1,Uh-huh. /,[ Uh-huh/UH ] ./.,(INTJ (UH Uh-huh) (. .) (-DFL- E_S)),96
sw04utt/sw_0417_3237.utt,3/sw3237,3237,75,sd,A,55,1,-- {C but } we have always just put {D like } our computer and extra toys and books and -- -/,--/: but/CC  [ we/PRP ] have/VBP always/RB just/RB put/VBN like/UH  [ our/PRP$ computer/NN ] and/CC  [ extra/JJ toys/NNS ] and/CC  [ books/NNS ] and/CC --/:,(S (CC but) (NP-SBJ (PRP we)) (VP (VBP have) (ADVP-TMP (RB always)) (ADVP (RB just)) (VP (VBN put) (INTJ (UH like)) (NP-UNF (NP (PRP$ our) (NN computer)) (CC and) (NP (JJ extra) (NNS toys) (CC and) (NNS books)) (CC and)))) (-DFL- N_S)),120
sw04utt/sw_0417_3237.utt,3/sw3237,3237,76,b,B,56,1,Uh-huh. /,[ Uh-huh/UH ] ./.,(INTJ (UH Uh-huh) (. .) (-DFL- E_S)),110
sw04utt/sw_0417_3237.utt,3/sw3237,3237,77,sd,A,57,1,"-- {D you know, } it's kind of a catch all room <laughter>. /","--/:  [ you/PRP ] know/VBP ,/,  [ it/PRP ] 's/BES  [ kind/RB ] of/RB  [ a/DT catch/NN ] [ all/DT room/NN ] ./.","(S (PRN (S (NP-SBJ (PRP you)) (VP (VBP know))) (, ,)) (NP-SBJ (PRP it)) (VP (BES 's) (ADVP (RB kind) (RB of)) (NP-PRD (DT a) (ADJP (NN catch) (DT all)) (NN room))) (. .) (-DFL- E_S))",124
sw04utt/sw_0417_3237.utt,3/sw3237.pos,3237,78,x,B,58,1,<Laughter>.,./.,,
sw04utt/sw_0417_3237.utt,3/sw3237,3237,79,sd,A,59,1,{C But } it sure is nice to have it --,But/CC  [ it/PRP ] sure/RB is/VBZ nice/JJ to/TO have/VB  [ it/PRP ] --/:,(S (CC But) (NP-SBJ (NP (PRP it)) (S (-NONE- *ICH*-3))) (ADVP (RB sure)) (VP (VBZ is) (ADJP-PRD (JJ nice)) (S-3 (NP-SBJ (-NONE- *)) (VP (TO to) (VP (VB have) (NP (PRP it))))) (SBAR-TMP (WHADVP-2 (WRB when)) (S (NP-SBJ-1 (DT the) (NNS kids)) (VP (VBN come) (ADVP-DIR (RP over)) (S-PRP (NP-SBJ (-NONE- *-1)) (VP (TO to) (VP (VB play)))) (ADVP-TMP (-NONE- *T*-2)))))) (-DFL- E_S)),127
sw04utt/sw_0417_3237.utt,3/sw3237,3237,80,b,B,60,1,Yeah. /,Yeah/UH ./.,(INTJ (UH Yeah) (. .) (-DFL- E_S)),129
sw04utt/sw_0417_3237.utt,3/sw3237,3237,81,+,A,61,1,-- when the kids come over to play  /,--/: when/WRB  [ the/DT kids/NNS ] come/VBN over/RP to/TO play/VB,(S (CC But) (NP-SBJ (NP (PRP it)) (S (-NONE- *ICH*-3))) (ADVP (RB sure)) (VP (VBZ is) (ADJP-PRD (JJ nice)) (S-3 (NP-SBJ (-NONE- *)) (VP (TO to) (VP (VB have) (NP (PRP it))))) (SBAR-TMP (WHADVP-2 (WRB when)) (S (NP-SBJ-1 (DT the) (NNS kids)) (VP (VBN come) (ADVP-DIR (RP over)) (S-PRP (NP-SBJ (-NONE- *-1)) (VP (TO to) (VP (VB play)))) (ADVP-TMP (-NONE- *T*-2)))))) (-DFL- E_S)),127
sw04utt/sw_0417_3237.utt,3/sw3237,3237,82,sd,A,61,2,they all go out there to play with the Barbies --,[ they/PRP ] [ all/DT ] go/VBP out/IN there/RB to/TO play/VB with/IN  [ the/DT Barbies/NNPS ] --/:,"(S (NP-SBJ-1 (NP (PRP they)) (NP (DT all))) (VP (VBP go) (PP-DIR (IN out) (ADVP (RB there))) (S-PRP (NP-SBJ (-NONE- *-1)) (VP (TO to) (VP (VP (VB play) (PP (IN with) (NP (DT the) (NNPS Barbies)))) (CC and) (NP-ETC (NP (DT that) (NN kind)) (PP (IN of) (NP (NN stuff)))))))) (, ,) (-DFL- E_S))",131
sw04utt/sw_0417_3237.utt,3/sw3237,3237,83,b,B,62,1,Uh-huh. /,[ Uh-huh/UH ] ./.,(INTJ (UH Uh-huh) (. .) (-DFL- E_S)),110
sw04utt/sw_0417_3237.utt,3/sw3237,3237,84,+,A,63,1,"-- and that kind of stuff,  /","--/: and/CC  [ that/DT kind/NN ] of/IN  [ stuff/NN ] ,/,","(S (NP-SBJ-1 (NP (PRP they)) (NP (DT all))) (VP (VBP go) (PP-DIR (IN out) (ADVP (RB there))) (S-PRP (NP-SBJ (-NONE- *-1)) (VP (TO to) (VP (VP (VB play) (PP (IN with) (NP (DT the) (NNPS Barbies)))) (CC and) (NP-ETC (NP (DT that) (NN kind)) (PP (IN of) (NP (NN stuff)))))))) (, ,) (-DFL- E_S))",131
sw04utt/sw_0417_3237.utt,3/sw3237,3237,85,%,A,63,2,{C so. } -/,so/RB ./.,(S-UNF (RB so) (. .) (-DFL- N_S)),135
sw04utt/sw_0417_3237.utt,3/sw3237,3237,86,ba,B,64,1,<Laughter> How fun. /,How/WRB  [ fun/JJ ] ./.,(WHADJP (WRB How) (JJ fun) (. .) (-DFL- E_S)),137
sw04utt/sw_0417_3237.utt,3/sw3237,3237,87,aa,A,65,1,"Yeah,  /","Yeah/UH ,/,","(INTJ (UH Yeah) (, ,) (-DFL- E_S))",139
sw04utt/sw_0417_3237.utt,3/sw3237,3237,88,sd,A,65,2,that works out good. /,that/DT  [ works/VBZ ] out/RP  [ good/RB ] ./.,(S (NP-SBJ (DT that)) (VP (VBZ works) (ADVP (RP out)) (ADVP-MNR (RB good))) (. .) (-DFL- E_S)),140
sw04utt/sw_0417_3237.utt,3/sw3237.pos,3237,89,x,B,66,1,<Laughter>.,./.,,
sw04utt/sw_0417_3237.utt,3/sw3237,3237,90,sd,A,67,1,"{C And } I'm thankful I have two girls, because they're in bunk beds,  /","And/CC  [ I/PRP ] 'm/VBP thankful/JJ  [ I/PRP ] have/VBP  [ two/CD girls/NNS ] ,/, because/IN  [ they/PRP ] 're/VBP in/IN  [ bunk/NN beds/NNS ] ,/,","(S (CC And) (NP-SBJ (PRP I)) (VP (VBP 'm) (ADJP-PRD (JJ thankful) (SBAR (-NONE- 0) (S (NP-SBJ (PRP I)) (VP (VBP have) (NP (CD two) (NNS girls)))))) (, ,) (SBAR-PRP (IN because) (S (NP-SBJ (PRP they)) (VP (VBP 're) (PP-PRD (IN in) (NP (NN bunk) (NNS beds))))))) (, ,) (-DFL- E_S))",143
sw04utt/sw_0417_3237.utt,3/sw3237,3237,91,sd,A,67,2,{C and --,and/CC --/:,(S (CC but) (NP-SBJ (PRP we)) (VP (VBP have) (ADVP-TMP (RB always)) (ADVP (RB just)) (VP (VBN put) (INTJ (UH like)) (NP-UNF (NP (PRP$ our) (NN computer)) (CC and) (NP (JJ extra) (NNS toys) (CC and) (NNS books)) (CC and)))) (-DFL- N_S)),120
sw04utt/sw_0417_3237.utt,3/sw3237,3237,92,b,B,68,1,Uh-huh. /,[ Uh-huh/UH ] ./.,(INTJ (UH Uh-huh) (. .) (-DFL- E_S)),122
sw04utt/sw_0417_3237.utt,3/sw3237,3237,93,+,A,69,1,"-- so, } {D you know, } they can share a room --","--/: so/RB ,/,  [ you/PRP ] know/VBP ,/,  [ they/PRP ] can/MD share/VB  [ a/DT room/NN ] --/:","(S (CONJP (CC and) (RB so)) (PRN (, ,) (S (NP-SBJ (PRP you)) (VP (VBP know))) (, ,)) (NP-SBJ (PRP they)) (VP (MD can) (VP (VP (VB share) (NP (DT a) (NN room))) (CC and) (, ,) (INTJ (UH uh)) (, ,) (VP (VB make) (PP (IN for) (NP (JJR more) (NN space))) (NP-MNR (DT that) (NN way))))) (. .) (-DFL- E_S))",144
sw04utt/sw_0417_3237.utt,3/sw3237,3237,94,b,B,70,1,Uh-huh. /,[ Uh-huh/UH ] ./.,(INTJ (UH Uh-huh) (. .) (-DFL- E_S)),133
sw04utt/sw_0417_3237.utt,3/sw3237,3237,95,+,A,71,1,"-- and, {F uh, } make for more space that way. /","--/: and/CC ,/,  [ uh/UH ] ,/, make/VB for/IN  [ more/JJR space/NN ] [ that/DT way/NN ] ./.","(S (CONJP (CC and) (RB so)) (PRN (, ,) (S (NP-SBJ (PRP you)) (VP (VBP know))) (, ,)) (NP-SBJ (PRP they)) (VP (MD can) (VP (VP (VB share) (NP (DT a) (NN room))) (CC and) (, ,) (INTJ (UH uh)) (, ,) (VP (VB make) (PP (IN for) (NP (JJR more) (NN space))) (NP-MNR (DT that) (NN way))))) (. .) (-DFL- E_S))",144
sw04utt/sw_0417_3237.utt,3/sw3237,3237,96,qw,B,72,1,{C And } how old's the youngest? /,And/CC how/WRB  [ old/JJ ] 's/BES  [ the/DT youngest/JJS ] ?/.,(SBARQ (CC And) (WHADJP-1 (WRB how) (JJ old)) (SQ (BES 's) (NP-SBJ (DT the) (JJS youngest)) (ADJP-PRD (-NONE- *T*-1))) (. ?) (-DFL- E_S)),152
sw04utt/sw_0417_3237.utt,3/sw3237,3237,97,sd,A,73,1,She's three and a half -- /,[ She/PRP ] [ 's/BES three/CD ] and/CC  [ a/DT half/NN ] --/:,(S (NP-SBJ (PRP She)) (VP (BES 's) (NP-PRD (QP (CD three) (CC and) (DT a) (NN half)))) (-DFL- E_S)),154
sw04utt/sw_0417_3237.utt,3/sw3237,3237,98,b,B,74,1,Uh-huh. /,[ Uh-huh/UH ] ./.,(INTJ (UH Uh-huh) (. .) (-DFL- E_S)),133
sw04utt/sw_0417_3237.utt,3/sw3237,3237,99,b,A,75,1,"-- yeah,  /","--/: yeah/UH ,/,","(INTJ (UH yeah) (, ,) (-DFL- E_S))",158
sw04utt/sw_0417_3237.utt,3/sw3237,3237,100,sd,A,75,2,"{C so, } {F um, } {C and } right now we have their clothes on, {F uh, } {D like } double racks, {D you know, } in the closet -- /","so/RB ,/, um/UH ,/, and/CC right/RB now/RB  [ we/PRP ] have/VBP  [ their/PRP$ clothes/NNS ] on/IN ,/,  [ uh/UH ] ,/, like/UH  [ double/JJ racks/NNS ] ,/,  [ you/PRP ] know/VBP ,/, in/IN  [ the/DT closet/NN ] --/:","(S (EDITED (RB so) (, ,)) (INTJ (UH um)) (, ,) (CC and) (ADVP-TMP (RB right) (RB now)) (NP-SBJ (PRP we)) (VP (VBP have) (NP (PRP$ their) (NNS clothes)) (PP-LOC (IN on) (, ,) (INTJ (UH uh)) (, ,) (INTJ (UH like)) (NP (NP (JJ double) (NNS racks)) (PRN (, ,) (S (NP-SBJ (PRP you)) (VP (VBP know))) (, ,)) (PP-LOC (IN in) (NP (DT the) (NN closet)))))) (-DFL- E_S))",159
sw04utt/sw_0417_3237.utt,3/sw3237,3237,101,b,B,76,1,Uh-huh. /,[ Uh-huh/UH ] ./.,(INTJ (UH Uh-huh) (. .) (-DFL- E_S)),146
sw04utt/sw_0417_3237.utt,3/sw3237,3237,102,sd,A,77,1,-- we made a higher and a lower -- /,--/:  [ we/PRP ] made/VBD  [ a/DT higher/JJR ] and/CC  [ a/DT lower/JJR ] --/:,(S (NP-SBJ (PRP we)) (VP (VBD made) (NP (NP (DT a) (JJR higher)) (CC and) (NP (DT a) (JJR lower)))) (-DFL- E_S)),163
sw04utt/sw_0417_3237.utt,3/sw3237,3237,103,b,B,78,1,Uh-huh. /,[ Uh-huh/UH ] ./.,(INTJ (UH Uh-huh) (. .) (-DFL- E_S)),146
sw04utt/sw_0417_3237.utt,3/sw3237,3237,104,sd,A,79,1,"-- {C and } it works out fine,  /","--/: and/CC  [ it/PRP ] works/VBZ out/RP  [ fine/RB ] ,/,","(S (CC and) (NP-SBJ-1 (PRP it)) (VP (VBZ works) (PRT (RP out)) (S-ADV (NP-SBJ (-NONE- *-1)) (ADJP-PRD (RB fine)))) (, ,) (-DFL- E_S))",167
sw04utt/sw_0417_3237.utt,3/sw3237,3237,105,sd,A,79,2,"{C but } they're just about to get too tall <laughter>,","but/CC  [ they/PRP ] 're/VBP just/RB about/RB to/TO get/VB too/RB tall/JJ ,/,","(S (CC but) (NP-SBJ-1 (PRP they)) (VP (VBP 're) (UCP-PRD (ADJP (RB just) (RB about) (S (NP-SBJ (-NONE- *-1)) (VP (TO to) (VP (VB get) (ADJP-PRD (RB too) (JJ tall)))))) (, ,) (SBAR (WHADVP-3 (WRB where)) (S (NP-SBJ-2 (DT the) (NNS dresses)) (VP (VBP are) (VP (VBG beginning) (S (NP-SBJ (-NONE- *-2)) (VP (TO to) (VP (VB drag)))) (ADVP (-NONE- *T*-3))))))) (PRN (S (NP-SBJ (PRP you)) (VP (VBP know))))) (, ,) (-DFL- E_S))",168
sw04utt/sw_0417_3237.utt,3/sw3237.pos,3237,106,x,B,80,1,<Laughter>.,./.,,
sw04utt/sw_0417_3237.utt,3/sw3237,3237,107,+,A,81,1,where the dresses are beginning to drag --,where/WRB  [ the/DT dresses/NNS ] are/VBP beginning/VBG to/TO drag/VB --/:,"(S (CC but) (NP-SBJ-1 (PRP they)) (VP (VBP 're) (UCP-PRD (ADJP (RB just) (RB about) (S (NP-SBJ (-NONE- *-1)) (VP (TO to) (VP (VB get) (ADJP-PRD (RB too) (JJ tall)))))) (, ,) (SBAR (WHADVP-3 (WRB where)) (S (NP-SBJ-2 (DT the) (NNS dresses)) (VP (VBP are) (VP (VBG beginning) (S (NP-SBJ (-NONE- *-2)) (VP (TO to) (VP (VB drag)))) (ADVP (-NONE- *T*-3))))))) (PRN (S (NP-SBJ (PRP you)) (VP (VBP know))))) (, ,) (-DFL- E_S))",168
sw04utt/sw_0417_3237.utt,3/sw3237,3237,108,b,B,82,1,Uh-huh. /,[ Uh-huh/UH ] ./.,(INTJ (UH Uh-huh) (. .) (-DFL- E_S)),149
sw04utt/sw_0417_3237.utt,3/sw3237,3237,109,+,A,83,1,"-- {D you know, }  /","--/:  [ you/PRP ] know/VBP ,/,","(S (EDITED (RB so) (, ,)) (INTJ (UH um)) (, ,) (CC and) (ADVP-TMP (RB right) (RB now)) (NP-SBJ (PRP we)) (VP (VBP have) (NP (PRP$ their) (NNS clothes)) (PP-LOC (IN on) (, ,) (INTJ (UH uh)) (, ,) (INTJ (UH like)) (NP (NP (JJ double) (NNS racks)) (PRN (, ,) (S (NP-SBJ (PRP you)) (VP (VBP know))) (, ,)) (PP-LOC (IN in) (NP (DT the) (NN closet)))))) (-DFL- E_S))",159
sw04utt/sw_0417_3237.utt,3/sw3237,3237,110,sd,A,83,2,"{C and, }  {F um, }  we're going to have to figure out a new idea.  /","and/CC ,/, um/UH ,/,  [ we/PRP ] 're/VBP going/VBG to/TO have/VB to/TO figure/VB out/RP  [ a/DT new/JJ idea/NN ] ./.","(S (CC and) (, ,) (INTJ (UH um)) (, ,) (NP-SBJ-1 (PRP we)) (VP (VBP 're) (VP (VBG going) (S (NP-SBJ-2 (-NONE- *-1)) (VP (TO to) (VP (VB have) (S (NP-SBJ (-NONE- *-2)) (VP (TO to) (VP (VB figure) (PRT (RP out)) (NP (DT a) (JJ new) (NN idea)))))))))) (. .) (-DFL- E_S))",174
sw04utt/sw_0417_3237.utt,3/sw3237,3237,111,sd,A,83,3,"{C But } [ we're, +  we're ] kind of looking around and wanting to move into a bigger home --","But/CC  [ we/PRP ] 're/VBP ,/,  [ we/PRP ] 're/VBP kind/RB of/RB looking/VBG around/RB and/CC  wanting/VBG to/TO move/VB into/IN  [ a/DT bigger/JJR home/NN ] --/:","(S (CC But) (EDITED (RM (-DFL- \[)) (S (NP-SBJ (PRP we)) (VP-UNF (VBP 're))) (, ,) (IP (-DFL- \+))) (NP-SBJ-1 (PRP we)) (VP (VBP 're) (RS (-DFL- \])) (ADVP (RB kind) (RB of)) (VP (VP (VBG looking) (ADVP (RB around))) (CC and) (VP (VBG wanting) (S (NP-SBJ (-NONE- *-1)) (VP (TO to) (VP (VB move) (PP-DIR (IN into) (NP (DT a) (JJR bigger) (NN home))))))) (INTJ (UH uh)) (, ,) (VP (VBG hoping) (S (NP-SBJ-2 (-NONE- *-1)) (VP (TO to) (VP (VB be) (ADJP-PRD (JJ able) (S (NP-SBJ (-NONE- *-2)) (VP (TO to) (VP (VB do) (NP (DT that)))))) (PP-TMP (IN within) (NP (DT a) (NN year) (QP (CC or) (RB so)))))))))) (-DFL- E_S))",175
sw04utt/sw_0417_3237.utt,3/sw3237,3237,112,b,B,84,1,Yeah. /,Yeah/UH ./.,(INTJ (UH Yeah) (. .) (-DFL- E_S)),177
sw04utt/sw_0417_3237.utt,3/sw3237,3237,113,+,A,85,1,"-- {F uh, } hoping to be able to do that within a year or so -- /","--/:  [ uh/UH ] ,/, hoping/VBG to/TO be/VB able/JJ to/TO do/VB  [ that/DT ] within/IN  [ a/DT year/NN ] or/CC so/RB --/:","(S (CC But) (EDITED (RM (-DFL- \[)) (S (NP-SBJ (PRP we)) (VP-UNF (VBP 're))) (, ,) (IP (-DFL- \+))) (NP-SBJ-1 (PRP we)) (VP (VBP 're) (RS (-DFL- \])) (ADVP (RB kind) (RB of)) (VP (VP (VBG looking) (ADVP (RB around))) (CC and) (VP (VBG wanting) (S (NP-SBJ (-NONE- *-1)) (VP (TO to) (VP (VB move) (PP-DIR (IN into) (NP (DT a) (JJR bigger) (NN home))))))) (INTJ (UH uh)) (, ,) (VP (VBG hoping) (S (NP-SBJ-2 (-NONE- *-1)) (VP (TO to) (VP (VB be) (ADJP-PRD (JJ able) (S (NP-SBJ (-NONE- *-2)) (VP (TO to) (VP (VB do) (NP (DT that)))))) (PP-TMP (IN within) (NP (DT a) (NN year) (QP (CC or) (RB so)))))))))) (-DFL- E_S))",175
sw04utt/sw_0417_3237.utt,3/sw3237,3237,114,b,B,86,1,Yeah. /,Yeah/UH ./.,(INTJ (UH Yeah) (. .) (-DFL- E_S)),177
sw04utt/sw_0417_3237.utt,3/sw3237,3237,115,sd,A,87,1,-- {C so } that would be nice. /,--/: so/UH  [ that/DT ] would/MD be/VB nice/JJ ./.,(S (RB so) (NP-SBJ (DT that)) (VP (MD would) (VP (VB be) (ADJP-PRD (JJ nice)))) (. .) (-DFL- E_S)),182
sw04utt/sw_0417_3237.utt,3/sw3237,3237,116,sd,B,88,1,That's what we'd like to do. /,[ That/DT ] 's/BES  [ what/WP ] [ we/PRP ] 'd/MD like/VB to/TO do/VB ./.,(S (NP-SBJ (DT That)) (VP (BES 's) (SBAR-NOM-PRD (WHNP-2 (WP what)) (S (NP-SBJ-1 (PRP we)) (VP (MD 'd) (VP (VB like) (S (NP-SBJ (-NONE- *-1)) (VP (TO to) (VP (VB do) (NP (-NONE- *T*-2)))))))))) (. .) (-DFL- E_S)),184
sw04utt/sw_0417_3237.utt,3/sw3237,3237,117,b,A,89,1,"Yeah,  /","Yeah/UH ,/,","(INTJ (UH Yeah) (, ,) (-DFL- E_S))",186
sw04utt/sw_0417_3237.utt,3/sw3237,3237,118,qy,A,89,2,is Coppell a nice area to live? /,is/VBZ  [ Coppell/NNP ] [ a/DT nice/JJ area/NN ] to/TO live/VB ?/.,(SQ (VBZ is) (NP-SBJ (NNP Coppell)) (NP-PRD (NP (DT a) (JJ nice) (NN area)) (SBAR (WHADVP-1 (-NONE- 0)) (S (NP-SBJ (-NONE- *)) (VP (TO to) (VP (VB live) (ADVP-LOC (-NONE- *T*-1))))))) (. ?) (-DFL- E_S)),187
sw04utt/sw_0417_3237.utt,3/sw3237,3237,119,na,B,90,1,"{F Oh, } it's a wonderful place to live,  /","Oh/UH ,/,  [ it/PRP ] 's/BES  [ a/DT wonderful/JJ place/NN ] to/TO live/VB ,/,","(S (INTJ (UH Oh)) (, ,) (NP-SBJ (PRP it)) (VP (BES 's) (NP-PRD (NP (DT a) (JJ wonderful) (NN place)) (SBAR (WHADVP-1 (-NONE- 0)) (S (NP-SBJ (-NONE- *)) (VP (TO to) (VP (VB live) (ADVP-LOC (-NONE- *T*-1)))))))) (, ,) (-DFL- E_S))",189
sw04utt/sw_0417_3237.utt,3/sw3237,3237,120,%,B,90,2,"{C and }  they, - /","and/CC  [ they/PRP ] ,/,","(S-UNF (CC and) (NP-SBJ (PRP they)) (, ,) (-DFL- N_S))",190
sw04utt/sw_0417_3237.utt,3/sw3237,3237,121,sd,B,90,3,"I  don't have any kids,  /","[ I/PRP ] do/VBP n't/RB have/VB  [ any/DT kids/NNS ] ,/,","(S (NP-SBJ (PRP I)) (VP (VBP do) (RB n't) (VP (VB have) (NP (DT any) (NNS kids)))) (, ,) (-DFL- E_S))",191
sw04utt/sw_0417_3237.utt,3/sw3237,3237,122,sd,B,90,4,"{C so } I don't really know,  /","so/RB  [ I/PRP ] do/VBP n't/RB really/RB know/VB ,/,","(S (RB so) (NP-SBJ (PRP I)) (VP (VBP do) (RB n't) (ADVP (RB really)) (VP (VB know))) (, ,) (-DFL- E_S))",192
sw04utt/sw_0417_3237.utt,3/sw3237,3237,123,sd,B,90,5,{C but } they say that we have wonderful schools. /,but/CC  [ they/PRP ] say/VBP that/IN  [ we/PRP ] have/VBP  [ wonderful/JJ schools/NNS ] ./.,(S (CC but) (NP-SBJ (PRP they)) (VP (VBP say) (SBAR (IN that) (S (NP-SBJ (PRP we)) (VP (VBP have) (NP (JJ wonderful) (NNS schools)))))) (. .) (-DFL- E_S)),193
sw04utt/sw_0417_3237.utt,3/sw3237,3237,124,sd,A,91,1,"{D Well, } I think I've heard a lot, {F uh, } about Coppell schools, that they're real good -- /","Well/UH ,/,  [ I/PRP ] think/VBP  [ I/PRP ] 've/VBP heard/VBN  [ a/DT lot/NN ] ,/,  [ uh/UH ] ,/, about/IN  [ Coppell/NNP schools/NNS ] ,/, that/IN  [ they/PRP ] 're/VBP real/RB good/JJ --/:","(S (INTJ (UH Well)) (, ,) (NP-SBJ (PRP I)) (VP (VBP think) (SBAR (-NONE- 0) (S (NP-SBJ (PRP I)) (VP (VBP 've) (VP (VBN heard) (UCP (NP (NP (DT a) (NN lot)) (, ,) (INTJ (UH uh)) (, ,) (PP (IN about) (NP (NNP Coppell) (NNS schools)))) (, ,) (SBAR (IN that) (S (NP-SBJ (PRP they)) (VP (VBP 're) (ADJP-PRD (RB real) (JJ good))))))))))) (-DFL- E_S))",195
sw04utt/sw_0417_3237.utt,3/sw3237,3237,125,b,B,92,1,Uh-huh. /,[ Uh-huh/UH ] ./.,(INTJ (UH Uh-huh) (. .) (-DFL- E_S)),172
sw04utt/sw_0417_3237.utt,3/sw3237,3237,126,ba,A,93,1,-- that's neat. /,--/:  [ that/DT ] 's/BES neat/JJ ./.,(S (NP-SBJ (DT that)) (VP (BES 's) (ADJP-PRD (JJ neat))) (. .) (-DFL- E_S)),199
sw04utt/sw_0417_3237.utt,3/sw3237,3237,127,b,B,94,1,{F Um. } /,Um/UH ./.,(INTJ (UH Um) (. .) (-DFL- E_S)),201
sw04utt/sw_0417_3237.utt,3/sw3237,3237,128,qy,A,95,1,"[ Do you, +  do you ]  hope to have children,  /","Do/VBP  [ you/PRP ] ,/, do/VBP  [ you/PRP ] hope/VB to/TO have/VB  [ children/NNS ] ,/,","(SQ (EDITED (RM (-DFL- \[)) (SQ-UNF (VBP Do) (NP-SBJ (PRP you))) (, ,) (IP (-DFL- \+))) (VBP do) (NP-SBJ-1 (PRP you)) (RS (-DFL- \])) (VP (VB hope) (S (NP-SBJ (-NONE- *-1)) (VP (TO to) (VP (VB have) (NP (NNS children)))))) (, ,) (-DFL- E_S))",203
sw04utt/sw_0417_3237.utt,3/sw3237,3237,129,qrr,A,95,2,"{C or } are you not planning on having any,  /","or/CC are/VBP  [ you/PRP ] not/RB planning/VBG on/IN having/VBG  [ any/DT ] ,/,","(SQ (CC or) (VBP are) (NP-SBJ-1 (PRP you)) (RB not) (VP (VBG planning) (PP (IN on) (S-NOM (NP-SBJ (-NONE- *-1)) (VP (VBG having) (NP (DT any)))))) (, ,) (-DFL- E_S))",204
sw04utt/sw_0417_3237.utt,3/sw3237,3237,130,%,A,95,3,"{C or, } -/","or/CC ,/,","(S-UNF (CC or) (, ,) (-DFL- N_S))",205
sw04utt/sw_0417_3237.utt,3/sw3237,3237,131,ng,B,96,1,"I don't think so,  /","[ I/PRP ] do/VBP n't/RB think/VB so/RB ,/,","(S (NP-SBJ (PRP I)) (VP (VBP do) (RB n't) (VP (VB think) (ADVP (RB so)))) (, ,) (-DFL- E_S))",207
sw04utt/sw_0417_3237.utt,3/sw3237,3237,132,nn,B,96,2,no. /,no/UH ./.,(INTJ (UH no) (. .) (-DFL- E_S)),208
sw04utt/sw_0417_3237.utt,3/sw3237,3237,133,bk,A,97,1,I see. /,[ I/PRP ] see/VBP ./.,(S (NP-SBJ (PRP I)) (VP (VBP see)) (. .) (-DFL- E_S)),210
sw04utt/sw_0417_3237.utt,3/sw3237.pos,3237,134,x,B,98,1,<Laughter>.,./.,,
sw04utt/sw_0417_3237.utt,3/sw3237,3237,135,qy,A,99,1,"{D Well, } do you have any pets? /","Well/UH ,/, do/VBP  [ you/PRP ] have/VB  [ any/DT pets/NNS ] ?/.","(SQ (INTJ (UH Well)) (, ,) (VBP do) (NP-SBJ (PRP you)) (VP (VB have) (NP (DT any) (NNS pets))) (. ?) (-DFL- E_S))",213
sw04utt/sw_0417_3237.utt,3/sw3237,3237,136,na,B,100,1,"{F Oh, } of course, those are my kids -- /","Oh/UH ,/, of/IN  [ course/NN ] ,/,  [ those/DT ] are/VBP  [ my/PRP$ kids/NNS ] --/:","(S (INTJ (UH Oh)) (, ,) (PP (IN of) (NP (NN course))) (, ,) (NP-SBJ (DT those)) (VP (VBP are) (NP-PRD (PRP$ my) (NNS kids))) (-DFL- E_S))",215
sw04utt/sw_0417_3237.utt,3/sw3237,3237,137,b,A,101,1,"{F Oh, } yeah. /","Oh/UH ,/, yeah/UH ./.","(INTJ (INTJ (UH Oh)) (, ,) (INTJ (UH yeah)) (. .) (-DFL- E_S))",217
sw04utt/sw_0417_3237.utt,3/sw3237,3237,138,sd,B,102,1,-- I have two dogs. /,--/:  [ I/PRP ] have/VBP  [ two/CD dogs/NNS ] ./.,(S (NP-SBJ (PRP I)) (VP (VBP have) (NP (CD two) (NNS dogs))) (. .) (-DFL- E_S)),219
sw04utt/sw_0417_3237.utt,3/sw3237,3237,139,b,A,103,1,Uh-huh. /,[ Uh-huh/UH ] ./.,(INTJ (UH Uh-huh) (. .) (-DFL- E_S)),197
sw04utt/sw_0417_3237.utt,3/sw3237.pos,3237,140,x,B,104,1,<Laughter>.,./.,,
sw04utt/sw_0417_3237.utt,3/sw3237,3237,141,qy,A,105,1,"{D Well, } do they stay inside,  /","Well/UH ,/, do/VBP  [ they/PRP ] stay/VB inside/RB ,/,","(SQ (INTJ (UH Well)) (, ,) (VBP do) (NP-SBJ (PRP they)) (VP (VB stay) (ADVP-LOC (RB inside))) (, ,) (-DFL- E_S))",224
sw04utt/sw_0417_3237.utt,3/sw3237,3237,142,%,A,105,2,"{C or, } -/","or/CC ,/,","(S-UNF (CC or) (, ,) (-DFL- N_S))",205
sw04utt/sw_0417_3237.utt,3/sw3237,3237,143,ny,B,106,1,"Yeah,  /","Yeah/UH ,/,","(INTJ (UH Yeah) (, ,) (-DFL- E_S))",227
sw04utt/sw_0417_3237.utt,3/sw3237,3237,144,sd^e,B,106,2,they're inside dogs. /,[ they/PRP ] 're/VBP  [ inside/JJ dogs/NNS ] ./.,(S (NP-SBJ (PRP they)) (VP (VBP 're) (NP-PRD (JJ inside) (NNS dogs))) (. .) (-DFL- E_S)),228
sw04utt/sw_0417_3237.utt,3/sw3237,3237,145,ba,A,107,1,"{D Well, } [ that's, +  that's ] neat. /","Well/UH ,/,  [ that/DT ] 's/BES ,/,  [ that/DT ] 's/BES neat/JJ ./.","(S (INTJ (UH Well)) (, ,) (EDITED (RM (-DFL- \[)) (S (NP-SBJ (DT that)) (VP-UNF (BES 's))) (, ,) (IP (-DFL- \+))) (NP-SBJ (DT that)) (VP (BES 's) (RS (-DFL- \])) (ADJP-PRD (JJ neat))) (. .) (-DFL- E_S))",230
sw04utt/sw_0417_3237.utt,3/sw3237,3237,146,sd,B,108,1,They're my babies. /,[ They/PRP ] 're/VBP  [ my/PRP$ babies/NNS ] ./.,(S (NP-SBJ (PRP They)) (VP (VBP 're) (NP-PRD (PRP$ my) (NNS babies))) (. .) (-DFL- E_S)),232
sw04utt/sw_0417_3237.utt,3/sw3237,3237,147,b,A,109,1,Yeah. /,Yeah/UH ./.,(INTJ (UH Yeah) (. .) (-DFL- E_S)),234
sw04utt/sw_0417_3237.utt,3/sw3237.pos,3237,148,x,B,110,1,<Laughter>.,./.,,
sw04utt/sw_0417_3237.utt,3/sw3237,3237,149,qw,A,111,1,"{D Well, } what are the colors in your house? /","Well/UH ,/,  [ what/WP ] are/VBP  [ the/DT colors/NNS ] in/IN  [ your/PRP$ house/NN ] ?/.","(SBARQ (INTJ (UH Well)) (, ,) (WHNP-1 (WP what)) (SQ (NP-SBJ (-NONE- *T*-1)) (VP (VBP are) (NP-PRD (NP (DT the) (NNS colors)) (PP-LOC (IN in) (NP (PRP$ your) (NN house)))))) (. ?) (-DFL- E_S))",237
sw04utt/sw_0417_3237.utt,3/sw3237,3237,150,sd,B,112,1,"{F Uh, } {F um, } kind of a mauve and gray. /","[ Uh/UH ] ,/, um/UH ,/,  [ kind/RB ] of/RB  [ a/DT mauve/NN ] and/CC  [ gray/NN ] ./.","(FRAG (INTJ (UH Uh)) (, ,) (INTJ (UH um)) (, ,) (ADVP (RB kind) (RB of)) (NP (DT a) (NN mauve) (CC and) (NN gray)) (. .) (-DFL- E_S))",239
sw04utt/sw_0417_3237.utt,3/sw3237,3237,151,qy^d,A,113,1,"{F Oh, } I bet that's pretty. /","Oh/UH ,/,  [ I/PRP ] bet/VBP  [ that/DT ] 's/BES pretty/JJ ./.","(S (INTJ (UH Oh)) (, ,) (NP-SBJ (PRP I)) (VP (VBP bet) (SBAR (-NONE- 0) (S (NP-SBJ (DT that)) (VP (BES 's) (ADJP-PRD (JJ pretty)))))) (. .) (-DFL- E_S))",241
sw04utt/sw_0417_3237.utt,3/sw3237,3237,152,ny,B,114,1,"Uh-huh,  /","[ Uh-huh/UH ] ,/,","(INTJ (UH Uh-huh) (, ,) (-DFL- E_S))",243
sw04utt/sw_0417_3237.utt,3/sw3237,3237,153,sd^e,B,114,2,"{C and then } the kitchen's kind of [ a, + a  ]  country pink and  country blue,  /","and/CC then/RB  [ the/DT kitchen/NN 's/BES kind/RB ] of/RB  [ a/DT ] ,/,  [ a/DT country/NN ] pink/JJ and/CC  [ country/NN blue/JJ ] ,/,","(S (CONJP (CC and) (RB then)) (NP-SBJ (DT the) (NN kitchen)) (VP (BES 's) (ADVP (RB kind) (RB of)) (EDITED (RM (-DFL- \[)) (NP-PRD-UNF (DT a)) (, ,) (IP (-DFL- \+))) (NP-PRD (DT a) (RS (-DFL- \])) (NX (NX (NN country) (JJ pink)) (CC and) (NX (NN country) (JJ blue))))) (, ,) (-DFL- E_S))",244
sw04utt/sw_0417_3237.utt,3/sw3237,3237,154,sd,B,114,3,{C and } --,and/CC --/:,"(FRAG (INTJ (UH Uh)) (, ,) (INTJ (UH um)) (, ,) (ADVP (RB kind) (RB of)) (NP (DT a) (NN mauve) (CC and) (NN gray)) (. .) (-DFL- E_S))",239
sw04utt/sw_0417_3237.utt,3/sw3237,3237,155,b,A,115,1,Uh-huh. /,[ Uh-huh/UH ] ./.,(INTJ (UH Uh-huh) (. .) (-DFL- E_S)),221
sw04utt/sw_0417_3237.utt,3/sw3237,3237,156,+,B,116,1,"-- it's all done in cows,  /","--/:  [ it/PRP ] [ 's/BES all/DT ] done/VBN in/IN  [ cows/NNS ] ,/,","(S (CC and) (NP-SBJ-1 (PRP it)) (VP (BES 's) (DT all) (VP (VBN done) (NP (-NONE- *-1)) (PP (IN in) (NP (NNS cows))))) (, ,) (-DFL- E_S))",245
sw04utt/sw_0417_3237.utt,3/sw3237,3237,157,sd,B,116,2,I'm a cow nut <laughter>. /,[ I/PRP ] 'm/VBP  [ a/DT cow/NN nut/NN ] ./.,(S (NP-SBJ (PRP I)) (VP (VBP 'm) (NP-PRD (DT a) (NN cow) (NN nut))) (. .) (-DFL- E_S)),249
sw04utt/sw_0417_3237.utt,3/sw3237,3237,158,ba,A,117,1,"{F Oh, } that's neat.  /","Oh/UH ,/,  [ that/DT ] 's/BES neat/JJ ./.","(S (INTJ (UH Oh)) (, ,) (NP-SBJ (DT that)) (VP (BES 's) (ADJP-PRD (JJ neat))) (. .) (-DFL- E_S))",251
sw04utt/sw_0417_3237.utt,3/sw3237,3237,159,sd,A,117,2,"I like cows, too. /","[ I/PRP ] like/VBP  [ cows/NNS ] ,/, too/RB ./.","(S (NP-SBJ (PRP I)) (VP (VBP like) (NP (NNS cows)) (, ,) (ADVP (RB too))) (. .) (-DFL- E_S))",252
sw04utt/sw_0417_3237.utt,3/sw3237,3237,160,b,B,118,1,Uh-huh -- /,[ Uh-huh/UH ] --/:,(INTJ (UH Uh-huh) (-DFL- E_S)),254
sw04utt/sw_0417_3237.utt,3/sw3237,3237,161,b,A,119,1,Yeah -- /,Yeah/UH --/:,(INTJ (UH Yeah) (-DFL- E_S)),256
sw04utt/sw_0417_3237.utt,3/sw3237,3237,162,%,B,120,1,-- {D so. } -/,--/: so/RB ./.,(INTJ (UH so) (. .) (-DFL- N_S)),258
sw04utt/sw_0417_3237.utt,3/sw3237,3237,163,sd,A,121,1,"-- {D well, }  our  house was redo-,  {F uh, } - /","--/: well/UH ,/,  [ our/PRP$ house/NN ] was/VBD redo/VBN ,/,  [ uh/UH ] ,/,","(S (INTJ (UH well)) (, ,) (NP-SBJ (PRP$ our) (NN house)) (VP (VBD was) (VP-UNF (VBN redo-) (, ,) (INTJ (UH uh)))) (, ,) (-DFL- N_S))",260
sw04utt/sw_0417_3237.utt,3/sw3237,3237,164,sd,A,121,2,our house is very old  also -- /,[ our/PRP$ house/NN ] is/VBZ very/RB old/JJ also/RB --/:,(S (NP-SBJ (PRP$ our) (NN house)) (VP (VBZ is) (ADJP-PRD (RB very) (JJ old)) (ADVP (RB also))) (-DFL- E_S)),261
sw04utt/sw_0417_3237.utt,3/sw3237,3237,165,b,B,122,1,Uh-huh. /,[ Uh-huh/UH ] ./.,(INTJ (UH Uh-huh) (. .) (-DFL- E_S)),247
sw04utt/sw_0417_3237.utt,3/sw3237,3237,166,sd,A,123,1,-- it's like thirty-seven years old -- /,--/:  [ it/PRP ] [ 's/BES ] like/IN  [ thirty-seven/CD years/NNS ] old/JJ --/:,(S (NP-SBJ (PRP it)) (VP (BES 's) (INTJ (IN like)) (ADJP-PRD (NP-ADV (CD thirty-seven) (NNS years)) (JJ old))) (-DFL- E_S)),265
sw04utt/sw_0417_3237.utt,3/sw3237,3237,167,ba,B,124,1,Wow. /,[ Wow/UH ] ./.,(INTJ (UH Wow) (. .) (-DFL- E_S)),267
sw04utt/sw_0417_3237.utt,3/sw3237,3237,168,b,A,125,1,"-- yeah,  /","--/: yeah/UH ,/,","(INTJ (UH yeah) (, ,) (-DFL- E_S))",269
sw04utt/sw_0417_3237.utt,3/sw3237,3237,169,sd,A,125,2,"{C and } it was redone before we moved in, which, - /","and/CC  [ it/PRP ] was/VBD  [ redone/VBN ] before/IN  [ we/PRP ] moved/VBD in/IN ,/,  [ which/WDT ] ,/,","(S (CC and) (NP-SBJ-1 (PRP it)) (VP (VBD was) (VP (VP (VBN redone) (NP (-NONE- *-1)) (SBAR-TMP (IN before) (S (NP-SBJ (PRP we)) (VP (VBD moved) (ADVP-DIR (IN in)))))) (, ,) (SBAR-UNF (WHNP (WDT which))))) (, ,) (-DFL- N_S))",270
sw04utt/sw_0417_3237.utt,3/sw3237,3237,170,sd,A,125,3,"I'm thankful for that,  /","[ I/PRP ] 'm/VBP thankful/JJ for/IN  [ that/DT ] ,/,","(S (NP-SBJ (PRP I)) (VP (VBP 'm) (ADJP-PRD (JJ thankful) (PP (IN for) (NP (DT that))))) (, ,) (-DFL- E_S))",271
sw04utt/sw_0417_3237.utt,3/sw3237,3237,171,%,A,125,4,"{C but } the, - /","but/CC  [ the/DT ] ,/,","(S (CC but) (NP-SBJ-UNF (DT the)) (, ,) (-DFL- N_S))",272
sw04utt/sw_0417_3237.utt,3/sw3237,3237,172,sd,A,125,5,it was redone at the time probably when earth tones were in -- /,[ it/PRP ] was/VBD  [ redone/VBN ] at/IN  [ the/DT time/NN ] probably/RB when/WRB  [ earth/NN tones/NNS ] were/VBD in/IN --/:,(S (NP-SBJ-1 (PRP it)) (VP (VBD was) (VP (VBN redone) (NP (-NONE- *-1)) (PP-TMP (IN at) (NP (NP (DT the) (NN time)) (PRN (ADVP (RB probably))) (SBAR (WHADVP-2 (WRB when)) (S (NP-SBJ (NN earth) (NNS tones)) (VP (VBD were) (ADJP-PRD (IN in)) (ADVP-TMP (-NONE- *T*-2))))))))) (-DFL- E_S)),273
sw04utt/sw_0417_3237.utt,3/sw3237,3237,173,b,B,126,1,Yeah. /,Yeah/UH ./.,(INTJ (UH Yeah) (. .) (-DFL- E_S)),275
sw04utt/sw_0417_3237.utt,3/sw3237,3237,174,%,A,127,1,-- everything is -- -/,--/:  [ everything/NN ] is/VBZ --/:,(S (NP-SBJ (NN everything)) (VP-UNF (VBZ is)) (-DFL- N_S)),277
sw04utt/sw_0417_3237.utt,3/sw3237,3237,175,b,B,128,1,Yeah. /,Yeah/UH ./.,(INTJ (UH Yeah) (. .) (-DFL- E_S)),275
sw04utt/sw_0417_3237.utt,3/sw3237,3237,176,sd,A,129,1,"-- {D like, }  the carpet's kind of a tan and brown --","--/: like/UH ,/,  [ the/DT carpet/NN 's/BES kind/RB ] of/RB  [ a/DT tan/JJ ] and/CC  [ brown/JJ ] --/:","(S (INTJ (UH like)) (, ,) (NP-SBJ (DT the) (NN carpet)) (VP (VP (BES 's) (ADVP (RB kind) (RB of)) (NP-PRD (DT a) (JJ tan) (CC and) (JJ brown))) (CC and) (VP (VBZ has) (, ,) (INTJ (UH um)) (, ,) (NP (NP (NP (NN paneling)) (PP-LOC (IN in) (NP (DT the) (NN living) (NN room)))) (, ,) (CC and) (EDITED (RM (-DFL- \[)) (NP (NP (NNS lots)) (PP-UNF (IN of))) (, ,) (IP (-DFL- \+))) (NP (NP (NNS lots)) (RS (-DFL- \])) (PP (IN of) (NP (NNS tans)))) (CC and) (NP (NP (NNS lots)) (PP (IN of) (NP (NNS browns))))))) (-DFL- E_S))",281
sw04utt/sw_0417_3237.utt,3/sw3237,3237,177,b,B,130,1,Uh-huh. /,[ Uh-huh/UH ] ./.,(INTJ (UH Uh-huh) (. .) (-DFL- E_S)),263
sw04utt/sw_0417_3237.utt,3/sw3237,3237,178,+,A,131,1,"-- and has, {F um, } paneling in the living room, and  [ lots of, + lots ] of tans and lots of browns -- /","--/: and/CC has/VBZ ,/, um/UH ,/, paneling/NN in/IN  [ the/DT living/NN room/NN ] ,/, and/CC  [ lots/NNS ] of/IN ,/,  [ lots/NNS ] of/IN  [ tans/NNS ] and/CC  [ lots/NNS ] of/IN  [ browns/NNS ] --/:","(S (INTJ (UH like)) (, ,) (NP-SBJ (DT the) (NN carpet)) (VP (VP (BES 's) (ADVP (RB kind) (RB of)) (NP-PRD (DT a) (JJ tan) (CC and) (JJ brown))) (CC and) (VP (VBZ has) (, ,) (INTJ (UH um)) (, ,) (NP (NP (NP (NN paneling)) (PP-LOC (IN in) (NP (DT the) (NN living) (NN room)))) (, ,) (CC and) (EDITED (RM (-DFL- \[)) (NP (NP (NNS lots)) (PP-UNF (IN of))) (, ,) (IP (-DFL- \+))) (NP (NP (NNS lots)) (RS (-DFL- \])) (PP (IN of) (NP (NNS tans)))) (CC and) (NP (NP (NNS lots)) (PP (IN of) (NP (NNS browns))))))) (-DFL- E_S))",281
sw04utt/sw_0417_3237.utt,3/sw3237,3237,179,b,B,132,1,Uh-huh. /,[ Uh-huh/UH ] ./.,(INTJ (UH Uh-huh) (. .) (-DFL- E_S)),263
sw04utt/sw_0417_3237.utt,3/sw3237,3237,180,sv,A,133,1,-- {C but }  the good thing is you can bring out other colors from that -- /,--/: but/CC  [ the/DT good/JJ thing/NN ] is/VBZ  [ you/PRP ] can/MD bring/VB out/RB  [ other/JJ colors/NNS ] from/IN  [ that/DT ] --/:,(S (CC but) (NP-SBJ (DT the) (JJ good) (NN thing)) (VP (VBZ is) (SBAR-PRD (-NONE- 0) (S (NP-SBJ (PRP you)) (VP (MD can) (VP (VB bring) (PRT (RB out)) (NP (JJ other) (NNS colors)) (PP (IN from) (NP (DT that)))))))) (-DFL- E_S)),288
sw04utt/sw_0417_3237.utt,3/sw3237,3237,181,aa,B,134,1,"{F Oh, } yeah,  /","Oh/UH ,/, yeah/UH ,/,","(INTJ (INTJ (UH Oh)) (, ,) (INTJ (UH yeah)) (, ,) (-DFL- E_S))",290
sw04utt/sw_0417_3237.utt,3/sw3237,3237,182,aa^r,B,134,2,"yeah, /","yeah/UH ,/,","(INTJ (UH yeah) (, ,) (-DFL- E_S))",269
sw04utt/sw_0417_3237.utt,3/sw3237,3237,183,sd,A,135,1,"-- {D you know, } {C so, } {F uh, } that's worked out good.  /","--/:  [ you/PRP ] know/VBP ,/, so/RB ,/,  [ uh/UH ] ,/,  [ that/DT ] 's/HVS worked/VBN out/RP  [ good/RB ] ./.","(S (PRN (S (NP-SBJ (PRP you)) (VP (VBP know))) (, ,)) (RB so) (, ,) (INTJ (UH uh)) (, ,) (NP-SBJ (DT that)) (VP (HVS 's) (VP (VBN worked) (PRT (RP out)) (ADVP-MNR (RB good)))) (. .) (-DFL- E_S))",293
sw04utt/sw_0417_3237.utt,3/sw3237,3237,184,sd,A,135,2,"[ In the, +  in the ] kitchen they put real pretty  blue and tan, {F um, } wallpaper --","In/IN  [ the/DT ] ,/, in/IN  [ the/DT kitchen/NN ] [ they/PRP ] put/VBD real/RB pretty/JJ blue/JJ and/CC  [ tan/JJ ] ,/, um/UH ,/,  [ wallpaper/NN ] --/:","(S (EDITED (RM (-DFL- \[)) (PP-LOC (IN In) (NP-UNF (DT the))) (, ,) (IP (-DFL- \+))) (PP-LOC (IN in) (NP (DT the) (RS (-DFL- \])) (NN kitchen))) (NP-SBJ (PRP they)) (VP (VP (VBD put) (NP (ADJP (RB real) (JJ pretty)) (JJ blue) (CC and) (JJ tan) (, ,) (INTJ (UH um)) (, ,) (NN wallpaper))) (VP (VBD had) (VP (VBN done) (NP (PRP it)) (PRT (RP up)) (PP (IN with) (NP (NNS blues)))))) (, ,) (-DFL- E_S))",294
sw04utt/sw_0417_3237.utt,3/sw3237,3237,185,b,B,136,1,Uh-huh. /,[ Uh-huh/UH ] ./.,(INTJ (UH Uh-huh) (. .) (-DFL- E_S)),283
sw04utt/sw_0417_3237.utt,3/sw3237,3237,186,+,A,137,1,"-- had done it up with blues,  /","--/: had/VBD done/VBN  [ it/PRP ] up/RP with/IN  [ blues/NNS ] ,/,","(S (EDITED (RM (-DFL- \[)) (PP-LOC (IN In) (NP-UNF (DT the))) (, ,) (IP (-DFL- \+))) (PP-LOC (IN in) (NP (DT the) (RS (-DFL- \])) (NN kitchen))) (NP-SBJ (PRP they)) (VP (VP (VBD put) (NP (ADJP (RB real) (JJ pretty)) (JJ blue) (CC and) (JJ tan) (, ,) (INTJ (UH um)) (, ,) (NN wallpaper))) (VP (VBD had) (VP (VBN done) (NP (PRP it)) (PRT (RP up)) (PP (IN with) (NP (NNS blues)))))) (, ,) (-DFL- E_S))",294
sw04utt/sw_0417_3237.utt,3/sw3237,3237,187,ba,A,137,2,"{C so } that's nice,  /","so/IN  [ that/DT ] 's/BES nice/JJ ,/,","(S (RB so) (NP-SBJ (DT that)) (VP (BES 's) (ADJP-PRD (JJ nice))) (, ,) (-DFL- E_S))",298
sw04utt/sw_0417_3237.utt,3/sw3237,3237,188,%@,A,137,3,{C but } --,but/CC --/:,"(S (CC but) (NP-SBJ-UNF (DT the)) (, ,) (-DFL- N_S))",272
sw04utt/sw_0417_3237.utt,3/sw3237,3237,189,ba,B,138,1,"{F Oh, } sounds pretty. /","Oh/UH ,/, sounds/VBZ  [ pretty/JJ ] ./.","(S (INTJ (UH Oh)) (, ,) (NP-SBJ (-NONE- *)) (VP (VBZ sounds) (ADJP-PRD (JJ pretty))) (. .) (-DFL- E_S))",301
sw04utt/sw_0417_3237.utt,3/sw3237,3237,190,+@,A,139,1,"-- yeah,  /","--/: yeah/UH ,/,","(INTJ (UH yeah) (, ,) (-DFL- E_S))",291
sw04utt/sw_0417_3237.utt,3/sw3237,3237,191,aa,A,139,2,"yeah,  /","yeah/UH ,/,","(INTJ (UH yeah) (, ,) (-DFL- E_S))",291
sw04utt/sw_0417_3237.utt,3/sw3237,3237,192,sd,A,139,3,we've enjoyed living here. /,[ we/PRP ] 've/VBP enjoyed/VBN living/VBG here/RB ./.,(S (NP-SBJ-1 (PRP we)) (VP (VBP 've) (VP (VBN enjoyed) (S (NP-SBJ (-NONE- *-1)) (VP (VBG living) (ADVP-LOC (RB here)))))) (. .) (-DFL- E_S)),304
sw04utt/sw_0417_3237.utt,3/sw3237.pos,3237,193,x,B,140,1,<Laughter>.,./.,,
sw04utt/sw_0417_3237.utt,3/sw3237,3237,194,sd,A,141,1,"It's close to my, {F uh, } oldest daughter's school -- /","[ It/PRP ] 's/BES close/RB to/IN  [ my/PRP$ ] ,/,  [ uh/UH ] ,/,  [ oldest/JJS daughter/NN 's/POS school/NN ] --/:","(S (NP-SBJ (PRP It)) (VP (BES 's) (ADVP-LOC-PRD (RB close) (PP (IN to) (NP (NP (PRP$ my) (, ,) (INTJ (UH uh)) (, ,) (JJS oldest) (NN daughter) (POS 's)) (NN school))))) (-DFL- E_S))",307
sw04utt/sw_0417_3237.utt,3/sw3237,3237,195,b,B,142,1,Oh. /,Oh/UH ./.,(INTJ (UH Oh) (. .) (-DFL- E_S)),309
sw04utt/sw_0417_3237.utt,3/sw3237,3237,196,sd,A,143,1,"-- {C and } that makes it really handy, too -- /","--/: and/CC  [ that/DT ] makes/VBZ  [ it/PRP ] really/RB  [ handy/JJ ] ,/, too/RB --/:","(S (CC and) (NP-SBJ (DT that)) (VP (VBZ makes) (S (NP-SBJ (PRP it)) (ADJP-PRD (RB really) (JJ handy)) (, ,) (ADVP (RB too)))) (-DFL- E_S))",311
sw04utt/sw_0417_3237.utt,3/sw3237,3237,197,aa,B,144,1,"Uh-huh,  /","[ Uh-huh/UH ] ,/,","(INTJ (UH Uh-huh) (, ,) (-DFL- E_S))",313
sw04utt/sw_0417_3237.utt,3/sw3237,3237,198,aa^r,B,144,2,uh-huh. /,[ uh-huh/UH ] ./.,(INTJ (UH uh-huh) (. .) (-DFL- E_S)),314
sw04utt/sw_0417_3237.utt,3/sw3237,3237,199,sd,A,145,1,"-- {C and } she really likes her school,  /","--/: and/CC  [ she/PRP ] really/RB likes/VBZ  [ her/PRP$ ] [ school/NN ] ,/,","(S (CC and) (NP-SBJ (PRP she)) (ADVP (RB really)) (VP (VBZ likes) (NP (PRP$ her) (NN school))) (, ,) (-DFL- E_S))",316
sw04utt/sw_0417_3237.utt,3/sw3237,3237,200,%,A,145,2,{C so } -- -/,so/RB --/:,(S-UNF (RB so) (-DFL- N_S)),317
sw04utt/sw_0417_3237.utt,3/sw3237,3237,201,ba,B,146,1,Good. /,[ Good/UH ] ./.,(INTJ (UH Good) (. .) (-DFL- E_S)),319
sw04utt/sw_0417_3237.utt,3/sw3237,3237,202,sd,A,147,1,-- {C and } we are so close to shopping  /,--/: and/CC  [ we/PRP ] are/VBP so/RB close/RB to/IN shopping/NN,(S (CC and) (NP-SBJ (PRP we)) (VP (VBP are) (ADVP-LOC-PRD (RB so) (RB close) (PP (IN to) (NP (NN shopping))))) (-DFL- E_S)),321
sw04utt/sw_0417_3237.utt,3/sw3237,3237,203,%,A,147,2,{C and } ... -/,and/CC .../:,(S-UNF (CC and) (: ...) (-DFL- N_S)),322
sw04utt/sw_0417_3237.utt,3/sw3237,3237,204,sv,B,148,1,<Laughter> That's an important factor there <laughter>. /,[ That/DT ] 's/BES  [ an/DT important/JJ factor/NN ] there/RB ./.,(S (NP-SBJ (DT That)) (VP (BES 's) (NP-PRD (DT an) (JJ important) (NN factor)) (ADVP-LOC (RB there))) (. .) (-DFL- E_S)),324
sw04utt/sw_0417_3237.utt,3/sw3237,3237,205,aa,A,149,1,"Yeah,  /","Yeah/UH ,/,","(INTJ (UH Yeah) (, ,) (-DFL- E_S))",326
sw04utt/sw_0417_3237.utt,3/sw3237,3237,206,qo,A,149,2,how about in Coppell?  /,how/WRB about/IN in/IN  [ Coppell/NNP ] ?/.,(FRAG (WHADVP (WRB how)) (PP (IN about) (PP-LOC (IN in) (NP (NNP Coppell)))) (. ?) (-DFL- E_S)),327
sw04utt/sw_0417_3237.utt,3/sw3237,3237,207,sd,A,149,3,"I've always imagined it kind of [ out, +  away ] from everything. /","[ I/PRP ] 've/VBP always/RB imagined/VBN  [ it/PRP ] [ kind/RB ] of/RB out/RB ,/, away/RB from/IN  [ everything/NN ] ./.","(S (NP-SBJ (PRP I)) (VP (VBP 've) (ADVP-TMP (RB always)) (VP (VBN imagined) (S (NP-SBJ (PRP it)) (ADVP (RB kind) (RB of)) (RM (-DFL- \[)) (ADVP-LOC-PRD (ADVP (RB out)) (, ,) (IP (-DFL- \+)) (ADVP (RB away) (RS (-DFL- \])) (PP (IN from) (NP (NN everything)))))))) (. .) (-DFL- E_S))",328
sw04utt/sw_0417_3237.utt,3/sw3237,3237,208,sd,B,150,1,"{D Well, } {D you know, } now we have that new mall in Lewisville -- /","Well/UH ,/,  [ you/PRP ] know/VBP ,/, now/RB  [ we/PRP ] have/VBP  [ that/DT new/JJ mall/NN ] in/IN  [ Lewisville/NNP ] --/:","(S (INTJ (UH Well)) (PRN (, ,) (S (NP-SBJ (PRP you)) (VP (VBP know))) (, ,)) (ADVP-TMP (RB now)) (NP-SBJ (PRP we)) (VP (VBP have) (NP (NP (DT that) (JJ new) (NN mall)) (PP-LOC (IN in) (NP (NNP Lewisville))))) (-DFL- E_S))",330
sw04utt/sw_0417_3237.utt,3/sw3237,3237,209,bk,A,151,1,"{F Oh, } really, /","Oh/UH ,/, really/UH ,/,","(INTJ (INTJ (UH Oh)) (, ,) (INTJ (UH really)) (, ,) (-DFL- E_S))",332
sw04utt/sw_0417_3237.utt,3/sw3237,3237,210,sd,B,152,1,-- {C and } that's just {D like } a mile or two from our house -- /,--/: and/CC  [ that/DT ] 's/BES just/RB like/IN  [ a/DT mile/NN ] or/CC  [ two/CD ] from/IN  [ our/PRP$ house/NN ] --/:,(S (CC and) (NP-SBJ (DT that)) (VP (BES 's) (PP-LOC-PRD (NP-ADV (QP (RB just) (INTJ (UH like)) (DT a)) (NN mile) (QP (CC or) (CD two))) (IN from) (NP (PRP$ our) (NN house)))) (-DFL- E_S)),334
sw04utt/sw_0417_3237.utt,3/sw3237,3237,211,ba,A,153,1,"{F Oh, } {D well, } that's nice. /","Oh/UH ,/, well/UH ,/,  [ that/DT ] 's/BES nice/JJ ./.","(S (INTJ (UH Oh)) (, ,) (INTJ (UH well)) (, ,) (NP-SBJ (DT that)) (VP (BES 's) (ADJP-PRD (JJ nice))) (. .) (-DFL- E_S))",336
sw04utt/sw_0417_3237.utt,3/sw3237,3237,212,sd,B,154,1,"-- {C but, }  when we first moved to Coppell, {A it's what, six years ago, } we didn't even have a grocery store -- /","--/: but/CC ,/, when/WRB  [ we/PRP ] first/RB moved/VBD to/IN Coppell/NNP ,/,  [ it/PRP ] 's/BES  [ what/WP ] ,/,  [ six/CD years/NNS ] ago/RB ,/,  [ we/PRP ] did/VBD n't/RB even/RB have/VB  [ a/DT grocery/NN store/NN ] --/:","(S (CC but) (, ,) (SBAR-TMP (WHADVP-2 (WRB when)) (S (NP-SBJ (PRP we)) (ADVP-TMP (RB first)) (VP (VBD moved) (PP-DIR (IN to) (NP (NNP Coppell))) (PRN (, ,) (S (NP-SBJ (PRP it)) (VP (BES 's) (INTJ (WP what)) (ADVP-TMP-PRD (-NONE- *RNR*-1)))) (, ,)) (ADVP-TMP-1 (NP (CD six) (NNS years)) (RB ago)) (ADVP-TMP (-NONE- *T*-2))))) (, ,) (NP-SBJ (PRP we)) (VP (VBD did) (RB n't) (ADVP (RB even)) (VP (VB have) (NP (DT a) (NN grocery) (NN store)))) (-DFL- E_S))",338
sw04utt/sw_0417_3237.utt,3/sw3237,3237,213,ba,A,155,1,"{F Oh, } wow, /","Oh/UH ,/, wow/UH ,/,","(INTJ (INTJ (UH Oh)) (, ,) (INTJ (UH wow)) (, ,) (-DFL- E_S))",340
sw04utt/sw_0417_3237.utt,3/sw3237,3237,214,sd,B,156,1,-- {C and } now we have four <laughter> -- /,--/: and/CC now/RB  [ we/PRP ] have/VBP  [ four/CD ] --/:,(S (CC and) (ADVP-TMP (RB now)) (NP-SBJ (PRP we)) (VP (VBP have) (NP (CD four))) (-DFL- E_S)),342
sw04utt/sw_0417_3237.utt,3/sw3237,3237,215,bk,A,157,1,Oh. /,Oh/UH ./.,(INTJ (UH Oh) (. .) (-DFL- E_S)),344
sw04utt/sw_0417_3237.utt,3/sw3237,3237,216,sd,B,158,1,"-- {C and } Coppell's not really big enough to support [ fo-, +  four ] grocery stores -- /","--/: and/CC  [ Coppell/NNP ] 's/BES not/RB really/RB big/JJ enough/RB to/TO support/VB  [ fo-/CD ] ,/,  [ four/CD grocery/NN stores/NNS ] --/:","(S (CC and) (NP-SBJ (NNP Coppell)) (VP (BES 's) (RB not) (ADVP (RB really)) (ADJP-PRD (JJ big) (RB enough) (S (NP-SBJ (-NONE- *)) (VP (TO to) (VP (VB support) (EDITED (RM (-DFL- \[)) (NP-UNF (CD fo-)) (, ,) (IP (-DFL- \+))) (NP (CD four) (RS (-DFL- \])) (NN grocery) (NNS stores))))))) (-DFL- E_S))",346
sw04utt/sw_0417_3237.utt,3/sw3237,3237,217,aa,A,159,1,"Yeah,  /","Yeah/UH ,/,","(INTJ (UH Yeah) (, ,) (-DFL- E_S))",326
sw04utt/sw_0417_3237.utt,3/sw3237,3237,218,aa^r,A,159,2,yeah -- /,yeah/UH --/:,(INTJ (UH yeah) (-DFL- E_S)),349
sw04utt/sw_0417_3237.utt,3/sw3237,3237,219,%,B,160,1,"-- {D so, } -/","--/: so/UH ,/,","(INTJ (UH so) (, ,) (-DFL- N_S))",351
sw04utt/sw_0417_3237.utt,3/sw3237,3237,220,bf,A,161,1,-- {C but } it does sound like it's definitely growing. /,--/: but/CC  [ it/PRP ] does/VBZ  [ sound/VB ] like/IN  [ it/PRP ] 's/BES definitely/RB growing/VBG ./.,(S (CC but) (NP-SBJ (PRP it)) (VP (VBZ does) (VP (VB sound) (SBAR (IN like) (S (NP-SBJ (PRP it)) (VP (BES 's) (ADVP (RB definitely)) (VP (VBG growing))))))) (. .) (-DFL- E_S)),353
sw04utt/sw_0417_3237.utt,3/sw3237,3237,221,aa,B,162,1,"{F Oh, } [ much -- +","Oh/UH ,/, much/RB --/:","(FRAG (INTJ (UH Oh)) (, ,) (EDITED (RM (-DFL- \[)) (ADVP-UNF (RB much)) (IP (-DFL- \+))) (ADVP (RB very) (RB much)) (. .) (RS (-DFL- \])) (-DFL- E_S))",355
sw04utt/sw_0417_3237.utt,3/sw3237,3237,222,b,A,163,1,Yeah. /,Yeah/UH ./.,(INTJ (UH Yeah) (. .) (-DFL- E_S)),357
sw04utt/sw_0417_3237.utt,3/sw3237,3237,223,+,B,164,1,-- very much. ]  /,--/: very/RB much/RB ./.,"(FRAG (INTJ (UH Oh)) (, ,) (EDITED (RM (-DFL- \[)) (ADVP-UNF (RB much)) (IP (-DFL- \+))) (ADVP (RB very) (RB much)) (. .) (RS (-DFL- \])) (-DFL- E_S))",355
sw04utt/sw_0417_3237.utt,3/sw3237,3237,224,sd,B,164,2,"In fact, it's about the size now, - /","In/IN  [ fact/NN ] ,/,  [ it/PRP ] 's/BES about/RB  [ the/DT size/NN ] now/RB ,/,","(S (PP (IN In) (NP (NN fact))) (, ,) (NP-SBJ (PRP it)) (VP-UNF (BES 's) (ADVP (RB about)) (NP-PRD (DT the) (NN size)) (ADVP-TMP (RB now))) (, ,) (-DFL- N_S))",359
sw04utt/sw_0417_3237.utt,3/sw3237,3237,225,sd,B,164,3,"I moved down here from Chicago, what, twenty-three years ago --","[ I/PRP ] moved/VBD down/IN here/RB from/IN  [ Chicago/NNP ] ,/,  [ what/WP ] ,/,  [ twenty-three/CD years/NNS ] ago/RB --/:","(S (NP-SBJ (PRP I)) (VP (VBD moved) (PP-DIR (IN down) (ADVP (RB here))) (PP-DIR (IN from) (NP (NNP Chicago))) (, ,) (INTJ (WP what)) (, ,) (ADVP-TMP (NP (CD twenty-three) (NNS years)) (RB ago)) (EDITED (RM (-DFL- \[)) (CC and) (, ,) (IP (-DFL- \+))) (RS (-DFL- \])) (PP-DIR (IN to) (NP (NNP Lewisville)))) (-DFL- E_S))",360
sw04utt/sw_0417_3237.utt,3/sw3237,3237,226,b,A,165,1,"{F Oh, } uh-huh. /","Oh/UH ,/,  [ uh-huh/UH ] ./.","(INTJ (INTJ (UH Oh)) (, ,) (INTJ (UH uh-huh)) (. .) (-DFL- E_S))",362
sw04utt/sw_0417_3237.utt,3/sw3237,3237,227,+,B,166,1,"-- [ and, + ] to Lewisville -- /","--/: and/CC ,/, to/IN  [ Lewisville/NNP ] --/:","(S (NP-SBJ (PRP I)) (VP (VBD moved) (PP-DIR (IN down) (ADVP (RB here))) (PP-DIR (IN from) (NP (NNP Chicago))) (, ,) (INTJ (WP what)) (, ,) (ADVP-TMP (NP (CD twenty-three) (NNS years)) (RB ago)) (EDITED (RM (-DFL- \[)) (CC and) (, ,) (IP (-DFL- \+))) (RS (-DFL- \])) (PP-DIR (IN to) (NP (NNP Lewisville)))) (-DFL- E_S))",360
sw04utt/sw_0417_3237.utt,3/sw3237,3237,228,b,A,167,1,Uh-huh. /,[ Uh-huh/UH ] ./.,(INTJ (UH Uh-huh) (. .) (-DFL- E_S)),365
sw04utt/sw_0417_3237.utt,3/sw3237,3237,229,sd,B,168,1,"-- {C and } Coppell's now about the size that Lewisville was when, when I moved down here. /","--/: and/CC  [ Coppell/NNP ] 's/BES now/RB about/RB  [ the/DT size/NN ] [ that/DT Lewisville/NNP ] was/VBD when/WRB ,/, when/WRB  [ I/PRP ] moved/VBD down/IN here/RB ./.","(S (CC and) (NP-SBJ (NNP Coppell)) (VP (BES 's) (ADVP-TMP (RB now)) (NP-PRD (NP (RB about) (DT the) (NN size)) (SBAR (WHNP-1 (DT that)) (S (NP-SBJ (NNP Lewisville)) (VP (VBD was) (NP-PRD (-NONE- *T*-1)) (SBAR-TMP (EDITED (WHADVP (WRB when)) (, ,)) (WHADVP-2 (WRB when)) (S (NP-SBJ (PRP I)) (VP (VBD moved) (PP-DIR (IN down) (ADVP (RB here))) (ADVP-TMP (-NONE- *T*-2)))))))))) (. .) (-DFL- E_S))",367
sw04utt/sw_0417_3237.utt,3/sw3237,3237,230,b,A,169,1,"{F Oh, } I see. /","Oh/UH ,/,  [ I/PRP ] see/VBP ./.","(S (INTJ (UH Oh)) (, ,) (NP-SBJ (PRP I)) (VP (VBP see)) (. .) (-DFL- E_S))",369
sw04utt/sw_0417_3237.utt,3/sw3237.pos,3237,231,x,B,170,1,<Laughter>.,./.,,
sw04utt/sw_0417_3237.utt,3/sw3237,3237,232,sd,A,171,1,"{D Well, } when we first moved here, we moved here from Lubbock -- /","Well/UH ,/, when/WRB  [ we/PRP ] first/RB moved/VBD here/RB ,/,  [ we/PRP ] moved/VBD here/RB from/IN  [ Lubbock/NNP ] --/:","(S (INTJ (UH Well)) (, ,) (SBAR-TMP (WHADVP-1 (WRB when)) (S (NP-SBJ (PRP we)) (ADVP-TMP (RB first)) (VP (VBD moved) (ADVP-DIR (RB here)) (ADVP-TMP (-NONE- *T*-1))))) (, ,) (NP-SBJ (PRP we)) (VP (VBD moved) (ADVP-DIR (RB here)) (PP-DIR (IN from) (NP (NNP Lubbock)))) (-DFL- E_S))",372
sw04utt/sw_0417_3237.utt,3/sw3237,3237,233,b,B,172,1,Uh-huh. /,[ Uh-huh/UH ] ./.,(INTJ (UH Uh-huh) (. .) (-DFL- E_S)),365
sw04utt/sw_0417_3237.utt,3/sw3237,3237,234,sd,A,173,1,"-- {C and } we almost moved to Lewisville,  /","--/: and/CC  [ we/PRP ] almost/RB moved/VBD to/IN  [ Lewisville/NNP ] ,/,","(S (CC and) (NP-SBJ (PRP we)) (ADVP (RB almost)) (VP (VBD moved) (PP-DIR (IN to) (NP (NNP Lewisville)))) (, ,) (-DFL- E_S))",376
sw04utt/sw_0417_3237.utt,3/sw3237,3237,235,sd,A,173,2,that was --,[ that/WDT ] was/VBD --/:,"(S (NP-SBJ (WDT that)) (VP (VBD was) (NP-PRD (NP (PRP$ our) (JJ second) (NN choice)) (, ,) (INTJ (UH yeah)) (, ,) (PP (IN behind) (NP (NNP Garland))))) (, ,) (-DFL- E_S))",377
sw04utt/sw_0417_3237.utt,3/sw3237,3237,236,b,B,174,1,"{F Oh } really, /","Oh/UH really/UH ,/,","(INTJ (INTJ (UH Oh)) (INTJ (UH really)) (, ,) (-DFL- E_S))",379
sw04utt/sw_0417_3237.utt,3/sw3237,3237,237,+,A,175,1,"-- our second choice, {D yeah, } behind Garland,  /","--/:  [ our/PRP$ second/JJ choice/NN ] ,/, yeah/UH ,/, behind/IN  [ Garland/NNP ] ,/,","(S (NP-SBJ (WDT that)) (VP (VBD was) (NP-PRD (NP (PRP$ our) (JJ second) (NN choice)) (, ,) (INTJ (UH yeah)) (, ,) (PP (IN behind) (NP (NNP Garland))))) (, ,) (-DFL- E_S))",377
sw04utt/sw_0417_3237.utt,3/sw3237,3237,238,sd,A,175,2,"[ we, + at the time we ] thought we might buy a mobile home, /","[ we/PRP ] ,/, at/IN  [ the/DT time/NN ] [ we/PRP ] thought/VBD  [ we/PRP ] might/MD buy/VB  [ a/DT mobile/JJ home/NN ] ,/,","(S (EDITED (RM (-DFL- \[)) (NP-SBJ (PRP we)) (, ,) (IP (-DFL- \+))) (PP-TMP (IN at) (NP (DT the) (NN time))) (NP-SBJ (PRP we)) (RS (-DFL- \])) (VP (VBD thought) (SBAR (-NONE- 0) (S (NP-SBJ (PRP we)) (VP (MD might) (VP (VB buy) (NP (DT a) (JJ mobile) (NN home))))))) (, ,) (-DFL- E_S))",381
