swda_filename,ptb_basename,conversation_no,transcript_index,act_tag,caller,utterance_index,subutterance_index,text,pos,trees,ptb_treenumbers
sw04utt/sw_0430_3633.utt,3/sw3633,3633,0,o,A,1,1,((   ))  return anything. -/,[ MUMBLEx/XX ] return/VBP  [ anything/NN ] ./.,(X (X (XX MUMBLEx)) (VP (VBP return) (NP (NN anything))) (. .) (-DFL- N_S)),1
sw04utt/sw_0430_3633.utt,3/sw3633,3633,1,sd,B,2,1,"{D Well, } # really, #","Well/UH ,/, really/UH ,/,","(S (INTJ (UH Well)) (, ,) (INTJ (UH really)) (, ,) (NP-SBJ (NP (DT the) (JJ only) (NNS things)) (SBAR (WHNP-1 (WDT that)) (S (NP-SBJ (PRP I)) (VP (VBP have) (VP (VBN returned) (NP (-NONE- *T*-1))))))) (VP (VBP have) (RB not) (VP (VBN been) (ADJP-PRD (JJ faulty)))) (, ,) (-DFL- E_S))",3
sw04utt/sw_0430_3633.utt,3/sw3633.pos,3633,2,x,A,3,1,# <Throat_clearing>. #,./.,,
sw04utt/sw_0430_3633.utt,3/sw3633,3633,3,+,B,4,1,"the only things that I have returned have not been faulty,  /","[ the/DT only/JJ things/NNS ] that/WDT  [ I/PRP ] have/VBP returned/VBN have/VBP not/RB been/VBN faulty/JJ ,/,","(S (INTJ (UH Well)) (, ,) (INTJ (UH really)) (, ,) (NP-SBJ (NP (DT the) (JJ only) (NNS things)) (SBAR (WHNP-1 (WDT that)) (S (NP-SBJ (PRP I)) (VP (VBP have) (VP (VBN returned) (NP (-NONE- *T*-1))))))) (VP (VBP have) (RB not) (VP (VBN been) (ADJP-PRD (JJ faulty)))) (, ,) (-DFL- E_S))",3
sw04utt/sw_0430_3633.utt,3/sw3633,3633,4,sd,B,4,2,it's been because of the size or --,[ it/PRP ] 's/HVS been/VBN because/IN of/IN  [ the/DT size/NN ] or/CC --/:,(S (NP-SBJ (PRP it)) (VP (HVS 's) (VP (VBN been) (PP-PRP-PRD (IN because) (IN of) (NP (NP (DT the) (NN size)) (CC or) (NP (NP (DT some) (NN problem)) (PP (IN like) (NP (DT that)))))))) (. .) (-DFL- E_S)),6
sw04utt/sw_0430_3633.utt,3/sw3633,3633,5,b,A,5,1,# Right. # /,[ Right/UH ] ./.,(INTJ (UH Right) (. .) (-DFL- E_S)),8
sw04utt/sw_0430_3633.utt,3/sw3633,3633,6,+,B,6,1,-- # some # problem like that.  /,--/:  [ some/DT problem/NN ] like/IN  [ that/DT ] ./.,(S (NP-SBJ (PRP it)) (VP (HVS 's) (VP (VBN been) (PP-PRP-PRD (IN because) (IN of) (NP (NP (DT the) (NN size)) (CC or) (NP (NP (DT some) (NN problem)) (PP (IN like) (NP (DT that)))))))) (. .) (-DFL- E_S)),6
sw04utt/sw_0430_3633.utt,3/sw3633,3633,7,sd,B,6,2,I really haven't had to return things because they didn't perform the way they were supposed to. /,[ I/PRP ] really/RB have/VBP n't/RB had/VBN to/TO return/VB  [ things/NNS ] because/IN  [ they/PRP ] did/VBD n't/RB perform/VB  [ the/DT way/NN ] [ they/PRP ] were/VBD supposed/VBN to/TO ./.,(S (NP-SBJ-1 (PRP I)) (ADVP (RB really)) (VP (VBP have) (RB n't) (VP (VBN had) (S (NP-SBJ (-NONE- *-1)) (VP (TO to) (VP (VB return) (NP (NNS things)) (SBAR-PRP (IN because) (S (NP-SBJ (PRP they)) (VP (VBD did) (RB n't) (VP (VB perform) (NP-MNR (NP (DT the) (NN way)) (SBAR (WHADVP-3 (-NONE- 0)) (S (NP-SBJ-2 (PRP they)) (VP (VBD were) (VP (VBN supposed) (S (NP-SBJ (-NONE- *-2)) (VP (TO to) (VP (-NONE- *?*) (ADVP-MNR (-NONE- *T*-3))))))))))))))))))) (. .) (-DFL- E_S)),10
sw04utt/sw_0430_3633.utt,3/sw3633,3633,8,sv,A,7,1,"Most the time they have a pretty good guarantee,  /","Most/JJS  [ the/DT time/NN ] [ they/PRP ] have/VBP  [ a/DT pretty/RB good/JJ guarantee/NN ] ,/,","(S (NP-TMP (NP (JJS Most)) (X (NP (DT the) (NN time)))) (NP-SBJ (PRP they)) (VP (VBP have) (NP (DT a) (ADJP (RB pretty) (JJ good)) (NN guarantee))) (, ,) (-DFL- E_S))",12
sw04utt/sw_0430_3633.utt,3/sw3633,3633,9,%,A,7,2,yeah.  /,yeah/UH ./.,(INTJ (UH yeah) (. .) (-DFL- E_S)),13
sw04utt/sw_0430_3633.utt,3/sw3633,3633,10,sd,A,7,3,"The only thing I've had lately is, {F uh, } my kids got all these Barbie <ringing> kind of toys for, {F uh, } Christmas  /","[ The/DT only/JJ thing/NN ] [ I/PRP ] 've/VBP had/VBN lately/RB is/VBZ ,/,  [ uh/UH ] ,/,  [ my/PRP$ kids/NNS ] got/VBD  [ all/PDT these/DT Barbie/NNP kind/NN ] of/IN  [ toys/NNS ] for/IN ,/,  [ uh/UH ] ,/,  [ Christmas/NNP ]","(S (NP-SBJ (NP (DT The) (JJ only) (NN thing)) (SBAR (WHNP-1 (-NONE- 0)) (S (NP-SBJ (PRP I)) (VP (VBP 've) (VP (VBN had) (NP (-NONE- *T*-1)) (ADVP-TMP (RB lately))))))) (VP (VBZ is) (, ,) (INTJ (UH uh)) (, ,) (SBAR-PRD (-NONE- 0) (S (NP-SBJ (PRP$ my) (NNS kids)) (VP (VBD got) (NP (NP (PDT all) (DT these) (NNP Barbie) (NN kind)) (PP (IN of) (NP (NNS toys)))) (PP (IN for) (, ,) (INTJ (UH uh)) (, ,) (NP (NNP Christmas))))))) (-DFL- E_S))",14
sw04utt/sw_0430_3633.utt,3/sw3633,3633,11,sd,A,7,4,"{C and, }  {F uh, } [ i-, + it ]  takes them less than a day  /","and/CC ,/,  [ uh/UH ] ,/,  [ i-/PRP ] ,/,  [ it/PRP ] takes/VBZ  [ them/PRP ] less/RBR than/IN  [ a/DT day/NN ]","(S (CC and) (, ,) (INTJ (UH uh)) (, ,) (EDITED (RM (-DFL- \[)) (NP-SBJ-UNF (PRP i-)) (, ,) (IP (-DFL- \+))) (NP-SBJ (PRP it)) (RS (-DFL- \])) (VP (VBZ takes) (NP (PRP them)) (NP (QP (RBR less) (IN than) (DT a)) (NN day))) (-DFL- E_S))",15
sw04utt/sw_0430_3633.utt,3/sw3633,3633,12,sd,A,7,5,{C and } they're broken in one way or another.  /,and/CC  [ they/PRP ] 're/VBP broken/JJ in/IN  [ one/CD way/NN ] or/CC  [ another/DT ] ./.,(S (CC and) (NP-SBJ (PRP they)) (VP (VBP 're) (ADJP-PRD (JJ broken) (PP (IN in) (NP (NP (CD one) (NN way)) (CC or) (NP (DT another)))))) (. .) (-DFL- E_S)),16
sw04utt/sw_0430_3633.utt,3/sw3633,3633,13,sd,A,7,6,"{C But } I don't know if that's just kids, or if that's, {F uh, } - /","But/CC  [ I/PRP ] do/VBP n't/RB know/VB if/IN  [ that/DT ] 's/BES just/RB  [ kids/NNS ] ,/, or/CC if/IN  [ that/DT ] 's/BES ,/,  [ uh/UH ] ,/,","(S (CC But) (NP-SBJ (PRP I)) (VP (VBP do) (RB n't) (VP (VB know) (SBAR (SBAR (IN if) (S (NP-SBJ (DT that)) (VP (BES 's) (ADVP (RB just)) (NP-PRD (NNS kids))))) (, ,) (CC or) (SBAR (IN if) (S (NP-SBJ (DT that)) (VP-UNF (BES 's) (, ,) (INTJ (UH uh)))))))) (, ,) (-DFL- N_S))",17
sw04utt/sw_0430_3633.utt,3/sw3633,3633,14,sv,A,7,7,"<child> maybe those type of products [ sh-, + should ] be for older kids <child>. /","maybe/RB  [ those/DT type/NN ] of/IN  [ products/NNS ] sh/MD ,/, should/MD be/VB for/IN  [ older/JJR kids/NNS ] ./.","(S (ADVP (RB maybe)) (NP-SBJ (NP (DT those) (NN type)) (PP (IN of) (NP (NNS products)))) (EDITED (RM (-DFL- \[)) (VP-UNF (MD sh-)) (, ,) (IP (-DFL- \+))) (VP (MD should) (RS (-DFL- \])) (VP (VB be) (PP-PRD (IN for) (NP (JJR older) (NNS kids))))) (. .) (-DFL- E_S))",18
sw04utt/sw_0430_3633.utt,3/sw3633,3633,15,b,B,8,1,Uh-huh.  /,[ Uh-huh/UH ] ./.,(INTJ (UH Uh-huh) (. .) (-DFL- E_S)),20
sw04utt/sw_0430_3633.utt,3/sw3633,3633,16,qw,B,8,2,What age are your children? /,[ What/WDT age/NN ] are/VBP  [ your/PRP$ children/NNS ] ?/.,(SBARQ (WHNP-1 (WDT What) (NN age)) (SQ (VBP are) (NP-SBJ (PRP$ your) (NNS children)) (NP-PRD (-NONE- *T*-1))) (. ?) (-DFL- E_S)),21
sw04utt/sw_0430_3633.utt,3/sw3633,3633,17,sd,A,9,1,I have a five and a half and a three and a half year old that play with them <noise>. /,[ I/PRP ] have/VBP  [ a/DT five/CD ] and/CC  [ a/DT half/DT ] and/CC  [ a/DT three/CD ] and/CC  [ a/DT half/DT year/NN ] old/NN that/WDT  [ play/VBP ] with/IN  [ them/PRP ] ./.,(S (NP-SBJ (PRP I)) (VP (VBP have) (NP (NP (NP (DT a) (QP (CD five) (CC and) (DT a) (DT half)) (NX (-NONE- *RNR*-2))) (CC and) (NP (DT a) (QP (CD three) (CC and) (DT a) (DT half)) (NX (-NONE- *RNR*-2))) (NX-2 (NN year) (NN old))) (SBAR (WHNP-1 (WDT that)) (S (NP-SBJ (-NONE- *T*-1)) (VP (VBP play) (PP (IN with) (NP (PRP them)))))))) (. .) (-DFL- E_S)),23
sw04utt/sw_0430_3633.utt,3/sw3633,3633,18,b,B,10,1,Uh-huh <breathing>. /,[ Uh-huh/UH ] ./.,(INTJ (UH Uh-huh) (. .) (-DFL- E_S)),20
sw04utt/sw_0430_3633.utt,3/sw3633,3633,19,sd,A,11,1,"{C And, }  {F uh, } I don't think they're unduly rough,  /","And/CC ,/,  [ uh/UH ] ,/,  [ I/PRP ] do/VBP n't/RB think/VB  [ they/PRP ] 're/VBP unduly/RB  [ rough/JJ ] ,/,","(S (CC And) (, ,) (INTJ (UH uh)) (, ,) (NP-SBJ (PRP I)) (VP (VBP do) (RB n't) (VP (VB think) (SBAR (-NONE- 0) (S (NP-SBJ (PRP they)) (VP (VBP 're) (ADJP-PRD (RB unduly) (JJ rough))))))) (, ,) (-DFL- E_S))",27
sw04utt/sw_0430_3633.utt,3/sw3633,3633,20,sd,A,11,2,{C but } maybe they are.   /,but/CC maybe/RB  [ they/PRP ] are/VBP ./.,(S (CC but) (ADVP (RB maybe)) (NP-SBJ (PRP they)) (VP (VBP are) (ADJP-PRD (-NONE- *?*))) (. .) (-DFL- E_S)),28
sw04utt/sw_0430_3633.utt,3/sw3633,3633,21,h,A,11,3,I don't know.  /,[ I/PRP ] do/VBP n't/RB know/VB ./.,(S (NP-SBJ (PRP I)) (VP (VBP do) (RB n't) (VP (VB know))) (. .) (-DFL- E_S)),29
sw04utt/sw_0430_3633.utt,3/sw3633,3633,22,sd,A,11,4,"{C But, }  {F uh, } a lot of the little Barbie sets <ringing> they come with real <throat_clearing> little pieces <noise>  /","But/CC ,/,  [ uh/UH ] ,/,  [ a/DT lot/NN ] of/IN  [ the/DT little/JJ Barbie/NNP sets/NNS they/PRP ] come/VBP with/IN  [ real/RB little/JJ pieces/NNS ]","(S (CC But) (, ,) (INTJ (UH uh)) (, ,) (NP-TPC (NP (DT a) (NN lot)) (PP (IN of) (NP (DT the) (JJ little) (NNP Barbie) (NNS sets)))) (NP-SBJ (PRP they)) (VP (VBP come) (PP (IN with) (NP (RB real) (JJ little) (NNS pieces)))) (-DFL- E_S))",30
sw04utt/sw_0430_3633.utt,3/sw3633,3633,23,sd,A,11,5,{C and } they're easily lost and easily broken  /,and/CC  [ they/PRP ] 're/VBP easily/RB lost/VBN and/CC easily/RB broken/VBN,(S (CC and) (NP-SBJ-1 (PRP they)) (VP (VBP 're) (VP (VP (ADVP-MNR (RB easily)) (VBN lost) (NP (-NONE- *-1))) (CC and) (VP (ADVP-MNR (RB easily)) (VBN broken) (NP (-NONE- *-1))))) (-DFL- E_S)),31
sw04utt/sw_0430_3633.utt,3/sw3633,3633,24,%,A,11,6,"{C but, } -/","but/CC ,/,","(S-UNF (CC but) (, ,) (-DFL- N_S))",32
sw04utt/sw_0430_3633.utt,3/sw3633,3633,25,b,B,12,1,Uh-huh. /,[ Uh-huh/UH ] ./.,(INTJ (UH Uh-huh) (. .) (-DFL- E_S)),20
sw04utt/sw_0430_3633.utt,3/sw3633,3633,26,x,A,13,1,#  ((   )) . #,[ MUMBLEx/XX ] ./.,(X (XX MUMBLEx) (. .)),36
sw04utt/sw_0430_3633.utt,3/sw3633,3633,27,sd,B,14,1,"# {D Well, } # my daughter is twenty-one now,  /","Well/UH ,/,  [ my/PRP$ daughter/NN ] is/VBZ twenty-one/CD now/RB ,/,","(S (INTJ (UH Well)) (, ,) (NP-SBJ (PRP$ my) (NN daughter)) (VP (VBZ is) (NP-PRD (CD twenty-one)) (ADVP-TMP (RB now))) (, ,) (-DFL- E_S))",38
sw04utt/sw_0430_3633.utt,3/sw3633,3633,28,sd,B,14,2,{C so } it's been a while since we've had # Barbie things <laughter>. # /,so/RB  [ it/PRP ] 's/HVS been/VBN  [ a/DT while/NN ] since/IN  [ we/PRP ] 've/VBP had/VBN  [ Barbie/NNP things/NNS ] ./.,(S (RB so) (NP-SBJ (PRP it)) (VP (HVS 's) (VP (VBN been) (NP-PRD (DT a) (NN while)) (SBAR-TMP (IN since) (S (NP-SBJ (PRP we)) (VP (VBP 've) (VP (VBN had) (NP (NNP Barbie) (NNS things)))))))) (. .) (-DFL- E_S)),39
sw04utt/sw_0430_3633.utt,3/sw3633,3633,29,bf,A,15,1,"# It's been a while since they've, {F uh, } # gone through the Barbie stuff #  ((   )) . # /","[ It/PRP ] 's/HVS been/VBN  [ a/DT while/NN ] since/IN  [ they/PRP ] 've/VBP ,/,  [ uh/UH ] ,/, gone/VBN through/IN  [ the/DT Barbie/NNP stuff/NN MUMBLEx/XX ] ./.","(S (NP-SBJ (PRP It)) (VP (HVS 's) (VP (VBN been) (NP-PRD (DT a) (NN while)) (SBAR-TMP (IN since) (S (NP-SBJ (PRP they)) (VP (VBP 've) (, ,) (INTJ (UH uh)) (, ,) (VP (VBN gone) (PP (IN through) (NP (DT the) (NNP Barbie) (NN stuff))))))) (X (XX MUMBLEx)))) (. .) (-DFL- E_S))",41
sw04utt/sw_0430_3633.utt,3/sw3633,3633,30,sd,B,16,1,"# {C But } [ we # did have Barbies, + we did have Barbies ] and things,  /","But/CC  [ we/PRP ] did/VBD have/VB  [ Barbies/NNPS ] ,/,  [ we/PRP ] did/VBD have/VB  [ Barbies/NNPS ] and/CC  [ things/NNS ] ,/,","(S (CC But) (EDITED (RM (-DFL- \[)) (S (NP-SBJ (PRP we)) (VP (VBD did) (VP (VB have) (NP (NNPS Barbies))))) (, ,) (IP (-DFL- \+))) (NP-SBJ (PRP we)) (VP (VBD did) (VP (VB have) (NP (NNPS Barbies) (RS (-DFL- \])) (CC and) (NNS things)))) (, ,) (-DFL- E_S))",43
sw04utt/sw_0430_3633.utt,3/sw3633,3633,31,%,B,16,2,{C and } there - /,and/CC  [ there/EX ],(S-UNF (CC and) (NP-SBJ (EX there)) (-DFL- N_S)),44
sw04utt/sw_0430_3633.utt,3/sw3633,3633,32,sd,B,16,3,"seems to me [ that + that ] became a craze when she was already, {F oh, } {D like, } {D you know, }  third, fourth, fifth grade. /","seems/VBZ to/IN  [ me/PRP ] that/IN  [ that/DT ] became/VBD  [ a/DT craze/NN ] when/WRB  [ she/PRP ] was/VBD already/RB ,/, oh/UH ,/, like/UH ,/,  [ you/PRP ] know/VBP ,/,  [ third/JJ ] ,/,  [ fourth/JJ ] ,/,  [ fifth/JJ grade/NN ] ./.","(S (NP-SBJ (-NONE- *)) (VP (VBZ seems) (PP (IN to) (NP (PRP me))) (RM (-DFL- \[)) (SBAR (IN that) (IP (-DFL- \+)) (S (NP-SBJ (DT that)) (RS (-DFL- \])) (VP (VBD became) (NP-PRD (DT a) (NN craze)) (SBAR-TMP (WHADVP-1 (WRB when)) (S (NP-SBJ (PRP she)) (VP (VBD was) (ADVP-TMP (RB already)) (, ,) (INTJ (UH oh)) (, ,) (INTJ (UH like)) (PRN (, ,) (S (NP-SBJ (PRP you)) (VP (VBP know))) (, ,)) (NP-PRD (JJ third) (, ,) (JJ fourth) (, ,) (JJ fifth) (NN grade)) (ADVP-TMP (-NONE- *T*-1))))))))) (. .) (-DFL- E_S))",45
sw04utt/sw_0430_3633.utt,3/sw3633,3633,33,b,A,17,1,Right. /,[ Right/UH ] ./.,(INTJ (UH Right) (. .) (-DFL- E_S)),8
sw04utt/sw_0430_3633.utt,3/sw3633,3633,34,sd,B,18,1,"{C So } she wasn't in it for very long before she was out of it,  /","So/RB  [ she/PRP ] was/VBD n't/RB in/IN  [ it/PRP ] for/IN very/RB long/JJ before/IN  [ she/PRP ] was/VBD out/IN of/IN  [ it/PRP ] ,/,","(S (RB So) (NP-SBJ (PRP she)) (VP (VBD was) (RB n't) (PP-PRD (IN in) (NP (PRP it))) (PP-TMP (IN for) (ADVP (RB very) (JJ long))) (SBAR-TMP (IN before) (S (NP-SBJ (PRP she)) (VP (VBD was) (PP-PRD (IN out) (PP (IN of) (NP (PRP it)))))))) (, ,) (-DFL- E_S))",49
sw04utt/sw_0430_3633.utt,3/sw3633,3633,35,sd,B,18,2,"{C but, }  {F uh, } I don't remember her # breaking a lot of stuff. # /","but/CC ,/,  [ uh/UH ] ,/,  [ I/PRP ] do/VBP n't/RB remember/VB  [ her/PRP ] breaking/VBG  [ a/DT lot/NN ] of/IN  [ stuff/NN ] ./.","(S (CC but) (, ,) (INTJ (UH uh)) (, ,) (NP-SBJ (PRP I)) (VP (VBP do) (RB n't) (VP (VB remember) (S (NP-SBJ (PRP her)) (VP (VBG breaking) (NP (NP (DT a) (NN lot)) (PP (IN of) (NP (NN stuff)))))))) (. .) (-DFL- E_S))",50
sw04utt/sw_0430_3633.utt,3/sw3633,3633,36,b^m,A,19,1,"# Don't remember her # breaking, {F uh, } -/","Do/VBP n't/RB remember/VB  [ her/PRP ] breaking/VBG ,/,  [ uh/UH ] ,/,","(S (NP-SBJ (-NONE- *)) (VP (VBP Do) (RB n't) (VP (VB remember) (S (NP-SBJ (PRP her)) (VP-UNF (VBG breaking) (, ,) (INTJ (UH uh)))))) (, ,) (-DFL- N_S))",52
sw04utt/sw_0430_3633.utt,3/sw3633,3633,37,nn,B,20,1,"No,  /","No/UH ,/,","(INTJ (UH No) (, ,) (-DFL- E_S))",54
sw04utt/sw_0430_3633.utt,3/sw3633,3633,38,sd^e,B,20,2,I don't.  /,[ I/PRP ] do/VBP n't/RB ./.,(S (NP-SBJ (PRP I)) (VP (VBP do) (RB n't)) (. .) (-DFL- E_S)),55
sw04utt/sw_0430_3633.utt,3/sw3633,3633,39,sd,B,20,3,{C But } I also don't remember lots of little pieces #  /,But/CC  [ I/PRP ] also/RB do/VBP n't/RB remember/VB  [ lots/NNS ] of/IN  [ little/JJ pieces/NNS,(S (CC But) (NP-SBJ (PRP I)) (ADVP (RB also)) (VP (VBP do) (RB n't) (VP (VB remember) (NP (NP (NNS lots)) (PP (IN of) (NP (JJ little) (NNS pieces)))))) (-DFL- E_S)),56
sw04utt/sw_0430_3633.utt,3/sw3633,3633,40,sv,B,20,4,They've got so many different things with it now. # /,They/PRP ] 've/VBP got/VBN  [ so/RB many/JJ different/JJ things/NNS ] with/IN  [ it/PRP ] now/RB ./.,(S (NP-SBJ (PRP They)) (VP (VBP 've) (VP (VBN got) (NP (NP (ADJP (RB so) (JJ many)) (JJ different) (NNS things)) (PP (IN with) (NP (PRP it)))) (ADVP-TMP (RB now)))) (. .) (-DFL- E_S)),57
sw04utt/sw_0430_3633.utt,3/sw3633,3633,41,aa,A,21,1,"# {D Well, } that's one thing they've got.  /","Well/UH ,/, that/DT  [ 's/BES one/CD thing/NN ] [ they/PRP ] 've/VBP got/VBN ./.","(S (INTJ (UH Well)) (, ,) (NP-SBJ (DT that)) (VP (BES 's) (NP-PRD (NP (CD one) (NN thing)) (SBAR (WHNP-1 (-NONE- 0)) (S (NP-SBJ (PRP they)) (VP (VBP 've) (VP (VBN got) (NP (-NONE- *T*-1)))))))) (. .) (-DFL- E_S))",59
sw04utt/sw_0430_3633.utt,3/sw3633,3633,42,sv,A,21,2,"They've # got every type of imaginable, - /","[ They/PRP ] 've/VBP got/VBD  [ every/DT type/NN ] of/IN  [ imaginable/JJ ] ,/,","(S (NP-SBJ (PRP They)) (VP (VBP 've) (VP (VBD got) (NP (NP (DT every) (NN type)) (PP (IN of) (NP-UNF (JJ imaginable)))))) (, ,) (-DFL- N_S))",60
sw04utt/sw_0430_3633.utt,3/sw3633,3633,43,sd,A,21,3,"camping on the beach,  and all of these come with, {F oh, } {D like } tiny, tiny little plates and little sunglasses.  /","camping/NN on/IN  [ the/DT beach/NN ] ,/, and/CC  [ all/DT ] of/IN  [ these/DT ] come/VBP with/IN ,/, oh/UH ,/, like/UH  [ tiny/JJ ] ,/,  [ tiny/JJ little/JJ plates/NNS ] and/CC  [ little/JJ sunglasses/NNS ] ./.","(S (NP-SBJ (S (NP-SBJ (-NONE- *)) (VP (NN camping) (PP-LOC (IN on) (NP (DT the) (NN beach))))) (, ,) (CC and) (NP (NP (DT all)) (PP (IN of) (NP (DT these))))) (VP (VBP come) (PP (IN with) (, ,) (INTJ (UH oh)) (, ,) (INTJ (UH like)) (NP (JJ tiny) (, ,) (JJ tiny) (NX (NX (JJ little) (NNS plates)) (CC and) (NX (JJ little) (NNS sunglasses)))))) (. .) (-DFL- E_S))",61
sw04utt/sw_0430_3633.utt,3/sw3633,3633,44,%,A,21,4,"{C And, }  {F uh } -- -/","And/CC ,/,  [ uh/UH ] --/:","(S-UNF (CC And) (, ,) (INTJ (UH uh)) (-DFL- N_S))",62
sw04utt/sw_0430_3633.utt,3/sw3633,3633,45,ba,B,22,1,# Goodness. # /,[ Goodness/UH ] ./.,(INTJ (UH Goodness) (. .) (-DFL- E_S)),64
sw04utt/sw_0430_3633.utt,3/sw3633,3633,46,sd,A,23,1,"-- # my # three and a half year old has wanted this Ken doll,  /","--/:  [ my/PRP$ three/CD ] and/CC  [ a/DT half/JJ year/NN old/NN ] has/VBZ wanted/VBN  [ this/DT Ken/NNP doll/NN ] ,/,","(S (NP-SBJ (PRP$ my) (CD three) (CC and) (DT a) (JJ half) (NN year) (NN old)) (VP (VBZ has) (VP (VBN wanted) (NP (DT this) (NNP Ken) (NN doll)))) (, ,) (-DFL- E_S))",66
sw04utt/sw_0430_3633.utt,3/sw3633,3633,47,sd,A,23,2,"{C and so } I finally got her a Ken doll,  /","and/CC so/RB  [ I/PRP ] finally/RB got/VBD  [ her/PRP ] [ a/DT Ken/NNP doll/NN ] ,/,","(S (CONJP (CC and) (RB so)) (NP-SBJ (PRP I)) (ADVP-TMP (RB finally)) (VP (VBD got) (NP-BNF (PRP her)) (NP (DT a) (NNP Ken) (NN doll))) (, ,) (-DFL- E_S))",67
sw04utt/sw_0430_3633.utt,3/sw3633,3633,48,sd,A,23,3,"{C and, }  {F uh, } less than a week later the arm was broken. /","and/CC ,/,  [ uh/UH ] ,/, less/JJR than/IN  [ a/DT week/NN ] later/RB  [ the/DT arm/NN ] was/VBD broken/VBN ./.","(S (CC and) (, ,) (INTJ (UH uh)) (, ,) (ADVP-TMP (NP (QP (JJR less) (IN than) (DT a)) (NN week)) (RB later)) (NP-SBJ (DT the) (NN arm)) (VP (VBD was) (ADJP-PRD (VBN broken))) (. .) (-DFL- E_S))",68
sw04utt/sw_0430_3633.utt,3/sw3633,3633,49,ba,B,24,1,"{F Oh, } dear. /","Oh/UH ,/, dear/UH ./.","(INTJ (INTJ (UH Oh)) (, ,) (INTJ (UH dear)) (. .) (-DFL- E_S))",70
sw04utt/sw_0430_3633.utt,3/sw3633,3633,50,sd,A,25,1,{C But } they were real good about replacing it.  /,But/CC  [ they/PRP ] were/VBD real/RB good/JJ about/IN replacing/VBG  [ it/PRP ] ./.,(S (CC But) (NP-SBJ-1 (PRP they)) (VP (VBD were) (ADJP-PRD (RB real) (JJ good) (PP (IN about) (S-NOM (NP-SBJ (-NONE- *-1)) (VP (VBG replacing) (NP (PRP it))))))) (. .) (-DFL- E_S)),72
sw04utt/sw_0430_3633.utt,3/sw3633,3633,51,sd,A,25,2,"That's one nice thing, is they're real good about replacing it. /","[ That/DT ] 's/BES  [ one/CD ] [ nice/JJ thing/NN ] ,/, is/VBZ  [ they/PRP ] 're/VBP real/RB good/JJ about/IN replacing/VBG  [ it/PRP ] ./.","(S (S-SBJ (NP-SBJ (DT That)) (VP (BES 's) (NP-PRD (CD one) (JJ nice) (NN thing)))) (, ,) (VP (VBZ is) (SBAR-PRD (-NONE- 0) (S (NP-SBJ-1 (PRP they)) (VP (VBP 're) (ADJP-PRD (RB real) (JJ good) (PP (IN about) (S-NOM (NP-SBJ (-NONE- *-1)) (VP (VBG replacing) (NP (PRP it)))))))))) (. .) (-DFL- E_S))",73
sw04utt/sw_0430_3633.utt,3/sw3633,3633,52,sv,B,26,1,"{D Well, } {F uh, } I guess if they'll replace them, then they assume they shouldn't have broken. /","Well/UH ,/,  [ uh/UH ] ,/,  [ I/PRP ] guess/VBP if/IN  [ they/PRP ] 'll/MD replace/VB  [ them/PRP ] ,/, then/RB  [ they/PRP ] assume/VBP  [ they/PRP ] should/MD n't/RB have/VB broken/VBN ./.","(S (INTJ (UH Well)) (, ,) (INTJ (UH uh)) (, ,) (NP-SBJ (PRP I)) (VP (VBP guess) (SBAR (-NONE- 0) (S (SBAR-ADV (IN if) (S (NP-SBJ (PRP they)) (VP (MD 'll) (VP (VB replace) (NP (PRP them)))))) (, ,) (ADVP (RB then)) (NP-SBJ (PRP they)) (VP (VBP assume) (SBAR (-NONE- 0) (S (NP-SBJ (PRP they)) (VP (MD should) (RB n't) (VP (VB have) (VP (VBN broken)))))))))) (. .) (-DFL- E_S))",75
sw04utt/sw_0430_3633.utt,3/sw3633,3633,53,aa,A,27,1,Right.  /,[ Right/UH ] ./.,(INTJ (UH Right) (. .) (-DFL- E_S)),47
sw04utt/sw_0430_3633.utt,3/sw3633,3633,54,sd,A,27,2,"{D Well, } [ [ the, + the, ] + {D you know, } those ]  little arms are supposed to twist almost any # way  /","Well/UH ,/,  [ the/DT ] ,/,  [ the/DT ] ,/,  [ you/PRP ] know/VBP ,/,  [ those/DT little/JJ arms/NNS ] are/VBP supposed/VBN to/TO twist/VB almost/RB  [ any/DT way/NN ]","(S (INTJ (UH Well)) (, ,) (EDITED (RM (-DFL- \[)) (EDITED (RM (-DFL- \[)) (NP-SBJ-UNF (DT the)) (, ,) (IP (-DFL- \+))) (NP-SBJ-UNF (DT the)) (, ,) (RS (-DFL- \])) (IP (-DFL- \+))) (PRN (S (NP-SBJ (PRP you)) (VP (VBP know))) (, ,)) (NP-SBJ-1 (DT those) (RS (-DFL- \])) (JJ little) (NNS arms)) (VP (VBP are) (VP (VBN supposed) (S (NP-SBJ (-NONE- *-1)) (VP (TO to) (VP (VB twist) (NP-DIR (ADJP (RB almost) (DT any)) (NN way))))))) (-DFL- E_S))",78
sw04utt/sw_0430_3633.utt,3/sw3633,3633,55,%,A,27,3,and # -- -/,and/CC --/:,(S-UNF (CC and) (-DFL- N_S)),79
sw04utt/sw_0430_3633.utt,3/sw3633,3633,56,^2,B,28,1,# Any direction. # /,[ Any/DT direction/NN ] ./.,(NP (DT Any) (NN direction) (. .) (-DFL- E_S)),81
sw04utt/sw_0430_3633.utt,3/sw3633,3633,57,sd,A,29,1,"-- [ she's not that strong, that I # would # -- +","--/:  [ she/PRP ] 's/BES not/RB that/RB strong/JJ ,/, that/IN  [ I/PRP ] would/MD --/:","(S (EDITED (RM (-DFL- \[)) (S (NP-SBJ (PRP she)) (VP (BES 's) (RB not) (ADJP-PRD (ADJP (RB that) (JJ strong)) (, ,) (SBAR (IN that) (S (NP-SBJ (PRP I)) (VP-UNF (MD would))))))) (IP (-DFL- \+))) (NP-SBJ (PRP she)) (VP (BES 's) (RB not) (NP-PRD (NP (ADJP (RB that) (JJ big))) (PP (IN of) (NP (DT a) (NN girl))) (SBAR (WHNP-1 (IN that)) (S (NP-SBJ (PRP I)) (VP (VBP think) (SBAR (-NONE- 0) (S (NP-SBJ (-NONE- *T*-1)) (VP (MD could) (RS (-DFL- \])) (ADVP (RB really)) (VP (VB take) (NP (NP (DT a) (NN grip)) (PP (IN on) (NP (PRP it)))) (SBAR-MNR (IN like) (S (NP-SBJ (DT a) (JJR bigger) (NN kid)) (VP (MD could) (VP (-NONE- *?*))))))))))))) (PRN (, ,) (S (NP-SBJ (PRP you)) (VP (VBP know))))) (. .) (-DFL- E_S))",83
sw04utt/sw_0430_3633.utt,3/sw3633,3633,58,b,B,30,1,# Uh-huh. # /,[ Uh-huh/UH ] ./.,(INTJ (UH Uh-huh) (. .) (-DFL- E_S)),85
sw04utt/sw_0430_3633.utt,3/sw3633,3633,59,+,A,31,1,-- she's not that big of a girl that I think could ] really <breathing> --,--/:  [ she/PRP ] 's/BES not/RB that/RB  [ big/JJ ] of/IN  [ a/DT girl/NN ] that/IN  [ I/PRP ] think/VBP could/MD really/RB --/:,"(S (EDITED (RM (-DFL- \[)) (S (NP-SBJ (PRP she)) (VP (BES 's) (RB not) (ADJP-PRD (ADJP (RB that) (JJ strong)) (, ,) (SBAR (IN that) (S (NP-SBJ (PRP I)) (VP-UNF (MD would))))))) (IP (-DFL- \+))) (NP-SBJ (PRP she)) (VP (BES 's) (RB not) (NP-PRD (NP (ADJP (RB that) (JJ big))) (PP (IN of) (NP (DT a) (NN girl))) (SBAR (WHNP-1 (IN that)) (S (NP-SBJ (PRP I)) (VP (VBP think) (SBAR (-NONE- 0) (S (NP-SBJ (-NONE- *T*-1)) (VP (MD could) (RS (-DFL- \])) (ADVP (RB really)) (VP (VB take) (NP (NP (DT a) (NN grip)) (PP (IN on) (NP (PRP it)))) (SBAR-MNR (IN like) (S (NP-SBJ (DT a) (JJR bigger) (NN kid)) (VP (MD could) (VP (-NONE- *?*))))))))))))) (PRN (, ,) (S (NP-SBJ (PRP you)) (VP (VBP know))))) (. .) (-DFL- E_S))",83
sw04utt/sw_0430_3633.utt,3/sw3633,3633,60,b,B,32,1,Right. /,[ Right/UH ] ./.,(INTJ (UH Right) (. .) (-DFL- E_S)),77
sw04utt/sw_0430_3633.utt,3/sw3633,3633,61,+,A,33,1,"-- take a grip on it like a bigger kid could, {D you know. } /","--/: take/VB  [ a/DT grip/NN ] on/IN  [ it/PRP ] like/IN  [ a/DT bigger/JJR kid/NN ] could/MD ,/,  [ you/PRP ] know/VBP ./.","(S (EDITED (RM (-DFL- \[)) (S (NP-SBJ (PRP she)) (VP (BES 's) (RB not) (ADJP-PRD (ADJP (RB that) (JJ strong)) (, ,) (SBAR (IN that) (S (NP-SBJ (PRP I)) (VP-UNF (MD would))))))) (IP (-DFL- \+))) (NP-SBJ (PRP she)) (VP (BES 's) (RB not) (NP-PRD (NP (ADJP (RB that) (JJ big))) (PP (IN of) (NP (DT a) (NN girl))) (SBAR (WHNP-1 (IN that)) (S (NP-SBJ (PRP I)) (VP (VBP think) (SBAR (-NONE- 0) (S (NP-SBJ (-NONE- *T*-1)) (VP (MD could) (RS (-DFL- \])) (ADVP (RB really)) (VP (VB take) (NP (NP (DT a) (NN grip)) (PP (IN on) (NP (PRP it)))) (SBAR-MNR (IN like) (S (NP-SBJ (DT a) (JJR bigger) (NN kid)) (VP (MD could) (VP (-NONE- *?*))))))))))))) (PRN (, ,) (S (NP-SBJ (PRP you)) (VP (VBP know))))) (. .) (-DFL- E_S))",83
sw04utt/sw_0430_3633.utt,3/sw3633,3633,62,b,B,34,1,Yeah.  /,Yeah/UH ./.,(INTJ (UH Yeah) (. .) (-DFL- E_S)),91
sw04utt/sw_0430_3633.utt,3/sw3633,3633,63,sd,B,34,2,"The main thing that [ they've, + they had ] when my daughter was playing with Barbies was just clothes. /","[ The/DT main/JJ thing/NN ] that/WDT  [ they/PRP ] 've/VBP ,/,  [ they/PRP ] had/VBD when/WRB  [ my/PRP$ daughter/NN ] was/VBD playing/VBG with/IN  [ Barbies/NNPS ] was/VBD just/RB  [ clothes/NNS ] ./.","(S (NP-SBJ (NP (DT The) (JJ main) (NN thing)) (SBAR (WHNP-1 (WDT that)) (S (EDITED (RM (-DFL- \[)) (S (NP-SBJ (PRP they)) (VP-UNF (VBP 've))) (, ,) (IP (-DFL- \+))) (NP-SBJ (PRP they)) (VP (VBD had) (NP (-NONE- *T*-1)) (RS (-DFL- \])) (SBAR-TMP (WHADVP-2 (WRB when)) (S (NP-SBJ (PRP$ my) (NN daughter)) (VP (VBD was) (VP (VBG playing) (PP (IN with) (NP (NNPS Barbies))) (ADVP-TMP (-NONE- *T*-2)))))))))) (VP (VBD was) (ADVP (RB just)) (NP-PRD (NNS clothes))) (. .) (-DFL- E_S))",92
sw04utt/sw_0430_3633.utt,3/sw3633,3633,64,b,A,35,1,Yes. /,Yes/UH ./.,(INTJ (UH Yes) (. .) (-DFL- E_S)),94
sw04utt/sw_0430_3633.utt,3/sw3633,3633,65,sd,B,36,1,"{D You know, } that was about it. /","[ You/PRP ] know/VBP ,/,  [ that/DT ] was/VBD about/RB  [ it/PRP ] ./.","(S (PRN (S (NP-SBJ (PRP You)) (VP (VBP know))) (, ,)) (NP-SBJ (DT that)) (VP (VBD was) (ADVP (RB about)) (NP-PRD (PRP it))) (. .) (-DFL- E_S))",96
sw04utt/sw_0430_3633.utt,3/sw3633,3633,66,b^m,A,37,1,That was about it. /,[ That/DT ] was/VBD about/RB  [ it/PRP ] ./.,(S (NP-SBJ (DT That)) (VP (VBD was) (ADVP (RB about)) (NP-PRD (PRP it))) (. .) (-DFL- E_S)),98
sw04utt/sw_0430_3633.utt,3/sw3633,3633,67,b,B,38,1,Uh-huh. /,[ Uh-huh/UH ] ./.,(INTJ (UH Uh-huh) (. .) (-DFL- E_S)),85
sw04utt/sw_0430_3633.utt,3/sw3633,3633,68,sv,A,39,1,{C And } the Barbie doll itself is usually pretty durable and that kind of stuff  /,And/CC  [ the/DT Barbie/NNP doll/NN ] [ itself/PRP ] is/VBZ usually/RB pretty/RB durable/JJ and/CC that/DT  [ kind/NN ] of/IN  [ stuff/NN ],(S (CC And) (NP-SBJ (NP (DT the) (NNP Barbie) (NN doll)) (NP (PRP itself))) (VP (VBZ is) (ADVP-TMP (RB usually)) (ADJP-PRD (ADJP (RB pretty) (JJ durable)) (CC and) (NP-ETC (NP (DT that) (NN kind)) (PP (IN of) (NP (NN stuff)))))) (-DFL- E_S)),102
sw04utt/sw_0430_3633.utt,3/sw3633,3633,69,%,A,39,2,"{C but, } -/","but/CC ,/,","(S-UNF (CC but) (, ,) (-DFL- N_S))",103
sw04utt/sw_0430_3633.utt,3/sw3633,3633,70,sd,B,40,1,{C And } the main thing my kids seem to be into nowadays are electronics.  /,And/CC  [ the/DT main/JJ thing/NN my/PRP$ kids/NNS ] seem/VBP to/TO be/VB into/IN nowadays/RB are/VBP  [ electronics/NNS ] ./.,(S (CC And) (NP-SBJ (NP (DT the) (JJ main) (NN thing)) (SBAR (WHNP-2 (-NONE- 0)) (S (NP-SBJ-1 (PRP$ my) (NNS kids)) (VP (VBP seem) (S (NP-SBJ (-NONE- *-1)) (VP (TO to) (VP (VB be) (PP-PRD (IN into) (NP (-NONE- *T*-2))) (ADVP-TMP (RB nowadays))))))))) (VP (VBP are) (NP-PRD (NNS electronics))) (. .) (-DFL- E_S)),105
sw04utt/sw_0430_3633.utt,3/sw3633,3633,71,sd,B,40,2,"[ My, + my ] children are twenty-one and twenty-five and twenty-eight. /","[ My/PRP$ ] ,/,  [ my/PRP$ children/NNS ] are/VBP twenty-one/CD and/CC  [ twenty-five/CD ] and/CC  [ twenty-eight/CD ] ./.","(S (EDITED (RM (-DFL- \[)) (NP-SBJ-UNF (PRP$ My)) (, ,) (IP (-DFL- \+))) (NP-SBJ (PRP$ my) (RS (-DFL- \])) (NNS children)) (VP (VBP are) (NP-PRD (CD twenty-one) (CC and) (CD twenty-five) (CC and) (CD twenty-eight))) (. .) (-DFL- E_S))",106
sw04utt/sw_0430_3633.utt,3/sw3633,3633,72,bh,A,41,1,"{F Oh, } is that right? /","Oh/UH ,/, is/VBZ  [ that/DT right/JJ ] ?/.","(SQ (INTJ (UH Oh)) (, ,) (VBZ is) (NP-SBJ (DT that)) (ADJP-PRD (JJ right)) (. ?) (-DFL- E_S))",108
sw04utt/sw_0430_3633.utt,3/sw3633,3633,73,ny,B,42,1,Uh-huh #  /,[ Uh-huh/UH ],(INTJ (UH Uh-huh) (-DFL- E_S)),110
sw04utt/sw_0430_3633.utt,3/sw3633,3633,74,%,B,42,2,"{C and, }  # -/","and/CC ,/,","(S-UNF (CC and) (, ,) (-DFL- N_S))",111
sw04utt/sw_0430_3633.utt,3/sw3633,3633,75,qy,A,43,1,"# {D Well, } # do you see that there's a big problem with electronic things? /","Well/UH ,/, do/VBP  [ you/PRP ] see/VB that/IN  [ there/EX ] 's/BES  [ a/DT big/JJ problem/NN ] with/IN  [ electronic/JJ things/NNS ] ?/.","(SQ (INTJ (UH Well)) (, ,) (VBP do) (NP-SBJ (PRP you)) (VP (VB see) (SBAR (IN that) (S (NP-SBJ (EX there)) (VP (BES 's) (NP-PRD (NP (DT a) (JJ big) (NN problem)) (PP (IN with) (NP (JJ electronic) (NNS things)))))))) (. ?) (-DFL- E_S))",113
sw04utt/sw_0430_3633.utt,3/sw3633,3633,76,nn,B,44,1,"No,  /","No/UH ,/,","(INTJ (UH No) (, ,) (-DFL- E_S))",115
sw04utt/sw_0430_3633.utt,3/sw3633,3633,77,sd^e,B,44,2,not really.  /,not/RB really/RB ./.,(ADVP (RB not) (RB really) (. .) (-DFL- E_S)),116
sw04utt/sw_0430_3633.utt,3/sw3633,3633,78,sd,B,44,3,"We, {F uh, } haven't had that much, {D you know, } problem with things that we have bought.  /","[ We/PRP ] ,/,  [ uh/UH ] ,/, have/VBP n't/RB had/VBN that/RB much/JJ ,/,  [ you/PRP ] know/VBP ,/,  [ problem/NN ] with/IN  [ things/NNS ] that/WDT  [ we/PRP ] have/VBP bought/VBN ./.","(S (NP-SBJ (PRP We)) (, ,) (INTJ (UH uh)) (, ,) (VP (VBP have) (RB n't) (VP (VBN had) (NP (NP (ADJP (RB that) (JJ much)) (PRN (, ,) (S (NP-SBJ (PRP you)) (VP (VBP know))) (, ,)) (NN problem)) (PP (IN with) (NP (NP (NNS things)) (SBAR (WHNP-1 (WDT that)) (S (NP-SBJ (PRP we)) (VP (VBP have) (VP (VBN bought) (NP (-NONE- *T*-1))))))))))) (. .) (-DFL- E_S))",117
sw04utt/sw_0430_3633.utt,3/sw3633,3633,79,sd,B,44,4,"They seem [ to, + to ] last.  /","[ They/PRP ] seem/VBP to/TO ,/, to/TO last/VB ./.","(S (NP-SBJ-1 (PRP They)) (VP (VBP seem) (S (NP-SBJ (-NONE- *-1)) (EDITED (RM (-DFL- \[)) (VP-UNF (TO to)) (, ,) (IP (-DFL- \+))) (VP (TO to) (RS (-DFL- \])) (VP (VB last))))) (. .) (-DFL- E_S))",118
sw04utt/sw_0430_3633.utt,3/sw3633,3633,80,sd,B,44,5,"In fact, when they offer us extended warranties, [ we, + we ] don't buy them # because [ [ we've, + #","In/IN  [ fact/NN ] ,/, when/WRB  [ they/PRP ] offer/VBP  [ us/PRP ] extended/JJ  [ warranties/NNS ] ,/,  [ we/PRP ] ,/,  [ we/PRP ] do/VBP n't/RB buy/VB  [ them/PRP ] because/IN  [ we/PRP ] 've/VBP ,/,","(S (PP (IN In) (NP (NN fact))) (, ,) (SBAR-TMP (WHADVP-1 (WRB when)) (S (NP-SBJ (PRP they)) (VP (VBP offer) (NP (PRP us)) (NP (JJ extended) (NNS warranties)) (ADVP-TMP (-NONE- *T*-1))))) (, ,) (EDITED (RM (-DFL- \[)) (NP-SBJ (PRP we)) (, ,) (IP (-DFL- \+))) (NP-SBJ (PRP we)) (RS (-DFL- \])) (VP (VBP do) (RB n't) (VP (VB buy) (NP (PRP them)) (SBAR-PRP (IN because) (S (EDITED (RM (-DFL- \[)) (EDITED (RM (-DFL- \[)) (S (NP-SBJ (PRP we)) (VP-UNF (VBP 've))) (, ,) (IP (-DFL- \+))) (S (NP-SBJ (PRP We)) (VP-UNF (VBP don-))) (, ,) (RS (-DFL- \])) (IP (-DFL- \+))) (NP-SBJ (PRP we)) (VP (VBP find) (RS (-DFL- \])) (SBAR (-NONE- 0) (S (NP-SBJ (PRP we)) (VP (VBP do) (RB n't) (VP (VB need) (NP (PRP them))))))))))) (. .) (-DFL- E_S))",119
sw04utt/sw_0430_3633.utt,3/sw3633,3633,81,^2,A,45,1,# Don't # buy them because you don't need them. /,Do/VBP n't/RB buy/VB  [ them/PRP ] because/IN  [ you/PRP ] do/VBP n't/RB need/VB  [ them/PRP ] ./.,(S (NP-SBJ (-NONE- *)) (VP (VBP Do) (RB n't) (VP (VB buy) (NP (PRP them))) (SBAR-PRP (IN because) (S (NP-SBJ (PRP you)) (VP (VBP do) (RB n't) (VP (VB need) (NP (PRP them))))))) (. .) (-DFL- E_S)),121
sw04utt/sw_0430_3633.utt,3/sw3633,3633,82,+,B,46,1,"We don-, ] + we find ] we don't need them. /","[ We/PRP don/VBP ] ,/,  [ we/PRP ] find/VBP  [ we/PRP ] do/VBP n't/RB need/VB  [ them/PRP ] ./.","(S (PP (IN In) (NP (NN fact))) (, ,) (SBAR-TMP (WHADVP-1 (WRB when)) (S (NP-SBJ (PRP they)) (VP (VBP offer) (NP (PRP us)) (NP (JJ extended) (NNS warranties)) (ADVP-TMP (-NONE- *T*-1))))) (, ,) (EDITED (RM (-DFL- \[)) (NP-SBJ (PRP we)) (, ,) (IP (-DFL- \+))) (NP-SBJ (PRP we)) (RS (-DFL- \])) (VP (VBP do) (RB n't) (VP (VB buy) (NP (PRP them)) (SBAR-PRP (IN because) (S (EDITED (RM (-DFL- \[)) (EDITED (RM (-DFL- \[)) (S (NP-SBJ (PRP we)) (VP-UNF (VBP 've))) (, ,) (IP (-DFL- \+))) (S (NP-SBJ (PRP We)) (VP-UNF (VBP don-))) (, ,) (RS (-DFL- \])) (IP (-DFL- \+))) (NP-SBJ (PRP we)) (VP (VBP find) (RS (-DFL- \])) (SBAR (-NONE- 0) (S (NP-SBJ (PRP we)) (VP (VBP do) (RB n't) (VP (VB need) (NP (PRP them))))))))))) (. .) (-DFL- E_S))",119
sw04utt/sw_0430_3633.utt,3/sw3633,3633,83,b,A,47,1,Yes. /,Yes/UH ./.,(INTJ (UH Yes) (. .) (-DFL- E_S)),94
sw04utt/sw_0430_3633.utt,3/sw3633,3633,84,sv,B,48,1,"{C And, }  {F uh, } it seems like it's just [ a, + an ] added tack on.  /","And/CC ,/,  [ uh/UH ] ,/,  [ it/PRP ] seems/VBZ like/IN  [ it/PRP ] 's/BES just/RB  [ a/DT ] ,/,  [ an/DT added/VBN tack/VB ] on/RP ./.","(S (CC And) (, ,) (INTJ (UH uh)) (, ,) (NP-SBJ (PRP it)) (VP (VBZ seems) (SBAR (IN like) (S (NP-SBJ (PRP it)) (VP (BES 's) (ADVP (RB just)) (EDITED (RM (-DFL- \[)) (NP-PRD-UNF (DT a)) (, ,) (IP (-DFL- \+))) (NP-PRD (DT an) (RS (-DFL- \])) (VBN added) (TYPO (VB tack) (RP on))))))) (. .) (-DFL- E_S))",126
sw04utt/sw_0430_3633.utt,3/sw3633,3633,85,sv,B,48,2,"{C Plus } a lot of the credit cards now, {D you know, } will guarantee,  /","Plus/CC  [ a/DT lot/NN ] of/IN  [ the/DT credit/NN cards/NNS ] now/RB ,/,  [ you/PRP ] know/VBP ,/, will/MD guarantee/VB ,/,","(S (CC Plus) (NP-SBJ (NP (DT a) (NN lot)) (PP (IN of) (NP (DT the) (NN credit) (NNS cards))) (ADVP-TMP (RB now))) (PRN (, ,) (S (NP-SBJ (PRP you)) (VP (VBP know))) (, ,)) (VP (MD will) (VP (VB guarantee))) (, ,) (-DFL- E_S))",127
sw04utt/sw_0430_3633.utt,3/sw3633,3633,86,sv,B,48,3,if you purchase on your credit card --,if/IN  [ you/PRP ] purchase/VBP on/IN  [ your/PRP$ credit/NN card/NN ] --/:,"(S (SBAR-ADV (IN if) (S (NP-SBJ (PRP you)) (VP (VBP purchase) (PP (IN on) (NP (PRP$ your) (NN credit) (NN card)))))) (PRN (S (NP-SBJ (PRP you)) (VP (VBP know))) (, ,)) (ADVP (RB then)) (NP-SBJ (PRP they)) (VP (VBP put) (NP (DT an) (JJ extended) (NN warranty)) (PP (IN on) (NP (PRP it))) (SBAR-ADV (SBAR (IN if) (S (NP-SBJ (PRP it)) (VP (VBZ does) (RB n't) (VP (VB work))))) (CC or) (SBAR (IN if) (S (NP-SBJ (PRP you)) (VP (VBP have) (NP (NP (DT a) (NN problem)) (PP (IN with) (NP (PRP it)))) (PP-TMP (IN in) (NP (NP (DT a) (JJ certain) (NN period)) (PP (IN of) (NP (NN time)))))))))) (, ,) (-DFL- E_S))",128
sw04utt/sw_0430_3633.utt,3/sw3633,3633,87,b,A,49,1,"{F Oh, } yeah. #  ((   )) . # /","Oh/UH ,/, yeah/UH ./.  [ MUMBLEx/XX ] ./.","(INTJ (INTJ (UH Oh)) (, ,) (INTJ (UH yeah)) (. .))|||(X (XX MUMBLEx) (. .) (-DFL- E_S))",130|||131
sw04utt/sw_0430_3633.utt,3/sw3633,3633,88,+,B,50,1,"-- # {D you know, } # then they put an extended warranty on it if it doesn't work or if you have a problem with it in a certain period of time,  /","--/:  [ you/PRP ] know/VBP ,/, then/RB  [ they/PRP ] put/VBP  [ an/DT extended/JJ warranty/NN ] on/IN  [ it/PRP ] if/IN  [ it/PRP ] does/VBZ n't/RB  [ work/VB ] or/CC if/IN  [ you/PRP ] have/VBP  [ a/DT problem/NN ] with/IN  [ it/PRP ] in/IN  [ a/DT certa","(S (SBAR-ADV (IN if) (S (NP-SBJ (PRP you)) (VP (VBP purchase) (PP (IN on) (NP (PRP$ your) (NN credit) (NN card)))))) (PRN (S (NP-SBJ (PRP you)) (VP (VBP know))) (, ,)) (ADVP (RB then)) (NP-SBJ (PRP they)) (VP (VBP put) (NP (DT an) (JJ extended) (NN warranty)) (PP (IN on) (NP (PRP it))) (SBAR-ADV (SBAR (IN if) (S (NP-SBJ (PRP it)) (VP (VBZ does) (RB n't) (VP (VB work))))) (CC or) (SBAR (IN if) (S (NP-SBJ (PRP you)) (VP (VBP have) (NP (NP (DT a) (NN problem)) (PP (IN with) (NP (PRP it)))) (PP-TMP (IN in) (NP (NP (DT a) (JJ certain) (NN period)) (PP (IN of) (NP (NN time)))))))))) (, ,) (-DFL- E_S))",128
sw04utt/sw_0430_3633.utt,3/sw3633,3633,89,sv,B,50,2,{C so } it # seems # --,so/IN  [ it/PRP ] seems/VBZ --/:,(S (RB so) (NP-SBJ (PRP it)) (VP (VBZ seems) (SBAR (IN like) (S (NP-SBJ (PRP it)) (VP (BES 's) (NP-PRD (NP (DT a) (NN waste)) (PP (IN of) (NP (NN money)))))))) (. .) (-DFL- E_S)),133
sw04utt/sw_0430_3633.utt,3/sw3633,3633,90,b,A,51,1,# Yes. # /,Yes/UH ./.,(INTJ (UH Yes) (. .) (-DFL- E_S)),124
sw04utt/sw_0430_3633.utt,3/sw3633,3633,91,+,B,52,1,-- like it's a waste of money. /,--/: like/IN  [ it/PRP ] 's/BES  [ a/DT waste/NN ] of/IN  [ money/NN ] ./.,(S (RB so) (NP-SBJ (PRP it)) (VP (VBZ seems) (SBAR (IN like) (S (NP-SBJ (PRP it)) (VP (BES 's) (NP-PRD (NP (DT a) (NN waste)) (PP (IN of) (NP (NN money)))))))) (. .) (-DFL- E_S)),133
sw04utt/sw_0430_3633.utt,3/sw3633,3633,92,sv,A,53,1,"{D Well, } you almost assume if you're going to have problems with it,  it's usually [ bef-,  + before ] that warranty would expire  /","Well/UH ,/,  [ you/PRP ] almost/RB assume/VBP if/IN  [ you/PRP ] 're/VBP going/VBG to/TO have/VB  [ problems/NNS ] with/IN  [ it/PRP ] ,/,  [ it/PRP ] 's/BES usually/RB  [ bef-/IN ] ,/, before/IN  [ that/DT warranty/NN ] would/MD expire/VB","(S (INTJ (UH Well)) (, ,) (NP-SBJ (PRP you)) (ADVP (RB almost)) (VP (VBP assume) (SBAR (-NONE- 0) (S (SBAR-ADV (IN if) (S (NP-SBJ-1 (PRP you)) (VP (VBP 're) (VP (VBG going) (S (NP-SBJ (-NONE- *-1)) (VP (TO to) (VP (VB have) (NP (NP (NNS problems)) (PP (IN with) (NP (PRP it))))))))))) (, ,) (NP-SBJ (PRP it)) (VP (BES 's) (ADVP-TMP (RB usually)) (SBAR-TMP-PRD (EDITED (RM (-DFL- \[)) (SBAR-TMP-UNF (IN bef-)) (, ,) (IP (-DFL- \+))) (IN before) (RS (-DFL- \])) (S (NP-SBJ (DT that) (NN warranty)) (VP (MD would) (VP (VB expire))))))))) (-DFL- E_S))",138
sw04utt/sw_0430_3633.utt,3/sw3633,3633,93,%,A,53,2,"any, - /","[ any/DT ] ,/,","(X (DT any) (, ,) (-DFL- N_S))",139
sw04utt/sw_0430_3633.utt,3/sw3633,3633,94,%,A,53,3,the  first one. -/,[ the/DT first/JJ one/NN ] ./.,(NP (DT the) (JJ first) (NN one) (. .) (-DFL- N_S)),140
sw04utt/sw_0430_3633.utt,3/sw3633,3633,95,aa,B,54,1,Uh-huh.  /,[ Uh-huh/UH ] ./.,(INTJ (UH Uh-huh) (. .) (-DFL- E_S)),142
sw04utt/sw_0430_3633.utt,3/sw3633,3633,96,sd,B,54,2,"{C And } {D like } [ I've even bought, + on a recliner once I bought, ] {D you know, } [ [ a, + a, ] + an ] extended warranty for cleaning and stuff like that,  /","And/CC like/IN  [ I/PRP ] 've/VBP even/RB bought/VBN ,/, on/IN  [ a/DT recliner/NN ] once/IN  [ I/PRP ] bought/VBD ,/,  [ you/PRP ] know/VBP ,/,  [ a/DT ] ,/,  [ a/DT ] ,/,  [ an/DT extended/JJ warranty/NN ] for/IN  [ cleaning/NN ] and/CC  [ stuff/NN ] like/IN  [ that/DT ] ,/,","(S (CC And) (INTJ (UH like)) (EDITED (RM (-DFL- \[)) (S (NP-SBJ (PRP I)) (VP (VBP 've) (ADVP (RB even)) (VP-UNF (VBN bought)))) (, ,) (IP (-DFL- \+))) (PP (IN on) (NP (DT a) (NN recliner))) (ADVP-TMP (IN once)) (NP-SBJ (PRP I)) (VP (VBD bought) (PRN (, ,) (RS (-DFL- \])) (S (NP-SBJ (PRP you)) (VP (VBP know))) (, ,)) (EDITED (RM (-DFL- \[)) (EDITED (RM (-DFL- \[)) (NP-UNF (DT a)) (, ,) (IP (-DFL- \+))) (NP-UNF (DT a)) (, ,) (RS (-DFL- \])) (IP (-DFL- \+))) (NP (NP (DT an) (RS (-DFL- \])) (JJ extended) (NN warranty)) (PP (IN for) (NP (NP (NN cleaning)) (CC and) (NP (NP (NN stuff)) (PP (IN like) (NP (DT that)))))))) (, ,) (-DFL- E_S))",143
sw04utt/sw_0430_3633.utt,3/sw3633,3633,97,sd,B,54,3,{C and } I never used it. /,and/CC  [ I/PRP ] never/RB used/VBD  [ it/PRP ] ./.,(S (CC and) (NP-SBJ (PRP I)) (ADVP-TMP (RB never)) (VP (VBD used) (NP (PRP it))) (. .) (-DFL- E_S)),144
sw04utt/sw_0430_3633.utt,3/sw3633,3633,98,b,A,55,1,"You  never [ nee-, + even needed ] it. /","[ You/PRP ] never/RB  [ nee/VBD ] ,/, even/RB needed/VBD  [ it/PRP ] ./.","(S (NP-SBJ (PRP You)) (ADVP-TMP (RB never)) (EDITED (RM (-DFL- \[)) (VP-UNF (VBD nee-)) (, ,) (IP (-DFL- \+))) (ADVP (RB even)) (VP (VBD needed) (RS (-DFL- \])) (NP (PRP it))) (. .) (-DFL- E_S))",146
sw04utt/sw_0430_3633.utt,3/sw3633,3633,99,sv,B,56,1,{C And so } it seems ridiculous.  /,And/CC so/RB  [ it/PRP ] seems/VBZ  [ ridiculous/JJ ] ./.,(S (CONJP (CC And) (RB so)) (NP-SBJ (PRP it)) (VP (VBZ seems) (ADJP-PRD (JJ ridiculous))) (. .) (-DFL- E_S)),148
sw04utt/sw_0430_3633.utt,3/sw3633,3633,100,sd,B,56,2,"{C And } {D like } <breathing>,","And/CC like/IN ,/,","(S (CC And) (INTJ (UH like)) (, ,) (NP-TPC (NP (NNS washers)) (CC and) (NP (NNS dryers)) (CC and) (NP (NP (NNS things)) (PP (IN like) (NP (DT that))))) (, ,) (NP-SBJ (PRP I)) (VP (VBP 've) (ADVP-TMP (RB never)) (VP (VBN had) (S (NP-SBJ (CD one)) (VP (VB go) (PRT (RP out)))))) (. .) (-DFL- E_S))",149
sw04utt/sw_0430_3633.utt,3/sw3633.pos,3633,101,x,A,57,1,<Child>.,./.,,
sw04utt/sw_0430_3633.utt,3/sw3633,3633,102,+,B,58,1,"washers and dryers and things like that, I've never had one go out.  /","[ washers/NNS ] and/CC  [ dryers/NNS ] and/CC  [ things/NNS ] like/IN  [ that/DT ] ,/,  [ I/PRP ] 've/VBP never/RB had/VBN  [ one/CD ] go/VB out/RP ./.","(S (CC And) (INTJ (UH like)) (, ,) (NP-TPC (NP (NNS washers)) (CC and) (NP (NNS dryers)) (CC and) (NP (NP (NNS things)) (PP (IN like) (NP (DT that))))) (, ,) (NP-SBJ (PRP I)) (VP (VBP 've) (ADVP-TMP (RB never)) (VP (VBN had) (S (NP-SBJ (CD one)) (VP (VB go) (PRT (RP out)))))) (. .) (-DFL- E_S))",149
sw04utt/sw_0430_3633.utt,3/sw3633,3633,103,%,B,58,2,"In fact, they usually, - /","In/IN  [ fact/NN ] ,/,  [ they/PRP ] usually/RB ,/,","(S-UNF (PP (IN In) (NP (NN fact))) (, ,) (NP-SBJ (PRP they)) (ADVP-TMP (RB usually)) (, ,) (-DFL- N_S))",152
sw04utt/sw_0430_3633.utt,3/sw3633,3633,104,sd,B,58,3,"when they do go out, it's either something my husband can buy the part and fix  /","when/WRB  [ they/PRP ] do/VBP go/VB out/RP ,/,  [ it/PRP ] 's/BES either/CC  [ something/NN ] [ my/PRP$ husband/NN ] can/MD buy/VB  [ the/DT part/NN ] and/CC fix/VB","(S (SBAR-TMP (WHADVP-1 (WRB when)) (S (NP-SBJ (PRP they)) (VP (VBP do) (VP (VB go) (PRT (RP out)) (ADVP-TMP (-NONE- *T*-1)))))) (, ,) (NP-SBJ (PRP it)) (VP (BES 's) (ADVP (CC either)) (NP-PRD (NP (NN something)) (SBAR (WHNP-2 (-NONE- 0)) (S (NP-SBJ (PRP$ my) (NN husband)) (VP (MD can) (VP (VP (VB buy) (NP (DT the) (NN part))) (CC and) (VP (VB fix) (NP (-NONE- *T*-2))))))))) (-DFL- E_S))",153
sw04utt/sw_0430_3633.utt,3/sw3633,3633,105,sd,B,58,4,"{C and } we don't even have a repairman come,  /","and/CC  [ we/PRP ] do/VBP n't/RB even/RB have/VB  [ a/DT repairman/NN ] come/VBN ,/,","(S (CC and) (NP-SBJ (PRP we)) (VP (VBP do) (RB n't) (ADVP (RB even)) (VP (VB have) (S (NP-SBJ (DT a) (NN repairman)) (VP (VBN come))))) (, ,) (-DFL- E_S))",154
sw04utt/sw_0430_3633.utt,3/sw3633,3633,106,sd,B,58,5,{C or } it means it's old enough that it's time to replace # the whole thing. # /,or/CC  [ it/PRP ] means/VBZ  [ it/PRP ] 's/BES old/JJ enough/RB that/IN  [ it/PRP ] 's/BES  [ time/NN ] to/TO replace/VB  [ the/DT whole/JJ thing/NN ] ./.,(S (CC or) (NP-SBJ (PRP it)) (VP (VBZ means) (SBAR (-NONE- 0) (S (NP-SBJ (PRP it)) (VP (BES 's) (ADJP-PRD (ADJP (JJ old) (RB enough)) (SBAR (IN that) (S (NP-SBJ (PRP it)) (VP (BES 's) (NP-PRD (NP (NN time)) (SBAR (WHADVP-1 (-NONE- 0)) (S (NP-SBJ (-NONE- *)) (VP (TO to) (VP (VB replace) (NP (DT the) (JJ whole) (NN thing)) (ADVP-TMP (-NONE- *T*-1))))))))))))))) (. .) (-DFL- E_S)),155
sw04utt/sw_0430_3633.utt,3/sw3633,3633,107,b^m,A,59,1,# It's time to # replace it. /,[ It/PRP ] [ 's/BES time/NN ] to/TO replace/VB  [ it/PRP ] ./.,(S (NP-SBJ (PRP It)) (VP (BES 's) (NP-PRD (NP (NN time)) (SBAR (WHADVP-1 (-NONE- 0)) (S (NP-SBJ (-NONE- *)) (VP (TO to) (VP (VB replace) (NP (PRP it)) (ADVP-TMP (-NONE- *T*-1)))))))) (. .) (-DFL- E_S)),157
sw04utt/sw_0430_3633.utt,3/sw3633,3633,108,b,B,60,1,Uh-huh. /,[ Uh-huh/UH ] ./.,(INTJ (UH Uh-huh) (. .) (-DFL- E_S)),142
sw04utt/sw_0430_3633.utt,3/sw3633,3633,109,b,A,61,1,Yes. /,Yes/UH ./.,(INTJ (UH Yes) (. .) (-DFL- E_S)),135
sw04utt/sw_0430_3633.utt,3/sw3633,3633,110,%,B,62,1,"{C So, }  {E I # mean, } # -/","So/RB ,/,  [ I/PRP ] mean/VBP ,/,","(S-UNF (RB So) (PRN (, ,) (S (NP-SBJ (PRP I)) (VP (VBP mean)))) (, ,) (-DFL- N_S))",163
sw04utt/sw_0430_3633.utt,3/sw3633,3633,111,sv,A,63,1,"# I # think these extended warranties are gimmicks, really. /","[ I/PRP ] think/VBP  [ these/DT ] extended/JJ  [ warranties/NNS ] are/VBP  [ gimmicks/NNS ] ,/, really/RB ./.","(S (NP-SBJ (PRP I)) (VP (VBP think) (SBAR (-NONE- 0) (S (NP-SBJ (DT these) (JJ extended) (NNS warranties)) (VP (VBP are) (NP-PRD (NNS gimmicks)) (, ,) (ADVP (RB really)))))) (. .) (-DFL- E_S))",165
sw04utt/sw_0430_3633.utt,3/sw3633,3633,112,aa,B,64,1,I do too. /,[ I/PRP ] do/VBP too/RB ./.,(S (NP-SBJ (PRP I)) (VP (VBP do) (ADVP (RB too))) (. .) (-DFL- E_S)),167
sw04utt/sw_0430_3633.utt,3/sw3633,3633,113,sv,A,65,1,A lot of it.  /,[ A/DT lot/NN ] of/IN  [ it/PRP ] ./.,(NP (NP (DT A) (NN lot)) (PP (IN of) (NP (PRP it))) (. .) (-DFL- E_S)),169
sw04utt/sw_0430_3633.utt,3/sw3633,3633,114,sd,A,65,2,"[ We bought, + when we first married, we bought ]  one on our T V  /","[ We/PRP ] bought/VBD ,/, when/WRB  [ we/PRP ] first/RB married/VBD ,/,  [ we/PRP ] bought/VBD  [ one/CD ] on/IN  [ our/PRP$ T/NN V/NN ]","(S (EDITED (RM (-DFL- \[)) (S (NP-SBJ (PRP We)) (VP-UNF (VBD bought))) (, ,) (IP (-DFL- \+))) (SBAR-TMP (WHADVP-1 (WRB when)) (S (NP-SBJ (PRP we)) (ADVP-TMP (RB first)) (VP (VBD married) (ADVP-TMP (-NONE- *T*-1))))) (, ,) (NP-SBJ (PRP we)) (VP (VBD bought) (RS (-DFL- \])) (NP (CD one)) (PP (IN on) (NP (PRP$ our) (NN T) (NN V)))) (-DFL- E_S))",170
sw04utt/sw_0430_3633.utt,3/sw3633,3633,115,%,A,65,3,"<lipsmack> {C and } that there's, - /","and/CC that/IN  [ there/EX ] 's/BES ,/,","(S (CC and) (NP-SBJ (NP (IN that)) (ADVP (EX there))) (VP-UNF (BES 's)) (, ,) (-DFL- N_S))",171
sw04utt/sw_0430_3633.utt,3/sw3633,3633,116,sd,A,65,4,"[ it was a five year, + after the first five years, ] - /","[ it/PRP ] was/VBD  [ a/DT five/CD year/NN ] ,/, after/IN  [ the/DT first/JJ five/CD years/NNS ] ,/,","(S-UNF (EDITED (RM (-DFL- \[)) (S (NP-SBJ (PRP it)) (VP (VBD was) (NP-PRD-UNF (DT a) (ADJP (CD five) (NN year))))) (, ,) (IP (-DFL- \+))) (PP-TMP (IN after) (NP (DT the) (JJ first) (CD five) (NNS years))) (, ,) (RS (-DFL- \])) (-DFL- N_S))",172
sw04utt/sw_0430_3633.utt,3/sw3633,3633,117,sd,A,65,5,{C and } it was ridiculous. /,and/CC  [ it/PRP ] was/VBD ridiculous/JJ ./.,(S (CC and) (NP-SBJ (PRP it)) (VP (VBD was) (ADJP-PRD (JJ ridiculous))) (. .) (-DFL- E_S)),173
sw04utt/sw_0430_3633.utt,3/sw3633,3633,118,b,B,66,1,Uh-huh.  /,[ Uh-huh/UH ] ./.,(INTJ (UH Uh-huh) (. .) (-DFL- E_S)),142
sw04utt/sw_0430_3633.utt,3/sw3633,3633,119,sv,B,66,2,{C And } they charge you a pretty good price for them # too. # /,And/CC  [ they/PRP ] charge/VBP  [ you/PRP ] [ a/DT pretty/RB good/JJ price/NN ] for/IN  [ them/PRP ] too/RB ./.,(S (CC And) (NP-SBJ (PRP they)) (VP (VBP charge) (NP (PRP you)) (NP (DT a) (ADJP (RB pretty) (JJ good)) (NN price)) (PP (IN for) (NP (PRP them))) (ADVP (RB too))) (. .) (-DFL- E_S)),176
sw04utt/sw_0430_3633.utt,3/sw3633,3633,120,aa,A,67,1,# Yes. #  /,Yes/UH ./.,(INTJ (UH Yes) (. .) (-DFL- E_S)),161
sw04utt/sw_0430_3633.utt,3/sw3633,3633,121,sv,A,67,2,"They're a pretty healthy price,  /","[ They/PRP ] 're/VBP  [ a/DT pretty/RB healthy/JJ price/NN ] ,/,","(S (NP-SBJ (PRP They)) (VP (VBP 're) (NP-PRD (DT a) (ADJP (RB pretty) (JJ healthy)) (NN price))) (, ,) (-DFL- E_S))",179
sw04utt/sw_0430_3633.utt,3/sw3633,3633,122,sv(^q),A,67,3,"{C and } you're trying to think {F oh, } maybe I'll need this.  /","and/CC  [ you/PRP ] 're/VBP trying/VBG to/TO think/VB oh/UH ,/, maybe/RB  [ I/PRP ] 'll/MD need/VB  [ this/DT ] ./.","(S (CC and) (NP-SBJ-1 (PRP you)) (VP (VBP 're) (VP (VBG trying) (S (NP-SBJ (-NONE- *-1)) (VP (TO to) (VP (VB think) (S-SEZ (INTJ (UH oh)) (, ,) (ADVP (RB maybe)) (NP-SBJ (PRP I)) (VP (MD 'll) (VP (VB need) (NP (DT this)))))))))) (. .) (-DFL- E_S))",180
sw04utt/sw_0430_3633.utt,3/sw3633,3633,123,sv(^q),A,67,4,"[ You never, + you always ] think gosh, if I say no, then I won't, {D you know. } /","[ You/PRP ] never/RB ,/,  [ you/PRP ] always/RB think/VBP gosh/UH ,/, if/IN  [ I/PRP ] say/VBP no/UH ,/, then/RB  [ I/PRP ] wo/MD n't/RB ,/,  [ you/PRP ] know/VBP ./.","(S (EDITED (RM (-DFL- \[)) (S-UNF (NP-SBJ (PRP You)) (ADVP-TMP (RB never))) (, ,) (IP (-DFL- \+))) (NP-SBJ (PRP you)) (ADVP-TMP (RB always)) (RS (-DFL- \])) (VP (VBP think) (S-SEZ (INTJ (UH gosh)) (, ,) (SBAR-ADV (IN if) (S (NP-SBJ (PRP I)) (VP (VBP say) (INTJ-SEZ (UH no))))) (, ,) (ADVP (RB then)) (NP-SBJ (PRP I)) (VP-UNF (MD wo) (RB n't) (PRN (, ,) (S (NP-SBJ (PRP you)) (VP (VBP know))))))) (. .) (-DFL- E_S))",181
sw04utt/sw_0430_3633.utt,3/sw3633,3633,124,b,B,68,1,Uh-huh. /,[ Uh-huh/UH ] ./.,(INTJ (UH Uh-huh) (. .) (-DFL- E_S)),159
sw04utt/sw_0430_3633.utt,3/sw3633,3633,125,%,A,69,1,"{C But, } -/","But/CC ,/,","(S-UNF (CC But) (, ,) (-DFL- N_S))",185
sw04utt/sw_0430_3633.utt,3/sw3633,3633,126,sd,B,70,1,"{D Well, } # my husband # --","Well/UH ,/,  [ my/PRP$ husband/NN ] --/:","(S (INTJ (UH Well)) (, ,) (NP-SBJ (PRP$ my) (NN husband)) (ADVP-TMP (RB finally)) (ADVP (RB just)) (VP (VBD put) (NP (PRP$ his) (NN foot)) (PRT (RB down))) (-DFL- E_S))",187
sw04utt/sw_0430_3633.utt,3/sw3633,3633,127,h,A,71,1,# I don't know. # /,[ I/PRP ] do/VBP n't/RB know/VB ./.,(S (NP-SBJ (PRP I)) (VP (VBP do) (RB n't) (VP (VB know))) (. .) (-DFL- E_S)),189
sw04utt/sw_0430_3633.utt,3/sw3633,3633,128,+,B,72,1,-- finally just put his foot down  /,--/: finally/RB just/RB put/VBD  [ his/PRP$ foot/NN ] down/RB,"(S (INTJ (UH Well)) (, ,) (NP-SBJ (PRP$ my) (NN husband)) (ADVP-TMP (RB finally)) (ADVP (RB just)) (VP (VBD put) (NP (PRP$ his) (NN foot)) (PRT (RB down))) (-DFL- E_S))",187
sw04utt/sw_0430_3633.utt,3/sw3633,3633,129,sd(^q),B,72,2,"{C and } he said we're not going to buy any of these anymore,  /","and/CC  [ he/PRP ] said/VBD  [ we/PRP ] 're/VBP not/RB going/VBG to/TO buy/VB  [ any/DT ] of/IN  [ these/DT ] anymore/RB ,/,","(S (CC and) (NP-SBJ (PRP he)) (VP (VBD said) (SBAR (-NONE- 0) (S (NP-SBJ-1 (PRP we)) (VP (VBP 're) (RB not) (VP (VBG going) (S (NP-SBJ (-NONE- *-1)) (VP (TO to) (VP (VB buy) (NP (NP (DT any)) (PP (IN of) (NP (DT these))))))) (ADVP-TMP (RB anymore))))))) (, ,) (-DFL- E_S))",191
sw04utt/sw_0430_3633.utt,3/sw3633,3633,130,sd(^q),B,72,3,"{C and } if it goes out, {D well } --","and/CC if/IN  [ it/PRP ] goes/VBZ out/RP ,/, well/UH --/:","(S-UNF (CC and) (SBAR-ADV (IN if) (S (NP-SBJ (PRP it)) (VP (VBZ goes) (PRT (RP out))))) (, ,) (INTJ (UH well)) (PRN (S (NP-SBJ (PRP you)) (VP (VBP know)))) (. .) (-DFL- N_S))",192
sw04utt/sw_0430_3633.utt,3/sw3633,3633,131,sv,A,73,1,You # probably # --,[ You/PRP ] probably/RB --/:,(S (NP-SBJ (PRP You)) (ADVP (RB probably)) (VP (VBD got) (NP (PRP$ your) (NN worth)) (PP (IN out) (PP (IN of) (NP (PRP it)))) (ADVP (RB anyway))) (. .) (-DFL- E_S)),194
sw04utt/sw_0430_3633.utt,3/sw3633,3633,132,+,B,74,1,-- # {D you know. } # -/,--/:  [ you/PRP ] know/VBP ./.,"(S (EDITED (RM (-DFL- \[)) (S-UNF (NP-SBJ (PRP You)) (ADVP-TMP (RB never))) (, ,) (IP (-DFL- \+))) (NP-SBJ (PRP you)) (ADVP-TMP (RB always)) (RS (-DFL- \])) (VP (VBP think) (S-SEZ (INTJ (UH gosh)) (, ,) (SBAR-ADV (IN if) (S (NP-SBJ (PRP I)) (VP (VBP say) (INTJ-SEZ (UH no))))) (, ,) (ADVP (RB then)) (NP-SBJ (PRP I)) (VP-UNF (MD wo) (RB n't) (PRN (, ,) (S (NP-SBJ (PRP you)) (VP (VBP know))))))) (. .) (-DFL- E_S))",181
sw04utt/sw_0430_3633.utt,3/sw3633,3633,133,+,A,75,1,-- got your worth out of it anyway. /,--/: got/VBD  [ your/PRP$ worth/NN ] out/IN of/IN  [ it/PRP ] anyway/RB ./.,(S (NP-SBJ (PRP You)) (ADVP (RB probably)) (VP (VBD got) (NP (PRP$ your) (NN worth)) (PP (IN out) (PP (IN of) (NP (PRP it)))) (ADVP (RB anyway))) (. .) (-DFL- E_S)),194
sw04utt/sw_0430_3633.utt,3/sw3633,3633,134,aa,B,76,1,"Uh-huh,  /","[ Uh-huh/UH ] ,/,","(INTJ (UH Uh-huh) (, ,) (-DFL- E_S))",198
sw04utt/sw_0430_3633.utt,3/sw3633,3633,135,sd,B,76,2,"[ {C and, } + {F uh, } {C so }  ] we really have been fairly happy [ wi-, + with ] things,  /","and/CC ,/,  [ uh/UH ] ,/, so/RB  [ we/PRP ] really/RB have/VBP been/VBN fairly/RB  [ happy/JJ wi-/IN ] ,/, with/IN  [ things/NNS ] ,/,","(S (EDITED (RM (-DFL- \[)) (CC and) (, ,) (IP (-DFL- \+))) (INTJ (UH uh)) (, ,) (RB so) (RS (-DFL- \])) (NP-SBJ (PRP we)) (ADVP (RB really)) (VP (VBP have) (VP (VBN been) (ADJP-PRD (RB fairly) (JJ happy) (EDITED (RM (-DFL- \[)) (PP-UNF (IN wi-)) (, ,) (IP (-DFL- \+))) (PP (IN with) (RS (-DFL- \])) (NP (NNS things)))))) (, ,) (-DFL- E_S))",199
sw04utt/sw_0430_3633.utt,3/sw3633,3633,136,sd,B,76,3,{C but } {D now } we take good care of things  /,but/CC now/RB  [ we/PRP ] take/VBP  [ good/JJ care/NN ] of/IN  [ things/NNS ],(S (CC but) (ADVP-TMP (RB now)) (NP-SBJ (PRP we)) (VP (VBP take) (NP (JJ good) (NN care)) (PP (IN of) (NP (NNS things)))) (-DFL- E_S)),200
sw04utt/sw_0430_3633.utt,3/sw3633,3633,137,sd,B,76,4,"{C and } we don't, {F uh, } run out and buy a lot [ of, + of ] things either.  /","and/CC  [ we/PRP ] do/VBP n't/RB ,/,  [ uh/UH ] ,/, run/VB out/RB and/CC buy/VB  [ a/DT lot/NN ] of/IN ,/, of/IN  [ things/NNS ] either/RB ./.","(S (CC and) (NP-SBJ (PRP we)) (VP (VBP do) (RB n't) (, ,) (INTJ (UH uh)) (, ,) (VP (VP (VB run) (ADVP-DIR (RB out))) (CC and) (VP (VB buy) (NP (NP (DT a) (NN lot)) (EDITED (RM (-DFL- \[)) (PP-UNF (IN of)) (, ,) (IP (-DFL- \+))) (PP (IN of) (RS (-DFL- \])) (NP (NNS things))))) (ADVP (RB either)))) (. .) (-DFL- E_S))",201
sw04utt/sw_0430_3633.utt,3/sw3633,3633,138,sd,B,76,5,"{C And } since our kids aren't little anymore, I'm not buying a lot of  those little things # <laughter> that can get broken. # /","And/CC since/IN  [ our/PRP$ kids/NNS ] are/VBP n't/RB little/RB anymore/RB ,/,  [ I/PRP ] 'm/VBP not/RB buying/VBG  [ a/DT lot/NN ] of/IN  [ those/DT little/JJ things/NNS ] [ that/WDT ] can/MD get/VB broken/VBN ./.","(S (CC And) (SBAR-PRP (IN since) (S (NP-SBJ (PRP$ our) (NNS kids)) (VP (VBP are) (RB n't) (ADJP-PRD (RB little)) (ADVP-TMP (RB anymore))))) (, ,) (NP-SBJ (PRP I)) (VP (VBP 'm) (RB not) (VP (VBG buying) (NP (NP (DT a) (NN lot)) (PP (IN of) (NP (NP (DT those) (JJ little) (NNS things)) (SBAR (WHNP-1 (WDT that)) (S (NP-SBJ-2 (-NONE- *T*-1)) (VP (MD can) (VP (VB get) (VP (VBN broken) (NP (-NONE- *-2)))))))))))) (. .) (-DFL- E_S))",202
sw04utt/sw_0430_3633.utt,3/sw3633,3633,139,b,A,77,1,"# Yes,  /","Yes/UH ,/,","(INTJ (UH Yes) (, ,) (-DFL- E_S))",204
sw04utt/sw_0430_3633.utt,3/sw3633,3633,140,%,A,77,2,"the little, # - /","[ the/DT little/JJ ] ,/,","(NP-UNF (DT the) (JJ little) (, ,) (-DFL- N_S))",205
sw04utt/sw_0430_3633.utt,3/sw3633,3633,141,qy^d,A,77,3,"{D well, } you probably are real careful of the brands you buy  /","well/UH ,/,  [ you/PRP ] probably/RB are/VBP real/RB careful/JJ of/IN  [ the/DT brands/NNS you/PRP ] buy/VBP","(S (INTJ (UH well)) (, ,) (NP-SBJ (PRP you)) (ADVP (RB probably)) (VP (VBP are) (ADJP-PRD (RB real) (JJ careful) (PP (IN of) (NP (NP (DT the) (NNS brands)) (SBAR (WHNP-1 (-NONE- 0)) (S (NP-SBJ (PRP you)) (VP (VBP buy) (NP (-NONE- *T*-1))))))))) (-DFL- E_S))",206
sw04utt/sw_0430_3633.utt,3/sw3633,3633,142,qy^d,A,77,4,"{C and } [ the, + ] when you do buy things, you <child_yelling> probably watch what [ kind of, + # type of ] ((   )) . # -/","and/CC  [ the/DT ] ,/, when/WRB  [ you/PRP ] do/VBP buy/VB  [ things/NNS ] ,/,  [ you/PRP ] probably/RB watch/VBP  [ what/WDT kind/NN ] of/IN ,/,  [ type/NN ] of/IN  [ MUMBLEx/XX ] ./.","(S (CC and) (EDITED (RM (-DFL- \[)) (NP-SBJ-UNF (DT the)) (, ,) (IP (-DFL- \+)) (RS (-DFL- \]))) (SBAR-TMP (WHADVP-1 (WRB when)) (S (NP-SBJ (PRP you)) (VP (VBP do) (VP (VB buy) (NP (NNS things)) (ADVP-TMP (-NONE- *T*-1)))))) (, ,) (NP-SBJ (PRP you)) (ADVP (RB probably)) (VP (VBP watch) (SBAR (WHNP (WHNP (WDT what) (EDITED (RM (-DFL- \[)) (NN kind) (PP-UNF (IN of)) (, ,) (IP (-DFL- \+))) (NN type)) (PP-UNF (IN of) (RS (-DFL- \])) (X (XX MUMBLEx)))))) (. .) (-DFL- N_S))",207
sw04utt/sw_0430_3633.utt,3/sw3633,3633,143,nd,B,78,1,"# {D Well, } # you look at the consumer guide. /","Well/UH ,/,  [ you/PRP ] look/VBP at/IN  [ the/DT consumer/NN guide/NN ] ./.","(S (INTJ (UH Well)) (, ,) (NP-SBJ (PRP you)) (VP (VBP look) (PP (IN at) (NP (DT the) (NN consumer) (NN guide)))) (. .) (-DFL- E_S))",209
sw04utt/sw_0430_3633.utt,3/sw3633,3633,144,b,A,79,1,# Yes. # /,Yes/UH ./.,(INTJ (UH Yes) (. .) (-DFL- E_S)),178
sw04utt/sw_0430_3633.utt,3/sw3633,3633,145,sd,B,80,1,"# {C And, }  # {F uh, } you go around  /","And/CC ,/,  [ uh/UH ] ,/,  [ you/PRP ] go/VBP around/RB","(S (CC And) (, ,) (INTJ (UH uh)) (, ,) (NP-SBJ (PRP you)) (VP (VBP go) (ADVP-DIR (RB around))) (-DFL- E_S))",213
sw04utt/sw_0430_3633.utt,3/sw3633,3633,146,sd,B,80,2,"{C and } you look at the different ones and find the ones that have the, -/","and/CC  [ you/PRP ] look/VBP at/IN  [ the/DT different/JJ ones/NNS ] and/CC find/VBP  [ the/DT ones/NNS ] [ that/WDT ] have/VBP  [ the/DT ] ,/,","(S (CC and) (NP-SBJ (PRP you)) (VP (VP (VBP look) (PP (IN at) (NP (DT the) (JJ different) (NNS ones)))) (CC and) (VP (VBP find) (NP (NP (DT the) (NNS ones)) (SBAR (WHNP-1 (WDT that)) (S (NP-SBJ (-NONE- *T*-1)) (VP (VBP have) (NP-UNF (DT the)))))))) (, ,) (-DFL- N_S))",214
